v 2.549999952316284 1.5 1.0
v 2.6499998569488525 0.550000011920929 1.0
v 2.549999952316284 0.6499999761581421 1.0
v 3.5 1.5 1.0
v 3.5 0.550000011920929 1.0
v 2.612499952316284 0.512499988079071 0.9874999523162842
v 3.326937437057495 0.512499988079071 0.9874999523162842
v 3.5 0.4931921362876892 0.9874999523162842
v 2.513765573501587 0.6124839782714844 0.9862343668937683
v 2.5249998569488525 1.5 0.9749999642372131
v 2.513765573501587 0.6124839782714844 0.9862343668937683
v 2.612499952316284 0.512499988079071 0.9874999523162842
v 3.5 0.550000011920929 1.0
v 4.5 1.5 1.0
v 4.5 0.550000011920929 1.0
v 3.5 1.5 1.0
v 4.5 0.512499988079071 0.9874999523162842
v 4.0 0.512499988079071 0.9874999523162842
v 3.9075000286102295 0.4931921362876892 0.9874999523162842
v 3.5 0.4931921362876892 0.9874999523162842
v 4.0 0.512499988079071 0.9874999523162842
v 3.9075000286102295 0.4931921362876892 0.9874999523162842
v 4.5 0.550000011920929 1.0
v 5.5 1.5 1.0
v 5.5 0.550000011920929 1.0
v 4.5 1.5 1.0
v 5.5 0.512499988079071 0.9874999523162842
v 4.5 0.512499988079071 0.9874999523162842
v 1.5499999523162842 2.5 1.0
v 1.649999976158142 1.5499999523162842 1.0
v 1.5499999523162842 1.649999976158142 1.0
v 2.5 2.5 1.0
v 2.5 1.5499999523162842 1.0
v 1.513765573501587 1.6124839782714844 0.9862343668937683
v 1.524999976158142 2.5 0.9749999642372131
v 2.5 1.524999976158142 0.9749999642372131
v 1.6124839782714844 1.513765573501587 0.9862343668937683
v 2.5 2.5 1.0
v 2.549999952316284 1.5 1.0
v 2.5 1.5499999523162842 1.0
v 3.5 2.5 1.0
v 3.5 1.5 1.0
v 4.5 2.5 1.0
v 3.5 1.5 1.0
v 4.5 1.5 1.0
v 4.5 1.5 1.0
v 5.5 2.5 1.0
v 5.5 1.5 1.0
v 4.5 2.5 1.0
v 0.550000011920929 3.5 1.0
v 0.6499999761581421 2.549999952316284 1.0
v 0.550000011920929 2.6499998569488525 1.0
v 1.5 3.5 1.0
v 1.5 2.549999952316284 1.0
v 0.512499988079071 2.612499952316284 0.9874999523162842
v 0.512499988079071 3.5 0.9874999523162842
v 1.5 2.5249998569488525 0.9749999642372131
v 0.6124839782714844 2.513765573501587 0.9862343668937683
v 0.512499988079071 2.612499952316284 0.9874999523162842
v 1.5 3.5 1.0
v 1.5499999523162842 2.5 1.0
v 1.5 2.549999952316284 1.0
v 2.5 3.5 1.0
v 2.5 2.5 1.0
v 2.5 2.5 1.0
v 3.5 3.5 1.0
v 3.5 2.5 1.0
v 2.5 3.5 1.0
v 3.5 2.5 1.0
v 4.5 3.5 1.0
v 4.5 2.5 1.0
v 3.5 3.5 1.0
v 4.5 2.5 1.0
v 5.5 3.5 1.0
v 5.5 2.5 1.0
v 4.5 3.5 1.0
v 0.550000011920929 3.5 1.0
v 1.5 4.5 1.0
v 1.5 3.5 1.0
v 0.550000011920929 4.5 1.0
v 0.512499988079071 3.5 0.9874999523162842
v 0.512499988079071 4.5 0.9874999523162842
v 1.5 3.5 1.0
v 2.5 4.5 1.0
v 2.5 3.5 1.0
v 1.5 4.5 1.0
v 2.5 3.5 1.0
v 3.5 4.5 1.0
v 3.5 3.5 1.0
v 2.5 4.5 1.0
v 3.5 3.5 1.0
v 4.5 4.5 1.0
v 4.5 3.5 1.0
v 3.5 4.5 1.0
v 4.5 3.5 1.0
v 5.5 4.5 1.0
v 5.5 3.5 1.0
v 4.5 4.5 1.0
v 0.550000011920929 4.5 1.0
v 1.5 5.5 1.0
v 1.5 4.5 1.0
v 0.550000011920929 5.5 1.0
v 0.512499988079071 4.5 0.9874999523162842
v 0.512499988079071 5.5 0.9874999523162842
v 1.5 4.5 1.0
v 2.5 5.5 1.0
v 2.5 4.5 1.0
v 1.5 5.5 1.0
v 2.5 4.5 1.0
v 3.5 5.5 1.0
v 3.5 4.5 1.0
v 2.5 5.5 1.0
v 3.5 4.5 1.0
v 4.5 5.5 1.0
v 4.5 4.5 1.0
v 3.5 5.5 1.0
v 4.5 4.5 1.0
v 5.5 5.5 1.0
v 5.5 4.5 1.0
v 4.5 5.5 1.0
v 2.549999952316284 1.5 1.0
v 2.5 1.524999976158142 0.9749999642372131
v 2.5 1.5499999523162842 1.0
v 2.5249998569488525 1.5 0.9749999642372131
v 1.5499999523162842 2.5 1.0
v 1.5 2.5249998569488525 0.9749999642372131
v 1.5 2.549999952316284 1.0
v 1.524999976158142 2.5 0.9749999642372131
v 1.5 5.5 1.0
v 2.5 5.5 0.0
v 2.5 5.5 1.0
v 1.5 5.5 0.0
v 0.550000011920929 5.5 1.0
v 1.5 5.5 0.0
v 1.5 5.5 1.0
v 0.550000011920929 5.5 0.0
v 0.512499988079071 5.5 0.9874999523162842
v 0.512499988079071 5.5 0.0
v 0.5 5.5 0.949999988079071
v 0.512499988079071 5.5 0.0
v 0.512499988079071 5.5 0.9874999523162842
v 0.5 5.5 0.0
v 5.5 1.5 1.0
v 5.5 0.550000011920929 -0.0031249236781150103
v 5.5 0.550000011920929 1.0
v 5.5 1.5 -0.0031249236781150103
v 5.5 0.512499988079071 -0.0031249236781150103
v 5.5 0.512499988079071 0.9874999523162842
v 5.5 2.5 1.0
v 5.5 1.5 -0.0031249236781150103
v 5.5 1.5 1.0
v 5.5 2.5 -0.0031249236781150103
v 5.5 0.512499988079071 0.9874999523162842
v 5.5 0.5 -0.0031249236781150103
v 5.5 0.5 0.949999988079071
v 5.5 0.512499988079071 -0.0031249236781150103
v 2.612499952316284 0.512499988079071 0.9874999523162842
v 3.32450008392334 0.5 0.949999988079071
v 2.5999999046325684 0.5 0.949999988079071
v 3.326937437057495 0.512499988079071 0.9874999523162842
v 3.5 0.4806921184062958 0.949999988079071
v 3.32450008392334 0.5 0.4749999940395355
v 3.5 0.4691387712955475 0.4749999940395355
v 3.9075000286102295 0.4691387712955475 0.4749999940395355
v 3.9075000286102295 0.4806921184062958 0.949999988079071
v 3.9075000286102295 0.4931921362876892 0.9874999523162842
v 3.5 0.4931921362876892 0.9874999523162842
v 4.0 0.5 0.4749999940395355
v 4.0 0.5 0.949999988079071
v 4.5 0.5 0.949999988079071
v 4.5 0.5 0.4749999940395355
v 5.5 0.5 0.949999988079071
v 4.5 0.512499988079071 0.9874999523162842
v 5.5 0.512499988079071 0.9874999523162842
v 5.5 0.5 0.4749999940395355
v 4.0 0.512499988079071 0.9874999523162842
v 2.5999999046325684 0.5 0.4749999940395355
v 2.5 0.5999999642372131 0.4749999940395355
v 2.5 0.5999999642372131 0.949999988079071
v 2.5 1.4499999284744263 0.4749999940395355
v 2.5 1.4499999284744263 0.949999988079071
v 2.612499952316284 0.512499988079071 0.9874999523162842
v 2.513765573501587 0.6124839782714844 0.9862343668937683
v 2.5249998569488525 1.5 0.9749999642372131
v 2.5 1.4499999284744263 0.949999988079071
v 2.513765573501587 0.6124839782714844 0.9862343668937683
v 0.5 4.5 0.949999988079071
v 0.512499988079071 5.5 0.9874999523162842
v 0.512499988079071 4.5 0.9874999523162842
v 0.5 5.5 0.949999988079071
v 0.5 3.5 0.949999988079071
v 0.512499988079071 3.5 0.9874999523162842
v 0.5 2.5999999046325684 0.949999988079071
v 0.512499988079071 2.612499952316284 0.9874999523162842
v 0.5 5.5 0.4749999940395355
v 0.5 4.5 0.4749999940395355
v 0.5 3.5 0.4749999940395355
v 0.5 2.5999999046325684 0.4749999940395355
v 0.5999999642372131 2.5 0.949999988079071
v 0.6124839782714844 2.513765573501587 0.9862343668937683
v 1.5 2.5249998569488525 0.9749999642372131
v 1.4499999284744263 2.5 0.949999988079071
v 0.512499988079071 2.612499952316284 0.9874999523162842
v 0.5999999642372131 2.5 0.4749999940395355
v 1.4499999284744263 2.5 0.949999988079071
v 1.4499999284744263 2.5 0.4749999940395355
v 1.524999976158142 2.5 0.9749999642372131
v 1.5 1.5999999046325684 0.949999988079071
v 1.5 2.450000047683716 0.949999988079071
v 1.513765573501587 1.6124839782714844 0.9862343668937683
v 1.6124839782714844 1.513765573501587 0.9862343668937683
v 1.5999999046325684 1.5 0.949999988079071
v 2.5 1.524999976158142 0.9749999642372131
v 2.450000047683716 1.5 0.949999988079071
v 1.5 1.5999999046325684 0.4749999940395355
v 1.5 2.450000047683716 0.4749999940395355
v 1.5 2.450000047683716 0.949999988079071
v 1.5999999046325684 1.5 0.4749999940395355
v 2.450000047683716 1.5 0.949999988079071
v 2.450000047683716 1.5 0.4749999940395355
v 1.4499999284744263 2.5 0.4749999940395355
v 1.4499999284744263 2.5 0.949999988079071
v 2.5 1.4499999284744263 0.949999988079071
v 2.5 1.4499999284744263 0.4749999940395355
v 2.5249998569488525 1.5 0.9749999642372131
v 2.450000047683716 1.5 0.949999988079071
v 2.5 1.4499999284744263 0.949999988079071
v 1.5 2.450000047683716 0.949999988079071
v 1.5 2.5249998569488525 0.9749999642372131
v 1.4499999284744263 2.5 0.949999988079071
vn -0.2708451747894287 -0.13889054954051971 0.95255047082901
vn -0.05895450711250305 -0.10980274528265 0.9922034740447998
vn -0.18118028342723846 -0.061047423630952835 0.981553316116333
vn -0.0 0.0 1.0
vn -0.0005704846698790789 -0.17994284629821777 0.9836769104003906
vn -0.23790380358695984 -0.649736762046814 0.7219722867012024
vn -0.052520446479320526 -0.7590678930282593 0.6488894820213318
vn -0.0371745303273201 -0.6679477095603943 0.7432792782783508
vn -0.5540680289268494 -0.1714654564857483 0.8146215081214905
vn -0.6340850591659546 -0.20582763850688934 0.7453665137290955
vn -0.44290655851364136 -0.20326165854930878 0.8732230067253113
vn -0.3201579451560974 -0.4540344178676605 0.831475555896759
vn -0.0005704846698790789 -0.17994284629821777 0.9836769104003906
vn -0.0 0.0 1.0
vn -0.0 -0.16018226742744446 0.9870874881744385
vn -0.0 0.0 1.0
vn -0.0 -0.7071067690849304 0.7071068286895752
vn 0.048989467322826385 -0.744854748249054 0.6654257774353027
vn 0.07820110768079758 -0.780678391456604 0.6200208067893982
vn -0.0371745303273201 -0.6679477095603943 0.7432792782783508
vn 0.009222174063324928 -0.2033892124891281 0.9790545701980591
vn 0.00917819980531931 -0.15164776146411896 0.9883920550346375
vn -0.0 -0.16018226742744446 0.9870874881744385
vn -0.0 0.0 1.0
vn -0.0 -0.16018226742744446 0.9870874881744385
vn -0.0 0.0 1.0
vn -0.0 -0.5812381505966187 0.8137334585189819
vn -0.0 -0.7071067690849304 0.7071068286895752
vn -0.2708451747894287 -0.13889054954051971 0.95255047082901
vn -0.05115716531872749 -0.21353448927402496 0.975595235824585
vn -0.18118028342723846 -0.061047423630952835 0.981553316116333
vn -0.0 0.0 1.0
vn -0.16155855357646942 -0.3594265580177307 0.9190818667411804
vn -0.5545854568481445 -0.17739853262901306 0.8129974007606506
vn -0.6935826539993286 -0.18140637874603271 0.6971619725227356
vn -0.2194930762052536 -0.6440524458885193 0.7328160405158997
vn -0.3185880780220032 -0.6219466328620911 0.7153209447860718
vn -0.0 0.0 1.0
vn -0.2708451747894287 -0.13889054954051971 0.95255047082901
vn -0.16155855357646942 -0.3594265580177307 0.9190818667411804
vn -0.0 0.0 1.0
vn -0.0 0.0 1.0
vn -0.0 0.0 1.0
vn -0.0 0.0 1.0
vn -0.0 0.0 1.0
vn -0.0 0.0 1.0
vn -0.0 0.0 1.0
vn -0.0 0.0 1.0
vn -0.0 0.0 1.0
vn -0.13726218044757843 0.0 0.9905347228050232
vn -0.04736192151904106 -0.21184077858924866 0.9761559367179871
vn -0.16134588420391083 -0.054705407470464706 0.9853805899620056
vn -0.0 0.0 1.0
vn -0.16155855357646942 -0.3594265580177307 0.9190818667411804
vn -0.47781404852867126 -0.18674211204051971 0.8583829402923584
vn -0.7071067690849304 0.0 0.7071068286895752
vn -0.23252582550048828 -0.6036792993545532 0.7625634074211121
vn -0.3182608187198639 -0.6284712553024292 0.7097422480583191
vn -0.3433585464954376 -0.2137206345796585 0.9145646095275879
vn -0.0 0.0 1.0
vn -0.2708451747894287 -0.13889054954051971 0.95255047082901
vn -0.16155855357646942 -0.3594265580177307 0.9190818667411804
vn -0.0 0.0 1.0
vn -0.0 0.0 1.0
vn -0.0 0.0 1.0
vn -0.0 0.0 1.0
vn -0.0 0.0 1.0
vn -0.0 0.0 1.0
vn -0.0 0.0 1.0
vn -0.0 0.0 1.0
vn -0.0 0.0 1.0
vn -0.0 0.0 1.0
vn -0.0 0.0 1.0
vn -0.0 0.0 1.0
vn -0.0 0.0 1.0
vn -0.0 0.0 1.0
vn -0.13726218044757843 0.0 0.9905347228050232
vn -0.0 0.0 1.0
vn -0.0 0.0 1.0
vn -0.16018226742744446 0.0 0.9870874881744385
vn -0.7071067690849304 0.0 0.7071068286895752
vn -0.7071067690849304 0.0 0.7071068286895752
vn -0.0 0.0 1.0
vn -0.0 0.0 1.0
vn -0.0 0.0 1.0
vn -0.0 0.0 1.0
vn -0.0 0.0 1.0
vn -0.0 0.0 1.0
vn -0.0 0.0 1.0
vn -0.0 0.0 1.0
vn -0.0 0.0 1.0
vn -0.0 0.0 1.0
vn -0.0 0.0 1.0
vn -0.0 0.0 1.0
vn -0.0 0.0 1.0
vn -0.0 0.0 1.0
vn -0.0 0.0 1.0
vn -0.0 0.0 1.0
vn -0.16018226742744446 0.0 0.9870874881744385
vn -0.0 0.0 1.0
vn -0.0 0.0 1.0
vn -0.2132645845413208 0.0 0.976994514465332
vn -0.7071067690849304 0.0 0.7071068286895752
vn -0.8137334585189819 0.0 0.5812382698059082
vn -0.0 0.0 1.0
vn -0.0 0.0 1.0
vn -0.0 0.0 1.0
vn -0.0 0.0 1.0
vn -0.0 0.0 1.0
vn -0.0 0.0 1.0
vn -0.0 0.0 1.0
vn -0.0 0.0 1.0
vn -0.0 0.0 1.0
vn -0.0 0.0 1.0
vn -0.0 0.0 1.0
vn -0.0 0.0 1.0
vn -0.0 0.0 1.0
vn -0.0 0.0 1.0
vn -0.0 0.0 1.0
vn -0.0 0.0 1.0
vn -0.2708451747894287 -0.13889054954051971 0.95255047082901
vn -0.2194930762052536 -0.6440524458885193 0.7328160405158997
vn -0.16155855357646942 -0.3594265580177307 0.9190818667411804
vn -0.6340850591659546 -0.20582763850688934 0.7453665137290955
vn -0.2708451747894287 -0.13889054954051971 0.95255047082901
vn -0.23252582550048828 -0.6036792993545532 0.7625634074211121
vn -0.16155855357646942 -0.3594265580177307 0.9190818667411804
vn -0.6935826539993286 -0.18140637874603271 0.6971619725227356
vn -0.0 1.0 0.0
vn -0.0 1.0 0.0
vn -0.0 1.0 0.0
vn -0.0 1.0 0.0
vn -0.0 1.0 0.0
vn -0.0 1.0 0.0
vn -0.0 1.0 0.0
vn -0.0 1.0 0.0
vn -0.0 1.0 0.0
vn -0.0 1.0 0.0
vn -0.0 1.0 0.0
vn -0.0 1.0 0.0
vn -0.0 1.0 0.0
vn -0.0 1.0 0.0
vn 1.0 0.0 0.0
vn 1.0 0.0 0.0
vn 1.0 0.0 0.0
vn 1.0 0.0 0.0
vn 1.0 0.0 0.0
vn 1.0 0.0 0.0
vn 1.0 0.0 0.0
vn 1.0 0.0 0.0
vn 1.0 0.0 0.0
vn 1.0 0.0 0.0
vn 1.0 0.0 0.0
vn 1.0 0.0 0.0
vn 1.0 0.0 0.0
vn 1.0 0.0 0.0
vn -0.24261066317558289 -0.7211167216300964 0.6489458680152893
vn -0.04318790137767792 -0.9801905751228333 0.1932906210422516
vn -0.37626367807388306 -0.916469156742096 0.13605135679244995
vn -0.052520446479320526 -0.7590678930282593 0.6488894820213318
vn -0.062269095331430435 -0.9835032224655151 0.16983531415462494
vn -0.07082438468933105 -0.9974707365036011 0.006004068069159985
vn -0.08689896017313004 -0.9959225654602051 0.024223659187555313
vn 0.10669202357530594 -0.9939981698989868 0.02417684718966484
vn 0.14574690163135529 -0.9797404408454895 0.13735516369342804
vn 0.08495951443910599 -0.8689459562301636 0.487559974193573
vn -0.0371745303273201 -0.6679477095603943 0.7432792782783508
vn 0.1314416378736496 -0.9913068413734436 0.005822377745062113
vn 0.12060599774122238 -0.9742406010627747 0.19055025279521942
vn -0.0 -0.9870874881744385 0.16018226742744446
vn -0.0 -1.0 0.0
vn -0.0 -0.9870874881744385 0.16018226742744446
vn -0.0 -0.7071067690849304 0.7071068286895752
vn -0.0 -0.5812381505966187 0.8137334585189819
vn -0.0 -1.0 0.0
vn 0.05286634713411331 -0.8557146787643433 0.5147402882575989
vn -0.3826834261417389 -0.9238795042037964 0.0
vn -0.8628562092781067 -0.5054493546485901 0.0
vn -0.8982726335525513 -0.3117676377296448 0.30968886613845825
vn -0.9675382375717163 -0.25272470712661743 0.0
vn -0.8920738101005554 -0.40418243408203125 0.20209121704101562
vn -0.23790380358695984 -0.649736762046814 0.7219722867012024
vn -0.5540680289268494 -0.1714654564857483 0.8146215081214905
vn -0.6340850591659546 -0.20582763850688934 0.7453665137290955
vn -0.8239568471908569 -0.4130157232284546 0.3879602253437042
vn -0.626719057559967 -0.17111684381961823 0.7602251768112183
vn -0.9870874881744385 0.0 0.16018223762512207
vn -0.8137334585189819 0.0 0.5812382698059082
vn -0.7071067690849304 0.0 0.7071068286895752
vn -0.9870874881744385 0.0 0.16018226742744446
vn -0.9870874881744385 0.0 0.16018223762512207
vn -0.7071067690849304 0.0 0.7071068286895752
vn -0.9202274084091187 -0.3110102117061615 0.2376006543636322
vn -0.6315628290176392 -0.18436779081821442 0.7530849575996399
vn -1.0 0.0 0.0
vn -1.0 0.0 0.0
vn -1.0 0.0 0.0
vn -0.8628562092781067 -0.5054493546485901 0.0
vn -0.3806144893169403 -0.8800109028816223 0.2841012179851532
vn -0.3182608187198639 -0.6284712553024292 0.7097422480583191
vn -0.23252582550048828 -0.6036792993545532 0.7625634074211121
vn -0.24164971709251404 -0.8902319073677063 0.38612493872642517
vn -0.47781404852867126 -0.18674211204051971 0.8583829402923584
vn -0.25272470712661743 -0.9675382375717163 0.0
vn -0.19875682890415192 -0.9596829414367676 0.19875682890415192
vn -0.5054493546485901 -0.8628562092781067 0.0
vn -0.6935826539993286 -0.18140637874603271 0.6971619725227356
vn -0.8965774178504944 -0.3115960657596588 0.31473296880722046
vn -0.7559705376625061 -0.4094604551792145 0.5107354521751404
vn -0.5545854568481445 -0.17739853262901306 0.8129974007606506
vn -0.3185880780220032 -0.6219466328620911 0.7153209447860718
vn -0.3806144893169403 -0.8800109028816223 0.2841012179851532
vn -0.2194930762052536 -0.6440524458885193 0.7328160405158997
vn -0.2664000391960144 -0.8168597221374512 0.5116357803344727
vn -0.8628562092781067 -0.5054493546485901 0.0
vn -0.9675382375717163 -0.25272470712661743 0.0
vn -0.8920738101005554 -0.40418243408203125 0.20209121704101562
vn -0.25272470712661743 -0.9675382375717163 0.0
vn -0.19875682890415192 -0.9596829414367676 0.19875682890415192
vn -0.5054493546485901 -0.8628562092781067 0.0
vn -0.5054493546485901 -0.8628562092781067 0.0
vn -0.19875682890415192 -0.9596829414367676 0.19875682890415192
vn -0.8920738101005554 -0.40418243408203125 0.20209121704101562
vn -0.9675382375717163 -0.25272470712661743 0.0
vn -0.6340850591659546 -0.20582763850688934 0.7453665137290955
vn -0.20792388916015625 -0.4517362117767334 0.8675839900970459
vn -0.5239588618278503 -0.15662968158721924 0.837218165397644
vn -0.4517362117767334 -0.20792388916015625 0.8675839900970459
vn -0.23252582550048828 -0.6036792993545532 0.7625634074211121
vn -0.15662968158721924 -0.5239588618278503 0.837218165397644
vt 0.7626984715461731 0.000802159309387207
vt 0.7805349230766296 0.23726415634155273
vt 0.7626984715461731 0.2180544137954712
vt 0.99919593334198 0.000802159309387207
vt 0.99919593334198 0.23726415634155273
vt 0.7696144580841064 0.24948060512542725
vt 0.9544275403022766 0.24948060512542725
vt 0.99919593334198 0.24948060512542725
vt 0.750963032245636 0.22742164134979248
vt 0.750963032245636 0.000802159309387207
vt 0.750963032245636 0.22742164134979248
vt 0.7696144580841064 0.24948060512542725
vt 0.750963032245636 0.48694998025894165
vt 0.99919593334198 0.2504879832267761
vt 0.99919593334198 0.48694998025894165
vt 0.750963032245636 0.2504879832267761
vt 0.99919593334198 0.49916642904281616
vt 0.8750795125961304 0.49916642904281616
vt 0.8521179556846619 0.49916642904281616
vt 0.750963032245636 0.49916642904281616
vt 0.8750795125961304 0.49916642904281616
vt 0.8521179556846619 0.49916642904281616
vt 0.750963032245636 0.23726415634155273
vt 0.99919593334198 0.000802159309387207
vt 0.99919593334198 0.23726415634155273
vt 0.750963032245636 0.000802159309387207
vt 0.99919593334198 0.24948060512542725
vt 0.750963032245636 0.24948060512542725
vt 0.7626984715461731 0.000802159309387207
vt 0.7805349230766296 0.23726415634155273
vt 0.7626984715461731 0.2180544137954712
vt 0.99919593334198 0.000802159309387207
vt 0.99919593334198 0.23726415634155273
vt 0.750963032245636 0.22742164134979248
vt 0.750963032245636 0.000802159309387207
vt 0.99919593334198 0.24948060512542725
vt 0.7696144580841064 0.24948060512542725
vt 0.0020732239354401827 0.5002970397472382
vt 0.01378607377409935 0.7479413449764252
vt 0.0020732239354401827 0.7357757389545441
vt 0.24982810020446777 0.5002970397472382
vt 0.24982810020446777 0.7479413449764252
vt 0.49935656785964966 0.5007906258106232
vt 0.24999719858169556 0.7500386834144592
vt 0.49935656785964966 0.7500386834144592
vt 0.5014198422431946 0.7494035959243774
vt 0.7496528029441833 0.5007251501083374
vt 0.7496528029441833 0.7494035959243774
vt 0.5014198422431946 0.5007251501083374
vt 0.7626984715461731 0.5007622241973877
vt 0.7805349230766296 0.7372242212295532
vt 0.7626984715461731 0.7180144786834717
vt 0.99919593334198 0.5007622241973877
vt 0.99919593334198 0.7372242212295532
vt 0.750963032245636 0.727381706237793
vt 0.750963032245636 0.5007622241973877
vt 0.99919593334198 0.7494406700134277
vt 0.7696144580841064 0.7494406700134277
vt 0.750963032245636 0.727381706237793
vt 0.0009735688217915595 0.5003279447555542
vt 0.012756654992699623 0.7494573295116425
vt 0.0009735688217915595 0.7372187674045563
vt 0.2502140998840332 0.5003279447555542
vt 0.2502140998840332 0.7494573295116425
vt 0.0019959101919084787 0.9980863928794861
vt 0.2497507780790329 0.7504420876502991
vt 0.2497507780790329 0.9980863928794861
vt 0.0019959101919084787 0.7504420876502991
vt 0.7507028579711914 0.9991244135308079
vt 0.9989357590675354 0.7504459768533707
vt 0.9989357590675354 0.9991244135308079
vt 0.7507028579711914 0.7504459768533707
vt 0.5010390281677246 0.24948060512542725
vt 0.7492719292640686 0.000802159309387207
vt 0.7492719292640686 0.24948060512542725
vt 0.5010390281677246 0.000802159309387207
vt 0.7626984715461731 0.24948060512542725
vt 0.99919593334198 0.000802159309387207
vt 0.99919593334198 0.24948060512542725
vt 0.7626984715461731 0.000802159309387207
vt 0.750963032245636 0.24948060512542725
vt 0.750963032245636 0.000802159309387207
vt 0.0024073366075754166 0.250124454498291
vt 0.24985657632350922 0.0004127621650695801
vt 0.24985657632350922 0.250124454498291
vt 0.0024073366075754166 0.0004127621650695801
vt 0.25174158811569214 0.2494099736213684
vt 0.4994964003562927 0.0009970664978027344
vt 0.4994964003562927 0.2494099736213684
vt 0.25174158811569214 0.0009970664978027344
vt 0.5013676881790161 0.2493571639060974
vt 0.7496005892753601 0.000678718090057373
vt 0.7496005892753601 0.2493571639060974
vt 0.5013676881790161 0.000678718090057373
vt 0.750963032245636 0.24948060512542725
vt 0.99919593334198 0.000802159309387207
vt 0.99919593334198 0.24948060512542725
vt 0.750963032245636 0.000802159309387207
vt 0.7626984715461731 0.24948060512542725
vt 0.99919593334198 0.000802159309387207
vt 0.99919593334198 0.24948060512542725
vt 0.7626984715461731 0.000802159309387207
vt 0.750963032245636 0.24948060512542725
vt 0.750963032245636 0.000802159309387207
vt 0.750963032245636 0.24948060512542725
vt 0.99919593334198 0.000802159309387207
vt 0.99919593334198 0.24948060512542725
vt 0.750963032245636 0.000802159309387207
vt 0.750963032245636 0.24948060512542725
vt 0.99919593334198 0.000802159309387207
vt 0.99919593334198 0.24948060512542725
vt 0.750963032245636 0.000802159309387207
vt 0.750963032245636 0.24948060512542725
vt 0.99919593334198 0.000802159309387207
vt 0.99919593334198 0.24948060512542725
vt 0.750963032245636 0.000802159309387207
vt 0.750963032245636 0.24948060512542725
vt 0.99919593334198 0.000802159309387207
vt 0.99919593334198 0.24948060512542725
vt 0.750963032245636 0.000802159309387207
vt 0.8224753141403198 0.021395385265350342
vt 0.8087038993835449 0.02771604061126709
vt 0.8060770630836487 0.021395385265350342
vt 0.819536566734314 0.02771604061126709
vt 0.824874222278595 0.00915074348449707
vt 0.8129757642745972 0.01530522108078003
vt 0.8172308802604675 0.00915074348449707
vt 0.8288848400115967 0.01530522108078003
vt 0.750963032245636 0.000802159309387207
vt 0.99919593334198 0.000802159309387207
vt 0.99919593334198 0.000802159309387207
vt 0.750963032245636 0.000802159309387207
vt 0.7626984715461731 0.000802159309387207
vt 0.99919593334198 0.000802159309387207
vt 0.99919593334198 0.000802159309387207
vt 0.7626984715461731 0.000802159309387207
vt 0.750963032245636 0.000802159309387207
vt 0.750963032245636 0.000802159309387207
vt -2.122899055480957 0.5260993540287018
vt -2.122899055480957 0.5003542900085449
vt -2.122899055480957 0.5003542900085449
vt -2.122899055480957 0.5260993540287018
vt 0.99919593334198 0.000802159309387207
vt 0.99919593334198 0.23726415634155273
vt 0.99919593334198 0.23726415634155273
vt 0.99919593334198 0.000802159309387207
vt 0.99919593334198 0.24948060512542725
vt 0.99919593334198 0.24948060512542725
vt 0.7496528029441833 0.5007251501083374
vt 0.7496528029441833 0.7494035959243774
vt 0.7496528029441833 0.7494035959243774
vt 0.7496528029441833 0.5007251501083374
vt 1.9658489227294922 0.5003542900085449
vt 1.9658489227294922 0.5260993540287018
vt 1.9658489227294922 0.5260993540287018
vt 1.9658489227294922 0.5003542900085449
vt 0.7741395831108093 0.5003542900085449
vt 1.065627098083496 0.5260993540287018
vt 0.7729039192199707 0.5260993540287018
vt 1.0658680200576782 0.5003542900085449
vt 1.1365351676940918 0.5260993540287018
vt 1.065627098083496 0.7468043267726898
vt 1.1365351676940918 0.7468043267726898
vt 1.305507779121399 0.7468043267726898
vt 1.305507779121399 0.5260993540287018
vt 1.305507779121399 0.5003542900085449
vt 1.1365351676940918 0.5003542900085449
vt 1.3438634872436523 0.7468043267726898
vt 1.3438634872436523 0.5260993540287018
vt 1.5511919260025024 0.5260993540287018
vt 1.5511919260025024 0.7468043267726898
vt 1.9658489227294922 0.5260993540287018
vt 1.5511919260025024 0.5003542900085449
vt 1.9658489227294922 0.5003542900085449
vt 1.9658489227294922 0.7468043267726898
vt 1.3438634872436523 0.5003542900085449
vt 0.7729039192199707 0.7468043267726898
vt 0.6919496059417725 0.7468043267726898
vt 0.6919496059417725 0.5260993540287018
vt 0.3472672998905182 0.7468043267726898
vt 0.3472672998905182 0.5260993540287018
vt 0.7741395831108093 0.5003542900085449
vt 0.6925156116485596 0.5003542900085449
vt 0.33043357729911804 0.5003542900085449
vt 0.3472672998905182 0.5260993540287018
vt 0.6925156116485596 0.5003542900085449
vt -1.6936533451080322 0.5260993540287018
vt -2.122899055480957 0.5003542900085449
vt -1.6919325590133667 0.5003542900085449
vt -2.122899055480957 0.5260993540287018
vt -1.2891546487808228 0.5260993540287018
vt -1.2874336242675781 0.5003542900085449
vt -0.9207844138145447 0.5260993540287018
vt -0.9204040765762329 0.5003542900085449
vt -2.122899055480957 0.7468043267726898
vt -1.6936533451080322 0.7468043267726898
vt -1.2891546487808228 0.7468043267726898
vt -0.9207844138145447 0.7468043267726898
vt -0.8384153842926025 0.5260993540287018
vt -0.8373586535453796 0.5003542900085449
vt -0.4672940969467163 0.5003542900085449
vt -0.48618364334106445 0.5260993540287018
vt -0.9204040765762329 0.5003542900085449
vt -0.8384153842926025 0.7468043267726898
vt -0.48618364334106445 0.5260993540287018
vt -0.48618364334106445 0.7468043267726898
vt -0.4620223939418793 0.5003542900085449
vt -0.084994375705719 0.5260993540287018
vt -0.44432690739631653 0.5260993540287018
vt -0.084449902176857 0.5003542900085449
vt -0.00474780797958374 0.5003542900085449
vt -0.005748778581619263 0.5260993540287018
vt 0.3251619040966034 0.5003542900085449
vt 0.3085062503814697 0.5260993540287018
vt -0.084994375705719 0.7468043267726898
vt -0.44432690739631653 0.7468043267726898
vt -0.44432690739631653 0.5260993540287018
vt -0.005748778581619263 0.7468043267726898
vt 0.3085062503814697 0.5260993540287018
vt 0.3085062503814697 0.7468043267726898
vt -0.48618364334106445 0.7468043267726898
vt -0.48618364334106445 0.5260993540287018
vt 0.3472672998905182 0.5260993540287018
vt 0.3472672998905182 0.7468043267726898
vt 0.33043357729911804 0.5003542900085449
vt 0.3085062503814697 0.5260993540287018
vt 0.3472672998905182 0.5260993540287018
vt -0.44432690739631653 0.5260993540287018
vt -0.4672940969467163 0.5003542900085449
vt -0.48618364334106445 0.5260993540287018

g bg_mdl_map_forestground01
s 1
usemtl bg_mdl_map_forestground01_0
f 3/3/3 2/2/2 1/1/1 
f 2/2/2 4/4/4 1/1/1 
f 5/5/5 4/4/4 2/2/2 
f 6/6/6 5/5/5 2/2/2 
f 7/7/7 5/5/5 6/6/6 
f 8/8/8 5/5/5 7/7/7 
f 3/3/3 1/1/1 9/9/9 
f 3/3/3 9/9/9 2/2/2 
f 10/10/10 9/9/9 1/1/1 
f 12/12/12 2/2/2 11/11/11 
f 15/15/15 14/14/14 13/13/13 
f 16/16/16 13/13/13 14/14/14 
f 17/17/17 15/15/15 13/13/13 
f 18/18/18 17/17/17 13/13/13 
f 20/20/20 19/19/19 13/13/13 
f 22/22/22 21/21/21 13/13/13 
f 25/25/25 24/24/24 23/23/23 
f 26/26/26 23/23/23 24/24/24 
f 25/25/25 23/23/23 27/27/27 
f 28/28/28 27/27/27 23/23/23 
f 31/31/31 30/30/30 29/29/29 
f 30/30/30 32/32/32 29/29/29 
f 33/33/33 32/32/32 30/30/30 
f 31/31/31 29/29/29 34/34/34 
f 31/31/31 34/34/34 30/30/30 
f 35/35/35 34/34/34 29/29/29 
f 33/33/33 30/30/30 36/36/36 
f 37/37/37 36/36/36 30/30/30 
f 37/37/37 30/30/30 34/34/34 
f 40/40/40 39/39/39 38/38/38 
f 39/39/39 41/41/41 38/38/38 
f 42/42/42 41/41/41 39/39/39 
f 41/41/41 44/44/44 43/43/43 
f 45/45/45 43/43/43 44/44/44 
f 48/48/48 47/47/47 46/46/46 
f 49/49/49 46/46/46 47/47/47 
f 52/52/52 51/51/51 50/50/50 
f 51/51/51 53/53/53 50/50/50 
f 54/54/54 53/53/53 51/51/51 
f 52/52/52 50/50/50 55/55/55 
f 56/56/56 55/55/55 50/50/50 
f 54/54/54 51/51/51 57/57/57 
f 58/58/58 57/57/57 51/51/51 
f 52/52/52 59/59/59 51/51/51 
f 58/58/58 51/51/51 59/59/59 
f 62/62/62 61/61/61 60/60/60 
f 61/61/61 63/63/63 60/60/60 
f 64/64/64 63/63/63 61/61/61 
f 67/67/67 66/66/66 65/65/65 
f 68/68/68 65/65/65 66/66/66 
f 71/71/71 70/70/70 69/69/69 
f 72/72/72 69/69/69 70/70/70 
f 75/75/75 74/74/74 73/73/73 
f 76/76/76 73/73/73 74/74/74 
f 79/79/79 78/78/78 77/77/77 
f 80/80/80 77/77/77 78/78/78 
f 77/77/77 80/80/80 81/81/81 
f 82/82/82 81/81/81 80/80/80 
f 85/85/85 84/84/84 83/83/83 
f 86/86/86 83/83/83 84/84/84 
f 89/89/89 88/88/88 87/87/87 
f 90/90/90 87/87/87 88/88/88 
f 93/93/93 92/92/92 91/91/91 
f 94/94/94 91/91/91 92/92/92 
f 97/97/97 96/96/96 95/95/95 
f 98/98/98 95/95/95 96/96/96 
f 101/101/101 100/100/100 99/99/99 
f 102/102/102 99/99/99 100/100/100 
f 99/99/99 102/102/102 103/103/103 
f 104/104/104 103/103/103 102/102/102 
f 107/107/107 106/106/106 105/105/105 
f 108/108/108 105/105/105 106/106/106 
f 111/111/111 110/110/110 109/109/109 
f 112/112/112 109/109/109 110/110/110 
f 115/115/115 114/114/114 113/113/113 
f 116/116/116 113/113/113 114/114/114 
f 119/119/119 118/118/118 117/117/117 
f 120/120/120 117/117/117 118/118/118 
f 123/123/123 122/122/122 121/121/121 
f 124/124/124 121/121/121 122/122/122 
f 127/127/127 126/126/126 125/125/125 
f 128/128/128 125/125/125 126/126/126 
f 131/131/131 130/130/130 129/129/129 
f 132/132/132 129/129/129 130/130/130 
f 135/135/135 134/134/134 133/133/133 
f 136/136/136 133/133/133 134/134/134 
f 133/133/133 136/136/136 137/137/137 
f 138/138/138 137/137/137 136/136/136 
f 141/141/141 140/140/140 139/139/139 
f 142/142/142 139/139/139 140/140/140 
f 145/145/145 144/144/144 143/143/143 
f 146/146/146 143/143/143 144/144/144 
f 144/144/144 145/145/145 147/147/147 
f 148/148/148 147/147/147 145/145/145 
f 151/151/151 150/150/150 149/149/149 
f 152/152/152 149/149/149 150/150/150 
f 155/155/155 154/154/154 153/153/153 
f 156/156/156 153/153/153 154/154/154 

usemtl bg_mdl_map_forestground01_1
f 159/159/159 158/158/158 157/157/157 
f 160/160/160 157/157/157 158/158/158 
f 158/158/158 161/161/161 160/160/160 
f 158/158/158 162/162/162 161/161/161 
f 158/158/158 159/159/159 162/162/162 
f 163/163/163 161/161/161 162/162/162 
f 163/163/163 164/164/164 161/161/161 
f 165/165/165 161/161/161 164/164/164 
f 165/165/165 166/166/166 161/161/161 
f 167/167/167 161/161/161 166/166/166 
f 167/167/167 160/160/160 161/161/161 
f 164/164/164 168/168/168 165/165/165 
f 169/169/169 165/165/165 168/168/168 
f 165/165/165 169/169/169 166/166/166 
f 169/169/169 168/168/168 170/170/170 
f 171/171/171 170/170/170 168/168/168 
f 170/170/170 171/171/171 172/172/172 
f 170/170/170 172/172/172 173/173/173 
f 174/174/174 173/173/173 172/172/172 
f 175/175/175 172/172/172 171/171/171 
f 173/173/173 176/176/176 170/170/170 
f 169/169/169 170/170/170 176/176/176 
f 176/176/176 166/166/166 169/169/169 
f 177/177/177 162/162/162 159/159/159 
f 177/177/177 159/159/159 178/178/178 
f 179/179/179 178/178/178 159/159/159 
f 178/178/178 179/179/179 180/180/180 
f 181/181/181 180/180/180 179/179/179 
f 159/159/159 182/182/182 179/179/179 
f 183/183/183 179/179/179 182/182/182 
f 185/185/185 179/179/179 184/184/184 
f 186/186/186 184/184/184 179/179/179 
f 189/189/189 188/188/188 187/187/187 
f 190/190/190 187/187/187 188/188/188 
f 187/187/187 191/191/191 189/189/189 
f 192/192/192 189/189/189 191/191/191 
f 191/191/191 193/193/193 192/192/192 
f 194/194/194 192/192/192 193/193/193 
f 190/190/190 195/195/195 187/187/187 
f 196/196/196 187/187/187 195/195/195 
f 187/187/187 196/196/196 191/191/191 
f 197/197/197 191/191/191 196/196/196 
f 191/191/191 197/197/197 193/193/193 
f 198/198/198 193/193/193 197/197/197 
f 193/193/193 198/198/198 199/199/199 
f 199/199/199 200/200/200 193/193/193 
f 200/200/200 199/199/199 201/201/201 
f 202/202/202 201/201/201 199/199/199 
f 203/203/203 193/193/193 200/200/200 
f 204/204/204 199/199/199 198/198/198 
f 199/199/199 204/204/204 205/205/205 
f 206/206/206 205/205/205 204/204/204 
f 209/209/209 208/208/208 207/207/207 
f 210/210/210 207/207/207 208/208/208 
f 210/210/210 208/208/208 211/211/211 
f 212/212/212 211/211/211 208/208/208 
f 211/211/211 212/212/212 213/213/213 
f 214/214/214 213/213/213 212/212/212 
f 208/208/208 215/215/215 212/212/212 
f 215/215/215 208/208/208 216/216/216 
f 217/217/217 216/216/216 208/208/208 
f 218/218/218 212/212/212 215/215/215 
f 212/212/212 218/218/218 219/219/219 
f 220/220/220 219/219/219 218/218/218 
f 216/216/216 217/217/217 221/221/221 
f 222/222/222 221/221/221 217/217/217 
f 219/219/219 220/220/220 223/223/223 
f 224/224/224 223/223/223 220/220/220 
f 213/213/213 226/226/226 225/225/225 
f 227/227/227 225/225/225 226/226/226 
f 207/207/207 229/229/229 228/228/228 
f 230/230/230 228/228/228 229/229/229 

