v -0.012113913893699646 -0.15092892944812775 -0.02098195068538189
v 0.012113952077925205 -0.15092892944812775 -0.02098194509744644
v -0.012113913893699646 -0.0193051528185606 -0.02098195068538189
v 0.012113952077925205 -0.0193051528185606 -0.02098194509744644
v -0.024227866902947426 -0.0193051528185606 -4.172325152040912e-09
v -0.024227866902947426 -0.15092892944812775 -4.172325152040912e-09
v -0.012113913893699646 -0.0193051528185606 0.02098194882273674
v -0.012113913893699646 -0.15092892944812775 0.02098194882273674
v 0.012113952077925205 -0.0193051528185606 0.02098194882273674
v 0.012113952077925205 -0.15092892944812775 0.02098194882273674
v 0.02422790415585041 -0.0193051528185606 0.0
v 0.02422790415585041 -0.15092892944812775 0.0
v 0.02422790415585041 -0.15092892944812775 0.0
v 0.02422790415585041 -0.0193051528185606 0.0
v -0.012113913893699646 -0.15092892944812775 -0.02098195068538189
v -0.0 -0.15092892944812775 0.0
v 0.012113952077925205 -0.15092892944812775 -0.02098194509744644
v -0.024227866902947426 -0.15092892944812775 -4.172325152040912e-09
v -0.012113913893699646 -0.15092892944812775 0.02098194882273674
v 0.012113952077925205 -0.15092892944812775 0.02098194882273674
v 0.02422790415585041 -0.15092892944812775 0.0
v 0.012113952077925205 -0.0193051528185606 -0.02098194509744644
v -0.0 -0.0193051528185606 0.0
v -0.012113913893699646 -0.0193051528185606 -0.02098195068538189
v -0.024227866902947426 -0.0193051528185606 -4.172325152040912e-09
v -0.012113913893699646 -0.0193051528185606 0.02098194882273674
v 0.012113952077925205 -0.0193051528185606 0.02098194882273674
v 0.02422790415585041 -0.0193051528185606 0.0
v 0.02256164513528347 0.013312358409166336 0.005945981480181217
v -0.02028549090027809 0.013312377966940403 0.005945981480181217
v -0.02028549090027809 0.013312377966940403 -0.005945981480181217
v 0.02256164513528347 0.013312358409166336 -0.005945981480181217
v -0.01259967777878046 0.0015431594802066684 -0.005945981480181217
v -0.010684279724955559 -0.013129157945513725 -0.005945981480181217
v 0.02692870981991291 -0.013129157945513725 -0.005945981480181217
v 0.02256164513528347 0.013312358409166336 -0.005945981480181217
v -0.02028549090027809 0.013312377966940403 -0.005945981480181217
v -0.010684279724955559 -0.013129157945513725 -0.005945981480181217
v -0.010684279724955559 -0.013129157945513725 0.005945981480181217
v 0.02692870981991291 -0.013129157945513725 -0.005945981480181217
v 0.02692870981991291 -0.013129157945513725 0.005945981480181217
v -0.01259967777878046 0.0015431594802066684 0.005945981480181217
v -0.010684279724955559 -0.013129157945513725 0.005945981480181217
v -0.010684279724955559 -0.013129157945513725 -0.005945981480181217
v -0.01259967777878046 0.0015431594802066684 -0.005945981480181217
v -0.02028549090027809 0.013312377966940403 0.005945981480181217
v 0.02256164513528347 0.013312358409166336 0.005945981480181217
v -0.01259967777878046 0.0015431594802066684 0.005945981480181217
v 0.02692870981991291 -0.013129157945513725 0.005945981480181217
v -0.010684279724955559 -0.013129157945513725 0.005945981480181217
v 0.02256164513528347 0.013312358409166336 0.005945981480181217
v 0.02692870981991291 -0.013129157945513725 -0.005945981480181217
v 0.02692870981991291 -0.013129157945513725 0.005945981480181217
v 0.02256164513528347 0.013312358409166336 -0.005945981480181217
v -0.02028549090027809 0.013312377966940403 0.005945981480181217
v -0.01841484010219574 0.0015431594802066684 0.005945981480181217
v -0.01841484010219574 0.0015431594802066684 -0.005945981480181217
v -0.02028549090027809 0.013312377966940403 -0.005945981480181217
v -0.01841484010219574 0.0015431594802066684 0.005945981480181217
v -0.01259967777878046 0.0015431594802066684 0.005945981480181217
v -0.01259967777878046 0.0015431594802066684 -0.005945981480181217
v -0.01841484010219574 0.0015431594802066684 -0.005945981480181217
v -0.01259967777878046 0.0015431594802066684 0.005945981480181217
v -0.01841484010219574 0.0015431594802066684 0.005945981480181217
v -0.02028549090027809 0.013312377966940403 0.005945981480181217
v -0.02028549090027809 0.013312377966940403 -0.005945981480181217
v -0.01841484010219574 0.0015431594802066684 -0.005945981480181217
v -0.01259967777878046 0.0015431594802066684 -0.005945981480181217
v -0.008713913150131702 -0.022020086646080017 -0.015093004330992699
v 0.008713989518582821 -0.022020086646080017 -0.015093004330992699
v -0.008713913150131702 -0.004585590213537216 -0.015093004330992699
v 0.008713989518582821 -0.004585590213537216 -0.015093004330992699
v -0.01742786355316639 -0.004585590213537216 0.0
v -0.01742786355316639 -0.022020086646080017 0.0
v -0.008713913150131702 -0.004585590213537216 0.015093004330992699
v -0.008713913150131702 -0.022020095959305763 0.015093008987605572
v 0.008713989518582821 -0.004585590213537216 0.015093004330992699
v 0.008713989518582821 -0.022020095959305763 0.015093008987605572
v 0.017427902668714523 -0.022020086646080017 0.0
v 0.017427902668714523 -0.004585590213537216 0.0
v 0.017427902668714523 -0.022020086646080017 0.0
v 0.017427902668714523 -0.004585590213537216 0.0
v 0.008713989518582821 -0.004585590213537216 -0.015093004330992699
v -0.0 -0.004585590213537216 0.0
v -0.008713913150131702 -0.004585590213537216 -0.015093004330992699
v -0.01742786355316639 -0.004585590213537216 0.0
v -0.008713913150131702 -0.004585590213537216 0.015093004330992699
v 0.008713989518582821 -0.004585590213537216 0.015093004330992699
v 0.017427902668714523 -0.004585590213537216 0.0
vn -0.4999997615814209 0.0 -0.8660256266593933
vn 0.49999985098838806 0.0 -0.8660255074501038
vn -0.4999997615814209 0.0 -0.8660256266593933
vn 0.49999985098838806 0.0 -0.8660255074501038
vn -1.0 0.0 0.0
vn -1.0 0.0 0.0
vn -0.49999991059303284 0.0 0.8660255074501038
vn -0.49999991059303284 0.0 0.8660255074501038
vn 0.4999997913837433 0.0 0.8660255074501038
vn 0.4999997913837433 0.0 0.8660255074501038
vn 1.0 0.0 0.0
vn 1.0 0.0 0.0
vn 1.0 0.0 0.0
vn 1.0 0.0 0.0
vn -0.0 -1.0 0.0
vn -0.0 -1.0 0.0
vn -0.0 -1.0 0.0
vn -0.0 -1.0 0.0
vn -0.0 -1.0 0.0
vn -0.0 -1.0 0.0
vn -0.0 -1.0 0.0
vn -0.0 1.0 0.0
vn -0.0 1.0 0.0
vn -0.0 1.0 0.0
vn -0.0 1.0 0.0
vn -0.0 1.0 0.0
vn -0.0 1.0 0.0
vn -0.0 1.0 0.0
vn 4.4515192598737485e-07 1.0 0.0
vn 4.4515192598737485e-07 1.0 0.0
vn 4.4515192598737485e-07 1.0 0.0
vn 4.4515192598737485e-07 1.0 0.0
vn -0.0 0.0 -1.0
vn -0.0 0.0 -1.0
vn -0.0 0.0 -1.0
vn -0.0 0.0 -1.0
vn -0.0 0.0 -1.0
vn -0.0 -1.0 0.0
vn -0.0 -1.0 0.0
vn -0.0 -1.0 0.0
vn -0.0 -1.0 0.0
vn -0.9915863275527954 -0.1294465810060501 0.0
vn -0.9915863275527954 -0.1294465810060501 0.0
vn -0.9915863275527954 -0.1294465810060501 0.0
vn -0.9915863275527954 -0.1294465810060501 0.0
vn -0.0 0.0 1.0
vn -0.0 0.0 1.0
vn -0.0 0.0 1.0
vn -0.0 0.0 1.0
vn -0.0 0.0 1.0
vn 0.9866340160369873 0.16295190155506134 0.0
vn 0.9866340160369873 0.16295190155506134 0.0
vn 0.9866340160369873 0.16295190155506134 0.0
vn 0.9866340160369873 0.16295190155506134 0.0
vn -0.9876027703285217 -0.1569739431142807 0.0
vn -0.9876027703285217 -0.1569739431142807 0.0
vn -0.9876027703285217 -0.1569739431142807 0.0
vn -0.9876027703285217 -0.1569739431142807 0.0
vn -0.0 -1.0 0.0
vn -0.0 -1.0 0.0
vn -0.0 -1.0 0.0
vn -0.0 -1.0 0.0
vn -0.0 0.0 1.0
vn -0.0 0.0 1.0
vn -0.0 0.0 1.0
vn -0.0 0.0 -1.0
vn -0.0 0.0 -1.0
vn -0.0 0.0 -1.0
vn -0.49999991059303284 0.0 -0.866025447845459
vn 0.5000004768371582 0.0 -0.8660251498222351
vn -0.49999991059303284 0.0 -0.866025447845459
vn 0.5000004768371582 0.0 -0.8660251498222351
vn -1.0 0.0 0.0
vn -1.0 0.0 1.1536258170963265e-07
vn -0.4999999701976776 2.258605604765762e-07 0.866025447845459
vn -0.4999997317790985 2.2586060310914036e-07 0.8660255074501038
vn 0.500000536441803 1.9220998126456834e-07 0.8660250902175903
vn 0.5000003576278687 1.9221005231884192e-07 0.8660252690315247
vn 1.0 0.0 2.0188451799185714e-07
vn 1.0 0.0 1.1536260302591472e-07
vn 1.0 0.0 2.0188451799185714e-07
vn 1.0 0.0 1.1536260302591472e-07
vn -0.0 1.0 0.0
vn -0.0 1.0 0.0
vn -0.0 1.0 0.0
vn -0.0 1.0 0.0
vn -0.0 1.0 0.0
vn -0.0 1.0 0.0
vn -0.0 1.0 0.0
vt 0.27151280641555786 0.9893155144527555
vt 0.14138492941856384 0.9893154539167881
vt 0.2715127468109131 0.28236448764801025
vt 0.14138485491275787 0.28236448764801025
vt 0.40164050459861755 0.2823646068572998
vt 0.4016406238079071 0.9893154539167881
vt 0.5317685008049011 0.2823643684387207
vt 0.5317685008049011 0.9893154539167881
vt 0.661896288394928 0.28236472606658936
vt 0.6618961691856384 0.9893154539167881
vt 0.7920242547988892 0.2823646068572998
vt 0.7920241355895996 0.9893154539167881
vt 0.011257129721343517 0.9893153943121433
vt 0.011257323436439037 0.28236448764801025
vt 0.23102176189422607 0.22481673955917358
vt 0.13386428356170654 0.13825088739395142
vt 0.2574111819267273 0.09739291667938232
vt 0.1074749231338501 0.2656746506690979
vt 0.010317444801330566 0.17910897731781006
vt 0.03670686483383179 0.051685333251953125
vt 0.160253643989563 0.010827124118804932
vt 0.27233412861824036 0.1448124647140503
vt 0.40245142579078674 0.14647704362869263
vt 0.3359512984752655 0.25832968950271606
vt 0.46606841683387756 0.25999414920806885
vt 0.5325683355331421 0.14814144372940063
vt 0.4689514935016632 0.034624695777893066
vt 0.33883431553840637 0.03296005725860596
vt 0.7605745196342468 0.023988783359527588
vt 0.760409951210022 0.2541206479072571
vt 0.6965382099151611 0.2541205883026123
vt 0.6967029571533203 0.023988842964172363
vt 0.633355438709259 0.212885320186615
vt 0.5545576810836792 0.21288537979125977
vt 0.554702639579773 0.023988783359527588
vt 0.6967029571533203 0.023988842964172363
vt 0.6965382099151611 0.2541205883026123
vt 0.9663360118865967 0.212885320186615
vt 0.9024643898010254 0.212885320186615
vt 0.9664804935455322 0.023988783359527588
vt 0.9026086330413818 0.023988783359527588
vt 0.9222331643104553 0.8875024914741516
vt 0.9222331643104553 0.8080292642116547
vt 0.9861045479774475 0.8080292642116547
vt 0.9861045479774475 0.8875024914741516
vt 0.760409951210022 0.2541206479072571
vt 0.7605745196342468 0.023988783359527588
vt 0.823651909828186 0.212885320186615
vt 0.9026086330413818 0.023988783359527588
vt 0.9024643898010254 0.212885320186615
vt 0.9214630722999573 0.6217561066150665
vt 0.9853344559669495 0.7656967341899872
vt 0.9214630722999573 0.7656967341899872
vt 0.9853344559669495 0.6217561066150665
vt 0.9222331643104553 0.9827410280704498
vt 0.9222331643104553 0.918735533952713
vt 0.9861045479774475 0.918735533952713
vt 0.9861045479774475 0.9827410280704498
vt 0.9222331643104553 0.918735533952713
vt 0.9222331643104553 0.8875024914741516
vt 0.9861045479774475 0.8875024914741516
vt 0.9861045479774475 0.918735533952713
vt 0.823651909828186 0.212885320186615
vt 0.82362961769104 0.25412070751190186
vt 0.760409951210022 0.2541206479072571
vt 0.6965382099151611 0.2541205883026123
vt 0.6333329081535339 0.2541205883026123
vt 0.633355438709259 0.212885320186615
vt 0.8110290169715881 0.6124274432659149
vt 0.8110291957855225 0.5188222527503967
vt 0.9046697020530701 0.6124274432659149
vt 0.9046696424484253 0.5188224613666534
vt 0.9046697020530701 0.7060324847698212
vt 0.8110290169715881 0.7060325443744659
vt 0.9046697020530701 0.7996375411748886
vt 0.8110290169715881 0.7996376007795334
vt 0.9046698808670044 0.8932426124811172
vt 0.8110294342041016 0.8932426422834396
vt 0.8110294342041016 0.9868477834388614
vt 0.9046698808670044 0.9868476632982492
vt 0.8110296726226807 0.4252171516418457
vt 0.9046701192855835 0.42521750926971436
vt 0.8074491620063782 0.3257538080215454
vt 0.9010501503944397 0.3266461491584778
vt 0.853476881980896 0.40726059675216675
vt 0.9470778703689575 0.4081529378890991
vt 0.9946509599685669 0.3275386095046997
vt 0.9486232399940491 0.24603158235549927
vt 0.8550224900245667 0.24513930082321167

g eff_mdl_gl_sbr_grenade_106
s 1
usemtl eff_mdl_gl_sbr_grenade_106
f 3/3/3 2/2/2 1/1/1 
f 3/3/3 4/4/4 2/2/2 
f 5/5/5 3/3/3 1/1/1 
f 1/1/1 6/6/6 5/5/5 
f 7/7/7 5/5/5 6/6/6 
f 6/6/6 8/8/8 7/7/7 
f 8/8/8 9/9/9 7/7/7 
f 8/8/8 10/10/10 9/9/9 
f 10/10/10 11/11/11 9/9/9 
f 11/11/11 10/10/10 12/12/12 
f 4/4/4 13/13/13 2/2/2 
f 13/13/13 4/4/4 14/14/14 
f 17/17/17 16/16/16 15/15/15 
f 15/15/15 16/16/16 18/18/18 
f 18/18/18 16/16/16 19/19/19 
f 19/19/19 16/16/16 20/20/20 
f 20/20/20 16/16/16 21/21/21 
f 21/21/21 16/16/16 17/17/17 
f 24/24/24 23/23/23 22/22/22 
f 25/25/25 23/23/23 24/24/24 
f 26/26/26 23/23/23 25/25/25 
f 27/27/27 23/23/23 26/26/26 
f 28/28/28 23/23/23 27/27/27 
f 22/22/22 23/23/23 28/28/28 
f 31/31/31 30/30/30 29/29/29 
f 29/29/29 32/32/32 31/31/31 
f 35/35/35 34/34/34 33/33/33 
f 33/33/33 36/36/36 35/35/35 
f 36/36/36 33/33/33 37/37/37 
f 40/40/40 39/39/39 38/38/38 
f 39/39/39 40/40/40 41/41/41 
f 44/44/44 43/43/43 42/42/42 
f 42/42/42 45/45/45 44/44/44 
f 48/48/48 47/47/47 46/46/46 
f 49/49/49 47/47/47 48/48/48 
f 48/48/48 50/50/50 49/49/49 
f 53/53/53 52/52/52 51/51/51 
f 52/52/52 54/54/54 51/51/51 
f 57/57/57 56/56/56 55/55/55 
f 55/55/55 58/58/58 57/57/57 
f 61/61/61 60/60/60 59/59/59 
f 59/59/59 62/62/62 61/61/61 
f 65/65/65 64/64/64 63/63/63 
f 68/68/68 67/67/67 66/66/66 
f 71/71/71 70/70/70 69/69/69 
f 71/71/71 72/72/72 70/70/70 
f 73/73/73 71/71/71 69/69/69 
f 69/69/69 74/74/74 73/73/73 
f 75/75/75 73/73/73 74/74/74 
f 74/74/74 76/76/76 75/75/75 
f 75/75/75 76/76/76 77/77/77 
f 76/76/76 78/78/78 77/77/77 
f 77/77/77 78/78/78 79/79/79 
f 79/79/79 80/80/80 77/77/77 
f 70/70/70 72/72/72 81/81/81 
f 81/81/81 72/72/72 82/82/82 
f 85/85/85 84/84/84 83/83/83 
f 86/86/86 84/84/84 85/85/85 
f 87/87/87 84/84/84 86/86/86 
f 88/88/88 84/84/84 87/87/87 
f 89/89/89 84/84/84 88/88/88 
f 83/83/83 84/84/84 89/89/89 

