v -0.03360109403729439 1.2182917785708014e-08 0.0
v 0.03385314345359802 -3.179487961801897e-08 0.14955642819404602
v 0.03385314345359802 1.2182917785708014e-08 0.0
v -0.03360109403729439 -3.179487961801897e-08 0.14955642819404602
v -1.0714168219294606e-08 -0.03360109403729439 0.0
v 3.031511042195234e-08 0.03385314345359802 0.14955642819404602
v -1.3662686093596221e-08 0.03385314345359802 0.0
v 3.3263628296253955e-08 -0.03360109403729439 0.14955642819404602
vn -0.0 -1.0 -2.940548995411518e-07
vn -0.0 -1.0 -2.940548995411518e-07
vn -0.0 -1.0 -2.940548711194424e-07
vn -0.0 -1.0 -2.940548711194424e-07
vn 1.0 0.0 -2.940548995411518e-07
vn 1.0 0.0 -2.940548995411518e-07
vn 1.0 0.0 -2.940548711194424e-07
vn 1.0 0.0 -2.940548711194424e-07
vt 0.032500557601451874 0.5100051760673523
vt 0.24183933436870575 0.01648634672164917
vt 0.24183933436870575 0.5100051760673523
vt 0.032500557601451874 0.01648634672164917
vt 0.032500557601451874 0.5100051760673523
vt 0.24183933436870575 0.01648634672164917
vt 0.24183933436870575 0.5100051760673523
vt 0.032500557601451874 0.01648634672164917

g bg_mdl_map_flower00
s 1
usemtl bg_mdl_map_flower00
f 3/3/3 2/2/2 1/1/1 
f 4/4/4 1/1/1 2/2/2 
f 7/7/7 6/6/6 5/5/5 
f 8/8/8 5/5/5 6/6/6 

