v -0.15139612555503845 2.0244863563334548e-09 -0.04631485790014267
v -0.15139612555503845 2.0244863563334548e-09 0.04631485790014267
v -0.15139612555503845 -0.04631485790014267 0.0
v -0.15139612555503845 0.04631485790014267 -1.4721873720091594e-09
v -0.15139612555503845 2.0244863563334548e-09 0.04631485790014267
v -0.06504229456186295 -0.046314872801303864 -5.700453886703372e-09
v -0.15139612555503845 -0.04631485790014267 0.0
v -0.06504228711128235 -9.799117073328034e-09 0.04631485417485237
v -0.06504227221012115 -9.799119737863293e-09 -0.04631486162543297
v -0.15139612555503845 2.0244863563334548e-09 -0.04631485790014267
v -0.06504226475954056 0.046314842998981476 -7.172643368136278e-09
v -0.15139612555503845 0.04631485790014267 -1.4721873720091594e-09
v -0.06504228711128235 -9.799117073328034e-09 0.04631485417485237
v -0.15139612555503845 2.0244863563334548e-09 0.04631485790014267
v -0.01528069470077753 -0.0320507176220417 -5.6089248801072245e-09
v -0.01528069470077753 -1.620228395893264e-08 0.032050687819719315
v -0.01528069470077753 -1.620228395893264e-08 -0.03205070272088051
v -0.01528069470077753 0.03205067664384842 -6.627705495532155e-09
v -0.01528069470077753 -1.620228395893264e-08 0.032050687819719315
v 0.0026979828253388405 -1.741577548841633e-08 -2.8421708795129297e-16
vn -1.0 0.0 0.0
vn -1.0 0.0 0.0
vn -1.0 0.0 0.0
vn -1.0 0.0 0.0
vn -0.0 0.0 1.0
vn 0.13120348751544952 -0.9913554787635803 0.0
vn -1.540570480074166e-07 -1.0 0.0
vn 0.13120369613170624 0.0 0.9913554787635803
vn 0.13120362162590027 0.0 -0.9913554787635803
vn -0.0 0.0 -1.0
vn 0.13120383024215698 0.9913553595542908 0.0
vn 1.5405701958570717e-07 1.0 0.0
vn 0.13120369613170624 0.0 0.9913554787635803
vn -0.0 0.0 1.0
vn 0.5472312569618225 -0.8369815349578857 0.0
vn 0.5472312569618225 0.0 0.8369814157485962
vn 0.5472312569618225 0.0 -0.8369814157485962
vn 0.5472312569618225 0.8369814157485962 0.0
vn 0.5472312569618225 0.0 0.8369814157485962
vn 1.0 0.0 1.1448651804357723e-07
vt 0.5 1.0
vt 1.0 1.0
vt 0.75 1.0
vt 0.25 1.0
vt 1.0 1.0
vt 0.75 0.44020795822143555
vt 0.75 1.0
vt 1.0 0.43999940156936646
vt 0.5 0.4402132034301758
vt 0.5 1.0
vt 0.25 0.4402146339416504
vt 0.25 1.0
vt 0.0 0.44000136852264404
vt 0.0 1.0
vt 0.75 0.25
vt 1.0 0.25
vt 0.5 0.25
vt 0.25 0.25
vt 0.0 0.25
vt 0.5049974322319031 0.0

g eff_mdl_bullet_kur00
s 1
usemtl eff_mdl_bullet_kur00
f 3/3/3 2/2/2 1/1/1 
f 4/4/4 1/1/1 2/2/2 
f 7/7/7 6/6/6 5/5/5 
f 8/8/8 5/5/5 6/6/6 
f 6/6/6 7/7/7 9/9/9 
f 10/10/10 9/9/9 7/7/7 
f 9/9/9 10/10/10 11/11/11 
f 12/12/12 11/11/11 10/10/10 
f 11/11/11 12/12/12 13/13/13 
f 14/14/14 13/13/13 12/12/12 
f 6/6/6 15/15/15 8/8/8 
f 16/16/16 8/8/8 15/15/15 
f 9/9/9 17/17/17 6/6/6 
f 15/15/15 6/6/6 17/17/17 
f 11/11/11 18/18/18 9/9/9 
f 17/17/17 9/9/9 18/18/18 
f 13/13/13 19/19/19 11/11/11 
f 18/18/18 11/11/11 19/19/19 
f 15/15/15 20/20/20 16/16/16 
f 17/17/17 20/20/20 15/15/15 
f 18/18/18 20/20/20 17/17/17 
f 19/19/19 20/20/20 18/18/18 

