v 0.8048276901245117 -3.8616645336151123 0.0
v -0.5999999642372131 -2.8999998569488525 0.0
v 0.979686439037323 -3.0547168254852295 0.0
v -0.7999999523162842 -2.3999998569488525 -0.09999999403953552
v 0.3822424113750458 -1.8344029188156128 0.0
v 0.31668853759765625 -0.41455596685409546 -0.006040801759809256
v 0.8454462885856628 -0.5819905996322632 0.0
v 1.7596089839935303 -2.707106590270996 0.12899932265281677
v 1.78382408618927 -2.106796979904175 0.12899932265281677
v 1.3944892883300781 -1.3838422298431396 0.0332203172147274
v 1.366518259048462 -1.0991935729980469 0.022518834099173546
v -0.14209726452827454 -0.5202779173851013 -0.006013896316289902
v -0.5058765411376953 -0.5578429698944092 -0.001519537647254765
v -2.0 -1.0 -0.020355019718408585
v -2.0000250339508057 -3.0070316791534424 -0.19999998807907104
v -0.6598734855651855 -2.912689447402954 -0.19999998807907104
v -0.7073044180870056 -0.16898144781589508 -0.0015601320192217827
v -2.0 0.5 0.08780273050069809
v -0.7247421741485596 0.22673045098781586 0.0
v -0.9258382320404053 0.6790269613265991 0.0
v -1.0281652212142944 -3.377397298812866 -0.34624814987182617
v 0.720973014831543 -4.374161720275879 -0.34624814987182617
v 0.7999999523162842 -3.8999998569488525 -0.19999998807907104
v 1.6999999284744263 -4.099999904632568 -0.3499999940395355
v 1.7697161436080933 -5.750333309173584 -0.502512514591217
v -2.7540130615234375 -3.470045804977417 -0.42671385407447815
v -0.848518431186676 1.3784300088882446 0.0
v -1.6204856634140015 2.0794270038604736 0.0
v -2.7406539916992188 1.909395456314087 0.0
v -3.010702133178711 1.5312153100967407 0.0
v -3.4782328605651855 0.9619478583335876 0.0
v -3.572646141052246 0.40749141573905945 0.0
v -3.8074951171875 -0.08784513920545578 -0.0010837041772902012
v 2.278705596923828 -4.941066265106201 -0.42499998211860657
v 2.8705766201019287 -5.25073766708374 -0.5
v 3.0992393493652344 -6.32327127456665 -0.6213799715042114
v 4.993582725524902 -6.2239508628845215 -0.42998263239860535
v 3.629769802093506 -5.1433515548706055 -0.3999999761581421
v 4.9549560546875 -4.94096040725708 -0.29999998211860657
v 5.3940958976745605 -5.663339138031006 -0.29999998211860657
v -4.081600666046143 -1.0946182012557983 -0.07527709752321243
v -3.9477880001068115 -1.5447595119476318 -0.15296527743339539
v -2.892015218734741 -2.0257034301757812 -0.1462508589029312
v -3.999892473220825 -2.0793473720550537 -0.23297938704490662
v -3.7987747192382812 -2.6181480884552 -0.2981495261192322
v 3.590343475341797 -5.119358539581299 -0.2606298625469208
v 4.599999904632568 -4.099999904632568 -0.14999999105930328
v 3.5399117469787598 -3.8704724311828613 -0.12050659209489822
v 2.8999998569488525 -5.199999809265137 -0.29999998211860657
v 2.596179246902466 -3.396566152572632 0.0
v 2.299999952316284 -4.900000095367432 -0.22499999403953552
v 5.0 -3.0 0.0
v 4.651599407196045 -4.045902729034424 0.0
v 5.0 -4.900000095367432 0.0
v 6.545908451080322 -3.997593879699707 0.0
v 6.273707866668701 -2.8180415630340576 0.0
v 5.824324131011963 -2.1140894889831543 0.07992129772901535
v 5.0 -1.9275739192962646 0.0
v 4.470765113830566 -2.2061479091644287 0.0
v 1.6999999284744263 -4.0 -0.14999999105930328
v 1.7625476121902466 -2.7241954803466797 0.0
v 1.7973577976226807 -2.1161718368530273 0.0
v 1.8945974111557007 -1.8158047199249268 0.028222985565662384
v 2.780935525894165 -2.1281819343566895 0.06537431478500366
v 5.4776291847229 -5.673721790313721 -0.02298644930124283
v 6.523257732391357 -5.941023349761963 0.0
v 7.321142196655273 -4.833740234375 5.302124961303889e-09
v 6.91041374206543 -4.19783878326416 1.9305856913121033e-09
v 7.2733473777771 -5.633206844329834 0.004601745400577784
v 7.564214706420898 -5.170770645141602 -0.0035836028400808573
v 3.333878755569458 -2.209101438522339 0.0
v 1.8945974111557007 -1.8158047199249268 0.028222985565662384
v -0.7999999523162842 -2.3999998569488525 -0.09999999403953552
v -0.5999999642372131 -2.8999998569488525 0.0
v -0.6598734855651855 -2.912689447402954 -0.19999998807907104
v 0.7999999523162842 -3.8999998569488525 -0.19999998807907104
v 0.8048276901245117 -3.8616645336151123 0.0
v 1.6999999284744263 -4.0 -0.14999999105930328
v 1.6999999284744263 -4.099999904632568 -0.3499999940395355
v 2.299999952316284 -4.900000095367432 -0.22499999403953552
v 2.278705596923828 -4.941066265106201 -0.42499998211860657
v 2.8999998569488525 -5.199999809265137 -0.29999998211860657
v 2.8705766201019287 -5.25073766708374 -0.5
v 3.629769802093506 -5.1433515548706055 -0.3999999761581421
v 3.590343475341797 -5.119358539581299 -0.2606298625469208
v 4.9549560546875 -4.94096040725708 -0.29999998211860657
v 5.6118364334106445 -5.781282901763916 -0.12747395038604736
v 6.511098384857178 -6.051843643188477 -0.12588323652744293
v 6.085203170776367 -5.583248138427734 -4.091525554656982
v 7.371744155883789 -5.662173271179199 -0.12446986883878708
v 6.85612678527832 -5.445971488952637 -4.09036922454834
v 7.16294527053833 -4.97569465637207 -4.090646743774414
v 7.6697306632995605 -5.199435234069824 -0.1260368973016739
v 7.379117488861084 -4.735206604003906 -0.1269344836473465
v 7.025094985961914 -4.660483360290527 -4.090846061706543
v 6.983860969543457 -4.092826843261719 -0.12634558975696564
v 6.581944465637207 -3.9572112560272217 -4.090846061706543
v 6.503021717071533 -3.6982603073120117 -3.287402868270874
v 6.5851569175720215 -3.8934762477874756 -0.12653954327106476
v 6.523257732391357 -5.941023349761963 0.0
v 5.4776291847229 -5.673721790313721 -0.02298644930124283
v 5.3940958976745605 -5.663339138031006 -0.29999998211860657
v 5.493459224700928 -5.726353168487549 -0.39140933752059937
v 7.2733473777771 -5.633206844329834 0.004601745400577784
v 4.993582725524902 -6.2239508628845215 -0.42998263239860535
v 5.043323040008545 -6.306311130523682 -0.6121904253959656
v 3.0992393493652344 -6.32327127456665 -0.6213799715042114
v 3.0689260959625244 -6.433995723724365 -0.773072361946106
v 3.4795329570770264 -5.789421081542969 -4.094150066375732
v 4.723479270935059 -5.852225303649902 -4.090826511383057
v 5.493459224700928 -5.726353168487549 -0.39140933752059937
v 5.193889141082764 -5.244714260101318 -4.090826511383057
v 1.7678579092025757 -5.486254692077637 -4.090835094451904
v 1.747201681137085 -5.8563055992126465 -0.6232267618179321
v 0.839617908000946 -4.262427806854248 -4.090796947479248
v 0.7045648097991943 -4.492232799530029 -0.47350364923477173
v -1.001881718635559 -3.4978346824645996 -4.090810298919678
v -1.0275510549545288 -3.474004030227661 -0.4730866849422455
v -2.6272354125976562 -3.536205768585205 -4.090855121612549
v -2.7750725746154785 -3.5678658485412598 -0.5731865763664246
v -3.8801608085632324 -2.6323983669281006 -0.4592553973197937
v -3.004533290863037 -2.6396031379699707 -4.091695785522461
v -3.3507802486419678 -2.103031635284424 -4.09140157699585
v -4.087630748748779 -2.092573404312134 -0.3967287838459015
v -3.33610200881958 -1.6665499210357666 -4.090866565704346
v -4.044618606567383 -1.5340217351913452 -0.3200237452983856
v -3.5441174507141113 -1.185760259628296 -4.090850353240967
v -4.179291725158691 -1.1027076244354248 -0.24832972884178162
v -3.3916149139404297 -0.2001853883266449 -4.091740131378174
v -3.880272626876831 -0.006321807857602835 -0.1258808970451355
v -3.0961291790008545 0.15820540487766266 -4.09077787399292
v -3.6809256076812744 0.392362505197525 -0.12590856850147247
v -3.00653076171875 0.6957919001579285 -4.09077787399292
v -3.5812666416168213 0.9903973937034607 -0.1258251965045929
v -2.5774121284484863 1.1226565837860107 -4.091768741607666
v -3.08318829536438 1.5963398218154907 -0.12376289814710617
v -3.010702133178711 1.5312153100967407 0.0
v -3.4782328605651855 0.9619478583335876 0.0
v -3.572646141052246 0.40749141573905945 0.0
v -3.8074951171875 -0.08784513920545578 -0.0010837041772902012
v -2.7406539916992188 1.909395456314087 0.0
v -2.7841756343841553 1.9950790405273438 -0.12362179160118103
v -1.6204856634140015 2.0794270038604736 0.0
v -1.583137035369873 2.1694462299346924 -0.1227216124534607
v -0.848518431186676 1.3784300088882446 0.0
v -0.7574818134307861 1.4360727071762085 -0.1256091594696045
v -0.9258382320404053 0.6790269613265991 0.0
v -0.8061150312423706 0.693396270275116 -0.1272561401128769
v -0.7247421741485596 0.22673045098781586 0.0
v -0.6067814230918884 0.19505514204502106 -0.12729762494564056
v -0.7073044180870056 -0.16898144781589508 -0.0015601320192217827
v -0.6067832708358765 -0.10394933819770813 -0.12733229994773865
v -0.5058765411376953 -0.5578429698944092 -0.001519537647254765
v -0.4094187021255493 -0.40925079584121704 -0.12688907980918884
v -0.14209726452827454 -0.5202779173851013 -0.006013896316289902
v -0.1118902936577797 -0.41420844197273254 -0.12622149288654327
v 0.31668853759765625 -0.41455596685409546 -0.006040801759809256
v 0.3752872049808502 -0.31315696239471436 -0.12712077796459198
v 0.05384185537695885 -0.8300176858901978 -4.09077787399292
v -0.5856910347938538 -0.7696579098701477 -4.09077787399292
v -0.45155811309814453 -0.49540916085243225 -1.0709999799728394
v -0.5011364817619324 -0.18816794455051422 -1.7949546575546265
v -0.8123501539230347 -0.08923705667257309 -4.09077787399292
v -0.6104395389556885 0.19679874181747437 -1.7899035215377808
v -0.9915453791618347 0.4931478798389435 -4.09077787399292
v -0.6087818741798401 0.7377426624298096 -1.014433741569519
v -1.076892375946045 0.8295400738716125 -4.09077787399292
v 0.8454462885856628 -0.5819905996322632 0.0
v 0.8785512447357178 -0.4747962951660156 -0.12648235261440277
v 1.366518259048462 -1.0991935729980469 0.022518834099173546
v 1.4597443342208862 -1.0391614437103271 -0.10135354846715927
v 1.3689732551574707 -0.9223565459251404 -1.3315261602401733
v 0.7845867276191711 -0.7265607118606567 -3.0459184646606445
v 0.5567139983177185 -0.6696020364761353 -3.1376452445983887
v 1.5047645568847656 -1.2769311666488647 -1.0255162715911865
v 1.5006054639816284 -1.338186264038086 -0.08995618671178818
v 1.3944892883300781 -1.3838422298431396 0.0332203172147274
v 1.8945974111557007 -1.8158047199249268 0.028222985565662384
v 1.8943122625350952 -1.699065923690796 -0.09011006355285645
v 2.780935525894165 -2.1281819343566895 0.06537431478500366
v 2.793011426925659 -2.015293598175049 -0.05044625326991081
v 3.333878755569458 -2.209101438522339 0.0
v 3.3986921310424805 -2.107942581176758 -0.12731978297233582
v 2.711366891860962 -2.1730246543884277 -1.63130521774292
v 4.470765113830566 -2.2061479091644287 0.0
v 4.404306888580322 -2.109149694442749 -0.1271725594997406
v 3.3608922958374023 -2.3375298976898193 -4.090745449066162
v 4.539552688598633 -2.3964571952819824 -4.090802192687988
v 5.0711870193481445 -2.01043963432312 -4.09077787399292
v 5.002274513244629 -1.8067245483398438 -0.12737633287906647
v 5.675394058227539 -2.164358377456665 -4.090734004974365
v 5.891891956329346 -2.010969400405884 -0.031240323558449745
v 5.824324131011963 -2.1140894889831543 0.07992129772901535
v 6.273707866668701 -2.8180415630340576 0.0
v 6.395658016204834 -2.798600673675537 -0.12749241292476654
v 6.545908451080322 -3.997593879699707 0.0
v 6.5851569175720215 -3.8934762477874756 -0.12653954327106476
v 5.0 -1.9275739192962646 0.0
v 2.5850749015808105 -2.417010545730591 -4.090784072875977
v 2.5843400955200195 -1.746016025543213 -2.4343087673187256
v 1.8743855953216553 -1.7291545867919922 -4.091096878051758
v 2.104262113571167 -1.4756578207015991 -3.1477813720703125
v 1.7798562049865723 -1.3782823085784912 -3.4927544593811035
v 1.5792689323425293 -1.6130317449569702 -4.091202259063721
v 1.1948890686035156 -1.5207128524780273 -4.090749263763428
v 0.7280268669128418 -1.0071799755096436 -3.1265242099761963
v 0.2773509919643402 -0.9778146147727966 -4.09077787399292
v 5.0 -4.900000095367432 0.0
v 4.599999904632568 -4.099999904632568 -0.14999999105930328
v 4.651599407196045 -4.045902729034424 0.0
v 4.9549560546875 -4.94096040725708 -0.29999998211860657
v 3.5399117469787598 -3.8704724311828613 -0.12050659209489822
v 5.4776291847229 -5.673721790313721 -0.02298644930124283
v 5.3940958976745605 -5.663339138031006 -0.29999998211860657
v 1.78382408618927 -2.106796979904175 0.12899932265281677
v 1.7625476121902466 -2.7241954803466797 0.0
v 1.7596089839935303 -2.707106590270996 0.12899932265281677
v 1.7973577976226807 -2.1161718368530273 0.0
v 0.979686439037323 -3.0547168254852295 0.0
v 1.8945974111557007 -1.8158047199249268 0.028222985565662384
v -2.2619693279266357 1.261580467224121 -4.091227054595947
v -1.6113088130950928 2.0815467834472656 -2.700272798538208
v -2.502734661102295 1.7428257465362549 -2.6636650562286377
v -1.6200393438339233 1.391459584236145 -4.090795516967773
v -0.9650464653968811 1.4570465087890625 -2.700421094894409
v -1.076892375946045 0.8295400738716125 -4.09077787399292
v -2.2619693279266357 1.261580467224121 -4.091227054595947
v -2.502734661102295 1.7428257465362549 -2.6636650562286377
v -2.5774121284484863 1.1226565837860107 -4.091768741607666
v 6.631258964538574 -3.1902992725372314 -2.7208058834075928
v 5.813782691955566 -2.3027467727661133 -4.090738296508789
v 5.934756755828857 -3.1996378898620605 -4.089257717132568
v 6.5899338722229 -2.7549073696136475 -2.323460102081299
v 6.901618480682373 -3.167680501937866 -1.006261944770813
v 6.834028720855713 -2.9548633098602295 -1.0452823638916016
v 6.126058101654053 -3.688127040863037 -4.090730667114258
v 6.503021717071533 -3.6982603073120117 -3.287402868270874
v -1.0281652212142944 -3.377397298812866 -0.34624814987182617
v 0.720973014831543 -4.374161720275879 -0.34624814987182617
v 1.7697161436080933 -5.750333309173584 -0.502512514591217
v -2.7540130615234375 -3.470045804977417 -0.42671385407447815
v -3.7987747192382812 -2.6181480884552 -0.2981495261192322
v -3.999892473220825 -2.0793473720550537 -0.23297938704490662
v -3.9477880001068115 -1.5447595119476318 -0.15296527743339539
v -4.081600666046143 -1.0946182012557983 -0.07527709752321243
v 6.91041374206543 -4.19783878326416 1.9305856913121033e-09
v 6.545908451080322 -3.997593879699707 0.0
v 7.321142196655273 -4.833740234375 5.302124961303889e-09
v 7.564214706420898 -5.170770645141602 -0.0035836028400808573
v -1.076892375946045 0.8295400738716125 -4.09077787399292
v -0.7574818134307861 1.4360727071762085 -0.1256091594696045
v -0.9650464653968811 1.4570465087890625 -2.700421094894409
v 6.126058101654053 -3.688127040863037 -4.090730667114258
v -2.5774121284484863 1.1226565837860107 -4.091768741607666
v -2.502734661102295 1.7428257465362549 -2.6636650562286377
v -3.08318829536438 1.5963398218154907 -0.12376289814710617
v -3.08318829536438 1.5963398218154907 -0.12376289814710617
v -2.502734661102295 1.7428257465362549 -2.6636650562286377
v -2.7841756343841553 1.9950790405273438 -0.12362179160118103
vn -0.2349158674478531 -0.6460180282592773 0.7262749075889587
vn -0.5164912343025208 -0.3433174788951874 0.7844552397727966
vn -0.03259311988949776 -0.03449287265539169 0.9988732933998108
vn -0.07422516494989395 -0.06611940264701843 0.9950472116470337
vn -0.07333144545555115 -0.0024612133856862783 0.9973045587539673
vn -0.016042031347751617 0.47272011637687683 0.881066620349884
vn 0.2394343763589859 0.399415522813797 0.884951114654541
vn 0.6053481698036194 -0.42141616344451904 0.675249457359314
vn 0.585111677646637 -0.04236169904470444 0.8098455667495728
vn 0.2539127469062805 0.20135115087032318 0.9460369348526001
vn 0.41760262846946716 0.21971717476844788 0.8816645741462708
vn -0.03396813943982124 0.36553919315338135 0.9301760196685791
vn 0.09962114691734314 0.14791016280651093 0.9839707016944885
vn -0.014595968648791313 -0.07402825355529785 0.9971492886543274
vn -0.05333532765507698 -0.252063512802124 0.9662398099899292
vn -0.3976053297519684 -0.43793073296546936 0.806304395198822
vn 0.35303497314453125 0.08081044256687164 0.932113766670227
vn 0.006171369459480047 -0.007803984452039003 0.9999505281448364
vn 0.47208070755004883 0.11844243109226227 0.8735623955726624
vn 0.3798893094062805 0.0632978305220604 0.9228637218475342
vn -0.10677219182252884 -0.5215427875518799 0.8465180397033691
vn -0.22826673090457916 -0.4199014902114868 0.878394603729248
vn -0.22202913463115692 -0.6845758557319641 0.6943047046661377
vn -0.3575243353843689 -0.5592701435089111 0.7479259967803955
vn -0.2764959931373596 -0.4298263490200043 0.8595343232154846
vn -0.20505990087985992 -0.6036238074302673 0.7704470753669739
vn 0.5103686451911926 0.1685974895954132 0.8432667851448059
vn 0.14683133363723755 0.5212193727493286 0.8406966924667358
vn -0.2823384404182434 0.45681366324424744 0.8435675501823425
vn -0.36349940299987793 0.278564989566803 0.8889711499214172
vn -0.4501868486404419 0.2143864929676056 0.8668161630630493
vn -0.41326072812080383 0.12384182214736938 0.9021522998809814
vn -0.46276867389678955 0.11066281050443649 0.879544734954834
vn -0.32387134432792664 -0.5007173418998718 0.8027387857437134
vn -0.09588931500911713 -0.5537911653518677 0.8271157741546631
vn -0.10052062571048737 -0.5466417074203491 0.8313112258911133
vn 0.18299278616905212 -0.6047823429107666 0.7750819325447083
vn 0.016520250588655472 -0.6888559460639954 0.7247099280357361
vn -0.5249810814857483 -0.37637490034103394 0.763372004032135
vn -0.40004315972328186 -0.631246030330658 0.6644501090049744
vn -0.5639272332191467 -0.09243881702423096 0.8206344842910767
vn -0.4703715741634369 -0.17697010934352875 0.8645415902137756
vn -0.058401986956596375 -0.12619639933109283 0.9902846217155457
vn -0.5773869752883911 -0.17471659183502197 0.7975578308105469
vn -0.4755995273590088 -0.4453284442424774 0.7586089968681335
vn 0.06305495649576187 -0.6684433817863464 0.741085410118103
vn -0.3948606550693512 -0.5384566783905029 0.7444121241569519
vn 0.0044489349238574505 -0.15273088216781616 0.9882578253746033
vn -0.09636226296424866 -0.7200183272361755 0.6872320175170898
vn 0.008812444284558296 -0.09914420545101166 0.9950340986251831
vn -0.4218560755252838 -0.5713449716567993 0.7039903402328491
vn -0.019713008776307106 -0.018738122656941414 0.9996300935745239
vn -0.2784055769443512 -0.268443763256073 0.9221867322921753
vn -0.5668336153030396 -0.31150051951408386 0.7626710534095764
vn 0.25061267614364624 0.21306809782981873 0.9443491101264954
vn 0.409222275018692 0.13505560159683228 0.9023841023445129
vn 0.23320522904396057 0.32365167140960693 0.916986882686615
vn -0.11106153577566147 0.4640585482120514 0.8788145184516907
vn -0.09676743298768997 0.34417295455932617 0.9339063167572021
vn -0.16965025663375854 -0.5619310140609741 0.8096000552177429
vn 0.39573895931243896 -0.29338064789772034 0.8702404499053955
vn 0.6425682902336121 -0.1603717803955078 0.7492575645446777
vn 0.27908855676651 0.36516594886779785 0.8881235718727112
vn 0.11295196413993835 0.3221113383769989 0.9399394392967224
vn -0.45473694801330566 -0.523404061794281 0.7205986976623535
vn 0.04273200407624245 -0.48293787240982056 0.8746113181114197
vn 0.3509942591190338 0.23603664338588715 0.9061399698257446
vn 0.29676172137260437 0.3172207772731781 0.9007238745689392
vn 0.3152257800102234 -0.44676655530929565 0.8372767567634583
vn 0.5353060960769653 0.05336754024028778 0.8429705500602722
vn 0.08580111712217331 0.3863823115825653 0.918339192867279
vn 0.27908855676651 0.36516594886779785 0.8881235718727112
vn -0.07422516494989395 -0.06611940264701843 0.9950472116470337
vn -0.5164912343025208 -0.3433174788951874 0.7844552397727966
vn -0.3976053297519684 -0.43793073296546936 0.806304395198822
vn -0.22202913463115692 -0.6845758557319641 0.6943047046661377
vn -0.2349158674478531 -0.6460180282592773 0.7262749075889587
vn -0.16965025663375854 -0.5619310140609741 0.8096000552177429
vn -0.3575243353843689 -0.5592701435089111 0.7479259967803955
vn -0.4218560755252838 -0.5713449716567993 0.7039903402328491
vn -0.32387134432792664 -0.5007173418998718 0.8027387857437134
vn -0.09636226296424866 -0.7200183272361755 0.6872320175170898
vn -0.09588931500911713 -0.5537911653518677 0.8271157741546631
vn 0.016520250588655472 -0.6888559460639954 0.7247099280357361
vn 0.06305495649576187 -0.6684433817863464 0.741085410118103
vn -0.5249810814857483 -0.37637490034103394 0.763372004032135
vn -0.3439892828464508 -0.9084123969078064 0.23760966956615448
vn 0.0673103928565979 -0.960721492767334 0.269227534532547
vn -0.08972875773906708 -0.9917540550231934 -0.09150122851133347
vn 0.6497371792793274 -0.7284008860588074 0.2174249142408371
vn 0.5309275984764099 -0.839605450630188 -0.1147986426949501
vn 0.9909472465515137 -0.060829922556877136 -0.11968012899160385
vn 0.9665891528129578 -0.030365949496626854 0.25452542304992676
vn 0.8100420832633972 0.508471667766571 0.2920415997505188
vn 0.880398154258728 0.4689328372478485 -0.0707177221775055
vn 0.6407864093780518 0.6823137402534485 0.3519100844860077
vn 0.7253565192222595 0.6747763752937317 -0.13614234328269958
vn 0.9004867076873779 0.37764984369277954 -0.21564850211143494
vn 0.8007519841194153 0.4478811025619507 0.39774206280708313
vn 0.04273200407624245 -0.48293787240982056 0.8746113181114197
vn -0.45473694801330566 -0.523404061794281 0.7205986976623535
vn -0.40004315972328186 -0.631246030330658 0.6644501090049744
vn 0.10006581991910934 -0.9848887920379639 0.1413537561893463
vn 0.3152257800102234 -0.44676655530929565 0.8372767567634583
vn 0.18299278616905212 -0.6047823429107666 0.7750819325447083
vn 0.44548651576042175 -0.886589765548706 0.12450098991394043
vn -0.10052062571048737 -0.5466417074203491 0.8313112258911133
vn -0.15590834617614746 -0.9653933644294739 0.20906513929367065
vn -0.0851055234670639 -0.981027364730835 -0.1741907149553299
vn 0.40704846382141113 -0.9008811712265015 -0.1507474184036255
vn 0.10006581991910934 -0.9848887920379639 0.1413537561893463
vn 0.28312671184539795 -0.9481956362724304 -0.14409808814525604
vn -0.5541475415229797 -0.8219969272613525 -0.1313069760799408
vn -0.5529727339744568 -0.7808045744895935 0.2908015251159668
vn -0.6087242960929871 -0.7899872660636902 -0.07331233471632004
vn -0.6221158504486084 -0.7133489847183228 0.3226531445980072
vn -0.20672212541103363 -0.9781569242477417 -0.02179594896733761
vn -0.24626946449279785 -0.9103594422340393 0.3325614035129547
vn -0.47895392775535583 -0.8719955086708069 -0.10112890601158142
vn -0.303697794675827 -0.9190207123756409 0.2513333559036255
vn -0.8220948576927185 -0.552628219127655 0.1369747817516327
vn -0.8676920533180237 -0.4513697922229767 -0.20826849341392517
vn -0.9436540603637695 -0.26020270586013794 -0.20447871088981628
vn -0.9773082137107849 -0.15543115139007568 0.14390860497951508
vn -0.968505859375 -0.1710493415594101 -0.18093809485435486
vn -0.9733502864837646 -0.1493813395500183 0.17399537563323975
vn -0.9777333736419678 -0.12791156768798828 -0.16636110842227936
vn -0.9827989935874939 -0.041343748569488525 0.1799914538860321
vn -0.897347092628479 0.416279137134552 -0.1465597152709961
vn -0.9039602875709534 0.34282365441322327 0.2555929720401764
vn -0.9038880467414856 0.4023967683315277 -0.14513204991817474
vn -0.9150170087814331 0.3115291893482208 0.2563073933124542
vn -0.8769473433494568 0.45289841294288635 -0.16076835989952087
vn -0.8834465742111206 0.3985646069049835 0.2463092803955078
vn -0.7053322792053223 0.6916183233261108 -0.15546825528144836
vn -0.725450873374939 0.5716366767883301 0.383343905210495
vn -0.36349940299987793 0.278564989566803 0.8889711499214172
vn -0.4501868486404419 0.2143864929676056 0.8668161630630493
vn -0.41326072812080383 0.12384182214736938 0.9021522998809814
vn -0.46276867389678955 0.11066281050443649 0.879544734954834
vn -0.2823384404182434 0.45681366324424744 0.8435675501823425
vn -0.3484463095664978 0.8507210612297058 0.3935210108757019
vn 0.14683133363723755 0.5212193727493286 0.8406966924667358
vn 0.28148573637008667 0.9151782393455505 0.2884693443775177
vn 0.5103686451911926 0.1685974895954132 0.8432667851448059
vn 0.8577092885971069 0.3956555426120758 0.3283160328865051
vn 0.3798893094062805 0.0632978305220604 0.9228637218475342
vn 0.8632358908653259 0.1464802771806717 0.48308104276657104
vn 0.47208070755004883 0.11844243109226227 0.8735623955726624
vn 0.9137071967124939 0.14429163932800293 0.3798934519290924
vn 0.35303497314453125 0.08081044256687164 0.932113766670227
vn 0.8964504599571228 0.20657236874103546 0.3920515179634094
vn 0.09962114691734314 0.14791016280651093 0.9839707016944885
vn 0.3988204002380371 0.7883150577545166 0.4685100018978119
vn -0.03396813943982124 0.36553919315338135 0.9301760196685791
vn -0.09910360723733902 0.9485635161399841 0.3006756603717804
vn -0.016042031347751617 0.47272011637687683 0.881066620349884
vn 0.0634995698928833 0.956929624080658 0.2832903265953064
vn 0.22880859673023224 0.9467989206314087 -0.2263149917125702
vn 0.6206700205802917 0.7740907073020935 -0.12470865249633789
vn 0.6119909882545471 0.7895243167877197 -0.04602668806910515
vn 0.9827533960342407 0.17842060327529907 -0.048597995191812515
vn 0.946308434009552 0.30136874318122864 -0.11694920808076859
vn 0.9722661972045898 0.21788495779037476 -0.08499732613563538
vn 0.9562833309173584 0.2619113028049469 -0.13009485602378845
vn 0.9820113182067871 0.1875581443309784 -0.02180982008576393
vn 0.88264399766922 0.4115504026412964 -0.2270808219909668
vn 0.2394343763589859 0.399415522813797 0.884951114654541
vn 0.46519359946250916 0.8307167291641235 0.30578556656837463
vn 0.41760262846946716 0.21971717476844788 0.8816645741462708
vn 0.8344987034797668 0.43284398317337036 0.3409663438796997
vn 0.8461385369300842 0.49849727749824524 -0.18854711949825287
vn 0.6949792504310608 0.5200063586235046 -0.4965856671333313
vn 0.339212566614151 0.8739876747131348 -0.34796616435050964
vn 0.7536836266517639 0.6570338606834412 -0.016358288004994392
vn 0.7944326996803284 0.445122629404068 0.4132098853588104
vn 0.2539127469062805 0.20135115087032318 0.9460369348526001
vn 0.27908855676651 0.36516594886779785 0.8881235718727112
vn 0.44488364458084106 0.7767094373703003 0.4458709955215454
vn 0.11295196413993835 0.3221113383769989 0.9399394392967224
vn 0.2820498049259186 0.8695462346076965 0.4053855240345001
vn 0.08580111712217331 0.3863823115825653 0.918339192867279
vn 0.07058946788311005 0.9528194069862366 0.2952156066894531
vn 0.6932634115219116 0.7127648591995239 -0.10654624551534653
vn -0.09676743298768997 0.34417295455932617 0.9339063167572021
vn -0.20367757976055145 0.9206750988960266 0.3329756259918213
vn -0.030392270535230637 0.9975717663764954 -0.06266426295042038
vn -0.2865094244480133 0.9548159241676331 -0.07898693531751633
vn -0.17723120748996735 0.9819060564041138 -0.06670580804347992
vn -0.12270178645849228 0.9438136219978333 0.3068549335002899
vn 0.4714313745498657 0.8784350156784058 -0.07813096791505814
vn 0.5101370811462402 0.7655015587806702 0.3921319544315338
vn 0.23320522904396057 0.32365167140960693 0.916986882686615
vn 0.409222275018692 0.13505560159683228 0.9023841023445129
vn 0.8107140064239502 0.3713809847831726 0.4525691568851471
vn 0.25061267614364624 0.21306809782981873 0.9443491101264954
vn 0.8007519841194153 0.4478811025619507 0.39774206280708313
vn -0.11106153577566147 0.4640585482120514 0.8788145184516907
vn 0.3844349682331085 0.9061571955680847 -0.17632021009922028
vn 0.7963513135910034 0.6019793748855591 -0.058698032051324844
vn 0.5504294037818909 0.75275057554245 -0.36110103130340576
vn 0.5804126858711243 0.794827938079834 -0.1771145462989807
vn 0.22770413756370544 0.9492117762565613 -0.2171354591846466
vn 0.26442602276802063 0.8643813729286194 -0.4276956617832184
vn 0.3141515254974365 0.9210242629051208 -0.23026753962039948
vn 0.7689571380615234 0.5312182903289795 -0.355685293674469
vn 0.5501283407211304 0.7673948407173157 -0.3293386995792389
vn -0.5668336153030396 -0.31150051951408386 0.7626710534095764
vn -0.3948606550693512 -0.5384566783905029 0.7444121241569519
vn -0.2784055769443512 -0.268443763256073 0.9221867322921753
vn -0.5249810814857483 -0.37637490034103394 0.763372004032135
vn 0.0044489349238574505 -0.15273088216781616 0.9882578253746033
vn -0.45473694801330566 -0.523404061794281 0.7205986976623535
vn -0.40004315972328186 -0.631246030330658 0.6644501090049744
vn 0.585111677646637 -0.04236169904470444 0.8098455667495728
vn 0.39573895931243896 -0.29338064789772034 0.8702404499053955
vn 0.6053481698036194 -0.42141616344451904 0.675249457359314
vn 0.6425682902336121 -0.1603717803955078 0.7492575645446777
vn -0.03259311988949776 -0.03449287265539169 0.9988732933998108
vn 0.27908855676651 0.36516594886779785 0.8881235718727112
vn -0.23688803613185883 0.8813655376434326 -0.40875276923179626
vn 0.20264644920825958 0.9491710066795349 -0.24085038900375366
vn -0.35357534885406494 0.9049187898635864 -0.23686818778514862
vn 0.30242353677749634 0.849656343460083 -0.4320000410079956
vn 0.8915418386459351 0.42268913984298706 -0.16274821758270264
vn 0.88264399766922 0.4115504026412964 -0.2270808219909668
vn -0.37669894099235535 0.8567121028900146 -0.3523382544517517
vn -0.37669894099235535 0.8567121028900146 -0.3523382246494293
vn -0.37669897079467773 0.8567121028900146 -0.3523382544517517
vn 0.9725269675254822 0.07752006500959396 -0.21950383484363556
vn 0.8145274519920349 0.5217557549476624 -0.25360581278800964
vn 0.8691097497940063 0.21829642355442047 -0.44384121894836426
vn 0.8364310264587402 0.5324104428291321 -0.13008525967597961
vn 0.9956784844398499 -0.050462741404771805 0.07796188443899155
vn 0.7958378791809082 0.5994294285774231 0.08559472858905792
vn 0.7466408610343933 0.5572637319564819 -0.36329683661460876
vn 0.9004867076873779 0.37764984369277954 -0.21564850211143494
vn -0.10677219182252884 -0.5215427875518799 0.8465180397033691
vn -0.22826673090457916 -0.4199014902114868 0.878394603729248
vn -0.2764959931373596 -0.4298263490200043 0.8595343232154846
vn -0.20505990087985992 -0.6036238074302673 0.7704470753669739
vn -0.4755995273590088 -0.4453284442424774 0.7586089968681335
vn -0.5773869752883911 -0.17471659183502197 0.7975578308105469
vn -0.4703715741634369 -0.17697010934352875 0.8645415902137756
vn -0.5639272332191467 -0.09243881702423096 0.8206344842910767
vn 0.29676172137260437 0.3172207772731781 0.9007238745689392
vn 0.25061267614364624 0.21306809782981873 0.9443491101264954
vn 0.3509942591190338 0.23603664338588715 0.9061399698257446
vn 0.5353060960769653 0.05336754024028778 0.8429705500602722
vn 0.88264399766922 0.4115504026412964 -0.2270808219909668
vn 0.8577092885971069 0.3956555426120758 0.3283160328865051
vn 0.8915418386459351 0.42268913984298706 -0.16274821758270264
vn 0.7466408610343933 0.5572637319564819 -0.36329683661460876
vn -0.8561896681785583 0.488763689994812 -0.1674795001745224
vn -0.8561896681785583 0.48876363039016724 -0.1674795001745224
vn -0.8561896681785583 0.488763689994812 -0.1674795150756836
vn -0.7913684248924255 0.5934956073760986 -0.1466253697872162
vn -0.7913684248924255 0.5934956073760986 -0.1466253697872162
vn -0.7913684248924255 0.5934955477714539 -0.1466253697872162
vt 1.1295363903045654 -0.4407094717025757
vt 1.539711594581604 -0.3330354690551758
vt 1.1530332565307617 -0.23433244228363037
vt 1.6434155702590942 -0.24158048629760742
vt 1.4029266834259033 0.0030150413513183594
vt 1.5376685857772827 0.34593087434768677
vt 1.3950188159942627 0.3471651077270508
vt 1.0058542490005493 -0.08503007888793945
vt 1.0455095767974854 0.05146139860153198
vt 1.1937074661254883 0.1970725655555725
vt 1.2261701822280884 0.26368212699890137
vt 1.6409029960632324 0.2853075861930847
vt 1.7291514873504639 0.2501401901245117
vt 2.0701184272766113 0.01146000623703003
vt 1.900102138519287 -0.5007587671279907
vt 1.5697838068008423 -0.3693200349807739
vt 1.8139240741729736 0.33052003383636475
vt 2.1965203285217285 0.39114904403686523
vt 1.8533742427825928 0.427595853805542
vt 1.940260648727417 0.5262430310249329
vt 1.6230255365371704 -0.5156089067459106
vt 1.1072866916656494 -0.6126832962036133
vt 1.1269912719726562 -0.49060654640197754
vt 0.8949613571166992 -0.47013235092163086
vt 0.7466052770614624 -0.8510512113571167
vt 2.0547213554382324 -0.6906194686889648
vt 1.9823907613754272 0.7069989740848541
vt 2.232539176940918 0.8173952400684357
vt 2.4980955123901367 0.6832041144371033
vt 2.536897659301758 0.5673203766345978
vt 2.6074399948120117 0.38510191440582275
vt 2.5871481895446777 0.23688888549804688
vt 2.6039743423461914 0.09134924411773682
vt 0.692164421081543 -0.6193581819534302
vt 0.5255616903305054 -0.6460089683532715
vt 0.3868117034435272 -0.8770467042922974
vt -0.043267667293548584 -0.6977348327636719
vt 0.3565053343772888 -0.5603328943252563
vt 0.06953507661819458 -0.4070882797241211
vt -0.09555673599243164 -0.5367268323898315
vt 2.5896835327148438 -0.18603849411010742
vt 2.5229108333587646 -0.29350268840789795
vt 2.211186647415161 -0.3266700506210327
vt 2.489983320236206 -0.4370145797729492
vt 2.392350912094116 -0.5575861930847168
vt 0.37619438767433167 -0.5314183235168457
vt 0.2031937539577484 -0.2286841869354248
vt 0.46978214383125305 -0.23910737037658691
vt 0.5267437696456909 -0.597175121307373
vt 0.7325838804244995 -0.19476640224456787
vt 0.6820852756500244 -0.5721433162689209
vt 0.18568947911262512 0.0840679407119751
vt 0.1855708211660385 -0.19060814380645752
vt 0.027968883514404297 -0.34996986389160156
vt -0.24950021505355835 -0.022741079330444336
vt -0.09633633494377136 0.22665953636169434
vt 0.06209075450897217 0.3551751375198364
vt 0.2677963674068451 0.33657968044281006
vt 0.37290000915527344 0.23364335298538208
vt 0.8981225490570068 -0.41532647609710693
vt 0.9834998846054077 -0.09514713287353516
vt 1.018711805343628 0.05366969108581543
vt 1.0296084880828857 0.1319901943206787
vt 0.7882436513900757 0.12568193674087524
vt -0.1398901343345642 -0.47867584228515625
vt -0.39058220386505127 -0.4553927183151245
vt -0.4821116328239441 -0.15680623054504395
vt -0.344934344291687 -0.04529237747192383
vt -0.540194571018219 -0.3154916763305664
vt -0.5594452023506165 -0.20331978797912598
vt 0.6467527747154236 0.14827531576156616
vt 1.0296084880828857 0.1319901943206787
vt 0.8660094738006592 0.5573782920837402
vt 0.7741799354553223 0.5635097622871399
vt 0.7797433137893677 0.5288085043430328
vt 0.48391348123550415 0.542305052280426
vt 0.4883986711502075 0.5762380957603455
vt 0.33421599864959717 0.5708459913730621
vt 0.32717716693878174 0.5339372158050537
vt 0.15811695158481598 0.5241117477416992
vt 0.16093508899211884 0.48973172903060913
vt 0.04666508734226227 0.5030379593372345
vt 0.05005303770303726 0.468177855014801
vt -0.07718998193740845 0.49452847242355347
vt -0.06936803460121155 0.5179276466369629
vt -0.30048349499702454 0.5288085043430328
vt 3.2879035472869873 -2.113612651824951
vt 3.4490795135498047 -2.113612651824951
vt 3.4490795135498047 -1.1298222541809082
vt 3.6118791103363037 -2.113612651824951
vt 3.6118791103363037 -1.1256299018859863
vt 3.7058472633361816 -1.1256299018859863
vt 3.7058472633361816 -2.113612651824951
vt 3.7724759578704834 -2.113612651824951
vt 3.7724759578704834 -1.1256299018859863
vt 3.892916440963745 -2.113612651824951
vt 3.892916440963745 -1.1256299018859863
vt 3.971616506576538 -1.3586723804473877
vt 3.971616506576538 -2.113612651824951
vt 3.4490795135498047 -2.1686391830444336
vt 3.2879035472869873 -2.1686391830444336
vt 3.187314033508301 -2.1686391830444336
vt 3.1870832443237305 -2.113426685333252
vt 3.6118791103363037 -2.1686391830444336
vt 3.1164000034332275 -2.1686391830444336
vt 3.1164000034332275 -2.113612651824951
vt 2.7654869556427 -2.1686391830444336
vt 2.7654869556427 -2.113612651824951
vt 2.7654869556427 -1.1256299018859863
vt 3.1164000034332275 -1.1256299018859863
vt 3.187314033508301 -2.113612651824951
vt 3.2714788913726807 -1.1256299018859863
vt 2.5067391395568848 -1.1256299018859863
vt 2.5067391395568848 -2.113612651824951
vt 2.193796157836914 -1.1256299018859863
vt 2.193796157836914 -2.113612651824951
vt 1.8064570426940918 -1.1256299018859863
vt 1.8064570426940918 -2.113612651824951
vt 1.4663500785827637 -1.1256299018859863
vt 1.4663500785827637 -2.113612651824951
vt 1.2329137325286865 -2.113612651824951
vt 1.2329137325286865 -1.1256299018859863
vt 1.1124088764190674 -1.1256299018859863
vt 1.1124088764190674 -2.113612651824951
vt 1.0149067640304565 -1.1256299018859863
vt 1.0149067640304565 -2.113612651824951
vt 0.9189334511756897 -1.1256299018859863
vt 0.9189334511756897 -2.113612651824951
vt 0.7270215153694153 -1.131230354309082
vt 0.7270215153694153 -2.113612651824951
vt 0.606658935546875 -1.1256299018859863
vt 0.606658935546875 -2.113612651824951
vt 0.4863617420196533 -1.1256299018859863
vt 0.4863617420196533 -2.113612651824951
vt 0.35349592566490173 -1.1256299018859863
vt 0.35349592566490173 -2.113612651824951
vt 0.35349592566490173 -2.1686391830444336
vt 0.4863617420196533 -2.1686391830444336
vt 0.606658935546875 -2.1686391830444336
vt 0.7270215153694153 -2.1686391830444336
vt 0.2532310485839844 -2.1686391830444336
vt 0.2532310485839844 -2.113612651824951
vt 0.04311484098434448 -2.1686391830444336
vt 0.04311484098434448 -2.113612651824951
vt -0.16246327757835388 -2.1686391830444336
vt -0.16246327757835388 -2.113612651824951
vt -0.27976110577583313 -2.1686391830444336
vt -0.27976110577583313 -2.113612651824951
vt -0.35649412870407104 -2.1686391830444336
vt -0.35649412870407104 -2.113612651824951
vt -0.423550546169281 -2.1686391830444336
vt -0.423550546169281 -2.113612651824951
vt -0.5065339207649231 -2.1686391830444336
vt -0.5065339207649231 -2.113612651824951
vt -0.5715473890304565 -2.1686391830444336
vt -0.5715473890304565 -2.113612651824951
vt -0.7089391350746155 -2.1686391830444336
vt -0.7089391350746155 -2.113612651824951
vt -0.7089391350746155 -1.1256299018859863
vt -0.5205095410346985 -1.1256299018859863
vt -0.5272817015647888 -1.8789267539978027
vt -0.423550546169281 -1.7186000347137451
vt -0.43031853437423706 -1.1256299018859863
vt -0.31363120675086975 -1.7710511684417725
vt -0.27976110577583313 -1.1256299018859863
vt -0.27976110577583313 -1.9123024940490723
vt -0.16246327757835388 -1.1256299018859863
vt -0.816788375377655 -2.1686391830444336
vt -0.8183654546737671 -2.113612651824951
vt -0.932656466960907 -2.1686391830444336
vt -0.932656466960907 -2.113612651824951
vt -0.9326934218406677 -1.8105697631835938
vt -0.8383912444114685 -1.4259567260742188
vt -0.8183654546737671 -1.3725535869598389
vt -0.9828489422798157 -1.8956375122070312
vt -0.9971516728401184 -2.113612651824951
vt -0.9971516728401184 -2.1686391830444336
vt -1.1646802425384521 -2.1686391830444336
vt -1.1646802425384521 -2.112149715423584
vt -1.3770642280578613 -2.1686391830444336
vt -1.3696486949920654 -2.113612651824951
vt -1.5195202827453613 -2.1686391830444336
vt -1.5195202827453613 -2.113612651824951
vt -1.3696486949920654 -1.72688627243042
vt -1.7565996646881104 -2.1686391830444336
vt -1.7565996646881104 -2.113612651824951
vt -1.5195202827453613 -1.1256299018859863
vt -1.7565996646881104 -1.1256299018859863
vt -1.9013352394104004 -1.1256299018859863
vt -1.9013352394104004 -2.113612651824951
vt -2.069509267807007 -1.1256299018859863
vt -2.069509267807007 -2.113612651824951
vt -2.069509267807007 -2.1686391830444336
vt -2.259202480316162 -2.1686391830444336
vt -2.259202480316162 -2.113612651824951
vt -2.480808973312378 -2.1686391830444336
vt -2.480808973312378 -2.113612651824951
vt -1.9013352394104004 -2.1686391830444336
vt -1.3696486949920654 -1.1256299018859863
vt -1.270289659500122 -1.5721945762634277
vt -1.1585688591003418 -1.1256299018859863
vt -1.1585688591003418 -1.404876708984375
vt -1.0626320838928223 -1.3127872943878174
vt -1.043424367904663 -1.1256299018859863
vt -0.9884272217750549 -1.1256299018859863
vt -0.837618887424469 -1.3809337615966797
vt -0.770071268081665 -1.1256299018859863
vt 0.2203541100025177 0.9401416182518005
vt 0.39537614583969116 0.9142177551984787
vt 0.40019580721855164 0.9465581066906452
vt 0.2180929332971573 0.8804641962051392
vt 0.5936734676361084 0.8401110023260117
vt 0.04295661300420761 0.9359745234251022
vt 0.05316679924726486 0.8804224133491516
vt 0.9152287244796753 0.9938034638762474
vt 1.174627423286438 0.9476887434720993
vt 1.1659361124038696 1.001327522099018
vt 0.9204987287521362 0.9397687092423439
vt 1.526374340057373 0.9938034638762474
vt 0.7882202863693237 0.9434484988451004
vt 0.2532310485839844 -1.1256299018859863
vt 0.04311484098434448 -1.4869627952575684
vt 0.28290170431137085 -1.4869627952575684
vt 0.04311484098434448 -1.1256299018859863
vt -0.19338029623031616 -1.4869627952575684
vt -0.16246327757835388 -1.1256299018859863
vt 0.2532310485839844 -1.1256299018859863
vt 0.28290170431137085 -1.4869627952575684
vt 0.35349592566490173 -1.1256299018859863
vt -2.3980915546417236 -1.4846200942993164
vt -2.113752603530884 -1.1256299018859863
vt -2.3982996940612793 -1.1256299018859863
vt -2.259202480316162 -1.5686652660369873
vt -2.351004123687744 -1.9359097480773926
vt -2.3108787536621094 -1.9116225242614746
vt -2.480808973312378 -1.1256299018859863
vt -2.480808973312378 -1.3586723804473877
vt 1.8064570426940918 -2.1686391830444336
vt 2.193796157836914 -2.1686391830444336
vt 2.5057473182678223 -2.1686391830444336
vt 1.4664306640625 -2.1686391830444336
vt 1.2329137325286865 -2.1686391830444336
vt 1.1124088764190674 -2.1686391830444336
vt 1.0149067640304565 -2.1686391830444336
vt 0.9189334511756897 -2.1686391830444336
vt 3.893883466720581 -2.1686391830444336
vt 3.971616506576538 -2.1686391830444336
vt 3.7724759578704834 -2.1686391830444336
vt 3.7058472633361816 -2.1686391830444336
vt -0.16246327757835388 -1.1256299018859863
vt -0.16246327757835388 -2.113612651824951
vt -0.19338029623031616 -1.4869627952575684
vt 3.971616506576538 -1.1256299018859863
vt 0.35349592566490173 -1.1256299018859863
vt 0.28290170431137085 -1.4869627952575684
vt 0.35349592566490173 -2.113612651824951
vt 0.35349592566490173 -2.113612651824951
vt 0.28290170431137085 -1.4869627952575684
vt 0.2532310485839844 -2.113612651824951

g bg_mdl_map_rock00
s 1
usemtl bg_mdl_map_rock00_0
f 3/3/3 2/2/2 1/1/1 
f 2/2/2 3/3/3 4/4/4 
f 3/3/3 5/5/5 4/4/4 
f 4/4/4 5/5/5 6/6/6 
f 7/7/7 6/6/6 5/5/5 
f 3/3/3 8/8/8 5/5/5 
f 8/8/8 9/9/9 5/5/5 
f 10/10/10 5/5/5 9/9/9 
f 11/11/11 5/5/5 10/10/10 
f 7/7/7 5/5/5 11/11/11 
f 12/12/12 4/4/4 6/6/6 
f 4/4/4 12/12/12 13/13/13 
f 4/4/4 13/13/13 14/14/14 
f 14/14/14 15/15/15 4/4/4 
f 16/16/16 4/4/4 15/15/15 
f 13/13/13 17/17/17 14/14/14 
f 17/17/17 18/18/18 14/14/14 
f 17/17/17 19/19/19 18/18/18 
f 19/19/19 20/20/20 18/18/18 
f 16/16/16 15/15/15 21/21/21 
f 21/21/21 22/22/22 16/16/16 
f 23/23/23 16/16/16 22/22/22 
f 23/23/23 22/22/22 24/24/24 
f 25/25/25 24/24/24 22/22/22 
f 21/21/21 15/15/15 26/26/26 
f 20/20/20 27/27/27 18/18/18 
f 27/27/27 28/28/28 18/18/18 
f 18/18/18 28/28/28 29/29/29 
f 30/30/30 18/18/18 29/29/29 
f 31/31/31 18/18/18 30/30/30 
f 32/32/32 18/18/18 31/31/31 
f 33/33/33 18/18/18 32/32/32 
f 34/34/34 24/24/24 25/25/25 
f 34/34/34 25/25/25 35/35/35 
f 36/36/36 35/35/35 25/25/25 
f 36/36/36 37/37/37 35/35/35 
f 38/38/38 35/35/35 37/37/37 
f 38/38/38 37/37/37 39/39/39 
f 40/40/40 39/39/39 37/37/37 
f 18/18/18 33/33/33 14/14/14 
f 41/41/41 14/14/14 33/33/33 
f 41/41/41 42/42/42 14/14/14 
f 43/43/43 14/14/14 42/42/42 
f 42/42/42 44/44/44 43/43/43 
f 44/44/44 45/45/45 43/43/43 
f 45/45/45 26/26/26 43/43/43 
f 26/26/26 15/15/15 43/43/43 
f 14/14/14 43/43/43 15/15/15 
f 39/39/39 47/47/47 46/46/46 
f 47/47/47 48/48/48 46/46/46 
f 49/49/49 46/46/46 48/48/48 
f 49/49/49 48/48/48 50/50/50 
f 50/50/50 51/51/51 49/49/49 
f 50/50/50 48/48/48 52/52/52 
f 53/53/53 52/52/52 48/48/48 
f 54/54/54 52/52/52 53/53/53 
f 54/54/54 55/55/55 52/52/52 
f 56/56/56 52/52/52 55/55/55 
f 52/52/52 56/56/56 57/57/57 
f 58/58/58 52/52/52 57/57/57 
f 58/58/58 59/59/59 52/52/52 
f 52/52/52 59/59/59 50/50/50 
f 60/60/60 51/51/51 50/50/50 
f 60/60/60 50/50/50 1/1/1 
f 3/3/3 1/1/1 50/50/50 
f 3/3/3 50/50/50 61/61/61 
f 61/61/61 50/50/50 62/62/62 
f 62/62/62 50/50/50 63/63/63 
f 64/64/64 63/63/63 50/50/50 
f 54/54/54 65/65/65 55/55/55 
f 65/65/65 66/66/66 55/55/55 
f 66/66/66 67/67/67 55/55/55 
f 68/68/68 55/55/55 67/67/67 
f 66/66/66 69/69/69 67/67/67 
f 70/70/70 67/67/67 69/69/69 
f 71/71/71 50/50/50 59/59/59 
f 71/71/71 64/64/64 50/50/50 
f 72/72/72 10/10/10 9/9/9 

usemtl bg_mdl_map_rock00_1
f 75/75/75 74/74/74 73/73/73 
f 75/75/75 76/76/76 74/74/74 
f 77/77/77 74/74/74 76/76/76 
f 77/77/77 76/76/76 78/78/78 
f 79/79/79 78/78/78 76/76/76 
f 78/78/78 79/79/79 80/80/80 
f 81/81/81 80/80/80 79/79/79 
f 80/80/80 81/81/81 82/82/82 
f 83/83/83 82/82/82 81/81/81 
f 83/83/83 84/84/84 82/82/82 
f 85/85/85 82/82/82 84/84/84 
f 84/84/84 86/86/86 85/85/85 
f 89/89/89 88/88/88 87/87/87 
f 88/88/88 89/89/89 90/90/90 
f 91/91/91 90/90/90 89/89/89 
f 91/91/91 92/92/92 90/90/90 
f 93/93/93 90/90/90 92/92/92 
f 93/93/93 92/92/92 94/94/94 
f 95/95/95 94/94/94 92/92/92 
f 94/94/94 95/95/95 96/96/96 
f 97/97/97 96/96/96 95/95/95 
f 97/97/97 98/98/98 96/96/96 
f 99/99/99 96/96/96 98/98/98 
f 88/88/88 100/100/100 87/87/87 
f 88/88/88 90/90/90 100/100/100 
f 101/101/101 87/87/87 100/100/100 
f 101/101/101 102/102/102 87/87/87 
f 103/103/103 87/87/87 102/102/102 
f 104/104/104 100/100/100 90/90/90 
f 90/90/90 93/93/93 104/104/104 
f 102/102/102 105/105/105 103/103/103 
f 106/106/106 103/103/103 105/105/105 
f 105/105/105 107/107/107 106/106/106 
f 108/108/108 106/106/106 107/107/107 
f 108/108/108 109/109/109 106/106/106 
f 110/110/110 106/106/106 109/109/109 
f 106/106/106 110/110/110 111/111/111 
f 112/112/112 111/111/111 110/110/110 
f 109/109/109 108/108/108 113/113/113 
f 114/114/114 113/113/113 108/108/108 
f 113/113/113 114/114/114 115/115/115 
f 116/116/116 115/115/115 114/114/114 
f 115/115/115 116/116/116 117/117/117 
f 118/118/118 117/117/117 116/116/116 
f 117/117/117 118/118/118 119/119/119 
f 120/120/120 119/119/119 118/118/118 
f 120/120/120 121/121/121 119/119/119 
f 122/122/122 119/119/119 121/121/121 
f 122/122/122 121/121/121 123/123/123 
f 124/124/124 123/123/123 121/121/121 
f 123/123/123 124/124/124 125/125/125 
f 126/126/126 125/125/125 124/124/124 
f 125/125/125 126/126/126 127/127/127 
f 128/128/128 127/127/127 126/126/126 
f 127/127/127 128/128/128 129/129/129 
f 130/130/130 129/129/129 128/128/128 
f 129/129/129 130/130/130 131/131/131 
f 132/132/132 131/131/131 130/130/130 
f 131/131/131 132/132/132 133/133/133 
f 134/134/134 133/133/133 132/132/132 
f 133/133/133 134/134/134 135/135/135 
f 136/136/136 135/135/135 134/134/134 
f 136/136/136 134/134/134 137/137/137 
f 138/138/138 137/137/137 134/134/134 
f 134/134/134 132/132/132 138/138/138 
f 139/139/139 138/138/138 132/132/132 
f 132/132/132 130/130/130 139/139/139 
f 140/140/140 139/139/139 130/130/130 
f 130/130/130 128/128/128 140/140/140 
f 137/137/137 141/141/141 136/136/136 
f 142/142/142 136/136/136 141/141/141 
f 141/141/141 143/143/143 142/142/142 
f 144/144/144 142/142/142 143/143/143 
f 143/143/143 145/145/145 144/144/144 
f 146/146/146 144/144/144 145/145/145 
f 145/145/145 147/147/147 146/146/146 
f 148/148/148 146/146/146 147/147/147 
f 147/147/147 149/149/149 148/148/148 
f 150/150/150 148/148/148 149/149/149 
f 149/149/149 151/151/151 150/150/150 
f 152/152/152 150/150/150 151/151/151 
f 151/151/151 153/153/153 152/152/152 
f 154/154/154 152/152/152 153/153/153 
f 153/153/153 155/155/155 154/154/154 
f 156/156/156 154/154/154 155/155/155 
f 155/155/155 157/157/157 156/156/156 
f 158/158/158 156/156/156 157/157/157 
f 158/158/158 159/159/159 156/156/156 
f 160/160/160 156/156/156 159/159/159 
f 161/161/161 156/156/156 160/160/160 
f 154/154/154 161/161/161 152/152/152 
f 154/154/154 156/156/156 161/161/161 
f 161/161/161 160/160/160 162/162/162 
f 152/152/152 162/162/162 150/150/150 
f 162/162/162 152/152/152 161/161/161 
f 163/163/163 162/162/162 160/160/160 
f 164/164/164 162/162/162 163/163/163 
f 164/164/164 150/150/150 162/162/162 
f 163/163/163 165/165/165 164/164/164 
f 166/166/166 164/164/164 165/165/165 
f 165/165/165 167/167/167 166/166/166 
f 146/146/146 166/166/166 167/167/167 
f 157/157/157 168/168/168 158/158/158 
f 169/169/169 158/158/158 168/168/168 
f 168/168/168 170/170/170 169/169/169 
f 171/171/171 169/169/169 170/170/170 
f 171/171/171 172/172/172 169/169/169 
f 172/172/172 173/173/173 169/169/169 
f 173/173/173 174/174/174 169/169/169 
f 172/172/172 171/171/171 175/175/175 
f 176/176/176 175/175/175 171/171/171 
f 176/176/176 171/171/171 177/177/177 
f 170/170/170 177/177/177 171/171/171 
f 177/177/177 178/178/178 176/176/176 
f 179/179/179 176/176/176 178/178/178 
f 176/176/176 179/179/179 175/175/175 
f 178/178/178 180/180/180 179/179/179 
f 181/181/181 179/179/179 180/180/180 
f 179/179/179 181/181/181 175/175/175 
f 180/180/180 182/182/182 181/181/181 
f 183/183/183 181/181/181 182/182/182 
f 184/184/184 181/181/181 183/183/183 
f 182/182/182 185/185/185 183/183/183 
f 186/186/186 183/183/183 185/185/185 
f 183/183/183 186/186/186 187/187/187 
f 188/188/188 187/187/187 186/186/186 
f 188/188/188 186/186/186 189/189/189 
f 190/190/190 189/189/189 186/186/186 
f 189/189/189 190/190/190 191/191/191 
f 192/192/192 191/191/191 190/190/190 
f 192/192/192 190/190/190 193/193/193 
f 193/193/193 194/194/194 192/192/192 
f 195/195/195 192/192/192 194/194/194 
f 194/194/194 196/196/196 195/195/195 
f 197/197/197 195/195/195 196/196/196 
f 198/198/198 193/193/193 190/190/190 
f 190/190/190 186/186/186 198/198/198 
f 185/185/185 198/198/198 186/186/186 
f 187/187/187 199/199/199 183/183/183 
f 184/184/184 199/199/199 200/200/200 
f 199/199/199 201/201/201 200/200/200 
f 202/202/202 200/200/200 201/201/201 
f 175/175/175 200/200/200 202/202/202 
f 202/202/202 201/201/201 203/203/203 
f 202/202/202 203/203/203 175/175/175 
f 204/204/204 203/203/203 201/201/201 
f 184/184/184 200/200/200 181/181/181 
f 200/200/200 175/175/175 181/181/181 
f 184/184/184 183/183/183 199/199/199 
f 175/175/175 203/203/203 205/205/205 
f 204/204/204 205/205/205 203/203/203 
f 175/175/175 205/205/205 206/206/206 
f 207/207/207 206/206/206 205/205/205 
f 175/175/175 206/206/206 172/172/172 
f 173/173/173 172/172/172 206/206/206 
f 206/206/206 174/174/174 173/173/173 
f 207/207/207 174/174/174 206/206/206 
f 159/159/159 174/174/174 207/207/207 
f 158/158/158 174/174/174 159/159/159 
f 169/169/169 174/174/174 158/158/158 
f 210/210/210 209/209/209 208/208/208 
f 211/211/211 208/208/208 209/209/209 
f 212/212/212 209/209/209 210/210/210 
f 208/208/208 211/211/211 213/213/213 
f 214/214/214 213/213/213 211/211/211 
f 217/217/217 216/216/216 215/215/215 
f 218/218/218 215/215/215 216/216/216 
f 219/219/219 216/216/216 217/217/217 
f 218/218/218 220/220/220 215/215/215 
f 223/223/223 222/222/222 221/221/221 
f 224/224/224 221/221/221 222/222/222 
f 222/222/222 225/225/225 224/224/224 
f 226/226/226 224/224/224 225/225/225 
f 223/223/223 142/142/142 222/222/222 
f 144/144/144 222/222/222 142/142/142 
f 144/144/144 146/146/146 222/222/222 
f 225/225/225 222/222/222 146/146/146 
f 148/148/148 166/166/166 146/146/146 
f 148/148/148 150/150/150 166/166/166 
f 164/164/164 166/166/166 150/150/150 
f 229/229/229 228/228/228 227/227/227 
f 232/232/232 231/231/231 230/230/230 
f 233/233/233 230/230/230 231/231/231 
f 230/230/230 233/233/233 234/234/234 
f 235/235/235 234/234/234 233/233/233 
f 231/231/231 191/191/191 233/233/233 
f 191/191/191 192/192/192 233/233/233 
f 192/192/192 195/195/195 233/233/233 
f 233/233/233 195/195/195 235/235/235 
f 235/235/235 195/195/195 234/234/234 
f 195/195/195 197/197/197 234/234/234 
f 234/234/234 197/197/197 230/230/230 
f 232/232/232 230/230/230 236/236/236 
f 237/237/237 236/236/236 230/230/230 
f 237/237/237 230/230/230 197/197/197 
f 118/118/118 116/116/116 238/238/238 
f 239/239/239 238/238/238 116/116/116 
f 116/116/116 114/114/114 239/239/239 
f 240/240/240 239/239/239 114/114/114 
f 238/238/238 241/241/241 118/118/118 
f 120/120/120 118/118/118 241/241/241 
f 114/114/114 108/108/108 240/240/240 
f 107/107/107 240/240/240 108/108/108 
f 241/241/241 242/242/242 120/120/120 
f 121/121/121 120/120/120 242/242/242 
f 242/242/242 243/243/243 121/121/121 
f 124/124/124 121/121/121 243/243/243 
f 243/243/243 244/244/244 124/124/124 
f 126/126/126 124/124/124 244/244/244 
f 244/244/244 245/245/245 126/126/126 
f 128/128/128 126/126/126 245/245/245 
f 245/245/245 140/140/140 128/128/128 
f 247/247/247 246/246/246 99/99/99 
f 96/96/96 99/99/99 246/246/246 
f 246/246/246 248/248/248 96/96/96 
f 94/94/94 96/96/96 248/248/248 
f 248/248/248 249/249/249 94/94/94 
f 93/93/93 94/94/94 249/249/249 
f 249/249/249 104/104/104 93/93/93 
f 111/111/111 112/112/112 87/87/87 
f 112/112/112 89/89/89 87/87/87 
f 252/252/252 251/251/251 250/250/250 
f 253/253/253 98/98/98 97/97/97 
f 256/256/256 255/255/255 254/254/254 
f 259/259/259 258/258/258 257/257/257 

