v 3.0063743591308594 3.501760721206665 -0.08715011179447174
v 4.221012592315674 2.501760482788086 -0.0871499627828598
v 3.0063743591308594 2.501760721206665 -0.0871499627828598
v 4.221012592315674 3.501760482788086 -0.08715011179447174
v 4.221011638641357 1.501760482788086 -0.08715011179447174
v 3.006373882293701 1.5017608404159546 -0.08715011179447174
vn -0.0 1.5258787300354015e-07 1.0
vn -0.0 1.5258787300354015e-07 1.0
vn -0.0 1.5258785879268544e-07 1.0
vn -0.0 1.525879156361043e-07 1.0
vn -0.0 -1.525879156361043e-07 1.0
vn -0.0 -1.525879156361043e-07 1.0
vt 0.5000002384185791 -0.49546825885772705
vt 0.9995002746582031 -1.0462360382080078
vt 0.5000004768371582 -1.0462360382080078
vt 0.999500036239624 -0.49546825885772705
vt 0.9995002746582031 -1.6104564666748047
vt 0.5000004768371582 -1.6104564666748047

g d024_floor
s 1
usemtl d024_floor
f 3/3/3 2/2/2 1/1/1 
f 4/4/4 1/1/1 2/2/2 
f 2/2/2 3/3/3 5/5/5 
f 6/6/6 5/5/5 3/3/3 

