v -2.119999885559082 6.082533836364746 2.9999959468841553
v -2.999999523162842 5.0 2.999995708465576
v -3.0 6.082533836364746 2.9999959468841553
v -1.999999761581421 6.0 2.999995708465576
v -1.999999761581421 5.0 2.999995708465576
v -3.999999523162842 5.0 2.999995708465576
v -4.0 6.082533836364746 2.9999959468841553
v -4.999999523162842 5.0 2.999995708465576
v -5.0 6.082533836364746 2.9999959468841553
v -6.0 5.0 2.999995708465576
v -5.999998569488525 6.082533836364746 2.9999959468841553
v -3.0 4.0 2.999995708465576
v -1.999999761581421 4.0 2.999995708465576
v -4.0 4.0 2.999995708465576
v -5.0 4.0 2.999995708465576
v -6.0 4.0 2.999995708465576
v -2.999999523162842 3.0 2.999995708465576
v -1.999999761581421 3.0 2.999995708465576
v -3.999999523162842 3.0 2.999995708465576
v -4.999999523162842 3.0 2.999995708465576
v -6.0 3.0 2.999995708465576
v -3.0 2.0 2.999995708465576
v -1.999999761581421 2.0 2.999995708465576
v -4.0 2.0 2.999995708465576
v -5.0 2.0 2.999995708465576
v -5.999999046325684 2.0 2.999995708465576
v -2.999999523162842 1.0 2.999995708465576
v -1.999999761581421 1.0 2.999995708465576
v -3.999999523162842 1.0 2.999995708465576
v -4.999999523162842 1.0 2.999995708465576
v -6.0 1.0 2.999995708465576
v -3.0 -3.6739402930577075e-16 2.999995708465576
v -2.1649997234344482 -2.6513600321827495e-16 2.999995708465576
v -1.999999761581421 0.14606444537639618 2.9999959468841553
v -3.9710545539855957 -0.014721681363880634 2.9999959468841553
v -3.884999990463257 -4.757752830387475e-16 2.999995708465576
v -5.0 -6.123233468832451e-16 2.999995708465576
v -6.0 -7.347880586115415e-16 2.999995708465576
v -5.0 -1.0 2.999995708465576
v -4.0 -0.08999999612569809 2.999995708465576
v -4.0 -1.0 2.999995708465576
v -6.0 -1.0 2.999995708465576
v -5.0 -2.0 2.999995708465576
v -3.927075147628784 -1.1649999618530273 2.9999959468841553
v -3.927075147628784 -1.8413499593734741 2.9999959468841553
v -4.0 -2.0 2.999995708465576
v -6.0 -2.0 2.999995708465576
v -5.0 -3.0 2.999995708465576
v -4.0 -3.0 2.999995708465576
v -6.0 -3.0 2.999995708465576
v -5.0 -4.0 2.999995708465576
v -3.9486351013183594 -3.2749998569488525 2.9999959468841553
v -3.931757688522339 -3.474375009536743 2.9999959468841553
v -4.0 -4.0 2.999995708465576
v -6.0 -4.000000476837158 2.999995708465576
v -5.0 -6.000002384185791 2.9999959468841553
v -4.125 -6.000002384185791 2.9999959468841553
v -4.0 -5.863510608673096 2.9999959468841553
v -6.000000476837158 -6.000003337860107 2.9999959468841553
v -2.0 5.0 0.0
v -1.999999761581421 6.0 2.999995708465576
v -2.0 6.0 0.0
v -1.999999761581421 5.0 2.999995708465576
v -2.0 4.0 0.0
v -1.999999761581421 4.0 2.999995708465576
v -2.0 3.0 0.0
v -1.999999761581421 3.0 2.999995708465576
v -2.0 2.0 0.0
v -1.999999761581421 2.0 2.999995708465576
v -2.0 1.0 0.0
v -1.999999761581421 1.0 2.999995708465576
v -2.0 0.14606444537639618 0.0
v -1.999999761581421 0.14606444537639618 2.9999959468841553
v -2.119999885559082 6.082533836364746 0.0
v -1.999999761581421 6.0 2.999995708465576
v -2.119999885559082 6.082533836364746 2.9999959468841553
v -2.0 6.0 0.0
v -3.0 6.082533836364746 0.0
v -4.0 6.082533836364746 2.9999959468841553
v -4.0 6.082533836364746 0.0
v -3.0 6.082533836364746 2.9999959468841553
v -5.0 6.082533836364746 2.9999959468841553
v -5.0 6.082533836364746 0.0
v -5.999998569488525 6.082533836364746 2.9999959468841553
v -6.0 6.082533836364746 0.0
v -2.119999885559082 6.082533836364746 2.9999959468841553
v -2.119999885559082 6.082533836364746 0.0
v -6.000000476837158 -6.000002861022949 0.0
v -5.0 -6.000002384185791 2.9999959468841553
v -5.0 -6.000002384185791 0.0
v -6.000000476837158 -6.000003337860107 2.9999959468841553
v -4.125 -6.000002384185791 0.0
v -4.125 -6.000002384185791 2.9999959468841553
v -4.0 -5.863510608673096 0.0
v -4.0 -4.0 2.999995708465576
v -4.0 -4.0 0.0
v -4.0 -5.863510608673096 2.9999959468841553
v -3.931757688522339 -3.474375009536743 0.0
v -4.0 -4.0 2.999995708465576
v -3.931757688522339 -3.474375009536743 2.9999959468841553
v -4.0 -4.0 0.0
v -4.0 -3.0 0.0
v -4.0 -2.0 2.999995708465576
v -4.0 -2.0 0.0
v -4.0 -3.0 2.999995708465576
v -3.927075147628784 -1.8413499593734741 0.0
v -4.0 -2.0 2.999995708465576
v -3.927075147628784 -1.8413499593734741 2.9999959468841553
v -4.0 -2.0 0.0
v -4.0 -0.08999999612569809 0.0
v -4.0 -1.0 2.999995708465576
v -4.0 -0.08999999612569809 2.999995708465576
v -4.0 -1.0 0.0
v -3.884999990463257 -4.757752830387475e-16 0.0
v -3.9710545539855957 -0.014721681363880634 2.9999959468841553
v -3.884999990463257 -4.757752830387475e-16 2.999995708465576
v -3.9710545539855957 -0.014721681363880634 0.0
v -2.1649999618530273 -2.6513602968805455e-16 0.0
v -3.0 -3.6739402930577075e-16 2.999995708465576
v -2.1649997234344482 -2.6513600321827495e-16 2.999995708465576
v -3.0 -3.6739402930577075e-16 0.0
v -3.884999990463257 -4.757752830387475e-16 2.999995708465576
v -3.884999990463257 -4.757752830387475e-16 0.0
v -2.0 0.14606444537639618 0.0
v -2.1649997234344482 -2.6513600321827495e-16 2.999995708465576
v -1.999999761581421 0.14606444537639618 2.9999959468841553
v -2.1649999618530273 -2.6513602968805455e-16 0.0
v -3.9710545539855957 -0.014721681363880634 0.0
v -4.0 -0.08999999612569809 2.999995708465576
v -3.9710545539855957 -0.014721681363880634 2.9999959468841553
v -4.0 -0.08999999612569809 0.0
v -4.0 -5.863510608673096 0.0
v -4.125 -6.000002384185791 2.9999959468841553
v -4.0 -5.863510608673096 2.9999959468841553
v -4.125 -6.000002384185791 0.0
v -4.0 -1.0 0.0
v -3.927075147628784 -1.1649999618530273 2.9999959468841553
v -4.0 -1.0 2.999995708465576
v -3.927075147628784 -1.1649999618530273 0.0
v -3.927075147628784 -1.1649999618530273 0.0
v -3.927075147628784 -1.8413499593734741 2.9999959468841553
v -3.927075147628784 -1.1649999618530273 2.9999959468841553
v -3.927075147628784 -1.8413499593734741 0.0
v -4.0 -3.0 0.0
v -3.9486351013183594 -3.2749998569488525 2.9999959468841553
v -4.0 -3.0 2.999995708465576
v -3.9486351013183594 -3.2749998569488525 0.0
v -3.9486351013183594 -3.2749998569488525 0.0
v -3.931757688522339 -3.474375009536743 2.9999959468841553
v -3.9486351013183594 -3.2749998569488525 2.9999959468841553
v -3.931757688522339 -3.474375009536743 0.0
vn 4.898406018583046e-07 -5.391492550188559e-07 1.0
vn -0.0 0.0 1.0
vn -0.0 -1.4095434153205133e-07 1.0
vn 4.811253688785655e-07 -4.811253120351466e-07 1.0
vn -0.0 0.0 1.0
vn -0.0 0.0 1.0
vn -0.0 -1.4095435574290605e-07 1.0
vn -0.0 0.0 1.0
vn -0.0 -1.4095432732119662e-07 1.0
vn -0.0 0.0 1.0
vn -0.0 -1.4095434153205133e-07 1.0
vn -0.0 0.0 1.0
vn -0.0 0.0 1.0
vn -0.0 0.0 1.0
vn -0.0 0.0 1.0
vn -0.0 0.0 1.0
vn -0.0 0.0 1.0
vn -0.0 0.0 1.0
vn -0.0 0.0 1.0
vn -0.0 0.0 1.0
vn -0.0 0.0 1.0
vn -0.0 0.0 1.0
vn -0.0 0.0 1.0
vn -0.0 0.0 1.0
vn -0.0 0.0 1.0
vn -0.0 0.0 1.0
vn -0.0 0.0 1.0
vn -0.0 0.0 1.0
vn -0.0 1.1170013181072136e-07 1.0
vn -0.0 0.0 1.0
vn -0.0 0.0 1.0
vn -0.0 0.0 1.0
vn -3.0587679589189065e-07 0.0 1.0
vn -1.0829566008396796e-06 1.7868782720142917e-07 1.0
vn 1.0740943707787665e-06 -1.058034172274347e-06 1.0
vn 3.1108083931030706e-06 -2.753066155491979e-06 1.0
vn -1.1068907923572624e-07 0.0 1.0
vn -0.0 0.0 1.0
vn -0.0 0.0 1.0
vn 4.328311661083717e-06 -4.756386260851286e-06 1.0
vn -2.165948842502985e-07 2.165948842502985e-07 1.0
vn -0.0 0.0 1.0
vn -0.0 0.0 1.0
vn -4.7477794851147337e-07 4.2732114025056944e-07 1.0
vn -0.0 -3.5237223983131116e-07 1.0
vn -0.0 -5.388931185734691e-07 1.0
vn -0.0 0.0 1.0
vn -0.0 0.0 1.0
vn -1.3635064988193335e-07 1.3635064988193335e-07 1.0
vn -0.0 0.0 1.0
vn -0.0 0.0 1.0
vn -3.53300151800795e-07 3.0187507604750863e-07 1.0
vn -0.0 -1.0530543192999176e-07 1.0
vn -0.0 0.0 1.0
vn -0.0 0.0 1.0
vn -0.0 1.5258770247328357e-07 1.0
vn 3.3223435025320214e-07 1.318230857805247e-07 1.0
vn 1.1312936294416431e-06 0.0 1.0
vn -0.0 1.5258768826242886e-07 1.0
vn 1.0 0.0 0.0
vn 1.0 0.0 0.0
vn 1.0 0.0 0.0
vn 1.0 0.0 0.0
vn 1.0 0.0 0.0
vn 1.0 0.0 0.0
vn 1.0 0.0 0.0
vn 1.0 0.0 0.0
vn 1.0 0.0 0.0
vn 1.0 0.0 0.0
vn 1.0 0.0 0.0
vn 1.0 0.0 0.0
vn 1.0 0.0 0.0
vn 1.0 0.0 0.0
vn 0.5666881799697876 0.8239322900772095 0.0
vn 0.5666882395744324 0.823932409286499 0.0
vn 0.5666882395744324 0.823932409286499 0.0
vn 0.5666881799697876 0.8239322900772095 0.0
vn -0.0 1.0 0.0
vn -0.0 1.0 0.0
vn -0.0 1.0 0.0
vn -0.0 1.0 0.0
vn -0.0 1.0 0.0
vn -0.0 1.0 0.0
vn -0.0 1.0 0.0
vn -0.0 1.0 0.0
vn -0.0 1.0 0.0
vn -0.0 1.0 0.0
vn 6.103512077970663e-07 -1.0 0.0
vn 6.103512077970663e-07 -1.0 0.0
vn 6.103512077970663e-07 -1.0 0.0
vn 1.2207024155941326e-06 -1.0 -3.6621139543058234e-07
vn -0.0 -1.0 0.0
vn -0.0 -1.0 0.0
vn 1.0 0.0 0.0
vn 1.0 0.0 0.0
vn 1.0 0.0 0.0
vn 1.0 0.0 0.0
vn 0.9916770458221436 -0.1287500113248825 0.0
vn 0.9916770458221436 -0.1287500113248825 0.0
vn 0.9916770458221436 -0.1287499964237213 0.0
vn 0.9916770458221436 -0.1287499964237213 0.0
vn 1.0 0.0 0.0
vn 1.0 0.0 0.0
vn 1.0 0.0 0.0
vn 1.0 0.0 0.0
vn 0.9086083173751831 -0.4176492989063263 0.0
vn 0.9086083173751831 -0.4176492989063263 0.0
vn 0.9086083173751831 -0.41764935851097107 0.0
vn 0.9086083173751831 -0.4176492691040039 0.0
vn 1.0 0.0 0.0
vn 1.0 0.0 0.0
vn 1.0 0.0 0.0
vn 1.0 0.0 0.0
vn 0.1686239093542099 -0.9856804609298706 0.0
vn 0.1686239093542099 -0.9856804609298706 0.0
vn 0.1686238795518875 -0.9856804609298706 0.0
vn 0.16862384974956512 -0.9856804609298706 0.0
vn -0.0 -1.0 0.0
vn -0.0 -1.0 0.0
vn -0.0 -1.0 0.0
vn -0.0 -1.0 0.0
vn -0.0 -1.0 0.0
vn -0.0 -1.0 0.0
vn 0.6628358364105225 -0.7487647533416748 0.0
vn 0.6628358364105225 -0.7487647533416748 0.0
vn 0.6628358364105225 -0.7487647533416748 0.0
vn 0.6628358364105225 -0.7487647533416748 0.0
vn 0.9333784580230713 -0.3588939309120178 0.0
vn 0.9333784580230713 -0.3588939309120178 0.0
vn 0.9333784580230713 -0.3588939309120178 0.0
vn 0.9333784580230713 -0.3588939309120178 0.0
vn 0.7374699711799622 -0.6753799319267273 0.0
vn 0.7374699711799622 -0.6753799319267273 0.0
vn 0.7374699711799622 -0.6753799319267273 0.0
vn 0.7374699711799622 -0.6753799319267273 0.0
vn 0.9146500825881958 0.4042465388774872 0.0
vn 0.9146500825881958 0.4042465090751648 0.0
vn 0.9146500825881958 0.4042465090751648 0.0
vn 0.9146500825881958 0.4042465090751648 0.0
vn 1.0 0.0 0.0
vn 1.0 0.0 0.0
vn 1.0 0.0 0.0
vn 1.0 0.0 0.0
vn 0.9829999208450317 0.1836056262254715 0.0
vn 0.9829999208450317 0.1836056113243103 0.0
vn 0.9829999208450317 0.1836056262254715 0.0
vn 0.9829999208450317 0.1836056113243103 0.0
vn 0.9964362382888794 0.08435006439685822 0.0
vn 0.9964362382888794 0.08435006439685822 0.0
vn 0.9964362382888794 0.08435006439685822 0.0
vn 0.9964362382888794 0.08435006439685822 0.0
vt -2.079434011648118e-07 0.029999494552612305
vt 0.24999971687793732 0.2499995231628418
vt -2.1755991497229843e-07 0.2499995231628418
vt -2.066320661242571e-07 -4.76837158203125e-07
vt 0.2499997317790985 -4.76837158203125e-07
vt 0.24999971687793732 0.4999995231628418
vt -2.2848776382033975e-07 0.4999995231628418
vt 0.24999970197677612 0.7499995231628418
vt -2.3941561266838107e-07 0.7499995231628418
vt 0.24999968707561493 0.9999995231628418
vt -2.503434473055677e-07 0.9999995231628418
vt 0.4999997615814209 0.2499995231628418
vt 0.4999997615814209 -4.76837158203125e-07
vt 0.4999997317790985 0.4999995231628418
vt 0.4999997317790985 0.7499995231628418
vt 0.4999997317790985 0.9999995231628418
vt 0.7499997615814209 0.2499995231628418
vt 0.7499998211860657 -4.76837158203125e-07
vt 0.7499997615814209 0.4999995231628418
vt 0.7499997615814209 0.7499995231628418
vt 0.7499997615814209 0.9999995231628418
vt 0.9999997019767761 0.2499995231628418
vt 0.9999997615814209 -4.76837158203125e-07
vt 0.9999997019767761 0.4999995231628418
vt 0.9999997019767761 0.7499995231628418
vt 0.9999997019767761 0.9999995231628418
vt 1.249999761581421 0.2499995231628418
vt 1.249999761581421 -4.76837158203125e-07
vt 1.249999761581421 0.4999995231628418
vt 1.249999761581421 0.7499995231628418
vt 1.249999761581421 0.9999995231628418
vt 1.499999761581421 0.2499995231628418
vt 1.499999761581421 0.04124951362609863
vt 1.499999761581421 -4.76837158203125e-07
vt 1.499999761581421 0.4999995231628418
vt 1.499999761581421 0.471249520778656
vt 1.499999761581421 0.7499995231628418
vt 1.499999761581421 0.9999995231628418
vt 1.749999761581421 0.7499995231628418
vt 1.5224997997283936 0.4999995231628418
vt 1.749999761581421 0.4999995231628418
vt 1.749999761581421 0.9999995231628418
vt 1.999999761581421 0.7499995231628418
vt 1.7912497520446777 0.4999995231628418
vt 1.9603372812271118 0.4999995231628418
vt 1.999999761581421 0.4999995231628418
vt 1.999999761581421 0.9999995231628418
vt 2.249999523162842 0.7499995231628418
vt 2.25 0.4999995231628418
vt 2.249999523162842 0.9999995231628418
vt 2.499999523162842 0.7499995231628418
vt 2.3187499046325684 0.4999995231628418
vt 2.368593692779541 0.4999995231628418
vt 2.5 0.4999995231628418
vt 2.499999523162842 0.9999995231628418
vt 3.0 0.7499997615814209
vt 3.0 0.5312497615814209
vt 3.0 0.4999997615814209
vt 3.0 0.9999997615814209
vt 3.4810001850128174 0.9979999866336584
vt 3.7294998168945312 0.26107776165008545
vt 3.7294998168945312 0.9979999866336584
vt 3.4810001850128174 0.26107776165008545
vt 3.2325000762939453 0.9979999866336584
vt 3.2325000762939453 0.26107776165008545
vt 2.9840002059936523 0.9979999866336584
vt 2.9840002059936523 0.26107776165008545
vt 2.7355003356933594 0.9979999866336584
vt 2.7355003356933594 0.26107776165008545
vt 2.4870002269744873 0.9979999866336584
vt 2.4870002269744873 0.26107776165008545
vt 2.2385001182556152 0.9979999866336584
vt 2.2385001182556152 0.26107776165008545
vt 3.75931978225708 0.9979999866336584
vt 3.7294998168945312 0.26107776165008545
vt 3.75931978225708 0.26107776165008545
vt 3.7294998168945312 0.9979999866336584
vt 3.977999687194824 0.9979999866336584
vt 4.226499557495117 0.26107776165008545
vt 4.226499557495117 0.9979999866336584
vt 3.977999687194824 0.26107776165008545
vt 4.47499942779541 0.26107776165008545
vt 4.47499942779541 0.9979999866336584
vt 4.723499774932861 0.26107776165008545
vt 4.723499774932861 0.9979999866336584
vt 3.75931978225708 0.26107776165008545
vt 3.75931978225708 0.9979999866336584
vt -0.2499227374792099 0.9979999866336584
vt -0.0014227330684661865 0.26107776165008545
vt -0.0014227330684661865 0.9979999866336584
vt -0.2499227374792099 0.26107776165008545
vt 0.21601471304893494 0.9979999866336584
vt 0.21601471304893494 0.26107776165008545
vt 0.24707719683647156 0.9979999866336584
vt 0.747499942779541 0.26107776165008545
vt 0.747499942779541 0.9979999866336584
vt 0.24707719683647156 0.26107776165008545
vt 0.8781177997589111 0.9979999866336584
vt 0.747499942779541 0.26107776165008545
vt 0.8781177997589111 0.26107776165008545
vt 0.747499942779541 0.9979999866336584
vt 0.9959999918937683 0.9979999866336584
vt 1.244499921798706 0.26107776165008545
vt 1.244499921798706 0.9979999866336584
vt 0.9959999918937683 0.26107776165008545
vt 1.2839244604110718 0.9979999866336584
vt 1.244499921798706 0.26107776165008545
vt 1.2839244604110718 0.26107776165008545
vt 1.244499921798706 0.9979999866336584
vt 1.719135046005249 0.9979999866336584
vt 1.4929999113082886 0.26107776165008545
vt 1.719135046005249 0.26107776165008545
vt 1.4929999113082886 0.9979999866336584
vt 1.7700774669647217 0.9979999866336584
vt 1.7415000200271606 0.26107776165008545
vt 1.7700774669647217 0.26107776165008545
vt 1.7415000200271606 0.9979999866336584
vt 2.197497606277466 0.9979999866336584
vt 1.9900000095367432 0.26107776165008545
vt 2.197497606277466 0.26107776165008545
vt 1.9900000095367432 0.9979999866336584
vt 1.7700774669647217 0.26107776165008545
vt 1.7700774669647217 0.9979999866336584
vt 2.2385001182556152 0.9979999866336584
vt 2.197497606277466 0.26107776165008545
vt 2.2385001182556152 0.26107776165008545
vt 2.197497606277466 0.9979999866336584
vt 1.7415000200271606 0.9979999866336584
vt 1.719135046005249 0.26107776165008545
vt 1.7415000200271606 0.26107776165008545
vt 1.719135046005249 0.9979999866336584
vt 0.24707719683647156 0.9979999866336584
vt 0.21601471304893494 0.26107776165008545
vt 0.24707719683647156 0.26107776165008545
vt 0.21601471304893494 0.9979999866336584
vt 1.4929999113082886 0.9979999866336584
vt 1.4519973993301392 0.26107776165008545
vt 1.4929999113082886 0.26107776165008545
vt 1.4519973993301392 0.9979999866336584
vt 1.4519973993301392 0.9979999866336584
vt 1.2839244604110718 0.26107776165008545
vt 1.4519973993301392 0.26107776165008545
vt 1.2839244604110718 0.9979999866336584
vt 0.9959999918937683 0.9979999866336584
vt 0.9276624917984009 0.26107776165008545
vt 0.9959999918937683 0.26107776165008545
vt 0.9276624917984009 0.9979999866336584
vt 0.9276624917984009 0.9979999866336584
vt 0.8781177997589111 0.26107776165008545
vt 0.9276624917984009 0.26107776165008545
vt 0.8781177997589111 0.9979999866336584

g bg_mdl_ground002_1_yama
s 1
usemtl bg_mdl_ground002_1_yama_0
f 3/3/3 2/2/2 1/1/1 
f 1/1/1 2/2/2 4/4/4 
f 2/2/2 5/5/5 4/4/4 
f 2/2/2 3/3/3 6/6/6 
f 7/7/7 6/6/6 3/3/3 
f 6/6/6 7/7/7 8/8/8 
f 9/9/9 8/8/8 7/7/7 
f 8/8/8 9/9/9 10/10/10 
f 11/11/11 10/10/10 9/9/9 
f 2/2/2 12/12/12 5/5/5 
f 13/13/13 5/5/5 12/12/12 
f 12/12/12 2/2/2 14/14/14 
f 6/6/6 14/14/14 2/2/2 
f 14/14/14 6/6/6 15/15/15 
f 8/8/8 15/15/15 6/6/6 
f 15/15/15 8/8/8 16/16/16 
f 10/10/10 16/16/16 8/8/8 
f 12/12/12 17/17/17 13/13/13 
f 18/18/18 13/13/13 17/17/17 
f 17/17/17 12/12/12 19/19/19 
f 14/14/14 19/19/19 12/12/12 
f 19/19/19 14/14/14 20/20/20 
f 15/15/15 20/20/20 14/14/14 
f 20/20/20 15/15/15 21/21/21 
f 16/16/16 21/21/21 15/15/15 
f 17/17/17 22/22/22 18/18/18 
f 23/23/23 18/18/18 22/22/22 
f 22/22/22 17/17/17 24/24/24 
f 19/19/19 24/24/24 17/17/17 
f 24/24/24 19/19/19 25/25/25 
f 20/20/20 25/25/25 19/19/19 
f 25/25/25 20/20/20 26/26/26 
f 21/21/21 26/26/26 20/20/20 
f 22/22/22 27/27/27 23/23/23 
f 28/28/28 23/23/23 27/27/27 
f 27/27/27 22/22/22 29/29/29 
f 24/24/24 29/29/29 22/22/22 
f 29/29/29 24/24/24 30/30/30 
f 25/25/25 30/30/30 24/24/24 
f 30/30/30 25/25/25 31/31/31 
f 26/26/26 31/31/31 25/25/25 
f 27/27/27 32/32/32 28/28/28 
f 32/32/32 33/33/33 28/28/28 
f 33/33/33 34/34/34 28/28/28 
f 29/29/29 35/35/35 27/27/27 
f 35/35/35 36/36/36 27/27/27 
f 36/36/36 32/32/32 27/27/27 
f 35/35/35 29/29/29 37/37/37 
f 30/30/30 37/37/37 29/29/29 
f 37/37/37 30/30/30 38/38/38 
f 31/31/31 38/38/38 30/30/30 
f 37/37/37 39/39/39 35/35/35 
f 39/39/39 40/40/40 35/35/35 
f 41/41/41 40/40/40 39/39/39 
f 39/39/39 37/37/37 42/42/42 
f 38/38/38 42/42/42 37/37/37 
f 39/39/39 43/43/43 41/41/41 
f 43/43/43 44/44/44 41/41/41 
f 45/45/45 44/44/44 43/43/43 
f 46/46/46 45/45/45 43/43/43 
f 43/43/43 39/39/39 47/47/47 
f 42/42/42 47/47/47 39/39/39 
f 43/43/43 48/48/48 46/46/46 
f 49/49/49 46/46/46 48/48/48 
f 48/48/48 43/43/43 50/50/50 
f 47/47/47 50/50/50 43/43/43 
f 48/48/48 51/51/51 49/49/49 
f 51/51/51 52/52/52 49/49/49 
f 53/53/53 52/52/52 51/51/51 
f 54/54/54 53/53/53 51/51/51 
f 51/51/51 48/48/48 55/55/55 
f 50/50/50 55/55/55 48/48/48 
f 51/51/51 56/56/56 54/54/54 
f 56/56/56 57/57/57 54/54/54 
f 57/57/57 58/58/58 54/54/54 
f 56/56/56 51/51/51 59/59/59 
f 55/55/55 59/59/59 51/51/51 

usemtl bg_mdl_ground002_1_yama_1
f 62/62/62 61/61/61 60/60/60 
f 63/63/63 60/60/60 61/61/61 
f 60/60/60 63/63/63 64/64/64 
f 65/65/65 64/64/64 63/63/63 
f 64/64/64 65/65/65 66/66/66 
f 67/67/67 66/66/66 65/65/65 
f 66/66/66 67/67/67 68/68/68 
f 69/69/69 68/68/68 67/67/67 
f 68/68/68 69/69/69 70/70/70 
f 71/71/71 70/70/70 69/69/69 
f 70/70/70 71/71/71 72/72/72 
f 73/73/73 72/72/72 71/71/71 
f 76/76/76 75/75/75 74/74/74 
f 77/77/77 74/74/74 75/75/75 
f 80/80/80 79/79/79 78/78/78 
f 81/81/81 78/78/78 79/79/79 
f 79/79/79 80/80/80 82/82/82 
f 83/83/83 82/82/82 80/80/80 
f 82/82/82 83/83/83 84/84/84 
f 85/85/85 84/84/84 83/83/83 
f 81/81/81 86/86/86 78/78/78 
f 87/87/87 78/78/78 86/86/86 
f 90/90/90 89/89/89 88/88/88 
f 91/91/91 88/88/88 89/89/89 
f 90/90/90 92/92/92 89/89/89 
f 93/93/93 89/89/89 92/92/92 
f 96/96/96 95/95/95 94/94/94 
f 97/97/97 94/94/94 95/95/95 
f 100/100/100 99/99/99 98/98/98 
f 101/101/101 98/98/98 99/99/99 
f 104/104/104 103/103/103 102/102/102 
f 105/105/105 102/102/102 103/103/103 
f 108/108/108 107/107/107 106/106/106 
f 109/109/109 106/106/106 107/107/107 
f 112/112/112 111/111/111 110/110/110 
f 113/113/113 110/110/110 111/111/111 
f 116/116/116 115/115/115 114/114/114 
f 117/117/117 114/114/114 115/115/115 
f 120/120/120 119/119/119 118/118/118 
f 121/121/121 118/118/118 119/119/119 
f 119/119/119 122/122/122 121/121/121 
f 123/123/123 121/121/121 122/122/122 
f 126/126/126 125/125/125 124/124/124 
f 127/127/127 124/124/124 125/125/125 
f 130/130/130 129/129/129 128/128/128 
f 131/131/131 128/128/128 129/129/129 
f 134/134/134 133/133/133 132/132/132 
f 135/135/135 132/132/132 133/133/133 
f 138/138/138 137/137/137 136/136/136 
f 139/139/139 136/136/136 137/137/137 
f 142/142/142 141/141/141 140/140/140 
f 143/143/143 140/140/140 141/141/141 
f 146/146/146 145/145/145 144/144/144 
f 147/147/147 144/144/144 145/145/145 
f 150/150/150 149/149/149 148/148/148 
f 151/151/151 148/148/148 149/149/149 

