v 1.0120675563812256 0.0 0.0
v 0.7060269117355347 -2.0359792074486904e-07 1.0681152389224735e-06
v 0.7026271820068359 0.06920253485441208 1.0681152389224735e-06
v 1.0071941614151 0.09919997304677963 0.0
v 0.6924607157707214 0.13773880898952484 1.0681152389224735e-06
v 0.9926208853721619 0.1974445879459381 0.0
v 0.6756256222724915 0.2049485594034195 1.0681152389224735e-06
v 0.9684882760047913 0.2937876880168915 0.0
v 0.6522836685180664 0.27018457651138306 1.0681152389224735e-06
v 0.9350284337997437 0.387301504611969 0.0
v 0.6226600408554077 0.33281850814819336 1.0681152389224735e-06
v 0.8925638198852539 0.47708532214164734 0.0
v 0.5870397686958313 0.39224734902381897 1.0681152389224735e-06
v 0.841503381729126 0.5622746348381042 0.0
v 0.5457661151885986 0.4478985071182251 1.0681152389224735e-06
v 0.7823388576507568 0.6420488357543945 0.0
v 0.4992363750934601 0.49923616647720337 1.0681152389224735e-06
v 0.7156398892402649 0.7156397700309753 0.0
v 0.4478987157344818 0.5457659363746643 1.0681152389224735e-06
v 0.6420489549636841 0.7823387980461121 0.0
v 0.3922475278377533 0.5870396494865417 1.0681152389224735e-06
v 0.562274694442749 0.841503381729126 0.0
v 0.3328187167644501 0.6226599216461182 1.0681152389224735e-06
v 0.4770853817462921 0.8925638198852539 0.0
v 0.2701847553253174 0.6522836089134216 1.0681152389224735e-06
v 0.3873014748096466 0.9350284337997437 0.0
v 0.20494870841503143 0.6756254434585571 1.0681152389224735e-06
v 0.2937876582145691 0.9684882760047913 0.0
v 0.1377388834953308 0.6924605965614319 1.0681152389224735e-06
v 0.19744449853897095 0.9926210045814514 0.0
v 0.06920257210731506 0.7026270031929016 1.0681152389224735e-06
v 0.09919983893632889 1.0071941614151 0.0
v 0.09919983893632889 1.0071941614151 0.0
v 0.06920257210731506 0.7026270031929016 1.0681152389224735e-06
v -1.8208177721135144e-07 0.7060266733169556 1.0681152389224735e-06
v -1.648867282710853e-07 1.0120675563812256 0.0
v -0.0692029520869255 0.7026270031929016 1.0681152389224735e-06
v -0.09920016676187515 1.0071941614151 0.0
v -0.13773924112319946 0.6924605369567871 1.0681152389224735e-06
v -0.1974448412656784 0.9926208853721619 0.0
v -0.2049490362405777 0.6756252646446228 1.0681152389224735e-06
v -0.29378798604011536 0.9684881567955017 0.0
v -0.27018502354621887 0.6522835493087769 1.0681152389224735e-06
v -0.3873017728328705 0.9350283741950989 0.0
v -0.33281901478767395 0.6226598620414734 1.0681152389224735e-06
v -0.4770856499671936 0.8925637602806091 0.0
v -0.3922477662563324 0.5870395302772522 1.0681152389224735e-06
v -0.5622749328613281 0.8415032029151917 0.0
v -0.4478990435600281 0.5457658171653748 1.0681152389224735e-06
v -0.642049252986908 0.782338559627533 0.0
v -0.4992366433143616 0.49923598766326904 1.0681152389224735e-06
v -0.7156401872634888 0.7156394720077515 0.0
v -0.5457664132118225 0.44789817929267883 1.0681152389224735e-06
v -0.7823391556739807 0.6420484185218811 0.0
v -0.5870401263237 0.39224696159362793 1.0681152389224735e-06
v -0.8415037393569946 0.5622740983963013 0.0
v -0.6226603388786316 0.3328181505203247 1.0681152389224735e-06
v -0.8925641179084778 0.47708478569984436 0.0
v -0.6522840261459351 0.27018409967422485 1.0681152389224735e-06
v -0.9350287318229675 0.38730087876319885 0.0
v -0.675625741481781 0.20494809746742249 1.0681152389224735e-06
v -0.9684884548187256 0.29378706216812134 0.0
v -0.6924608945846558 0.13773830235004425 1.0681152389224735e-06
v -0.992621123790741 0.1974438577890396 0.0
v -0.7026272416114807 0.0692019909620285 1.0681152389224735e-06
v -1.0071941614151 0.09919919818639755 0.0
v -0.7060269117355347 -7.703104074607836e-07 1.0681152389224735e-06
v -1.0120675563812256 -8.123648740365752e-07 0.0
v -0.7026271820068359 -0.06920352578163147 1.0681152389224735e-06
v -1.0071941614151 -0.09920080751180649 0.0
v -0.6924607157707214 -0.13773982226848602 1.0681152389224735e-06
v -0.9926208257675171 -0.19744546711444855 0.0
v -0.6756253838539124 -0.20494961738586426 1.0681152389224735e-06
v -0.9684879779815674 -0.2937886118888855 0.0
v -0.6522835493087769 -0.270185649394989 1.0681152389224735e-06
v -0.9350281357765198 -0.3873023986816406 0.0
v -0.6226598620414734 -0.3328195810317993 1.0681152389224735e-06
v -0.8925634622573853 -0.47708621621131897 0.0
v -0.5870395302772522 -0.3922483026981354 1.0681152389224735e-06
v -0.841502845287323 -0.5622754693031311 0.0
v -0.5457656979560852 -0.44789955019950867 1.0681152389224735e-06
v -0.7823380827903748 -0.6420496702194214 0.0
v -0.4992358684539795 -0.4992371201515198 1.0681152389224735e-06
v -0.7156389951705933 -0.7156406044960022 0.0
v -0.4478982090950012 -0.5457667708396912 1.0681152389224735e-06
v -0.6420481204986572 -0.7823393940925598 0.0
v -0.39224714040756226 -0.587040364742279 1.0681152389224735e-06
v -0.5622739791870117 -0.8415037989616394 0.0
v -0.33281847834587097 -0.6226604580879211 1.0681152389224735e-06
v -0.4770848751068115 -0.8925641179084778 0.0
v -0.27018463611602783 -0.6522840857505798 1.0681152389224735e-06
v -0.38730117678642273 -0.9350286722183228 0.0
v -0.20494870841503143 -0.675625741481781 1.0681152389224735e-06
v -0.29378756880760193 -0.9684882760047913 0.0
v -0.1377391219139099 -0.692460834980011 1.0681152389224735e-06
v -0.19744464755058289 -0.9926208853721619 0.0
v -0.06920299679040909 -0.7026273012161255 1.0681152389224735e-06
v -0.09920022636651993 -1.0071941614151 0.0
v -3.9529606965515995e-07 -0.7060270309448242 1.0681152389224735e-06
v -4.7052262175384385e-07 -1.0120675563812256 0.0
v 0.06920218467712402 -0.7026273012161255 1.0681152389224735e-06
v 0.09919929504394531 -1.0071941614151 0.0
v 0.13773834705352783 -0.6924610733985901 1.0681152389224735e-06
v 0.19744372367858887 -0.992621123790741 0.0
v 0.20494800806045532 -0.6756259799003601 1.0681152389224735e-06
v 0.2937866449356079 -0.9684885740280151 0.0
v 0.2701839208602905 -0.6522843241691589 1.0681152389224735e-06
v 0.3873002827167511 -0.9350289702415466 0.0
v 0.33281779289245605 -0.622660756111145 1.0681152389224735e-06
v 0.47708404064178467 -0.892564594745636 0.0
v 0.3922465443611145 -0.5870407223701477 1.0681152389224735e-06
v 0.5622732639312744 -0.8415043354034424 0.0
v 0.44789764285087585 -0.5457671880722046 1.0681152389224735e-06
v 0.6420474052429199 -0.7823399901390076 0.0
v 0.4992353022098541 -0.49923762679100037 1.0681152389224735e-06
v 0.7156383395195007 -0.7156413197517395 0.0
v 0.5457651019096375 -0.44790011644363403 1.0681152389224735e-06
v 0.7823373079299927 -0.6420506238937378 0.0
v 0.5870388150215149 -0.3922491669654846 1.0681152389224735e-06
v 0.8415019512176514 -0.5622766613960266 0.0
v 0.6226591467857361 -0.3328206241130829 1.0681152389224735e-06
v 0.8925626277923584 -0.47708770632743835 0.0
v 0.6522830128669739 -0.2701868712902069 1.0681152389224735e-06
v 0.9350273609161377 -0.3873041570186615 0.0
v 0.6756249666213989 -0.20495104789733887 1.0681152389224735e-06
v 0.9684873819351196 -0.29379063844680786 0.0
v 0.692460298538208 -0.13774146139621735 1.0681152389224735e-06
v 0.9926202893257141 -0.1974477916955948 0.0
v 0.7026269435882568 -0.06920535117387772 1.0681152389224735e-06
v 1.0071938037872314 -0.0992034301161766 0.0
vn 3.4901092931249877e-06 0.0 1.0
vn 3.4901092931249877e-06 0.0 1.0
vn 3.473302740530926e-06 3.42091908578368e-07 1.0
vn 3.473302740530926e-06 3.420919654217869e-07 1.0
vn 3.423046791795059e-06 6.808864441154583e-07 1.0
vn 3.4230463370477082e-06 6.808865009588771e-07 1.0
vn 3.3398246159777045e-06 1.0131246881428524e-06 1.0
vn 3.3398250707250554e-06 1.0131249155165278e-06 1.0
vn 3.2244383874058258e-06 1.3356078625292866e-06 1.0
vn 3.2244383874058258e-06 1.3356078625292866e-06 1.0
vn 3.0779999633523403e-06 1.6452250974907656e-06 1.0
vn 3.0779995086049894e-06 1.645225324864441e-06 1.0
vn 2.9019183784839697e-06 1.938998138939496e-06 1.0
vn 2.9019188332313206e-06 1.9389983663131716e-06 1.0
vn 2.6978893856721697e-06 2.2140995952213416e-06 1.0
vn 2.6978898404195206e-06 2.2141000499686925e-06 1.0
vn 2.467878175593796e-06 2.4678784029674716e-06 1.0
vn 2.467878175593796e-06 2.467878175593796e-06 1.0
vn 2.214100277342368e-06 2.6978887035511434e-06 1.0
vn 2.2141000499686925e-06 2.6978887035511434e-06 1.0
vn 1.938998593686847e-06 2.9019181511102943e-06 1.0
vn 1.9389983663131716e-06 2.9019176963629434e-06 1.0
vn 1.6452250974907656e-06 3.0779995086049894e-06 1.0
vn 1.6452250974907656e-06 3.0779995086049894e-06 1.0
vn 1.3356071804082603e-06 3.2244383874058258e-06 1.0
vn 1.3356071804082603e-06 3.2244386147795012e-06 1.0
vn 1.0131248018296901e-06 3.3398237064830028e-06 1.0
vn 1.0131249155165278e-06 3.339823933856678e-06 1.0
vn 6.808855914641754e-07 3.423045654926682e-06 1.0
vn 6.808857051510131e-07 3.423045654926682e-06 1.0
vn 3.4208923693768156e-07 3.473301376288873e-06 1.0
vn 3.420892937811004e-07 3.4733009215415223e-06 1.0
vn 3.420892937811004e-07 3.4733009215415223e-06 1.0
vn 3.4208923693768156e-07 3.473301376288873e-06 1.0
vn -0.0 3.4901072467619088e-06 1.0
vn -0.0 3.4901072467619088e-06 1.0
vn -3.4209082855340966e-07 3.473300694167847e-06 1.0
vn -3.4209080013170023e-07 3.473300694167847e-06 1.0
vn -6.808888315390504e-07 3.4230442906846292e-06 1.0
vn -6.80888604165375e-07 3.4230442906846292e-06 1.0
vn -1.0131253702638787e-06 3.3398237064830028e-06 1.0
vn -1.0131254839507164e-06 3.339824388604029e-06 1.0
vn -1.3356055887925322e-06 3.224439069526852e-06 1.0
vn -1.3356055887925322e-06 3.224439069526852e-06 1.0
vn -1.645226575419656e-06 3.0779990538576385e-06 1.0
vn -1.6452264617328183e-06 3.0779990538576385e-06 1.0
vn -1.939000640049926e-06 2.9019172416155925e-06 1.0
vn -1.9390004126762506e-06 2.9019176963629434e-06 1.0
vn -2.2141016415844206e-06 2.6978882488037925e-06 1.0
vn -2.2141016415844206e-06 2.6978887035511434e-06 1.0
vn -2.4678813588252524e-06 2.467876583978068e-06 1.0
vn -2.467881131451577e-06 2.4678763566043926e-06 1.0
vn -2.6978914320352487e-06 2.2140989131003153e-06 1.0
vn -2.6978907499142224e-06 2.21409868572664e-06 1.0
vn -2.9019197427260224e-06 1.9389979115658207e-06 1.0
vn -2.9019197427260224e-06 1.9389979115658207e-06 1.0
vn -3.078001327594393e-06 1.6452236195618752e-06 1.0
vn -3.0780015549680684e-06 1.6452239606223884e-06 1.0
vn -3.2244402063952293e-06 1.3356045656109927e-06 1.0
vn -3.2244397516478784e-06 1.3356049066715059e-06 1.0
vn -3.339825980219757e-06 1.013123210213962e-06 1.0
vn -3.339825980219757e-06 1.0131234375876375e-06 1.0
vn -3.423047701289761e-06 6.808836019445152e-07 1.0
vn -3.4230479286634363e-06 6.808838861616096e-07 1.0
vn -3.473303877399303e-06 3.4208699162263656e-07 1.0
vn -3.473303422651952e-06 3.4208724741802143e-07 1.0
vn -3.4901092931249877e-06 0.0 1.0
vn -3.4901092931249877e-06 0.0 1.0
vn -3.473303422651952e-06 -3.4209276122965093e-07 1.0
vn -3.473303422651952e-06 -3.420926475428132e-07 1.0
vn -3.423046791795059e-06 -6.808908779021294e-07 1.0
vn -3.4230470191687346e-06 -6.808907073718728e-07 1.0
vn -3.339825298098731e-06 -1.013128894555848e-06 1.0
vn -3.3398255254724063e-06 -1.013128894555848e-06 1.0
vn -3.2244402063952293e-06 -1.3356088857108261e-06 1.0
vn -3.2244397516478784e-06 -1.3356088857108261e-06 1.0
vn -3.078000872847042e-06 -1.6452303270853008e-06 1.0
vn -3.0780006454733666e-06 -1.6452300997116254e-06 1.0
vn -2.9019183784839697e-06 -1.9390054148971103e-06 1.0
vn -2.901918605857645e-06 -1.9390054148971103e-06 1.0
vn -2.6978893856721697e-06 -2.214105506936903e-06 1.0
vn -2.6978893856721697e-06 -2.2141052795632277e-06 1.0
vn -2.4678777208464453e-06 -2.4678838599356823e-06 1.0
vn -2.4678779482201207e-06 -2.4678838599356823e-06 1.0
vn -2.214100732089719e-06 -2.697894160519354e-06 1.0
vn -2.2141009594633942e-06 -2.6978943878930295e-06 1.0
vn -1.9389997305552242e-06 -2.9019222438364523e-06 1.0
vn -1.9389997305552242e-06 -2.9019224712101277e-06 1.0
vn -1.645225324864441e-06 -3.0780036013311474e-06 1.0
vn -1.6452254385512788e-06 -3.0780036013311474e-06 1.0
vn -1.3356055887925322e-06 -3.2244417980109574e-06 1.0
vn -1.3356055887925322e-06 -3.2244417980109574e-06 1.0
vn -1.013123210213962e-06 -3.339828026582836e-06 1.0
vn -1.013123210213962e-06 -3.3398275718354853e-06 1.0
vn -6.808883199482807e-07 -3.423048838158138e-06 1.0
vn -6.808880925746053e-07 -3.423048383410787e-06 1.0
vn -3.4209287491648865e-07 -3.473303877399303e-06 1.0
vn -3.4209278965136036e-07 -3.473304332146654e-06 1.0
vn -0.0 -3.490110429993365e-06 1.0
vn -0.0 -3.4901106573670404e-06 1.0
vn 3.4208801480417605e-07 -3.4733050142676802e-06 1.0
vn 3.420881284910138e-07 -3.4733052416413557e-06 1.0
vn 6.80882465076138e-07 -3.4230499750265153e-06 1.0
vn 6.808826356063946e-07 -3.423049292905489e-06 1.0
vn 1.0131220733455848e-06 -3.339828026582836e-06 1.0
vn 1.0131221870324225e-06 -3.339828026582836e-06 1.0
vn 1.33560320136894e-06 -3.2244433896266855e-06 1.0
vn 1.33560320136894e-06 -3.22444316225301e-06 1.0
vn 1.6452213458251208e-06 -3.0780051929468755e-06 1.0
vn 1.6452214595119585e-06 -3.0780051929468755e-06 1.0
vn 1.9389967746974435e-06 -2.9019238354521804e-06 1.0
vn 1.938996547323768e-06 -2.9019238354521804e-06 1.0
vn 2.2140980036056135e-06 -2.697895070014056e-06 1.0
vn 2.214097776231938e-06 -2.6978948426403804e-06 1.0
vn 2.46787499236234e-06 -2.4678849968040595e-06 1.0
vn 2.4678752197360154e-06 -2.4678849968040595e-06 1.0
vn 2.6978866571880644e-06 -2.214108008047333e-06 1.0
vn 2.69788688456174e-06 -2.214108008047333e-06 1.0
vn 2.901914967878838e-06 -1.939008370754891e-06 1.0
vn 2.901915422626189e-06 -1.9390081433812156e-06 1.0
vn 3.0779970074945595e-06 -1.6452352156193228e-06 1.0
vn 3.0779965527472086e-06 -1.6452352156193228e-06 1.0
vn 3.2244365684164222e-06 -1.3356172985368175e-06 1.0
vn 3.2244372505374486e-06 -1.3356171848499798e-06 1.0
vn 3.339823251735652e-06 -1.0131352610187605e-06 1.0
vn 3.339823251735652e-06 -1.0131352610187605e-06 1.0
vn 3.423045654926682e-06 -6.808974148952984e-07 1.0
vn 3.4230461096740328e-06 -6.808973580518796e-07 1.0
vn 3.473302740530926e-06 -3.4209980981358967e-07 1.0
vn 3.4733029679046012e-06 -3.420998382352991e-07 1.0
vt 0.75 1.0
vt 0.75 0.0
vt 0.765625 0.0
vt 0.765625 1.0
vt 0.78125 0.0
vt 0.78125 1.0
vt 0.7968749403953552 0.0
vt 0.7968749403953552 1.0
vt 0.8125 0.0
vt 0.8125 1.0
vt 0.8281250596046448 0.0
vt 0.8281250596046448 1.0
vt 0.84375 0.0
vt 0.84375 1.0
vt 0.859375 0.0
vt 0.859375 1.0
vt 0.875 0.0
vt 0.875 1.0
vt 0.890625 0.0
vt 0.890625 1.0
vt 0.9062499403953552 0.0
vt 0.9062499403953552 1.0
vt 0.921875 0.0
vt 0.921875 1.0
vt 0.9374999403953552 0.0
vt 0.9374999403953552 1.0
vt 0.953125 0.0
vt 0.953125 1.0
vt 0.96875 0.0
vt 0.96875 1.0
vt 0.984375 0.0
vt 0.984375 1.0
vt -0.015625 1.0
vt -0.015625 0.0
vt 3.794549385816026e-08 0.0
vt 3.794549385816026e-08 1.0
vt 0.015625042840838432 0.0
vt 0.015625042840838432 1.0
vt 0.03125004842877388 0.0
vt 0.03125004842877388 1.0
vt 0.04687505587935448 0.0
vt 0.04687505587935448 1.0
vt 0.06250005960464478 0.0
vt 0.06250005960464478 1.0
vt 0.07812506705522537 0.0
vt 0.07812506705522537 1.0
vt 0.09375007450580597 0.0
vt 0.09375007450580597 1.0
vt 0.10937507450580597 0.0
vt 0.10937507450580597 1.0
vt 0.12500008940696716 0.0
vt 0.12500008940696716 1.0
vt 0.14062508940696716 0.0
vt 0.14062508940696716 1.0
vt 0.15625008940696716 0.0
vt 0.15625008940696716 1.0
vt 0.17187510430812836 0.0
vt 0.17187510430812836 1.0
vt 0.18750010430812836 0.0
vt 0.18750010430812836 1.0
vt 0.20312511920928955 0.0
vt 0.20312511920928955 1.0
vt 0.21875013411045074 0.0
vt 0.21875013411045074 1.0
vt 0.23437511920928955 0.0
vt 0.23437511920928955 1.0
vt 0.25000011920928955 0.0
vt 0.25000011920928955 1.0
vt 0.26562514901161194 0.0
vt 0.26562514901161194 1.0
vt 0.28125014901161194 0.0
vt 0.28125014901161194 1.0
vt 0.29687514901161194 0.0
vt 0.29687514901161194 1.0
vt 0.31250014901161194 0.0
vt 0.31250014901161194 1.0
vt 0.32812514901161194 0.0
vt 0.32812514901161194 1.0
vt 0.3437501788139343 0.0
vt 0.3437501788139343 1.0
vt 0.3593751788139343 0.0
vt 0.3593751788139343 1.0
vt 0.3750002086162567 0.0
vt 0.3750002086162567 1.0
vt 0.39062514901161194 0.0
vt 0.39062514901161194 1.0
vt 0.40625011920928955 0.0
vt 0.40625011920928955 1.0
vt 0.42187508940696716 0.0
vt 0.42187508940696716 1.0
vt 0.4375000596046448 0.0
vt 0.4375000596046448 1.0
vt 0.453125 0.0
vt 0.453125 1.0
vt 0.4687499701976776 0.0
vt 0.4687499701976776 1.0
vt 0.4843749403953552 0.0
vt 0.4843749403953552 1.0
vt 0.49999991059303284 0.0
vt 0.49999991059303284 1.0
vt 0.5156248807907104 0.0
vt 0.5156248807907104 1.0
vt 0.5312498807907104 0.0
vt 0.5312498807907104 1.0
vt 0.5468748211860657 0.0
vt 0.5468748211860657 1.0
vt 0.5624997615814209 0.0
vt 0.5624997615814209 1.0
vt 0.5781247615814209 0.0
vt 0.5781247615814209 1.0
vt 0.5937497615814209 0.0
vt 0.5937497615814209 1.0
vt 0.6093747019767761 0.0
vt 0.6093747019767761 1.0
vt 0.6249996423721313 0.0
vt 0.6249996423721313 1.0
vt 0.6406246423721313 0.0
vt 0.6406246423721313 1.0
vt 0.6562496423721313 0.0
vt 0.6562496423721313 1.0
vt 0.6718745827674866 0.0
vt 0.6718745827674866 1.0
vt 0.6874995231628418 0.0
vt 0.6874995231628418 1.0
vt 0.7031245231628418 0.0
vt 0.7031245231628418 1.0
vt 0.7187495231628418 0.0
vt 0.7187495231628418 1.0
vt 0.734374463558197 0.0
vt 0.734374463558197 1.0

g eff_mdl_ring07
s 1
usemtl eff_mdl_ring07
f 3/3/3 2/2/2 1/1/1 
f 4/4/4 3/3/3 1/1/1 
f 5/5/5 3/3/3 4/4/4 
f 6/6/6 5/5/5 4/4/4 
f 7/7/7 5/5/5 6/6/6 
f 8/8/8 7/7/7 6/6/6 
f 9/9/9 7/7/7 8/8/8 
f 10/10/10 9/9/9 8/8/8 
f 11/11/11 9/9/9 10/10/10 
f 12/12/12 11/11/11 10/10/10 
f 13/13/13 11/11/11 12/12/12 
f 14/14/14 13/13/13 12/12/12 
f 15/15/15 13/13/13 14/14/14 
f 16/16/16 15/15/15 14/14/14 
f 17/17/17 15/15/15 16/16/16 
f 18/18/18 17/17/17 16/16/16 
f 19/19/19 17/17/17 18/18/18 
f 20/20/20 19/19/19 18/18/18 
f 21/21/21 19/19/19 20/20/20 
f 22/22/22 21/21/21 20/20/20 
f 23/23/23 21/21/21 22/22/22 
f 24/24/24 23/23/23 22/22/22 
f 25/25/25 23/23/23 24/24/24 
f 26/26/26 25/25/25 24/24/24 
f 27/27/27 25/25/25 26/26/26 
f 28/28/28 27/27/27 26/26/26 
f 29/29/29 27/27/27 28/28/28 
f 30/30/30 29/29/29 28/28/28 
f 31/31/31 29/29/29 30/30/30 
f 32/32/32 31/31/31 30/30/30 
f 35/35/35 34/34/34 33/33/33 
f 36/36/36 35/35/35 33/33/33 
f 37/37/37 35/35/35 36/36/36 
f 38/38/38 37/37/37 36/36/36 
f 39/39/39 37/37/37 38/38/38 
f 40/40/40 39/39/39 38/38/38 
f 41/41/41 39/39/39 40/40/40 
f 42/42/42 41/41/41 40/40/40 
f 43/43/43 41/41/41 42/42/42 
f 44/44/44 43/43/43 42/42/42 
f 45/45/45 43/43/43 44/44/44 
f 46/46/46 45/45/45 44/44/44 
f 47/47/47 45/45/45 46/46/46 
f 48/48/48 47/47/47 46/46/46 
f 49/49/49 47/47/47 48/48/48 
f 50/50/50 49/49/49 48/48/48 
f 51/51/51 49/49/49 50/50/50 
f 52/52/52 51/51/51 50/50/50 
f 53/53/53 51/51/51 52/52/52 
f 54/54/54 53/53/53 52/52/52 
f 55/55/55 53/53/53 54/54/54 
f 56/56/56 55/55/55 54/54/54 
f 57/57/57 55/55/55 56/56/56 
f 58/58/58 57/57/57 56/56/56 
f 59/59/59 57/57/57 58/58/58 
f 60/60/60 59/59/59 58/58/58 
f 61/61/61 59/59/59 60/60/60 
f 62/62/62 61/61/61 60/60/60 
f 63/63/63 61/61/61 62/62/62 
f 64/64/64 63/63/63 62/62/62 
f 65/65/65 63/63/63 64/64/64 
f 66/66/66 65/65/65 64/64/64 
f 67/67/67 65/65/65 66/66/66 
f 68/68/68 67/67/67 66/66/66 
f 69/69/69 67/67/67 68/68/68 
f 70/70/70 69/69/69 68/68/68 
f 71/71/71 69/69/69 70/70/70 
f 72/72/72 71/71/71 70/70/70 
f 73/73/73 71/71/71 72/72/72 
f 74/74/74 73/73/73 72/72/72 
f 75/75/75 73/73/73 74/74/74 
f 76/76/76 75/75/75 74/74/74 
f 77/77/77 75/75/75 76/76/76 
f 78/78/78 77/77/77 76/76/76 
f 79/79/79 77/77/77 78/78/78 
f 80/80/80 79/79/79 78/78/78 
f 81/81/81 79/79/79 80/80/80 
f 82/82/82 81/81/81 80/80/80 
f 83/83/83 81/81/81 82/82/82 
f 84/84/84 83/83/83 82/82/82 
f 85/85/85 83/83/83 84/84/84 
f 86/86/86 85/85/85 84/84/84 
f 87/87/87 85/85/85 86/86/86 
f 88/88/88 87/87/87 86/86/86 
f 89/89/89 87/87/87 88/88/88 
f 90/90/90 89/89/89 88/88/88 
f 91/91/91 89/89/89 90/90/90 
f 92/92/92 91/91/91 90/90/90 
f 93/93/93 91/91/91 92/92/92 
f 94/94/94 93/93/93 92/92/92 
f 95/95/95 93/93/93 94/94/94 
f 96/96/96 95/95/95 94/94/94 
f 97/97/97 95/95/95 96/96/96 
f 98/98/98 97/97/97 96/96/96 
f 99/99/99 97/97/97 98/98/98 
f 100/100/100 99/99/99 98/98/98 
f 101/101/101 99/99/99 100/100/100 
f 102/102/102 101/101/101 100/100/100 
f 103/103/103 101/101/101 102/102/102 
f 104/104/104 103/103/103 102/102/102 
f 105/105/105 103/103/103 104/104/104 
f 106/106/106 105/105/105 104/104/104 
f 107/107/107 105/105/105 106/106/106 
f 108/108/108 107/107/107 106/106/106 
f 109/109/109 107/107/107 108/108/108 
f 110/110/110 109/109/109 108/108/108 
f 111/111/111 109/109/109 110/110/110 
f 112/112/112 111/111/111 110/110/110 
f 113/113/113 111/111/111 112/112/112 
f 114/114/114 113/113/113 112/112/112 
f 115/115/115 113/113/113 114/114/114 
f 116/116/116 115/115/115 114/114/114 
f 117/117/117 115/115/115 116/116/116 
f 118/118/118 117/117/117 116/116/116 
f 119/119/119 117/117/117 118/118/118 
f 120/120/120 119/119/119 118/118/118 
f 121/121/121 119/119/119 120/120/120 
f 122/122/122 121/121/121 120/120/120 
f 123/123/123 121/121/121 122/122/122 
f 124/124/124 123/123/123 122/122/122 
f 125/125/125 123/123/123 124/124/124 
f 126/126/126 125/125/125 124/124/124 
f 127/127/127 125/125/125 126/126/126 
f 128/128/128 127/127/127 126/126/126 
f 129/129/129 127/127/127 128/128/128 
f 130/130/130 129/129/129 128/128/128 
f 2/2/2 129/129/129 130/130/130 
f 1/1/1 2/2/2 130/130/130 

