v -0.7081792950630188 1.4490331411361694 2.941723585128784
v -0.8107067942619324 1.2610156536102295 2.941723585128784
v -0.7797753810882568 1.4136388301849365 2.913459300994873
v -0.8107067942619324 1.2610156536102295 2.941723585128784
v -0.8107067942619324 1.4490331411361694 2.8733274936676025
v -0.8107067942619324 -1.0842162370681763 2.941723585128784
v -0.8107064366340637 -3.5439610481262207 2.8438780307769775
v -0.8107067942619324 -1.0850830078125 2.8438780307769775
v -0.8107067942619324 -3.5439610481262207 2.8906872272491455
v -0.8107067942619324 -3.421121835708618 2.941722869873047
v -0.8107067942619324 1.4490331411361694 2.8733274936676025
v -0.7081792950630188 1.4490331411361694 2.941723585128784
v -0.7797753810882568 1.4136388301849365 2.913459300994873
v -0.1894647181034088 1.4490331411361694 2.941723585128784
v -0.1894647181034088 -1.087683081626892 2.8438780307769775
v -0.1894647181034088 -1.087683081626892 2.941723585128784
v -0.1894647181034088 1.4490331411361694 2.8438780307769775
v -0.7371569871902466 1.4278380870819092 2.5228922367095947
v -0.7371569871902466 -0.981280505657196 2.8438780307769775
v -0.7371569871902466 -0.9838805794715881 2.5228919982910156
v -0.7371569871902466 1.4278380870819092 2.8438780307769775
v -0.8107067942619324 -3.421121835708618 2.941722869873047
v -0.1894647181034088 -3.5439610481262207 2.941723585128784
v -0.7348345518112183 -3.5439610481262207 2.941722869873047
v -0.1894647181034088 -1.087683081626892 2.941723585128784
v -0.8107067942619324 -1.0842162370681763 2.941723585128784
v -0.1894647181034088 -3.5439610481262207 2.941723585128784
v -0.1894647181034088 -1.087683081626892 2.8438780307769775
v -0.1894647181034088 -3.5439610481262207 2.8438780307769775
v -0.1894647181034088 -1.087683081626892 2.941723585128784
v -0.7371569871902466 -3.5439610481262207 2.5228922367095947
v -0.7371569871902466 -0.981280505657196 2.8438780307769775
v -0.7371569871902466 -3.5439610481262207 2.8438780307769775
v -0.7371569871902466 -0.9838805794715881 2.5228919982910156
v -0.7371569871902466 -7.999553680419922 2.5228919982910156
v -0.2562481760978699 -7.999553680419922 2.8438780307769775
v -0.2562481760978699 -7.999553680419922 2.5228919982910156
v -0.7371569871902466 -7.999553680419922 2.8438780307769775
v -0.8107067942619324 -8.036745071411133 2.941723585128784
v -0.1894647181034088 -5.952273845672607 2.941723585128784
v -0.1894647181034088 -8.036745071411133 2.941723585128784
v -0.8107064366340637 -5.955740928649902 2.941723585128784
v -0.2562481760978699 -7.999553680419922 2.8438780307769775
v -0.2562481760978699 -5.860063552856445 2.5228919982910156
v -0.2562481760978699 -7.999553680419922 2.5228919982910156
v -0.2562481760978699 -5.860063552856445 2.8438780307769775
v -0.8107061386108398 -3.5439610481262207 2.8438780307769775
v -0.8107064366340637 -5.955740928649902 2.941723585128784
v -0.8107064366340637 -5.954874038696289 2.8438780307769775
v -0.8107064366340637 -3.6565630435943604 2.941722869873047
v -0.8107061386108398 -3.5439610481262207 2.8906872272491455
v -0.8107067942619324 -8.036745071411133 2.941723585128784
v -0.1894647181034088 -8.036745071411133 2.8438780307769775
v -0.8107067942619324 -8.036745071411133 2.8438780307769775
v -0.1894647181034088 -8.036745071411133 2.941723585128784
v -0.1894647181034088 -8.036745071411133 2.941723585128784
v -0.1894647181034088 -5.952273845672607 2.8438780307769775
v -0.1894647181034088 -8.036745071411133 2.8438780307769775
v -0.1894647181034088 -5.952273845672607 2.941723585128784
v -0.7371569871902466 -7.999553680419922 2.5228919982910156
v -0.7371569871902466 -5.862663269042969 2.8438780307769775
v -0.7371569871902466 -7.999553680419922 2.8438780307769775
v -0.7371569871902466 -5.860063552856445 2.5228919982910156
v -0.7348352074623108 -3.5439610481262207 2.941722869873047
v -0.8107064366340637 -3.6565630435943604 2.941722869873047
v -0.8012911677360535 -3.5439610481262207 2.922924757003784
v -0.8107061386108398 -3.5439610481262207 2.8906872272491455
v -0.25624755024909973 -3.5439610481262207 2.8438780307769775
v -0.2562481760978699 -5.860063552856445 2.5228919982910156
v -0.2562481760978699 -5.860063552856445 2.8438780307769775
v -0.25624755024909973 -3.5439610481262207 2.5228922367095947
v -0.8107067942619324 -8.036745071411133 2.941723585128784
v -0.8107064366340637 -5.954874038696289 2.8438780307769775
v -0.8107064366340637 -5.955740928649902 2.941723585128784
v -0.8107067942619324 -8.036745071411133 2.8438780307769775
v -0.18946410715579987 -3.5439610481262207 2.941723585128784
v -0.1894647181034088 -5.952273845672607 2.8438780307769775
v -0.1894647181034088 -5.952273845672607 2.941723585128784
v -0.18946410715579987 -3.5439610481262207 2.8438780307769775
v -0.737156331539154 -3.5439610481262207 2.5228922367095947
v -0.7371569871902466 -5.862663269042969 2.8438780307769775
v -0.7371569871902466 -5.860063552856445 2.5228919982910156
v -0.737156331539154 -3.5439610481262207 2.8438780307769775
v -0.2562481760978699 1.4278380870819092 2.8438780307769775
v -0.2562481760978699 -2.318000555038452 2.5228919982910156
v -0.2562481760978699 -2.318000555038452 2.8438780307769775
v -0.2562481760978699 1.4278380870819092 2.5228922367095947
v -0.2562481760978699 -2.218956232070923 2.8438780307769775
v -0.2562481760978699 -2.318000555038452 2.5228919982910156
v -0.2562481760978699 -2.2189574241638184 2.5228922367095947
v -0.2562481760978699 -2.318000555038452 2.8438780307769775
v -0.2562481760978699 -2.218956232070923 2.8438780307769775
v -0.25624755024909973 -3.5439610481262207 2.5228922367095947
v -0.25624755024909973 -3.5439610481262207 2.8438780307769775
v -0.2562481760978699 -2.2189574241638184 2.5228922367095947
v -0.7371569871902466 1.4278380870819092 2.5228922367095947
v -0.2562481760978699 1.4278380870819092 2.8438780307769775
v -0.7371569871902466 1.4278380870819092 2.8438780307769775
v -0.2562481760978699 1.4278380870819092 2.5228922367095947
v -0.6987743973731995 -0.6373156309127808 3.1013762950897217
v -0.2987658679485321 1.1502490043640137 3.1013762950897217
v -0.29876708984375 -0.6388463973999023 3.1013762950897217
v -0.6987738013267517 1.1502490043640137 3.1013762950897217
v -0.6987738013267517 1.1502490043640137 3.1013762950897217
v -0.2987658679485321 1.1502490043640137 2.9371209144592285
v -0.2987658679485321 1.1502490043640137 3.1013762950897217
v -0.6987738013267517 1.1502490043640137 2.9371209144592285
v -0.6987743973731995 -0.6373156309127808 2.9371209144592285
v -0.6987738013267517 1.1502490043640137 3.1013762950897217
v -0.6987743973731995 -0.6373156309127808 3.1013762950897217
v -0.6987738013267517 1.1502490043640137 2.9371209144592285
v -0.2987683117389679 -2.427942991256714 2.9371209144592285
v -0.6987749934196472 -2.424880266189575 3.068394660949707
v -0.2987683117389679 -2.427942991256714 3.068394660949707
v -0.6987749934196472 -2.424880266189575 2.9371209144592285
v -0.29876708984375 -0.6388463973999023 2.9371209144592285
v -0.2987683117389679 -2.399212598800659 3.1013762950897217
v -0.29876708984375 -0.6388463973999023 3.1013762950897217
v -0.2987683117389679 -2.427942991256714 3.068394660949707
v -0.2987683117389679 -2.427942991256714 2.9371209144592285
v -0.6987749934196472 -4.544351100921631 3.1013762950897217
v -0.2987658679485321 -3.1814591884613037 3.1013762950897217
v -0.2987683117389679 -4.800527095794678 3.1013762950897217
v -0.6987738013267517 -3.1814591884613037 3.1013762950897217
v -0.6987749934196472 -4.797464370727539 3.1013755798339844
v -0.6987738013267517 -3.1814591884613037 3.1013762950897217
v -0.2987658679485321 -3.1814591884613037 2.9371209144592285
v -0.2987658679485321 -3.1814591884613037 3.1013762950897217
v -0.6987738013267517 -3.1814591884613037 2.9371209144592285
v -0.6987749934196472 -4.542796611785889 2.9371209144592285
v -0.6987738013267517 -3.1814591884613037 3.1013762950897217
v -0.6987749934196472 -4.544351100921631 3.1013762950897217
v -0.6987738013267517 -3.1814591884613037 2.9371209144592285
v -0.6987749934196472 -4.797464370727539 3.1013755798339844
v -0.6987749934196472 -4.825215816497803 3.079456090927124
v -0.6987749934196472 -4.825215816497803 2.9371209144592285
v -0.2987683117389679 -4.800527095794678 3.1013762950897217
v -0.6987749934196472 -4.825215816497803 3.079456090927124
v -0.6987749934196472 -4.797464370727539 3.1013755798339844
v -0.2987683117389679 -4.828278541564941 3.07888126373291
v -0.2987683117389679 -4.828278541564941 2.9371209144592285
v -0.2987658679485321 -3.1814591884613037 3.1013762950897217
v -0.2987658679485321 -3.1814591884613037 2.9371209144592285
v -0.2987683117389679 -4.828278541564941 3.07888126373291
v -0.2987683117389679 -4.800527095794678 3.1013762950897217
v -0.6987738013267517 -5.61624002456665 3.1013762950897217
v -0.29876890778541565 -7.769201278686523 3.1013762950897217
v -0.6987749934196472 -7.459920406341553 3.1013755798339844
v -0.2987658679485321 -5.61624002456665 3.1013762950897217
v -0.698775589466095 -7.766138553619385 3.1013755798339844
v -0.6987738013267517 -5.61624002456665 3.1013762950897217
v -0.2987658679485321 -5.61624002456665 2.9371209144592285
v -0.2987658679485321 -5.61624002456665 3.1013762950897217
v -0.6987738013267517 -5.61624002456665 2.9371209144592285
v -0.6987738013267517 -5.61624002456665 2.9371209144592285
v -0.6987749934196472 -7.459920406341553 3.1013755798339844
v -0.698775589466095 -7.506016731262207 2.9371209144592285
v -0.6987738013267517 -5.61624002456665 3.1013762950897217
v -0.698775589466095 -7.766138553619385 3.1013755798339844
v -0.698775589466095 -7.787078857421875 3.0719456672668457
v -0.698775589466095 -7.787078857421875 2.9371209144592285
v -0.29876890778541565 -7.769201278686523 3.1013762950897217
v -0.698775589466095 -7.787078857421875 3.0719456672668457
v -0.698775589466095 -7.766138553619385 3.1013755798339844
v -0.29876890778541565 -7.790141582489014 3.070676803588867
v -0.29876890778541565 -7.790141582489014 2.9371209144592285
v -0.2987658679485321 -5.61624002456665 3.1013762950897217
v -0.2987658679485321 -5.61624002456665 2.9371209144592285
v -0.29876890778541565 -7.790141582489014 3.070676803588867
v -0.29876890778541565 -7.769201278686523 3.1013762950897217
v -0.6987749934196472 -2.100800037384033 3.1013762950897217
v -0.29876708984375 -0.6388463973999023 3.1013762950897217
v -0.2987683117389679 -2.399212598800659 3.1013762950897217
v -0.6987743973731995 -0.6373156309127808 3.1013762950897217
v -0.6987749934196472 -2.3961498737335205 3.1013755798339844
v -0.6987749934196472 -2.0981554985046387 2.9371209144592285
v -0.6987743973731995 -0.6373156309127808 3.1013762950897217
v -0.6987749934196472 -2.100800037384033 3.1013762950897217
v -0.6987743973731995 -0.6373156309127808 2.9371209144592285
v -0.6987749934196472 -2.424880266189575 2.9371209144592285
v -0.6987749934196472 -2.424880266189575 3.068394660949707
v -0.6987749934196472 -2.3961498737335205 3.1013755798339844
v -0.2987658679485321 1.1502490043640137 2.9371209144592285
v -0.29876708984375 -0.6388463973999023 3.1013762950897217
v -0.2987658679485321 1.1502490043640137 3.1013762950897217
v -0.29876708984375 -0.6388463973999023 2.9371209144592285
v -0.6987749934196472 -4.825215816497803 2.9371209144592285
v -0.2987683117389679 -4.828278541564941 3.07888126373291
v -0.2987683117389679 -4.828278541564941 2.9371209144592285
v -0.6987749934196472 -4.825215816497803 3.079456090927124
v -0.698775589466095 -7.787078857421875 2.9371209144592285
v -0.29876890778541565 -7.790141582489014 3.070676803588867
v -0.29876890778541565 -7.790141582489014 2.9371209144592285
v -0.698775589466095 -7.787078857421875 3.0719456672668457
v -0.2987683117389679 -2.399212598800659 3.1013762950897217
v -0.6987749934196472 -2.424880266189575 3.068394660949707
v -0.6987749934196472 -2.3961498737335205 3.1013755798339844
v -0.2987683117389679 -2.427942991256714 3.068394660949707
v -0.8107067942619324 -3.5439610481262207 2.8906872272491455
v -0.8107067942619324 -3.421121835708618 2.941722869873047
v -0.8012914657592773 -3.5439610481262207 2.922924757003784
v -0.7348345518112183 -3.5439610481262207 2.941722869873047
v -0.1894647181034088 -5.952273845672607 2.941723585128784
v -0.7348352074623108 -3.5439610481262207 2.941722869873047
v -0.18946410715579987 -3.5439610481262207 2.941723585128784
v -0.8107064366340637 -5.955740928649902 2.941723585128784
v -0.8107064366340637 -3.6565630435943604 2.941722869873047
v -0.8107067942619324 -1.0850830078125 2.8438780307769775
v -0.8107067942619324 1.2610156536102295 2.941723585128784
v -0.8107067942619324 -1.0842162370681763 2.941723585128784
v -0.8107067942619324 1.4490331411361694 2.8438780307769775
v -0.8107067942619324 1.4490331411361694 2.8733274936676025
v -0.1894647181034088 -1.087683081626892 2.941723585128784
v -0.7081792950630188 1.4490331411361694 2.941723585128784
v -0.1894647181034088 1.4490331411361694 2.941723585128784
v -0.8107067942619324 -1.0842162370681763 2.941723585128784
v -0.8107067942619324 1.2610156536102295 2.941723585128784
v -0.1894647181034088 1.4490331411361694 2.8438780307769775
v -0.8107067942619324 1.4490331411361694 2.8733274936676025
v -0.8107067942619324 1.4490331411361694 2.8438780307769775
v -0.1894647181034088 1.4490331411361694 2.941723585128784
v -0.7081792950630188 1.4490331411361694 2.941723585128784
vn -0.118378184735775 0.06455252319574356 0.990868091583252
vn -0.7057940363883972 0.035057783126831055 0.7075490355491638
vn -0.5538843870162964 0.2588021457195282 0.7913492321968079
vn -0.7057940363883972 0.035057783126831055 0.7075490355491638
vn -0.974602997303009 0.07655541598796844 0.21044746041297913
vn -0.7071065306663513 -1.238998947883374e-07 0.7071070075035095
vn -1.0 1.28705991642164e-07 -6.3545076045556925e-06
vn -1.0 0.0 0.0
vn -0.9933386445045471 -0.04421237111091614 0.10641278326511383
vn -0.7058888077735901 -0.02530188485980034 0.707870602607727
vn -0.1364096850156784 0.9693191647529602 0.2044818252325058
vn -0.08645880222320557 0.9877892732620239 0.12960411608219147
vn -0.5044994950294495 0.416597455739975 0.756258487701416
vn 1.0 0.0 0.0
vn 1.0 0.0 0.0
vn 1.0 0.0 0.0
vn 1.0 0.0 0.0
vn -1.0 0.0 0.0
vn -1.0 0.0 0.0
vn -1.0 0.0 0.0
vn -1.0 0.0 0.0
vn -0.7058888077735901 -0.02530188485980034 0.707870602607727
vn -5.212418727751356e-07 -1.5175571377312735e-07 1.0
vn -0.08927501738071442 -0.05514104291796684 0.9944794178009033
vn -4.6227924599406833e-07 -1.0864782495900727e-07 1.0
vn -0.7071065306663513 -1.238998947883374e-07 0.7071070075035095
vn 1.0 0.0 0.0
vn 1.0 0.0 0.0
vn 1.0 0.0 0.0
vn 1.0 0.0 0.0
vn -1.0 0.0 0.0
vn -1.0 0.0 0.0
vn -1.0 0.0 0.0
vn -1.0 0.0 0.0
vn -0.0 -1.0 0.0
vn -0.0 -1.0 0.0
vn -0.0 -1.0 0.0
vn -0.0 -1.0 0.0
vn -0.7071068286895752 0.0 0.7071067690849304
vn -4.5112952307135856e-07 0.0 1.0
vn -0.0 -1.4640444589986146e-07 1.0
vn -0.70710688829422 1.4545139492838643e-07 0.7071066498756409
vn 1.0 0.0 0.0
vn 1.0 -1.3176267543713038e-07 0.0
vn 1.0 0.0 0.0
vn 1.0 -1.3176266122627567e-07 0.0
vn -1.0 1.4791638704991783e-06 -1.3399388762991293e-06
vn -0.70710688829422 1.4545139492838643e-07 0.7071066498756409
vn -1.0 1.3655716202265467e-07 0.0
vn -0.7055727243423462 0.02953951805830002 0.7080215215682983
vn -0.993516206741333 0.046935874968767166 0.1035502478480339
vn -0.0 -1.0 0.0
vn -0.0 -1.0 0.0
vn -0.0 -1.0 0.0
vn -0.0 -1.0 0.0
vn 1.0 0.0 0.0
vn 1.0 -1.2671769411554124e-07 0.0
vn 1.0 0.0 0.0
vn 1.0 -1.267176656938318e-07 0.0
vn -1.0 0.0 0.0
vn -1.0 1.3107026575198688e-07 0.0
vn -1.0 0.0 0.0
vn -1.0 1.324421106119189e-07 0.0
vn -0.08580203354358673 0.05781335383653641 0.9946334362030029
vn -0.7055727243423462 0.02953951805830002 0.7080215215682983
vn -0.7066749334335327 0.17359784245491028 0.6859112977981567
vn -0.993516206741333 0.046935874968767166 0.1035502478480339
vn 1.0 -2.6352532245255134e-07 0.0
vn 1.0 -1.3176267543713038e-07 0.0
vn 1.0 -1.3176266122627567e-07 0.0
vn 1.0 -2.6352532245255134e-07 0.0
vn -0.7071068286895752 0.0 0.7071067690849304
vn -1.0 1.3655716202265467e-07 0.0
vn -0.70710688829422 1.4545139492838643e-07 0.7071066498756409
vn -1.0 1.4658728275662725e-07 0.0
vn 1.0 -2.534353313876636e-07 0.0
vn 1.0 -1.2671769411554124e-07 0.0
vn 1.0 -1.267176656938318e-07 0.0
vn 1.0 -2.5343535980937304e-07 0.0
vn -1.0 2.632556856951851e-07 0.0
vn -1.0 1.3107026575198688e-07 0.0
vn -1.0 1.324421106119189e-07 0.0
vn -1.0 2.63229793517894e-07 0.0
vn 1.0 0.0 0.0
vn 1.0 0.0 0.0
vn -1.0 0.0 0.0
vn 1.0 0.0 0.0
vn -1.0 0.0 0.0
vn 1.0 0.0 0.0
vn -1.0 0.0 0.0
vn -1.0 0.0 0.0
vn 1.0 4.6064138814472244e-07 0.0
vn 1.0 4.606410470842093e-07 0.0
vn 1.0 4.60640961819081e-07 0.0
vn 1.0 4.6064141656643187e-07 0.0
vn -0.0 1.0 0.0
vn -0.0 1.0 0.0
vn -0.0 1.0 0.0
vn -0.0 1.0 0.0
vn -7.62925481012644e-07 0.0 1.0
vn -7.629255378560629e-07 0.0 1.0
vn -7.629255378560629e-07 0.0 1.0
vn -0.0 -1.7072154889774538e-07 1.0
vn -0.0 1.0 0.0
vn -0.0 1.0 0.0
vn -0.0 1.0 0.0
vn -0.0 1.0 0.0
vn -1.0 3.4144306937378133e-07 0.0
vn -1.0 3.4144306937378133e-07 0.0
vn -1.0 3.4144306937378133e-07 0.0
vn -1.0 3.414430409520719e-07 0.0
vn -0.007656507194042206 -0.9999706745147705 0.0
vn -0.00765650812536478 -0.9999706745147705 0.0
vn -0.007656507194042206 -0.9999706745147705 0.0
vn -0.00765650812536478 -0.9999706745147705 0.0
vn 1.0 -6.934370162525738e-07 0.0
vn 1.0 -6.934370162525738e-07 0.0
vn 1.0 -6.934370162525738e-07 0.0
vn 1.0 -6.41311146409862e-07 5.586454108197358e-07
vn 1.0 -6.823014473411604e-07 0.0
vn -7.629259926034138e-07 0.0 1.0
vn -7.629259926034138e-07 0.0 1.0
vn -7.629259926034138e-07 0.0 1.0
vn -0.0 -2.2391786558273452e-07 1.0
vn -1.5350851754192263e-06 -1.2056880223099142e-06 1.0
vn -0.0 1.0 0.0
vn -0.0 1.0 0.0
vn -0.0 1.0 0.0
vn -0.0 1.0 0.0
vn -1.0 8.956712349572626e-07 0.0
vn -1.0 8.956713486441004e-07 0.0
vn -1.0 8.956713486441004e-07 0.0
vn -1.0 8.966941322796629e-07 0.0
vn -1.0 0.0 0.0
vn -1.0 0.0 0.0
vn -1.0 0.0 0.0
vn -0.004747035447508097 -0.6198256015777588 0.7847252488136292
vn -0.004747035913169384 -0.6198256015777588 0.7847252488136292
vn -0.004747035447508097 -0.6198256015777588 0.7847252488136292
vn -0.003704867558553815 -0.6297003030776978 0.7768293619155884
vn 1.0 -1.4824978507022024e-06 0.0
vn 1.0 -1.4824978507022024e-06 0.0
vn 1.0 -1.4824978507022024e-06 0.0
vn 1.0 -1.5079085642355494e-06 1.86023044079775e-06
vn 1.0 -1.507908336861874e-06 1.8602302134240745e-06
vn -1.7818202877606382e-06 -3.310494491870486e-07 1.0
vn -1.7818205151343136e-06 -3.310494491870486e-07 1.0
vn -1.7818201740738004e-06 -3.310494491870486e-07 1.0
vn -0.0 0.0 1.0
vn -1.5258533494488802e-06 0.0 1.0
vn -0.0 1.0 0.0
vn -0.0 1.0 0.0
vn -0.0 1.0 0.0
vn -0.0 1.0 0.0
vn -1.0 9.68926542554982e-07 3.4439656246831873e-06
vn -1.0 9.68926542554982e-07 3.4439656246831873e-06
vn -1.0 9.68926542554982e-07 3.443965397309512e-06
vn -1.0 6.621013994845271e-07 0.0
vn -1.0 0.0 0.0
vn -1.0 0.0 0.0
vn -1.0 0.0 0.0
vn -0.006239456590265036 -0.8147826790809631 0.5797328948974609
vn -0.006239456590265036 -0.8147826790809631 0.5797328948974609
vn -0.006239456590265036 -0.8147826790809631 0.5797328948974609
vn -0.004537800792604685 -0.8261125087738037 0.5634869337081909
vn 1.0 -1.403815986122936e-06 0.0
vn 1.0 -1.4038160998097737e-06 0.0
vn 1.0 -1.4038158724360983e-06 0.0
vn 1.0 -1.4174696616464644e-06 9.668485745351063e-07
vn 1.0 -1.4174696616464644e-06 9.668485745351063e-07
vn -7.629262768205081e-07 0.0 1.0
vn -7.629262768205081e-07 0.0 1.0
vn -7.629263336639269e-07 0.0 1.0
vn -7.62925481012644e-07 0.0 1.0
vn -1.5337648164859274e-06 -1.0332693136660964e-06 1.0
vn -1.0 4.1705368403199827e-07 0.0
vn -1.0 4.1705368403199827e-07 0.0
vn -1.0 4.1705368403199827e-07 0.0
vn -1.0 4.1780870674301696e-07 0.0
vn -1.0 0.0 0.0
vn -1.0 0.0 0.0
vn -1.0 0.0 0.0
vn 1.0 -6.823018452450924e-07 0.0
vn 1.0 -6.823019020885113e-07 0.0
vn 1.0 -6.823018452450924e-07 0.0
vn 1.0 -6.823018452450924e-07 0.0
vn -0.007656507194042206 -0.9999706745147705 0.0
vn -0.00765650812536478 -0.9999706745147705 0.0
vn -0.0076565067283809185 -0.9999706745147705 0.0
vn -0.00765650812536478 -0.9999706745147705 0.0
vn -0.0076565067283809185 -0.9999706745147705 0.0
vn -0.0076565067283809185 -0.9999706745147705 0.0
vn -0.007656507194042206 -0.9999706745147705 0.0
vn -0.00765650812536478 -0.9999706745147705 0.0
vn -0.005774262826889753 -0.7540110349655151 0.6568363904953003
vn -0.005774262826889753 -0.7540110349655151 0.6568363904953003
vn -0.005774262826889753 -0.7540110349655151 0.6568363904953003
vn -0.005772828124463558 -0.754020094871521 0.6568259596824646
vn -0.9933386445045471 -0.04421237111091614 0.10641278326511383
vn -0.7058888077735901 -0.02530188485980034 0.707870602607727
vn -0.7072166800498962 -0.15960553288459778 0.6887457966804504
vn -0.08927501738071442 -0.05514104291796684 0.9944794178009033
vn -4.5112952307135856e-07 0.0 1.0
vn -0.08580203354358673 0.05781335383653641 0.9946334362030029
vn -5.595745165010158e-07 1.2671779359152424e-07 1.0
vn -0.70710688829422 1.4545139492838643e-07 0.7071066498756409
vn -0.7055727243423462 0.02953951805830002 0.7080215215682983
vn -1.0 0.0 0.0
vn -0.7057940363883972 0.035057783126831055 0.7075490355491638
vn -0.7071065306663513 -1.238998947883374e-07 0.7071070075035095
vn -1.0 0.0 0.0
vn -0.974602997303009 0.07655541598796844 0.21044746041297913
vn -4.6227924599406833e-07 -1.0864782495900727e-07 1.0
vn -0.118378184735775 0.06455252319574356 0.990868091583252
vn -0.0 0.0 1.0
vn -0.7071065306663513 -1.238998947883374e-07 0.7071070075035095
vn -0.7057940363883972 0.035057783126831055 0.7075490355491638
vn -0.0 1.0 0.0
vn -0.1364096850156784 0.9693191647529602 0.2044818252325058
vn -0.0 1.0 0.0
vn -0.0 1.0 0.0
vn -0.08645880222320557 0.9877892732620239 0.12960411608219147
vt 0.4258624017238617 0.5448647141456604
vt 0.3124312162399292 0.5448647141456604
vt 0.3912479281425476 0.5235673189163208
vt 0.3119136393070221 0.5437677502632141
vt 0.40023067593574524 0.5000896453857422
vt 0.0075931246392428875 0.09667569398880005
vt 0.998437762260437 0.14105218648910522
vt 0.0075931246392428875 0.14105212688446045
vt 0.998437762260437 0.11982238292694092
vt 0.9489551186561584 0.09667575359344482
vt 0.40023067593574524 0.5000896453857422
vt 0.4258624017238617 0.5448647141456604
vt 0.3912479281425476 0.5235673189163208
vt 0.0075931246392428875 0.09814590215682983
vt 0.998437762260437 0.142345130443573
vt 0.998437762260437 0.09814602136611938
vt 0.0075931246392428875 0.14234501123428345
vt 0.007593121379613876 0.2722749710083008
vt 0.49792489409446716 0.14107078313827515
vt 0.49792489409446716 0.27227503061294556
vt 0.007593121379613876 0.14107072353363037
vt 0.9489551186561584 0.0004889965057373047
vt 0.998437762260437 0.09667575359344482
vt 0.998437762260437 0.012236237525939941
vt 0.0075931246392428875 0.09667575359344482
vt 0.0075931246392428875 0.0004889965057373047
vt 0.998437762260437 0.09814614057540894
vt 0.0075931246392428875 0.142345130443573
vt 0.998437762260437 0.14234519004821777
vt 0.0075931246392428875 0.09814602136611938
vt 0.49792489409446716 0.27227509021759033
vt 0.007593121379613876 0.14107078313827515
vt 0.49792489409446716 0.14107084274291992
vt 0.007593121379613876 0.27227503061294556
vt 0.3617115020751953 0.27157580852508545
vt 0.49792489409446716 0.1408960223197937
vt 0.49792489409446716 0.27157580852508545
vt 0.3617115020751953 0.1408960223197937
vt 0.0075931246392428875 0.0004889965057373047
vt 0.998437762260437 0.09667575359344482
vt 0.0075931246392428875 0.09667575359344482
vt 0.998437762260437 0.0004889965057373047
vt 0.007593121379613876 0.2718987464904785
vt 0.49792489409446716 0.14121884107589722
vt 0.007593121379613876 0.141218900680542
vt 0.49792489409446716 0.27189868688583374
vt 0.998437762260437 0.14105218648910522
vt 0.0075931246392428875 0.09667569398880005
vt 0.0075931246392428875 0.14105212688446045
vt 0.9521769285202026 0.09667575359344482
vt 0.998437762260437 0.11982226371765137
vt 0.3617115020751953 0.09733611345291138
vt 0.49792489409446716 0.1408960223197937
vt 0.3617115020751953 0.1408960223197937
vt 0.49792489409446716 0.09733611345291138
vt 0.0075931246392428875 0.09814590215682983
vt 0.998437762260437 0.142345130443573
vt 0.0075931246392428875 0.14234501123428345
vt 0.998437762260437 0.09814602136611938
vt 0.007593121379613876 0.2722749710083008
vt 0.49792489409446716 0.14107078313827515
vt 0.007593121379613876 0.14107072353363037
vt 0.49792489409446716 0.27227503061294556
vt 0.3899649381637573 0.5070258378982544
vt 0.4640425443649292 0.5290860831737518
vt 0.3899649381637573 0.5289694666862488
vt 0.3899649381637573 0.5452882945537567
vt 0.49792489409446716 0.2718985676765442
vt 0.007593121379613876 0.14121884107589722
vt 0.007593121379613876 0.27189868688583374
vt 0.49792489409446716 0.14121878147125244
vt 0.0075931246392428875 0.0966755747795105
vt 0.998437762260437 0.14105212688446045
vt 0.998437762260437 0.09667569398880005
vt 0.0075931246392428875 0.14105206727981567
vt 0.998437762260437 0.09814614057540894
vt 0.0075931246392428875 0.142345130443573
vt 0.0075931246392428875 0.09814602136611938
vt 0.998437762260437 0.14234519004821777
vt 0.49792489409446716 0.27227509021759033
vt 0.007593121379613876 0.14107078313827515
vt 0.007593121379613876 0.27227503061294556
vt 0.49792489409446716 0.14107084274291992
vt 0.05272132530808449 0.2718987464904785
vt 0.49792489409446716 0.14121884107589722
vt 0.49792489409446716 0.27189868688583374
vt 0.05272132530808449 0.141218900680542
vt 0.49792489409446716 0.27189868688583374
vt 0.05272132530808449 0.141218900680542
vt 0.49792489409446716 0.14121884107589722
vt 0.05272132530808449 0.2718987464904785
vt 0.49792489409446716 0.27189868688583374
vt 0.007593121379613876 0.141218900680542
vt 0.007593121379613876 0.2718987464904785
vt 0.49792489409446716 0.14121884107589722
vt 0.3617115020751953 0.27157580852508545
vt 0.49792489409446716 0.1408960223197937
vt 0.3617115020751953 0.1408960223197937
vt 0.49792489409446716 0.27157580852508545
vt 0.3767099976539612 0.40117907524108887
vt 0.9968270659446716 0.27482330799102783
vt 0.3767099976539612 0.27482330799102783
vt 0.9968270659446716 0.40117907524108887
vt 0.37501493096351624 0.40025269985198975
vt 0.25713399052619934 0.4531775116920471
vt 0.25713399052619934 0.40025269985198975
vt 0.37501493096351624 0.4531775116920471
vt 0.37753087282180786 0.44788694381713867
vt 0.9984685778617859 0.4007883071899414
vt 0.37753087282180786 0.4007883071899414
vt 0.9984685778617859 0.44788694381713867
vt 0.3752143979072571 0.4525001645088196
vt 0.25504618883132935 0.4102060794830322
vt 0.3752143979072571 0.4102061986923218
vt 0.25504618883132935 0.45250028371810913
vt 0.8758169412612915 0.44745945930480957
vt 0.26085740327835083 0.4004230499267578
vt 0.8758169412612915 0.4004230499267578
vt 0.253207802772522 0.4098677635192871
vt 0.253207802772522 0.44745945930480957
vt 0.36642274260520935 0.40117907524108887
vt 0.8786764144897461 0.27482330799102783
vt 0.2608574628829956 0.27482330799102783
vt 0.8786764144897461 0.40117907524108887
vt 0.2608574628829956 0.40117907524108887
vt 0.37501493096351624 0.40025269985198975
vt 0.25713399052619934 0.4531775116920471
vt 0.25713399052619934 0.40025269985198975
vt 0.37501493096351624 0.4531775116920471
vt 0.3671472668647766 0.44788694381713867
vt 0.8794941306114197 0.4007883071899414
vt 0.3665624260902405 0.4007883071899414
vt 0.8794941306114197 0.44788694381713867
vt 0.26085740327835083 0.4007883071899414
vt 0.26085740327835083 0.4070736765861511
vt 0.26085740327835083 0.44788694381713867
vt 0.3752143979072571 0.39958006143569946
vt 0.25504618883132935 0.40664243698120117
vt 0.25504618883132935 0.3995802402496338
vt 0.3752143979072571 0.4068276882171631
vt 0.250139445066452 0.4503323435783386
vt 0.8813448548316956 0.4004230499267578
vt 0.8813448548316956 0.4503323435783386
vt 0.250139445066452 0.4072583317756653
vt 0.2600839138031006 0.4004230499267578
vt 0.9974935054779053 0.40117907524108887
vt 0.2608574628829956 0.27482330799102783
vt 0.3718729317188263 0.40117907524108887
vt 0.9974935054779053 0.27482330799102783
vt 0.2608574628829956 0.40117907524108887
vt 0.37501493096351624 0.40025269985198975
vt 0.25713399052619934 0.4531775116920471
vt 0.25713399052619934 0.40025269985198975
vt 0.37501493096351624 0.4531775116920471
vt 0.9984685182571411 0.44788694381713867
vt 0.37201982736587524 0.4007883071899414
vt 0.3563571572303772 0.44788694381713867
vt 0.9984685182571411 0.4007883071899414
vt 0.26085740327835083 0.4007883071899414
vt 0.26085740327835083 0.40922707319259644
vt 0.26085740327835083 0.44788694381713867
vt 0.3752143979072571 0.39958006143569946
vt 0.25504618883132935 0.40906208753585815
vt 0.25504618883132935 0.3995802402496338
vt 0.3752143979072571 0.40947091579437256
vt 0.253207802772522 0.44745945930480957
vt 0.9984685182571411 0.4004230499267578
vt 0.9984685182571411 0.44745945930480957
vt 0.253207802772522 0.40921419858932495
vt 0.26085740327835083 0.4004230499267578
vt 0.37220045924186707 0.40117907524108887
vt 0.8750040531158447 0.27482330799102783
vt 0.260857492685318 0.27482330799102783
vt 0.8750040531158447 0.40117907524108887
vt 0.260857492685318 0.40117907524108887
vt 0.373257577419281 0.44788694381713867
vt 0.8758169412612915 0.4007883071899414
vt 0.37234777212142944 0.4007883071899414
vt 0.8758169412612915 0.44788694381713867
vt 0.26085740327835083 0.44788694381713867
vt 0.26085740327835083 0.41024529933929443
vt 0.26085740327835083 0.4007883071899414
vt 0.9984685778617859 0.44745945930480957
vt 0.37753087282180786 0.4004230499267578
vt 0.9984685778617859 0.4004230499267578
vt 0.37753087282180786 0.44745945930480957
vt 0.25504618883132935 0.45250028371810913
vt 0.3752143979072571 0.4068276882171631
vt 0.3752143979072571 0.4525001645088196
vt 0.25504618883132935 0.40664243698120117
vt 0.25504618883132935 0.45250028371810913
vt 0.3752143979072571 0.40947091579437256
vt 0.3752143979072571 0.4525001645088196
vt 0.25504618883132935 0.40906208753585815
vt 0.3752143979072571 0.39958006143569946
vt 0.25504618883132935 0.4102060794830322
vt 0.25504618883132935 0.3995802402496338
vt 0.3752143979072571 0.4102061986923218
vt 0.3899649381637573 0.545288473367691
vt 0.3091524839401245 0.5290861427783966
vt 0.3899649381637573 0.5284929871559143
vt 0.3899649381637573 0.5070255994796753
vt 0.0075931246392428875 0.09667575359344482
vt 0.998437762260437 0.01223611831665039
vt 0.998437762260437 0.09667575359344482
vt 0.0075931246392428875 0.0004889965057373047
vt 0.9521769285202026 0.0004889965057373047
vt 0.998437762260437 0.14105212688446045
vt 0.08113361895084381 0.0966755747795105
vt 0.998437762260437 0.09667569398880005
vt 0.0075931246392428875 0.14105206727981567
vt 0.0075931246392428875 0.12769567966461182
vt 0.998437762260437 0.09667575359344482
vt 0.0075931241735816 0.016363322734832764
vt 0.0075931246392428875 0.09667575359344482
vt 0.998437762260437 0.0004889965057373047
vt 0.08113361895084381 0.0004889965057373047
vt 0.49792489409446716 0.1408960223197937
vt 0.3617115020751953 0.12778538465499878
vt 0.3617115020751953 0.1408960223197937
vt 0.49792489409446716 0.09733611345291138
vt 0.3841916620731354 0.09733611345291138

g bg_mdl_map_hari00
s 1
usemtl bg_mdl_map_hari00
f 3/3/3 2/2/2 1/1/1 
f 3/3/3 5/5/5 4/4/4 
f 8/8/8 7/7/7 6/6/6 
f 7/7/7 9/9/9 6/6/6 
f 6/6/6 9/9/9 10/10/10 
f 13/13/13 12/12/12 11/11/11 
f 16/16/16 15/15/15 14/14/14 
f 17/17/17 14/14/14 15/15/15 
f 20/20/20 19/19/19 18/18/18 
f 21/21/21 18/18/18 19/19/19 
f 24/24/24 23/23/23 22/22/22 
f 23/23/23 25/25/25 22/22/22 
f 22/22/22 25/25/25 26/26/26 
f 29/29/29 28/28/28 27/27/27 
f 30/30/30 27/27/27 28/28/28 
f 33/33/33 32/32/32 31/31/31 
f 34/34/34 31/31/31 32/32/32 
f 37/37/37 36/36/36 35/35/35 
f 38/38/38 35/35/35 36/36/36 
f 41/41/41 40/40/40 39/39/39 
f 42/42/42 39/39/39 40/40/40 
f 45/45/45 44/44/44 43/43/43 
f 46/46/46 43/43/43 44/44/44 
f 49/49/49 48/48/48 47/47/47 
f 48/48/48 50/50/50 47/47/47 
f 47/47/47 50/50/50 51/51/51 
f 54/54/54 53/53/53 52/52/52 
f 55/55/55 52/52/52 53/53/53 
f 58/58/58 57/57/57 56/56/56 
f 59/59/59 56/56/56 57/57/57 
f 62/62/62 61/61/61 60/60/60 
f 63/63/63 60/60/60 61/61/61 
f 66/66/66 65/65/65 64/64/64 
f 66/66/66 67/67/67 65/65/65 
f 70/70/70 69/69/69 68/68/68 
f 71/71/71 68/68/68 69/69/69 
f 74/74/74 73/73/73 72/72/72 
f 75/75/75 72/72/72 73/73/73 
f 78/78/78 77/77/77 76/76/76 
f 79/79/79 76/76/76 77/77/77 
f 82/82/82 81/81/81 80/80/80 
f 83/83/83 80/80/80 81/81/81 
f 86/86/86 85/85/85 84/84/84 
f 87/87/87 84/84/84 85/85/85 
f 90/90/90 89/89/89 88/88/88 
f 91/91/91 88/88/88 89/89/89 
f 94/94/94 93/93/93 92/92/92 
f 95/95/95 92/92/92 93/93/93 
f 98/98/98 97/97/97 96/96/96 
f 99/99/99 96/96/96 97/97/97 
f 102/102/102 101/101/101 100/100/100 
f 103/103/103 100/100/100 101/101/101 
f 106/106/106 105/105/105 104/104/104 
f 107/107/107 104/104/104 105/105/105 
f 110/110/110 109/109/109 108/108/108 
f 111/111/111 108/108/108 109/109/109 
f 114/114/114 113/113/113 112/112/112 
f 115/115/115 112/112/112 113/113/113 
f 118/118/118 117/117/117 116/116/116 
f 117/117/117 119/119/119 116/116/116 
f 116/116/116 119/119/119 120/120/120 
f 123/123/123 122/122/122 121/121/121 
f 124/124/124 121/121/121 122/122/122 
f 125/125/125 123/123/123 121/121/121 
f 128/128/128 127/127/127 126/126/126 
f 129/129/129 126/126/126 127/127/127 
f 132/132/132 131/131/131 130/130/130 
f 133/133/133 130/130/130 131/131/131 
f 134/134/134 132/132/132 130/130/130 
f 135/135/135 134/134/134 130/130/130 
f 136/136/136 135/135/135 130/130/130 
f 139/139/139 138/138/138 137/137/137 
f 140/140/140 137/137/137 138/138/138 
f 143/143/143 142/142/142 141/141/141 
f 142/142/142 144/144/144 141/141/141 
f 145/145/145 144/144/144 142/142/142 
f 148/148/148 147/147/147 146/146/146 
f 149/149/149 146/146/146 147/147/147 
f 150/150/150 147/147/147 148/148/148 
f 153/153/153 152/152/152 151/151/151 
f 154/154/154 151/151/151 152/152/152 
f 157/157/157 156/156/156 155/155/155 
f 158/158/158 155/155/155 156/156/156 
f 159/159/159 156/156/156 157/157/157 
f 160/160/160 159/159/159 157/157/157 
f 161/161/161 160/160/160 157/157/157 
f 164/164/164 163/163/163 162/162/162 
f 165/165/165 162/162/162 163/163/163 
f 168/168/168 167/167/167 166/166/166 
f 167/167/167 169/169/169 166/166/166 
f 170/170/170 169/169/169 167/167/167 
f 173/173/173 172/172/172 171/171/171 
f 174/174/174 171/171/171 172/172/172 
f 175/175/175 173/173/173 171/171/171 
f 178/178/178 177/177/177 176/176/176 
f 179/179/179 176/176/176 177/177/177 
f 180/180/180 178/178/178 176/176/176 
f 181/181/181 178/178/178 180/180/180 
f 182/182/182 178/178/178 181/181/181 
f 185/185/185 184/184/184 183/183/183 
f 186/186/186 183/183/183 184/184/184 
f 189/189/189 188/188/188 187/187/187 
f 190/190/190 187/187/187 188/188/188 
f 193/193/193 192/192/192 191/191/191 
f 194/194/194 191/191/191 192/192/192 
f 197/197/197 196/196/196 195/195/195 
f 198/198/198 195/195/195 196/196/196 
f 201/201/201 200/200/200 199/199/199 
f 201/201/201 202/202/202 200/200/200 
f 205/205/205 204/204/204 203/203/203 
f 203/203/203 204/204/204 206/206/206 
f 206/206/206 204/204/204 207/207/207 
f 210/210/210 209/209/209 208/208/208 
f 208/208/208 209/209/209 211/211/211 
f 211/211/211 209/209/209 212/212/212 
f 215/215/215 214/214/214 213/213/213 
f 213/213/213 214/214/214 216/216/216 
f 216/216/216 214/214/214 217/217/217 
f 220/220/220 219/219/219 218/218/218 
f 218/218/218 219/219/219 221/221/221 
f 221/221/221 219/219/219 222/222/222 

