v -1.350000023841858 -0.949999988079071 1.0
v -0.5 0.0 1.0
v -0.5 -0.949999988079071 1.0
v -1.4499999284744263 0.0 1.0
v -1.4499999284744263 -0.8499999642372131 1.0
v -1.3874999284744263 -0.9874999523162842 0.9874999523162842
v -0.7526712417602539 -0.965214192867279 0.9874999523162842
v -0.5 -0.9827447533607483 0.9874999523162842
v -1.4775054454803467 0.0 0.9874999523162842
v -1.475496768951416 -0.887499988079071 0.9874999523162842
v -1.46547269821167 -0.654826819896698 0.9874999523162842
v -1.4656182527542114 -0.3180578052997589 0.9874999523162842
v -1.4499999284744263 -0.8499999642372131 1.0
v -0.5 -0.949999988079071 1.0
v 0.5 0.0 1.0
v 0.5 -0.949999988079071 1.0
v -0.5 0.0 1.0
v 0.5 0.949999988079071 1.0
v -0.5 0.949999988079071 1.0
v -0.5 -0.9827447533607483 0.9874999523162842
v 0.5 0.9691118597984314 0.9874999523162842
v 1.350000023841858 0.949999988079071 1.0
v 0.5 0.0 1.0
v 1.4499999284744263 0.0 1.0
v 1.4499999284744263 0.8499999642372131 1.0
v 1.4660354852676392 0.0 0.9874999523162842
v 1.4623785018920898 0.3998045325279236 0.9874999523162842
v 1.4874999523162842 0.887499988079071 0.9874999523162842
v 0.8461250066757202 0.9689096808433533 0.9874999523162842
v 0.8973375558853149 0.9847473502159119 0.9874999523162842
v 1.3874999284744263 0.9874999523162842 0.9874999523162842
v 0.3575110137462616 -0.965214192867279 0.9874999523162842
v 0.5 -1.000714659690857 0.9874999523162842
v -0.017724990844726562 -0.965214192867279 0.9874999523162842
v 0.5 -0.949999988079071 1.0
v 0.5 -0.949999988079071 1.0
v 1.4499999284744263 -0.8499999642372131 1.0
v 1.350000023841858 -0.949999988079071 1.0
v 1.4499999284744263 0.0 1.0
v 0.5 0.0 1.0
v 1.3874999284744263 -0.9874999523162842 0.9874999523162842
v 0.5 -1.000714659690857 0.9874999523162842
v 1.4660354852676392 0.0 0.9874999523162842
v 1.4874999523162842 -0.887499988079071 0.9874999523162842
v 1.4892919063568115 -0.4215624928474426 0.9874999523162842
v 1.4739519357681274 -0.37097498774528503 0.9874999523162842
v 1.4892919063568115 -0.4215624928474426 0.9874999523162842
v 1.4660354852676392 0.0 0.9874999523162842
v 1.4926599264144897 -0.06388188898563385 0.9874999523162842
v -1.4499999284744263 0.0 1.0
v -0.5 0.949999988079071 1.0
v -0.5 0.0 1.0
v -1.4499999284744263 0.8499999642372131 1.0
v -1.350000023841858 0.949999988079071 1.0
v -1.3799110651016235 0.9759730100631714 0.9874999523162842
v -1.05583918094635 0.972122073173523 0.9874999523162842
v -1.475496768951416 0.887499988079071 0.9874999523162842
v -1.0014375448226929 0.9837777614593506 0.9874999523162842
v -0.5 0.9885997772216797 0.9874999523162842
v -1.05583918094635 0.972122073173523 0.9874999523162842
v -1.4499999284744263 0.8499999642372131 1.0
v -1.4774874448776245 0.43931251764297485 0.9874999523162842
v -1.4656182527542114 0.3602362871170044 0.9874999523162842
v -1.4775054454803467 0.0 0.9874999523162842
v -1.3874999284744263 -0.9874999523162842 0.9874999523162842
v -0.7526712417602539 -0.965214192867279 0.9874999523162842
v -0.8239375352859497 -0.978168785572052 0.9874999523162842
v -0.5 -0.9827447533607483 0.9874999523162842
v -0.697083592414856 -0.9857360124588013 0.9874999523162842
v -1.4775054454803467 0.0 0.9874999523162842
v -1.4656182527542114 -0.3180578052997589 0.9874999523162842
v -1.4775054454803467 -0.24406249821186066 0.9874999523162842
v -1.479237675666809 -0.5977250933647156 0.9874999523162842
v -1.479237675666809 -0.38354364037513733 0.9874999523162842
v -1.46547269821167 -0.654826819896698 0.9874999523162842
v -1.475496768951416 -0.887499988079071 0.9874999523162842
v -1.4781608581542969 -0.7040005922317505 0.9874999523162842
v -1.4775054454803467 0.0 0.9874999523162842
v -1.4499999284744263 -0.8499999642372131 1.0
v -1.4656182527542114 -0.3180578052997589 0.9874999523162842
v -0.5 -0.9827447533607483 0.9874999523162842
v -0.017724990844726562 -0.965214192867279 0.9874999523162842
v -0.08500000089406967 -0.9827447533607483 0.9874999523162842
v 0.3007147014141083 -0.9782854318618774 0.9874999523162842
v 0.052167873829603195 -0.9876461625099182 0.9874999523162842
v 0.3575110137462616 -0.965214192867279 0.9874999523162842
v -0.5 -0.9827447533607483 0.9874999523162842
v 0.5 -0.949999988079071 1.0
v -0.017724990844726562 -0.965214192867279 0.9874999523162842
v 1.4739519357681274 -0.37097498774528503 0.9874999523162842
v 1.4926599264144897 -0.06388188898563385 0.9874999523162842
v 1.4926599264144897 -0.31161898374557495 0.9874999523162842
v 1.4499999284744263 -0.8499999642372131 1.0
v 1.4926599264144897 -0.06388188898563385 0.9874999523162842
v 1.4739519357681274 -0.37097498774528503 0.9874999523162842
v -1.05583918094635 0.972122073173523 0.9874999523162842
v -1.3799110651016235 0.9759730100631714 0.9874999523162842
v -1.0919208526611328 0.9837777614593506 0.9874999523162842
v -1.4656182527542114 0.3602362871170044 0.9874999523162842
v -1.4775054454803467 0.0 0.9874999523162842
v -1.4775054454803467 0.2953937351703644 0.9874999523162842
v -1.4499999284744263 0.8499999642372131 1.0
v -1.4775054454803467 0.0 0.9874999523162842
v -1.4656182527542114 0.3602362871170044 0.9874999523162842
v 0.4350000023841858 0.9886842370033264 0.9874999523162842
v -0.4193328320980072 0.973779559135437 0.9874999523162842
v -0.3644249737262726 0.9885997772216797 0.9874999523162842
v -0.4193328320980072 0.973779559135437 0.9874999523162842
v -0.5 0.9885997772216797 0.9874999523162842
v 0.4350000023841858 0.9886842370033264 0.9874999523162842
v 0.5 0.9691118597984314 0.9874999523162842
v 1.4660354852676392 0.0 0.9874999523162842
v 1.4839985370635986 0.348609983921051 0.9874999523162842
v 1.4840885400772095 0.07100000232458115 0.9874999523162842
v 1.4623785018920898 0.3998045325279236 0.9874999523162842
v 1.4874999523162842 0.887499988079071 0.9874999523162842
v 1.486389398574829 0.44613558053970337 0.9874999523162842
v 0.8461250066757202 0.9689096808433533 0.9874999523162842
v 0.5518668293952942 0.9886842370033264 0.9874999523162842
v 0.7855672240257263 0.9831616878509521 0.9874999523162842
v 0.5 0.9691118597984314 0.9874999523162842
v -0.828499972820282 -1.0042734146118164 0.0
v -1.399999976158142 -1.0 0.949999988079071
v -0.828499972820282 -0.990668773651123 0.949999988079071
v -1.4121214151382446 -1.0136046409606934 0.0
v -1.3874999284744263 -0.9874999523162842 0.9874999523162842
v -0.8239375352859497 -0.978168785572052 0.9874999523162842
v -1.5139323472976685 -0.9167260527610779 0.0
v -1.492260456085205 -0.8999999761581421 0.949999988079071
v -1.3874999284744263 -0.9874999523162842 0.9874999523162842
v -1.475496768951416 -0.887499988079071 0.9874999523162842
v -1.4949244260787964 -0.6975623965263367 0.949999988079071
v -1.5166304111480713 -0.7144014835357666 0.0
v -1.471749186515808 -0.6560993194580078 0.949999988079071
v -1.4781183004379272 -0.6560993194580078 0.0
v -1.4917376041412354 -0.6061437726020813 0.949999988079071
v -1.5129241943359375 -0.6061437726020813 0.0
v -1.4917376041412354 -0.38894569873809814 0.949999988079071
v -1.5129241943359375 -0.38894569873809814 0.0
v -1.4781183004379272 -0.32253748178482056 0.949999988079071
v -1.4781183004379272 -0.32253748178482056 0.0
v -1.4900054931640625 -0.2474999874830246 0.949999988079071
v -1.5403162240982056 -0.2474999874830246 0.0
v -1.495689034461975 0.0 0.949999988079071
v -1.5461145639419556 0.0 0.0
v -1.4775054454803467 -0.24406249821186066 0.9874999523162842
v -1.4900054931640625 0.29955416917800903 0.949999988079071
v -1.541220784187317 0.29955416917800903 0.0
v -1.4781183004379272 0.3653099834918976 0.949999988079071
v -1.4781183004379272 0.3653099834918976 0.0
v -1.4899874925613403 0.445499986410141 0.949999988079071
v -1.5012069940567017 0.445499986410141 0.0
v -1.4879968166351318 0.8999999761581421 0.949999988079071
v -1.5031715631484985 0.906055212020874 0.0
v -1.475496768951416 0.887499988079071 0.9874999523162842
v -1.4774874448776245 0.43931251764297485 0.9874999523162842
v -1.4041640758514404 1.006055235862732 0.0
v -1.3924109935760498 0.9884730577468872 0.949999988079071
v -1.3799110651016235 0.9759730100631714 0.9874999523162842
v -1.4656182527542114 0.3602362871170044 0.9874999523162842
v -1.4775054454803467 0.2953937351703644 0.9874999523162842
v -1.4775054454803467 -0.24406249821186066 0.9874999523162842
v -1.4775054454803467 0.0 0.9874999523162842
v -1.4775054454803467 0.2953937351703644 0.9874999523162842
v -0.08500000089406967 -1.084288239479065 0.0
v -0.5 -0.9952447414398193 0.949999988079071
v -0.08500000089406967 -0.9952447414398193 0.949999988079071
v -0.5 -1.0923290252685547 0.0
v -0.08500000089406967 -0.9827447533607483 0.9874999523162842
v -0.5 -0.9827447533607483 0.9874999523162842
v -0.6998593807220459 -0.9982360005378723 0.949999988079071
v -0.6998593807220459 -1.0534331798553467 0.0
v -0.7562299966812134 -0.9777142405509949 0.949999988079071
v -0.7562299966812134 -0.9777142405509949 0.0
v -0.7526712417602539 -0.965214192867279 0.9874999523162842
v -0.7562299966812134 -0.9777142405509949 0.0
v -0.697083592414856 -0.9857360124588013 0.9874999523162842
v -0.017724990844726562 -0.9777142405509949 0.0
v -0.017724990844726562 -0.9777142405509949 0.949999988079071
v -0.017724990844726562 -0.9777142405509949 0.0
v -0.017724990844726562 -0.965214192867279 0.9874999523162842
v 0.052167873829603195 -1.0001461505889893 0.949999988079071
v 0.052167873829603195 -1.0104740858078003 0.0
v -0.017724990844726562 -0.9777142405509949 0.0
v 0.052167873829603195 -0.9876461625099182 0.9874999523162842
v 0.3007147014141083 -1.0011134147644043 0.0
v 0.3007147014141083 -0.9907854199409485 0.949999988079071
v 0.3007147014141083 -0.9782854318618774 0.9874999523162842
v 0.3575110137462616 -0.9777142405509949 0.0
v 0.3575110137462616 -0.9777142405509949 0.949999988079071
v 0.3575110137462616 -0.965214192867279 0.9874999523162842
v 0.5 -1.0132145881652832 0.0
v 0.5 -1.0132145881652832 0.949999988079071
v 1.399999976158142 -1.0 0.949999988079071
v 1.399999976158142 -1.0 0.0
v 0.5 -1.000714659690857 0.9874999523162842
v 1.3874999284744263 -0.9874999523162842 0.9874999523162842
v 1.5 -0.8999999761581421 0.949999988079071
v 1.5152140855789185 -0.8999999761581421 0.0
v 1.523503065109253 -0.4274999797344208 0.0
v 1.5017919540405273 -0.4274999797344208 0.949999988079071
v 1.4874999523162842 -0.887499988079071 0.9874999523162842
v 1.4892919063568115 -0.4215624928474426 0.9874999523162842
v 1.4864519834518433 -0.37619999051094055 0.0
v 1.4864519834518433 -0.37619999051094055 0.0
v 1.4864519834518433 -0.37619999051094055 0.949999988079071
v 1.4739519357681274 -0.37097498774528503 0.9874999523162842
v 1.4892919063568115 -0.4215624928474426 0.9874999523162842
v 1.505159854888916 -0.3160080015659332 0.949999988079071
v 1.5577797889709473 -0.3160080015659332 0.0
v 1.4864519834518433 -0.37619999051094055 0.0
v 1.4926599264144897 -0.31161898374557495 0.9874999523162842
v 1.5577797889709473 -0.06478164345026016 0.0
v 1.505159854888916 -0.06478164345026016 0.949999988079071
v 1.4926599264144897 -0.06388188898563385 0.9874999523162842
v 1.4785354137420654 0.0 0.0
v 1.4785354137420654 0.0 0.0
v 1.4785354137420654 0.0 0.949999988079071
v 1.4926599264144897 -0.06388188898563385 0.9874999523162842
v 1.4660354852676392 0.0 0.9874999523162842
v 1.4840885400772095 0.07100000232458115 0.9874999523162842
v 1.4965885877609253 0.07200000435113907 0.949999988079071
v 1.5421335697174072 0.07200000435113907 0.0
v 1.4785354137420654 0.0 0.0
v 1.5420435667037964 0.353520005941391 0.0
v 1.4964985847473145 0.353520005941391 0.949999988079071
v 1.4839985370635986 0.348609983921051 0.9874999523162842
v 1.4748785495758057 0.40543559193611145 0.0
v 1.4623785018920898 0.3998045325279236 0.9874999523162842
v 1.4748785495758057 0.40543559193611145 0.0
v 1.4748785495758057 0.40543559193611145 0.949999988079071
v 1.4623785018920898 0.3998045325279236 0.9874999523162842
v 1.486389398574829 0.44613558053970337 0.9874999523162842
v 1.498889446258545 0.4524191915988922 0.949999988079071
v 1.5228121280670166 0.4524191915988922 0.0
v 1.4748785495758057 0.40543559193611145 0.0
v 1.5103628635406494 0.8999999761581421 0.0
v 1.5 0.8999999761581421 0.949999988079071
v 1.399999976158142 1.0 0.949999988079071
v 1.399999976158142 1.012048363685608 0.0
v 0.8976649045944214 1.011694073677063 0.0
v 0.8976649045944214 0.9996457695960999 0.949999988079071
v 1.3874999284744263 0.9874999523162842 0.9874999523162842
v 0.8973375558853149 0.9847473502159119 0.9874999523162842
v 1.4874999523162842 0.887499988079071 0.9874999523162842
v 0.8509999513626099 0.9816118478775024 0.0
v 0.8509999513626099 0.9816118478775024 0.949999988079071
v 0.8509999513626099 0.9816118478775024 0.0
v 0.8461250066757202 0.9689096808433533 0.9874999523162842
v 0.784309983253479 1.0011842250823975 0.949999988079071
v 0.784309983253479 1.039863109588623 0.0
v 0.8509999513626099 0.9816118478775024 0.0
v 0.5525973439216614 1.039863109588623 0.0
v 0.5525973439216614 1.0011842250823975 0.949999988079071
v 0.7855672240257263 0.9831616878509521 0.9874999523162842
v 0.8461250066757202 0.9689096808433533 0.9874999523162842
v 0.5 0.9816118478775024 0.0
v 0.7855672240257263 0.9831616878509521 0.9874999523162842
v 0.5518668293952942 0.9886842370033264 0.9874999523162842
v 0.5 0.9816118478775024 0.949999988079071
v 0.5 0.9816118478775024 0.0
v 0.5 0.9691118597984314 0.9874999523162842
v 0.4350000023841858 1.0277711153030396 0.0
v 0.4350000023841858 1.0011842250823975 0.949999988079071
v 0.5 0.9816118478775024 0.0
v 0.4350000023841858 0.9886842370033264 0.9874999523162842
v 0.5 0.9691118597984314 0.9874999523162842
v -0.3644249737262726 1.0276867151260376 0.0
v -0.3644249737262726 1.001099705696106 0.949999988079071
v -0.3644249737262726 0.9885997772216797 0.9874999523162842
v -0.4193328320980072 0.9816118478775024 0.0
v -0.4193328320980072 0.9816118478775024 0.949999988079071
v -0.4193328320980072 0.9816118478775024 0.0
v -0.4193328320980072 0.973779559135437 0.9874999523162842
v -0.5 1.001099705696106 0.949999988079071
v -0.5 1.042174220085144 0.0
v -1.0084999799728394 1.0373523235321045 0.0
v -1.0084999799728394 0.9962777495384216 0.949999988079071
v -1.0014375448226929 0.9837777614593506 0.9874999523162842
v -0.5 0.9885997772216797 0.9874999523162842
v -0.4193328320980072 0.9816118478775024 0.0
v -1.057437539100647 0.9816118478775024 0.0
v -1.05583918094635 0.972122073173523 0.9874999523162842
v -1.057437539100647 0.9816118478775024 0.0
v -1.057437539100647 0.9816118478775024 0.949999988079071
v -1.05583918094635 0.972122073173523 0.9874999523162842
v -1.0919208526611328 0.9837777614593506 0.9874999523162842
v -1.1002577543258667 0.9962777495384216 0.949999988079071
v -1.1002577543258667 1.019124984741211 0.0
v -1.057437539100647 0.9816118478775024 0.0
v -1.4041640758514404 1.006055235862732 0.0
v -1.3924109935760498 0.9884730577468872 0.949999988079071
v -1.3799110651016235 0.9759730100631714 0.9874999523162842
v -1.4656182527542114 -0.3180578052997589 0.9874999523162842
v -1.479237675666809 -0.38354364037513733 0.9874999523162842
v -1.479237675666809 -0.5977250933647156 0.9874999523162842
v -1.46547269821167 -0.654826819896698 0.9874999523162842
v -1.4781608581542969 -0.7040005922317505 0.9874999523162842
v -1.46547269821167 -0.654826819896698 0.9874999523162842
v -1.479237675666809 -0.5977250933647156 0.9874999523162842
v -1.4781608581542969 -0.7040005922317505 0.9874999523162842
v -0.7562299966812134 -0.9777142405509949 0.0
v 1.4874999523162842 0.887499988079071 0.9874999523162842
vn -0.061288412660360336 -0.11109990626573563 0.9919175505638123
vn -0.0 0.0 1.0
vn 0.0009993406711146235 -0.292927086353302 0.9561343193054199
vn -0.14074237644672394 0.0 0.9900462031364441
vn -0.35058316588401794 -0.03535725176334381 0.9358639121055603
vn -0.2110653966665268 -0.656213641166687 0.7244549989700317
vn -0.08048388361930847 -0.673018753528595 0.7352334856987
vn -0.0019871650729328394 -0.5017279386520386 0.8650232553482056
vn -0.6148701906204224 0.0055879573337733746 0.7886085510253906
vn -0.5362111330032349 -0.15001170337200165 0.830646812915802
vn -0.6658511757850647 -0.054794397205114365 0.7440698146820068
vn -0.7056290507316589 -0.02230915240943432 0.7082300782203674
vn -0.5312625169754028 -0.04151836037635803 0.8461893796920776
vn 0.0009993406711146235 -0.292927086353302 0.9561343193054199
vn -0.0 0.0 1.0
vn -0.006373393815010786 -0.20341606438159943 0.9790715575218201
vn -0.0 0.0 1.0
vn -0.0 0.2280554324388504 0.973648190498352
vn 0.003896803827956319 0.24394330382347107 0.9697816371917725
vn -0.0019871650729328394 -0.5017279386520386 0.8650232553482056
vn -0.008129308931529522 0.5650738477706909 0.8250002264976501
vn 0.03437024727463722 0.20769637823104858 0.9775893092155457
vn -0.0 0.0 1.0
vn 0.2152916043996811 0.0 0.9765498638153076
vn 0.41498950123786926 0.03263379633426666 0.9092407822608948
vn 0.5627589225769043 0.022337906062602997 0.8263192772865295
vn 0.6498755812644958 0.046452656388282776 0.7586197853088379
vn 0.535457193851471 0.15799544751644135 0.8296524286270142
vn 0.028338035568594933 0.5655038952827454 0.8242586255073547
vn -0.1505860686302185 0.7194345593452454 0.6780396103858948
vn 0.2746371924877167 0.696739912033081 0.6626672744750977
vn -0.059117838740348816 -0.7040066719055176 0.7077286243438721
vn -0.05877812206745148 -0.7513356804847717 0.6572973728179932
vn -0.04972543194890022 -0.7000129222869873 0.7123968005180359
vn -0.002402877900749445 -0.31347283720970154 0.9495940804481506
vn -0.006373393815010786 -0.20341606438159943 0.9790715575218201
vn 0.17445331811904907 -0.03705668821930885 0.9839679002761841
vn 0.054705407470464706 -0.16134588420391083 0.9853805899620056
vn 0.2152916043996811 0.0 0.9765498638153076
vn -0.0 0.0 1.0
vn 0.18444442749023438 -0.46345528960227966 0.8667119145393372
vn -0.05877812206745148 -0.7513356804847717 0.6572973728179932
vn 0.5627589225769043 0.022337906062602997 0.8263192772865295
vn 0.7021557688713074 -0.2786576747894287 0.6552306413650513
vn 0.7446022629737854 0.13411061465740204 0.6538974642753601
vn 0.6877819299697876 -0.06422628462314606 0.7230705618858337
vn 0.6633467674255371 0.08721226453781128 0.7432127594947815
vn 0.3785924017429352 0.003914892673492432 0.9255552291870117
vn 0.39056360721588135 0.005589463748037815 0.9205589294433594
vn -0.14074237644672394 0.0 0.9900462031364441
vn 0.003896803827956319 0.24394330382347107 0.9697816371917725
vn -0.0 0.0 1.0
vn -0.20179960131645203 0.05698627606034279 0.9777676463127136
vn -0.07267000526189804 0.22044163942337036 0.9726893305778503
vn -0.14982794225215912 0.5727360248565674 0.8059311509132385
vn -0.037277016788721085 0.6969012022018433 0.716197669506073
vn -0.7129848003387451 0.2921961545944214 0.6373962759971619
vn -0.05442356318235397 0.7382776737213135 0.6722975969314575
vn 0.0606788732111454 0.7015761733055115 0.7100062370300293
vn -0.05904599279165268 0.46336036920547485 0.8842006921768188
vn -0.3359232246875763 0.0597822479903698 0.9399903416633606
vn -0.7723203897476196 -0.0670381635427475 0.6316859722137451
vn -0.705792248249054 0.04211299493908882 0.7071659564971924
vn -0.6148701906204224 0.0055879573337733746 0.7886085510253906
vn -0.2813611328601837 -0.49066847562789917 0.8246698975563049
vn 0.001815657364204526 -0.34576016664505005 0.9383211731910706
vn -0.0 0.0 1.0
vn -0.006288659293204546 -0.18130749464035034 0.9834064245223999
vn -0.0 0.0 1.0
vn -0.48842698335647583 0.0 0.8726047873497009
vn -0.16468755900859833 -7.118641951819882e-05 0.9863458275794983
vn -0.5308917164802551 0.0 0.847439706325531
vn -0.3593340218067169 -0.08662116527557373 0.9291802048683167
vn -0.0 0.0 1.0
vn -0.446178138256073 -0.04444270581007004 0.8938400149345398
vn -0.5362111330032349 -0.15001170337200165 0.830646812915802
vn -0.670528769493103 0.16841743886470795 0.7225141525268555
vn -0.9909668564796448 -0.000635916949249804 0.1341056227684021
vn -0.9607757329940796 -0.021712379530072212 0.27647534012794495
vn -0.9523272514343262 -0.030108755454421043 0.30358898639678955
vn -0.006288659293204546 -0.18130749464035034 0.9834064245223999
vn -0.0 -0.165935218334198 0.9861366748809814
vn -0.0 0.0 1.0
vn -0.0 0.0 1.0
vn -0.0 0.0 1.0
vn -0.02067805454134941 -0.30354633927345276 0.9525923132896423
vn 0.017118969932198524 -0.9922047257423401 0.12343660742044449
vn 0.020892435684800148 -0.954735279083252 0.2967221736907959
vn -0.06740248203277588 -0.948862612247467 0.3084098696708679
vn 0.03685417026281357 0.011175522580742836 0.9992581009864807
vn 0.01686996780335903 0.007030999753624201 0.9998329877853394
vn -0.0 0.0 1.0
vn 0.9210595488548279 -0.05611027032136917 -0.38535821437835693
vn 0.9739192724227905 0.18090280890464783 0.13695046305656433
vn 0.98443603515625 -0.09174247831106186 0.1498960703611374
vn -0.05904599279165268 0.46336036920547485 0.8842006921768188
vn -0.1807025820016861 0.38479194045066833 0.9051417708396912
vn -0.0 0.0 1.0
vn -0.06959947198629379 -0.010446754284203053 0.9975202679634094
vn -0.48842698335647583 0.0 0.8726047873497009
vn -0.5308917164802551 0.0 0.847439706325531
vn -0.7232895493507385 0.013641481287777424 0.6904101371765137
vn -0.8911495208740234 -0.00046835135435685515 0.4537094831466675
vn -0.9706670045852661 0.0585552379488945 0.23318852484226227
vn 0.0011079175164923072 0.18038977682590485 0.9835945963859558
vn 0.01636563427746296 0.2711588144302368 0.9623955488204956
vn -0.0 0.0 1.0
vn 0.03836512938141823 0.7161890864372253 0.6968510150909424
vn 0.0606788732111454 0.7015761733055115 0.7100062370300293
vn 0.09301270544528961 0.7153814435005188 0.6925157308578491
vn 0.05237886682152748 0.4755566120147705 0.8781243562698364
vn 0.3785924017429352 0.003914892673492432 0.9255552291870117
vn -0.0 0.0 1.0
vn -0.0 0.0 1.0
vn 0.46654438972473145 0.08070310205221176 0.8808083534240723
vn 0.2813355624675751 0.20563870668411255 0.9373169541358948
vn -0.0 0.0 1.0
vn 0.041317418217659 0.3354334235191345 0.941157341003418
vn -0.0 0.0 1.0
vn 0.08065074682235718 0.6919801831245422 0.7173972725868225
vn 0.0025091806892305613 0.35158130526542664 0.9361539483070374
vn 0.1273326426744461 -0.9917593598365784 0.014133837074041367
vn -0.37589260935783386 -0.9144577383995056 0.14990612864494324
vn 0.12530042231082916 -0.9789911508560181 0.16086062788963318
vn -0.3636802136898041 -0.9313504099845886 0.01797792688012123
vn -0.234797865152359 -0.7299992442131042 0.6418496966362
vn 0.1187133938074112 -0.9457776546478271 0.3023436665534973
vn -0.9225627779960632 -0.38501492142677307 0.025326084345579147
vn -0.8612712621688843 -0.4111896753311157 0.2985547184944153
vn -0.2110653966665268 -0.656213641166687 0.7244549989700317
vn -0.5362111330032349 -0.15001170337200165 0.830646812915802
vn -0.9613633751869202 0.15368519723415375 0.2283884435892105
vn -0.9350286722183228 0.3543030917644501 0.013805342838168144
vn -0.9731557965278625 0.18169645965099335 0.14125944674015045
vn -0.988621175289154 -0.14998465776443481 0.011524952948093414
vn -0.952559769153595 -0.26368018984794617 0.15199558436870575
vn -0.9798355102539062 -0.19860735535621643 0.021851902827620506
vn -0.9837941527366638 0.066556915640831 0.1664913147687912
vn -0.9739856123924255 0.22611264884471893 0.015005872584879398
vn -0.9786303639411926 0.12934568524360657 0.15985079109668732
vn -0.9921827912330627 -0.12385177612304688 0.0152954226359725
vn -0.9630468487739563 -0.19652226567268372 0.18417328596115112
vn -0.9694787859916687 -0.23972998559474945 0.051384665071964264
vn -0.9703105092048645 -0.004517915192991495 0.2418203353881836
vn -0.9985717535018921 0.003956148866564035 0.05328046530485153
vn -0.9307349324226379 -0.05747932195663452 0.36114901304244995
vn -0.9766413569450378 0.0960649624466896 0.19220614433288574
vn -0.9495334029197693 0.31141331791877747 0.037523943930864334
vn -0.978986918926239 0.10826484113931656 0.1728101223707199
vn -0.9949486255645752 0.10029634833335876 0.004226203076541424
vn -0.9825166463851929 -0.09334741532802582 0.16108186542987823
vn -0.9955796599388123 -0.0929952934384346 0.01314846146851778
vn -0.9100534915924072 0.38689884543418884 0.14870093762874603
vn -0.9255031943321228 0.3783493638038635 0.01719498448073864
vn -0.7129848003387451 0.2921961545944214 0.6373962759971619
vn -0.7723203897476196 -0.0670381635427475 0.6316859722137451
vn -0.3908761143684387 0.920189619064331 0.02160573936998844
vn -0.42393815517425537 0.8666123151779175 0.2631719708442688
vn -0.14982794225215912 0.5727360248565674 0.8059311509132385
vn -0.8994086384773254 0.047585565596818924 0.43451085686683655
vn -0.929810106754303 0.06305176019668579 0.3625984787940979
vn -0.799960196018219 -0.04940308257937431 0.5980159044265747
vn -0.7262222766876221 -0.0003816724056378007 0.6874598264694214
vn -0.7987846732139587 0.05416673794388771 0.5991736054420471
vn 0.32251885533332825 -0.9421350955963135 0.09144947677850723
vn 0.009020375087857246 -0.9744791388511658 0.2242967039346695
vn 0.2887031137943268 -0.9429969787597656 0.1655512899160385
vn -0.0524529330432415 -0.9948101043701172 0.08718724548816681
vn 0.1208781972527504 -0.9417269825935364 0.31390899419784546
vn 0.005839896854013205 -0.8488363027572632 0.5286234617233276
vn -0.19654467701911926 -0.9598560333251953 0.2001161426305771
vn -0.46827802062034607 -0.8827150464057922 0.03911213576793671
vn -0.17418509721755981 -0.9685111045837402 0.17789264023303986
vn -0.3678884208202362 -0.9298698306083679 0.0
vn -0.10254697501659393 -0.8575137853622437 0.5041372179985046
vn -0.11072981357574463 -0.9938363432884216 0.005300650838762522
vn -0.10118897259235382 -0.9414324164390564 0.3216610848903656
vn 0.5897923707962036 -0.8071076273918152 0.026872919872403145
vn -0.051096148788928986 -0.9851707816123962 0.16379179060459137
vn 0.26903730630874634 -0.9629221558570862 0.01999652571976185
vn -0.06740248203277588 -0.948862612247467 0.3084098696708679
vn -0.13296984136104584 -0.9776114225387573 0.16307958960533142
vn -0.23552726209163666 -0.9718409180641174 0.0072167059406638145
vn -0.09157046675682068 -0.9957985281944275 0.0
vn -0.07418937981128693 -0.9460688233375549 0.3153563141822815
vn 0.1541857123374939 -0.9879834651947021 0.010740927420556545
vn 0.15787039697170258 -0.9737924933433533 0.16372212767601013
vn 0.15465839207172394 -0.9372687935829163 0.31242290139198303
vn 0.12565115094184875 -0.9920684099197388 0.0034751559142023325
vn -0.010861001908779144 -0.9869759678840637 0.16050057113170624
vn -0.067633718252182 -0.8054183721542358 0.5888351202011108
vn -0.11449431627988815 -0.9934239387512207 0.0
vn -0.13732996582984924 -0.9721193313598633 0.19006472826004028
vn 0.3192068040370941 -0.9186885952949524 0.23263351619243622
vn 0.4881742000579834 -0.872738242149353 0.003720716806128621
vn -0.05877812206745148 -0.7513356804847717 0.6572973728179932
vn 0.18444442749023438 -0.46345528960227966 0.8667119145393372
vn 0.9089855551719666 -0.3905582129955292 0.14563477039337158
vn 0.906025767326355 -0.4229736626148224 0.014509840868413448
vn 0.9802447557449341 0.19677293300628662 0.020017262548208237
vn 0.9668897390365601 0.19672077894210815 0.16255803406238556
vn 0.7021557688713074 -0.2786576747894287 0.6552306413650513
vn 0.7446022629737854 0.13411061465740204 0.6538974642753601
vn 0.8968920707702637 0.4421497881412506 0.009393677115440369
vn 0.9989774227142334 0.04455628991127014 0.00766706932336092
vn 0.9809662103652954 -0.09207503497600555 0.17096033692359924
vn 0.9199027419090271 -0.07849738001823425 0.3842095732688904
vn 0.8556442856788635 0.15161503851413727 0.4948594272136688
vn 0.9696587324142456 -0.14622294902801514 0.19590987265110016
vn 0.9250826835632324 -0.3778076469898224 0.038515131920576096
vn 0.9583432078361511 -0.28561931848526 0.0
vn 0.9409573078155518 -0.09536835551261902 0.3248143792152405
vn 0.9579774141311646 0.2818930447101593 0.053061794489622116
vn 0.9463594555854797 0.2690618634223938 0.17891179025173187
vn 0.9111195802688599 0.1711718589067459 0.3749149739742279
vn 0.8033754825592041 0.595198392868042 0.018072111532092094
vn 0.9779103398323059 0.20849664509296417 0.014851470477879047
vn 0.9802238941192627 -0.0406126007437706 0.1936793178319931
vn 0.9739192724227905 0.18090280890464783 0.13695046305656433
vn 0.8166456818580627 0.02973010577261448 0.5763731598854065
vn 0.9376416206359863 -0.1563095599412918 0.31047627329826355
vn 0.9799715876579285 -0.08016759157180786 0.18228764832019806
vn 0.948284387588501 -0.3157099485397339 0.032923124730587006
vn 0.9861233234405518 -0.1660146713256836 0.0
vn 0.955928385257721 0.2900012135505676 0.04582926630973816
vn 0.9223343729972839 0.3365311622619629 0.18985845148563385
vn 0.9363396763801575 0.12425766885280609 0.32837188243865967
vn 0.7937923073768616 0.607999861240387 0.015160910785198212
vn 0.842170000076294 0.06019773334264755 0.5358413457870483
vn 0.9792792797088623 0.20210666954517365 0.012844225391745567
vn 0.9574596881866455 -0.24642495810985565 0.1501522958278656
vn 0.6498755812644958 0.046452656388282776 0.7586197853088379
vn 0.916740357875824 -0.305840402841568 0.2569994032382965
vn 0.9760192036628723 -0.1516231894493103 0.1561954915523529
vn 0.9149360060691833 -0.40324866771698 0.016811702400445938
vn 0.9799866080284119 -0.19906339049339294 0.0
vn 0.9220592975616455 0.3867877125740051 0.014209291897714138
vn 0.8624155521392822 0.43425026535987854 0.2601274847984314
vn 0.37671414017677307 0.9151232242584229 0.1436520516872406
vn 0.38583752512931824 0.9224926233291626 0.011699478141963482
vn -0.1878289133310318 0.9821227788925171 0.012455734424293041
vn -0.2164226472377777 0.9590342044830322 0.18279677629470825
vn 0.2746371924877167 0.696739912033081 0.6626672744750977
vn -0.1505860686302185 0.7194345593452454 0.6780396103858948
vn 0.535457193851471 0.15799544751644135 0.8296524286270142
vn -0.453490287065506 0.8912451863288879 0.0053573427721858025
vn 0.04065835475921631 0.9821672439575195 0.18356049060821533
vn -0.09629438817501068 0.9953439831733704 0.004199435468763113
vn 0.038008999079465866 0.7584943771362305 0.650570273399353
vn 0.1290692836046219 0.965904712677002 0.2244310826063156
vn 0.3272255063056946 0.9445379972457886 0.027773287147283554
vn 0.17370623350143433 0.9847975373268127 0.0
vn -0.26768869161605835 0.9627078771591187 0.03919629007577896
vn -0.24841485917568207 0.9484735131263733 0.19669292867183685
vn 0.06592682749032974 0.7818697094917297 0.619946300983429
vn 0.028338035568594933 0.5655038952827454 0.8242586255073547
vn -0.5614920258522034 0.8273630142211914 0.014041619375348091
vn 0.07731027156114578 0.9168733358383179 0.39162009954452515
vn -0.21927745640277863 0.9262080788612366 0.3066856563091278
vn 0.061556052416563034 0.979889452457428 0.18980935215950012
vn -0.20665325224399567 0.9783521890640259 0.011015684343874454
vn -0.013348978012800217 0.7438732385635376 0.6681873798370361
vn 0.298481285572052 0.9542292952537537 0.018850812688469887
vn 0.11479655653238297 0.9829763174057007 0.143454909324646
vn 0.13025881350040436 0.9914799928665161 0.0
vn 0.10430898517370224 0.802263617515564 0.5877863168716431
vn -0.009328249841928482 0.6484131217002869 0.761231541633606
vn -0.22637063264846802 0.9736600518226624 0.02724907174706459
vn -0.22589734196662903 0.959022045135498 0.1710178256034851
vn -0.19371859729290009 0.9419395923614502 0.27426791191101074
vn -0.4964858293533325 0.8679765462875366 0.01089045312255621
vn 0.0280657559633255 0.9907557368278503 0.13272306323051453
vn -0.14854450523853302 0.9888695478439331 0.008451029658317566
vn 0.04389549046754837 0.8194283843040466 0.5714983344078064
vn 0.08689212799072266 0.9789809584617615 0.18451553583145142
vn 0.2854999005794525 0.9579257965087891 0.02945956587791443
vn -0.2780952453613281 0.9596569538116455 0.041492052376270294
vn -0.26831433176994324 0.9479297995567322 0.1715710312128067
vn -0.05442356318235397 0.7382776737213135 0.6722975969314575
vn 0.0606788732111454 0.7015761733055115 0.7100062370300293
vn 0.1508924812078476 0.9885502457618713 0.0
vn -0.54013991355896 0.8414444327354431 0.01483427919447422
vn -0.037277016788721085 0.6969012022018433 0.716197669506073
vn -0.15804122388362885 0.987360954284668 0.011881272308528423
vn 0.1851063072681427 0.9740087985992432 0.13054735958576202
vn -0.04463554918766022 0.904954731464386 0.4231603145599365
vn 0.19897711277008057 0.9439318180084229 0.2634402811527252
vn 0.08848825842142105 0.9828638434410095 0.16170476377010345
vn 0.329079806804657 0.9441601634025574 0.01637347973883152
vn 0.21249829232692719 0.9771614670753479 0.0
vn -0.3908761143684387 0.920189619064331 0.02160573936998844
vn -0.42393815517425537 0.8666123151779175 0.2631719708442688
vn -0.16846150159835815 0.6439650058746338 0.7462772727012634
vn -0.9523272514343262 -0.030108755454421043 0.30358898639678955
vn -0.9456667900085449 0.12971609830856323 0.29814112186431885
vn -0.9410478472709656 -0.07351928949356079 0.33018758893013
vn -0.8547829985618591 -0.07034202665090561 0.5141964554786682
vn -0.9121644496917725 0.23135961592197418 0.3382732570171356
vn -0.6658511757850647 -0.054794397205114365 0.7440698146820068
vn -0.6840965151786804 -0.053444985300302505 0.7274307608604431
vn -0.7851611971855164 0.19914676249027252 0.5863980054855347
vn 0.26168128848075867 -0.9651308059692383 0.006746165454387665
vn 0.6183419227600098 0.1824519783258438 0.7644374370574951
vt 0.9647062420845032 0.5107364356517792
vt 0.7504783272743225 0.7498618960380554
vt 0.7504783272743225 0.5107364356517792
vt 0.9896680116653442 0.7498618960380554
vt 0.9896680116653442 0.5338463187217712
vt 0.9741736054420471 0.5002041757106781
vt 0.8139010667800903 0.5002041757106781
vt 0.7504783272743225 0.5002041757106781
vt 0.9992863535881042 0.7498618960380554
vt 0.9992863535881042 0.5242407917976379
vt 0.9992863535881042 0.5858477354049683
vt 0.9992863535881042 0.6701028943061829
vt 0.9896680116653442 0.5338463187217712
vt 0.49929356575012207 0.0114593505859375
vt 0.2511197626590729 0.25041282176971436
vt 0.2511197626590729 0.0114593505859375
vt 0.49929356575012207 0.25041282176971436
vt 0.2507871091365814 0.48917126655578613
vt 0.5000188946723938 0.48917126655578613
vt 0.49921467900276184 0.0009270906448364258
vt 0.2507871091365814 0.5002755522727966
vt 0.036124087870121 0.4893839359283447
vt 0.2499518245458603 0.2505878210067749
vt 0.011371888220310211 0.2505878210067749
vt 0.011371888220310211 0.46622347831726074
vt 0.001778044505044818 0.2505878210067749
vt 0.001778044505044818 0.3496955633163452
vt 0.001778044505044818 0.47437357902526855
vt 0.16299299895763397 0.4999161958694458
vt 0.151406392455101 0.4999161958694458
vt 0.026682058349251747 0.4999161958694458
vt 0.2863485813140869 0.0009270906448364258
vt 0.25104087591171265 0.0009270906448364258
vt 0.3798847198486328 0.0009270906448364258
vt 0.2511197626590729 0.0114593505859375
vt 0.24987144768238068 0.011438906192779541
vt 0.010898886248469353 0.03351235389709473
vt 0.03605204448103905 0.011438906192779541
vt 0.010898886248469353 0.24955058097839355
vt 0.24987144768238068 0.24955058097839355
vt 0.02661961130797863 0.0009065866470336914
vt 0.24987144768238068 0.0009065866470336914
vt 0.0016976578626781702 0.24955058097839355
vt 0.0016976578626781702 0.02393704652786255
vt 0.0016976578626781702 0.14291083812713623
vt 0.0016976578626781702 0.15582787990570068
vt 0.0016976578626781702 0.14291083812713623
vt 0.0016976578626781702 0.24955058097839355
vt 0.0016976578626781702 0.23919618129730225
vt 0.9895655512809753 0.0008228421211242676
vt 0.7509856224060059 0.23911237716674805
vt 0.7509856224060059 0.0008228421211242676
vt 0.9895655512809753 0.21767687797546387
vt 0.964164137840271 0.23911237716674805
vt 0.9735298156738281 0.2500741481781006
vt 0.8891620635986328 0.2500741481781006
vt 0.9991593956947327 0.22727298736572266
vt 0.8771094083786011 0.2500741481781006
vt 0.7509856224060059 0.2500741481781006
vt 0.8891620635986328 0.2500741481781006
vt 0.9895655512809753 0.21767687797546387
vt 0.9991593956947327 0.11258423328399658
vt 0.9991593956947327 0.09234893321990967
vt 0.9991593956947327 0.0008228421211242676
vt 0.9741736054420471 0.5002041757106781
vt 0.8139010667800903 0.5002041757106781
vt 0.8318932056427002 0.5002041757106781
vt 0.7504783272743225 0.5002041757106781
vt 0.7998670339584351 0.5002041757106781
vt 0.9992863535881042 0.7498618960380554
vt 0.9992863535881042 0.6701028943061829
vt 0.9992863535881042 0.6890566349029541
vt 0.9992863535881042 0.598466157913208
vt 0.9992863535881042 0.6533284783363342
vt 0.9992863535881042 0.5858477354049683
vt 0.9992863535881042 0.5242407917976379
vt 0.9992863535881042 0.5753746628761292
vt 0.9992863535881042 0.7498618960380554
vt 0.9896680116653442 0.5338463187217712
vt 0.9992863535881042 0.6701028943061829
vt 0.49921467900276184 0.0009270906448364258
vt 0.3798847198486328 0.0009270906448364258
vt 0.39665448665618896 0.0009270906448364258
vt 0.3005064129829407 0.0009270906448364258
vt 0.36246228218078613 0.0009270906448364258
vt 0.2863485813140869 0.0009270906448364258
vt 0.49921467900276184 0.0009270906448364258
vt 0.2511197626590729 0.0114593505859375
vt 0.3798847198486328 0.0009270906448364258
vt 0.0016976578626781702 0.15582787990570068
vt 0.0016976578626781702 0.23919618129730225
vt 0.0016976578626781702 0.170984148979187
vt 0.010898886248469353 0.03351235389709473
vt 0.0016976578626781702 0.23919618129730225
vt 0.0016976578626781702 0.15582787990570068
vt 0.8891620635986328 0.2500741481781006
vt 0.9735298156738281 0.2500741481781006
vt 0.8997079133987427 0.2500741481781006
vt 0.9991593956947327 0.09234893321990967
vt 0.9991593956947327 0.0008228421211242676
vt 0.9991593956947327 0.07575619220733643
vt 0.9895655512809753 0.21767687797546387
vt 0.9991593956947327 0.0008228421211242676
vt 0.9991593956947327 0.09234893321990967
vt 0.26595255732536316 0.5002755522727966
vt 0.4638214409351349 0.5002755522727966
vt 0.4511045813560486 0.5002755522727966
vt 0.4638214409351349 0.5002755522727966
vt 0.5000188946723938 0.5002755522727966
vt 0.26595255732536316 0.5002755522727966
vt 0.2507871091365814 0.5002755522727966
vt 0.001778044505044818 0.2505878210067749
vt 0.001778044505044818 0.33660781383514404
vt 0.001778044505044818 0.2656376361846924
vt 0.001778044505044818 0.3496955633163452
vt 0.001778044505044818 0.47437357902526855
vt 0.001778044505044818 0.3615400791168213
vt 0.16299299895763397 0.4999161958694458
vt 0.23708300292491913 0.4999161958694458
vt 0.1795511692762375 0.4999161958694458
vt 0.2499518245458603 0.4999161958694458
vt -0.6957559585571289 0.49677032232284546
vt -0.9550509452819824 0.015206575393676758
vt -0.6957559585571289 0.015206575393676758
vt -0.9597281813621521 0.49676382541656494
vt -0.9544764757156372 0.0015988349914550781
vt -0.6955462694168091 0.0015988349914550781
vt -1.0218000411987305 0.4973260760307312
vt -1.027298927307129 0.015206575393676758
vt -0.9544764757156372 0.0015988349914550781
vt -1.0279368162155151 0.0015988349914550781
vt -1.1293259859085083 0.015206575393676758
vt -1.1226656436920166 0.49687129259109497
vt -1.1502231359481812 0.015206575393676758
vt -1.1502231359481812 0.49677032232284546
vt -1.1754003763198853 0.015206575393676758
vt -1.1754003763198853 0.49677032232284546
vt -1.2848666906356812 0.015206575393676758
vt -1.2848666906356812 0.49677032232284546
vt -1.3183358907699585 0.015206575393676758
vt -1.3183358907699585 0.49677032232284546
vt -1.356154203414917 0.015206575393676758
vt -1.356154203414917 0.49677032232284546
vt -1.4808924198150635 0.015206575393676758
vt -1.4808924198150635 0.49677032232284546
vt -1.3563296794891357 0.0015988349914550781
vt -1.6257704496383667 0.015206575393676758
vt -1.6257704496383667 0.49677032232284546
vt -1.6575729846954346 0.015206575393676758
vt -1.6575729846954346 0.49677032232284546
vt -1.6963565349578857 0.015206575393676758
vt -1.6963565349578857 0.49677032232284546
vt -1.9161735773086548 0.015206575393676758
vt -1.9161735773086548 0.49677032232284546
vt -1.915561556816101 0.0015988349914550781
vt -1.6960536241531372 0.0015988349914550781
vt -2.003035306930542 0.49677032232284546
vt -2.003035306930542 0.015206575393676758
vt -2.0037214756011963 0.0015988349914550781
vt -1.6573245525360107 0.0015988349914550781
vt -1.6255667209625244 0.0015988349914550781
vt -1.3563296794891357 0.0015988349914550781
vt -1.4808924198150635 0.0015988349914550781
vt -1.6255667209625244 0.0015988349914550781
vt -0.3522990345954895 0.49677032232284546
vt -0.5467123985290527 0.015206575393676758
vt -0.3522990345954895 0.015206575393676758
vt -0.5467123985290527 0.49677032232284546
vt -0.3522990345954895 0.0015988349914550781
vt -0.5467123985290527 0.0015988349914550781
vt -0.6373904943466187 0.015206575393676758
vt -0.6373904943466187 0.49677032232284546
vt -0.6629663705825806 0.015206575393676758
vt -0.6629663705825806 0.49677032232284546
vt -0.6628028154373169 0.0015988349914550781
vt -0.6629663705825806 0.49677032232284546
vt -0.6372629404067993 0.0015988349914550781
vt -0.32078298926353455 0.49677032232284546
vt -0.32078298926353455 0.015206575393676758
vt -0.32078298926353455 0.49677032232284546
vt -0.32078298926353455 0.0015988349914550781
vt -0.28804054856300354 0.015206575393676758
vt -0.28804054856300354 0.49677032232284546
vt -0.32078298926353455 0.49677032232284546
vt -0.28804054856300354 0.0015988349914550781
vt -0.17160481214523315 0.49677032232284546
vt -0.17160481214523315 0.015206575393676758
vt -0.17160481214523315 0.0015988349914550781
vt -0.14499768614768982 0.49677032232284546
vt -0.14499768614768982 0.015206575393676758
vt -0.14499768614768982 0.0015988349914550781
vt -0.07824645191431046 0.49677032232284546
vt -0.07824645191431046 0.015206575393676758
vt 0.3399377465248108 0.015206575393676758
vt 0.3399377465248108 0.49677032232284546
vt -0.07824645191431046 0.0015988349914550781
vt 0.33934956789016724 0.0015988349914550781
vt 0.4102955758571625 0.015206575393676758
vt 0.4102955758571625 0.49677032232284546
vt 0.6501554250717163 0.49677032232284546
vt 0.6501554250717163 0.015206575393676758
vt 0.4109382629394531 0.0015988349914550781
vt 0.6504607200622559 0.0015988349914550781
vt 0.676197350025177 0.49677032232284546
vt 0.676197350025177 0.49677032232284546
vt 0.676197350025177 0.015206575393676758
vt 0.6764659881591797 0.0015988349914550781
vt 0.6504607200622559 0.0015988349914550781
vt 0.7067531943321228 0.015206575393676758
vt 0.7067531943321228 0.49677032232284546
vt 0.676197350025177 0.49677032232284546
vt 0.7069788575172424 0.0015988349914550781
vt 0.8342857956886292 0.49677032232284546
vt 0.8342857956886292 0.015206575393676758
vt 0.8343320488929749 0.0015988349914550781
vt 0.8671715259552002 0.49677032232284546
vt 0.8671715259552002 0.49677032232284546
vt 0.8671715259552002 0.015206575393676758
vt 0.8343320488929749 0.0015988349914550781
vt 0.8671715259552002 0.0015988349914550781
vt 0.9023591876029968 0.0015988349914550781
vt 0.90240877866745 0.015206575393676758
vt 0.90240877866745 0.49677032232284546
vt 0.8671715259552002 0.49677032232284546
vt 1.0401864051818848 0.49677032232284546
vt 1.0401864051818848 0.015206575393676758
vt 1.039942979812622 0.0015988349914550781
vt 1.06559419631958 0.49677032232284546
vt 1.0653150081634521 0.0015988349914550781
vt 1.06559419631958 0.49677032232284546
vt 1.06559419631958 0.015206575393676758
vt 1.0653150081634521 0.0015988349914550781
vt 1.088276743888855 0.0015988349914550781
vt 1.0885882377624512 0.015206575393676758
vt 1.0885882377624512 0.49677032232284546
vt 1.06559419631958 0.49677032232284546
vt 1.3076369762420654 0.49677032232284546
vt 1.3076369762420654 0.015206575393676758
vt 1.3856226205825806 0.015206575393676758
vt 1.3856226205825806 0.49677032232284546
vt 1.6512160301208496 0.49677032232284546
vt 1.6512160301208496 0.015206575393676758
vt 1.3862918615341187 0.0015988349914550781
vt 1.651511788368225 0.0015988349914550781
vt 1.30701744556427 0.0015988349914550781
vt 1.6758886575698853 0.49677032232284546
vt 1.6758886575698853 0.015206575393676758
vt 1.6758886575698853 0.49677032232284546
vt 1.6761497259140015 0.0015988349914550781
vt 1.7111488580703735 0.015206575393676758
vt 1.7111488580703735 0.49677032232284546
vt 1.6758886575698853 0.49677032232284546
vt 1.8336595296859741 0.49677032232284546
vt 1.8336595296859741 0.015206575393676758
vt 1.7113603353500366 0.0015988349914550781
vt 1.6761497259140015 0.0015988349914550781
vt 1.8614686727523804 0.49677032232284546
vt 1.7113603353500366 0.0015988349914550781
vt 1.8336986303329468 0.0015988349914550781
vt 1.8614686727523804 0.015206575393676758
vt 1.8614686727523804 0.49677032232284546
vt 1.8614686727523804 0.0015988349914550781
vt 1.8950235843658447 0.4967705011367798
vt 1.8950235843658447 0.015206754207611084
vt 1.8614686727523804 0.49677032232284546
vt 1.8950235843658447 0.001598954200744629
vt 1.8614686727523804 0.0015988349914550781
vt 2.307710647583008 0.4967723488807678
vt 2.307710647583008 0.015208721160888672
vt 2.307710647583008 0.0016008615493774414
vt 2.3360557556152344 0.49677252769470215
vt 2.3360557556152344 0.015208899974822998
vt 2.3360557556152344 0.49677252769470215
vt 2.3360557556152344 0.0016009807586669922
vt 2.3776986598968506 0.015209078788757324
vt 2.3776986598968506 0.4967727065086365
vt 2.653398275375366 0.4967740774154663
vt 2.653398275375366 0.015210390090942383
vt 2.653010368347168 0.0016025900840759277
vt 2.3776986598968506 0.0016012191772460938
vt 2.3360557556152344 0.49677252769470215
vt 2.679931402206421 0.49677419662475586
vt 2.6795060634613037 0.001602768898010254
vt 2.679931402206421 0.49677419662475586
vt 2.679931402206421 0.015210568904876709
vt 2.6795060634613037 0.001602768898010254
vt 2.7026898860931396 0.0016028881072998047
vt 2.7031478881835938 0.01521068811416626
vt 2.7031478881835938 0.4967743158340454
vt 2.679931402206421 0.49677419662475586
vt 2.8656625747680664 0.4967750906944275
vt 2.8656625747680664 0.01521146297454834
vt 2.864975929260254 0.0016036629676818848
vt -1.318564534187317 0.0015988349914550781
vt -1.2851423025131226 0.0015988349914550781
vt -1.1758300065994263 0.0015988349914550781
vt -1.1506881713867188 0.0015988349914550781
vt -1.129820466041565 0.0015988349914550781
vt -1.1506881713867188 0.0015988349914550781
vt -1.1758300065994263 0.0015988349914550781
vt -1.129820466041565 0.0015988349914550781
vt -0.6629663705825806 0.49677032232284546
vt 1.30701744556427 0.0015988349914550781

g bg_mdl_bt_3x2_100
s 1
usemtl bg_mdl_bt_3x2_100_0
f 3/3/3 2/2/2 1/1/1 
f 2/2/2 4/4/4 1/1/1 
f 1/1/1 4/4/4 5/5/5 
f 6/6/6 3/3/3 1/1/1 
f 7/7/7 3/3/3 6/6/6 
f 8/8/8 3/3/3 7/7/7 
f 9/9/9 5/5/5 4/4/4 
f 5/5/5 10/10/10 1/1/1 
f 6/6/6 1/1/1 10/10/10 
f 10/10/10 5/5/5 11/11/11 
f 11/11/11 13/13/13 12/12/12 
f 16/16/16 15/15/15 14/14/14 
f 17/17/17 14/14/14 15/15/15 
f 15/15/15 18/18/18 17/17/17 
f 19/19/19 17/17/17 18/18/18 
f 20/20/20 16/16/16 14/14/14 
f 21/21/21 19/19/19 18/18/18 
f 21/21/21 18/18/18 22/22/22 
f 22/22/22 18/18/18 23/23/23 
f 24/24/24 22/22/22 23/23/23 
f 25/25/25 22/22/22 24/24/24 
f 26/26/26 25/25/25 24/24/24 
f 27/27/27 25/25/25 26/26/26 
f 28/28/28 25/25/25 27/27/27 
f 25/25/25 28/28/28 22/22/22 
f 29/29/29 21/21/21 22/22/22 
f 30/30/30 29/29/29 22/22/22 
f 31/31/31 30/30/30 22/22/22 
f 31/31/31 22/22/22 28/28/28 
f 33/33/33 16/16/16 32/32/32 
f 32/32/32 35/35/35 34/34/34 
f 38/38/38 37/37/37 36/36/36 
f 37/37/37 39/39/39 36/36/36 
f 39/39/39 40/40/40 36/36/36 
f 38/38/38 36/36/36 41/41/41 
f 38/38/38 41/41/41 37/37/37 
f 42/42/42 41/41/41 36/36/36 
f 43/43/43 39/39/39 37/37/37 
f 44/44/44 37/37/37 41/41/41 
f 44/44/44 45/45/45 37/37/37 
f 47/47/47 46/46/46 37/37/37 
f 49/49/49 48/48/48 37/37/37 
f 52/52/52 51/51/51 50/50/50 
f 51/51/51 53/53/53 50/50/50 
f 54/54/54 53/53/53 51/51/51 
f 55/55/55 54/54/54 51/51/51 
f 54/54/54 55/55/55 53/53/53 
f 56/56/56 55/55/55 51/51/51 
f 57/57/57 53/53/53 55/55/55 
f 59/59/59 58/58/58 51/51/51 
f 58/58/58 60/60/60 51/51/51 
f 57/57/57 62/62/62 61/61/61 
f 62/62/62 63/63/63 53/53/53 
f 64/64/64 50/50/50 61/61/61 
f 67/67/67 66/66/66 65/65/65 
f 69/69/69 68/68/68 66/66/66 
f 72/72/72 71/71/71 70/70/70 
f 74/74/74 73/73/73 71/71/71 
f 73/73/73 75/75/75 71/71/71 
f 77/77/77 76/76/76 75/75/75 
f 80/80/80 79/79/79 78/78/78 
f 83/83/83 82/82/82 81/81/81 
f 85/85/85 84/84/84 82/82/82 
f 84/84/84 86/86/86 82/82/82 
f 89/89/89 88/88/88 87/87/87 
f 92/92/92 91/91/91 90/90/90 
f 95/95/95 94/94/94 93/93/93 
f 98/98/98 97/97/97 96/96/96 
f 101/101/101 100/100/100 99/99/99 
f 104/104/104 103/103/103 102/102/102 
f 107/107/107 106/106/106 105/105/105 
f 109/109/109 19/19/19 108/108/108 
f 108/108/108 19/19/19 110/110/110 
f 110/110/110 19/19/19 111/111/111 
f 114/114/114 113/113/113 112/112/112 
f 113/113/113 115/115/115 112/112/112 
f 117/117/117 116/116/116 115/115/115 
f 120/120/120 119/119/119 118/118/118 
f 119/119/119 121/121/121 118/118/118 

usemtl bg_mdl_bt_3x2_100_1
f 124/124/124 123/123/123 122/122/122 
f 125/125/125 122/122/122 123/123/123 
f 123/123/123 124/124/124 126/126/126 
f 127/127/127 126/126/126 124/124/124 
f 125/125/125 123/123/123 128/128/128 
f 129/129/129 128/128/128 123/123/123 
f 123/123/123 130/130/130 129/129/129 
f 131/131/131 129/129/129 130/130/130 
f 129/129/129 132/132/132 128/128/128 
f 129/129/129 131/131/131 132/132/132 
f 133/133/133 128/128/128 132/132/132 
f 132/132/132 134/134/134 133/133/133 
f 135/135/135 133/133/133 134/134/134 
f 134/134/134 136/136/136 135/135/135 
f 137/137/137 135/135/135 136/136/136 
f 136/136/136 138/138/138 137/137/137 
f 139/139/139 137/137/137 138/138/138 
f 138/138/138 140/140/140 139/139/139 
f 141/141/141 139/139/139 140/140/140 
f 140/140/140 142/142/142 141/141/141 
f 143/143/143 141/141/141 142/142/142 
f 142/142/142 144/144/144 143/143/143 
f 145/145/145 143/143/143 144/144/144 
f 142/142/142 146/146/146 144/144/144 
f 144/144/144 147/147/147 145/145/145 
f 148/148/148 145/145/145 147/147/147 
f 147/147/147 149/149/149 148/148/148 
f 150/150/150 148/148/148 149/149/149 
f 149/149/149 151/151/151 150/150/150 
f 152/152/152 150/150/150 151/151/151 
f 151/151/151 153/153/153 152/152/152 
f 154/154/154 152/152/152 153/153/153 
f 153/153/153 151/151/151 155/155/155 
f 156/156/156 155/155/155 151/151/151 
f 151/151/151 149/149/149 156/156/156 
f 154/154/154 153/153/153 157/157/157 
f 158/158/158 157/157/157 153/153/153 
f 153/153/153 155/155/155 158/158/158 
f 159/159/159 158/158/158 155/155/155 
f 160/160/160 156/156/156 149/149/149 
f 149/149/149 147/147/147 160/160/160 
f 161/161/161 160/160/160 147/147/147 
f 147/147/147 144/144/144 161/161/161 
f 163/163/163 144/144/144 162/162/162 
f 163/163/163 164/164/164 144/144/144 
f 167/167/167 166/166/166 165/165/165 
f 168/168/168 165/165/165 166/166/166 
f 167/167/167 169/169/169 166/166/166 
f 170/170/170 166/166/166 169/169/169 
f 166/166/166 171/171/171 168/168/168 
f 172/172/172 168/168/168 171/171/171 
f 171/171/171 173/173/173 172/172/172 
f 174/174/174 172/172/172 173/173/173 
f 173/173/173 171/171/171 175/175/175 
f 175/175/175 127/127/127 173/173/173 
f 124/124/124 173/173/173 127/127/127 
f 173/173/173 124/124/124 176/176/176 
f 177/177/177 175/175/175 171/171/171 
f 170/170/170 177/177/177 166/166/166 
f 171/171/171 166/166/166 177/177/177 
f 165/165/165 178/178/178 167/167/167 
f 167/167/167 179/179/179 169/169/169 
f 179/179/179 167/167/167 180/180/180 
f 181/181/181 169/169/169 179/179/179 
f 179/179/179 182/182/182 181/181/181 
f 182/182/182 179/179/179 183/183/183 
f 184/184/184 183/183/183 179/179/179 
f 185/185/185 181/181/181 182/182/182 
f 183/183/183 186/186/186 182/182/182 
f 187/187/187 182/182/182 186/186/186 
f 182/182/182 187/187/187 185/185/185 
f 188/188/188 185/185/185 187/187/187 
f 186/186/186 189/189/189 187/187/187 
f 190/190/190 187/187/187 189/189/189 
f 187/187/187 190/190/190 188/188/188 
f 191/191/191 188/188/188 190/190/190 
f 189/189/189 192/192/192 190/190/190 
f 193/193/193 190/190/190 192/192/192 
f 190/190/190 193/193/193 191/191/191 
f 193/193/193 192/192/192 194/194/194 
f 195/195/195 194/194/194 192/192/192 
f 193/193/193 194/194/194 196/196/196 
f 196/196/196 191/191/191 193/193/193 
f 197/197/197 196/196/196 194/194/194 
f 194/194/194 195/195/195 198/198/198 
f 199/199/199 198/198/198 195/195/195 
f 199/199/199 200/200/200 198/198/198 
f 201/201/201 198/198/198 200/200/200 
f 198/198/198 201/201/201 202/202/202 
f 197/197/197 194/194/194 202/202/202 
f 198/198/198 202/202/202 194/194/194 
f 203/203/203 202/202/202 201/201/201 
f 200/200/200 204/204/204 201/201/201 
f 206/206/206 201/201/201 205/205/205 
f 207/207/207 203/203/203 206/206/206 
f 201/201/201 206/206/206 208/208/208 
f 206/206/206 209/209/209 207/207/207 
f 209/209/209 206/206/206 210/210/210 
f 211/211/211 210/210/210 206/206/206 
f 212/212/212 207/207/207 209/209/209 
f 210/210/210 213/213/213 209/209/209 
f 214/214/214 209/209/209 213/213/213 
f 209/209/209 214/214/214 212/212/212 
f 215/215/215 212/212/212 214/214/214 
f 213/213/213 216/216/216 214/214/214 
f 218/218/218 214/214/214 217/217/217 
f 214/214/214 218/218/218 219/219/219 
f 220/220/220 219/219/219 218/218/218 
f 220/220/220 218/218/218 221/221/221 
f 222/222/222 221/221/221 218/218/218 
f 222/222/222 218/218/218 223/223/223 
f 224/224/224 223/223/223 218/218/218 
f 223/223/223 225/225/225 222/222/222 
f 226/226/226 222/222/222 225/225/225 
f 226/226/226 227/227/227 222/222/222 
f 221/221/221 222/222/222 227/227/227 
f 225/225/225 228/228/228 226/226/226 
f 227/227/227 226/226/226 229/229/229 
f 231/231/231 226/226/226 230/230/230 
f 231/231/231 232/232/232 226/226/226 
f 229/229/229 231/231/231 233/233/233 
f 234/234/234 233/233/233 231/231/231 
f 234/234/234 231/231/231 235/235/235 
f 236/236/236 235/235/235 231/231/231 
f 235/235/235 237/237/237 234/234/234 
f 238/238/238 234/234/234 237/237/237 
f 238/238/238 237/237/237 239/239/239 
f 240/240/240 239/239/239 237/237/237 
f 240/240/240 241/241/241 239/239/239 
f 242/242/242 239/239/239 241/241/241 
f 239/239/239 242/242/242 243/243/243 
f 239/239/239 243/243/243 238/238/238 
f 244/244/244 243/243/243 242/242/242 
f 245/245/245 238/238/238 243/243/243 
f 241/241/241 246/246/246 242/242/242 
f 242/242/242 247/247/247 244/244/244 
f 247/247/247 242/242/242 248/248/248 
f 249/249/249 244/244/244 247/247/247 
f 247/247/247 250/250/250 249/249/249 
f 250/250/250 247/247/247 251/251/251 
f 252/252/252 251/251/251 247/247/247 
f 251/251/251 253/253/253 250/250/250 
f 254/254/254 250/250/250 253/253/253 
f 250/250/250 254/254/254 255/255/255 
f 255/255/255 256/256/256 250/250/250 
f 253/253/253 257/257/257 254/254/254 
f 259/259/259 258/258/258 254/254/254 
f 254/254/254 260/260/260 259/259/259 
f 260/260/260 254/254/254 261/261/261 
f 262/262/262 259/259/259 260/260/260 
f 264/264/264 260/260/260 263/263/263 
f 265/265/265 263/263/263 260/260/260 
f 264/264/264 266/266/266 260/260/260 
f 267/267/267 260/260/260 266/266/266 
f 263/263/263 268/268/268 264/264/264 
f 269/269/269 264/264/264 268/268/268 
f 264/264/264 269/269/269 266/266/266 
f 270/270/270 266/266/266 269/269/269 
f 268/268/268 271/271/271 269/269/269 
f 269/269/269 272/272/272 270/270/270 
f 272/272/272 269/269/269 273/273/273 
f 274/274/274 270/270/270 272/272/272 
f 272/272/272 275/275/275 274/274/274 
f 275/275/275 272/272/272 276/276/276 
f 276/276/276 277/277/277 275/275/275 
f 278/278/278 275/275/275 277/277/277 
f 278/278/278 279/279/279 275/275/275 
f 280/280/280 275/275/275 279/279/279 
f 280/280/280 274/274/274 275/275/275 
f 281/281/281 276/276/276 272/272/272 
f 277/277/277 282/282/282 278/278/278 
f 279/279/279 278/278/278 283/283/283 
f 285/285/285 278/278/278 284/284/284 
f 285/285/285 286/286/286 278/278/278 
f 286/286/286 285/285/285 287/287/287 
f 288/288/288 287/287/287 285/285/285 
f 288/288/288 285/285/285 289/289/289 
f 290/290/290 289/289/289 285/285/285 
f 289/289/289 291/291/291 288/288/288 
f 292/292/292 288/288/288 291/291/291 
f 292/292/292 293/293/293 288/288/288 
f 287/287/287 288/288/288 293/293/293 
f 140/140/140 294/294/294 142/142/142 
f 146/146/146 142/142/142 294/294/294 
f 294/294/294 140/140/140 295/295/295 
f 138/138/138 295/295/295 140/140/140 
f 295/295/295 138/138/138 296/296/296 
f 136/136/136 296/296/296 138/138/138 
f 134/134/134 297/297/297 136/136/136 
f 297/297/297 134/134/134 298/298/298 
f 300/300/300 136/136/136 299/299/299 
f 132/132/132 301/301/301 134/134/134 
f 301/301/301 132/132/132 131/131/131 
f 122/122/122 302/302/302 124/124/124 
f 238/238/238 303/303/303 234/234/234 
f 233/233/233 234/234/234 303/303/303 

