v -1.350000023841858 -1.4499999284744263 0.49999991059303284
v -0.5 -0.5 0.49999991059303284
v -0.5 -1.4499999284744263 0.49999991059303284
v -1.4499999284744263 -0.5 0.49999991059303284
v -1.4499999284744263 -1.350000023841858 0.49999991059303284
v -1.214437484741211 -1.4750988483428955 0.4874999225139618
v -1.3874999284744263 -1.4874999523162842 0.4874999225139618
v -0.7251192331314087 -1.481175184249878 0.4874999225139618
v -0.5 -1.499562382698059 0.4874999225139618
v -1.4874999523162842 -1.3874999284744263 0.4874999225139618
v -1.4735510349273682 -0.6553124785423279 0.4874999225139618
v -1.500104308128357 -0.5 0.4874999225139618
v -0.5 -1.4499999284744263 0.49999991059303284
v 0.5 -0.5 0.49999991059303284
v 0.5 -1.4499999284744263 0.49999991059303284
v -0.5 -0.5 0.49999991059303284
v 0.5 -1.4874999523162842 0.4874999225139618
v -0.1277499943971634 -1.4730401039123535 0.4874999225139618
v -0.17499999701976776 -1.4874999523162842 0.4874999225139618
v -0.5 -1.499562382698059 0.4874999225139618
v 0.5 -1.4499999284744263 0.49999991059303284
v 1.4499999284744263 -1.350000023841858 0.49999991059303284
v 1.350000023841858 -1.4499999284744263 0.49999991059303284
v 1.4499999284744263 -0.5 0.49999991059303284
v 0.5 -0.5 0.49999991059303284
v 1.3874999284744263 -1.4874999523162842 0.4874999225139618
v 0.9754941463470459 -1.4874999523162842 0.4874999225139618
v 0.9139300584793091 -1.4874999523162842 0.4874999225139618
v 0.8727499842643738 -1.4874999523162842 0.4874999225139618
v 0.5 -1.4874999523162842 0.4874999225139618
v 1.5006344318389893 -0.5 0.4874999225139618
v 1.4874999523162842 -0.9437499642372131 0.4874999225139618
v 1.4874999523162842 -1.0325000286102295 0.4874999225139618
v 1.4874999523162842 -1.3874999284744263 0.4874999225139618
v -1.4499999284744263 -0.5 0.49999991059303284
v -0.5 0.5 0.49999991059303284
v -0.5 -0.5 0.49999991059303284
v -1.4499999284744263 0.5 0.49999991059303284
v -1.500104308128357 -0.5 0.4874999225139618
v -1.4848999977111816 -0.09451472759246826 0.4874999225139618
v -1.4864256381988525 0.3286750018596649 0.4874999225139618
v -1.500104308128357 0.36089950799942017 0.4874999225139618
v -1.515869140625 0.5 0.4874999225139618
v -0.5 -0.5 0.49999991059303284
v 0.5 0.5 0.49999991059303284
v 0.5 -0.5 0.49999991059303284
v -0.5 0.5 0.49999991059303284
v 1.4499999284744263 0.5 0.49999991059303284
v 1.4499999284744263 -0.5 0.49999991059303284
v 1.4874999523162842 0.5 0.4874999225139618
v 1.4874999523162842 0.16693472862243652 0.4874999225139618
v 1.4874999523162842 0.08104999363422394 0.4874999225139618
v 1.5006344318389893 0.009999999776482582 0.4874999225139618
v 1.5006344318389893 -0.5 0.4874999225139618
v -1.4499999284744263 0.5 0.49999991059303284
v -0.5 1.4499999284744263 0.49999991059303284
v -0.5 0.5 0.49999991059303284
v -1.4499999284744263 1.350000023841858 0.49999991059303284
v -0.9702465534210205 1.4499999284744263 0.49999991059303284
v -1.350000023841858 1.4499999284744263 0.49999991059303284
v -0.04875713214278221 1.4499999284744263 0.49999991059303284
v 0.5 1.4499999284744263 0.49999991059303284
v 0.5 0.5 0.49999991059303284
v -1.3874999284744263 1.4874999523162842 0.4874999225139618
v -1.0325000286102295 1.4811636209487915 0.4874999225139618
v -0.9804089665412903 1.4908645153045654 0.4874999225139618
v -1.515869140625 0.5 0.4874999225139618
v -1.516518473625183 1.1749436855316162 0.4874999225139618
v -1.4874999523162842 1.2987499237060547 0.4874999225139618
v -1.4874999523162842 1.3874999284744263 0.4874999225139618
v -0.5 1.4953967332839966 0.4874999225139618
v -0.028811225667595863 1.4955168962478638 0.4874999225139618
v -0.9393125176429749 1.4985179901123047 0.4874999225139618
v -0.5900590419769287 1.479725956916809 0.4874999225139618
v -0.652924656867981 1.4985179901123047 0.4874999225139618
v 0.3799999952316284 1.4793221950531006 0.4874999225139618
v 0.5 1.497345209121704 0.4874999225139618
v 0.3052000105381012 1.4956021308898926 0.4874999225139618
v 1.4499999284744263 0.5 0.49999991059303284
v 1.350000023841858 1.4499999284744263 0.49999991059303284
v 1.4499999284744263 1.350000023841858 0.49999991059303284
v 0.5 0.5 0.49999991059303284
v 0.5 1.4499999284744263 0.49999991059303284
v 1.4874999523162842 1.3874999284744263 0.4874999225139618
v 1.4874999523162842 1.1354806423187256 0.4874999225139618
v 1.4874999523162842 1.0684881210327148 0.4874999225139618
v 1.5024241209030151 0.9836875200271606 0.4874999225139618
v 1.5024241209030151 0.6015743613243103 0.4874999225139618
v 1.4874999523162842 0.5 0.4874999225139618
v 0.5 1.497345209121704 0.4874999225139618
v 0.9516931176185608 1.4845013618469238 0.4874999225139618
v 1.0191874504089355 1.4956637620925903 0.4874999225139618
v 1.3874999284744263 1.4807796478271484 0.4874999225139618
v -1.214437484741211 -1.4750988483428955 0.4874999225139618
v -0.8286411762237549 -1.4874999523162842 0.4874999225139618
v -1.1430652141571045 -1.4874999523162842 0.4874999225139618
v -0.7251192331314087 -1.481175184249878 0.4874999225139618
v -1.4735510349273682 -0.6553124785423279 0.4874999225139618
v -1.4874999523162842 -1.3874999284744263 0.4874999225139618
v -1.4921033382415771 -0.7358530759811401 0.4874999225139618
v -0.1277499943971634 -1.4730401039123535 0.4874999225139618
v 0.5 -1.4874999523162842 0.4874999225139618
v -0.07439124584197998 -1.4874999523162842 0.4874999225139618
v 1.4874999523162842 -0.9437499642372131 0.4874999225139618
v 1.5006344318389893 -0.5 0.4874999225139618
v 1.5006344318389893 -0.832812488079071 0.4874999225139618
v -1.500104308128357 0.28734999895095825 0.4874999225139618
v -1.4848999977111816 -0.09451472759246826 0.4874999225139618
v -1.500104308128357 -0.010504493489861488 0.4874999225139618
v -1.4864256381988525 0.3286750018596649 0.4874999225139618
v -1.500104308128357 -0.5 0.4874999225139618
v -1.500104308128357 -0.19588603079319 0.4874999225139618
v -1.0325000286102295 1.4811636209487915 0.4874999225139618
v -1.3874999284744263 1.4874999523162842 0.4874999225139618
v -1.1141499280929565 1.4874999523162842 0.4874999225139618
v 0.9516931176185608 1.4845013618469238 0.4874999225139618
v 0.5 1.497345209121704 0.4874999225139618
v 0.8816806674003601 1.497345209121704 0.4874999225139618
v -1.2244999408721924 -1.5 0.0
v -1.399999976158142 -1.5 0.44999992847442627
v -1.2244999408721924 -1.5 0.44999992847442627
v -1.399999976158142 -1.5 0.0
v -1.3874999284744263 -1.4874999523162842 0.4874999225139618
v -1.214437484741211 -1.4750988483428955 0.4874999225139618
v -1.551146388053894 -1.399999976158142 0.0
v -1.5 -1.399999976158142 0.44999992847442627
v -1.4874999523162842 -1.3874999284744263 0.4874999225139618
v -1.514346718788147 -0.7391749620437622 0.44999992847442627
v -1.5651490688323975 -0.7391749620437622 0.0
v -1.4876768589019775 -0.6574999690055847 0.44999992847442627
v -1.5 -0.6574999690055847 0.0
v -1.4921033382415771 -0.7358530759811401 0.4874999225139618
v -1.4874999523162842 -1.3874999284744263 0.4874999225139618
v -1.1691945791244507 -1.5565743446350098 0.0
v -1.1616772413253784 -1.5114392042160034 0.44999992847442627
v -1.1430652141571045 -1.4874999523162842 0.4874999225139618
v -0.8006741404533386 -1.5565743446350098 0.0
v -0.8262377977371216 -1.5114392042160034 0.44999992847442627
v -0.7282899022102356 -1.5 0.0
v -0.7282899022102356 -1.5 0.44999992847442627
v -0.8286411762237549 -1.4874999523162842 0.4874999225139618
v -0.7251192331314087 -1.481175184249878 0.4874999225139618
v -0.5 -1.565721869468689 0.0
v -0.5 -1.5228060483932495 0.44999992847442627
v -0.16476459801197052 -1.5561944246292114 0.0
v -0.16466966271400452 -1.5102535486221313 0.44999992847442627
v -0.17499999701976776 -1.4874999523162842 0.4874999225139618
v -0.5 -1.499562382698059 0.4874999225139618
v -0.1277499943971634 -1.5 0.0
v -0.1277499943971634 -1.5 0.44999992847442627
v -0.1277499943971634 -1.4730401039123535 0.4874999225139618
v -0.07439124584197998 -1.5085588693618774 0.44999992847442627
v -0.07439124584197998 -1.4874999523162842 0.4874999225139618
v -0.1277499943971634 -1.5 0.44999992847442627
v -0.08448484539985657 -1.5637791156768799 0.0
v 0.5 -1.5758144855499268 0.0
v 0.5 -1.5222870111465454 0.44999992847442627
v 0.878000020980835 -1.5356528759002686 0.0
v 0.878000020980835 -1.5123717784881592 0.44999992847442627
v 0.8727499842643738 -1.4874999523162842 0.4874999225139618
v 0.5 -1.4874999523162842 0.4874999225139618
v 0.9197600483894348 -1.5 0.0
v 0.9139300584793091 -1.4874999523162842 0.4874999225139618
v 0.9197600483894348 -1.5 0.44999992847442627
v 0.9197600483894348 -1.5 0.0
v 0.9754941463470459 -1.4874999523162842 0.4874999225139618
v 0.9821912050247192 -1.5163958072662354 0.44999992847442627
v 0.9821912050247192 -1.5406415462493896 0.0
v 0.9197600483894348 -1.5 0.0
v 1.399999976158142 -1.5172936916351318 0.0
v 1.399999976158142 -1.5 0.44999992847442627
v 1.5 -1.399999976158142 0.44999992847442627
v 1.5342113971710205 -1.399999976158142 0.0
v 1.5393487215042114 -1.0399999618530273 0.0
v 1.5 -1.0399999618530273 0.44999992847442627
v 1.4874999523162842 -1.3874999284744263 0.4874999225139618
v 1.4874999523162842 -1.0325000286102295 0.4874999225139618
v 1.3874999284744263 -1.4874999523162842 0.4874999225139618
v 1.5 -0.949999988079071 0.0
v 1.5 -0.949999988079071 0.44999992847442627
v 1.583158254623413 -0.8374999761581421 0.0
v 1.513134479522705 -0.8374999761581421 0.44999992847442627
v 1.4874999523162842 -0.9437499642372131 0.4874999225139618
v 1.5006344318389893 -0.832812488079071 0.4874999225139618
v 1.583158254623413 -0.5 0.0
v 1.513134479522705 -0.5 0.44999992847442627
v 1.583158254623413 0.009999999776482582 0.0
v 1.513134479522705 0.009999999776482582 0.44999992847442627
v 1.5006344318389893 0.009999999776482582 0.4874999225139618
v 1.5006344318389893 -0.5 0.4874999225139618
v 1.5 0.08104999363422394 0.0
v 1.5 0.08104999363422394 0.44999992847442627
v 1.5 0.08104999363422394 0.0
v 1.4874999523162842 0.08104999363422394 0.4874999225139618
v 1.5 0.16693472862243652 0.44999992847442627
v 1.5390926599502563 0.16693472862243652 0.0
v 1.5 0.08104999363422394 0.0
v 1.4874999523162842 0.16693472862243652 0.4874999225139618
v 1.5 0.5 0.0
v 1.5 0.5 0.44999992847442627
v 1.5596684217453003 0.6030049920082092 0.0
v 1.514924168586731 0.6030049920082092 0.44999992847442627
v 1.5024241209030151 0.6015743613243103 0.4874999225139618
v 1.4874999523162842 0.5 0.4874999225139618
v 1.5596684217453003 0.9905000329017639 0.0
v 1.514924168586731 0.9905000329017639 0.44999992847442627
v 1.5 1.0764950513839722 0.0
v 1.5024241209030151 0.9836875200271606 0.4874999225139618
v 1.4874999523162842 1.0684881210327148 0.4874999225139618
v 1.5 1.0764950513839722 0.44999992847442627
v 1.5 1.0764950513839722 0.0
v 1.4874999523162842 1.1354806423187256 0.4874999225139618
v 1.5 1.1444309949874878 0.44999992847442627
v 1.5524009466171265 1.1444309949874878 0.0
v 1.5 1.0764950513839722 0.0
v 1.5 1.399999976158142 0.0
v 1.5 1.399999976158142 0.44999992847442627
v 1.399999976158142 1.5 0.44999992847442627
v 1.399999976158142 1.5 0.0
v 1.3874999284744263 1.4807796478271484 0.4874999225139618
v 1.4874999523162842 1.3874999284744263 0.4874999225139618
v 1.0264999866485596 1.5289825201034546 0.0
v 1.399999976158142 1.5 0.44999992847442627
v 1.0264999866485596 1.518446922302246 0.44999992847442627
v 1.399999976158142 1.5 0.0
v 1.3874999284744263 1.4807796478271484 0.4874999225139618
v 1.0191874504089355 1.4956637620925903 0.4874999225139618
v 0.9580550193786621 1.5 0.0
v 0.9580550193786621 1.5 0.44999992847442627
v 0.9516931176185608 1.4845013618469238 0.4874999225139618
v 0.8870564699172974 1.56214439868927 0.0
v 0.8870564699172974 1.518446922302246 0.44999992847442627
v 0.8816806674003601 1.497345209121704 0.4874999225139618
v 0.5 1.56214439868927 0.0
v 0.5 1.5163609981536865 0.44999992847442627
v 0.3799999952316284 1.5 0.0
v 0.5 1.497345209121704 0.4874999225139618
v 0.3799999952316284 1.4793221950531006 0.4874999225139618
v 0.3799999952316284 1.4976885318756104 0.44999992847442627
v 0.3799999952316284 1.5 0.0
v 0.3052000105381012 1.5379024744033813 0.44999992847442627
v 0.3223083019256592 1.5802651643753052 0.0
v 0.3799999952316284 1.5 0.0
v 0.3052000105381012 1.4956021308898926 0.4874999225139618
v -0.021311912685632706 1.5359628200531006 0.44999992847442627
v -0.028811225667595863 1.4955168962478638 0.4874999225139618
v -0.0597602054476738 1.5802651643753052 0.0
v -1.5 1.309999942779541 0.0
v -1.5 1.399999976158142 0.44999992847442627
v -1.5 1.309999942779541 0.44999992847442627
v -1.5 1.399999976158142 0.0
v -1.4874999523162842 1.3874999284744263 0.4874999225139618
v -1.4874999523162842 1.2987499237060547 0.4874999225139618
v -1.4396815299987793 1.513907790184021 0.0
v -1.399999976158142 1.5 0.44999992847442627
v -1.3874999284744263 1.4874999523162842 0.4874999225139618
v -1.1227999925613403 1.5220049619674683 0.44999992847442627
v -1.1227999925613403 1.547487497329712 0.0
v -1.0399999618530273 1.495858073234558 0.44999992847442627
v -1.0399999618530273 1.5 0.0
v -1.1141499280929565 1.4874999523162842 0.4874999225139618
v -1.0325000286102295 1.4811636209487915 0.4874999225139618
v -1.3874999284744263 1.4874999523162842 0.4874999225139618
v -0.9844897389411926 1.5134273767471313 0.44999992847442627
v -1.0399999618530273 1.5 0.0
v -0.9804089665412903 1.4908645153045654 0.4874999225139618
v -1.0399999618530273 1.5 0.0
v -0.9908978343009949 1.54590904712677 0.0
v -1.5493361949920654 1.1963706016540527 0.44999992847442627
v -1.516518473625183 1.1749436855316162 0.4874999225139618
v -1.588524580001831 1.220037579536438 0.0
v -1.5923911333084106 0.4639938771724701 0.0
v -1.5471605062484741 0.49317556619644165 0.44999992847442627
v -1.5562422275543213 0.34058862924575806 0.0
v -1.5274224281311035 0.354484498500824 0.44999992847442627
v -1.500104308128357 0.36089950799942017 0.4874999225139618
v -1.515869140625 0.5 0.4874999225139618
v -1.5126043558120728 0.3106904625892639 0.0
v -1.5126043558120728 0.3286750018596649 0.44999992847442627
v -1.4864256381988525 0.3286750018596649 0.4874999225139618
v -1.5280170440673828 0.28734999895095825 0.44999992847442627
v -1.500104308128357 0.28734999895095825 0.4874999225139618
v -1.5280170440673828 -0.010504493489861488 0.44999992847442627
v -1.5945385694503784 -0.05114150792360306 0.0
v -1.603598713874817 0.2737177908420563 0.0
v -1.500104308128357 -0.010504493489861488 0.4874999225139618
v -1.5126043558120728 0.3286750018596649 0.44999992847442627
v -1.603598713874817 0.2737177908420563 0.0
v -1.5126043558120728 -0.11053546518087387 0.0
v -1.5126043558120728 -0.09451472759246826 0.44999992847442627
v -1.5126043558120728 -0.11053546518087387 0.0
v -1.4848999977111816 -0.09451472759246826 0.4874999225139618
v -1.5337023735046387 -0.19588603079319 0.44999992847442627
v -1.6007583141326904 -0.18916644155979156 0.0
v -1.5126043558120728 -0.11053546518087387 0.0
v -1.500104308128357 -0.19588603079319 0.4874999225139618
v -1.6007583141326904 -0.5178685784339905 0.0
v -1.5337023735046387 -0.5 0.44999992847442627
v -1.5 -0.6574999690055847 0.0
v -1.500104308128357 -0.5 0.4874999225139618
v -1.4735510349273682 -0.6553124785423279 0.4874999225139618
v -1.5 -0.6574999690055847 0.0
v -1.4921033382415771 -0.7358530759811401 0.4874999225139618
v -1.4735510349273682 -0.6553124785423279 0.4874999225139618
v -1.5126043558120728 0.3286750018596649 0.44999992847442627
v -1.603598713874817 0.2737177908420563 0.0
v -1.5126043558120728 0.3106904625892639 0.0
v -0.1277499943971634 -1.5 0.44999992847442627
v -0.1277499943971634 -1.5 0.0
v -0.5913274884223938 1.5 0.0
v -0.5 1.5331188440322876 0.44999992847442627
v -0.5913274884223938 1.4984017610549927 0.44999992847442627
v -0.5900590419769287 1.479725956916809 0.4874999225139618
v -0.5 1.4953967332839966 0.4874999225139618
v -0.5329834818840027 1.5802651643753052 0.0
v -0.5913274884223938 1.5 0.0
v -0.652924656867981 1.4985179901123047 0.4874999225139618
v -0.5913274884223938 1.4984017610549927 0.44999992847442627
v -0.6550785899162292 1.5257678031921387 0.44999992847442627
v -0.6550785899162292 1.5883550643920898 0.0
v -0.9455000162124634 1.5883550643920898 0.0
v -0.9455000162124634 1.5257678031921387 0.44999992847442627
v -0.9393125176429749 1.4985179901123047 0.4874999225139618
v -0.5913274884223938 1.4984017610549927 0.44999992847442627
v -0.5913274884223938 1.5 0.0
vn -0.04364407807588577 -0.16107861697673798 0.9859760999679565
vn -0.0 0.0 1.0
vn -0.0002497276000212878 -0.2398981899023056 0.9707980751991272
vn -0.16792617738246918 -0.004005678929388523 0.9857914447784424
vn -0.16134588420391083 -0.054705407470464706 0.9853805899620056
vn -0.027848636731505394 -0.4834263324737549 0.8749420046806335
vn -0.2578583061695099 -0.6777268052101135 0.6886184811592102
vn -0.023623669520020485 -0.5964104533195496 0.8023318648338318
vn -0.013121087104082108 -0.5900788307189941 0.8072389960289001
vn -0.5095039010047913 -0.13860131800174713 0.8492323160171509
vn -0.6216249465942383 -0.03909580409526825 0.7823387980461121
vn -0.4726408123970032 -0.02499540150165558 0.8809006214141846
vn -0.0002497276000212878 -0.2398981899023056 0.9707980751991272
vn -0.0 0.0 1.0
vn -0.0 -0.19211751222610474 0.9813718795776367
vn -0.0 0.0 1.0
vn -0.002632699441164732 -0.4812072217464447 0.8766029477119446
vn -0.019438516348600388 -0.5886976718902588 0.8081195950508118
vn 0.10218044370412827 -0.6562857031822205 0.747561514377594
vn -0.013121087104082108 -0.5900788307189941 0.8072389960289001
vn -0.0 -0.19211751222610474 0.9813718795776367
vn 0.20743994414806366 -0.042764484882354736 0.9773125648498535
vn 0.054705407470464706 -0.16134588420391083 0.9853805899620056
vn 0.16985051333904266 0.0017821178771555424 0.9854682087898254
vn -0.0 0.0 1.0
vn 0.15982860326766968 -0.5321037769317627 0.8314567804336548
vn -0.04476901516318321 -0.6810309886932373 0.7308847904205322
vn 0.05863726884126663 -0.7282988429069519 0.6827462911605835
vn 0.004572755191475153 -0.6352109909057617 0.7723251581192017
vn -0.002632699441164732 -0.4812072217464447 0.8766029477119446
vn 0.5330241918563843 -0.002466691890731454 0.8460963368415833
vn 0.6832640767097473 -0.044567082077264786 0.7288099527359009
vn 0.7739571928977966 0.0 0.6332378387451172
vn 0.7028056979179382 -0.27716460824012756 0.6551671028137207
vn -0.16792617738246918 -0.004005678929388523 0.9857914447784424
vn -0.0 0.0 1.0
vn -0.0 0.0 1.0
vn -0.19997015595436096 -0.005036366172134876 0.9797890782356262
vn -0.4726408123970032 -0.02499540150165558 0.8809006214141846
vn -0.4586300849914551 0.021517595276236534 0.88836669921875
vn -0.5148136019706726 0.03180694580078125 0.8567118644714355
vn -0.5985713005065918 -0.18001064658164978 0.7805821299552917
vn -0.4410085082054138 -0.02284664660692215 0.8972121477127075
vn -0.0 0.0 1.0
vn -0.0 0.0 1.0
vn -0.0 0.0 1.0
vn -0.0 0.0 1.0
vn 0.17494969069957733 -0.0028024364728480577 0.9845734238624573
vn 0.16985051333904266 0.0017821178771555424 0.9854682087898254
vn 0.6318871974945068 -0.04109181836247444 0.7739703059196472
vn 0.7739573121070862 0.0 0.6332377791404724
vn 0.7450798749923706 0.04345779865980148 0.6655579209327698
vn 0.7837399840354919 0.06921509653329849 0.6172202229499817
vn 0.5330241918563843 -0.002466691890731454 0.8460963368415833
vn -0.19997015595436096 -0.005036366172134876 0.9797890782356262
vn -0.0027894494123756886 0.15585367381572723 0.9877761602401733
vn -0.0 0.0 1.0
vn -0.1631559580564499 0.048060011118650436 0.9854291081428528
vn -0.01408239733427763 0.21808554232120514 0.9758279919624329
vn -0.054705407470464706 0.16134588420391083 0.9853805899620056
vn 0.0031651610042899847 0.18600770831108093 0.9825432300567627
vn -0.00646911421790719 0.15239305794239044 0.988298773765564
vn -0.0 0.0 1.0
vn -0.14390818774700165 0.46568864583969116 0.8731691837310791
vn -0.07620153576135635 0.6215943694114685 0.7796241044998169
vn -0.11160419881343842 0.5992767810821533 0.7927243113517761
vn -0.4410085082054138 -0.02284664660692215 0.8972121477127075
vn -0.5899093747138977 0.054507769644260406 0.8056275844573975
vn -0.6995720863342285 0.1363842636346817 0.7014258503913879
vn -0.7028056979179382 0.27716460824012756 0.6551671028137207
vn -0.0347624346613884 0.4548613727092743 0.8898835182189941
vn -0.0009329573367722332 0.5344226360321045 0.8452168107032776
vn -0.057402417063713074 0.5653608441352844 0.8228437900543213
vn -0.0378640741109848 0.5773711204528809 0.8156033754348755
vn 0.1647365689277649 0.6827567219734192 0.7118322849273682
vn 0.04589393734931946 0.6304106116294861 0.7749040126800537
vn -0.028835179284214973 0.5052023530006409 0.8625190258026123
vn 0.03344837203621864 0.49223044514656067 0.8698220252990723
vn 0.17494969069957733 -0.0028024364728480577 0.9845734238624573
vn 0.038550589233636856 0.17618198692798615 0.9836024045944214
vn 0.16134588420391083 0.054705407470464706 0.9853805899620056
vn -0.0 0.0 1.0
vn -0.00646911421790719 0.15239305794239044 0.988298773765564
vn 0.5713521838188171 0.16541333496570587 0.8038625717163086
vn 0.7739571928977966 0.0 0.6332378387451172
vn 0.7347307801246643 0.07779759913682938 0.6738829016685486
vn 0.7301062345504761 0.0415390320122242 0.6820699572563171
vn 0.7613268494606018 -0.07232585549354553 0.6443217396736145
vn 0.6318871974945068 -0.04109181836247444 0.7739703059196472
vn -0.028835179284214973 0.5052023530006409 0.8625190258026123
vn 0.043025728315114975 0.6182783246040344 0.7847806811332703
vn -0.07799819856882095 0.6862635612487793 0.7231587171554565
vn 0.27410271763801575 0.6534312963485718 0.7056168913841248
vn -0.027848636731505394 -0.4834263324737549 0.8749420046806335
vn 0.03488658368587494 -0.5895278453826904 0.8069943785667419
vn -0.038248855620622635 -0.6829304099082947 0.7294813990592957
vn -0.023623669520020485 -0.5964104533195496 0.8023318648338318
vn -0.5273547172546387 -0.09242116659879684 0.8446035981178284
vn -0.41867154836654663 -0.1511942744255066 0.895463228225708
vn -0.6468842029571533 0.10192539542913437 0.755746066570282
vn -0.019438516348600388 -0.5886976718902588 0.8081195950508118
vn -0.002632699441164732 -0.4812072217464447 0.8766029477119446
vn -0.06933139264583588 -0.6782601475715637 0.7315438389778137
vn 0.25691816210746765 -0.004426483530551195 0.9664230346679688
vn 0.2329772263765335 -0.003302165772765875 0.9724765419960022
vn -0.0 0.0 1.0
vn -0.5327588319778442 0.057454533874988556 0.8443145751953125
vn -0.4586300849914551 0.021517595276236534 0.88836669921875
vn -0.6507161855697632 -0.07880460470914841 0.7552207112312317
vn -0.5148136019706726 0.03180694580078125 0.8567118644714355
vn -0.4726408123970032 -0.02499540150165558 0.8809006214141846
vn -0.5965551137924194 0.029701877385377884 0.8020223379135132
vn -0.07620153576135635 0.6215943694114685 0.7796241044998169
vn -0.14814114570617676 0.3714691400527954 0.9165505766868591
vn 0.08516473323106766 0.6695811152458191 0.7378401756286621
vn 0.043025728315114975 0.6182783246040344 0.7847806811332703
vn -0.028835179284214973 0.5052023530006409 0.8625190258026123
vn 0.042277175933122635 0.7299807071685791 0.6821590662002563
vn -0.2561033070087433 -0.9666494131088257 0.0
vn -0.343014121055603 -0.9274649620056152 0.1488288938999176
vn -0.17572979629039764 -0.9452930688858032 0.2748457193374634
vn -0.2881045639514923 -0.9575989246368408 0.0
vn -0.2578583061695099 -0.6777268052101135 0.6886184811592102
vn -0.027848636731505394 -0.4834263324737549 0.8749420046806335
vn -0.8956506252288818 -0.43670177459716797 0.08427067846059799
vn -0.8487341403961182 -0.4382629096508026 0.2959323227405548
vn -0.5095039010047913 -0.13860131800174713 0.8492323160171509
vn -0.9557749032974243 0.08792313933372498 0.2806488573551178
vn -0.9449264407157898 0.31646230816841125 0.08346094936132431
vn -0.9589827656745911 0.15702199935913086 0.23600009083747864
vn -0.9807841777801514 0.19323836266994476 0.026858564466238022
vn -0.7416896224021912 0.13581879436969757 0.6568484306335449
vn -0.5769187211990356 -0.156940296292305 0.8015824556350708
vn -0.31617942452430725 -0.9460294842720032 0.07112452387809753
vn -0.08013507723808289 -0.9354594349861145 0.34422945976257324
vn -0.038248855620622635 -0.6829304099082947 0.7294813990592957
vn 0.21417675912380219 -0.9706354141235352 0.10952215641736984
vn 0.1458304226398468 -0.935045063495636 0.3231472671031952
vn 0.16251622140407562 -0.9858620166778564 0.04080093279480934
vn -0.03394845500588417 -0.9635639190673828 0.2653152346611023
vn 0.03488658368587494 -0.5895278453826904 0.8069943785667419
vn -0.023623669520020485 -0.5964104533195496 0.8023318648338318
vn -0.11682511866092682 -0.9911078214645386 0.06369518488645554
vn -0.018756741657853127 -0.9401925802230835 0.34012657403945923
vn 0.3324803411960602 -0.9384868144989014 0.09326984733343124
vn 0.30575335025787354 -0.9129492044448853 0.2702566385269165
vn 0.10218044370412827 -0.6562857031822205 0.747561514377594
vn -0.013121087104082108 -0.5900788307189941 0.8072389960289001
vn 0.5883374214172363 -0.8080642819404602 0.029857011511921883
vn 0.0943199023604393 -0.9181984663009644 0.3847275972366333
vn -0.019438516348600388 -0.5886976718902588 0.8081195950508118
vn -0.09950235486030579 -0.9398453235626221 0.32678747177124023
vn -0.06933139264583588 -0.6782601475715637 0.7315438389778137
vn -0.07278425246477127 -0.9350623488426208 0.34693068265914917
vn -0.36729270219802856 -0.9257521033287048 0.0898837223649025
vn 0.020290734246373177 -0.992630124092102 0.11947287619113922
vn 0.016143623739480972 -0.9159423112869263 0.4009853005409241
vn 0.2725064158439636 -0.9593938589096069 0.07282699644565582
vn 0.2211301028728485 -0.9362672567367554 0.2729562222957611
vn 0.004572755191475153 -0.6352109909057617 0.7723251581192017
vn -0.002632699441164732 -0.4812072217464447 0.8766029477119446
vn 0.4769268333911896 -0.8787131905555725 0.020100422203540802
vn 0.05863726884126663 -0.7282988429069519 0.6827462911605835
vn -0.08186950534582138 -0.9696754217147827 0.23027580976486206
vn 0.14974910020828247 -0.9886072278022766 0.015201786532998085
vn -0.04476901516318321 -0.6810309886932373 0.7308847904205322
vn -0.05742201581597328 -0.9558625817298889 0.28814810514450073
vn -0.2563951909542084 -0.9658837914466858 0.03647017106413841
vn -0.14401929080486298 -0.9895749688148499 0.0
vn 0.3886817395687103 -0.9202684760093689 0.04508174955844879
vn 0.44748184084892273 -0.8524845838546753 0.2702406048774719
vn 0.9046267867088318 -0.38644757866859436 0.17974576354026794
vn 0.9052323698997498 -0.4193067252635956 0.06882065534591675
vn 0.9879561066627502 0.1308937817811966 0.08251965045928955
vn 0.9794573187828064 0.06795355677604675 0.18985706567764282
vn 0.7028056979179382 -0.27716460824012756 0.6551671028137207
vn 0.7739571928977966 0.0 0.6332378387451172
vn 0.15982860326766968 -0.5321037769317627 0.8314567804336548
vn 0.9970043301582336 -0.07158081233501434 0.029300549998879433
vn 0.9710001349449158 -0.14139778912067413 0.19278322160243988
vn 0.963346004486084 -0.24623899161815643 0.10644671320915222
vn 0.9690696597099304 -0.05616934224963188 0.24031022191047668
vn 0.7846329808235168 -0.05117904022336006 0.6178444623947144
vn 0.9466302990913391 -0.03709204122424126 0.3201799690723419
vn 0.9881084561347961 0.0 0.15375804901123047
vn 0.9689016342163086 0.0 0.24744625389575958
vn 0.9502668380737305 0.27409377694129944 0.14786958694458008
vn 0.9537529349327087 0.2354172319173813 0.18690648674964905
vn 0.7837399840354919 0.06921509653329849 0.6172202229499817
vn 0.6300915479660034 -0.00291589368134737 0.7765153646469116
vn 0.8653988838195801 0.4982295632362366 0.05340592935681343
vn 0.9840442538261414 0.019480319693684578 0.1768546849489212
vn 0.9786421060562134 0.20188604295253754 0.038751643151044846
vn 0.7450798749923706 0.04345779865980148 0.6655579209327698
vn 0.9818283915519714 0.019553188234567642 0.18876102566719055
vn 0.9930003881454468 -0.10223103314638138 0.059152621775865555
vn 0.9925457835197449 -0.121872179210186 0.0
vn 0.7739573121070862 0.0 0.6332377791404724
vn 0.9905825853347778 -0.1336279958486557 0.029827404767274857
vn 0.9709151387214661 -0.13452215492725372 0.19805924594402313
vn 0.9731196761131287 -0.22023707628250122 0.06733301281929016
vn 0.977033793926239 -0.04690268263220787 0.20785857737064362
vn 0.7613268494606018 -0.07232585549354553 0.6443217396736145
vn 0.6318871974945068 -0.04109181836247444 0.7739703059196472
vn 0.9755292534828186 0.19731727242469788 0.09699854254722595
vn 0.9621322751045227 0.18260835111141205 0.2023748904466629
vn 0.9245410561561584 0.37879130244255066 0.04172481968998909
vn 0.7301062345504761 0.0415390320122242 0.6820699572563171
vn 0.7347307801246643 0.07779759913682938 0.6738829016685486
vn 0.9803297519683838 -0.04892322048544884 0.19120697677135468
vn 0.9982890486717224 0.04938289895653725 0.03131098300218582
vn 0.7739571928977966 0.0 0.6332378387451172
vn 0.9795317649841309 0.03362995386123657 0.1984606683254242
vn 0.9857536554336548 -0.14694367349147797 0.08183718472719193
vn 0.9707194566726685 -0.24021600186824799 0.0
vn 0.9023794531822205 0.4298834204673767 0.03019147738814354
vn 0.8562266826629639 0.4359738230705261 0.2771328091621399
vn 0.40131375193595886 0.8973014950752258 0.1838403344154358
vn 0.4181612432003021 0.9083728790283203 0.0
vn 0.27410271763801575 0.6534312963485718 0.7056168913841248
vn 0.5713521838188171 0.16541333496570587 0.8038625717163086
vn -0.08986485749483109 0.9958357810974121 0.015343762934207916
vn 0.40131375193595886 0.8973014950752258 0.1838403344154358
vn -0.13140201568603516 0.9556661248207092 0.2635066509246826
vn 0.4181612432003021 0.9083728790283203 0.0
vn 0.27410271763801575 0.6534312963485718 0.7056168913841248
vn -0.07799819856882095 0.6862635612487793 0.7231587171554565
vn 0.00324561120942235 0.9999613761901855 0.008168349042534828
vn 0.08993110805749893 0.9665940999984741 0.2400173842906952
vn 0.043025728315114975 0.6182783246040344 0.7847806811332703
vn 0.3171618580818176 0.9460461139678955 0.06637164950370789
vn 0.10715459287166595 0.9514166116714478 0.28865954279899597
vn 0.042277175933122635 0.7299807071685791 0.6821590662002563
vn -0.15836726129055023 0.9824669361114502 0.0983802005648613
vn -0.13180044293403625 0.9452702403068542 0.2984842360019684
vn -0.31019076704978943 0.9494518041610718 0.04819741100072861
vn -0.028835179284214973 0.5052023530006409 0.8625190258026123
vn 0.04589393734931946 0.6304106116294861 0.7749040126800537
vn 0.31795641779899597 0.9246312379837036 0.20966818928718567
vn 0.08119955658912659 0.9959046244621277 0.03975773602724075
vn 0.22456078231334686 0.8646821975708008 0.4493297040462494
vn 0.34600523114204407 0.9348254799842834 0.07988502830266953
vn 0.3862926959991455 0.9223640561103821 0.004737675189971924
vn 0.03344837203621864 0.49223044514656067 0.8698220252990723
vn -0.0035678683780133724 0.8944421410560608 0.4471694231033325
vn -0.0009329573367722332 0.5344226360321045 0.8452168107032776
vn -0.001970722107216716 0.9949636459350586 0.10021743923425674
vn -0.9681636095046997 0.250318318605423 0.0
vn -0.93329918384552 0.326720654964447 0.14901728928089142
vn -0.9456312656402588 0.2579781711101532 0.19806241989135742
vn -0.9705003499984741 0.24109967052936554 0.0
vn -0.7028056979179382 0.27716460824012756 0.6551671028137207
vn -0.6995720863342285 0.1363842636346817 0.7014258503913879
vn -0.4884667992591858 0.8712045550346375 0.04902023449540138
vn -0.4594336748123169 0.8422456383705139 0.28203392028808594
vn -0.14390818774700165 0.46568864583969116 0.8731691837310791
vn 0.04882719740271568 0.9472666382789612 0.316704660654068
vn 0.23903542757034302 0.9701555371284485 0.040747761726379395
vn 0.09497488290071487 0.9605470299720764 0.2613986134529114
vn 0.10688845813274384 0.9942288398742676 0.00915098562836647
vn 0.08516473323106766 0.6695811152458191 0.7378401756286621
vn -0.07620153576135635 0.6215943694114685 0.7796241044998169
vn -0.16337792575359344 0.5286929607391357 0.8329414129257202
vn -0.31664738059043884 0.8905824422836304 0.3264924883842468
vn -0.18709926307201385 0.9818688035011292 0.030454818159341812
vn -0.11160419881343842 0.5992767810821533 0.7927243113517761
vn -0.5042920112609863 0.8627629280090332 0.036463767290115356
vn -0.5664230585098267 0.8201698064804077 0.08053870499134064
vn -0.9184372425079346 0.1635548323392868 0.36017051339149475
vn -0.5899093747138977 0.054507769644260406 0.8056275844573975
vn -0.9197803139686584 0.38689032196998596 0.06572727113962173
vn -0.9904739260673523 -0.09326564520597458 0.10130519419908524
vn -0.9009509086608887 -0.09369228780269623 0.423685222864151
vn -0.8924050331115723 -0.4428485929965973 0.08659268915653229
vn -0.8542245626449585 -0.431606262922287 0.2898561358451843
vn -0.5985713005065918 -0.18001064658164978 0.7805821299552917
vn -0.4410085082054138 -0.02284664660692215 0.8972121477127075
vn -0.7341392040252686 -0.6777123212814331 0.041780490428209305
vn -0.9031122922897339 -0.1319894641637802 0.4086160659790039
vn -0.5148136019706726 0.03180694580078125 0.8567118644714355
vn -0.9134044647216797 0.15051181614398956 0.3782043755054474
vn -0.5327588319778442 0.057454533874988556 0.8443145751953125
vn -0.9013502597808838 -0.20493736863136292 0.38153427839279175
vn -0.937107503414154 -0.3033788502216339 0.1725998967885971
vn -0.9739409685134888 0.16205492615699768 0.15867316722869873
vn -0.6507161855697632 -0.07880460470914841 0.7552207112312317
vn -0.9244043231010437 0.0693938359618187 0.37504804134368896
vn -0.8737649917602539 0.4749157130718231 0.10483237355947495
vn -0.8439279794692993 -0.5290722250938416 0.08870304375886917
vn -0.9286020398139954 0.11933034658432007 0.3513668477535248
vn -0.9926615953445435 -0.10420532524585724 0.06135227531194687
vn -0.4586300849914551 0.021517595276236534 0.88836669921875
vn -0.9082862138748169 0.0830371156334877 0.4100254476070404
vn -0.9361902475357056 0.3382132053375244 0.09570667147636414
vn -0.9458491802215576 0.32440081238746643 -0.011549199000000954
vn -0.5965551137924194 0.029701877385377884 0.8020223379135132
vn -0.9675877094268799 -0.20152823626995087 0.15218569338321686
vn -0.8941043615341187 -0.18989089131355286 0.4056090712547302
vn -0.8954548835754395 -0.4368021488189697 0.0858163833618164
vn -0.4726408123970032 -0.02499540150165558 0.8809006214141846
vn -0.6216249465942383 -0.03909580409526825 0.7823387980461121
vn -0.9929681420326233 -0.09217922389507294 0.07427754253149033
vn -0.8815048933029175 0.16142189502716064 0.4437251091003418
vn -0.7217334508895874 -0.04539192095398903 0.6906812191009521
vn -0.7761284112930298 0.5815462470054626 0.2437797635793686
vn -0.7144805788993835 0.6971346735954285 0.05933593958616257
vn -0.3761732578277588 0.9258102178573608 -0.037000611424446106
vn -0.4139788746833801 -0.872028648853302 0.2611273229122162
vn -0.8275575041770935 -0.5613809823989868 0.0
vn -0.6052618026733398 0.793413519859314 0.06444461643695831
vn -0.22242499887943268 0.8887439370155334 0.4008255898952484
vn 0.0665518045425415 0.9410092234611511 0.33177170157432556
vn -0.0378640741109848 0.5773711204528809 0.8156033754348755
vn -0.0347624346613884 0.4548613727092743 0.8898835182189941
vn -0.44988954067230225 0.884206235408783 0.12561333179473877
vn -0.6052618026733398 0.793413519859314 0.06444461643695831
vn 0.1647365689277649 0.6827567219734192 0.7118322849273682
vn 0.21210414171218872 0.9331551194190979 0.2902299463748932
vn 0.125962033867836 0.9206579327583313 0.36948952078819275
vn 0.4331923723220825 0.8961672186851501 0.09606669098138809
vn -0.24121077358722687 0.9612203240394592 0.133689284324646
vn -0.26228585839271545 0.9100807905197144 0.32087212800979614
vn -0.057402417063713074 0.5653608441352844 0.8228437900543213
vn 0.4749751389026642 0.8308792114257812 0.2898935079574585
vn 0.8109428882598877 0.5851215720176697 0.002078099176287651
vt 0.9653028249740601 0.011264562606811523
vt 0.7505820393562317 0.25018763542175293
vt 0.7505820393562317 0.011264562606811523
vt 0.9899354577064514 0.25018763542175293
vt 0.9899354577064514 0.036857664585113525
vt 0.9312505722045898 0.000277101993560791
vt 0.9747224450111389 0.000277101993560791
vt 0.8083382248878479 0.000277101993560791
vt 0.7505820393562317 0.000277101993560791
vt 0.9995734691619873 0.027426719665527344
vt 0.9995734691619873 0.21157032251358032
vt 0.9995734691619873 0.25018763542175293
vt 0.9996785521507263 0.5107896327972412
vt 0.7506871223449707 0.7497126758098602
vt 0.7506871223449707 0.5107896327972412
vt 0.9996785521507263 0.7497126758098602
vt 0.7506871223449707 0.4998020529747009
vt 0.906877338886261 0.4998020529747009
vt 0.9187461137771606 0.4998020529747009
vt 0.9996785521507263 0.4998020529747009
vt 0.9995734691619873 0.011264562606811523
vt 0.7614738345146179 0.035971105098724365
vt 0.786592960357666 0.011264562606811523
vt 0.7614738345146179 0.25018763542175293
vt 0.9995734691619873 0.25018763542175293
vt 0.7771734595298767 0.000277101993560791
vt 0.88066565990448 0.000277101993560791
vt 0.896129846572876 0.000277101993560791
vt 0.9064741134643555 0.000277101993560791
vt 0.9995734691619873 0.000277101993560791
vt 0.7505820393562317 0.25018763542175293
vt 0.7505820393562317 0.13814204931259155
vt 0.7505820393562317 0.11582165956497192
vt 0.7505820393562317 0.026539921760559082
vt 0.9899354577064514 0.000277101993560791
vt 0.7505820393562317 0.25018763542175293
vt 0.7505820393562317 0.000277101993560791
vt 0.9899354577064514 0.25018763542175293
vt 0.9995734691619873 0.000277101993560791
vt 0.9995734691619873 0.10025632381439209
vt 0.9995734691619873 0.20668762922286987
vt 0.9995734691619873 0.21708077192306519
vt 0.9995734691619873 0.25018763542175293
vt 0.7497758269309998 0.4995703101158142
vt 0.5006847977638245 0.24891352653503418
vt 0.7497758269309998 0.24891352653503418
vt 0.5006847977638245 0.4995703101158142
vt 0.5007371306419373 0.010787487030029297
vt 0.7498281598091125 0.010787606239318848
vt 0.5007371306419373 0.00138777494430542
vt 0.5837007761001587 0.00138777494430542
vt 0.6050937175750732 0.00138777494430542
vt 0.6227917671203613 0.00138777494430542
vt 0.7498281598091125 0.0013880133628845215
vt 0.7403985857963562 0.5002970695495605
vt 0.5002533793449402 0.7402200698852539
vt 0.5002533793449402 0.5002970695495605
vt 0.7403984665870667 0.7146511077880859
vt 0.6191590428352356 0.7402200698852539
vt 0.7151827812194824 0.7402200698852539
vt 0.3875094950199127 0.7402200698852539
vt 0.25040146708488464 0.7402200698852539
vt 0.2504015266895294 0.5002970695495605
vt 0.7246387600898743 0.7493228316307068
vt 0.6348342895507812 0.7493228316307068
vt 0.6216795444488525 0.7493228316307068
vt 0.7498546242713928 0.5002970695495605
vt 0.7498546242713928 0.6705092787742615
vt 0.7498546242713928 0.7017280459403992
vt 0.7498546242713928 0.724107027053833
vt 0.5002533793449402 0.7500586211681366
vt 0.38271573185920715 0.7500585913658142
vt 0.6113013029098511 0.7493228316307068
vt 0.5234048366546631 0.7493228316307068
vt 0.5388989448547363 0.7493283152580261
vt 0.2811852991580963 0.7500585317611694
vt 0.25040146708488464 0.7500584870576859
vt 0.2993968725204468 0.750058576464653
vt 0.7617253661155701 0.2495882511138916
vt 0.7868444919586182 0.4896935820579529
vt 0.7617253661155701 0.4645437002182007
vt 0.9998016953468323 0.2495882511138916
vt 0.9998016953468323 0.4896935820579529
vt 0.7508102655410767 0.47397494316101074
vt 0.7508102655410767 0.4105924963951111
vt 0.7508102655410767 0.3937441110610962
vt 0.7508102655410767 0.3724169135093689
vt 0.7508102655410767 0.2763163447380066
vt 0.7508102655410767 0.2495882511138916
vt 0.9998016953468323 0.49949878454208374
vt 0.8868957161903381 0.49949878454208374
vt 0.8699417114257812 0.49949878454208374
vt 0.7774248123168945 0.49949878454208374
vt 0.9312505722045898 0.000277101993560791
vt 0.8343420028686523 0.000277101993560791
vt 0.9133226275444031 0.000277101993560791
vt 0.8083382248878479 0.000277101993560791
vt 0.9995734691619873 0.21157032251358032
vt 0.9995734691619873 0.027426719665527344
vt 0.9995734691619873 0.19131451845169067
vt 0.906877338886261 0.4998020529747009
vt 0.7506871223449707 0.4998020529747009
vt 0.8934740424156189 0.4998020529747009
vt 0.7505820393562317 0.13814204931259155
vt 0.7505820393562317 0.25018763542175293
vt 0.7505820393562317 0.16604256629943848
vt 0.9995734691619873 0.19629448652267456
vt 0.9995734691619873 0.10025632381439209
vt 0.9995734691619873 0.12138473987579346
vt 0.9995734691619873 0.20668762922286987
vt 0.9995734691619873 0.000277101993560791
vt 0.9995734691619873 0.07476162910461426
vt 0.6348342895507812 0.7493228316307068
vt 0.7246387600898743 0.7493228316307068
vt 0.6872411966323853 0.7493228316307068
vt 0.8868957161903381 0.49949878454208374
vt 0.9998016953468323 0.49949878454208374
vt 0.9044822454452515 0.49949878454208374
vt -1.1809102296829224 0.7492642104625702
vt -1.264777421951294 0.5187090635299683
vt -1.1809102296829224 0.5187090635299683
vt -1.264777421951294 0.7492642104625702
vt -1.2645533084869385 0.5007853806018829
vt -1.1810977458953857 0.5007853806018829
vt -1.3376619815826416 0.7492642104625702
vt -1.3376619815826416 0.5187090635299683
vt -1.3378863334655762 0.5007853806018829
vt -1.6352277994155884 0.5187090635299683
vt -1.6352277994155884 0.7492642104625702
vt -1.672005534172058 0.5187090635299683
vt -1.672005534172058 0.7492642104625702
vt -1.6339017152786255 0.5007853806018829
vt -1.3378863334655762 0.5007853806018829
vt -1.1533582210540771 0.7492434978485107
vt -1.1507644653320312 0.5186457335948944
vt -1.1466799974441528 0.5007853806018829
vt -0.9795318841934204 0.7493089735507965
vt -0.9906123876571655 0.5187831521034241
vt -0.9437833428382874 0.7492642104625702
vt -0.9437833428382874 0.5187090635299683
vt -0.9950559139251709 0.5007853806018829
vt -0.945134699344635 0.5007853806018829
vt -0.8346890807151794 0.7492642104625702
vt -0.8346890807151794 0.5187090635299683
vt -0.6742229461669922 0.7492843568325043
vt -0.6733008623123169 0.5187498033046722
vt -0.6786909103393555 0.5007853806018829
vt -0.8365758657455444 0.5007853806018829
vt -0.6552549600601196 0.7492642104625702
vt -0.6552549600601196 0.5187090635299683
vt -0.6557368636131287 0.5007853806018829
vt -0.6295346617698669 0.5187090635299683
vt -0.6298151612281799 0.5007853806018829
vt -0.6552549600601196 0.5187090635299683
vt -0.6338857412338257 0.7492580115795135
vt -0.3526515066623688 0.7493400275707245
vt -0.3528576195240021 0.5193027257919312
vt -0.18036668002605438 0.7492642104625702
vt -0.18036668002605438 0.5187090635299683
vt -0.17936637997627258 0.5007853806018829
vt -0.35077598690986633 0.5007853806018829
vt -0.16133201122283936 0.7492642104625702
vt -0.1604297012090683 0.5007853806018829
vt -0.16133201122283936 0.5187090635299683
vt -0.16133201122283936 0.7492642104625702
vt -0.13211935758590698 0.5007853806018829
vt -0.13287518918514252 0.5187090635299683
vt -0.13287518918514252 0.7492642104625702
vt -0.16133201122283936 0.7492642104625702
vt 0.05404527485370636 0.7492918968200684
vt 0.05756658315658569 0.5187090635299683
vt 0.13283228874206543 0.5187090635299683
vt 0.13283228874206543 0.7492642104625702
vt 0.30337831377983093 0.7492642104625702
vt 0.30337831377983093 0.5187090635299683
vt 0.13305699825286865 0.5007853806018829
vt 0.30275848507881165 0.5007853806018829
vt 0.05734211206436157 0.5007853806018829
vt 0.3460148274898529 0.7492642104625702
vt 0.3460148274898529 0.5187090635299683
vt 0.39931046962738037 0.7492642104625702
vt 0.39931046962738037 0.5187090635299683
vt 0.3451838493347168 0.5007853806018829
vt 0.39821553230285645 0.5007853806018829
vt 0.5591973662376404 0.7492642104625702
vt 0.5591973662376404 0.5187090635299683
vt 0.8050305843353271 0.7492642104625702
vt 0.8050305843353271 0.5187090635299683
vt 0.8050683736801147 0.5007853806018829
vt 0.5573106408119202 0.5007853806018829
vt 0.839278519153595 0.7492642104625702
vt 0.839278519153595 0.5187090635299683
vt 0.839278519153595 0.7492642104625702
vt 0.8395844101905823 0.5007853806018829
vt 0.8806772232055664 0.5187090635299683
vt 0.8806772232055664 0.7492642104625702
vt 0.839278519153595 0.7492642104625702
vt 0.8813071846961975 0.5007853806018829
vt 1.0412232875823975 0.7492642104625702
vt 1.0412232875823975 0.5187090635299683
vt 1.0937141180038452 0.7492642104625702
vt 1.0937141180038452 0.5187090635299683
vt 1.0953595638275146 0.5007853806018829
vt 1.0431101322174072 0.5007853806018829
vt 1.2911797761917114 0.7492642104625702
vt 1.2911797761917114 0.5187090635299683
vt 1.3350024223327637 0.7492642104625702
vt 1.2919167280197144 0.5007853806018829
vt 1.3355377912521362 0.5007853806018829
vt 1.3350024223327637 0.5187090635299683
vt 1.3350024223327637 0.7492642104625702
vt 1.3699984550476074 0.5007853806018829
vt 1.3696223497390747 0.5187090635299683
vt 1.3696223497390747 0.7492642104625702
vt 1.3350024223327637 0.7492642104625702
vt 1.499859094619751 0.7492642104625702
vt 1.499859094619751 0.5187090635299683
vt 1.5671029090881348 0.5187090635299683
vt 1.5671029090881348 0.7492642104625702
vt 1.5673274993896484 0.5007853806018829
vt 1.499635934829712 0.5007853806018829
vt -3.980659246444702 0.7492642104625702
vt -4.168482780456543 0.5187090635299683
vt -3.980659246444702 0.5187090635299683
vt -4.168482780456543 0.7492642104625702
vt -4.168258190155029 0.5007853806018829
vt -3.981311082839966 0.5007853806018829
vt -3.946239948272705 0.7492642104625702
vt -3.946239948272705 0.5187090635299683
vt -3.947052478790283 0.5007853806018829
vt -3.910536766052246 0.7492642104625702
vt -3.910536766052246 0.5187090635299683
vt -3.911515712738037 0.5007853806018829
vt -3.7158961296081543 0.7492642104625702
vt -3.7158961296081543 0.5187090635299683
vt -3.654778480529785 0.7492642104625702
vt -3.7177834510803223 0.5007853806018829
vt -3.6564393043518066 0.5007853806018829
vt -3.654778480529785 0.5187090635299683
vt -3.654778480529785 0.7492642104625702
vt -3.6166818141937256 0.5187090635299683
vt -3.6240787506103516 0.7492533624172211
vt -3.654778480529785 0.7492642104625702
vt -3.618201494216919 0.5007853806018829
vt -3.4503846168518066 0.5187090635299683
vt -3.4474546909332275 0.5007853507995605
vt -3.431105613708496 0.7492682039737701
vt -2.667161464691162 0.7492642104625702
vt -2.714916706085205 0.5187090635299683
vt -2.667161464691162 0.5187090635299683
vt -2.714916706085205 0.7492642104625702
vt -2.7146921157836914 0.5007853806018829
vt -2.6671481132507324 0.5007853806018829
vt -2.775752067565918 0.7492642104625702
vt -2.775752067565918 0.5187090635299683
vt -2.7759766578674316 0.5007853806018829
vt -2.9084479808807373 0.5187090635299683
vt -2.9084479808807373 0.7492642104625702
vt -2.9480843544006348 0.5187090635299683
vt -2.9480843544006348 0.7492642104625702
vt -2.9086031913757324 0.5007853806018829
vt -2.948219060897827 0.5007853806018829
vt -2.7759766578674316 0.5007853806018829
vt -2.9746570587158203 0.5187090635299683
vt -2.9480843544006348 0.7492642104625702
vt -2.9734930992126465 0.5007853806018829
vt -2.9480843544006348 0.7492642104625702
vt -2.9715895652770996 0.7492642104625702
vt -2.606186866760254 0.5190459787845612
vt -2.6008241176605225 0.5007853806018829
vt -2.61847186088562 0.7492470443248749
vt -2.219433307647705 0.7492638528347015
vt -2.233895778656006 0.5188031792640686
vt -2.1641199588775635 0.7492810785770416
vt -2.165980100631714 0.518805593252182
vt -2.1744837760925293 0.5007853806018829
vt -2.2392513751983643 0.5007853806018829
vt -2.1473946571350098 0.7492492496967316
vt -2.1526551246643066 0.5187090635299683
vt -2.153895139694214 0.5007853806018829
vt -2.1322226524353027 0.5187090635299683
vt -2.1333065032958984 0.5007853806018829
vt -1.9849520921707153 0.5187090635299683
vt -1.9680099487304688 0.7494392693042755
vt -2.1322226524353027 0.7492642104625702
vt -1.9849120378494263 0.5007853806018829
vt -2.1526551246643066 0.5187090635299683
vt -2.1322226524353027 0.7492642104625702
vt -1.9381043910980225 0.7492570281028748
vt -1.9434142112731934 0.5187090635299683
vt -1.9381043910980225 0.7492570281028748
vt -1.9430571794509888 0.5007853806018829
vt -1.8932924270629883 0.5187090635299683
vt -1.894425392150879 0.7495551705360413
vt -1.9381043910980225 0.7492570281028748
vt -1.8925528526306152 0.5007853806018829
vt -1.736099362373352 0.7495708167552948
vt -1.742926836013794 0.5187090635299683
vt -1.672005534172058 0.7492642104625702
vt -1.741039752960205 0.5007853806018829
vt -1.670487880706787 0.5007853806018829
vt -1.672005534172058 0.7492642104625702
vt -1.6339017152786255 0.5007853806018829
vt -1.670487880706787 0.5007853806018829
vt -2.1526551246643066 0.5187090635299683
vt -2.1322226524353027 0.7492642104625702
vt -2.1473946571350098 0.7492492496967316
vt -0.6552549600601196 0.5187090635299683
vt -0.6552549600601196 0.7492642104625702
vt -3.1628639698028564 0.7492642104625702
vt -3.206582546234131 0.5187090635299683
vt -3.1628639698028564 0.5187090635299683
vt -3.16288685798645 0.5007853806018829
vt -3.206582546234131 0.5007853806018829
vt -3.1920926570892334 0.749286562204361
vt -3.1628639698028564 0.7492642104625702
vt -3.132385015487671 0.5007853806018829
vt -3.1628639698028564 0.5187090635299683
vt -3.1323463916778564 0.5187090635299683
vt -3.1323463916778564 0.7492642104625702
vt -2.993321657180786 0.7492642104625702
vt -2.993321657180786 0.5187090635299683
vt -2.9934327602386475 0.5007853806018829
vt -3.1628639698028564 0.5187090635299683
vt -3.1628639698028564 0.7492642104625702

g bg_mdl_bt_3x3_50
s 1
usemtl bg_mdl_bt_3x3_50_0
f 3/3/3 2/2/2 1/1/1 
f 2/2/2 4/4/4 1/1/1 
f 1/1/1 4/4/4 5/5/5 
f 6/6/6 3/3/3 1/1/1 
f 7/7/7 6/6/6 1/1/1 
f 8/8/8 3/3/3 6/6/6 
f 9/9/9 3/3/3 8/8/8 
f 10/10/10 5/5/5 4/4/4 
f 5/5/5 10/10/10 1/1/1 
f 7/7/7 1/1/1 10/10/10 
f 11/11/11 10/10/10 4/4/4 
f 12/12/12 11/11/11 4/4/4 
f 15/15/15 14/14/14 13/13/13 
f 16/16/16 13/13/13 14/14/14 
f 17/17/17 15/15/15 13/13/13 
f 18/18/18 17/17/17 13/13/13 
f 19/19/19 18/18/18 13/13/13 
f 20/20/20 19/19/19 13/13/13 
f 23/23/23 22/22/22 21/21/21 
f 22/22/22 24/24/24 21/21/21 
f 24/24/24 25/25/25 21/21/21 
f 26/26/26 23/23/23 21/21/21 
f 23/23/23 26/26/26 22/22/22 
f 27/27/27 26/26/26 21/21/21 
f 28/28/28 27/27/27 21/21/21 
f 29/29/29 28/28/28 21/21/21 
f 30/30/30 29/29/29 21/21/21 
f 31/31/31 24/24/24 22/22/22 
f 32/32/32 31/31/31 22/22/22 
f 33/33/33 32/32/32 22/22/22 
f 34/34/34 33/33/33 22/22/22 
f 34/34/34 22/22/22 26/26/26 
f 37/37/37 36/36/36 35/35/35 
f 38/38/38 35/35/35 36/36/36 
f 39/39/39 35/35/35 38/38/38 
f 40/40/40 39/39/39 38/38/38 
f 41/41/41 40/40/40 38/38/38 
f 42/42/42 41/41/41 38/38/38 
f 43/43/43 42/42/42 38/38/38 
f 46/46/46 45/45/45 44/44/44 
f 47/47/47 44/44/44 45/45/45 
f 45/45/45 46/46/46 48/48/48 
f 49/49/49 48/48/48 46/46/46 
f 50/50/50 48/48/48 49/49/49 
f 51/51/51 50/50/50 49/49/49 
f 52/52/52 51/51/51 49/49/49 
f 53/53/53 52/52/52 49/49/49 
f 54/54/54 53/53/53 49/49/49 
f 57/57/57 56/56/56 55/55/55 
f 56/56/56 58/58/58 55/55/55 
f 59/59/59 58/58/58 56/56/56 
f 60/60/60 58/58/58 59/59/59 
f 61/61/61 56/56/56 57/57/57 
f 62/62/62 61/61/61 57/57/57 
f 63/63/63 62/62/62 57/57/57 
f 60/60/60 59/59/59 64/64/64 
f 60/60/60 64/64/64 58/58/58 
f 64/64/64 59/59/59 65/65/65 
f 65/65/65 59/59/59 66/66/66 
f 67/67/67 55/55/55 58/58/58 
f 68/68/68 67/67/67 58/58/58 
f 69/69/69 68/68/68 58/58/58 
f 70/70/70 69/69/69 58/58/58 
f 70/70/70 58/58/58 64/64/64 
f 56/56/56 61/61/61 71/71/71 
f 72/72/72 71/71/71 61/61/61 
f 73/73/73 66/66/66 59/59/59 
f 56/56/56 73/73/73 59/59/59 
f 71/71/71 74/74/74 56/56/56 
f 74/74/74 73/73/73 56/56/56 
f 75/75/75 73/73/73 74/74/74 
f 62/62/62 76/76/76 61/61/61 
f 77/77/77 76/76/76 62/62/62 
f 76/76/76 78/78/78 61/61/61 
f 78/78/78 72/72/72 61/61/61 
f 81/81/81 80/80/80 79/79/79 
f 79/79/79 80/80/80 82/82/82 
f 80/80/80 83/83/83 82/82/82 
f 84/84/84 81/81/81 79/79/79 
f 81/81/81 84/84/84 80/80/80 
f 85/85/85 84/84/84 79/79/79 
f 86/86/86 85/85/85 79/79/79 
f 87/87/87 86/86/86 79/79/79 
f 88/88/88 87/87/87 79/79/79 
f 89/89/89 88/88/88 79/79/79 
f 90/90/90 83/83/83 80/80/80 
f 91/91/91 90/90/90 80/80/80 
f 92/92/92 91/91/91 80/80/80 
f 93/93/93 92/92/92 80/80/80 
f 93/93/93 80/80/80 84/84/84 
f 96/96/96 95/95/95 94/94/94 
f 95/95/95 97/97/97 94/94/94 
f 100/100/100 99/99/99 98/98/98 
f 103/103/103 102/102/102 101/101/101 
f 106/106/106 105/105/105 104/104/104 
f 109/109/109 108/108/108 107/107/107 
f 107/107/107 108/108/108 110/110/110 
f 112/112/112 111/111/111 108/108/108 
f 115/115/115 114/114/114 113/113/113 
f 118/118/118 117/117/117 116/116/116 

usemtl bg_mdl_bt_3x3_50_1
f 121/121/121 120/120/120 119/119/119 
f 122/122/122 119/119/119 120/120/120 
f 120/120/120 121/121/121 123/123/123 
f 124/124/124 123/123/123 121/121/121 
f 122/122/122 120/120/120 125/125/125 
f 126/126/126 125/125/125 120/120/120 
f 120/120/120 123/123/123 126/126/126 
f 127/127/127 126/126/126 123/123/123 
f 126/126/126 128/128/128 125/125/125 
f 129/129/129 125/125/125 128/128/128 
f 128/128/128 130/130/130 129/129/129 
f 131/131/131 129/129/129 130/130/130 
f 128/128/128 132/132/132 130/130/130 
f 132/132/132 128/128/128 127/127/127 
f 126/126/126 133/133/133 128/128/128 
f 119/119/119 134/134/134 121/121/121 
f 135/135/135 121/121/121 134/134/134 
f 121/121/121 135/135/135 124/124/124 
f 136/136/136 124/124/124 135/135/135 
f 134/134/134 137/137/137 135/135/135 
f 138/138/138 135/135/135 137/137/137 
f 135/135/135 138/138/138 136/136/136 
f 137/137/137 139/139/139 138/138/138 
f 140/140/140 138/138/138 139/139/139 
f 138/138/138 140/140/140 141/141/141 
f 141/141/141 136/136/136 138/138/138 
f 142/142/142 141/141/141 140/140/140 
f 139/139/139 143/143/143 140/140/140 
f 144/144/144 140/140/140 143/143/143 
f 140/140/140 144/144/144 142/142/142 
f 143/143/143 145/145/145 144/144/144 
f 146/146/146 144/144/144 145/145/145 
f 146/146/146 147/147/147 144/144/144 
f 148/148/148 144/144/144 147/147/147 
f 148/148/148 142/142/142 144/144/144 
f 145/145/145 149/149/149 146/146/146 
f 150/150/150 146/146/146 149/149/149 
f 146/146/146 150/150/150 147/147/147 
f 151/151/151 147/147/147 150/150/150 
f 153/153/153 151/151/151 152/152/152 
f 154/154/154 152/152/152 151/151/151 
f 152/152/152 154/154/154 155/155/155 
f 155/155/155 156/156/156 152/152/152 
f 157/157/157 152/152/152 156/156/156 
f 152/152/152 157/157/157 153/153/153 
f 156/156/156 158/158/158 157/157/157 
f 159/159/159 157/157/157 158/158/158 
f 159/159/159 160/160/160 157/157/157 
f 161/161/161 157/157/157 160/160/160 
f 161/161/161 153/153/153 157/157/157 
f 158/158/158 162/162/162 159/159/159 
f 160/160/160 159/159/159 163/163/163 
f 164/164/164 163/163/163 159/159/159 
f 164/164/164 159/159/159 165/165/165 
f 163/163/163 164/164/164 166/166/166 
f 167/167/167 166/166/166 164/164/164 
f 167/167/167 164/164/164 168/168/168 
f 169/169/169 168/168/168 164/164/164 
f 168/168/168 170/170/170 167/167/167 
f 171/171/171 167/167/167 170/170/170 
f 171/171/171 170/170/170 172/172/172 
f 173/173/173 172/172/172 170/170/170 
f 173/173/173 174/174/174 172/172/172 
f 175/175/175 172/172/172 174/174/174 
f 172/172/172 175/175/175 176/176/176 
f 172/172/172 176/176/176 171/171/171 
f 177/177/177 176/176/176 175/175/175 
f 178/178/178 171/171/171 176/176/176 
f 171/171/171 178/178/178 167/167/167 
f 166/166/166 167/167/167 178/178/178 
f 174/174/174 179/179/179 175/175/175 
f 180/180/180 175/175/175 179/179/179 
f 175/175/175 180/180/180 177/177/177 
f 179/179/179 181/181/181 180/180/180 
f 182/182/182 180/180/180 181/181/181 
f 180/180/180 182/182/182 183/183/183 
f 183/183/183 177/177/177 180/180/180 
f 184/184/184 183/183/183 182/182/182 
f 181/181/181 185/185/185 182/182/182 
f 186/186/186 182/182/182 185/185/185 
f 182/182/182 186/186/186 184/184/184 
f 185/185/185 187/187/187 186/186/186 
f 188/188/188 186/186/186 187/187/187 
f 188/188/188 189/189/189 186/186/186 
f 190/190/190 186/186/186 189/189/189 
f 190/190/190 184/184/184 186/186/186 
f 187/187/187 191/191/191 188/188/188 
f 188/188/188 192/192/192 189/189/189 
f 192/192/192 188/188/188 193/193/193 
f 194/194/194 189/189/189 192/192/192 
f 192/192/192 195/195/195 194/194/194 
f 195/195/195 192/192/192 196/196/196 
f 197/197/197 196/196/196 192/192/192 
f 198/198/198 194/194/194 195/195/195 
f 196/196/196 199/199/199 195/195/195 
f 200/200/200 195/195/195 199/199/199 
f 195/195/195 200/200/200 198/198/198 
f 199/199/199 201/201/201 200/200/200 
f 202/202/202 200/200/200 201/201/201 
f 202/202/202 203/203/203 200/200/200 
f 204/204/204 200/200/200 203/203/203 
f 204/204/204 198/198/198 200/200/200 
f 201/201/201 205/205/205 202/202/202 
f 206/206/206 202/202/202 205/205/205 
f 205/205/205 207/207/207 206/206/206 
f 206/206/206 208/208/208 202/202/202 
f 203/203/203 202/202/202 208/208/208 
f 208/208/208 206/206/206 209/209/209 
f 210/210/210 209/209/209 206/206/206 
f 210/210/210 206/206/206 211/211/211 
f 209/209/209 210/210/210 212/212/212 
f 213/213/213 212/212/212 210/210/210 
f 213/213/213 210/210/210 214/214/214 
f 215/215/215 214/214/214 210/210/210 
f 214/214/214 216/216/216 213/213/213 
f 217/217/217 213/213/213 216/216/216 
f 217/217/217 216/216/216 218/218/218 
f 219/219/219 218/218/218 216/216/216 
f 218/218/218 220/220/220 217/217/217 
f 221/221/221 217/217/217 220/220/220 
f 217/217/217 221/221/221 213/213/213 
f 212/212/212 213/213/213 221/221/221 
f 224/224/224 223/223/223 222/222/222 
f 225/225/225 222/222/222 223/223/223 
f 223/223/223 224/224/224 226/226/226 
f 227/227/227 226/226/226 224/224/224 
f 222/222/222 228/228/228 224/224/224 
f 229/229/229 224/224/224 228/228/228 
f 224/224/224 229/229/229 227/227/227 
f 230/230/230 227/227/227 229/229/229 
f 228/228/228 231/231/231 229/229/229 
f 232/232/232 229/229/229 231/231/231 
f 229/229/229 232/232/232 230/230/230 
f 233/233/233 230/230/230 232/232/232 
f 231/231/231 234/234/234 232/232/232 
f 235/235/235 232/232/232 234/234/234 
f 232/232/232 235/235/235 233/233/233 
f 234/234/234 236/236/236 235/235/235 
f 237/237/237 233/233/233 235/235/235 
f 237/237/237 235/235/235 238/238/238 
f 239/239/239 238/238/238 235/235/235 
f 239/239/239 235/235/235 240/240/240 
f 239/239/239 241/241/241 238/238/238 
f 241/241/241 239/239/239 242/242/242 
f 243/243/243 242/242/242 239/239/239 
f 244/244/244 238/238/238 241/241/241 
f 241/241/241 245/245/245 244/244/244 
f 241/241/241 242/242/242 245/245/245 
f 246/246/246 244/244/244 245/245/245 
f 247/247/247 245/245/245 242/242/242 
f 250/250/250 249/249/249 248/248/248 
f 251/251/251 248/248/248 249/249/249 
f 249/249/249 250/250/250 252/252/252 
f 253/253/253 252/252/252 250/250/250 
f 251/251/251 249/249/249 254/254/254 
f 255/255/255 254/254/254 249/249/249 
f 249/249/249 252/252/252 255/255/255 
f 256/256/256 255/255/255 252/252/252 
f 255/255/255 257/257/257 254/254/254 
f 258/258/258 254/254/254 257/257/257 
f 257/257/257 259/259/259 258/258/258 
f 260/260/260 258/258/258 259/259/259 
f 257/257/257 261/261/261 259/259/259 
f 261/261/261 257/257/257 256/256/256 
f 262/262/262 259/259/259 261/261/261 
f 255/255/255 263/263/263 257/257/257 
f 259/259/259 262/262/262 264/264/264 
f 259/259/259 264/264/264 265/265/265 
f 266/266/266 264/264/264 262/262/262 
f 268/268/268 267/267/267 264/264/264 
f 270/270/270 253/253/253 269/269/269 
f 250/250/250 269/269/269 253/253/253 
f 269/269/269 250/250/250 271/271/271 
f 248/248/248 271/271/271 250/250/250 
f 271/271/271 272/272/272 269/269/269 
f 273/273/273 269/269/269 272/272/272 
f 269/269/269 273/273/273 270/270/270 
f 272/272/272 274/274/274 273/273/273 
f 275/275/275 273/273/273 274/274/274 
f 275/275/275 276/276/276 273/273/273 
f 277/277/277 273/273/273 276/276/276 
f 277/277/277 270/270/270 273/273/273 
f 274/274/274 278/278/278 275/275/275 
f 279/279/279 275/275/275 278/278/278 
f 275/275/275 279/279/279 276/276/276 
f 280/280/280 276/276/276 279/279/279 
f 282/282/282 280/280/280 281/281/281 
f 281/281/281 283/283/283 282/282/282 
f 283/283/283 281/281/281 284/284/284 
f 285/285/285 284/284/284 281/281/281 
f 286/286/286 282/282/282 283/283/283 
f 287/287/287 281/281/281 280/280/280 
f 281/281/281 287/287/287 288/288/288 
f 284/284/284 289/289/289 283/283/283 
f 283/283/283 290/290/290 286/286/286 
f 290/290/290 283/283/283 291/291/291 
f 292/292/292 286/286/286 290/290/290 
f 290/290/290 293/293/293 292/292/292 
f 293/293/293 290/290/290 294/294/294 
f 295/295/295 294/294/294 290/290/290 
f 296/296/296 292/292/292 293/293/293 
f 294/294/294 297/297/297 293/293/293 
f 298/298/298 293/293/293 297/297/297 
f 293/293/293 298/298/298 296/296/296 
f 297/297/297 299/299/299 298/298/298 
f 300/300/300 296/296/296 298/298/298 
f 300/300/300 298/298/298 301/301/301 
f 130/130/130 301/301/301 298/298/298 
f 130/130/130 298/298/298 302/302/302 
f 304/304/304 130/130/130 303/303/303 
f 307/307/307 306/306/306 305/305/305 
f 309/309/309 155/155/155 308/308/308 

usemtl bg_mdl_bt_3x3_50_2
f 312/312/312 311/311/311 310/310/310 
f 312/312/312 313/313/313 311/311/311 
f 314/314/314 311/311/311 313/313/313 
f 314/314/314 246/246/246 311/311/311 
f 245/245/245 311/311/311 246/246/246 
f 245/245/245 247/247/247 311/311/311 
f 315/315/315 311/311/311 247/247/247 
f 315/315/315 316/316/316 311/311/311 
f 313/313/313 318/318/318 317/317/317 
f 319/319/319 317/317/317 318/318/318 
f 319/319/319 318/318/318 320/320/320 
f 320/320/320 321/321/321 319/319/319 
f 322/322/322 319/319/319 321/321/321 
f 322/322/322 323/323/323 319/319/319 
f 317/317/317 319/319/319 323/323/323 
f 322/322/322 264/264/264 323/323/323 
f 266/266/266 323/323/323 264/264/264 
f 321/321/321 268/268/268 322/322/322 
f 264/264/264 322/322/322 268/268/268 
f 325/325/325 320/320/320 324/324/324 

