v 6.943854808807373 -4.577636616431846e-07 7.668281078338623
v 6.777580261230469 -6.103515488575795e-07 9.379975318908691
v 6.800983905792236 0.5460491180419922 9.379975318908691
v 6.907293319702148 0.5690105557441711 7.668281078338623
v 6.662697792053223 0.0 11.181757926940918
v 6.904713153839111 0.5297145843505859 11.181757926940918
v 7.0487060546875 0.0 13.166378021240234
v 7.422396183013916 0.783179759979248 13.16637897491455
v 6.880626201629639 0.0 15.424365997314453
v 7.062457084655762 0.7699271440505981 15.473608016967773
v 7.13709831237793 2.809673309326172 15.419151306152344
v 7.308762073516846 2.608991861343384 13.128424644470215
v 7.02373743057251 2.91239070892334 11.181757926940918
v 7.120481967926025 1.1206097602844238 11.181755065917969
v 7.069491863250732 1.3597049713134766 9.379975318908691
v 6.978505611419678 2.559033155441284 9.379975318908691
v 7.116390228271484 1.4183886051177979 7.668281078338623
v 7.033393383026123 2.2388229370117188 7.668281078338623
v 6.596582889556885 3.694847822189331 13.128424644470215
v 6.448050498962402 3.8435559272766113 15.09980297088623
v 6.392784118652344 3.63861083984375 11.181757926940918
v 6.349428653717041 3.5134730339050293 9.379975318908691
v 7.154750823974609 2.919987440109253 9.379975318908691
v 7.206715106964111 2.9126107692718506 7.668281078338623
v 6.498500823974609 3.5085158348083496 7.668281078338623
v 6.177333831787109 4.49603271484375 9.379975318908691
v 6.317464351654053 4.57570219039917 7.668281078338623
v 6.192317962646484 4.515783309936523 11.181757926940918
v 6.26762056350708 4.687648773193359 13.065326690673828
v 6.740888595581055 4.243948459625244 13.128424644470215
v 6.202149391174316 4.660847187042236 14.993988037109375
v 6.566112995147705 4.201486587524414 15.137622833251953
v 7.278414249420166 1.2045812606811523 5.767157554626465
v 7.368007659912109 2.914207935333252 5.767157554626465
v 6.711938381195068 3.568185329437256 5.767157554626465
v 7.441415786743164 2.917402982711792 3.868964433670044
v 6.579531192779541 3.633655309677124 3.868964433670044
v 7.267999172210693 2.861057996749878 1.9232970476150513
v 6.467617034912109 3.6588783264160156 1.9232982397079468
v 6.071387767791748 3.8826732635498047 0.0
v 6.911087512969971 3.0172505378723145 7.629394360719743e-08
v 6.502825736999512 4.599395275115967 5.767157554626465
v 6.40470552444458 4.6250128746032715 3.868964433670044
v 6.729642391204834 4.03839635848999 3.868964433670044
v 6.546374320983887 4.1001811027526855 1.9232982397079468
v 6.196469783782959 4.678555011749268 1.9232982397079468
v 5.7205491065979 4.72083044052124 0.0
v 6.138922214508057 4.269798755645752 0.0
v 5.242800235748291 5.006418228149414 0.0
v 5.753486156463623 5.006418228149414 1.9232982397079468
v 6.027210712432861 5.006418228149414 3.868964433670044
v 6.052879333496094 5.006418228149414 5.767157554626465
v 5.845156192779541 5.006418228149414 7.668281078338623
v 5.65678596496582 5.006418228149414 9.379975318908691
v 5.592994213104248 5.006418228149414 11.181757926940918
v 5.760477066040039 5.006418228149414 13.038657188415527
v 5.657515525817871 5.006418228149414 14.776836395263672
v 4.802002906799316 5.006418228149414 15.930087089538574
v 5.214722633361816 4.634045124053955 16.48624610900879
v 3.562390089035034 4.562557697296143 17.192243576049805
v 3.6252734661102295 3.957953453063965 17.525962829589844
v 5.449246883392334 4.068441867828369 16.814796447753906
v 2.0601000785827637 4.550434589385986 17.217113494873047
v 2.2566540241241455 4.03839635848999 17.436115264892578
v 3.4403953552246094 5.006418228149414 16.550535202026367
v 2.0717101097106934 5.006418228149414 16.66650390625
v 1.61483633518219 4.559773921966553 17.08281898498535
v 1.8174145221710205 4.024610996246338 17.287134170532227
v 1.6324694156646729 5.006418228149414 16.571462631225586
v 0.457916259765625 5.006418228149414 15.976786613464355
v 0.457916259765625 4.674590587615967 16.36004638671875
v 0.7955639362335205 3.986755847930908 16.722076416015625
v 0.43829405307769775 4.696856498718262 15.445622444152832
v 0.5304675102233887 3.9210205078125 15.505133628845215
v 0.6978845000267029 4.65361213684082 14.847586631774902
v 0.876452624797821 3.886094570159912 14.904327392578125
v 0.9884082078933716 4.661821365356445 14.652045249938965
v 1.1722705364227295 3.873976945877075 14.695876121520996
v 3.0930395126342773 3.8930866718292236 14.700014114379883
v 3.026587963104248 4.574374675750732 14.677878379821777
v 3.52868390083313 4.584664344787598 14.415794372558594
v 3.557976007461548 3.899472236633301 14.47813606262207
v 3.5530383586883545 4.59337043762207 13.827488899230957
v 3.6421470642089844 3.860262632369995 13.922404289245605
v 3.451517343521118 4.5301337242126465 12.778803825378418
v 3.80265736579895 3.550568103790283 12.757742881774902
v 3.8037071228027344 3.5451512336730957 11.001965522766113
v 3.406102180480957 4.524508476257324 11.001965522766113
v 3.3655247688293457 4.531977653503418 9.379975318908691
v 3.72353196144104 3.5084638595581055 9.379975318908691
v 3.1846837997436523 4.509685039520264 7.668281078338623
v 3.5565996170043945 3.562002182006836 7.668281078338623
v 3.1551451683044434 4.610785007476807 5.767157554626465
v 3.1952953338623047 3.8989129066467285 5.76715612411499
v 3.300213575363159 4.661821365356445 3.868964433670044
v 3.6152915954589844 3.980823516845703 3.868964433670044
v 3.3879382610321045 4.652088642120361 1.9232982397079468
v 3.595351457595825 3.942355155944824 1.9232982397079468
v 3.4279186725616455 4.510509014129639 0.0
v 3.461867570877075 3.827697992324829 0.0
v 3.744047164916992 2.7219154834747314 12.752592086791992
v 3.7160680294036865 2.630195140838623 14.179404258728027
v 3.731260299682617 2.7762629985809326 11.11909008026123
v 3.8237249851226807 2.75433349609375 9.379975318908691
v 3.9635069370269775 2.7119760513305664 7.668281078338623
v 3.517728090286255 3.054506540298462 5.76715612411499
v 3.979377269744873 2.1927590370178223 5.767157554626465
v 4.02247428894043 2.7751519680023193 3.868964433670044
v 4.243902683258057 1.9426615238189697 3.868964433670044
v 3.9720335006713867 2.7098121643066406 1.9232982397079468
v 4.184610366821289 1.8971521854400635 1.9232982397079468
v 4.083716869354248 1.790472388267517 0.0
v 3.7566306591033936 2.6208388805389404 0.0
v 3.740058422088623 3.661630392074585 14.014266014099121
v 3.7062559127807617 2.614269733428955 14.695955276489258
v 3.681131601333618 3.614396572113037 14.665475845336914
v 3.303349494934082 2.659818649291992 14.886236190795898
v 3.346109628677368 3.5995845794677734 14.984835624694824
v 1.6050329208374023 2.719566583633423 14.827593803405762
v 1.5513317584991455 3.4161694049835205 15.043472290039062
v 1.3092138767242432 2.7303197383880615 15.056069374084473
v 1.2555127143859863 3.4168624877929688 15.214408874511719
v 1.1297863721847534 2.7613134384155273 15.714591979980469
v 1.0760852098464966 3.41886043548584 15.707090377807617
v 1.5156664848327637 2.819647789001465 16.954029083251953
v 1.4619653224945068 3.461845874786377 16.63439178466797
v 2.2501769065856934 2.853240966796875 17.667783737182617
v 2.1964757442474365 3.514634609222412 17.168394088745117
v 2.6894164085388184 2.8654744625091553 17.83954620361328
v 2.6357152462005615 3.51542329788208 17.274700164794922
v 3.738273859024048 2.8380355834960938 17.79558753967285
v 3.6252734661102295 3.719759702682495 17.36631965637207
v 5.692115306854248 2.9168879985809326 17.230371475219727
v 5.357426643371582 3.8466832637786865 16.73915672302246
v 5.715236663818359 0.7566744685173035 17.143728256225586
v 3.735880136489868 0.7260335087776184 17.791452407836914
v 3.738273859024048 2.1363284587860107 17.558549880981445
v 5.626920223236084 0.0 17.004127502441406
v 3.800004720687866 0.0 17.83033561706543
v 3.040210008621216 0.7363121509552002 17.79956817626953
v 3.00445294380188 0.0 17.63689613342285
v 3.033698558807373 2.0374646186828613 17.576961517333984
v 2.600423574447632 0.7720549702644348 17.627216339111328
v 2.565213680267334 0.0 17.477161407470703
v 2.5944578647613525 2.0350873470306396 17.441190719604492
v 1.8599486351013184 2.028559446334839 16.82627296447754
v 1.8644152879714966 0.8003457188606262 16.911840438842773
v 1.8307031393051147 0.0 16.79644012451172
v 1.474068522453308 2.017223358154297 15.758466720581055
v 1.4759314060211182 0.838346004486084 15.669590950012207
v 1.5853710174560547 2.0112006664276123 15.104555130004883
v 1.5858508348464966 0.7675504088401794 14.92299747467041
v 1.8811888694763184 2.009110927581787 14.90771770477295
v 1.8811888694763184 0.7989688515663147 14.694003105163574
v 3.454274892807007 1.8614963293075562 14.99651050567627
v 3.369760751724243 0.7742553353309631 14.795511245727539
v 1.8519445657730103 0.0 14.681840896606445
v 3.3236987590789795 -5.684341759025859e-16 14.875008583068848
v 1.5561254024505615 0.0 14.899742126464844
v 3.827765941619873 1.8506829738616943 14.875937461853027
v 3.684877872467041 0.76952064037323 14.661532402038574
v 3.8858213424682617 1.877360463142395 14.5068941116333
v 3.7664830684661865 0.7929643988609314 14.458019256591797
v 3.885667562484741 1.9967211484909058 12.879015922546387
v 3.756909132003784 0.8218824863433838 12.885457038879395
v 3.7575011253356934 0.0 14.511428833007812
v 3.5349462032318115 0.0 12.896087646484375
v 3.8262901306152344 2.117877960205078 11.155912399291992
v 3.6359593868255615 0.9844407439231873 11.227811813354492
v 3.87676739692688 2.249253273010254 9.379975318908691
v 3.8541064262390137 1.1143244504928589 9.379975318908691
v 3.9635069370269775 2.7119760513305664 7.668281078338623
v 3.7720091342926025 1.1263980865478516 7.668281078338623
v 3.463714599609375 0.0 11.155912399291992
v 3.998494863510132 0.7584048509597778 9.379975318908691
v 3.9748547077178955 -6.103515488575795e-07 9.379975318908691
v 3.8117454051971436 0.5767691135406494 7.665933609008789
v 3.738807201385498 -4.577636616431846e-07 7.668281078338623
v 3.979377269744873 2.1927590370178223 5.767157554626465
v 3.7784435749053955 0.94664466381073 5.766765117645264
v 4.243902683258057 1.9426615238189697 3.868964433670044
v 3.7803564071655273 0.7767356634140015 3.868964433670044
v 4.184610366821289 1.8971521854400635 1.9232982397079468
v 3.8072118759155273 0.845344603061676 1.923297643661499
v 3.6645054817199707 0.0 3.90381121635437
v 3.795583486557007 0.0 1.9232982397079468
v 3.742291212081909 0.0 0.0
v 3.826416015625 1.0047472715377808 0.0
v 4.083716869354248 1.790472388267517 0.0
v 3.7178173065185547 -3.0517577442878974e-07 5.754892349243164
v 6.83656120300293 2.347381591796875 7.629394360719743e-08
v 7.017082214355469 1.0833566188812256 0.0
v 7.236514568328857 0.829533040523529 1.923297643661499
v 7.030962944030762 2.2985448837280273 1.9232970476150513
v 7.157333850860596 0.0 2.0487091541290283
v 7.33488130569458 0.7363121509552002 3.868964433670044
v 7.276339054107666 0.0 3.8812904357910156
v 6.883615493774414 0.0 0.0
v 7.130393981933594 2.1782400608062744 3.868964433670044
v 7.074500560760498 0.622366189956665 5.767157554626465
v 7.121881008148193 -3.0517577442878974e-07 5.767157554626465
v 7.061816215515137 2.2186288833618164 5.767157554626465
v 6.740888595581055 4.243948459625244 13.128424644470215
v 6.596582889556885 3.694847822189331 13.128424644470215
v 6.448050498962402 3.8435559272766113 15.09980297088623
v 6.566112995147705 4.201486587524414 15.137622833251953
v 6.392784118652344 3.63861083984375 11.181757926940918
v 5.449246883392334 4.068441867828369 16.814796447753906
v 5.357426643371582 3.8466832637786865 16.73915672302246
v 3.6252734661102295 3.719759702682495 17.36631965637207
v 3.6252734661102295 3.957953453063965 17.525962829589844
v 2.6357152462005615 3.51542329788208 17.274700164794922
v 2.2566540241241455 4.03839635848999 17.436115264892578
v 1.8174145221710205 4.024610996246338 17.287134170532227
v 2.1964757442474365 3.514634609222412 17.168394088745117
v 0.7955639362335205 3.986755847930908 16.722076416015625
v 1.4619653224945068 3.461845874786377 16.63439178466797
v 0.5304675102233887 3.9210205078125 15.505133628845215
v 1.0760852098464966 3.41886043548584 15.707090377807617
v 0.876452624797821 3.886094570159912 14.904327392578125
v 1.2555127143859863 3.4168624877929688 15.214408874511719
v 1.1722705364227295 3.873976945877075 14.695876121520996
v 1.5513317584991455 3.4161694049835205 15.043472290039062
v 3.0930395126342773 3.8930866718292236 14.700014114379883
v 3.346109628677368 3.5995845794677734 14.984835624694824
v 3.557976007461548 3.899472236633301 14.47813606262207
v 3.681131601333618 3.614396572113037 14.665475845336914
v 3.6421470642089844 3.860262632369995 13.922404289245605
v 3.740058422088623 3.661630392074585 14.014266014099121
v 3.80265736579895 3.550568103790283 12.757742881774902
v 6.546374320983887 4.1001811027526855 1.9232982397079468
v 6.138922214508057 4.269798755645752 0.0
v 6.071387767791748 3.8826732635498047 0.0
v 6.467617034912109 3.6588783264160156 1.9232982397079468
v 6.579531192779541 3.633655309677124 3.868964433670044
v 6.729642391204834 4.03839635848999 3.868964433670044
v 6.711938381195068 3.568185329437256 5.767157554626465
v 7.033393383026123 2.2388229370117188 7.668281078338623
v 6.978505611419678 2.559033155441284 9.379975318908691
v 7.154750823974609 2.919987440109253 9.379975318908691
v 7.206715106964111 2.9126107692718506 7.668281078338623
v 7.02373743057251 2.91239070892334 11.181757926940918
v 7.061816215515137 2.2186288833618164 5.767157554626465
v 7.368007659912109 2.914207935333252 5.767157554626465
v 7.441415786743164 2.917402982711792 3.868964433670044
v 7.130393981933594 2.1782400608062744 3.868964433670044
v 7.030962944030762 2.2985448837280273 1.9232970476150513
v 7.267999172210693 2.861057996749878 1.9232970476150513
v 6.83656120300293 2.347381591796875 7.629394360719743e-08
v 6.911087512969971 3.0172505378723145 7.629394360719743e-08
v 6.907293319702148 0.5690105557441711 7.668281078338623
v 6.800983905792236 0.5460491180419922 9.379975318908691
v 7.069491863250732 1.3597049713134766 9.379975318908691
v 7.116390228271484 1.4183886051177979 7.668281078338623
v 7.120481967926025 1.1206097602844238 11.181755065917969
v 7.422396183013916 0.783179759979248 13.16637897491455
v 7.074500560760498 0.622366189956665 5.767157554626465
v 7.278414249420166 1.2045812606811523 5.767157554626465
v 7.33488130569458 0.7363121509552002 3.868964433670044
v 3.998494863510132 0.7584048509597778 9.379975318908691
v 3.8541064262390137 1.1143244504928589 9.379975318908691
v 3.6359593868255615 0.9844407439231873 11.227811813354492
v 3.7720091342926025 1.1263980865478516 7.668281078338623
v 3.8117454051971436 0.5767691135406494 7.665933609008789
v 3.7784435749053955 0.94664466381073 5.766765117645264
v 3.9843432903289795 3.669935941696167 1.9232982397079468
v 3.9720335006713867 2.7098121643066406 1.9232982397079468
v 3.7566306591033936 2.6208388805389404 0.0
v 3.7200841903686523 3.523787260055542 0.0
v 3.992584228515625 3.6242504119873047 3.868964433670044
v 4.02247428894043 2.7751519680023193 3.868964433670044
v 3.509531259536743 3.5803380012512207 5.76715612411499
v 3.517728090286255 3.054506540298462 5.76715612411499
v 3.5565996170043945 3.562002182006836 7.668281078338623
v 3.8237249851226807 2.75433349609375 9.379975318908691
v 3.87676739692688 2.249253273010254 9.379975318908691
v 3.9635069370269775 2.7119760513305664 7.668281078338623
v 3.731260299682617 2.7762629985809326 11.11909008026123
v 3.8262901306152344 2.117877960205078 11.155912399291992
v 3.744047164916992 2.7219154834747314 12.752592086791992
v 3.885667562484741 1.9967211484909058 12.879015922546387
v 3.8858213424682617 1.877360463142395 14.5068941116333
v 3.7160680294036865 2.630195140838623 14.179404258728027
v 3.7062559127807617 2.614269733428955 14.695955276489258
v 3.827765941619873 1.8506829738616943 14.875937461853027
v 3.454274892807007 1.8614963293075562 14.99651050567627
v 3.303349494934082 2.659818649291992 14.886236190795898
v 1.8811888694763184 2.009110927581787 14.90771770477295
v 1.6050329208374023 2.719566583633423 14.827593803405762
v 1.5853710174560547 2.0112006664276123 15.104555130004883
v 1.3092138767242432 2.7303197383880615 15.056069374084473
v 1.474068522453308 2.017223358154297 15.758466720581055
v 1.1297863721847534 2.7613134384155273 15.714591979980469
v 1.8599486351013184 2.028559446334839 16.82627296447754
v 1.5156664848327637 2.819647789001465 16.954029083251953
v 2.5944578647613525 2.0350873470306396 17.441190719604492
v 2.2501769065856934 2.853240966796875 17.667783737182617
v 3.033698558807373 2.0374646186828613 17.576961517333984
v 2.6894164085388184 2.8654744625091553 17.83954620361328
v 3.738273859024048 2.1363284587860107 17.558549880981445
v 3.738273859024048 2.8380355834960938 17.79558753967285
v 5.692115306854248 2.9168879985809326 17.230371475219727
v 3.595351457595825 3.942355155944824 1.9232982397079468
v 3.9843432903289795 3.669935941696167 1.9232982397079468
v 3.7200841903686523 3.523787260055542 0.0
v 3.461867570877075 3.827697992324829 0.0
v 3.992584228515625 3.6242504119873047 3.868964433670044
v 3.6152915954589844 3.980823516845703 3.868964433670044
v 3.509531259536743 3.5803380012512207 5.76715612411499
v 3.1952953338623047 3.8989129066467285 5.76715612411499
v 3.5565996170043945 3.562002182006836 7.668281078338623
v 3.0348961353302 5.006418228149414 1.9232982397079468
v 3.3879382610321045 4.652088642120361 1.9232982397079468
v 3.4279186725616455 4.510509014129639 0.0
v 3.233144521713257 5.006418228149414 0.0
v 3.300213575363159 4.661821365356445 3.868964433670044
v 2.941128969192505 5.006418228149414 3.868964433670044
v 3.1551451683044434 4.610785007476807 5.767157554626465
v 2.880070686340332 5.006417751312256 5.767157554626465
v 3.1846837997436523 4.509685039520264 7.668281078338623
v 2.919863224029541 5.006417751312256 7.668281078338623
v 3.3655247688293457 4.531977653503418 9.379975318908691
v 3.034705638885498 5.006417751312256 9.379975318908691
v 3.406102180480957 4.524508476257324 11.001965522766113
v 3.136133909225464 5.006418228149414 11.001965522766113
v 3.451517343521118 4.5301337242126465 12.778803825378418
v 3.29717755317688 5.006418228149414 12.66910171508789
v 3.5530383586883545 4.59337043762207 13.827488899230957
v 3.3742516040802 5.006418228149414 13.817924499511719
v 3.52868390083313 4.584664344787598 14.415794372558594
v 3.2711644172668457 5.006418228149414 14.239546775817871
v 3.026587963104248 4.574374675750732 14.677878379821777
v 2.9564366340637207 5.006418228149414 14.507624626159668
v 0.9873266220092773 5.006418228149414 14.569616317749023
v 0.9884082078933716 4.661821365356445 14.652045249938965
v 0.6915075778961182 5.006418228149414 14.730652809143066
v 0.43829405307769775 4.696856498718262 15.445622444152832
v 0.49419188499450684 5.006418228149414 15.171937942504883
v 3.6547534465789795 3.33786012163273e-08 14.74559497833252
v 5.242800235748291 5.006418228149414 0.0
v 3.233144521713257 5.006418228149414 0.0
v 3.4279186725616455 4.510509014129639 0.0
v 5.7205491065979 4.72083044052124 0.0
v 3.461867570877075 3.827697992324829 0.0
v 6.138922214508057 4.269798755645752 0.0
v 3.7200841903686523 3.523787260055542 0.0
v 6.071387767791748 3.8826732635498047 0.0
v 3.7566306591033936 2.6208388805389404 0.0
v 6.911087512969971 3.0172505378723145 7.629394360719743e-08
v 4.083716869354248 1.790472388267517 0.0
v 6.83656120300293 2.347381591796875 7.629394360719743e-08
v 3.826416015625 1.0047472715377808 0.0
v 7.017082214355469 1.0833566188812256 0.0
v 3.742291212081909 0.0 0.0
v 6.883615493774414 0.0 0.0
v 1.444822907447815 0.0 15.614364624023438
v 0.9873266220092773 5.006418228149414 14.569616317749023
v 2.0717101097106934 5.006418228149414 16.66650390625
v 1.6324694156646729 5.006418228149414 16.571462631225586
v 0.6915075778961182 5.006418228149414 14.730652809143066
v 3.4403953552246094 5.006418228149414 16.550535202026367
v 2.9564366340637207 5.006418228149414 14.507624626159668
v 3.2711644172668457 5.006418228149414 14.239546775817871
v 4.802002906799316 5.006418228149414 15.930087089538574
v 5.657515525817871 5.006418228149414 14.776836395263672
v 3.3742516040802 5.006418228149414 13.817924499511719
v 3.29717755317688 5.006418228149414 12.66910171508789
v 5.760477066040039 5.006418228149414 13.038657188415527
v 3.136133909225464 5.006418228149414 11.001965522766113
v 5.592994213104248 5.006418228149414 11.181757926940918
v 3.034705638885498 5.006417751312256 9.379975318908691
v 5.65678596496582 5.006418228149414 9.379975318908691
v 2.919863224029541 5.006417751312256 7.668281078338623
v 5.845156192779541 5.006418228149414 7.668281078338623
v 2.880070686340332 5.006417751312256 5.767157554626465
v 6.052879333496094 5.006418228149414 5.767157554626465
v 2.941128969192505 5.006418228149414 3.868964433670044
v 6.027210712432861 5.006418228149414 3.868964433670044
v 3.0348961353302 5.006418228149414 1.9232982397079468
v 5.753486156463623 5.006418228149414 1.9232982397079468
v 3.233144521713257 5.006418228149414 0.0
v 5.242800235748291 5.006418228149414 0.0
v 0.457916259765625 5.006418228149414 15.976786613464355
v 0.49419188499450684 5.006418228149414 15.171937942504883
vn 0.9953533411026001 0.04354245960712433 0.08588261902332306
vn 0.9922235608100891 -0.11781827360391617 0.04014093428850174
vn 0.9923487901687622 -0.11663229018449783 0.04050704464316368
vn 0.995342493057251 0.04372028633952141 0.08591840416193008
vn 0.9321550726890564 -0.34700724482536316 -0.1033102348446846
vn 0.9285180568695068 -0.3543842136859894 -0.11075259745121002
vn 0.9258270859718323 -0.37749090790748596 -0.018570853397250175
vn 0.9962487816810608 -0.08637602627277374 0.005234224256128073
vn 0.8883599638938904 -0.28915345668792725 0.3566606938838959
vn 0.9182589054107666 -0.08047570288181305 0.3877168595790863
vn 0.9104518294334412 0.20580752193927765 0.35877683758735657
vn 0.9743998050689697 0.22469234466552734 -0.007636239752173424
vn 0.9389262795448303 0.3362249433994293 -0.07328144460916519
vn 0.99359530210495 0.05864550918340683 -0.09658704698085785
vn 0.9974187612533569 0.0711522027850151 -0.009653991088271141
vn 0.9974537491798401 0.07041631639003754 -0.01129185315221548
vn 0.991668701171875 0.12488015741109848 0.031592268496751785
vn 0.9920977354049683 0.1216086745262146 0.030878311023116112
vn 0.8203009963035583 0.5716612935066223 -0.017600398510694504
vn 0.784468948841095 0.5704355239868164 0.2433345764875412
vn 0.8554587364196777 0.5140572786331177 -0.06273297220468521
vn 0.8680036067962646 0.49595439434051514 0.02447446435689926
vn 0.6478291749954224 0.7616774439811707 0.012839384377002716
vn 0.6478527188301086 0.7596095204353333 0.05727323144674301
vn 0.8727248907089233 0.4812077581882477 0.08240383863449097
vn 0.8992236256599426 0.43579235672950745 0.03849669173359871
vn 0.9068915247917175 0.41063326597213745 0.09448840469121933
vn 0.8358481526374817 0.5439242720603943 -0.07419057935476303
vn 0.7128815054893494 0.6990668177604675 -0.055727627128362656
vn 0.822196900844574 0.5643011331558228 -0.0745413526892662
vn 0.6158926486968994 0.7550315260887146 0.22495266795158386
vn 0.7048203945159912 0.6541783213615417 0.274370014667511
vn 0.9858977794647217 0.16603915393352509 0.020893076434731483
vn 0.6721044778823853 0.7394899129867554 0.037818022072315216
vn 0.8487818837165833 0.5256643295288086 0.05697668343782425
vn 0.671555757522583 0.7404372096061707 -0.027667192742228508
vn 0.6716083884239197 0.7403362989425659 -0.029055798426270485
vn 0.6904091835021973 0.7207480072975159 -0.06210813671350479
vn 0.6934207081794739 0.7177494168281555 -0.06327340006828308
vn 0.7103062868118286 0.7004151940345764 -0.06988289207220078
vn 0.7103062868118286 0.7004150748252869 -0.06988289207220078
vn 0.8955549001693726 0.4413607716560364 0.05640905722975731
vn 0.8312432169914246 0.5550124049186707 -0.031559091061353683
vn 0.919992983341217 0.3915666937828064 -0.01698603667318821
vn 0.8335946202278137 0.5419672131538391 -0.10673066228628159
vn 0.740566074848175 0.6632720232009888 -0.10785212367773056
vn 0.674576997756958 0.7243698239326477 -0.14224739372730255
vn 0.7924149036407471 0.591403603553772 -0.1494002789258957
vn 0.549623429775238 0.8249332904815674 -0.13190549612045288
vn 0.5969622135162354 0.7954118251800537 -0.10467136651277542
vn 0.6710845232009888 0.7400391697883606 -0.04458325356245041
vn 0.6802475452423096 0.7323155999183655 0.03125714510679245
vn 0.6784511804580688 0.7304421067237854 0.07847543060779572
vn 0.675588846206665 0.7362045645713806 0.03978178650140762
vn 0.6309292912483215 0.7751114964485168 -0.033619560301303864
vn 0.5632826685905457 0.8258151412010193 -0.02723729982972145
vn 0.4752047657966614 0.8648300170898438 0.16201695799827576
vn 0.3026827871799469 0.8650975823402405 0.3999866843223572
vn 0.41654279828071594 0.7180953621864319 0.5575224757194519
vn 0.15266086161136627 0.6734746098518372 0.7232748866081238
vn 0.1763583868741989 0.4991450011730194 0.8483819961547852
vn 0.4739232361316681 0.5757105350494385 0.6662989258766174
vn -0.05234924703836441 0.6376346349716187 0.768558144569397
vn -0.05048003047704697 0.4189290404319763 0.9066147208213806
vn 0.12152336537837982 0.8313193917274475 0.5423468351364136
vn -0.016589131206274033 0.7913516759872437 0.6111360788345337
vn -0.39809709787368774 0.4384758174419403 0.8057652115821838
vn -0.4259694814682007 0.2064901888370514 0.8808585405349731
vn -0.2767893373966217 0.7295898795127869 0.6253688335418701
vn -0.7281494140625 0.5379980206489563 0.42468422651290894
vn -0.8062868714332581 0.24921594560146332 0.5364633202552795
vn -0.7410193085670471 0.03036283142864704 0.6707969307899475
vn -0.968121349811554 -0.230368971824646 -0.09834149479866028
vn -0.968595564365387 -0.23088179528713226 -0.09228301048278809
vn -0.8007326126098633 -0.19091804325580597 -0.567782998085022
vn -0.7794225811958313 -0.19108645617961884 -0.5966459512710571
vn -0.11145909130573273 -0.07417019456624985 -0.990997314453125
vn -0.0683286190032959 -0.06313655525445938 -0.9956631064414978
vn -0.09407243877649307 -0.0540594607591629 -0.9940965175628662
vn -0.0779314711689949 -0.05243247002363205 -0.995578944683075
vn -0.8476917743682861 -0.10263346880674362 -0.5204662084579468
vn -0.8337113261222839 -0.10255125910043716 -0.5425944924354553
vn -0.9781010150909424 -0.20774899423122406 -0.012604075483977795
vn -0.9785773754119873 -0.20538491010665894 -0.014261112548410892
vn -0.9476910829544067 -0.3188818395137787 0.013995704241096973
vn -0.9909560084342957 -0.13418683409690857 -0.00035948047298006713
vn -0.980268120765686 -0.19710606336593628 0.014952616766095161
vn -0.9345260858535767 -0.3550090193748474 0.02509329654276371
vn -0.9347133040428162 -0.34927865862846375 0.06569194048643112
vn -0.9616081714630127 -0.2718847095966339 0.037261541932821274
vn -0.9519889950752258 -0.2949039041996002 0.08214989304542542
vn -0.9372614622116089 -0.3398859202861786 0.07757975906133652
vn -0.9692710041999817 -0.24372480809688568 -0.03334561735391617
vn -0.9696115851402283 -0.24352289736270905 -0.02345436066389084
vn -0.9505430459976196 -0.29986080527305603 -0.08094038814306259
vn -0.9501945376396179 -0.30154213309288025 -0.07875803112983704
vn -0.963385283946991 -0.26792362332344055 0.010289034806191921
vn -0.964557945728302 -0.2636242210865021 0.011412832885980606
vn -0.9846952557563782 -0.17067168653011322 0.03530516102910042
vn -0.9846952557563782 -0.1706717163324356 0.03530516475439072
vn -0.9979683756828308 0.0620572604238987 -0.014422308653593063
vn -0.9987789988517761 0.02322581224143505 -0.043601490557193756
vn -0.999261200428009 0.03841294348239899 0.0011726298835128546
vn -0.9850296378135681 -0.172372967004776 0.002016103360801935
vn -0.9162940382957458 -0.39252665638923645 0.07954822480678558
vn -0.9071549773216248 -0.42037174105644226 0.018908139318227768
vn -0.9122647047042847 -0.4091760516166687 -0.018655747175216675
vn -0.9455970525741577 -0.3200434744358063 -0.05846763402223587
vn -0.9486719369888306 -0.31265291571617126 -0.047640178352594376
vn -0.9570520520210266 -0.28280141949653625 0.06383322179317474
vn -0.9567363858222961 -0.2836611568927765 0.06474415957927704
vn -0.9458948373794556 -0.310685396194458 0.09358137845993042
vn -0.9458948373794556 -0.310685396194458 0.09358137100934982
vn -0.9987621307373047 0.028170166537165642 -0.040995825082063675
vn -0.9084826111793518 0.01165122352540493 -0.4177602231502533
vn -0.9133250117301941 0.0110985292121768 -0.4070799946784973
vn -0.1461557298898697 0.15683408081531525 -0.9767505526542664
vn -0.14997598528862 0.1559063047170639 -0.9763197898864746
vn -0.0719052255153656 0.19068989157676697 -0.9790133237838745
vn -0.0965968668460846 0.19124005734920502 -0.976778507232666
vn -0.816820502281189 0.06364214420318604 -0.5733706951141357
vn -0.870966911315918 0.02986997924745083 -0.4904330372810364
vn -0.9933164119720459 -0.0117390351369977 0.11482377350330353
vn -0.9923405647277832 -0.011077857576310635 0.12303441017866135
vn -0.7782109379768372 0.24627362191677094 0.5776998400688171
vn -0.8566647171974182 0.1556805521249771 0.49182242155075073
vn -0.4506092965602875 0.4965014159679413 0.7419148087501526
vn -0.5200170874595642 0.45200496912002563 0.7247578501701355
vn -0.11136026680469513 0.5548130869865417 0.8244885802268982
vn -0.12389028817415237 0.5592222809791565 0.8197082281112671
vn 0.15057246387004852 0.507757306098938 0.8482396006584167
vn 0.15264451503753662 0.507342517375946 0.8481174111366272
vn 0.5875367522239685 0.21408024430274963 0.7803654074668884
vn 0.5148717164993286 0.5467488765716553 0.6602823734283447
vn 0.5809692144393921 -0.03232404217123985 0.813283383846283
vn 0.1989881843328476 0.02336249314248562 0.9797233939170837
vn 0.19721506536006927 0.06156262010335922 0.9784253239631653
vn 0.5931083559989929 -0.14854809641838074 0.7913001775741577
vn 0.2464853823184967 -0.07495579123497009 0.96624356508255
vn -0.1520644724369049 0.05579167976975441 0.986794650554657
vn -0.22426526248455048 -0.12474256008863449 0.9665114283561707
vn -0.11643461138010025 0.16101311147212982 0.9800601005554199
vn -0.5683743953704834 0.018888060003519058 0.822553277015686
vn -0.6044766306877136 -0.11614034324884415 0.7881113290786743
vn -0.5711838006973267 0.10116337239742279 0.8145644068717957
vn -0.8523933291435242 0.033942241221666336 0.521798312664032
vn -0.8469843864440918 0.005671089049428701 0.5315874814987183
vn -0.8752203583717346 -0.03330749273300171 0.4825764298439026
vn -0.9873349666595459 0.0038761042524129152 0.15860247611999512
vn -0.9897934198379517 0.01080149132758379 0.14209981262683868
vn -0.9215512275695801 0.05546007305383682 -0.38427528738975525
vn -0.9083247780799866 0.05648043379187584 -0.414434552192688
vn -0.07681749761104584 0.17156894505023956 -0.9821726679801941
vn -0.050660308450460434 0.09228776395320892 -0.9944427609443665
vn -0.003622074844315648 0.1837010383605957 -0.9829755425453186
vn 0.0003232668968848884 0.09291733056306839 -0.9956737160682678
vn -0.04728485271334648 -0.03063790313899517 -0.9984114170074463
vn 0.015987098217010498 -0.05372895300388336 -0.9984276294708252
vn -0.919858455657959 0.046451736241579056 -0.38949015736579895
vn -0.686452329158783 0.20563644170761108 -0.6974931955337524
vn -0.6910185217857361 0.10349705815315247 -0.7153891324996948
vn -0.9930960536003113 0.11447202414274216 -0.025621147826313972
vn -0.9926631450653076 0.12071739137172699 -0.00687418831512332
vn -0.9913703203201294 0.125255286693573 0.038676366209983826
vn -0.9874340891838074 0.14968480169773102 0.05067940801382065
vn -0.9920768737792969 0.12508684396743774 0.011693860404193401
vn -0.9811035394668579 0.18082104623317719 0.06884410977363586
vn -0.9935941100120544 0.11269112676382065 -0.008452164009213448
vn -0.9897157549858093 0.13895241916179657 -0.033983513712882996
vn -0.9962228536605835 0.08385036885738373 -0.022562868893146515
vn -0.9960355162620544 0.08464603126049042 -0.027355890721082687
vn -0.993834376335144 0.11018725484609604 -0.012326374650001526
vn -0.9937406182289124 0.11096814274787903 -0.012865794822573662
vn -0.9817306995391846 0.16417232155799866 -0.09618862718343735
vn -0.9891937375068665 0.10216034948825836 -0.10516200214624405
vn -0.9905507564544678 0.10064823925495148 -0.09316220879554749
vn -0.9946871995925903 0.08066871762275696 0.06395271420478821
vn -0.9946394562721252 0.08052174001932144 0.06487420201301575
vn -0.9800376892089844 0.19010183215141296 -0.05820107460021973
vn -0.9859105348587036 0.16344326734542847 -0.035592347383499146
vn -0.950264036655426 0.3080189824104309 -0.04607095569372177
vn -0.9755551815032959 0.2174786478281021 -0.03154280409216881
vn -0.9394004344940186 0.3424382209777832 0.016217762604355812
vn -0.9759191870689392 0.21810242533683777 0.003611103631556034
vn -0.9958236217498779 0.09022770076990128 -0.01393857691437006
vn -0.997877836227417 0.06389836221933365 -0.012519876472651958
vn -0.9986030459403992 0.05168377608060837 0.010991280898451805
vn -0.9793070554733276 0.20153620839118958 0.018466219305992126
vn -0.9449188709259033 0.32638320326805115 0.024540580809116364
vn -0.9953534603118896 0.0950479656457901 0.015402888879179955
vn 0.9856827855110168 0.1392390877008438 -0.09508855640888214
vn 0.9931409955024719 0.04201865196228027 -0.10911212861537933
vn 0.995795488357544 0.041053079068660736 -0.08189079910516739
vn 0.9878465533256531 0.13934652507305145 -0.06886113435029984
vn 0.989723801612854 -0.10588454455137253 -0.09610002487897873
vn 0.9970452189445496 0.07643724977970123 -0.007634439971297979
vn 0.9984166622161865 -0.05263905972242355 0.019833121448755264
vn 0.9845035076141357 -0.11795124411582947 -0.12976998090744019
vn 0.9880947470664978 0.15263722836971283 -0.019251536577939987
vn 0.9945090413093567 0.028157008811831474 0.1007915586233139
vn 0.9945052266120911 0.028844568878412247 0.10063514858484268
vn 0.9859391450881958 0.16555491089820862 0.02270841971039772
vn 0.9618000984191895 -0.2723642587661743 0.02753695286810398
vn 0.9625239372253418 -0.27071672677993774 0.01612832024693489
vn 0.9100260138511658 -0.32741010189056396 0.25427404046058655
vn 0.9112746119499207 -0.3265485167503357 0.2508877217769623
vn 0.9629222750663757 -0.25305867195129395 -0.09349901974201202
vn 0.6260883212089539 -0.43547895550727844 0.6468163728713989
vn 0.5875982642173767 -0.44537410140037537 0.6755518317222595
vn 0.14085602760314941 -0.45318663120269775 0.8802167177200317
vn 0.13472431898117065 -0.45200514793395996 0.8817826509475708
vn -0.09238429367542267 -0.4122249484062195 0.906386137008667
vn -0.15473608672618866 -0.4159357249736786 0.8961329460144043
vn -0.3893454670906067 -0.5410359501838684 0.7454463243484497
vn -0.35220450162887573 -0.5100852251052856 0.7847070693969727
vn -0.5927049517631531 -0.7035031318664551 0.39215317368507385
vn -0.5406597256660461 -0.666181743144989 0.5137011408805847
vn -0.6535700559616089 -0.7555897235870361 0.04393504932522774
vn -0.6526389718055725 -0.7516948580741882 0.09495896846055984
vn -0.5520793795585632 -0.74288010597229 -0.3785993754863739
vn -0.5466004014015198 -0.7430047988891602 -0.3862277567386627
vn -0.10339097678661346 -0.6752117276191711 -0.730341911315918
vn -0.0343342199921608 -0.6533907055854797 -0.7562418580055237
vn -0.02522205002605915 -0.6499847769737244 -0.7595285773277283
vn -0.06846856325864792 -0.6641998291015625 -0.7444129586219788
vn -0.6738210916519165 -0.6378549933433533 -0.37296923995018005
vn -0.5745977759361267 -0.6789430975914001 -0.4570271074771881
vn -0.8893647789955139 -0.4540542960166931 -0.05352459102869034
vn -0.8864901661872864 -0.45732301473617554 -0.07064647227525711
vn -0.8959495425224304 -0.44412317872047424 -0.005379943642765284
vn 0.965008556842804 -0.21556934714317322 -0.1492929756641388
vn 0.9610455632209778 -0.16970957815647125 -0.21815161406993866
vn 0.9610455632209778 -0.16970956325531006 -0.21815159916877747
vn 0.9650315046310425 -0.21763966977596283 -0.14610648155212402
vn 0.9542341232299805 -0.2886143624782562 -0.07835119962692261
vn 0.9551040530204773 -0.2857084572315216 -0.07840236276388168
vn 0.9347966313362122 -0.3467000722885132 -0.07716406136751175
vn 0.9438437819480896 -0.3261215388774872 0.0529496893286705
vn 0.9354645609855652 -0.3481239676475525 0.06095685437321663
vn 0.9338459968566895 -0.3524208962917328 0.061083078384399414
vn 0.9439180493354797 -0.32586100697517395 0.05323055014014244
vn 0.8967965245246887 -0.43788251280784607 0.06336251646280289
vn 0.9304066896438599 -0.36396828293800354 0.04325031489133835
vn 0.9302342534065247 -0.36441725492477417 0.04317781329154968
vn 0.9199655055999756 -0.3917660117149353 -0.013521404936909676
vn 0.9199691414833069 -0.3917492628097534 -0.013759278692305088
vn 0.9411011934280396 -0.3202306926250458 -0.108539879322052
vn 0.9408700466156006 -0.32106417417526245 -0.10808074474334717
vn 0.9584855437278748 -0.24231818318367004 -0.15029098093509674
vn 0.9584855437278748 -0.24231818318367004 -0.15029098093509674
vn 0.9590088725090027 -0.27601489424705505 0.0641685426235199
vn 0.9538700580596924 -0.3000006079673767 -0.011472724378108978
vn 0.9543556571006775 -0.2985501289367676 -0.008548322133719921
vn 0.9589926600456238 -0.27601543068885803 0.06440947949886322
vn 0.9386655688285828 -0.3291364014148712 -0.10284095257520676
vn 0.9208764433860779 -0.33626508712768555 -0.19726212322711945
vn 0.9518340826034546 -0.29037851095199585 0.0984487310051918
vn 0.9521629810333252 -0.28939083218574524 0.09817636013031006
vn 0.9381688833236694 -0.32858067750930786 0.10896717756986618
vn -0.9681629538536072 -0.24904030561447144 0.02528749220073223
vn -0.9670411348342896 -0.25388914346694946 0.019281817600131035
vn -0.9182212948799133 -0.3725009858608246 -0.13458383083343506
vn -0.9870636463165283 -0.15066537261009216 0.054819073528051376
vn -0.987059473991394 -0.15068751573562622 0.054833605885505676
vn -0.9973898530006409 -0.0721222311258316 0.0034429142251610756
vn -0.9975067973136902 -0.011320706456899643 0.06965706497430801
vn -0.9973374009132385 -0.011389905586838722 0.07202955335378647
vn -0.9921349287033081 -0.01290702074766159 0.12450586259365082
vn -0.9921349287033081 -0.012907019816339016 0.12450586259365082
vn -0.9949122071266174 -0.017182152718305588 -0.0992697924375534
vn -0.9955317974090576 -0.0167717095464468 -0.09292439371347427
vn -0.9837105870246887 -0.02399340271949768 -0.17815110087394714
vn -0.9813257455825806 -0.024494346231222153 -0.1907871961593628
vn -0.9995760321617126 -0.01558289397507906 0.02459743432700634
vn -0.9912047982215881 -0.12073495239019394 -0.054185159504413605
vn -0.9911670088768005 -0.12161049246788025 -0.05290405824780464
vn -0.9914703965187073 -0.10412177443504333 -0.07838984578847885
vn -0.9888880848884583 -0.14787699282169342 -0.015256957150995731
vn -0.9885756373405457 -0.15025964379310608 -0.011845582164824009
vn -0.9824312329292297 -0.1866040825843811 -0.002779230009764433
vn -0.9810982942581177 -0.19334162771701813 -0.008077074773609638
vn -0.9758009910583496 -0.21391329169273376 -0.04531381279230118
vn -0.9764242172241211 -0.21340087056159973 -0.032491669058799744
vn -0.7950024008750916 -0.2586061358451843 -0.5487202405929565
vn -0.7624207139015198 -0.2594865560531616 -0.5927742719650269
vn -0.0752733126282692 -0.14919859170913696 -0.9859380125999451
vn -0.034010231494903564 -0.13676486909389496 -0.9900195598602295
vn -0.038927651941776276 -0.13975366950035095 -0.9894208908081055
vn -0.12250817567110062 -0.1662524789571762 -0.9784436225891113
vn -0.8203720450401306 -0.3749450147151947 -0.43174752593040466
vn -0.8453013300895691 -0.38189008831977844 -0.3736649751663208
vn -0.8993986248970032 -0.41150063276290894 0.1474766880273819
vn -0.9013844132423401 -0.4116736352443695 0.13427959382534027
vn -0.7577850222587585 -0.4178119897842407 0.5011935830116272
vn -0.7690578699111938 -0.41743576526641846 0.4840426445007324
vn -0.4974015951156616 -0.40636029839515686 0.7664613127708435
vn -0.5273450613021851 -0.40793412923812866 0.7453166246414185
vn -0.05676478147506714 -0.3301422894001007 0.9422228336334229
vn -0.12033437192440033 -0.34647974371910095 0.9303072094917297
vn 0.14874644577503204 -0.3058489263057709 0.9403886198997498
vn 0.1621113121509552 -0.3062766194343567 0.938037633895874
vn 0.27585020661354065 -0.30761730670928955 0.9106472134590149
vn -0.6477916240692139 -0.75965815782547 0.057319555431604385
vn -0.647350549697876 -0.7601776719093323 0.05538129061460495
vn -0.6603395342826843 -0.7415494918823242 0.118558369576931
vn -0.6603396534919739 -0.7415494322776794 0.118558369576931
vn -0.6622986793518066 -0.7442914843559265 -0.08596854656934738
vn -0.6646658778190613 -0.7411298155784607 -0.094582200050354
vn -0.6967709064483643 -0.7056607604026794 -0.12865912914276123
vn -0.6966719031333923 -0.705644965171814 -0.1292802095413208
vn -0.7118969559669495 -0.7022000551223755 0.010852715000510216
vn -0.7725901007652283 -0.6341150403022766 -0.03166435658931732
vn -0.77727210521698 -0.6283652782440186 -0.0317058190703392
vn -0.8401896357536316 -0.5413411259651184 -0.032109953463077545
vn -0.8401897549629211 -0.5413411855697632 -0.032109957188367844
vn -0.7286490201950073 -0.6837189197540283 -0.03998785465955734
vn -0.7298631072044373 -0.6823994517326355 -0.04038378968834877
vn -0.8121521472930908 -0.5829923748970032 -0.022996898740530014
vn -0.8117851614952087 -0.5834954380989075 -0.023193489760160446
vn -0.8532987236976624 -0.5198707580566406 0.04019813984632492
vn -0.8534199595451355 -0.5197930335998535 0.03859461843967438
vn -0.8482888340950012 -0.5265063047409058 0.05654388293623924
vn -0.8483718037605286 -0.5262722373008728 0.057470500469207764
vn -0.8832772970199585 -0.4666084945201874 0.04580134525895119
vn -0.8821290731430054 -0.468807578086853 0.04547441005706787
vn -0.925078809261322 -0.3735206723213196 0.06864000856876373
vn -0.9221823811531067 -0.38131454586982727 0.06464491039514542
vn -0.9218377470970154 -0.3869338035583496 0.022300811484456062
vn -0.9218191504478455 -0.3869820833206177 0.02223452366888523
vn -0.7191871404647827 -0.5172035098075867 -0.4639723598957062
vn -0.7279766798019409 -0.5171641707420349 -0.4501011073589325
vn -0.1298827826976776 -0.36155617237091064 -0.9232592582702637
vn -0.1206037625670433 -0.35761749744415283 -0.9260477423667908
vn -0.07607968151569366 -0.30653947591781616 -0.9488126039505005
vn -0.08381227403879166 -0.305935800075531 -0.9483557939529419
vn -0.7561284899711609 -0.20903511345386505 -0.6201404333114624
vn -0.9951358437538147 0.025023534893989563 -0.09528061002492905
vn -0.9601883888244629 -0.08257975429296494 -0.2668687701225281
vn -0.6265624165534973 -0.057680558413267136 -0.7772337794303894
vn -0.0 0.0 -1.0
vn -0.0 0.0 -1.0
vn -0.0 0.0 -1.0
vn -0.0 0.0 -1.0
vn -0.0 0.0 -1.0
vn -0.0 0.0 -1.0
vn -0.0 0.0 -1.0
vn -0.0 0.0 -1.0
vn -0.0 0.0 -1.0
vn -0.0 0.0 -1.0
vn -0.0 0.0 -1.0
vn -0.0 0.0 -1.0
vn -0.0 0.0 -1.0
vn -0.0 0.0 -1.0
vn -0.0 0.0 -1.0
vn -0.0 0.0 -1.0
vn -0.9908148646354675 0.02135799266397953 0.1335282027721405
vn -0.0 1.0 -1.1781112618791667e-07
vn -0.0 1.0 0.0
vn -0.0 1.0 -3.9723093436805357e-07
vn -0.0 1.0 -3.2469978350491147e-07
vn -0.0 1.0 0.0
vn -0.0 1.0 0.0
vn -0.0 1.0 -1.3357160355553788e-07
vn -0.0 1.0 -1.3906102935834497e-07
vn -0.0 1.0 0.0
vn -0.0 1.0 0.0
vn -0.0 1.0 0.0
vn -0.0 1.0 0.0
vn -0.0 1.0 0.0
vn -0.0 1.0 0.0
vn -1.7150092901374592e-07 1.0 -2.608052227515145e-07
vn -1.717090896136142e-07 1.0 -2.610980800454854e-07
vn -2.0884699836187792e-07 1.0 0.0
vn -2.0844611015036207e-07 1.0 0.0
vn -1.4840581741282222e-07 1.0 2.6626580051924975e-07
vn -1.465997598870672e-07 1.0 2.661511473434075e-07
vn -0.0 1.0 1.3822121047724067e-07
vn -0.0 1.0 1.4151925142869004e-07
vn -0.0 1.0 -1.4502221290513262e-07
vn -0.0 1.0 -1.3115369768001983e-07
vn -0.0 1.0 -3.436397264522384e-07
vn -0.0 1.0 -3.436397264522384e-07
vn -2.1788558512980671e-07 1.0 0.0
vn -2.1788561355151614e-07 1.0 0.0
vt 3.8700015544891357 0.9076634049415588
vt 3.4732346534729004 0.9076634049415588
vt 3.4745285511016846 0.780106708407402
vt 3.8693783283233643 0.7735162973403931
vt 3.0688748359680176 0.9076634049415588
vt 3.064999580383301 0.7774424701929092
vt 2.6175174713134766 0.9076634049415588
vt 2.6144752502441406 0.7152852118015289
vt 2.1063811779022217 0.9076634049415588
vt 2.110077142715454 0.7328415215015411
vt 2.1194050312042236 0.30241113901138306
vt 2.6095638275146484 0.3141712546348572
vt 3.055673360824585 0.21136319637298584
vt 3.059882164001465 0.6331598460674286
vt 3.4752390384674072 0.5797045230865479
vt 3.4757370948791504 0.2980799078941345
vt 3.8732001781463623 0.5668726563453674
vt 3.873206377029419 0.37063008546829224
vt 2.5891098976135254 0.021157264709472656
vt 2.122983694076538 0.01368623971939087
vt 3.048312187194824 -0.004382729530334473
vt 3.467458963394165 -0.0028399229049682617
vt 3.4775514602661133 0.20475828647613525
vt 3.874941825866699 0.20359349250793457
vt 3.863222599029541 -0.0012822151184082031
vt 3.460888147354126 -0.23893558979034424
vt 3.8619935512542725 -0.25542449951171875
vt 3.0376410484313965 -0.23202121257781982
vt 2.586911201477051 -0.25765490531921387
vt 2.5776031017303467 -0.10792887210845947
vt 2.115532159805298 -0.2187199592590332
vt 2.1194162368774414 -0.07480204105377197
vt 4.312290668487549 0.6228746473789215
vt 4.321043968200684 0.2058643102645874
vt 4.317781448364258 0.002537071704864502
vt 4.749536037445068 0.23098021745681763
vt 4.764469146728516 -0.01951766014099121
vt 5.184524059295654 0.25545597076416016
vt 5.216416358947754 -0.0018930435180664062
vt 5.67958402633667 -0.01344156265258789
vt 5.624730110168457 0.2443552017211914
vt 4.316079616546631 -0.25751757621765137
vt 4.770540714263916 -0.27366912364959717
vt 4.764323711395264 -0.11769616603851318
vt 5.219391345977783 -0.10843908786773682
vt 5.238868713378906 -0.26363182067871094
vt 5.722236156463623 -0.2585846185684204
vt 5.687713146209717 -0.10757768154144287
vt 5.75527286529541 -0.40227746963500977
vt 5.260497570037842 -0.40227746963500977
vt 4.777621269226074 -0.40227746963500977
vt 4.311428070068359 -0.40227746963500977
vt 3.8507838249206543 -0.40227746963500977
vt 3.4525136947631836 -0.40227746963500977
vt 3.0401148796081543 -0.40227746963500977
vt 2.5923960208892822 -0.40227746963500977
vt 2.1161653995513916 -0.40227746963500977
vt 1.68338942527771 -0.40227746963500977
vt 1.6735588312149048 -0.19433879852294922
vt 1.2370707988739014 -0.20440292358398438
vt 1.2198669910430908 -0.04226958751678467
vt 1.6645365953445435 -0.03238677978515625
vt 0.8831526041030884 -0.23780381679534912
vt 0.9184851050376892 -0.1161874532699585
vt 1.255237102508545 -0.40227746963500977
vt 0.8838480114936829 -0.40227746963500977
vt 0.7839106321334839 -0.2555190324783325
vt 0.8221744298934937 -0.13989734649658203
vt 0.749547004699707 -0.40227746963500977
vt 0.5066434144973755 -0.40227746963500977
vt 0.5591265559196472 -0.3188880681991577
vt 0.609215259552002 -0.1460338830947876
vt 0.35989242792129517 -0.3387376070022583
vt 0.34901607036590576 -0.16321051120758057
vt 0.23724131286144257 -0.3326963186264038
vt 0.22398880124092102 -0.17213308811187744
vt 0.1696460098028183 -0.33039188385009766
vt 0.15672460198402405 -0.1596693992614746
vt -0.29598382115364075 -0.09130144119262695
vt -0.306694895029068 -0.2707512378692627
vt -0.44976404309272766 -0.2544020414352417
vt -0.4385537803173065 -0.07338297367095947
vt -0.6022664904594421 -0.2691274881362915
vt -0.5919988751411438 -0.07189881801605225
vt -0.8899117112159729 -0.2646975517272949
vt -0.8979933857917786 0.004076123237609863
vt -1.3535898923873901 -0.0002764463424682617
vt -1.3557679653167725 -0.25624358654022217
vt -1.769069790840149 -0.2507610321044922
vt -1.768277645111084 0.009930312633514404
vt -2.202460765838623 -0.259053111076355
vt -2.2021195888519287 -0.007190346717834473
vt -2.671234130859375 -0.2846817970275879
vt -2.6696622371673584 -0.11233198642730713
vt -3.1273748874664307 -0.28550517559051514
vt -3.133092164993286 -0.1035538911819458
vt -3.5847673416137695 -0.2901451587677002
vt -3.592963218688965 -0.113616943359375
vt -4.036938667297363 -0.2812994718551636
vt -4.040238380432129 -0.11385095119476318
vt -0.9061586856842041 0.21058279275894165
vt -0.5491731762886047 0.24744313955307007
vt -1.3230748176574707 0.19568514823913574
vt -1.768120527267456 0.2049350142478943
vt -2.200472831726074 0.2332955002784729
vt -2.6699745655059814 0.1258520483970642
vt -2.6726644039154053 0.36150115728378296
vt -3.1376123428344727 0.2155846357345581
vt -3.1404287815093994 0.4170546531677246
vt -3.60634183883667 0.2230750322341919
vt -3.6116394996643066 0.4257965087890625
vt -4.124061584472656 0.44762998819351196
vt -4.08059549331665 0.2133205533027649
vt -0.5738145709037781 -0.012942194938659668
vt -0.41798388957977295 0.2596092224121094
vt -0.42287519574165344 0.015199422836303711
vt -0.3040083646774292 0.24331873655319214
vt -0.3285369575023651 0.017895519733428955
vt 0.11479946225881577 0.20199882984161377
vt 0.11409921944141388 0.012423694133758545
vt 0.1984124332666397 0.19034016132354736
vt 0.22208833694458008 0.004846096038818359
vt 0.366398423910141 0.18070435523986816
vt 0.37537676095962524 0.005828857421875
vt 0.6837751865386963 0.18295055627822876
vt 0.6366620659828186 0.011326611042022705
vt 0.9034942388534546 0.19181638956069946
vt 0.8660747408866882 0.01339423656463623
vt 0.9922130107879639 0.2067583203315735
vt 0.9796992540359497 0.024891972541809082
vt 1.2078725099563599 0.24794816970825195
vt 1.2209068536758423 0.017334461212158203
vt 1.6413487195968628 0.2735774517059326
vt 1.657630205154419 0.017891228199005127
vt 1.646714687347412 0.7353841364383698
vt 1.18488347530365 0.7421686053276062
vt 1.2028961181640625 0.4156930446624756
vt 1.6503379344940186 0.9076634049415588
vt 1.1974769830703735 0.9076634049415588
vt 1.0286577939987183 0.7298677861690521
vt 1.0085026025772095 0.9076634049415588
vt 1.0337564945220947 0.4098961353302002
vt 0.9227758049964905 0.7189976274967194
vt 0.894722044467926 0.9076634049415588
vt 0.9190076589584351 0.40006452798843384
vt 0.676734447479248 0.39581865072250366
vt 0.6777710318565369 0.7069831788539886
vt 0.6477128267288208 0.9076634049415588
vt 0.37203240394592285 0.3909539580345154
vt 0.346718430519104 0.6947156190872192
vt 0.18003152310848236 0.3899189233779907
vt 0.15384674072265625 0.7154468297958374
vt 0.0745662972331047 0.3939895033836365
vt 0.05992777645587921 0.7098760306835175
vt -0.3224700093269348 0.43625324964523315
vt -0.32145583629608154 0.7110171616077423
vt 0.06434059143066406 0.9076634049415588
vt -0.30934324860572815 0.9076634049415588
vt 0.15396319329738617 0.9076634049415588
vt -0.40421611070632935 0.43934881687164307
vt -0.4151105284690857 0.7117094993591309
vt -0.4816918671131134 0.43516963720321655
vt -0.4752785563468933 0.7065516710281372
vt -0.8768376111984253 0.4032388925552368
vt -0.8753528594970703 0.7001854777336121
vt -0.4622598886489868 0.9076634049415588
vt -0.8750234246253967 0.9076634049415588
vt -1.3143553733825684 0.3715590238571167
vt -1.295020580291748 0.6602090895175934
vt -1.7691832780838013 0.34108465909957886
vt -1.7658357620239258 0.6255848109722137
vt -2.200472831726074 0.2332955002784729
vt -2.1963205337524414 0.6275290548801422
vt -1.3078205585479736 0.9076634049415588
vt -1.7671416997909546 0.7206583917140961
vt -1.7669622898101807 0.9076634049415588
vt -2.196420192718506 0.7640810906887054
vt -2.197101354598999 0.9076634049415588
vt -2.6726644039154053 0.36150115728378296
vt -2.670138359069824 0.6740417182445526
vt -3.1404287815093994 0.4170546531677246
vt -3.137263774871826 0.7150281667709351
vt -3.6116394996643066 0.4257965087890625
vt -3.6120383739471436 0.6997821629047394
vt -3.12785267829895 0.9076634049415588
vt -3.6109402179718018 0.9076634049415588
vt -4.07204532623291 0.9076634049415588
vt -4.084327220916748 0.6597890555858612
vt -4.124061584472656 0.44762998819351196
vt -2.672623872756958 0.9076634049415588
vt 5.6172895431518555 0.3980022072792053
vt 5.603142738342285 0.6738268733024597
vt 5.177534103393555 0.7227166891098022
vt 5.185983180999756 0.3923454284667969
vt 5.150765895843506 0.9076634049415588
vt 4.740760803222656 0.7395687103271484
vt 4.737374782562256 0.9076634049415588
vt 5.604016304016113 0.9076634645462036
vt 4.746406078338623 0.409931480884552
vt 4.306809902191162 0.7644549310207367
vt 4.3075714111328125 0.9076634049415588
vt 4.314399719238281 0.38322019577026367
vt 2.5776031017303467 -0.10792887210845947
vt 2.5891098976135254 0.021157264709472656
vt 2.122983694076538 0.01368623971939087
vt 2.1194162368774414 -0.07480204105377197
vt 3.048312187194824 -0.004382729530334473
vt 1.6645365953445435 -0.03238677978515625
vt 1.657630205154419 0.017891228199005127
vt 1.2209068536758423 0.017334461212158203
vt 1.2198669910430908 -0.04226958751678467
vt 0.9796992540359497 0.024891972541809082
vt 0.9184851050376892 -0.1161874532699585
vt 0.8221744298934937 -0.13989734649658203
vt 0.8660747408866882 0.01339423656463623
vt 0.609215259552002 -0.1460338830947876
vt 0.6366620659828186 0.011326611042022705
vt 0.34901607036590576 -0.16321051120758057
vt 0.37537676095962524 0.005828857421875
vt 0.22398880124092102 -0.17213308811187744
vt 0.22208833694458008 0.004846096038818359
vt 0.15672460198402405 -0.1596693992614746
vt 0.11409921944141388 0.012423694133758545
vt -0.29598382115364075 -0.09130144119262695
vt -0.3285369575023651 0.017895519733428955
vt -0.4385537803173065 -0.07338297367095947
vt -0.42287519574165344 0.015199422836303711
vt -0.5919988751411438 -0.07189881801605225
vt -0.5738145709037781 -0.012942194938659668
vt -0.8979933857917786 0.004076123237609863
vt 5.219391345977783 -0.10843908786773682
vt 5.687713146209717 -0.10757768154144287
vt 5.67958402633667 -0.01344156265258789
vt 5.216416358947754 -0.0018930435180664062
vt 4.764469146728516 -0.01951766014099121
vt 4.764323711395264 -0.11769616603851318
vt 4.317781448364258 0.002537071704864502
vt 3.873206377029419 0.37063008546829224
vt 3.4757370948791504 0.2980799078941345
vt 3.4775514602661133 0.20475828647613525
vt 3.874941825866699 0.20359349250793457
vt 3.055673360824585 0.21136319637298584
vt 4.314399719238281 0.38322019577026367
vt 4.321043968200684 0.2058643102645874
vt 4.749536037445068 0.23098021745681763
vt 4.746406078338623 0.409931480884552
vt 5.185983180999756 0.3923454284667969
vt 5.184524059295654 0.25545597076416016
vt 5.6172895431518555 0.3980022072792053
vt 5.624730110168457 0.2443552017211914
vt 3.8693783283233643 0.7735162973403931
vt 3.4745285511016846 0.780106708407402
vt 3.4752390384674072 0.5797045230865479
vt 3.8732001781463623 0.5668726563453674
vt 3.059882164001465 0.6331598460674286
vt 2.6144752502441406 0.7152852118015289
vt 4.306809902191162 0.7644549310207367
vt 4.312290668487549 0.6228746473789215
vt 4.740760803222656 0.7395687103271484
vt -1.7671416997909546 0.7206583917140961
vt -1.7658357620239258 0.6255848109722137
vt -1.295020580291748 0.6602090895175934
vt -2.1963205337524414 0.6275290548801422
vt -2.196420192718506 0.7640810906887054
vt -2.670138359069824 0.6740417182445526
vt -3.593593120574951 -0.003264307975769043
vt -3.60634183883667 0.2230750322341919
vt -4.08059549331665 0.2133205533027649
vt -4.076601028442383 -0.023125052452087402
vt -3.1412107944488525 0.01831287145614624
vt -3.1376123428344727 0.2155846357345581
vt -2.675065755844116 -0.004598498344421387
vt -2.6699745655059814 0.1258520483970642
vt -2.2021195888519287 -0.007190346717834473
vt -1.768120527267456 0.2049350142478943
vt -1.7691832780838013 0.34108465909957886
vt -2.200472831726074 0.2332955002784729
vt -1.3230748176574707 0.19568514823913574
vt -1.3143553733825684 0.3715590238571167
vt -0.9061586856842041 0.21058279275894165
vt -0.8768376111984253 0.4032388925552368
vt -0.4816918671131134 0.43516963720321655
vt -0.5491731762886047 0.24744313955307007
vt -0.41798388957977295 0.2596092224121094
vt -0.40421611070632935 0.43934881687164307
vt -0.3224700093269348 0.43625324964523315
vt -0.3040083646774292 0.24331873655319214
vt 0.0745662972331047 0.3939895033836365
vt 0.11479946225881577 0.20199882984161377
vt 0.18003152310848236 0.3899189233779907
vt 0.1984124332666397 0.19034016132354736
vt 0.37203240394592285 0.3909539580345154
vt 0.366398423910141 0.18070435523986816
vt 0.676734447479248 0.39581865072250366
vt 0.6837751865386963 0.18295055627822876
vt 0.9190076589584351 0.40006452798843384
vt 0.9034942388534546 0.19181638956069946
vt 1.0337564945220947 0.4098961353302002
vt 0.9922130107879639 0.2067583203315735
vt 1.2028961181640625 0.4156930446624756
vt 1.2078725099563599 0.24794816970825195
vt 1.6413487195968628 0.2735774517059326
vt -3.592963218688965 -0.113616943359375
vt -3.593593120574951 -0.003264307975769043
vt -4.076601028442383 -0.023125052452087402
vt -4.040238380432129 -0.11385095119476318
vt -3.1412107944488525 0.01831287145614624
vt -3.133092164993286 -0.1035538911819458
vt -2.675065755844116 -0.004598498344421387
vt -2.6696622371673584 -0.11233198642730713
vt -2.2021195888519287 -0.007190346717834473
vt -3.578103542327881 -0.40227746963500977
vt -3.5847673416137695 -0.2901451587677002
vt -4.036938667297363 -0.2812994718551636
vt -4.009535312652588 -0.40227746963500977
vt -3.1273748874664307 -0.28550517559051514
vt -3.1233913898468018 -0.40227746963500977
vt -2.671234130859375 -0.2846817970275879
vt -2.6705195903778076 -0.40227746963500977
vt -2.202460765838623 -0.259053111076355
vt -2.204922676086426 -0.40227746963500977
vt -1.769069790840149 -0.2507610321044922
vt -1.7743377685546875 -0.40227746963500977
vt -1.3557679653167725 -0.25624358654022217
vt -1.360753059387207 -0.40227746963500977
vt -0.8899117112159729 -0.2646975517272949
vt -0.9216582775115967 -0.40227746963500977
vt -0.6022664904594421 -0.2691274881362915
vt -0.5963811874389648 -0.40227746963500977
vt -0.44976404309272766 -0.2544020414352417
vt -0.4503861665725708 -0.40227746963500977
vt -0.306694895029068 -0.2707512378692627
vt -0.30724895000457764 -0.40227746963500977
vt 0.16472019255161285 -0.40227746963500977
vt 0.1696460098028183 -0.33039188385009766
vt 0.22331023216247559 -0.40227746963500977
vt 0.35989242792129517 -0.3387376070022583
vt 0.3141339421272278 -0.40227746963500977
vt -0.39797475934028625 0.9076634049415588
vt -4.511108875274658 -0.40227746963500977
vt -4.009535312652588 -0.40227746963500977
vt -4.036938667297363 -0.2812994718551636
vt -4.632550239562988 -0.3063197135925293
vt -4.040238380432129 -0.11385095119476318
vt -4.7288713455200195 -0.16563117504119873
vt -4.076601028442383 -0.023125052452087402
vt -4.700320243835449 -0.06019186973571777
vt -4.08059549331665 0.2133205533027649
vt -4.888529300689697 0.18646180629730225
vt -4.124061584472656 0.44762998819351196
vt -4.849249839782715 0.3565117120742798
vt -4.084327220916748 0.6597890555858612
vt -4.869609355926514 0.6616601943969727
vt -4.07204532623291 0.9076634049415588
vt -4.83118200302124 0.9076634049415588
vt 0.33340033888816833 0.9076634049415588
vt 1.850365161895752 1.2091589272022247
vt 2.304331064224243 0.9229831919074059
vt 2.2914023399353027 1.0210099462419748
vt 1.8935651779174805 1.2709751427173615
vt 2.2579329013824463 0.61833056807518
vt 1.7946281433105469 0.7575956135988235
vt 1.7272578477859497 0.685932993888855
vt 2.106253147125244 0.3209698796272278
vt 1.8473254442214966 0.1363266110420227
vt 1.6271531581878662 0.6583606898784637
vt 1.3576395511627197 0.660685122013092
vt 1.4631012678146362 0.11091673374176025
vt 0.9792704582214355 0.6606979072093964
vt 1.0523418188095093 0.12719029188156128
vt 0.6272996068000793 0.6500356495380402
vt 0.6587331295013428 0.08771252632141113
vt 0.26573309302330017 0.6511493921279907
vt 0.2884940505027771 0.029489576816558838
vt -0.12976597249507904 0.6480257213115692
vt -0.11988059431314468 -0.022929906845092773
vt -0.5232934951782227 0.6349912583827972
vt -0.525554895401001 -0.015399456024169922
vt -0.9280590415000916 0.6231353878974915
vt -0.9382054805755615 0.052183449268341064
vt -1.3311764001846313 0.5940925478935242
vt -1.34110426902771 0.17298853397369385
vt 2.172122001647949 1.202966347336769
vt 1.9970070123672485 1.3055753111839294

g bg_mdl_map_doukutu_kabe_05
s 1
usemtl bg_mdl_map_doukutu_kabe_05_0
f 3/3/3 2/2/2 1/1/1 
f 4/4/4 3/3/3 1/1/1 
f 5/5/5 2/2/2 3/3/3 
f 6/6/6 5/5/5 3/3/3 
f 5/5/5 6/6/6 7/7/7 
f 6/6/6 8/8/8 7/7/7 
f 7/7/7 8/8/8 9/9/9 
f 8/8/8 10/10/10 9/9/9 
f 10/10/10 8/8/8 11/11/11 
f 8/8/8 12/12/12 11/11/11 
f 13/13/13 12/12/12 8/8/8 
f 14/14/14 13/13/13 8/8/8 
f 14/14/14 15/15/15 13/13/13 
f 15/15/15 16/16/16 13/13/13 
f 15/15/15 17/17/17 16/16/16 
f 17/17/17 18/18/18 16/16/16 
f 11/11/11 12/12/12 19/19/19 
f 19/19/19 12/12/12 13/13/13 
f 20/20/20 11/11/11 19/19/19 
f 21/21/21 19/19/19 13/13/13 
f 21/21/21 13/13/13 22/22/22 
f 13/13/13 23/23/23 22/22/22 
f 23/23/23 24/24/24 22/22/22 
f 24/24/24 25/25/25 22/22/22 
f 26/26/26 22/22/22 25/25/25 
f 27/27/27 26/26/26 25/25/25 
f 22/22/22 26/26/26 28/28/28 
f 21/21/21 22/22/22 28/28/28 
f 28/28/28 29/29/29 21/21/21 
f 29/29/29 30/30/30 21/21/21 
f 30/30/30 29/29/29 31/31/31 
f 32/32/32 30/30/30 31/31/31 
f 17/17/17 33/33/33 18/18/18 
f 24/24/24 34/34/34 25/25/25 
f 34/34/34 35/35/35 25/25/25 
f 27/27/27 25/25/25 35/35/35 
f 34/34/34 36/36/36 35/35/35 
f 36/36/36 37/37/37 35/35/35 
f 36/36/36 38/38/38 37/37/37 
f 38/38/38 39/39/39 37/37/37 
f 39/39/39 38/38/38 40/40/40 
f 38/38/38 41/41/41 40/40/40 
f 42/42/42 27/27/27 35/35/35 
f 42/42/42 35/35/35 43/43/43 
f 35/35/35 44/44/44 43/43/43 
f 44/44/44 45/45/45 43/43/43 
f 45/45/45 46/46/46 43/43/43 
f 46/46/46 45/45/45 47/47/47 
f 45/45/45 48/48/48 47/47/47 
f 46/46/46 47/47/47 49/49/49 
f 50/50/50 46/46/46 49/49/49 
f 46/46/46 50/50/50 51/51/51 
f 43/43/43 46/46/46 51/51/51 
f 42/42/42 43/43/43 51/51/51 
f 52/52/52 42/42/42 51/51/51 
f 42/42/42 52/52/52 27/27/27 
f 52/52/52 53/53/53 27/27/27 
f 27/27/27 53/53/53 26/26/26 
f 53/53/53 54/54/54 26/26/26 
f 26/26/26 54/54/54 55/55/55 
f 28/28/28 26/26/26 55/55/55 
f 28/28/28 55/55/55 29/29/29 
f 55/55/55 56/56/56 29/29/29 
f 29/29/29 56/56/56 57/57/57 
f 31/31/31 29/29/29 57/57/57 
f 31/31/31 57/57/57 58/58/58 
f 59/59/59 31/31/31 58/58/58 
f 60/60/60 59/59/59 58/58/58 
f 60/60/60 61/61/61 59/59/59 
f 61/61/61 62/62/62 59/59/59 
f 61/61/61 60/60/60 63/63/63 
f 64/64/64 61/61/61 63/63/63 
f 65/65/65 60/60/60 58/58/58 
f 60/60/60 65/65/65 66/66/66 
f 63/63/63 60/60/60 66/66/66 
f 32/32/32 31/31/31 59/59/59 
f 62/62/62 32/32/32 59/59/59 
f 64/64/64 63/63/63 67/67/67 
f 68/68/68 64/64/64 67/67/67 
f 63/63/63 66/66/66 69/69/69 
f 67/67/67 63/63/63 69/69/69 
f 67/67/67 69/69/69 70/70/70 
f 71/71/71 67/67/67 70/70/70 
f 68/68/68 67/67/67 71/71/71 
f 72/72/72 68/68/68 71/71/71 
f 72/72/72 71/71/71 73/73/73 
f 74/74/74 72/72/72 73/73/73 
f 74/74/74 73/73/73 75/75/75 
f 76/76/76 74/74/74 75/75/75 
f 76/76/76 75/75/75 77/77/77 
f 78/78/78 76/76/76 77/77/77 
f 79/79/79 78/78/78 77/77/77 
f 80/80/80 79/79/79 77/77/77 
f 80/80/80 81/81/81 79/79/79 
f 81/81/81 82/82/82 79/79/79 
f 82/82/82 81/81/81 83/83/83 
f 84/84/84 82/82/82 83/83/83 
f 84/84/84 83/83/83 85/85/85 
f 86/86/86 84/84/84 85/85/85 
f 86/86/86 85/85/85 87/87/87 
f 85/85/85 88/88/88 87/87/87 
f 87/87/87 88/88/88 89/89/89 
f 90/90/90 87/87/87 89/89/89 
f 90/90/90 89/89/89 91/91/91 
f 92/92/92 90/90/90 91/91/91 
f 92/92/92 91/91/91 93/93/93 
f 94/94/94 92/92/92 93/93/93 
f 94/94/94 93/93/93 95/95/95 
f 96/96/96 94/94/94 95/95/95 
f 96/96/96 95/95/95 97/97/97 
f 98/98/98 96/96/96 97/97/97 
f 98/98/98 97/97/97 99/99/99 
f 100/100/100 98/98/98 99/99/99 
f 86/86/86 87/87/87 101/101/101 
f 101/101/101 102/102/102 86/86/86 
f 87/87/87 103/103/103 101/101/101 
f 103/103/103 87/87/87 90/90/90 
f 104/104/104 103/103/103 90/90/90 
f 105/105/105 104/104/104 90/90/90 
f 92/92/92 105/105/105 90/90/90 
f 92/92/92 106/106/106 105/105/105 
f 106/106/106 107/107/107 105/105/105 
f 106/106/106 108/108/108 107/107/107 
f 108/108/108 109/109/109 107/107/107 
f 108/108/108 110/110/110 109/109/109 
f 110/110/110 111/111/111 109/109/109 
f 112/112/112 111/111/111 110/110/110 
f 113/113/113 112/112/112 110/110/110 
f 102/102/102 114/114/114 86/86/86 
f 102/102/102 115/115/115 114/114/114 
f 115/115/115 116/116/116 114/114/114 
f 115/115/115 117/117/117 116/116/116 
f 117/117/117 118/118/118 116/116/116 
f 117/117/117 119/119/119 118/118/118 
f 119/119/119 120/120/120 118/118/118 
f 119/119/119 121/121/121 120/120/120 
f 121/121/121 122/122/122 120/120/120 
f 121/121/121 123/123/123 122/122/122 
f 123/123/123 124/124/124 122/122/122 
f 123/123/123 125/125/125 124/124/124 
f 125/125/125 126/126/126 124/124/124 
f 125/125/125 127/127/127 126/126/126 
f 127/127/127 128/128/128 126/126/126 
f 127/127/127 129/129/129 128/128/128 
f 129/129/129 130/130/130 128/128/128 
f 129/129/129 131/131/131 130/130/130 
f 131/131/131 132/132/132 130/130/130 
f 131/131/131 133/133/133 132/132/132 
f 133/133/133 134/134/134 132/132/132 
f 134/134/134 133/133/133 11/11/11 
f 20/20/20 134/134/134 11/11/11 
f 10/10/10 11/11/11 133/133/133 
f 135/135/135 10/10/10 133/133/133 
f 136/136/136 135/135/135 133/133/133 
f 137/137/137 136/136/136 133/133/133 
f 135/135/135 136/136/136 138/138/138 
f 10/10/10 135/135/135 138/138/138 
f 136/136/136 139/139/139 138/138/138 
f 139/139/139 136/136/136 140/140/140 
f 140/140/140 136/136/136 137/137/137 
f 141/141/141 139/139/139 140/140/140 
f 142/142/142 140/140/140 137/137/137 
f 9/9/9 10/10/10 138/138/138 
f 141/141/141 140/140/140 143/143/143 
f 144/144/144 141/141/141 143/143/143 
f 140/140/140 142/142/142 145/145/145 
f 143/143/143 140/140/140 145/145/145 
f 143/143/143 145/145/145 146/146/146 
f 147/147/147 143/143/143 146/146/146 
f 144/144/144 143/143/143 147/147/147 
f 148/148/148 144/144/144 147/147/147 
f 147/147/147 146/146/146 149/149/149 
f 150/150/150 147/147/147 149/149/149 
f 148/148/148 147/147/147 150/150/150 
f 150/150/150 149/149/149 151/151/151 
f 152/152/152 150/150/150 151/151/151 
f 152/152/152 151/151/151 153/153/153 
f 154/154/154 152/152/152 153/153/153 
f 154/154/154 153/153/153 155/155/155 
f 156/156/156 154/154/154 155/155/155 
f 157/157/157 154/154/154 156/156/156 
f 158/158/158 157/157/157 156/156/156 
f 159/159/159 152/152/152 154/154/154 
f 157/157/157 159/159/159 154/154/154 
f 156/156/156 155/155/155 160/160/160 
f 161/161/161 156/156/156 160/160/160 
f 161/161/161 160/160/160 162/162/162 
f 163/163/163 161/161/161 162/162/162 
f 163/163/163 162/162/162 164/164/164 
f 165/165/165 163/163/163 164/164/164 
f 166/166/166 163/163/163 165/165/165 
f 167/167/167 166/166/166 165/165/165 
f 164/164/164 168/168/168 165/165/165 
f 168/168/168 169/169/169 165/165/165 
f 169/169/169 168/168/168 170/170/170 
f 171/171/171 169/169/169 170/170/170 
f 171/171/171 170/170/170 172/172/172 
f 173/173/173 171/171/171 172/172/172 
f 165/165/165 169/169/169 174/174/174 
f 167/167/167 165/165/165 174/174/174 
f 174/174/174 169/169/169 175/175/175 
f 176/176/176 174/174/174 175/175/175 
f 176/176/176 175/175/175 177/177/177 
f 178/178/178 176/176/176 177/177/177 
f 173/173/173 172/172/172 179/179/179 
f 180/180/180 173/173/173 179/179/179 
f 178/178/178 177/177/177 180/180/180 
f 180/180/180 179/179/179 181/181/181 
f 182/182/182 180/180/180 181/181/181 
f 182/182/182 181/181/181 183/183/183 
f 184/184/184 182/182/182 183/183/183 
f 185/185/185 182/182/182 184/184/184 
f 180/180/180 182/182/182 185/185/185 
f 186/186/186 185/185/185 184/184/184 
f 186/186/186 184/184/184 187/187/187 
f 184/184/184 188/188/188 187/187/187 
f 188/188/188 184/184/184 183/183/183 
f 189/189/189 188/188/188 183/183/183 
f 190/190/190 180/180/180 185/185/185 
f 190/190/190 178/178/178 180/180/180 
f 193/193/193 192/192/192 191/191/191 
f 194/194/194 193/193/193 191/191/191 
f 193/193/193 195/195/195 192/192/192 
f 195/195/195 193/193/193 196/196/196 
f 196/196/196 193/193/193 194/194/194 
f 197/197/197 195/195/195 196/196/196 
f 195/195/195 198/198/198 192/192/192 
f 199/199/199 196/196/196 194/194/194 
f 196/196/196 200/200/200 197/197/197 
f 200/200/200 201/201/201 197/197/197 
f 196/196/196 199/199/199 202/202/202 
f 33/33/33 196/196/196 202/202/202 
f 200/200/200 4/4/4 201/201/201 
f 4/4/4 1/1/1 201/201/201 
f 33/33/33 202/202/202 18/18/18 
f 205/205/205 204/204/204 203/203/203 
f 206/206/206 205/205/205 203/203/203 
f 203/203/203 204/204/204 207/207/207 
f 206/206/206 208/208/208 205/205/205 
f 208/208/208 209/209/209 205/205/205 
f 210/210/210 209/209/209 208/208/208 
f 211/211/211 210/210/210 208/208/208 
f 212/212/212 210/210/210 211/211/211 
f 213/213/213 212/212/212 211/211/211 
f 212/212/212 213/213/213 214/214/214 
f 215/215/215 212/212/212 214/214/214 
f 215/215/215 214/214/214 216/216/216 
f 217/217/217 215/215/215 216/216/216 
f 217/217/217 216/216/216 218/218/218 
f 219/219/219 217/217/217 218/218/218 
f 219/219/219 218/218/218 220/220/220 
f 221/221/221 219/219/219 220/220/220 
f 221/221/221 220/220/220 222/222/222 
f 223/223/223 221/221/221 222/222/222 
f 223/223/223 222/222/222 224/224/224 
f 225/225/225 223/223/223 224/224/224 
f 225/225/225 224/224/224 226/226/226 
f 227/227/227 225/225/225 226/226/226 
f 227/227/227 226/226/226 228/228/228 
f 229/229/229 227/227/227 228/228/228 
f 229/229/229 228/228/228 230/230/230 
f 233/233/233 232/232/232 231/231/231 
f 234/234/234 233/233/233 231/231/231 
f 235/235/235 234/234/234 231/231/231 
f 236/236/236 235/235/235 231/231/231 
f 235/235/235 236/236/236 237/237/237 
f 240/240/240 239/239/239 238/238/238 
f 241/241/241 240/240/240 238/238/238 
f 239/239/239 240/240/240 242/242/242 
f 241/241/241 238/238/238 243/243/243 
f 244/244/244 241/241/241 243/243/243 
f 244/244/244 243/243/243 245/245/245 
f 243/243/243 246/246/246 245/245/245 
f 246/246/246 247/247/247 245/245/245 
f 247/247/247 248/248/248 245/245/245 
f 247/247/247 249/249/249 248/248/248 
f 249/249/249 250/250/250 248/248/248 
f 253/253/253 252/252/252 251/251/251 
f 254/254/254 253/253/253 251/251/251 
f 252/252/252 253/253/253 255/255/255 
f 6/6/6 252/252/252 255/255/255 
f 6/6/6 255/255/255 256/256/256 
f 254/254/254 251/251/251 257/257/257 
f 258/258/258 254/254/254 257/257/257 
f 258/258/258 257/257/257 259/259/259 
f 262/262/262 261/261/261 260/260/260 
f 260/260/260 261/261/261 263/263/263 
f 264/264/264 260/260/260 263/263/263 
f 264/264/264 263/263/263 265/265/265 
f 268/268/268 267/267/267 266/266/266 
f 269/269/269 268/268/268 266/266/266 
f 270/270/270 266/266/266 267/267/267 
f 271/271/271 270/270/270 267/267/267 
f 272/272/272 270/270/270 271/271/271 
f 273/273/273 272/272/272 271/271/271 
f 274/274/274 272/272/272 273/273/273 
f 277/277/277 276/276/276 275/275/275 
f 275/275/275 276/276/276 278/278/278 
f 276/276/276 279/279/279 278/278/278 
f 280/280/280 278/278/278 279/279/279 
f 281/281/281 280/280/280 279/279/279 
f 280/280/280 281/281/281 282/282/282 
f 283/283/283 280/280/280 282/282/282 
f 283/283/283 282/282/282 284/284/284 
f 282/282/282 285/285/285 284/284/284 
f 285/285/285 286/286/286 284/284/284 
f 286/286/286 287/287/287 284/284/284 
f 286/286/286 288/288/288 287/287/287 
f 288/288/288 289/289/289 287/287/287 
f 288/288/288 290/290/290 289/289/289 
f 290/290/290 291/291/291 289/289/289 
f 290/290/290 292/292/292 291/291/291 
f 292/292/292 293/293/293 291/291/291 
f 292/292/292 294/294/294 293/293/293 
f 294/294/294 295/295/295 293/293/293 
f 294/294/294 296/296/296 295/295/295 
f 296/296/296 297/297/297 295/295/295 
f 296/296/296 298/298/298 297/297/297 
f 298/298/298 299/299/299 297/297/297 
f 298/298/298 300/300/300 299/299/299 
f 300/300/300 301/301/301 299/299/299 
f 301/301/301 300/300/300 302/302/302 
f 305/305/305 304/304/304 303/303/303 
f 306/306/306 305/305/305 303/303/303 
f 303/303/303 304/304/304 307/307/307 
f 308/308/308 303/303/303 307/307/307 
f 308/308/308 307/307/307 309/309/309 
f 310/310/310 308/308/308 309/309/309 
f 310/310/310 309/309/309 311/311/311 
f 314/314/314 313/313/313 312/312/312 
f 315/315/315 314/314/314 312/312/312 
f 313/313/313 316/316/316 312/312/312 
f 316/316/316 317/317/317 312/312/312 
f 316/316/316 318/318/318 317/317/317 
f 318/318/318 319/319/319 317/317/317 
f 318/318/318 320/320/320 319/319/319 
f 320/320/320 321/321/321 319/319/319 
f 320/320/320 322/322/322 321/321/321 
f 322/322/322 323/323/323 321/321/321 
f 322/322/322 324/324/324 323/323/323 
f 324/324/324 325/325/325 323/323/323 
f 325/325/325 324/324/324 326/326/326 
f 327/327/327 325/325/325 326/326/326 
f 326/326/326 328/328/328 327/327/327 
f 328/328/328 329/329/329 327/327/327 
f 328/328/328 330/330/330 329/329/329 
f 330/330/330 331/331/331 329/329/329 
f 331/331/331 330/330/330 332/332/332 
f 333/333/333 331/331/331 332/332/332 
f 333/333/333 332/332/332 334/334/334 
f 332/332/332 335/335/335 334/334/334 
f 335/335/335 75/75/75 334/334/334 
f 75/75/75 336/336/336 334/334/334 
f 75/75/75 337/337/337 336/336/336 
f 337/337/337 338/338/338 336/336/336 
f 337/337/337 71/71/71 338/338/338 
f 71/71/71 70/70/70 338/338/338 
f 339/339/339 161/161/161 163/163/163 
f 166/166/166 339/339/339 163/163/163 
f 156/156/156 161/161/161 339/339/339 
f 158/158/158 156/156/156 339/339/339 
f 342/342/342 341/341/341 340/340/340 
f 343/343/343 342/342/342 340/340/340 
f 344/344/344 342/342/342 343/343/343 
f 345/345/345 344/344/344 343/343/343 
f 346/346/346 344/344/344 345/345/345 
f 347/347/347 346/346/346 345/345/345 
f 348/348/348 346/346/346 347/347/347 
f 349/349/349 348/348/348 347/347/347 
f 350/350/350 348/348/348 349/349/349 
f 351/351/351 350/350/350 349/349/349 
f 352/352/352 350/350/350 351/351/351 
f 353/353/353 352/352/352 351/351/351 
f 354/354/354 352/352/352 353/353/353 
f 355/355/355 354/354/354 353/353/353 
f 356/356/356 150/150/150 152/152/152 
f 159/159/159 356/356/356 152/152/152 
f 356/356/356 148/148/148 150/150/150 

usemtl bg_mdl_map_doukutu_kabe_05_1
f 359/359/359 358/358/358 357/357/357 
f 360/360/360 359/359/359 357/357/357 
f 358/358/358 361/361/361 357/357/357 
f 361/361/361 362/362/362 357/357/357 
f 363/363/363 362/362/362 361/361/361 
f 364/364/364 363/363/363 361/361/361 
f 364/364/364 365/365/365 363/363/363 
f 365/365/365 366/366/366 363/363/363 
f 367/367/367 366/366/366 365/365/365 
f 368/368/368 367/367/367 365/365/365 
f 369/369/369 367/367/367 368/368/368 
f 370/370/370 369/369/369 368/368/368 
f 371/371/371 369/369/369 370/370/370 
f 372/372/372 371/371/371 370/370/370 
f 373/373/373 371/371/371 372/372/372 
f 374/374/374 373/373/373 372/372/372 
f 375/375/375 373/373/373 374/374/374 
f 376/376/376 375/375/375 374/374/374 
f 377/377/377 375/375/375 376/376/376 
f 378/378/378 377/377/377 376/376/376 
f 379/379/379 377/377/377 378/378/378 
f 380/380/380 379/379/379 378/378/378 
f 381/381/381 379/379/379 380/380/380 
f 382/382/382 381/381/381 380/380/380 
f 360/360/360 384/384/384 383/383/383 
f 359/359/359 360/360/360 383/383/383 

