v 0.18626970052719116 -0.06095581874251366 3.914923070169607e-07
v 0.1702033430337906 -0.06959140300750732 -0.03888155519962311
v 0.17111262679100037 -0.07494081556797028 3.088749167545757e-07
v 0.18527282774448395 -0.054933931678533554 -0.03298899903893471
v 0.16870170831680298 -0.05921201407909393 -0.056342847645282745
v 0.18337415158748627 -0.04588986933231354 -0.048699621111154556
v 0.1803637444972992 -0.04613419249653816 -0.06360753625631332
v 0.19111722707748413 -0.036623843014240265 -0.05923454090952873
v 0.1741664856672287 -0.051760949194431305 -0.06683564186096191
v 0.1905064731836319 -0.032205980271101 -0.054383281618356705
v 0.16404440999031067 -0.06001461669802666 -0.07511729001998901
v 0.1891183853149414 -0.025959603488445282 -0.06067092344164848
v 0.19101375341415405 -0.026305416598916054 -0.0669630914926529
v 0.1830189973115921 -0.03978091478347778 -0.06673849374055862
v 0.19448068737983704 -0.014171487651765347 -0.06328198313713074
v 0.18733429908752441 -0.017931444570422173 -0.06875211745500565
v 0.18167905509471893 -0.0337519496679306 -0.07280728965997696
v 0.17741809785366058 -0.03185608237981796 -0.07757079601287842
v 0.1792021542787552 -0.021109428256750107 -0.0815286636352539
v 0.1772458851337433 -0.01344279758632183 -0.0800304114818573
v 0.17546328902244568 -0.028655780479311943 -0.08534552156925201
v 0.16732577979564667 -0.031408291310071945 -0.08916233479976654
v 0.17138859629631042 -0.03691896051168442 -0.08153840154409409
v 0.16826917231082916 -0.045681700110435486 -0.08066222071647644
v 0.16951996088027954 -0.05181020125746727 -0.0743953064084053
v 0.1615278571844101 -0.04844808578491211 -0.08714400976896286
v 0.16732577979564667 -0.031408291310071945 -0.08916233479976654
v 0.1629701554775238 -0.02542971260845661 -0.08942440152168274
v 0.15558470785617828 -0.046176981180906296 -0.08734957128763199
v 0.1615278571844101 -0.04844808578491211 -0.08714400976896286
v 0.16404440999031067 -0.06001461669802666 -0.07511729001998901
v 0.15854592621326447 -0.060687046498060226 -0.0725119560956955
v 0.16870170831680298 -0.05921201407909393 -0.056342847645282745
v 0.16106197237968445 -0.028263479471206665 -0.08255665004253387
v 0.15576505661010742 -0.044127076864242554 -0.0807722955942154
v 0.15800315141677856 -0.0546744130551815 -0.0699140653014183
v 0.16660788655281067 -0.05712605640292168 -0.055526912212371826
v 0.1692061424255371 -0.03590191528201103 -0.07964026927947998
v 0.17532825469970703 -0.030819037929177284 -0.07558141648769379
v 0.16606733202934265 -0.04454150050878525 -0.07885875552892685
v 0.1672678291797638 -0.05044528469443321 -0.07282523810863495
v 0.17197173833847046 -0.04970068484544754 -0.06625358015298843
v 0.17820866405963898 -0.04405158758163452 -0.06296075880527496
v 0.18106229603290558 -0.04399242252111435 -0.04802472144365311
v 0.1831991970539093 -0.03277736157178879 -0.05509831756353378
v 0.1905064731836319 -0.032205980271101 -0.054383281618356705
v 0.1891183853149414 -0.025959603488445282 -0.06067092344164848
v 0.18314266204833984 -0.023020382970571518 -0.062039896845817566
v 0.18090283870697021 -0.03831819072365761 -0.06507013738155365
v 0.19448068737983704 -0.014171487651765347 -0.06328198313713074
v 0.18733429908752441 -0.017931444570422173 -0.06875211745500565
v 0.17215578258037567 -0.01847662404179573 -0.07539159804582596
v 0.1772458851337433 -0.01344279758632183 -0.0800304114818573
v 0.1795988827943802 -0.03271275386214256 -0.07080885022878647
v 0.16805139183998108 -0.015538967214524746 -0.08472728729248047
v 0.1690521389245987 -0.0726553201675415 3.0688909191667335e-07
v 0.16801217198371887 -0.06767770648002625 -0.03791342303156853
v 0.1840628832578659 -0.05877379700541496 3.8877826114003255e-07
v 0.18304947018623352 -0.053064677864313126 -0.03200764209032059
v 0.16660788655281067 -0.05712605640292168 -0.055526912212371826
v 0.18106229603290558 -0.04399242252111435 -0.04802472144365311
v 0.18304947018623352 -0.053064677864313126 -0.03200764209032059
v 0.18106229603290558 -0.04399242252111435 -0.04802472144365311
v 0.1840628832578659 -0.05877379700541496 3.8877826114003255e-07
v 0.1803637444972992 -0.04613419249653816 -0.06360753625631332
v 0.17820866405963898 -0.04405158758163452 -0.06296075880527496
v 0.17197173833847046 -0.04970068484544754 -0.06625358015298843
v 0.1741664856672287 -0.051760949194431305 -0.06683564186096191
v 0.1672678291797638 -0.05044528469443321 -0.07282523810863495
v 0.16951996088027954 -0.05181020125746727 -0.0743953064084053
v 0.16606733202934265 -0.04454150050878525 -0.07885875552892685
v 0.16826917231082916 -0.045681700110435486 -0.08066222071647644
v 0.1830189973115921 -0.03978091478347778 -0.06673849374055862
v 0.18090283870697021 -0.03831819072365761 -0.06507013738155365
v 0.1692061424255371 -0.03590191528201103 -0.07964026927947998
v 0.17138859629631042 -0.03691896051168442 -0.08153840154409409
v 0.17741809785366058 -0.03185608237981796 -0.07757079601287842
v 0.17532825469970703 -0.030819037929177284 -0.07558141648769379
v 0.1795988827943802 -0.03271275386214256 -0.07080885022878647
v 0.18167905509471893 -0.0337519496679306 -0.07280728965997696
v 0.18090283870697021 -0.03831819072365761 -0.06507013738155365
v 0.1830189973115921 -0.03978091478347778 -0.06673849374055862
v 0.16660788655281067 -0.05712605640292168 -0.055526912212371826
v 0.16801217198371887 -0.06767770648002625 -0.03791342303156853
v 0.1690521389245987 -0.0726553201675415 3.0688909191667335e-07
v 0.1629701554775238 -0.02542971260845661 -0.08942440152168274
v 0.16732577979564667 -0.031408291310071945 -0.08916233479976654
v 0.1673259288072586 -0.031408172100782394 -0.15262645483016968
v 0.1629701554775238 -0.02542956918478012 -0.15401874482631683
v 0.16805154085159302 -0.015538820996880531 -0.13590577244758606
v 0.18313318490982056 -0.009382733143866062 -0.1346694976091385
v 0.17724581062793732 -0.013442693278193474 -0.11959714442491531
v 0.18313318490982056 -0.008358932100236416 -0.12376496940851212
v 0.16805139183998108 -0.015538967214524746 -0.08472728729248047
v 0.1772458851337433 -0.01344279758632183 -0.0800304114818573
v 0.1792021542787552 -0.021109428256750107 -0.0815286636352539
v 0.1772458851337433 -0.01344279758632183 -0.0800304114818573
v 0.17724581062793732 -0.013442693278193474 -0.11959714442491531
v 0.17920222878456116 -0.021109307184815407 -0.11929105222225189
v 0.17546328902244568 -0.028655780479311943 -0.08534552156925201
v 0.18313318490982056 -0.008358932100236416 -0.12376496940851212
v 0.18508973717689514 -0.016025548800826073 -0.1234588697552681
v 0.18313318490982056 -0.009382733143866062 -0.1346694976091385
v 0.1754632145166397 -0.028655704110860825 -0.1359586864709854
v 0.16732577979564667 -0.031408291310071945 -0.08916233479976654
v 0.1673259288072586 -0.031408172100782394 -0.15262645483016968
v 0.18508973717689514 -0.017049377784132957 -0.13503748178482056
v 0.1629701554775238 -0.02542956918478012 -0.15401874482631683
v 0.1702031046152115 -0.06959157437086105 0.038882188498973846
v 0.18626970052719116 -0.06095581874251366 3.914923070169607e-07
v 0.17111262679100037 -0.07494081556797028 3.088749167545757e-07
v 0.18527266383171082 -0.054934076964855194 0.032989803701639175
v 0.16870132088661194 -0.05921226367354393 0.056343525648117065
v 0.1833738535642624 -0.04589007794857025 0.04870045185089111
v 0.18036328256130219 -0.046134479343891144 0.06360834836959839
v 0.1911168396472931 -0.03662410378456116 0.059235475957393646
v 0.1741660237312317 -0.05176124349236488 0.0668363869190216
v 0.19050608575344086 -0.0322062186896801 0.054384224116802216
v 0.16404396295547485 -0.06001495197415352 0.07511793076992035
v 0.18911799788475037 -0.025959869846701622 0.060671884566545486
v 0.19101329147815704 -0.02630571275949478 0.0669640600681305
v 0.1830185502767563 -0.03978120908141136 0.06673935055732727
v 0.19448022544384003 -0.014171767048537731 0.0632830336689949
v 0.1873338520526886 -0.0179317444562912 0.06875310093164444
v 0.18167851865291595 -0.03375227004289627 0.0728081613779068
v 0.1774175614118576 -0.03185642510652542 0.07757164537906647
v 0.1792016178369522 -0.02110978588461876 0.08152959495782852
v 0.17724527418613434 -0.01344315055757761 0.08003134280443192
v 0.1754627525806427 -0.028656158596277237 0.08534638583660126
v 0.16732516884803772 -0.03140868991613388 0.08916311711072922
v 0.17138807475566864 -0.03691931813955307 0.08153918385505676
v 0.16826863586902618 -0.04568205401301384 0.08066296577453613
v 0.16951949894428253 -0.051810525357723236 0.07439602166414261
v 0.16152724623680115 -0.04844846576452255 0.08714465796947479
v 0.16732516884803772 -0.03140868991613388 0.08916311711072922
v 0.16152724623680115 -0.04844846576452255 0.08714465796947479
v 0.15558409690856934 -0.04617736116051674 0.08735022693872452
v 0.16296954452991486 -0.025430113077163696 0.08942518383264542
v 0.16404396295547485 -0.06001495197415352 0.07511793076992035
v 0.15854546427726746 -0.0606873594224453 0.07251255959272385
v 0.16870132088661194 -0.05921226367354393 0.056343525648117065
v 0.16106143593788147 -0.028263846412301064 0.08255741000175476
v 0.15576453506946564 -0.04412743076682091 0.08077294379472733
v 0.15800270438194275 -0.05467472970485687 0.06991468369960785
v 0.16660751402378082 -0.05712629482150078 0.05552758276462555
v 0.16920560598373413 -0.035902269184589386 0.07964105159044266
v 0.17532771825790405 -0.030819367617368698 0.07558226585388184
v 0.16606679558753967 -0.0445418544113636 0.07885947823524475
v 0.16726738214492798 -0.05044560879468918 0.07282594591379166
v 0.17197127640247345 -0.04970097914338112 0.06625432521104813
v 0.17820821702480316 -0.0440518744289875 0.06296157091856003
v 0.1810619831085205 -0.04399263113737106 0.048025548458099365
v 0.18319880962371826 -0.03277759999036789 0.05509920418262482
v 0.19050608575344086 -0.0322062186896801 0.054384224116802216
v 0.18911799788475037 -0.025959869846701622 0.060671884566545486
v 0.18314220011234283 -0.023020654916763306 0.06204083189368248
v 0.18090245127677917 -0.03831848129630089 0.0650709867477417
v 0.19448022544384003 -0.014171767048537731 0.0632830336689949
v 0.1873338520526886 -0.0179317444562912 0.06875310093164444
v 0.1795983463525772 -0.032713066786527634 0.07080971449613571
v 0.17215532064437866 -0.018476953729987144 0.0753924697637558
v 0.17724527418613434 -0.01344315055757761 0.08003134280443192
v 0.16805078089237213 -0.015539344400167465 0.0847281664609909
v 0.16801194846630096 -0.06767787784337997 0.03791405260562897
v 0.1690521389245987 -0.0726553201675415 3.0688909191667335e-07
v 0.1840628832578659 -0.05877379700541496 3.8877826114003255e-07
v 0.1830493062734604 -0.053064823150634766 0.03200843557715416
v 0.16660751402378082 -0.05712629482150078 0.05552758276462555
v 0.1810619831085205 -0.04399263113737106 0.048025548458099365
v 0.1810619831085205 -0.04399263113737106 0.048025548458099365
v 0.1830493062734604 -0.053064823150634766 0.03200843557715416
v 0.1840628832578659 -0.05877379700541496 3.8877826114003255e-07
v 0.18036328256130219 -0.046134479343891144 0.06360834836959839
v 0.1741660237312317 -0.05176124349236488 0.0668363869190216
v 0.17197127640247345 -0.04970097914338112 0.06625432521104813
v 0.17820821702480316 -0.0440518744289875 0.06296157091856003
v 0.16726738214492798 -0.05044560879468918 0.07282594591379166
v 0.16951949894428253 -0.051810525357723236 0.07439602166414261
v 0.16606679558753967 -0.0445418544113636 0.07885947823524475
v 0.16826863586902618 -0.04568205401301384 0.08066296577453613
v 0.1830185502767563 -0.03978120908141136 0.06673935055732727
v 0.18090245127677917 -0.03831848129630089 0.0650709867477417
v 0.16920560598373413 -0.035902269184589386 0.07964105159044266
v 0.17138807475566864 -0.03691931813955307 0.08153918385505676
v 0.1774175614118576 -0.03185642510652542 0.07757164537906647
v 0.17532771825790405 -0.030819367617368698 0.07558226585388184
v 0.1795983463525772 -0.032713066786527634 0.07080971449613571
v 0.18167851865291595 -0.03375227004289627 0.0728081613779068
v 0.18090245127677917 -0.03831848129630089 0.0650709867477417
v 0.1830185502767563 -0.03978120908141136 0.06673935055732727
v 0.16801194846630096 -0.06767787784337997 0.03791405260562897
v 0.16660751402378082 -0.05712629482150078 0.05552758276462555
v 0.1690521389245987 -0.0726553201675415 3.0688909191667335e-07
v 0.16296954452991486 -0.025430113077163696 0.08942518383264542
v 0.162969172000885 -0.0254303440451622 0.17884871363639832
v 0.16732478141784668 -0.031408872455358505 0.17745640873908997
v 0.16732516884803772 -0.03140868991613388 0.08916311711072922
v 0.16805055737495422 -0.015539475716650486 0.16073577105998993
v 0.18313218653202057 -0.009383405558764935 0.1594996154308319
v 0.1772448867559433 -0.01344325952231884 0.14442722499370575
v 0.18313218653202057 -0.008359522558748722 0.1485951542854309
v 0.16805078089237213 -0.015539344400167465 0.0847281664609909
v 0.17724527418613434 -0.01344315055757761 0.08003134280443192
v 0.1792016178369522 -0.02110978588461876 0.08152959495782852
v 0.17920131981372833 -0.021109916269779205 0.1441211998462677
v 0.1772448867559433 -0.01344325952231884 0.14442722499370575
v 0.17724527418613434 -0.01344315055757761 0.08003134280443192
v 0.1754627525806427 -0.028656158596277237 0.08534638583660126
v 0.17733195424079895 -0.024882996454834938 0.10822125524282455
v 0.18313218653202057 -0.008359522558748722 0.1485951542854309
v 0.18508873879909515 -0.016026167199015617 0.14828899502754211
v 0.18313218653202057 -0.009383405558764935 0.1594996154308319
v 0.17546221613883972 -0.028656356036663055 0.16078869998455048
v 0.16732516884803772 -0.03140868991613388 0.08916311711072922
v 0.16732478141784668 -0.031408872455358505 0.17745640873908997
v 0.18508873879909515 -0.017049996182322502 0.15986758470535278
v 0.162969172000885 -0.0254303440451622 0.17884871363639832
v 0.2026982605457306 -0.03371809795498848 0.11168304085731506
v 0.12630560994148254 0.0012477311538532376 0.11260908842086792
v 0.12314118444919586 -0.005676446482539177 0.11247392743825912
v 0.19978147745132446 -0.04081718996167183 0.11227907985448837
v 0.21512280404567719 -0.03951186686754227 0.11818902939558029
v 0.211625874042511 -0.04634031280875206 0.11882339417934418
v 0.22021833062171936 -0.04188786819577217 0.130500927567482
v 0.21657966077327728 -0.048650339245796204 0.13099655508995056
v 0.21690808236598969 -0.040816888213157654 0.14553679525852203
v 0.21355023980140686 -0.046765200793743134 0.1458539515733719
v 0.20617283880710602 -0.036858901381492615 0.15236203372478485
v 0.20374494791030884 -0.041145194321870804 0.152145653963089
v 0.1907825767993927 -0.03239157795906067 0.14954645931720734
v 0.11469215154647827 -0.0017367447726428509 0.1205950528383255
v 0.11785665899515152 0.005187398754060268 0.12073023617267609
v 0.19978147745132446 -0.04081718996167183 0.11227907985448837
v 0.12314118444919586 -0.005676446482539177 0.11247392743825912
v 0.13641564548015594 -0.011866473592817783 0.12784653902053833
v 0.19978147745132446 -0.04081723466515541 0.12708157300949097
v 0.211625874042511 -0.04634031280875206 0.11882339417934418
v 0.20362789928913116 -0.04261082410812378 0.12926849722862244
v 0.21657966077327728 -0.048650339245796204 0.13099655508995056
v 0.20598295331001282 -0.04347700998187065 0.13777349889278412
v 0.21355023980140686 -0.046765200793743134 0.1458539515733719
v 0.20374494791030884 -0.041145194321870804 0.152145653963089
v 0.20086392760276794 -0.03980178385972977 0.14516767859458923
v 0.1907825767993927 -0.03239157795906067 0.14954645931720734
v 0.12314087897539139 -0.005676422733813524 0.1266772598028183
v 0.11469215154647827 -0.0017367447726428509 0.1205950528383255
v 0.12887252867221832 -0.00834908988326788 0.13529397547245026
v 0.20269811153411865 -0.033718135207891464 0.12693659961223602
v 0.1393500566482544 -0.004835048690438271 0.12799596786499023
v 0.12630560994148254 0.0012477311538532376 0.11260908842086792
v 0.2026982605457306 -0.03371809795498848 0.11168304085731506
v 0.2067899852991104 -0.035626139491796494 0.1288929581642151
v 0.21512280404567719 -0.03951186686754227 0.11818902939558029
v 0.22021833062171936 -0.04188786819577217 0.130500927567482
v 0.2091694474220276 -0.036967817693948746 0.13743609189987183
v 0.21690808236598969 -0.040816888213157654 0.14553679525852203
v 0.20316091179847717 -0.03545438498258591 0.1451338231563568
v 0.20617283880710602 -0.036858901381492615 0.15236203372478485
v 0.1907825767993927 -0.03239157795906067 0.14954645931720734
v 0.12630531191825867 0.0012477124109864235 0.1268267184495926
v 0.11785665899515152 0.005187398754060268 0.12073023617267609
v 0.13192176818847656 -0.0013712631771340966 0.13544335961341858
v 0.20269811153411865 -0.033718135207891464 0.12693659961223602
v 0.19978147745132446 -0.04081723466515541 0.12708157300949097
v 0.13641564548015594 -0.011866473592817783 0.12784653902053833
v 0.1393500566482544 -0.004835048690438271 0.12799596786499023
v 0.20362789928913116 -0.04261082410812378 0.12926849722862244
v 0.2067899852991104 -0.035626139491796494 0.1288929581642151
v 0.20598295331001282 -0.04347700998187065 0.13777349889278412
v 0.2091694474220276 -0.036967817693948746 0.13743609189987183
v 0.20086392760276794 -0.03980178385972977 0.14516767859458923
v 0.20316091179847717 -0.03545438498258591 0.1451338231563568
v 0.1907825767993927 -0.03239157795906067 0.14954645931720734
v 0.12887252867221832 -0.00834908988326788 0.13529397547245026
v 0.13192176818847656 -0.0013712631771340966 0.13544335961341858
v 0.12314087897539139 -0.005676422733813524 0.1266772598028183
v 0.12630531191825867 0.0012477124109864235 0.1268267184495926
v 0.11785665899515152 0.005187398754060268 0.12073023617267609
v 0.11469215154647827 -0.0017367447726428509 0.1205950528383255
vn 0.9968889355659485 -0.07881949841976166 2.3721220259176334e-06
vn 0.008507223799824715 -0.9386435747146606 -0.34478381276130676
vn -0.011451356112957 -0.9999344348907471 -2.234783551102737e-06
vn 0.9972875118255615 -0.021747928112745285 -0.07031864672899246
vn 0.11425889283418655 -0.9789856672286987 -0.16891443729400635
vn 0.9531315565109253 -0.21205757558345795 0.21580491960048676
vn 0.48748505115509033 -0.48179277777671814 -0.728171706199646
vn 0.933021605014801 -0.3436218202114105 -0.10674598813056946
vn 0.7908034324645996 -0.19893111288547516 -0.5788405537605286
vn 0.6612141132354736 0.37960630655288696 0.6470662951469421
vn 0.31809675693511963 -0.8324596285820007 -0.45367997884750366
vn 0.5958667993545532 0.3258970081806183 0.7339849472045898
vn 0.9177125692367554 -0.16140741109848022 -0.362975537776947
vn 0.14075212180614471 -0.5815865397453308 -0.8012152314186096
vn 0.6137168407440186 0.767294704914093 0.18603888154029846
vn 0.29723116755485535 0.9111599922180176 -0.2853787839412689
vn 0.18523947894573212 -0.7606014013290405 -0.6222314238548279
vn 0.4785689115524292 -0.8389855623245239 -0.2589886784553528
vn 0.9264516234397888 -0.054508283734321594 -0.3724462389945984
vn 0.2998059391975403 0.9441034197807312 0.13705939054489136
vn 0.760722279548645 -0.605972945690155 -0.23259064555168152
vn 0.1707703024148941 -0.7415318489074707 -0.6488204598426819
vn 0.8146650195121765 -0.579757809638977 0.014209292829036713
vn 0.9822306036949158 -0.16305214166641235 -0.09293556958436966
vn 0.9237870573997498 0.07517009228467941 -0.375455766916275
vn 0.22965116798877716 -0.49188128113746643 -0.8398292064666748
vn 0.1707703024148941 -0.7415318489074707 -0.6488204598426819
vn -0.9646651148796082 0.16878165304660797 -0.20232169330120087
vn -0.7316974997520447 -0.18918383121490479 -0.6548498868942261
vn 0.22965116798877716 -0.49188128113746643 -0.8398292064666748
vn 0.31809675693511963 -0.8324596285820007 -0.45367997884750366
vn -0.6148458123207092 -0.786848247051239 -0.0532396100461483
vn 0.11425889283418655 -0.9789856672286987 -0.16891443729400635
vn -0.8330581188201904 0.2894600033760071 0.4714095890522003
vn -0.8471112251281738 0.2901144325733185 0.4452372193336487
vn -0.8408929705619812 0.28330203890800476 0.461127907037735
vn -0.9421929717063904 0.1131184920668602 0.3153989911079407
vn 0.014764536172151566 -0.22603681683540344 0.9740068912506104
vn -0.4803142547607422 -0.5618884563446045 0.6734832525253296
vn 0.2583773136138916 0.4023546278476715 0.8782663941383362
vn 0.16209250688552856 0.9342137575149536 0.31775885820388794
vn -0.20281535387039185 0.952173113822937 -0.22854386270046234
vn -0.7456002831459045 0.47208675742149353 -0.47033417224884033
vn -0.3025623857975006 0.7001814246177673 0.6466854214668274
vn -0.6191768646240234 0.5153829455375671 0.5924529433250427
vn 0.6612141132354736 0.37960630655288696 0.6470662951469421
vn 0.5958667993545532 0.3258970081806183 0.7339849472045898
vn -0.5546647906303406 0.45250192284584045 0.6982757449150085
vn -0.9592105746269226 -0.035366643220186234 -0.28047171235084534
vn 0.6137168407440186 0.767294704914093 0.18603888154029846
vn 0.29723116755485535 0.9111599922180176 -0.2853787839412689
vn -0.5837503671646118 0.45396265387535095 0.673166811466217
vn 0.2998059391975403 0.9441034197807312 0.13705939054489136
vn -0.8599472045898438 -0.48165270686149597 0.16882388293743134
vn -0.6178738474845886 0.7645124197006226 0.183719202876091
vn -0.9992520213127136 -0.03866955637931824 -3.015998345290427e-06
vn -0.9941204190254211 -0.10467135161161423 0.027720024809241295
vn 0.010452344082295895 0.9999454021453857 1.9656661152112065e-06
vn -0.014474473893642426 0.9422650337219238 0.334555059671402
vn -0.9421929717063904 0.1131184920668602 0.3153989911079407
vn -0.3025623857975006 0.7001814246177673 0.6466854214668274
vn -0.014474473893642426 0.9422650337219238 0.334555059671402
vn -0.3025623857975006 0.7001814246177673 0.6466854214668274
vn 0.010452344082295895 0.9999454021453857 1.9656661152112065e-06
vn 0.48748505115509033 -0.48179277777671814 -0.728171706199646
vn -0.7456002831459045 0.47208675742149353 -0.47033417224884033
vn -0.20281535387039185 0.952173113822937 -0.22854386270046234
vn 0.7908034324645996 -0.19893111288547516 -0.5788405537605286
vn 0.16209250688552856 0.9342137575149536 0.31775885820388794
vn 0.9237870573997498 0.07517009228467941 -0.375455766916275
vn 0.2583773136138916 0.4023546278476715 0.8782663941383362
vn 0.9822306036949158 -0.16305214166641235 -0.09293556958436966
vn 0.14075212180614471 -0.5815865397453308 -0.8012152314186096
vn -0.9592105746269226 -0.035366643220186234 -0.28047171235084534
vn 0.014764536172151566 -0.22603681683540344 0.9740068912506104
vn 0.8146650195121765 -0.579757809638977 0.014209292829036713
vn 0.4785689115524292 -0.8389855623245239 -0.2589886784553528
vn -0.4803142547607422 -0.5618884563446045 0.6734832525253296
vn -0.8599472045898438 -0.48165270686149597 0.16882388293743134
vn 0.18523947894573212 -0.7606014013290405 -0.6222314238548279
vn -0.9592105746269226 -0.035366643220186234 -0.28047171235084534
vn 0.14075212180614471 -0.5815865397453308 -0.8012152314186096
vn -0.9421929717063904 0.1131184920668602 0.3153989911079407
vn -0.9941204190254211 -0.10467135161161423 0.027720024809241295
vn -0.9992520213127136 -0.03866955637931824 -3.015998345290427e-06
vn -0.9646651148796082 0.16878165304660797 -0.20232169330120087
vn 0.1707703024148941 -0.7415318489074707 -0.6488204598426819
vn 0.03370298072695732 -0.7104182839393616 -0.7029722332954407
vn -0.545775294303894 0.09872177988290787 -0.8320956826210022
vn -0.6269429922103882 0.768272876739502 -0.12922529876232147
vn 0.42596742510795593 0.8354861736297607 -0.34715205430984497
vn 0.2227099984884262 0.907401978969574 0.3564015030860901
vn 0.3917393982410431 0.8356521725654602 0.3850010335445404
vn -0.6178738474845886 0.7645124197006226 0.183719202876091
vn 0.2998059391975403 0.9441034197807312 0.13705939054489136
vn 0.9264516234397888 -0.054508283734321594 -0.3724462389945984
vn 0.2998059391975403 0.9441034197807312 0.13705939054489136
vn 0.2227099984884262 0.907401978969574 0.3564015030860901
vn 0.9378901720046997 -0.27889716625213623 0.20634527504444122
vn 0.760722279548645 -0.605972945690155 -0.23259064555168152
vn 0.3917393982410431 0.8356521725654602 0.3850010335445404
vn 0.8921589851379395 -0.14202816784381866 0.42881277203559875
vn 0.42596742510795593 0.8354861736297607 -0.34715205430984497
vn 0.608223557472229 -0.7902563810348511 -0.07455825060606003
vn 0.1707703024148941 -0.7415318489074707 -0.6488204598426819
vn 0.03370298072695732 -0.7104182839393616 -0.7029722332954407
vn 0.9259724020957947 -0.14885056018829346 -0.34701400995254517
vn -0.545775294303894 0.09872177988290787 -0.8320956826210022
vn 0.00850555021315813 -0.9386451840400696 0.3447796404361725
vn 0.9968889355659485 -0.07881949841976166 2.3721220259176334e-06
vn -0.011451356112957 -0.9999344348907471 -2.234783551102737e-06
vn 0.9972870349884033 -0.02174803614616394 0.0703250840306282
vn 0.11425725370645523 -0.9789863228797913 0.1689111590385437
vn 0.9531335830688477 -0.21205489337444305 -0.21579861640930176
vn 0.4874792993068695 -0.48179495334625244 0.728174090385437
vn 0.9330210089683533 -0.34362199902534485 0.10675054788589478
vn 0.7908007502555847 -0.19893302023410797 0.5788435339927673
vn 0.6612162590026855 0.37960970401763916 -0.6470621228218079
vn 0.3180948495864868 -0.8324613571166992 0.45367804169654846
vn 0.5958743691444397 0.32589972019195557 -0.7339776158332825
vn 0.9177095890045166 -0.16140876710414886 0.36298254132270813
vn 0.14074444770812988 -0.5815899968147278 0.8012141585350037
vn 0.613716721534729 0.7672966718673706 -0.1860310584306717
vn 0.2972296178340912 0.9111582040786743 0.2853862941265106
vn 0.18523232638835907 -0.7606057524681091 0.62222820520401
vn 0.47856605052948 -0.8389876484870911 0.2589869797229767
vn 0.9264492392539978 -0.054509103298187256 0.37245193123817444
vn 0.29980117082595825 0.944105327129364 -0.13705581426620483
vn 0.760718047618866 -0.6059778928756714 0.23259195685386658
vn 0.17076502740383148 -0.7415341734886169 0.6488192677497864
vn 0.8146641254425049 -0.5797590017318726 -0.014209053479135036
vn 0.9822298288345337 -0.1630522608757019 0.09294421225786209
vn 0.923784613609314 0.0751701295375824 0.3754615783691406
vn 0.22964432835578918 -0.49188509583473206 0.8398288488388062
vn 0.17076502740383148 -0.7415341734886169 0.6488192677497864
vn 0.22964432835578918 -0.49188509583473206 0.8398288488388062
vn -0.7317023277282715 -0.18918657302856445 0.6548435091972351
vn -0.9646666646003723 0.16878022253513336 0.20231512188911438
vn 0.3180948495864868 -0.8324613571166992 0.45367804169654846
vn -0.6148455142974854 -0.7868490815162659 0.05323219671845436
vn 0.11425725370645523 -0.9789863228797913 0.1689111590385437
vn -0.8330540657043457 0.28946173191070557 -0.47141578793525696
vn -0.8471072316169739 0.2901163697242737 -0.44524356722831726
vn -0.840890109539032 0.2833032011985779 -0.4611324369907379
vn -0.9421908855438232 0.11311962455511093 -0.3154051601886749
vn 0.014769988134503365 -0.22603172063827515 -0.9740079045295715
vn -0.48031163215637207 -0.5618832111358643 -0.673489511013031
vn 0.25838232040405273 0.4023599326610565 -0.8782625794410706
vn 0.16209456324577332 0.9342154264450073 -0.31775304675102234
vn -0.20281682908535004 0.9521724581718445 0.2285453826189041
vn -0.7456015348434448 0.47208836674690247 0.4703305959701538
vn -0.30255866050720215 0.7001835703849792 -0.6466848254203796
vn -0.6191733479499817 0.5153854489326477 -0.5924544334411621
vn 0.6612162590026855 0.37960970401763916 -0.6470621228218079
vn 0.5958743691444397 0.32589972019195557 -0.7339776158332825
vn -0.554660975933075 0.45250439643859863 -0.6982771158218384
vn -0.9592123031616211 -0.03536706417798996 0.28046560287475586
vn 0.613716721534729 0.7672966718673706 -0.1860310584306717
vn 0.2972296178340912 0.9111582040786743 0.2853862941265106
vn -0.8599449396133423 -0.48165255784988403 -0.16883577406406403
vn -0.5837457776069641 0.45396527647972107 -0.6731688976287842
vn 0.29980117082595825 0.944105327129364 -0.13705581426620483
vn -0.6178743243217468 0.7645115256309509 -0.1837211698293686
vn -0.994120180606842 -0.10467169433832169 -0.027727439999580383
vn -0.9992520213127136 -0.03866955637931824 -3.015998345290427e-06
vn 0.010452344082295895 0.9999454021453857 1.9656661152112065e-06
vn -0.014471523463726044 0.9422665238380432 -0.33455079793930054
vn -0.9421908855438232 0.11311962455511093 -0.3154051601886749
vn -0.30255866050720215 0.7001835703849792 -0.6466848254203796
vn -0.30255866050720215 0.7001835703849792 -0.6466848254203796
vn -0.014471523463726044 0.9422665238380432 -0.33455079793930054
vn 0.010452344082295895 0.9999454021453857 1.9656661152112065e-06
vn 0.4874792993068695 -0.48179495334625244 0.728174090385437
vn 0.7908007502555847 -0.19893302023410797 0.5788435339927673
vn -0.20281682908535004 0.9521724581718445 0.2285453826189041
vn -0.7456015348434448 0.47208836674690247 0.4703305959701538
vn 0.16209456324577332 0.9342154264450073 -0.31775304675102234
vn 0.923784613609314 0.0751701295375824 0.3754615783691406
vn 0.25838232040405273 0.4023599326610565 -0.8782625794410706
vn 0.9822298288345337 -0.1630522608757019 0.09294421225786209
vn 0.14074444770812988 -0.5815899968147278 0.8012141585350037
vn -0.9592123031616211 -0.03536706417798996 0.28046560287475586
vn 0.014769988134503365 -0.22603172063827515 -0.9740079045295715
vn 0.8146641254425049 -0.5797590017318726 -0.014209053479135036
vn 0.47856605052948 -0.8389876484870911 0.2589869797229767
vn -0.48031163215637207 -0.5618832111358643 -0.673489511013031
vn -0.8599449396133423 -0.48165255784988403 -0.16883577406406403
vn 0.18523232638835907 -0.7606057524681091 0.62222820520401
vn -0.9592123031616211 -0.03536706417798996 0.28046560287475586
vn 0.14074444770812988 -0.5815899968147278 0.8012141585350037
vn -0.994120180606842 -0.10467169433832169 -0.027727439999580383
vn -0.9421908855438232 0.11311962455511093 -0.3154051601886749
vn -0.9992520213127136 -0.03866955637931824 -3.015998345290427e-06
vn -0.9646666646003723 0.16878022253513336 0.20231512188911438
vn -0.5457741022109985 0.09871917217969894 0.8320968747138977
vn 0.03369421511888504 -0.7104233503341675 0.7029674649238586
vn 0.17076502740383148 -0.7415341734886169 0.6488192677497864
vn -0.6269462704658508 0.7682700157165527 0.12922701239585876
vn 0.4259684979915619 0.8354836106300354 0.3471570611000061
vn 0.222715362906456 0.9074033498764038 -0.3563946485519409
vn 0.3917407989501953 0.835654616355896 -0.3849939703941345
vn -0.6178743243217468 0.7645115256309509 -0.1837211698293686
vn 0.29980117082595825 0.944105327129364 -0.13705581426620483
vn 0.9264492392539978 -0.054509103298187256 0.37245193123817444
vn 0.9378923773765564 -0.2788929343223572 -0.2063409686088562
vn 0.222715362906456 0.9074033498764038 -0.3563946485519409
vn 0.29980117082595825 0.944105327129364 -0.13705581426620483
vn 0.760718047618866 -0.6059778928756714 0.23259195685386658
vn 0.8960487842559814 -0.44395557045936584 4.546542186290026e-06
vn 0.3917407989501953 0.835654616355896 -0.3849939703941345
vn 0.8921605944633484 -0.1420266032218933 -0.42880988121032715
vn 0.4259684979915619 0.8354836106300354 0.3471570611000061
vn 0.608223557472229 -0.7902562618255615 0.07456004619598389
vn 0.17076502740383148 -0.7415341734886169 0.6488192677497864
vn 0.03369421511888504 -0.7104233503341675 0.7029674649238586
vn 0.9259716868400574 -0.14885179698467255 0.3470154106616974
vn -0.5457741022109985 0.09871917217969894 0.8320968747138977
vn 0.4175098240375519 0.515806257724762 -0.7480838298797607
vn 0.014306765981018543 0.6885292530059814 -0.7250674962997437
vn -0.5145162343978882 -0.469838410615921 -0.7173038125038147
vn -0.1298559308052063 -0.6846045255661011 -0.7172545194625854
vn 0.7691602110862732 0.31327658891677856 -0.5570012331008911
vn 0.2056971937417984 -0.831825315952301 -0.5155146718025208
vn 0.9694420099258423 0.23265774548053741 -0.07779810577630997
vn 0.3881303369998932 -0.9199095964431763 -0.055866893380880356
vn 0.8270952701568604 0.29390278458595276 0.47909772396087646
vn 0.2552551329135895 -0.8345518708229065 0.48822954297065735
vn 0.3468237817287445 0.517848551273346 0.7820141315460205
vn -0.20824182033538818 -0.610373854637146 0.7642505764961243
vn -0.9018328189849854 0.4221189618110657 0.09226713329553604
vn -0.9846867918968201 -0.16714458167552948 0.0495440736413002
vn -0.5112172365188599 0.857046902179718 0.06424611806869507
vn -0.1298559308052063 -0.6846045255661011 -0.7172545194625854
vn -0.5145162343978882 -0.469838410615921 -0.7173038125038147
vn -0.1376948058605194 -0.8138483166694641 0.5645272731781006
vn -0.4486788809299469 -0.6308504343032837 0.6330205798149109
vn 0.2056971937417984 -0.831825315952301 -0.5155146718025208
vn -0.7491388320922852 -0.5393213033676147 0.3846082091331482
vn 0.3881303369998932 -0.9199095964431763 -0.055866893380880356
vn -0.8558948040008545 -0.513128399848938 -0.0643676370382309
vn 0.2552551329135895 -0.8345518708229065 0.48822954297065735
vn -0.20824182033538818 -0.610373854637146 0.7642505764961243
vn -0.7409898042678833 -0.4969058632850647 -0.4516841471195221
vn -0.9018328189849854 0.4221189618110657 0.09226713329553604
vn -0.7277384400367737 -0.49589410424232483 0.47379928827285767
vn -0.9846867918968201 -0.16714458167552948 0.0495440736413002
vn -0.31325119733810425 -0.49086007475852966 0.812976062297821
vn 0.19875147938728333 0.7478453516960144 0.6334234476089478
vn 0.5377877354621887 0.6271021962165833 0.5634955167770386
vn 0.014306765981018543 0.6885292530059814 -0.7250674962997437
vn 0.4175098240375519 0.515806257724762 -0.7480838298797607
vn -0.042457204312086105 0.9214381575584412 0.38619816303253174
vn 0.7691602110862732 0.31327658891677856 -0.5570012331008911
vn 0.9694420099258423 0.23265774548053741 -0.07779810577630997
vn -0.14552830159664154 0.9883642196655273 -0.04424469545483589
vn 0.8270952701568604 0.29390278458595276 0.47909772396087646
vn -0.09078997373580933 0.8944066762924194 -0.43794262409210205
vn 0.3468237817287445 0.517848551273346 0.7820141315460205
vn -0.9018328189849854 0.4221189618110657 0.09226713329553604
vn -0.10420889407396317 0.8687148094177246 0.4842263460159302
vn -0.5112172365188599 0.857046902179718 0.06424611806869507
vn 0.15393254160881042 0.5533692240715027 0.8185886144638062
vn 0.19875147938728333 0.7478453516960144 0.6334234476089478
vn -0.4486788809299469 -0.6308504343032837 0.6330205798149109
vn -0.1376948058605194 -0.8138483166694641 0.5645272731781006
vn 0.5377877354621887 0.6271021962165833 0.5634955167770386
vn -0.7491388320922852 -0.5393213033676147 0.3846082091331482
vn -0.042457204312086105 0.9214381575584412 0.38619816303253174
vn -0.8558948040008545 -0.513128399848938 -0.0643676370382309
vn -0.14552830159664154 0.9883642196655273 -0.04424469545483589
vn -0.7409898042678833 -0.4969058632850647 -0.4516841471195221
vn -0.09078997373580933 0.8944066762924194 -0.43794262409210205
vn -0.9018328189849854 0.4221189618110657 0.09226713329553604
vn -0.31325119733810425 -0.49086007475852966 0.812976062297821
vn 0.15393254160881042 0.5533692240715027 0.8185886144638062
vn -0.7277384400367737 -0.49589410424232483 0.47379928827285767
vn -0.10420889407396317 0.8687148094177246 0.4842263460159302
vn -0.5112172365188599 0.857046902179718 0.06424611806869507
vn -0.9846867918968201 -0.16714458167552948 0.0495440736413002
vt 0.8054799437522888 0.1791841983795166
vt 0.5628433227539062 0.3778266906738281
vt 0.8430839776992798 0.32459646463394165
vt 0.5640948414802551 0.21882575750350952
vt 0.4156830310821533 0.3690531849861145
vt 0.4309856593608856 0.21520739793777466
vt 0.32857412099838257 0.2620244026184082
vt 0.3341125249862671 0.1594151258468628
vt 0.32328423857688904 0.3228651285171509
vt 0.35892751812934875 0.12359899282455444
vt 0.2885695695877075 0.4242549538612366
vt 0.29822301864624023 0.09425419569015503
vt 0.2565125823020935 0.11796623468399048
vt 0.28964465856552124 0.2233264446258545
vt 0.2332446575164795 0.029182851314544678
vt 0.19894573092460632 0.08764100074768066
vt 0.23250427842140198 0.2079678773880005
vt 0.19071847200393677 0.22590941190719604
vt 0.1316552460193634 0.17181378602981567
vt 0.09670712798833847 0.1279650330543518
vt 0.13169646263122559 0.23393750190734863
vt 0.10741091519594193 0.2919617295265198
vt 0.17786897718906403 0.28586429357528687
vt 0.21210145950317383 0.3423117399215698
vt 0.2725260257720947 0.357124924659729
vt 0.1738532930612564 0.39872080087661743
vt 0.48009824752807617 0.6718781590461731
vt 0.4965188503265381 0.6394258141517639
vt 0.39954638481140137 0.6601802706718445
vt 0.39129090309143066 0.6835863590240479
vt 0.3078043460845947 0.653233528137207
vt 0.31661534309387207 0.6283756494522095
vt 0.24405241012573242 0.5831754803657532
vt 0.4716498851776123 0.6151922941207886
vt 0.39647531509399414 0.6315248012542725
vt 0.32978081703186035 0.6019148826599121
vt 0.2773357629776001 0.5472365021705627
vt 0.43697285652160645 0.5754231214523315
vt 0.45586514472961426 0.5452404618263245
vt 0.39966559410095215 0.5848275423049927
vt 0.36795902252197266 0.5707207322120667
vt 0.36165308952331543 0.5396443009376526
vt 0.386913537979126 0.5092795491218567
vt 0.36230015754699707 0.4449607729911804
vt 0.425429105758667 0.4544089436531067
vt 0.43541526794433594 0.4221842885017395
vt 0.47272229194641113 0.44140201807022095
vt 0.48009371757507324 0.4726051092147827
vt 0.4153711795806885 0.5056465268135071
vt 0.5325062274932861 0.43155449628829956
vt 0.5245146751403809 0.4755839705467224
vt 0.5120069980621338 0.5506064891815186
vt 0.5502016544342041 0.5456516146659851
vt 0.4434316158294678 0.5226902961730957
vt 0.5356945991516113 0.5946195125579834
vt 0.9631696343421936 0.33554381132125854
vt 0.9498094916343689 0.19740664958953857
vt 0.8890520334243774 0.33761924505233765
vt 0.8742663264274597 0.22052425146102905
vt 0.9233925342559814 0.12760531902313232
vt 0.8533303141593933 0.15672242641448975
vt 0.5634952783584595 0.1965438723564148
vt 0.43776530027389526 0.189131498336792
vt 0.7985477447509766 0.1575527787208557
vt 0.925799548625946 0.08396315574645996
vt 0.9151899814605713 0.06141185760498047
vt 0.8489969372749329 0.0940479040145874
vt 0.8601338267326355 0.11629599332809448
vt 0.7849655747413635 0.11059451103210449
vt 0.7902352809906006 0.13491052389144897
vt 0.7162857055664062 0.1218717098236084
vt 0.7189401388168335 0.14675921201705933
vt 0.9740093350410461 0.04553335905075073
vt 0.957410454750061 0.027084827423095703
vt 0.6410840153694153 0.1257944107055664
vt 0.6427817344665527 0.15076464414596558
vt 0.5710761547088623 0.15691709518432617
vt 0.5684371590614319 0.13202786445617676
vt 0.5147424936294556 0.14145314693450928
vt 0.5174773335456848 0.16633063554763794
vt 0.44840186834335327 0.14088767766952515
vt 0.4467964470386505 0.16586196422576904
vt 0.4118446409702301 0.39146512746810913
vt 0.5655091404914856 0.3989965319633484
vt 0.8437033295631409 0.34682726860046387
vt 0.9207829236984253 0.4328904151916504
vt 0.9645712375640869 0.431337833404541
vt 0.9645735025405884 0.953794714063406
vt 0.9133113622665405 0.9660057388246059
vt 0.8550868034362793 0.8548099994659424
vt 0.7587745189666748 0.8486092686653137
vt 0.7992483377456665 0.7584182024002075
vt 0.7548820972442627 0.7845324277877808
vt 0.8548898696899414 0.40512728691101074
vt 0.7990460395812988 0.3773852586746216
vt 0.13778604567050934 0.9632917456328869
vt 0.18509529531002045 0.9742480330169201
vt 0.19190256297588348 0.5879444479942322
vt 0.14198137819766998 0.5817136168479919
vt 0.08641086518764496 0.9386802725493908
vt 0.22688846290111542 0.5459771454334259
vt 0.1829468458890915 0.5456254780292511
vt 0.2175569385290146 0.47121161222457886
vt 0.08476485311985016 0.4811549186706543
vt 0.03350354731082916 0.9156076163053513
vt 0.03445933759212494 0.38013434410095215
vt 0.1735161691904068 0.48207414150238037
vt 0.061920326203107834 0.3426975607872009
vt 0.5628433227539062 0.3778266906738281
vt 0.8054799437522888 0.1791841983795166
vt 0.8430839776992798 0.32459646463394165
vt 0.5640948414802551 0.21882575750350952
vt 0.4156830310821533 0.3690531849861145
vt 0.4309856593608856 0.21520739793777466
vt 0.32857412099838257 0.2620244026184082
vt 0.3341125249862671 0.1594151258468628
vt 0.32328423857688904 0.3228651285171509
vt 0.35892751812934875 0.12359899282455444
vt 0.2885695695877075 0.4242549538612366
vt 0.29822301864624023 0.09425419569015503
vt 0.2565125823020935 0.11796623468399048
vt 0.28964465856552124 0.2233264446258545
vt 0.2332446575164795 0.029182851314544678
vt 0.19894573092460632 0.08764100074768066
vt 0.23250427842140198 0.2079678773880005
vt 0.19071847200393677 0.22590941190719604
vt 0.1316552460193634 0.17181378602981567
vt 0.09670712798833847 0.1279650330543518
vt 0.13169646263122559 0.23393750190734863
vt 0.10741091519594193 0.2919617295265198
vt 0.17786897718906403 0.28586429357528687
vt 0.21210145950317383 0.3423117399215698
vt 0.2725260257720947 0.357124924659729
vt 0.1738532930612564 0.39872080087661743
vt 0.48009824752807617 0.6718781590461731
vt 0.39129090309143066 0.6835863590240479
vt 0.39954638481140137 0.6601802706718445
vt 0.4965188503265381 0.6394258141517639
vt 0.3078043460845947 0.653233528137207
vt 0.31661534309387207 0.6283756494522095
vt 0.24405241012573242 0.5831754803657532
vt 0.4716498851776123 0.6151922941207886
vt 0.39647531509399414 0.6315248012542725
vt 0.32978081703186035 0.6019148826599121
vt 0.2773357629776001 0.5472365021705627
vt 0.43697285652160645 0.5754231214523315
vt 0.45586514472961426 0.5452404618263245
vt 0.39966559410095215 0.5848275423049927
vt 0.36795902252197266 0.5707207322120667
vt 0.36165308952331543 0.5396443009376526
vt 0.386913537979126 0.5092795491218567
vt 0.36230015754699707 0.4449607729911804
vt 0.425429105758667 0.4544089436531067
vt 0.43541526794433594 0.4221842885017395
vt 0.47272229194641113 0.44140201807022095
vt 0.48009371757507324 0.4726051092147827
vt 0.4153711795806885 0.5056465268135071
vt 0.5325062274932861 0.43155449628829956
vt 0.5245146751403809 0.4755839705467224
vt 0.4434316158294678 0.5226902961730957
vt 0.5120069980621338 0.5506064891815186
vt 0.5502016544342041 0.5456516146659851
vt 0.5356945991516113 0.5946195125579834
vt 0.9498094916343689 0.19740664958953857
vt 0.9631696343421936 0.33554381132125854
vt 0.8890520334243774 0.33761924505233765
vt 0.8742663264274597 0.22052425146102905
vt 0.9233925342559814 0.12760531902313232
vt 0.8533303141593933 0.15672242641448975
vt 0.43776530027389526 0.189131498336792
vt 0.5634952783584595 0.1965438723564148
vt 0.7985477447509766 0.1575527787208557
vt 0.925799548625946 0.08396315574645996
vt 0.8601338267326355 0.11629599332809448
vt 0.8489969372749329 0.0940479040145874
vt 0.9151899814605713 0.06141185760498047
vt 0.7849655747413635 0.11059451103210449
vt 0.7902352809906006 0.13491052389144897
vt 0.7162857055664062 0.1218717098236084
vt 0.7189401388168335 0.14675921201705933
vt 0.9740093350410461 0.04553335905075073
vt 0.957410454750061 0.027084827423095703
vt 0.6410840153694153 0.1257944107055664
vt 0.6427817344665527 0.15076464414596558
vt 0.5710761547088623 0.15691709518432617
vt 0.5684371590614319 0.13202786445617676
vt 0.5147424936294556 0.14145314693450928
vt 0.5174773335456848 0.16633063554763794
vt 0.44840186834335327 0.14088767766952515
vt 0.4467964470386505 0.16586196422576904
vt 0.5655091404914856 0.3989965319633484
vt 0.4118446409702301 0.39146512746810913
vt 0.8437033295631409 0.34682726860046387
vt 0.9207829236984253 0.4328904151916504
vt 0.9133113622665405 0.9660057388246059
vt 0.9645735025405884 0.953794714063406
vt 0.9645712375640869 0.431337833404541
vt 0.8550868034362793 0.8548099994659424
vt 0.7587745189666748 0.8486092686653137
vt 0.7992483377456665 0.7584182024002075
vt 0.7548820972442627 0.7845324277877808
vt 0.8548898696899414 0.40512728691101074
vt 0.7990460395812988 0.3773852586746216
vt 0.13778604567050934 0.9632917456328869
vt 0.14198137819766998 0.5817136168479919
vt 0.19190256297588348 0.5879444479942322
vt 0.18509529531002045 0.9742480330169201
vt 0.08641086518764496 0.9386802725493908
vt 0.11298234760761261 0.8001431226730347
vt 0.22688846290111542 0.5459771454334259
vt 0.1829468458890915 0.5456254780292511
vt 0.2175569385290146 0.47121161222457886
vt 0.08476485311985016 0.4811549186706543
vt 0.03350354731082916 0.9156076163053513
vt 0.03445933759212494 0.38013434410095215
vt 0.1735161691904068 0.48207414150238037
vt 0.061920326203107834 0.3426975607872009
vt 0.6442667245864868 0.05916094779968262
vt 0.3686869144439697 0.05529147386550903
vt 0.3689344823360443 0.030323505401611328
vt 0.6456365585327148 0.033956050872802734
vt 0.6940157413482666 0.05821508169174194
vt 0.6936155557632446 0.032962143421173096
vt 0.7382835149765015 0.05491280555725098
vt 0.7372994422912598 0.029683351516723633
vt 0.7884039878845215 0.047759830951690674
vt 0.7872610092163086 0.025359392166137695
vt 0.8311320543289185 0.03856760263442993
vt 0.8296034336090088 0.022468984127044678
vt 0.8816137313842773 0.021191895008087158
vt 0.3282442092895508 0.030809462070465088
vt 0.32824432849884033 0.055790603160858154
vt 0.5958840250968933 0.4770545959472656
vt 0.5958840250968933 0.8252869695425034
vt 0.6615788340568542 0.7662631124258041
vt 0.6579343676567078 0.47379112243652344
vt 0.6204659342765808 0.4207443594932556
vt 0.6662320494651794 0.45552074909210205
vt 0.67039555311203 0.39515531063079834
vt 0.7013983130455017 0.44319117069244385
vt 0.7335626482963562 0.40683960914611816
vt 0.7625687718391418 0.4528285264968872
vt 0.7340039610862732 0.4677450656890869
vt 0.7555919289588928 0.5191143751144409
vt 0.6553458571434021 0.8275067657232285
vt 0.628439724445343 0.8657175153493881
vt 0.6921269297599792 0.8018219321966171
vt 0.3264352083206177 0.8847600892186165
vt 0.6760551929473877 0.8804050162434578
vt 0.7413963079452515 0.9610028937458992
vt 0.3343219757080078 0.9610043242573738
vt 0.3028451204299927 0.8772226050496101
vt 0.26230740547180176 0.9355451539158821
vt 0.2278289794921875 0.8767710402607918
vt 0.284831166267395 0.8358344584703445
vt 0.23743069171905518 0.7996731549501419
vt 0.3115147352218628 0.7938878089189529
vt 0.29109036922454834 0.7594539672136307
vt 0.37282633781433105 0.7646648436784744
vt 0.7475770711898804 0.8901973441243172
vt 0.7916771173477173 0.9245928004384041
vt 0.7190661430358887 0.8452094346284866
vt 0.6917141079902649 0.10183125734329224
vt 0.6927186250686646 0.07704943418502808
vt 0.4675556421279907 0.07664138078689575
vt 0.4667022228240967 0.10125130414962769
vt 0.708143949508667 0.07689380645751953
vt 0.7076045870780945 0.10169219970703125
vt 0.7368046045303345 0.07676178216934204
vt 0.7365514039993286 0.10020464658737183
vt 0.7680920958518982 0.0793728232383728
vt 0.7680971622467041 0.09525984525680542
vt 0.8105311989784241 0.08521252870559692
vt 0.4314459562301636 0.07698506116867065
vt 0.4309306740760803 0.10159343481063843
vt 0.39689216017723083 0.07623642683029175
vt 0.3966566324234009 0.1008424162864685
vt 0.36068442463874817 0.10037392377853394
vt 0.3608991503715515 0.07576775550842285

g F_lies_hat_00
s 1
usemtl F_lies_hat_00
f 3/3/3 2/2/2 1/1/1 
f 2/2/2 4/4/4 1/1/1 
f 4/4/4 2/2/2 5/5/5 
f 6/6/6 4/4/4 5/5/5 
f 7/7/7 6/6/6 5/5/5 
f 6/6/6 7/7/7 8/8/8 
f 9/9/9 7/7/7 5/5/5 
f 8/8/8 10/10/10 6/6/6 
f 11/11/11 9/9/9 5/5/5 
f 12/12/12 10/10/10 8/8/8 
f 13/13/13 12/12/12 8/8/8 
f 8/8/8 14/14/14 13/13/13 
f 7/7/7 14/14/14 8/8/8 
f 15/15/15 12/12/12 13/13/13 
f 16/16/16 15/15/15 13/13/13 
f 13/13/13 14/14/14 17/17/17 
f 17/17/17 18/18/18 13/13/13 
f 18/18/18 19/19/19 13/13/13 
f 16/16/16 13/13/13 19/19/19 
f 20/20/20 16/16/16 19/19/19 
f 21/21/21 19/19/19 18/18/18 
f 22/22/22 21/21/21 18/18/18 
f 18/18/18 23/23/23 22/22/22 
f 23/23/23 24/24/24 22/22/22 
f 11/11/11 25/25/25 9/9/9 
f 25/25/25 11/11/11 26/26/26 
f 24/24/24 25/25/25 26/26/26 
f 24/24/24 26/26/26 22/22/22 
f 29/29/29 28/28/28 27/27/27 
f 30/30/30 29/29/29 27/27/27 
f 29/29/29 30/30/30 31/31/31 
f 32/32/32 29/29/29 31/31/31 
f 33/33/33 32/32/32 31/31/31 
f 34/34/34 28/28/28 29/29/29 
f 35/35/35 34/34/34 29/29/29 
f 36/36/36 35/35/35 29/29/29 
f 32/32/32 36/36/36 29/29/29 
f 36/36/36 32/32/32 37/37/37 
f 33/33/33 37/37/37 32/32/32 
f 38/38/38 34/34/34 35/35/35 
f 34/34/34 38/38/38 39/39/39 
f 40/40/40 38/38/38 35/35/35 
f 35/35/35 36/36/36 41/41/41 
f 40/40/40 35/35/35 41/41/41 
f 37/37/37 42/42/42 36/36/36 
f 42/42/42 41/41/41 36/36/36 
f 42/42/42 37/37/37 43/43/43 
f 37/37/37 44/44/44 43/43/43 
f 45/45/45 43/43/43 44/44/44 
f 44/44/44 46/46/46 45/45/45 
f 45/45/45 46/46/46 47/47/47 
f 45/45/45 47/47/47 48/48/48 
f 48/48/48 49/49/49 45/45/45 
f 45/45/45 49/49/49 43/43/43 
f 48/48/48 47/47/47 50/50/50 
f 48/48/48 50/50/50 51/51/51 
f 48/48/48 52/52/52 39/39/39 
f 52/52/52 48/48/48 51/51/51 
f 52/52/52 51/51/51 53/53/53 
f 54/54/54 48/48/48 39/39/39 
f 54/54/54 49/49/49 48/48/48 
f 52/52/52 53/53/53 55/55/55 
f 52/52/52 55/55/55 34/34/34 
f 55/55/55 28/28/28 34/34/34 
f 39/39/39 52/52/52 34/34/34 
f 58/58/58 57/57/57 56/56/56 
f 58/58/58 59/59/59 57/57/57 
f 60/60/60 57/57/57 59/59/59 
f 60/60/60 59/59/59 61/61/61 
f 63/63/63 62/62/62 4/4/4 
f 6/6/6 63/63/63 4/4/4 
f 4/4/4 62/62/62 1/1/1 
f 62/62/62 64/64/64 1/1/1 
f 6/6/6 10/10/10 63/63/63 
f 67/67/67 66/66/66 65/65/65 
f 68/68/68 67/67/67 65/65/65 
f 69/69/69 67/67/67 68/68/68 
f 70/70/70 69/69/69 68/68/68 
f 71/71/71 69/69/69 70/70/70 
f 72/72/72 71/71/71 70/70/70 
f 65/65/65 66/66/66 73/73/73 
f 66/66/66 74/74/74 73/73/73 
f 75/75/75 71/71/71 72/72/72 
f 72/72/72 76/76/76 75/75/75 
f 76/76/76 77/77/77 75/75/75 
f 77/77/77 78/78/78 75/75/75 
f 79/79/79 78/78/78 77/77/77 
f 80/80/80 79/79/79 77/77/77 
f 81/81/81 79/79/79 80/80/80 
f 82/82/82 81/81/81 80/80/80 
f 84/84/84 83/83/83 5/5/5 
f 2/2/2 84/84/84 5/5/5 
f 85/85/85 84/84/84 2/2/2 
f 3/3/3 85/85/85 2/2/2 
f 88/88/88 87/87/87 86/86/86 
f 89/89/89 88/88/88 86/86/86 
f 86/86/86 90/90/90 89/89/89 
f 89/89/89 90/90/90 91/91/91 
f 90/90/90 92/92/92 91/91/91 
f 92/92/92 93/93/93 91/91/91 
f 94/94/94 92/92/92 90/90/90 
f 86/86/86 94/94/94 90/90/90 
f 94/94/94 95/95/95 92/92/92 
f 98/98/98 97/97/97 96/96/96 
f 99/99/99 98/98/98 96/96/96 
f 100/100/100 99/99/99 96/96/96 
f 98/98/98 99/99/99 101/101/101 
f 99/99/99 102/102/102 101/101/101 
f 102/102/102 103/103/103 101/101/101 
f 104/104/104 99/99/99 100/100/100 
f 102/102/102 99/99/99 104/104/104 
f 105/105/105 104/104/104 100/100/100 
f 105/105/105 106/106/106 104/104/104 
f 106/106/106 107/107/107 104/104/104 
f 102/102/102 107/107/107 103/103/103 
f 107/107/107 102/102/102 104/104/104 
f 107/107/107 106/106/106 108/108/108 
f 103/103/103 107/107/107 108/108/108 
f 111/111/111 110/110/110 109/109/109 
f 109/109/109 110/110/110 112/112/112 
f 112/112/112 113/113/113 109/109/109 
f 114/114/114 113/113/113 112/112/112 
f 114/114/114 115/115/115 113/113/113 
f 114/114/114 116/116/116 115/115/115 
f 115/115/115 117/117/117 113/113/113 
f 116/116/116 114/114/114 118/118/118 
f 119/119/119 113/113/113 117/117/117 
f 120/120/120 116/116/116 118/118/118 
f 121/121/121 116/116/116 120/120/120 
f 116/116/116 121/121/121 122/122/122 
f 115/115/115 116/116/116 122/122/122 
f 123/123/123 121/121/121 120/120/120 
f 124/124/124 121/121/121 123/123/123 
f 121/121/121 125/125/125 122/122/122 
f 126/126/126 125/125/125 121/121/121 
f 127/127/127 126/126/126 121/121/121 
f 124/124/124 127/127/127 121/121/121 
f 128/128/128 127/127/127 124/124/124 
f 126/126/126 127/127/127 129/129/129 
f 126/126/126 129/129/129 130/130/130 
f 130/130/130 131/131/131 126/126/126 
f 131/131/131 130/130/130 132/132/132 
f 119/119/119 117/117/117 133/133/133 
f 133/133/133 132/132/132 134/134/134 
f 132/132/132 130/130/130 134/134/134 
f 119/119/119 133/133/133 134/134/134 
f 137/137/137 136/136/136 135/135/135 
f 138/138/138 137/137/137 135/135/135 
f 136/136/136 137/137/137 139/139/139 
f 137/137/137 140/140/140 139/139/139 
f 141/141/141 139/139/139 140/140/140 
f 138/138/138 142/142/142 137/137/137 
f 142/142/142 143/143/143 137/137/137 
f 144/144/144 140/140/140 137/137/137 
f 143/143/143 144/144/144 137/137/137 
f 144/144/144 145/145/145 140/140/140 
f 141/141/141 140/140/140 145/145/145 
f 142/142/142 146/146/146 143/143/143 
f 142/142/142 147/147/147 146/146/146 
f 146/146/146 148/148/148 143/143/143 
f 143/143/143 148/148/148 149/149/149 
f 144/144/144 143/143/143 149/149/149 
f 145/145/145 144/144/144 150/150/150 
f 150/150/150 144/144/144 149/149/149 
f 145/145/145 150/150/150 151/151/151 
f 152/152/152 145/145/145 151/151/151 
f 153/153/153 152/152/152 151/151/151 
f 152/152/152 153/153/153 154/154/154 
f 153/153/153 155/155/155 154/154/154 
f 153/153/153 156/156/156 155/155/155 
f 156/156/156 153/153/153 157/157/157 
f 153/153/153 151/151/151 157/157/157 
f 156/156/156 158/158/158 155/155/155 
f 156/156/156 159/159/159 158/158/158 
f 156/156/156 160/160/160 147/147/147 
f 160/160/160 156/156/156 157/157/157 
f 161/161/161 156/156/156 147/147/147 
f 161/161/161 159/159/159 156/156/156 
f 161/161/161 162/162/162 159/159/159 
f 161/161/161 163/163/163 162/162/162 
f 161/161/161 142/142/142 163/163/163 
f 163/163/163 142/142/142 138/138/138 
f 147/147/147 142/142/142 161/161/161 
f 166/166/166 165/165/165 164/164/164 
f 166/166/166 164/164/164 167/167/167 
f 168/168/168 167/167/167 164/164/164 
f 168/168/168 169/169/169 167/167/167 
f 170/170/170 114/114/114 112/112/112 
f 171/171/171 170/170/170 112/112/112 
f 171/171/171 112/112/112 110/110/110 
f 172/172/172 171/171/171 110/110/110 
f 114/114/114 170/170/170 118/118/118 
f 175/175/175 174/174/174 173/173/173 
f 176/176/176 175/175/175 173/173/173 
f 175/175/175 177/177/177 174/174/174 
f 177/177/177 178/178/178 174/174/174 
f 177/177/177 179/179/179 178/178/178 
f 179/179/179 180/180/180 178/178/178 
f 176/176/176 173/173/173 181/181/181 
f 182/182/182 176/176/176 181/181/181 
f 183/183/183 180/180/180 179/179/179 
f 180/180/180 183/183/183 184/184/184 
f 184/184/184 183/183/183 185/185/185 
f 185/185/185 183/183/183 186/186/186 
f 186/186/186 187/187/187 185/185/185 
f 187/187/187 188/188/188 185/185/185 
f 187/187/187 189/189/189 188/188/188 
f 189/189/189 190/190/190 188/188/188 
f 191/191/191 109/109/109 113/113/113 
f 192/192/192 191/191/191 113/113/113 
f 191/191/191 193/193/193 109/109/109 
f 193/193/193 111/111/111 109/109/109 
f 196/196/196 195/195/195 194/194/194 
f 197/197/197 196/196/196 194/194/194 
f 194/194/194 195/195/195 198/198/198 
f 195/195/195 199/199/199 198/198/198 
f 200/200/200 198/198/198 199/199/199 
f 201/201/201 200/200/200 199/199/199 
f 202/202/202 198/198/198 200/200/200 
f 194/194/194 198/198/198 202/202/202 
f 202/202/202 200/200/200 203/203/203 
f 206/206/206 205/205/205 204/204/204 
f 207/207/207 206/206/206 204/204/204 
f 208/208/208 204/204/204 205/205/205 
f 209/209/209 208/208/208 205/205/205 
f 205/205/205 206/206/206 210/210/210 
f 211/211/211 205/205/205 210/210/210 
f 211/211/211 210/210/210 212/212/212 
f 213/213/213 208/208/208 209/209/209 
f 205/205/205 213/213/213 209/209/209 
f 211/211/211 213/213/213 205/205/205 
f 214/214/214 208/208/208 213/213/213 
f 214/214/214 213/213/213 215/215/215 
f 215/215/215 213/213/213 216/216/216 
f 211/211/211 212/212/212 216/216/216 
f 216/216/216 213/213/213 211/211/211 
f 216/216/216 212/212/212 217/217/217 
f 215/215/215 216/216/216 217/217/217 
f 220/220/220 219/219/219 218/218/218 
f 221/221/221 220/220/220 218/218/218 
f 221/221/221 218/218/218 222/222/222 
f 223/223/223 221/221/221 222/222/222 
f 223/223/223 222/222/222 224/224/224 
f 225/225/225 223/223/223 224/224/224 
f 224/224/224 226/226/226 225/225/225 
f 226/226/226 227/227/227 225/225/225 
f 227/227/227 226/226/226 228/228/228 
f 229/229/229 227/227/227 228/228/228 
f 229/229/229 228/228/228 230/230/230 
f 219/219/219 220/220/220 231/231/231 
f 232/232/232 219/219/219 231/231/231 
f 235/235/235 234/234/234 233/233/233 
f 236/236/236 235/235/235 233/233/233 
f 233/233/233 237/237/237 236/236/236 
f 237/237/237 238/238/238 236/236/236 
f 238/238/238 237/237/237 239/239/239 
f 238/238/238 239/239/239 240/240/240 
f 239/239/239 241/241/241 240/240/240 
f 241/241/241 242/242/242 240/240/240 
f 242/242/242 243/243/243 240/240/240 
f 243/243/243 242/242/242 244/244/244 
f 235/235/235 245/245/245 234/234/234 
f 234/234/234 245/245/245 246/246/246 
f 235/235/235 247/247/247 245/245/245 
f 250/250/250 249/249/249 248/248/248 
f 251/251/251 250/250/250 248/248/248 
f 248/248/248 252/252/252 251/251/251 
f 252/252/252 253/253/253 251/251/251 
f 253/253/253 252/252/252 254/254/254 
f 252/252/252 255/255/255 254/254/254 
f 255/255/255 256/256/256 254/254/254 
f 255/255/255 257/257/257 256/256/256 
f 257/257/257 258/258/258 256/256/256 
f 258/258/258 257/257/257 259/259/259 
f 250/250/250 260/260/260 249/249/249 
f 260/260/260 250/250/250 261/261/261 
f 260/260/260 262/262/262 249/249/249 
f 265/265/265 264/264/264 263/263/263 
f 266/266/266 265/265/265 263/263/263 
f 263/263/263 264/264/264 267/267/267 
f 268/268/268 263/263/263 267/267/267 
f 268/268/268 267/267/267 269/269/269 
f 268/268/268 269/269/269 270/270/270 
f 270/270/270 269/269/269 271/271/271 
f 272/272/272 270/270/270 271/271/271 
f 272/272/272 271/271/271 273/273/273 
f 265/265/265 266/266/266 274/274/274 
f 266/266/266 275/275/275 274/274/274 
f 274/274/274 275/275/275 276/276/276 
f 275/275/275 277/277/277 276/276/276 
f 276/276/276 277/277/277 278/278/278 
f 279/279/279 276/276/276 278/278/278 

