v 0.25149956345558167 0.0 0.0
v 0.04074060916900635 0.23951388895511627 1.4917187690734863
v 0.12574976682662964 0.14039121568202972 0.0
v 0.1900949478149414 0.05296916514635086 1.4884439706802368
v 0.12574976682662964 0.14039121568202972 0.0
v -0.2579682171344757 0.24735082685947418 1.54481041431427
v -0.12574978172779083 0.14039121568202972 0.0
v 0.04074060916900635 0.23951388895511627 1.4917187690734863
v -0.12574978172779083 0.14039121568202972 0.0
v -0.34714388847351074 0.06525707989931107 1.5716896057128906
v -0.25149956345558167 -1.564439422452324e-08 0.0
v -0.2579682171344757 0.24735082685947418 1.54481041431427
v -0.25149956345558167 -1.564439422452324e-08 0.0
v -0.2579682171344757 -0.13522747159004211 1.4739784002304077
v -0.12574975192546844 -0.13282035291194916 0.0
v -0.34714388847351074 0.06525707989931107 1.5716896057128906
v -0.12574975192546844 -0.13282035291194916 0.0
v 0.04074057191610336 -0.13645155727863312 1.4656857252120972
v 0.12574975192546844 -0.13282035291194916 0.0
v -0.2579682171344757 -0.13522747159004211 1.4739784002304077
v 0.12574975192546844 -0.13282035291194916 0.0
v 0.1900949478149414 0.05296916514635086 1.4884439706802368
v 0.25149956345558167 0.0 0.0
v 0.04074057191610336 -0.13645155727863312 1.4656857252120972
v -0.10024905204772949 0.12530913949012756 1.8580058813095093
v -0.2579682171344757 0.24735082685947418 1.54481041431427
v 0.04074060916900635 0.23951388895511627 1.4917187690734863
v -0.16964563727378845 0.12104809284210205 1.7957123517990112
v -0.16964563727378845 0.12104809284210205 1.7957123517990112
v -0.34714388847351074 0.06525707989931107 1.5716896057128906
v -0.2579682171344757 0.24735082685947418 1.54481041431427
v 0.1900949478149414 0.05296916514635086 1.4884439706802368
v -0.10024905204772949 0.12530913949012756 1.8580058813095093
v 0.04074060916900635 0.23951388895511627 1.4917187690734863
v -0.10024905204772949 0.12530913949012756 1.8580058813095093
v -0.2579682171344757 -0.13522747159004211 1.4739784002304077
v -0.16964563727378845 0.12104809284210205 1.7957123517990112
v 0.04074057191610336 -0.13645155727863312 1.4656857252120972
v -0.34714388847351074 0.06525707989931107 1.5716896057128906
v -0.16964563727378845 0.12104809284210205 1.7957123517990112
v -0.2579682171344757 -0.13522747159004211 1.4739784002304077
v -0.10024905204772949 0.12530913949012756 1.8580058813095093
v 0.1900949478149414 0.05296916514635086 1.4884439706802368
v 0.04074057191610336 -0.13645155727863312 1.4656857252120972
v 0.24418126046657562 -0.20808294415473938 -0.0004949831636622548
v 0.10764595121145248 -0.2273881435394287 0.5705706477165222
v 0.12241779267787933 -0.08493664860725403 0.026257481426000595
v 0.29493340849876404 -0.3599143624305725 0.5065903067588806
v -0.012533498927950859 -0.20808294415473938 -0.0004949831636622548
v 0.10764595121145248 -0.2273881435394287 0.5705706477165222
v -0.06327524036169052 -0.3701927363872528 0.5539035201072693
v 0.12241779267787933 -0.08493664860725403 0.026257481426000595
v -0.012533498927950859 -0.20808294415473938 -0.0004949831636622548
v 0.10876892507076263 -0.494164377450943 0.4505448341369629
v 0.118337482213974 -0.33122920989990234 -0.027247412130236626
v -0.06327524036169052 -0.3701927363872528 0.5539035201072693
v 0.12084457278251648 -0.3924933969974518 0.7209980487823486
v 0.10764595121145248 -0.2273881435394287 0.5705706477165222
v 0.29493340849876404 -0.3599143624305725 0.5065903067588806
v 0.12084457278251648 -0.3924933969974518 0.7209980487823486
v 0.10876892507076263 -0.494164377450943 0.4505448341369629
v -0.06327524036169052 -0.3701927363872528 0.5539035201072693
v 0.12084457278251648 -0.3924933969974518 0.7209980487823486
v 0.29493340849876404 -0.3599143624305725 0.5065903067588806
v 0.10876892507076263 -0.494164377450943 0.4505448341369629
v 0.24418126046657562 -0.20808294415473938 -0.0004949831636622548
v 0.10876892507076263 -0.494164377450943 0.4505448341369629
v 0.29493340849876404 -0.3599143624305725 0.5065903067588806
v 0.118337482213974 -0.33122920989990234 -0.027247412130236626
v 0.10764595121145248 -0.2273881435394287 0.5705706477165222
v 0.12084457278251648 -0.3924933969974518 0.7209980487823486
v -0.06327524036169052 -0.3701927363872528 0.5539035201072693
v 0.3668985962867737 -0.058051131665706635 -0.02807404287159443
v 0.3893502354621887 0.08503679931163788 0.5625709891319275
v 0.2664231061935425 0.06796753406524658 -0.0013816460268571973
v 0.517842710018158 -0.058051131665706635 0.4234519600868225
v 0.15506544709205627 -0.05805114656686783 0.028201719745993614
v 0.3893502354621887 0.08503679931163788 0.5625709891319275
v 0.2519131898880005 -0.05805114656686783 0.6135978102684021
v 0.2664231061935425 0.06796753406524658 -0.0013816460268571973
v 0.15506544709205627 -0.05805114656686783 0.028201719745993614
v 0.37470313906669617 -0.20113904774188995 0.50370192527771
v 0.2630561888217926 -0.18406979739665985 -0.00048718167818151414
v 0.2519131898880005 -0.05805114656686783 0.6135978102684021
v 0.48826301097869873 -0.04437112808227539 0.8248974680900574
v 0.3893502354621887 0.08503679931163788 0.5625709891319275
v 0.517842710018158 -0.058051131665706635 0.4234519600868225
v 0.48826301097869873 -0.04437112808227539 0.8248974680900574
v 0.43073880672454834 -0.12378247827291489 0.6911985874176025
v 0.34054049849510193 -0.000892503245268017 0.7558910846710205
v 0.2519131898880005 -0.05805114656686783 0.6135978102684021
v 0.37470313906669617 -0.20113904774188995 0.50370192527771
v 0.43073880672454834 -0.12378247827291489 0.6911985874176025
v 0.517842710018158 -0.058051131665706635 0.4234519600868225
v 0.37470313906669617 -0.20113904774188995 0.50370192527771
v 0.48826301097869873 -0.04437112808227539 0.8248974680900574
v 0.3668985962867737 -0.058051131665706635 -0.02807404287159443
v 0.37470313906669617 -0.20113904774188995 0.50370192527771
v 0.517842710018158 -0.058051131665706635 0.4234519600868225
v 0.2630561888217926 -0.18406979739665985 -0.00048718167818151414
v 0.3893502354621887 0.08503679931163788 0.5625709891319275
v 0.34054049849510193 -0.000892503245268017 0.7558910846710205
v 0.2519131898880005 -0.05805114656686783 0.6135978102684021
v 0.34054049849510193 -0.000892503245268017 0.7558910846710205
v 0.3893502354621887 0.08503679931163788 0.5625709891319275
v 0.48826301097869873 -0.04437112808227539 0.8248974680900574
v -0.035418447107076645 0.01974361576139927 0.025496184825897217
v -0.4194130599498749 0.3006511926651001 0.819334864616394
v -0.1163703203201294 0.10841476917266846 -0.004634698387235403
v -0.32902705669403076 0.1726982295513153 0.793311357498169
v -0.1163703203201294 0.10841476917266846 -0.004634698387235403
v -0.6186594367027283 0.30503612756729126 0.813969612121582
v -0.2782743275165558 0.10346048325300217 -0.036938685923814774
v -0.4194130599498749 0.3006511926651001 0.819334864616394
v -0.2782743275165558 0.10346048325300217 -0.036938685923814774
v -0.6795859932899475 0.18767909705638885 0.8377503752708435
v -0.35922637581825256 0.009835013188421726 -0.03911178931593895
v -0.6186594367027283 0.30503612756729126 0.813969612121582
v -0.35922637581825256 0.009835013188421726 -0.03911178931593895
v -0.6093853116035461 0.04973675310611725 0.8069919943809509
v -0.2782743275165558 -0.07392071187496185 -0.009734680876135826
v -0.6795859932899475 0.18767909705638885 0.8377503752708435
v -0.2782743275165558 -0.07392071187496185 -0.009734680876135826
v -0.4160044491291046 0.05401699244976044 0.8402048349380493
v -0.1163703203201294 -0.06896644085645676 0.022569306194782257
v -0.6093853116035461 0.04973675310611725 0.8069919943809509
v -0.1163703203201294 -0.06896644085645676 0.022569306194782257
v -0.32902705669403076 0.1726982295513153 0.793311357498169
v -0.035418447107076645 0.01974361576139927 0.025496184825897217
v -0.4160044491291046 0.05401699244976044 0.8402048349380493
v -0.4194130599498749 0.3006511926651001 0.819334864616394
v -0.6334423422813416 0.24433261156082153 0.9654164910316467
v -0.6186594367027283 0.30503612756729126 0.813969612121582
v -0.6334423422813416 0.24433261156082153 0.9654164910316467
v -0.6795859932899475 0.18767909705638885 0.8377503752708435
v -0.6186594367027283 0.30503612756729126 0.813969612121582
v -0.6795859932899475 0.18767909705638885 0.8377503752708435
v -0.6334423422813416 0.24433261156082153 0.9654164910316467
v -0.6093853116035461 0.04973675310611725 0.8069919943809509
v -0.6334423422813416 0.24433261156082153 0.9654164910316467
v -0.32902705669403076 0.1726982295513153 0.793311357498169
v -0.4160044491291046 0.05401699244976044 0.8402048349380493
v -0.6093853116035461 0.04973675310611725 0.8069919943809509
v -0.6334423422813416 0.24433261156082153 0.9654164910316467
v -0.4194130599498749 0.3006511926651001 0.819334864616394
v -0.32902705669403076 0.1726982295513153 0.793311357498169
vn 0.9987531900405884 -0.03265129029750824 0.03776215761899948
vn 0.45575711131095886 0.888498842716217 -0.05343396216630936
vn 0.507022500038147 0.8602834939956665 -0.05329624563455582
vn 0.9989892840385437 0.029412616044282913 0.033990874886512756
vn 0.507022500038147 0.8602834939956665 -0.05329624563455582
vn -0.6302653551101685 0.7659451961517334 -0.12686045467853546
vn -0.48234859108924866 0.8696845173835754 -0.1048273891210556
vn 0.45575711131095886 0.888498842716217 -0.05343396216630936
vn -0.48234859108924866 0.8696845173835754 -0.1048273891210556
vn -0.9942505359649658 0.06706846505403519 -0.08347276598215103
vn -0.9957519769668579 -0.015045593492686749 -0.09083834290504456
vn -0.6302653551101685 0.7659451961517334 -0.12686045467853546
vn -0.9957519769668579 -0.015045593492686749 -0.09083834290504456
vn -0.6651327610015869 -0.746025025844574 -0.032328084111213684
vn -0.44856658577919006 -0.8927190899848938 -0.04290172830224037
vn -0.9942505359649658 0.06706846505403519 -0.08347276598215103
vn -0.44856658577919006 -0.8927190899848938 -0.04290172830224037
vn 0.49438151717185974 -0.868850827217102 0.02617630921304226
vn 0.4874923527240753 -0.872488260269165 0.0333978645503521
vn -0.6651327610015869 -0.746025025844574 -0.032328084111213684
vn 0.4874923527240753 -0.872488260269165 0.0333978645503521
vn 0.9989892840385437 0.029412616044282913 0.033990874886512756
vn 0.9987531900405884 -0.03265129029750824 0.03776215761899948
vn 0.49438151717185974 -0.868850827217102 0.02617630921304226
vn 0.07575444877147675 0.1354566216468811 0.9878829121589661
vn -0.36455756425857544 0.7448366284370422 0.55885249376297
vn 0.5230516195297241 0.6881417036056519 0.5028697848320007
vn -0.7031869888305664 0.051141466945409775 0.7091633081436157
vn -0.7031869888305664 0.051141466945409775 0.7091633081436157
vn -0.7508042454719543 -0.14287763833999634 0.6448867917060852
vn -0.36455756425857544 0.7448366284370422 0.55885249376297
vn 0.7731937766075134 -0.07910466939210892 0.6292168498039246
vn 0.07575444877147675 0.1354566216468811 0.9878829121589661
vn 0.5230516195297241 0.6881417036056519 0.5028697848320007
vn 0.07575444877147675 0.1354566216468811 0.9878829121589661
vn -0.22933079302310944 -0.6583067774772644 0.7169655561447144
vn -0.7031869888305664 0.051141466945409775 0.7091633081436157
vn 0.32102951407432556 -0.6305524706840515 0.7066426277160645
vn -0.7508042454719543 -0.14287763833999634 0.6448867917060852
vn -0.7031869888305664 0.051141466945409775 0.7091633081436157
vn -0.22933079302310944 -0.6583067774772644 0.7169655561447144
vn 0.07575444877147675 0.1354566216468811 0.9878829121589661
vn 0.7731937766075134 -0.07910466939210892 0.6292168498039246
vn 0.32102951407432556 -0.6305524706840515 0.7066426277160645
vn 0.9959098100662231 0.09032177925109863 0.002392861759290099
vn -0.08791015297174454 0.9493075013160706 0.30180636048316956
vn 0.03303653001785278 0.9377264976501465 0.3457999527454376
vn 0.9948157668113708 -0.004784565418958664 -0.10158056765794754
vn -0.9936972260475159 0.10924103111028671 -0.025146137923002243
vn -0.08791015297174454 0.9493075013160706 0.30180636048316956
vn -0.9958674907684326 0.0008106260793283582 -0.09081441909074783
vn 0.03303653001785278 0.9377264976501465 0.3457999527454376
vn -0.9936972260475159 0.10924103111028671 -0.025146137923002243
vn -0.09667831659317017 -0.8817516565322876 -0.4617003798484802
vn 0.02201603725552559 -0.9017334580421448 -0.4317314326763153
vn -0.9958674907684326 0.0008106260793283582 -0.09081441909074783
vn 0.15067727863788605 -0.2613503038883209 0.9534109234809875
vn 0.0923633724451065 0.5453420281410217 0.8331092596054077
vn 0.780650794506073 -0.20732426643371582 0.5895770192146301
vn 0.15067727863788605 -0.2613503038883209 0.9534109234809875
vn 0.10255537182092667 -0.8814039826393127 0.46109604835510254
vn -0.6740075945854187 -0.24612557888031006 0.6965170502662659
vn 0.6139677166938782 -0.7089059352874756 0.34712520241737366
vn 0.780650794506073 -0.20732426643371582 0.5895770192146301
vn 0.10255537182092667 -0.8814039826393127 0.46109604835510254
vn 0.9959098100662231 0.09032177925109863 0.002392861759290099
vn -0.09667831659317017 -0.8817516565322876 -0.4617003798484802
vn 0.9948157668113708 -0.004784565418958664 -0.10158056765794754
vn 0.02201603725552559 -0.9017334580421448 -0.4317314326763153
vn 0.0923633724451065 0.5453420281410217 0.8331092596054077
vn -0.5676459074020386 0.42486220598220825 0.7051738500595093
vn -0.6740075945854187 -0.24612557888031006 0.6965170502662659
vn 0.9655162692070007 -0.0051439362578094006 -0.26029178500175476
vn -0.26318493485450745 0.9644266366958618 -0.024800918996334076
vn 0.03689820319414139 0.9980423450469971 -0.050497423857450485
vn 0.9469025731086731 0.05633126199245453 -0.3165473937988281
vn -0.9834854006767273 0.006932348478585482 0.18085472285747528
vn -0.26318493485450745 0.9644266366958618 -0.024800918996334076
vn -0.984209418296814 0.06941880285739899 0.1628272980451584
vn 0.03689820319414139 0.9980423450469971 -0.050497423857450485
vn -0.9834854006767273 0.006932348478585482 0.18085472285747528
vn -0.24820396304130554 -0.9681477546691895 -0.032936349511146545
vn 0.0197161715477705 -0.9984591007232666 -0.05187259614467621
vn -0.984209418296814 0.06941880285739899 0.1628272980451584
vn 0.4658482074737549 -0.04012301564216614 0.8839545249938965
vn 0.4389094412326813 0.8881832957267761 0.13597339391708374
vn 0.9921739101409912 -0.10124415904283524 0.0730794295668602
vn 0.4658482074737549 -0.04012301564216614 0.8839545249938965
vn 0.19059133529663086 -0.8311988711357117 0.5222865343093872
vn -0.5649658441543579 0.3361019790172577 0.753557562828064
vn -0.8038521409034729 -0.2139555960893631 0.5550177097320557
vn 0.3711751103401184 -0.8471280932426453 0.3802669644355774
vn 0.19059133529663086 -0.8311988711357117 0.5222865343093872
vn 0.9921739101409912 -0.10124415904283524 0.0730794295668602
vn 0.3711751103401184 -0.8471280932426453 0.3802669644355774
vn 0.4658482074737549 -0.04012301564216614 0.8839545249938965
vn 0.9655162692070007 -0.0051439362578094006 -0.26029178500175476
vn -0.24820396304130554 -0.9681477546691895 -0.032936349511146545
vn 0.9469025731086731 0.05633126199245453 -0.3165473937988281
vn 0.0197161715477705 -0.9984591007232666 -0.05187259614467621
vn 0.4389094412326813 0.8881832957267761 0.13597339391708374
vn -0.5649658441543579 0.3361019790172577 0.753557562828064
vn -0.8038521409034729 -0.2139555960893631 0.5550177097320557
vn -0.5649658441543579 0.3361019790172577 0.753557562828064
vn 0.09090301394462585 0.8341292142868042 0.5440267324447632
vn 0.4658482074737549 -0.04012301564216614 0.8839545249938965
vn 0.9371102452278137 -0.028027838096022606 0.3479064404964447
vn 0.3906828463077545 0.9093534350395203 -0.14298023283481598
vn 0.5358542203903198 0.8404812216758728 -0.08032118529081345
vn 0.9432238936424255 0.07002037018537521 0.32469338178634644
vn 0.5358542203903198 0.8404812216758728 -0.08032118529081345
vn -0.5662742853164673 0.6879775524139404 -0.45389461517333984
vn -0.42193254828453064 0.8071296811103821 -0.4129340946674347
vn 0.3906828463077545 0.9093534350395203 -0.14298023283481598
vn -0.42193254828453064 0.8071296811103821 -0.4129340946674347
vn -0.92498779296875 0.05156508460640907 -0.3764819800853729
vn -0.9301451444625854 -0.09555358439683914 -0.3545413017272949
vn -0.5662742853164673 0.6879775524139404 -0.45389461517333984
vn -0.9301451444625854 -0.09555358439683914 -0.3545413017272949
vn -0.6818969249725342 -0.7268499135971069 -0.08188917487859726
vn -0.39668023586273193 -0.9173414707183838 0.033607643097639084
vn -0.92498779296875 0.05156508460640907 -0.3764819800853729
vn -0.39668023586273193 -0.9173414707183838 0.033607643097639084
vn 0.444525808095932 -0.829188883304596 0.3388844430446625
vn 0.45784711837768555 -0.8115311861038208 0.3630332350730896
vn -0.6818969249725342 -0.7268499135971069 -0.08188917487859726
vn 0.45784711837768555 -0.8115311861038208 0.3630332350730896
vn 0.9432238936424255 0.07002037018537521 0.32469338178634644
vn 0.9371102452278137 -0.028027838096022606 0.3479064404964447
vn 0.444525808095932 -0.829188883304596 0.3388844430446625
vn 0.41708600521087646 0.3885611891746521 0.821619987487793
vn -0.39114752411842346 0.2669958472251892 0.8807478547096252
vn -0.3931058347225189 0.8170050978660583 0.4218655228614807
vn -0.39114752411842346 0.2669958472251892 0.8807478547096252
vn -0.9053071737289429 -0.12583069503307343 0.4056915044784546
vn -0.3931058347225189 0.8170050978660583 0.4218655228614807
vn -0.9053071737289429 -0.12583069503307343 0.4056915044784546
vn -0.39114752411842346 0.2669958472251892 0.8807478547096252
vn -0.2920396029949188 -0.4985029101371765 0.8162155747413635
vn -0.39114752411842346 0.2669958472251892 0.8807478547096252
vn 0.5035924911499023 0.048107124865055084 0.8626009821891785
vn 0.2308415323495865 -0.25225332379341125 0.9397236108779907
vn -0.2920396029949188 -0.4985029101371765 0.8162155747413635
vn -0.39114752411842346 0.2669958472251892 0.8807478547096252
vn 0.41708600521087646 0.3885611891746521 0.821619987487793
vn 0.5035924911499023 0.048107124865055084 0.8626009821891785
vt 0.26309695839881897 0.9903363874182105
vt 0.3368685245513916 0.43983155488967896
vt 0.3368685245513916 0.9903363874182105
vt 0.26309698820114136 0.4492033123970032
vt 0.3368685245513916 0.9903363874182105
vt 0.4388313591480255 0.42333072423934937
vt 0.43883126974105835 0.9903363874182105
vt 0.3368685245513916 0.43983155488967896
vt 0.43883126974105835 0.9903363874182105
vt 0.5155010223388672 0.42333072423934937
vt 0.5155010223388672 0.9903363874182105
vt 0.4388313591480255 0.42333072423934937
vt 0.011666911654174328 0.9903363874182105
vt 0.08055491000413895 0.46205317974090576
vt 0.08055488765239716 0.9903363874182105
vt 0.011666933074593544 0.42333072423934937
vt 0.08055488765239716 0.9903363874182105
vt 0.18251767754554749 0.4646305441856384
vt 0.1825176477432251 0.9903363874182105
vt 0.08055491000413895 0.46205317974090576
vt 0.1825176477432251 0.9903363874182105
vt 0.24814990162849426 0.4492033123970032
vt 0.24814990162849426 0.9903363874182105
vt 0.18251767754554749 0.4646305441856384
vt 0.37285688519477844 0.31767284870147705
vt 0.4388313591480255 0.42333072423934937
vt 0.3368685245513916 0.43983155488967896
vt 0.40868285298347473 0.3335453271865845
vt 0.40868285298347473 0.3335453271865845
vt 0.5155010223388672 0.42333072423934937
vt 0.4388313591480255 0.42333072423934937
vt 0.26309698820114136 0.4492033123970032
vt 0.37285688519477844 0.31767284870147705
vt 0.3368685245513916 0.43983155488967896
vt 0.13439160585403442 0.3335453271865845
vt 0.08055491000413895 0.46205317974090576
vt 0.09949929267168045 0.3335453271865845
vt 0.18251767754554749 0.4646305441856384
vt 0.011666933074593544 0.42333072423934937
vt 0.09949929267168045 0.3335453271865845
vt 0.08055491000413895 0.46205317974090576
vt 0.13439160585403442 0.3335453271865845
vt 0.24814990162849426 0.4492033123970032
vt 0.18251767754554749 0.4646305441856384
vt 0.38856932520866394 0.009795725345611572
vt 0.30344483256340027 0.2556372880935669
vt 0.3099546730518341 0.009795725345611572
vt 0.3885692059993744 0.24594616889953613
vt 0.22659055888652802 0.009795725345611572
vt 0.30344483256340027 0.2556372880935669
vt 0.22659049928188324 0.25959086418151855
vt 0.3099546730518341 0.009795725345611572
vt 0.5539552569389343 0.009795725345611572
vt 0.4777511954307556 0.23854351043701172
vt 0.47379401326179504 0.009795725345611572
vt 0.5539551377296448 0.2595909833908081
vt 0.3083873391151428 0.3561723828315735
vt 0.30344483256340027 0.2556372880935669
vt 0.3885692059993744 0.24594616889953613
vt 0.47322919964790344 0.3561723828315735
vt 0.4777511954307556 0.23854351043701172
vt 0.5539551377296448 0.2595909833908081
vt 0.47322919964790344 0.3561723828315735
vt 0.3984011113643646 0.24594616889953613
vt 0.4777511954307556 0.23854351043701172
vt 0.3984011709690094 0.009795725345611572
vt 0.4777511954307556 0.23854351043701172
vt 0.3984011113643646 0.24594616889953613
vt 0.47379401326179504 0.009795725345611572
vt 0.30344483256340027 0.2556372880935669
vt 0.3083873391151428 0.3561723828315735
vt 0.22659049928188324 0.25959086418151855
vt 0.7754989862442017 0.9883636254817247
vt 0.8170160055160522 0.6809821128845215
vt 0.8386862277984619 0.9883636254817247
vt 0.7264193296432495 0.7451317012310028
vt 0.9087167978286743 0.9883636254817247
vt 0.8170160055160522 0.6809821128845215
vt 0.9048011302947998 0.664950042963028
vt 0.8386862277984619 0.9883636254817247
vt 0.5374990701675415 0.9883636254817247
vt 0.6137089729309082 0.7114706337451935
vt 0.605644702911377 0.9883636254817247
vt 0.5271936058998108 0.6655476093292236
vt 0.7817251682281494 0.5316943824291229
vt 0.8170160055160522 0.6809821128845215
vt 0.7264193296432495 0.7451317012310028
vt 0.6443066596984863 0.5280991196632385
vt 0.6254177093505859 0.6054950654506683
vt 0.563739538192749 0.5803253352642059
vt 0.5271936058998108 0.6655476093292236
vt 0.6137089729309082 0.7114706337451935
vt 0.6254177093505859 0.6054950654506683
vt 0.7089693546295166 0.7394420802593231
vt 0.6137089729309082 0.7114706337451935
vt 0.6443066596984863 0.5280991196632385
vt 0.6711728572845459 0.9883636254817247
vt 0.6137089729309082 0.7114706337451935
vt 0.7089693546295166 0.7394420802593231
vt 0.605644702911377 0.9883636254817247
vt 0.8170160055160522 0.6809821128845215
vt 0.8645302057266235 0.5810687839984894
vt 0.9048011302947998 0.664950042963028
vt 0.8645302057266235 0.5810687839984894
vt 0.8170160055160522 0.6809821128845215
vt 0.7817251682281494 0.5316943824291229
vt 0.7965251803398132 0.011042416095733643
vt 0.7371322512626648 0.4384976625442505
vt 0.7371323704719543 0.011042416095733643
vt 0.7965249419212341 0.4316151738166809
vt 0.7371323704719543 0.011042416095733643
vt 0.6550431251525879 0.4506155848503113
vt 0.655043363571167 0.011042416095733643
vt 0.7371322512626648 0.4384976625442505
vt 0.655043363571167 0.011042416095733643
vt 0.5982714891433716 0.4506155848503113
vt 0.5982716083526611 0.011042416095733643
vt 0.6550431251525879 0.4506155848503113
vt 0.9989488124847412 0.011042416095733643
vt 0.943487823009491 0.42217838764190674
vt 0.9434879422187805 0.011042416095733643
vt 0.9989486932754517 0.45061570405960083
vt 0.9434879422187805 0.011042416095733643
vt 0.8613985180854797 0.42028558254241943
vt 0.8613986968994141 0.011042416095733643
vt 0.943487823009491 0.42217838764190674
vt 0.8613986968994141 0.011042416095733643
vt 0.8085587620735168 0.4316151738166809
vt 0.8085588812828064 0.011042416095733643
vt 0.8613985180854797 0.42028558254241943
vt 0.7371322512626648 0.4384976625442505
vt 0.6793153285980225 0.5586831569671631
vt 0.6550431251525879 0.4506155848503113
vt 0.6793153285980225 0.5586831569671631
vt 0.5982714891433716 0.4506155848503113
vt 0.6550431251525879 0.4506155848503113
vt 0.9989486932754517 0.45061570405960083
vt 0.9192155003547668 0.5586831569671631
vt 0.943487823009491 0.42217838764190674
vt 0.9192155003547668 0.5586831569671631
vt 0.8085587620735168 0.4316151738166809
vt 0.8613985180854797 0.42028558254241943
vt 0.943487823009491 0.42217838764190674
vt 0.6793153285980225 0.5586831569671631
vt 0.7371322512626648 0.4384976625442505
vt 0.7965249419212341 0.4316151738166809

g bg_mdl_map_hasira01
s 1
usemtl bg_mdl_map_hasira01
f 3/3/3 2/2/2 1/1/1 
f 4/4/4 1/1/1 2/2/2 
f 7/7/7 6/6/6 5/5/5 
f 8/8/8 5/5/5 6/6/6 
f 11/11/11 10/10/10 9/9/9 
f 12/12/12 9/9/9 10/10/10 
f 15/15/15 14/14/14 13/13/13 
f 16/16/16 13/13/13 14/14/14 
f 19/19/19 18/18/18 17/17/17 
f 20/20/20 17/17/17 18/18/18 
f 23/23/23 22/22/22 21/21/21 
f 24/24/24 21/21/21 22/22/22 
f 27/27/27 26/26/26 25/25/25 
f 28/28/28 25/25/25 26/26/26 
f 31/31/31 30/30/30 29/29/29 
f 34/34/34 33/33/33 32/32/32 
f 37/37/37 36/36/36 35/35/35 
f 38/38/38 35/35/35 36/36/36 
f 41/41/41 40/40/40 39/39/39 
f 44/44/44 43/43/43 42/42/42 
f 47/47/47 46/46/46 45/45/45 
f 48/48/48 45/45/45 46/46/46 
f 51/51/51 50/50/50 49/49/49 
f 52/52/52 49/49/49 50/50/50 
f 55/55/55 54/54/54 53/53/53 
f 56/56/56 53/53/53 54/54/54 
f 59/59/59 58/58/58 57/57/57 
f 62/62/62 61/61/61 60/60/60 
f 65/65/65 64/64/64 63/63/63 
f 68/68/68 67/67/67 66/66/66 
f 69/69/69 66/66/66 67/67/67 
f 72/72/72 71/71/71 70/70/70 
f 75/75/75 74/74/74 73/73/73 
f 76/76/76 73/73/73 74/74/74 
f 79/79/79 78/78/78 77/77/77 
f 80/80/80 77/77/77 78/78/78 
f 83/83/83 82/82/82 81/81/81 
f 84/84/84 81/81/81 82/82/82 
f 87/87/87 86/86/86 85/85/85 
f 90/90/90 89/89/89 88/88/88 
f 90/90/90 91/91/91 89/89/89 
f 92/92/92 89/89/89 91/91/91 
f 95/95/95 94/94/94 93/93/93 
f 96/96/96 93/93/93 94/94/94 
f 99/99/99 98/98/98 97/97/97 
f 100/100/100 97/97/97 98/98/98 
f 103/103/103 102/102/102 101/101/101 
f 106/106/106 105/105/105 104/104/104 
f 109/109/109 108/108/108 107/107/107 
f 110/110/110 107/107/107 108/108/108 
f 113/113/113 112/112/112 111/111/111 
f 114/114/114 111/111/111 112/112/112 
f 117/117/117 116/116/116 115/115/115 
f 118/118/118 115/115/115 116/116/116 
f 121/121/121 120/120/120 119/119/119 
f 122/122/122 119/119/119 120/120/120 
f 125/125/125 124/124/124 123/123/123 
f 126/126/126 123/123/123 124/124/124 
f 129/129/129 128/128/128 127/127/127 
f 130/130/130 127/127/127 128/128/128 
f 133/133/133 132/132/132 131/131/131 
f 136/136/136 135/135/135 134/134/134 
f 139/139/139 138/138/138 137/137/137 
f 142/142/142 141/141/141 140/140/140 
f 143/143/143 142/142/142 140/140/140 
f 146/146/146 145/145/145 144/144/144 

