v 0.18784409761428833 0.1673746109008789 0.4896864593029022
v 0.13220007717609406 0.34504470229148865 0.5941767692565918
v 0.2746677100658417 0.2623582184314728 0.5452926158905029
v 0.0453764870762825 0.25006115436553955 0.5385706424713135
v 0.110536590218544 0.08996811509132385 0.3968898057937622
v -0.03193100541830063 0.1726546585559845 0.4457739293575287
v 0.05470762029290199 0.04095447063446045 0.2882802486419678
v -0.08775995671749115 0.12364102900028229 0.33716440200805664
v 0.017895564436912537 0.018335269764065742 0.17567481100559235
v -0.1245720237493515 0.10102184861898422 0.22455891966819763
v 0.2999688982963562 0.03790457546710968 0.5034441351890564
v 0.38679251074790955 0.13288810849189758 0.5590503811836243
v 0.22266137599945068 -0.039501991122961044 0.410647451877594
v 0.16683240234851837 -0.08851560205221176 0.30203792452812195
v 0.1300203502178192 -0.1111348494887352 0.18943244218826294
v 0.017895564436912537 0.018335269764065742 0.17567481100559235
v -0.14246766269207 0.08268636465072632 0.048884112387895584
v -0.1245720237493515 0.10102184861898422 0.22455891966819763
v 7.891155284767137e-09 -1.993699498825663e-07 -3.521591196431473e-08
v 0.1300203502178192 -0.1111348494887352 0.18943244218826294
v 7.891155284767137e-09 -1.993699498825663e-07 -3.521591196431473e-08
v 0.017895564436912537 0.018335269764065742 0.17567481100559235
v 0.11212480068206787 -0.12947037816047668 0.013757641427218914
v -0.31826052069664 -0.06945809721946716 0.49600499868392944
v -0.3362657427787781 -0.24332940578460693 0.6185844540596008
v -0.43516117334365845 -0.11701519787311554 0.5570364594459534
v -0.2193651795387268 -0.1957724392414093 0.5575529932975769
v -0.21710814535617828 -0.038010530173778534 0.39926472306251526
v -0.11821278929710388 -0.16432484984397888 0.46081259846687317
v -0.1468801498413086 -0.025771750137209892 0.28865957260131836
v -0.04798482358455658 -0.1520860493183136 0.35020753741264343
v -0.10449345409870148 -0.02405427396297455 0.17585021257400513
v -0.005598105490207672 -0.15036863088607788 0.237398162484169
v -0.3707355558872223 0.09413880109786987 0.49352094531059265
v -0.48763617873191833 0.04658183455467224 0.5545524954795837
v -0.269583135843277 0.1255864053964615 0.3967806100845337
v -0.1993551403284073 0.13782517611980438 0.28617551922798157
v -0.15696842968463898 0.13954271376132965 0.17336609959602356
v -0.10449345409870148 -0.02405427396297455 0.17585021257400513
v 0.017513500526547432 -0.16478677093982697 0.061547812074422836
v -0.005598105490207672 -0.15036863088607788 0.237398162484169
v -0.0813819020986557 -0.03847244381904602 -1.461880856368225e-07
v -0.15696842968463898 0.13954271376132965 0.17336609959602356
v -0.0813819020986557 -0.03847244381904602 -1.461880856368225e-07
v -0.10449345409870148 -0.02405427396297455 0.17585021257400513
v -0.133856862783432 0.12512460350990295 -0.0024842640850692987
v 0.16290004551410675 -0.27149078249931335 0.3730018138885498
v 0.3190506398677826 -0.22335150837898254 0.4756357967853546
v 0.25671523809432983 -0.34882938861846924 0.4086518883705139
v 0.2252354919910431 -0.14601299166679382 0.4399857521057129
v 0.08527585119009018 -0.19495394825935364 0.3028060495853424
v 0.1476113349199295 -0.06947612017393112 0.3697899281978607
v 0.03489609807729721 -0.13230642676353455 0.21516147255897522
v 0.09723157435655594 -0.006828613579273224 0.28214535117149353
v 0.009891683235764503 -0.0834697037935257 0.12096675485372543
v 0.07222717255353928 0.042008109390735626 0.18795062601566315
v 0.05657482147216797 -0.3844931721687317 0.3664718270301819
v 0.15038993954658508 -0.4618317186832428 0.4021218717098236
v -0.021049410104751587 -0.307956337928772 0.2962759733200073
v -0.07142913341522217 -0.2453087717294693 0.20863138139247894
v -0.0964336022734642 -0.19647206366062164 0.11443663388490677
v 0.009891683235764503 -0.0834697037935257 0.12096675485372543
v 0.05197099596261978 0.08474356681108475 0.03462178260087967
v 0.07222717255353928 0.042008109390735626 0.18795062601566315
v -0.010364504531025887 -0.040734294801950455 -0.03236212581396103
v -0.0964336022734642 -0.19647206366062164 0.11443663388490677
v -0.010364504531025887 -0.040734294801950455 -0.03236212581396103
v 0.009891683235764503 -0.0834697037935257 0.12096675485372543
v -0.11668983101844788 -0.15373669564723969 -0.0388922244310379
v 0.36876681447029114 -0.16409847140312195 0.37992793321609497
v 0.5041580200195312 -0.027650220319628716 0.4728377163410187
v 0.5060641169548035 -0.18351244926452637 0.40053918957710266
v 0.36686083674430847 -0.008236165158450603 0.4522263705730438
v 0.2417178601026535 -0.13694040477275848 0.3190966248512268
v 0.23981191217899323 0.01892189122736454 0.39139506220817566
v 0.14535488188266754 -0.10784134268760681 0.23434604704380035
v 0.14344893395900726 0.048020943999290466 0.306644469499588
v 0.0795828104019165 -0.07757026702165604 0.13788650929927826
v 0.07767687737941742 0.07829202711582184 0.21018491685390472
v 0.33179181814193726 -0.3318944573402405 0.38097280263900757
v 0.4690890312194824 -0.3513084948062897 0.4015842080116272
v 0.20474278926849365 -0.3047364056110382 0.3201415240764618
v 0.10837984085083008 -0.27563735842704773 0.23539090156555176
v 0.042607732117176056 -0.24536630511283875 0.13893133401870728
v 0.0795828104019165 -0.07757026702165604 0.13788650929927826
v 0.010564974509179592 0.10428445786237717 0.04789359122514725
v 0.07767687737941742 0.07829202711582184 0.21018491685390472
v 0.012470945715904236 -0.051577892154455185 -0.02440488338470459
v 0.042607732117176056 -0.24536630511283875 0.13893133401870728
v 0.012470945715904236 -0.051577892154455185 -0.02440488338470459
v 0.0795828104019165 -0.07757026702165604 0.13788650929927826
v -0.024504175409674644 -0.21937400102615356 -0.023360053077340126
v -0.1575767695903778 -0.49376004934310913 0.29833951592445374
v -0.021128561347723007 -0.64858478307724 0.3530416786670685
v -0.17699077725410461 -0.6317136883735657 0.2827133536338806
v -0.0017145223682746291 -0.510631263256073 0.36866775155067444
v -0.13041870296001434 -0.35529589653015137 0.27246367931365967
v 0.025443531572818756 -0.37216711044311523 0.342791885137558
v -0.10131967067718506 -0.24028128385543823 0.21554145216941833
v 0.054542575031518936 -0.2571525275707245 0.28586968779563904
v -0.0710485652089119 -0.1517847627401352 0.13939175009727478
v 0.084813691675663 -0.16865600645542145 0.2097199559211731
v -0.32537272572517395 -0.45831534266471863 0.3089185953140259
v -0.3447868525981903 -0.5962690114974976 0.2932925224304199
v -0.29821473360061646 -0.3198511600494385 0.2830427885055542
v -0.2691156566143036 -0.20483654737472534 0.22612053155899048
v -0.23884457349777222 -0.11633997410535812 0.14997082948684692
v -0.0710485652089119 -0.1517847627401352 0.13939175009727478
v 0.11080612987279892 -0.061826758086681366 0.07032840698957443
v 0.084813691675663 -0.16865600645542145 0.2097199559211731
v -0.04505617916584015 -0.04495556280016899 1.6446426798211178e-07
v -0.23884457349777222 -0.11633997410535812 0.14997082948684692
v -0.04505617916584015 -0.04495556280016899 1.6446426798211178e-07
v -0.0710485652089119 -0.1517847627401352 0.13939175009727478
v -0.21285222470760345 -0.009510762058198452 0.010579275898635387
vn -0.16059498488903046 -0.6615929007530212 0.7324643731117249
vn 0.032577093690633774 -0.6631463170051575 0.7477805614471436
vn -0.08231130242347717 -0.6052359342575073 0.7917791604995728
vn -0.023566117510199547 -0.7118623852729797 0.7019234895706177
vn -0.2903631031513214 -0.7505114674568176 0.5936512351036072
vn -0.1408056616783142 -0.796366274356842 0.5881959795951843
vn -0.3935370445251465 -0.8014162182807922 0.45040059089660645
vn -0.24346964061260223 -0.8499219417572021 0.4672849476337433
vn -0.4715677499771118 -0.7971052527427673 0.37715667486190796
vn -0.30643659830093384 -0.8719487190246582 0.38184037804603577
vn -0.30576661229133606 -0.5910002589225769 0.746475338935852
vn -0.2185225784778595 -0.5207118988037109 0.8252919912338257
vn -0.43577250838279724 -0.6817795038223267 0.5876045823097229
vn -0.5282558798789978 -0.7316302061080933 0.43088626861572266
vn -0.5576934814453125 -0.7434785962104797 0.36907660961151123
vn -0.3779529929161072 -0.8849025368690491 0.27221134305000305
vn -0.3779529929161072 -0.8849025368690491 0.27221134305000305
vn -0.3779529929161072 -0.8849025368690491 0.27221134305000305
vn -0.3779529631137848 -0.8849026560783386 0.2722111940383911
vn -0.6171275973320007 -0.7571994066238403 0.21401506662368774
vn -0.6171275973320007 -0.7571994066238403 0.21401506662368774
vn -0.6171276569366455 -0.7571994066238403 0.21401506662368774
vn -0.6171277761459351 -0.7571993470191956 0.2140151411294937
vn 0.5595791935920715 0.3203515410423279 0.7643597722053528
vn 0.3894001543521881 0.5213336944580078 0.75932776927948
vn 0.47318723797798157 0.12956295907497406 0.8713823556900024
vn 0.5064052939414978 0.6272748708724976 0.5916754007339478
vn 0.7089052796363831 0.4628771245479584 0.532163679599762
vn 0.6089235544204712 0.7087521553039551 0.35620561242103577
vn 0.7770986557006836 0.5438039302825928 0.3168516457080841
vn 0.6545549035072327 0.7353187203407288 0.1756819486618042
vn 0.7463085651397705 0.6382233500480652 0.18892978131771088
vn 0.6639496088027954 0.7382702827453613 0.11886108666658401
vn 0.5502333045005798 -0.01046423614025116 0.8349453806877136
vn 0.4845482110977173 -0.05920969322323799 0.8727583885192871
vn 0.7243890166282654 0.14051149785518646 0.6749200224876404
vn 0.8340491652488708 0.26926231384277344 0.4815181791782379
vn 0.8759151697158813 0.3434475064277649 0.33884570002555847
vn 0.6788243651390076 0.7322960495948792 -0.0542205274105072
vn 0.6788243651390076 0.7322961091995239 -0.05422056466341019
vn 0.6788243651390076 0.7322961091995239 -0.05422056466341019
vn 0.6788241863250732 0.7322962880134583 -0.054220911115407944
vn 0.8930573463439941 0.4373350739479065 0.10576681792736053
vn 0.8930573463439941 0.4373350739479065 0.10576681792736053
vn 0.8930573463439941 0.4373350739479065 0.10576681047677994
vn 0.8930574059486389 0.4373348653316498 0.10576700419187546
vn -0.3600514829158783 -0.26272323727607727 0.895175576210022
vn -0.3475474715232849 -0.5275061130523682 0.7752083539962769
vn -0.23402349650859833 -0.3526160717010498 0.9060325026512146
vn -0.4891608953475952 -0.45524168014526367 0.7439601421356201
vn -0.6439419984817505 0.009886362589895725 0.7650103569030762
vn -0.7216300368309021 -0.2853672504425049 0.630726158618927
vn -0.8315437436103821 0.31721940636634827 0.4559681713581085
vn -0.9040669202804565 -0.05445795878767967 0.4239073693752289
vn -0.8171231150627136 0.5011861324310303 0.28481966257095337
vn -0.964443027973175 0.12215282022953033 0.23436787724494934
vn -0.2505181133747101 0.036488063633441925 0.9674239754676819
vn -0.09845111519098282 -0.14428088068962097 0.9846270680427551
vn -0.4940080940723419 0.3655642569065094 0.7888718843460083
vn -0.6377917528152466 0.6189422011375427 0.45840194821357727
vn -0.6617905497550964 0.690331757068634 0.2923614978790283
vn -0.9511757493019104 0.30862706899642944 0.003737910883501172
vn -0.9511758089065552 0.30862706899642944 0.0037378747947514057
vn -0.9511757493019104 0.30862706899642944 0.003737910883501172
vn -0.9511758089065552 0.30862706899642944 0.003737772349268198
vn -0.6511263251304626 0.7588075995445251 -0.015671461820602417
vn -0.6511263251304626 0.7588075995445251 -0.015671420842409134
vn -0.6511263251304626 0.7588075995445251 -0.015671420842409134
vn -0.6511262059211731 0.7588076591491699 -0.015671323984861374
vn -0.18054620921611786 -0.4712977707386017 0.8632968664169312
vn -0.0942864790558815 -0.6328785419464111 0.7684887051582336
vn -0.05050397664308548 -0.44062331318855286 0.896270215511322
vn -0.22200599312782288 -0.6374638080596924 0.737803041934967
vn -0.4421462416648865 -0.43854251503944397 0.7824238538742065
vn -0.4190094470977783 -0.6216931343078613 0.6617618203163147
vn -0.6872314810752869 -0.3653435707092285 0.6278828978538513
vn -0.6074593663215637 -0.5744621157646179 0.5486223697662354
vn -0.8015730381011963 -0.2595800459384918 0.538608193397522
vn -0.7167456150054932 -0.5265372395515442 0.457202672958374
vn -0.15833145380020142 -0.2640979588031769 0.951411247253418
vn -0.016539527103304863 -0.2837922275066376 0.9587430953979492
vn -0.4594001770019531 -0.2012012004852295 0.8651412725448608
vn -0.7288806438446045 -0.11139185726642609 0.6755181550979614
vn -0.8204416632652283 -0.06793524324893951 0.5676798224449158
vn -0.8452168107032776 -0.4368600845336914 0.30783388018608093
vn -0.8452169299125671 -0.4368600845336914 0.3078339099884033
vn -0.8452168107032776 -0.4368601143360138 0.3078339695930481
vn -0.8452169299125671 -0.43686020374298096 0.3078336715698242
vn -0.9548589587211609 0.029791109263896942 0.29556193947792053
vn -0.9548589587211609 0.029791109263896942 0.29556193947792053
vn -0.9548589587211609 0.029791124165058136 0.2955619692802429
vn -0.9548589587211609 0.029791178181767464 0.2955619990825653
vn -0.05334300175309181 -0.25764358043670654 0.9647665023803711
vn -0.2868199050426483 -0.39060381054878235 0.8747360110282898
vn -0.11179082840681076 -0.4045904278755188 0.9076395630836487
vn -0.28647157549858093 -0.21008287370204926 0.934772253036499
vn 0.028759000822901726 0.1435452401638031 0.9892258048057556
vn -0.24769291281700134 0.2182459682226181 0.9439369440078735
vn 0.11630474776029587 0.5667507648468018 0.8156388998031616
vn -0.1507226675748825 0.6458053588867188 0.7484771609306335
vn 0.10112353414297104 0.7452484965324402 0.6590741872787476
vn -0.09283223003149033 0.7971932888031006 0.5965443849563599
vn 0.1843799352645874 -0.22738106548786163 0.9561913013458252
vn 0.11840775609016418 -0.40354764461517334 0.9072645306587219
vn 0.2807919681072235 0.09375860542058945 0.9551780819892883
vn 0.34875744581222534 0.42463746666908264 0.8354945778846741
vn 0.3693080246448517 0.6141449809074402 0.6974507570266724
vn -0.011704337783157825 0.933670163154602 0.35794299840927124
vn -0.011704366654157639 0.933670163154602 0.3579429090023041
vn -0.011704341508448124 0.933670163154602 0.35794293880462646
vn -0.011704639531672001 0.9336702227592468 0.3579424321651459
vn 0.36239033937454224 0.828108012676239 0.4276801645755768
vn 0.36239030957221985 0.8281080722808838 0.42768019437789917
vn 0.36239030957221985 0.8281080722808838 0.42768019437789917
vn 0.3623904585838318 0.8281078934669495 0.4276804029941559
vt 0.875679075717926 0.3459361791610718
vt 0.7560205459594727 0.2539796829223633
vt 0.875679075717926 0.2539796829223633
vt 0.7560205459594727 0.34593629837036133
vt 0.8756791353225708 0.4378927946090698
vt 0.7560205459594727 0.4378927946090698
vt 0.8756791353225708 0.5298492312431335
vt 0.7560205459594727 0.5298492312431335
vt 0.8756791353225708 0.6218057572841644
vt 0.7560205459594727 0.6218057572841644
vt 0.9953375458717346 0.3459361791610718
vt 0.9953375458717346 0.2539796829223633
vt 0.9953375458717346 0.4378926753997803
vt 0.9953375458717346 0.5298492312431335
vt 0.9953376650810242 0.6218057572841644
vt 0.5775215029716492 0.06002432107925415
vt 0.4578629434108734 0.2387678027153015
vt 0.4578629434108734 0.06002432107925415
vt 0.5775215029716492 0.2387678027153015
vt 0.6971800923347473 0.06002432107925415
vt 0.5775215029716492 0.2387678027153015
vt 0.5775215029716492 0.06002432107925415
vt 0.6971800923347473 0.2387678027153015
vt 0.875679075717926 0.3459361791610718
vt 0.7560205459594727 0.2539796829223633
vt 0.875679075717926 0.2539796829223633
vt 0.7560205459594727 0.34593629837036133
vt 0.8756791353225708 0.4378927946090698
vt 0.7560205459594727 0.4378927946090698
vt 0.8756791353225708 0.5298492312431335
vt 0.7560205459594727 0.5298492312431335
vt 0.8756791353225708 0.6218057572841644
vt 0.7560205459594727 0.6218057572841644
vt 0.9953375458717346 0.3459361791610718
vt 0.9953375458717346 0.2539796829223633
vt 0.9953375458717346 0.4378926753997803
vt 0.9953375458717346 0.5298492312431335
vt 0.9953376650810242 0.6218057572841644
vt 0.5775215029716492 0.06002432107925415
vt 0.4578629434108734 0.2387678027153015
vt 0.4578629434108734 0.06002432107925415
vt 0.5775215029716492 0.2387678027153015
vt 0.6971800923347473 0.06002432107925415
vt 0.5775215029716492 0.2387678027153015
vt 0.5775215029716492 0.06002432107925415
vt 0.6971800923347473 0.2387678027153015
vt 0.875679075717926 0.3459361791610718
vt 0.7560205459594727 0.2539796829223633
vt 0.875679075717926 0.2539796829223633
vt 0.7560205459594727 0.34593629837036133
vt 0.8756791353225708 0.4378927946090698
vt 0.7560205459594727 0.4378927946090698
vt 0.8756791353225708 0.5298492312431335
vt 0.7560205459594727 0.5298492312431335
vt 0.8756791353225708 0.6218057572841644
vt 0.7560205459594727 0.6218057572841644
vt 0.9953375458717346 0.3459361791610718
vt 0.9953375458717346 0.2539796829223633
vt 0.9953375458717346 0.4378926753997803
vt 0.9953375458717346 0.5298492312431335
vt 0.9953376650810242 0.6218057572841644
vt 0.5775215029716492 0.06002432107925415
vt 0.4578629434108734 0.2387678027153015
vt 0.4578629434108734 0.06002432107925415
vt 0.5775215029716492 0.2387678027153015
vt 0.6971800923347473 0.06002432107925415
vt 0.5775215029716492 0.2387678027153015
vt 0.5775215029716492 0.06002432107925415
vt 0.6971800923347473 0.2387678027153015
vt 0.875679075717926 0.3459361791610718
vt 0.7560205459594727 0.2539796829223633
vt 0.875679075717926 0.2539796829223633
vt 0.7560205459594727 0.34593629837036133
vt 0.8756791353225708 0.4378927946090698
vt 0.7560205459594727 0.4378927946090698
vt 0.8756791353225708 0.5298492312431335
vt 0.7560205459594727 0.5298492312431335
vt 0.8756791353225708 0.6218057572841644
vt 0.7560205459594727 0.6218057572841644
vt 0.9953375458717346 0.3459361791610718
vt 0.9953375458717346 0.2539796829223633
vt 0.9953375458717346 0.4378926753997803
vt 0.9953375458717346 0.5298492312431335
vt 0.9953376650810242 0.6218057572841644
vt 0.5775215029716492 0.06002432107925415
vt 0.4578629434108734 0.2387678027153015
vt 0.4578629434108734 0.06002432107925415
vt 0.5775215029716492 0.2387678027153015
vt 0.6971800923347473 0.06002432107925415
vt 0.5775215029716492 0.2387678027153015
vt 0.5775215029716492 0.06002432107925415
vt 0.6971800923347473 0.2387678027153015
vt 0.875679075717926 0.3459361791610718
vt 0.7560205459594727 0.2539796829223633
vt 0.875679075717926 0.2539796829223633
vt 0.7560205459594727 0.34593629837036133
vt 0.8756791353225708 0.4378927946090698
vt 0.7560205459594727 0.4378927946090698
vt 0.8756791353225708 0.5298492312431335
vt 0.7560205459594727 0.5298492312431335
vt 0.8756791353225708 0.6218057572841644
vt 0.7560205459594727 0.6218057572841644
vt 0.9953375458717346 0.3459361791610718
vt 0.9953375458717346 0.2539796829223633
vt 0.9953375458717346 0.4378926753997803
vt 0.9953375458717346 0.5298492312431335
vt 0.9953376650810242 0.6218057572841644
vt 0.5775215029716492 0.06002432107925415
vt 0.4578629434108734 0.2387678027153015
vt 0.4578629434108734 0.06002432107925415
vt 0.5775215029716492 0.2387678027153015
vt 0.6971800923347473 0.06002432107925415
vt 0.5775215029716492 0.2387678027153015
vt 0.5775215029716492 0.06002432107925415
vt 0.6971800923347473 0.2387678027153015

g bg_mdl_map_sida00
s 1
usemtl bg_mdl_map_sida00
f 3/3/3 2/2/2 1/1/1 
f 4/4/4 1/1/1 2/2/2 
f 1/1/1 4/4/4 5/5/5 
f 6/6/6 5/5/5 4/4/4 
f 5/5/5 6/6/6 7/7/7 
f 8/8/8 7/7/7 6/6/6 
f 7/7/7 8/8/8 9/9/9 
f 10/10/10 9/9/9 8/8/8 
f 1/1/1 11/11/11 3/3/3 
f 12/12/12 3/3/3 11/11/11 
f 11/11/11 1/1/1 13/13/13 
f 5/5/5 13/13/13 1/1/1 
f 13/13/13 5/5/5 14/14/14 
f 7/7/7 14/14/14 5/5/5 
f 14/14/14 7/7/7 15/15/15 
f 9/9/9 15/15/15 7/7/7 
f 18/18/18 17/17/17 16/16/16 
f 19/19/19 16/16/16 17/17/17 
f 22/22/22 21/21/21 20/20/20 
f 23/23/23 20/20/20 21/21/21 
f 26/26/26 25/25/25 24/24/24 
f 27/27/27 24/24/24 25/25/25 
f 24/24/24 27/27/27 28/28/28 
f 29/29/29 28/28/28 27/27/27 
f 28/28/28 29/29/29 30/30/30 
f 31/31/31 30/30/30 29/29/29 
f 30/30/30 31/31/31 32/32/32 
f 33/33/33 32/32/32 31/31/31 
f 24/24/24 34/34/34 26/26/26 
f 35/35/35 26/26/26 34/34/34 
f 34/34/34 24/24/24 36/36/36 
f 28/28/28 36/36/36 24/24/24 
f 36/36/36 28/28/28 37/37/37 
f 30/30/30 37/37/37 28/28/28 
f 37/37/37 30/30/30 38/38/38 
f 32/32/32 38/38/38 30/30/30 
f 41/41/41 40/40/40 39/39/39 
f 42/42/42 39/39/39 40/40/40 
f 45/45/45 44/44/44 43/43/43 
f 46/46/46 43/43/43 44/44/44 
f 49/49/49 48/48/48 47/47/47 
f 50/50/50 47/47/47 48/48/48 
f 47/47/47 50/50/50 51/51/51 
f 52/52/52 51/51/51 50/50/50 
f 51/51/51 52/52/52 53/53/53 
f 54/54/54 53/53/53 52/52/52 
f 53/53/53 54/54/54 55/55/55 
f 56/56/56 55/55/55 54/54/54 
f 47/47/47 57/57/57 49/49/49 
f 58/58/58 49/49/49 57/57/57 
f 57/57/57 47/47/47 59/59/59 
f 51/51/51 59/59/59 47/47/47 
f 59/59/59 51/51/51 60/60/60 
f 53/53/53 60/60/60 51/51/51 
f 60/60/60 53/53/53 61/61/61 
f 55/55/55 61/61/61 53/53/53 
f 64/64/64 63/63/63 62/62/62 
f 65/65/65 62/62/62 63/63/63 
f 68/68/68 67/67/67 66/66/66 
f 69/69/69 66/66/66 67/67/67 
f 72/72/72 71/71/71 70/70/70 
f 73/73/73 70/70/70 71/71/71 
f 70/70/70 73/73/73 74/74/74 
f 75/75/75 74/74/74 73/73/73 
f 74/74/74 75/75/75 76/76/76 
f 77/77/77 76/76/76 75/75/75 
f 76/76/76 77/77/77 78/78/78 
f 79/79/79 78/78/78 77/77/77 
f 70/70/70 80/80/80 72/72/72 
f 81/81/81 72/72/72 80/80/80 
f 80/80/80 70/70/70 82/82/82 
f 74/74/74 82/82/82 70/70/70 
f 82/82/82 74/74/74 83/83/83 
f 76/76/76 83/83/83 74/74/74 
f 83/83/83 76/76/76 84/84/84 
f 78/78/78 84/84/84 76/76/76 
f 87/87/87 86/86/86 85/85/85 
f 88/88/88 85/85/85 86/86/86 
f 91/91/91 90/90/90 89/89/89 
f 92/92/92 89/89/89 90/90/90 
f 95/95/95 94/94/94 93/93/93 
f 96/96/96 93/93/93 94/94/94 
f 93/93/93 96/96/96 97/97/97 
f 98/98/98 97/97/97 96/96/96 
f 97/97/97 98/98/98 99/99/99 
f 100/100/100 99/99/99 98/98/98 
f 99/99/99 100/100/100 101/101/101 
f 102/102/102 101/101/101 100/100/100 
f 93/93/93 103/103/103 95/95/95 
f 104/104/104 95/95/95 103/103/103 
f 103/103/103 93/93/93 105/105/105 
f 97/97/97 105/105/105 93/93/93 
f 105/105/105 97/97/97 106/106/106 
f 99/99/99 106/106/106 97/97/97 
f 106/106/106 99/99/99 107/107/107 
f 101/101/101 107/107/107 99/99/99 
f 110/110/110 109/109/109 108/108/108 
f 111/111/111 108/108/108 109/109/109 
f 114/114/114 113/113/113 112/112/112 
f 115/115/115 112/112/112 113/113/113 

