v -0.32030364871025085 -2.000000476837158 0.20002597570419312
v 0.012323126196861267 -1.0131167300642119e-06 0.20002585649490356
v 0.012323427014052868 -2.000000476837158 0.20002593100070953
v -0.32020896673202515 -9.529971976007801e-07 0.20002590119838715
v 0.012323726899921894 -2.000000476837158 1.5968196009907842e-07
v 0.012323126196861267 -1.0131167300642119e-06 0.20002585649490356
v 0.012323247268795967 -1.0732363762144814e-06 1.6704736083283933e-07
v 0.012323427014052868 -2.000000476837158 0.20002593100070953
v -0.6531205773353577 -2.000000476837158 0.4092727303504944
v -0.3200192451477051 -9.529971976007801e-07 0.4092726707458496
v -0.32001906633377075 -2.000000476837158 0.4092727601528168
v -0.6531208157539368 -9.529971976007801e-07 0.4092726707458496
v -0.32030364871025085 -2.000000476837158 0.20002597570419312
v -0.3200192451477051 -9.529971976007801e-07 0.4092726707458496
v -0.32020896673202515 -9.529971976007801e-07 0.20002590119838715
v -0.32001906633377075 -2.000000476837158 0.4092727601528168
v -0.9862222075462341 -2.000000476837158 0.6305156350135803
v -0.6531208157539368 -9.529971976007801e-07 0.6309281587600708
v -0.6531206369400024 -2.000000476837158 0.6309282779693604
v -0.9862224459648132 -1.0131167300642119e-06 0.6301029324531555
v -0.6531205773353577 -2.000000476837158 0.4092727303504944
v -0.6531208157539368 -9.529971976007801e-07 0.6309281587600708
v -0.6531208157539368 -9.529971976007801e-07 0.4092726707458496
v -0.6531206369400024 -2.000000476837158 0.6309282779693604
v -1.3240406513214111 -2.000000476837158 0.8522130250930786
v -0.986222505569458 -1.0131167300642119e-06 0.8489126563072205
v -0.9862224459648132 -2.000000476837158 0.84891277551651
v -1.3239457607269287 -9.529971976007801e-07 0.8522129654884338
v -0.9862222075462341 -2.000000476837158 0.6305156350135803
v -0.986222505569458 -1.0131167300642119e-06 0.8489126563072205
v -0.9862224459648132 -1.0131167300642119e-06 0.6301029324531555
v -0.9862224459648132 -2.000000476837158 0.84891277551651
v -1.6666924953460693 -2.000000476837158 1.0685451030731201
v -1.3237559795379639 -9.529971976007801e-07 1.068544864654541
v -1.3237559795379639 -2.000000476837158 1.0685449838638306
v -1.6666924953460693 -9.529971976007801e-07 1.0685449838638306
v -1.3240406513214111 -2.000000476837158 0.8522130250930786
v -1.3237559795379639 -9.529971976007801e-07 1.068544864654541
v -1.3239457607269287 -9.529971976007801e-07 0.8522129654884338
v -1.3237559795379639 -2.000000476837158 1.0685449838638306
v -1.9999996423721313 -2.000000476837158 1.2701821327209473
v -1.6666921377182007 -9.529971976007801e-07 1.2701823711395264
v -1.6666921377182007 -2.000000476837158 1.270182728767395
v -1.9999996423721313 -8.928775514505105e-07 1.2701817750930786
v -1.6666924953460693 -2.000000476837158 1.0685451030731201
v -1.6666921377182007 -9.529971976007801e-07 1.2701823711395264
v -1.6666924953460693 -9.529971976007801e-07 1.0685449838638306
v -1.6666921377182007 -2.000000476837158 1.270182728767395
v -0.6531208157539368 -9.529971976007801e-07 0.4092726707458496
v -0.32020896673202515 -9.529971976007801e-07 0.20002590119838715
v -0.3200192451477051 -9.529971976007801e-07 0.4092726707458496
v -0.6531208157539368 -9.529971976007801e-07 0.20002593100070953
v -0.9862224459648132 -1.0131167300642119e-06 0.6301029324531555
v -0.6531208157539368 -9.529971976007801e-07 0.4092726707458496
v -0.6531208157539368 -9.529971976007801e-07 0.6309281587600708
v -0.9862223863601685 -1.0131167300642119e-06 0.40865373611450195
v -1.3239457607269287 -9.529971976007801e-07 0.8522129654884338
v -0.9862224459648132 -1.0131167300642119e-06 0.6301029324531555
v -0.986222505569458 -1.0131167300642119e-06 0.8489126563072205
v -1.3240406513214111 -9.529971976007801e-07 0.6325780153274536
v -1.6666924953460693 -9.529971976007801e-07 1.0685449838638306
v -1.3239457607269287 -9.529971976007801e-07 0.8522129654884338
v -1.3237559795379639 -9.529971976007801e-07 1.068544864654541
v -1.6666924953460693 -9.529971976007801e-07 0.8522132635116577
v -1.9999996423721313 -8.928775514505105e-07 1.2701817750930786
v -1.6666924953460693 -9.529971976007801e-07 1.0685449838638306
v -1.6666921377182007 -9.529971976007801e-07 1.2701823711395264
v -1.9999996423721313 -8.928775514505105e-07 1.068544626235962
v -0.32020896673202515 -9.529971976007801e-07 0.20002590119838715
v 0.012323247268795967 -1.0732363762144814e-06 1.6704736083283933e-07
v 0.012323126196861267 -1.0131167300642119e-06 0.20002585649490356
v -0.32020893692970276 -9.529971976007801e-07 1.6704736083283933e-07
v -0.6531205773353577 -2.000000476837158 0.4092727303504944
v -0.32030364871025085 -2.000000476837158 0.20002597570419312
v -0.6531206369400024 -2.000000476837158 0.20002597570419312
v -0.32001906633377075 -2.000000476837158 0.4092727601528168
v -0.9862222075462341 -2.000000476837158 0.6305156350135803
v -0.6531205773353577 -2.000000476837158 0.4092727303504944
v -0.9862221479415894 -2.0000007152557373 0.40865379571914673
v -0.6531206369400024 -2.000000476837158 0.6309282779693604
v -1.3240406513214111 -2.000000476837158 0.8522130250930786
v -0.9862222075462341 -2.000000476837158 0.6305156350135803
v -1.3240405321121216 -2.000000476837158 0.6325781345367432
v -0.9862224459648132 -2.000000476837158 0.84891277551651
v -1.6666924953460693 -2.000000476837158 1.0685451030731201
v -1.3240406513214111 -2.000000476837158 0.8522130250930786
v -1.6666921377182007 -2.000000476837158 0.8522133231163025
v -1.3237559795379639 -2.000000476837158 1.0685449838638306
v -1.9999996423721313 -2.000000476837158 1.2701821327209473
v -1.6666924953460693 -2.000000476837158 1.0685451030731201
v -1.9999996423721313 -2.000000238418579 1.0685447454452515
v -1.6666921377182007 -2.000000476837158 1.270182728767395
v -0.32030364871025085 -2.000000476837158 0.20002597570419312
v 0.012323726899921894 -2.000000476837158 1.5968196009907842e-07
v -0.32020875811576843 -2.000000476837158 1.668939262344793e-07
v 0.012323427014052868 -2.000000476837158 0.20002593100070953
v -1.9999996423721313 -8.928775514505105e-07 1.068544626235962
v -1.6666924953460693 -9.529971976007801e-07 0.8522132635116577
v -1.6666924953460693 -9.529971976007801e-07 1.0685449838638306
v -1.9999996423721313 -8.928775514505105e-07 1.6459223672882217e-07
v -1.3240406513214111 -9.529971976007801e-07 0.6325780153274536
v -1.3239457607269287 -9.529971976007801e-07 0.8522129654884338
v -1.3240410089492798 -9.529971976007801e-07 1.6704736083283933e-07
v -0.9862224459648132 -1.0131167300642119e-06 0.6301029324531555
v -0.9862223863601685 -1.0131167300642119e-06 0.40865373611450195
v -0.6531208157539368 -9.529971976007801e-07 0.20002593100070953
v -0.6531208157539368 -9.529971976007801e-07 0.4092726707458496
v -0.32020896673202515 -9.529971976007801e-07 0.20002590119838715
v -0.32020893692970276 -9.529971976007801e-07 1.6704736083283933e-07
v -1.9999996423721313 -2.000000238418579 1.0685447454452515
v -1.6666921377182007 -2.000000476837158 0.8522133231163025
v -1.9999996423721313 -2.000000476837158 1.6459223672882217e-07
v -1.6666924953460693 -2.000000476837158 1.0685451030731201
v -1.3240405321121216 -2.000000476837158 0.6325781345367432
v -1.3240406513214111 -2.000000476837158 0.8522130250930786
v -1.3240406513214111 -2.000000476837158 1.4894075661686657e-07
v -0.9862222075462341 -2.000000476837158 0.6305156350135803
v -0.9862221479415894 -2.0000007152557373 0.40865379571914673
v -0.6531206369400024 -2.000000476837158 0.20002597570419312
v -0.6531205773353577 -2.000000476837158 0.4092727303504944
v -0.32030364871025085 -2.000000476837158 0.20002597570419312
v -0.32020875811576843 -2.000000476837158 1.668939262344793e-07
vn -0.0 0.0 1.0
vn -0.0 0.0 1.0
vn -0.0 0.0 1.0
vn -0.0 0.0 1.0
vn 1.0 2.404785277576593e-07 7.855422268221446e-07
vn 1.0 0.0 8.361244567822723e-07
vn 1.0 2.404785277576593e-07 7.855422268221446e-07
vn 1.0 1.5029911537567386e-07 1.963855083886301e-06
vn -0.0 0.0 1.0
vn -2.7033291871703113e-07 0.0 1.0
vn -0.0 0.0 1.0
vn -0.0 0.0 1.0
vn 0.9999972581863403 0.0 -0.002373665338382125
vn 1.0 0.0 0.0
vn 0.9999972581863403 0.0 -0.002373665338382125
vn 0.9999984502792358 1.051556708375756e-07 -0.0017800647765398026
vn -0.0009465248440392315 0.0 0.9999995231628418
vn -1.802218605462258e-07 0.0 1.0
vn -0.0009465247858315706 0.0 0.9999995231628418
vn -0.0018929570214822888 0.00015790371980983764 0.9999982118606567
vn 1.0 1.2023924966797495e-07 0.0
vn 1.0 0.0 0.0
vn 1.0 1.2023924966797495e-07 0.0
vn 1.0 0.0 2.658324547155644e-07
vn -0.0 0.0 1.0
vn -0.0 0.0 1.0
vn -0.0 0.0 1.0
vn -0.0 0.0 1.0
vn 1.0 1.0532272654018016e-07 7.181063210737193e-07
vn 1.0 0.0 8.361244567822723e-07
vn 1.0 1.0532271232932544e-07 7.181062642303004e-07
vn 1.0 0.0 8.361244567822723e-07
vn -2.7033291871703113e-07 0.0 1.0
vn -2.7033291871703113e-07 0.0 1.0
vn -2.7033291871703113e-07 0.0 1.0
vn 3.501067737943231e-07 0.0 1.0
vn 0.9999972581863403 0.0 -0.002337551908567548
vn 1.0 0.0 0.0
vn 0.9999972581863403 0.0 -0.0023375521413981915
vn 1.0 0.0 0.0
vn -1.260773842659546e-06 1.5029907274310972e-07 1.0
vn -1.802218605462258e-07 0.0 1.0
vn -1.2607737289727083e-06 1.5029907274310972e-07 1.0
vn -1.0806635373228346e-06 1.202393065113938e-07 1.0
vn 1.0 0.0 0.0
vn 1.0 0.0 0.0
vn 1.0 0.0 -1.558527628731099e-06
vn 1.0 0.0 -1.5585252413075068e-06
vn -0.0 1.0 0.0
vn -0.0 1.0 0.0
vn -0.0 1.0 0.0
vn -0.0 1.0 0.0
vn -1.8022187475708051e-07 1.0 0.0
vn -1.8022187475708051e-07 1.0 0.0
vn -1.8022188896793523e-07 1.0 0.0
vn -1.8022190317878994e-07 1.0 0.0
vn 1.7775560934296664e-07 1.0 0.0
vn 1.7775560934296664e-07 1.0 0.0
vn 1.7775560934296664e-07 1.0 0.0
vn 1.7770507554359938e-07 1.0 0.0
vn -0.0 1.0 0.0
vn -0.0 1.0 0.0
vn -0.0 1.0 0.0
vn -0.0 1.0 0.0
vn 1.801106179755152e-07 1.0 0.0
vn 1.8011058955380577e-07 1.0 0.0
vn 1.801106179755152e-07 1.0 0.0
vn 1.8011074587320763e-07 1.0 0.0
vn 1.8053049188893056e-07 1.0 -3.9277097130252514e-07
vn 1.8053049188893056e-07 1.0 -3.927709144591063e-07
vn 1.8053049188893056e-07 1.0 -3.927709428808157e-07
vn 3.610610690429894e-07 1.0 0.0
vn -0.0 -1.0 0.0
vn -0.0 -1.0 0.0
vn -0.0 -1.0 0.0
vn -0.0 -1.0 0.0
vn 1.8022190317878994e-07 -1.0 0.0
vn 1.8022188896793523e-07 -1.0 0.0
vn 1.8022190317878994e-07 -1.0 0.0
vn 1.8022190317878994e-07 -1.0 0.0
vn -1.7603683488687238e-07 -1.0 3.577039251467795e-07
vn -1.7773025717815472e-07 -1.0 0.0
vn -1.7773027138900943e-07 -1.0 0.0
vn -3.554112026904477e-07 -1.0 0.0
vn -0.0 -1.0 0.0
vn -0.0 -1.0 0.0
vn -0.0 -1.0 0.0
vn -0.0 -1.0 0.0
vn -1.8022144843143906e-07 -1.0 0.0
vn -5.403317686614173e-07 -1.0 -3.89631793495937e-07
vn -1.8022142000972963e-07 -1.0 0.0
vn -1.8022142000972963e-07 -1.0 0.0
vn -3.6106064271734795e-07 -1.0 0.0
vn -1.8053052031063999e-07 -1.0 0.0
vn -1.8053052031063999e-07 -1.0 0.0
vn -1.8053052031063999e-07 -1.0 0.0
vn 1.8011074587320763e-07 1.0 0.0
vn 1.8011074587320763e-07 1.0 0.0
vn 1.8011074587320763e-07 1.0 0.0
vn 1.801107174514982e-07 1.0 0.0
vn 1.7770562976693327e-07 1.0 0.0
vn -0.0 1.0 0.0
vn -0.0 1.0 2.5513071477689664e-07
vn 1.7770540239325783e-07 1.0 0.0
vn -1.8022190317878994e-07 1.0 0.0
vn -1.8022190317878994e-07 1.0 0.0
vn -1.8022190317878994e-07 1.0 0.0
vn -0.0 1.0 0.0
vn -0.0 1.0 0.0
vn -1.269146139293298e-07 -1.0 1.0741932499058748e-07
vn -1.269146139293298e-07 -1.0 1.0741931788516013e-07
vn -1.269146139293298e-07 -1.0 1.0741932499058748e-07
vn -5.403319960350927e-07 -1.0 0.0
vn -1.7770558713436913e-07 -1.0 0.0
vn -0.0 -1.0 3.577041240987455e-07
vn -0.0 -1.0 -1.9136342643832904e-07
vn -1.7770560134522384e-07 -1.0 0.0
vn -0.0 -1.0 -1.9136342643832904e-07
vn -0.0 -1.0 -1.9136345486003847e-07
vn -0.0 -1.0 -1.9136342643832904e-07
vn -0.0 -1.0 3.927708576156874e-07
vn -0.0 -1.0 0.0
vt 0.0022862576879560947 0.3313677906990051
vt 0.4365101456642151 0.38453423976898193
vt 0.0022862576879560947 0.38453423976898193
vt 0.4365101456642151 0.3313677906990051
vt 0.0022862576879560947 0.43571436405181885
vt 0.4365101456642151 0.38453423976898193
vt 0.4365101456642151 0.43571436405181885
vt 0.0022862576879560947 0.38453423976898193
vt 0.0022862576879560947 0.3313677906990051
vt 0.4365101456642151 0.38453423976898193
vt 0.0022862576879560947 0.38453423976898193
vt 0.4365101456642151 0.3313677906990051
vt 0.0022862576879560947 0.43571436405181885
vt 0.4365101456642151 0.38453423976898193
vt 0.4365101456642151 0.43571436405181885
vt 0.0022862576879560947 0.38453423976898193
vt 0.0022862576879560947 0.22728794813156128
vt 0.4365101456642151 0.27989673614501953
vt 0.0022862576879560947 0.27989673614501953
vt 0.4365101456642151 0.22728794813156128
vt 0.0022862576879560947 0.3313677906990051
vt 0.4365101456642151 0.27989673614501953
vt 0.4365101456642151 0.3313677906990051
vt 0.0022862576879560947 0.27989673614501953
vt 0.0022862576879560947 0.1271296739578247
vt 0.4365101456642151 0.17551088333129883
vt 0.0022862576879560947 0.17551088333129883
vt 0.4365101456642151 0.1271296739578247
vt 0.0022862576879560947 0.22728794813156128
vt 0.4365101456642151 0.17551088333129883
vt 0.4365101456642151 0.22728794813156128
vt 0.0022862576879560947 0.17551088333129883
vt 0.0022862576879560947 0.3313677906990051
vt 0.4365101456642151 0.38453423976898193
vt 0.0022862576879560947 0.38453423976898193
vt 0.4365101456642151 0.3313677906990051
vt 0.0022862576879560947 0.43571436405181885
vt 0.4365101456642151 0.38453423976898193
vt 0.4365101456642151 0.43571436405181885
vt 0.0022862576879560947 0.38453423976898193
vt 0.0022862576879560947 0.22728794813156128
vt 0.4365101456642151 0.27989673614501953
vt 0.0022862576879560947 0.27989673614501953
vt 0.4365101456642151 0.22728794813156128
vt 0.0022862576879560947 0.3313677906990051
vt 0.4365101456642151 0.27989673614501953
vt 0.4365101456642151 0.3313677906990051
vt 0.0022862576879560947 0.27989673614501953
vt 0.4990711808204651 0.43541663885116577
vt 0.43933582305908203 0.35806870460510254
vt 0.4990711212158203 0.35806870460510254
vt 0.4393358528614044 0.43541663885116577
vt 0.4990711808204651 0.43541663885116577
vt 0.43933582305908203 0.35806870460510254
vt 0.4990711212158203 0.35806870460510254
vt 0.4393358528614044 0.43541663885116577
vt 0.4994661211967468 0.4362486004829407
vt 0.4397307336330414 0.35890060663223267
vt 0.4994661211967468 0.35890060663223267
vt 0.4397307336330414 0.4362486004829407
vt 0.4990711808204651 0.43541663885116577
vt 0.43933582305908203 0.35806870460510254
vt 0.4990711212158203 0.35806870460510254
vt 0.4393358528614044 0.43541663885116577
vt 0.4990711808204651 0.43541663885116577
vt 0.43933582305908203 0.35806870460510254
vt 0.4990711212158203 0.35806870460510254
vt 0.4393358528614044 0.43541663885116577
vt 0.49954038858413696 0.4362109899520874
vt 0.4398050606250763 0.3588629961013794
vt 0.49954038858413696 0.3588629961013794
vt 0.4398050606250763 0.4362109899520874
vt 0.4990711808204651 0.357133686542511
vt 0.43933582305908203 0.2828477621078491
vt 0.4393358528614044 0.357133686542511
vt 0.4990711212158203 0.2828477621078491
vt 0.4990711808204651 0.357133686542511
vt 0.43933582305908203 0.2828477621078491
vt 0.4393358528614044 0.357133686542511
vt 0.4990711212158203 0.2828477621078491
vt 0.4994661211967468 0.4362486004829407
vt 0.4397307336330414 0.35890060663223267
vt 0.4397307336330414 0.4362486004829407
vt 0.4994661211967468 0.35890060663223267
vt 0.4990711808204651 0.357133686542511
vt 0.43933582305908203 0.2828477621078491
vt 0.4393358528614044 0.357133686542511
vt 0.4990711212158203 0.2828477621078491
vt 0.4990711808204651 0.357133686542511
vt 0.43933582305908203 0.2828477621078491
vt 0.4393358528614044 0.357133686542511
vt 0.4990711212158203 0.2828477621078491
vt 0.49954038858413696 0.4362109899520874
vt 0.4398050606250763 0.3588629961013794
vt 0.4398050606250763 0.4362109899520874
vt 0.49954038858413696 0.3588629961013794
vt 0.0036516040563583374 0.47424954175949097
vt 0.14444373548030853 0.5810229480266571
vt 0.14444373548030853 0.4742494225502014
vt 0.002625939203426242 1.0006823076982982
vt 0.2892720699310303 0.6894270479679108
vt 0.2893121838569641 0.5810231268405914
vt 0.2892720103263855 1.0003769670729525
vt 0.43205738067626953 0.6906485557556152
vt 0.43205738067626953 0.7999479025602341
vt 0.5728492140769958 0.9029190614819527
vt 0.5728492140769958 0.7996423840522766
vt 0.7135607600212097 0.902919091284275
vt 0.7135607600212097 1.0009877285920084
vt 0.0036516040563583374 0.47424954175949097
vt 0.14444373548030853 0.5810229480266571
vt 0.002625939203426242 1.0006823076982982
vt 0.14444373548030853 0.4742494225502014
vt 0.2892720699310303 0.6894270479679108
vt 0.2893121838569641 0.5810231268405914
vt 0.2892720103263855 1.0003769670729525
vt 0.43205738067626953 0.6906485557556152
vt 0.43205738067626953 0.7999479025602341
vt 0.5728492140769958 0.9029190614819527
vt 0.5728492140769958 0.7996423840522766
vt 0.7135607600212097 0.902919091284275
vt 0.7135607600212097 1.0009877285920084

g bg_mdl_map_kaidan00
s 1
usemtl bg_mdl_map_kaidan00_0
f 3/3/3 2/2/2 1/1/1 
f 4/4/4 1/1/1 2/2/2 
f 7/7/7 6/6/6 5/5/5 
f 8/8/8 5/5/5 6/6/6 
f 11/11/11 10/10/10 9/9/9 
f 12/12/12 9/9/9 10/10/10 
f 15/15/15 14/14/14 13/13/13 
f 16/16/16 13/13/13 14/14/14 
f 19/19/19 18/18/18 17/17/17 
f 20/20/20 17/17/17 18/18/18 
f 23/23/23 22/22/22 21/21/21 
f 24/24/24 21/21/21 22/22/22 
f 27/27/27 26/26/26 25/25/25 
f 28/28/28 25/25/25 26/26/26 
f 31/31/31 30/30/30 29/29/29 
f 32/32/32 29/29/29 30/30/30 
f 35/35/35 34/34/34 33/33/33 
f 36/36/36 33/33/33 34/34/34 
f 39/39/39 38/38/38 37/37/37 
f 40/40/40 37/37/37 38/38/38 
f 43/43/43 42/42/42 41/41/41 
f 44/44/44 41/41/41 42/42/42 
f 47/47/47 46/46/46 45/45/45 
f 48/48/48 45/45/45 46/46/46 
f 51/51/51 50/50/50 49/49/49 
f 52/52/52 49/49/49 50/50/50 
f 55/55/55 54/54/54 53/53/53 
f 56/56/56 53/53/53 54/54/54 
f 59/59/59 58/58/58 57/57/57 
f 60/60/60 57/57/57 58/58/58 
f 63/63/63 62/62/62 61/61/61 
f 64/64/64 61/61/61 62/62/62 
f 67/67/67 66/66/66 65/65/65 
f 68/68/68 65/65/65 66/66/66 
f 71/71/71 70/70/70 69/69/69 
f 72/72/72 69/69/69 70/70/70 
f 75/75/75 74/74/74 73/73/73 
f 76/76/76 73/73/73 74/74/74 
f 79/79/79 78/78/78 77/77/77 
f 80/80/80 77/77/77 78/78/78 
f 83/83/83 82/82/82 81/81/81 
f 84/84/84 81/81/81 82/82/82 
f 87/87/87 86/86/86 85/85/85 
f 88/88/88 85/85/85 86/86/86 
f 91/91/91 90/90/90 89/89/89 
f 92/92/92 89/89/89 90/90/90 
f 95/95/95 94/94/94 93/93/93 
f 96/96/96 93/93/93 94/94/94 

usemtl bg_mdl_map_kaidan00_1
f 99/99/99 98/98/98 97/97/97 
f 100/100/100 97/97/97 98/98/98 
f 100/100/100 98/98/98 101/101/101 
f 102/102/102 101/101/101 98/98/98 
f 103/103/103 100/100/100 101/101/101 
f 101/101/101 104/104/104 103/103/103 
f 105/105/105 103/103/103 104/104/104 
f 103/103/103 105/105/105 106/106/106 
f 107/107/107 106/106/106 105/105/105 
f 106/106/106 108/108/108 103/103/103 
f 109/109/109 103/103/103 108/108/108 
f 112/112/112 111/111/111 110/110/110 
f 113/113/113 110/110/110 111/111/111 
f 112/112/112 114/114/114 111/111/111 
f 115/115/115 111/111/111 114/114/114 
f 112/112/112 116/116/116 114/114/114 
f 114/114/114 116/116/116 117/117/117 
f 118/118/118 117/117/117 116/116/116 
f 116/116/116 119/119/119 118/118/118 
f 120/120/120 118/118/118 119/119/119 
f 119/119/119 116/116/116 121/121/121 
f 122/122/122 121/121/121 116/116/116 

