v 0.32028183341026306 0.06543707847595215 0.34283679723739624
v 0.3205069899559021 -0.3330751061439514 0.1493518352508545
v 0.07091670483350754 -0.3168213665485382 0.13570374250411987
v 0.1468016356229782 0.07673460245132446 0.3501165807247162
v 0.5220178961753845 -0.31453728675842285 -0.3407105505466461
v 0.8706654906272888 -0.09812771528959274 0.17775127291679382
v 0.5918024182319641 -0.16222797334194183 0.35169854760169983
v 0.2431553453207016 -0.378637433052063 -0.166763573884964
v 0.7453138828277588 -0.01700608991086483 0.45110905170440674
v 0.9339742660522461 -0.18224509060382843 0.017211556434631348
v 0.5155141353607178 -0.4361461400985718 -0.050979238003492355
v 0.3268531262874603 -0.27090758085250854 0.38291826844215393
v 0.5461624264717102 -0.2997717261314392 -0.44087520241737366
v 0.7975685596466064 -0.365077406167984 0.13600791990756989
v 0.5660126209259033 -0.18203230202198029 0.25792554020881653
v 0.314607709646225 -0.1167265847325325 -0.31895822286605835
v 0.6613857746124268 -0.3928789496421814 -0.7453652620315552
v 0.7053139209747314 -0.27315911650657654 -0.11006458103656769
v 0.4474618136882782 -0.0991179347038269 -0.14631938934326172
v 0.4035351574420929 -0.21883775293827057 -0.7816200256347656
v 0.78095543384552 -0.20226706564426422 0.4692789316177368
v 0.6460086703300476 -0.4330257177352905 0.039121899753808975
v 0.3990849256515503 -0.012760642915964127 -0.06220098212361336
v 0.5340312719345093 0.2179984450340271 0.36795705556869507
v 0.49474120140075684 0.26402899622917175 0.388130784034729
v 0.4914795160293579 -0.30556604266166687 0.15205314755439758
v -0.07832753658294678 -0.22743840515613556 -0.020317282527685165
v -0.07506643235683441 0.3421572148799896 0.21576127409934998
v -0.36220884323120117 -0.2627163231372833 0.034130971878767014
v 0.09988505393266678 -0.15091785788536072 0.06950882077217102
v 0.014875342138111591 0.3265896439552307 0.3045918345451355
v -0.4472190737724304 0.2147914618253708 0.2692134976387024
v 0.25176918506622314 0.17604780197143555 0.49722257256507874
v 0.004929598420858383 -0.04800491780042648 -0.07326288521289825
v -0.28871041536331177 -0.016264237463474274 0.06576618552207947
v -0.04186972230672836 0.20778802037239075 0.6362512707710266
v 0.9106643199920654 0.08750827610492706 0.4195660352706909
v 0.9599286317825317 -0.10166442394256592 0.08377570658922195
v 0.4566757380962372 -0.04525412619113922 -0.004290161654353142
v 0.4074106216430664 0.1439187377691269 0.3315006494522095
v 1.1048232316970825 0.3763463795185089 0.3094361126422882
v 1.076466679573059 -0.2095981240272522 0.21603776514530182
v 0.4575868248939514 -0.22142186760902405 0.12900999188423157
v 0.4859431982040405 0.3645235002040863 0.22240877151489258
v 1.1843441724777222 0.222831130027771 0.5647144913673401
v 1.2617520093917847 0.0744355246424675 0.10257098823785782
v 0.7531099319458008 -0.1049453616142273 0.06266692280769348
v 0.6757017374038696 0.043449610471725464 0.5248110294342041
v 1.0815927982330322 0.12133445590734482 0.3145290017127991
v 1.349307656288147 -0.010867779143154621 0.03512319549918175
v 0.9700467586517334 -0.16936364769935608 -0.24852654337882996
v 0.7023317813873291 -0.037161748856306076 0.030879579484462738
v 0.5324323773384094 -0.23961463570594788 0.28949421644210815
v 0.41911986470222473 -0.31668904423713684 -0.06382055580615997
v 0.2643192708492279 0.036927349865436554 -0.041998643428087234
v 0.3776315748691559 0.11400207877159119 0.31131675839424133
v -0.2641546130180359 0.2635708153247833 0.29800575971603394
v -0.3110392093658447 -0.23035666346549988 -0.028637055307626724
v -0.9346235394477844 -0.25873351097106934 0.003956747706979513
v -0.8877400159835815 0.23519457876682281 0.3306005895137787
v -0.7387840151786804 0.26357096433639526 0.24971823394298553
v -0.7856686115264893 -0.23035648465156555 -0.07692457735538483
v -1.4092528820037842 -0.2587333023548126 -0.044330935925245285
v -1.362369179725647 0.23519471287727356 0.2823127210140228
v -1.0631495714187622 0.10583314299583435 0.5434758067131042
v -0.6833640933036804 -0.11821962147951126 0.0513923354446888
v -0.9471297264099121 -0.08647884428501129 -0.13829582929611206
v -1.3269145488739014 0.13757340610027313 0.3537881672382355
v -0.11941296607255936 0.10102957487106323 0.3312405049800873
v -0.06607979536056519 -0.14402589201927185 -0.10265689343214035
v -0.5534814596176147 -0.09914745390415192 -0.17084763944149017
v -0.6068152189254761 0.14590810239315033 0.26304978132247925
v -0.31485387682914734 -0.22997154295444489 -0.2515791356563568
v -0.2975575029850006 0.21229420602321625 0.2396363615989685
v -0.6262176036834717 0.1523963063955307 0.26256629824638367
v -0.643513560295105 -0.28986939787864685 -0.2286492884159088
v -0.29287075996398926 -0.21242348849773407 -0.34545573592185974
v -0.38898512721061707 -0.030723897740244865 0.2528844177722931
v -0.6498454213142395 0.1298096626996994 0.1625053733587265
v -0.5537299513816833 -0.05188978463411331 -0.4358347952365875
v -0.3720991909503937 -0.041929781436920166 0.4692785441875458
v -0.5070458054542542 -0.2726883888244629 0.03912170231342316
v -0.7539695501327515 0.14757657051086426 -0.06220109760761261
v -0.6190234422683716 0.3783354163169861 0.3679567277431488
v 0.7844724059104919 -0.08289990574121475 -0.023578032851219177
v 0.7657448649406433 -0.17440679669380188 -0.421688437461853
v 0.2853766679763794 -0.03790249302983284 -0.42713412642478943
v 0.30410391092300415 0.053604066371917725 -0.02902328036725521
v 0.3134235441684723 -0.21018359065055847 0.20897772908210754
v 0.30897125601768494 -0.2896089553833008 -0.13008461892604828
v -0.11270194500684738 -0.23405569791793823 -0.1347227394580841
v -0.10825059562921524 -0.1546306163072586 0.20434005558490753
v 0.1468016356229782 0.07673460245132446 0.3501165807247162
v 0.07091670483350754 -0.3168213665485382 0.13570374250411987
v -0.11405805498361588 -0.30477550625801086 0.029859701171517372
v -0.11428386718034744 0.09373713284730911 0.22334474325180054
v -0.48979082703590393 -0.12897460162639618 0.13227635622024536
v -0.4942431151866913 -0.20839987695217133 -0.20678578317165375
v -0.9159159660339355 -0.15284663438796997 -0.2114240527153015
v -0.9114647507667542 -0.07342168688774109 0.12763866782188416
v -0.049232520163059235 -0.17202207446098328 0.10742852836847305
v -0.09174437075853348 -0.23926059901714325 -0.23163346946239471
v -0.43319636583328247 0.014322210103273392 -0.23627178370952606
v -0.390686571598053 0.08156082779169083 0.10279074311256409
v 0.43557292222976685 -0.09640014171600342 0.40844839811325073
v 0.4193739593029022 -0.15349625051021576 0.17246587574481964
v 0.18627597391605377 -0.09743350744247437 0.18229970335960388
v 0.2024746835231781 -0.04033738374710083 0.4182824194431305
v 0.35508230328559875 0.019649013876914978 0.40844857692718506
v 0.4025897979736328 -0.015923364087939262 0.17246583104133606
v 0.26676592230796814 -0.2134823501110077 0.1822996884584427
v 0.219258114695549 -0.17791005969047546 0.4182823896408081
v 0.6128143668174744 -0.06707064062356949 0.40231746435165405
v 0.6574658751487732 -0.11443247646093369 0.1435038298368454
v 0.4735901951789856 -0.3023882508277893 0.1542888879776001
v 0.4289388060569763 -0.2550264894962311 0.41310304403305054
v 0.4582779109477997 -0.07759658992290497 0.4023176431655884
v 0.5184893012046814 -0.05286858603358269 0.14350378513336182
v 0.6281269192695618 -0.29186075925827026 0.15428906679153442
v 0.5679152011871338 -0.3165890872478485 0.4131028354167938
vn -0.23435170948505402 -0.7737197875976562 0.5885889530181885
vn -0.2343517690896988 -0.7737197279930115 0.5885890126228333
vn 0.1292460411787033 -0.5271179676055908 0.8399059772491455
vn 0.1292460709810257 -0.5271179676055908 0.8399059772491455
vn -0.3624711036682129 0.9205125570297241 -0.14584700763225555
vn -0.3624711036682129 0.9205125570297241 -0.14584700763225555
vn -0.36247116327285767 0.9205125570297241 -0.14584700763225555
vn -0.3624711036682129 0.9205125570297241 -0.14584700763225555
vn -0.5521751642227173 -0.8114920258522034 0.19126789271831512
vn -0.5521751642227173 -0.8114919066429138 0.19126786291599274
vn -0.5521751642227173 -0.8114919066429138 0.19126784801483154
vn -0.5521751642227173 -0.8114919066429138 0.19126789271831512
vn 0.6054977178573608 0.7953990697860718 0.02669803984463215
vn 0.6054977178573608 0.7953990697860718 0.02669803984463215
vn 0.6054977178573608 0.7953990697860718 0.02669801376760006
vn 0.6054977178573608 0.7953990697860718 0.02669801376760006
vn 0.6112675666809082 0.7914237976074219 -0.0005959374248050153
vn 0.6112675666809082 0.7914237976074219 -0.0005959341069683433
vn 0.6112675666809082 0.7914237976074219 -0.0005959341069683433
vn 0.6112675666809082 0.7914237976074219 -0.0005959614645689726
vn -0.896251916885376 -0.3998034596443176 0.19206711649894714
vn -0.896251916885376 -0.3998034596443176 0.19206713140010834
vn -0.896251916885376 -0.3998034596443176 0.19206713140010834
vn -0.896251916885376 -0.3998034596443176 0.19206711649894714
vn -0.9252815246582031 -0.1976151317358017 0.32373201847076416
vn -0.9252815246582031 -0.1976151317358017 0.3237319588661194
vn -0.9252815246582031 -0.1976151317358017 0.3237319588661194
vn -0.9252815246582031 -0.1976151317358017 0.3237319588661194
vn 0.25654610991477966 0.5567989349365234 -0.7900373339653015
vn 0.25654610991477966 0.5567989945411682 -0.7900373339653015
vn 0.25654610991477966 0.5567988753318787 -0.7900373339653015
vn 0.25654610991477966 0.5567988157272339 -0.7900373339653015
vn 0.103497214615345 -0.9657057523727417 0.2381189614534378
vn 0.10349719971418381 -0.9657057523727417 0.2381189912557602
vn 0.10349718481302261 -0.9657057523727417 0.2381189912557602
vn 0.10349718481302261 -0.9657057523727417 0.2381189912557602
vn -0.15853214263916016 -0.9382324814796448 0.3075506091117859
vn -0.15853215754032135 -0.9382324814796448 0.3075505793094635
vn -0.15853217244148254 -0.9382324814796448 0.3075506091117859
vn -0.15853217244148254 -0.9382324814796448 0.3075506091117859
vn 0.034265417605638504 -0.14288079738616943 0.9891465902328491
vn 0.034265387803316116 -0.14288081228733063 0.9891465902328491
vn 0.034265439957380295 -0.14288078248500824 0.9891465902328491
vn 0.034265391528606415 -0.14288079738616943 0.9891465902328491
vn 0.36349087953567505 -0.8906958103179932 0.27301180362701416
vn 0.36349087953567505 -0.8906957507133484 0.2730117738246918
vn 0.36349087953567505 -0.8906957507133484 0.2730117738246918
vn 0.36349087953567505 -0.8906957507133484 0.2730117738246918
vn 0.42075788974761963 -0.2917569577693939 0.8589764833450317
vn 0.42075788974761963 -0.2917569875717163 0.8589764833450317
vn 0.42075788974761963 -0.2917569875717163 0.8589764833450317
vn 0.42075788974761963 -0.2917569875717163 0.8589764833450317
vn -0.9067079424858093 -0.4097486138343811 0.09993354231119156
vn -0.9067079424858093 -0.4097485840320587 0.09993355721235275
vn -0.9067080616950989 -0.4097486138343811 0.09993357211351395
vn -0.9067079424858093 -0.4097485840320587 0.09993357211351395
vn 0.2530832290649414 -0.613324761390686 0.7481855154037476
vn 0.253083199262619 -0.6133248209953308 0.7481855750083923
vn 0.2530832290649414 -0.613324761390686 0.7481855154037476
vn 0.253083199262619 -0.6133248209953308 0.7481855750083923
vn 0.253082811832428 -0.6133248209953308 0.7481856942176819
vn 0.253082811832428 -0.613324761390686 0.7481856942176819
vn 0.253082811832428 -0.6133248209953308 0.7481856942176819
vn 0.253082811832428 -0.613324761390686 0.7481856942176819
vn -0.29862040281295776 -0.9516876339912415 0.0715298131108284
vn -0.2986203730106354 -0.9516876339912415 0.0715297982096672
vn -0.2986203730106354 -0.9516876339912415 0.0715298056602478
vn -0.29862040281295776 -0.9516876339912415 0.07152983546257019
vn -0.11715211719274521 -0.9391050934791565 0.3230432868003845
vn -0.117152139544487 -0.9391050934791565 0.3230433464050293
vn -0.1171521544456482 -0.9391050934791565 0.3230433464050293
vn -0.117152139544487 -0.9391050934791565 0.3230432868003845
vn -0.3269617259502411 0.7673212289810181 -0.5516467094421387
vn -0.3269617557525635 0.7673212885856628 -0.5516467094421387
vn -0.3269617557525635 0.7673212885856628 -0.5516467094421387
vn -0.3269617557525635 0.7673212885856628 -0.5516467094421387
vn 0.6003193259239197 0.7994579672813416 0.021991664543747902
vn 0.6003193259239197 0.7994579672813416 0.0219916682690382
vn 0.6003193259239197 0.7994579672813416 0.0219916719943285
vn 0.6003193259239197 0.7994579672813416 0.02199169620871544
vn -0.8962517380714417 -0.3998037874698639 0.19206692278385162
vn -0.8962517380714417 -0.3998037874698639 0.19206692278385162
vn -0.8962517380714417 -0.3998037874698639 0.19206690788269043
vn -0.8962517380714417 -0.3998037874698639 0.19206690788269043
vn -0.2959502637386322 -0.9519049525260925 0.07931185513734818
vn -0.2959502935409546 -0.9519049525260925 0.07931185513734818
vn -0.2959502637386322 -0.9519049525260925 0.07931181788444519
vn -0.2959502935409546 -0.9519049525260925 0.07931185513734818
vn -0.1399184763431549 -0.9846034646034241 0.10478008538484573
vn -0.1399184912443161 -0.9846034646034241 0.10478010773658752
vn -0.13991844654083252 -0.9846034646034241 0.10478008538484573
vn -0.1399184912443161 -0.9846034646034241 0.10478010773658752
vn -0.5003121495246887 -0.4809982180595398 0.7199503183364868
vn -0.5003121495246887 -0.4809982180595398 0.719950258731842
vn -0.5003121495246887 -0.4809982180595398 0.7199503183364868
vn -0.5003121495246887 -0.4809982478618622 0.719950258731842
vn -0.13991867005825043 -0.9846034646034241 0.1047799214720726
vn -0.13991867005825043 -0.9846034646034241 0.1047799214720726
vn -0.13991865515708923 -0.9846034646034241 0.10477989166975021
vn -0.13991869986057281 -0.9846034646034241 0.1047799289226532
vn -0.6272189617156982 -0.7783598303794861 0.027429532259702682
vn -0.6272189021110535 -0.7783598303794861 0.027429532259702682
vn -0.6272189617156982 -0.7783598303794861 0.027429532259702682
vn -0.6272189021110535 -0.7783598303794861 0.02742956206202507
vn -0.23651570081710815 -0.9662867784500122 0.10173624753952026
vn -0.23651570081710815 -0.9662867784500122 0.10173621773719788
vn -0.23651573061943054 -0.9662867784500122 0.10173624753952026
vn -0.23651570081710815 -0.9662867784500122 0.10173624753952026
vn 0.8438900709152222 -0.45691242814064026 0.28121286630630493
vn 0.8438900709152222 -0.45691242814064026 0.28121286630630493
vn 0.8438900709152222 -0.45691248774528503 0.28121283650398254
vn 0.8438900709152222 -0.45691248774528503 0.28121283650398254
vn 0.7567565441131592 -0.5972169637680054 0.26580318808555603
vn 0.7567564845085144 -0.5972170233726501 0.26580318808555603
vn 0.7567564845085144 -0.5972170829772949 0.26580315828323364
vn 0.7567564845085144 -0.5972170233726501 0.26580318808555603
vn 0.8704137206077576 0.3821758031845093 0.3103570342063904
vn 0.8704137206077576 0.3821758031845093 0.3103570342063904
vn 0.8704137206077576 0.38217583298683167 0.310357004404068
vn 0.8704137206077576 0.38217583298683167 0.310357004404068
vt 0.006888404488563538 0.0019333958625793457
vt 0.0068883225321769714 0.2787514925003052
vt 0.21618972718715668 0.2787514925003052
vt 0.15236519277095795 0.001933455467224121
vt 0.6989557147026062 0.5870039761066437
vt 0.6989557147026062 0.999120638880413
vt 0.3785124719142914 0.999120638880413
vt 0.3785124719142914 0.5870039761066437
vt 0.3556356430053711 0.2830809950828552
vt 0.35563549399375916 0.5856128633022308
vt 0.7088765501976013 0.5856129229068756
vt 0.7088766694068909 0.2830810546875
vt 0.6989557147026062 0.5870039761066437
vt 0.6989557147026062 0.999120638880413
vt 0.3785124719142914 0.999120638880413
vt 0.3785124719142914 0.5870039761066437
vt 0.6989557147026062 0.5870039761066437
vt 0.6989557147026062 0.999120638880413
vt 0.3785124719142914 0.999120638880413
vt 0.3785124719142914 0.5870039761066437
vt 0.3556356430053711 0.2830809950828552
vt 0.35563549399375916 0.5856128633022308
vt 0.7088765501976013 0.5856129229068756
vt 0.7088766694068909 0.2830810546875
vt 0.37357664108276367 0.5877999067306519
vt 0.004617905709892511 0.5877999067306519
vt 0.004617905709892511 0.9954085689969361
vt 0.37357664108276367 0.9954085689969361
vt 0.3556356430053711 0.2830809950828552
vt 0.35563549399375916 0.5856128633022308
vt 0.7088765501976013 0.5856129229068756
vt 0.7088766694068909 0.2830810546875
vt 0.6989557147026062 0.5870039761066437
vt 0.6989557147026062 0.999120638880413
vt 0.3785124719142914 0.999120638880413
vt 0.3785124719142914 0.5870039761066437
vt 0.3556356430053711 0.2830809950828552
vt 0.35563549399375916 0.5856128633022308
vt 0.7088765501976013 0.5856129229068756
vt 0.7088766694068909 0.2830810546875
vt 0.37357664108276367 0.5877999067306519
vt 0.004617905709892511 0.5877999067306519
vt 0.004617905709892511 0.9954085689969361
vt 0.37357664108276367 0.9954085689969361
vt 0.3556356430053711 0.2830809950828552
vt 0.35563549399375916 0.5856128633022308
vt 0.7088765501976013 0.5856129229068756
vt 0.7088766694068909 0.2830810546875
vt 0.3578372001647949 0.5856129825115204
vt 0.35783737897872925 0.2830811142921448
vt 0.004596380982547998 0.2830810546875
vt 0.004596172831952572 0.5856128633022308
vt 0.3578372001647949 0.5856129825115204
vt 0.35783737897872925 0.2830811142921448
vt 0.004596380982547998 0.2830810546875
vt 0.004596172831952572 0.5856128633022308
vt 0.37357664108276367 0.5877999067306519
vt 0.004617905709892511 0.5877999067306519
vt 0.004617905709892511 0.9954085689969361
vt 0.37357664108276367 0.9954085689969361
vt 0.37357664108276367 0.5877999067306519
vt 0.004617905709892511 0.5877999067306519
vt 0.004617905709892511 0.9954085689969361
vt 0.37357664108276367 0.9954085689969361
vt 0.6989557147026062 0.5870039761066437
vt 0.6989557147026062 0.999120638880413
vt 0.3785124719142914 0.999120638880413
vt 0.3785124719142914 0.5870039761066437
vt 0.3556356430053711 0.2830809950828552
vt 0.35563549399375916 0.5856128633022308
vt 0.7088765501976013 0.5856129229068756
vt 0.7088766694068909 0.2830810546875
vt 0.6989557147026062 0.5870039761066437
vt 0.6989557147026062 0.999120638880413
vt 0.3785124719142914 0.999120638880413
vt 0.3785124719142914 0.5870039761066437
vt 0.6989557147026062 0.5870039761066437
vt 0.6989557147026062 0.999120638880413
vt 0.3785124719142914 0.999120638880413
vt 0.3785124719142914 0.5870039761066437
vt 0.3556356430053711 0.2830809950828552
vt 0.35563549399375916 0.5856128633022308
vt 0.7088765501976013 0.5856129229068756
vt 0.7088766694068909 0.2830810546875
vt 0.3578372001647949 0.5856129825115204
vt 0.35783737897872925 0.2830811142921448
vt 0.004596380982547998 0.2830810546875
vt 0.004596172831952572 0.5856128633022308
vt 0.41229185461997986 0.0041065216064453125
vt 0.41229167580604553 0.2779204845428467
vt 0.7327122092247009 0.27792060375213623
vt 0.73271244764328 0.004106760025024414
vt 0.15236519277095795 0.001933455467224121
vt 0.21618972718715668 0.2787514925003052
vt 0.37130603194236755 0.2787514925003052
vt 0.37130603194236755 0.0019333958625793457
vt 0.41229185461997986 0.0041065216064453125
vt 0.41229167580604553 0.2779204845428467
vt 0.7327122092247009 0.27792060375213623
vt 0.73271244764328 0.004106760025024414
vt 0.41229185461997986 0.0041065216064453125
vt 0.41229167580604553 0.2779204845428467
vt 0.7327122092247009 0.27792060375213623
vt 0.73271244764328 0.004106760025024414
vt 0.7374895811080933 0.008209168910980225
vt 0.7374895215034485 0.2825627326965332
vt 0.996056079864502 0.282562792301178
vt 0.9960561990737915 0.008209168910980225
vt 0.7374895811080933 0.008209168910980225
vt 0.7374895215034485 0.2825627326965332
vt 0.996056079864502 0.282562792301178
vt 0.9960561990737915 0.008209168910980225
vt 0.7374895811080933 0.008209168910980225
vt 0.7374895215034485 0.2825627326965332
vt 0.996056079864502 0.282562792301178
vt 0.9960561990737915 0.008209168910980225
vt 0.7374895811080933 0.008209168910980225
vt 0.7374895215034485 0.2825627326965332
vt 0.996056079864502 0.282562792301178
vt 0.9960561990737915 0.008209168910980225

g bg_mdl_map_leaf01
s 1
usemtl bg_mdl_map_leaf01
f 3/3/3 2/2/2 1/1/1 
f 4/4/4 3/3/3 1/1/1 
f 7/7/7 6/6/6 5/5/5 
f 8/8/8 7/7/7 5/5/5 
f 11/11/11 10/10/10 9/9/9 
f 12/12/12 11/11/11 9/9/9 
f 15/15/15 14/14/14 13/13/13 
f 16/16/16 15/15/15 13/13/13 
f 19/19/19 18/18/18 17/17/17 
f 20/20/20 19/19/19 17/17/17 
f 23/23/23 22/22/22 21/21/21 
f 24/24/24 23/23/23 21/21/21 
f 27/27/27 26/26/26 25/25/25 
f 28/28/28 27/27/27 25/25/25 
f 31/31/31 30/30/30 29/29/29 
f 32/32/32 31/31/31 29/29/29 
f 35/35/35 34/34/34 33/33/33 
f 36/36/36 35/35/35 33/33/33 
f 39/39/39 38/38/38 37/37/37 
f 40/40/40 39/39/39 37/37/37 
f 43/43/43 42/42/42 41/41/41 
f 44/44/44 43/43/43 41/41/41 
f 47/47/47 46/46/46 45/45/45 
f 48/48/48 47/47/47 45/45/45 
f 51/51/51 50/50/50 49/49/49 
f 52/52/52 51/51/51 49/49/49 
f 55/55/55 54/54/54 53/53/53 
f 56/56/56 55/55/55 53/53/53 
f 59/59/59 58/58/58 57/57/57 
f 60/60/60 59/59/59 57/57/57 
f 63/63/63 62/62/62 61/61/61 
f 64/64/64 63/63/63 61/61/61 
f 67/67/67 66/66/66 65/65/65 
f 68/68/68 67/67/67 65/65/65 
f 71/71/71 70/70/70 69/69/69 
f 72/72/72 71/71/71 69/69/69 
f 75/75/75 74/74/74 73/73/73 
f 76/76/76 75/75/75 73/73/73 
f 79/79/79 78/78/78 77/77/77 
f 80/80/80 79/79/79 77/77/77 
f 83/83/83 82/82/82 81/81/81 
f 84/84/84 83/83/83 81/81/81 
f 87/87/87 86/86/86 85/85/85 
f 88/88/88 87/87/87 85/85/85 
f 91/91/91 90/90/90 89/89/89 
f 92/92/92 91/91/91 89/89/89 
f 95/95/95 94/94/94 93/93/93 
f 96/96/96 95/95/95 93/93/93 
f 99/99/99 98/98/98 97/97/97 
f 100/100/100 99/99/99 97/97/97 
f 103/103/103 102/102/102 101/101/101 
f 104/104/104 103/103/103 101/101/101 
f 107/107/107 106/106/106 105/105/105 
f 108/108/108 107/107/107 105/105/105 
f 111/111/111 110/110/110 109/109/109 
f 112/112/112 111/111/111 109/109/109 
f 115/115/115 114/114/114 113/113/113 
f 116/116/116 115/115/115 113/113/113 
f 119/119/119 118/118/118 117/117/117 
f 120/120/120 119/119/119 117/117/117 

