v -0.9999284148216248 -1.0000596046447754 -0.057521529495716095
v 1.0014772415161133 -1.0000598430633545 0.021630235016345978
v 1.0014772415161133 -1.0000598430633545 -0.0575215183198452
v -0.9999284148216248 -1.0000596046447754 0.021630214527249336
v 1.0014772415161133 -1.0000598430633545 -0.0575215183198452
v 1.0014772415161133 1.0019080638885498 0.021630235016345978
v 1.0014772415161133 1.0019080638885498 -0.0575215145945549
v 1.0014772415161133 -1.0000598430633545 0.021630235016345978
v 1.0014772415161133 1.0019080638885498 -0.0575215145945549
v -0.9999284744262695 1.0019080638885498 0.021630221977829933
v -0.9999284148216248 1.0019080638885498 -0.0575215145945549
v 1.0014772415161133 1.0019080638885498 0.021630235016345978
v -0.9999284148216248 1.0019080638885498 -0.0575215145945549
v -0.9999284148216248 -1.0000596046447754 0.021630214527249336
v -0.9999284148216248 -1.0000596046447754 -0.057521529495716095
v -0.9999284744262695 1.0019080638885498 0.021630221977829933
v -0.9999284148216248 -1.0000596046447754 0.021630214527249336
v 0.9402195811271667 -0.9418390393257141 0.021630235016345978
v 1.0014772415161133 -1.0000598430633545 0.021630235016345978
v -0.9386709928512573 -0.9418390393257141 0.02163020335137844
v 1.0014772415161133 -1.0000598430633545 0.021630235016345978
v 0.9402195811271667 0.9436873197555542 0.021630235016345978
v 1.0014772415161133 1.0019080638885498 0.021630235016345978
v 0.9402195811271667 -0.9418390393257141 0.021630235016345978
v 1.0014772415161133 1.0019080638885498 0.021630235016345978
v -0.9386709928512573 0.9436873197555542 0.021630210801959038
v -0.9999284744262695 1.0019080638885498 0.021630221977829933
v 0.9402195811271667 0.9436873197555542 0.021630235016345978
v -0.9999284744262695 1.0019080638885498 0.021630221977829933
v -0.9386709928512573 -0.9418390393257141 0.02163020335137844
v -0.9999284148216248 -1.0000596046447754 0.021630214527249336
v -0.9386709928512573 0.9436873197555542 0.021630210801959038
v -0.9386709928512573 -0.9418390393257141 0.02163020335137844
v 0.9402195811271667 -0.9418390393257141 -0.037137262523174286
v 0.9402195811271667 -0.9418390393257141 0.021630235016345978
v -0.9386709928512573 -0.9418390393257141 -0.037137266248464584
v 0.9402195811271667 -0.9418390393257141 0.021630235016345978
v 0.9402195811271667 0.9436873197555542 -0.03713727742433548
v 0.9402195811271667 0.9436873197555542 0.021630235016345978
v 0.9402195811271667 -0.9418390393257141 -0.037137262523174286
v 0.9402195811271667 0.9436873197555542 0.021630235016345978
v -0.9386709928512573 0.9436873197555542 -0.03713728487491608
v -0.9386709928512573 0.9436873197555542 0.021630210801959038
v 0.9402195811271667 0.9436873197555542 -0.03713727742433548
v -0.9386709928512573 0.9436873197555542 0.021630210801959038
v -0.9386709928512573 -0.9418390393257141 -0.037137266248464584
v -0.9386709928512573 -0.9418390393257141 0.02163020335137844
v -0.9386709928512573 0.9436873197555542 -0.03713728487491608
v -0.04393542557954788 0.9515740871429443 0.018267041072249413
v 0.04557029530405998 -0.9488016963005066 0.018267067149281502
v -0.04393542557954788 -0.9488016963005066 0.018267041072249413
v 0.04557029530405998 0.9515736103057861 0.01826707273721695
v -0.04393542557954788 -0.9488016963005066 0.018267041072249413
v -0.04393542557954788 0.9515740871429443 -0.01925029419362545
v -0.04393542557954788 0.9515740871429443 0.018267041072249413
v -0.04393542557954788 -0.9488016963005066 -0.01925029791891575
v 0.04557029530405998 0.9515736103057861 0.01826707273721695
v 0.04557029530405998 -0.9488016963005066 -0.019250251352787018
v 0.04557029530405998 -0.9488016963005066 0.018267067149281502
v 0.04557029530405998 0.9515736103057861 -0.019250251352787018
v 0.03445230796933174 0.9436873197555542 0.005367599427700043
v 0.9433594346046448 -0.9418390393257141 0.00536760687828064
v 0.03445230796933174 -0.9418390393257141 0.005367613397538662
v 0.9433594346046448 0.9436873197555542 0.005367594305425882
v -0.9398738741874695 0.9436873197555542 0.005367594305425882
v -0.04180000349879265 -0.9418390393257141 0.005367613397538662
v -0.9398738741874695 -0.9418390393257141 0.005367594305425882
v -0.04180000349879265 0.9436873197555542 0.005367599427700043
v 0.9805514216423035 0.9670683741569519 -0.20351140201091766
v 0.9805511832237244 -0.9853538870811462 -0.0569392554461956
v 0.9805514216423035 0.9670683741569519 -0.0569392666220665
v 0.9805511832237244 -0.9853538870811462 -0.20351140201091766
v -0.9726539254188538 0.967068612575531 -0.20351140201091766
v -0.9726535677909851 -0.9853537678718567 -0.0569392554461956
v -0.9726535677909851 -0.9853537678718567 -0.20351140201091766
v -0.9726539254188538 0.967068612575531 -0.0569392628967762
v -0.9726539254188538 0.967068612575531 -0.20351140201091766
v 0.9805514216423035 0.9670683741569519 -0.0569392666220665
v -0.9726539254188538 0.967068612575531 -0.0569392628967762
v 0.9805514216423035 0.9670683741569519 -0.20351140201091766
v -0.9726535677909851 -0.9853537678718567 -0.20351140201091766
v 0.9805511832237244 -0.9853538870811462 -0.0569392554461956
v 0.9805511832237244 -0.9853538870811462 -0.20351140201091766
v -0.9726535677909851 -0.9853537678718567 -0.0569392554461956
v 0.8503669500350952 0.8677448034286499 -0.20351144671440125
v 0.9955489039421082 -0.9982132315635681 -0.20351141691207886
v 0.8503671884536743 -0.8779323101043701 -0.20351141691207886
v 0.9955486059188843 0.9933286905288696 -0.20351144671440125
v 0.8503671884536743 -0.8779323101043701 -0.20351141691207886
v 0.8503669500350952 0.8677448630332947 -0.24102872610092163
v 0.8503669500350952 0.8677448034286499 -0.20351144671440125
v 0.8503671884536743 -0.8779323101043701 -0.2410287857055664
v 0.9955486059188843 0.9933286905288696 -0.20351144671440125
v 0.9955489039421082 -0.9982132315635681 -0.24102872610092163
v 0.9955489039421082 -0.9982132315635681 -0.20351141691207886
v 0.9955486059188843 0.9933286905288696 -0.24102872610092163
v -0.996393084526062 0.9933289289474487 -0.20351147651672363
v -0.8320567607879639 -0.8779323101043701 -0.20351141691207886
v -0.9963932633399963 -0.9982134699821472 -0.20351141691207886
v -0.83205646276474 0.8677447438240051 -0.20351146161556244
v -0.9963932633399963 -0.9982134699821472 -0.20351141691207886
v -0.996393084526062 0.9933289289474487 -0.2410288006067276
v -0.996393084526062 0.9933289289474487 -0.20351147651672363
v -0.9963932633399963 -0.9982134699821472 -0.2410287857055664
v -0.83205646276474 0.8677447438240051 -0.20351146161556244
v -0.8320567607879639 -0.8779323101043701 -0.24102872610092163
v -0.8320567607879639 -0.8779323101043701 -0.20351141691207886
v -0.83205646276474 0.8677447438240051 -0.24102872610092163
v 0.9955486059188843 0.9933286905288696 -0.20351144671440125
v -0.83205646276474 0.8677447438240051 -0.20351146161556244
v -0.996393084526062 0.9933289289474487 -0.20351147651672363
v 0.8503669500350952 0.8677448034286499 -0.20351144671440125
v -0.996393084526062 0.9933289289474487 -0.20351147651672363
v 0.9955486059188843 0.9933286905288696 -0.24102872610092163
v 0.9955486059188843 0.9933286905288696 -0.20351144671440125
v -0.996393084526062 0.9933289289474487 -0.2410288006067276
v 0.8503669500350952 0.8677448034286499 -0.20351144671440125
v -0.83205646276474 0.8677447438240051 -0.24102872610092163
v -0.83205646276474 0.8677447438240051 -0.20351146161556244
v 0.8503669500350952 0.8677448630332947 -0.24102872610092163
v 0.8503671884536743 -0.8779323101043701 -0.20351141691207886
v -0.9963932633399963 -0.9982134699821472 -0.20351141691207886
v -0.8320567607879639 -0.8779323101043701 -0.20351141691207886
v 0.9955489039421082 -0.9982132315635681 -0.20351141691207886
v -0.8320567607879639 -0.8779323101043701 -0.20351141691207886
v 0.8503671884536743 -0.8779323101043701 -0.2410287857055664
v 0.8503671884536743 -0.8779323101043701 -0.20351141691207886
v -0.8320567607879639 -0.8779323101043701 -0.24102872610092163
v 0.9955489039421082 -0.9982132315635681 -0.20351141691207886
v -0.9963932633399963 -0.9982134699821472 -0.2410287857055664
v -0.9963932633399963 -0.9982134699821472 -0.20351141691207886
v 0.9955489039421082 -0.9982132315635681 -0.24102872610092163
v 0.9646134972572327 0.9305695295333862 -0.20351140201091766
v 0.9646135568618774 -0.9421004056930542 -0.055767759680747986
v 0.9646135568618774 -0.9421004056930542 -0.20351141691207886
v 0.9646134972572327 0.9305695295333862 -0.055767759680747986
v -0.908464789390564 0.9305693507194519 -0.20351140201091766
v -0.908464789390564 -0.9421005249023438 -0.05576776713132858
v -0.908464789390564 0.9305693507194519 -0.05576776713132858
v -0.908464789390564 -0.9421005249023438 -0.20351141691207886
v -0.908464789390564 0.9305693507194519 -0.20351140201091766
v 0.9646134972572327 0.9305695295333862 -0.055767759680747986
v 0.9646134972572327 0.9305695295333862 -0.20351140201091766
v -0.908464789390564 0.9305693507194519 -0.05576776713132858
v -0.908464789390564 -0.9421005249023438 -0.20351141691207886
v 0.9646135568618774 -0.9421004056930542 -0.055767759680747986
v -0.908464789390564 -0.9421005249023438 -0.05576776713132858
v 0.9646135568618774 -0.9421004056930542 -0.20351141691207886
vn -0.0 -1.0 0.0
vn -0.0 -1.0 0.0
vn -0.0 -1.0 0.0
vn -0.0 -1.0 0.0
vn 1.0 0.0 0.0
vn 1.0 0.0 0.0
vn 1.0 0.0 0.0
vn 1.0 0.0 0.0
vn -0.0 1.0 0.0
vn -0.0 1.0 0.0
vn -0.0 1.0 0.0
vn -0.0 1.0 0.0
vn -1.0 0.0 0.0
vn -1.0 0.0 0.0
vn -1.0 0.0 0.0
vn -1.0 0.0 0.0
vn -0.0 0.0 1.0
vn -0.0 0.0 1.0
vn -0.0 0.0 1.0
vn -0.0 0.0 1.0
vn -0.0 0.0 1.0
vn -0.0 0.0 1.0
vn -0.0 0.0 1.0
vn -0.0 0.0 1.0
vn -0.0 0.0 1.0
vn -0.0 0.0 1.0
vn -0.0 0.0 1.0
vn -0.0 0.0 1.0
vn -0.0 0.0 1.0
vn -0.0 0.0 1.0
vn -0.0 0.0 1.0
vn -0.0 0.0 1.0
vn -0.0 1.0 0.0
vn -0.0 1.0 0.0
vn -0.0 1.0 0.0
vn -0.0 1.0 0.0
vn -1.0 0.0 0.0
vn -1.0 0.0 0.0
vn -1.0 0.0 0.0
vn -1.0 0.0 0.0
vn -0.0 -1.0 0.0
vn -0.0 -1.0 0.0
vn -0.0 -1.0 0.0
vn -0.0 -1.0 0.0
vn 1.0 0.0 0.0
vn 1.0 0.0 0.0
vn 1.0 0.0 0.0
vn 1.0 0.0 0.0
vn -1.940875904438144e-07 0.0 1.0
vn -1.573761494455539e-07 0.0 1.0
vn -1.5620609872257774e-07 0.0 1.0
vn -1.9525764116679056e-07 0.0 1.0
vn -1.0 0.0 0.0
vn -1.0 0.0 0.0
vn -1.0 0.0 0.0
vn -1.0 0.0 0.0
vn 1.0 0.0 0.0
vn 1.0 0.0 0.0
vn 1.0 0.0 0.0
vn 1.0 0.0 0.0
vn -0.0 0.0 1.0
vn -0.0 0.0 1.0
vn -0.0 0.0 1.0
vn -0.0 0.0 1.0
vn -0.0 0.0 1.0
vn -0.0 0.0 1.0
vn -0.0 0.0 1.0
vn -0.0 0.0 1.0
vn 1.0 -1.1457635906708674e-07 0.0
vn 1.0 -1.1457635906708674e-07 0.0
vn 1.0 -1.1457635906708674e-07 0.0
vn 1.0 -1.1457635906708674e-07 0.0
vn -1.0 -1.7186452794248908e-07 0.0
vn -1.0 -1.7186452794248908e-07 0.0
vn -1.0 -1.7186452794248908e-07 0.0
vn -1.0 -1.7186452794248908e-07 0.0
vn 1.145304153737925e-07 1.0 0.0
vn 1.145304153737925e-07 1.0 0.0
vn 1.145304153737925e-07 1.0 0.0
vn 1.145304153737925e-07 1.0 0.0
vn -0.0 -1.0 0.0
vn -0.0 -1.0 0.0
vn -0.0 -1.0 0.0
vn -0.0 -1.0 0.0
vn -0.0 0.0 1.0
vn -0.0 0.0 1.0
vn -0.0 0.0 1.0
vn -0.0 0.0 1.0
vn -0.7071080207824707 0.7071055173873901 0.0
vn -1.0 -1.601824379804384e-07 0.0
vn -1.0 -1.601824237695837e-07 0.0
vn -0.7071070671081543 0.7071064114570618 0.0
vn 1.0 1.684886115072004e-07 0.0
vn 0.7071070075035095 -0.7071065306663513 0.0
vn 0.7071062326431274 -0.7071073055267334 0.0
vn 1.0 1.684886115072004e-07 0.0
vn -0.0 0.0 1.0
vn -0.0 0.0 1.0
vn -0.0 0.0 1.0
vn -0.0 0.0 1.0
vn -1.0 0.0 0.0
vn -0.70710688829422 0.7071066498756409 0.0
vn -0.7071073651313782 0.7071061134338379 0.0
vn -1.0 0.0 0.0
vn 0.7071079611778259 -0.7071055769920349 0.0
vn 1.0 -1.601824379804384e-07 0.0
vn 1.0 -1.601824237695837e-07 0.0
vn 0.7071058750152588 -0.707107663154602 0.0
vn -0.0 0.0 1.0
vn -0.0 0.0 1.0
vn -0.0 0.0 1.0
vn -0.0 0.0 1.0
vn -0.7071073651313782 0.7071061134338379 0.0
vn 1.1230320495769774e-07 1.0 0.0
vn 1.1230320495769774e-07 1.0 0.0
vn -0.70710688829422 0.7071066498756409 0.0
vn -0.0 -1.0 -2.7113619580632076e-06
vn 0.7071058750152588 -0.707107663154602 0.0
vn 0.7071079611778259 -0.7071055769920349 0.0
vn -0.0 -1.0 -2.7325288556312444e-06
vn -0.0 0.0 1.0
vn -0.0 0.0 1.0
vn -0.0 0.0 1.0
vn -0.0 0.0 1.0
vn -0.0 1.0 0.0
vn -0.7071070671081543 0.7071064114570618 0.0
vn -0.7071080207824707 0.7071055173873901 0.0
vn -0.0 1.0 0.0
vn 0.7071062326431274 -0.7071073055267334 0.0
vn 1.1230318364141567e-07 -1.0 0.0
vn 1.1230317653598831e-07 -1.0 0.0
vn 0.7071070075035095 -0.7071065306663513 0.0
vn -1.0 0.0 0.0
vn -1.0 0.0 0.0
vn -1.0 0.0 0.0
vn -1.0 0.0 0.0
vn 1.0 0.0 0.0
vn 1.0 0.0 0.0
vn 1.0 0.0 0.0
vn 1.0 0.0 0.0
vn -0.0 -1.0 0.0
vn -0.0 -1.0 0.0
vn -0.0 -1.0 0.0
vn -0.0 -1.0 -6.938847718629404e-07
vn -0.0 1.0 0.0
vn -0.0 1.0 0.0
vn -0.0 1.0 0.0
vn -0.0 1.0 0.0
vt 0.004283769987523556 0.004834413528442383
vt 0.050003618001937866 0.99698033509776
vt 0.004283769987523556 0.99698033509776
vt 0.050003618001937866 0.004834413528442383
vt 0.10858894884586334 0.0011730790138244629
vt 0.15495897829532623 0.9964572861790657
vt 0.10858894884586334 0.9964572861790657
vt 0.15495897829532623 0.0011730790138244629
vt 0.004283769987523556 0.004834413528442383
vt 0.050003618001937866 0.99698033509776
vt 0.004283769987523556 0.99698033509776
vt 0.050003618001937866 0.004834413528442383
vt 0.10858894884586334 0.0011730790138244629
vt 0.15495897829532623 0.9964572861790657
vt 0.10858894884586334 0.9964572861790657
vt 0.15495897829532623 0.0011730790138244629
vt 0.050003618001937866 0.9979999999050051
vt 0.09356234222650528 0.03398400545120239
vt 0.050003618001937866 0.0033116936683654785
vt 0.09356234222650528 0.9673276469111443
vt 0.1552344709634781 -8.535385131835938e-05
vt 0.1973084658384323 0.9667628295719624
vt 0.15523450076580048 0.9959145672619343
vt 0.19730840623378754 0.02906644344329834
vt 0.050003618001937866 0.0033116936683654785
vt 0.09356234222650528 0.9673276469111443
vt 0.050003618001937866 0.9979999999050051
vt 0.09356234222650528 0.03398400545120239
vt 0.1549033373594284 0.9959145672619343
vt 0.19697733223438263 0.02906644344329834
vt 0.15490329265594482 -8.535385131835938e-05
vt 0.1969774216413498 0.9667628295719624
vt 0.15571744740009308 0.0036028027534484863
vt 0.14274880290031433 0.9937525540590286
vt 0.15571744740009308 0.9937525540590286
vt 0.14274880290031433 0.0036028027534484863
vt 0.15571744740009308 0.0036028027534484863
vt 0.14274880290031433 0.9937525540590286
vt 0.15571744740009308 0.9937525540590286
vt 0.14274880290031433 0.0036028027534484863
vt 0.14274880290031433 0.0036028027534484863
vt 0.15571744740009308 0.9937525540590286
vt 0.14274880290031433 0.9937525540590286
vt 0.15571744740009308 0.0036028027534484863
vt 0.15571744740009308 0.0036028027534484863
vt 0.14274880290031433 0.9937525540590286
vt 0.15571744740009308 0.9937525540590286
vt 0.14274880290031433 0.0036028027534484863
vt 0.27007991075515747 0.9993630840326659
vt 0.21108725666999817 0.004505276679992676
vt 0.27007991075515747 0.0045070648193359375
vt 0.21108725666999817 0.9993630840326659
vt 0.2433609664440155 0.9993630840326659
vt 0.21624983847141266 0.004469156265258789
vt 0.2433609664440155 0.004469156265258789
vt 0.21624983847141266 0.9993630840326659
vt 0.2433609664440155 0.9993630840326659
vt 0.21624983847141266 0.004469156265258789
vt 0.2433609664440155 0.004469156265258789
vt 0.21624983847141266 0.9993630840326659
vt 0.5485264658927917 0.0030361413955688477
vt 0.9934878945350647 0.9958582818508148
vt 0.5485264658927917 0.9958582818508148
vt 0.9934878945350647 0.0030361413955688477
vt 0.5485264658927917 0.0030361413955688477
vt 0.9934878945350647 0.9958582818508148
vt 0.5485264658927917 0.9958582818508148
vt 0.9934878945350647 0.0030361413955688477
vt 0.2803853452205658 0.0062223076820373535
vt 0.35299235582351685 0.9953801203519106
vt 0.35299235582351685 0.0062223076820373535
vt 0.2803853452205658 0.9953801203519106
vt 0.2803853452205658 0.0062223076820373535
vt 0.35299235582351685 0.9953801203519106
vt 0.2803853452205658 0.9953801203519106
vt 0.35299235582351685 0.0062223076820373535
vt 0.2803853452205658 0.0062223076820373535
vt 0.35299235582351685 0.9953801203519106
vt 0.35299235582351685 0.0062223076820373535
vt 0.2803853452205658 0.9953801203519106
vt 0.2803853452205658 0.0062223076820373535
vt 0.35299235582351685 0.9953801203519106
vt 0.2803853452205658 0.9953801203519106
vt 0.35299235582351685 0.0062223076820373535
vt 0.21573026478290558 0.0033407211303710938
vt 0.2702329754829407 0.9994409643113613
vt 0.21573026478290558 0.9994409643113613
vt 0.2702329754829407 0.0033407211303710938
vt 0.026364795863628387 0.010376989841461182
vt 0.05124589055776596 0.9980872869491577
vt 0.026364766061306 0.9980872869491577
vt 0.05124592036008835 0.010376989841461182
vt 0.026364795863628387 0.010376989841461182
vt 0.05124589055776596 0.9980872869491577
vt 0.026364766061306 0.9980872869491577
vt 0.05124592036008835 0.010376989841461182
vt 0.21573026478290558 0.0033407211303710938
vt 0.2702329754829407 0.9994409643113613
vt 0.21573026478290558 0.9994409643113613
vt 0.2702329754829407 0.0033407211303710938
vt 0.026364795863628387 0.010376989841461182
vt 0.05124589055776596 0.9980872869491577
vt 0.026364766061306 0.9980872869491577
vt 0.05124592036008835 0.010376989841461182
vt 0.026364795863628387 0.010376989841461182
vt 0.05124589055776596 0.9980872869491577
vt 0.026364766061306 0.9980872869491577
vt 0.05124592036008835 0.010376989841461182
vt 0.21573026478290558 0.0033407211303710938
vt 0.2702329754829407 0.9994409643113613
vt 0.21573026478290558 0.9994409643113613
vt 0.2702329754829407 0.0033407211303710938
vt 0.026364795863628387 0.010376989841461182
vt 0.05124589055776596 0.9980872869491577
vt 0.026364766061306 0.9980872869491577
vt 0.05124592036008835 0.010376989841461182
vt 0.026364795863628387 0.010376989841461182
vt 0.05124589055776596 0.9980872869491577
vt 0.026364766061306 0.9980872869491577
vt 0.05124592036008835 0.010376989841461182
vt 0.21573026478290558 0.0033407211303710938
vt 0.2702329754829407 0.9994409643113613
vt 0.21573026478290558 0.9994409643113613
vt 0.2702329754829407 0.0033407211303710938
vt 0.026364795863628387 0.010376989841461182
vt 0.05124589055776596 0.9980872869491577
vt 0.026364766061306 0.9980872869491577
vt 0.05124592036008835 0.010376989841461182
vt 0.026364795863628387 0.010376989841461182
vt 0.05124589055776596 0.9980872869491577
vt 0.026364766061306 0.9980872869491577
vt 0.05124592036008835 0.010376989841461182
vt 0.2803853452205658 0.0062223076820373535
vt 0.35299235582351685 0.9953801203519106
vt 0.2803853452205658 0.9953801203519106
vt 0.35299235582351685 0.0062223076820373535
vt 0.2803853452205658 0.0062223076820373535
vt 0.35299235582351685 0.9953801203519106
vt 0.35299235582351685 0.0062223076820373535
vt 0.2803853452205658 0.9953801203519106
vt 0.2803853452205658 0.0062223076820373535
vt 0.35299235582351685 0.9953801203519106
vt 0.2803853452205658 0.9953801203519106
vt 0.35299235582351685 0.0062223076820373535
vt 0.2803853452205658 0.0062223076820373535
vt 0.35299235582351685 0.9953801203519106
vt 0.35299235582351685 0.0062223076820373535
vt 0.2803853452205658 0.9953801203519106

g bg_mdl_map_asiba03
s 1
usemtl bg_mdl_map_asiba03
f 3/3/3 2/2/2 1/1/1 
f 4/4/4 1/1/1 2/2/2 
f 7/7/7 6/6/6 5/5/5 
f 8/8/8 5/5/5 6/6/6 
f 11/11/11 10/10/10 9/9/9 
f 12/12/12 9/9/9 10/10/10 
f 15/15/15 14/14/14 13/13/13 
f 16/16/16 13/13/13 14/14/14 
f 19/19/19 18/18/18 17/17/17 
f 20/20/20 17/17/17 18/18/18 
f 23/23/23 22/22/22 21/21/21 
f 24/24/24 21/21/21 22/22/22 
f 27/27/27 26/26/26 25/25/25 
f 28/28/28 25/25/25 26/26/26 
f 31/31/31 30/30/30 29/29/29 
f 32/32/32 29/29/29 30/30/30 
f 35/35/35 34/34/34 33/33/33 
f 36/36/36 33/33/33 34/34/34 
f 39/39/39 38/38/38 37/37/37 
f 40/40/40 37/37/37 38/38/38 
f 43/43/43 42/42/42 41/41/41 
f 44/44/44 41/41/41 42/42/42 
f 47/47/47 46/46/46 45/45/45 
f 48/48/48 45/45/45 46/46/46 
f 51/51/51 50/50/50 49/49/49 
f 52/52/52 49/49/49 50/50/50 
f 55/55/55 54/54/54 53/53/53 
f 56/56/56 53/53/53 54/54/54 
f 59/59/59 58/58/58 57/57/57 
f 60/60/60 57/57/57 58/58/58 
f 63/63/63 62/62/62 61/61/61 
f 64/64/64 61/61/61 62/62/62 
f 67/67/67 66/66/66 65/65/65 
f 68/68/68 65/65/65 66/66/66 
f 71/71/71 70/70/70 69/69/69 
f 72/72/72 69/69/69 70/70/70 
f 75/75/75 74/74/74 73/73/73 
f 76/76/76 73/73/73 74/74/74 
f 79/79/79 78/78/78 77/77/77 
f 80/80/80 77/77/77 78/78/78 
f 83/83/83 82/82/82 81/81/81 
f 84/84/84 81/81/81 82/82/82 
f 87/87/87 86/86/86 85/85/85 
f 88/88/88 85/85/85 86/86/86 
f 91/91/91 90/90/90 89/89/89 
f 92/92/92 89/89/89 90/90/90 
f 95/95/95 94/94/94 93/93/93 
f 96/96/96 93/93/93 94/94/94 
f 99/99/99 98/98/98 97/97/97 
f 100/100/100 97/97/97 98/98/98 
f 103/103/103 102/102/102 101/101/101 
f 104/104/104 101/101/101 102/102/102 
f 107/107/107 106/106/106 105/105/105 
f 108/108/108 105/105/105 106/106/106 
f 111/111/111 110/110/110 109/109/109 
f 112/112/112 109/109/109 110/110/110 
f 115/115/115 114/114/114 113/113/113 
f 116/116/116 113/113/113 114/114/114 
f 119/119/119 118/118/118 117/117/117 
f 120/120/120 117/117/117 118/118/118 
f 123/123/123 122/122/122 121/121/121 
f 124/124/124 121/121/121 122/122/122 
f 127/127/127 126/126/126 125/125/125 
f 128/128/128 125/125/125 126/126/126 
f 131/131/131 130/130/130 129/129/129 
f 132/132/132 129/129/129 130/130/130 
f 135/135/135 134/134/134 133/133/133 
f 136/136/136 133/133/133 134/134/134 
f 139/139/139 138/138/138 137/137/137 
f 140/140/140 137/137/137 138/138/138 
f 143/143/143 142/142/142 141/141/141 
f 144/144/144 141/141/141 142/142/142 
f 147/147/147 146/146/146 145/145/145 
f 148/148/148 145/145/145 146/146/146 

