v 1.2280241250991821 -0.21653379499912262 -4.768371297814156e-08
v 0.8345702886581421 -0.30375877022743225 8.073448021228558e-10
v 1.1719043254852295 -0.42653825879096985 -4.768371297814156e-08
v 0.8745359778404236 -0.15420429408550262 8.073448021228558e-10
v 0.8881311416625977 7.036531002313495e-08 8.073448021228558e-10
v 1.2471144199371338 6.346758851805134e-08 -4.768371297814156e-08
v 1.0799062252044678 -0.6234841346740723 -4.768371297814156e-08
v 0.7690539956092834 -0.4440135955810547 8.073448021228558e-10
v 0.6803478598594666 -0.5708797574043274 8.073448021228558e-10
v 0.9553450345993042 -0.8016298413276672 -4.768371297814156e-08
v 0.8015357851982117 -0.9552331566810608 -4.768371297814156e-08
v 0.5708128213882446 -0.6802682280540466 8.073448021228558e-10
v 0.4440656304359436 -0.7691441774368286 8.073448021228558e-10
v 0.6235572695732117 -1.0800328254699707 -4.768371297814156e-08
v 0.4264882504940033 -1.171766996383667 -4.768371297814156e-08
v 0.30372312664985657 -0.8344725370407104 8.073448021228558e-10
v 0.154222309589386 -0.8746384978294373 8.073448021228558e-10
v 0.21655920147895813 -1.22816801071167 -4.768371297814156e-08
v 9.21748277704637e-09 -1.246968388557434 -4.768371297814156e-08
v -7.371043864168314e-08 -0.8880270719528198 8.073448021228558e-10
v -0.15422244369983673 -0.8746384978294373 8.073448021228558e-10
v -0.21655909717082977 -1.22816801071167 -4.768371297814156e-08
v -0.4264882504940033 -1.171766996383667 -4.768371297814156e-08
v -0.30372321605682373 -0.8344725370407104 8.073448021228558e-10
v -0.4440656304359436 -0.7691441774368286 8.073448021228558e-10
v -0.6235570907592773 -1.0800328254699707 -4.768371297814156e-08
v -0.8015355467796326 -0.9552332162857056 -4.768371297814156e-08
v -0.5708128213882446 -0.6802682280540466 8.073448021228558e-10
v -0.6803478598594666 -0.5708797574043274 8.073448021228558e-10
v -0.9553449153900146 -0.8016298413276672 -4.768371297814156e-08
v -1.0799059867858887 -0.6234841346740723 -4.768371297814156e-08
v -0.7690539956092834 -0.4440135955810547 8.073448021228558e-10
v -0.8345702886581421 -0.303758829832077 8.073448021228558e-10
v -1.1719039678573608 -0.4265383183956146 -4.768371297814156e-08
v -1.228023886680603 -0.21653392910957336 -4.768371297814156e-08
v -0.8745359778404236 -0.1542043834924698 8.073448021228558e-10
v -0.8881311416625977 -1.326689726965924e-07 8.073448021228558e-10
v -1.2471143007278442 -2.2509614439059078e-07 -4.768371297814156e-08
v -1.228023886680603 0.21653348207473755 -4.768371297814156e-08
v -0.8745360374450684 0.1542041301727295 8.073448021228558e-10
v -0.8345703482627869 0.30375856161117554 8.073448021228558e-10
v -1.1719040870666504 0.4265379309654236 -4.768371297814156e-08
v -1.0799062252044678 0.6234837770462036 -4.768371297814156e-08
v -0.7690541744232178 0.444013386964798 8.073448021228558e-10
v -0.6803480982780457 0.5708795189857483 8.073448021228558e-10
v -0.9553451538085938 0.8016292452812195 -4.768371297814156e-08
v -0.8015358448028564 0.9552327394485474 -4.768371297814156e-08
v -0.570813000202179 0.6802681088447571 8.073448021228558e-10
v -0.4440658390522003 0.7691440582275391 8.073448021228558e-10
v -0.623557448387146 1.0800323486328125 -4.768371297814156e-08
v -0.4264885485172272 1.1717662811279297 -4.768371297814156e-08
v -0.30372345447540283 0.8344724178314209 8.073448021228558e-10
v -0.15422271192073822 0.8746384382247925 8.073448021228558e-10
v -0.2165594846010208 1.2281675338745117 -4.768371297814156e-08
v -4.357901275398035e-07 1.2469680309295654 -4.768371297814156e-08
v -3.9315105482273793e-07 0.8880270719528198 8.073448021228558e-10
v -4.357901275398035e-07 1.2469680309295654 -4.768371297814156e-08
v 0.15422192215919495 0.8746384978294373 8.073448021228558e-10
v 0.21655867993831635 1.2281677722930908 -4.768371297814156e-08
v -3.9315105482273793e-07 0.8880270719528198 8.073448021228558e-10
v 0.4264877140522003 1.1717668771743774 -4.768371297814156e-08
v 0.30372270941734314 0.8344727158546448 8.073448021228558e-10
v 0.4440651535987854 0.7691444158554077 8.073448021228558e-10
v 0.6235566735267639 1.0800329446792603 -4.768371297814156e-08
v 0.8015352487564087 0.9552335143089294 -4.768371297814156e-08
v 0.570812463760376 0.6802685260772705 8.073448021228558e-10
v 0.6803475618362427 0.5708801746368408 8.073448021228558e-10
v 0.9553446173667908 0.8016300797462463 -4.768371297814156e-08
v 1.07990562915802 0.6234848499298096 -4.768371297814156e-08
v 0.7690536975860596 0.4440140724182129 8.073448021228558e-10
v 0.8345701694488525 0.30375927686691284 8.073448021228558e-10
v 1.1719038486480713 0.4265389144420624 -4.768371297814156e-08
v 1.228023886680603 0.21653413772583008 -4.768371297814156e-08
v 0.8745359778404236 0.1542045772075653 8.073448021228558e-10
v -1.1501318216323853 -0.2027992159128189 1.7447239031298523e-07
v -0.834570586681366 -0.30375877022743225 7.83329028308799e-08
v -1.097571611404419 -0.399483323097229 1.6653602585847693e-07
v -0.8745362758636475 -0.15420429408550262 8.43675636019725e-08
v -0.8881314396858215 7.036531002313495e-08 8.642038551442965e-08
v -1.1680113077163696 5.051951745826955e-08 1.7717211164836044e-07
v -1.0114089250564575 -0.5839371085166931 1.5352581783645292e-07
v -0.7690542936325073 -0.4440135955810547 6.84402223782854e-08
v -0.6803482174873352 -0.5708797574043274 5.504596600758305e-08
v -0.8947485685348511 -0.7507831454277039 1.359105965548224e-07
v -0.7506953477859497 -0.8946434855461121 1.1415915679435784e-07
v -0.5708131194114685 -0.6802682280540466 3.85066449837268e-08
v -0.4440659284591675 -0.7691441774368286 1.9368348702641924e-08
v -0.5840058922767639 -1.011527180671692 8.898974357407496e-08
v -0.3994368016719818 -1.097442865371704 6.11205877021348e-08
v -0.30372342467308044 -0.8344725370407104 -1.822781925397976e-09
v -0.15422259271144867 -0.8746384978294373 -2.43967761548447e-08
v -0.20282331109046936 -1.1502662897109985 3.143278703987562e-08
v -2.9539569368353114e-07 -1.1678742170333862 8.073619550685862e-10
v -2.1769002955807082e-07 -0.8880270719528198 -4.76837058727142e-08
v 0.15422216057777405 -0.8746384978294373 -7.097064269601105e-08
v 0.20282264053821564 -1.1502662897109985 -2.981805025115136e-08
v 0.3994361460208893 -1.097442865371704 -5.950586157155158e-08
v 0.30372291803359985 -0.8344725370407104 -9.354462093824623e-08
v 0.44406530261039734 -0.7691441774368286 -1.1473573380271773e-07
v 0.5840050578117371 -1.011527180671692 -8.73750067853507e-08
v 0.7506945133209229 -0.8946435451507568 -1.1254439158392415e-07
v 0.5708125233650208 -0.6802682280540466 -1.338740389655868e-07
v 0.6803475618362427 -0.5708797574043274 -1.504133706475841e-07
v 0.8947479128837585 -0.7507831454277039 -1.3429584555524343e-07
v 1.0114080905914307 -0.5839371085166931 -1.5191106683687394e-07
v 0.7690536975860596 -0.4440135955810547 -1.6380762701828644e-07
v 0.8345699906349182 -0.303758829832077 -1.737003145763083e-07
v 1.097570776939392 -0.3994833528995514 -1.6492127485889796e-07
v 1.150131106376648 -0.20279935002326965 -1.7285765352426097e-07
v 0.8745356798171997 -0.1542043834924698 -1.7973495403111883e-07
v 0.8881308436393738 -1.326689726965924e-07 -1.8178778304900334e-07
v 1.1680105924606323 -2.197408690562952e-07 -1.7555737485963618e-07
v 1.150131106376648 0.20279893279075623 -1.7285765352426097e-07
v 0.8745357394218445 0.1542041301727295 -1.7973498245282826e-07
v 0.834570050239563 0.30375856161117554 -1.7370032878716302e-07
v 1.0975708961486816 0.39948293566703796 -1.6492128906975267e-07
v 1.0114083290100098 0.5839366912841797 -1.519111094694381e-07
v 0.7690538763999939 0.444013386964798 -1.6380765543999587e-07
v 0.6803478002548218 0.5708795189857483 -1.5041341328014823e-07
v 0.8947480320930481 0.7507825493812561 -1.3429587397695286e-07
v 0.7506948113441467 0.8946431279182434 -1.1254444842734301e-07
v 0.5708126425743103 0.6802681088447571 -1.3387406738729624e-07
v 0.44406554102897644 0.7691440582275391 -1.1473577643528188e-07
v 0.5840053558349609 1.0115268230438232 -8.737503520706014e-08
v 0.39943641424179077 1.0974421501159668 -5.95059077568294e-08
v 0.30372312664985657 0.8344724178314209 -9.354465646538301e-08
v 0.15422242879867554 0.8746384382247925 -7.097067822314784e-08
v 0.2028229981660843 1.1502658128738403 -2.9818103541856544e-08
v 1.21385454576739e-07 1.1678738594055176 8.073023916033151e-10
v 1.0175055109584719e-07 0.8880270719528198 -4.76837556107057e-08
v 1.21385454576739e-07 1.1678738594055176 8.073023916033151e-10
v -0.15422220528125763 0.8746384978294373 -2.4396832998263562e-08
v -0.20282283425331116 1.1502660512924194 3.143271953831572e-08
v 1.0175055109584719e-07 0.8880270719528198 -4.76837556107057e-08
v -0.3994362950325012 1.097442626953125 6.112051664786122e-08
v -0.3037230372428894 0.8344727158546448 -1.8228411002851885e-09
v -0.4440654516220093 0.7691444158554077 1.9368281201082027e-08
v -0.5840052962303162 1.0115272998809814 8.898965830894667e-08
v -0.7506948113441467 0.8946438431739807 1.1415907863465691e-07
v -0.5708127617835999 0.6802685260772705 3.850659169302162e-08
v -0.6803478598594666 0.5708801746368408 5.504592692773258e-08
v -0.8947481513023376 0.750783383846283 1.3591053971140354e-07
v -1.0114084482192993 0.5839377045631409 1.5352574678217934e-07
v -0.7690539956092834 0.4440140724182129 6.844018685114861e-08
v -0.8345704674720764 0.30375927686691284 7.833288862002519e-08
v -1.0975712537765503 0.399483859539032 1.6653596901505807e-07
v -1.1501317024230957 0.20279954373836517 1.7447234768042108e-07
v -0.8745362758636475 0.1542045772075653 8.43675636019725e-08
vn -1.3304232027167018e-07 0.0 -1.0
vn -1.2693261908225395e-07 0.0 -1.0
vn -1.2693261908225395e-07 0.0 -1.0
vn -1.3304230606081546e-07 0.0 -1.0
vn -1.3507892049346992e-07 0.0 -1.0
vn -1.3507886365005106e-07 0.0 -1.0
vn -1.169954515489735e-07 0.0 -1.0
vn -1.169954515489735e-07 0.0 -1.0
vn -1.0347642387387168e-07 0.0 -1.0
vn -1.0347639545216225e-07 0.0 -1.0
vn -0.0 1.0348853152208903e-07 -1.0
vn -0.0 1.0348853862751639e-07 -1.0
vn -0.0 1.1698173807417334e-07 -1.0
vn -0.0 1.1698173096874598e-07 -1.0
vn -0.0 1.2694751205799548e-07 -1.0
vn -0.0 1.2694749784714077e-07 -1.0
vn -0.0 1.3302671675319289e-07 -1.0
vn -0.0 1.3302671675319289e-07 -1.0
vn -0.0 1.350947087530585e-07 -1.0
vn -0.0 1.3509466612049437e-07 -1.0
vn -0.0 1.3302671675319289e-07 -1.0
vn -0.0 1.3302674517490232e-07 -1.0
vn -0.0 1.2694751205799548e-07 -1.0
vn -0.0 1.2694749784714077e-07 -1.0
vn -0.0 1.1698173807417334e-07 -1.0
vn -0.0 1.169817451796007e-07 -1.0
vn -0.0 1.0348856704922582e-07 -1.0
vn -0.0 1.034885528383711e-07 -1.0
vn 1.0347648071729054e-07 0.0 -1.0
vn 1.034764380847264e-07 0.0 -1.0
vn 1.169955368141018e-07 0.0 -1.0
vn 1.1699551549781972e-07 0.0 -1.0
vn 1.2693269013652753e-07 0.0 -1.0
vn 1.2693271855823696e-07 0.0 -1.0
vn 1.3304237711508904e-07 0.0 -1.0
vn 1.3304237711508904e-07 0.0 -1.0
vn 1.3507894891517935e-07 0.0 -1.0
vn 1.3507892049346992e-07 0.0 -1.0
vn 1.3304239132594375e-07 0.0 -1.0
vn 1.3304240553679847e-07 0.0 -1.0
vn 1.269327469799464e-07 0.0 -1.0
vn 1.269327469799464e-07 0.0 -1.0
vn 1.1699557234123859e-07 0.0 -1.0
vn 1.1699555813038387e-07 0.0 -1.0
vn 1.0347650203357261e-07 0.0 -1.0
vn 1.0347653045528205e-07 0.0 -1.0
vn -0.0 -1.034885883655079e-07 -1.0
vn -0.0 -1.0348860257636261e-07 -1.0
vn -0.0 -1.1698183044472898e-07 -1.0
vn -0.0 -1.1698183755015634e-07 -1.0
vn -0.0 -1.269476257448332e-07 -1.0
vn -0.0 -1.2694765416654263e-07 -1.0
vn -0.0 -1.3302685886174004e-07 -1.0
vn -0.0 -1.3302685886174004e-07 -1.0
vn -0.0 -1.3509482243989623e-07 -1.0
vn -0.0 -1.3509483665075095e-07 -1.0
vn -0.0 -1.3509482243989623e-07 -1.0
vn -0.0 -1.3302685886174004e-07 -1.0
vn -0.0 -1.3302684465088532e-07 -1.0
vn -0.0 -1.3509483665075095e-07 -1.0
vn -0.0 -1.269476257448332e-07 -1.0
vn -0.0 -1.269476257448332e-07 -1.0
vn -0.0 -1.169818446555837e-07 -1.0
vn -0.0 -1.1698186597186577e-07 -1.0
vn -0.0 -1.034886381034994e-07 -1.0
vn -0.0 -1.0348860968178997e-07 -1.0
vn -1.0347641676844432e-07 0.0 -1.0
vn -1.034764380847264e-07 0.0 -1.0
vn -1.1699544444354615e-07 0.0 -1.0
vn -1.1699543733811879e-07 0.0 -1.0
vn -1.269326617148181e-07 0.0 -1.0
vn -1.2693264750396338e-07 0.0 -1.0
vn -1.330423344825249e-07 0.0 -1.0
vn -1.3304236290423432e-07 0.0 -1.0
vn 3.216403285932756e-07 0.0 1.0
vn 3.138038664474152e-07 0.0 1.0
vn 3.1380389486912463e-07 0.0 1.0
vn 3.216403001715662e-07 0.0 1.0
vn 3.242525110636052e-07 0.0 1.0
vn 3.2425248264189577e-07 0.0 1.0
vn 3.010581224316411e-07 0.0 1.0
vn 3.0105817927505996e-07 0.0 1.0
vn 2.8371815119498933e-07 1.1136729227700926e-07 1.0
vn 2.8371815119498933e-07 1.1136727096072718e-07 1.0
vn 2.623761190534424e-07 1.3273785270939698e-07 1.0
vn 2.623761474751518e-07 1.3273789534196112e-07 1.0
vn 2.37624178112128e-07 1.5004467002199817e-07 1.0
vn 2.376241923229827e-07 1.5004464160028874e-07 1.0
vn 2.1025998364621046e-07 1.6282710646464693e-07 1.0
vn 2.1025996943535574e-07 1.6282709225379222e-07 1.0
vn 1.8108147514794837e-07 1.7062451718174998e-07 1.0
vn 1.810815177805125e-07 1.7062457402516884e-07 1.0
vn 1.5099581673894136e-07 1.7327698742519715e-07 1.0
vn 1.5099580252808664e-07 1.73276944792633e-07 1.0
vn 1.2091010148651549e-07 1.7062451718174998e-07 1.0
vn 1.2091010148651549e-07 1.7062457402516884e-07 1.0
vn -0.0 1.6282712067550165e-07 1.0
vn -0.0 1.6282709225379222e-07 1.0
vn -0.0 1.5004471265456232e-07 1.0
vn -0.0 1.5004467002199817e-07 1.0
vn -0.0 1.3273792376367055e-07 1.0
vn -0.0 1.327379663962347e-07 1.0
vn -0.0 1.1136735622585547e-07 1.0
vn -0.0 1.1136731359329133e-07 1.0
vn -0.0 0.0 1.0
vn -0.0 0.0 1.0
vn -0.0 0.0 1.0
vn -0.0 0.0 1.0
vn -0.0 0.0 1.0
vn -0.0 0.0 1.0
vn -0.0 0.0 1.0
vn -0.0 0.0 1.0
vn -0.0 0.0 1.0
vn -0.0 0.0 1.0
vn -0.0 0.0 1.0
vn -0.0 0.0 1.0
vn -0.0 0.0 1.0
vn -0.0 0.0 1.0
vn -0.0 -1.1136737754213755e-07 1.0
vn -0.0 -1.1136739885841962e-07 1.0
vn -0.0 -1.3273799481794413e-07 1.0
vn -0.0 -1.3273799481794413e-07 1.0
vn -0.0 -1.500448831848189e-07 1.0
vn -0.0 -1.500448831848189e-07 1.0
vn -0.0 -1.6282733383832237e-07 1.0
vn -0.0 -1.628273480491771e-07 1.0
vn 1.2090997358882305e-07 -1.7062475876628014e-07 1.0
vn 1.2090997358882305e-07 -1.7062478718798957e-07 1.0
vn 1.5099573147381307e-07 -1.732772147988726e-07 1.0
vn 1.509957598955225e-07 -1.732772147988726e-07 1.0
vn 1.5099573147381307e-07 -1.732772147988726e-07 1.0
vn 1.810814183045295e-07 -1.7062475876628014e-07 1.0
vn 1.810814183045295e-07 -1.7062475876628014e-07 1.0
vn 1.509957598955225e-07 -1.732772147988726e-07 1.0
vn 2.102599268027916e-07 -1.6282729120575823e-07 1.0
vn 2.1025995522450103e-07 -1.6282733383832237e-07 1.0
vn 2.376240928469997e-07 -1.5004482634140004e-07 1.0
vn 2.3762412126870913e-07 -1.5004485476310947e-07 1.0
vn 2.623761190534424e-07 -1.3273800902879884e-07 1.0
vn 2.623760337883141e-07 -1.327379806070894e-07 1.0
vn 2.837181227732799e-07 -1.1136739885841962e-07 1.0
vn 2.8371817961669876e-07 -1.1136742017470169e-07 1.0
vn 3.0105806558822223e-07 0.0 1.0
vn 3.0105809400993166e-07 0.0 1.0
vn 3.1380383802570577e-07 0.0 1.0
vn 3.138038664474152e-07 0.0 1.0
vn 3.2164035701498506e-07 0.0 1.0
vn 3.2164035701498506e-07 0.0 1.0
vt 0.7222253680229187 0.0004994869232177734
vt 0.6944504380226135 0.9995004832744598
vt 0.6944504380226135 0.0004994869232177734
vt 0.7222253680229187 0.9995004832744598
vt 0.75 0.9995004832744598
vt 0.75 0.0004994869232177734
vt 0.6666746735572815 0.0004994869232177734
vt 0.6666746735572815 0.9995004832744598
vt 0.6388980746269226 0.9995004832744598
vt 0.6388980150222778 0.0004994869232177734
vt 0.6111202836036682 0.0004994869232177734
vt 0.6111202836036682 0.9995004832744598
vt 0.5833413600921631 0.9995004832744598
vt 0.5833413600921631 0.0004994869232177734
vt 0.5555614829063416 0.0004994869232177734
vt 0.5555614829063416 0.9995004832744598
vt 0.5277808904647827 0.9995004832744598
vt 0.5277808904647827 0.0004994869232177734
vt 0.4999999701976776 0.0004994869232177734
vt 0.49999991059303284 0.9995004832744598
vt 0.47221896052360535 0.9995004832744598
vt 0.47221899032592773 0.0004994869232177734
vt 0.4444384276866913 0.0004994869232177734
vt 0.4444383680820465 0.9995004832744598
vt 0.41665852069854736 0.9995004832744598
vt 0.41665852069854736 0.0004994869232177734
vt 0.3888796865940094 0.0004994869232177734
vt 0.388879656791687 0.9995004832744598
vt 0.3611018657684326 0.9995004832744598
vt 0.3611019253730774 0.0004994869232177734
vt 0.33332520723342896 0.0004994869232177734
vt 0.33332520723342896 0.9995004832744598
vt 0.3055495023727417 0.9995004832744598
vt 0.3055495321750641 0.0004994869232177734
vt 0.27777454257011414 0.0004994869232177734
vt 0.27777454257011414 0.9995004832744598
vt 0.24999995529651642 0.9995004832744598
vt 0.2499999850988388 0.0004994869232177734
vt 0.2222253978252411 0.0004994869232177734
vt 0.2222253680229187 0.9995004832744598
vt 0.19445040822029114 0.9995004832744598
vt 0.19445043802261353 0.0004994869232177734
vt 0.16667474806308746 0.0004994869232177734
vt 0.16667474806308746 0.9995004832744598
vt 0.1388980746269226 0.9995004832744598
vt 0.1388980746269226 0.0004994869232177734
vt 0.11112030595541 0.0004994869232177734
vt 0.11112030595541 0.9995004832744598
vt 0.08334143459796906 0.9995004832744598
vt 0.08334143459796906 0.0004994869232177734
vt 0.055561576038599014 0.0004994869232177734
vt 0.055561576038599014 0.9995004832744598
vt 0.027781033888459206 0.9995004832744598
vt 0.02778099663555622 0.0004994869232177734
vt 3.794549385816026e-08 0.0004994869232177734
vt 7.589098771632052e-08 0.9995004832744598
vt 1.0 0.0004994869232177734
vt 0.9722191095352173 0.9995004832744598
vt 0.9722190499305725 0.0004994869232177734
vt 1.0000001192092896 0.9995004832744598
vt 0.9444384574890137 0.0004994869232177734
vt 0.9444385170936584 0.9995004832744598
vt 0.9166586995124817 0.9995004832744598
vt 0.9166586399078369 0.0004994869232177734
vt 0.8888797163963318 0.0004994869232177734
vt 0.8888797760009766 0.9995004832744598
vt 0.8611020445823669 0.9995004832744598
vt 0.8611019253730774 0.0004994869232177734
vt 0.8333253860473633 0.0004994869232177734
vt 0.8333253860473633 0.9995004832744598
vt 0.805549681186676 0.9995004832744598
vt 0.8055496215820312 0.0004994869232177734
vt 0.7777746319770813 0.0004994869232177734
vt 0.7777746319770813 0.9995004832744598
vt 0.7222253680229187 0.0004994869232177734
vt 0.6944504380226135 0.9995004832744598
vt 0.6944504380226135 0.0004994869232177734
vt 0.7222253680229187 0.9995004832744598
vt 0.75 0.9995004832744598
vt 0.75 0.0004994869232177734
vt 0.6666746735572815 0.0004994869232177734
vt 0.6666746735572815 0.9995004832744598
vt 0.6388980746269226 0.9995004832744598
vt 0.6388980150222778 0.0004994869232177734
vt 0.6111202836036682 0.0004994869232177734
vt 0.6111202836036682 0.9995004832744598
vt 0.5833413600921631 0.9995004832744598
vt 0.5833413600921631 0.0004994869232177734
vt 0.5555614829063416 0.0004994869232177734
vt 0.5555614829063416 0.9995004832744598
vt 0.5277808904647827 0.9995004832744598
vt 0.5277808904647827 0.0004994869232177734
vt 0.4999999701976776 0.0004994869232177734
vt 0.49999991059303284 0.9995004832744598
vt 0.47221896052360535 0.9995004832744598
vt 0.47221899032592773 0.0004994869232177734
vt 0.4444384276866913 0.0004994869232177734
vt 0.4444383680820465 0.9995004832744598
vt 0.41665852069854736 0.9995004832744598
vt 0.41665852069854736 0.0004994869232177734
vt 0.3888796865940094 0.0004994869232177734
vt 0.388879656791687 0.9995004832744598
vt 0.3611018657684326 0.9995004832744598
vt 0.3611019253730774 0.0004994869232177734
vt 0.33332520723342896 0.0004994869232177734
vt 0.33332520723342896 0.9995004832744598
vt 0.3055495023727417 0.9995004832744598
vt 0.3055495321750641 0.0004994869232177734
vt 0.27777454257011414 0.0004994869232177734
vt 0.27777454257011414 0.9995004832744598
vt 0.24999995529651642 0.9995004832744598
vt 0.2499999850988388 0.0004994869232177734
vt 0.2222253978252411 0.0004994869232177734
vt 0.2222253680229187 0.9995004832744598
vt 0.19445040822029114 0.9995004832744598
vt 0.19445043802261353 0.0004994869232177734
vt 0.16667474806308746 0.0004994869232177734
vt 0.16667474806308746 0.9995004832744598
vt 0.1388980746269226 0.9995004832744598
vt 0.1388980746269226 0.0004994869232177734
vt 0.11112030595541 0.0004994869232177734
vt 0.11112030595541 0.9995004832744598
vt 0.08334143459796906 0.9995004832744598
vt 0.08334143459796906 0.0004994869232177734
vt 0.055561576038599014 0.0004994869232177734
vt 0.055561576038599014 0.9995004832744598
vt 0.027781033888459206 0.9995004832744598
vt 0.02778099663555622 0.0004994869232177734
vt 3.794549385816026e-08 0.0004994869232177734
vt 7.589098771632052e-08 0.9995004832744598
vt 1.0 0.0004994869232177734
vt 0.9722191095352173 0.9995004832744598
vt 0.9722190499305725 0.0004994869232177734
vt 1.0000001192092896 0.9995004832744598
vt 0.9444384574890137 0.0004994869232177734
vt 0.9444385170936584 0.9995004832744598
vt 0.9166586995124817 0.9995004832744598
vt 0.9166586399078369 0.0004994869232177734
vt 0.8888797163963318 0.0004994869232177734
vt 0.8888797760009766 0.9995004832744598
vt 0.8611020445823669 0.9995004832744598
vt 0.8611019253730774 0.0004994869232177734
vt 0.8333253860473633 0.0004994869232177734
vt 0.8333253860473633 0.9995004832744598
vt 0.805549681186676 0.9995004832744598
vt 0.8055496215820312 0.0004994869232177734
vt 0.7777746319770813 0.0004994869232177734
vt 0.7777746319770813 0.9995004832744598

g eff_mdl_door02
s 1
usemtl eff_mdl_door02
f 3/3/3 2/2/2 1/1/1 
f 4/4/4 1/1/1 2/2/2 
f 4/4/4 5/5/5 1/1/1 
f 6/6/6 1/1/1 5/5/5 
f 3/3/3 7/7/7 2/2/2 
f 8/8/8 2/2/2 7/7/7 
f 8/8/8 7/7/7 9/9/9 
f 10/10/10 9/9/9 7/7/7 
f 10/10/10 11/11/11 9/9/9 
f 12/12/12 9/9/9 11/11/11 
f 12/12/12 11/11/11 13/13/13 
f 14/14/14 13/13/13 11/11/11 
f 14/14/14 15/15/15 13/13/13 
f 16/16/16 13/13/13 15/15/15 
f 16/16/16 15/15/15 17/17/17 
f 18/18/18 17/17/17 15/15/15 
f 18/18/18 19/19/19 17/17/17 
f 20/20/20 17/17/17 19/19/19 
f 20/20/20 19/19/19 21/21/21 
f 22/22/22 21/21/21 19/19/19 
f 22/22/22 23/23/23 21/21/21 
f 24/24/24 21/21/21 23/23/23 
f 24/24/24 23/23/23 25/25/25 
f 26/26/26 25/25/25 23/23/23 
f 26/26/26 27/27/27 25/25/25 
f 28/28/28 25/25/25 27/27/27 
f 28/28/28 27/27/27 29/29/29 
f 30/30/30 29/29/29 27/27/27 
f 30/30/30 31/31/31 29/29/29 
f 32/32/32 29/29/29 31/31/31 
f 32/32/32 31/31/31 33/33/33 
f 34/34/34 33/33/33 31/31/31 
f 34/34/34 35/35/35 33/33/33 
f 36/36/36 33/33/33 35/35/35 
f 36/36/36 35/35/35 37/37/37 
f 38/38/38 37/37/37 35/35/35 
f 38/38/38 39/39/39 37/37/37 
f 40/40/40 37/37/37 39/39/39 
f 40/40/40 39/39/39 41/41/41 
f 42/42/42 41/41/41 39/39/39 
f 42/42/42 43/43/43 41/41/41 
f 44/44/44 41/41/41 43/43/43 
f 44/44/44 43/43/43 45/45/45 
f 46/46/46 45/45/45 43/43/43 
f 46/46/46 47/47/47 45/45/45 
f 48/48/48 45/45/45 47/47/47 
f 48/48/48 47/47/47 49/49/49 
f 50/50/50 49/49/49 47/47/47 
f 50/50/50 51/51/51 49/49/49 
f 52/52/52 49/49/49 51/51/51 
f 52/52/52 51/51/51 53/53/53 
f 54/54/54 53/53/53 51/51/51 
f 54/54/54 55/55/55 53/53/53 
f 56/56/56 53/53/53 55/55/55 
f 59/59/59 58/58/58 57/57/57 
f 60/60/60 57/57/57 58/58/58 
f 59/59/59 61/61/61 58/58/58 
f 62/62/62 58/58/58 61/61/61 
f 62/62/62 61/61/61 63/63/63 
f 64/64/64 63/63/63 61/61/61 
f 64/64/64 65/65/65 63/63/63 
f 66/66/66 63/63/63 65/65/65 
f 66/66/66 65/65/65 67/67/67 
f 68/68/68 67/67/67 65/65/65 
f 68/68/68 69/69/69 67/67/67 
f 70/70/70 67/67/67 69/69/69 
f 70/70/70 69/69/69 71/71/71 
f 72/72/72 71/71/71 69/69/69 
f 72/72/72 73/73/73 71/71/71 
f 74/74/74 71/71/71 73/73/73 
f 74/74/74 73/73/73 5/5/5 
f 6/6/6 5/5/5 73/73/73 
f 77/77/77 76/76/76 75/75/75 
f 78/78/78 75/75/75 76/76/76 
f 78/78/78 79/79/79 75/75/75 
f 80/80/80 75/75/75 79/79/79 
f 77/77/77 81/81/81 76/76/76 
f 82/82/82 76/76/76 81/81/81 
f 82/82/82 81/81/81 83/83/83 
f 84/84/84 83/83/83 81/81/81 
f 84/84/84 85/85/85 83/83/83 
f 86/86/86 83/83/83 85/85/85 
f 86/86/86 85/85/85 87/87/87 
f 88/88/88 87/87/87 85/85/85 
f 88/88/88 89/89/89 87/87/87 
f 90/90/90 87/87/87 89/89/89 
f 90/90/90 89/89/89 91/91/91 
f 92/92/92 91/91/91 89/89/89 
f 92/92/92 93/93/93 91/91/91 
f 94/94/94 91/91/91 93/93/93 
f 94/94/94 93/93/93 95/95/95 
f 96/96/96 95/95/95 93/93/93 
f 96/96/96 97/97/97 95/95/95 
f 98/98/98 95/95/95 97/97/97 
f 98/98/98 97/97/97 99/99/99 
f 100/100/100 99/99/99 97/97/97 
f 100/100/100 101/101/101 99/99/99 
f 102/102/102 99/99/99 101/101/101 
f 102/102/102 101/101/101 103/103/103 
f 104/104/104 103/103/103 101/101/101 
f 104/104/104 105/105/105 103/103/103 
f 106/106/106 103/103/103 105/105/105 
f 106/106/106 105/105/105 107/107/107 
f 108/108/108 107/107/107 105/105/105 
f 108/108/108 109/109/109 107/107/107 
f 110/110/110 107/107/107 109/109/109 
f 110/110/110 109/109/109 111/111/111 
f 112/112/112 111/111/111 109/109/109 
f 112/112/112 113/113/113 111/111/111 
f 114/114/114 111/111/111 113/113/113 
f 114/114/114 113/113/113 115/115/115 
f 116/116/116 115/115/115 113/113/113 
f 116/116/116 117/117/117 115/115/115 
f 118/118/118 115/115/115 117/117/117 
f 118/118/118 117/117/117 119/119/119 
f 120/120/120 119/119/119 117/117/117 
f 120/120/120 121/121/121 119/119/119 
f 122/122/122 119/119/119 121/121/121 
f 122/122/122 121/121/121 123/123/123 
f 124/124/124 123/123/123 121/121/121 
f 124/124/124 125/125/125 123/123/123 
f 126/126/126 123/123/123 125/125/125 
f 126/126/126 125/125/125 127/127/127 
f 128/128/128 127/127/127 125/125/125 
f 128/128/128 129/129/129 127/127/127 
f 130/130/130 127/127/127 129/129/129 
f 133/133/133 132/132/132 131/131/131 
f 134/134/134 131/131/131 132/132/132 
f 133/133/133 135/135/135 132/132/132 
f 136/136/136 132/132/132 135/135/135 
f 136/136/136 135/135/135 137/137/137 
f 138/138/138 137/137/137 135/135/135 
f 138/138/138 139/139/139 137/137/137 
f 140/140/140 137/137/137 139/139/139 
f 140/140/140 139/139/139 141/141/141 
f 142/142/142 141/141/141 139/139/139 
f 142/142/142 143/143/143 141/141/141 
f 144/144/144 141/141/141 143/143/143 
f 144/144/144 143/143/143 145/145/145 
f 146/146/146 145/145/145 143/143/143 
f 146/146/146 147/147/147 145/145/145 
f 148/148/148 145/145/145 147/147/147 
f 148/148/148 147/147/147 79/79/79 
f 80/80/80 79/79/79 147/147/147 

