v -0.9981401562690735 1.5196667391137453e-07 -0.9252142310142517
v 0.8729270696640015 -1.5286885002296913e-07 0.9458529949188232
v 0.8729270696640015 1.5196667391137453e-07 -0.9252142310142517
v -0.9981401562690735 -1.5286885002296913e-07 0.9458529949188232
vn -0.0 -1.0 -1.629206565212371e-07
vn -0.0 -1.0 -1.629206565212371e-07
vn -0.0 -1.0 -1.629206565212371e-07
vn -0.0 -1.0 -1.629206565212371e-07
vt 0.0 1.0
vt 1.0 0.0
vt 1.0 1.0
vt 0.0 0.0

g snowman_logo003
s 1
usemtl snowman_logo003
f 3/3/3 2/2/2 1/1/1 
f 4/4/4 1/1/1 2/2/2 

