v -1.2629293166810385e-09 0.16180743277072906 0.010129672475159168
v -0.0 0.18299490213394165 -2.1896420676625894e-08
v 0.03154076635837555 0.16180743277072906 -2.62220343216768e-08
v -0.03154076635837555 0.16180743277072906 -2.710759972046617e-08
v 4.918813134580091e-10 0.16180743277072906 -0.010129726491868496
v 0.023453379049897194 0.1234097108244896 -3.076435461935034e-08
v -9.083046537128325e-10 0.1234097108244896 0.007532304152846336
v -0.023453379049897194 0.1234097108244896 -3.1422850099716015e-08
v 3.965539008277119e-10 0.1234097108244896 -0.007532368879765272
v -8.431655373897229e-10 0.043904293328523636 0.007341934368014336
v 0.02286062017083168 0.043904293328523636 -3.31201341907672e-08
v -1.138443450621196e-09 0.011346873827278614 0.00950050912797451
v 0.029581764712929726 0.011346855200827122 -3.6756873100785015e-08
v -0.029581764712929726 0.011346855200827122 -3.758743716275603e-08
v -0.02286062017083168 0.043904293328523636 -3.3761988760261374e-08
v 5.073748088335606e-10 0.011346855200827122 -0.009500574320554733
v 4.2871434180469237e-10 0.04390430450439453 -0.0073419963009655476
v -2.587695169253834e-09 -0.01598312333226204 0.01814938150346279
v 0.029581764712929726 0.011346855200827122 -3.6756873100785015e-08
v 0.05651171877980232 -0.01598312333226204 -4.233128336750269e-08
v -1.138443450621196e-09 0.011346873827278614 0.00950050912797451
v -0.05651171877980232 -0.01598312333226204 -4.3917957270878105e-08
v -0.029581764712929726 0.011346855200827122 -3.758743716275603e-08
v 5.564062544038961e-10 -0.015983104705810547 -0.018149467185139656
v 5.073748088335606e-10 0.011346855200827122 -0.009500574320554733
v -2.2652892894825527e-09 -0.15959542989730835 0.015542841516435146
v 0.0483957938849926 -0.15959550440311432 -5.05906321279781e-08
v -0.0483957938849926 -0.15959550440311432 -5.1949434975995246e-08
v 4.272722176068555e-10 -0.15959550440311432 -0.015542949549853802
v -1.266203364380658e-09 -0.2450851947069168 0.010128200985491276
v 0.0315362922847271 -0.2450852394104004 -5.6742507581475365e-08
v -0.0315362922847271 -0.2450852394104004 -5.762795396435649e-08
v 4.883580206893612e-10 -0.24508531391620636 -0.010128320194780827
v 1.490116086078075e-10 -0.3083495795726776 -6.256625084688494e-08
vn -0.0 0.17955249547958374 0.9837484359741211
vn -0.0 1.0 0.0
vn 0.9559878706932068 0.2934061288833618 -3.0732886102669e-07
vn -0.9559878706932068 0.29340609908103943 0.0
vn -0.0 0.17955279350280762 -0.9837483167648315
vn 0.9934329986572266 -0.1144154742360115 0.0
vn -0.0 -0.03518412634730339 0.9993808269500732
vn -0.9934329986572266 -0.11441552639007568 1.1636235797141126e-07
vn -0.0 -0.03518400341272354 -0.9993808269500732
vn -0.0 0.03211413323879242 0.9994841814041138
vn 0.994495689868927 0.10477706789970398 1.161191178766785e-07
vn -0.0 0.1896662563085556 0.9818485975265503
vn 0.824518620967865 0.5658348202705383 0.0
vn -0.8245183825492859 0.565835177898407 0.0
vn -0.994495689868927 0.10477705299854279 -1.7417868036773143e-07
vn -0.0 0.18966683745384216 -0.9818484783172607
vn -0.0 0.03211416304111481 -0.9994841814041138
vn -0.0 0.13939149677753448 0.9902374148368835
vn 0.824518620967865 0.5658348202705383 0.0
vn 0.95671147108078 0.29103827476501465 0.0
vn -0.0 0.1896662563085556 0.9818485975265503
vn -0.95671147108078 0.2910381853580475 -2.4114029884003685e-07
vn -0.8245183825492859 0.565835177898407 0.0
vn -0.0 0.13939200341701508 -0.990237295627594
vn -0.0 0.18966683745384216 -0.9818484783172607
vn -0.0 -0.04051142558455467 0.9991790652275085
vn 0.9927331209182739 -0.12033648788928986 1.2869350030086935e-07
vn -0.9927331209182739 -0.12033649533987045 0.0
vn -0.0 -0.04051130637526512 -0.9991790652275085
vn -0.0 -0.10976239293813705 0.9939577579498291
vn 0.9539052248001099 -0.30010801553726196 1.2948331118423084e-07
vn -0.9539052248001099 -0.30010804533958435 1.2948329697337613e-07
vn -0.0 -0.1097625195980072 -0.9939577579498291
vn -1.0151762808163767e-07 -1.0 -2.0303525616327533e-07
vt 0.742468535900116 0.13810741901397705
vt 0.742468535900116 0.022821009159088135
vt 0.9841715097427368 0.13810741901397705
vt 0.5007653832435608 0.13810741901397705
vt 0.742468535900116 0.13810741901397705
vt 0.9221963286399841 0.3470395803451538
vt 0.742468535900116 0.3470395803451538
vt 0.5627405643463135 0.3470395803451538
vt 0.742468535900116 0.3470395803451538
vt 0.7424683570861816 0.7796492874622345
vt 0.9176536798477173 0.7796492874622345
vt 0.7424682378768921 0.956802599132061
vt 0.9691591858863831 0.9568027555942535
vt 0.5157773494720459 0.9568027555942535
vt 0.5672827959060669 0.7796492874622345
vt 0.7424682378768921 0.9568027555942535
vt 0.7424683570861816 0.7796492874622345
vt 0.24584414064884186 0.10003393888473511
vt 0.3728705048561096 0.0167044997215271
vt 0.4885096848011017 0.10003405809402466
vt 0.24584415555000305 0.01670438051223755
vt 0.0031785392202436924 0.10003393888473511
vt 0.11881781369447708 0.0167044997215271
vt 0.24584414064884186 0.10003393888473511
vt 0.24584415555000305 0.0167044997215271
vt 0.24584396183490753 0.5379098951816559
vt 0.4536591172218323 0.5379101634025574
vt 0.038028784096241 0.5379100739955902
vt 0.24584399163722992 0.5379100739955902
vt 0.24584390223026276 0.7985694259405136
vt 0.3812631368637085 0.7985695153474808
vt 0.11042468994855881 0.7985694259405136
vt 0.24584390223026276 0.7985697835683823
vt 0.24584385752677917 0.9914633557200432

g eff_mdl_wpn_dagger00
s 1
usemtl eff_mdl_wpn_dagger00
f 3/3/3 2/2/2 1/1/1 
f 2/2/2 4/4/4 1/1/1 
f 4/4/4 2/2/2 5/5/5 
f 2/2/2 3/3/3 5/5/5 
f 3/3/3 1/1/1 6/6/6 
f 7/7/7 6/6/6 1/1/1 
f 1/1/1 4/4/4 7/7/7 
f 8/8/8 7/7/7 4/4/4 
f 4/4/4 5/5/5 8/8/8 
f 9/9/9 8/8/8 5/5/5 
f 5/5/5 3/3/3 9/9/9 
f 6/6/6 9/9/9 3/3/3 
f 7/7/7 10/10/10 6/6/6 
f 11/11/11 6/6/6 10/10/10 
f 6/6/6 11/11/11 9/9/9 
f 10/10/10 12/12/12 11/11/11 
f 13/13/13 11/11/11 12/12/12 
f 12/12/12 10/10/10 14/14/14 
f 15/15/15 14/14/14 10/10/10 
f 8/8/8 15/15/15 7/7/7 
f 10/10/10 7/7/7 15/15/15 
f 14/14/14 15/15/15 16/16/16 
f 17/17/17 16/16/16 15/15/15 
f 16/16/16 17/17/17 13/13/13 
f 11/11/11 13/13/13 17/17/17 
f 9/9/9 17/17/17 8/8/8 
f 15/15/15 8/8/8 17/17/17 
f 17/17/17 9/9/9 11/11/11 
f 20/20/20 19/19/19 18/18/18 
f 21/21/21 18/18/18 19/19/19 
f 18/18/18 21/21/21 22/22/22 
f 23/23/23 22/22/22 21/21/21 
f 22/22/22 23/23/23 24/24/24 
f 25/25/25 24/24/24 23/23/23 
f 24/24/24 25/25/25 20/20/20 
f 19/19/19 20/20/20 25/25/25 
f 18/18/18 26/26/26 20/20/20 
f 27/27/27 20/20/20 26/26/26 
f 20/20/20 27/27/27 24/24/24 
f 26/26/26 18/18/18 28/28/28 
f 22/22/22 28/28/28 18/18/18 
f 28/28/28 22/22/22 29/29/29 
f 24/24/24 29/29/29 22/22/22 
f 29/29/29 24/24/24 27/27/27 
f 26/26/26 30/30/30 27/27/27 
f 31/31/31 27/27/27 30/30/30 
f 27/27/27 31/31/31 29/29/29 
f 30/30/30 26/26/26 32/32/32 
f 28/28/28 32/32/32 26/26/26 
f 32/32/32 28/28/28 33/33/33 
f 29/29/29 33/33/33 28/28/28 
f 33/33/33 29/29/29 31/31/31 
f 30/30/30 34/34/34 31/31/31 
f 32/32/32 34/34/34 30/30/30 
f 33/33/33 34/34/34 32/32/32 
f 31/31/31 34/34/34 33/33/33 

