v -0.321258544921875 0.7489562630653381 1.5258788721439487e-07
v -0.321258544921875 0.039976805448532104 2.5316834449768066
v -0.321258544921875 0.6181640625 2.5316834449768066
v -0.321258544921875 0.039976805448532104 1.831031322479248
v -0.321258544921875 0.039976805448532104 1.5258788721439487e-07
v -0.32125791907310486 -0.45854613184928894 2.5316834449768066
v -0.32125791907310486 -0.45854490995407104 2.160001039505005
v -0.3212573230266571 -0.9600231647491455 1.8310315608978271
v -0.3212573230266571 -0.9600231647491455 2.531684637069702
v -0.321258544921875 -1.9600225687026978 1.5258788721439487e-07
v -0.32125791907310486 -0.9600231647491455 -1.5258788721439487e-07
v -0.321258544921875 -1.9600225687026978 2.5316836833953857
v -0.321258544921875 1.8841345310211182 1.5258788721439487e-07
v -0.321258544921875 1.8781005144119263 0.5063368082046509
v -0.321258544921875 1.4978771209716797 1.5190101861953735
v -0.321258544921875 1.8293322324752808 1.0126734972000122
v -0.321258544921875 1.6693896055221558 1.4557180404663086
v -0.321258544921875 1.4978771209716797 2.0253467559814453
v -0.321258544921875 1.3670849800109863 2.5316834449768066
v -0.6725494265556335 0.03997802734375 1.8310315608978271
v -0.6725494265556335 0.6181652545928955 2.5316834449768066
v -0.6725494265556335 0.03997802734375 2.5316834449768066
v -0.6725500226020813 0.6181652545928955 0.0
v -0.6725500226020813 0.03997802734375 1.5258788721439487e-07
v -0.6725494265556335 -0.45854490995407104 2.5316834449768066
v -0.6725494265556335 -0.45854490995407104 2.160001277923584
v -0.6725488305091858 -0.9600231647491455 1.8310315608978271
v -0.6725488305091858 -0.9600231647491455 2.531684637069702
v -0.6725500226020813 -1.96002197265625 2.5316836833953857
v -0.6725494265556335 -0.9600231647491455 -1.5258788721439487e-07
v -0.6725500226020813 -1.96002197265625 1.5258788721439487e-07
v -0.6725494265556335 1.3670861721038818 2.5316834449768066
v -0.6725494265556335 1.4978784322738647 2.0253467559814453
v -0.6725494265556335 1.4978784322738647 1.5190101861953735
v -0.6725494265556335 1.6693907976150513 1.4557180404663086
v -0.6725500226020813 1.8293334245681763 1.0126734972000122
v -0.6725500226020813 1.8781017065048218 0.5063366293907166
v -0.6725500226020813 1.8841357231140137 0.0
v -0.321258544921875 -7.025487422943115 1.5258788721439487e-07
v -0.321258544921875 -7.025487422943115 2.5316834449768066
v -0.321258544921875 -7.025487422943115 1.831031322479248
v -0.321258544921875 -7.95586633682251 2.5316834449768066
v -0.321258544921875 -8.002415657043457 2.0253467559814453
v -0.321258544921875 -8.002415657043457 1.7721784114837646
v -0.321258544921875 -8.14582347869873 1.5190101861953735
v -0.321258544921875 -8.14582347869873 1.0759655237197876
v -0.321258544921875 -8.2588472366333 1.0126734972000122
v -0.321258544921875 -8.408451080322266 0.5063368082046509
v -0.321258544921875 -8.408451080322266 1.5258788721439487e-07
v -0.32125791907310486 -6.5269646644592285 2.5316834449768066
v -0.32125791907310486 -6.526965618133545 2.160001039505005
v -0.3212573230266571 -6.025487422943115 1.8310315608978271
v -0.3212573230266571 -6.025487422943115 2.531684637069702
v -0.321258544921875 -5.025488376617432 1.5258788721439487e-07
v -0.321258544921875 -5.025488376617432 2.5316836833953857
v -0.32125791907310486 -6.025487422943115 -1.5258788721439487e-07
v -0.6725494265556335 -7.02548885345459 1.8310315608978271
v -0.6725500226020813 -8.408452033996582 0.0
v -0.6725500226020813 -7.02548885345459 1.5258788721439487e-07
v -0.6725500226020813 -8.145825386047363 1.075965404510498
v -0.6725500226020813 -8.258849143981934 1.012673258781433
v -0.6725500226020813 -8.408452033996582 0.5063366293907166
v -0.6725494265556335 -8.002416610717773 1.7721784114837646
v -0.6725494265556335 -8.145825386047363 1.5190099477767944
v -0.6725494265556335 -8.002416610717773 2.0253467559814453
v -0.6725494265556335 -7.955867767333984 2.5316834449768066
v -0.6725494265556335 -7.02548885345459 2.5316834449768066
v -0.6725494265556335 -6.526965618133545 2.5316834449768066
v -0.6725494265556335 -6.526965618133545 2.160001277923584
v -0.6725488305091858 -6.025487422943115 1.8310315608978271
v -0.6725488305091858 -6.025487422943115 2.531684637069702
v -0.6725500226020813 -5.02548885345459 2.5316836833953857
v -0.6725494265556335 -6.025487422943115 -1.5258788721439487e-07
v -0.6725500226020813 -5.02548885345459 1.5258788721439487e-07
v -0.7354840040206909 -0.9043639898300171 1.7350374460220337
v -0.7354840040206909 -1.0977892875671387 1.5559107065200806
v -0.7354840040206909 -0.9401183724403381 1.5552860498428345
v -0.7354840040206909 -1.0500329732894897 1.7960001230239868
v -0.7354840040206909 -0.8025426864624023 1.8874233961105347
v -0.7354840040206909 -0.9140331745147705 1.9995380640029907
v -0.7354840040206909 -0.6501574516296387 1.9892442226409912
v -0.7354840040206909 -0.7104955911636353 2.13553786277771
v -0.7354840040206909 -0.4704064726829529 2.0742573738098145
v -0.7354840040206909 -0.4704064726829529 2.2325525283813477
v -0.7354840040206909 -0.9408129453659058 1.5258788721439487e-07
v -0.7354840040206909 -1.098482608795166 1.5258788721439487e-07
v -0.7354840040206909 -0.2906543016433716 1.9892442226409912
v -0.7354840040206909 -0.4704064726829529 2.2325525283813477
v -0.7354840040206909 -0.4704064726829529 2.0742573738098145
v -0.7354840040206909 -0.230316162109375 2.13553786277771
v -0.7354840040206909 -0.13826903700828552 1.8874233961105347
v -0.7354840040206909 -0.026778563857078552 1.9995380640029907
v -0.7354840040206909 -0.036448974162340164 1.7350374460220337
v -0.7354840040206909 0.10921996831893921 1.7960001230239868
v -0.7354840040206909 -0.0006933593540452421 1.5552860498428345
v -0.7354840040206909 0.15697753429412842 1.5559107065200806
v -0.7354840040206909 0.15767212212085724 1.5258788721439487e-07
v -0.7354840040206909 0.0 1.5258788721439487e-07
v -0.7354840040206909 -0.036448974162340164 1.7350374460220337
v -0.2674792408943176 -0.0006933593540452421 1.5552860498428345
v -0.7354840040206909 -0.0006933593540452421 1.5552860498428345
v -0.2674792408943176 -0.036448974162340164 1.7350374460220337
v -0.7354840040206909 -0.13826903700828552 1.8874233961105347
v -0.2674792408943176 -0.036448974162340164 1.7350374460220337
v -0.7354840040206909 -0.036448974162340164 1.7350374460220337
v -0.2674792408943176 -0.13826903700828552 1.8874233961105347
v -0.7354840040206909 -0.2906543016433716 1.9892442226409912
v -0.2674792408943176 -0.13826903700828552 1.8874233961105347
v -0.7354840040206909 -0.13826903700828552 1.8874233961105347
v -0.2674792408943176 -0.2906543016433716 1.9892442226409912
v -0.7354840040206909 -0.8025426864624023 1.8874233961105347
v -0.2674792408943176 -0.6501574516296387 1.9892442226409912
v -0.7354840040206909 -0.6501574516296387 1.9892442226409912
v -0.2674792408943176 -0.8025426864624023 1.8874233961105347
v -0.7354840040206909 -0.9043639898300171 1.7350374460220337
v -0.2674792408943176 -0.8025426864624023 1.8874233961105347
v -0.7354840040206909 -0.8025426864624023 1.8874233961105347
v -0.2674792408943176 -0.9043639898300171 1.7350374460220337
v -0.7354840040206909 -0.9401183724403381 1.5552860498428345
v -0.2674792408943176 -0.9043639898300171 1.7350374460220337
v -0.7354840040206909 -0.9043639898300171 1.7350374460220337
v -0.2674792408943176 -0.9401183724403381 1.5552860498428345
v -0.2674792408943176 0.0 1.5258788721439487e-07
v -0.2674792408943176 0.15697753429412842 1.5559107065200806
v -0.2674792408943176 0.15767212212085724 1.5258788721439487e-07
v -0.2674792408943176 -0.0006933593540452421 1.5552860498428345
v -0.2674792408943176 0.10921996831893921 1.7960001230239868
v -0.2674792408943176 -0.036448974162340164 1.7350374460220337
v -0.2674792408943176 -0.026778563857078552 1.9995379447937012
v -0.2674792408943176 -0.13826903700828552 1.8874233961105347
v -0.2674792408943176 -0.230316162109375 2.13553786277771
v -0.2674792408943176 -0.2906543016433716 1.9892442226409912
v -0.2674792408943176 -0.4704064726829529 2.232553243637085
v -0.2674792408943176 -0.4704064726829529 2.0742573738098145
v -0.7354840040206909 0.0 1.5258788721439487e-07
v -0.2674792408943176 -0.0006933593540452421 1.5552860498428345
v -0.2674792408943176 0.0 1.5258788721439487e-07
v -0.7354840040206909 -0.0006933593540452421 1.5552860498428345
v -0.2674792408943176 -1.098482608795166 1.5258788721439487e-07
v -0.2674792408943176 -0.9401183724403381 1.5552860498428345
v -0.2674792408943176 -0.9408129453659058 1.5258788721439487e-07
v -0.2674792408943176 -1.0977892875671387 1.5559107065200806
v -0.2674792408943176 -0.9043639898300171 1.7350374460220337
v -0.2674792408943176 -1.0500329732894897 1.7960001230239868
v -0.2674792408943176 -0.8025426864624023 1.8874233961105347
v -0.2674792408943176 -0.914031982421875 1.9995379447937012
v -0.2674792408943176 -0.6501574516296387 1.9892442226409912
v -0.2674792408943176 -0.7104955911636353 2.13553786277771
v -0.2674792408943176 -0.4704064726829529 2.0742573738098145
v -0.2674792408943176 -0.4704064726829529 2.232553243637085
v -0.2674792408943176 -0.9408129453659058 1.5258788721439487e-07
v -0.7354840040206909 -0.9401183724403381 1.5552860498428345
v -0.7354840040206909 -0.9408129453659058 1.5258788721439487e-07
v -0.2674792408943176 -0.9401183724403381 1.5552860498428345
v -0.6712847948074341 -1.0977892875671387 1.5559107065200806
v -0.7354840040206909 -1.0500329732894897 1.7960001230239868
v -0.6712847948074341 -1.0500329732894897 1.7960001230239868
v -0.7354840040206909 -1.0977892875671387 1.5559107065200806
v -0.33167845010757446 -1.0500329732894897 1.7960001230239868
v -0.2674792408943176 -1.0977892875671387 1.5559107065200806
v -0.33167845010757446 -1.0977892875671387 1.5559107065200806
v -0.2674792408943176 -1.0500329732894897 1.7960001230239868
v -0.6712847948074341 -1.0500329732894897 1.7960001230239868
v -0.7354840040206909 -0.9140331745147705 1.9995380640029907
v -0.6712847948074341 -0.9140331745147705 1.9995380640029907
v -0.7354840040206909 -1.0500329732894897 1.7960001230239868
v -0.33167845010757446 -0.914031982421875 1.9995379447937012
v -0.2674792408943176 -1.0500329732894897 1.7960001230239868
v -0.33167845010757446 -1.0500329732894897 1.7960001230239868
v -0.2674792408943176 -0.914031982421875 1.9995379447937012
v -0.6712847948074341 -0.9140331745147705 1.9995380640029907
v -0.7354840040206909 -0.7104955911636353 2.13553786277771
v -0.6712847948074341 -0.7104955911636353 2.13553786277771
v -0.7354840040206909 -0.9140331745147705 1.9995380640029907
v -0.33167845010757446 -0.7104955911636353 2.13553786277771
v -0.2674792408943176 -0.914031982421875 1.9995379447937012
v -0.33167845010757446 -0.914031982421875 1.9995379447937012
v -0.2674792408943176 -0.7104955911636353 2.13553786277771
v -0.6712847948074341 -0.7104955911636353 2.13553786277771
v -0.7354840040206909 -0.4704064726829529 2.2325525283813477
v -0.6712847948074341 -0.4704064726829529 2.2325525283813477
v -0.7354840040206909 -0.7104955911636353 2.13553786277771
v -0.33167845010757446 -0.4704064726829529 2.232553243637085
v -0.2674792408943176 -0.7104955911636353 2.13553786277771
v -0.33167845010757446 -0.7104955911636353 2.13553786277771
v -0.2674792408943176 -0.4704064726829529 2.232553243637085
v -0.6712847948074341 -0.4704064726829529 2.2325525283813477
v -0.7354840040206909 -0.230316162109375 2.13553786277771
v -0.6712847948074341 -0.230316162109375 2.13553786277771
v -0.7354840040206909 -0.4704064726829529 2.2325525283813477
v -0.33167845010757446 -0.230316162109375 2.13553786277771
v -0.2674792408943176 -0.4704064726829529 2.232553243637085
v -0.33167845010757446 -0.4704064726829529 2.232553243637085
v -0.2674792408943176 -0.230316162109375 2.13553786277771
v -0.6712847948074341 -0.230316162109375 2.13553786277771
v -0.7354840040206909 -0.026778563857078552 1.9995380640029907
v -0.6712847948074341 -0.026778563857078552 1.9995380640029907
v -0.7354840040206909 -0.230316162109375 2.13553786277771
v -0.33167845010757446 -0.026778563857078552 1.9995379447937012
v -0.2674792408943176 -0.230316162109375 2.13553786277771
v -0.33167845010757446 -0.230316162109375 2.13553786277771
v -0.2674792408943176 -0.230316162109375 2.13553786277771
v -0.33167845010757446 -0.026778563857078552 1.9995379447937012
v -0.2674792408943176 -0.026778563857078552 1.9995379447937012
v -0.6712847948074341 -0.026778563857078552 1.9995380640029907
v -0.7354840040206909 0.10921996831893921 1.7960001230239868
v -0.6712847948074341 0.10921996831893921 1.7960001230239868
v -0.7354840040206909 -0.026778563857078552 1.9995380640029907
v -0.33167845010757446 0.10921996831893921 1.7960001230239868
v -0.2674792408943176 -0.026778563857078552 1.9995379447937012
v -0.33167845010757446 -0.026778563857078552 1.9995379447937012
v -0.2674792408943176 0.10921996831893921 1.7960001230239868
v -0.6712847948074341 0.10921996831893921 1.7960001230239868
v -0.7354840040206909 0.15697753429412842 1.5559107065200806
v -0.6712847948074341 0.15697753429412842 1.5559107065200806
v -0.7354840040206909 0.10921996831893921 1.7960001230239868
v -0.33167845010757446 0.15697753429412842 1.5559107065200806
v -0.2674792408943176 0.10921996831893921 1.7960001230239868
v -0.33167845010757446 0.10921996831893921 1.7960001230239868
v -0.2674792408943176 0.15697753429412842 1.5559107065200806
v -0.33167845010757446 0.15767212212085724 1.5258788721439487e-07
v -0.2674792408943176 0.15697753429412842 1.5559107065200806
v -0.33167845010757446 0.15697753429412842 1.5559107065200806
v -0.2674792408943176 0.15767212212085724 1.5258788721439487e-07
v -0.6712847948074341 0.15697753429412842 1.5559107065200806
v -0.7354840040206909 0.15767212212085724 1.5258788721439487e-07
v -0.6712847948074341 0.15767212212085724 1.5258788721439487e-07
v -0.7354840040206909 0.15697753429412842 1.5559107065200806
v -0.6712847948074341 -1.098482608795166 1.5258788721439487e-07
v -0.7354840040206909 -1.0977892875671387 1.5559107065200806
v -0.6712847948074341 -1.0977892875671387 1.5559107065200806
v -0.7354840040206909 -1.098482608795166 1.5258788721439487e-07
v -0.33167845010757446 -1.0977892875671387 1.5559107065200806
v -0.2674792408943176 -1.098482608795166 1.5258788721439487e-07
v -0.33167845010757446 -1.098482608795166 1.5258788721439487e-07
v -0.2674792408943176 -1.0977892875671387 1.5559107065200806
v -0.7354840040206909 -6.081146717071533 1.7350374460220337
v -0.7354840040206909 -5.887721538543701 1.5559107065200806
v -0.7354840040206909 -5.9354777336120605 1.7960001230239868
v -0.7354840040206909 -6.0453925132751465 1.5552860498428345
v -0.7354840040206909 -6.1829681396484375 1.8874233961105347
v -0.7354840040206909 -6.07147741317749 1.9995380640029907
v -0.7354840040206909 -6.335353374481201 1.9892442226409912
v -0.7354840040206909 -6.275015354156494 2.13553786277771
v -0.7354840040206909 -6.515104293823242 2.0742573738098145
v -0.7354840040206909 -6.515104293823242 2.2325525283813477
v -0.7354840040206909 -6.0446977615356445 1.5258788721439487e-07
v -0.7354840040206909 -5.887028217315674 1.5258788721439487e-07
v -0.7354840040206909 -6.694856643676758 1.9892442226409912
v -0.7354840040206909 -6.515104293823242 2.2325525283813477
v -0.7354840040206909 -6.755194664001465 2.13553786277771
v -0.7354840040206909 -6.515104293823242 2.0742573738098145
v -0.7354840040206909 -6.8472418785095215 1.8874233961105347
v -0.7354840040206909 -6.9587321281433105 1.9995380640029907
v -0.7354840040206909 -6.949061870574951 1.7350374460220337
v -0.7354840040206909 -7.094730854034424 1.7960001230239868
v -0.7354840040206909 -6.9848175048828125 1.5552860498428345
v -0.7354840040206909 -7.142488479614258 1.5559107065200806
v -0.7354840040206909 -7.143182754516602 1.5258788721439487e-07
v -0.7354840040206909 -6.98551082611084 1.5258788721439487e-07
v -0.7354840040206909 -6.949061870574951 1.7350374460220337
v -0.2674792408943176 -6.9848175048828125 1.5552860498428345
v -0.2674792408943176 -6.949061870574951 1.7350374460220337
v -0.7354840040206909 -6.9848175048828125 1.5552860498428345
v -0.7354840040206909 -6.8472418785095215 1.8874233961105347
v -0.2674792408943176 -6.949061870574951 1.7350374460220337
v -0.2674792408943176 -6.8472418785095215 1.8874233961105347
v -0.7354840040206909 -6.949061870574951 1.7350374460220337
v -0.7354840040206909 -6.694856643676758 1.9892442226409912
v -0.2674792408943176 -6.8472418785095215 1.8874233961105347
v -0.2674792408943176 -6.694856643676758 1.9892442226409912
v -0.7354840040206909 -6.8472418785095215 1.8874233961105347
v -0.7354840040206909 -6.1829681396484375 1.8874233961105347
v -0.2674792408943176 -6.335353374481201 1.9892442226409912
v -0.2674792408943176 -6.1829681396484375 1.8874233961105347
v -0.7354840040206909 -6.335353374481201 1.9892442226409912
v -0.7354840040206909 -6.081146717071533 1.7350374460220337
v -0.2674792408943176 -6.1829681396484375 1.8874233961105347
v -0.2674792408943176 -6.081146717071533 1.7350374460220337
v -0.7354840040206909 -6.1829681396484375 1.8874233961105347
v -0.7354840040206909 -6.0453925132751465 1.5552860498428345
v -0.2674792408943176 -6.081146717071533 1.7350374460220337
v -0.2674792408943176 -6.0453925132751465 1.5552860498428345
v -0.7354840040206909 -6.081146717071533 1.7350374460220337
v -0.2674792408943176 -6.98551082611084 1.5258788721439487e-07
v -0.2674792408943176 -7.142488479614258 1.5559107065200806
v -0.2674792408943176 -6.9848175048828125 1.5552860498428345
v -0.2674792408943176 -7.143182754516602 1.5258788721439487e-07
v -0.2674792408943176 -7.094730854034424 1.7960001230239868
v -0.2674792408943176 -6.949061870574951 1.7350374460220337
v -0.2674792408943176 -6.9587321281433105 1.9995379447937012
v -0.2674792408943176 -6.8472418785095215 1.8874233961105347
v -0.2674792408943176 -6.755194664001465 2.13553786277771
v -0.2674792408943176 -6.694856643676758 1.9892442226409912
v -0.2674792408943176 -6.515104293823242 2.232553243637085
v -0.2674792408943176 -6.515104293823242 2.0742573738098145
v -0.7354840040206909 -6.98551082611084 1.5258788721439487e-07
v -0.2674792408943176 -6.9848175048828125 1.5552860498428345
v -0.7354840040206909 -6.9848175048828125 1.5552860498428345
v -0.2674792408943176 -6.98551082611084 1.5258788721439487e-07
v -0.2674792408943176 -5.887028217315674 1.5258788721439487e-07
v -0.2674792408943176 -6.0453925132751465 1.5552860498428345
v -0.2674792408943176 -5.887721538543701 1.5559107065200806
v -0.2674792408943176 -6.0446977615356445 1.5258788721439487e-07
v -0.2674792408943176 -6.081146717071533 1.7350374460220337
v -0.2674792408943176 -5.9354777336120605 1.7960001230239868
v -0.2674792408943176 -6.1829681396484375 1.8874233961105347
v -0.2674792408943176 -6.071478843688965 1.9995379447937012
v -0.2674792408943176 -6.335353374481201 1.9892442226409912
v -0.2674792408943176 -6.275015354156494 2.13553786277771
v -0.2674792408943176 -6.515104293823242 2.0742573738098145
v -0.2674792408943176 -6.515104293823242 2.232553243637085
v -0.2674792408943176 -6.0446977615356445 1.5258788721439487e-07
v -0.7354840040206909 -6.0453925132751465 1.5552860498428345
v -0.2674792408943176 -6.0453925132751465 1.5552860498428345
v -0.7354840040206909 -6.0446977615356445 1.5258788721439487e-07
v -0.6712847948074341 -5.887721538543701 1.5559107065200806
v -0.7354840040206909 -5.9354777336120605 1.7960001230239868
v -0.7354840040206909 -5.887721538543701 1.5559107065200806
v -0.6712847948074341 -5.9354777336120605 1.7960001230239868
v -0.33167845010757446 -5.9354777336120605 1.7960001230239868
v -0.2674792408943176 -5.887721538543701 1.5559107065200806
v -0.2674792408943176 -5.9354777336120605 1.7960001230239868
v -0.33167845010757446 -5.887721538543701 1.5559107065200806
v -0.6712847948074341 -5.9354777336120605 1.7960001230239868
v -0.7354840040206909 -6.07147741317749 1.9995380640029907
v -0.7354840040206909 -5.9354777336120605 1.7960001230239868
v -0.6712847948074341 -6.07147741317749 1.9995380640029907
v -0.33167845010757446 -6.071478843688965 1.9995379447937012
v -0.2674792408943176 -5.9354777336120605 1.7960001230239868
v -0.2674792408943176 -6.071478843688965 1.9995379447937012
v -0.33167845010757446 -5.9354777336120605 1.7960001230239868
v -0.6712847948074341 -6.07147741317749 1.9995380640029907
v -0.7354840040206909 -6.275015354156494 2.13553786277771
v -0.7354840040206909 -6.07147741317749 1.9995380640029907
v -0.6712847948074341 -6.275015354156494 2.13553786277771
v -0.33167845010757446 -6.275015354156494 2.13553786277771
v -0.2674792408943176 -6.071478843688965 1.9995379447937012
v -0.2674792408943176 -6.275015354156494 2.13553786277771
v -0.33167845010757446 -6.071478843688965 1.9995379447937012
v -0.6712847948074341 -6.275015354156494 2.13553786277771
v -0.7354840040206909 -6.515104293823242 2.2325525283813477
v -0.7354840040206909 -6.275015354156494 2.13553786277771
v -0.6712847948074341 -6.515104293823242 2.2325525283813477
v -0.33167845010757446 -6.515104293823242 2.232553243637085
v -0.2674792408943176 -6.275015354156494 2.13553786277771
v -0.2674792408943176 -6.515104293823242 2.232553243637085
v -0.33167845010757446 -6.275015354156494 2.13553786277771
v -0.6712847948074341 -6.515104293823242 2.2325525283813477
v -0.7354840040206909 -6.755194664001465 2.13553786277771
v -0.7354840040206909 -6.515104293823242 2.2325525283813477
v -0.6712847948074341 -6.755194664001465 2.13553786277771
v -0.33167845010757446 -6.755194664001465 2.13553786277771
v -0.2674792408943176 -6.515104293823242 2.232553243637085
v -0.2674792408943176 -6.755194664001465 2.13553786277771
v -0.33167845010757446 -6.515104293823242 2.232553243637085
v -0.6712847948074341 -6.755194664001465 2.13553786277771
v -0.7354840040206909 -6.9587321281433105 1.9995380640029907
v -0.7354840040206909 -6.755194664001465 2.13553786277771
v -0.6712847948074341 -6.9587321281433105 1.9995380640029907
v -0.33167845010757446 -6.9587321281433105 1.9995379447937012
v -0.2674792408943176 -6.755194664001465 2.13553786277771
v -0.2674792408943176 -6.9587321281433105 1.9995379447937012
v -0.2674792408943176 -6.755194664001465 2.13553786277771
v -0.33167845010757446 -6.9587321281433105 1.9995379447937012
v -0.33167845010757446 -6.755194664001465 2.13553786277771
v -0.6712847948074341 -6.9587321281433105 1.9995380640029907
v -0.7354840040206909 -7.094730854034424 1.7960001230239868
v -0.7354840040206909 -6.9587321281433105 1.9995380640029907
v -0.6712847948074341 -7.094730854034424 1.7960001230239868
v -0.33167845010757446 -7.094730854034424 1.7960001230239868
v -0.2674792408943176 -6.9587321281433105 1.9995379447937012
v -0.2674792408943176 -7.094730854034424 1.7960001230239868
v -0.33167845010757446 -6.9587321281433105 1.9995379447937012
v -0.6712847948074341 -7.094730854034424 1.7960001230239868
v -0.7354840040206909 -7.142488479614258 1.5559107065200806
v -0.7354840040206909 -7.094730854034424 1.7960001230239868
v -0.6712847948074341 -7.142488479614258 1.5559107065200806
v -0.33167845010757446 -7.142488479614258 1.5559107065200806
v -0.2674792408943176 -7.094730854034424 1.7960001230239868
v -0.2674792408943176 -7.142488479614258 1.5559107065200806
v -0.33167845010757446 -7.094730854034424 1.7960001230239868
v -0.33167845010757446 -7.143182754516602 1.5258788721439487e-07
v -0.2674792408943176 -7.142488479614258 1.5559107065200806
v -0.2674792408943176 -7.143182754516602 1.5258788721439487e-07
v -0.33167845010757446 -7.142488479614258 1.5559107065200806
v -0.6712847948074341 -7.142488479614258 1.5559107065200806
v -0.7354840040206909 -7.143182754516602 1.5258788721439487e-07
v -0.7354840040206909 -7.142488479614258 1.5559107065200806
v -0.6712847948074341 -7.143182754516602 1.5258788721439487e-07
v -0.6712847948074341 -5.887028217315674 1.5258788721439487e-07
v -0.7354840040206909 -5.887721538543701 1.5559107065200806
v -0.7354840040206909 -5.887028217315674 1.5258788721439487e-07
v -0.6712847948074341 -5.887721538543701 1.5559107065200806
v -0.33167845010757446 -5.887721538543701 1.5559107065200806
v -0.2674792408943176 -5.887028217315674 1.5258788721439487e-07
v -0.2674792408943176 -5.887721538543701 1.5559107065200806
v -0.33167845010757446 -5.887028217315674 1.5258788721439487e-07
v -0.6725494265556335 1.6693907976150513 1.4557180404663086
v -0.321258544921875 1.8293322324752808 1.0126734972000122
v -0.321258544921875 1.6693896055221558 1.4557180404663086
v -0.6725500226020813 1.8293334245681763 1.0126734972000122
v -0.321258544921875 1.8781005144119263 0.5063368082046509
v -0.6725500226020813 1.8781017065048218 0.5063366293907166
v -0.321258544921875 1.8841345310211182 1.5258788721439487e-07
v -0.6725500226020813 1.8841357231140137 0.0
v -0.6725494265556335 1.4978784322738647 1.5190101861953735
v -0.321258544921875 1.4978771209716797 1.5190101861953735
v -0.6725494265556335 1.4978784322738647 2.0253467559814453
v -0.321258544921875 1.4978771209716797 2.0253467559814453
v -0.6725494265556335 1.3670861721038818 2.5316834449768066
v -0.321258544921875 1.3670849800109863 2.5316834449768066
v -0.321258544921875 -8.14582347869873 1.0759655237197876
v -0.6725500226020813 -8.258849143981934 1.012673258781433
v -0.6725500226020813 -8.145825386047363 1.075965404510498
v -0.321258544921875 -8.2588472366333 1.0126734972000122
v -0.6725500226020813 -8.408452033996582 0.5063366293907166
v -0.321258544921875 -8.408451080322266 0.5063368082046509
v -0.321258544921875 -8.408451080322266 1.5258788721439487e-07
v -0.6725500226020813 -8.408452033996582 0.0
v -0.321258544921875 -8.14582347869873 1.5190101861953735
v -0.6725494265556335 -8.145825386047363 1.5190099477767944
v -0.321258544921875 -8.002415657043457 1.7721784114837646
v -0.6725494265556335 -8.002416610717773 1.7721784114837646
v -0.321258544921875 -8.002415657043457 2.0253467559814453
v -0.6725494265556335 -8.002416610717773 2.0253467559814453
v -0.321258544921875 -7.95586633682251 2.5316834449768066
v -0.6725494265556335 -7.955867767333984 2.5316834449768066
vn 1.0 0.0 0.0
vn 1.0 0.0 0.0
vn 1.0 0.0 0.0
vn 1.0 0.0 0.0
vn 1.0 0.0 0.0
vn 1.0 1.2207135569042293e-06 0.0
vn 1.0 1.2207160580146592e-06 0.0
vn 1.0 -6.103520604483492e-07 -3.3333751048303384e-07
vn 1.0 -1.2207040072098607e-06 0.0
vn 1.0 -6.103520604483492e-07 -3.333374820613244e-07
vn 1.0 -6.103521172917681e-07 -3.3333751048303384e-07
vn 1.0 -1.220703893523023e-06 0.0
vn 1.0 0.0 0.0
vn 1.0 0.0 0.0
vn 1.0 0.0 0.0
vn 1.0 0.0 0.0
vn 1.0 0.0 0.0
vn 1.0 0.0 0.0
vn 1.0 0.0 0.0
vn -1.0 -1.995466476500951e-07 1.9712197740773263e-07
vn -1.0 -1.283180495192937e-07 1.0588976806502615e-07
vn -1.0 0.0 0.0
vn -1.0 0.0 3.1537439326712047e-07
vn -1.0 0.0 3.3333759574816213e-07
vn -1.0 -6.085528525545669e-07 0.0
vn -1.0 -6.081687615733244e-07 0.0
vn -1.0 1.220704689330887e-06 0.0
vn -1.0 1.220704689330887e-06 0.0
vn -1.0 1.220704689330887e-06 0.0
vn -1.0 1.4542586086463416e-06 3.3333751048303384e-07
vn -1.0 6.103524583522812e-07 0.0
vn -1.0 0.0 2.410852744105796e-07
vn -1.0 4.350697793142899e-07 1.1238321917517169e-07
vn -1.0 6.938075216567086e-07 0.0
vn -1.0 1.2216773370710143e-07 3.3105706620517594e-07
vn -1.0 -8.847871981743083e-07 1.0582148206594866e-06
vn -1.0 0.0 0.0
vn -1.0 0.0 0.0
vn 1.0 0.0 0.0
vn 1.0 0.0 0.0
vn 1.0 0.0 0.0
vn 1.0 0.0 0.0
vn 1.0 0.0 0.0
vn 1.0 0.0 0.0
vn 1.0 0.0 0.0
vn 1.0 0.0 0.0
vn 1.0 0.0 0.0
vn 1.0 0.0 0.0
vn 1.0 0.0 0.0
vn 1.0 -1.2207135569042293e-06 0.0
vn 1.0 -1.2207160580146592e-06 0.0
vn 1.0 1.220703893523023e-06 0.0
vn 1.0 1.220703893523023e-06 0.0
vn 1.0 1.2207040072098607e-06 0.0
vn 1.0 1.220703893523023e-06 0.0
vn 1.0 6.103521172917681e-07 -3.3333751048303384e-07
vn -1.0 0.0 2.024410719059233e-07
vn -1.0 1.6914881939555926e-07 1.5477706938327174e-07
vn -1.0 0.0 3.3333759574816213e-07
vn -1.0 2.4550385546717735e-07 1.392173487602122e-07
vn -1.0 0.0 0.0
vn -1.0 0.0 0.0
vn -1.0 -2.344755927197184e-07 5.628352255371283e-07
vn -1.0 -2.4320263491972582e-06 1.377630155730003e-06
vn -1.0 0.0 0.0
vn -1.0 0.0 0.0
vn -1.0 0.0 0.0
vn -1.0 6.085528525545669e-07 0.0
vn -1.0 6.081687615733244e-07 0.0
vn -1.0 -1.4542586086463416e-06 3.3333751048303384e-07
vn -1.0 -1.220704689330887e-06 0.0
vn -1.0 -6.103523446654435e-07 0.0
vn -1.0 -6.103524583522812e-07 0.0
vn -1.0 -6.103524583522812e-07 0.0
vn -1.0 0.0 0.0
vn -1.0 0.0 0.0
vn -1.0 0.0 0.0
vn -1.0 0.0 0.0
vn -1.0 0.0 0.0
vn -1.0 0.0 0.0
vn -1.0 0.0 0.0
vn -1.0 0.0 0.0
vn -1.0 0.0 0.0
vn -1.0 0.0 0.0
vn -1.0 0.0 0.0
vn -1.0 0.0 0.0
vn -1.0 0.0 0.0
vn -1.0 0.0 0.0
vn -1.0 0.0 0.0
vn -1.0 0.0 0.0
vn -1.0 0.0 0.0
vn -1.0 0.0 0.0
vn -1.0 0.0 0.0
vn -1.0 0.0 0.0
vn -1.0 0.0 0.0
vn -1.0 0.0 0.0
vn -1.0 0.0 0.0
vn -1.0 0.0 0.0
vn -0.0 -0.9807844161987305 -0.19509465992450714
vn -0.0 -0.9807844161987305 -0.19509468972682953
vn -0.0 -0.9807844161987305 -0.19509465992450714
vn -0.0 -0.9807844161987305 -0.19509465992450714
vn -0.0 -0.8314719200134277 -0.5555667281150818
vn -0.0 -0.8314719200134277 -0.5555667877197266
vn -0.0 -0.8314719200134277 -0.5555667281150818
vn -0.0 -0.8314719200134277 -0.5555667281150818
vn -0.0 -0.5555711984634399 -0.831468939781189
vn -0.0 -0.5555711984634399 -0.831468939781189
vn -0.0 -0.5555711984634399 -0.831468939781189
vn -0.0 -0.5555711984634399 -0.831468939781189
vn -0.0 0.5555711984634399 -0.831468939781189
vn -0.0 0.5555711984634399 -0.831468939781189
vn -0.0 0.5555711984634399 -0.831468939781189
vn -0.0 0.5555711984634399 -0.831468939781189
vn -0.0 0.8314688205718994 -0.5555714964866638
vn -0.0 0.8314688801765442 -0.555571436882019
vn -0.0 0.8314688801765442 -0.555571436882019
vn -0.0 0.8314688801765442 -0.555571436882019
vn -0.0 0.9807856678962708 -0.19508831202983856
vn -0.0 0.9807856678962708 -0.19508829712867737
vn -0.0 0.9807856678962708 -0.19508829712867737
vn -0.0 0.9807856678962708 -0.19508829712867737
vn 1.0 0.0 0.0
vn 1.0 0.0 0.0
vn 1.0 0.0 0.0
vn 1.0 0.0 0.0
vn 1.0 0.0 0.0
vn 1.0 0.0 0.0
vn 1.0 0.0 0.0
vn 1.0 0.0 0.0
vn 1.0 0.0 0.0
vn 1.0 0.0 0.0
vn 1.0 0.0 0.0
vn 1.0 0.0 0.0
vn -0.0 -0.9999998807907104 -0.0004458082257770002
vn -0.0 -0.9999998807907104 -0.0004458082257770002
vn -0.0 -0.9999998807907104 -0.00044580819667316973
vn -0.0 -0.9999998807907104 -0.00044580819667316973
vn 1.0 0.0 0.0
vn 1.0 0.0 0.0
vn 1.0 0.0 0.0
vn 1.0 0.0 0.0
vn 1.0 0.0 0.0
vn 1.0 0.0 0.0
vn 1.0 0.0 0.0
vn 1.0 0.0 0.0
vn 1.0 0.0 0.0
vn 1.0 0.0 0.0
vn 1.0 0.0 0.0
vn 1.0 0.0 0.0
vn -0.0 0.9999998807907104 -0.00044659312698058784
vn -0.0 0.9999998807907104 -0.0004465930978767574
vn -0.0 0.9999998807907104 -0.0004465930978767574
vn -0.0 0.9999998807907104 -0.0004465930978767574
vn -0.0 -0.9807855486869812 0.1950887143611908
vn -0.0 -0.9807855486869812 0.19508874416351318
vn -0.0 -0.9807855486869812 0.195088729262352
vn -0.0 -0.9807855486869812 0.195088729262352
vn -0.0 -0.9807855486869812 0.1950887143611908
vn -0.0 -0.9807855486869812 0.19508874416351318
vn -0.0 -0.9807855486869812 0.195088729262352
vn -0.0 -0.9807855486869812 0.195088729262352
vn -0.0 -0.8314694762229919 0.5555704832077026
vn -0.0 -0.8314694762229919 0.5555704832077026
vn -0.0 -0.8314694762229919 0.5555704832077026
vn -0.0 -0.8314694762229919 0.5555704832077026
vn -0.0 -0.8314669728279114 0.5555741786956787
vn -0.0 -0.8314669728279114 0.5555741786956787
vn -0.0 -0.8314669728279114 0.5555741786956787
vn -0.0 -0.8314669728279114 0.5555741786956787
vn -0.0 -0.5555710792541504 0.8314690589904785
vn -0.0 -0.5555710792541504 0.8314690589904785
vn -0.0 -0.5555711388587952 0.8314690589904785
vn -0.0 -0.5555711388587952 0.8314690589904785
vn -0.0 -0.5555737018585205 0.8314672112464905
vn -0.0 -0.5555737018585205 0.8314672112464905
vn -0.0 -0.5555737018585205 0.8314672112464905
vn -0.0 -0.5555737018585205 0.8314672112464905
vn -0.0 -0.3746480345726013 0.9271671772003174
vn -0.0 -0.3746480345726013 0.9271671772003174
vn -0.0 -0.3746480345726013 0.9271671772003174
vn -0.0 -0.3746480345726013 0.9271671772003174
vn -0.0 -0.3746500611305237 0.9271663427352905
vn -0.0 -0.3746500611305237 0.9271663427352905
vn -0.0 -0.3746500611305237 0.9271663427352905
vn -0.0 -0.3746500611305237 0.9271663427352905
vn -0.0 0.37464639544487 0.9271677732467651
vn -0.0 0.37464630603790283 0.9271677732467651
vn -0.0 0.3746463656425476 0.9271677732467651
vn -0.0 0.3746463656425476 0.9271677732467651
vn -0.0 0.3746483623981476 0.9271669387817383
vn -0.0 0.3746483623981476 0.9271669387817383
vn -0.0 0.37464839220046997 0.9271669387817383
vn -0.0 0.37464839220046997 0.9271669387817383
vn -0.0 0.5555710792541504 0.8314690589904785
vn -0.0 0.5555710792541504 0.8314690589904785
vn -0.0 0.5555711388587952 0.8314690589904785
vn -0.0 0.5555711388587952 0.8314690589904785
vn -0.0 0.5555714964866638 0.8314688205718994
vn -0.0 0.5555714964866638 0.8314688205718994
vn -0.0 0.5555714964866638 0.8314688205718994
vn -0.0 0.5555714964866638 0.8314688205718994
vn -0.0 0.5555714964866638 0.8314688205718994
vn -0.0 0.5555714964866638 0.8314688205718994
vn -0.0 0.8314717411994934 0.5555669665336609
vn -0.0 0.8314717411994934 0.5555670261383057
vn -0.0 0.8314717411994934 0.5555669069290161
vn -0.0 0.8314717411994934 0.5555669069290161
vn -0.0 0.8314716219902039 0.5555673241615295
vn -0.0 0.8314716219902039 0.5555673241615295
vn -0.0 0.8314716219902039 0.5555673241615295
vn -0.0 0.8314716219902039 0.5555673241615295
vn -0.0 0.9807846546173096 0.19509351253509521
vn -0.0 0.9807846546173096 0.1950935274362564
vn -0.0 0.9807846546173096 0.1950935274362564
vn -0.0 0.9807846546173096 0.1950935274362564
vn -0.0 0.9807846546173096 0.19509351253509521
vn -0.0 0.9807846546173096 0.1950935274362564
vn -0.0 0.9807846546173096 0.1950935274362564
vn -0.0 0.9807846546173096 0.1950935274362564
vn -0.0 0.9999998807907104 0.0004464138182811439
vn -0.0 0.9999998807907104 0.0004464138182811439
vn -0.0 0.9999998807907104 0.000446413760073483
vn -0.0 0.9999998807907104 0.000446413760073483
vn -0.0 0.9999998807907104 0.0004464138182811439
vn -0.0 0.9999998807907104 0.0004464138182811439
vn -0.0 0.9999998807907104 0.000446413760073483
vn -0.0 0.9999998807907104 0.000446413760073483
vn -0.0 -0.9999998807907104 0.00044562926632352173
vn -0.0 -0.9999998807907104 0.00044562926632352173
vn -0.0 -0.9999998807907104 0.0004456292081158608
vn -0.0 -0.9999998807907104 0.0004456292081158608
vn -0.0 -0.9999998807907104 0.00044562926632352173
vn -0.0 -0.9999998807907104 0.00044562926632352173
vn -0.0 -0.9999998807907104 0.0004456292081158608
vn -0.0 -0.9999998807907104 0.0004456292081158608
vn -1.0 0.0 0.0
vn -1.0 0.0 0.0
vn -1.0 0.0 0.0
vn -1.0 0.0 0.0
vn -1.0 0.0 0.0
vn -1.0 0.0 0.0
vn -1.0 0.0 0.0
vn -1.0 0.0 0.0
vn -1.0 0.0 0.0
vn -1.0 0.0 0.0
vn -1.0 0.0 0.0
vn -1.0 0.0 0.0
vn -1.0 0.0 0.0
vn -1.0 0.0 0.0
vn -1.0 0.0 0.0
vn -1.0 0.0 0.0
vn -1.0 0.0 0.0
vn -1.0 0.0 0.0
vn -1.0 0.0 0.0
vn -1.0 0.0 0.0
vn -1.0 0.0 0.0
vn -1.0 0.0 0.0
vn -1.0 0.0 0.0
vn -1.0 0.0 0.0
vn -0.0 0.9807844161987305 -0.19509468972682953
vn -0.0 0.9807844161987305 -0.19509465992450714
vn -0.0 0.9807844161987305 -0.19509465992450714
vn -0.0 0.9807844161987305 -0.19509465992450714
vn -0.0 0.8314719200134277 -0.5555667877197266
vn -0.0 0.8314719200134277 -0.5555667281150818
vn -0.0 0.8314719200134277 -0.5555667281150818
vn -0.0 0.8314719200134277 -0.5555667281150818
vn -0.0 0.5555711984634399 -0.831468939781189
vn -0.0 0.5555711984634399 -0.831468939781189
vn -0.0 0.5555711984634399 -0.831468939781189
vn -0.0 0.5555711984634399 -0.831468939781189
vn -0.0 -0.5555711984634399 -0.831468939781189
vn -0.0 -0.5555711984634399 -0.831468939781189
vn -0.0 -0.5555711984634399 -0.831468939781189
vn -0.0 -0.5555711984634399 -0.831468939781189
vn -0.0 -0.8314688801765442 -0.555571436882019
vn -0.0 -0.8314688205718994 -0.5555714964866638
vn -0.0 -0.8314688801765442 -0.555571436882019
vn -0.0 -0.8314688801765442 -0.555571436882019
vn -0.0 -0.9807856678962708 -0.19508829712867737
vn -0.0 -0.9807856678962708 -0.19508831202983856
vn -0.0 -0.9807856678962708 -0.19508829712867737
vn -0.0 -0.9807856678962708 -0.19508829712867737
vn 1.0 0.0 0.0
vn 1.0 0.0 0.0
vn 1.0 0.0 0.0
vn 1.0 0.0 0.0
vn 1.0 0.0 0.0
vn 1.0 0.0 0.0
vn 1.0 0.0 0.0
vn 1.0 0.0 0.0
vn 1.0 0.0 0.0
vn 1.0 0.0 0.0
vn 1.0 0.0 0.0
vn 1.0 0.0 0.0
vn -0.0 0.9999998807907104 -0.0004458082257770002
vn -0.0 0.9999998807907104 -0.0004458082257770002
vn -0.0 0.9999998807907104 -0.00044580819667316973
vn -0.0 0.9999998807907104 -0.00044580819667316973
vn 1.0 0.0 0.0
vn 1.0 0.0 0.0
vn 1.0 0.0 0.0
vn 1.0 0.0 0.0
vn 1.0 0.0 0.0
vn 1.0 0.0 0.0
vn 1.0 0.0 0.0
vn 1.0 0.0 0.0
vn 1.0 0.0 0.0
vn 1.0 0.0 0.0
vn 1.0 0.0 0.0
vn 1.0 0.0 0.0
vn -0.0 -0.9999998807907104 -0.0004465930978767574
vn -0.0 -0.9999998807907104 -0.00044659312698058784
vn -0.0 -0.9999998807907104 -0.0004465930978767574
vn -0.0 -0.9999998807907104 -0.0004465930978767574
vn -0.0 0.9807855486869812 0.19508874416351318
vn -0.0 0.9807855486869812 0.1950887143611908
vn -0.0 0.9807855486869812 0.195088729262352
vn -0.0 0.9807855486869812 0.195088729262352
vn -0.0 0.9807855486869812 0.19508874416351318
vn -0.0 0.9807855486869812 0.1950887143611908
vn -0.0 0.9807855486869812 0.195088729262352
vn -0.0 0.9807855486869812 0.195088729262352
vn -0.0 0.8314694762229919 0.5555704832077026
vn -0.0 0.8314694762229919 0.5555704832077026
vn -0.0 0.8314694762229919 0.5555704832077026
vn -0.0 0.8314694762229919 0.5555704832077026
vn -0.0 0.8314669728279114 0.5555741786956787
vn -0.0 0.8314669728279114 0.5555741786956787
vn -0.0 0.8314669728279114 0.5555741786956787
vn -0.0 0.8314669728279114 0.5555741786956787
vn -0.0 0.5555710792541504 0.8314690589904785
vn -0.0 0.5555710792541504 0.8314690589904785
vn -0.0 0.5555711388587952 0.8314690589904785
vn -0.0 0.5555711388587952 0.8314690589904785
vn -0.0 0.5555737018585205 0.8314672112464905
vn -0.0 0.5555737018585205 0.8314672112464905
vn -0.0 0.5555737018585205 0.8314672112464905
vn -0.0 0.5555737018585205 0.8314672112464905
vn -0.0 0.3746480345726013 0.9271671772003174
vn -0.0 0.3746480345726013 0.9271671772003174
vn -0.0 0.3746480345726013 0.9271671772003174
vn -0.0 0.3746480345726013 0.9271671772003174
vn -0.0 0.3746500611305237 0.9271663427352905
vn -0.0 0.3746500611305237 0.9271663427352905
vn -0.0 0.3746500611305237 0.9271663427352905
vn -0.0 0.3746500611305237 0.9271663427352905
vn -0.0 -0.37464630603790283 0.9271677732467651
vn -0.0 -0.37464639544487 0.9271677732467651
vn -0.0 -0.3746463656425476 0.9271677732467651
vn -0.0 -0.3746463656425476 0.9271677732467651
vn -0.0 -0.3746483623981476 0.9271669387817383
vn -0.0 -0.3746483623981476 0.9271669387817383
vn -0.0 -0.37464839220046997 0.9271669387817383
vn -0.0 -0.37464839220046997 0.9271669387817383
vn -0.0 -0.5555710792541504 0.8314690589904785
vn -0.0 -0.5555710792541504 0.8314690589904785
vn -0.0 -0.5555711388587952 0.8314690589904785
vn -0.0 -0.5555711388587952 0.8314690589904785
vn -0.0 -0.5555714964866638 0.8314688205718994
vn -0.0 -0.5555714964866638 0.8314688205718994
vn -0.0 -0.5555714964866638 0.8314688205718994
vn -0.0 -0.5555714964866638 0.8314688205718994
vn -0.0 -0.5555714964866638 0.8314688205718994
vn -0.0 -0.5555714964866638 0.8314688205718994
vn -0.0 -0.8314717411994934 0.5555670261383057
vn -0.0 -0.8314717411994934 0.5555669665336609
vn -0.0 -0.8314717411994934 0.5555669069290161
vn -0.0 -0.8314717411994934 0.5555669069290161
vn -0.0 -0.8314716219902039 0.5555673241615295
vn -0.0 -0.8314716219902039 0.5555673241615295
vn -0.0 -0.8314716219902039 0.5555673241615295
vn -0.0 -0.8314716219902039 0.5555673241615295
vn -0.0 -0.9807846546173096 0.1950935274362564
vn -0.0 -0.9807846546173096 0.19509351253509521
vn -0.0 -0.9807846546173096 0.1950935274362564
vn -0.0 -0.9807846546173096 0.1950935274362564
vn -0.0 -0.9807846546173096 0.1950935274362564
vn -0.0 -0.9807846546173096 0.19509351253509521
vn -0.0 -0.9807846546173096 0.1950935274362564
vn -0.0 -0.9807846546173096 0.1950935274362564
vn -0.0 -0.9999998807907104 0.0004464138182811439
vn -0.0 -0.9999998807907104 0.0004464138182811439
vn -0.0 -0.9999998807907104 0.000446413760073483
vn -0.0 -0.9999998807907104 0.000446413760073483
vn -0.0 -0.9999998807907104 0.0004464138182811439
vn -0.0 -0.9999998807907104 0.0004464138182811439
vn -0.0 -0.9999998807907104 0.000446413760073483
vn -0.0 -0.9999998807907104 0.000446413760073483
vn -0.0 0.9999998807907104 0.00044562926632352173
vn -0.0 0.9999998807907104 0.00044562926632352173
vn -0.0 0.9999998807907104 0.0004456292081158608
vn -0.0 0.9999998807907104 0.0004456292081158608
vn -0.0 0.9999998807907104 0.00044562926632352173
vn -0.0 0.9999998807907104 0.00044562926632352173
vn -0.0 0.9999998807907104 0.0004456292081158608
vn -0.0 0.9999998807907104 0.0004456292081158608
vn 2.4658052097947802e-06 0.7096036076545715 0.7046011686325073
vn 3.3902099403348984e-06 0.9756274819374084 0.2194334864616394
vn 2.465802481310675e-06 0.7096025347709656 0.7046022415161133
vn 3.3821338547568303e-06 0.9756274819374084 0.2194332778453827
vn 3.4544298159744358e-06 0.9985440969467163 0.05394185334444046
vn 3.4464110285625793e-06 0.9985440969467163 0.05394181236624718
vn 3.469478542683646e-06 0.9999290704727173 0.011915999464690685
vn 3.469478542683646e-06 0.9999290704727173 0.011915999464690685
vn 2.8509080038929824e-06 0.8204271793365479 0.571751058101654
vn 2.850910277629737e-06 0.8204278945922852 0.5717498660087585
vn 3.4471881917852443e-06 0.9920231103897095 0.12605631351470947
vn 3.447187964411569e-06 0.9920231103897095 0.12605638802051544
vn 3.364472604516777e-06 0.9682195782661438 0.25010159611701965
vn 3.3644728318904527e-06 0.9682195782661438 0.25010159611701965
vn 2.7782491542893695e-06 -0.8627275824546814 0.5056691765785217
vn 2.4444541395496344e-06 -0.7814553380012512 0.6239612698554993
vn 2.7782466531789396e-06 -0.8627266883850098 0.505670428276062
vn 2.4444509563181782e-06 -0.7814545035362244 0.6239621639251709
vn 3.3769333640520927e-06 -0.9897009134292603 0.14315059781074524
vn 3.3769331366784172e-06 -0.9897009134292603 0.14315077662467957
vn 3.474901404842967e-06 -1.0 0.0
vn 3.4749011774692917e-06 -1.0 0.0
vn 3.249466772103915e-06 -0.9669801592826843 0.2548515498638153
vn 3.3114179132098798e-06 -0.9669803977012634 0.25485098361968994
vn 3.298217279734672e-06 -0.9669802784919739 0.25485119223594666
vn 3.3601661471038824e-06 -0.9669802784919739 0.2548513114452362
vn 3.471257514320314e-06 -0.9989497065544128 0.04582163691520691
vn 3.4712568321992876e-06 -0.9989497065544128 0.045821622014045715
vn 3.460314928815933e-06 -0.995800793170929 0.09154700487852097
vn 3.4603147014422575e-06 -0.995800793170929 0.09154700487852097
vt 1.2078742980957031 0.9979998795315623
vt 0.8110220432281494 0.1802780032157898
vt 1.1549675464630127 0.1802780032157898
vt 0.8110220432281494 0.40658533573150635
vt 0.8110220432281494 0.9979998795315623
vt 0.6093640327453613 0.1802780032157898
vt 0.6093645095825195 0.30032968521118164
vt 0.4065110385417938 0.4065852165222168
vt 0.4065110385417938 0.18027758598327637
vt 0.0020002550445497036 0.9979998795315623
vt 0.4065110385417938 0.9979999780189246
vt 0.0020002550445497036 0.18027788400650024
vt 1.6670664548873901 0.9979998795315623
vt 1.6646257638931274 0.8344555050134659
vt 1.5108212232589722 0.5073667466640472
vt 1.6448982954025269 0.6709111034870148
vt 1.5801998376846313 0.5278097689151764
vt 1.5108212232589722 0.3438223600387573
vt 1.4579143524169922 0.1802780032157898
vt 0.8580445051193237 0.4065852165222168
vt 0.5140990614891052 0.1802780032157898
vt 0.8580445051193237 0.1802780032157898
vt 0.5140990614891052 0.9979999286588281
vt 0.8580445051193237 0.9979998795315623
vt 1.0597025156021118 0.1802780032157898
vt 1.0597025156021118 0.3003295660018921
vt 1.2625559568405151 0.4065852165222168
vt 1.2625559568405151 0.18027758598327637
vt 1.6670664548873901 0.18027788400650024
vt 1.2625559568405151 0.9979999780189246
vt 1.6670664548873901 0.9979998795315623
vt 0.21115225553512573 0.1802780032157898
vt 0.15824533998966217 0.3438223600387573
vt 0.15824533998966217 0.5073667466640472
vt 0.08886668086051941 0.5278097689151764
vt 0.024168120697140694 0.6709111034870148
vt 0.004440801218152046 0.8344555497169495
vt 0.0020000082440674305 0.9979999286588281
vt 0.6826831698417664 0.9979998581111431
vt 0.6826831698417664 0.0030307769775390625
vt 0.6826831698417664 0.27839189767837524
vt 0.22475841641426086 0.0030307769775390625
vt 0.20184731483459473 0.20202457904815674
vt 0.20184731483459473 0.3015214800834656
vt 0.13126297295093536 0.4010183811187744
vt 0.13126297295093536 0.5751380026340485
vt 0.07563365995883942 0.6000122129917145
vt 0.0020001584198325872 0.7990060448646545
vt 0.0020001584198325872 0.9979998581111431
vt 0.9280520081520081 0.0030307769775390625
vt 0.9280514121055603 0.1491045355796814
vt 1.1748749017715454 0.27839183807373047
vt 1.1748749017715454 0.0030303001403808594
vt 1.6670663356781006 0.9979998581111431
vt 1.6670663356781006 0.0030305981636047363
vt 1.1748749017715454 0.9979999780189246
vt 0.9863835573196411 0.27839183807373047
vt 1.6670664548873901 0.9979999181814492
vt 0.9863835573196411 0.9979998581111431
vt 1.5378037691116333 0.5751380324363708
vt 1.5934330224990845 0.6000122725963593
vt 1.6670664548873901 0.7990061044692993
vt 1.4672194719314575 0.3015214800834656
vt 1.5378037691116333 0.4010183811187744
vt 1.4672194719314575 0.20202457904815674
vt 1.4443082809448242 0.0030307769775390625
vt 0.9863835573196411 0.0030307769775390625
vt 0.7410146594047546 0.0030307769775390625
vt 0.7410146594047546 0.14910447597503662
vt 0.49419116973876953 0.27839183807373047
vt 0.49419116973876953 0.0030303001403808594
vt 0.0020000082440674305 0.0030305981636047363
vt 0.49419116973876953 0.9979999780189246
vt 0.0020000082440674305 0.9979998581111431
vt 0.11199259012937546 0.24619078636169434
vt 0.004204991739243269 0.3445703983306885
vt 0.09206802397966385 0.3449134826660156
vt 0.030817706137895584 0.2127089500427246
vt 0.1687329113483429 0.16249775886535645
vt 0.10660440474748611 0.10092222690582275
vt 0.2536509037017822 0.1065758466720581
vt 0.22002719342708588 0.026228785514831543
vt 0.35381850600242615 0.08693873882293701
vt 0.35381850600242615 0.0
vt 0.09168150275945663 1.0
vt 0.0038184255827218294 1.0
vt 0.2536134421825409 0.1065758466720581
vt 0.3537810146808624 0.0
vt 0.3537810146808624 0.08693873882293701
vt 0.21998970210552216 0.026228785514831543
vt 0.16869546473026276 0.16249775886535645
vt 0.10656695812940598 0.10092222690582275
vt 0.11195514351129532 0.24619078636169434
vt 0.030780324712395668 0.2127089500427246
vt 0.09203057736158371 0.3449134826660156
vt 0.004167567938566208 0.3445702791213989
vt 0.003781043691560626 1.0
vt 0.0916440561413765 1.0
vt 0.3216506838798523 0.9013730213046074
vt 0.5272883176803589 0.9974949329625815
vt 0.3216506838798523 0.9974949329625815
vt 0.5272883176803589 0.9013730213046074
vt 0.3216506242752075 0.8052511811256409
vt 0.5272883176803589 0.9013730213046074
vt 0.3216506242752075 0.9013730213046074
vt 0.5272883176803589 0.8052512407302856
vt 0.3216506838798523 0.7091293334960938
vt 0.5272883176803589 0.8052512407302856
vt 0.3216506242752075 0.8052511811256409
vt 0.5272883176803589 0.7091293334960938
vt 0.5272883176803589 0.8052511215209961
vt 0.3216506242752075 0.709129273891449
vt 0.5272883176803589 0.7091292142868042
vt 0.3216506838798523 0.8052511811256409
vt 0.5272883176803589 0.9013730213046074
vt 0.3216506838798523 0.8052511811256409
vt 0.5272883176803589 0.8052511215209961
vt 0.3216506838798523 0.9013730213046074
vt 0.5272883176803589 0.9974949329625815
vt 0.3216506838798523 0.9013730213046074
vt 0.5272883176803589 0.9013730213046074
vt 0.3216506838798523 0.9974949925672263
vt 0.0916440561413765 1.0000000596046448
vt 0.00416752602905035 0.3445702791213989
vt 0.0037810017820447683 1.0000000596046448
vt 0.0920305997133255 0.3449134826660156
vt 0.030780324712395668 0.2127089500427246
vt 0.11195514351129532 0.24619078636169434
vt 0.10656698048114777 0.1009223461151123
vt 0.16869549453258514 0.16249775886535645
vt 0.21998967230319977 0.026228785514831543
vt 0.2536133825778961 0.1065758466720581
vt 0.35378098487854004 0.0
vt 0.35378098487854004 0.08693873882293701
vt 0.10399740934371948 0.9979999999050051
vt 0.30963507294654846 0.3442007899284363
vt 0.3096349537372589 0.9979999999050051
vt 0.10399740934371948 0.3442007899284363
vt 0.003818509168922901 1.0000000596046448
vt 0.09206811338663101 0.3449134826660156
vt 0.09168154746294022 1.0000000596046448
vt 0.004205033183097839 0.3445703983306885
vt 0.11199263483285904 0.24619078636169434
vt 0.0308177899569273 0.2127089500427246
vt 0.16873300075531006 0.16249775886535645
vt 0.10660449415445328 0.1009223461151123
vt 0.2536509335041046 0.1065758466720581
vt 0.22002722322940826 0.026228785514831543
vt 0.35381850600242615 0.08693873882293701
vt 0.35381850600242615 0.0
vt 0.10399746894836426 0.9979999999050051
vt 0.30963507294654846 0.3442007899284363
vt 0.30963507294654846 0.9979999999050051
vt 0.10399746894836426 0.34420084953308105
vt 0.36389413475990295 0.6919202506542206
vt 0.3291018605232239 0.5827049612998962
vt 0.36389413475990295 0.5827049612998962
vt 0.3291018605232239 0.6919202506542206
vt 0.36389413475990295 0.5827049612998962
vt 0.3291018605232239 0.6919202506542206
vt 0.36389413475990295 0.6919202506542206
vt 0.3291018605232239 0.5827049612998962
vt 0.36389413475990295 0.5827049612998962
vt 0.3291018605232239 0.4734896421432495
vt 0.36389413475990295 0.4734896421432495
vt 0.3291018605232239 0.5827049612998962
vt 0.36389413475990295 0.4734897017478943
vt 0.3291018605232239 0.5827049612998962
vt 0.36389413475990295 0.5827049612998962
vt 0.3291018605232239 0.4734897017478943
vt 0.36389413475990295 0.4734896421432495
vt 0.3291018605232239 0.36427438259124756
vt 0.36389413475990295 0.36427438259124756
vt 0.3291018605232239 0.4734896421432495
vt 0.36389413475990295 0.36427438259124756
vt 0.3291018605232239 0.4734897017478943
vt 0.36389413475990295 0.4734897017478943
vt 0.3291018605232239 0.36427438259124756
vt 0.36389413475990295 0.36427438259124756
vt 0.3291018605232239 0.25505900382995605
vt 0.36389413475990295 0.25505900382995605
vt 0.3291018605232239 0.36427438259124756
vt 0.36389413475990295 0.25505900382995605
vt 0.3291018605232239 0.36427438259124756
vt 0.36389413475990295 0.36427438259124756
vt 0.3291018605232239 0.25505900382995605
vt 0.3641487658023834 0.25505900382995605
vt 0.32935649156570435 0.36427438259124756
vt 0.3641487658023834 0.36427438259124756
vt 0.32935649156570435 0.25505900382995605
vt 0.32935652136802673 0.36427438259124756
vt 0.3641487956047058 0.25505900382995605
vt 0.32935652136802673 0.25505900382995605
vt 0.3641487956047058 0.36427438259124756
vt 0.3641487658023834 0.36427438259124756
vt 0.32935649156570435 0.47348958253860474
vt 0.3641487658023834 0.47348958253860474
vt 0.32935649156570435 0.36427438259124756
vt 0.36389413475990295 0.4734896421432495
vt 0.3641487956047058 0.36427438259124756
vt 0.32935652136802673 0.36427438259124756
vt 0.3641487956047058 0.36427438259124756
vt 0.36389413475990295 0.4734896421432495
vt 0.3291018605232239 0.4734896421432495
vt 0.3641487658023834 0.47348958253860474
vt 0.32935649156570435 0.5827049016952515
vt 0.3641487658023834 0.5827049016952515
vt 0.32935649156570435 0.47348958253860474
vt 0.36389413475990295 0.5827049016952515
vt 0.3291018605232239 0.4734896421432495
vt 0.36389413475990295 0.4734896421432495
vt 0.3291018605232239 0.5827049016952515
vt 0.3641487658023834 0.5827049016952515
vt 0.32935649156570435 0.691920131444931
vt 0.3641487658023834 0.691920131444931
vt 0.32935649156570435 0.5827049016952515
vt 0.36389413475990295 0.691920131444931
vt 0.3291018605232239 0.5827049016952515
vt 0.36389413475990295 0.5827049016952515
vt 0.3291018605232239 0.691920131444931
vt 0.13289165496826172 0.9983037952333689
vt 0.10448980331420898 0.34571295976638794
vt 0.13289165496826172 0.34571295976638794
vt 0.10448980331420898 0.9983037952333689
vt 0.13309955596923828 0.34571295976638794
vt 0.10469770431518555 0.9983037952333689
vt 0.13309955596923828 0.9983037952333689
vt 0.10469770431518555 0.34571295976638794
vt 0.13289165496826172 0.9983037952333689
vt 0.10448980331420898 0.3457130789756775
vt 0.13289165496826172 0.3457130789756775
vt 0.10448980331420898 0.9983037952333689
vt 0.13309955596923828 0.3457130789756775
vt 0.10469770431518555 0.9983037952333689
vt 0.13309955596923828 0.9983037952333689
vt 0.10469770431518555 0.3457130789756775
vt 0.11199259012937546 0.24619078636169434
vt 0.004204991739243269 0.3445703983306885
vt 0.030817706137895584 0.2127089500427246
vt 0.09206802397966385 0.3449134826660156
vt 0.1687329113483429 0.16249775886535645
vt 0.10660440474748611 0.10092222690582275
vt 0.2536509037017822 0.1065758466720581
vt 0.22002719342708588 0.026228785514831543
vt 0.35381850600242615 0.08693873882293701
vt 0.35381850600242615 0.0
vt 0.09168150275945663 1.0
vt 0.0038184255827218294 1.0
vt 0.2536134421825409 0.1065758466720581
vt 0.3537810146808624 0.0
vt 0.21998970210552216 0.026228785514831543
vt 0.3537810146808624 0.08693873882293701
vt 0.16869546473026276 0.16249775886535645
vt 0.10656695812940598 0.10092222690582275
vt 0.11195514351129532 0.24619078636169434
vt 0.030780324712395668 0.2127089500427246
vt 0.09203057736158371 0.3449134826660156
vt 0.004167567938566208 0.3445702791213989
vt 0.003781043691560626 1.0
vt 0.0916440561413765 1.0
vt 0.3216506838798523 0.9013730213046074
vt 0.5272883176803589 0.9974949329625815
vt 0.5272883176803589 0.9013730213046074
vt 0.3216506838798523 0.9974949329625815
vt 0.3216506242752075 0.8052511811256409
vt 0.5272883176803589 0.9013730213046074
vt 0.5272883176803589 0.8052512407302856
vt 0.3216506242752075 0.9013730213046074
vt 0.3216506838798523 0.7091293334960938
vt 0.5272883176803589 0.8052512407302856
vt 0.5272883176803589 0.7091293334960938
vt 0.3216506242752075 0.8052511811256409
vt 0.5272883176803589 0.8052511215209961
vt 0.3216506242752075 0.709129273891449
vt 0.3216506838798523 0.8052511811256409
vt 0.5272883176803589 0.7091292142868042
vt 0.5272883176803589 0.9013730213046074
vt 0.3216506838798523 0.8052511811256409
vt 0.3216506838798523 0.9013730213046074
vt 0.5272883176803589 0.8052511215209961
vt 0.5272883176803589 0.9974949329625815
vt 0.3216506838798523 0.9013730213046074
vt 0.3216506838798523 0.9974949925672263
vt 0.5272883176803589 0.9013730213046074
vt 0.0916440561413765 1.0000000596046448
vt 0.00416752602905035 0.3445702791213989
vt 0.0920305997133255 0.3449134826660156
vt 0.0037810017820447683 1.0000000596046448
vt 0.030780324712395668 0.2127089500427246
vt 0.11195514351129532 0.24619078636169434
vt 0.10656698048114777 0.1009223461151123
vt 0.16869549453258514 0.16249775886535645
vt 0.21998967230319977 0.026228785514831543
vt 0.2536133825778961 0.1065758466720581
vt 0.35378098487854004 0.0
vt 0.35378098487854004 0.08693873882293701
vt 0.10399740934371948 0.9979999999050051
vt 0.30963507294654846 0.3442007899284363
vt 0.10399740934371948 0.3442007899284363
vt 0.3096349537372589 0.9979999999050051
vt 0.003818509168922901 1.0000000596046448
vt 0.09206811338663101 0.3449134826660156
vt 0.004205033183097839 0.3445703983306885
vt 0.09168154746294022 1.0000000596046448
vt 0.11199263483285904 0.24619078636169434
vt 0.0308177899569273 0.2127089500427246
vt 0.16873300075531006 0.16249775886535645
vt 0.10660449415445328 0.1009223461151123
vt 0.2536509335041046 0.1065758466720581
vt 0.22002722322940826 0.026228785514831543
vt 0.35381850600242615 0.08693873882293701
vt 0.35381850600242615 0.0
vt 0.10399746894836426 0.9979999999050051
vt 0.30963507294654846 0.3442007899284363
vt 0.10399746894836426 0.34420084953308105
vt 0.30963507294654846 0.9979999999050051
vt 0.36389413475990295 0.6919202506542206
vt 0.3291018605232239 0.5827049612998962
vt 0.3291018605232239 0.6919202506542206
vt 0.36389413475990295 0.5827049612998962
vt 0.36389413475990295 0.5827049612998962
vt 0.3291018605232239 0.6919202506542206
vt 0.3291018605232239 0.5827049612998962
vt 0.36389413475990295 0.6919202506542206
vt 0.36389413475990295 0.5827049612998962
vt 0.3291018605232239 0.4734896421432495
vt 0.3291018605232239 0.5827049612998962
vt 0.36389413475990295 0.4734896421432495
vt 0.36389413475990295 0.4734897017478943
vt 0.3291018605232239 0.5827049612998962
vt 0.3291018605232239 0.4734897017478943
vt 0.36389413475990295 0.5827049612998962
vt 0.36389413475990295 0.4734896421432495
vt 0.3291018605232239 0.36427438259124756
vt 0.3291018605232239 0.4734896421432495
vt 0.36389413475990295 0.36427438259124756
vt 0.36389413475990295 0.36427438259124756
vt 0.3291018605232239 0.4734897017478943
vt 0.3291018605232239 0.36427438259124756
vt 0.36389413475990295 0.4734897017478943
vt 0.36389413475990295 0.36427438259124756
vt 0.3291018605232239 0.25505900382995605
vt 0.3291018605232239 0.36427438259124756
vt 0.36389413475990295 0.25505900382995605
vt 0.36389413475990295 0.25505900382995605
vt 0.3291018605232239 0.36427438259124756
vt 0.3291018605232239 0.25505900382995605
vt 0.36389413475990295 0.36427438259124756
vt 0.3641487658023834 0.25505900382995605
vt 0.32935649156570435 0.36427438259124756
vt 0.32935649156570435 0.25505900382995605
vt 0.3641487658023834 0.36427438259124756
vt 0.32935652136802673 0.36427438259124756
vt 0.3641487956047058 0.25505900382995605
vt 0.3641487956047058 0.36427438259124756
vt 0.32935652136802673 0.25505900382995605
vt 0.3641487658023834 0.36427438259124756
vt 0.32935649156570435 0.47348958253860474
vt 0.32935649156570435 0.36427438259124756
vt 0.3641487658023834 0.47348958253860474
vt 0.36389413475990295 0.4734896421432495
vt 0.3641487956047058 0.36427438259124756
vt 0.3291018605232239 0.4734896421432495
vt 0.3641487956047058 0.36427438259124756
vt 0.36389413475990295 0.4734896421432495
vt 0.32935652136802673 0.36427438259124756
vt 0.3641487658023834 0.47348958253860474
vt 0.32935649156570435 0.5827049016952515
vt 0.32935649156570435 0.47348958253860474
vt 0.3641487658023834 0.5827049016952515
vt 0.36389413475990295 0.5827049016952515
vt 0.3291018605232239 0.4734896421432495
vt 0.3291018605232239 0.5827049016952515
vt 0.36389413475990295 0.4734896421432495
vt 0.3641487658023834 0.5827049016952515
vt 0.32935649156570435 0.691920131444931
vt 0.32935649156570435 0.5827049016952515
vt 0.3641487658023834 0.691920131444931
vt 0.36389413475990295 0.691920131444931
vt 0.3291018605232239 0.5827049016952515
vt 0.3291018605232239 0.691920131444931
vt 0.36389413475990295 0.5827049016952515
vt 0.13289165496826172 0.9983037952333689
vt 0.10448980331420898 0.34571295976638794
vt 0.10448980331420898 0.9983037952333689
vt 0.13289165496826172 0.34571295976638794
vt 0.13309955596923828 0.34571295976638794
vt 0.10469770431518555 0.9983037952333689
vt 0.10469770431518555 0.34571295976638794
vt 0.13309955596923828 0.9983037952333689
vt 0.13289165496826172 0.9983037952333689
vt 0.10448980331420898 0.3457130789756775
vt 0.10448980331420898 0.9983037952333689
vt 0.13289165496826172 0.3457130789756775
vt 0.13309955596923828 0.3457130789756775
vt 0.10469770431518555 0.9983037952333689
vt 0.10469770431518555 0.3457130789756775
vt 0.13309955596923828 0.9983037952333689
vt 0.7484737038612366 0.7129362523555756
vt 0.5964038372039795 0.7996947318315506
vt 0.5964038372039795 0.7129362225532532
vt 0.7484737038612366 0.7996947467327118
vt 0.5964038372039795 0.8988473266363144
vt 0.7484737038612366 0.8988473564386368
vt 0.5964038372039795 0.9979999326169491
vt 0.7484737038612366 0.9979999654460698
vt 0.7484737038612366 0.7005421817302704
vt 0.5964038372039795 0.700542151927948
vt 0.7484737038612366 0.6013895571231842
vt 0.5964038372039795 0.6013895273208618
vt 0.7484737038612366 0.5022369623184204
vt 0.5964038372039795 0.5022369623184204
vt 0.7497910857200623 0.787680596113205
vt 0.5977285504341125 0.8000523298978806
vt 0.5977285504341125 0.7876806110143661
vt 0.7497910857200623 0.8000523149967194
vt 0.5977285504341125 0.8990260884165764
vt 0.7497910857200623 0.899026095867157
vt 0.7497910857200623 0.9979998413473368
vt 0.5977285504341125 0.9979998711496592
vt 0.7497910857200623 0.7010785639286041
vt 0.5977285504341125 0.7010785639286041
vt 0.7497910857200623 0.6515916585922241
vt 0.5977285504341125 0.6515916585922241
vt 0.7497910857200623 0.6021047830581665
vt 0.5977285504341125 0.6021047830581665
vt 0.7497910857200623 0.5031310617923737
vt 0.5977285504341125 0.5031310617923737

g bg_mdl_map_kabe01
s 1
usemtl bg_mdl_map_kabe01_0
f 3/3/3 2/2/2 1/1/1 
f 2/2/2 4/4/4 1/1/1 
f 4/4/4 5/5/5 1/1/1 
f 2/2/2 6/6/6 4/4/4 
f 7/7/7 4/4/4 6/6/6 
f 7/7/7 6/6/6 8/8/8 
f 9/9/9 8/8/8 6/6/6 
f 8/8/8 9/9/9 10/10/10 
f 11/11/11 8/8/8 10/10/10 
f 9/9/9 12/12/12 10/10/10 
f 1/1/1 13/13/13 3/3/3 
f 13/13/13 14/14/14 3/3/3 
f 14/14/14 15/15/15 3/3/3 
f 16/16/16 15/15/15 14/14/14 
f 17/17/17 15/15/15 16/16/16 
f 15/15/15 18/18/18 3/3/3 
f 18/18/18 19/19/19 3/3/3 
f 22/22/22 21/21/21 20/20/20 
f 21/21/21 23/23/23 20/20/20 
f 23/23/23 24/24/24 20/20/20 
f 22/22/22 20/20/20 25/25/25 
f 26/26/26 25/25/25 20/20/20 
f 26/26/26 27/27/27 25/25/25 
f 28/28/28 25/25/25 27/27/27 
f 28/28/28 27/27/27 29/29/29 
f 27/27/27 30/30/30 29/29/29 
f 30/30/30 31/31/31 29/29/29 
f 21/21/21 32/32/32 23/23/23 
f 32/32/32 33/33/33 23/23/23 
f 33/33/33 34/34/34 23/23/23 
f 34/34/34 35/35/35 23/23/23 
f 35/35/35 36/36/36 23/23/23 
f 36/36/36 37/37/37 23/23/23 
f 37/37/37 38/38/38 23/23/23 
f 41/41/41 40/40/40 39/39/39 
f 40/40/40 42/42/42 39/39/39 
f 42/42/42 43/43/43 39/39/39 
f 43/43/43 44/44/44 39/39/39 
f 44/44/44 45/45/45 39/39/39 
f 45/45/45 46/46/46 39/39/39 
f 46/46/46 47/47/47 39/39/39 
f 47/47/47 48/48/48 39/39/39 
f 48/48/48 49/49/49 39/39/39 
f 40/40/40 41/41/41 50/50/50 
f 51/51/51 50/50/50 41/41/41 
f 51/51/51 52/52/52 50/50/50 
f 53/53/53 50/50/50 52/52/52 
f 53/53/53 52/52/52 54/54/54 
f 55/55/55 53/53/53 54/54/54 
f 52/52/52 56/56/56 54/54/54 
f 59/59/59 58/58/58 57/57/57 
f 58/58/58 60/60/60 57/57/57 
f 61/61/61 60/60/60 58/58/58 
f 62/62/62 61/61/61 58/58/58 
f 60/60/60 63/63/63 57/57/57 
f 64/64/64 63/63/63 60/60/60 
f 63/63/63 65/65/65 57/57/57 
f 65/65/65 66/66/66 57/57/57 
f 66/66/66 67/67/67 57/57/57 
f 67/67/67 68/68/68 57/57/57 
f 69/69/69 57/57/57 68/68/68 
f 69/69/69 68/68/68 70/70/70 
f 71/71/71 70/70/70 68/68/68 
f 70/70/70 71/71/71 72/72/72 
f 73/73/73 70/70/70 72/72/72 
f 74/74/74 73/73/73 72/72/72 

usemtl bg_mdl_map_kabe01_1
f 77/77/77 76/76/76 75/75/75 
f 78/78/78 75/75/75 76/76/76 
f 75/75/75 78/78/78 79/79/79 
f 80/80/80 79/79/79 78/78/78 
f 79/79/79 80/80/80 81/81/81 
f 82/82/82 81/81/81 80/80/80 
f 81/81/81 82/82/82 83/83/83 
f 84/84/84 83/83/83 82/82/82 
f 77/77/77 85/85/85 76/76/76 
f 86/86/86 76/76/76 85/85/85 
f 89/89/89 88/88/88 87/87/87 
f 90/90/90 87/87/87 88/88/88 
f 87/87/87 90/90/90 91/91/91 
f 92/92/92 91/91/91 90/90/90 
f 91/91/91 92/92/92 93/93/93 
f 94/94/94 93/93/93 92/92/92 
f 93/93/93 94/94/94 95/95/95 
f 96/96/96 95/95/95 94/94/94 
f 96/96/96 97/97/97 95/95/95 
f 98/98/98 95/95/95 97/97/97 
f 101/101/101 100/100/100 99/99/99 
f 102/102/102 99/99/99 100/100/100 
f 105/105/105 104/104/104 103/103/103 
f 106/106/106 103/103/103 104/104/104 
f 109/109/109 108/108/108 107/107/107 
f 110/110/110 107/107/107 108/108/108 
f 113/113/113 112/112/112 111/111/111 
f 114/114/114 111/111/111 112/112/112 
f 117/117/117 116/116/116 115/115/115 
f 118/118/118 115/115/115 116/116/116 
f 121/121/121 120/120/120 119/119/119 
f 122/122/122 119/119/119 120/120/120 
f 125/125/125 124/124/124 123/123/123 
f 126/126/126 123/123/123 124/124/124 
f 124/124/124 127/127/127 126/126/126 
f 128/128/128 126/126/126 127/127/127 
f 127/127/127 129/129/129 128/128/128 
f 130/130/130 128/128/128 129/129/129 
f 129/129/129 131/131/131 130/130/130 
f 132/132/132 130/130/130 131/131/131 
f 131/131/131 133/133/133 132/132/132 
f 134/134/134 132/132/132 133/133/133 
f 137/137/137 136/136/136 135/135/135 
f 138/138/138 135/135/135 136/136/136 
f 141/141/141 140/140/140 139/139/139 
f 142/142/142 139/139/139 140/140/140 
f 140/140/140 143/143/143 142/142/142 
f 144/144/144 142/142/142 143/143/143 
f 143/143/143 145/145/145 144/144/144 
f 146/146/146 144/144/144 145/145/145 
f 145/145/145 147/147/147 146/146/146 
f 148/148/148 146/146/146 147/147/147 
f 147/147/147 149/149/149 148/148/148 
f 150/150/150 148/148/148 149/149/149 
f 153/153/153 152/152/152 151/151/151 
f 154/154/154 151/151/151 152/152/152 
f 157/157/157 156/156/156 155/155/155 
f 158/158/158 155/155/155 156/156/156 
f 161/161/161 160/160/160 159/159/159 
f 162/162/162 159/159/159 160/160/160 
f 165/165/165 164/164/164 163/163/163 
f 166/166/166 163/163/163 164/164/164 
f 169/169/169 168/168/168 167/167/167 
f 170/170/170 167/167/167 168/168/168 
f 173/173/173 172/172/172 171/171/171 
f 174/174/174 171/171/171 172/172/172 
f 177/177/177 176/176/176 175/175/175 
f 178/178/178 175/175/175 176/176/176 
f 181/181/181 180/180/180 179/179/179 
f 182/182/182 179/179/179 180/180/180 
f 185/185/185 184/184/184 183/183/183 
f 186/186/186 183/183/183 184/184/184 
f 189/189/189 188/188/188 187/187/187 
f 190/190/190 187/187/187 188/188/188 
f 193/193/193 192/192/192 191/191/191 
f 194/194/194 191/191/191 192/192/192 
f 197/197/197 196/196/196 195/195/195 
f 198/198/198 195/195/195 196/196/196 
f 201/201/201 200/200/200 199/199/199 
f 204/204/204 203/203/203 202/202/202 
f 207/207/207 206/206/206 205/205/205 
f 208/208/208 205/205/205 206/206/206 
f 211/211/211 210/210/210 209/209/209 
f 212/212/212 209/209/209 210/210/210 
f 215/215/215 214/214/214 213/213/213 
f 216/216/216 213/213/213 214/214/214 
f 219/219/219 218/218/218 217/217/217 
f 220/220/220 217/217/217 218/218/218 
f 223/223/223 222/222/222 221/221/221 
f 224/224/224 221/221/221 222/222/222 
f 227/227/227 226/226/226 225/225/225 
f 228/228/228 225/225/225 226/226/226 
f 231/231/231 230/230/230 229/229/229 
f 232/232/232 229/229/229 230/230/230 
f 235/235/235 234/234/234 233/233/233 
f 236/236/236 233/233/233 234/234/234 
f 239/239/239 238/238/238 237/237/237 
f 240/240/240 237/237/237 238/238/238 
f 237/237/237 241/241/241 239/239/239 
f 242/242/242 239/239/239 241/241/241 
f 241/241/241 243/243/243 242/242/242 
f 244/244/244 242/242/242 243/243/243 
f 243/243/243 245/245/245 244/244/244 
f 246/246/246 244/244/244 245/245/245 
f 240/240/240 238/238/238 247/247/247 
f 248/248/248 247/247/247 238/238/238 
f 251/251/251 250/250/250 249/249/249 
f 252/252/252 249/249/249 250/250/250 
f 249/249/249 253/253/253 251/251/251 
f 254/254/254 251/251/251 253/253/253 
f 253/253/253 255/255/255 254/254/254 
f 256/256/256 254/254/254 255/255/255 
f 255/255/255 257/257/257 256/256/256 
f 258/258/258 256/256/256 257/257/257 
f 258/258/258 257/257/257 259/259/259 
f 260/260/260 259/259/259 257/257/257 
f 263/263/263 262/262/262 261/261/261 
f 264/264/264 261/261/261 262/262/262 
f 267/267/267 266/266/266 265/265/265 
f 268/268/268 265/265/265 266/266/266 
f 271/271/271 270/270/270 269/269/269 
f 272/272/272 269/269/269 270/270/270 
f 275/275/275 274/274/274 273/273/273 
f 276/276/276 273/273/273 274/274/274 
f 279/279/279 278/278/278 277/277/277 
f 280/280/280 277/277/277 278/278/278 
f 283/283/283 282/282/282 281/281/281 
f 284/284/284 281/281/281 282/282/282 
f 287/287/287 286/286/286 285/285/285 
f 288/288/288 285/285/285 286/286/286 
f 286/286/286 287/287/287 289/289/289 
f 290/290/290 289/289/289 287/287/287 
f 289/289/289 290/290/290 291/291/291 
f 292/292/292 291/291/291 290/290/290 
f 291/291/291 292/292/292 293/293/293 
f 294/294/294 293/293/293 292/292/292 
f 293/293/293 294/294/294 295/295/295 
f 296/296/296 295/295/295 294/294/294 
f 299/299/299 298/298/298 297/297/297 
f 300/300/300 297/297/297 298/298/298 
f 303/303/303 302/302/302 301/301/301 
f 304/304/304 301/301/301 302/302/302 
f 302/302/302 303/303/303 305/305/305 
f 306/306/306 305/305/305 303/303/303 
f 305/305/305 306/306/306 307/307/307 
f 308/308/308 307/307/307 306/306/306 
f 307/307/307 308/308/308 309/309/309 
f 310/310/310 309/309/309 308/308/308 
f 309/309/309 310/310/310 311/311/311 
f 312/312/312 311/311/311 310/310/310 
f 315/315/315 314/314/314 313/313/313 
f 316/316/316 313/313/313 314/314/314 
f 319/319/319 318/318/318 317/317/317 
f 320/320/320 317/317/317 318/318/318 
f 323/323/323 322/322/322 321/321/321 
f 324/324/324 321/321/321 322/322/322 
f 327/327/327 326/326/326 325/325/325 
f 328/328/328 325/325/325 326/326/326 
f 331/331/331 330/330/330 329/329/329 
f 332/332/332 329/329/329 330/330/330 
f 335/335/335 334/334/334 333/333/333 
f 336/336/336 333/333/333 334/334/334 
f 339/339/339 338/338/338 337/337/337 
f 340/340/340 337/337/337 338/338/338 
f 343/343/343 342/342/342 341/341/341 
f 344/344/344 341/341/341 342/342/342 
f 347/347/347 346/346/346 345/345/345 
f 348/348/348 345/345/345 346/346/346 
f 351/351/351 350/350/350 349/349/349 
f 352/352/352 349/349/349 350/350/350 
f 355/355/355 354/354/354 353/353/353 
f 356/356/356 353/353/353 354/354/354 
f 359/359/359 358/358/358 357/357/357 
f 360/360/360 357/357/357 358/358/358 
f 363/363/363 362/362/362 361/361/361 
f 366/366/366 365/365/365 364/364/364 
f 369/369/369 368/368/368 367/367/367 
f 370/370/370 367/367/367 368/368/368 
f 373/373/373 372/372/372 371/371/371 
f 374/374/374 371/371/371 372/372/372 
f 377/377/377 376/376/376 375/375/375 
f 378/378/378 375/375/375 376/376/376 
f 381/381/381 380/380/380 379/379/379 
f 382/382/382 379/379/379 380/380/380 
f 385/385/385 384/384/384 383/383/383 
f 386/386/386 383/383/383 384/384/384 
f 389/389/389 388/388/388 387/387/387 
f 390/390/390 387/387/387 388/388/388 
f 393/393/393 392/392/392 391/391/391 
f 394/394/394 391/391/391 392/392/392 
f 397/397/397 396/396/396 395/395/395 
f 398/398/398 395/395/395 396/396/396 

usemtl bg_mdl_map_kabe01_2
f 401/401/401 400/400/400 399/399/399 
f 402/402/402 399/399/399 400/400/400 
f 400/400/400 403/403/403 402/402/402 
f 404/404/404 402/402/402 403/403/403 
f 403/403/403 405/405/405 404/404/404 
f 406/406/406 404/404/404 405/405/405 
f 399/399/399 407/407/407 401/401/401 
f 408/408/408 401/401/401 407/407/407 
f 407/407/407 409/409/409 408/408/408 
f 410/410/410 408/408/408 409/409/409 
f 409/409/409 411/411/411 410/410/410 
f 412/412/412 410/410/410 411/411/411 
f 415/415/415 414/414/414 413/413/413 
f 416/416/416 413/413/413 414/414/414 
f 414/414/414 417/417/417 416/416/416 
f 418/418/418 416/416/416 417/417/417 
f 418/418/418 417/417/417 419/419/419 
f 420/420/420 419/419/419 417/417/417 
f 413/413/413 421/421/421 415/415/415 
f 422/422/422 415/415/415 421/421/421 
f 421/421/421 423/423/423 422/422/422 
f 424/424/424 422/422/422 423/423/423 
f 423/423/423 425/425/425 424/424/424 
f 426/426/426 424/424/424 425/425/425 
f 425/425/425 427/427/427 426/426/426 
f 428/428/428 426/426/426 427/427/427 

