v -0.31832584738731384 0.007645190227776766 0.4697459638118744
v 0.28718897700309753 -0.2022535800933838 -3.480376165043708e-07
v -0.25357142090797424 0.10995494574308395 -3.480376165043708e-07
v 0.22243478894233704 -0.3045632243156433 0.4697459638118744
v 0.10086199641227722 -0.3302409052848816 0.5551414489746094
v 0.010083930566906929 0.26105621457099915 -3.916929358638299e-07
v 0.010083877481520176 -0.3633602559566498 -2.607269493637432e-07
v 0.10086187720298767 0.29417556524276733 0.5551413893699646
v 0.19034504890441895 0.245136097073555 0.6260182857513428
v -0.25840622186660767 -0.19236405193805695 -3.480376165043708e-07
v 0.2823545038700104 0.11984378844499588 -3.480376165043708e-07
v -0.35041543841362 -0.06707194447517395 0.6260182857513428
v 0.07042983919382095 0.2609478831291199 0.3630163371562958
v -0.2482609897851944 -0.2638126611709595 0.22440242767333984
v 0.1066465899348259 -0.15548622608184814 0.4725009799003601
v 0.19822007417678833 0.2495681643486023 0.3618013560771942
v -0.32771652936935425 -0.2168423980474472 0.27278709411621094
v -0.2859072685241699 0.2810710668563843 0.32620880007743835
v -0.30852022767066956 -0.27087050676345825 0.1799052506685257
v -0.12924109399318695 0.1333494931459427 0.2641006112098694
v 0.23735801875591278 0.036922138184309006 0.08235371112823486
v -0.30852022767066956 -0.27087050676345825 0.1799052506685257
v 0.23735801875591278 0.036922138184309006 0.08235371112823486
v 0.13434498012065887 -0.4126686751842499 0.2165665179491043
v 0.07557865977287292 -0.3079615831375122 0.08889910578727722
v -0.2982717752456665 -0.15195171535015106 0.2750585973262787
v -0.2519250214099884 0.22761797904968262 0.11033795028924942
v 0.07557865977287292 -0.3079615831375122 0.08889910578727722
v -0.2519250214099884 0.22761797904968262 0.11033795028924942
v 0.213485985994339 0.13098447024822235 0.1305965930223465
vn -0.47830960154533386 -0.8284555077552795 -0.29134416580200195
vn -0.4783095419406891 -0.8284555077552795 -0.29134416580200195
vn -0.4783095419406891 -0.8284555077552795 -0.29134413599967957
vn -0.4783093333244324 -0.8284558057785034 -0.291343629360199
vn 0.981812059879303 -3.526990042246325e-07 -0.18985524773597717
vn 0.981812059879303 -3.268894772645581e-07 -0.18985527753829956
vn 0.981812059879303 -3.268894772645581e-07 -0.18985527753829956
vn 0.9818121790885925 0.0 -0.1898549646139145
vn -0.4799734055995941 0.8313391804695129 -0.2801797389984131
vn -0.47997334599494934 0.8313391804695129 -0.2801797389984131
vn -0.47997334599494934 0.8313391804695129 -0.2801797389984131
vn -0.47997385263442993 0.8313391208648682 -0.28017932176589966
vn 0.5349979996681213 -0.13875406980514526 -0.8333812952041626
vn 0.5349979996681213 -0.13875406980514526 -0.8333812952041626
vn 0.5349979996681213 -0.13875408470630646 -0.8333812952041626
vn -0.06730769574642181 -0.08454600721597672 0.9941436648368835
vn -0.06730769574642181 -0.08454602211713791 0.9941436648368835
vn -0.06730769574642181 -0.08454600721597672 0.9941436648368835
vn 0.30275705456733704 -0.2939651310443878 0.9065995812416077
vn 0.30275699496269226 -0.29396510124206543 0.9065995812416077
vn 0.30275702476501465 -0.29396510124206543 0.9065995812416077
vn 0.009782319888472557 0.24264289438724518 0.9700663685798645
vn 0.00978232640773058 0.2426428645849228 0.9700663685798645
vn 0.009782313369214535 0.24264289438724518 0.9700663685798645
vn 0.46365660429000854 0.2547982931137085 0.8485873341560364
vn 0.46365660429000854 0.2547982931137085 0.8485873341560364
vn 0.46365660429000854 0.2547982931137085 0.8485873341560364
vn -0.0500456728041172 -0.06434011459350586 0.9966722726821899
vn -0.050045665353536606 -0.06434010714292526 0.9966722726821899
vn -0.050045665353536606 -0.06434010714292526 0.9966722726821899
vt 0.008818954229354858 0.50232994556427
vt 0.563163161277771 0.999999970197667
vt 0.008819133043289185 1.0000000139090517
vt 0.563163161277771 0.5023298263549805
vt 0.008818954229354858 0.0064688920974731445
vt 0.563163161277771 0.5041388869285583
vt 0.008819133043289185 0.5041389167308807
vt 0.563163161277771 0.006468772888183594
vt 0.008818954229354858 0.50232994556427
vt 0.563163161277771 0.999999970197667
vt 0.008819133043289185 1.0000000139090517
vt 0.563163161277771 0.5023298263549805
vt 1.00005042552948 0.553909420967102
vt 0.570906937122345 0.9999701743363403
vt 0.5709067583084106 0.5539095103740692
vt 0.570906937122345 0.9999701743363403
vt 1.00005042552948 0.553909420967102
vt 1.00005042552948 0.999970133358147
vt 1.00005042552948 0.10514473915100098
vt 0.5709067583084106 0.10514485836029053
vt 0.570906937122345 0.5512055158615112
vt 0.570906937122345 0.5512055158615112
vt 1.00005042552948 0.10514473915100098
vt 1.00005042552948 0.5512054860591888
vt 1.00005042552948 0.10514473915100098
vt 0.5709067583084106 0.10514485836029053
vt 0.570906937122345 0.5512055158615112
vt 0.570906937122345 0.5512055158615112
vt 1.00005042552948 0.10514473915100098
vt 1.00005042552948 0.5512054860591888

g bg_mdl_grass01_areti
s 1
usemtl bg_mdl_grass01_areti
f 3/3/3 2/2/2 1/1/1 
f 4/4/4 1/1/1 2/2/2 
f 7/7/7 6/6/6 5/5/5 
f 8/8/8 5/5/5 6/6/6 
f 11/11/11 10/10/10 9/9/9 
f 12/12/12 9/9/9 10/10/10 
f 15/15/15 14/14/14 13/13/13 
f 18/18/18 17/17/17 16/16/16 
f 21/21/21 20/20/20 19/19/19 
f 24/24/24 23/23/23 22/22/22 
f 27/27/27 26/26/26 25/25/25 
f 30/30/30 29/29/29 28/28/28 

