v -0.14588318765163422 -0.18034787476062775 0.9216330647468567
v -0.156166210770607 -0.039825763553380966 1.00800621509552
v -0.09637574851512909 -0.03982578590512276 1.233046293258667
v -0.09637574851512909 -0.18034791946411133 1.1343334913253784
v -0.03740103170275688 -0.03982580453157425 1.2597652673721313
v -0.03740101680159569 -0.18034791946411133 1.1610527038574219
v 0.08882631361484528 -0.03982578590512276 1.2243831157684326
v 0.08882629871368408 -0.18034791946411133 1.125670313835144
v 0.32848426699638367 -0.03982578590512276 1.2384449243545532
v 0.3284842371940613 -0.18034791946411133 1.1397322416305542
v -0.15616624057292938 0.10069635510444641 0.98184734582901
v -0.26968955993652344 -0.03982575982809067 0.9379405975341797
v -0.26968955993652344 0.10069635510444641 0.9117816686630249
v -0.39493170380592346 -0.039825763553380966 0.9022801518440247
v -0.39493170380592346 0.10069635510444641 0.8761214017868042
v -0.09637574851512909 0.10069631040096283 1.2068873643875122
v -0.03740105405449867 0.10069631040096283 1.2336063385009766
v 0.08882631361484528 0.10069631040096283 1.1982241868972778
v -0.26968955993652344 -0.18034787476062775 0.8392279148101807
v -0.39493170380592346 -0.18034787476062775 0.8035674095153809
v -0.4329252541065216 -0.003314986126497388 0.8135830760002136
v -0.4329252541065216 -0.18034791946411133 0.7678805589675903
v 0.32848426699638367 0.10069631040096283 1.2122859954833984
v 0.4091925024986267 0.10069633275270462 1.1576142311096191
v 0.4091925024986267 -0.04530730098485947 1.1199222803115845
v 0.4091925024986267 -0.18034785985946655 1.0850603580474854
v -0.4329252541065216 0.10069633275270462 0.8404344916343689
v 0.3284842371940613 -0.18034791946411133 1.1397322416305542
v 0.4091925024986267 -0.18034785985946655 1.0850603580474854
v 0.08882629871368408 -0.18034791946411133 1.125670313835144
v -0.09637574851512909 -0.18034791946411133 1.1343334913253784
v -0.14588318765163422 -0.18034787476062775 0.9216330647468567
v -0.26968955993652344 -0.18034787476062775 0.8392279148101807
v -0.4329252541065216 -0.18034791946411133 0.7678805589675903
v 0.42729508876800537 -0.18034785985946655 0.11307525634765625
v 0.39192602038383484 -0.18034788966178894 0.0020565998274832964
v -0.4659637212753296 -0.18034788966178894 0.0
v -0.39493170380592346 -0.18034787476062775 0.8035674095153809
v -0.03740101680159569 -0.18034791946411133 1.1610527038574219
v 0.39192602038383484 0.10069633275270462 0.0020565963350236416
v 0.42729508876800537 0.011351813562214375 0.13781967759132385
v 0.42729508876800537 0.10069633275270462 0.14935217797756195
v 0.4091925024986267 -0.04530730098485947 1.1199222803115845
v 0.4091925024986267 0.10069633275270462 1.1576142311096191
v 0.42729508876800537 -0.18034785985946655 0.11307525634765625
v 0.4091925024986267 -0.18034785985946655 1.0850603580474854
v 0.39192602038383484 -0.18034788966178894 0.0020565998274832964
v -0.4654857814311981 0.10069633275270462 0.009133685380220413
v -0.4659637212753296 0.10069633275270462 0.0
v 0.39192602038383484 0.10069633275270462 0.0020565963350236416
v 0.42729508876800537 0.10069633275270462 0.14935217797756195
v -0.4329252541065216 0.10069633275270462 0.8404344916343689
v 0.4091925024986267 0.10069633275270462 1.1576142311096191
v -0.26968955993652344 0.10069635510444641 0.9117816686630249
v -0.39493170380592346 0.10069635510444641 0.8761214017868042
v -0.15616624057292938 0.10069635510444641 0.98184734582901
v -0.09637574851512909 0.10069631040096283 1.2068873643875122
v 0.08882631361484528 0.10069631040096283 1.1982241868972778
v -0.03740105405449867 0.10069631040096283 1.2336063385009766
v 0.32848426699638367 0.10069631040096283 1.2122859954833984
v -0.4329252541065216 -0.003314986126497388 0.8135830760002136
v -0.4329252541065216 -0.18034791946411133 0.7678805589675903
v -0.4659637212753296 -0.18034788966178894 0.0
v -0.4659637212753296 0.10069633275270462 0.0
v -0.4654857814311981 0.10069633275270462 0.009133685380220413
v -0.4329252541065216 0.10069633275270462 0.8404344916343689
vn -0.6941660046577454 -0.4134466350078583 0.5892330408096313
vn -0.841376543045044 -0.12535908818244934 0.5257097482681274
vn -0.7095075249671936 -0.16294126212596893 0.6856014132499695
vn -0.7977359890937805 -0.3577094078063965 0.4854496121406555
vn -0.06948529183864594 -0.19659316539764404 0.9780198335647583
vn -0.07178474217653275 -0.5733355283737183 0.8161699771881104
vn 0.10880935937166214 -0.22045761346817017 0.9693084955215454
vn 0.08296120166778564 -0.5728370547294617 0.8154600858688354
vn 0.3368929326534271 -0.20155303180217743 0.9197170734405518
vn 0.38310179114341736 -0.47332581877708435 0.7932185530662537
vn -0.7772480249404907 0.11514928936958313 0.6185677647590637
vn -0.41234469413757324 -0.1993100643157959 0.8889585733413696
vn -0.39188146591186523 0.16837267577648163 0.9044774770736694
vn -0.5728854537010193 -0.1952647715806961 0.796036422252655
vn -0.4989869296550751 0.15859846770763397 0.8519732356071472
vn -0.7833719849586487 0.1137511357665062 0.6110557317733765
vn -0.07785715907812119 0.1824556589126587 0.980126678943634
vn 0.1033850610256195 0.18203029036521912 0.9778427481651306
vn -0.3309639096260071 -0.538205087184906 0.7751116752624512
vn -0.6483691930770874 -0.38752084970474243 0.655320405960083
vn -0.9005695581436157 -0.14758630096912384 0.4088921546936035
vn -0.8604859113693237 -0.21090909838676453 0.46376845240592957
vn 0.2709723711013794 0.17616400122642517 0.9463298916816711
vn 0.7023448944091797 0.006056749261915684 0.7118110656738281
vn 0.7468918561935425 -0.24553918838500977 0.6179507374763489
vn 0.6890162825584412 -0.3161270320415497 0.6521658897399902
vn -0.7989856600761414 0.04779989272356033 0.5994473695755005
vn -0.0 -1.0 0.0
vn -0.0 -1.0 0.0
vn -0.0 -1.0 0.0
vn -0.0 -1.0 0.0
vn -0.0 -1.0 0.0
vn -0.0 -1.0 0.0
vn -0.0 -1.0 0.0
vn -0.0 -1.0 0.0
vn -0.0 -1.0 0.0
vn -0.0 -1.0 0.0
vn -0.0 -1.0 0.0
vn -0.0 -1.0 0.0
vn 0.9661200642585754 0.01993734948337078 -0.2573215663433075
vn 0.9926509261131287 0.00825108215212822 -0.12073151767253876
vn 0.9950827360153198 0.011903716251254082 -0.09832935780286789
vn 0.9998273253440857 -0.003597583621740341 0.018231773748993874
vn 0.9998294115066528 -0.0037814313545823097 0.018079491332173347
vn 0.9902430176734924 0.0061721657402813435 -0.1392146795988083
vn 0.999824583530426 -0.003361624898388982 0.01842721551656723
vn 0.9625387787818909 0.014172859489917755 -0.2707734704017639
vn -0.0 1.0 0.0
vn -0.0 1.0 0.0
vn -0.0 1.0 0.0
vn -0.0 1.0 0.0
vn -0.0 1.0 0.0
vn -0.0 1.0 0.0
vn -0.0 1.0 0.0
vn -0.0 1.0 0.0
vn -0.0 1.0 0.0
vn -0.0 1.0 0.0
vn -0.0 1.0 0.0
vn -0.0 1.0 0.0
vn -0.0 1.0 0.0
vn -0.999164342880249 -0.007241445127874613 0.040225863456726074
vn -0.99913090467453 -0.003889068029820919 0.041501790285110474
vn -0.99913090467453 -0.0038890682626515627 0.04150179401040077
vn -0.99913090467453 -0.0038890682626515627 0.04150179401040077
vn -0.9991338849067688 -0.00414326461032033 0.04140505939722061
vn -0.9991827607154846 -0.01010334212332964 0.03913617134094238
vt 0.6628492474555969 0.5073646903038025
vt 0.6628492474555969 0.45383065938949585
vt 0.7921262979507446 0.45383065938949585
vt 0.7764657139778137 0.5073646903038025
vt 0.8199489712715149 0.45383065938949585
vt 0.804288387298584 0.5073646903038025
vt 0.8665756583213806 0.45383065938949585
vt 0.8665756583213806 0.5073646903038025
vt 0.9587833285331726 0.45383065938949585
vt 0.9587833285331726 0.5073646903038025
vt 0.6628492474555969 0.4002966284751892
vt 0.5997380614280701 0.45383065938949585
vt 0.5997380614280701 0.4002966284751892
vt 0.5406133532524109 0.45383065938949585
vt 0.5310429930686951 0.4002966284751892
vt 0.7921262979507446 0.4002966284751892
vt 0.8199490308761597 0.4002966284751892
vt 0.8665757179260254 0.4002966284751892
vt 0.5997380614280701 0.5073646903038025
vt 0.5310429930686951 0.5073646903038025
vt 0.49986809492111206 0.4399213194847107
vt 0.49986812472343445 0.5073646903038025
vt 0.9587833285331726 0.4002966284751892
vt 0.9961633682250977 0.4002966284751892
vt 0.9961633682250977 0.45591890811920166
vt 0.9961633682250977 0.5073646903038025
vt 0.49986812472343445 0.4002966284751892
vt 0.9518867135047913 0.5319337546825409
vt 0.9849334359169006 0.5574669241905212
vt 0.8537563681602478 0.5385009944438934
vt 0.777923583984375 0.5344550013542175
vt 0.7576523423194885 0.6337922811508179
vt 0.7069585919380188 0.6722778975963593
vt 0.6401202082633972 0.7055991888046265
vt 0.9923457503318787 0.9137922376394272
vt 0.9778634309768677 0.9656411297619343
vt 0.6265923380851746 0.9666016511619091
vt 0.6556770205497742 0.6889323592185974
vt 0.8020714521408081 0.5219763815402985
vt 0.982235848903656 0.2851371765136719
vt 0.928220808506012 0.31745243072509766
vt 0.9236324429512024 0.2851371765136719
vt 0.6206420063972473 0.33794552087783813
vt 0.6056457161903381 0.2851371169090271
vt 0.9380655884742737 0.3867887854576111
vt 0.6345122456550598 0.3867887258529663
vt 0.9822357296943665 0.38678884506225586
vt 0.6267879605293274 0.9918032772839069
vt 0.6265923380851746 0.9960689693689346
vt 0.9778634309768677 0.9951085038483143
vt 0.9923457503318787 0.9263171851634979
vt 0.6401202082633972 0.7011816799640656
vt 0.9849334359169006 0.5530495345592499
vt 0.7069585919380188 0.6678605079650879
vt 0.6556770205497742 0.6845148801803589
vt 0.7534418702125549 0.6351377964019775
vt 0.777923583984375 0.5300376117229462
vt 0.8537563681602478 0.5340835452079773
vt 0.8020713329315186 0.5175590217113495
vt 0.9518867135047913 0.5275162756443024
vt 0.6054078936576843 0.3482494354248047
vt 0.6054078936576843 0.28177160024642944
vt 0.9835852980613708 0.28177160024642944
vt 0.9835852980613708 0.387306809425354
vt 0.9781147837638855 0.387306809425354
vt 0.6054078936576843 0.387306809425354

g bg_mdl_map_haikyo_gareki01
s 1
usemtl bg_mdl_map_haikyo_gareki01
f 3/3/3 2/2/2 1/1/1 
f 4/4/4 3/3/3 1/1/1 
f 5/5/5 3/3/3 4/4/4 
f 6/6/6 5/5/5 4/4/4 
f 7/7/7 5/5/5 6/6/6 
f 8/8/8 7/7/7 6/6/6 
f 9/9/9 7/7/7 8/8/8 
f 10/10/10 9/9/9 8/8/8 
f 11/11/11 2/2/2 3/3/3 
f 12/12/12 2/2/2 11/11/11 
f 1/1/1 2/2/2 12/12/12 
f 13/13/13 12/12/12 11/11/11 
f 14/14/14 12/12/12 13/13/13 
f 15/15/15 14/14/14 13/13/13 
f 16/16/16 11/11/11 3/3/3 
f 16/16/16 3/3/3 5/5/5 
f 17/17/17 5/5/5 7/7/7 
f 17/17/17 16/16/16 5/5/5 
f 18/18/18 17/17/17 7/7/7 
f 18/18/18 7/7/7 9/9/9 
f 19/19/19 12/12/12 14/14/14 
f 20/20/20 19/19/19 14/14/14 
f 20/20/20 14/14/14 21/21/21 
f 22/22/22 20/20/20 21/21/21 
f 19/19/19 1/1/1 12/12/12 
f 23/23/23 18/18/18 9/9/9 
f 23/23/23 9/9/9 24/24/24 
f 25/25/25 24/24/24 9/9/9 
f 26/26/26 25/25/25 9/9/9 
f 10/10/10 26/26/26 9/9/9 
f 27/27/27 21/21/21 14/14/14 
f 15/15/15 27/27/27 14/14/14 
f 30/30/30 29/29/29 28/28/28 
f 29/29/29 30/30/30 31/31/31 
f 29/29/29 31/31/31 32/32/32 
f 29/29/29 32/32/32 33/33/33 
f 29/29/29 33/33/33 34/34/34 
f 35/35/35 29/29/29 34/34/34 
f 36/36/36 35/35/35 34/34/34 
f 34/34/34 37/37/37 36/36/36 
f 33/33/33 38/38/38 34/34/34 
f 30/30/30 39/39/39 31/31/31 
f 42/42/42 41/41/41 40/40/40 
f 43/43/43 41/41/41 42/42/42 
f 44/44/44 43/43/43 42/42/42 
f 45/45/45 41/41/41 43/43/43 
f 46/46/46 45/45/45 43/43/43 
f 47/47/47 40/40/40 41/41/41 
f 45/45/45 47/47/47 41/41/41 
f 50/50/50 49/49/49 48/48/48 
f 48/48/48 51/51/51 50/50/50 
f 48/48/48 52/52/52 51/51/51 
f 52/52/52 53/53/53 51/51/51 
f 52/52/52 54/54/54 53/53/53 
f 52/52/52 55/55/55 54/54/54 
f 54/54/54 56/56/56 53/53/53 
f 56/56/56 57/57/57 53/53/53 
f 57/57/57 58/58/58 53/53/53 
f 57/57/57 59/59/59 58/58/58 
f 53/53/53 58/58/58 60/60/60 
f 63/63/63 62/62/62 61/61/61 
f 61/61/61 64/64/64 63/63/63 
f 61/61/61 65/65/65 64/64/64 
f 66/66/66 65/65/65 61/61/61 

