v -3.101261615753174 2.0718414783477783 0.4999999403953552
v -3.0 2.4800262451171875 0.5
v -3.0 2.0970470905303955 0.4999999403953552
v -2.891716480255127 2.0718414783477783 0.4999999403953552
v -4.0 2.0718414783477783 0.4999999403953552
v -3.0 2.9678642749786377 0.49999991059303284
v -4.0 2.9678642749786377 0.49999991059303284
v -5.0 2.9678642749786377 0.49999991059303284
v -5.0 2.0718414783477783 0.4999999403953552
v -2.0 2.0718414783477783 0.4999999403953552
v -2.0 2.9678642749786377 0.49999991059303284
v -1.0 2.9678642749786377 0.49999991059303284
v -1.0 2.0718414783477783 0.4999999403953552
v -6.027133464813232 2.9678642749786377 0.49999991059303284
v -6.027133464813232 2.0718414783477783 0.4999999403953552
v -0.0 2.0718414783477783 0.4999999403953552
v -0.0 2.9678642749786377 0.49999991059303284
v 1.0 2.0732154846191406 0.46630001068115234
v 1.0 2.9678642749786377 0.49999991059303284
v 1.144729495048523 2.0650157928466797 0.46858665347099304
v 2.0 2.9678642749786377 0.49999991059303284
v 2.0 2.0718414783477783 0.4999999403953552
v 3.0 2.0718414783477783 0.4999999403953552
v 3.0 2.9678642749786377 0.49999991059303284
v -7.000000476837158 2.9678642749786377 0.49999991059303284
v -7.000000476837158 2.0718414783477783 0.4999999403953552
v -3.0 2.025205612182617 1.907348590179936e-08
v -3.1003758907318115 2.0 0.43852344155311584
v -3.0 2.025205612182617 0.43852344155311584
v -3.098480701446533 2.0 0.0
v -2.877964735031128 2.0 0.0
v -3.0 2.025205612182617 0.43852344155311584
v -2.881915330886841 2.0 0.43852344155311584
v -3.0 2.025205612182617 1.907348590179936e-08
v -1.0 2.0 0.0
v -2.0 2.0 0.43852344155311584
v -1.0 2.0 0.43852344155311584
v -2.0 2.0 0.0
v -0.3199999928474426 2.0 0.0
v -0.3199999928474426 2.0 0.43852344155311584
v -2.877964735031128 2.0 0.0
v -2.881915330886841 2.0 0.43852344155311584
v 1.0 2.0 0.3767780661582947
v -0.0 2.0 0.43852344155311584
v 1.0 2.0013742446899414 0.4048234820365906
v 1.0 2.0 0.0
v -0.0 2.0 0.43852344155311584
v 1.0 2.0 0.3767780661582947
v -0.0 2.0 0.0
v -0.2176000028848648 1.9908381700515747 0.43852344155311584
v -0.2176000028848648 1.9908381700515747 0.0
v 1.1187666654586792 1.9932100772857666 0.4062351584434509
v 1.0 2.0 0.3767780661582947
v 1.0 2.0013742446899414 0.4048234820365906
v 1.1213183403015137 1.9918935298919678 0.0
v 1.0 2.0 0.0
v 1.0 2.0 0.3767780661582947
v 3.0 2.0 0.0
v 2.0 2.0 0.43852344155311584
v 3.0 2.0 0.43852344155311584
v 2.0 2.0 0.0
v 1.1187666654586792 1.9932100772857666 0.4062351584434509
v 1.1213183403015137 1.9918935298919678 0.0
v -4.0 2.0 0.43852344155311584
v -4.999999523162842 2.0 0.0
v -4.999999523162842 2.0 0.43852344155311584
v -4.0 2.0 0.0
v -3.098480701446533 2.0 0.0
v -3.1003758907318115 2.0 0.43852344155311584
v -6.027133464813232 2.0 0.43852344155311584
v -6.027133464813232 2.0 0.0
v -7.000000476837158 2.0 0.43852344155311584
v -7.000000476837158 2.0 0.0
v -3.0 2.0970470905303955 0.4999999403953552
v -3.1003758907318115 2.0 0.43852344155311584
v -3.101261615753174 2.0718414783477783 0.4999999403953552
v -3.0 2.025205612182617 0.43852344155311584
v -3.0 2.0970470905303955 0.4999999403953552
v -2.881915330886841 2.0 0.43852344155311584
v -3.0 2.025205612182617 0.43852344155311584
v -2.891716480255127 2.0718414783477783 0.4999999403953552
v -1.0 2.0718414783477783 0.4999999403953552
v -2.0 2.0 0.43852344155311584
v -2.0 2.0718414783477783 0.4999999403953552
v -1.0 2.0 0.43852344155311584
v -2.891716480255127 2.0718414783477783 0.4999999403953552
v -2.881915330886841 2.0 0.43852344155311584
v -0.3199999928474426 2.0 0.43852344155311584
v -0.3199999928474426 2.0718414783477783 0.4999999403953552
v -0.0 2.0718414783477783 0.4999999403953552
v -0.2176000028848648 1.9908381700515747 0.43852344155311584
v -0.2176000028848648 2.0626792907714844 0.4999999403953552
v -0.0 2.0 0.43852344155311584
v 1.0 2.0732154846191406 0.46630001068115234
v 1.0 2.0013742446899414 0.4048234820365906
v 1.0 2.0732154846191406 0.46630001068115234
v 1.1187666654586792 1.9932100772857666 0.4062351584434509
v 1.0 2.0013742446899414 0.4048234820365906
v 1.144729495048523 2.0650157928466797 0.46858665347099304
v 2.0 2.0 0.43852344155311584
v 2.0 2.0718414783477783 0.4999999403953552
v 3.0 2.0718414783477783 0.4999999403953552
v 3.0 2.0 0.43852344155311584
v -4.0 2.0718414783477783 0.4999999403953552
v -4.999999523162842 2.0 0.43852344155311584
v -5.0 2.0718414783477783 0.4999999403953552
v -4.0 2.0 0.43852344155311584
v -3.1003758907318115 2.0 0.43852344155311584
v -3.101261615753174 2.0718414783477783 0.4999999403953552
v -6.027133464813232 2.0718414783477783 0.4999999403953552
v -6.027133464813232 2.0 0.43852344155311584
v -7.000000476837158 2.0718414783477783 0.4999999403953552
v -7.000000476837158 2.0 0.43852344155311584
v -0.2176000028848648 1.9908381700515747 0.0
v -0.3199999928474426 2.0 0.43852344155311584
v -0.2176000028848648 1.9908381700515747 0.43852344155311584
v -0.3199999928474426 2.0 0.0
v -0.3199999928474426 2.0718414783477783 0.4999999403953552
v -0.2176000028848648 1.9908381700515747 0.43852344155311584
v -0.3199999928474426 2.0 0.43852344155311584
v -0.2176000028848648 2.0626792907714844 0.4999999403953552
v -0.0 2.0718414783477783 0.4999999403953552
v -0.3199999928474426 2.0718414783477783 0.4999999403953552
v -1.0 2.0718414783477783 0.4999999403953552
v -0.2176000028848648 2.0626792907714844 0.4999999403953552
v -3.101261615753174 -3.0718414783477783 0.4999999403953552
v -3.0 -3.0970470905303955 0.4999999403953552
v -3.0 -3.4800262451171875 0.5
v -2.891716480255127 -3.0718414783477783 0.4999999403953552
v -4.0 -3.0718414783477783 0.4999999403953552
v -3.0 -4.032135963439941 0.49999991059303284
v -4.0 -4.032135963439941 0.49999991059303284
v -5.0 -4.032135963439941 0.49999991059303284
v -4.319999694824219 -3.1016204357147217 0.4999999403953552
v -4.540999889373779 -3.0717718601226807 0.4999999403953552
v -5.0 -3.0718414783477783 0.4999999403953552
v -2.0 -4.032135963439941 0.49999991059303284
v -6.027133464813232 -4.032135963439941 0.49999991059303284
v -6.027133464813232 -3.0718414783477783 0.4999999403953552
v -2.485985517501831 -3.0718414783477783 0.4999999403953552
v -2.0 -3.0718414783477783 0.4999999403953552
v -1.8876680135726929 -3.0384294986724854 0.4999999403953552
v -1.392799973487854 -3.0718414783477783 0.4999999403953552
v -1.309999942779541 -3.132017135620117 0.4999999403953552
v -1.317402720451355 -4.032135963439941 0.49999991059303284
v -1.0 -4.032135963439941 0.49999991059303284
v -1.0 -3.0718414783477783 0.4999999403953552
v -0.4390000104904175 -3.0718414783477783 0.4999999403953552
v -0.3199999928474426 -3.111454486846924 0.4999999403953552
v -0.2176000028848648 -3.0614235401153564 0.4999999403953552
v -0.0 -4.032135963439941 0.49999991059303284
v -0.0 -3.034160614013672 0.4999999403953552
v 0.23334410786628723 -3.07216215133667 0.49213626980781555
v 0.5622749328613281 -3.0726139545440674 0.48105132579803467
v 0.73499995470047 -3.1290123462677 0.47523048520088196
v 1.0 -3.1293764114379883 0.46630001068115234
v 1.0 -4.032135963439941 0.49999991059303284
v 1.0 -3.1293764114379883 0.46630001068115234
v 1.144729495048523 -3.0650157928466797 0.46858665347099304
v 2.0 -4.032135963439941 0.49999991059303284
v 2.0 -3.0718414783477783 0.4999999403953552
v 3.0 -3.0718414783477783 0.4999999403953552
v 3.0 -4.032135963439941 0.49999991059303284
v -3.0 -3.025205612182617 1.907348590179936e-08
v -3.1003758907318115 -3.0 0.43852344155311584
v -3.098480701446533 -3.0 0.0
v -3.0 -3.025205612182617 0.43852344155311584
v -2.877964735031128 -3.0 0.0
v -3.0 -3.025205612182617 0.43852344155311584
v -3.0 -3.025205612182617 1.907348590179936e-08
v -2.881915330886841 -3.0 0.43852344155311584
v -2.0 -3.0 0.43852344155311584
v -1.8876680135726929 -2.966588020324707 0.0
v -1.8876680135726929 -2.966588020324707 0.43852344155311584
v -2.0 -3.0 0.0
v -1.0 -3.0 0.43852344155311584
v -0.4390000104904175 -3.0 0.0
v -0.4390000104904175 -3.0 0.43852344155311584
v -1.0 -3.0 0.0
v -0.0 -2.9623193740844727 0.0
v 0.23334410786628723 -3.0003206729888916 0.4306597411632538
v -0.0 -2.9623193740844727 0.43852344155311584
v 0.23334410786628723 -3.0 0.0
v 1.0 -3.05753493309021 0.4048234820365906
v 1.1213183403015137 -2.9918935298919678 0.0
v 1.1187666654586792 -2.9932100772857666 0.4062351584434509
v 1.0 -3.0561609268188477 0.0
v 3.0 -3.0 0.0
v 2.0 -3.0 0.43852344155311584
v 2.0 -3.0 0.0
v 3.0 -3.0 0.43852344155311584
v 1.1187666654586792 -2.9932100772857666 0.4062351584434509
v 1.1213183403015137 -2.9918935298919678 0.0
v -4.319999694824219 -3.0297789573669434 0.0
v -4.0 -3.0 0.43852344155311584
v -4.319999694824219 -3.0297789573669434 0.43852344155311584
v -4.0 -3.0 0.0
v -3.0 -3.0970470905303955 0.4999999403953552
v -3.1003758907318115 -3.0 0.43852344155311584
v -3.0 -3.025205612182617 0.43852344155311584
v -3.101261615753174 -3.0718414783477783 0.4999999403953552
v -3.0 -3.0970470905303955 0.4999999403953552
v -2.881915330886841 -3.0 0.43852344155311584
v -2.891716480255127 -3.0718414783477783 0.4999999403953552
v -3.0 -3.025205612182617 0.43852344155311584
v -1.309999942779541 -3.060175657272339 0.43852344155311584
v -1.0 -3.0718414783477783 0.4999999403953552
v -1.309999942779541 -3.132017135620117 0.4999999403953552
v -1.0 -3.0 0.43852344155311584
v -0.0 -3.034160614013672 0.4999999403953552
v -0.2176000028848648 -2.989582061767578 0.43852344155311584
v -0.0 -2.9623193740844727 0.43852344155311584
v -0.2176000028848648 -3.0614235401153564 0.4999999403953552
v 0.23334410786628723 -3.07216215133667 0.49213626980781555
v -0.0 -2.9623193740844727 0.43852344155311584
v 0.23334410786628723 -3.0003206729888916 0.4306597411632538
v -0.0 -3.034160614013672 0.4999999403953552
v 1.0 -3.1293764114379883 0.46630001068115234
v 1.1187666654586792 -2.9932100772857666 0.4062351584434509
v 1.144729495048523 -3.0650157928466797 0.46858665347099304
v 1.1187666654586792 -2.9932100772857666 0.4062351584434509
v 1.0 -3.1293764114379883 0.46630001068115234
v 1.0 -3.05753493309021 0.4048234820365906
v 3.0 -3.0718414783477783 0.4999999403953552
v 2.0 -3.0 0.43852344155311584
v 3.0 -3.0 0.43852344155311584
v 2.0 -3.0718414783477783 0.4999999403953552
v 1.144729495048523 -3.0650157928466797 0.46858665347099304
v 1.1187666654586792 -2.9932100772857666 0.4062351584434509
v -4.319999694824219 -3.0297789573669434 0.43852344155311584
v -4.0 -3.0718414783477783 0.4999999403953552
v -4.319999694824219 -3.1016204357147217 0.4999999403953552
v -4.0 -3.0 0.43852344155311584
v -4.0 -3.0718414783477783 0.4999999403953552
v -3.1003758907318115 -3.0 0.43852344155311584
v -3.101261615753174 -3.0718414783477783 0.4999999403953552
v -4.0 -3.0 0.43852344155311584
v -4.0 -3.0 0.43852344155311584
v -3.098480701446533 -3.0 0.0
v -3.1003758907318115 -3.0 0.43852344155311584
v -4.0 -3.0 0.0
v -2.877964735031128 -3.0 0.0
v -2.699336528778076 -2.974444627761841 0.43852344155311584
v -2.881915330886841 -3.0 0.43852344155311584
v -2.69620418548584 -2.974444627761841 0.0
v -2.881915330886841 -3.0 0.43852344155311584
v -2.707108974456787 -3.04628586769104 0.4999999403953552
v -2.891716480255127 -3.0718414783477783 0.4999999403953552
v -2.699336528778076 -2.974444627761841 0.43852344155311584
v -4.999999523162842 -3.0 0.0
v -6.027133464813232 -3.0 0.43852344155311584
v -6.027133464813232 -3.0 0.0
v -4.999999523162842 -3.0 0.43852344155311584
v -4.540999889373779 -2.9999303817749023 0.43852344155311584
v -4.540999889373779 -2.9999303817749023 0.0
v -7.000000476837158 -3.0 0.0
v -7.000000476837158 -3.0 0.43852344155311584
v -4.999999523162842 -3.0 0.43852344155311584
v -6.027133464813232 -3.0718414783477783 0.4999999403953552
v -6.027133464813232 -3.0 0.43852344155311584
v -5.0 -3.0718414783477783 0.4999999403953552
v -4.540999889373779 -3.0717718601226807 0.4999999403953552
v -4.540999889373779 -2.9999303817749023 0.43852344155311584
v -7.000000476837158 -3.0 0.43852344155311584
v -7.000000476837158 -3.0718414783477783 0.4999999403953552
v -0.2176000028848648 -2.989582061767578 0.0
v -0.3199999928474426 -3.0396130084991455 0.43852344155311584
v -0.3199999928474426 -3.0396130084991455 0.0
v -0.2176000028848648 -2.989582061767578 0.43852344155311584
v -0.3199999928474426 -3.0396130084991455 0.43852344155311584
v -0.4390000104904175 -3.0718414783477783 0.4999999403953552
v -0.4390000104904175 -3.0 0.43852344155311584
v -0.3199999928474426 -3.111454486846924 0.4999999403953552
v -0.3199999928474426 -3.111454486846924 0.4999999403953552
v -0.2176000028848648 -2.989582061767578 0.43852344155311584
v -0.2176000028848648 -3.0614235401153564 0.4999999403953552
v -0.3199999928474426 -3.0396130084991455 0.43852344155311584
v -0.0 -2.9623193740844727 0.0
v -0.2176000028848648 -2.989582061767578 0.43852344155311584
v -0.2176000028848648 -2.989582061767578 0.0
v -0.0 -2.9623193740844727 0.43852344155311584
v -0.3199999928474426 -3.0396130084991455 0.43852344155311584
v -0.4390000104904175 -3.0 0.0
v -0.3199999928474426 -3.0396130084991455 0.0
v -0.4390000104904175 -3.0 0.43852344155311584
v -1.0 -3.0 0.43852344155311584
v -0.4390000104904175 -3.0718414783477783 0.4999999403953552
v -1.0 -3.0718414783477783 0.4999999403953552
v -0.4390000104904175 -3.0 0.43852344155311584
v 1.0 -3.05753493309021 0.4048234820365906
v 0.73499995470047 -3.0561609268188477 0.0
v 1.0 -3.0561609268188477 0.0
v 0.73499995470047 -3.057170867919922 0.4137539565563202
v 1.0 -3.1293764114379883 0.46630001068115234
v 0.73499995470047 -3.057170867919922 0.4137539565563202
v 1.0 -3.05753493309021 0.4048234820365906
v 0.73499995470047 -3.1290123462677 0.47523048520088196
v 0.73499995470047 -3.057170867919922 0.4137539565563202
v 0.5622749924659729 -3.0 0.0
v 0.73499995470047 -3.0561609268188477 0.0
v 0.5622749328613281 -3.000772714614868 0.4195747971534729
v 0.73499995470047 -3.1290123462677 0.47523048520088196
v 0.5622749328613281 -3.000772714614868 0.4195747971534729
v 0.73499995470047 -3.057170867919922 0.4137539565563202
v 0.5622749328613281 -3.0726139545440674 0.48105132579803467
v -1.0 -3.0 0.43852344155311584
v -1.309999942779541 -3.060175657272339 0.0
v -1.0 -3.0 0.0
v -1.309999942779541 -3.060175657272339 0.43852344155311584
v -1.392799973487854 -3.0 0.43852344155311584
v -1.309999942779541 -3.132017135620117 0.4999999403953552
v -1.392799973487854 -3.0718414783477783 0.4999999403953552
v -1.309999942779541 -3.060175657272339 0.43852344155311584
v -1.309999942779541 -3.060175657272339 0.43852344155311584
v -1.392799973487854 -3.0 0.0
v -1.309999942779541 -3.060175657272339 0.0
v -1.392799973487854 -3.0 0.43852344155311584
v -1.8876680135726929 -2.966588020324707 0.43852344155311584
v -1.392799973487854 -3.0718414783477783 0.4999999403953552
v -1.8876680135726929 -3.0384294986724854 0.4999999403953552
v -1.392799973487854 -3.0 0.43852344155311584
v 0.5622749328613281 -3.000772714614868 0.4195747971534729
v 0.23334410786628723 -3.0 0.0
v 0.5622749924659729 -3.0 0.0
v 0.23334410786628723 -3.0003206729888916 0.4306597411632538
v 0.5622749328613281 -3.0726139545440674 0.48105132579803467
v 0.23334410786628723 -3.0003206729888916 0.4306597411632538
v 0.5622749328613281 -3.000772714614868 0.4195747971534729
v 0.23334410786628723 -3.07216215133667 0.49213626980781555
v -2.0 -3.0 0.43852344155311584
v -2.4784905910491943 -3.0 0.0
v -2.0 -3.0 0.0
v -2.4806437492370605 -3.0 0.43852344155311584
v -2.0 -3.0718414783477783 0.4999999403953552
v -2.4806437492370605 -3.0 0.43852344155311584
v -2.0 -3.0 0.43852344155311584
v -2.485985517501831 -3.0718414783477783 0.4999999403953552
v -2.4806437492370605 -3.0 0.43852344155311584
v -2.69620418548584 -2.974444627761841 0.0
v -2.4784905910491943 -3.0 0.0
v -2.699336528778076 -2.974444627761841 0.43852344155311584
v -2.485985517501831 -3.0718414783477783 0.4999999403953552
v -2.699336528778076 -2.974444627761841 0.43852344155311584
v -2.4806437492370605 -3.0 0.43852344155311584
v -2.707108974456787 -3.04628586769104 0.4999999403953552
v -4.540999889373779 -2.9999303817749023 0.0
v -4.319999694824219 -3.0297789573669434 0.43852344155311584
v -4.540999889373779 -2.9999303817749023 0.43852344155311584
v -4.319999694824219 -3.0297789573669434 0.0
v -4.540999889373779 -2.9999303817749023 0.43852344155311584
v -4.319999694824219 -3.1016204357147217 0.4999999403953552
v -4.540999889373779 -3.0717718601226807 0.4999999403953552
v -4.319999694824219 -3.0297789573669434 0.43852344155311584
v -1.392799973487854 -3.0 0.43852344155311584
v -1.8876680135726929 -2.966588020324707 0.0
v -1.392799973487854 -3.0 0.0
v -1.8876680135726929 -2.966588020324707 0.43852344155311584
v -2.0 -3.0 0.43852344155311584
v -1.8876680135726929 -3.0384294986724854 0.4999999403953552
v -2.0 -3.0718414783477783 0.4999999403953552
v -1.8876680135726929 -2.966588020324707 0.43852344155311584
v -2.485985517501831 -3.0718414783477783 0.4999999403953552
v -2.891716480255127 -3.0718414783477783 0.4999999403953552
v -2.707108974456787 -3.04628586769104 0.4999999403953552
v -7.000000476837158 -3.0718414783477783 0.4999999403953552
v -7.000000476837158 -4.032135963439941 0.49999991059303284
v 3.0 5.836484432220459 0.49999991059303284
v 2.0 2.9678642749786377 0.49999991059303284
v 2.0 5.836484432220459 0.49999991059303284
v 3.0 2.9678642749786377 0.49999991059303284
v 1.0 2.9678642749786377 0.49999991059303284
v 1.0 5.836484432220459 0.49999991059303284
v -0.0 2.9678642749786377 0.49999991059303284
v -0.0 5.836484432220459 0.49999991059303284
v -1.0 2.9678642749786377 0.49999991059303284
v -1.0 5.836484432220459 0.49999991059303284
v -2.0 2.9678642749786377 0.49999991059303284
v -2.0 5.836484432220459 0.49999991059303284
v -3.0 2.9678642749786377 0.49999991059303284
v -3.0 5.836484432220459 0.49999991059303284
v -4.0 2.9678642749786377 0.49999991059303284
v -4.0 5.836484432220459 0.49999991059303284
v -5.0 5.836484432220459 0.49999991059303284
v -5.0 2.9678642749786377 0.49999991059303284
v -6.027133464813232 5.836484432220459 0.49999991059303284
v -6.027133464813232 2.9678642749786377 0.49999991059303284
v -3.0 7.088869094848633 0.49999991059303284
v -4.0 7.088869094848633 0.49999991059303284
v -2.0 7.088869094848633 0.49999991059303284
v -1.0 7.088869094848633 0.49999991059303284
v -0.0 7.088869094848633 0.49999991059303284
v 1.0 7.088869094848633 0.49999991059303284
v 2.0 7.088869094848633 0.49999991059303284
v 3.0 7.088869094848633 0.49999991059303284
v -5.0 7.088869094848633 0.49999991059303284
v -6.027133464813232 7.088869094848633 0.49999991059303284
v -7.000000476837158 5.836484432220459 0.49999991059303284
v -7.000000476837158 7.088869094848633 0.49999991059303284
v -7.000000476837158 2.9678642749786377 0.49999991059303284
v 3.0 -5.507544040679932 0.49999991059303284
v 2.0 -4.032135963439941 0.49999991059303284
v 3.0 -4.032135963439941 0.49999991059303284
v 2.0 -5.507544040679932 0.49999991059303284
v 1.0 -4.032135963439941 0.49999991059303284
v 1.0 -5.507544040679932 0.49999991059303284
v -0.0 -4.032135963439941 0.49999991059303284
v -0.0 -5.507544040679932 0.49999991059303284
v -1.0 -4.032135963439941 0.49999991059303284
v -1.0 -5.507544040679932 0.49999991059303284
v -1.317402720451355 -4.032135963439941 0.49999991059303284
v -2.0 -4.032135963439941 0.49999991059303284
v -2.0 -5.507544040679932 0.49999991059303284
v -3.0 -4.032135963439941 0.49999991059303284
v -3.0 -5.507544040679932 0.49999991059303284
v -4.0 -4.032135963439941 0.49999991059303284
v -4.0 -5.507544040679932 0.49999991059303284
v -5.0 -5.507544040679932 0.49999991059303284
v -5.0 -4.032135963439941 0.49999991059303284
v -6.027133464813232 -5.507544040679932 0.49999991059303284
v -6.027133464813232 -4.032135963439941 0.49999991059303284
v -7.000000476837158 -4.032135963439941 0.49999991059303284
v -7.000000476837158 -5.507544040679932 0.49999991059303284
vn -0.0 0.0 1.0
vn 4.002587843388028e-07 0.0 1.0
vn -0.0 0.0 1.0
vn -0.0 0.0 1.0
vn -0.0 0.0 1.0
vn -0.0 0.0 1.0
vn -0.0 0.0 1.0
vn -0.0 0.0 1.0
vn -0.0 0.0 1.0
vn -0.0 0.0 1.0
vn -0.0 0.0 1.0
vn -0.0 0.0 1.0
vn -0.0 0.0 1.0
vn -0.0 0.0 1.0
vn -0.0 0.0 1.0
vn 0.03368082642555237 0.0 0.9994326233863831
vn 0.018035944551229477 -0.017496615648269653 0.99968421459198
vn 0.015670377761125565 -0.020140372216701508 0.9996743202209473
vn -0.0 -0.037641625851392746 0.9992913007736206
vn -0.017492225393652916 -0.026952754706144333 0.999483585357666
vn -0.0 0.0 1.0
vn -0.0 0.0 1.0
vn -0.0 0.0 1.0
vn -0.0 0.0 1.0
vn -0.0 0.0 1.0
vn -0.0 0.0 1.0
vn 0.24355128407478333 -0.9698880314826965 0.0
vn 0.24355128407478333 -0.9698880314826965 0.0
vn 0.24355125427246094 -0.9698880314826965 0.0
vn 0.24795237183570862 -0.9687716364860535 0.0010715614771470428
vn -0.20875097811222076 -0.9779670238494873 -0.0018804901046678424
vn -0.20875097811222076 -0.9779670238494873 -0.0018804902210831642
vn -0.20875097811222076 -0.9779670238494873 -0.0018804901046678424
vn -0.20227482914924622 -0.9793287515640259 0.0
vn -0.0 -1.0 0.0
vn -0.0 -1.0 0.0
vn -0.0 -1.0 0.0
vn -0.0 -1.0 0.0
vn -0.0 -1.0 0.0
vn -0.0 -1.0 0.0
vn -0.0 -1.0 0.0
vn -0.0 -1.0 0.0
vn 0.003021841635927558 -0.9987971782684326 0.048940371721982956
vn 0.003021841635927558 -0.9987971782684326 0.048940371721982956
vn 0.0030218414030969143 -0.9987971782684326 0.04894036799669266
vn -0.0 -1.0 0.0
vn -0.0 -1.0 0.0
vn -0.0 -1.0 0.0
vn -0.0 -1.0 0.0
vn 0.042066749185323715 -0.9991148114204407 0.0
vn 0.04206674546003342 -0.9991148114204407 0.0
vn -0.06907434016466141 -0.9964160919189453 0.048823703080415726
vn -0.06907433271408081 -0.9964160919189453 0.048823703080415726
vn -0.06907433271408081 -0.9964160919189453 0.04882369935512543
vn -0.057786379009485245 -0.9983248114585876 0.002872394397854805
vn -0.06667042523622513 -0.9977750182151794 0.0
vn -0.06667042523622513 -0.9977750182151794 0.0
vn -0.0 -1.0 0.0
vn -0.0 -1.0 0.0
vn -0.0 -1.0 0.0
vn -0.0 -1.0 0.0
vn 0.007704717572778463 -0.9999703168869019 0.0
vn 0.009225179441273212 -0.9999520778656006 0.0032985953148454428
vn -0.0 -1.0 0.0
vn -0.0 -1.0 0.0
vn -0.0 -1.0 0.0
vn -0.0 -1.0 0.0
vn -0.0 -1.0 0.0
vn -0.0 -1.0 0.0
vn -0.0 -1.0 0.0
vn -0.0 -1.0 0.0
vn -0.0 -1.0 0.0
vn -0.0 -1.0 0.0
vn 0.15948401391506195 -0.6407126784324646 0.751034140586853
vn 0.15948401391506195 -0.6407127380371094 0.7510340809822083
vn 0.15948401391506195 -0.6407126784324646 0.751034140586853
vn 0.16113263368606567 -0.6416742205619812 0.7498603463172913
vn -0.13746394217014313 -0.6439979672431946 0.7525757551193237
vn -0.13746394217014313 -0.6439979672431946 0.7525757551193237
vn -0.13746394217014313 -0.6439979076385498 0.7525758147239685
vn -0.1523507833480835 -0.6544973254203796 0.740555465221405
vn -0.0 -0.6501701474189758 0.7597886323928833
vn -0.0 -0.6501702666282654 0.7597886323928833
vn -0.0 -0.6501701474189758 0.7597886323928833
vn -0.0 -0.6501701474189758 0.7597886323928833
vn -0.0 -0.6501702666282654 0.7597886323928833
vn -0.0 -0.6501702666282654 0.7597886323928833
vn -0.0 -0.6501701474189758 0.7597886919975281
vn -0.0 -0.6501701474189758 0.7597886323928833
vn 0.02736501395702362 -0.6499274969100952 0.7595033049583435
vn 0.02736501395702362 -0.6499274969100952 0.7595034241676331
vn 0.027365010231733322 -0.6499274969100952 0.7595033049583435
vn 0.027364524081349373 -0.6499266624450684 0.7595040798187256
vn 0.026489010080695152 -0.6499419808387756 0.759522020816803
vn 0.026489010080695152 -0.6499419808387756 0.759522020816803
vn -0.05364646017551422 -0.649233877658844 0.7586945295333862
vn -0.05364646762609482 -0.6492339372634888 0.7586945295333862
vn -0.05364646762609482 -0.6492339372634888 0.7586945295333862
vn -0.04858372360467911 -0.644802987575531 0.7628031969070435
vn -0.0 -0.6501702666282654 0.7597886323928833
vn -0.0 -0.6501701474189758 0.7597886323928833
vn -0.0 -0.6501701474189758 0.7597886323928833
vn -0.0 -0.6501701474189758 0.7597886323928833
vn -0.0 -0.6501702666282654 0.7597886323928833
vn -0.0 -0.6501701474189758 0.7597886323928833
vn -0.0 -0.6501701474189758 0.7597886323928833
vn -0.0 -0.6501701474189758 0.7597886323928833
vn -0.0 -0.6501701474189758 0.7597886323928833
vn -0.0 -0.6501701474189758 0.7597886323928833
vn -0.0 -0.6501702666282654 0.7597886323928833
vn -0.0 -0.6501702666282654 0.7597886323928833
vn -0.0 -0.6501702666282654 0.7597886323928833
vn -0.0 -0.6501701474189758 0.7597886323928833
vn -0.08911507576704025 -0.9960213303565979 0.0
vn -0.08911506831645966 -0.9960213303565979 0.0
vn -0.08911506831645966 -0.9960213303565979 0.0
vn -0.08911506831645966 -0.9960213303565979 0.0
vn -0.05807323381304741 -0.6490729451179504 0.7585063576698303
vn -0.05807323008775711 -0.6490728855133057 0.7585063576698303
vn -0.05807323008775711 -0.6490728855133057 0.7585063576698303
vn -0.05807426571846008 -0.6490737199783325 0.7585055828094482
vn -0.0 0.0 1.0
vn -0.0 0.0 1.0
vn 1.0 0.0 0.0
vn -0.0 0.0 1.0
vn -0.0 0.0 1.0
vn -0.0 0.0 1.0
vn -0.0 0.0 1.0
vn -0.0 0.0 1.0
vn -0.0 0.0 1.0
vn -0.0 -1.1420539181017375e-07 1.0
vn -0.0 0.0 1.0
vn -0.0 0.0 1.0
vn -0.0 0.0 1.0
vn -0.0 0.0 1.0
vn -0.0 0.0 1.0
vn -0.0 0.0 1.0
vn -0.0 0.0 1.0
vn -0.0 0.0 1.0
vn -0.0 0.0 1.0
vn -0.0 0.0 1.0
vn -0.0 0.0 1.0
vn -0.0 0.0 1.0
vn -0.0 0.0 1.0
vn -0.0 0.0 1.0
vn -0.0 0.0 1.0
vn -0.0 0.0 1.0
vn -0.0 0.0 1.0
vn -0.0 0.0 1.0
vn -0.0 0.0 1.0
vn 0.017939776182174683 0.017446044832468033 0.9996868371963501
vn 0.033680859953165054 0.0 0.9994326233863831
vn 0.03368081897497177 0.0 0.9994326233863831
vn 0.03368087112903595 0.0 0.9994326233863831
vn 0.03368082642555237 0.0 0.9994326233863831
vn 0.015766436234116554 0.019853174686431885 0.9996786117553711
vn -0.0 0.037303898483514786 0.999303936958313
vn -0.03236038610339165 0.03728435933589935 0.9987805485725403
vn -0.02331230230629444 0.02423086017370224 0.9994345307350159
vn -0.0 0.0 1.0
vn -0.0 0.0 1.0
vn -0.0 0.0 1.0
vn -0.0 0.0 1.0
vn 0.24795234203338623 0.9687716364860535 0.0010715614771470428
vn 0.24795237183570862 0.9687716364860535 0.0010715614771470428
vn 0.24795237183570862 0.9687716364860535 0.0010715614771470428
vn 0.24355125427246094 0.9698880314826965 0.0
vn -0.2022748440504074 0.9793287515640259 0.0
vn -0.20227482914924622 0.9793287515640259 0.0
vn -0.20227482914924622 0.9793287515640259 0.0
vn -0.20875097811222076 0.9779670238494873 -0.0018804901046678424
vn -0.28509464859962463 0.9584993720054626 0.0
vn -0.28509461879730225 0.9584993720054626 0.0
vn -0.28509461879730225 0.9584993720054626 0.0
vn -0.28509461879730225 0.9584993720054626 0.0
vn -0.0 1.0 0.0
vn -0.0 1.0 0.0
vn -0.0 1.0 0.0
vn -0.0 1.0 0.0
vn 0.1607380211353302 0.986997127532959 0.0
vn 0.1607380509376526 0.986997127532959 0.0
vn 0.1607380211353302 0.986997127532959 0.0
vn 0.15941593050956726 0.9872112274169922 0.0007352390675805509
vn -0.4762418866157532 0.8793142437934875 -0.0001417832390870899
vn -0.47624191641807556 0.8793142437934875 -0.0001417832390870899
vn -0.4762418866157532 0.8793142437934875 -0.00014178322453517467
vn -0.46811261773109436 0.8836637139320374 0.0029996689409017563
vn -0.0 1.0 0.0
vn -0.0 1.0 0.0
vn -0.0 1.0 0.0
vn -0.0 1.0 0.0
vn 0.009225179441273212 0.9999520778656006 0.003298595082014799
vn 0.009225179441273212 0.9999520778656006 0.0032985953148454428
vn -0.09265918284654617 0.9956978559494019 0.0
vn -0.09265917539596558 0.9956978559494019 0.0
vn -0.09265918284654617 0.9956978559494019 0.0
vn -0.09265918284654617 0.9956978559494019 0.0
vn 0.16113261878490448 0.6416743397712708 0.7498602867126465
vn 0.16113261878490448 0.641674280166626 0.7498602867126465
vn 0.16113263368606567 0.6416742205619812 0.7498603463172913
vn 0.15948401391506195 0.6407126784324646 0.751034140586853
vn -0.1523507833480835 0.6544974446296692 0.740555465221405
vn -0.1523507684469223 0.6544973254203796 0.740555465221405
vn -0.1523507833480835 0.6544973254203796 0.740555465221405
vn -0.13746394217014313 0.6439979076385498 0.7525758147239685
vn -0.12521475553512573 0.6450531482696533 0.7538087964057922
vn -0.12521475553512573 0.6450531482696533 0.7538087964057922
vn -0.12521477043628693 0.6450532078742981 0.7538087964057922
vn -0.12521477043628693 0.6450532078742981 0.7538087964057922
vn -0.08119021356105804 0.648023784160614 0.7572802305221558
vn -0.08119021356105804 0.648023784160614 0.7572802305221558
vn -0.08119021356105804 0.648023784160614 0.7572802305221558
vn -0.08119021356105804 0.648023784160614 0.7572802305221558
vn 0.13036659359931946 0.6446215510368347 0.7533044815063477
vn 0.13036660850048065 0.6446215510368347 0.7533044815063477
vn 0.13036659359931946 0.6446214914321899 0.7533045411109924
vn 0.13036659359931946 0.6446214914321899 0.7533045411109924
vn -0.2677784562110901 0.5746852159500122 0.7733250856399536
vn -0.2677784860134125 0.5746852159500122 0.7733250856399536
vn -0.2677784562110901 0.5746852159500122 0.7733250856399536
vn -0.33969196677207947 0.6115089654922485 0.7146090865135193
vn -0.33969196677207947 0.6115089654922485 0.7146090865135193
vn -0.33969199657440186 0.6115089654922485 0.7146090865135193
vn -0.0 0.6501702666282654 0.7597886323928833
vn -0.0 0.6501701474189758 0.7597886323928833
vn -0.0 0.6501701474189758 0.7597886323928833
vn -0.0 0.6501701474189758 0.7597886323928833
vn -0.022793114185333252 0.6507683992385864 0.7589340209960938
vn -0.022793114185333252 0.6507683992385864 0.7589340209960938
vn -0.06039410084486008 0.648983359336853 0.7584016919136047
vn -0.060394104570150375 0.648983359336853 0.7584016919136047
vn -0.06039409339427948 0.6489834189414978 0.7584016919136047
vn -0.06039409339427948 0.6489834189414978 0.7584016919136047
vn -0.0 0.6501701474189758 0.7597886323928833
vn -0.0 0.6501701474189758 0.7597886919975281
vn -0.0 0.6501701474189758 0.7597886323928833
vn -0.0 0.6501701474189758 0.7597886323928833
vn -0.0 1.0 0.0
vn -0.0 1.0 0.0
vn -0.0 1.0 0.0
vn -0.0 1.0 0.0
vn -0.13861814141273499 0.9903450608253479 -0.001248713000677526
vn -0.13861814141273499 0.9903450608253479 -0.001248713000677526
vn -0.13861815631389618 0.9903450608253479 -0.0012487131170928478
vn -0.13922975957393646 0.99025958776474 -0.0009945996571332216
vn -0.09061745554208755 0.6546034216880798 0.750521719455719
vn -0.09061745554208755 0.6546034216880798 0.7505217790603638
vn -0.09061745554208755 0.6546034216880798 0.750521719455719
vn -0.0914195254445076 0.6531386971473694 0.7516995668411255
vn -0.0 1.0 0.0
vn -0.0 1.0 0.0
vn -0.0 1.0 0.0
vn -0.0 1.0 0.0
vn -0.00015159061877056956 1.0 0.0
vn -0.00015159061877056956 1.0 0.0
vn -0.0 1.0 0.0
vn -0.0 1.0 0.0
vn -0.0 0.6501702666282654 0.7597886323928833
vn -0.0 0.6501702666282654 0.7597886323928833
vn -0.0 0.6501702666282654 0.7597886323928833
vn -0.0 0.6501702666282654 0.7597886323928833
vn -9.855968528427184e-05 0.6501701474189758 0.7597886323928833
vn -9.855968528427184e-05 0.6501701474189758 0.7597886323928833
vn -0.0 0.6501702666282654 0.7597886323928833
vn -0.0 0.6501701474189758 0.7597886323928833
vn -0.43898773193359375 0.8984930515289307 0.0
vn -0.43898773193359375 0.8984930515289307 0.0
vn -0.43898773193359375 0.8984930515289307 0.0
vn -0.43898773193359375 0.8984930515289307 0.0
vn 0.21153271198272705 0.635457456111908 0.7425951957702637
vn 0.21153269708156586 0.635457456111908 0.7425951957702637
vn 0.21153274178504944 0.635457456111908 0.7425951957702637
vn 0.21153272688388824 0.6354573369026184 0.7425952553749084
vn -0.3027534484863281 0.619657039642334 0.7241308689117432
vn -0.30275341868400574 0.619657039642334 0.7241308689117432
vn -0.3027534484863281 0.6196569800376892 0.7241309285163879
vn -0.3027534484863281 0.6196569800376892 0.7241309285163879
vn -0.12431702762842178 0.9922425746917725 0.0
vn -0.12431702762842178 0.9922425746917725 0.0
vn -0.12431705743074417 0.9922425746917725 0.0
vn -0.12431705743074417 0.9922425746917725 0.0
vn 0.3158429265022278 0.9488115310668945 0.0
vn 0.3158429265022278 0.9488115310668945 0.0
vn 0.3158429265022278 0.9488115310668945 0.0
vn 0.315842866897583 0.9488115310668945 0.0
vn -0.0 0.6501701474189758 0.7597886919975281
vn -0.0 0.650170087814331 0.7597886919975281
vn -0.0 0.6501701474189758 0.7597886323928833
vn -0.0 0.650170087814331 0.7597886919975281
vn -0.0 0.9999942779541016 0.003394562751054764
vn -0.0 0.9999942779541016 0.0033945629838854074
vn -0.0 0.9999942779541016 0.003394562751054764
vn 0.0014566986355930567 0.9999959468841553 0.0024410043843090534
vn 0.026489121839404106 0.6499420404434204 0.7595219612121582
vn 0.026489121839404106 0.6499420404434204 0.759522020816803
vn 0.026489121839404106 0.6499420404434204 0.759522020816803
vn 0.0264887735247612 0.6499412655830383 0.7595227360725403
vn 0.3092110753059387 0.9509905576705933 0.0023213813547044992
vn 0.3092110753059387 0.9509905576705933 0.0023213813547044992
vn 0.3092110753059387 0.9509905576705933 0.0023213813547044992
vn 0.3104453682899475 0.9505895972251892 0.0017506986623629928
vn 0.23143909871578217 0.6325168013572693 0.7391605973243713
vn 0.23143909871578217 0.6325169801712036 0.7391605377197266
vn 0.23143909871578217 0.6325169801712036 0.7391605377197266
vn 0.23143982887268066 0.6325175762176514 0.7391597628593445
vn -0.19055843353271484 0.9816758632659912 0.0
vn -0.19055843353271484 0.9816758632659912 0.0
vn -0.19055841863155365 0.9816758632659912 0.0
vn -0.19055841863155365 0.9816758632659912 0.0
vn 0.4272250533103943 0.587848424911499 0.6869592666625977
vn 0.4272250831127167 0.5878483653068542 0.6869593262672424
vn 0.42722511291503906 0.5878483057022095 0.6869592666625977
vn 0.42722511291503906 0.5878483057022095 0.6869592666625977
vn 0.5879007577896118 0.8089330196380615 0.0
vn 0.5879008173942566 0.8089330196380615 0.0
vn 0.5879008173942566 0.8089330196380615 0.0
vn 0.5879008173942566 0.8089330196380615 0.0
vn 0.043855126947164536 0.6495446562767029 0.7590575814247131
vn 0.043855130672454834 0.6495446562767029 0.7590576410293579
vn 0.04385512322187424 0.6495446562767029 0.7590575814247131
vn 0.04385512322187424 0.6495446562767029 0.7590575814247131
vn -0.0 0.9999983310699463 0.0018416354432702065
vn -0.0 0.9999983310699463 0.0018416354432702065
vn -0.0 0.9999983310699463 0.0018416353268548846
vn 0.0013991405721753836 0.9999988079071045 0.0007447628304362297
vn 0.02648886665701866 0.6499420404434204 0.759522020816803
vn 0.02648886851966381 0.6499419808387756 0.759522020816803
vn 0.02648886851966381 0.6499420404434204 0.759522020816803
vn 0.02648886851966381 0.6499420404434204 0.759522020816803
vn -0.0 1.0 0.0
vn -0.0 1.0 0.0
vn -0.0 1.0 0.0
vn -0.0 1.0 0.0
vn -0.0 0.6501701474189758 0.7597886323928833
vn -0.0 0.6501701474189758 0.7597886323928833
vn -0.0 0.6501701474189758 0.7597886323928833
vn -0.0 0.6501701474189758 0.7597886919975281
vn 0.11658063530921936 0.993181049823761 0.0005723750800825655
vn 0.11658064275979996 0.993181049823761 0.0005723751382902265
vn 0.11658063530921936 0.993181049823761 0.0005723750800825655
vn 0.11606545746326447 0.9932411909103394 0.0008291234262287617
vn 0.0753808543086052 0.6450787782669067 0.7603888511657715
vn 0.075380839407444 0.6450787782669067 0.7603887319564819
vn 0.07538086175918579 0.6450787782669067 0.7603888511657715
vn 0.07439408451318741 0.6437100768089294 0.7616447806358337
vn 0.13384658098220825 0.9910021424293518 0.0
vn 0.13384658098220825 0.9910020232200623 0.0
vn 0.13384658098220825 0.9910021424293518 0.0
vn 0.13384658098220825 0.9910021424293518 0.0
vn 0.08747639507055283 0.6476776003837585 0.7568761706352234
vn 0.08747639507055283 0.6476776003837585 0.7568761706352234
vn 0.08747640997171402 0.6476776003837585 0.7568761706352234
vn 0.08747655153274536 0.6476777791976929 0.7568760514259338
vn 0.06736335158348083 0.9977285265922546 0.0
vn 0.06736335903406143 0.9977285265922546 0.0
vn 0.06736335903406143 0.9977285265922546 0.0
vn 0.06736335903406143 0.9977285265922546 0.0
vn -0.18986788392066956 0.638343334197998 0.7459677457809448
vn -0.18986791372299194 0.638343334197998 0.7459677457809448
vn -0.18986791372299194 0.6383433938026428 0.7459677457809448
vn -0.18986791372299194 0.6383433938026428 0.7459677457809448
vn -0.0 0.0 1.0
vn -0.0 0.0 1.0
vn -0.0 0.0 1.0
vn -0.0 0.0 1.0
vn -0.0 0.0 1.0
vn -0.0 0.0 1.0
vn -0.0 0.0 1.0
vn -0.0 0.0 1.0
vn -0.0 0.0 1.0
vn -0.0 0.0 1.0
vn -0.0 0.0 1.0
vn -0.0 0.0 1.0
vn -0.0 0.0 1.0
vn -0.0 0.0 1.0
vn -0.0 0.0 1.0
vn -0.0 0.0 1.0
vn -0.0 0.0 1.0
vn -0.0 0.0 1.0
vn -0.0 0.0 1.0
vn -0.0 0.0 1.0
vn -0.0 0.0 1.0
vn -0.0 0.0 1.0
vn -0.0 0.0 1.0
vn -0.0 0.0 1.0
vn -0.0 0.0 1.0
vn -0.0 0.0 1.0
vn -0.0 0.0 1.0
vn -0.0 0.0 1.0
vn -0.0 0.0 1.0
vn -0.0 0.0 1.0
vn -0.0 0.0 1.0
vn -0.0 0.0 1.0
vn -0.0 0.0 1.0
vn -0.0 0.0 1.0
vn -0.0 0.0 1.0
vn -0.0 0.0 1.0
vn -0.0 0.0 1.0
vn -0.0 0.0 1.0
vn -0.0 0.0 1.0
vn -0.0 0.0 1.0
vn -0.0 0.0 1.0
vn -0.0 0.0 1.0
vn -0.0 0.0 1.0
vn -0.0 0.0 1.0
vn -0.0 0.0 1.0
vn -0.0 0.0 1.0
vn -0.0 0.0 1.0
vn -0.0 0.0 1.0
vn -0.0 0.0 1.0
vn -0.0 0.0 1.0
vn -0.0 0.0 1.0
vn -0.0 0.0 1.0
vn -0.0 0.0 1.0
vn -0.0 0.0 1.0
vn -0.0 0.0 1.0
vn -0.0 0.0 1.0
vn -0.0 0.0 1.0
vn -0.0 0.0 1.0
vn -0.0 0.0 1.0
vn -0.0 0.0 1.0
vn -0.0 0.0 1.0
vt 0.7332095503807068 0.7493235170841217
vt 0.7494648098945618 0.5301942825317383
vt 0.7494648098945618 0.7493235170841217
vt 0.7610430121421814 0.7493235170841217
vt 0.49904417991638184 0.749323695898056
vt 0.7494646906852722 0.24716496467590332
vt 0.4990440607070923 0.24716496467590332
vt 0.25029879808425903 0.24716496467590332
vt 0.25029879808425903 0.7423186898231506
vt 0.9998853802680969 0.7493233978748322
vt 0.9998852610588074 0.24716496467590332
vt 1.2503056526184082 0.24716496467590332
vt 1.2503057718276978 0.7493232786655426
vt 0.0 0.24716496467590332
vt 0.0 0.7423186898231506
vt 1.500726342201233 0.7493232786655426
vt 1.500726342201233 0.24716496467590332
vt 1.751146674156189 0.7196318507194519
vt 1.7511467933654785 0.24716496467590332
vt 1.7681384086608887 0.7216463983058929
vt 2.0015673637390137 0.24716496467590332
vt 2.0015676021575928 0.7493229806423187
vt 2.251987934112549 0.7493228614330292
vt 2.251987934112549 0.24716496467590332
vt -0.2569196820259094 0.24716496467590332
vt -0.2569196820259094 0.7423186898231506
vt 0.7505940794944763 1.0
vt 0.7332872748374939 0.7898069620132446
vt 0.7493206858634949 0.7898069620132446
vt 0.7350351810455322 1.0
vt 0.7656159996986389 1.0
vt 0.7493206858634949 0.7898069620132446
vt 0.7605932354927063 0.7898069620132446
vt 0.7505940794944763 1.0
vt 1.2514350414276123 1.0
vt 0.99974125623703 0.7898069620132446
vt 1.2501616477966309 0.7898069620132446
vt 1.0010145902633667 1.0
vt 1.4217209815979004 1.0
vt 1.420447587966919 0.7898069620132446
vt 0.7656159996986389 1.0
vt 0.7605932354927063 0.7898069620132446
vt 1.7511820793151855 0.8194027543067932
vt 1.500582218170166 0.7898069620132446
vt 1.7511006593704224 0.805960014462471
vt 1.7522761821746826 1.0
vt 1.500582218170166 0.7898069620132446
vt 1.7511820793151855 0.8194027543067932
vt 1.5018556118011475 1.0
vt 1.4460906982421875 0.7898069620132446
vt 1.447364091873169 1.0
vt 1.7615864276885986 0.8052833825349808
vt 1.7511820793151855 0.8194027543067932
vt 1.7511005401611328 0.8059600293636322
vt 1.7634053230285645 1.0
vt 1.7522761821746826 1.0
vt 1.7511820793151855 0.8194027543067932
vt 2.253117084503174 1.0
vt 2.0014233589172363 0.7898069620132446
vt 2.2518436908721924 0.7898069620132446
vt 2.0026967525482178 1.0
vt 1.7615864276885986 0.8052833825349808
vt 1.7634053230285645 1.0
vt 0.4989001154899597 0.7898069620132446
vt 0.24975304305553436 1.0
vt 0.2484796941280365 0.7898069620132446
vt 0.5001734495162964 1.0
vt 0.7350351810455322 1.0
vt 0.7332872748374939 0.7898069620132446
vt 0.0 0.7898069620132446
vt 0.0 1.0
vt -0.2569196820259094 0.7898069620132446
vt -0.2569196820259094 1.0
vt 0.7490023970603943 0.749307245016098
vt 0.7332872748374939 0.7898069620132446
vt 0.7327470779418945 0.749307245016098
vt 0.7493206858634949 0.7898069620132446
vt 0.7490023970603943 0.749307245016098
vt 0.7605932354927063 0.7898069620132446
vt 0.7493206858634949 0.7898069620132446
vt 0.7605804800987244 0.749307245016098
vt 1.2498433589935303 0.749307245016098
vt 0.99974125623703 0.7898069620132446
vt 0.9994229674339294 0.749307245016098
vt 1.2501616477966309 0.7898069620132446
vt 0.7605804800987244 0.749307245016098
vt 0.7605932354927063 0.7898069620132446
vt 1.420447587966919 0.7898069620132446
vt 1.4201292991638184 0.749307245016098
vt 1.5002639293670654 0.749307245016098
vt 1.4460906982421875 0.7898069620132446
vt 1.445772409439087 0.749307245016098
vt 1.500582218170166 0.7898069620132446
vt 1.7506167888641357 0.7406931221485138
vt 1.7509350776672363 0.7811928242444992
vt 1.7506169080734253 0.7406930923461914
vt 1.7614277601242065 0.7815536111593246
vt 1.7509348392486572 0.7811927646398544
vt 1.767613172531128 0.7412775754928589
vt 2.0014233589172363 0.7898069620132446
vt 2.0011050701141357 0.749307245016098
vt 2.251525402069092 0.749307245016098
vt 2.2518436908721924 0.7898069620132446
vt 0.49858179688453674 0.749307245016098
vt 0.2484796941280365 0.7898069620132446
vt 0.2502113878726959 0.7408023178577423
vt 0.4989001154899597 0.7898069620132446
vt 0.7332872748374939 0.7898069620132446
vt 0.7327470779418945 0.749307245016098
vt 0.0 0.7408023178577423
vt 0.0 0.7898069620132446
vt -0.2569196820259094 0.7408023178577423
vt -0.2569196820259094 0.7898069620132446
vt 1.447364091873169 1.0
vt 1.420447587966919 0.7898069620132446
vt 1.4460906982421875 0.7898069620132446
vt 1.4217209815979004 1.0
vt 1.4201292991638184 0.749307245016098
vt 1.4460906982421875 0.7898069620132446
vt 1.420447587966919 0.7898069620132446
vt 1.445772409439087 0.749307245016098
vt 1.500726342201233 0.7493232786655426
vt 1.4205917119979858 0.7493232786655426
vt 1.2503057718276978 0.7493232786655426
vt 1.4462348222732544 0.7493232786655426
vt 0.7332095503807068 0.7493235170841217
vt 0.7494648098945618 0.7493235170841217
vt 0.7494648098945618 0.5301942825317383
vt 0.7610430121421814 0.7493235170841217
vt 0.49904417991638184 0.749323695898056
vt 0.7494646906852722 0.24716496467590332
vt 0.4990440607070923 0.24716496467590332
vt 0.25029879808425903 0.24716496467590332
vt 0.419445663690567 0.7470820844173431
vt 0.3644729256629944 0.7455339729785919
vt 0.25029879808425903 0.7423186898231506
vt 0.9998852610588074 0.24716496467590332
vt 0.0 0.24716496467590332
vt 0.0 0.7423186898231506
vt 0.869716227054596 0.7493234574794769
vt 0.9998853802680969 0.7493233978748322
vt 1.0280154943466187 0.7493233680725098
vt 1.1519405841827393 0.749323308467865
vt 1.172675371170044 0.749323308467865
vt 1.1708214282989502 0.24716496467590332
vt 1.2503056526184082 0.24716496467590332
vt 1.2503057718276978 0.7493232786655426
vt 1.390791654586792 0.7493232786655426
vt 1.4205917119979858 0.7493232786655426
vt 1.4462348222732544 0.7493232786655426
vt 1.500726342201233 0.24716496467590332
vt 1.500726342201233 0.7493232786655426
vt 1.5591604709625244 0.7448458671569824
vt 1.6415313482284546 0.7359815537929535
vt 1.68478524684906 0.7359810471534729
vt 1.751146674156189 0.7304535806179047
vt 1.7511467933654785 0.24716496467590332
vt 1.7511467933654785 0.7304535806179047
vt 1.775111198425293 0.7304537892341614
vt 2.0015673637390137 0.24716496467590332
vt 2.0015676021575928 0.7493229806423187
vt 2.251987934112549 0.7493228614330292
vt 2.251987934112549 0.24716496467590332
vt 0.7505940794944763 1.0
vt 0.7332872748374939 0.7898069620132446
vt 0.7350351810455322 1.0
vt 0.7493206858634949 0.7898069620132446
vt 0.7656159996986389 1.0
vt 0.7493206858634949 0.7898069620132446
vt 0.7505940794944763 1.0
vt 0.7605932354927063 0.7898069620132446
vt 0.99974125623703 0.7898069620132446
vt 1.0291447639465332 1.0
vt 1.0278714895248413 0.7898069620132446
vt 1.0010145902633667 1.0
vt 1.2501616477966309 0.7898069620132446
vt 1.3919209241867065 1.0
vt 1.390647530555725 0.7898069620132446
vt 1.2514350414276123 1.0
vt 1.5018556118011475 1.0
vt 1.5590392351150513 0.7906868606805801
vt 1.500582218170166 0.7898069620132446
vt 1.560289740562439 1.0
vt 1.7511005401611328 0.7935776263475418
vt 1.7717984914779663 1.0
vt 1.7699795961380005 0.7935775518417358
vt 1.7522761821746826 1.0
vt 2.253117084503174 1.0
vt 2.0014233589172363 0.7898069620132446
vt 2.0026967525482178 1.0
vt 2.2518436908721924 0.7898069620132446
vt 1.7699795961380005 0.7935775518417358
vt 1.7717984914779663 1.0
vt 0.4200389087200165 1.0
vt 0.4989001154899597 0.7898069620132446
vt 0.4187655746936798 0.7898069620132446
vt 0.5001734495162964 1.0
vt 0.7490023970603943 0.749307245016098
vt 0.7332872748374939 0.7898069620132446
vt 0.7493206858634949 0.7898069620132446
vt 0.7327470779418945 0.749307245016098
vt 0.7490023970603943 0.749307245016098
vt 0.7605932354927063 0.7898069620132446
vt 0.7605804800987244 0.749307245016098
vt 0.7493206858634949 0.7898069620132446
vt 1.172531247138977 0.7898069620132446
vt 1.2498433589935303 0.749307245016098
vt 1.1722129583358765 0.749307245016098
vt 1.2501616477966309 0.7898069620132446
vt 1.5002639293670654 0.749307245016098
vt 1.4460906982421875 0.7898069620132446
vt 1.500582218170166 0.7898069620132446
vt 1.445772409439087 0.749307245016098
vt 1.5586823225021362 0.7448463439941406
vt 1.500582218170166 0.7898069620132446
vt 1.5590006113052368 0.7906862795352936
vt 1.5002639293670654 0.749307245016098
vt 1.7506169080734253 0.7304556965827942
vt 1.7698209285736084 0.793575182557106
vt 1.7745859622955322 0.730455756187439
vt 1.7698209285736084 0.793575182557106
vt 1.7506169080734253 0.7304556965827942
vt 1.7509348392486572 0.7935751527547836
vt 2.251525402069092 0.749307245016098
vt 2.0014233589172363 0.7898069620132446
vt 2.2518436908721924 0.7898069620132446
vt 2.0011050701141357 0.749307245016098
vt 1.7745859622955322 0.730455756187439
vt 1.7698209285736084 0.793575182557106
vt 0.4187655746936798 0.7898069620132446
vt 0.49858179688453674 0.749307245016098
vt 0.4191032648086548 0.7465856671333313
vt 0.4989001154899597 0.7898069620132446
vt 0.49858179688453674 0.749307245016098
vt 0.7332872748374939 0.7898069620132446
vt 0.7327470779418945 0.749307245016098
vt 0.4989001154899597 0.7898069620132446
vt 0.4989001154899597 0.7898069620132446
vt 0.7350351810455322 1.0
vt 0.7332872748374939 0.7898069620132446
vt 0.5001734495162964 1.0
vt 0.7656159996986389 1.0
vt 0.8101028800010681 0.7898069620132446
vt 0.7605932354927063 0.7898069620132446
vt 0.814349353313446 1.0
vt 0.7605932354927063 0.7898069620132446
vt 0.8100268244743347 0.749307245016098
vt 0.7605804800987244 0.749307245016098
vt 0.8101028800010681 0.7898069620132446
vt 0.24975304305553436 1.0
vt 0.0 0.7898069620132446
vt 0.0 1.0
vt 0.2484796941280365 0.7898069620132446
vt 0.3634226620197296 0.7898069620132446
vt 0.3646959960460663 1.0
vt -0.2588881850242615 1.0
vt -0.2569196820259094 0.7898069620132446
vt 0.2484796941280365 0.7898069620132446
vt 0.0 0.7408023178577423
vt 0.0 0.7898069620132446
vt 0.2502113878726959 0.7408023178577423
vt 0.36421340703964233 0.7447060644626617
vt 0.3634226620197296 0.7898069620132446
vt -0.2569196820259094 0.7898069620132446
vt -0.2569196820259094 0.7408023178577423
vt 1.447364091873169 1.0
vt 1.420447587966919 0.7898069620132446
vt 1.4217209815979004 1.0
vt 1.4460906982421875 0.7898069620132446
vt 1.420447587966919 0.7898069620132446
vt 1.3903292417526245 0.749307245016098
vt 1.390647530555725 0.7898069620132446
vt 1.4201292991638184 0.749307245016098
vt 1.4201292991638184 0.749307245016098
vt 1.4460906982421875 0.7898069620132446
vt 1.445772409439087 0.749307245016098
vt 1.420447587966919 0.7898069620132446
vt 1.5018556118011475 1.0
vt 1.4460906982421875 0.7898069620132446
vt 1.447364091873169 1.0
vt 1.500582218170166 0.7898069620132446
vt 1.420447587966919 0.7898069620132446
vt 1.3919209241867065 1.0
vt 1.4217209815979004 1.0
vt 1.390647530555725 0.7898069620132446
vt 1.2501616477966309 0.7898069620132446
vt 1.3903292417526245 0.749307245016098
vt 1.2498433589935303 0.749307245016098
vt 1.390647530555725 0.7898069620132446
vt 1.7511006593704224 0.7935776263475418
vt 1.6859147548675537 1.0
vt 1.7522761821746826 1.0
vt 1.6847132444381714 0.7925784140825272
vt 1.7506167888641357 0.7304556965827942
vt 1.68459153175354 0.7925765961408615
vt 1.7509350776672363 0.7935751527547836
vt 1.6842732429504395 0.7359825968742371
vt 1.6847132444381714 0.7925784140825272
vt 1.6426608562469482 1.0
vt 1.6859147548675537 1.0
vt 1.6414424180984497 0.7925781309604645
vt 1.6842732429504395 0.7359825968742371
vt 1.6413493156433105 0.7925767451524734
vt 1.68459153175354 0.7925765961408615
vt 1.64103102684021 0.735982745885849
vt 1.2501616477966309 0.7898069620132446
vt 1.1738046407699585 1.0
vt 1.2514350414276123 1.0
vt 1.172531247138977 0.7898069620132446
vt 1.1517964601516724 0.7898069620132446
vt 1.1722129583358765 0.749307245016098
vt 1.1514781713485718 0.749307245016098
vt 1.172531247138977 0.7898069620132446
vt 1.172531247138977 0.7898069620132446
vt 1.1530698537826538 1.0
vt 1.1738046407699585 1.0
vt 1.1517964601516724 0.7898069620132446
vt 1.0278714895248413 0.7898069620132446
vt 1.1514781713485718 0.749307245016098
vt 1.0275530815124512 0.749307245016098
vt 1.1517964601516724 0.7898069620132446
vt 1.6414424180984497 0.7925781309604645
vt 1.560289740562439 1.0
vt 1.6426608562469482 1.0
vt 1.5590392351150513 0.7906868606805801
vt 1.64103102684021 0.735982745885849
vt 1.5590006113052368 0.7906862795352936
vt 1.6413493156433105 0.7925767451524734
vt 1.5586823225021362 0.7448463439941406
vt 0.99974125623703 0.7898069620132446
vt 0.872722327709198 1.0
vt 1.0010145902633667 1.0
vt 0.8694055676460266 0.7898069620132446
vt 0.9994229674339294 0.749307245016098
vt 0.8694055676460266 0.7898069620132446
vt 0.99974125623703 0.7898069620132446
vt 0.8692538142204285 0.749307245016098
vt 0.8694055676460266 0.7898069620132446
vt 0.814349353313446 1.0
vt 0.872722327709198 1.0
vt 0.8101028800010681 0.7898069620132446
vt 0.8692538142204285 0.749307245016098
vt 0.8101028800010681 0.7898069620132446
vt 0.8694055676460266 0.7898069620132446
vt 0.8100268244743347 0.749307245016098
vt 0.3646959960460663 1.0
vt 0.4187655746936798 0.7898069620132446
vt 0.3634226620197296 0.7898069620132446
vt 0.4200389087200165 1.0
vt 0.3634226620197296 0.7898069620132446
vt 0.4191032648086548 0.7465856671333313
vt 0.36421340703964233 0.7447060644626617
vt 0.4187655746936798 0.7898069620132446
vt 1.1517964601516724 0.7898069620132446
vt 1.0291447639465332 1.0
vt 1.1530698537826538 1.0
vt 1.0278714895248413 0.7898069620132446
vt 0.99974125623703 0.7898069620132446
vt 1.0275530815124512 0.749307245016098
vt 0.9994229674339294 0.749307245016098
vt 1.0278714895248413 0.7898069620132446
vt 0.869716227054596 0.7493234574794769
vt 0.7610430121421814 0.7493235170841217
vt 0.8104893565177917 0.7493234872817993
vt -0.2569196820259094 0.7423186898231506
vt -0.2569196820259094 0.24716496467590332
vt 2.2512500286102295 0.3795353174209595
vt 2.001093864440918 1.0
vt 2.001093864440918 0.3795353174209595
vt 2.2512500286102295 1.0
vt 1.7509374618530273 1.0
vt 1.7509374618530273 0.3795353174209595
vt 1.5007812976837158 1.0
vt 1.5007812976837158 0.3795353174209595
vt 1.2506250143051147 1.0
vt 1.2506250143051147 0.3795353174209595
vt 1.0004687309265137 1.0
vt 1.0004687309265137 0.3795353174209595
vt 0.7503124475479126 1.0
vt 0.7503124475479126 0.3795353174209595
vt 0.5001561641693115 1.0
vt 0.5001561641693115 0.3795353174209595
vt 0.24999988079071045 0.3795353174209595
vt 0.24999988079071045 1.0
vt -1.1928379706205305e-07 0.3795353174209595
vt 0.0 1.0
vt 0.7503124475479126 0.14332044124603271
vt 0.5001561641693115 0.14332044124603271
vt 1.0004687309265137 0.14332044124603271
vt 1.2506250143051147 0.14332044124603271
vt 1.5007812976837158 0.14332044124603271
vt 1.7509374618530273 0.14332044124603271
vt 2.001093864440918 0.14332044124603271
vt 2.2512500286102295 0.14332044124603271
vt 0.24999988079071045 0.14332044124603271
vt -1.1928379706205305e-07 0.14332044124603271
vt -0.25 0.3795353174209595
vt -0.25 0.14332044124603271
vt -0.25 1.0
vt 2.2512500286102295 0.6823587715625763
vt 2.001093864440918 1.0
vt 2.2512500286102295 1.0
vt 2.001093864440918 0.6823587715625763
vt 1.7509374618530273 1.0
vt 1.7509374618530273 0.6823587715625763
vt 1.5007812976837158 1.0
vt 1.5007812976837158 0.6823587715625763
vt 1.2506250143051147 1.0
vt 1.2506250143051147 0.6823587715625763
vt 1.1712247133255005 1.0
vt 1.0004687309265137 1.0
vt 1.0004687309265137 0.6823587715625763
vt 0.7503124475479126 1.0
vt 0.7503124475479126 0.6823587715625763
vt 0.5001561641693115 1.0
vt 0.5001561641693115 0.6823587715625763
vt 0.24999988079071045 0.6823587715625763
vt 0.24999988079071045 1.0
vt -1.1928379706205305e-07 0.6823587715625763
vt 0.0 1.0
vt -0.25 1.0
vt -0.25 0.6823587715625763

g bg_mdl_map_haikyo_step00
s 1
usemtl bg_mdl_map_haikyo_step00_0
f 3/3/3 2/2/2 1/1/1 
f 4/4/4 2/2/2 3/3/3 
f 5/5/5 1/1/1 2/2/2 
f 6/6/6 5/5/5 2/2/2 
f 6/6/6 2/2/2 4/4/4 
f 7/7/7 5/5/5 6/6/6 
f 7/7/7 8/8/8 5/5/5 
f 9/9/9 5/5/5 8/8/8 
f 10/10/10 6/6/6 4/4/4 
f 11/11/11 6/6/6 10/10/10 
f 12/12/12 11/11/11 10/10/10 
f 13/13/13 12/12/12 10/10/10 
f 8/8/8 14/14/14 9/9/9 
f 15/15/15 9/9/9 14/14/14 
f 12/12/12 13/13/13 16/16/16 
f 17/17/17 12/12/12 16/16/16 
f 16/16/16 18/18/18 17/17/17 
f 19/19/19 17/17/17 18/18/18 
f 18/18/18 20/20/20 19/19/19 
f 19/19/19 20/20/20 21/21/21 
f 22/22/22 21/21/21 20/20/20 
f 22/22/22 23/23/23 21/21/21 
f 24/24/24 21/21/21 23/23/23 
f 14/14/14 25/25/25 15/15/15 
f 26/26/26 15/15/15 25/25/25 
f 29/29/29 28/28/28 27/27/27 
f 30/30/30 27/27/27 28/28/28 
f 33/33/33 32/32/32 31/31/31 
f 34/34/34 31/31/31 32/32/32 
f 37/37/37 36/36/36 35/35/35 
f 38/38/38 35/35/35 36/36/36 
f 35/35/35 39/39/39 37/37/37 
f 40/40/40 37/37/37 39/39/39 
f 38/38/38 36/36/36 41/41/41 
f 42/42/42 41/41/41 36/36/36 
f 45/45/45 44/44/44 43/43/43 
f 48/48/48 47/47/47 46/46/46 
f 46/46/46 47/47/47 49/49/49 
f 47/47/47 50/50/50 49/49/49 
f 51/51/51 49/49/49 50/50/50 
f 54/54/54 53/53/53 52/52/52 
f 52/52/52 53/53/53 55/55/55 
f 55/55/55 57/57/57 56/56/56 
f 60/60/60 59/59/59 58/58/58 
f 61/61/61 58/58/58 59/59/59 
f 59/59/59 62/62/62 61/61/61 
f 63/63/63 61/61/61 62/62/62 
f 66/66/66 65/65/65 64/64/64 
f 67/67/67 64/64/64 65/65/65 
f 67/67/67 68/68/68 64/64/64 
f 69/69/69 64/64/64 68/68/68 
f 66/66/66 70/70/70 65/65/65 
f 71/71/71 65/65/65 70/70/70 
f 70/70/70 72/72/72 71/71/71 
f 73/73/73 71/71/71 72/72/72 
f 76/76/76 75/75/75 74/74/74 
f 77/77/77 74/74/74 75/75/75 
f 80/80/80 79/79/79 78/78/78 
f 81/81/81 78/78/78 79/79/79 
f 84/84/84 83/83/83 82/82/82 
f 85/85/85 82/82/82 83/83/83 
f 84/84/84 86/86/86 83/83/83 
f 87/87/87 83/83/83 86/86/86 
f 85/85/85 88/88/88 82/82/82 
f 89/89/89 82/82/82 88/88/88 
f 92/92/92 91/91/91 90/90/90 
f 93/93/93 90/90/90 91/91/91 
f 90/90/90 93/93/93 94/94/94 
f 95/95/95 94/94/94 93/93/93 
f 98/98/98 97/97/97 96/96/96 
f 99/99/99 96/96/96 97/97/97 
f 97/97/97 100/100/100 99/99/99 
f 101/101/101 99/99/99 100/100/100 
f 101/101/101 100/100/100 102/102/102 
f 103/103/103 102/102/102 100/100/100 
f 106/106/106 105/105/105 104/104/104 
f 107/107/107 104/104/104 105/105/105 
f 107/107/107 108/108/108 104/104/104 
f 109/109/109 104/104/104 108/108/108 
f 106/106/106 110/110/110 105/105/105 
f 111/111/111 105/105/105 110/110/110 
f 110/110/110 112/112/112 111/111/111 
f 113/113/113 111/111/111 112/112/112 
f 116/116/116 115/115/115 114/114/114 
f 117/117/117 114/114/114 115/115/115 
f 120/120/120 119/119/119 118/118/118 
f 121/121/121 118/118/118 119/119/119 
f 124/124/124 123/123/123 122/122/122 
f 122/122/122 123/123/123 125/125/125 
f 128/128/128 127/127/127 126/126/126 
f 128/128/128 129/129/129 127/127/127 
f 126/126/126 130/130/130 128/128/128 
f 130/130/130 131/131/131 128/128/128 
f 132/132/132 131/131/131 130/130/130 
f 133/133/133 132/132/132 130/130/130 
f 134/134/134 133/133/133 130/130/130 
f 135/135/135 133/133/133 134/134/134 
f 136/136/136 133/133/133 135/135/135 
f 131/131/131 137/137/137 128/128/128 
f 129/129/129 128/128/128 137/137/137 
f 133/133/133 136/136/136 138/138/138 
f 139/139/139 138/138/138 136/136/136 
f 140/140/140 129/129/129 137/137/137 
f 141/141/141 140/140/140 137/137/137 
f 137/137/137 142/142/142 141/141/141 
f 143/143/143 142/142/142 137/137/137 
f 144/144/144 143/143/143 137/137/137 
f 145/145/145 144/144/144 137/137/137 
f 146/146/146 144/144/144 145/145/145 
f 147/147/147 144/144/144 146/146/146 
f 147/147/147 146/146/146 148/148/148 
f 148/148/148 146/146/146 149/149/149 
f 149/149/149 146/146/146 150/150/150 
f 146/146/146 151/151/151 150/150/150 
f 151/151/151 152/152/152 150/150/150 
f 152/152/152 151/151/151 153/153/153 
f 153/153/153 151/151/151 154/154/154 
f 154/154/154 151/151/151 155/155/155 
f 155/155/155 151/151/151 156/156/156 
f 156/156/156 151/151/151 157/157/157 
f 159/159/159 158/158/158 157/157/157 
f 157/157/157 160/160/160 159/159/159 
f 161/161/161 159/159/159 160/160/160 
f 161/161/161 160/160/160 162/162/162 
f 163/163/163 162/162/162 160/160/160 
f 166/166/166 165/165/165 164/164/164 
f 167/167/167 164/164/164 165/165/165 
f 170/170/170 169/169/169 168/168/168 
f 171/171/171 168/168/168 169/169/169 
f 174/174/174 173/173/173 172/172/172 
f 175/175/175 172/172/172 173/173/173 
f 178/178/178 177/177/177 176/176/176 
f 179/179/179 176/176/176 177/177/177 
f 182/182/182 181/181/181 180/180/180 
f 183/183/183 180/180/180 181/181/181 
f 186/186/186 185/185/185 184/184/184 
f 187/187/187 184/184/184 185/185/185 
f 190/190/190 189/189/189 188/188/188 
f 191/191/191 188/188/188 189/189/189 
f 189/189/189 190/190/190 192/192/192 
f 193/193/193 192/192/192 190/190/190 
f 196/196/196 195/195/195 194/194/194 
f 197/197/197 194/194/194 195/195/195 
f 200/200/200 199/199/199 198/198/198 
f 201/201/201 198/198/198 199/199/199 
f 204/204/204 203/203/203 202/202/202 
f 205/205/205 202/202/202 203/203/203 
f 208/208/208 207/207/207 206/206/206 
f 209/209/209 206/206/206 207/207/207 
f 212/212/212 211/211/211 210/210/210 
f 213/213/213 210/210/210 211/211/211 
f 216/216/216 215/215/215 214/214/214 
f 217/217/217 214/214/214 215/215/215 
f 220/220/220 219/219/219 218/218/218 
f 223/223/223 222/222/222 221/221/221 
f 226/226/226 225/225/225 224/224/224 
f 227/227/227 224/224/224 225/225/225 
f 227/227/227 225/225/225 228/228/228 
f 229/229/229 228/228/228 225/225/225 
f 232/232/232 231/231/231 230/230/230 
f 233/233/233 230/230/230 231/231/231 
f 236/236/236 235/235/235 234/234/234 
f 237/237/237 234/234/234 235/235/235 
f 240/240/240 239/239/239 238/238/238 
f 241/241/241 238/238/238 239/239/239 
f 244/244/244 243/243/243 242/242/242 
f 245/245/245 242/242/242 243/243/243 
f 248/248/248 247/247/247 246/246/246 
f 249/249/249 246/246/246 247/247/247 
f 252/252/252 251/251/251 250/250/250 
f 253/253/253 250/250/250 251/251/251 
f 253/253/253 254/254/254 250/250/250 
f 255/255/255 250/250/250 254/254/254 
f 252/252/252 256/256/256 251/251/251 
f 257/257/257 251/251/251 256/256/256 
f 260/260/260 259/259/259 258/258/258 
f 261/261/261 258/258/258 259/259/259 
f 261/261/261 262/262/262 258/258/258 
f 263/263/263 258/258/258 262/262/262 
f 260/260/260 264/264/264 259/259/259 
f 265/265/265 259/259/259 264/264/264 
f 268/268/268 267/267/267 266/266/266 
f 269/269/269 266/266/266 267/267/267 
f 272/272/272 271/271/271 270/270/270 
f 273/273/273 270/270/270 271/271/271 
f 276/276/276 275/275/275 274/274/274 
f 277/277/277 274/274/274 275/275/275 
f 280/280/280 279/279/279 278/278/278 
f 281/281/281 278/278/278 279/279/279 
f 284/284/284 283/283/283 282/282/282 
f 285/285/285 282/282/282 283/283/283 
f 288/288/288 287/287/287 286/286/286 
f 289/289/289 286/286/286 287/287/287 
f 292/292/292 291/291/291 290/290/290 
f 293/293/293 290/290/290 291/291/291 
f 296/296/296 295/295/295 294/294/294 
f 297/297/297 294/294/294 295/295/295 
f 300/300/300 299/299/299 298/298/298 
f 301/301/301 298/298/298 299/299/299 
f 304/304/304 303/303/303 302/302/302 
f 305/305/305 302/302/302 303/303/303 
f 308/308/308 307/307/307 306/306/306 
f 309/309/309 306/306/306 307/307/307 
f 312/312/312 311/311/311 310/310/310 
f 313/313/313 310/310/310 311/311/311 
f 316/316/316 315/315/315 314/314/314 
f 317/317/317 314/314/314 315/315/315 
f 320/320/320 319/319/319 318/318/318 
f 321/321/321 318/318/318 319/319/319 
f 324/324/324 323/323/323 322/322/322 
f 325/325/325 322/322/322 323/323/323 
f 328/328/328 327/327/327 326/326/326 
f 329/329/329 326/326/326 327/327/327 
f 332/332/332 331/331/331 330/330/330 
f 333/333/333 330/330/330 331/331/331 
f 336/336/336 335/335/335 334/334/334 
f 337/337/337 334/334/334 335/335/335 
f 340/340/340 339/339/339 338/338/338 
f 341/341/341 338/338/338 339/339/339 
f 344/344/344 343/343/343 342/342/342 
f 345/345/345 342/342/342 343/343/343 
f 348/348/348 347/347/347 346/346/346 
f 349/349/349 346/346/346 347/347/347 
f 352/352/352 351/351/351 350/350/350 
f 353/353/353 350/350/350 351/351/351 
f 356/356/356 355/355/355 354/354/354 
f 357/357/357 354/354/354 355/355/355 
f 360/360/360 359/359/359 358/358/358 
f 361/361/361 358/358/358 359/359/359 
f 364/364/364 363/363/363 362/362/362 
f 139/139/139 365/365/365 138/138/138 
f 366/366/366 138/138/138 365/365/365 

usemtl bg_mdl_map_haikyo_step00_1
f 369/369/369 368/368/368 367/367/367 
f 370/370/370 367/367/367 368/368/368 
f 368/368/368 369/369/369 371/371/371 
f 372/372/372 371/371/371 369/369/369 
f 371/371/371 372/372/372 373/373/373 
f 374/374/374 373/373/373 372/372/372 
f 373/373/373 374/374/374 375/375/375 
f 376/376/376 375/375/375 374/374/374 
f 375/375/375 376/376/376 377/377/377 
f 378/378/378 377/377/377 376/376/376 
f 377/377/377 378/378/378 379/379/379 
f 380/380/380 379/379/379 378/378/378 
f 379/379/379 380/380/380 381/381/381 
f 382/382/382 381/381/381 380/380/380 
f 382/382/382 383/383/383 381/381/381 
f 384/384/384 381/381/381 383/383/383 
f 383/383/383 385/385/385 384/384/384 
f 386/386/386 384/384/384 385/385/385 
f 380/380/380 387/387/387 382/382/382 
f 388/388/388 382/382/382 387/387/387 
f 382/382/382 388/388/388 383/383/383 
f 378/378/378 389/389/389 380/380/380 
f 387/387/387 380/380/380 389/389/389 
f 376/376/376 390/390/390 378/378/378 
f 389/389/389 378/378/378 390/390/390 
f 390/390/390 376/376/376 391/391/391 
f 374/374/374 391/391/391 376/376/376 
f 391/391/391 374/374/374 392/392/392 
f 372/372/372 392/392/392 374/374/374 
f 392/392/392 372/372/372 393/393/393 
f 369/369/369 393/393/393 372/372/372 
f 393/393/393 369/369/369 394/394/394 
f 367/367/367 394/394/394 369/369/369 
f 395/395/395 383/383/383 388/388/388 
f 383/383/383 395/395/395 385/385/385 
f 396/396/396 385/385/385 395/395/395 
f 385/385/385 397/397/397 386/386/386 
f 396/396/396 398/398/398 385/385/385 
f 397/397/397 385/385/385 398/398/398 
f 399/399/399 386/386/386 397/397/397 
f 402/402/402 401/401/401 400/400/400 
f 403/403/403 400/400/400 401/401/401 
f 401/401/401 404/404/404 403/403/403 
f 405/405/405 403/403/403 404/404/404 
f 404/404/404 406/406/406 405/405/405 
f 407/407/407 405/405/405 406/406/406 
f 406/406/406 408/408/408 407/407/407 
f 409/409/409 407/407/407 408/408/408 
f 408/408/408 410/410/410 409/409/409 
f 410/410/410 411/411/411 409/409/409 
f 412/412/412 409/409/409 411/411/411 
f 411/411/411 413/413/413 412/412/412 
f 414/414/414 412/412/412 413/413/413 
f 413/413/413 415/415/415 414/414/414 
f 416/416/416 414/414/414 415/415/415 
f 416/416/416 415/415/415 417/417/417 
f 418/418/418 417/417/417 415/415/415 
f 417/417/417 418/418/418 419/419/419 
f 420/420/420 419/419/419 418/418/418 
f 420/420/420 421/421/421 419/419/419 
f 422/422/422 419/419/419 421/421/421 

