v -0.5 0.5 0.3999999761581421
v -0.5 -0.5 0.5
v -0.5 -0.5 0.3999999761581421
v -0.5 0.5 0.5
v -0.5 -0.5 0.3999999761581421
v 0.5 -0.5 0.5
v 0.5 -0.5 0.3999999761581421
v -0.5 -0.5 0.5
v 0.5 -0.5 0.3999999761581421
v 0.5 0.5 0.5
v 0.5 0.5 0.3999999761581421
v 0.5 -0.5 0.5
v 0.5 0.5 0.3999999761581421
v -0.5 0.5 0.5
v -0.5 0.5 0.3999999761581421
v 0.5 0.5 0.5
v -0.5 0.5 0.5
v -0.32058408856391907 -0.32058408856391907 0.5
v -0.5 -0.5 0.5
v -0.32058408856391907 0.32058408856391907 0.5
v 0.32058408856391907 -0.32058408856391907 0.5
v 0.5 -0.5 0.5
v 0.32058408856391907 0.32058408856391907 0.5
v 0.5 0.5 0.5
v -0.27303504943847656 -0.27303504943847656 0.6256137490272522
v -0.27303504943847656 0.27303504943847656 0.5745129585266113
v -0.27303504943847656 0.27303504943847656 0.6256137490272522
v -0.27303504943847656 -0.27303504943847656 0.5745129585266113
v 0.27303504943847656 -0.27303504943847656 0.6256137490272522
v -0.27303504943847656 -0.27303504943847656 0.5745129585266113
v -0.27303504943847656 -0.27303504943847656 0.6256137490272522
v 0.27303504943847656 -0.27303504943847656 0.5745129585266113
v 0.27303504943847656 0.27303504943847656 0.6256137490272522
v 0.27303504943847656 -0.27303504943847656 0.5745129585266113
v 0.27303504943847656 -0.27303504943847656 0.6256137490272522
v 0.27303504943847656 0.27303504943847656 0.5745129585266113
v -0.27303504943847656 0.27303504943847656 0.6256137490272522
v 0.27303504943847656 0.27303504943847656 0.5745129585266113
v 0.27303504943847656 0.27303504943847656 0.6256137490272522
v -0.27303504943847656 0.27303504943847656 0.5745129585266113
v -0.21702156960964203 -0.21702156960964203 0.6391049027442932
v -0.27303504943847656 0.27303504943847656 0.6256137490272522
v -0.21702156960964203 0.21702156960964203 0.6391049027442932
v -0.27303504943847656 -0.27303504943847656 0.6256137490272522
v -0.32058408856391907 0.32058408856391907 0.5
v -0.32058408856391907 -0.32058408856391907 0.5600000023841858
v -0.32058408856391907 -0.32058408856391907 0.5
v -0.32058408856391907 0.32058408856391907 0.5600000023841858
v -0.32058408856391907 0.32058408856391907 0.5600000023841858
v -0.27303504943847656 -0.27303504943847656 0.5745129585266113
v -0.32058408856391907 -0.32058408856391907 0.5600000023841858
v -0.27303504943847656 0.27303504943847656 0.5745129585266113
v 0.21702156960964203 -0.21702156960964203 0.6391049027442932
v -0.27303504943847656 -0.27303504943847656 0.6256137490272522
v -0.21702156960964203 -0.21702156960964203 0.6391049027442932
v 0.27303504943847656 -0.27303504943847656 0.6256137490272522
v -0.32058408856391907 -0.32058408856391907 0.5
v 0.32058408856391907 -0.32058408856391907 0.5600000023841858
v 0.32058408856391907 -0.32058408856391907 0.5
v -0.32058408856391907 -0.32058408856391907 0.5600000023841858
v -0.32058408856391907 -0.32058408856391907 0.5600000023841858
v 0.27303504943847656 -0.27303504943847656 0.5745129585266113
v 0.32058408856391907 -0.32058408856391907 0.5600000023841858
v -0.27303504943847656 -0.27303504943847656 0.5745129585266113
v 0.21702156960964203 0.21702156960964203 0.6391049027442932
v 0.27303504943847656 -0.27303504943847656 0.6256137490272522
v 0.21702156960964203 -0.21702156960964203 0.6391049027442932
v 0.27303504943847656 0.27303504943847656 0.6256137490272522
v 0.32058408856391907 -0.32058408856391907 0.5
v 0.32058408856391907 0.32058408856391907 0.5600000023841858
v 0.32058408856391907 0.32058408856391907 0.5
v 0.32058408856391907 -0.32058408856391907 0.5600000023841858
v 0.32058408856391907 -0.32058408856391907 0.5600000023841858
v 0.27303504943847656 0.27303504943847656 0.5745129585266113
v 0.32058408856391907 0.32058408856391907 0.5600000023841858
v 0.27303504943847656 -0.27303504943847656 0.5745129585266113
v -0.21702156960964203 0.21702156960964203 0.6391049027442932
v 0.27303504943847656 0.27303504943847656 0.6256137490272522
v 0.21702156960964203 0.21702156960964203 0.6391049027442932
v -0.27303504943847656 0.27303504943847656 0.6256137490272522
v 0.32058408856391907 0.32058408856391907 0.5
v -0.32058408856391907 0.32058408856391907 0.5600000023841858
v -0.32058408856391907 0.32058408856391907 0.5
v 0.32058408856391907 0.32058408856391907 0.5600000023841858
v 0.32058408856391907 0.32058408856391907 0.5600000023841858
v -0.27303504943847656 0.27303504943847656 0.5745129585266113
v -0.32058408856391907 0.32058408856391907 0.5600000023841858
v 0.27303504943847656 0.27303504943847656 0.5745129585266113
v -0.20777806639671326 -0.20777806639671326 0.699999988079071
v -0.21702156960964203 0.21702156960964203 0.6391049027442932
v -0.20777806639671326 0.20777806639671326 0.699999988079071
v -0.21702156960964203 -0.21702156960964203 0.6391049027442932
v 0.20777806639671326 -0.20777806639671326 0.699999988079071
v -0.21702156960964203 -0.21702156960964203 0.6391049027442932
v -0.20777806639671326 -0.20777806639671326 0.699999988079071
v 0.21702156960964203 -0.21702156960964203 0.6391049027442932
v 0.20777806639671326 0.20777806639671326 0.699999988079071
v 0.21702156960964203 -0.21702156960964203 0.6391049027442932
v 0.20777806639671326 -0.20777806639671326 0.699999988079071
v 0.21702156960964203 0.21702156960964203 0.6391049027442932
v -0.20777806639671326 0.20777806639671326 0.699999988079071
v 0.21702156960964203 0.21702156960964203 0.6391049027442932
v 0.20777806639671326 0.20777806639671326 0.699999988079071
v -0.21702156960964203 0.21702156960964203 0.6391049027442932
v -0.20777806639671326 0.20777806639671326 0.699999988079071
v -0.3022599518299103 0.3022599518299103 1.2999999523162842
v -0.2739293873310089 -0.21767354011535645 1.120088815689087
v -0.3022599220275879 -0.13378019630908966 1.2999999523162842
v -0.22463607788085938 -0.22463607788085938 0.8070554733276367
v -0.20777806639671326 -0.20777806639671326 0.699999988079071
v -0.20777806639671326 -0.20777806639671326 0.699999988079071
v -0.22463607788085938 -0.22463607788085938 0.8070554733276367
v 0.20777806639671326 -0.20777806639671326 0.699999988079071
v 0.2597277760505676 -0.2597277760505676 1.0299025774002075
v -0.19283194839954376 -0.2597277760505676 1.0299025774002075
v 0.3022599518299103 0.3022599518299103 1.2999999523162842
v 0.2597277760505676 -0.2597277760505676 1.0299025774002075
v 0.3022599518299103 -0.13378022611141205 1.2999999523162842
v 0.20777806639671326 0.20777806639671326 0.699999988079071
v 0.20777806639671326 -0.20777806639671326 0.699999988079071
v -0.20777806639671326 0.20777806639671326 0.699999988079071
v 0.3022599518299103 0.3022599518299103 1.2999999523162842
v -0.3022599518299103 0.3022599518299103 1.2999999523162842
v 0.20777806639671326 0.20777806639671326 0.699999988079071
v -0.38463759422302246 0.38463759422302246 0.0
v -0.45190587639808655 -0.45190587639808655 0.3999999761581421
v -0.38463759422302246 -0.38463759422302246 0.0
v -0.45190587639808655 0.45190587639808655 0.3999999761581421
v -0.38463759422302246 -0.38463759422302246 0.0
v 0.45190587639808655 -0.45190587639808655 0.3999999761581421
v 0.38463759422302246 -0.38463759422302246 0.0
v -0.45190587639808655 -0.45190587639808655 0.3999999761581421
v 0.38463759422302246 -0.38463759422302246 0.0
v 0.45190587639808655 0.45190587639808655 0.3999999761581421
v 0.38463759422302246 0.38463759422302246 0.0
v 0.45190587639808655 -0.45190587639808655 0.3999999761581421
v 0.38463759422302246 0.38463759422302246 0.0
v -0.45190587639808655 0.45190587639808655 0.3999999761581421
v -0.38463759422302246 0.38463759422302246 0.0
v 0.45190587639808655 0.45190587639808655 0.3999999761581421
v 0.3022599518299103 0.3022599518299103 1.2999999523162842
v 0.3022599518299103 -0.13378022611141205 1.2999999523162842
v 0.2880387306213379 -0.05657435953617096 1.4655697345733643
v 0.2679029107093811 0.17109236121177673 1.6999998092651367
v 0.2679029107093811 0.2679029107093811 1.6999998092651367
v -0.3022599518299103 0.3022599518299103 1.2999999523162842
v 0.3022599518299103 0.3022599518299103 1.2999999523162842
v -0.2738836705684662 0.2738836705684662 1.6303691864013672
v -0.1592208743095398 0.2679029107093811 1.6999998092651367
v 0.2679029107093811 0.2679029107093811 1.6999998092651367
v -0.2679029107093811 0.05274146795272827 1.6999998092651367
v -0.3022599220275879 -0.13378019630908966 1.2999999523162842
v -0.2679023742675781 0.17806130647659302 1.6999996900558472
v -0.2738836705684662 0.2738836705684662 1.6303691864013672
v -0.3022599518299103 0.3022599518299103 1.2999999523162842
v 0.2597277760505676 -0.2597277760505676 1.0299025774002075
v -0.19283194839954376 -0.2597277760505676 1.0299025774002075
v 0.3022599518299103 -0.13378022611141205 1.2999999523162842
v -0.2739293873310089 -0.21767354011535645 1.120088815689087
v -0.3022599220275879 -0.13378019630908966 1.2999999523162842
v 0.2880387306213379 -0.05657435953617096 1.4655697345733643
v 0.14405182003974915 0.05274242162704468 1.6999999284744263
v -0.2679029107093811 0.05274146795272827 1.6999998092651367
v 0.2679029107093811 0.17109236121177673 1.6999998092651367
v 0.2880387306213379 -0.05657435953617096 1.4655697345733643
v 0.14405182003974915 0.05274242162704468 1.6999999284744263
v -0.2738836705684662 0.2738836705684662 1.6303691864013672
v -0.1592208743095398 0.2679029107093811 1.6999998092651367
v -0.2679023742675781 0.17806130647659302 1.6999996900558472
v -0.22463607788085938 -0.22463607788085938 0.8070554733276367
v -0.2739293873310089 -0.21767354011535645 1.120088815689087
v -0.19283194839954376 -0.2597277760505676 1.0299025774002075
v 0.2679029107093811 0.2679029107093811 1.6999998092651367
v 0.2679029107093811 0.17109236121177673 1.6999998092651367
v -0.1592208743095398 0.2679029107093811 1.6999998092651367
v 0.14405182003974915 0.05274242162704468 1.6999999284744263
v -0.2679023742675781 0.17806130647659302 1.6999996900558472
v -0.2679029107093811 0.05274146795272827 1.6999998092651367
vn -1.0 0.0 0.0
vn -1.0 0.0 0.0
vn -1.0 0.0 0.0
vn -1.0 0.0 0.0
vn -0.0 -1.0 0.0
vn -0.0 -1.0 0.0
vn -0.0 -1.0 0.0
vn -0.0 -1.0 0.0
vn 1.0 0.0 0.0
vn 1.0 0.0 0.0
vn 1.0 0.0 0.0
vn 1.0 0.0 0.0
vn -0.0 1.0 0.0
vn -0.0 1.0 0.0
vn -0.0 1.0 0.0
vn -0.0 1.0 0.0
vn -0.0 0.0 1.0
vn -0.0 0.0 1.0
vn -0.0 0.0 1.0
vn -0.0 0.0 1.0
vn -0.0 0.0 1.0
vn -0.0 0.0 1.0
vn -0.0 0.0 1.0
vn -0.0 0.0 1.0
vn -1.0 0.0 0.0
vn -1.0 0.0 0.0
vn -1.0 0.0 0.0
vn -1.0 0.0 0.0
vn -0.0 -1.0 0.0
vn -0.0 -1.0 0.0
vn -0.0 -1.0 0.0
vn -0.0 -1.0 0.0
vn 1.0 0.0 0.0
vn 1.0 0.0 0.0
vn 1.0 0.0 0.0
vn 1.0 0.0 0.0
vn -0.0 1.0 0.0
vn -0.0 1.0 0.0
vn -0.0 1.0 0.0
vn -0.0 1.0 0.0
vn -0.23415900766849518 0.0 0.9721983075141907
vn -0.23415899276733398 0.0 0.9721983075141907
vn -0.23415900766849518 0.0 0.9721983075141907
vn -0.23415902256965637 0.0 0.9721983075141907
vn -1.0 0.0 0.0
vn -1.0 0.0 0.0
vn -1.0 0.0 0.0
vn -1.0 0.0 0.0
vn -0.29192599654197693 0.0 0.9564409852027893
vn -0.2919260263442993 0.0 0.9564409852027893
vn -0.2919260263442993 0.0 0.9564409852027893
vn -0.29192599654197693 0.0 0.9564409852027893
vn -0.0 -0.23415900766849518 0.9721983075141907
vn -0.0 -0.23415899276733398 0.9721983075141907
vn -0.0 -0.23415900766849518 0.9721983075141907
vn -0.0 -0.23415902256965637 0.9721983075141907
vn -0.0 -1.0 0.0
vn -0.0 -1.0 0.0
vn -0.0 -1.0 0.0
vn -0.0 -1.0 0.0
vn -0.0 -0.29192599654197693 0.9564409852027893
vn -0.0 -0.2919260263442993 0.9564409852027893
vn -0.0 -0.2919260263442993 0.9564409852027893
vn -0.0 -0.29192599654197693 0.9564409852027893
vn 0.23415900766849518 0.0 0.9721983075141907
vn 0.23415899276733398 0.0 0.9721983075141907
vn 0.23415900766849518 0.0 0.9721983075141907
vn 0.23415902256965637 0.0 0.9721983075141907
vn 1.0 0.0 0.0
vn 1.0 0.0 0.0
vn 1.0 0.0 0.0
vn 1.0 0.0 0.0
vn 0.29192599654197693 0.0 0.9564409852027893
vn 0.2919260263442993 0.0 0.9564409852027893
vn 0.2919260263442993 0.0 0.9564409852027893
vn 0.29192599654197693 0.0 0.9564409852027893
vn -0.0 0.23415900766849518 0.9721983075141907
vn -0.0 0.23415899276733398 0.9721983075141907
vn -0.0 0.23415900766849518 0.9721983075141907
vn -0.0 0.23415902256965637 0.9721983075141907
vn -0.0 1.0 0.0
vn -0.0 1.0 0.0
vn -0.0 1.0 0.0
vn -0.0 1.0 0.0
vn -0.0 0.29192599654197693 0.9564409852027893
vn -0.0 0.2919260263442993 0.9564409852027893
vn -0.0 0.2919260263442993 0.9564409852027893
vn -0.0 0.29192599654197693 0.9564409852027893
vn -0.9886747002601624 0.0 0.15007488429546356
vn -0.9886747002601624 0.0 0.15007488429546356
vn -0.9886747002601624 0.0 0.15007486939430237
vn -0.9886747002601624 0.0 0.15007488429546356
vn -0.0 -0.9886747002601624 0.15007488429546356
vn -0.0 -0.9886747002601624 0.15007488429546356
vn -0.0 -0.9886747002601624 0.15007486939430237
vn -0.0 -0.9886747002601624 0.15007488429546356
vn 0.9886747002601624 0.0 0.15007488429546356
vn 0.9886747002601624 0.0 0.15007488429546356
vn 0.9886747002601624 0.0 0.15007486939430237
vn 0.9886747002601624 0.0 0.15007488429546356
vn -0.0 0.9886747002601624 0.15007488429546356
vn -0.0 0.9886747002601624 0.15007488429546356
vn -0.0 0.9886747002601624 0.15007486939430237
vn -0.0 0.9886747002601624 0.15007488429546356
vn -0.9878275394439697 0.0 -0.15555302798748016
vn -0.9878275394439697 0.0 -0.1555529683828354
vn -0.9878275394439697 0.0 -0.15555298328399658
vn -0.9878275394439697 0.0 -0.15555284917354584
vn -0.9878275394439697 0.0 -0.15555301308631897
vn -0.9878275394439697 0.0 -0.1555529683828354
vn -0.0 -0.9878275394439697 -0.1555529683828354
vn -0.0 -0.9878275394439697 -0.15555299818515778
vn -0.0 -0.9878275394439697 -0.15555299818515778
vn -0.0 -0.9878275394439697 -0.15555301308631897
vn -0.0 -0.9878275394439697 -0.15555304288864136
vn 0.9878275394439697 0.0 -0.15555301308631897
vn 0.9878275394439697 0.0 -0.15555301308631897
vn 0.9878275394439697 0.0 -0.15555301308631897
vn 0.9878275394439697 0.0 -0.15555302798748016
vn 0.9878275394439697 0.0 -0.15555301308631897
vn -0.0 0.9878275394439697 -0.15555299818515778
vn -0.0 0.9878275394439697 -0.15555301308631897
vn -0.0 0.9878275394439697 -0.15555299818515778
vn -0.0 0.9878275394439697 -0.15555302798748016
vn -0.9861522912979126 0.0 -0.1658419370651245
vn -0.9861522912979126 0.0 -0.1658419519662857
vn -0.9861522912979126 0.0 -0.1658419519662857
vn -0.9861522912979126 0.0 -0.1658419519662857
vn -0.0 -0.9861522912979126 -0.1658419370651245
vn -0.0 -0.9861522912979126 -0.1658419519662857
vn -0.0 -0.9861522912979126 -0.1658419519662857
vn -0.0 -0.9861522912979126 -0.1658419519662857
vn 0.9861522912979126 0.0 -0.1658419370651245
vn 0.9861522912979126 0.0 -0.1658419519662857
vn 0.9861522912979126 0.0 -0.1658419519662857
vn 0.9861522912979126 0.0 -0.1658419519662857
vn -0.0 0.9861522912979126 -0.1658419370651245
vn -0.0 0.9861522912979126 -0.1658419519662857
vn -0.0 0.9861522912979126 -0.1658419519662857
vn -0.0 0.9861522912979126 -0.1658419519662857
vn 0.996331512928009 0.0 0.0855775773525238
vn 0.996331512928009 0.0 0.0855775773525238
vn 0.996331512928009 0.0 0.0855775773525238
vn 0.996331512928009 0.0 0.0855775699019432
vn 0.996331512928009 0.0 0.08557756245136261
vn -0.0 0.996331512928009 0.0855775699019432
vn -0.0 0.996331512928009 0.08557756245136261
vn -0.0 0.996331512928009 0.0855775699019432
vn -0.0 0.996331512928009 0.0855775699019432
vn -0.0 0.996331512928009 0.0855775773525238
vn -0.9963317513465881 4.350119979790179e-06 0.08557551354169846
vn -0.996331512928009 2.286269022988563e-07 0.08557789027690887
vn -0.9963313937187195 -3.600701745654078e-07 0.08557915687561035
vn -0.9963313937187195 -1.7634616824580007e-06 0.08557967096567154
vn -0.996331512928009 0.0 0.0855775699019432
vn -0.0 -0.9063089489936829 0.4226156771183014
vn -1.1838692159926723e-07 -0.9063088297843933 0.4226159155368805
vn -0.0 -0.9063089489936829 0.42261576652526855
vn -0.0 -0.9063089489936829 0.42261579632759094
vn 2.947747645976051e-07 -0.9063087701797485 0.4226161241531372
vn -4.92005256091943e-07 -0.9063083529472351 0.42261698842048645
vn 1.4240431767120754e-07 -0.9063081741333008 0.4226174056529999
vn 1.941566551977303e-06 -0.9063089489936829 0.4226156771183014
vn 0.5496557950973511 -0.5752041935920715 0.6058207154273987
vn 0.5496557950973511 -0.5752041935920715 0.6058207154273987
vn 0.5496557950973511 -0.5752041935920715 0.6058207154273987
vn -0.4253166615962982 0.5145049095153809 0.7445740103721619
vn -0.4253166913986206 0.5145049095153809 0.7445740699768066
vn -0.4253166615962982 0.5145049095153809 0.7445740103721619
vn -0.5126761198043823 -0.8563634157180786 -0.06168369948863983
vn -0.5126761198043823 -0.8563634157180786 -0.06168369948863983
vn -0.5126761794090271 -0.8563634157180786 -0.06168369948863983
vn -0.0 0.0 1.0
vn -0.0 4.401508704177104e-07 1.0
vn -6.497841127384163e-07 -2.7119801870867377e-07 1.0
vn -0.0 8.436397820332786e-07 1.0
vn -6.096893798712699e-07 4.3099399249513226e-07 1.0
vn -3.7040248912489915e-07 1.2175891015431262e-06 1.0
vt 0.9951789975166321 0.717841625213623
vt 0.7451788783073425 0.7428416013717651
vt 0.7451788783073425 0.717841625213623
vt 0.9951789975166321 0.7428416013717651
vt 0.9951789975166321 0.717841625213623
vt 0.7451788783073425 0.7428416013717651
vt 0.7451788783073425 0.717841625213623
vt 0.9951789975166321 0.7428416013717651
vt 0.9951789975166321 0.717841625213623
vt 0.7451788783073425 0.7428416013717651
vt 0.7451788783073425 0.717841625213623
vt 0.9951789975166321 0.7428416013717651
vt 0.9951789975166321 0.717841625213623
vt 0.7451788783073425 0.7428416013717651
vt 0.7451788783073425 0.717841625213623
vt 0.9662854671478271 0.7428416013717651
vt 0.7444553971290588 0.7435037195682526
vt 0.7893093228340149 0.9486497417092323
vt 0.7444553971290588 0.9935037288814783
vt 0.7893094420433044 0.7883577048778534
vt 0.9496014714241028 0.9486498013138771
vt 0.9944553971290588 0.9935037884861231
vt 0.9496014714241028 0.7883577048778534
vt 0.9944553971290588 0.7435037791728973
vt 0.7252821326255798 0.530351459980011
vt 0.7380574345588684 0.6668689250946045
vt 0.7252822518348694 0.6668689846992493
vt 0.7380573153495789 0.5303514003753662
vt 0.7252821326255798 0.530351459980011
vt 0.7380574345588684 0.6668689250946045
vt 0.7252822518348694 0.6668689846992493
vt 0.7380573153495789 0.5303514003753662
vt 0.7252821326255798 0.530351459980011
vt 0.7380574345588684 0.6668689250946045
vt 0.7252822518348694 0.6668689846992493
vt 0.7380573153495789 0.5303514003753662
vt 0.7252821326255798 0.530351459980011
vt 0.7380574345588684 0.6668689250946045
vt 0.7252822518348694 0.6668689846992493
vt 0.7380573153495789 0.5303514003753662
vt 0.9252880811691284 0.5575697720050812
vt 0.8027739524841309 0.5715732276439667
vt 0.8167773485183716 0.5575697720050812
vt 0.9392914772033691 0.5715731680393219
vt 0.7588926553726196 0.6787562370300293
vt 0.7438925504684448 0.518464207649231
vt 0.7588925361633301 0.518464207649231
vt 0.7438926696777344 0.6787562370300293
vt 0.7908867597579956 0.5959910154342651
vt 0.9392914772033691 0.5841037034988403
vt 0.951178789138794 0.5959910154342651
vt 0.8027739524841309 0.5841037631034851
vt 0.9252880811691284 0.5573691427707672
vt 0.8027739524841309 0.5713724195957184
vt 0.8167773485183716 0.5573690831661224
vt 0.9392914772033691 0.5713724792003632
vt 0.7588926553726196 0.6787562370300293
vt 0.7438925504684448 0.518464207649231
vt 0.7588925361633301 0.518464207649231
vt 0.7438926696777344 0.6787562370300293
vt 0.790886640548706 0.5957902669906616
vt 0.9392914772033691 0.5839030146598816
vt 0.951178789138794 0.5957902669906616
vt 0.8027739524841309 0.5839029550552368
vt 0.925288200378418 0.5573690235614777
vt 0.8027740716934204 0.5713724195957184
vt 0.8167773485183716 0.5573690235614777
vt 0.9392915964126587 0.5713724195957184
vt 0.7588926553726196 0.6787562370300293
vt 0.7438925504684448 0.518464207649231
vt 0.7588925361633301 0.518464207649231
vt 0.7438926696777344 0.6787562370300293
vt 0.7908867597579956 0.5957902669906616
vt 0.9392915964126587 0.5839029550552368
vt 0.951178789138794 0.5957902669906616
vt 0.8027740716934204 0.5839029550552368
vt 0.9252880811691284 0.5575697720050812
vt 0.8027739524841309 0.5715732276439667
vt 0.8167773485183716 0.5575697720050812
vt 0.9392914772033691 0.5715731680393219
vt 0.7588926553726196 0.6787562370300293
vt 0.7438925504684448 0.518464207649231
vt 0.7588925361633301 0.518464207649231
vt 0.7438926696777344 0.6787562370300293
vt 0.7908867597579956 0.5959910154342651
vt 0.9392914772033691 0.5841037034988403
vt 0.951178789138794 0.5959909558296204
vt 0.8027739524841309 0.5841037631034851
vt 0.7083712816238403 0.9754385408014059
vt 0.6021714210510254 0.9906623121351004
vt 0.6044822931289673 0.9754385408014059
vt 0.7106821537017822 0.9906623121351004
vt 0.7083712816238403 0.9754385408014059
vt 0.6021714210510254 0.9906623121351004
vt 0.6044822931289673 0.9754385408014059
vt 0.7106821537017822 0.9906623121351004
vt 0.7083712816238403 0.9754385408014059
vt 0.6021714210510254 0.9906623121351004
vt 0.6044822931289673 0.9754385408014059
vt 0.7106821537017822 0.9906623121351004
vt 0.7083712816238403 0.9754385408014059
vt 0.6021714210510254 0.9906623121351004
vt 0.6044822931289673 0.9754385408014059
vt 0.7106821537017822 0.9906623121351004
vt 0.6044822931289673 0.9754385408014059
vt 0.5808618068695068 0.8254385739564896
vt 0.7108451128005981 0.8704163432121277
vt 0.6898717880249023 0.8254385888576508
vt 0.7125858068466187 0.948674663901329
vt 0.7083712816238403 0.9754385408014059
vt 0.6044822931289673 0.9754385408014059
vt 0.600267767906189 0.948674663901329
vt 0.7083712816238403 0.9754385408014059
vt 0.7213587164878845 0.8929628953337669
vt 0.608218789100647 0.8929628953337669
vt 0.7319917678833008 0.8254385739564896
vt 0.5914948582649231 0.8929628953337669
vt 0.6229817271232605 0.8254385739564896
vt 0.7083712816238403 0.9754385408014059
vt 0.6044822931289673 0.9754385408014059
vt 0.7083712816238403 0.9754385408014059
vt 0.5808618068695068 0.8254385739564896
vt 0.7319917678833008 0.8254385739564896
vt 0.6044822931289673 0.9754385408014059
vt 0.9688081741333008 0.6105386912822723
vt 0.7596723437309265 0.7105387151241302
vt 0.7764893770217896 0.6105387508869171
vt 0.9856253266334534 0.7105386555194855
vt 0.9688081741333008 0.6105386912822723
vt 0.7596723437309265 0.7105387151241302
vt 0.7764893770217896 0.6105387508869171
vt 0.9856253266334534 0.7105386555194855
vt 0.9688081741333008 0.6105386912822723
vt 0.7596723437309265 0.7105387151241302
vt 0.7764893770217896 0.6105387508869171
vt 0.9856253266334534 0.7105386555194855
vt 0.9688081741333008 0.6105386912822723
vt 0.7596723437309265 0.7105387151241302
vt 0.7764893770217896 0.6105387508869171
vt 0.9856253266334534 0.7105386555194855
vt 0.7319917678833008 0.8254385739564896
vt 0.6229817271232605 0.8254385739564896
vt 0.6422832012176514 0.7840461432933807
vt 0.6991998553276062 0.7254385948181152
vt 0.7234025001525879 0.7254385948181152
vt 0.7319917678833008 0.8254385739564896
vt 0.5808618068695068 0.8254385739564896
vt 0.7248976230621338 0.7428462505340576
vt 0.6962319612503052 0.7254386246204376
vt 0.5894510746002197 0.7254385948181152
vt 0.6432414054870605 0.7254386246204376
vt 0.6898717880249023 0.8254385888576508
vt 0.6006811857223511 0.7254386246204376
vt 0.5879558324813843 0.7428462505340576
vt 0.5808618068695068 0.8254385739564896
vt 0.7122558355331421 0.8259079605340958
vt 0.5991159081459045 0.8259079605340958
vt 0.7228888869285583 0.7583836317062378
vt 0.5788415670394897 0.8033614009618759
vt 0.5717589259147644 0.7583836317062378
vt 0.7193335890769958 0.7169911861419678
vt 0.6833368539810181 0.6583836078643799
vt 0.5803481936454773 0.6583836078643799
vt 0.5956451892852783 0.7915393710136414
vt 0.6453747153282166 0.8248794376850128
vt 0.5822479128837585 0.8246227204799652
vt 0.7704953551292419 0.7579960376024246
vt 0.7991610765457153 0.7594912797212601
vt 0.7719906568527222 0.7819516807794571
vt 0.6690865159034729 0.8697802424430847
vt 0.6025537848472595 0.8267727494239807
vt 0.6328753232955933 0.8267015814781189
vt 0.9059420228004456 0.7594912797212601
vt 0.9059419631958008 0.7836939245462418
vt 0.7991610765457153 0.7594912797212601
vt 0.8749791979789734 0.8132813721895218
vt 0.7719906568527222 0.7819516807794571
vt 0.7719905376434326 0.8132816106081009

g bg_mdl_map_siseki_gaiden_tourou02
s 1
usemtl bg_mdl_map_siseki_gaiden_tourou02
f 3/3/3 2/2/2 1/1/1 
f 4/4/4 1/1/1 2/2/2 
f 7/7/7 6/6/6 5/5/5 
f 8/8/8 5/5/5 6/6/6 
f 11/11/11 10/10/10 9/9/9 
f 12/12/12 9/9/9 10/10/10 
f 15/15/15 14/14/14 13/13/13 
f 16/16/16 13/13/13 14/14/14 
f 19/19/19 18/18/18 17/17/17 
f 20/20/20 17/17/17 18/18/18 
f 18/18/18 19/19/19 21/21/21 
f 22/22/22 21/21/21 19/19/19 
f 21/21/21 22/22/22 23/23/23 
f 24/24/24 23/23/23 22/22/22 
f 17/17/17 20/20/20 24/24/24 
f 23/23/23 24/24/24 20/20/20 
f 27/27/27 26/26/26 25/25/25 
f 28/28/28 25/25/25 26/26/26 
f 31/31/31 30/30/30 29/29/29 
f 32/32/32 29/29/29 30/30/30 
f 35/35/35 34/34/34 33/33/33 
f 36/36/36 33/33/33 34/34/34 
f 39/39/39 38/38/38 37/37/37 
f 40/40/40 37/37/37 38/38/38 
f 43/43/43 42/42/42 41/41/41 
f 44/44/44 41/41/41 42/42/42 
f 47/47/47 46/46/46 45/45/45 
f 48/48/48 45/45/45 46/46/46 
f 51/51/51 50/50/50 49/49/49 
f 52/52/52 49/49/49 50/50/50 
f 55/55/55 54/54/54 53/53/53 
f 56/56/56 53/53/53 54/54/54 
f 59/59/59 58/58/58 57/57/57 
f 60/60/60 57/57/57 58/58/58 
f 63/63/63 62/62/62 61/61/61 
f 64/64/64 61/61/61 62/62/62 
f 67/67/67 66/66/66 65/65/65 
f 68/68/68 65/65/65 66/66/66 
f 71/71/71 70/70/70 69/69/69 
f 72/72/72 69/69/69 70/70/70 
f 75/75/75 74/74/74 73/73/73 
f 76/76/76 73/73/73 74/74/74 
f 79/79/79 78/78/78 77/77/77 
f 80/80/80 77/77/77 78/78/78 
f 83/83/83 82/82/82 81/81/81 
f 84/84/84 81/81/81 82/82/82 
f 87/87/87 86/86/86 85/85/85 
f 88/88/88 85/85/85 86/86/86 
f 91/91/91 90/90/90 89/89/89 
f 92/92/92 89/89/89 90/90/90 
f 95/95/95 94/94/94 93/93/93 
f 96/96/96 93/93/93 94/94/94 
f 99/99/99 98/98/98 97/97/97 
f 100/100/100 97/97/97 98/98/98 
f 103/103/103 102/102/102 101/101/101 
f 104/104/104 101/101/101 102/102/102 
f 107/107/107 106/106/106 105/105/105 
f 108/108/108 106/106/106 107/107/107 
f 109/109/109 107/107/107 105/105/105 
f 110/110/110 109/109/109 105/105/105 
f 113/113/113 112/112/112 111/111/111 
f 114/114/114 112/112/112 113/113/113 
f 115/115/115 112/112/112 114/114/114 
f 118/118/118 117/117/117 116/116/116 
f 116/116/116 117/117/117 119/119/119 
f 119/119/119 117/117/117 120/120/120 
f 123/123/123 122/122/122 121/121/121 
f 124/124/124 121/121/121 122/122/122 
f 127/127/127 126/126/126 125/125/125 
f 128/128/128 125/125/125 126/126/126 
f 131/131/131 130/130/130 129/129/129 
f 132/132/132 129/129/129 130/130/130 
f 135/135/135 134/134/134 133/133/133 
f 136/136/136 133/133/133 134/134/134 
f 139/139/139 138/138/138 137/137/137 
f 140/140/140 137/137/137 138/138/138 
f 143/143/143 142/142/142 141/141/141 
f 144/144/144 143/143/143 141/141/141 
f 145/145/145 144/144/144 141/141/141 
f 148/148/148 147/147/147 146/146/146 
f 149/149/149 147/147/147 148/148/148 
f 150/150/150 147/147/147 149/149/149 
f 153/153/153 152/152/152 151/151/151 
f 154/154/154 152/152/152 153/153/153 
f 155/155/155 152/152/152 154/154/154 
f 158/158/158 157/157/157 156/156/156 
f 159/159/159 157/157/157 158/158/158 
f 160/160/160 159/159/159 158/158/158 
f 161/161/161 160/160/160 158/158/158 
f 162/162/162 160/160/160 161/161/161 
f 163/163/163 160/160/160 162/162/162 
f 166/166/166 165/165/165 164/164/164 
f 169/169/169 168/168/168 167/167/167 
f 172/172/172 171/171/171 170/170/170 
f 175/175/175 174/174/174 173/173/173 
f 174/174/174 175/175/175 176/176/176 
f 177/177/177 176/176/176 175/175/175 
f 178/178/178 176/176/176 177/177/177 

