v 1.4201018810272217 0.2249220609664917 0.3442644774913788
v 1.4378036260604858 0.0 0.3442644774913788
v 1.5787156820297241 0.0 0.0
v 1.559278964996338 0.24696555733680725 0.0
v 1.3674324750900269 0.44430574774742126 0.3442644774913788
v 1.5014479160308838 0.48784998059272766 0.0
v 1.2810924053192139 0.652749240398407 0.3442644774913788
v 1.4066458940505981 0.7167219519615173 0.0
v 1.1632076501846313 0.8451197743415833 0.3442644774913788
v 1.2772077322006226 0.9279457926750183 0.0
v 1.0166805982589722 1.0166805982589722 0.3442644774913788
v 1.1163204908370972 1.1163204908370972 0.0
v 0.8451197743415833 1.1632076501846313 0.3442644774913788
v 0.9279457926750183 1.2772077322006226 0.0
v 0.652749240398407 1.2810924053192139 0.3442644774913788
v 0.7167219519615173 1.4066458940505981 0.0
v 0.4443057179450989 1.3674324750900269 0.3442644774913788
v 0.4878499209880829 1.5014479160308838 0.0
v 0.22492191195487976 1.4201018810272217 0.3442644774913788
v 0.24696537852287292 1.559278964996338 0.0
v -2.342479632488903e-07 1.4378036260604858 0.3442644774913788
v -2.5720541430018784e-07 1.5787156820297241 0.0
v -0.22492234408855438 1.4201017618179321 0.3442644774913788
v -2.342479632488903e-07 1.4378036260604858 0.3442644774913788
v -2.5720541430018784e-07 1.5787156820297241 0.0
v -0.24696588516235352 1.559278964996338 0.0
v -0.4443061351776123 1.3674323558807373 0.3442644774913788
v -0.4878503978252411 1.5014475584030151 0.0
v -0.6527495980262756 1.2810921669006348 0.3442644774913788
v -0.7167223691940308 1.406645655632019 0.0
v -0.8451203107833862 1.1632071733474731 0.3442644774913788
v -0.9279462695121765 1.277207374572754 0.0
v -1.01668119430542 1.0166802406311035 0.3442644774913788
v -1.116321086883545 1.116320013999939 0.0
v -1.1632080078125 0.8451191782951355 0.3442644774913788
v -1.2772082090377808 0.927945077419281 0.0
v -1.2810927629470825 0.6527484059333801 0.3442644774913788
v -1.4066463708877563 0.7167209982872009 0.0
v -1.3674328327178955 0.44430482387542725 0.3442644774913788
v -1.501448154449463 0.4878489077091217 0.0
v -1.4201020002365112 0.22492098808288574 0.3442644774913788
v -1.5592793226242065 0.24696438014507294 0.0
v -1.4378036260604858 -1.1540940931809018e-06 0.3442644774913788
v -1.5787156820297241 -1.2672011280301376e-06 0.0
v -1.4201016426086426 -0.2249232828617096 0.3442644774913788
v -1.5592788457870483 -0.2469668835401535 0.0
v -1.3674321174621582 -0.44430699944496155 0.3442644774913788
v -1.5014474391937256 -0.4878513216972351 0.0
v -1.2810916900634766 -0.6527504324913025 0.3442644774913788
v -1.4066451787948608 -0.7167233228683472 0.0
v -1.1632065773010254 -0.8451210856437683 0.3442644774913788
v -1.2772067785263062 -0.9279471635818481 0.0
v -1.0166796445846558 -1.0166819095611572 0.3442644774913788
v -1.1163192987442017 -1.1163218021392822 0.0
v -0.8451184034347534 -1.1632086038589478 0.3442644774913788
v -0.9279442429542542 -1.277208924293518 0.0
v -0.6527475714683533 -1.2810931205749512 0.3442644774913788
v -0.7167201042175293 -1.4066468477249146 0.0
v -0.444303959608078 -1.367432951927185 0.3442644774913788
v -0.4878480136394501 -1.5014482736587524 0.0
v -0.22492007911205292 -1.4201022386550903 0.3442644774913788
v -0.24696338176727295 -1.5592793226242065 0.0
v 2.0739403225888964e-06 -1.4378036260604858 0.3442644774913788
v 2.2771966996515403e-06 -1.5787156820297241 0.0
v 0.22492417693138123 -1.4201016426086426 0.3442644774913788
v 0.2469678819179535 -1.5592787265777588 0.0
v 0.4443078935146332 -1.3674317598342896 0.3442644774913788
v 0.4878523051738739 -1.5014469623565674 0.0
v 0.6527513265609741 -1.281091332435608 0.3442644774913788
v 0.716724157333374 -1.4066447019577026 0.0
v 0.8451217412948608 -1.1632061004638672 0.3442644774913788
v 0.9279478788375854 -1.2772061824798584 0.0
v 1.016682505607605 -1.0166789293289185 0.3442644774913788
v 1.11632239818573 -1.1163185834884644 0.0
v 1.163209080696106 -0.8451176285743713 0.3442644774913788
v 1.2772095203399658 -0.9279434084892273 0.0
v 1.2810935974121094 -0.6527467966079712 0.3442644774913788
v 1.4066473245620728 -0.7167192697525024 0.0
v 1.3674334287643433 -0.44430309534072876 0.3442644774913788
v 1.5014487504959106 -0.4878470003604889 0.0
v 1.4201023578643799 -0.2249191552400589 0.3442644774913788
v 1.5592795610427856 -0.24696236848831177 0.0
vn -0.914080798625946 -0.14477616548538208 -0.37880903482437134
vn -0.9254747629165649 -4.994146252101928e-07 -0.3788091242313385
vn -0.9254748821258545 -6.10782990406733e-07 -0.3788090646266937
vn -0.9140806794166565 -0.1447760909795761 -0.37880903482437134
vn -0.8801787495613098 -0.2859874665737152 -0.3788091540336609
vn -0.8801788687705994 -0.28598734736442566 -0.37880924344062805
vn -0.8246040344238281 -0.4201567769050598 -0.3788091540336609
vn -0.8246040344238281 -0.42015692591667175 -0.37880921363830566
vn -0.7487248778343201 -0.5439805388450623 -0.3788090646266937
vn -0.7487248182296753 -0.5439805388450623 -0.37880903482437134
vn -0.6544095873832703 -0.6544095277786255 -0.37880921363830566
vn -0.6544095873832703 -0.6544095277786255 -0.37880921363830566
vn -0.5439803600311279 -0.7487248778343201 -0.3788091242313385
vn -0.5439803600311279 -0.7487249374389648 -0.37880900502204895
vn -0.4201567769050598 -0.8246040344238281 -0.3788091242313385
vn -0.42015692591667175 -0.8246040344238281 -0.37880921363830566
vn -0.28598740696907043 -0.8801787495613098 -0.3788091540336609
vn -0.28598734736442566 -0.8801788687705994 -0.3788091838359833
vn -0.14477598667144775 -0.914080798625946 -0.3788090646266937
vn -0.14477591216564178 -0.914080798625946 -0.37880900502204895
vn 2.847130247118912e-07 -0.9254747629165649 -0.37880903482437134
vn -0.0 -0.9254747629165649 -0.3788091838359833
vn 0.14477626979351044 -0.9140805602073669 -0.37880924344062805
vn 2.847130247118912e-07 -0.9254747629165649 -0.37880903482437134
vn -0.0 -0.9254747629165649 -0.3788091838359833
vn 0.1447763592004776 -0.9140805602073669 -0.3788091540336609
vn 0.28598764538764954 -0.8801788687705994 -0.3788090646266937
vn 0.28598782420158386 -0.8801787495613098 -0.378808856010437
vn 0.42015695571899414 -0.8246040344238281 -0.37880897521972656
vn 0.42015695571899414 -0.8246040344238281 -0.37880897521972656
vn 0.5439806580543518 -0.7487247586250305 -0.37880900502204895
vn 0.5439806580543518 -0.7487247586250305 -0.37880897521972656
vn 0.6544100046157837 -0.6544092297554016 -0.37880903482437134
vn 0.6544098854064941 -0.6544092893600464 -0.37880900502204895
vn 0.7487252354621887 -0.5439800024032593 -0.3788090646266937
vn 0.7487252354621887 -0.5439800024032593 -0.3788091242313385
vn 0.8246042728424072 -0.4201563596725464 -0.3788090944290161
vn 0.8246042728424072 -0.4201563596725464 -0.3788090944290161
vn 0.8801790475845337 -0.28598684072494507 -0.3788091242313385
vn 0.8801790475845337 -0.28598693013191223 -0.3788091838359833
vn 0.914080798625946 -0.14477543532848358 -0.37880924344062805
vn 0.914080798625946 -0.14477543532848358 -0.37880921363830566
vn 0.9254747629165649 9.918280738929752e-07 -0.3788091540336609
vn 0.9254747629165649 9.210219786837115e-07 -0.37880921363830566
vn 0.9140805006027222 0.14477689564228058 -0.37880927324295044
vn 0.9140805006027222 0.14477679133415222 -0.3788093626499176
vn 0.8801785707473755 0.2859881520271301 -0.3788093328475952
vn 0.8801785707473755 0.2859882712364197 -0.37880921363830566
vn 0.8246036767959595 0.42015770077705383 -0.3788091540336609
vn 0.8246036767959595 0.4201578199863434 -0.3788091540336609
vn 0.7487243413925171 0.54398113489151 -0.3788091242313385
vn 0.7487243413925171 0.5439811944961548 -0.3788091242313385
vn 0.654408872127533 0.6544103026390076 -0.3788090944290161
vn 0.654408872127533 0.6544103026390076 -0.3788090944290161
vn 0.5439793467521667 0.7487257719039917 -0.3788090944290161
vn 0.5439794063568115 0.7487255930900574 -0.3788091838359833
vn 0.4201555550098419 0.8246046304702759 -0.3788093030452728
vn 0.4201555848121643 0.8246046304702759 -0.37880927324295044
vn 0.28598642349243164 0.8801791667938232 -0.3788091838359833
vn 0.2859862744808197 0.8801793456077576 -0.3788090944290161
vn 0.14477498829364777 0.9140808582305908 -0.3788089454174042
vn 0.14477500319480896 0.9140808582305908 -0.3788089156150818
vn -1.1901938705705106e-06 0.9254748821258545 -0.3788090646266937
vn -1.1197689673281275e-06 0.9254747629165649 -0.3788091242313385
vn -0.14477762579917908 0.9140805006027222 -0.3788090646266937
vn -0.14477768540382385 0.9140805006027222 -0.3788090944290161
vn -0.28598901629447937 0.8801783919334412 -0.37880900502204895
vn -0.28598901629447937 0.8801783919334412 -0.3788090944290161
vn -0.4201580584049225 0.8246034979820251 -0.37880900502204895
vn -0.4201580584049225 0.8246034979820251 -0.3788090646266937
vn -0.543981671333313 0.7487239837646484 -0.37880897521972656
vn -0.543981671333313 0.748724102973938 -0.37880900502204895
vn -0.6544106602668762 0.6544084548950195 -0.37880903482437134
vn -0.6544106602668762 0.6544085144996643 -0.3788090646266937
vn -0.7487258315086365 0.5439790487289429 -0.3788091242313385
vn -0.7487257719039917 0.5439791679382324 -0.37880921363830566
vn -0.8246048092842102 0.42015543580055237 -0.37880924344062805
vn -0.8246048092842102 0.4201553463935852 -0.37880921363830566
vn -0.8801794052124023 0.2859857976436615 -0.3788091540336609
vn -0.8801794052124023 0.28598567843437195 -0.37880903482437134
vn -0.9140808582305908 0.14477470517158508 -0.3788091540336609
vn -0.9140808582305908 0.14477473497390747 -0.3788091540336609
vt 0.7749999761581421 0.0004995465278625488
vt 0.75 0.0004995465278625488
vt 0.75 0.9995004534721375
vt 0.7749999761581421 0.9995004534721375
vt 0.800000011920929 0.0004995465278625488
vt 0.800000011920929 0.9995004534721375
vt 0.824999988079071 0.0004995465278625488
vt 0.824999988079071 0.9995004534721375
vt 0.8499999046325684 0.0004995465278625488
vt 0.8499999046325684 0.9995004534721375
vt 0.8749999403953552 0.0004995465278625488
vt 0.8749999403953552 0.9995004534721375
vt 0.8999999761581421 0.0004995465278625488
vt 0.8999999761581421 0.9995004534721375
vt 0.9249998927116394 0.0004995465278625488
vt 0.9249998927116394 0.9995004534721375
vt 0.9499998688697815 0.0004995465278625488
vt 0.9499998688697815 0.9995004534721375
vt 0.9749999046325684 0.0004995465278625488
vt 0.9749999046325684 0.9995004534721375
vt 1.0 0.0004995465278625488
vt 0.9999999403953552 0.9995004534721375
vt 0.025000009685754776 0.0004995465278625488
vt 0.0 0.0004995465278625488
vt -5.960464477539063e-08 0.9995004534721375
vt 0.025000009685754776 0.9995004534721375
vt 0.05000001937150955 0.0004995465278625488
vt 0.05000001937150955 0.9995004534721375
vt 0.07500002533197403 0.0004995465278625488
vt 0.07500002533197403 0.9995004534721375
vt 0.1000000387430191 0.0004995465278625488
vt 0.1000000387430191 0.9995004534721375
vt 0.12500004470348358 0.0004995465278625488
vt 0.12500004470348358 0.9995004534721375
vt 0.15000005066394806 0.0004995465278625488
vt 0.15000005066394806 0.9995004534721375
vt 0.17500007152557373 0.0004995465278625488
vt 0.17500007152557373 0.9995004534721375
vt 0.2000000774860382 0.0004995465278625488
vt 0.2000000923871994 0.9995004534721375
vt 0.22500008344650269 0.0004995465278625488
vt 0.22500008344650269 0.9995004534721375
vt 0.25000008940696716 0.0004995465278625488
vt 0.25000008940696716 0.9995004534721375
vt 0.27500012516975403 0.0004995465278625488
vt 0.27500009536743164 0.9995004534721375
vt 0.3000001013278961 0.0004995465278625488
vt 0.3000001013278961 0.9995004534721375
vt 0.3250001072883606 0.0004995465278625488
vt 0.3250001072883606 0.9995004534721375
vt 0.35000014305114746 0.0004995465278625488
vt 0.35000014305114746 0.9995004534721375
vt 0.37500014901161194 0.0004995465278625488
vt 0.37500014901161194 0.9995004534721375
vt 0.4000001549720764 0.0004995465278625488
vt 0.4000001549720764 0.9995004534721375
vt 0.4250001609325409 0.0004995465278625488
vt 0.4250001609325409 0.9995004534721375
vt 0.45000016689300537 0.0004995465278625488
vt 0.45000016689300537 0.9995004534721375
vt 0.47500017285346985 0.0004995465278625488
vt 0.47500017285346985 0.9995004534721375
vt 0.5000001788139343 0.0004995465278625488
vt 0.5000001788139343 0.9995004534721375
vt 0.5250002145767212 0.0004995465278625488
vt 0.5250002145767212 0.9995004534721375
vt 0.5500001907348633 0.0004995465278625488
vt 0.5500001907348633 0.9995004534721375
vt 0.5750002264976501 0.0004995465278625488
vt 0.5750002264976501 0.9995004534721375
vt 0.6000002026557922 0.0004995465278625488
vt 0.6000002026557922 0.9995004534721375
vt 0.6250002384185791 0.0004995465278625488
vt 0.6250002384185791 0.9995004534721375
vt 0.6500002145767212 0.0004995465278625488
vt 0.6500002145767212 0.9995004534721375
vt 0.6750002503395081 0.0004995465278625488
vt 0.6750002503395081 0.9995004534721375
vt 0.7000002861022949 0.0004995465278625488
vt 0.7000002861022949 0.9995004534721375
vt 0.725000262260437 0.0004995465278625488
vt 0.725000262260437 0.9995004534721375

g eff_mdl_ui_map_sky00
s 1
usemtl eff_mdl_ui_map_sky00
f 3/3/3 2/2/2 1/1/1 
f 3/3/3 1/1/1 4/4/4 
f 4/4/4 1/1/1 5/5/5 
f 4/4/4 5/5/5 6/6/6 
f 6/6/6 5/5/5 7/7/7 
f 6/6/6 7/7/7 8/8/8 
f 8/8/8 7/7/7 9/9/9 
f 8/8/8 9/9/9 10/10/10 
f 10/10/10 9/9/9 11/11/11 
f 10/10/10 11/11/11 12/12/12 
f 12/12/12 11/11/11 13/13/13 
f 12/12/12 13/13/13 14/14/14 
f 14/14/14 13/13/13 15/15/15 
f 14/14/14 15/15/15 16/16/16 
f 16/16/16 15/15/15 17/17/17 
f 16/16/16 17/17/17 18/18/18 
f 18/18/18 17/17/17 19/19/19 
f 18/18/18 19/19/19 20/20/20 
f 20/20/20 19/19/19 21/21/21 
f 20/20/20 21/21/21 22/22/22 
f 25/25/25 24/24/24 23/23/23 
f 25/25/25 23/23/23 26/26/26 
f 26/26/26 23/23/23 27/27/27 
f 26/26/26 27/27/27 28/28/28 
f 28/28/28 27/27/27 29/29/29 
f 28/28/28 29/29/29 30/30/30 
f 30/30/30 29/29/29 31/31/31 
f 30/30/30 31/31/31 32/32/32 
f 32/32/32 31/31/31 33/33/33 
f 32/32/32 33/33/33 34/34/34 
f 34/34/34 33/33/33 35/35/35 
f 34/34/34 35/35/35 36/36/36 
f 36/36/36 35/35/35 37/37/37 
f 36/36/36 37/37/37 38/38/38 
f 38/38/38 37/37/37 39/39/39 
f 38/38/38 39/39/39 40/40/40 
f 40/40/40 39/39/39 41/41/41 
f 40/40/40 41/41/41 42/42/42 
f 42/42/42 41/41/41 43/43/43 
f 42/42/42 43/43/43 44/44/44 
f 44/44/44 43/43/43 45/45/45 
f 44/44/44 45/45/45 46/46/46 
f 46/46/46 45/45/45 47/47/47 
f 46/46/46 47/47/47 48/48/48 
f 48/48/48 47/47/47 49/49/49 
f 48/48/48 49/49/49 50/50/50 
f 50/50/50 49/49/49 51/51/51 
f 50/50/50 51/51/51 52/52/52 
f 52/52/52 51/51/51 53/53/53 
f 52/52/52 53/53/53 54/54/54 
f 54/54/54 53/53/53 55/55/55 
f 54/54/54 55/55/55 56/56/56 
f 56/56/56 55/55/55 57/57/57 
f 56/56/56 57/57/57 58/58/58 
f 58/58/58 57/57/57 59/59/59 
f 58/58/58 59/59/59 60/60/60 
f 60/60/60 59/59/59 61/61/61 
f 60/60/60 61/61/61 62/62/62 
f 62/62/62 61/61/61 63/63/63 
f 62/62/62 63/63/63 64/64/64 
f 64/64/64 63/63/63 65/65/65 
f 64/64/64 65/65/65 66/66/66 
f 66/66/66 65/65/65 67/67/67 
f 66/66/66 67/67/67 68/68/68 
f 68/68/68 67/67/67 69/69/69 
f 68/68/68 69/69/69 70/70/70 
f 70/70/70 69/69/69 71/71/71 
f 70/70/70 71/71/71 72/72/72 
f 72/72/72 71/71/71 73/73/73 
f 72/72/72 73/73/73 74/74/74 
f 74/74/74 73/73/73 75/75/75 
f 74/74/74 75/75/75 76/76/76 
f 76/76/76 75/75/75 77/77/77 
f 76/76/76 77/77/77 78/78/78 
f 78/78/78 77/77/77 79/79/79 
f 78/78/78 79/79/79 80/80/80 
f 80/80/80 79/79/79 81/81/81 
f 80/80/80 81/81/81 82/82/82 
f 82/82/82 81/81/81 2/2/2 
f 82/82/82 2/2/2 3/3/3 

