v -0.44999998807907104 -2.6011106967926025 0.5
v 0.5 -1.5 0.5
v 0.5 -2.6011106967926025 0.5
v -0.4210337698459625 -1.5 0.5
v -0.48749998211860657 -2.6011106967926025 0.48749998211860657
v -0.45853376388549805 -1.5 0.48749998211860657
v -0.4210337698459625 -1.5 0.5
v 0.5 -0.550000011920929 0.5
v 0.5 -1.5 0.5
v -0.44999998807907104 -0.6499999761581421 0.5
v -0.3499999940395355 -0.550000011920929 0.5
v -0.3875160217285156 -0.5137655735015869 0.4862343966960907
v 0.5 -0.5249999761581421 0.4749999940395355
v -0.45853376388549805 -1.5 0.48749998211860657
v -0.48749998211860657 -0.612500011920929 0.48749998211860657
v -0.3875160217285156 -0.5137655735015869 0.4862343966960907
v -0.48749998211860657 -0.612500011920929 0.48749998211860657
v 0.5 -1.5 0.5
v 1.5 -0.5 0.5
v 1.5 -1.5 0.5
v 0.5 -0.550000011920929 0.5
v 0.550000011920929 -0.5 0.5
v 0.5 -0.5249999761581421 0.4749999940395355
v -5.009999752044678 -0.48608824610710144 0.5
v -4.5 0.5 0.5
v -4.5 -0.44999998807907104 0.5
v -5.5 -0.44999998807907104 0.5
v -5.5 0.5 0.5
v -5.5 -0.48749998211860657 0.48749998211860657
v -5.009999752044678 -0.523588240146637 0.48749998211860657
v -4.5 -0.48749998211860657 0.48749998211860657
v -4.5 -0.44999998807907104 0.5
v -3.549999952316284 -0.3797997832298279 0.5
v -3.6499998569488525 -0.4797998070716858 0.5
v -3.549999952316284 0.5 0.5
v -4.5 0.5 0.5
v -3.612499952316284 -0.5172997713088989 0.48749998211860657
v -4.015425205230713 -0.5037707090377808 0.48749998211860657
v -4.5 -0.48749998211860657 0.48749998211860657
v -3.5249998569488525 0.5 0.4749999940395355
v -3.513765573501587 -0.417315810918808 0.4862343966960907
v -3.612499952316284 -0.5172997713088989 0.48749998211860657
v 0.550000011920929 -0.5 0.5
v 1.5 0.47052001953125 0.5
v 1.5 -0.5 0.5
v 0.550000011920929 0.3499999940395355 0.5
v 0.6499999761581421 0.44999998807907104 0.5
v 0.612500011920929 0.48749998211860657 0.48749998211860657
v 1.5 0.5080199837684631 0.48749998211860657
v 0.5249999761581421 -0.5 0.4749999940395355
v 0.5137655735015869 0.3875160217285156 0.4862343966960907
v 0.612500011920929 0.48749998211860657 0.48749998211860657
v 1.5 -0.5 0.5
v 2.5 0.44999998807907104 0.5
v 2.5 -0.5 0.5
v 1.5 0.47052001953125 0.5
v 1.5 0.5080199837684631 0.48749998211860657
v 2.5 0.48749998211860657 0.48749998211860657
v 2.5 -0.5 0.5
v 3.5 0.47072795033454895 0.5
v 3.5 -0.5 0.5
v 2.5 0.44999998807907104 0.5
v 2.5 0.48749998211860657 0.48749998211860657
v 3.5 0.5082279443740845 0.48749998211860657
v 3.5 -0.5 0.5
v 4.5 0.48574939370155334 0.5
v 4.5 -0.5 0.5
v 3.5 0.47072795033454895 0.5
v 3.5 0.5082279443740845 0.48749998211860657
v 4.5 0.5232493877410889 0.48749998211860657
v 4.5 -0.5 0.5
v 5.5 0.5068225264549255 0.5
v 5.5 -0.5 0.5
v 4.5 0.48574939370155334 0.5
v 4.5 0.5232493877410889 0.48749998211860657
v 5.5 0.5443224906921387 0.48749998211860657
v -5.5 0.5 0.5
v -4.5 1.5 0.5
v -4.5 0.5 0.5
v -5.5 1.5 0.5
v -3.5 1.5556128025054932 0.5
v -3.5 0.550000011920929 0.5
v -3.549999952316284 0.5 0.5
v -2.549999952316284 1.5994470119476318 0.5
v -2.549999952316284 0.6499999761581421 0.5
v -2.947499990463257 0.5956292748451233 0.5
v -2.6499998569488525 0.550000011920929 0.5
v -3.5 0.5249999761581421 0.4749999940395355
v -2.923114538192749 0.563326895236969 0.48230233788490295
v -2.512500047683716 1.5994470119476318 0.48749998211860657
v -2.512500047683716 1.4410487413406372 0.48749998211860657
v -2.6124839782714844 0.5137655735015869 0.4862343966960907
v -2.512500047683716 0.612500011920929 0.48749998211860657
v -2.6124839782714844 0.5137655735015869 0.4862343966960907
v -2.512500047683716 0.8246935606002808 0.48749998211860657
v -2.512500047683716 0.612500011920929 0.48749998211860657
v -2.491661548614502 1.3198739290237427 0.48749998211860657
v -2.491661548614502 0.9254115223884583 0.48749998211860657
v -2.512500047683716 1.4410487413406372 0.48749998211860657
v -2.491661548614502 1.3198739290237427 0.48749998211860657
v -0.5977251529693604 2.549999952316284 0.5
v 0.5 3.5 0.5
v 0.5 2.549999952316284 0.5
v -0.5977251529693604 3.5 0.5
v -0.5977251529693604 2.512500047683716 0.48749998211860657
v 0.15970519185066223 2.512500047683716 0.48749998211860657
v 0.5 2.4920685291290283 0.48749998211860657
v 0.5 2.549999952316284 0.5
v 1.5 3.5 0.5
v 1.5 2.549999952316284 0.5
v 0.5 3.5 0.5
v 0.5 2.4920685291290283 0.48749998211860657
v 1.2891000509262085 2.512500047683716 0.48749998211860657
v 1.2891000509262085 2.512500047683716 0.48749998211860657
v 1.5 2.4902265071868896 0.48749998211860657
v 1.5 2.549999952316284 0.5
v 2.5 3.5 0.5
v 2.5 2.549999952316284 0.5
v 1.5 3.5 0.5
v 2.5 2.5060174465179443 0.48749998211860657
v 1.9774000644683838 2.512500047683716 0.48749998211860657
v 1.5 2.4902265071868896 0.48749998211860657
v 2.3470499515533447 2.512500047683716 0.48749998211860657
v 1.9774000644683838 2.512500047683716 0.48749998211860657
v 2.5 2.549999952316284 0.5
v 3.5 3.5 0.5
v 3.5 2.549999952316284 0.5
v 2.5 3.5 0.5
v 2.5 2.5060174465179443 0.48749998211860657
v 3.254999876022339 2.5060174465179443 0.48749998211860657
v 3.340749979019165 2.512500047683716 0.48749998211860657
v 3.340749979019165 2.512500047683716 0.48749998211860657
v 3.5 2.482776403427124 0.48749998211860657
v 3.5 2.549999952316284 0.5
v 4.5 3.5 0.5
v 4.5 2.507568359375 0.5
v 3.5 3.5 0.5
v 3.5 2.482776403427124 0.48749998211860657
v 4.384799957275391 2.4700682163238525 0.48749998211860657
v 4.5 2.454514980316162 0.48749998211860657
v 3.5 2.482776403427124 0.48749998211860657
v 4.384799957275391 2.4700682163238525 0.48749998211860657
v 4.5 2.507568359375 0.5
v 5.5 3.5 0.5
v 5.5 2.549999952316284 0.5
v 4.5 3.5 0.5
v 4.5 2.454514980316162 0.48749998211860657
v 5.388700008392334 2.512500047683716 0.48749998211860657
v 5.5 2.500934362411499 0.48749998211860657
v 0.550000011920929 -0.5 0.5
v 0.5 -0.5249999761581421 0.4749999940395355
v 0.5249999761581421 -0.5 0.4749999940395355
v -3.5249998569488525 0.5 0.4749999940395355
v -3.5 0.550000011920929 0.5
v -3.5 0.5249999761581421 0.4749999940395355
v -3.549999952316284 0.5 0.5
v -4.015425205230713 -0.5037707090377808 0.48749998211860657
v -3.612499952316284 -0.5172997713088989 0.48749998211860657
v -3.9231250286102295 -0.5290994644165039 0.48749998211860657
v -2.549999952316284 0.6499999761581421 0.5
v -2.491661548614502 0.9254115223884583 0.48749998211860657
v -2.512500047683716 0.8246935606002808 0.48749998211860657
v 0.15970519185066223 2.512500047683716 0.48749998211860657
v 0.5 2.4920685291290283 0.48749998211860657
v 0.2720024883747101 2.486762285232544 0.48749998211860657
v 0.5 2.4920685291290283 0.48749998211860657
v 1.2891000509262085 2.512500047683716 0.48749998211860657
v 1.2149999141693115 2.4947097301483154 0.48749998211860657
v 1.9774000644683838 2.512500047683716 0.48749998211860657
v 2.2699999809265137 2.4858312606811523 0.48749998211860657
v 2.040308952331543 2.4858312606811523 0.48749998211860657
v 2.3470499515533447 2.512500047683716 0.48749998211860657
v 1.5 2.549999952316284 0.5
v 2.5 2.5060174465179443 0.48749998211860657
v 2.3470499515533447 2.512500047683716 0.48749998211860657
v 3.5 2.482776403427124 0.48749998211860657
v 4.384799957275391 2.4700682163238525 0.48749998211860657
v 4.319999694824219 2.44034481048584 0.48749998211860657
v 4.5 2.454514980316162 0.48749998211860657
v 5.388700008392334 2.512500047683716 0.48749998211860657
v 5.289999961853027 2.4969465732574463 0.48749998211860657
v 2.5 -0.5 0.5
v 1.5 -1.5 0.5
v 1.5 -0.5 0.5
v 2.5 -1.5 0.5
v 3.5 -0.5 0.5
v 2.5 -1.5 0.5
v 2.5 -0.5 0.5
v 3.5 -1.5 0.5
v 4.5 -0.5 0.5
v 3.5 -1.5 0.5
v 3.5 -0.5 0.5
v 4.5 -1.5 0.5
v 5.5 -0.5 0.5
v 4.5 -1.5 0.5
v 4.5 -0.5 0.5
v 5.5 -1.5 0.5
v 1.5 -1.5 0.5
v 0.5 -2.6011106967926025 0.5
v 0.5 -1.5 0.5
v 1.5 -2.602177381515503 0.5
v 5.5 0.5568224787712097 0.0
v 4.5 0.5357493758201599 0.44999998807907104
v 4.5 0.5357493758201599 0.0
v 5.5 0.5568224787712097 0.44999998807907104
v 3.5 0.5207279324531555 0.44999998807907104
v 3.5 0.5207279324531555 0.0
v 2.5 0.5 0.44999998807907104
v 2.5 0.5 0.0
v 1.5 0.520520031452179 0.44999998807907104
v 1.5 0.520520031452179 0.0
v 0.5999999642372131 0.5 0.44999998807907104
v 0.5999999642372131 0.5 0.0
v 5.5 0.5443224906921387 0.48749998211860657
v 4.5 0.5232493877410889 0.48749998211860657
v 3.5 0.5082279443740845 0.48749998211860657
v 2.5 0.48749998211860657 0.48749998211860657
v 1.5 0.5080199837684631 0.48749998211860657
v 0.612500011920929 0.48749998211860657 0.48749998211860657
v 0.5 0.3999999761581421 0.44999998807907104
v 0.5 0.3999999761581421 0.0
v 0.5 -0.5 0.44999998807907104
v 0.5 -0.5 0.0
v 0.5137655735015869 0.3875160217285156 0.4862343966960907
v 0.5249999761581421 -0.5 0.4749999940395355
v 0.612500011920929 0.48749998211860657 0.48749998211860657
v 0.5 -0.5249999761581421 0.4749999940395355
v 0.5 -0.5 0.44999998807907104
v -0.3999999761581421 -0.5 0.44999998807907104
v -0.3875160217285156 -0.5137655735015869 0.4862343966960907
v 0.5 -0.5 0.44999998807907104
v 0.5 -0.5 0.0
v -0.3999999761581421 -0.5 0.0
v -0.5 -0.5999999642372131 0.44999998807907104
v -0.5 -0.5999999642372131 0.0
v -0.4710337817668915 -1.5 0.44999998807907104
v -0.4710337817668915 -1.5 0.0
v -0.5 -2.6011106967926025 0.44999998807907104
v -0.5 -2.6011106967926025 0.0
v -0.48749998211860657 -0.612500011920929 0.48749998211860657
v -0.45853376388549805 -1.5 0.48749998211860657
v -0.48749998211860657 -2.6011106967926025 0.48749998211860657
v -0.48749998211860657 -0.612500011920929 0.48749998211860657
v -0.3875160217285156 -0.5137655735015869 0.4862343966960907
v -5.009999752044678 -0.536088228225708 0.0
v -5.5 -0.5 0.44999998807907104
v -5.009999752044678 -0.536088228225708 0.44999998807907104
v -5.5 -0.5 0.0
v -5.009999752044678 -0.523588240146637 0.48749998211860657
v -5.5 -0.48749998211860657 0.48749998211860657
v -4.5 -0.5 0.0
v -4.5 -0.5 0.44999998807907104
v -4.008599758148193 -0.5162706971168518 0.0
v -4.008599758148193 -0.5162706971168518 0.44999998807907104
v -4.015425205230713 -0.5037707090377808 0.48749998211860657
v -4.5 -0.48749998211860657 0.48749998211860657
v -3.9149999618530273 -0.5625180602073669 0.0
v -3.9149999618530273 -0.5415995121002197 0.44999998807907104
v -3.5999999046325684 -0.5554592609405518 0.0
v -3.5999999046325684 -0.5297998189926147 0.44999998807907104
v -3.5 -0.42979979515075684 0.44999998807907104
v -3.5 -0.42979979515075684 0.0
v -3.5 0.5 0.44999998807907104
v -3.5 0.5 0.0
v -3.513765573501587 -0.417315810918808 0.4862343966960907
v -3.612499952316284 -0.5172997713088989 0.48749998211860657
v -3.612499952316284 -0.5172997713088989 0.48749998211860657
v -3.9231250286102295 -0.5290994644165039 0.48749998211860657
v -3.5 0.5 0.44999998807907104
v -3.5249998569488525 0.5 0.4749999940395355
v -3.5 0.5249999761581421 0.4749999940395355
v -3.5 0.5 0.44999998807907104
v -2.923114538192749 0.563326895236969 0.48230233788490295
v -3.5 0.5 0.44999998807907104
v -3.5 0.5 0.44999998807907104
v -2.9149999618530273 0.5456292629241943 0.44999998807907104
v -2.9149999618530273 0.5456292629241943 0.0
v -3.5 0.5 0.0
v -2.5999999046325684 0.5 0.0
v -2.5999999046325684 0.5 0.44999998807907104
v -2.5 0.5999999642372131 0.44999998807907104
v -2.5 0.5999999642372131 0.0
v -2.5 0.8148810863494873 0.0
v -2.5 0.8148810863494873 0.44999998807907104
v -2.512500047683716 0.612500011920929 0.48749998211860657
v -2.512500047683716 0.8246935606002808 0.48749998211860657
v -2.512500047683716 0.612500011920929 0.48749998211860657
v -2.6124839782714844 0.5137655735015869 0.4862343966960907
v -2.449279308319092 0.9168746471405029 0.0
v -2.4791617393493652 0.9168746471405029 0.44999998807907104
v -2.491661548614502 0.9254115223884583 0.48749998211860657
v -2.4388561248779297 1.3163329362869263 0.0
v -2.4791617393493652 1.3163329362869263 0.44999998807907104
v -2.491661548614502 1.3198739290237427 0.48749998211860657
v -2.5 1.4390424489974976 0.0
v -2.5 1.4390424489974976 0.44999998807907104
v -2.5 1.5994470119476318 0.0
v -2.5 1.5994470119476318 0.44999998807907104
v -2.512500047683716 1.4410487413406372 0.48749998211860657
v -2.512500047683716 1.5994470119476318 0.48749998211860657
v -2.491661548614502 1.3198739290237427 0.48749998211860657
v 0.15970519185066223 2.5 0.0
v -0.5977251529693604 2.5 0.44999998807907104
v 0.15970519185066223 2.5 0.44999998807907104
v -0.5977251529693604 2.5 0.0
v 0.15970519185066223 2.512500047683716 0.48749998211860657
v -0.5977251529693604 2.512500047683716 0.48749998211860657
v 0.24811546504497528 2.4396510124206543 0.0
v 0.2720024883747101 2.474262237548828 0.44999998807907104
v 0.2720024883747101 2.486762285232544 0.48749998211860657
v 0.5 2.4171290397644043 0.0
v 0.5 2.4795684814453125 0.44999998807907104
v 1.2283440828323364 2.447598457336426 0.0
v 1.2149999141693115 2.4822096824645996 0.44999998807907104
v 1.2149999141693115 2.4947097301483154 0.48749998211860657
v 0.5 2.4920685291290283 0.48749998211860657
v 1.2891000509262085 2.5 0.0
v 1.2891000509262085 2.5 0.44999998807907104
v 1.2891000509262085 2.512500047683716 0.48749998211860657
v 1.5 2.463855504989624 0.0
v 1.5 2.477726459503174 0.44999998807907104
v 1.967265009880066 2.5 0.0
v 1.9774000644683838 2.5 0.44999998807907104
v 1.9774000644683838 2.512500047683716 0.48749998211860657
v 1.5 2.4902265071868896 0.48749998211860657
v 1.2891000509262085 2.512500047683716 0.48749998211860657
v 2.0234451293945312 2.4374709129333496 0.0
v 2.040308952331543 2.4733312129974365 0.44999998807907104
v 1.9774000644683838 2.512500047683716 0.48749998211860657
v 2.040308952331543 2.4858312606811523 0.48749998211860657
v 2.2836341857910156 2.4374709129333496 0.0
v 2.2699999809265137 2.4733312129974365 0.44999998807907104
v 2.3470499515533447 2.5 0.0
v 2.3470499515533447 2.5 0.44999998807907104
v 2.2699999809265137 2.4858312606811523 0.48749998211860657
v 2.3470499515533447 2.512500047683716 0.48749998211860657
v 2.5 2.4609079360961914 0.0
v 2.5 2.4935173988342285 0.44999998807907104
v 3.254999876022339 2.4609079360961914 0.0
v 3.254999876022339 2.4935173988342285 0.44999998807907104
v 3.254999876022339 2.5060174465179443 0.48749998211860657
v 2.5 2.5060174465179443 0.48749998211860657
v 3.340749979019165 2.5 0.0
v 3.340749979019165 2.5 0.44999998807907104
v 3.340749979019165 2.512500047683716 0.48749998211860657
v 3.5 2.447171926498413 0.0
v 3.5 2.470276355743408 0.44999998807907104
v 4.319999694824219 2.447171926498413 0.0
v 4.319999694824219 2.427844762802124 0.44999998807907104
v 4.319999694824219 2.44034481048584 0.48749998211860657
v 3.5 2.482776403427124 0.48749998211860657
v 4.384799957275391 2.5 0.0
v 4.384799957275391 2.457568407058716 0.44999998807907104
v 4.384799957275391 2.4700682163238525 0.48749998211860657
v 4.5 2.4705162048339844 0.0
v 4.5 2.4420149326324463 0.44999998807907104
v 5.289999961853027 2.4705162048339844 0.0
v 5.289999961853027 2.4844467639923096 0.44999998807907104
v 5.289999961853027 2.4969465732574463 0.48749998211860657
v 4.5 2.454514980316162 0.48749998211860657
v 4.384799957275391 2.4700682163238525 0.48749998211860657
v 5.388700008392334 2.5 0.0
v 5.388700008392334 2.5 0.44999998807907104
v 5.388700008392334 2.512500047683716 0.48749998211860657
v 5.5 2.456604480743408 0.0
v 5.5 2.488434314727783 0.44999998807907104
v 5.5 2.500934362411499 0.48749998211860657
v -2.6124839782714844 0.5137655735015869 0.4862343966960907
vn -0.1066293865442276 0.0028050311375409365 0.9942949414253235
vn -0.0 0.0 1.0
vn -0.0 0.0 1.0
vn -0.1601787507534027 0.0009896785486489534 0.9870874881744385
vn -0.581121563911438 0.015287192538380623 0.8136731386184692
vn -0.7082403302192688 0.0010911704739555717 0.7059705853462219
vn -0.1601787507534027 0.0009896785486489534 0.9870874881744385
vn -0.07535626739263535 0.2208329141139984 0.972396194934845
vn -0.0 0.0 1.0
vn -0.16497913002967834 0.0554456003010273 0.9847373366355896
vn -0.061047278344631195 0.1811799556016922 0.981553316116333
vn -0.17146538197994232 0.5540677905082703 0.81462162733078
vn -0.3012014627456665 0.7242699861526489 0.6202504634857178
vn -0.7082403302192688 0.0010911704739555717 0.7059705853462219
vn -0.7025701999664307 0.26483458280563354 0.6604982018470764
vn -0.203261598944664 0.44290634989738464 0.8732231855392456
vn -0.4844411611557007 0.39875903725624084 0.7786577939987183
vn -0.0 0.0 1.0
vn -0.0 0.0 1.0
vn -0.0 0.0 1.0
vn -0.07535626739263535 0.2208329141139984 0.972396194934845
vn -0.3491356074810028 0.21653532981872559 0.9117108583450317
vn -0.3012014627456665 0.7242699861526489 0.6202504634857178
vn -0.0003077905566897243 -0.21324624121189117 0.9769983887672424
vn -0.0 0.0 1.0
vn -0.0013059860793873668 -0.1615123450756073 0.986869752407074
vn -0.007851744070649147 -0.10660960525274277 0.9942699670791626
vn -0.0 0.0 1.0
vn -0.042740777134895325 -0.5803267955780029 0.8132613897323608
vn -0.0011699511669576168 -0.8134711384773254 0.58160400390625
vn 0.015419400297105312 -0.6329433917999268 0.7740444540977478
vn -0.0013059860793873668 -0.1615123450756073 0.986869752407074
vn 0.24747411906719208 -0.055440451949834824 0.9673070907592773
vn 0.0508870966732502 -0.1649416834115982 0.9849897623062134
vn 0.2848045527935028 -0.12801672518253326 0.9499989748001099
vn -0.0 0.0 1.0
vn 0.15048891305923462 -0.503898561000824 0.8505523204803467
vn -0.0660828948020935 -0.6730390191078186 0.7366488575935364
vn 0.015419400297105312 -0.6329433917999268 0.7740444540977478
vn 0.6229051351547241 -0.3010040819644928 0.7220703959465027
vn 0.6476147770881653 -0.26134392619132996 0.7157474756240845
vn 0.1743924766778946 -0.2883530259132385 0.9415093064308167
vn -0.3491356074810028 0.21653532981872559 0.9117108583450317
vn -0.001199806109070778 0.13626086711883545 0.9906721711158752
vn -0.0 0.0 1.0
vn -0.24756206572055817 0.0553482323884964 0.9672898054122925
vn -0.05719606205821037 0.15899232029914856 0.9856216311454773
vn -0.193250373005867 0.47520071268081665 0.8583930134773254
vn -0.0034221431706100702 0.706250786781311 0.7079535126686096
vn -0.6247608065605164 0.23818424344062805 0.7436008453369141
vn -0.6477192640304565 0.26114189624786377 0.7157267332077026
vn -0.21675874292850494 0.341701865196228 0.9144700169563293
vn -0.0 0.0 1.0
vn 0.0010845332872122526 0.16018046438694 0.9870871305465698
vn -0.0 0.0 1.0
vn -0.001199806109070778 0.13626086711883545 0.9906721711158752
vn -0.0034221431706100702 0.706250786781311 0.7079535126686096
vn 0.002356646815314889 0.7070748209953308 0.7071347236633301
vn -0.0 0.0 1.0
vn -0.0030155132990330458 0.16018007695674896 0.9870831966400146
vn -0.0 0.0 1.0
vn 0.0010845332872122526 0.16018046438694 0.9870871305465698
vn 0.002356646815314889 0.7070748209953308 0.7071347236633301
vn -0.0129739074036479 0.7070210576057434 0.7070733904838562
vn -0.0 0.0 1.0
vn -0.0027292578015476465 0.1601804494857788 0.9870839715003967
vn -0.0 0.0 1.0
vn -0.0030155132990330458 0.16018007695674896 0.9870831966400146
vn -0.0129739074036479 0.7070210576057434 0.7070733904838562
vn -0.012403396889567375 0.7070319056510925 0.7070727944374084
vn -0.0 0.0 1.0
vn -0.0033754813484847546 0.1601795256137848 0.9870821237564087
vn -0.0 0.0 1.0
vn -0.0027292578015476465 0.1601804494857788 0.9870839715003967
vn -0.012403396889567375 0.7070319056510925 0.7070727944374084
vn -0.017144905403256416 0.8135915398597717 0.5811840891838074
vn -0.0 0.0 1.0
vn -0.0 0.0 1.0
vn -0.0 0.0 1.0
vn -0.0 0.0 1.0
vn -0.0 0.0 1.0
vn 0.16821089386940002 -0.2580167055130005 0.9513845443725586
vn 0.2848045527935028 -0.12801672518253326 0.9499989748001099
vn 0.1066322773694992 0.0 0.99429851770401
vn 0.1582614630460739 -0.03412379324436188 0.9868074059486389
vn -0.00047534971963614225 -0.35776641964912415 0.9338110089302063
vn 0.005351602099835873 -0.2909417748451233 0.9567257761955261
vn 0.2665427625179291 -0.6366920471191406 0.7235870361328125
vn -0.03125634416937828 -0.6710272431373596 0.7407735586166382
vn 0.5812382698059082 0.0 0.8137334585189819
vn 0.7448773384094238 0.04015171527862549 0.6659923195838928
vn 0.1644715666770935 -0.5151064395904541 0.8411982655525208
vn 0.4814940094947815 -0.401467502117157 0.7790939211845398
vn 0.11413982510566711 -0.6194054484367371 0.7767297029495239
vn 0.8396804332733154 -0.10216948390007019 0.5333837866783142
vn 0.6976473927497864 -0.27769628167152405 0.6604337692260742
vn 0.4729667901992798 0.004750368185341358 0.8810674548149109
vn 0.8381142020225525 -0.05261119082570076 0.542951762676239
vn 0.1955612599849701 0.0062257228419184685 0.9806717038154602
vn 0.14101968705654144 0.006192194297909737 0.9899874329566956
vn -0.0 -0.1066322773694992 0.99429851770401
vn -0.0 0.0 1.0
vn -0.0018264458049088717 -0.15206752717494965 0.9883684515953064
vn -0.0 0.0 1.0
vn -0.0 -0.5812381505966187 0.8137334585189819
vn -0.07299207895994186 -0.7136731147766113 0.6966655254364014
vn 0.0036382500547915697 -0.4371383488178253 0.8993869423866272
vn -0.0018264458049088717 -0.15206752717494965 0.9883684515953064
vn -0.0 0.0 1.0
vn -0.0002975103270728141 -0.17643989622592926 0.9843114018440247
vn -0.0 0.0 1.0
vn 0.0036382500547915697 -0.4371383488178253 0.8993869423866272
vn 0.0020476658828556538 -0.6600693464279175 0.751201868057251
vn -0.049054648727178574 -0.5694031119346619 0.8205935955047607
vn -0.019499002024531364 -0.6643417477607727 0.7471746206283569
vn -0.0002975103270728141 -0.17643989622592926 0.9843114018440247
vn -0.0 0.0 1.0
vn -0.0 -0.110364630818367 0.9938911199569702
vn -0.0 0.0 1.0
vn -0.009038467891514301 -0.6111887097358704 0.7914333939552307
vn 0.01898585446178913 -0.4682084023952484 0.883414089679718
vn -0.019499002024531364 -0.6643417477607727 0.7471746206283569
vn 0.05452151969075203 -0.732869029045105 0.6781817078590393
vn -0.0973459929227829 -0.6271972060203552 0.7727531790733337
vn -0.0 -0.110364630818367 0.9938911199569702
vn -0.0 0.0 1.0
vn -0.0010832060361281037 -0.17115965485572815 0.9852426052093506
vn -0.0 0.0 1.0
vn -0.009038467891514301 -0.6111887097358704 0.7914333939552307
vn 0.032166071236133575 -0.8213906288146973 0.5694582462310791
vn -0.062415435910224915 -0.7718715071678162 0.632707417011261
vn -0.0004060256469529122 -0.31467553973197937 0.9491992592811584
vn -0.011628164909780025 -0.1684454381465912 0.9856423735618591
vn -0.0010832060361281037 -0.17115965485572815 0.9852426052093506
vn -0.0 0.0 1.0
vn -0.004799726884812117 -0.13610516488552094 0.9906827211380005
vn -0.0 0.0 1.0
vn -0.011628164909780025 -0.1684454381465912 0.9856423735618591
vn -0.06721241027116776 -0.5609446167945862 0.8251203298568726
vn -0.013767155818641186 -0.5185193419456482 0.8549549579620361
vn -0.05165448784828186 -0.4888002574443817 0.8708651065826416
vn 0.021675249561667442 -0.6496574878692627 0.7599180340766907
vn -0.004799726884812117 -0.13610516488552094 0.9906827211380005
vn -0.0 0.0 1.0
vn 0.002273726277053356 -0.21667517721652985 0.9762410521507263
vn -0.0 0.0 1.0
vn -0.013767155818641186 -0.5185193419456482 0.8549549579620361
vn -0.009508996270596981 -0.6693522930145264 0.7428842782974243
vn -0.07050472497940063 -0.6784958839416504 0.7312130331993103
vn -0.3491356074810028 0.21653532981872559 0.9117108583450317
vn -0.3012014627456665 0.7242699861526489 0.6202504634857178
vn -0.6247608065605164 0.23818424344062805 0.7436008453369141
vn 0.6229051351547241 -0.3010040819644928 0.7220703959465027
vn 0.16821089386940002 -0.2580167055130005 0.9513845443725586
vn 0.2665427625179291 -0.6366920471191406 0.7235870361328125
vn 0.2848045527935028 -0.12801672518253326 0.9499989748001099
vn -0.007160513661801815 -0.21325497329235077 0.9769703149795532
vn 0.06636558473110199 -0.19790706038475037 0.977971613407135
vn -0.0 0.0 1.0
vn 0.9737788438796997 -0.20147272944450378 0.10565759241580963
vn 0.9565056562423706 -0.0987943783402443 0.27447509765625
vn 0.9476750493049622 -0.14595411717891693 0.2839178442955017
vn -0.00425887294113636 -0.17729127407073975 0.9841492772102356
vn -0.00065711879869923 -0.15866543352603912 0.9873321652412415
vn -0.0 0.0 1.0
vn -0.00065711879869923 -0.15866543352603912 0.9873321652412415
vn -0.004115389660000801 -0.19159220159053802 0.9814659357070923
vn -0.0 0.0 1.0
vn 0.002410412998870015 -0.13148170709609985 0.9913156032562256
vn -0.0 0.0 1.0
vn -0.0 0.0 1.0
vn -0.0 -0.16018226742744446 0.9870874881744385
vn -0.042003706097602844 -0.9910406470298767 0.12678387761116028
vn -0.027513816952705383 -0.9667843580245972 0.25410839915275574
vn 0.04814964532852173 -0.9619475603103638 0.26895803213119507
vn -0.011628164909780025 -0.1684454381465912 0.9856423735618591
vn -0.011875076219439507 -0.1793399602174759 0.9837154746055603
vn -0.0 0.0 1.0
vn 0.0009346503065899014 -0.2122229039669037 0.977220892906189
vn -0.00024546089116483927 -0.21239188313484192 0.9771844744682312
vn -0.0 0.0 1.0
vn -0.0 0.0 1.0
vn -0.0 0.0 1.0
vn -0.0 0.0 1.0
vn -0.0 0.0 1.0
vn -0.0 0.0 1.0
vn -0.0 0.0 1.0
vn -0.0 0.0 1.0
vn -0.0 0.0 1.0
vn -0.0 0.0 1.0
vn -0.0 0.0 1.0
vn -0.0 0.0 1.0
vn -0.0 0.0 1.0
vn -0.0 0.0 1.0
vn -0.0 0.0 1.0
vn -0.0 0.0 1.0
vn -0.0 0.0 1.0
vn -0.0 0.0 1.0
vn -0.0 0.0 1.0
vn -0.0 0.0 1.0
vn -0.0 0.0 1.0
vn -0.02106843702495098 0.9997780919075012 0.0
vn -0.01880636252462864 0.986912727355957 0.16015541553497314
vn -0.01703604683279991 0.9998549222946167 0.0
vn -0.02079649828374386 0.9868736863136292 0.16014938056468964
vn -0.016702627763152122 0.9869495034217834 0.1601610630750656
vn -0.01882232166826725 0.9998229146003723 0.0
vn -0.006888318806886673 0.9870637655258179 0.16018012166023254
vn 0.006770577281713486 0.9999771118164062 0.0
vn 0.0060018328949809074 0.9870693683624268 0.16018114984035492
vn -0.008359240368008614 0.9999650716781616 0.0
vn -0.3236207067966461 0.9158678650856018 0.23760391771793365
vn -0.5115181803703308 0.8592724800109863 0.0
vn -0.017144905403256416 0.8135915398597717 0.5811840891838074
vn -0.012403396889567375 0.7070319056510925 0.7070727944374084
vn -0.0129739074036479 0.7070210576057434 0.7070733904838562
vn 0.002356646815314889 0.7070748209953308 0.7071347236633301
vn -0.0034221431706100702 0.706250786781311 0.7079535126686096
vn -0.19440022110939026 0.6275683045387268 0.7539008259773254
vn -0.8752370476722717 0.4495798945426941 0.1784319281578064
vn -0.9675382375717163 0.25272470712661743 0.0
vn -0.9250629544258118 0.12266145646572113 0.3594616651535034
vn -1.0 0.0 0.0
vn -0.6477192640304565 0.26114189624786377 0.7157267332077026
vn -0.6247608065605164 0.23818424344062805 0.7436008453369141
vn -0.193250373005867 0.47520071268081665 0.8583930134773254
vn -0.3012014627456665 0.7242699861526489 0.6202504634857178
vn -0.7910834550857544 0.42497509717941284 0.4399808943271637
vn -0.3117676377296448 0.8982726335525513 0.3096889853477478
vn -0.17111672461032867 0.6267187595367432 0.7602254152297974
vn -0.21513725817203522 0.8512542247772217 0.47862541675567627
vn -0.0 1.0 0.0
vn -0.5054493546485901 0.8628562092781067 0.0
vn -0.8836315870285034 0.439334511756897 0.1618034392595291
vn -0.9729301929473877 0.2310991734266281 0.0
vn -0.987265944480896 -0.012606477364897728 0.15857838094234467
vn -0.9999768733978271 0.006811418104916811 0.0
vn -0.9867543578147888 0.02595791220664978 0.16013103723526
vn -0.9996541738510132 0.02629726007580757 0.0
vn -0.7873672842979431 0.271735280752182 0.5533648729324341
vn -0.7082403302192688 0.0010911704739555717 0.7059705853462219
vn -0.581121563911438 0.015287192538380623 0.8136731386184692
vn -0.7025701999664307 0.26483458280563354 0.6604982018470764
vn -0.17146538197994232 0.5540677905082703 0.81462162733078
vn -0.025497622787952423 -0.999674916267395 0.0
vn -0.07250689715147018 -0.9844858646392822 0.15978217124938965
vn 0.013194261118769646 -0.9916754961013794 0.12808455526828766
vn -0.07345056533813477 -0.9972988963127136 0.0
vn -0.0011699511669576168 -0.8134711384773254 0.58160400390625
vn -0.042740777134895325 -0.5803267955780029 0.8132613897323608
vn 0.03606871888041496 -0.9993492960929871 0.0
vn 0.010873553343117237 -0.9831967353820801 0.18222522735595703
vn -0.1731916218996048 -0.9848880767822266 0.0
vn -0.2170155942440033 -0.9647447466850281 0.14890199899673462
vn -0.0762399286031723 -0.7764860391616821 0.6255053281784058
vn 0.015419400297105312 -0.6329433917999268 0.7740444540977478
vn -0.23173671960830688 -0.9722836017608643 0.031026756390929222
vn -0.06490260362625122 -0.9817215204238892 0.17891445755958557
vn 0.4218500554561615 -0.9058215618133545 0.039113849401474
vn 0.4460547864437103 -0.848915696144104 0.28350862860679626
vn 0.884706437587738 -0.4275072515010834 0.18582783639431
vn 0.9758619666099548 -0.21838851273059845 0.0
vn 0.925048291683197 -0.1227867528796196 0.35945677757263184
vn 1.0 0.0 0.0
vn 0.6476147770881653 -0.26134392619132996 0.7157474756240845
vn 0.17084583640098572 -0.5720618367195129 0.8022200465202332
vn 0.15822158753871918 -0.7201309204101562 0.675557017326355
vn -0.1588430553674698 -0.9456424713134766 0.28377676010131836
vn 0.8475109338760376 -0.25215885043144226 0.4670558273792267
vn 0.6229051351547241 -0.3010040819644928 0.7220703959465027
vn 0.2665427625179291 -0.6366920471191406 0.7235870361328125
vn 0.6666094660758972 -0.6142268776893616 0.422323614358902
vn -0.03125634416937828 -0.6710272431373596 0.7407735586166382
vn 0.305475652217865 -0.8159483075141907 0.49082884192466736
vn 0.1827935129404068 -0.9036853909492493 0.3872199058532715
vn -0.07286829501390457 -0.9739476442337036 0.21474675834178925
vn 0.004077748861163855 -0.999991774559021 0.0
vn 0.07776256650686264 -0.996971845626831 0.0
vn 0.31529924273490906 -0.9489923119544983 0.0
vn 0.3816971480846405 -0.8841186761856079 0.26952093839645386
vn 0.916469156742096 -0.37626367807388306 0.13605135679244995
vn 0.9238795042037964 -0.3826834261417389 0.0
vn 0.9883805513381958 -0.15199944376945496 0.0
vn 0.9732970595359802 -0.14243699610233307 0.1800128072500229
vn 0.7815408706665039 -0.28686341643333435 0.5539884567260742
vn 0.8840410709381104 -0.12558144330978394 0.4502231478691101
vn 0.6976473927497864 -0.27769628167152405 0.6604337692260742
vn 0.11413982510566711 -0.6194054484367371 0.7767297029495239
vn 0.9727843999862671 -0.22740890085697174 0.044448062777519226
vn 0.9724658131599426 -0.10188708454370499 0.20959292352199554
vn 0.8851549625396729 -0.08663411438465118 0.45715999603271484
vn 0.9864369034767151 0.14307039976119995 0.08045497536659241
vn 0.9734266400337219 0.13151375949382782 0.18746964633464813
vn 0.8448346257209778 0.08933304250240326 0.5275169610977173
vn 0.977771520614624 0.20790845155715942 0.0271481741219759
vn 0.9843502044677734 0.08272793143987656 0.15559816360473633
vn 1.0 0.0 0.0
vn 0.976994514465332 0.0 0.2132645845413208
vn 0.8573850989341736 0.043909452855587006 0.5127989649772644
vn 0.5812382698059082 0.0 0.8137334585189819
vn 0.945549488067627 0.10738881677389145 0.30725178122520447
vn -0.195646271109581 -0.9806744456291199 0.0
vn -0.0 -0.9870874881744385 0.16018226742744446
vn -0.2067500352859497 -0.9672377109527588 0.1473279744386673
vn -0.0 -1.0 0.0
vn -0.08184267580509186 -0.8002089262008667 0.5941106081008911
vn -0.0 -0.5812381505966187 0.8137334585189819
vn -0.2988153100013733 -0.9525939226150513 0.05721915885806084
vn -0.11657263338565826 -0.970942497253418 0.2090015709400177
vn -0.05645609647035599 -0.9471703171730042 0.31572335958480835
vn -0.008122523315250874 -0.9928808212280273 0.11883480101823807
vn 0.017132597044110298 -0.9725313186645508 0.23214054107666016
vn 0.24484027922153473 -0.9641295671463013 0.1025051549077034
vn 0.23231372237205505 -0.9589848518371582 0.16241422295570374
vn 0.11347892135381699 -0.9425551295280457 0.31418508291244507
vn 0.0050455667078495026 -0.6062284111976624 0.7952746748924255
vn 0.25498083233833313 -0.9665530920028687 0.02756739780306816
vn 0.05211198702454567 -0.9849338531494141 0.16489221155643463
vn 0.008709830231964588 -0.8618114590644836 0.5071539282798767
vn -0.06597042083740234 -0.9976096153259277 0.02056696265935898
vn -0.013365077786147594 -0.9814054369926453 0.19148069620132446
vn -0.22668854892253876 -0.9738194346427917 0.01697046309709549
vn -0.3018040955066681 -0.9411719441413879 0.15201911330223083
vn -0.12303175032138824 -0.7926899194717407 0.5970811247825623
vn -0.019499002024531364 -0.6643417477607727 0.7471746206283569
vn 0.0023726781364530325 -0.7648376822471619 0.6442187428474426
vn -0.40081116557121277 -0.9138474464416504 0.06506291031837463
vn -0.1941114068031311 -0.9610794186592102 0.19658887386322021
vn -0.143865168094635 -0.8686975836753845 0.4739907681941986
vn -0.12642091512680054 -0.9410717487335205 0.3136906027793884
vn 0.24974940717220306 -0.9646219611167908 0.08443732559680939
vn 0.23420391976833344 -0.9533072113990784 0.19066670536994934
vn 0.28465506434440613 -0.9582090973854065 0.02840592712163925
vn 0.1074349656701088 -0.9793758988380432 0.17111589014530182
vn 0.2103271484375 -0.9274622201919556 0.30915412306785583
vn 0.04146281257271767 -0.8975045680999756 0.4390517771244049
vn -0.0972566232085228 -0.9940779209136963 0.0484795868396759
vn -0.017650209367275238 -0.976836085319519 0.2132599800825119
vn 0.14080584049224854 -0.9874479174613953 0.07155609130859375
vn 0.11466529220342636 -0.980859637260437 0.15737305581569672
vn 0.032166071236133575 -0.8213906288146973 0.5694582462310791
vn -0.015804307535290718 -0.7130569815635681 0.7009279131889343
vn 0.06098560616374016 -0.9978735446929932 0.02300245314836502
vn -0.0775110274553299 -0.9824830293655396 0.16946753859519958
vn -0.06512625515460968 -0.8692229390144348 0.49011221528053284
vn -0.16752099990844727 -0.985275149345398 0.03419797495007515
vn -0.09876041859388351 -0.9767505526542664 0.19027556478977203
vn 0.20482243597507477 -0.9787598252296448 -0.008775955066084862
vn 0.28541621565818787 -0.9537569284439087 0.09426206350326538
vn 0.1797136813402176 -0.9332377314567566 0.3110792934894562
vn -0.08414886146783829 -0.8075919151306152 0.5837074518203735
vn 0.28867805004119873 -0.9544333219528198 -0.07564426958560944
vn 0.1255394071340561 -0.9852355718612671 0.11640724539756775
vn 0.03920178487896919 -0.8523330092430115 0.5215280652046204
vn -0.12749119102954865 -0.9891748428344727 -0.07265865057706833
vn -0.03382736071944237 -0.9849414229393005 0.1695467084646225
vn 0.11425182968378067 -0.9934513568878174 -0.0008960694540292025
vn 0.14086656272411346 -0.9801007509231567 0.13985379040241241
vn 0.09948843717575073 -0.943976640701294 0.31465888023376465
vn -0.01632477529346943 -0.6148481369018555 0.7884765863418579
vn 0.025221578776836395 -0.7559492588043213 0.6541440486907959
vn 0.027270296588540077 -0.9995750784873962 0.010300010442733765
vn -0.01942765712738037 -0.9846328496932983 0.1735531985759735
vn -0.010982244275510311 -0.7730563879013062 0.6342422366142273
vn -0.23543667793273926 -0.9712436199188232 0.035429731011390686
vn -0.10046672075986862 -0.9668325781822205 0.23482172191143036
vn -0.07050472497940063 -0.6784958839416504 0.7312130331993103
vn 0.07263383269309998 -0.8042448163032532 0.5898428559303284
vt 0.7579458355903625 0.24969416856765747
vt 0.9995152950286865 0.0003104209899902344
vt 0.9995152950286865 0.24969416856765747
vt 0.7579458355903625 0.0003104209899902344
vt 0.750158429145813 0.24969416856765747
vt 0.7502303719520569 0.0003104209899902344
vt 0.7579458355903625 0.49955320358276367
vt 0.9995152950286865 0.25805264711380005
vt 0.9995152950286865 0.49955320358276367
vt 0.7579458355903625 0.2679491639137268
vt 0.769784152507782 0.2580525875091553
vt 0.7688829302787781 0.250179648399353
vt 0.9995152950286865 0.2501797080039978
vt 0.750158429145813 0.49955320358276367
vt 0.750158429145813 0.2661600708961487
vt 0.7688829302787781 0.250179648399353
vt 0.750158429145813 0.2661600708961487
vt 0.7502368688583374 0.7499350905418396
vt 0.9995152950286865 0.5005513429641724
vt 0.9995152950286865 0.7499350905418396
vt 0.7502368688583374 0.508434534072876
vt 0.7579458355903625 0.5005513429641724
vt 0.7502368688583374 0.5005513429641724
vt 0.3722568154335022 0.7432563602924347
vt 0.49938881397247314 0.5002923011779785
vt 0.49938881397247314 0.7432563602924347
vt 0.250110387802124 0.7432563602924347
vt 0.250110387802124 0.5002923011779785
vt 0.25008702278137207 0.7496760785579681
vt 0.37223345041275024 0.7496760785579681
vt 0.4993654489517212 0.7496760785579681
vt 0.5005756616592407 0.7432439029216766
vt 0.7420104742050171 0.7197616994380951
vt 0.7238985300064087 0.7432439625263214
vt 0.7420104742050171 0.5002798736095428
vt 0.5005756616592407 0.5002798736095428
vt 0.7301816940307617 0.7499505579471588
vt 0.6259299516677856 0.7498202919960022
vt 0.5005522966384888 0.7496636211872101
vt 0.7497618198394775 0.5002798736095428
vt 0.7497317790985107 0.7225396931171417
vt 0.7301816940307617 0.7499505579471588
vt 0.7579458355903625 0.24969416856765747
vt 0.9995152950286865 0.008193612098693848
vt 0.9995152950286865 0.24969416856765747
vt 0.7579458355903625 0.018090128898620605
vt 0.769784152507782 0.008193552494049072
vt 0.7688868641853333 0.00032061338424682617
vt 0.9995152950286865 0.00032067298889160156
vt 0.750158429145813 0.24969416856765747
vt 0.750158429145813 0.01629728078842163
vt 0.7688868641853333 0.00032061338424682617
vt 0.7502368688583374 0.24969416856765747
vt 0.9995152950286865 0.008193612098693848
vt 0.9995152950286865 0.24969416856765747
vt 0.7502368688583374 0.008193612098693848
vt 0.7502368688583374 0.00032067298889160156
vt 0.9995152950286865 0.00032067298889160156
vt 0.7502368688583374 0.7498096823692322
vt 0.9995152950286865 0.5083090960979462
vt 0.9995152950286865 0.7498096823692322
vt 0.7502368688583374 0.5083090960979462
vt 0.7502368688583374 0.5004361569881439
vt 0.9995152950286865 0.5004361569881439
vt 0.7502368688583374 0.24969416856765747
vt 0.9995152950286865 0.008193612098693848
vt 0.9995152950286865 0.24969416856765747
vt 0.7502368688583374 0.008193612098693848
vt 0.7502368688583374 0.00032067298889160156
vt 0.9995152950286865 0.00032067298889160156
vt 0.7502368688583374 0.24969416856765747
vt 0.9995152950286865 0.008193612098693848
vt 0.9995152950286865 0.24969416856765747
vt 0.7502368688583374 0.008193612098693848
vt 0.7502368688583374 0.00032067298889160156
vt 0.9995152950286865 0.00032067298889160156
vt 0.25046059489250183 0.24969416856765747
vt 0.49973905086517334 0.0003104209899902344
vt 0.49973905086517334 0.24969416856765747
vt 0.25046059489250183 0.0003104209899902344
vt 0.749743640422821 0.0003104209899902344
vt 0.749743640422821 0.24327445030212402
vt 0.743931233882904 0.24969416856765747
vt 0.9916716814041138 0.0003104209899902344
vt 0.9916716814041138 0.21979224681854248
vt 0.8953967094421387 0.2432745099067688
vt 0.9735597372055054 0.2432745099067688
vt 0.7502135038375854 0.24969416856765747
vt 0.89947509765625 0.24988067150115967
vt 0.9994229674339294 0.0003104209899902344
vt 0.9994181394577026 0.03598165512084961
vt 0.9798467755317688 0.2499811053276062
vt 0.9993929266929626 0.2225702404975891
vt 0.9798467755317688 0.2499811053276062
vt 0.9993993639945984 0.1747843623161316
vt 0.9993929266929626 0.2225702404975891
vt 0.9994144439697266 0.06327009201049805
vt 0.9994024038314819 0.1521027684211731
vt 0.9994181394577026 0.03598165512084961
vt 0.9994144439697266 0.06327009201049805
vt 0.7501699328422546 0.49292296171188354
vt 0.9995152950286865 0.2508806586265564
vt 0.9994483590126038 0.49292296171188354
vt 0.7502368688583374 0.2508806586265564
vt 0.7501668930053711 0.4996267557144165
vt 0.9222025871276855 0.4996267557144165
vt 0.9994940161705017 0.4996267557144165
vt 0.7502368688583374 0.24327445030212402
vt 0.9995152950286865 0.0003104209899902344
vt 0.9995152950286865 0.24327445030212402
vt 0.7502368688583374 0.0003104209899902344
vt 0.7502135038375854 0.24969416856765747
vt 0.9469191431999207 0.24969416856765747
vt 0.9469191431999207 0.24969416856765747
vt 0.9994919300079346 0.24969416856765747
vt 0.7502368688583374 0.743247002363205
vt 0.9995152950286865 0.5002830028533936
vt 0.9995152950286865 0.743247002363205
vt 0.7502368688583374 0.5002830028533936
vt 0.9994919300079346 0.7496667504310608
vt 0.8692190051078796 0.7496667504310608
vt 0.7502135038375854 0.7496667504310608
vt 0.96136474609375 0.7496667504310608
vt 0.8692190051078796 0.7496667504310608
vt 0.7502368688583374 0.24327445030212402
vt 0.9995152950286865 0.0003104209899902344
vt 0.9995152950286865 0.24327445030212402
vt 0.7502368688583374 0.0003104209899902344
vt 0.7502135038375854 0.24969416856765747
vt 0.9384187459945679 0.24969416856765747
vt 0.9597943425178528 0.24969416856765747
vt 0.9597943425178528 0.24969416856765747
vt 0.9994919300079346 0.24969416856765747
vt 0.7502368688583374 0.24327445030212402
vt 0.9995152950286865 0.0003104209899902344
vt 0.9995152950286865 0.24327445030212402
vt 0.7502368688583374 0.0003104209899902344
vt 0.7502135038375854 0.24969416856765747
vt 0.9707750678062439 0.24969416856765747
vt 0.9994919300079346 0.24969416856765747
vt 0.7502135038375854 0.24969416856765747
vt 0.9707750678062439 0.24969416856765747
vt 0.7502368688583374 0.24327445030212402
vt 0.9995152950286865 0.0003104209899902344
vt 0.9995152950286865 0.24327445030212402
vt 0.7502368688583374 0.0003104209899902344
vt 0.7502135038375854 0.24969416856765747
vt 0.9717472195625305 0.24969416856765747
vt 0.9994919300079346 0.24969416856765747
vt 0.7579458355903625 0.5005513429641724
vt 0.7502368688583374 0.5005513429641724
vt 0.7505205869674683 0.501122236251831
vt 0.7497618198394775 0.5002798736095428
vt 0.7420104742050171 0.5002798736095428
vt 0.7497618198394775 0.5002798736095428
vt 0.7420104742050171 0.5002798736095428
vt 0.6259299516677856 0.7498202919960022
vt 0.7301816940307617 0.7499505579471588
vt 0.6498113870620728 0.7498501241207123
vt 0.9916716814041138 0.21979224681854248
vt 0.9994024038314819 0.1521027684211731
vt 0.9993993639945984 0.1747843623161316
vt 0.9222025871276855 0.4996267557144165
vt 0.9994940161705017 0.4996267557144165
vt 0.947708785533905 0.4996267557144165
vt 0.7502135038375854 0.24969416856765747
vt 0.9469191431999207 0.24969416856765747
vt 0.9284476041793823 0.24969416856765747
vt 0.8692190051078796 0.7496667504310608
vt 0.9421578645706177 0.7496667504310608
vt 0.8849008679389954 0.7496667504310608
vt 0.96136474609375 0.7496667504310608
vt 0.7502368688583374 0.743247002363205
vt 0.9994919300079346 0.7496667504310608
vt 0.96136474609375 0.7496667504310608
vt 0.7502135038375854 0.24969416856765747
vt 0.9707750678062439 0.24969416856765747
vt 0.9546217918395996 0.24969416856765747
vt 0.7502135038375854 0.24969416856765747
vt 0.9717472195625305 0.24969416856765747
vt 0.9471434354782104 0.24969416856765747
vt 0.9995152950286865 0.24969416856765747
vt 0.7502368688583374 0.24969416856765747
vt 0.7502368688583374 0.24969416856765747
vt 0.9995152950286865 0.24969416856765747
vt 0.9995152950286865 0.7498096823692322
vt 0.7502368688583374 0.7498096823692322
vt 0.7502368688583374 0.7498096823692322
vt 0.9995152950286865 0.7498096823692322
vt 0.9995152950286865 0.24969416856765747
vt 0.7502368688583374 0.24969416856765747
vt 0.7502368688583374 0.24969416856765747
vt 0.9995152950286865 0.24969416856765747
vt 0.9995152950286865 0.24969416856765747
vt 0.7502368688583374 0.24969416856765747
vt 0.7502368688583374 0.24969416856765747
vt 0.9995152950286865 0.24969416856765747
vt 0.9995152950286865 0.7499350905418396
vt 0.7502368688583374 0.7499350905418396
vt 0.7502368688583374 0.7499350905418396
vt 0.9995152950286865 0.7499350905418396
vt -1.7574923038482666 0.7481094896793365
vt -1.2610032558441162 0.5232613980770111
vt -1.2610032558441162 0.748125821352005
vt -1.7574923038482666 0.5232450664043427
vt -0.7645148634910583 0.5232777297496796
vt -0.7645148634910583 0.7481420934200287
vt -0.2680259346961975 0.523294061422348
vt -0.2680259346961975 0.7481584250926971
vt 0.22846287488937378 0.5233103930950165
vt 0.22846287488937378 0.7481747567653656
vt 0.6724111437797546 0.5233250856399536
vt 0.6724098920822144 0.7481894493103027
vt -1.7574923038482666 0.5014741718769073
vt -1.2610032558441162 0.5014741718769073
vt -0.7645148634910583 0.5014741718769073
vt -0.2680259346961975 0.5014741718769073
vt 0.22846287488937378 0.5014741718769073
vt 0.6719851493835449 0.5014741718769073
vt 0.7731517553329468 0.5233264863491058
vt 0.7731503844261169 0.748190850019455
vt 1.2358694076538086 0.5233244001865387
vt 1.2358677387237549 0.7481888234615326
vt 0.7727359533309937 0.5014741718769073
vt 1.2234575748443604 0.5014741718769073
vt 0.6719851493835449 0.5014741718769073
vt 1.248722791671753 0.5014741718769073
vt 1.2358694076538086 0.5233244001865387
vt 1.6827093362808228 0.523339033126831
vt 1.6835885047912598 0.5014741718769073
vt 1.2358694076538086 0.5233244001865387
vt 1.2358677387237549 0.7481888234615326
vt 1.6827079057693481 0.7482035160064697
vt 1.7834609746932983 0.5233404338359833
vt 1.7834597826004028 0.748204916715622
vt 2.2433862686157227 0.5233384072780609
vt 2.2433862686157227 0.74820277094841
vt 2.757516384124756 0.5233360826969147
vt 2.757516384124756 0.7482005059719086
vt 1.7843060493469238 0.5014741718769073
vt 2.2433862686157227 0.5014741718769073
vt 2.757516384124756 0.5014741718769073
vt 1.7843060493469238 0.5014741718769073
vt 1.6835885047912598 0.5014741718769073
vt -1.8657501935958862 0.7496569752693176
vt -2.1099729537963867 0.5268920361995697
vt -1.865749478340149 0.5268920361995697
vt -2.1099729537963867 0.7496569752693176
vt -1.864474892616272 0.5008474290370941
vt -2.1099729537963867 0.5008474290370941
vt -1.6115591526031494 0.7496569752693176
vt -1.6115577220916748 0.5268920361995697
vt -1.3575212955474854 0.7496569752693176
vt -1.3575196266174316 0.5268920361995697
vt -1.3575315475463867 0.5008474290370941
vt -1.6089565753936768 0.5008474290370941
vt -1.3091330528259277 0.7496569752693176
vt -1.309131383895874 0.5268920361995697
vt -1.1462881565093994 0.7496569752693176
vt -1.1462864875793457 0.5268920361995697
vt -1.0449333190917969 0.5268920361995697
vt -1.0449349880218506 0.7496569752693176
vt -0.5980257987976074 0.5268920361995697
vt -0.5980271697044373 0.7496569752693176
vt -1.0470378398895264 0.5008474290370941
vt -1.1484713554382324 0.5008474290370941
vt -1.1484713554382324 0.5008474290370941
vt -1.3096411228179932 0.5008474290370941
vt -0.5980257987976074 0.5268920361995697
vt -0.6072211861610413 0.5008474290370941
vt -0.5928231477737427 0.5008474290370941
vt -0.5980257987976074 0.5268920361995697
vt -0.294084370136261 0.5008474290370941
vt -0.5980257987976074 0.5268920361995697
vt -0.5980257987976074 0.5268920361995697
vt -0.2946603000164032 0.5268920361995697
vt -0.29466158151626587 0.7496569752693176
vt -0.5980271697044373 0.7496569752693176
vt -0.1313108652830124 0.7496569752693176
vt -0.1313096582889557 0.5268920361995697
vt -0.030725516378879547 0.5268920361995697
vt -0.03072672337293625 0.7496569752693176
vt 0.06355957686901093 0.7496569752693176
vt 0.06356082111597061 0.5268920361995697
vt -0.032368436455726624 0.5008474290370941
vt 0.06128261983394623 0.5008474290370941
vt -0.032368436455726624 0.5008474290370941
vt -0.13322505354881287 0.5008474290370941
vt 0.10831268876791 0.7496569752693176
vt 0.10831394791603088 0.5268920361995697
vt 0.1057342067360878 0.5008474290370941
vt 0.2835884690284729 0.7496569752693176
vt 0.28358978033065796 0.5268920361995697
vt 0.27982908487319946 0.5008474290370941
vt 0.3374313712120056 0.7496569752693176
vt 0.3374326825141907 0.5268920361995697
vt 0.40781423449516296 0.7496569752693176
vt 0.4078156054019928 0.5268920361995697
vt 0.33330920338630676 0.5008474290370941
vt 0.4032178819179535 0.5008474290370941
vt 0.27982908487319946 0.5008474290370941
vt 0.7984906435012817 0.7496569752693176
vt 0.4601718783378601 0.5268920361995697
vt 0.7984923124313354 0.5268920361995697
vt 0.46017032861709595 0.7496569752693176
vt 0.8019598722457886 0.5008474290370941
vt 0.46363967657089233 0.5008474290370941
vt 0.8389092683792114 0.7496924102306366
vt 0.8486520051956177 0.5268920361995697
vt 0.8521195650100708 0.5008474290370941
vt 0.9504896402359009 0.7496569752693176
vt 0.9504914283752441 0.5268920361995697
vt 1.3067857027053833 0.749690443277359
vt 1.3010694980621338 0.5268920361995697
vt 1.304537057876587 0.5008474290370941
vt 0.9539588689804077 0.5008474290370941
vt 1.3374004364013672 0.7496569752693176
vt 1.337402105331421 0.5268920361995697
vt 1.3408697843551636 0.5008474290370941
vt 1.4408087730407715 0.7496569752693176
vt 1.4408103227615356 0.5268920361995697
vt 1.6711461544036865 0.7497736215591431
vt 1.6748886108398438 0.5268920361995697
vt 1.678356409072876 0.5008474290370941
vt 1.4442781209945679 0.5008474290370941
vt 1.3408697843551636 0.5008474290370941
vt 1.6992067098617554 0.7496044635772705
vt 1.705734133720398 0.5268920361995697
vt 1.678356409072876 0.5008474290370941
vt 1.7092019319534302 0.5008474290370941
vt 1.823970079421997 0.7496942579746246
vt 1.818355917930603 0.5268920361995697
vt 1.8561333417892456 0.7496569752693176
vt 1.8561350107192993 0.5268920361995697
vt 1.8218238353729248 0.5008474290370941
vt 1.859602928161621 0.5008474290370941
vt 1.9311275482177734 0.7496569752693176
vt 1.9311292171478271 0.5268920361995697
vt 2.301318645477295 0.7496569752693176
vt 2.3013205528259277 0.5268920361995697
vt 2.30478835105896 0.5008474290370941
vt 1.9345972537994385 0.5008474290370941
vt 2.3433635234832764 0.7496569752693176
vt 2.343365430831909 0.5268920361995697
vt 2.3468332290649414 0.5008474290370941
vt 2.4214468002319336 0.7496569752693176
vt 2.4214489459991455 0.5268920361995697
vt 2.8235087394714355 0.7496569752693176
vt 2.8235106468200684 0.5268920361995697
vt 2.8269782066345215 0.5008474290370941
vt 2.4249165058135986 0.5008474290370941
vt 2.855281352996826 0.7496569752693176
vt 2.855283260345459 0.5268920361995697
vt 2.858750820159912 0.5008474290370941
vt 2.911766290664673 0.7496569752693176
vt 2.9117679595947266 0.5268920361995697
vt 3.2991182804107666 0.7496569752693176
vt 3.2991199493408203 0.5268920361995697
vt 3.3025875091552734 0.5008474290370941
vt 2.915235757827759 0.5008474290370941
vt 2.858750820159912 0.5008474290370941
vt 3.347512722015381 0.7496569752693176
vt 3.3475143909454346 0.5268920361995697
vt 3.3509819507598877 0.5008474290370941
vt 3.402085304260254 0.7496569752693176
vt 3.4020869731903076 0.5268920361995697
vt 3.4055545330047607 0.5008474290370941
vt -0.13322505354881287 0.5008474290370941

g bg_mdl_map_forestground01
s 1
usemtl bg_mdl_map_forestground01_0
f 3/3/3 2/2/2 1/1/1 
f 4/4/4 1/1/1 2/2/2 
f 1/1/1 4/4/4 5/5/5 
f 6/6/6 5/5/5 4/4/4 
f 9/9/9 8/8/8 7/7/7 
f 7/7/7 8/8/8 10/10/10 
f 10/10/10 8/8/8 11/11/11 
f 11/11/11 8/8/8 12/12/12 
f 11/11/11 12/12/12 10/10/10 
f 13/13/13 12/12/12 8/8/8 
f 7/7/7 10/10/10 14/14/14 
f 15/15/15 14/14/14 10/10/10 
f 17/17/17 10/10/10 16/16/16 
f 20/20/20 19/19/19 18/18/18 
f 18/18/18 19/19/19 21/21/21 
f 21/21/21 19/19/19 22/22/22 
f 21/21/21 22/22/22 23/23/23 
f 26/26/26 25/25/25 24/24/24 
f 24/24/24 25/25/25 27/27/27 
f 27/27/27 25/25/25 28/28/28 
f 27/27/27 29/29/29 24/24/24 
f 30/30/30 24/24/24 29/29/29 
f 26/26/26 24/24/24 31/31/31 
f 30/30/30 31/31/31 24/24/24 
f 34/34/34 33/33/33 32/32/32 
f 33/33/33 35/35/35 32/32/32 
f 32/32/32 35/35/35 36/36/36 
f 37/37/37 34/34/34 32/32/32 
f 38/38/38 37/37/37 32/32/32 
f 39/39/39 38/38/38 32/32/32 
f 35/35/35 33/33/33 40/40/40 
f 41/41/41 40/40/40 33/33/33 
f 34/34/34 42/42/42 33/33/33 
f 41/41/41 33/33/33 42/42/42 
f 45/45/45 44/44/44 43/43/43 
f 43/43/43 44/44/44 46/46/46 
f 46/46/46 44/44/44 47/47/47 
f 47/47/47 44/44/44 48/48/48 
f 49/49/49 48/48/48 44/44/44 
f 43/43/43 46/46/46 50/50/50 
f 51/51/51 50/50/50 46/46/46 
f 47/47/47 52/52/52 46/46/46 
f 51/51/51 46/46/46 52/52/52 
f 55/55/55 54/54/54 53/53/53 
f 56/56/56 53/53/53 54/54/54 
f 56/56/56 54/54/54 57/57/57 
f 58/58/58 57/57/57 54/54/54 
f 61/61/61 60/60/60 59/59/59 
f 62/62/62 59/59/59 60/60/60 
f 62/62/62 60/60/60 63/63/63 
f 64/64/64 63/63/63 60/60/60 
f 67/67/67 66/66/66 65/65/65 
f 68/68/68 65/65/65 66/66/66 
f 68/68/68 66/66/66 69/69/69 
f 70/70/70 69/69/69 66/66/66 
f 73/73/73 72/72/72 71/71/71 
f 74/74/74 71/71/71 72/72/72 
f 74/74/74 72/72/72 75/75/75 
f 76/76/76 75/75/75 72/72/72 
f 79/79/79 78/78/78 77/77/77 
f 80/80/80 77/77/77 78/78/78 
f 79/79/79 81/81/81 78/78/78 
f 82/82/82 81/81/81 79/79/79 
f 83/83/83 82/82/82 79/79/79 
f 82/82/82 84/84/84 81/81/81 
f 85/85/85 84/84/84 82/82/82 
f 86/86/86 85/85/85 82/82/82 
f 87/87/87 85/85/85 86/86/86 
f 82/82/82 88/88/88 86/86/86 
f 89/89/89 86/86/86 88/88/88 
f 86/86/86 89/89/89 87/87/87 
f 90/90/90 84/84/84 85/85/85 
f 91/91/91 90/90/90 85/85/85 
f 87/87/87 92/92/92 85/85/85 
f 93/93/93 85/85/85 92/92/92 
f 94/94/94 87/87/87 89/89/89 
f 96/96/96 95/95/95 85/85/85 
f 98/98/98 97/97/97 85/85/85 
f 100/100/100 99/99/99 85/85/85 
f 103/103/103 102/102/102 101/101/101 
f 104/104/104 101/101/101 102/102/102 
f 105/105/105 103/103/103 101/101/101 
f 106/106/106 103/103/103 105/105/105 
f 107/107/107 103/103/103 106/106/106 
f 110/110/110 109/109/109 108/108/108 
f 111/111/111 108/108/108 109/109/109 
f 112/112/112 110/110/110 108/108/108 
f 113/113/113 110/110/110 112/112/112 
f 115/115/115 110/110/110 114/114/114 
f 118/118/118 117/117/117 116/116/116 
f 119/119/119 116/116/116 117/117/117 
f 120/120/120 118/118/118 116/116/116 
f 122/122/122 121/121/121 116/116/116 
f 124/124/124 123/123/123 116/116/116 
f 127/127/127 126/126/126 125/125/125 
f 128/128/128 125/125/125 126/126/126 
f 129/129/129 127/127/127 125/125/125 
f 130/130/130 127/127/127 129/129/129 
f 131/131/131 127/127/127 130/130/130 
f 133/133/133 127/127/127 132/132/132 
f 136/136/136 135/135/135 134/134/134 
f 137/137/137 134/134/134 135/135/135 
f 138/138/138 136/136/136 134/134/134 
f 140/140/140 136/136/136 139/139/139 
f 142/142/142 136/136/136 141/141/141 
f 145/145/145 144/144/144 143/143/143 
f 146/146/146 143/143/143 144/144/144 
f 147/147/147 145/145/145 143/143/143 
f 148/148/148 145/145/145 147/147/147 
f 149/149/149 145/145/145 148/148/148 
f 152/152/152 151/151/151 150/150/150 
f 155/155/155 154/154/154 153/153/153 
f 156/156/156 153/153/153 154/154/154 
f 159/159/159 158/158/158 157/157/157 
f 162/162/162 161/161/161 160/160/160 
f 165/165/165 164/164/164 163/163/163 
f 168/168/168 167/167/167 166/166/166 
f 171/171/171 170/170/170 169/169/169 
f 170/170/170 172/172/172 169/169/169 
f 175/175/175 174/174/174 173/173/173 
f 178/178/178 177/177/177 176/176/176 
f 181/181/181 180/180/180 179/179/179 
f 184/184/184 183/183/183 182/182/182 
f 185/185/185 182/182/182 183/183/183 
f 188/188/188 187/187/187 186/186/186 
f 189/189/189 186/186/186 187/187/187 
f 192/192/192 191/191/191 190/190/190 
f 193/193/193 190/190/190 191/191/191 
f 196/196/196 195/195/195 194/194/194 
f 197/197/197 194/194/194 195/195/195 
f 200/200/200 199/199/199 198/198/198 
f 201/201/201 198/198/198 199/199/199 

usemtl bg_mdl_map_forestground01_1
f 204/204/204 203/203/203 202/202/202 
f 205/205/205 202/202/202 203/203/203 
f 203/203/203 204/204/204 206/206/206 
f 207/207/207 206/206/206 204/204/204 
f 206/206/206 207/207/207 208/208/208 
f 209/209/209 208/208/208 207/207/207 
f 208/208/208 209/209/209 210/210/210 
f 211/211/211 210/210/210 209/209/209 
f 210/210/210 211/211/211 212/212/212 
f 213/213/213 212/212/212 211/211/211 
f 205/205/205 203/203/203 214/214/214 
f 215/215/215 214/214/214 203/203/203 
f 203/203/203 206/206/206 215/215/215 
f 216/216/216 215/215/215 206/206/206 
f 206/206/206 208/208/208 216/216/216 
f 217/217/217 216/216/216 208/208/208 
f 208/208/208 210/210/210 217/217/217 
f 218/218/218 217/217/217 210/210/210 
f 210/210/210 212/212/212 218/218/218 
f 219/219/219 218/218/218 212/212/212 
f 212/212/212 213/213/213 220/220/220 
f 221/221/221 220/220/220 213/213/213 
f 220/220/220 221/221/221 222/222/222 
f 223/223/223 222/222/222 221/221/221 
f 220/220/220 222/222/222 224/224/224 
f 220/220/220 224/224/224 212/212/212 
f 225/225/225 224/224/224 222/222/222 
f 226/226/226 212/212/212 224/224/224 
f 228/228/228 227/227/227 225/225/225 
f 230/230/230 227/227/227 229/229/229 
f 231/231/231 229/229/229 227/227/227 
f 231/231/231 232/232/232 229/229/229 
f 233/233/233 229/229/229 232/232/232 
f 229/229/229 233/233/233 234/234/234 
f 235/235/235 234/234/234 233/233/233 
f 234/234/234 235/235/235 236/236/236 
f 237/237/237 236/236/236 235/235/235 
f 236/236/236 237/237/237 238/238/238 
f 239/239/239 238/238/238 237/237/237 
f 234/234/234 236/236/236 240/240/240 
f 241/241/241 240/240/240 236/236/236 
f 236/236/236 238/238/238 241/241/241 
f 242/242/242 241/241/241 238/238/238 
f 234/234/234 243/243/243 229/229/229 
f 244/244/244 229/229/229 243/243/243 
f 247/247/247 246/246/246 245/245/245 
f 248/248/248 245/245/245 246/246/246 
f 247/247/247 249/249/249 246/246/246 
f 250/250/250 246/246/246 249/249/249 
f 245/245/245 251/251/251 247/247/247 
f 252/252/252 247/247/247 251/251/251 
f 247/247/247 252/252/252 249/249/249 
f 251/251/251 253/253/253 252/252/252 
f 254/254/254 252/252/252 253/253/253 
f 254/254/254 255/255/255 252/252/252 
f 256/256/256 252/252/252 255/255/255 
f 256/256/256 249/249/249 252/252/252 
f 253/253/253 257/257/257 254/254/254 
f 258/258/258 254/254/254 257/257/257 
f 257/257/257 259/259/259 258/258/258 
f 260/260/260 258/258/258 259/259/259 
f 260/260/260 259/259/259 261/261/261 
f 262/262/262 261/261/261 259/259/259 
f 261/261/261 262/262/262 263/263/263 
f 264/264/264 263/263/263 262/262/262 
f 261/261/261 263/263/263 265/265/265 
f 261/261/261 265/265/265 260/260/260 
f 266/266/266 260/260/260 265/265/265 
f 260/260/260 267/267/267 258/258/258 
f 268/268/268 258/258/258 267/267/267 
f 258/258/258 268/268/268 254/254/254 
f 255/255/255 254/254/254 268/268/268 
f 270/270/270 265/265/265 269/269/269 
f 272/272/272 271/271/271 270/270/270 
f 271/271/271 274/274/274 273/273/273 
f 276/276/276 273/273/273 275/275/275 
f 276/276/276 275/275/275 277/277/277 
f 278/278/278 277/277/277 275/275/275 
f 277/277/277 279/279/279 276/276/276 
f 280/280/280 276/276/276 279/279/279 
f 280/280/280 279/279/279 281/281/281 
f 282/282/282 281/281/281 279/279/279 
f 282/282/282 283/283/283 281/281/281 
f 284/284/284 281/281/281 283/283/283 
f 281/281/281 284/284/284 285/285/285 
f 286/286/286 285/285/285 284/284/284 
f 281/281/281 287/287/287 280/280/280 
f 288/288/288 280/280/280 287/287/287 
f 273/273/273 276/276/276 288/288/288 
f 283/283/283 289/289/289 284/284/284 
f 290/290/290 284/284/284 289/289/289 
f 284/284/284 290/290/290 286/286/286 
f 291/291/291 286/286/286 290/290/290 
f 289/289/289 292/292/292 290/290/290 
f 293/293/293 290/290/290 292/292/292 
f 290/290/290 293/293/293 291/291/291 
f 294/294/294 291/291/291 293/293/293 
f 292/292/292 295/295/295 293/293/293 
f 296/296/296 293/293/293 295/295/295 
f 295/295/295 297/297/297 296/296/296 
f 298/298/298 296/296/296 297/297/297 
f 296/296/296 298/298/298 299/299/299 
f 300/300/300 299/299/299 298/298/298 
f 299/299/299 301/301/301 296/296/296 
f 293/293/293 296/296/296 301/301/301 
f 304/304/304 303/303/303 302/302/302 
f 305/305/305 302/302/302 303/303/303 
f 304/304/304 306/306/306 303/303/303 
f 307/307/307 303/303/303 306/306/306 
f 302/302/302 308/308/308 304/304/304 
f 309/309/309 304/304/304 308/308/308 
f 304/304/304 309/309/309 306/306/306 
f 310/310/310 306/306/306 309/309/309 
f 308/308/308 311/311/311 309/309/309 
f 312/312/312 309/309/309 311/311/311 
f 309/309/309 312/312/312 310/310/310 
f 311/311/311 313/313/313 312/312/312 
f 314/314/314 312/312/312 313/313/313 
f 314/314/314 315/315/315 312/312/312 
f 316/316/316 312/312/312 315/315/315 
f 316/316/316 310/310/310 312/312/312 
f 313/313/313 317/317/317 314/314/314 
f 318/318/318 314/314/314 317/317/317 
f 314/314/314 318/318/318 315/315/315 
f 319/319/319 315/315/315 318/318/318 
f 317/317/317 320/320/320 318/318/318 
f 321/321/321 318/318/318 320/320/320 
f 320/320/320 322/322/322 321/321/321 
f 323/323/323 321/321/321 322/322/322 
f 323/323/323 324/324/324 321/321/321 
f 325/325/325 321/321/321 324/324/324 
f 325/325/325 326/326/326 321/321/321 
f 318/318/318 321/321/321 326/326/326 
f 322/322/322 327/327/327 323/323/323 
f 328/328/328 323/323/323 327/327/327 
f 323/323/323 328/328/328 329/329/329 
f 330/330/330 329/329/329 328/328/328 
f 327/327/327 331/331/331 328/328/328 
f 332/332/332 328/328/328 331/331/331 
f 328/328/328 332/332/332 330/330/330 
f 331/331/331 333/333/333 332/332/332 
f 334/334/334 332/332/332 333/333/333 
f 332/332/332 334/334/334 335/335/335 
f 335/335/335 330/330/330 332/332/332 
f 336/336/336 335/335/335 334/334/334 
f 333/333/333 337/337/337 334/334/334 
f 338/338/338 334/334/334 337/337/337 
f 334/334/334 338/338/338 336/336/336 
f 337/337/337 339/339/339 338/338/338 
f 340/340/340 338/338/338 339/339/339 
f 340/340/340 341/341/341 338/338/338 
f 342/342/342 338/338/338 341/341/341 
f 342/342/342 336/336/336 338/338/338 
f 339/339/339 343/343/343 340/340/340 
f 344/344/344 340/340/340 343/343/343 
f 340/340/340 344/344/344 341/341/341 
f 345/345/345 341/341/341 344/344/344 
f 343/343/343 346/346/346 344/344/344 
f 347/347/347 344/344/344 346/346/346 
f 344/344/344 347/347/347 345/345/345 
f 346/346/346 348/348/348 347/347/347 
f 349/349/349 347/347/347 348/348/348 
f 349/349/349 350/350/350 347/347/347 
f 351/351/351 347/347/347 350/350/350 
f 351/351/351 345/345/345 347/347/347 
f 348/348/348 352/352/352 349/349/349 
f 353/353/353 349/349/349 352/352/352 
f 349/349/349 353/353/353 350/350/350 
f 354/354/354 350/350/350 353/353/353 
f 352/352/352 355/355/355 353/353/353 
f 356/356/356 353/353/353 355/355/355 
f 355/355/355 357/357/357 356/356/356 
f 358/358/358 356/356/356 357/357/357 
f 358/358/358 359/359/359 356/356/356 
f 360/360/360 356/356/356 359/359/359 
f 360/360/360 361/361/361 356/356/356 
f 353/353/353 356/356/356 361/361/361 
f 357/357/357 362/362/362 358/358/358 
f 363/363/363 358/358/358 362/362/362 
f 358/358/358 363/363/363 359/359/359 
f 364/364/364 359/359/359 363/363/363 
f 362/362/362 365/365/365 363/363/363 
f 366/366/366 363/363/363 365/365/365 
f 363/363/363 366/366/366 364/364/364 
f 367/367/367 364/364/364 366/366/366 
f 280/280/280 368/368/368 276/276/276 

