v 0.003696504747495055 -0.02276564948260784 0.13394460082054138
v -0.0017942566191777587 -0.021471716463565826 0.1902865320444107
v 0.06621243059635162 0.00013266353926155716 0.14340832829475403
v 0.07092190533876419 -0.016251767054200172 0.10747289657592773
v -0.05371842160820961 -0.011624776758253574 0.18163920938968658
v -0.04649285599589348 -0.021955695003271103 0.1426018923521042
v -0.07158288359642029 0.0001322183379670605 0.1812521070241928
v -0.10240214318037033 -0.011625138111412525 0.2550039291381836
v 1.2207988220325205e-07 -0.01162500400096178 0.25262510776519775
v -0.09924770891666412 -0.016216082498431206 0.1452276110649109
v -0.08765881508588791 0.00013213245256338269 0.19499991834163666
v -0.1024036556482315 0.0001321623130934313 0.1777484118938446
v -0.2507457435131073 0.00013190277968533337 0.15809722244739532
v -0.10334394872188568 0.00013238655810710043 0.11554191261529922
v -0.04651046544313431 -0.020724963396787643 0.10398246347904205
v -0.019596146419644356 -0.019632186740636826 0.08498972654342651
v 0.013324867933988571 -0.016682427376508713 0.09058383107185364
v 0.07183711230754852 0.0001329533406533301 0.06721464544534683
v 0.028515996411442757 0.00013285293243825436 0.06823975592851639
v 0.11300346255302429 -0.007284216117113829 0.09586808830499649
v 0.07359228283166885 0.00013299379497766495 0.05717235803604126
v 0.12975779175758362 0.00013290044444147497 0.11727375537157059
v 0.20371825993061066 0.00013303950254339725 0.1244155690073967
v 0.13023115694522858 0.00013302979641593993 0.08201321214437485
v -0.07065320760011673 -0.017583228647708893 0.06880591064691544
v -0.053003594279289246 0.0001325631601503119 0.0978805422782898
v -0.013536871410906315 -0.011626500636339188 0.6805068850517273
v 0.04005103185772896 0.0001305270561715588 0.7145235538482666
v 0.0662861168384552 0.00013084545207675546 0.6431127786636353
v -0.05876241624355316 -0.00821063481271267 0.767505943775177
v -0.016273291781544685 0.00013012402632739395 0.7907431125640869
v -0.12227944284677505 0.00012955298007000238 0.8826665878295898
v -0.11360859870910645 0.00012978102313354611 0.8253146409988403
v -0.14643113315105438 -0.009082554839551449 0.7502720355987549
v -0.19951462745666504 0.00012927851639688015 0.9107288122177124
v -0.1259138435125351 -0.01090757455676794 0.665303111076355
v -0.13329708576202393 0.00013046478852629662 0.6253233551979065
v -0.0997529849410057 -0.011626480147242546 0.6414973139762878
v 0.0020148397888988256 -0.011626122519373894 0.5685910582542419
v -0.12066685408353806 0.00013042226782999933 0.6447560787200928
v -0.10240460187196732 0.00013051478890702128 0.6305286884307861
v -0.09272477775812149 0.00013065975508652627 0.5966253280639648
v -0.08921511471271515 -0.011626282706856728 0.5931352972984314
v -0.10240352153778076 -0.01162604708224535 0.5154207348823547
v -0.10240437090396881 0.00013086832768749446 0.5333694219589233
v 1.2207988220325205e-07 -0.01162500400096178 0.25262510776519775
v -0.10240214318037033 -0.011625138111412525 0.2550039291381836
v -0.10240352153778076 -0.01162604708224535 0.5154207348823547
v 0.0020148397888988256 -0.011626122519373894 0.5685910582542419
v 0.0662861168384552 0.00013084545207675546 0.6431127786636353
v 0.06621243059635162 0.00013266353926155716 0.14340832829475403
v -0.11840677261352539 -0.009071936830878258 0.5070675015449524
v -0.1329534351825714 0.0001308301871176809 0.5251148343086243
v -0.10240352153778076 -0.01162604708224535 0.5154207348823547
v -0.13289640843868256 0.00013130807201378047 0.39381375908851624
v -0.10240446031093597 0.00013104212121106684 0.48560404777526855
v -0.10240437090396881 0.00013086832768749446 0.5333694219589233
v -0.05371842160820961 -0.011624776758253574 0.18163920938968658
v -0.05398720130324364 0.00013225674047134817 0.18149235844612122
v -0.10240214318037033 -0.011625138111412525 0.2550039291381836
v -0.10240442305803299 0.00013188774755690247 0.2532063126564026
v -0.05371842160820961 -0.011624776758253574 0.18163920938968658
v -0.07158288359642029 0.0001322183379670605 0.1812521070241928
v -0.05398720130324364 0.00013225674047134817 0.18149235844612122
v -0.19951462745666504 0.00012927851639688015 0.9107288122177124
v -0.14643113315105438 -0.009082554839551449 0.7502720355987549
v -0.14684782922267914 0.00012998068996239454 0.7500532865524292
v -0.13329708576202393 0.00013046478852629662 0.6253233551979065
v -0.053003594279289246 0.0001325631601503119 0.0978805422782898
v -0.07065320760011673 -0.017583228647708893 0.06880591064691544
v -0.029606925323605537 0.00013264095468912274 0.09084960073232651
v -0.019596146419644356 -0.019632186740636826 0.08498972654342651
v -0.1259138435125351 -0.01090757455676794 0.665303111076355
v -0.12066685408353806 0.00013042226782999933 0.6447560787200928
v -0.13329708576202393 0.00013046478852629662 0.6253233551979065
v -0.10240442305803299 0.00013188774755690247 0.2532063126564026
v -0.10240352153778076 -0.01162604708224535 0.5154207348823547
v -0.10240214318037033 -0.011625138111412525 0.2550039291381836
v -0.10240446031093597 0.00013104212121106684 0.48560404777526855
v 0.013082372955977917 0.00013295072130858898 0.03190261125564575
v 0.006838728208094835 -0.012326075695455074 -0.12172183394432068
v 0.005773893091827631 -0.010848984122276306 0.031965550035238266
v 0.014250540174543858 0.00013351257075555623 -0.1217925176024437
v -0.005798715632408857 -0.012326098047196865 -0.12160121649503708
v -0.007632172666490078 -0.010849003680050373 0.0320810042321682
v -0.019596146419644356 -0.019632186740636826 0.08498972654342651
v -0.008827591314911842 -0.018485646694898605 -0.13018426299095154
v 0.009901260025799274 -0.01848561316728592 -0.13036301732063293
v 0.02965405210852623 0.0001335603155894205 -0.12546950578689575
v 0.028515996411442757 0.00013285293243825436 0.06823975592851639
v 0.013324867933988571 -0.016682427376508713 0.09058383107185364
v 0.04046545550227165 -0.006691384129226208 -0.13044165074825287
v -0.007632172666490078 -0.010849003680050373 0.0320810042321682
v -0.013419942930340767 0.00013344985200092196 -0.12152843922376633
v -0.0142336031422019 0.00013288889022078365 0.0321379192173481
v -0.005798715632408857 -0.012326098047196865 -0.12160121649503708
v -0.021628625690937042 0.00013276361278258264 0.0620337575674057
v -0.008827591314911842 -0.018485646694898605 -0.13018426299095154
v -0.019596146419644356 -0.019632186740636826 0.08498972654342651
v -0.028834862634539604 0.00013342979946173728 -0.12546950578689575
v -0.03964623063802719 -0.006691562477499247 -0.13044165074825287
v 0.009901260025799274 -0.01848561316728592 -0.13036301732063293
v 0.04046545550227165 -0.006691384129226208 -0.13044165074825287
v 0.02805628441274166 0.00013362188474275172 -0.14336729049682617
v 0.014058240689337254 0.00013361907622311264 -0.15117999911308289
v 0.0004850852128583938 0.00013373860565479845 -0.19235646724700928
v -0.008827591314911842 -0.018485646694898605 -0.13018426299095154
v 0.009901260025799274 -0.01848561316728592 -0.13036301732063293
v 0.0004850852128583938 0.00013373860565479845 -0.19235646724700928
v -0.012560970149934292 0.00013356601994019002 -0.15292847156524658
v -0.008827591314911842 -0.018485646694898605 -0.13018426299095154
v 0.0004850852128583938 0.00013373860565479845 -0.19235646724700928
v -0.027237096801400185 0.0001334984990535304 -0.14336736500263214
v -0.03964623063802719 -0.006691562477499247 -0.13044165074825287
v -0.019596146419644356 -0.019632186740636826 0.08498972654342651
v -0.021628625690937042 0.00013276361278258264 0.0620337575674057
v -0.04167389124631882 0.0001327557401964441 0.05190270394086838
v -0.019596146419644356 -0.019632186740636826 0.08498972654342651
v -0.04167389124631882 0.0001327557401964441 0.05190270394086838
v -0.029606925323605537 0.00013264095468912274 0.09084960073232651
v -0.07065320760011673 -0.017583228647708893 0.06880591064691544
v -0.053003594279289246 0.0001325631601503119 0.0978805422782898
v -0.04651046544313431 -0.020724963396787643 0.10398246347904205
v 0.04046545550227165 -0.006691384129226208 -0.13044165074825287
v 0.04423145577311516 0.00013353484973777086 -0.10953088849782944
v 0.05065350979566574 0.0001336253626504913 -0.13046783208847046
v 0.031086454167962074 0.00013371591921895742 -0.167354553937912
v 0.04046545550227165 -0.006691384129226208 -0.13044165074825287
v 0.02965405210852623 0.0001335603155894205 -0.12546950578689575
v 0.04423145577311516 0.00013353484973777086 -0.10953088849782944
v 0.02805628441274166 0.00013362188474275172 -0.14336729049682617
v 0.04046545550227165 -0.006691384129226208 -0.13044165074825287
v 0.031086454167962074 0.00013371591921895742 -0.167354553937912
v -0.03964623063802719 -0.006691562477499247 -0.13044165074825287
v -0.04983432590961456 0.00013340111763682216 -0.13046783208847046
v -0.043412256985902786 0.0001333392719971016 -0.10953092575073242
v -0.030267274007201195 0.00013357900024857372 -0.16735458374023438
v -0.03964623063802719 -0.006691562477499247 -0.13044165074825287
v -0.043412256985902786 0.0001333392719971016 -0.10953092575073242
v -0.028834862634539604 0.00013342979946173728 -0.12546950578689575
v -0.027237096801400185 0.0001334984990535304 -0.14336736500263214
v -0.030267274007201195 0.00013357900024857372 -0.16735458374023438
v -0.03964623063802719 -0.006691562477499247 -0.13044165074825287
v 0.0036963981110602617 0.02303076907992363 0.1339447796344757
v 0.06621243059635162 0.00013266353926155716 0.14340832829475403
v -0.001794355339370668 0.021736400201916695 0.19028669595718384
v 0.07092183083295822 0.016517378389835358 0.10747303068637848
v -0.053718484938144684 0.011889291927218437 0.18163928389549255
v -0.046492960304021835 0.022220522165298462 0.1426020711660385
v -0.07158288359642029 0.0001322183379670605 0.1812521070241928
v -0.10240219533443451 0.011888901703059673 0.25500398874282837
v 6.753487014066195e-08 0.011889241635799408 0.25262513756752014
v -0.09924779087305069 0.016480660066008568 0.14522773027420044
v -0.08765881508588791 0.00013213245256338269 0.19499991834163666
v -0.1024036556482315 0.0001321623130934313 0.1777484118938446
v -0.2507457435131073 0.00013190277968533337 0.15809722244739532
v -0.10334394872188568 0.00013238655810710043 0.11554191261529922
v -0.04651056230068207 0.020990069955587387 0.10398261994123459
v -0.01959623582661152 0.01989755779504776 0.08498983830213547
v 0.013324800878763199 0.016947906464338303 0.0905839204788208
v 0.07183711230754852 0.0001329533406533301 0.06721464544534683
v 0.028515996411442757 0.00013285293243825436 0.06823975592851639
v 0.1130034327507019 0.00755009800195694 0.09586814790964127
v 0.07359228283166885 0.00013299379497766495 0.05717235803604126
v 0.12975779175758362 0.00013290044444147497 0.11727375537157059
v 0.20371825993061066 0.00013303950254339725 0.1244155690073967
v 0.13023115694522858 0.00013302979641593993 0.08201321214437485
v -0.07065329700708389 0.017848489806056023 0.06880606710910797
v -0.053003594279289246 0.0001325631601503119 0.0978805422782898
v -0.013536925427615643 0.0118875652551651 0.6805070638656616
v 0.0662861168384552 0.00013084545207675546 0.6431127786636353
v 0.04005103185772896 0.0001305270561715588 0.7145235538482666
v -0.058762453496456146 0.008470862172544003 0.7675060033798218
v -0.016273291781544685 0.00013012402632739395 0.7907431125640869
v -0.12227944284677505 0.00012955298007000238 0.8826665878295898
v -0.11360859870910645 0.00012978102313354611 0.8253146409988403
v -0.14643117785453796 0.009342515841126442 0.7502720952033997
v -0.19951462745666504 0.00012927851639688015 0.9107288122177124
v -0.12591388821601868 0.011168246157467365 0.6653031706809998
v -0.13329708576202393 0.00013046478852629662 0.6253233551979065
v -0.09975304454565048 0.011887443251907825 0.6414974331855774
v 0.0020147853065282106 0.011888070032000542 0.5685911178588867
v -0.12066685408353806 0.00013042226782999933 0.6447560787200928
v -0.10240460187196732 0.00013051478890702128 0.6305286884307861
v -0.09272477775812149 0.00013065975508652627 0.5966253280639648
v -0.08921517431735992 0.011887645348906517 0.5931353569030762
v -0.10240358114242554 0.011887914501130581 0.5154208540916443
v -0.10240437090396881 0.00013086832768749446 0.5333694219589233
v 6.753487014066195e-08 0.011889241635799408 0.25262513756752014
v -0.10240358114242554 0.011887914501130581 0.5154208540916443
v -0.10240219533443451 0.011888901703059673 0.25500398874282837
v 0.0020147853065282106 0.011888070032000542 0.5685911178588867
v 0.0662861168384552 0.00013084545207675546 0.6431127786636353
v 0.06621243059635162 0.00013266353926155716 0.14340832829475403
v -0.11840680986642838 0.009333794005215168 0.5070675611495972
v -0.10240358114242554 0.011887914501130581 0.5154208540916443
v -0.1329534351825714 0.0001308301871176809 0.5251148343086243
v -0.13289640843868256 0.00013130807201378047 0.39381375908851624
v -0.10240446031093597 0.00013104212121106684 0.48560404777526855
v -0.10240437090396881 0.00013086832768749446 0.5333694219589233
v -0.053718484938144684 0.011889291927218437 0.18163928389549255
v -0.10240219533443451 0.011888901703059673 0.25500398874282837
v -0.05398720130324364 0.00013225674047134817 0.18149235844612122
v -0.10240442305803299 0.00013188774755690247 0.2532063126564026
v -0.053718484938144684 0.011889291927218437 0.18163928389549255
v -0.05398720130324364 0.00013225674047134817 0.18149235844612122
v -0.07158288359642029 0.0001322183379670605 0.1812521070241928
v -0.19951462745666504 0.00012927851639688015 0.9107288122177124
v -0.14684782922267914 0.00012998068996239454 0.7500532865524292
v -0.14643117785453796 0.009342515841126442 0.7502720952033997
v -0.13329708576202393 0.00013046478852629662 0.6253233551979065
v -0.053003594279289246 0.0001325631601503119 0.0978805422782898
v -0.029606925323605537 0.00013264095468912274 0.09084960073232651
v -0.07065329700708389 0.017848489806056023 0.06880606710910797
v -0.01959623582661152 0.01989755779504776 0.08498983830213547
v -0.12591388821601868 0.011168246157467365 0.6653031706809998
v -0.13329708576202393 0.00013046478852629662 0.6253233551979065
v -0.12066685408353806 0.00013042226782999933 0.6447560787200928
v -0.10240442305803299 0.00013188774755690247 0.2532063126564026
v -0.10240358114242554 0.011887914501130581 0.5154208540916443
v -0.10240446031093597 0.00013104212121106684 0.48560404777526855
v -0.10240219533443451 0.011888901703059673 0.25500398874282837
v 0.013082372955977917 0.00013295072130858898 0.03190261125564575
v 0.006838664878159761 0.012593070045113564 -0.12172174453735352
v 0.014250540174543858 0.00013351257075555623 -0.1217925176024437
v 0.005773845128715038 0.01111485343426466 0.031965598464012146
v -0.005798778496682644 0.012593032792210579 -0.12160111963748932
v -0.007632221560925245 0.011114812456071377 0.032081108540296555
v -0.01959623582661152 0.01989755779504776 0.08498983830213547
v -0.00882768165320158 0.018752628937363625 -0.1301840990781784
v 0.009901165030896664 0.018752682954072952 -0.13036292791366577
v 0.02965405210852623 0.0001335603155894205 -0.12546950578689575
v 0.028515996411442757 0.00013285293243825436 0.06823975592851639
v 0.013324800878763199 0.016947906464338303 0.0905839204788208
v 0.040465425699949265 0.006958589423447847 -0.1304415613412857
v -0.007632221560925245 0.011114812456071377 0.032081108540296555
v -0.013419942930340767 0.00013344985200092196 -0.12152843922376633
v -0.005798778496682644 0.012593032792210579 -0.12160111963748932
v -0.0142336031422019 0.00013288889022078365 0.0321379192173481
v -0.021628625690937042 0.00013276361278258264 0.0620337575674057
v -0.00882768165320158 0.018752628937363625 -0.1301840990781784
v -0.01959623582661152 0.01989755779504776 0.08498983830213547
v -0.028834862634539604 0.00013342979946173728 -0.12546950578689575
v -0.03964626044034958 0.006958410143852234 -0.13044162094593048
v 0.009901165030896664 0.018752682954072952 -0.13036292791366577
v 0.02805628441274166 0.00013362188474275172 -0.14336729049682617
v 0.040465425699949265 0.006958589423447847 -0.1304415613412857
v 0.014058240689337254 0.00013361907622311264 -0.15117999911308289
v 0.0004850852128583938 0.00013373860565479845 -0.19235646724700928
v -0.00882768165320158 0.018752628937363625 -0.1301840990781784
v 0.0004850852128583938 0.00013373860565479845 -0.19235646724700928
v 0.009901165030896664 0.018752682954072952 -0.13036292791366577
v -0.012560970149934292 0.00013356601994019002 -0.15292847156524658
v 0.0004850852128583938 0.00013373860565479845 -0.19235646724700928
v -0.00882768165320158 0.018752628937363625 -0.1301840990781784
v -0.027237096801400185 0.0001334984990535304 -0.14336736500263214
v -0.03964626044034958 0.006958410143852234 -0.13044162094593048
v -0.01959623582661152 0.01989755779504776 0.08498983830213547
v -0.04167389124631882 0.0001327557401964441 0.05190270394086838
v -0.021628625690937042 0.00013276361278258264 0.0620337575674057
v -0.01959623582661152 0.01989755779504776 0.08498983830213547
v -0.029606925323605537 0.00013264095468912274 0.09084960073232651
v -0.04167389124631882 0.0001327557401964441 0.05190270394086838
v -0.07065329700708389 0.017848489806056023 0.06880606710910797
v -0.04651056230068207 0.020990069955587387 0.10398261994123459
v -0.053003594279289246 0.0001325631601503119 0.0978805422782898
v 0.040465425699949265 0.006958589423447847 -0.1304415613412857
v 0.05065350979566574 0.0001336253626504913 -0.13046783208847046
v 0.04423145577311516 0.00013353484973777086 -0.10953088849782944
v 0.031086454167962074 0.00013371591921895742 -0.167354553937912
v 0.040465425699949265 0.006958589423447847 -0.1304415613412857
v 0.04423145577311516 0.00013353484973777086 -0.10953088849782944
v 0.02965405210852623 0.0001335603155894205 -0.12546950578689575
v 0.02805628441274166 0.00013362188474275172 -0.14336729049682617
v 0.031086454167962074 0.00013371591921895742 -0.167354553937912
v 0.040465425699949265 0.006958589423447847 -0.1304415613412857
v -0.03964626044034958 0.006958410143852234 -0.13044162094593048
v -0.043412256985902786 0.0001333392719971016 -0.10953092575073242
v -0.04983432590961456 0.00013340111763682216 -0.13046783208847046
v -0.030267274007201195 0.00013357900024857372 -0.16735458374023438
v -0.03964626044034958 0.006958410143852234 -0.13044162094593048
v -0.028834862634539604 0.00013342979946173728 -0.12546950578689575
v -0.043412256985902786 0.0001333392719971016 -0.10953092575073242
v -0.027237096801400185 0.0001334984990535304 -0.14336736500263214
v -0.03964626044034958 0.006958410143852234 -0.13044162094593048
v -0.030267274007201195 0.00013357900024857372 -0.16735458374023438
v 0.07897061854600906 0.001891782507300377 0.009161765687167645
v 0.07103151828050613 0.02683170512318611 -0.045606620609760284
v 0.08585085719823837 -0.007635009009391069 0.0009338701493106782
v 0.0724283903837204 -0.004735059104859829 -0.03815415874123573
v 0.06340726464986801 0.023909587413072586 -0.03043028526008129
v 0.02821124531328678 0.037246208637952805 -0.06828141212463379
v 0.0356379896402359 0.02509651519358158 -0.08093160390853882
v 0.029790150001645088 0.03021712228655815 -0.051887188106775284
v -0.005251000635325909 0.022330807521939278 -0.07451550662517548
v 0.06601142138242722 0.014798212796449661 -0.05827236548066139
v -0.010813617147505283 0.028035584837198257 -0.08896071463823318
v -0.023486116901040077 -0.0005262812483124435 -0.0854896605014801
v -0.004447345156222582 0.022314518690109253 -0.10153389722108841
v -0.029760824516415596 -0.0013860384933650494 -0.10048510134220123
v -0.023393860086798668 -0.0005369608988985419 -0.11548052728176117
v -0.010019856505095959 -0.036475542932748795 -0.12135380506515503
v -0.006008643191307783 -0.0298814307898283 -0.10798030346632004
v -0.008316096849739552 -0.025683285668492317 -0.13472726941108704
v 0.027777623385190964 -0.011809417977929115 -0.15876026451587677
v 0.024430546909570694 -0.00870275404304266 -0.14931723475456238
v 0.021446019411087036 0.027820447459816933 -0.1521170735359192
v 0.017227433621883392 -0.008707528933882713 -0.16383732855319977
v 0.07897061854600906 0.001891782507300377 0.009161765687167645
v 0.08585085719823837 -0.007635009009391069 0.0009338701493106782
v 0.07360141724348068 -0.03278932720422745 0.04066702350974083
v 0.0728742703795433 -0.040764033794403076 0.01828830875456333
v 0.051539529114961624 -0.03934689238667488 0.07064395397901535
v 0.0327170267701149 -0.054037775844335556 0.060391925275325775
v 0.014721791259944439 -0.013741559349000454 0.11093399673700333
v -0.019922059029340744 -0.014825733378529549 0.0843299925327301
v 0.05780991539359093 -0.03712751716375351 -0.0029122328851372004
v 0.017276154831051826 -0.047533147037029266 0.046780284494161606
v 0.08830146491527557 -0.011135227046906948 -0.020843174308538437
v 0.0724283903837204 -0.004735059104859829 -0.03815415874123573
v 0.08599690347909927 0.017872504889965057 -0.07307297736406326
v 0.07897061854600906 0.001891782507300377 0.009161765687167645
v 0.0724283903837204 -0.004735059104859829 -0.03815415874123573
v 0.06340726464986801 0.023909587413072586 -0.03043028526008129
v 0.05780991539359093 -0.03712751716375351 -0.0029122328851372004
v 0.07360141724348068 -0.03278932720422745 0.04066702350974083
v 0.017276154831051826 -0.047533147037029266 0.046780284494161606
v 0.051539529114961624 -0.03934689238667488 0.07064395397901535
v -0.019922059029340744 -0.014825733378529549 0.0843299925327301
v 0.014721791259944439 -0.013741559349000454 0.11093399673700333
v 0.06601142138242722 0.014798212796449661 -0.05827236548066139
v 0.029790150001645088 0.03021712228655815 -0.051887188106775284
v 0.0356379896402359 0.02509651519358158 -0.08093160390853882
v -0.005251000635325909 0.022330807521939278 -0.07451550662517548
v 0.029790150001645088 0.03021712228655815 -0.051887188106775284
v 0.06601142138242722 0.014798212796449661 -0.05827236548066139
v -0.004447345156222582 0.022314518690109253 -0.10153389722108841
v -0.023486116901040077 -0.0005262812483124435 -0.0854896605014801
v -0.023393860086798668 -0.0005369608988985419 -0.11548052728176117
v -0.006008643191307783 -0.0298814307898283 -0.10798030346632004
v -0.008316096849739552 -0.025683285668492317 -0.13472726941108704
v 0.017227433621883392 -0.008707528933882713 -0.16383732855319977
v 0.024430546909570694 -0.00870275404304266 -0.14931723475456238
v 0.021446019411087036 0.027820447459816933 -0.1521170735359192
v 0.0724283903837204 -0.004735059104859829 -0.03815415874123573
v 0.08599690347909927 0.017872504889965057 -0.07307297736406326
v 0.08585085719823837 -0.007635009009391069 0.0009338701493106782
vn 0.10070359706878662 -0.9943298101425171 0.03415990248322487
vn 0.1155543327331543 -0.9909607768058777 0.068145252764225
vn 0.6703033447265625 -1.176610567199532e-06 0.7420871257781982
vn 0.1639547199010849 -0.9862174987792969 0.02222791127860546
vn -0.2853280305862427 -0.9578012228012085 0.03471018373966217
vn -0.07323949038982391 -0.9865992069244385 0.14580154418945312
vn -0.19827137887477875 -4.388673914945684e-06 0.980147123336792
vn -0.026777105405926704 -0.999521017074585 0.015511159785091877
vn 0.11128359287977219 -0.9924154281616211 0.052224501967430115
vn -0.16103479266166687 -0.9866073131561279 0.02595675364136696
vn 0.0034811035729944706 -3.6309320421423763e-06 0.9999939203262329
vn -0.5743996500968933 -4.190031177131459e-06 0.8185750246047974
vn -0.9969602227210999 -1.314438759436598e-05 0.07791091501712799
vn -0.48202648758888245 2.111278718075482e-06 -0.8761565685272217
vn -0.11855828016996384 -0.962955117225647 -0.2422010749578476
vn 0.04671795293688774 -0.9944530129432678 -0.09423797577619553
vn 0.15251177549362183 -0.9668269157409668 -0.20490479469299316
vn -0.094211645424366 3.4875361052399967e-06 -0.995552122592926
vn 0.620745062828064 3.7566419450740796e-06 -0.7840124368667603
vn 0.15201571583747864 -0.9821736812591553 -0.11057126522064209
vn -0.5480833649635315 2.214766709585092e-06 -0.8364236950874329
vn 0.17150044441223145 -3.191662017343333e-06 0.9851840734481812
vn 0.9528853297233582 -2.6896382223640103e-06 0.30333077907562256
vn 0.4633375108242035 4.166465259913821e-06 -0.8861818313598633
vn -0.015058683231472969 -0.9967852830886841 -0.07869098335504532
vn -0.33105581998825073 2.7092473828815855e-06 -0.9436111450195312
vn 0.0832405686378479 -0.9953621029853821 0.048221103847026825
vn 0.8726685643196106 -1.1533704480370943e-07 0.4883129298686981
vn 0.9864069819450378 2.138846184607246e-06 0.16432061791419983
vn 0.054331809282302856 -0.9945476055145264 0.08901210129261017
vn 0.7444934844970703 -1.0529842029427527e-06 0.6676297187805176
vn -0.4824889600276947 -2.6646271180652548e-06 0.875901997089386
vn -0.7765378952026367 -3.9654637475905474e-06 0.6300705671310425
vn -0.011028171516954899 -0.9981245398521423 0.06021326407790184
vn 0.705073893070221 -7.912098567430803e-07 0.7091338634490967
vn -0.33293119072914124 -0.9361848831176758 -0.11275949329137802
vn -0.9785149693489075 -1.2761724974552635e-06 -0.20617616176605225
vn -0.2963978946208954 -0.9315091967582703 -0.21080546081066132
vn 0.09162162989377975 -0.9957907795906067 0.0025059236213564873
vn -0.6658288240432739 1.0107559091920848e-06 -0.7461045384407043
vn -0.8871164917945862 -5.559626856666e-07 -0.46154558658599854
vn -0.9974587559700012 -2.1885075511818286e-06 -0.07124607264995575
vn -0.5488868355751038 -0.8358963131904602 0.0007504494278691709
vn -0.18077845871448517 -0.9830453395843506 0.030675509944558144
vn -0.9861132502555847 -2.963324959637248e-06 0.1660744845867157
vn 0.11128359287977219 -0.9924154281616211 0.052224501967430115
vn -0.026777105405926704 -0.999521017074585 0.015511159785091877
vn -0.18077845871448517 -0.9830453395843506 0.030675509944558144
vn 0.09162162989377975 -0.9957907795906067 0.0025059236213564873
vn 0.9864069819450378 2.138846184607246e-06 0.16432061791419983
vn 0.6703033447265625 -1.176610567199532e-06 0.7420871257781982
vn -0.23089060187339783 -0.9724580645561218 -0.031856391578912735
vn -0.3479652404785156 -0.9001618027687073 0.26197129487991333
vn -0.12473922222852707 -0.9803065657615662 0.15309859812259674
vn -0.011948062106966972 -0.9967656135559082 -0.07947070151567459
vn 0.3001719117164612 -0.9371264576911926 -0.1780192255973816
vn -0.14645877480506897 -0.8274982571601868 0.542029857635498
vn -0.8329530954360962 -0.025946078822016716 -0.5527350902557373
vn -0.8328607082366943 -4.666995891966508e-07 -0.5534826517105103
vn -0.8265505433082581 -0.0799490436911583 -0.5571556091308594
vn -0.828793466091156 -5.686826511919207e-07 -0.5595547556877136
vn -0.01365163829177618 0.012175938114523888 0.9998326301574707
vn -0.013652624562382698 -3.284236754552694e-06 0.9999067783355713
vn -0.013652623631060123 -3.27660654875217e-06 0.9999067783355713
vn -0.9502534866333008 -6.819676059421909e-07 -0.31147751212120056
vn -0.9759907126426697 -0.049183718860149384 -0.21218626201152802
vn -0.9777019023895264 -1.1743560435206746e-06 -0.2099977433681488
vn -0.9941503405570984 -1.646119699216797e-06 -0.10800518095493317
vn -0.1363719403743744 0.8806113004684448 -0.45379120111465454
vn 0.06953495740890503 0.7103724479675293 -0.7003825902938843
vn 0.14758603274822235 0.6184493899345398 -0.7718411684036255
vn 0.291050523519516 0.40446487069129944 -0.8670049905776978
vn 0.4843636155128479 -0.8162627816200256 -0.31481242179870605
vn 0.4843636155128479 -0.8162627816200256 -0.31481239199638367
vn 0.4843636155128479 -0.8162627816200256 -0.31481242179870605
vn -1.0 -2.433353301967145e-06 -5.147555384610314e-06
vn -1.0 -9.360121475765482e-05 -7.783821160955995e-07
vn -1.0 -0.00019467753008939326 -5.310734650265658e-06
vn -1.0 -2.4334663066838402e-06 -1.6415407344538835e-07
vn 0.978169322013855 2.639360445755301e-06 -0.20780952274799347
vn 0.46728846430778503 -0.8022298812866211 0.3715759515762329
vn 0.4426709711551666 -0.8893945217132568 -0.11410419642925262
vn 0.7612175345420837 0.0 0.648496687412262
vn 0.0031682804692536592 -0.9433479905128479 0.3317897915840149
vn -0.0007219427498057485 -0.9964660406112671 -0.08399362862110138
vn 0.04671795293688774 -0.9944530129432678 -0.09423797577619553
vn 0.0055539351888000965 -0.8133569955825806 0.5817384123802185
vn 0.25226688385009766 -0.6357487440109253 0.7295100688934326
vn 0.19259831309318542 -2.9278062356752343e-06 0.9812776446342468
vn 0.620745062828064 3.7566419450740796e-06 -0.7840124368667603
vn 0.15251177549362183 -0.9668269157409668 -0.20490479469299316
vn 0.15855424106121063 -0.40488308668136597 0.9005166292190552
vn -0.8607017993927002 -0.49559980630874634 -0.11650441586971283
vn -0.6388353109359741 -0.5564725995063782 0.531251072883606
vn -0.852043867111206 -0.5116059184074402 -0.1108180359005928
vn -0.8068950772285461 -0.4954383969306946 0.3216538429260254
vn -0.8731883764266968 -0.41476014256477356 -0.2559610605239868
vn -0.4233749210834503 -0.45425647497177124 0.7838397026062012
vn -0.8784900307655334 -0.3977455794811249 -0.26467666029930115
vn -0.18084357678890228 -0.4195737838745117 0.8895242810249329
vn -0.16117773950099945 -0.40149158239364624 0.9015687704086304
vn 0.48715606331825256 -0.6872681975364685 -0.5388332605361938
vn 0.2746554911136627 -0.7160350680351257 -0.6417617797851562
vn 0.3005361258983612 -0.7254818081855774 -0.6191561222076416
vn 0.677189290523529 -0.610465943813324 -0.410786896944046
vn 0.8279191255569458 -0.4899686276912689 -0.27291157841682434
vn -0.002740069292485714 -0.9578466415405273 -0.28726714849472046
vn -0.0027400690596550703 -0.9578466415405273 -0.28726717829704285
vn -0.0027400695253163576 -0.9578466415405273 -0.28726720809936523
vn -0.6904423236846924 -0.6111688017845154 -0.38699087500572205
vn -0.4797579348087311 -0.6994486451148987 -0.5297206044197083
vn -0.8233444690704346 -0.4978797137737274 -0.27243295311927795
vn -0.31362807750701904 -0.7354037165641785 -0.6006820797920227
vn -0.2701351046562195 -0.7198333740234375 -0.6394270658493042
vn 0.32052338123321533 -0.7036141157150269 -0.6341859102249146
vn 0.3205234110355377 -0.7036141157150269 -0.6341860294342041
vn 0.3205234110355377 -0.7036141157150269 -0.6341859698295593
vn -0.82930588722229 -0.4962174892425537 0.2569434642791748
vn -0.82930588722229 -0.49621742963790894 0.2569434940814972
vn -0.82930588722229 -0.49621742963790894 0.2569434940814972
vn -0.8247529864311218 -0.09359810501337051 0.5576934814453125
vn -0.8247529864311218 -0.09359809756278992 0.5576934218406677
vn -0.8247529864311218 -0.09359809756278992 0.5576934218406677
vn 0.554060697555542 -0.8274271488189697 -0.09154775738716125
vn 0.548913836479187 -0.81874680519104 0.1683664470911026
vn 0.5559194087982178 -0.8300226330757141 -0.0448995903134346
vn 0.5333209037780762 -0.7972021102905273 -0.2829091250896454
vn -0.38067132234573364 -0.856664776802063 0.3481593728065491
vn -0.38067129254341125 -0.856664776802063 0.3481593132019043
vn -0.38067129254341125 -0.856664776802063 0.3481593132019043
vn -0.4364751875400543 -0.8980250358581543 -0.05514084920287132
vn -0.4364751875400543 -0.8980250358581543 -0.05514084920287132
vn -0.4364752471446991 -0.8980250358581543 -0.05514084920287132
vn -0.5540565848350525 -0.8274299502372742 -0.0915474072098732
vn -0.5559152364730835 -0.8300254940986633 -0.04489907994866371
vn -0.5489094853401184 -0.8187496066093445 0.16836704313755035
vn -0.5333172082901001 -0.7972047924995422 -0.2829087972640991
vn 0.3806751072406769 -0.856662929058075 0.34815967082977295
vn 0.3806751072406769 -0.8566628694534302 0.34815967082977295
vn 0.3806751072406769 -0.856662929058075 0.34815967082977295
vn 0.43647897243499756 -0.8980231285095215 -0.05514104291796684
vn 0.43647894263267517 -0.8980231881141663 -0.05514104664325714
vn 0.43647897243499756 -0.8980231285095215 -0.05514105036854744
vn 0.10069912672042847 0.9943300485610962 0.03416718542575836
vn 0.6703033447265625 -1.176610567199532e-06 0.7420871257781982
vn 0.11554992944002151 0.9909607768058777 0.0681525245308876
vn 0.1639503836631775 0.9862179160118103 0.022235330194234848
vn -0.2853323817253113 0.9577996134757996 0.03471715748310089
vn -0.07324391603469849 0.9865976572036743 0.14580881595611572
vn -0.19827137887477875 -4.388673914945684e-06 0.980147123336792
vn -0.02678157575428486 0.9995207786560059 0.015518411993980408
vn 0.11127919703722 0.9924155473709106 0.05223174765706062
vn -0.16103923320770264 0.9866064190864563 0.025963839143514633
vn 0.0034811035729944706 -3.6309320421423763e-06 0.9999939203262329
vn -0.5743996500968933 -4.190031177131459e-06 0.8185750246047974
vn -0.9969602227210999 -1.314438759436598e-05 0.07791091501712799
vn -0.48202648758888245 2.111278718075482e-06 -0.8761565685272217
vn -0.11856263875961304 0.9629563093185425 -0.24219399690628052
vn 0.046713393181562424 0.9944538474082947 -0.09423068910837173
vn 0.15250758826732635 0.9668290615081787 -0.20489776134490967
vn -0.094211645424366 3.4875361052399967e-06 -0.995552122592926
vn 0.620745062828064 3.7566419450740796e-06 -0.7840124368667603
vn 0.15201134979724884 0.9821751713752747 -0.11056409776210785
vn -0.5480833649635315 2.214766709585092e-06 -0.8364236950874329
vn 0.17150044441223145 -3.191662017343333e-06 0.9851840734481812
vn 0.9528853297233582 -2.6896382223640103e-06 0.30333077907562256
vn 0.4633375108242035 4.166465259913821e-06 -0.8861818313598633
vn -0.015063276514410973 0.9967858791351318 -0.07868356257677078
vn -0.33105581998825073 2.7092473828815855e-06 -0.9436111450195312
vn 0.08323618024587631 0.9953622221946716 0.048228416591882706
vn 0.9864069819450378 2.138846184607246e-06 0.16432061791419983
vn 0.8726685643196106 -1.1533704480370943e-07 0.4883129298686981
vn 0.05432739853858948 0.9945472478866577 0.08901935070753098
vn 0.7444934844970703 -1.0529842029427527e-06 0.6676297187805176
vn -0.4824889600276947 -2.6646271180652548e-06 0.875901997089386
vn -0.7765378952026367 -3.9654637475905474e-06 0.6300705671310425
vn -0.01103251613676548 0.9981240630149841 0.060220587998628616
vn 0.705073893070221 -7.912098567430803e-07 0.7091338634490967
vn -0.332935631275177 0.9361840486526489 -0.11275266110897064
vn -0.9785149693489075 -1.2761724974552635e-06 -0.20617616176605225
vn -0.296402245759964 0.931509256362915 -0.21079884469509125
vn 0.0916171669960022 0.9957910776138306 0.002513163723051548
vn -0.6658288240432739 1.0107559091920848e-06 -0.7461045384407043
vn -0.8871164917945862 -5.559626856666e-07 -0.46154558658599854
vn -0.9974587559700012 -2.1885075511818286e-06 -0.07124607264995575
vn -0.5488907098770142 0.8358938097953796 0.0007565689156763256
vn -0.18078282475471497 0.9830443263053894 0.030682647600769997
vn -0.9861132502555847 -2.963324959637248e-06 0.1660744845867157
vn 0.11127919703722 0.9924155473709106 0.05223174765706062
vn -0.18078282475471497 0.9830443263053894 0.030682647600769997
vn -0.02678157575428486 0.9995207786560059 0.015518411993980408
vn 0.0916171669960022 0.9957910776138306 0.002513163723051548
vn 0.9864069819450378 2.138846184607246e-06 0.16432061791419983
vn 0.6703033447265625 -1.176610567199532e-06 0.7420871257781982
vn -0.23089471459388733 0.9724574089050293 -0.03184966370463371
vn -0.12474358081817627 0.9803048968315125 0.1531057059764862
vn -0.3479691743850708 0.9001584649085999 0.2619777023792267
vn -0.011952707543969154 0.9967660903930664 -0.07946345210075378
vn 0.300167977809906 0.9371289610862732 -0.17801246047019958
vn -0.14646247029304504 0.8274937868118286 0.5420358180999756
vn -0.832953155040741 0.0259451512247324 -0.5527348518371582
vn -0.8265509605407715 0.07994797825813293 -0.5571550726890564
vn -0.8328607082366943 -4.666995891966508e-07 -0.5534826517105103
vn -0.828793466091156 -5.686826511919207e-07 -0.5595547556877136
vn -0.013651585206389427 -0.012182501144707203 0.9998326301574707
vn -0.013652623631060123 -3.27660654875217e-06 0.9999067783355713
vn -0.013652624562382698 -3.284236754552694e-06 0.9999067783355713
vn -0.9502534866333008 -6.819676059421909e-07 -0.31147751212120056
vn -0.9777019023895264 -1.1743560435206746e-06 -0.2099977433681488
vn -0.9759909510612488 0.04918139427900314 -0.21218594908714294
vn -0.9941503405570984 -1.646119699216797e-06 -0.10800518095493317
vn -0.13636812567710876 -0.880608320236206 -0.45379796624183655
vn 0.14758798480033875 -0.6184433102607727 -0.7718456387519836
vn 0.06953759491443634 -0.7103670239448547 -0.7003878355026245
vn 0.2910512089729309 -0.40445807576179504 -0.8670080304145813
vn 0.48435986042022705 0.8162674307823181 -0.31480637192726135
vn 0.4843599200248718 0.8162674307823181 -0.31480640172958374
vn 0.48435983061790466 0.8162673115730286 -0.31480640172958374
vn -1.0 -2.433353301967145e-06 -5.147555384610314e-06
vn -1.0 8.873394108377397e-05 -7.77703576204658e-07
vn -1.0 -2.4334663066838402e-06 -1.6415407344538835e-07
vn -1.0 0.00018981056928168982 -5.309336302161682e-06
vn 0.978169322013855 2.639360445755301e-06 -0.20780952274799347
vn 0.46728551387786865 0.8022294044494629 0.3715806305408478
vn 0.7612175345420837 0.0 0.648496687412262
vn 0.4426673948764801 0.8893972635269165 -0.11409764736890793
vn 0.0031639127992093563 0.9433452486991882 0.3317975699901581
vn -0.0007266466272994876 0.9964666366577148 -0.08398674428462982
vn 0.046713393181562424 0.9944538474082947 -0.09423068910837173
vn 0.005551246460527182 0.8133527040481567 0.581744372844696
vn 0.25226515531539917 0.6357454657554626 0.7295135855674744
vn 0.19259831309318542 -2.9278062356752343e-06 0.9812776446342468
vn 0.620745062828064 3.7566419450740796e-06 -0.7840124368667603
vn 0.15250758826732635 0.9668290615081787 -0.20489776134490967
vn 0.1585499346256256 0.4048766791820526 0.9005202054977417
vn -0.8607040047645569 0.49559685587882996 -0.11650095880031586
vn -0.6388379335403442 0.5564649701118469 0.5312560200691223
vn -0.8068972826004028 0.49543192982673645 0.3216582238674164
vn -0.8520461320877075 0.5116029381752014 -0.1108141541481018
vn -0.87319016456604 0.41475802659988403 -0.25595822930336
vn -0.4233771860599518 0.4542478322982788 0.7838435173034668
vn -0.8784917593002319 0.3977434039115906 -0.26467397809028625
vn -0.18084660172462463 0.41956597566604614 0.8895273804664612
vn -0.16118119657039642 0.40148428082466125 0.9015713930130005
vn 0.4871538281440735 0.6872738599777222 -0.5388281941413879
vn 0.3005337417125702 0.7254871726036072 -0.6191508769989014
vn 0.2746537923812866 0.7160407304763794 -0.6417561769485474
vn 0.6771865487098694 0.610471785068512 -0.4107828140258789
vn 0.8279169797897339 0.4899742305278778 -0.2729080319404602
vn -0.002745656995102763 0.9578486084938049 -0.2872602343559265
vn -0.0027456567622721195 0.9578486084938049 -0.2872602045536041
vn -0.0027456567622721195 0.9578486084938049 -0.2872602045536041
vn -0.6904450058937073 0.6111688613891602 -0.3869861662387848
vn -0.8233466148376465 0.4978781044483185 -0.2724292576313019
vn -0.4797605872154236 0.6994507312774658 -0.5297154188156128
vn -0.31363072991371155 0.7354069948196411 -0.6006765365600586
vn -0.2701372504234314 0.7198371291160583 -0.6394219994544983
vn 0.32052046060562134 0.703619658946991 -0.6341813206672668
vn 0.3205204904079437 0.703619658946991 -0.6341813206672668
vn 0.3205204904079437 0.703619658946991 -0.6341813206672668
vn -0.8293079733848572 0.4962121546268463 0.25694704055786133
vn -0.8293079733848572 0.4962122142314911 0.25694704055786133
vn -0.8293079733848572 0.4962122142314911 0.25694704055786133
vn -0.8247530460357666 0.09359005838632584 0.557694673538208
vn -0.8247530460357666 0.09359005093574524 0.5576946139335632
vn -0.8247530460357666 0.09359005838632584 0.557694673538208
vn 0.5540569424629211 0.8274304270744324 -0.0915410965681076
vn 0.5559155941009521 0.8300254940986633 -0.04489387199282646
vn 0.5489105582237244 0.8187476992607117 0.16837254166603088
vn 0.5333167910575867 0.7972070574760437 -0.2829030454158783
vn -0.380675733089447 0.8566600680351257 0.34816616773605347
vn -0.38067570328712463 0.8566600680351257 0.3481661379337311
vn -0.380675733089447 0.8566600680351257 0.3481661379337311
vn -0.43647897243499756 0.8980234861373901 -0.05513428896665573
vn -0.43647903203964233 0.8980234861373901 -0.05513428896665573
vn -0.43647903203964233 0.8980234861373901 -0.05513428896665573
vn -0.5540603995323181 0.8274280428886414 -0.09154178202152252
vn -0.5489128828048706 0.8187460899353027 0.16837294399738312
vn -0.5559189319610596 0.8300232887268066 -0.04489285126328468
vn -0.5333210825920105 0.7972040772438049 -0.2829032242298126
vn 0.3806708753108978 0.8566623330116272 0.3481655716896057
vn 0.3806709051132202 0.8566623330116272 0.3481655716896057
vn 0.3806709051132202 0.8566623330116272 0.3481655716896057
vn 0.43647506833076477 0.8980255126953125 -0.05513453483581543
vn 0.43647506833076477 0.8980255126953125 -0.05513453856110573
vn 0.43647506833076477 0.898025393486023 -0.05513452738523483
vn 0.8544359803199768 0.4291345775127411 0.2928869426250458
vn 0.7169929146766663 0.6786761283874512 -0.15912215411663055
vn 0.9834854006767273 0.08411669731140137 0.1602524071931839
vn 0.6422087550163269 -0.5690457820892334 -0.5135705471038818
vn 0.24756214022636414 0.9146441221237183 0.31959226727485657
vn 0.004778852220624685 0.9973015189170837 -0.0732588917016983
vn 0.3725866675376892 0.7418741583824158 -0.5574960112571716
vn -0.1993464231491089 0.8935381174087524 0.40230658650398254
vn -0.57868492603302 0.6642948985099792 0.47311314940452576
vn 0.8013189435005188 0.24169869720935822 -0.5472381711006165
vn -0.548774242401123 0.8357269167900085 -0.020180718973279
vn -0.9118566513061523 0.047859735786914825 0.4077093005180359
vn -0.22907452285289764 0.8158663511276245 -0.5309303402900696
vn -0.999064028263092 -0.0233952347189188 0.03638380393385887
vn -0.9056941270828247 0.09329932928085327 -0.41353756189346313
vn -0.27656078338623047 -0.9593833088874817 -0.055658113211393356
vn -0.21871674060821533 -0.8523141741752625 0.47510379552841187
vn -0.4639243483543396 -0.6666319370269775 -0.5834176540374756
vn 0.800523042678833 -0.43085527420043945 -0.4165651798248291
vn 0.9084302186965942 -0.17509880661964417 0.37959855794906616
vn 0.8831923604011536 0.2112964242696762 -0.4187184274196625
vn 0.28518742322921753 -0.43113797903060913 -0.8560304641723633
vn 0.8544359803199768 0.4291345775127411 0.2928869426250458
vn 0.9834854006767273 0.08411669731140137 0.1602524071931839
vn 0.753292441368103 -0.6111167073249817 0.2430780529975891
vn 0.612103283405304 -0.7867521643638611 -0.07969063520431519
vn 0.3901446759700775 -0.8016889691352844 0.45285964012145996
vn -0.008258973248302937 -0.9730249047279358 0.23055243492126465
vn -0.23411598801612854 -0.7990953326225281 0.5537475347518921
vn -0.3973594307899475 -0.8037531971931458 0.4428164064884186
vn 0.2644156515598297 -0.8800973892211914 -0.3943512737751007
vn -0.3538065552711487 -0.9342311024665833 -0.045089613646268845
vn 0.8736480474472046 -0.4174897372722626 -0.24988266825675964
vn 0.6422087550163269 -0.5690457820892334 -0.5135705471038818
vn 0.6079780459403992 -0.6824008226394653 -0.40582242608070374
vn -0.9478339552879333 0.2646135091781616 0.17773735523223877
vn -0.9912719130516052 -0.0924990102648735 0.09393567591905594
vn -0.8009316325187683 -0.5731618404388428 0.17318758368492126
vn -0.7370179891586304 0.6647109985351562 0.12232671678066254
vn -0.5019740462303162 0.8583839535713196 0.10582496225833893
vn -0.028140822425484657 0.9545156359672546 -0.2968297600746155
vn -0.031157318502664566 0.9733532071113586 -0.22718453407287598
vn 0.21868963539600372 0.876586377620697 -0.4286855161190033
vn 0.24256394803524017 0.9037516117095947 -0.3526977598667145
vn -0.6296422481536865 -0.7639124989509583 0.1413802206516266
vn -0.19305573403835297 -0.9655333757400513 0.17457030713558197
vn -0.09794086962938309 -0.9885231256484985 0.11502029746770859
vn 0.3622994124889374 -0.9303810596466064 0.05594739690423012
vn -0.19305573403835297 -0.9655333757400513 0.17457030713558197
vn -0.6296422481536865 -0.7639124989509583 0.1413802206516266
vn 0.5603355169296265 -0.828199565410614 0.010470729321241379
vn 0.9554521441459656 -0.29496556520462036 0.010322862304747105
vn 0.9906520843505859 0.1363534927368164 0.004030322190374136
vn 0.645099937915802 0.7614234685897827 0.06387599557638168
vn 0.02769237756729126 0.9878894686698914 0.1526680290699005
vn -0.7702918648719788 0.5130887031555176 0.37866923213005066
vn -0.7121878862380981 0.6067185997962952 0.3531019985675812
vn -0.8951374888420105 -0.039104826748371124 0.44407185912132263
vn -0.5952394604682922 0.7600523233413696 0.2607882022857666
vn -0.5952394008636475 0.7600523233413696 0.2607881724834442
vn -0.5952394604682922 0.7600522637367249 0.2607882022857666
vt 0.573769211769104 0.8349803388118744
vt 0.5698745250701904 0.7337630391120911
vt 0.6902310848236084 0.817116916179657
vt 0.6903599500656128 0.8853306695818901
vt 0.4813048541545868 0.7453929781913757
vt 0.4867013394832611 0.811924546957016
vt 0.44969627261161804 0.7312843501567841
vt 0.3984072506427765 0.6120700240135193
vt 0.577393114566803 0.6232794523239136
vt 0.3953864276409149 0.7930663526058197
vt 0.4259582459926605 0.7054381370544434
vt 0.3964381515979767 0.730076253414154
vt 0.13634207844734192 0.7290977537631989
vt 0.375542014837265 0.8466585874557495
vt 0.47869715094566345 0.8771266862750053
vt 0.5317180752754211 0.9238090142607689
vt 0.5896590948104858 0.9124677404761314
vt 0.6922955513000488 0.960153304040432
vt 0.6167701482772827 0.9596649631857872
vt 0.7643777132034302 0.9089511260390282
vt 0.695472002029419 0.9774322733283043
vt 0.7965395450592041 0.8719251453876495
vt 0.9255976676940918 0.8678106367588043
vt 0.7945971488952637 0.9358734712004662
vt 0.46687421202659607 0.9142163619399071
vt 0.4404961168766022 0.9115041121840477
vt 0.36903321743011475 0.25071167945861816
vt 0.4074036478996277 0.355991005897522
vt 0.27546319365501404 0.37423986196517944
vt 0.5343081951141357 0.20645397901535034
vt 0.5582520365715027 0.28852736949920654
vt 0.7551472187042236 0.143629789352417
vt 0.6544803380966187 0.1353946328163147
vt 0.5388043522834778 0.05046403408050537
vt 0.8324878215789795 0.021685123443603516
vt 0.3864983320236206 0.05319643020629883
vt 0.32165291905403137 0.019097745418548584
vt 0.3353008031845093 0.08938711881637573
vt 0.1726709008216858 0.2358831763267517
vt 0.34672659635543823 0.04994732141494751
vt 0.31585514545440674 0.07003903388977051
vt 0.2572263777256012 0.0701093077659607
vt 0.24873757362365723 0.08862775564193726
vt 0.12479807436466217 0.062150657176971436
vt 0.15905064344406128 0.05789339542388916
vt 0.855154275894165 0.6851071715354919
vt 0.6761683225631714 0.6738977432250977
vt 0.6904111504554749 0.22220313549041748
vt 0.8732122182846069 0.1338564157485962
vt 0.9905197620391846 0.007571816444396973
vt 0.9679921269416809 0.8789446651935577
vt 0.1183737963438034 0.028446674346923828
vt 0.15569844841957092 0.010039567947387695
vt 0.12479807436466217 0.062150657176971436
vt 0.013938412070274353 0.01269519329071045
vt 0.08844853937625885 0.04515784978866577
vt 0.15905064344406128 0.05789339542388916
vt 0.4813048541545868 0.7453929781913757
vt 0.47119009494781494 0.7434706687927246
vt 0.3984072506427765 0.6120700240135193
vt 0.38192638754844666 0.6194811463356018
vt 0.4813048541545868 0.7453929781913757
vt 0.44969627261161804 0.7312843501567841
vt 0.47119009494781494 0.7434706687927246
vt 0.8324878215789795 0.021685123443603516
vt 0.5388043522834778 0.05046403408050537
vt 0.5388312935829163 0.03547978401184082
vt 0.32165291905403137 0.019097745418548584
vt 0.4404961168766022 0.9115041121840477
vt 0.46687421202659607 0.9142163619399071
vt 0.4796275198459625 0.9688079580664635
vt 0.5317180752754211 0.9238090142607689
vt 0.3864983320236206 0.05319643020629883
vt 0.34672659635543823 0.04994732141494751
vt 0.32165291905403137 0.019097745418548584
vt 0.6596874594688416 0.6813088953495026
vt 0.6904111504554749 0.22220313549041748
vt 0.6761683225631714 0.6738977432250977
vt 0.6712441444396973 0.2753192186355591
vt 0.1354255974292755 0.32626307010650635
vt 0.11729292571544647 0.5937063097953796
vt 0.11369264125823975 0.32513362169265747
vt 0.1414145678281784 0.588828980922699
vt 0.09351523965597153 0.5937454104423523
vt 0.08995018154382706 0.325092613697052
vt 0.07079987227916718 0.23135435581207275
vt 0.09001719206571579 0.6142017245292664
vt 0.12125374376773834 0.6141437888145447
vt 0.1650448590517044 0.6001690328121185
vt 0.16045834124088287 0.26400262117385864
vt 0.1269679069519043 0.2227141261100769
vt 0.17893923819065094 0.6189525127410889
vt 0.08995018154382706 0.325092613697052
vt 0.06910384446382523 0.5892282128334045
vt 0.06890129297971725 0.32676881551742554
vt 0.09351523965597153 0.5937454104423523
vt 0.05192907527089119 0.2781367897987366
vt 0.09001719206571579 0.6142017245292664
vt 0.07079987227916718 0.23135435581207275
vt 0.04565150663256645 0.6013212203979492
vt 0.032143544405698776 0.6204133033752441
vt 0.12125374376773834 0.6141437888145447
vt 0.17893923819065094 0.6189525127410889
vt 0.15914900600910187 0.644555926322937
vt 0.13782213628292084 0.6587793529033661
vt 0.10698767751455307 0.7262190580368042
vt 0.09001719206571579 0.6142017245292664
vt 0.12125374376773834 0.6141437888145447
vt 0.10698767751455307 0.7262190580368042
vt 0.07573721557855606 0.6622574627399445
vt 0.09001719206571579 0.6142017245292664
vt 0.10698767751455307 0.7262190580368042
vt 0.0524512343108654 0.6457801461219788
vt 0.032143544405698776 0.6204133033752441
vt 0.07079987227916718 0.23135435581207275
vt 0.05192907527089119 0.2781367897987366
vt 0.013019572012126446 0.2805623412132263
vt 0.07079987227916718 0.23135435581207275
vt 0.013019572012126446 0.2805623412132263
vt 0.03726857528090477 0.21417051553726196
vt 0.46687421202659607 0.9142163619399071
vt 0.4404961168766022 0.9115041121840477
vt 0.47869715094566345 0.8771266862750053
vt 0.17893923819065094 0.6189525127410889
vt 0.19816111028194427 0.5849908590316772
vt 0.19994960725307465 0.6218995451927185
vt 0.16658388078212738 0.6852178871631622
vt 0.17893923819065094 0.6189525127410889
vt 0.1650448590517044 0.6001690328121185
vt 0.19816111028194427 0.5849908590316772
vt 0.15914900600910187 0.644555926322937
vt 0.17893923819065094 0.6189525127410889
vt 0.16658388078212738 0.6852178871631622
vt 0.032143544405698776 0.6204133033752441
vt 0.011165822856128216 0.6236827969551086
vt 0.012289191596210003 0.5867881774902344
vt 0.04532817378640175 0.686535120010376
vt 0.032143544405698776 0.6204133033752441
vt 0.012289191596210003 0.5867881774902344
vt 0.04565150663256645 0.6013212203979492
vt 0.0524512343108654 0.6457801461219788
vt 0.04532817378640175 0.686535120010376
vt 0.032143544405698776 0.6204133033752441
vt 0.573769211769104 0.8349803388118744
vt 0.6902310848236084 0.817116916179657
vt 0.5698745250701904 0.7337630391120911
vt 0.6903599500656128 0.8853306695818901
vt 0.4813048541545868 0.7453929781913757
vt 0.4867013394832611 0.811924546957016
vt 0.44969627261161804 0.7312843501567841
vt 0.3984072506427765 0.6120700240135193
vt 0.577393114566803 0.6232794523239136
vt 0.3953864276409149 0.7930663526058197
vt 0.4259582459926605 0.7054381370544434
vt 0.3964381515979767 0.730076253414154
vt 0.13634207844734192 0.7290977537631989
vt 0.375542014837265 0.8466585874557495
vt 0.47869715094566345 0.8771266862750053
vt 0.5317180752754211 0.9238090142607689
vt 0.5896590948104858 0.9124677404761314
vt 0.6922955513000488 0.960153304040432
vt 0.6167701482772827 0.9596649631857872
vt 0.7643777132034302 0.9089511260390282
vt 0.695472002029419 0.9774322733283043
vt 0.7965395450592041 0.8719251453876495
vt 0.9255976676940918 0.8678106367588043
vt 0.7945971488952637 0.9358734712004662
vt 0.46687421202659607 0.9142163619399071
vt 0.4404961168766022 0.9115041121840477
vt 0.36903321743011475 0.25071167945861816
vt 0.27546319365501404 0.37423986196517944
vt 0.4074036478996277 0.355991005897522
vt 0.5343081951141357 0.20645397901535034
vt 0.5582520365715027 0.28852736949920654
vt 0.7551472187042236 0.143629789352417
vt 0.6544803380966187 0.1353946328163147
vt 0.5388043522834778 0.05046403408050537
vt 0.8324878215789795 0.021685123443603516
vt 0.3864983320236206 0.05319643020629883
vt 0.32165291905403137 0.019097745418548584
vt 0.3353008031845093 0.08938711881637573
vt 0.1726709008216858 0.2358831763267517
vt 0.34672659635543823 0.04994732141494751
vt 0.31585514545440674 0.07003903388977051
vt 0.2572263777256012 0.0701093077659607
vt 0.24873757362365723 0.08862775564193726
vt 0.12479807436466217 0.062150657176971436
vt 0.15905064344406128 0.05789339542388916
vt 0.855154275894165 0.6851071715354919
vt 0.6904111504554749 0.22220313549041748
vt 0.6761683225631714 0.6738977432250977
vt 0.8732122182846069 0.1338564157485962
vt 0.9905197620391846 0.007571816444396973
vt 0.9679921269416809 0.8789446651935577
vt 0.1183737963438034 0.028446674346923828
vt 0.12479807436466217 0.062150657176971436
vt 0.15569844841957092 0.010039567947387695
vt 0.013938412070274353 0.01269519329071045
vt 0.08844853937625885 0.04515784978866577
vt 0.15905064344406128 0.05789339542388916
vt 0.4813048541545868 0.7453929781913757
vt 0.3984072506427765 0.6120700240135193
vt 0.47119009494781494 0.7434706687927246
vt 0.38192638754844666 0.6194811463356018
vt 0.4813048541545868 0.7453929781913757
vt 0.47119009494781494 0.7434706687927246
vt 0.44969627261161804 0.7312843501567841
vt 0.8324878215789795 0.021685123443603516
vt 0.5388312935829163 0.03547978401184082
vt 0.5388043522834778 0.05046403408050537
vt 0.32165291905403137 0.019097745418548584
vt 0.4404961168766022 0.9115041121840477
vt 0.4796275198459625 0.9688079580664635
vt 0.46687421202659607 0.9142163619399071
vt 0.5317180752754211 0.9238090142607689
vt 0.3864983320236206 0.05319643020629883
vt 0.32165291905403137 0.019097745418548584
vt 0.34672659635543823 0.04994732141494751
vt 0.6596874594688416 0.6813088953495026
vt 0.6904111504554749 0.22220313549041748
vt 0.6712441444396973 0.2753192186355591
vt 0.6761683225631714 0.6738977432250977
vt 0.1354255974292755 0.32626307010650635
vt 0.11729292571544647 0.5937063097953796
vt 0.1414145678281784 0.588828980922699
vt 0.11369264125823975 0.32513362169265747
vt 0.09351523965597153 0.5937454104423523
vt 0.08995018154382706 0.325092613697052
vt 0.07079987227916718 0.23135435581207275
vt 0.09001719206571579 0.6142017245292664
vt 0.12125374376773834 0.6141437888145447
vt 0.1650448590517044 0.6001690328121185
vt 0.16045834124088287 0.26400262117385864
vt 0.1269679069519043 0.2227141261100769
vt 0.17893923819065094 0.6189525127410889
vt 0.08995018154382706 0.325092613697052
vt 0.06910384446382523 0.5892282128334045
vt 0.09351523965597153 0.5937454104423523
vt 0.06890129297971725 0.32676881551742554
vt 0.05192907527089119 0.2781367897987366
vt 0.09001719206571579 0.6142017245292664
vt 0.07079987227916718 0.23135435581207275
vt 0.04565150663256645 0.6013212203979492
vt 0.032143544405698776 0.6204133033752441
vt 0.12125374376773834 0.6141437888145447
vt 0.15914900600910187 0.644555926322937
vt 0.17893923819065094 0.6189525127410889
vt 0.13782213628292084 0.6587793529033661
vt 0.10698767751455307 0.7262190580368042
vt 0.09001719206571579 0.6142017245292664
vt 0.10698767751455307 0.7262190580368042
vt 0.12125374376773834 0.6141437888145447
vt 0.07573721557855606 0.6622574627399445
vt 0.10698767751455307 0.7262190580368042
vt 0.09001719206571579 0.6142017245292664
vt 0.0524512343108654 0.6457801461219788
vt 0.032143544405698776 0.6204133033752441
vt 0.07079987227916718 0.23135435581207275
vt 0.013019572012126446 0.2805623412132263
vt 0.05192907527089119 0.2781367897987366
vt 0.07079987227916718 0.23135435581207275
vt 0.03726857528090477 0.21417051553726196
vt 0.013019572012126446 0.2805623412132263
vt 0.46687421202659607 0.9142163619399071
vt 0.47869715094566345 0.8771266862750053
vt 0.4404961168766022 0.9115041121840477
vt 0.17893923819065094 0.6189525127410889
vt 0.19994960725307465 0.6218995451927185
vt 0.19816111028194427 0.5849908590316772
vt 0.16658388078212738 0.6852178871631622
vt 0.17893923819065094 0.6189525127410889
vt 0.19816111028194427 0.5849908590316772
vt 0.1650448590517044 0.6001690328121185
vt 0.15914900600910187 0.644555926322937
vt 0.16658388078212738 0.6852178871631622
vt 0.17893923819065094 0.6189525127410889
vt 0.032143544405698776 0.6204133033752441
vt 0.012289191596210003 0.5867881774902344
vt 0.011165822856128216 0.6236827969551086
vt 0.04532817378640175 0.686535120010376
vt 0.032143544405698776 0.6204133033752441
vt 0.04565150663256645 0.6013212203979492
vt 0.012289191596210003 0.5867881774902344
vt 0.0524512343108654 0.6457801461219788
vt 0.032143544405698776 0.6204133033752441
vt 0.04532817378640175 0.686535120010376
vt 0.2094540297985077 0.6811603605747223
vt 0.30992284417152405 0.6240443289279938
vt 0.22948867082595825 0.7037584185600281
vt 0.3102700412273407 0.6819086372852325
vt 0.2797078788280487 0.612917572259903
vt 0.364240825176239 0.5494039058685303
vt 0.392422080039978 0.5726668536663055
vt 0.3303951025009155 0.5463239550590515
vt 0.3891043961048126 0.4818136692047119
vt 0.3417660892009735 0.6336369216442108
vt 0.42043599486351013 0.48711925745010376
vt 0.42471715807914734 0.4288485646247864
vt 0.4463055431842804 0.4993126392364502
vt 0.45500612258911133 0.43487900495529175
vt 0.48712655901908875 0.44533437490463257
vt 0.507399320602417 0.3783455491065979
vt 0.48125579953193665 0.3675026297569275
vt 0.5369226932525635 0.3876340985298157
vt 0.5946811437606812 0.31887561082839966
vt 0.5807027816772461 0.3092181086540222
vt 0.6397120952606201 0.2658854126930237
vt 0.6082907915115356 0.33436113595962524
vt 0.3196012079715729 0.8755828812718391
vt 0.3259088695049286 0.9025381878018379
vt 0.2311459481716156 0.8914927318692207
vt 0.25774267315864563 0.9277203753590584
vt 0.15329048037528992 0.8884496167302132
vt 0.14631178975105286 0.9371091201901436
vt 0.032323211431503296 0.8835940435528755
vt 0.019613413140177727 0.9720407165586948
vt 0.27641037106513977 0.9760279096662998
vt 0.14384272694587708 0.976911548525095
vt 0.3524881899356842 0.9382734335958958
vt 0.374069482088089 0.9800344742834568
vt 0.45937642455101013 0.9784517325460911
vt 0.19442212581634521 0.853706419467926
vt 0.2319563925266266 0.8108365833759308
vt 0.24889588356018066 0.840898871421814
vt 0.17475900053977966 0.8058780282735825
vt 0.14077726006507874 0.8491910398006439
vt 0.09902215003967285 0.7942928224802017
vt 0.09630435705184937 0.844439685344696
vt 0.027418017387390137 0.7861651480197906
vt 0.026132017374038696 0.8378096669912338
vt 0.2648036479949951 0.8102018684148788
vt 0.2965433597564697 0.8444529324769974
vt 0.46110862493515015 0.5465227365493774
vt 0.5229654312133789 0.5402061939239502
vt 0.4802003800868988 0.5872803628444672
vt 0.42104262113571167 0.589160680770874
vt 0.5114144086837769 0.5013429522514343
vt 0.5590717792510986 0.5130446553230286
vt 0.546865701675415 0.46975457668304443
vt 0.5966101288795471 0.4672423005104065
vt 0.5790129899978638 0.4305538535118103
vt 0.6012610197067261 0.37193524837493896
vt 0.6194922924041748 0.38800811767578125
vt 0.6489061713218689 0.3459591865539551
vt 0.0955549031496048 0.12245559692382812
vt 0.0793159157037735 0.20507299900054932
vt 0.04932064935564995 0.05574023723602295

g wpn_baa_00_R001
s 1
usemtl wpn_baa_00_R001
f 3/3/3 2/2/2 1/1/1 
f 4/4/4 3/3/3 1/1/1 
f 2/2/2 5/5/5 1/1/1 
f 6/6/6 1/1/1 5/5/5 
f 7/7/7 6/6/6 5/5/5 
f 8/8/8 5/5/5 2/2/2 
f 8/8/8 2/2/2 9/9/9 
f 9/9/9 2/2/2 3/3/3 
f 7/7/7 10/10/10 6/6/6 
f 11/11/11 10/10/10 7/7/7 
f 11/11/11 12/12/12 10/10/10 
f 10/10/10 12/12/12 13/13/13 
f 13/13/13 14/14/14 10/10/10 
f 10/10/10 14/14/14 15/15/15 
f 15/15/15 1/1/1 6/6/6 
f 6/6/6 10/10/10 15/15/15 
f 15/15/15 16/16/16 1/1/1 
f 16/16/16 17/17/17 1/1/1 
f 18/18/18 4/4/4 17/17/17 
f 19/19/19 18/18/18 17/17/17 
f 4/4/4 18/18/18 20/20/20 
f 20/20/20 18/18/18 21/21/21 
f 20/20/20 22/22/22 4/4/4 
f 22/22/22 20/20/20 23/23/23 
f 20/20/20 24/24/24 23/23/23 
f 21/21/21 24/24/24 20/20/20 
f 15/15/15 25/25/25 16/16/16 
f 22/22/22 3/3/3 4/4/4 
f 17/17/17 4/4/4 1/1/1 
f 14/14/14 26/26/26 15/15/15 
f 29/29/29 28/28/28 27/27/27 
f 27/27/27 28/28/28 30/30/30 
f 28/28/28 31/31/31 30/30/30 
f 31/31/31 32/32/32 30/30/30 
f 32/32/32 33/33/33 30/30/30 
f 30/30/30 33/33/33 34/34/34 
f 34/34/34 33/33/33 35/35/35 
f 36/36/36 30/30/30 34/34/34 
f 36/36/36 34/34/34 37/37/37 
f 27/27/27 30/30/30 38/38/38 
f 38/38/38 30/30/30 36/36/36 
f 38/38/38 39/39/39 27/27/27 
f 39/39/39 29/29/29 27/27/27 
f 40/40/40 38/38/38 36/36/36 
f 41/41/41 38/38/38 40/40/40 
f 41/41/41 42/42/42 38/38/38 
f 38/38/38 42/42/42 43/43/43 
f 38/38/38 43/43/43 39/39/39 
f 43/43/43 44/44/44 39/39/39 
f 43/43/43 45/45/45 44/44/44 
f 42/42/42 45/45/45 43/43/43 
f 48/48/48 47/47/47 46/46/46 
f 49/49/49 48/48/48 46/46/46 
f 49/49/49 46/46/46 50/50/50 
f 50/50/50 46/46/46 51/51/51 
f 54/54/54 53/53/53 52/52/52 
f 52/52/52 53/53/53 55/55/55 
f 55/55/55 56/56/56 52/52/52 
f 52/52/52 56/56/56 54/54/54 
f 57/57/57 53/53/53 54/54/54 
f 60/60/60 59/59/59 58/58/58 
f 61/61/61 59/59/59 60/60/60 
f 64/64/64 63/63/63 62/62/62 
f 67/67/67 66/66/66 65/65/65 
f 68/68/68 66/66/66 67/67/67 
f 71/71/71 70/70/70 69/69/69 
f 71/71/71 72/72/72 70/70/70 
f 75/75/75 74/74/74 73/73/73 
f 78/78/78 77/77/77 76/76/76 
f 79/79/79 76/76/76 77/77/77 
f 82/82/82 81/81/81 80/80/80 
f 83/83/83 80/80/80 81/81/81 
f 81/81/81 82/82/82 84/84/84 
f 85/85/85 84/84/84 82/82/82 
f 82/82/82 86/86/86 85/85/85 
f 84/84/84 87/87/87 81/81/81 
f 88/88/88 81/81/81 87/87/87 
f 81/81/81 88/88/88 83/83/83 
f 88/88/88 89/89/89 83/83/83 
f 80/80/80 90/90/90 82/82/82 
f 90/90/90 91/91/91 82/82/82 
f 91/91/91 86/86/86 82/82/82 
f 92/92/92 89/89/89 88/88/88 
f 95/95/95 94/94/94 93/93/93 
f 96/96/96 93/93/93 94/94/94 
f 93/93/93 97/97/97 95/95/95 
f 94/94/94 98/98/98 96/96/96 
f 99/99/99 97/97/97 93/93/93 
f 100/100/100 98/98/98 94/94/94 
f 100/100/100 101/101/101 98/98/98 
f 104/104/104 103/103/103 102/102/102 
f 105/105/105 104/104/104 102/102/102 
f 106/106/106 105/105/105 102/102/102 
f 109/109/109 108/108/108 107/107/107 
f 112/112/112 111/111/111 110/110/110 
f 113/113/113 110/110/110 111/111/111 
f 114/114/114 113/113/113 111/111/111 
f 117/117/117 116/116/116 115/115/115 
f 120/120/120 119/119/119 118/118/118 
f 123/123/123 122/122/122 121/121/121 
f 126/126/126 125/125/125 124/124/124 
f 126/126/126 124/124/124 127/127/127 
f 130/130/130 129/129/129 128/128/128 
f 133/133/133 132/132/132 131/131/131 
f 136/136/136 135/135/135 134/134/134 
f 134/134/134 135/135/135 137/137/137 
f 140/140/140 139/139/139 138/138/138 
f 143/143/143 142/142/142 141/141/141 
f 146/146/146 145/145/145 144/144/144 
f 145/145/145 147/147/147 144/144/144 
f 146/146/146 144/144/144 148/148/148 
f 149/149/149 148/148/148 144/144/144 
f 149/149/149 150/150/150 148/148/148 
f 148/148/148 151/151/151 146/146/146 
f 146/146/146 151/151/151 152/152/152 
f 146/146/146 152/152/152 145/145/145 
f 153/153/153 150/150/150 149/149/149 
f 153/153/153 154/154/154 150/150/150 
f 155/155/155 154/154/154 153/153/153 
f 155/155/155 153/153/153 156/156/156 
f 157/157/157 156/156/156 153/153/153 
f 157/157/157 153/153/153 158/158/158 
f 144/144/144 158/158/158 149/149/149 
f 153/153/153 149/149/149 158/158/158 
f 159/159/159 158/158/158 144/144/144 
f 160/160/160 159/159/159 144/144/144 
f 147/147/147 161/161/161 160/160/160 
f 161/161/161 162/162/162 160/160/160 
f 161/161/161 147/147/147 163/163/163 
f 161/161/161 163/163/163 164/164/164 
f 165/165/165 163/163/163 147/147/147 
f 163/163/163 165/165/165 166/166/166 
f 167/167/167 163/163/163 166/166/166 
f 167/167/167 164/164/164 163/163/163 
f 168/168/168 158/158/158 159/159/159 
f 145/145/145 165/165/165 147/147/147 
f 147/147/147 160/160/160 144/144/144 
f 169/169/169 157/157/157 158/158/158 
f 172/172/172 171/171/171 170/170/170 
f 172/172/172 170/170/170 173/173/173 
f 174/174/174 172/172/172 173/173/173 
f 175/175/175 174/174/174 173/173/173 
f 176/176/176 175/175/175 173/173/173 
f 176/176/176 173/173/173 177/177/177 
f 176/176/176 177/177/177 178/178/178 
f 173/173/173 179/179/179 177/177/177 
f 177/177/177 179/179/179 180/180/180 
f 173/173/173 170/170/170 181/181/181 
f 173/173/173 181/181/181 179/179/179 
f 182/182/182 181/181/181 170/170/170 
f 171/171/171 182/182/182 170/170/170 
f 181/181/181 183/183/183 179/179/179 
f 181/181/181 184/184/184 183/183/183 
f 185/185/185 184/184/184 181/181/181 
f 185/185/185 181/181/181 186/186/186 
f 186/186/186 181/181/181 182/182/182 
f 187/187/187 186/186/186 182/182/182 
f 188/188/188 186/186/186 187/187/187 
f 188/188/188 185/185/185 186/186/186 
f 191/191/191 190/190/190 189/189/189 
f 190/190/190 192/192/192 189/189/189 
f 189/189/189 192/192/192 193/193/193 
f 189/189/189 193/193/193 194/194/194 
f 197/197/197 196/196/196 195/195/195 
f 197/197/197 195/195/195 198/198/198 
f 199/199/199 198/198/198 195/195/195 
f 199/199/199 195/195/195 196/196/196 
f 197/197/197 200/200/200 196/196/196 
f 203/203/203 202/202/202 201/201/201 
f 203/203/203 204/204/204 202/202/202 
f 207/207/207 206/206/206 205/205/205 
f 210/210/210 209/209/209 208/208/208 
f 210/210/210 211/211/211 209/209/209 
f 214/214/214 213/213/213 212/212/212 
f 215/215/215 213/213/213 214/214/214 
f 218/218/218 217/217/217 216/216/216 
f 221/221/221 220/220/220 219/219/219 
f 222/222/222 219/219/219 220/220/220 
f 225/225/225 224/224/224 223/223/223 
f 226/226/226 223/223/223 224/224/224 
f 224/224/224 227/227/227 226/226/226 
f 228/228/228 226/226/226 227/227/227 
f 229/229/229 226/226/226 228/228/228 
f 227/227/227 224/224/224 230/230/230 
f 231/231/231 230/230/230 224/224/224 
f 231/231/231 224/224/224 225/225/225 
f 232/232/232 231/231/231 225/225/225 
f 233/233/233 223/223/223 226/226/226 
f 234/234/234 233/233/233 226/226/226 
f 229/229/229 234/234/234 226/226/226 
f 232/232/232 235/235/235 231/231/231 
f 238/238/238 237/237/237 236/236/236 
f 239/239/239 236/236/236 237/237/237 
f 240/240/240 236/236/236 239/239/239 
f 241/241/241 237/237/237 238/238/238 
f 240/240/240 242/242/242 236/236/236 
f 241/241/241 243/243/243 237/237/237 
f 244/244/244 243/243/243 241/241/241 
f 247/247/247 246/246/246 245/245/245 
f 246/246/246 248/248/248 245/245/245 
f 248/248/248 249/249/249 245/245/245 
f 252/252/252 251/251/251 250/250/250 
f 255/255/255 254/254/254 253/253/253 
f 253/253/253 256/256/256 255/255/255 
f 256/256/256 257/257/257 255/255/255 
f 260/260/260 259/259/259 258/258/258 
f 263/263/263 262/262/262 261/261/261 
f 266/266/266 265/265/265 264/264/264 
f 269/269/269 268/268/268 267/267/267 
f 267/267/267 268/268/268 270/270/270 
f 273/273/273 272/272/272 271/271/271 
f 276/276/276 275/275/275 274/274/274 
f 279/279/279 278/278/278 277/277/277 
f 279/279/279 277/277/277 280/280/280 
f 283/283/283 282/282/282 281/281/281 
f 286/286/286 285/285/285 284/284/284 
f 289/289/289 288/288/288 287/287/287 
f 289/289/289 290/290/290 288/288/288 
f 288/288/288 291/291/291 287/287/287 
f 288/288/288 292/292/292 291/291/291 
f 288/288/288 293/293/293 292/292/292 
f 292/292/292 294/294/294 291/291/291 
f 292/292/292 295/295/295 294/294/294 
f 288/288/288 296/296/296 293/293/293 
f 290/290/290 296/296/296 288/288/288 
f 292/292/292 297/297/297 295/295/295 
f 297/297/297 298/298/298 295/295/295 
f 297/297/297 292/292/292 299/299/299 
f 292/292/292 293/293/293 299/299/299 
f 297/297/297 300/300/300 298/298/298 
f 297/297/297 301/301/301 300/300/300 
f 297/297/297 299/299/299 301/301/301 
f 302/302/302 300/300/300 301/301/301 
f 303/303/303 300/300/300 302/302/302 
f 303/303/303 298/298/298 300/300/300 
f 302/302/302 301/301/301 304/304/304 
f 303/303/303 302/302/302 305/305/305 
f 305/305/305 302/302/302 304/304/304 
f 306/306/306 303/303/303 305/305/305 
f 306/306/306 305/305/305 307/307/307 
f 305/305/305 308/308/308 307/307/307 
f 305/305/305 304/304/304 308/308/308 
f 311/311/311 310/310/310 309/309/309 
f 311/311/311 312/312/312 310/310/310 
f 312/312/312 311/311/311 313/313/313 
f 313/313/313 314/314/314 312/312/312 
f 315/315/315 314/314/314 313/313/313 
f 316/316/316 314/314/314 315/315/315 
f 312/312/312 314/314/314 317/317/317 
f 314/314/314 318/318/318 317/317/317 
f 316/316/316 318/318/318 314/314/314 
f 319/319/319 310/310/310 312/312/312 
f 319/319/319 312/312/312 317/317/317 
f 319/319/319 317/317/317 320/320/320 
f 319/319/319 320/320/320 321/321/321 
f 319/319/319 321/321/321 310/310/310 
f 324/324/324 323/323/323 322/322/322 
f 323/323/323 325/325/325 322/322/322 
f 325/325/325 326/326/326 322/322/322 
f 325/325/325 327/327/327 326/326/326 
f 327/327/327 328/328/328 326/326/326 
f 327/327/327 329/329/329 328/328/328 
f 329/329/329 330/330/330 328/328/328 
f 324/324/324 331/331/331 323/323/323 
f 324/324/324 332/332/332 331/331/331 
f 335/335/335 334/334/334 333/333/333 
f 335/335/335 333/333/333 336/336/336 
f 334/334/334 337/337/337 333/333/333 
f 334/334/334 338/338/338 337/337/337 
f 338/338/338 339/339/339 337/337/337 
f 338/338/338 340/340/340 339/339/339 
f 340/340/340 341/341/341 339/339/339 
f 341/341/341 340/340/340 342/342/342 
f 343/343/343 342/342/342 340/340/340 
f 343/343/343 344/344/344 342/342/342 
f 347/347/347 346/346/346 345/345/345 

