v 1.0599310398101807 0.385699599981308 -0.6211498975753784
v 0.8128525614738464 -0.015778398141264915 -0.36706480383872986
v 0.830146312713623 0.3672647774219513 -0.32925906777381897
v 1.0426373481750488 0.0026564928703010082 -0.6589558124542236
v 0.5525681376457214 -0.025416716933250427 -0.15034796297550201
v 0.5698618292808533 0.35762640833854675 -0.1125420555472374
v 0.2507937252521515 -0.02308863028883934 -0.03589363023638725
v 0.2680874466896057 0.35995444655418396 0.001912282663397491
v -0.08394450694322586 -0.011253241449594498 -0.0026870830915868282
v -0.06665080040693283 0.37178993225097656 0.03511882945895195
v 0.7955588102340698 -0.39882156252861023 -0.40487074851989746
v 1.0253437757492065 -0.3803866505622864 -0.6967616677284241
v 0.5352744460105896 -0.4084598422050476 -0.18815387785434723
v 0.23350001871585846 -0.406131774187088 -0.07369954138994217
v -0.10123821347951889 -0.39429640769958496 -0.040492672473192215
v 0.17542186379432678 1.1864875555038452 -0.5914688110351562
v 0.3808128237724304 0.7809627652168274 -0.30835068225860596
v 0.04756477102637291 0.9742591381072998 -0.31406480073928833
v 0.5086698532104492 0.993191123008728 -0.5857546925544739
v 0.2410193234682083 0.5458670854568481 -0.10836322605609894
v -0.09222869575023651 0.7391635179519653 -0.11407765746116638
v 0.08498808741569519 0.27966395020484924 -0.013689570128917694
v -0.24825994670391083 0.47296035289764404 -0.01940367929637432
v -0.08394400775432587 -0.01125412993133068 -0.0026870830915868282
v -0.4171920716762543 0.18204228579998016 -0.00840151496231556
v 0.71406090259552 0.5876663327217102 -0.30263641476631165
v 0.841917872428894 0.7998946905136108 -0.5800402760505676
v 0.5742673277854919 0.35257071256637573 -0.10264912247657776
v 0.4182360768318176 0.08636756986379623 -0.007975137792527676
v 0.24930404126644135 -0.20455054938793182 0.003027025144547224
v 0.6039826273918152 1.1457926034927368 0.18840952217578888
v 0.5962930917739868 0.61780846118927 0.27765730023384094
v 0.33598271012306213 0.9018102884292603 0.272014856338501
v 0.8642930388450623 0.8617907762527466 0.19405196607112885
v 0.34648948907852173 0.3889528214931488 0.2831678092479706
v 0.08617903292179108 0.6729546785354614 0.2775253355503082
v 0.12143906205892563 0.1806749552488327 0.18244248628616333
v -0.13887138664722443 0.46467679738998413 0.17680005729198456
v -0.08394487202167511 -0.01125392783433199 -0.0026877315249294043
v -0.34425532817840576 0.2727479338645935 -0.008330182172358036
v 0.8566036224365234 0.333806574344635 0.2832997739315033
v 1.124603509902954 0.5777890086174011 0.19969442486763
v 0.6067999005317688 0.10495102405548096 0.28881025314331055
v 0.3817494809627533 -0.10332684218883514 0.18808461725711823
v 0.17636558413505554 -0.2952558100223541 0.002954719355329871
v -0.8311503529548645 1.1244735717773438 -0.02068832330405712
v -0.3453262746334076 0.9179954528808594 0.06949751079082489
v -0.7091129422187805 0.8104340434074402 0.13687878847122192
v -0.4673636555671692 1.2320349216461182 -0.08806927502155304
v -0.23868687450885773 0.6058480143547058 0.14695167541503906
v -0.6024735569953918 0.4982866048812866 0.2143329530954361
v -0.15299418568611145 0.2962743937969208 0.11542502045631409
v -0.5167807936668396 0.18871299922466278 0.18280597031116486
v -0.08394359052181244 -0.011254292912781239 -0.002687407424673438
v -0.44773027300834656 -0.11881569772958755 0.06469354778528214
v 0.018460405990481377 1.0255569219589233 0.002116554882377386
v -0.10357698798179626 1.3395963907241821 -0.15545055270195007
v 0.12509974837303162 0.713409423828125 0.0795707181096077
v 0.21079248189926147 0.40383583307266235 0.04804374650120735
v 0.2798430323600769 0.09630715101957321 -0.07006867974996567
v 0.17669452726840973 -1.3444771766662598 0.05297740176320076
v -0.17612116038799286 -0.9591501355171204 0.170602485537529
v 0.20742061734199524 -0.9952413439750671 0.1772008091211319
v -0.20684725046157837 -1.3083860874176025 0.046379413455724716
v -0.14539510011672974 -0.6245888471603394 0.21455536782741547
v 0.23814667761325836 -0.6606801748275757 0.2211533635854721
v -0.11466900259256363 -0.3099903464317322 0.149311825633049
v 0.26887276768684387 -0.3460816442966461 0.15591013431549072
v -0.08394290506839752 -0.011252225376665592 -0.0026877315249294043
v 0.2995988726615906 -0.04734346643090248 0.0039105829782783985
v -0.5596629977226257 -0.9230589270591736 0.16400451958179474
v -0.5903889536857605 -1.2722947597503662 0.03978109732270241
v -0.5289368033409119 -0.5884975790977478 0.20795707404613495
v -0.49821075797080994 -0.273899108171463 0.14271384477615356
v -0.4674846827983856 0.024839017540216446 -0.00928572192788124
v 0.5256525874137878 -0.9201678037643433 -0.8093993067741394
v 0.20904292166233063 -0.8518579006195068 -0.3829212188720703
v 0.5210086703300476 -0.6778251528739929 -0.5272829532623291
v 0.21368686854839325 -1.094200611114502 -0.6650375723838806
v 0.16337056457996368 -0.5928162932395935 -0.169336199760437
v 0.47533634305000305 -0.4187834858894348 -0.3136979341506958
v 0.061885327100753784 -0.31105837225914 -0.04897742345929146
v 0.37385109066963196 -0.1370255947113037 -0.19333915412425995
v -0.08394329249858856 -0.011252347379922867 -0.0026870830915868282
v 0.2280224710702896 0.16278047859668732 -0.14704912900924683
v -0.10292284935712814 -1.0258907079696655 -0.23855948448181152
v -0.09827890247106552 -1.2682334184646606 -0.5206757187843323
v -0.1485951840877533 -0.7668490409851074 -0.024974146857857704
v -0.2500804364681244 -0.4850911498069763 0.09538429975509644
v -0.39590907096862793 -0.18528516590595245 0.14167463779449463
v 1.2396785020828247 -0.28333136439323425 -0.15274053812026978
v 0.7722975015640259 -0.4608458876609802 0.039184167981147766
v 0.9519578218460083 -0.12067335844039917 0.0178474560379982
v 1.0600183010101318 -0.6235038638114929 -0.13140416145324707
v 0.4855942130088806 -0.30383095145225525 0.1283729523420334
v 0.6652545928955078 0.03634156286716461 0.10703656822443008
v 0.2002752423286438 -0.15449237823486328 0.1068306714296341
v 0.3799355924129486 0.18568012118339539 0.08549428731203079
v -0.08394397795200348 -0.011252752505242825 -0.002687407424673438
v 0.09571634232997894 0.32891979813575745 -0.02402411960065365
v 0.5926371216773987 -0.8010184168815613 0.06052055582404137
v 0.8803579807281494 -0.9636763334274292 -0.11006776243448257
v 0.3059339225292206 -0.6440034508705139 0.14970967173576355
v 0.020614949986338615 -0.49466490745544434 0.12816739082336426
v -0.2636042833328247 -0.35142531991004944 0.018648982048034668
v -0.558716893196106 -1.1410514116287231 -0.5914688110351562
v -0.6861963272094727 -0.7047203779220581 -0.30835068225860596
v -0.394082635641098 -0.9558923840522766 -0.31406480073928833
v -0.8508304357528687 -0.8898794651031494 -0.5857546925544739
v -0.5056317448616028 -0.49927303194999695 -0.10836322605609894
v -0.21351809799671173 -0.7504450082778931 -0.11407765746116638
v -0.3033962845802307 -0.26622650027275085 -0.013689570128917694
v -0.011282632127404213 -0.517398476600647 -0.01940367929637432
v -0.08394329249858856 -0.011252428404986858 -0.0026870830915868282
v 0.2081703543663025 -0.26242443919181824 -0.00840151496231556
v -0.9783099889755249 -0.4535484313964844 -0.30263641476631165
v -1.1429442167282104 -0.6387073993682861 -0.5800402760505676
v -0.7977453470230103 -0.24810105562210083 -0.10264912247657776
v -0.5955098867416382 -0.015054524876177311 -0.007975137792527676
v -0.3760569393634796 0.23991955816745758 0.003027025144547224
v -1.3746179342269897 -0.3965458571910858 -0.18769021332263947
v -1.0519490242004395 -0.01125324983149767 -0.002687407424673438
v -1.0519490242004395 -0.3965458571910858 -0.002687407424673438
v -1.3746179342269897 -0.01125324983149767 -0.18769021332263947
v -0.7292801737785339 -0.01125324983149767 0.10071451216936111
v -0.7292801737785339 -0.3965458571910858 0.10071451216936111
v -0.40661123394966125 -0.01125324983149767 0.09311071783304214
v -0.40661123394966125 -0.3965458571910858 0.09311071783304214
v -0.08394244313240051 -0.01125324983149767 -0.002687407424673438
v -0.08394244313240051 -0.3965458571910858 -0.002687407424673438
v -1.0519490242004395 0.3740393817424774 -0.002687407424673438
v -1.3746179342269897 0.3740393817424774 -0.18769021332263947
v -0.7292801737785339 0.3740393817424774 0.10071451216936111
v -0.40661123394966125 0.3740393817424774 0.09311071783304214
v -0.08394244313240051 0.3740393817424774 -0.002687407424673438
v -1.2495591640472412 0.3671542704105377 -0.5914688110351562
v -0.825448215007782 0.5307565331459045 -0.30835068225860596
v -1.0512527227401733 0.21861857175827026 -0.31406480073928833
v -1.023754596710205 0.6792922019958496 -0.5857546925544739
v -0.6055896878242493 0.36804696917533875 -0.10836322605609894
v -0.8313941955566406 0.05590907484292984 -0.11407765746116638
v -0.3564126789569855 0.18605610728263855 -0.013689570128917694
v -0.5822171568870544 -0.12608179450035095 -0.01940367929637432
v -0.08394218981266022 -0.011253846809267998 -0.0026870830915868282
v -0.3097466826438904 -0.3233918249607086 -0.00840151496231556
v -0.5996437072753906 0.8428944945335388 -0.30263641476631165
v -0.7979502081871033 0.9914301633834839 -0.5800402760505676
v -0.3797852098941803 0.6801849007606506 -0.10264912247657776
v -0.13060824573040009 0.49819400906562805 -0.007975137792527676
v 0.14186231791973114 0.30088409781455994 0.003027025144547224
vn 0.7850558161735535 -0.09584395587444305 0.6119651198387146
vn 0.7158165574073792 -0.10052015632390976 0.691015362739563
vn 0.7158166170120239 -0.10052008181810379 0.691015362739563
vn 0.7850558161735535 -0.09584404528141022 0.6119651198387146
vn 0.5022194981575012 -0.1073627769947052 0.8580494523048401
vn 0.502219557762146 -0.1073627918958664 0.8580493330955505
vn 0.22520701587200165 -0.10576269775629044 0.9685536026954651
vn 0.2252068817615509 -0.10576281696557999 0.9685536026954651
vn 0.09462970495223999 -0.10201064497232437 0.9902722239494324
vn 0.09462966024875641 -0.1020110473036766 0.9902721047401428
vn 0.7158165574073792 -0.10052027553319931 0.691015362739563
vn 0.7850556969642639 -0.09584402292966843 0.6119651794433594
vn 0.5022194385528564 -0.10736282914876938 0.8580494523048401
vn 0.2252073436975479 -0.10576281696557999 0.9685534834861755
vn 0.09463021904230118 -0.10201070457696915 0.9902721047401428
vn 0.3657086193561554 0.6501782536506653 0.6659770607948303
vn 0.3275758922100067 0.5866438150405884 0.7406370043754578
vn 0.3275757431983948 0.586643636226654 0.7406370639801025
vn 0.3657083511352539 0.6501782536506653 0.6659770607948303
vn 0.21333451569080353 0.3942202925682068 0.8939120173454285
vn 0.21333439648151398 0.39422035217285156 0.893912136554718
vn 0.06986593455076218 0.1496071070432663 0.9862740635871887
vn 0.06986620277166367 0.14960718154907227 0.9862739443778992
vn 0.0035807257518172264 0.0357159748673439 0.9993556141853333
vn 0.0035797927994281054 0.035715654492378235 0.9993556141853333
vn 0.3275754749774933 0.5866436958312988 0.7406371831893921
vn 0.36570802330970764 0.6501784920692444 0.6659771800041199
vn 0.21333499252796173 0.3942204713821411 0.8939118385314941
vn 0.0698656514286995 0.14960703253746033 0.9862740635871887
vn 0.0035803443752229214 0.035715848207473755 0.9993556141853333
vn 0.1560807228088379 0.16241754591464996 0.974299430847168
vn 0.07952853292226791 0.0926133394241333 0.9925210475921631
vn 0.07952852547168732 0.0926133319735527 0.9925210475921631
vn 0.15608073770999908 0.16241756081581116 0.974299430847168
vn -0.12036512047052383 -0.09068367630243301 0.9885791540145874
vn -0.12036512047052383 -0.09068352729082108 0.9885791540145874
vn -0.32951727509498596 -0.2841409742832184 0.9003790020942688
vn -0.32951757311820984 -0.28414082527160645 0.900378942489624
vn -0.4137725532054901 -0.36266574263572693 0.8350244760513306
vn -0.4137725830078125 -0.36266574263572693 0.8350244760513306
vn 0.07952854782342911 0.09261337667703629 0.9925210475921631
vn 0.1560806930065155 0.16241756081581116 0.974299430847168
vn -0.12036546319723129 -0.09068385511636734 0.9885791540145874
vn -0.329517126083374 -0.28414109349250793 0.9003790020942688
vn -0.41377201676368713 -0.36266571283340454 0.8350247144699097
vn 0.02939297817647457 0.4573669731616974 0.8887921571731567
vn 0.06369610875844955 0.36614537239074707 0.9283751845359802
vn 0.0636964812874794 0.36614570021629333 0.9283750057220459
vn 0.02939285896718502 0.4573668837547302 0.8887922763824463
vn 0.14820925891399384 0.1141233742237091 0.9823492169380188
vn 0.14820939302444458 0.11412326991558075 0.9823492169380188
vn 0.2283797562122345 -0.1721297800540924 0.9582348465919495
vn 0.22837930917739868 -0.1721302717924118 0.9582348465919495
vn 0.2577465772628784 -0.29544588923454285 0.9199339151382446
vn 0.2577461898326874 -0.2954460382461548 0.9199340343475342
vn 0.06369598954916 0.3661454916000366 0.9283751249313354
vn 0.02939319983124733 0.45736756920814514 0.8887918591499329
vn 0.14820891618728638 0.11412284523248672 0.9823493361473083
vn 0.22837983071804047 -0.17212994396686554 0.9582348465919495
vn 0.25774693489074707 -0.2954457700252533 0.9199338555335999
vn -0.047364741563797 -0.3310527205467224 0.9424228072166443
vn -0.03842506930232048 -0.2305900752544403 0.9722920060157776
vn -0.03842524439096451 -0.23059017956256866 0.9722919464111328
vn -0.04736451432108879 -0.3310525119304657 0.9424229264259338
vn -0.013597346842288971 0.038169439882040024 0.9991787075996399
vn -0.013597135432064533 0.03816962614655495 0.9991787075996399
vn 0.014802483841776848 0.32986918091773987 0.9439105987548828
vn 0.014801940880715847 0.32986879348754883 0.9439107179641724
vn 0.027102002874016762 0.45109862089157104 0.8920625448226929
vn 0.027101607993245125 0.45109859108924866 0.8920625448226929
vn -0.03842481970787048 -0.23058977723121643 0.9722920060157776
vn -0.04736516252160072 -0.3310529887676239 0.9424226880073547
vn -0.013597550801932812 0.03816923499107361 0.9991787075996399
vn 0.014802510850131512 0.32986894249916077 0.9439107179641724
vn 0.027102366089820862 0.45109859108924866 0.8920625448226929
vn 0.5867313742637634 -0.6094638705253601 0.5331979990005493
vn 0.582173764705658 -0.5376495718955994 0.6099234819412231
vn 0.5821736454963684 -0.5376496315002441 0.6099235415458679
vn 0.5867314338684082 -0.609463632106781 0.5331981182098389
vn 0.540858805179596 -0.3265399932861328 0.7751408815383911
vn 0.5408586859703064 -0.32654011249542236 0.7751408815383911
vn 0.4496310353279114 -0.06716292351484299 0.8906856775283813
vn 0.4496311545372009 -0.06716263294219971 0.8906856775283813
vn 0.3958545923233032 0.05097799748182297 0.916897177696228
vn 0.39585477113723755 0.05097884312272072 0.9168969988822937
vn 0.5821738243103027 -0.5376496315002441 0.6099234223365784
vn 0.586731493473053 -0.6094635128974915 0.5331981778144836
vn 0.5408589839935303 -0.32653969526290894 0.7751408815383911
vn 0.44963109493255615 -0.06716262549161911 0.8906856775283813
vn 0.39585450291633606 0.05097775533795357 0.916897177696228
vn 0.4291492998600006 -0.17102450132369995 0.8868942856788635
vn 0.3455168306827545 -0.1241404116153717 0.93016517162323
vn 0.34551694989204407 -0.12414026260375977 0.93016517162323
vn 0.42914941906929016 -0.17102499306201935 0.886894166469574
vn 0.11396043002605438 0.002126490930095315 0.9934830069541931
vn 0.11396052688360214 0.0021258420310914516 0.9934830069541931
vn -0.14981934428215027 0.14051151275634766 0.9786779880523682
vn -0.149819478392601 0.14051149785518646 0.9786779880523682
vn -0.26370614767074585 0.19848261773586273 0.9439616799354553
vn -0.2637064456939697 0.1984834522008896 0.9439614415168762
vn 0.3455171287059784 -0.12414100766181946 0.9301650524139404
vn 0.429149329662323 -0.17102503776550293 0.886894166469574
vn 0.1139606311917305 0.0021264906972646713 0.9934830069541931
vn -0.14981940388679504 0.140512153506279 0.9786779880523682
vn -0.2637062668800354 0.198482945561409 0.9439615607261658
vn -0.4788198173046112 -0.5720195770263672 0.6659769415855408
vn -0.42967474460601807 -0.516562283039093 0.740636944770813
vn -0.42967450618743896 -0.5165622234344482 0.7406370639801025
vn -0.47881969809532166 -0.5720196962356567 0.6659769415855408
vn -0.28205955028533936 -0.3483729064464569 0.8939120173454285
vn -0.2820594310760498 -0.3483729064464569 0.8939120173454285
vn -0.09613560885190964 -0.1342441290616989 0.9862740635871887
vn -0.09613588452339172 -0.1342441439628601 0.9862739443778992
vn -0.010074609890580177 -0.03445221483707428 0.9993556141853333
vn -0.01007363386452198 -0.03445207327604294 0.9993556141853333
vn -0.42967432737350464 -0.5165623426437378 0.7406371235847473
vn -0.47881919145584106 -0.5720197558403015 0.6659770607948303
vn -0.28206005692481995 -0.3483729362487793 0.8939118981361389
vn -0.09613533318042755 -0.13424408435821533 0.9862740635871887
vn -0.010074209421873093 -0.034452151507139206 0.9993556141853333
vn -0.49739620089530945 0.0 0.8675234913825989
vn -0.4035162925720215 0.0 0.9149724245071411
vn -0.4035162925720215 0.0 0.9149724245071411
vn -0.49739620089530945 0.0 0.8675234913825989
vn -0.14278912544250488 0.0 0.9897531270980835
vn -0.14278915524482727 0.0 0.9897531270980835
vn 0.1554494947195053 0.0 0.9878438711166382
vn 0.15544947981834412 0.0 0.9878438711166382
vn 0.2846142649650574 0.0 0.9586421847343445
vn 0.2846142053604126 0.0 0.9586421847343445
vn -0.4035162925720215 0.0 0.9149724245071411
vn -0.49739620089530945 0.0 0.8675234913825989
vn -0.1427891105413437 0.0 0.9897531270980835
vn 0.1554494947195053 0.0 0.9878438711166382
vn 0.2846142649650574 0.0 0.9586421847343445
vn -0.6101391911506653 0.42919081449508667 0.6659770011901855
vn -0.5507580637931824 0.3848668038845062 0.7406370043754578
vn -0.5507579445838928 0.3848666846752167 0.7406370639801025
vn -0.6101393699645996 0.42919057607650757 0.6659770607948303
vn -0.3707881271839142 0.25186800956726074 0.8939120173454285
vn -0.3707881271839142 0.25186780095100403 0.8939120173454285
vn -0.14182943105697632 0.08454558998346329 0.9862740635871887
vn -0.1418294906616211 0.08454585820436478 0.9862739443778992
vn -0.035175397992134094 0.00715152220800519 0.9993556141853333
vn -0.035175174474716187 0.007150562014430761 0.9993556141853333
vn -0.5507581233978271 0.3848664164543152 0.7406371235847473
vn -0.6101394295692444 0.42919015884399414 0.6659772396087646
vn -0.3707882761955261 0.25186848640441895 0.8939118385314941
vn -0.14182934165000916 0.08454528450965881 0.9862740635871887
vn -0.03517530485987663 0.007151127327233553 0.9993556141853333
vt 0.007441386580467224 0.3545096516609192
vt 0.1921078860759735 0.18921053409576416
vt 0.1921078860759735 0.3545096516609192
vt 0.007441386580467224 0.18921053409576416
vt 0.376774400472641 0.18921053409576416
vt 0.376774400472641 0.3545096516609192
vt 0.5614408850669861 0.18921053409576416
vt 0.5614408850669861 0.3545096516609192
vt 0.7461073994636536 0.18921053409576416
vt 0.7461073994636536 0.3545096516609192
vt 0.1921078860759735 0.02391141653060913
vt 0.007441386580467224 0.02391141653060913
vt 0.376774400472641 0.02391141653060913
vt 0.5614408850669861 0.02391141653060913
vt 0.7461073994636536 0.02391141653060913
vt 0.007441386580467224 0.6925949156284332
vt 0.1921078860759735 0.5272957980632782
vt 0.1921078860759735 0.6925949156284332
vt 0.007441386580467224 0.5272957980632782
vt 0.376774400472641 0.5272957980632782
vt 0.376774400472641 0.6925949156284332
vt 0.5614408850669861 0.5272957980632782
vt 0.5614408850669861 0.6925949156284332
vt 0.7461073994636536 0.5272957980632782
vt 0.7461073994636536 0.6925949156284332
vt 0.1921078860759735 0.3619966506958008
vt 0.007441386580467224 0.3619966506958008
vt 0.376774400472641 0.3619966506958008
vt 0.5614408850669861 0.3619966506958008
vt 0.7461073994636536 0.3619966506958008
vt 0.007441386580467224 0.3545096516609192
vt 0.1921078860759735 0.18921053409576416
vt 0.1921078860759735 0.3545096516609192
vt 0.007441386580467224 0.18921053409576416
vt 0.376774400472641 0.18921053409576416
vt 0.376774400472641 0.3545096516609192
vt 0.5614408850669861 0.18921053409576416
vt 0.5614408850669861 0.3545096516609192
vt 0.7461073994636536 0.18921053409576416
vt 0.7461073994636536 0.3545096516609192
vt 0.1921078860759735 0.02391141653060913
vt 0.007441386580467224 0.02391141653060913
vt 0.376774400472641 0.02391141653060913
vt 0.5614408850669861 0.02391141653060913
vt 0.7461073994636536 0.02391141653060913
vt 0.007441386580467224 0.3545096516609192
vt 0.1921078860759735 0.18921053409576416
vt 0.1921078860759735 0.3545096516609192
vt 0.007441386580467224 0.18921053409576416
vt 0.376774400472641 0.18921053409576416
vt 0.376774400472641 0.3545096516609192
vt 0.5614408850669861 0.18921053409576416
vt 0.5614408850669861 0.3545096516609192
vt 0.7461073994636536 0.18921053409576416
vt 0.7461073994636536 0.3545096516609192
vt 0.1921078860759735 0.02391141653060913
vt 0.007441386580467224 0.02391141653060913
vt 0.376774400472641 0.02391141653060913
vt 0.5614408850669861 0.02391141653060913
vt 0.7461073994636536 0.02391141653060913
vt 0.007441386580467224 0.3545096516609192
vt 0.1921078860759735 0.18921053409576416
vt 0.1921078860759735 0.3545096516609192
vt 0.007441386580467224 0.18921053409576416
vt 0.376774400472641 0.18921053409576416
vt 0.376774400472641 0.3545096516609192
vt 0.5614408850669861 0.18921053409576416
vt 0.5614408850669861 0.3545096516609192
vt 0.7461073994636536 0.18921053409576416
vt 0.7461073994636536 0.3545096516609192
vt 0.1921078860759735 0.02391141653060913
vt 0.007441386580467224 0.02391141653060913
vt 0.376774400472641 0.02391141653060913
vt 0.5614408850669861 0.02391141653060913
vt 0.7461073994636536 0.02391141653060913
vt 0.007441386580467224 0.6925949156284332
vt 0.1921078860759735 0.5272957980632782
vt 0.1921078860759735 0.6925949156284332
vt 0.007441386580467224 0.5272957980632782
vt 0.376774400472641 0.5272957980632782
vt 0.376774400472641 0.6925949156284332
vt 0.5614408850669861 0.5272957980632782
vt 0.5614408850669861 0.6925949156284332
vt 0.7461073994636536 0.5272957980632782
vt 0.7461073994636536 0.6925949156284332
vt 0.1921078860759735 0.3619966506958008
vt 0.007441386580467224 0.3619966506958008
vt 0.376774400472641 0.3619966506958008
vt 0.5614408850669861 0.3619966506958008
vt 0.7461073994636536 0.3619966506958008
vt 0.007441386580467224 0.3545096516609192
vt 0.1921078860759735 0.18921053409576416
vt 0.1921078860759735 0.3545096516609192
vt 0.007441386580467224 0.18921053409576416
vt 0.376774400472641 0.18921053409576416
vt 0.376774400472641 0.3545096516609192
vt 0.5614408850669861 0.18921053409576416
vt 0.5614408850669861 0.3545096516609192
vt 0.7461073994636536 0.18921053409576416
vt 0.7461073994636536 0.3545096516609192
vt 0.1921078860759735 0.02391141653060913
vt 0.007441386580467224 0.02391141653060913
vt 0.376774400472641 0.02391141653060913
vt 0.5614408850669861 0.02391141653060913
vt 0.7461073994636536 0.02391141653060913
vt 0.007441386580467224 0.6925949156284332
vt 0.1921078860759735 0.5272957980632782
vt 0.1921078860759735 0.6925949156284332
vt 0.007441386580467224 0.5272957980632782
vt 0.376774400472641 0.5272957980632782
vt 0.376774400472641 0.6925949156284332
vt 0.5614408850669861 0.5272957980632782
vt 0.5614408850669861 0.6925949156284332
vt 0.7461073994636536 0.5272957980632782
vt 0.7461073994636536 0.6925949156284332
vt 0.1921078860759735 0.3619966506958008
vt 0.007441386580467224 0.3619966506958008
vt 0.376774400472641 0.3619966506958008
vt 0.5614408850669861 0.3619966506958008
vt 0.7461073994636536 0.3619966506958008
vt 0.007441386580467224 0.3545096516609192
vt 0.1921078860759735 0.18921053409576416
vt 0.1921078860759735 0.3545096516609192
vt 0.007441386580467224 0.18921053409576416
vt 0.376774400472641 0.18921053409576416
vt 0.376774400472641 0.3545096516609192
vt 0.5614408850669861 0.18921053409576416
vt 0.5614408850669861 0.3545096516609192
vt 0.7461073994636536 0.18921053409576416
vt 0.7461073994636536 0.3545096516609192
vt 0.1921078860759735 0.02391141653060913
vt 0.007441386580467224 0.02391141653060913
vt 0.376774400472641 0.02391141653060913
vt 0.5614408850669861 0.02391141653060913
vt 0.7461073994636536 0.02391141653060913
vt 0.007441386580467224 0.6925949156284332
vt 0.1921078860759735 0.5272957980632782
vt 0.1921078860759735 0.6925949156284332
vt 0.007441386580467224 0.5272957980632782
vt 0.376774400472641 0.5272957980632782
vt 0.376774400472641 0.6925949156284332
vt 0.5614408850669861 0.5272957980632782
vt 0.5614408850669861 0.6925949156284332
vt 0.7461073994636536 0.5272957980632782
vt 0.7461073994636536 0.6925949156284332
vt 0.1921078860759735 0.3619966506958008
vt 0.007441386580467224 0.3619966506958008
vt 0.376774400472641 0.3619966506958008
vt 0.5614408850669861 0.3619966506958008
vt 0.7461073994636536 0.3619966506958008

g bg_mdl_map_yasinoha
s 1
usemtl bg_mdl_map_yasinoha
f 3/3/3 2/2/2 1/1/1 
f 4/4/4 1/1/1 2/2/2 
f 2/2/2 3/3/3 5/5/5 
f 6/6/6 5/5/5 3/3/3 
f 5/5/5 6/6/6 7/7/7 
f 8/8/8 7/7/7 6/6/6 
f 7/7/7 8/8/8 9/9/9 
f 10/10/10 9/9/9 8/8/8 
f 2/2/2 11/11/11 4/4/4 
f 12/12/12 4/4/4 11/11/11 
f 5/5/5 13/13/13 2/2/2 
f 11/11/11 2/2/2 13/13/13 
f 7/7/7 14/14/14 5/5/5 
f 13/13/13 5/5/5 14/14/14 
f 9/9/9 15/15/15 7/7/7 
f 14/14/14 7/7/7 15/15/15 
f 18/18/18 17/17/17 16/16/16 
f 19/19/19 16/16/16 17/17/17 
f 17/17/17 18/18/18 20/20/20 
f 21/21/21 20/20/20 18/18/18 
f 20/20/20 21/21/21 22/22/22 
f 23/23/23 22/22/22 21/21/21 
f 22/22/22 23/23/23 24/24/24 
f 25/25/25 24/24/24 23/23/23 
f 17/17/17 26/26/26 19/19/19 
f 27/27/27 19/19/19 26/26/26 
f 20/20/20 28/28/28 17/17/17 
f 26/26/26 17/17/17 28/28/28 
f 22/22/22 29/29/29 20/20/20 
f 28/28/28 20/20/20 29/29/29 
f 24/24/24 30/30/30 22/22/22 
f 29/29/29 22/22/22 30/30/30 
f 33/33/33 32/32/32 31/31/31 
f 34/34/34 31/31/31 32/32/32 
f 32/32/32 33/33/33 35/35/35 
f 36/36/36 35/35/35 33/33/33 
f 35/35/35 36/36/36 37/37/37 
f 38/38/38 37/37/37 36/36/36 
f 37/37/37 38/38/38 39/39/39 
f 40/40/40 39/39/39 38/38/38 
f 32/32/32 41/41/41 34/34/34 
f 42/42/42 34/34/34 41/41/41 
f 35/35/35 43/43/43 32/32/32 
f 41/41/41 32/32/32 43/43/43 
f 37/37/37 44/44/44 35/35/35 
f 43/43/43 35/35/35 44/44/44 
f 39/39/39 45/45/45 37/37/37 
f 44/44/44 37/37/37 45/45/45 
f 48/48/48 47/47/47 46/46/46 
f 49/49/49 46/46/46 47/47/47 
f 47/47/47 48/48/48 50/50/50 
f 51/51/51 50/50/50 48/48/48 
f 50/50/50 51/51/51 52/52/52 
f 53/53/53 52/52/52 51/51/51 
f 52/52/52 53/53/53 54/54/54 
f 55/55/55 54/54/54 53/53/53 
f 47/47/47 56/56/56 49/49/49 
f 57/57/57 49/49/49 56/56/56 
f 50/50/50 58/58/58 47/47/47 
f 56/56/56 47/47/47 58/58/58 
f 52/52/52 59/59/59 50/50/50 
f 58/58/58 50/50/50 59/59/59 
f 54/54/54 60/60/60 52/52/52 
f 59/59/59 52/52/52 60/60/60 
f 63/63/63 62/62/62 61/61/61 
f 64/64/64 61/61/61 62/62/62 
f 62/62/62 63/63/63 65/65/65 
f 66/66/66 65/65/65 63/63/63 
f 65/65/65 66/66/66 67/67/67 
f 68/68/68 67/67/67 66/66/66 
f 67/67/67 68/68/68 69/69/69 
f 70/70/70 69/69/69 68/68/68 
f 62/62/62 71/71/71 64/64/64 
f 72/72/72 64/64/64 71/71/71 
f 65/65/65 73/73/73 62/62/62 
f 71/71/71 62/62/62 73/73/73 
f 67/67/67 74/74/74 65/65/65 
f 73/73/73 65/65/65 74/74/74 
f 69/69/69 75/75/75 67/67/67 
f 74/74/74 67/67/67 75/75/75 
f 78/78/78 77/77/77 76/76/76 
f 79/79/79 76/76/76 77/77/77 
f 77/77/77 78/78/78 80/80/80 
f 81/81/81 80/80/80 78/78/78 
f 80/80/80 81/81/81 82/82/82 
f 83/83/83 82/82/82 81/81/81 
f 82/82/82 83/83/83 84/84/84 
f 85/85/85 84/84/84 83/83/83 
f 77/77/77 86/86/86 79/79/79 
f 87/87/87 79/79/79 86/86/86 
f 80/80/80 88/88/88 77/77/77 
f 86/86/86 77/77/77 88/88/88 
f 82/82/82 89/89/89 80/80/80 
f 88/88/88 80/80/80 89/89/89 
f 84/84/84 90/90/90 82/82/82 
f 89/89/89 82/82/82 90/90/90 
f 93/93/93 92/92/92 91/91/91 
f 94/94/94 91/91/91 92/92/92 
f 92/92/92 93/93/93 95/95/95 
f 96/96/96 95/95/95 93/93/93 
f 95/95/95 96/96/96 97/97/97 
f 98/98/98 97/97/97 96/96/96 
f 97/97/97 98/98/98 99/99/99 
f 100/100/100 99/99/99 98/98/98 
f 92/92/92 101/101/101 94/94/94 
f 102/102/102 94/94/94 101/101/101 
f 95/95/95 103/103/103 92/92/92 
f 101/101/101 92/92/92 103/103/103 
f 97/97/97 104/104/104 95/95/95 
f 103/103/103 95/95/95 104/104/104 
f 99/99/99 105/105/105 97/97/97 
f 104/104/104 97/97/97 105/105/105 
f 108/108/108 107/107/107 106/106/106 
f 109/109/109 106/106/106 107/107/107 
f 107/107/107 108/108/108 110/110/110 
f 111/111/111 110/110/110 108/108/108 
f 110/110/110 111/111/111 112/112/112 
f 113/113/113 112/112/112 111/111/111 
f 112/112/112 113/113/113 114/114/114 
f 115/115/115 114/114/114 113/113/113 
f 107/107/107 116/116/116 109/109/109 
f 117/117/117 109/109/109 116/116/116 
f 110/110/110 118/118/118 107/107/107 
f 116/116/116 107/107/107 118/118/118 
f 112/112/112 119/119/119 110/110/110 
f 118/118/118 110/110/110 119/119/119 
f 114/114/114 120/120/120 112/112/112 
f 119/119/119 112/112/112 120/120/120 
f 123/123/123 122/122/122 121/121/121 
f 124/124/124 121/121/121 122/122/122 
f 122/122/122 123/123/123 125/125/125 
f 126/126/126 125/125/125 123/123/123 
f 125/125/125 126/126/126 127/127/127 
f 128/128/128 127/127/127 126/126/126 
f 127/127/127 128/128/128 129/129/129 
f 130/130/130 129/129/129 128/128/128 
f 122/122/122 131/131/131 124/124/124 
f 132/132/132 124/124/124 131/131/131 
f 125/125/125 133/133/133 122/122/122 
f 131/131/131 122/122/122 133/133/133 
f 127/127/127 134/134/134 125/125/125 
f 133/133/133 125/125/125 134/134/134 
f 129/129/129 135/135/135 127/127/127 
f 134/134/134 127/127/127 135/135/135 
f 138/138/138 137/137/137 136/136/136 
f 139/139/139 136/136/136 137/137/137 
f 137/137/137 138/138/138 140/140/140 
f 141/141/141 140/140/140 138/138/138 
f 140/140/140 141/141/141 142/142/142 
f 143/143/143 142/142/142 141/141/141 
f 142/142/142 143/143/143 144/144/144 
f 145/145/145 144/144/144 143/143/143 
f 137/137/137 146/146/146 139/139/139 
f 147/147/147 139/139/139 146/146/146 
f 140/140/140 148/148/148 137/137/137 
f 146/146/146 137/137/137 148/148/148 
f 142/142/142 149/149/149 140/140/140 
f 148/148/148 140/140/140 149/149/149 
f 144/144/144 150/150/150 142/142/142 
f 149/149/149 142/142/142 150/150/150 

