v -3.99999737739563 -4.999999523162842 0.0
v -4.999997615814209 -6.0 0.0
v -4.999997615814209 -4.999999523162842 0.0
v -3.99999737739563 -6.0 0.0
v -2.99999737739563 -4.999999523162842 0.0
v -2.99999737739563 -6.0 0.0
v -1.9999974966049194 -4.999999523162842 0.0
v -1.9999974966049194 -6.0 0.0
v -0.9999975562095642 -4.999999523162842 0.0
v -0.9999975562095642 -6.0 0.0
v 2.441406195430318e-06 -4.999999523162842 0.0
v 2.441406195430318e-06 -6.0 0.0
v 1.000002384185791 -4.999999523162842 0.0
v 1.000002384185791 -6.0 0.0
v 2.000002384185791 -4.999999523162842 0.0
v 2.000002384185791 -6.0 0.0
v 3.000002384185791 -4.999999523162842 0.0
v 3.000002384185791 -6.0 0.0
v 4.000002384185791 -4.999999523162842 0.0
v 4.000002384185791 -6.0 0.0
v 5.000002384185791 -4.999999523162842 0.0
v 5.000002384185791 -6.0 0.0
v -0.9999975562095642 -3.999999523162842 0.0
v 2.441406195430318e-06 -3.999999523162842 0.0
v 1.000002384185791 -3.999999523162842 0.0
v 2.000002384185791 -3.999999523162842 0.0
v 3.000002384185791 -3.999999523162842 0.0
v 4.000002384185791 -3.999999523162842 0.0
v 5.000002384185791 -3.999999523162842 0.0
v 2.441406195430318e-06 -2.999999523162842 0.0
v -0.9999975562095642 -2.999999523162842 0.0
v -1.9999974966049194 -3.999999523162842 0.0
v -2.99999737739563 -3.999999523162842 0.0
v -3.99999737739563 -3.999999523162842 0.25
v -4.999997615814209 -3.999999523162842 0.25
v -3.99999737739563 -2.999999523162842 0.25
v -4.999997615814209 -2.999999523162842 0.25
v -2.99999737739563 -2.999999523162842 0.25
v -1.9999974966049194 -2.999999523162842 0.0
v 5.000002384185791 -2.999999523162842 0.0
v -3.99999737739563 -1.9999996423721313 0.5
v -4.999997615814209 -1.9999996423721313 0.5
v -2.99999737739563 -1.9999996423721313 0.5
v -1.9999974966049194 -1.9999996423721313 0.0
v -0.9999975562095642 -1.9999996423721313 0.0
v 2.441406195430318e-06 -1.9999996423721313 0.0
v -3.99999737739563 -0.9999997615814209 0.5
v -4.999997615814209 -0.9999997615814209 0.5
v -2.99999737739563 -0.9999997615814209 0.5
v -1.9999974966049194 -0.9999997615814209 0.5
v -3.99999737739563 2.288818308215923e-07 1.0
v -4.999997615814209 2.288818308215923e-07 1.0
v -2.99999737739563 2.288818308215923e-07 1.0
v -1.9999974966049194 2.288818308215923e-07 0.5705346465110779
v -3.99999737739563 1.000000238418579 1.0
v -4.999997615814209 1.000000238418579 1.0
v -2.99999737739563 1.000000238418579 1.0
v -1.9999974966049194 1.000000238418579 0.5705346465110779
v -0.9999975562095642 1.000000238418579 0.5
v -0.9999975562095642 2.288818308215923e-07 0.4801867604255676
v 2.441406195430318e-06 1.0506203174591064 0.5
v 2.441406195430318e-06 2.288818308215923e-07 0.4801867604255676
v 0.06637206673622131 1.000000238418579 0.5
v 0.9481542706489563 1.000000238418579 0.5
v 1.000002384185791 2.288818308215923e-07 0.4801867604255676
v 2.441406195430318e-06 -0.9999997615814209 0.11266845464706421
v 1.000002384185791 -0.9999997615814209 0.11266845464706421
v 1.000002384185791 -1.9999996423721313 0.0
v 2.000002384185791 2.288818308215923e-07 0.5
v 2.000002384185791 -0.9999997615814209 0.5
v 2.000002384185791 -1.9999996423721313 0.0
v 3.000002384185791 -0.9999997615814209 0.5
v 3.000002384185791 -1.9999996423721313 0.0
v 2.000002384185791 -2.999999523162842 0.0
v 3.000002384185791 -2.999999523162842 0.0
v 4.000002384185791 -2.999999523162842 0.0
v 4.000002384185791 -1.9999996423721313 0.0
v 5.000002384185791 -1.9999996423721313 0.0
v 4.000002384185791 -0.9999997615814209 0.5
v 5.000002384185791 -0.9999997615814209 0.5
v 3.000002384185791 2.288818308215923e-07 0.5
v 4.000002384185791 2.288818308215923e-07 0.5
v 5.000002384185791 2.288818308215923e-07 0.5
v 3.000002384185791 1.000000238418579 0.5
v 2.000002384185791 1.000000238418579 0.5
v 4.000002384185791 1.000000238418579 0.5
v 5.000002384185791 1.000000238418579 0.5
v 2.000002384185791 2.000000238418579 0.5
v 1.000002384185791 1.095000147819519 0.5
v 1.000002384185791 2.000000238418579 0.5
v 3.000002384185791 2.000000238418579 0.5
v 4.000002384185791 2.000000238418579 0.5
v 5.000002384185791 2.000000238418579 0.5
v 2.000002384185791 3.000000238418579 0.5576891899108887
v 1.000002384185791 3.000000238418579 0.5
v 5.000002384185791 3.000000238418579 0.5576891899108887
v 4.000002384185791 3.000000238418579 0.5576891899108887
v 2.000002384185791 4.0 0.9444628953933716
v 1.000002384185791 4.0 0.5
v 5.000002384185791 4.0 1.0
v 4.000002384185791 4.0 1.0
v 2.000002384185791 5.0 1.0
v 0.9799878001213074 4.374309062957764 0.5
v 0.809814453125 4.712969779968262 0.5
v 3.000002384185791 5.0 1.0
v 3.000002384185791 4.0 0.9444628953933716
v 4.000002384185791 5.0 1.0
v 5.000002384185791 5.0 1.0
v 2.000002384185791 6.0 1.0
v 1.000002384185791 6.0 0.5961462259292603
v 0.4124121069908142 4.925858020782471 0.5
v 2.441406195430318e-06 5.0 0.5
v 2.441406195430318e-06 6.0 0.5
v -0.9999975562095642 5.0 0.5
v -0.9999975562095642 6.0 0.5
v 3.000002384185791 6.0 1.0
v 4.000002384185791 6.0 1.0
v 5.000002384185791 6.0 1.0
v 2.441406195430318e-06 6.999998092651367 0.5
v -0.9999975562095642 6.999998092651367 0.5
v 1.000002384185791 6.999998092651367 0.5961462259292603
v 2.000002384185791 6.999998092651367 1.0
v 3.000002384185791 6.999998092651367 1.0
v 4.000002384185791 6.999998092651367 1.0
v 5.000002384185791 6.999998092651367 1.0
v -1.8383910655975342 5.0 0.5
v -1.9999974966049194 5.89468240737915 0.5684447884559631
v -1.9492992162704468 4.936163425445557 0.5
v -0.9999975562095642 6.999998092651367 0.5
v -1.9999974966049194 6.894680500030518 0.5684447884559631
v -2.99999737739563 6.0 1.0
v -2.99999737739563 6.999998092651367 1.0
v -3.99999737739563 6.0 1.0
v -3.99999737739563 6.999998092651367 1.0
v -4.999997615814209 6.0 1.0
v -4.999997615814209 5.0 1.0
v -3.99999737739563 5.0 1.0
v -4.999997615814209 4.0 1.0
v -3.99999737739563 4.0 1.0
v -4.999997615814209 3.000000238418579 1.0
v -3.99999737739563 3.000000238418579 1.0
v -4.999997615814209 2.000000238418579 1.0
v -3.99999737739563 2.000000238418579 1.0
v -2.99999737739563 2.000000238418579 1.0
v -1.9322338104248047 2.0821683406829834 0.5
v -1.8165844678878784 2.000000238418579 0.5
v -0.9999975562095642 2.000000238418579 0.5
v -0.15999755263328552 2.000000238418579 0.5
v -0.048273924738168716 1.9708852767944336 0.5
v 2.441406195430318e-06 1.8600002527236938 0.5
v -5.948129653930664 2.000000238418579 1.0
v -5.948129653930664 1.000000238418579 1.0
v -4.999997615814209 2.288818308215923e-07 1.0
v -5.948129653930664 2.288818308215923e-07 1.0
v -5.948129653930664 3.000000238418579 1.0
v -5.948129653930664 4.0 1.0
v -5.948129653930664 5.0 1.0
v -5.948129653930664 6.0 1.0
v -4.999997615814209 6.999998092651367 1.0
v -5.948129653930664 6.999998092651367 1.0
v -5.948129653930664 -4.999999523162842 0.0
v -5.948129653930664 -6.0 0.0
v -4.999997615814209 -4.999999523162842 0.0
v -5.948129653930664 -3.999999523162842 0.25
v -4.999997615814209 -4.999999523162842 0.0
v -5.948129653930664 -4.999999523162842 0.0
v -4.999997615814209 -3.999999523162842 0.25
v -5.948129653930664 -2.999999523162842 0.25
v -4.999997615814209 -3.999999523162842 0.25
v -5.948129653930664 -3.999999523162842 0.25
v -4.999997615814209 -2.999999523162842 0.25
v -5.948129653930664 -1.9999996423721313 0.5
v -4.999997615814209 -2.999999523162842 0.25
v -5.948129653930664 -2.999999523162842 0.25
v -4.999997615814209 -1.9999996423721313 0.5
v -5.948129653930664 -0.9999997615814209 0.5
v -4.999997615814209 -1.9999996423721313 0.5
v -5.948129653930664 -1.9999996423721313 0.5
v -4.999997615814209 -0.9999997615814209 0.5
v -5.948129653930664 2.288818308215923e-07 1.0
v -4.999997615814209 -0.9999997615814209 0.5
v -5.948129653930664 -0.9999997615814209 0.5
v -4.999997615814209 2.288818308215923e-07 1.0
v 1.000002384185791 -2.999999523162842 0.0
v -2.99999737739563 3.000000238418579 1.0
v -1.9999974966049194 3.000000238418579 0.5
v -2.99999737739563 4.0 1.0
v -1.9999974966049194 4.0 0.5
v -0.9999975562095642 -0.9999997615814209 0.11266845464706421
v 3.000002384185791 3.000000238418579 0.5576891899108887
v -2.99999737739563 5.0 1.0
v -1.9492992162704468 4.127174377441406 0.5
v 2.441406195430318e-06 1.0506203174591064 0.15847083926200867
v 0.06637206673622131 1.000000238418579 0.5
v 2.441406195430318e-06 1.0506203174591064 0.5
v 0.06637206673622131 1.000000238418579 0.15847083926200867
v 0.9481542706489563 1.000000238418579 0.15847083926200867
v 1.000002384185791 1.095000147819519 0.5
v 0.9481542706489563 1.000000238418579 0.5
v 1.000002384185791 1.095000147819519 0.15847083926200867
v 1.000002384185791 3.000000238418579 0.15847083926200867
v 1.000002384185791 2.000000238418579 0.5
v 1.000002384185791 2.000000238418579 0.15847083926200867
v 1.000002384185791 3.000000238418579 0.5
v 1.000002384185791 1.095000147819519 0.15847083926200867
v 1.000002384185791 1.095000147819519 0.5
v 1.000002384185791 4.0 0.15847083926200867
v 1.000002384185791 3.000000238418579 0.5
v 1.000002384185791 3.000000238418579 0.15847083926200867
v 1.000002384185791 4.0 0.5
v 1.000002384185791 4.0 0.15847083926200867
v 0.9799878001213074 4.374309062957764 0.5
v 1.000002384185791 4.0 0.5
v 0.9799878001213074 4.374309062957764 0.15847083926200867
v 0.809814453125 4.712969779968262 0.15847083926200867
v 0.4124121069908142 4.925858020782471 0.5
v 0.809814453125 4.712969779968262 0.5
v 0.4124121069908142 4.925858020782471 0.15847083926200867
v -0.9999975562095642 5.0 0.15847083926200867
v 2.441406195430318e-06 5.0 0.5
v 2.441406195430318e-06 5.0 0.15847083926200867
v -0.9999975562095642 5.0 0.5
v -0.9999975562095642 5.0 0.15847083926200867
v -1.8383910655975342 5.0 0.5
v -0.9999975562095642 5.0 0.5
v -1.8383910655975342 5.0 0.15847083926200867
v -1.9492992162704468 4.936163425445557 0.15847083926200867
v -1.9492992162704468 4.127174377441406 0.5
v -1.9492992162704468 4.936163425445557 0.5
v -1.9492992162704468 4.127174377441406 0.15847083926200867
v -1.9999974966049194 3.000000238418579 0.15847083926200867
v -1.9999974966049194 4.0 0.5
v -1.9999974966049194 4.0 0.15847083926200867
v -1.9999974966049194 3.000000238418579 0.5
v -1.9322338104248047 2.0821683406829834 0.15847083926200867
v -1.9999974966049194 3.000000238418579 0.5
v -1.9999974966049194 3.000000238418579 0.15847083926200867
v -1.9322338104248047 2.0821683406829834 0.5
v -1.9322338104248047 2.0821683406829834 0.15847083926200867
v -1.8165844678878784 2.000000238418579 0.5
v -1.9322338104248047 2.0821683406829834 0.5
v -1.8165844678878784 2.000000238418579 0.15847083926200867
v -0.9999975562095642 2.000000238418579 0.15847083926200867
v -0.15999755263328552 2.000000238418579 0.5
v -0.9999975562095642 2.000000238418579 0.5
v -0.15999755263328552 2.000000238418579 0.15847083926200867
v -1.8165844678878784 2.000000238418579 0.15847083926200867
v -1.8165844678878784 2.000000238418579 0.5
v -0.048273924738168716 1.9708852767944336 0.15847083926200867
v 2.441406195430318e-06 1.8600002527236938 0.5
v -0.048273924738168716 1.9708852767944336 0.5
v 2.441406195430318e-06 1.8600002527236938 0.15847083926200867
v 2.441406195430318e-06 1.8600002527236938 0.15847083926200867
v 2.441406195430318e-06 1.0506203174591064 0.5
v 2.441406195430318e-06 1.8600002527236938 0.5
v 2.441406195430318e-06 1.0506203174591064 0.15847083926200867
v -0.15999755263328552 2.000000238418579 0.15847083926200867
v -0.048273924738168716 1.9708852767944336 0.5
v -0.15999755263328552 2.000000238418579 0.5
v -0.048273924738168716 1.9708852767944336 0.15847083926200867
v -1.8383910655975342 5.0 0.15847083926200867
v -1.9492992162704468 4.936163425445557 0.5
v -1.8383910655975342 5.0 0.5
v -1.9492992162704468 4.936163425445557 0.15847083926200867
v 0.06637206673622131 1.000000238418579 0.15847083926200867
v 0.9481542706489563 1.000000238418579 0.5
v 0.06637206673622131 1.000000238418579 0.5
v 0.9481542706489563 1.000000238418579 0.15847083926200867
v 0.4124121069908142 4.925858020782471 0.15847083926200867
v 2.441406195430318e-06 5.0 0.5
v 0.4124121069908142 4.925858020782471 0.5
v 2.441406195430318e-06 5.0 0.15847083926200867
v 0.9799878001213074 4.374309062957764 0.15847083926200867
v 0.809814453125 4.712969779968262 0.5
v 0.9799878001213074 4.374309062957764 0.5
v 0.809814453125 4.712969779968262 0.15847083926200867
v -1.9492992162704468 4.127174377441406 0.15847083926200867
v -1.9999974966049194 4.0 0.5
v -1.9492992162704468 4.127174377441406 0.5
v -1.9999974966049194 4.0 0.15847083926200867
vn 0.03073687106370926 -0.0917082354426384 0.995311439037323
vn -0.0 0.0 1.0
vn -0.0 -0.12218328565359116 0.9925076365470886
vn -0.0 0.0 1.0
vn -0.0 0.0 1.0
vn -0.0 0.0 1.0
vn -0.0 0.0 1.0
vn -0.0 0.0 1.0
vn -0.0 0.0 1.0
vn -0.0 0.0 1.0
vn -0.0 0.0 1.0
vn -0.0 0.0 1.0
vn -0.0 0.0 1.0
vn -0.0 0.0 1.0
vn -0.0 0.0 1.0
vn -0.0 0.0 1.0
vn -0.0 0.0 1.0
vn -0.0 0.0 1.0
vn -0.0 0.0 1.0
vn -0.0 0.0 1.0
vn -0.0 0.0 1.0
vn -0.0 0.0 1.0
vn -0.0 0.0 1.0
vn -0.0 0.0 1.0
vn -0.0 0.0 1.0
vn -0.0 0.0 1.0
vn -0.0 0.0 1.0
vn -0.0 0.0 1.0
vn -0.0 0.0 1.0
vn -0.0 0.0 1.0
vn -0.0 0.0 1.0
vn -0.0 0.0 1.0
vn 0.11957315355539322 -0.11957315355539322 0.9855985641479492
vn 0.08890129625797272 -0.15065841376781464 0.984580397605896
vn -0.0 -0.12218328565359116 0.9925076365470886
vn -0.0 -0.12218328565359116 0.9925076365470886
vn -0.0 -0.12218328565359116 0.9925076365470886
vn 0.1800631731748581 -0.18023057281970978 0.9670026898384094
vn 0.0917082354426384 -0.03073687106370926 0.995311439037323
vn -0.0 0.0 1.0
vn -0.0 -0.12218328565359116 0.9925076365470886
vn -0.0 -0.12218328565359116 0.9925076365470886
vn 0.16504809260368347 -0.17526830732822418 0.9705876111984253
vn 0.23170249164104462 -0.1981714963912964 0.9523875713348389
vn -0.0 -0.056068237870931625 0.9984269142150879
vn -0.0 -0.056068237870931625 0.9984269142150879
vn -0.0 -0.22975292801856995 0.9732489585876465
vn -0.0 -0.22975291311740875 0.9732489585876465
vn 0.04996626451611519 -0.18124806880950928 0.9821672439575195
vn 0.19452060759067535 -0.22979329526424408 0.9536020159721375
vn -0.0 -0.22975291311740875 0.9732489585876465
vn -0.0 -0.22975292801856995 0.9732489585876465
vn 0.1918048858642578 -0.220020592212677 0.9564527273178101
vn 0.19343814253807068 -0.08856870979070663 0.977106511592865
vn -0.0 0.0 1.0
vn -0.0 0.0 1.0
vn 0.20559431612491608 0.004249229561537504 0.9786280989646912
vn 0.2326573133468628 0.017407933250069618 0.9724029302597046
vn 0.0379352942109108 -0.007590669672936201 0.9992513060569763
vn 0.08080513030290604 -0.14993910491466522 0.9853876233100891
vn -0.0030679593328386545 -0.011505864560604095 0.9999290704727173
vn -0.00015377768431790173 -0.184688001871109 0.9827972650527954
vn -0.00817352905869484 -0.019266419112682343 0.9997809529304504
vn -0.0 -0.014772890135645866 0.999890923500061
vn -0.007240173406898975 -0.18268096446990967 0.9831455945968628
vn -0.0 -0.23011448979377747 0.9731636047363281
vn -0.09349371492862701 -0.233568474650383 0.9678350687026978
vn -0.0 -0.05606824532151222 0.9984269142150879
vn -0.05475163087248802 -0.04483943060040474 0.997492790222168
vn -0.17522208392620087 -0.22109749913215637 0.9593815803527832
vn -0.04477579519152641 -0.18625998497009277 0.9814795851707458
vn -0.0 -0.22975291311740875 0.9732489585876465
vn -0.0 -0.22975292801856995 0.9732489585876465
vn -0.0 0.0 1.0
vn -0.0 0.0 1.0
vn -0.0 0.0 1.0
vn -0.0 -0.22975292801856995 0.9732489585876465
vn -0.0 -0.22975292801856995 0.9732489585876465
vn -0.0 -0.22975291311740875 0.9732489585876465
vn -0.0 -0.22975289821624756 0.9732489585876465
vn -0.0 0.0 1.0
vn -0.0 0.0 1.0
vn -0.0 0.0 1.0
vn -0.0 0.0 1.0
vn -0.0024765068665146828 -0.0024765068665146828 0.9999939203262329
vn -0.0 0.0 1.0
vn -0.0 0.0 1.0
vn -0.0 -0.028808707371354103 0.999584972858429
vn -0.0 0.0 1.0
vn -0.014414947479963303 -0.014414947479963303 0.9997921586036682
vn -0.0 -0.028808681294322014 0.999584972858429
vn -0.0 -0.028808681294322014 0.999584972858429
vn -0.0 -0.028808685019612312 0.999584972858429
vn -0.021026818081736565 -0.2052203267812729 0.9784899353981018
vn -0.15057019889354706 -0.09304581582546234 0.9842108488082886
vn -0.0 -0.23481987416744232 0.9720388650894165
vn -0.0 -0.23481984436511993 0.9720388650894165
vn -0.16389335691928864 -0.16635282337665558 0.972350537776947
vn -0.4124164879322052 -0.018001588061451912 0.910817563533783
vn -0.0 -0.2067192792892456 0.9784003496170044
vn -0.02102811634540558 -0.20000942051410675 0.979568362236023
vn -0.19924111664295197 -0.030009478330612183 0.9794909358024597
vn -0.3948526084423065 -0.0871744304895401 0.9145994186401367
vn -0.26012659072875977 -0.08856681734323502 0.9615039825439453
vn -0.0 -0.027736501768231392 0.9996153116226196
vn -0.020242799073457718 -0.20441487431526184 0.9786750078201294
vn -0.006938888691365719 -0.006938888691365719 0.9999518394470215
vn -0.0 0.0 1.0
vn -0.19244220852851868 -0.0017713065026327968 0.9813066720962524
vn -0.2378903329372406 -0.011507836170494556 0.9712238311767578
vn -0.024717597290873528 -0.0757041722536087 0.9968239068984985
vn -0.026961645111441612 -0.02361377701163292 0.9993575215339661
vn -0.04790746420621872 0.0 0.9988517761230469
vn -0.0 0.0 1.0
vn 0.027384381741285324 -0.007685537450015545 0.9995954632759094
vn -0.0 0.0 1.0
vn -0.0 0.0 1.0
vn -0.0 0.0 1.0
vn -0.04790746793150902 0.0 0.9988517761230469
vn -0.0 0.0 1.0
vn -0.2375451624393463 0.0 0.9713764786720276
vn -0.19073621928691864 0.0 0.9816412925720215
vn -0.0 0.0 1.0
vn -0.0 0.0 1.0
vn -0.0 0.0 1.0
vn 0.038698405027389526 -0.051117364317178726 0.9979426264762878
vn 0.24524930119514465 -0.02294682338833809 0.9691884517669678
vn 0.3309727609157562 -0.03327706456184387 0.9430533647537231
vn 0.06828507781028748 0.0 0.9976658821105957
vn 0.23522448539733887 0.0 0.9719411134719849
vn 0.20229902863502502 0.0 0.9793238639831543
vn 0.19589096307754517 0.0 0.9806257486343384
vn -0.0 0.0 1.0
vn -0.0 0.0 1.0
vn -0.0 0.0 1.0
vn -0.0 0.0 1.0
vn -0.0 0.0 1.0
vn -0.0 0.0 1.0
vn -0.0 0.0 1.0
vn -0.0 0.0 1.0
vn -0.0 0.0 1.0
vn -0.0 0.0 1.0
vn -0.0 0.0 1.0
vn 0.22035391628742218 0.0033572856336832047 0.9754142165184021
vn 0.32594117522239685 0.03504279628396034 0.9447402954101562
vn 0.023605186492204666 0.06603153049945831 0.9975383281707764
vn 0.017620231956243515 0.017620230093598366 0.9996894598007202
vn -0.0 0.0 1.0
vn -0.0 0.0 1.0
vn -0.0 0.0 1.0
vn -0.0 0.0 1.0
vn -0.0 0.0 1.0
vn -0.0 0.0 1.0
vn -0.0 0.0 1.0
vn -0.0 0.0 1.0
vn -0.0 0.0 1.0
vn -0.0 0.0 1.0
vn -0.0 0.0 1.0
vn -0.0 0.0 1.0
vn -0.0 0.0 1.0
vn -0.0 0.0 1.0
vn -0.0 0.0 1.0
vn -0.0 0.0 1.0
vn -0.0 -0.24253563582897186 0.9701425433158875
vn -0.0 -0.24253563582897186 0.9701425433158875
vn -0.0 -0.24253563582897186 0.9701425433158875
vn -0.0 -0.24253563582897186 0.9701425433158875
vn -0.0 0.0 1.0
vn -0.0 0.0 1.0
vn -0.0 0.0 1.0
vn -0.0 0.0 1.0
vn -0.0 -0.24253563582897186 0.9701425433158875
vn -0.0 -0.24253563582897186 0.9701425433158875
vn -0.0 -0.24253563582897186 0.9701425433158875
vn -0.0 -0.24253563582897186 0.9701425433158875
vn -0.0 0.0 1.0
vn -0.0 0.0 1.0
vn -0.0 0.0 1.0
vn -0.0 0.0 1.0
vn -0.0 -0.4472135901451111 0.8944271802902222
vn -0.0 -0.4472135901451111 0.8944271802902222
vn -0.0 -0.4472135901451111 0.8944271802902222
vn -0.0 -0.4472135901451111 0.8944271802902222
vn -0.0 0.0 1.0
vn 0.22975292801856995 0.0 0.9732489585876465
vn 0.440132200717926 0.008812717162072659 0.8978897929191589
vn 0.22533167898654938 -0.0031706937588751316 0.9742769002914429
vn 0.4451201558113098 -0.09664515405893326 0.8902403116226196
vn 0.12837256491184235 -0.26968148350715637 0.9543544054031372
vn -0.006190224550664425 -0.2178213745355606 0.9759690165519714
vn 0.21494024991989136 -0.005074598360806704 0.9766140580177307
vn 0.43558165431022644 -0.07057981938123703 0.8973779082298279
vn 0.6064432263374329 0.7951268553733826 0.0
vn 0.6064432263374329 0.795126736164093 0.0
vn 0.6064432859420776 0.7951268553733826 0.0
vn 0.6064432859420776 0.7951268553733826 0.0
vn -0.8777791857719421 0.47906559705734253 0.0
vn -0.8777791857719421 0.47906553745269775 0.0
vn -0.8777791857719421 0.479065477848053 0.0
vn -0.8777791857719421 0.479065477848053 0.0
vn -1.0 0.0 0.0
vn -1.0 0.0 0.0
vn -1.0 0.0 0.0
vn -1.0 0.0 0.0
vn -1.0 0.0 0.0
vn -1.0 0.0 0.0
vn -1.0 0.0 0.0
vn -1.0 0.0 0.0
vn -1.0 0.0 0.0
vn -1.0 0.0 0.0
vn -0.9985735416412354 -0.053394634276628494 0.0
vn -0.9985735416412354 -0.053394634276628494 0.0
vn -0.9985735416412354 -0.053394634276628494 0.0
vn -0.9985735416412354 -0.053394682705402374 0.0
vn -0.47221171855926514 -0.8814851641654968 0.0
vn -0.47221171855926514 -0.8814851641654968 0.0
vn -0.47221171855926514 -0.8814851641654968 0.0
vn -0.47221171855926514 -0.8814851641654968 0.0
vn -0.0 -1.0 0.0
vn -0.0 -1.0 0.0
vn -0.0 -1.0 0.0
vn -0.0 -1.0 0.0
vn -0.0 -1.0 0.0
vn -0.0 -1.0 0.0
vn -0.0 -1.0 0.0
vn -0.0 -1.0 0.0
vn 1.0 0.0 0.0
vn 1.0 0.0 0.0
vn 1.0 0.0 0.0
vn 1.0 0.0 0.0
vn 1.0 0.0 0.0
vn 1.0 0.0 0.0
vn 1.0 0.0 0.0
vn 1.0 0.0 0.0
vn 0.9972857236862183 0.07362973690032959 0.0
vn 0.9972857236862183 0.07362973690032959 0.0
vn 0.9972857236862183 0.07362972944974899 0.0
vn 0.9972857236862183 0.07362972944974899 0.0
vn 0.5791884660720825 0.8151937127113342 0.0
vn 0.5791885256767273 0.8151937127113342 0.0
vn 0.5791885256767273 0.8151937127113342 0.0
vn 0.5791885256767273 0.8151937127113342 0.0
vn -0.0 1.0 0.0
vn -0.0 1.0 0.0
vn -0.0 1.0 0.0
vn -0.0 1.0 0.0
vn -0.0 1.0 0.0
vn -0.0 1.0 0.0
vn 0.9168719053268433 0.3991815149784088 0.0
vn 0.9168719053268433 0.3991814851760864 0.0
vn 0.9168719053268433 0.3991814851760864 0.0
vn 0.9168719053268433 0.3991814851760864 0.0
vn 1.0 0.0 0.0
vn 1.0 0.0 0.0
vn 1.0 0.0 0.0
vn 1.0 0.0 0.0
vn 0.25217610597610474 0.967681348323822 0.0
vn 0.25217610597610474 0.967681348323822 0.0
vn 0.25217610597610474 0.967681348323822 0.0
vn 0.25217610597610474 0.967681348323822 0.0
vn 0.49884963035583496 -0.8666885495185852 0.0
vn 0.49884963035583496 -0.8666885495185852 0.0
vn 0.49884963035583496 -0.8666885495185852 0.0
vn 0.49884963035583496 -0.8666885495185852 0.0
vn -0.0 1.0 0.0
vn -0.0 1.0 0.0
vn -0.0 1.0 0.0
vn -0.0 1.0 0.0
vn -0.17694127559661865 -0.984221339225769 0.0
vn -0.17694127559661865 -0.984221339225769 0.0
vn -0.17694126069545746 -0.984221339225769 0.0
vn -0.17694126069545746 -0.984221339225769 0.0
vn -0.8935354948043823 -0.4489924907684326 4.0120036715052265e-07
vn -0.8935354948043823 -0.448992520570755 4.0120036715052265e-07
vn -0.8935354948043823 -0.4489924907684326 4.0120036715052265e-07
vn -0.8935357332229614 -0.44899222254753113 0.0
vn 0.9289076924324036 -0.3703112006187439 0.0
vn 0.9289076924324036 -0.3703112304210663 0.0
vn 0.9289076924324036 -0.3703111708164215 0.0
vn 0.9289076924324036 -0.3703111708164215 0.0
vt 1.0112816095352173 -0.4917689561843872
vt 0.5120482444763184 0.007659792900085449
vt 0.5120482444763184 -0.4917689561843872
vt 1.0112816095352173 0.007659792900085449
vt 1.5105150938034058 -0.4917689561843872
vt 1.5105150938034058 0.007659792900085449
vt 2.009748935699463 -0.4917689561843872
vt 2.009748935699463 0.007659792900085449
vt 2.508981704711914 -0.4917689561843872
vt 2.508981704711914 0.007659792900085449
vt 3.0082151889801025 -0.4917689561843872
vt 3.0082151889801025 0.007659792900085449
vt 3.507448673248291 -0.4917689561843872
vt 3.507448673248291 0.007659792900085449
vt 4.0066819190979 -0.4917689561843872
vt 4.0066819190979 0.007659792900085449
vt 4.505916118621826 -0.4917689561843872
vt 4.505916118621826 0.007659792900085449
vt 5.005150318145752 -0.4917689561843872
vt 5.005150318145752 0.007659792900085449
vt 5.504383087158203 -0.4917689561843872
vt 5.504383087158203 0.007659792900085449
vt 2.508981704711914 -0.9911975860595703
vt 3.0082151889801025 -0.9911975860595703
vt 3.507448673248291 -0.9911975860595703
vt 4.0066819190979 -0.9911975860595703
vt 4.505916118621826 -0.9911975860595703
vt 5.005150318145752 -0.9911975860595703
vt 5.504383087158203 -0.9911975860595703
vt 3.0082151889801025 -1.4906258583068848
vt 2.508981704711914 -1.4906258583068848
vt 2.009748935699463 -0.9911975860595703
vt 1.5105150938034058 -0.9911975860595703
vt 1.0112816095352173 -0.9911975860595703
vt 0.5120482444763184 -0.9911975860595703
vt 1.0112816095352173 -1.4906258583068848
vt 0.5120482444763184 -1.4906258583068848
vt 1.5105150938034058 -1.4906258583068848
vt 2.009748935699463 -1.4906258583068848
vt 5.504383087158203 -1.4906258583068848
vt 1.0112816095352173 -1.9900548458099365
vt 0.5120482444763184 -1.9900548458099365
vt 1.5105150938034058 -1.9900548458099365
vt 2.009748935699463 -1.9900548458099365
vt 2.508981704711914 -1.9900548458099365
vt 3.0082151889801025 -1.9900548458099365
vt 1.0112816095352173 -2.48948335647583
vt 0.5120482444763184 -2.48948335647583
vt 1.5105150938034058 -2.48948335647583
vt 2.009748935699463 -2.48948335647583
vt 1.0112816095352173 -2.9889118671417236
vt 0.5120482444763184 -2.9889118671417236
vt 1.5105150938034058 -2.9889118671417236
vt 2.009748935699463 -2.9889118671417236
vt 1.0112816095352173 -3.488339900970459
vt 0.5120482444763184 -3.488339900970459
vt 1.5105150938034058 -3.488339900970459
vt 2.009748935699463 -3.488339900970459
vt 2.508981704711914 -3.488339900970459
vt 2.508981704711914 -2.9889118671417236
vt 3.0082151889801025 -3.488339900970459
vt 3.0082151889801025 -2.9889118671417236
vt 3.043161392211914 -3.488339900970459
vt 3.507448673248291 -3.488339900970459
vt 3.507448673248291 -2.9889118671417236
vt 3.0082151889801025 -2.48948335647583
vt 3.507448673248291 -2.48948335647583
vt 3.507448673248291 -1.9900548458099365
vt 4.0066819190979 -2.9889118671417236
vt 4.0066819190979 -2.48948335647583
vt 4.0066819190979 -1.9900548458099365
vt 4.505916118621826 -2.48948335647583
vt 4.505916118621826 -1.9900548458099365
vt 4.0066819190979 -1.4906258583068848
vt 4.505916118621826 -1.4906258583068848
vt 5.005150318145752 -1.4906258583068848
vt 5.005150318145752 -1.9900548458099365
vt 5.504383087158203 -1.9900548458099365
vt 5.005150318145752 -2.48948335647583
vt 5.504383087158203 -2.48948335647583
vt 4.505916118621826 -2.9889118671417236
vt 5.005150318145752 -2.9889118671417236
vt 5.504383087158203 -2.9889118671417236
vt 4.505916118621826 -3.488339900970459
vt 4.0066819190979 -3.488339900970459
vt 5.005150318145752 -3.488339900970459
vt 5.504383087158203 -3.488339900970459
vt 4.0066819190979 -3.9877686500549316
vt 3.507448673248291 -3.5357861518859863
vt 3.507448673248291 -3.9877686500549316
vt 4.505916118621826 -3.9877686500549316
vt 5.005150318145752 -3.9877686500549316
vt 5.504383087158203 -3.9877686500549316
vt 4.0066819190979 -4.487197399139404
vt 3.507448673248291 -4.487197399139404
vt 5.504383087158203 -4.487197399139404
vt 5.005150318145752 -4.487197399139404
vt 4.0066819190979 -4.986625671386719
vt 3.507448673248291 -4.986625671386719
vt 5.504383087158203 -4.986625671386719
vt 5.005150318145752 -4.986625671386719
vt 4.0066819190979 -5.486054420471191
vt 3.507448673248291 -5.248826026916504
vt 3.507448673248291 -5.486054420471191
vt 4.505916118621826 -5.486054420471191
vt 4.505916118621826 -4.986625671386719
vt 5.005150318145752 -5.486054420471191
vt 5.504383087158203 -5.486054420471191
vt 4.0066819190979 -5.985483169555664
vt 3.507448673248291 -5.985483169555664
vt 3.2453510761260986 -5.486054420471191
vt 3.0082151889801025 -5.486054420471191
vt 3.0082151889801025 -5.985483169555664
vt 2.508981704711914 -5.486054420471191
vt 2.508981704711914 -5.985483169555664
vt 4.505916118621826 -5.985483169555664
vt 5.005150318145752 -5.985483169555664
vt 5.504383087158203 -5.985483169555664
vt 3.0082151889801025 -6.486845970153809
vt 2.508981704711914 -6.486845970153809
vt 3.507448673248291 -6.486845970153809
vt 4.0066819190979 -6.486845970153809
vt 4.505916118621826 -6.486845970153809
vt 5.005150318145752 -6.486845970153809
vt 5.504383087158203 -6.486845970153809
vt 2.049687147140503 -5.486054420471191
vt 2.009748935699463 -5.985483169555664
vt 2.009748935699463 -5.486054420471191
vt 2.508981704711914 -6.486845970153809
vt 2.009748935699463 -6.486845970153809
vt 1.5105150938034058 -5.985483169555664
vt 1.5105150938034058 -6.486845970153809
vt 1.0112816095352173 -5.985483169555664
vt 1.0112816095352173 -6.486845970153809
vt 0.5120482444763184 -5.985483169555664
vt 0.5120482444763184 -5.486054420471191
vt 1.0112816095352173 -5.486054420471191
vt 0.5120482444763184 -4.986625671386719
vt 1.0112816095352173 -4.986625671386719
vt 0.5120482444763184 -4.487197399139404
vt 1.0112816095352173 -4.487197399139404
vt 0.5120482444763184 -3.9877686500549316
vt 1.0112816095352173 -3.9877686500549316
vt 1.5105150938034058 -3.9877686500549316
vt 2.009748935699463 -3.9877686500549316
vt 2.057175874710083 -3.9877686500549316
vt 2.508981704711914 -3.9877686500549316
vt 2.928337812423706 -3.9877686500549316
vt 3.0082151889801025 -3.9877686500549316
vt 3.0082151889801025 -3.9178481101989746
vt 0.0086709288880229 -3.9877686500549316
vt 0.0086709288880229 -3.488339900970459
vt 0.5120482444763184 -2.9889118671417236
vt 0.0086709288880229 -2.9889118671417236
vt 0.0086709288880229 -4.487197399139404
vt 0.0086709288880229 -4.986625671386719
vt 0.0086709288880229 -5.486054420471191
vt 0.0086709288880229 -5.985483169555664
vt 0.5120482444763184 -6.486845970153809
vt 0.0086709288880229 -6.486845970153809
vt 0.0086709288880229 -0.4917689561843872
vt 0.0086709288880229 0.007659792900085449
vt 0.5120482444763184 -0.4917689561843872
vt 0.0086709288880229 -0.9911975860595703
vt 0.5120482444763184 -0.4917689561843872
vt 0.0086709288880229 -0.4917689561843872
vt 0.5120482444763184 -0.9911975860595703
vt 0.0086709288880229 -1.4906258583068848
vt 0.5120482444763184 -0.9911975860595703
vt 0.0086709288880229 -0.9911975860595703
vt 0.5120482444763184 -1.4906258583068848
vt 0.0086709288880229 -1.9900548458099365
vt 0.5120482444763184 -1.4906258583068848
vt 0.0086709288880229 -1.4906258583068848
vt 0.5120482444763184 -1.9900548458099365
vt 0.0086709288880229 -2.48948335647583
vt 0.5120482444763184 -1.9900548458099365
vt 0.0086709288880229 -1.9900548458099365
vt 0.5120482444763184 -2.48948335647583
vt 0.0086709288880229 -2.9889118671417236
vt 0.5120482444763184 -2.48948335647583
vt 0.0086709288880229 -2.48948335647583
vt 0.5120482444763184 -2.9889118671417236
vt 3.507448673248291 -1.4906258583068848
vt 1.5105150938034058 -4.487197399139404
vt 2.009748935699463 -4.487197399139404
vt 1.5105150938034058 -4.986625671386719
vt 2.009748935699463 -4.986625671386719
vt 2.508981704711914 -2.48948335647583
vt 4.505916118621826 -4.487197399139404
vt 1.5105150938034058 -5.486054420471191
vt 2.009748935699463 -5.054048538208008
vt 0.7518461346626282 0.8790256828069687
vt 0.7343497276306152 0.7572473287582397
vt 0.7518461346626282 0.7572473287582397
vt 0.7343497276306152 0.8790256828069687
vt 0.5018974542617798 0.8790256828069687
vt 0.478152334690094 0.7572473287582397
vt 0.5018974542617798 0.7572473287582397
vt 0.478152334690094 0.8790256828069687
vt 0.0020000003278255463 0.8790256828069687
vt 0.2519487142562866 0.7572473287582397
vt 0.2519487142562866 0.8790256828069687
vt 0.0020000003278255463 0.7572473287582397
vt 0.478152334690094 0.8790256828069687
vt 0.478152334690094 0.7572473287582397
vt 0.7520768642425537 0.8790256828069687
vt 1.0021024942398071 0.7572473287582397
vt 1.0021024942398071 0.8790256828069687
vt 0.7520768642425537 0.7572473287582397
vt 0.7520768642425537 0.8790256828069687
vt 0.6208134293556213 0.7572473287582397
vt 0.7520768642425537 0.7572473287582397
vt 0.6208134293556213 0.8790256828069687
vt 0.5020512938499451 0.8790256828069687
vt 0.3707878291606903 0.7572473287582397
vt 0.5020512938499451 0.7572473287582397
vt 0.3707878291606903 0.8790256828069687
vt 0.0020000000949949026 0.8790256828069687
vt 0.25202563405036926 0.7572473287582397
vt 0.25202563405036926 0.8790256828069687
vt 0.0020000000949949026 0.7572473287582397
vt 1.0000512599945068 0.8790256828069687
vt 0.7704994678497314 0.7572473287582397
vt 1.0000512599945068 0.7572473287582397
vt 0.7704994678497314 0.8790256828069687
vt 0.7505384683609009 0.8790256828069687
vt 0.5347099304199219 0.7572473287582397
vt 0.7505384683609009 0.7572473287582397
vt 0.5347099304199219 0.8790256828069687
vt 0.2515128254890442 0.8790256828069687
vt 0.5010256767272949 0.7572473287582397
vt 0.5010256767272949 0.8790256828069687
vt 0.2515128254890442 0.7572473287582397
vt 0.0020000000949949026 0.8790256828069687
vt 0.2515128254890442 0.7572473287582397
vt 0.2515128254890442 0.8790256828069687
vt 0.0020000000949949026 0.7572473287582397
vt 0.7538974285125732 0.8790256828069687
vt 0.7300873398780823 0.7572473287582397
vt 0.7538974285125732 0.7572473287582397
vt 0.7300873398780823 0.8790256828069687
vt 0.5032649636268616 0.8790256828069687
vt 0.29273366928100586 0.7572473287582397
vt 0.5032649636268616 0.7572473287582397
vt 0.29273366928100586 0.8790256828069687
vt 0.7300873398780823 0.8790256828069687
vt 0.7300873398780823 0.7572473287582397
vt 0.2526324689388275 0.8790256828069687
vt 0.21754392981529236 0.7572473287582397
vt 0.2526324689388275 0.7572473287582397
vt 0.21754392981529236 0.8790256828069687
vt 0.21754392981529236 0.8790256828069687
vt 0.0020000003278255463 0.7572473287582397
vt 0.21754392981529236 0.7572473287582397
vt 0.0020000003278255463 0.8790256828069687
vt 0.29273366928100586 0.8790256828069687
vt 0.2526324689388275 0.7572473287582397
vt 0.29273366928100586 0.7572473287582397
vt 0.2526324689388275 0.8790256828069687
vt 0.7704994678497314 0.8790256828069687
vt 0.7505384683609009 0.7572473287582397
vt 0.7704994678497314 0.7572473287582397
vt 0.7505384683609009 0.8790256828069687
vt 0.7343497276306152 0.8790256828069687
vt 0.5018974542617798 0.7572473287582397
vt 0.7343497276306152 0.7572473287582397
vt 0.5018974542617798 0.8790256828069687
vt 0.3707878291606903 0.8790256828069687
vt 0.25202563405036926 0.7572473287582397
vt 0.3707878291606903 0.7572473287582397
vt 0.25202563405036926 0.8790256828069687
vt 0.6208134293556213 0.8790256828069687
vt 0.5020512938499451 0.7572473287582397
vt 0.6208134293556213 0.7572473287582397
vt 0.5020512938499451 0.8790256828069687
vt 0.5347099304199219 0.8790256828069687
vt 0.5010256767272949 0.7572473287582397
vt 0.5347099304199219 0.7572473287582397
vt 0.5010256767272949 0.8790256828069687

g bg_mdl_map_ground01
s 1
usemtl bg_mdl_map_ground01_0
f 3/3/3 2/2/2 1/1/1 
f 4/4/4 1/1/1 2/2/2 
f 1/1/1 4/4/4 5/5/5 
f 6/6/6 5/5/5 4/4/4 
f 5/5/5 6/6/6 7/7/7 
f 8/8/8 7/7/7 6/6/6 
f 7/7/7 8/8/8 9/9/9 
f 10/10/10 9/9/9 8/8/8 
f 9/9/9 10/10/10 11/11/11 
f 12/12/12 11/11/11 10/10/10 
f 11/11/11 12/12/12 13/13/13 
f 14/14/14 13/13/13 12/12/12 
f 13/13/13 14/14/14 15/15/15 
f 16/16/16 15/15/15 14/14/14 
f 15/15/15 16/16/16 17/17/17 
f 18/18/18 17/17/17 16/16/16 
f 17/17/17 18/18/18 19/19/19 
f 20/20/20 19/19/19 18/18/18 
f 19/19/19 20/20/20 21/21/21 
f 22/22/22 21/21/21 20/20/20 
f 9/9/9 23/23/23 7/7/7 
f 23/23/23 9/9/9 24/24/24 
f 11/11/11 24/24/24 9/9/9 
f 24/24/24 11/11/11 25/25/25 
f 13/13/13 25/25/25 11/11/11 
f 25/25/25 13/13/13 26/26/26 
f 15/15/15 26/26/26 13/13/13 
f 26/26/26 15/15/15 27/27/27 
f 17/17/17 27/27/27 15/15/15 
f 27/27/27 17/17/17 28/28/28 
f 19/19/19 28/28/28 17/17/17 
f 28/28/28 19/19/19 29/29/29 
f 21/21/21 29/29/29 19/19/19 
f 24/24/24 30/30/30 23/23/23 
f 31/31/31 23/23/23 30/30/30 
f 23/23/23 31/31/31 32/32/32 
f 32/32/32 7/7/7 23/23/23 
f 7/7/7 32/32/32 5/5/5 
f 33/33/33 5/5/5 32/32/32 
f 5/5/5 33/33/33 1/1/1 
f 34/34/34 1/1/1 33/33/33 
f 1/1/1 34/34/34 3/3/3 
f 35/35/35 3/3/3 34/34/34 
f 34/34/34 36/36/36 35/35/35 
f 37/37/37 35/35/35 36/36/36 
f 36/36/36 34/34/34 38/38/38 
f 33/33/33 38/38/38 34/34/34 
f 38/38/38 33/33/33 39/39/39 
f 32/32/32 39/39/39 33/33/33 
f 39/39/39 32/32/32 31/31/31 
f 29/29/29 40/40/40 28/28/28 
f 36/36/36 41/41/41 37/37/37 
f 42/42/42 37/37/37 41/41/41 
f 41/41/41 36/36/36 43/43/43 
f 38/38/38 43/43/43 36/36/36 
f 43/43/43 38/38/38 44/44/44 
f 39/39/39 44/44/44 38/38/38 
f 44/44/44 39/39/39 45/45/45 
f 31/31/31 45/45/45 39/39/39 
f 45/45/45 31/31/31 46/46/46 
f 30/30/30 46/46/46 31/31/31 
f 41/41/41 47/47/47 42/42/42 
f 48/48/48 42/42/42 47/47/47 
f 47/47/47 41/41/41 49/49/49 
f 43/43/43 49/49/49 41/41/41 
f 49/49/49 43/43/43 50/50/50 
f 44/44/44 50/50/50 43/43/43 
f 47/47/47 51/51/51 48/48/48 
f 52/52/52 48/48/48 51/51/51 
f 51/51/51 47/47/47 53/53/53 
f 49/49/49 53/53/53 47/47/47 
f 53/53/53 49/49/49 54/54/54 
f 50/50/50 54/54/54 49/49/49 
f 51/51/51 55/55/55 52/52/52 
f 56/56/56 52/52/52 55/55/55 
f 55/55/55 51/51/51 57/57/57 
f 53/53/53 57/57/57 51/51/51 
f 57/57/57 53/53/53 58/58/58 
f 54/54/54 58/58/58 53/53/53 
f 58/58/58 54/54/54 59/59/59 
f 60/60/60 59/59/59 54/54/54 
f 59/59/59 60/60/60 61/61/61 
f 62/62/62 61/61/61 60/60/60 
f 63/63/63 61/61/61 62/62/62 
f 64/64/64 63/63/63 62/62/62 
f 65/65/65 64/64/64 62/62/62 
f 62/62/62 66/66/66 65/65/65 
f 67/67/67 65/65/65 66/66/66 
f 66/66/66 46/46/46 67/67/67 
f 68/68/68 67/67/67 46/46/46 
f 65/65/65 67/67/67 69/69/69 
f 70/70/70 69/69/69 67/67/67 
f 71/71/71 70/70/70 67/67/67 
f 68/68/68 71/71/71 67/67/67 
f 70/70/70 71/71/71 72/72/72 
f 73/73/73 72/72/72 71/71/71 
f 71/71/71 74/74/74 73/73/73 
f 75/75/75 73/73/73 74/74/74 
f 74/74/74 26/26/26 75/75/75 
f 27/27/27 75/75/75 26/26/26 
f 75/75/75 27/27/27 76/76/76 
f 28/28/28 76/76/76 27/27/27 
f 76/76/76 28/28/28 40/40/40 
f 73/73/73 75/75/75 77/77/77 
f 76/76/76 77/77/77 75/75/75 
f 77/77/77 76/76/76 78/78/78 
f 40/40/40 78/78/78 76/76/76 
f 72/72/72 73/73/73 79/79/79 
f 77/77/77 79/79/79 73/73/73 
f 79/79/79 77/77/77 80/80/80 
f 78/78/78 80/80/80 77/77/77 
f 69/69/69 70/70/70 81/81/81 
f 72/72/72 81/81/81 70/70/70 
f 81/81/81 72/72/72 82/82/82 
f 79/79/79 82/82/82 72/72/72 
f 82/82/82 79/79/79 83/83/83 
f 80/80/80 83/83/83 79/79/79 
f 81/81/81 84/84/84 69/69/69 
f 85/85/85 69/69/69 84/84/84 
f 69/69/69 85/85/85 65/65/65 
f 64/64/64 65/65/65 85/85/85 
f 84/84/84 81/81/81 86/86/86 
f 82/82/82 86/86/86 81/81/81 
f 86/86/86 82/82/82 87/87/87 
f 83/83/83 87/87/87 82/82/82 
f 85/85/85 88/88/88 64/64/64 
f 88/88/88 89/89/89 64/64/64 
f 90/90/90 89/89/89 88/88/88 
f 88/88/88 85/85/85 91/91/91 
f 84/84/84 91/91/91 85/85/85 
f 91/91/91 84/84/84 92/92/92 
f 86/86/86 92/92/92 84/84/84 
f 92/92/92 86/86/86 93/93/93 
f 87/87/87 93/93/93 86/86/86 
f 88/88/88 94/94/94 90/90/90 
f 95/95/95 90/90/90 94/94/94 
f 93/93/93 96/96/96 92/92/92 
f 97/97/97 92/92/92 96/96/96 
f 94/94/94 98/98/98 95/95/95 
f 99/99/99 95/95/95 98/98/98 
f 96/96/96 100/100/100 97/97/97 
f 101/101/101 97/97/97 100/100/100 
f 98/98/98 102/102/102 99/99/99 
f 102/102/102 103/103/103 99/99/99 
f 104/104/104 103/103/103 102/102/102 
f 102/102/102 98/98/98 105/105/105 
f 106/106/106 105/105/105 98/98/98 
f 105/105/105 106/106/106 107/107/107 
f 101/101/101 107/107/107 106/106/106 
f 107/107/107 101/101/101 108/108/108 
f 100/100/100 108/108/108 101/101/101 
f 102/102/102 109/109/109 104/104/104 
f 110/110/110 104/104/104 109/109/109 
f 104/104/104 110/110/110 111/111/111 
f 110/110/110 112/112/112 111/111/111 
f 113/113/113 112/112/112 110/110/110 
f 112/112/112 113/113/113 114/114/114 
f 115/115/115 114/114/114 113/113/113 
f 109/109/109 102/102/102 116/116/116 
f 105/105/105 116/116/116 102/102/102 
f 116/116/116 105/105/105 117/117/117 
f 107/107/107 117/117/117 105/105/105 
f 117/117/117 107/107/107 118/118/118 
f 108/108/108 118/118/118 107/107/107 
f 113/113/113 119/119/119 115/115/115 
f 120/120/120 115/115/115 119/119/119 
f 119/119/119 113/113/113 121/121/121 
f 110/110/110 121/121/121 113/113/113 
f 121/121/121 110/110/110 122/122/122 
f 109/109/109 122/122/122 110/110/110 
f 122/122/122 109/109/109 123/123/123 
f 116/116/116 123/123/123 109/109/109 
f 123/123/123 116/116/116 124/124/124 
f 117/117/117 124/124/124 116/116/116 
f 124/124/124 117/117/117 125/125/125 
f 118/118/118 125/125/125 117/117/117 
f 114/114/114 115/115/115 126/126/126 
f 127/127/127 126/126/126 115/115/115 
f 127/127/127 128/128/128 126/126/126 
f 115/115/115 129/129/129 127/127/127 
f 130/130/130 127/127/127 129/129/129 
f 127/127/127 130/130/130 131/131/131 
f 132/132/132 131/131/131 130/130/130 
f 131/131/131 132/132/132 133/133/133 
f 134/134/134 133/133/133 132/132/132 
f 133/133/133 134/134/134 135/135/135 
f 135/135/135 136/136/136 133/133/133 
f 137/137/137 133/133/133 136/136/136 
f 136/136/136 138/138/138 137/137/137 
f 139/139/139 137/137/137 138/138/138 
f 138/138/138 140/140/140 139/139/139 
f 141/141/141 139/139/139 140/140/140 
f 140/140/140 142/142/142 141/141/141 
f 143/143/143 141/141/141 142/142/142 
f 142/142/142 56/56/56 143/143/143 
f 55/55/55 143/143/143 56/56/56 
f 143/143/143 55/55/55 144/144/144 
f 57/57/57 144/144/144 55/55/55 
f 144/144/144 57/57/57 145/145/145 
f 58/58/58 145/145/145 57/57/57 
f 146/146/146 145/145/145 58/58/58 
f 147/147/147 146/146/146 58/58/58 
f 59/59/59 147/147/147 58/58/58 
f 148/148/148 147/147/147 59/59/59 
f 149/149/149 148/148/148 59/59/59 
f 150/150/150 149/149/149 59/59/59 
f 61/61/61 150/150/150 59/59/59 
f 142/142/142 151/151/151 56/56/56 
f 152/152/152 56/56/56 151/151/151 
f 56/56/56 152/152/152 153/153/153 
f 154/154/154 153/153/153 152/152/152 
f 151/151/151 142/142/142 155/155/155 
f 140/140/140 155/155/155 142/142/142 
f 155/155/155 140/140/140 156/156/156 
f 138/138/138 156/156/156 140/140/140 
f 156/156/156 138/138/138 157/157/157 
f 136/136/136 157/157/157 138/138/138 
f 157/157/157 136/136/136 158/158/158 
f 135/135/135 158/158/158 136/136/136 
f 135/135/135 159/159/159 158/158/158 
f 159/159/159 135/135/135 134/134/134 
f 160/160/160 158/158/158 159/159/159 
f 162/162/162 2/2/2 161/161/161 
f 163/163/163 161/161/161 2/2/2 
f 166/166/166 165/165/165 164/164/164 
f 167/167/167 164/164/164 165/165/165 
f 170/170/170 169/169/169 168/168/168 
f 171/171/171 168/168/168 169/169/169 
f 174/174/174 173/173/173 172/172/172 
f 175/175/175 172/172/172 173/173/173 
f 178/178/178 177/177/177 176/176/176 
f 179/179/179 176/176/176 177/177/177 
f 182/182/182 181/181/181 180/180/180 
f 183/183/183 180/180/180 181/181/181 

usemtl bg_mdl_map_ground01_1
f 30/30/30 24/24/24 184/184/184 
f 25/25/25 184/184/184 24/24/24 
f 184/184/184 25/25/25 74/74/74 
f 26/26/26 74/74/74 25/25/25 
f 184/184/184 68/68/68 30/30/30 
f 46/46/46 30/30/30 68/68/68 
f 68/68/68 184/184/184 71/71/71 
f 74/74/74 71/71/71 184/184/184 
f 141/141/141 143/143/143 185/185/185 
f 144/144/144 185/185/185 143/143/143 
f 185/185/185 144/144/144 186/186/186 
f 145/145/145 186/186/186 144/144/144 
f 185/185/185 187/187/187 141/141/141 
f 139/139/139 141/141/141 187/187/187 
f 187/187/187 185/185/185 188/188/188 
f 186/186/186 188/188/188 185/185/185 

usemtl bg_mdl_map_ground01_2
f 50/50/50 44/44/44 189/189/189 
f 45/45/45 189/189/189 44/44/44 
f 189/189/189 45/45/45 66/66/66 
f 46/46/46 66/66/66 45/45/45 
f 189/189/189 60/60/60 50/50/50 
f 54/54/54 50/50/50 60/60/60 
f 60/60/60 189/189/189 62/62/62 
f 66/66/66 62/62/62 189/189/189 
f 94/94/94 88/88/88 190/190/190 
f 91/91/91 190/190/190 88/88/88 
f 190/190/190 91/91/91 97/97/97 
f 92/92/92 97/97/97 91/91/91 
f 190/190/190 106/106/106 94/94/94 
f 98/98/98 94/94/94 106/106/106 
f 106/106/106 190/190/190 101/101/101 
f 97/97/97 101/101/101 190/190/190 
f 137/137/137 139/139/139 191/191/191 
f 187/187/187 191/191/191 139/139/139 
f 128/128/128 191/191/191 187/187/187 
f 192/192/192 128/128/128 187/187/187 
f 188/188/188 192/192/192 187/187/187 
f 191/191/191 131/131/131 137/137/137 
f 133/133/133 137/137/137 131/131/131 
f 131/131/131 191/191/191 127/127/127 
f 128/128/128 127/127/127 191/191/191 

usemtl bg_mdl_map_ground01_3
f 195/195/195 194/194/194 193/193/193 
f 196/196/196 193/193/193 194/194/194 
f 199/199/199 198/198/198 197/197/197 
f 200/200/200 197/197/197 198/198/198 
f 203/203/203 202/202/202 201/201/201 
f 204/204/204 201/201/201 202/202/202 
f 203/203/203 205/205/205 202/202/202 
f 206/206/206 202/202/202 205/205/205 
f 209/209/209 208/208/208 207/207/207 
f 210/210/210 207/207/207 208/208/208 
f 213/213/213 212/212/212 211/211/211 
f 214/214/214 211/211/211 212/212/212 
f 217/217/217 216/216/216 215/215/215 
f 218/218/218 215/215/215 216/216/216 
f 221/221/221 220/220/220 219/219/219 
f 222/222/222 219/219/219 220/220/220 
f 225/225/225 224/224/224 223/223/223 
f 226/226/226 223/223/223 224/224/224 
f 229/229/229 228/228/228 227/227/227 
f 230/230/230 227/227/227 228/228/228 
f 233/233/233 232/232/232 231/231/231 
f 234/234/234 231/231/231 232/232/232 
f 237/237/237 236/236/236 235/235/235 
f 238/238/238 235/235/235 236/236/236 
f 241/241/241 240/240/240 239/239/239 
f 242/242/242 239/239/239 240/240/240 
f 245/245/245 244/244/244 243/243/243 
f 246/246/246 243/243/243 244/244/244 
f 243/243/243 247/247/247 245/245/245 
f 248/248/248 245/245/245 247/247/247 
f 251/251/251 250/250/250 249/249/249 
f 252/252/252 249/249/249 250/250/250 
f 255/255/255 254/254/254 253/253/253 
f 256/256/256 253/253/253 254/254/254 
f 259/259/259 258/258/258 257/257/257 
f 260/260/260 257/257/257 258/258/258 
f 263/263/263 262/262/262 261/261/261 
f 264/264/264 261/261/261 262/262/262 
f 267/267/267 266/266/266 265/265/265 
f 268/268/268 265/265/265 266/266/266 
f 271/271/271 270/270/270 269/269/269 
f 272/272/272 269/269/269 270/270/270 
f 275/275/275 274/274/274 273/273/273 
f 276/276/276 273/273/273 274/274/274 
f 279/279/279 278/278/278 277/277/277 
f 280/280/280 277/277/277 278/278/278 

