v 8.917562013266433e-07 2.098142147064209 -0.8073556423187256
v -7.765516443214437e-07 2.098142147064209 0.767054557800293
v 7.311896865758172e-07 0.2614758312702179 -0.8073556423187256
v -1.143402641901048e-06 -2.0981431007385254 0.7670542597770691
v -3.092486622335855e-07 -2.0981431007385254 -0.029945677146315575
vn -1.0 0.0 -1.059639885170327e-06
vn -1.0 0.0 -1.0596399988571648e-06
vn -1.0 0.0 -1.0583938774288981e-06
vn -1.0 0.0 -1.0514954738027882e-06
vn -1.0 0.0 -1.0466172852829914e-06
vt 0.5643453001976013 0.15768671035766602
vt 0.5643452405929565 0.003935754299163818
vt 0.3849833607673645 0.1576867699623108
vt 0.154551699757576 0.003935694694519043
vt 0.15455172955989838 0.081767737865448

g bg_mdl_top_town15
s 1
usemtl bg_mdl_top_town15
f 3/3/3 2/2/2 1/1/1 
f 2/2/2 3/3/3 4/4/4 
f 5/5/5 4/4/4 3/3/3 

