v -0.039085257798433304 4.399975939151091e-09 0.0487293042242527
v 3.4425054473707917e-10 0.005070640239864588 0.0487293042242527
v -0.0 0.0 0.26005250215530396
v -0.014546630904078484 1.6375697464710015e-09 0.01740288734436035
v -0.04363777115941048 0.005070644896477461 0.0193368811160326
v -0.06627731770277023 7.46109041216414e-09 0.03377198055386543
v 3.4425054473707917e-10 0.005070640239864588 -0.010821599513292313
v -0.012279944494366646 1.3824000832940442e-09 0.003290643682703376
v -0.014546630904078484 1.6375697464710015e-09 -0.010821599513292313
v -0.014546630904078484 0.005070642102509737 -0.020444650202989578
v 3.4425054473707917e-10 0.005070640239864588 -0.022054051980376244
v -0.026004666462540627 2.927444286981995e-09 -0.007649049628525972
v -0.039085257798433304 4.399975939151091e-09 0.0487293042242527
v -0.0 0.0 0.26005250215530396
v -3.4425054473707917e-10 -0.005070640239864588 0.0487293042242527
v -0.014546630904078484 1.6375697464710015e-09 0.01740288734436035
v -0.04363777115941048 -0.005070635583251715 0.0193368811160326
v -0.06627731770277023 7.46109041216414e-09 0.03377198055386543
v -3.4425054473707917e-10 -0.005070640239864588 -0.010821599513292313
v -0.012279944494366646 1.3824000832940442e-09 0.003290643682703376
v -0.014546630904078484 1.6375697464710015e-09 -0.010821599513292313
v -0.014546630904078484 -0.0050706383772194386 -0.020444650202989578
v -3.4425054473707917e-10 -0.005070640239864588 -0.022054051980376244
v -0.026004666462540627 2.927444286981995e-09 -0.007649049628525972
v -0.04363777115941048 -0.005070635583251715 0.0193368811160326
v -0.04363777115941048 0.005070644896477461 0.0193368811160326
v -0.06627731770277023 7.46109041216414e-09 0.03377198055386543
v -0.014546630904078484 1.6375697464710015e-09 0.01740288734436035
v -0.014546630904078484 -0.0050706383772194386 -0.020444650202989578
v -0.014546630904078484 0.005070642102509737 -0.020444650202989578
v -0.026004666462540627 2.927444286981995e-09 -0.007649049628525972
v 3.4425054473707917e-10 0.005070640239864588 -0.022054051980376244
v -3.4425054473707917e-10 -0.005070640239864588 -0.022054051980376244
v 0.014546630904078484 -0.005070642102509737 -0.020444650202989578
v 0.014546630904078484 0.0050706383772194386 -0.020444650202989578
v 0.026004666462540627 -2.927444286981995e-09 -0.007649049628525972
v 0.039085257798433304 -4.399975939151091e-09 0.0487293042242527
v -0.0 0.0 0.26005250215530396
v 3.4425054473707917e-10 0.005070640239864588 0.0487293042242527
v 0.014546630904078484 -1.6375697464710015e-09 0.01740288734436035
v 0.04363777115941048 0.005070635583251715 0.0193368811160326
v 0.06627731770277023 -7.46109041216414e-09 0.03377198055386543
v 3.4425054473707917e-10 0.005070640239864588 -0.010821599513292313
v 0.012279944494366646 -1.3824000832940442e-09 0.003290643682703376
v 0.014546630904078484 -1.6375697464710015e-09 -0.010821599513292313
v 0.014546630904078484 0.0050706383772194386 -0.020444650202989578
v 3.4425054473707917e-10 0.005070640239864588 -0.022054051980376244
v 0.026004666462540627 -2.927444286981995e-09 -0.007649049628525972
v 0.039085257798433304 -4.399975939151091e-09 0.0487293042242527
v -3.4425054473707917e-10 -0.005070640239864588 0.0487293042242527
v -0.0 0.0 0.26005250215530396
v 0.014546630904078484 -1.6375697464710015e-09 0.01740288734436035
v 0.04363777115941048 -0.005070644896477461 0.0193368811160326
v 0.06627731770277023 -7.46109041216414e-09 0.03377198055386543
v -3.4425054473707917e-10 -0.005070640239864588 -0.010821599513292313
v 0.012279944494366646 -1.3824000832940442e-09 0.003290643682703376
v 0.014546630904078484 -1.6375697464710015e-09 -0.010821599513292313
v 0.014546630904078484 -0.005070642102509737 -0.020444650202989578
v -3.4425054473707917e-10 -0.005070640239864588 -0.022054051980376244
v 0.026004666462540627 -2.927444286981995e-09 -0.007649049628525972
v 0.04363777115941048 -0.005070644896477461 0.0193368811160326
v 0.06627731770277023 -7.46109041216414e-09 0.03377198055386543
v 0.04363777115941048 0.005070635583251715 0.0193368811160326
v 0.014546630904078484 -1.6375697464710015e-09 0.01740288734436035
vn -0.060036301612854004 0.9965623021125793 0.05708935484290123
vn 1.0107574865969582e-07 0.9997031092643738 -0.024363281205296516
vn 1.0692820495705746e-07 0.9997121691703796 0.02398780919611454
vn -0.19770295917987823 0.980254590511322 -0.003794842166826129
vn 0.05672641843557358 0.9852914810180664 0.16119161248207092
vn -0.10140946507453918 0.9776131510734558 0.18436022102832794
vn -0.0 0.9944207072257996 0.10548654198646545
vn -0.4198663830757141 0.9067234396934509 -0.03955917805433273
vn -0.146645188331604 0.9265146255493164 0.34650522470474243
vn -0.09456868469715118 0.936353862285614 0.3380802571773529
vn 1.2292464646179724e-07 1.0 0.0
vn 0.12801316380500793 0.8774166107177734 0.4623340666294098
vn -0.060036517679691315 -0.9965623021125793 0.05708935856819153
vn -1.0692820495705746e-07 -0.9997121691703796 0.02398780919611454
vn -1.0588887278117909e-07 -0.9997031092643738 -0.024363279342651367
vn -0.19770322740077972 -0.980254590511322 -0.0037948302924633026
vn 0.05672622099518776 -0.985291600227356 0.16119162738323212
vn -0.1014096811413765 -0.9776131510734558 0.18436022102832794
vn -0.0 -0.9944207072257996 0.10548654943704605
vn -0.41986650228500366 -0.9067233204841614 -0.03955916687846184
vn -0.14664536714553833 -0.9265146255493164 0.34650519490242004
vn -0.09456892311573029 -0.936353862285614 0.3380802571773529
vn -1.2292464646179724e-07 -1.0 0.0
vn 0.12801295518875122 -0.8774166107177734 0.4623340368270874
vn -0.31045132875442505 0.0 -0.9505892395973206
vn -0.3104513883590698 0.0 -0.9505892395973206
vn -0.5376206636428833 0.0 -0.8431867957115173
vn -0.06633410602807999 0.0 -0.9977974891662598
vn -0.42314550280570984 0.0 -0.9060617685317993
vn -0.42314550280570984 0.0 -0.9060617685317993
vn -0.7449710369110107 0.0 -0.6670968532562256
vn -0.0 0.0 -1.0
vn -0.0 0.0 -1.0
vn 0.4231455326080322 0.0 -0.9060617685317993
vn 0.42314544320106506 0.0 -0.9060617685317993
vn 0.744970977306366 0.0 -0.6670969128608704
vn 0.060036517679691315 0.9965623021125793 0.05708935856819153
vn 1.0692820495705746e-07 0.9997121691703796 0.02398780919611454
vn 1.0107574865969582e-07 0.9997031092643738 -0.024363281205296516
vn 0.19770322740077972 0.980254590511322 -0.0037948302924633026
vn -0.05672622099518776 0.985291600227356 0.16119162738323212
vn 0.1014096811413765 0.9776131510734558 0.18436022102832794
vn -0.0 0.9944207072257996 0.10548654198646545
vn 0.41986650228500366 0.9067233204841614 -0.03955916687846184
vn 0.14664536714553833 0.9265146255493164 0.34650519490242004
vn 0.09456892311573029 0.936353862285614 0.3380802571773529
vn 1.2292464646179724e-07 1.0 0.0
vn -0.12801295518875122 0.8774166107177734 0.4623340368270874
vn 0.060036301612854004 -0.9965623021125793 0.05708935484290123
vn -1.0588887278117909e-07 -0.9997031092643738 -0.024363279342651367
vn -1.0692820495705746e-07 -0.9997121691703796 0.02398780919611454
vn 0.19770295917987823 -0.980254590511322 -0.003794841468334198
vn -0.05672641843557358 -0.9852914810180664 0.16119161248207092
vn 0.10140946507453918 -0.9776131510734558 0.18436022102832794
vn -0.0 -0.9944207072257996 0.10548654943704605
vn 0.4198663830757141 -0.9067234396934509 -0.039559170603752136
vn 0.146645188331604 -0.9265146255493164 0.34650522470474243
vn 0.09456868469715118 -0.936353862285614 0.3380802571773529
vn -1.2292464646179724e-07 -1.0 0.0
vn -0.12801316380500793 -0.8774166107177734 0.4623340666294098
vn 0.3104513883590698 0.0 -0.9505892395973206
vn 0.5376206636428833 0.0 -0.8431867957115173
vn 0.31045132875442505 0.0 -0.9505892395973206
vn 0.06633410602807999 0.0 -0.9977974891662598
vt 0.9071702361106873 0.3200554847717285
vt 0.9746419191360474 0.3200554847717285
vt 0.9746419191360474 0.013964414596557617
vt 0.9495307207107544 0.3654300570487976
vt 0.8993113040924072 0.3626287579536438
vt 0.8602294325828552 0.3417202830314636
vt 0.9746419191360474 0.40631186962127686
vt 0.9534435272216797 0.3858709931373596
vt 0.9495307207107544 0.40631186962127686
vt 0.9495307207107544 0.4202503561973572
vt 0.9746419191360474 0.4225814938545227
vt 0.9297508001327515 0.40171658992767334
vt 0.9071702361106873 0.3200554847717285
vt 0.9746419191360474 0.013964414596557617
vt 0.9746419191360474 0.3200554847717285
vt 0.9495307207107544 0.3654300570487976
vt 0.8993113040924072 0.3626287579536438
vt 0.8602294325828552 0.3417202830314636
vt 0.9746419191360474 0.40631186962127686
vt 0.9534435272216797 0.3858709931373596
vt 0.9495307207107544 0.40631186962127686
vt 0.9495307207107544 0.4202503561973572
vt 0.9746419191360474 0.4225814938545227
vt 0.9297508001327515 0.40171658992767334
vt 0.8993113040924072 0.3626287579536438
vt 0.8993113040924072 0.3626287579536438
vt 0.8602294325828552 0.3417202830314636
vt 0.9495307207107544 0.3654300570487976
vt 0.9495307207107544 0.4202503561973572
vt 0.9495307207107544 0.4202503561973572
vt 0.9297508001327515 0.40171658992767334
vt 0.9746419191360474 0.4225814938545227
vt 0.9746419191360474 0.4225814938545227
vt 0.9495306015014648 0.4202503561973572
vt 0.9495306015014648 0.4202503561973572
vt 0.9297508001327515 0.40171658992767334
vt 0.9071702361106873 0.3200554847717285
vt 0.9746419191360474 0.013964414596557617
vt 0.9746419191360474 0.3200554847717285
vt 0.9495306015014648 0.3654300570487976
vt 0.8993113040924072 0.3626287579536438
vt 0.8602294325828552 0.3417202830314636
vt 0.9746419191360474 0.40631186962127686
vt 0.9534435272216797 0.3858709931373596
vt 0.9495306015014648 0.40631186962127686
vt 0.9495306015014648 0.4202503561973572
vt 0.9746419191360474 0.4225814938545227
vt 0.9297508001327515 0.40171658992767334
vt 0.9071702361106873 0.3200554847717285
vt 0.9746419191360474 0.3200554847717285
vt 0.9746419191360474 0.013964414596557617
vt 0.9495306015014648 0.3654300570487976
vt 0.8993113040924072 0.3626287579536438
vt 0.8602294325828552 0.3417202830314636
vt 0.9746419191360474 0.40631186962127686
vt 0.9534435272216797 0.3858709931373596
vt 0.9495306015014648 0.40631186962127686
vt 0.9495306015014648 0.4202503561973572
vt 0.9746419191360474 0.4225814938545227
vt 0.9297508001327515 0.40171658992767334
vt 0.8993113040924072 0.3626287579536438
vt 0.8602294325828552 0.3417202830314636
vt 0.8993113040924072 0.3626287579536438
vt 0.9495306015014648 0.3654300570487976

g eff_mdl_pok_arte_hane_006
s 1
usemtl eff_mdl_pok_arte_hane_006
f 3/3/3 2/2/2 1/1/1 
f 1/1/1 2/2/2 4/4/4 
f 1/1/1 4/4/4 5/5/5 
f 6/6/6 1/1/1 5/5/5 
f 2/2/2 7/7/7 4/4/4 
f 7/7/7 8/8/8 4/4/4 
f 7/7/7 9/9/9 8/8/8 
f 9/9/9 7/7/7 10/10/10 
f 11/11/11 10/10/10 7/7/7 
f 12/12/12 9/9/9 10/10/10 
f 15/15/15 14/14/14 13/13/13 
f 15/15/15 13/13/13 16/16/16 
f 16/16/16 13/13/13 17/17/17 
f 13/13/13 18/18/18 17/17/17 
f 15/15/15 16/16/16 19/19/19 
f 20/20/20 19/19/19 16/16/16 
f 21/21/21 19/19/19 20/20/20 
f 21/21/21 22/22/22 19/19/19 
f 23/23/23 19/19/19 22/22/22 
f 21/21/21 24/24/24 22/22/22 
f 27/27/27 26/26/26 25/25/25 
f 26/26/26 28/28/28 25/25/25 
f 31/31/31 30/30/30 29/29/29 
f 30/30/30 32/32/32 29/29/29 
f 33/33/33 29/29/29 32/32/32 
f 33/33/33 32/32/32 34/34/34 
f 35/35/35 34/34/34 32/32/32 
f 35/35/35 36/36/36 34/34/34 
f 39/39/39 38/38/38 37/37/37 
f 39/39/39 37/37/37 40/40/40 
f 40/40/40 37/37/37 41/41/41 
f 37/37/37 42/42/42 41/41/41 
f 43/43/43 39/39/39 40/40/40 
f 44/44/44 43/43/43 40/40/40 
f 45/45/45 43/43/43 44/44/44 
f 45/45/45 46/46/46 43/43/43 
f 47/47/47 43/43/43 46/46/46 
f 45/45/45 48/48/48 46/46/46 
f 51/51/51 50/50/50 49/49/49 
f 49/49/49 50/50/50 52/52/52 
f 49/49/49 52/52/52 53/53/53 
f 54/54/54 49/49/49 53/53/53 
f 50/50/50 55/55/55 52/52/52 
f 56/56/56 52/52/52 55/55/55 
f 55/55/55 57/57/57 56/56/56 
f 57/57/57 55/55/55 58/58/58 
f 59/59/59 58/58/58 55/55/55 
f 60/60/60 57/57/57 58/58/58 
f 63/63/63 62/62/62 61/61/61 
f 63/63/63 61/61/61 64/64/64 

