v -0.2332051396369934 0.23320521414279938 0.937037467956543
v 6.421480946983138e-08 0.3298019468784332 0.0
v 6.421480946983138e-08 0.3298019468784332 0.937037467956543
v -0.2332051396369934 0.23320521414279938 0.0
v -0.3298019468784332 4.9798707379977714e-08 0.937037467956543
v -0.2332051396369934 0.23320521414279938 0.0
v -0.2332051396369934 0.23320521414279938 0.937037467956543
v -0.3298019468784332 4.9798707379977714e-08 0.0
v -0.23320521414279938 -0.2332051396369934 0.937037467956543
v -0.3298019468784332 4.9798707379977714e-08 0.0
v -0.3298019468784332 4.9798707379977714e-08 0.937037467956543
v -0.23320521414279938 -0.2332051396369934 0.0
v -3.538260529012405e-08 -0.3298019468784332 0.937037467956543
v -0.23320521414279938 -0.2332051396369934 0.0
v -0.23320521414279938 -0.2332051396369934 0.937037467956543
v -3.538260529012405e-08 -0.3298019468784332 0.0
v 0.233205184340477 -0.233205184340477 0.937037467956543
v -3.538260529012405e-08 -0.3298019468784332 0.0
v -3.538260529012405e-08 -0.3298019468784332 0.937037467956543
v 0.233205184340477 -0.233205184340477 0.0
v 0.3298019468784332 -6.028195542739923e-08 0.937037467956543
v 0.233205184340477 -0.233205184340477 0.0
v 0.233205184340477 -0.233205184340477 0.937037467956543
v 0.3298019468784332 -6.028195542739923e-08 0.0
v 0.23320525884628296 0.23320512473583221 0.937037467956543
v 0.3298019468784332 -6.028195542739923e-08 0.0
v 0.3298019468784332 -6.028195542739923e-08 0.937037467956543
v 0.23320525884628296 0.23320512473583221 0.0
v 6.421480946983138e-08 0.3298019468784332 0.937037467956543
v 0.23320525884628296 0.23320512473583221 0.0
v 0.23320525884628296 0.23320512473583221 0.937037467956543
v 6.421480946983138e-08 0.3298019468784332 0.0
v 5.871121899758691e-08 0.30716219544410706 0.41736215353012085
v -0.30716219544410706 4.6486047011740084e-08 0.41736215353012085
v -0.21719641983509064 0.2171964943408966 0.41736215353012085
v -3.353056499122431e-08 -0.30716219544410706 0.41736215353012085
v -0.2171964943408966 -0.21719641983509064 0.41736215353012085
v 0.30716219544410706 -5.514352707791659e-08 0.41736215353012085
v 0.21719643473625183 -0.21719646453857422 0.41736215353012085
v 0.217196524143219 0.21719640493392944 0.41736215353012085
v 6.421480946983138e-08 0.3298019468784332 0.937037467956543
v -0.21719641983509064 0.2171964943408966 0.937037467956543
v -0.2332051396369934 0.23320521414279938 0.937037467956543
v 5.871121899758691e-08 0.30716219544410706 0.937037467956543
v -0.30716219544410706 4.6486047011740084e-08 0.937037467956543
v -0.3298019468784332 4.9798707379977714e-08 0.937037467956543
v -0.2171964943408966 -0.21719641983509064 0.937037467956543
v -0.23320521414279938 -0.2332051396369934 0.937037467956543
v 0.23320525884628296 0.23320512473583221 0.937037467956543
v 0.217196524143219 0.21719640493392944 0.937037467956543
v 0.3298019468784332 -6.028195542739923e-08 0.937037467956543
v 0.30716219544410706 -5.514352707791659e-08 0.937037467956543
v -0.23320521414279938 -0.2332051396369934 0.937037467956543
v -3.353056499122431e-08 -0.30716219544410706 0.937037467956543
v -3.538260529012405e-08 -0.3298019468784332 0.937037467956543
v -0.2171964943408966 -0.21719641983509064 0.937037467956543
v 0.21719643473625183 -0.21719646453857422 0.937037467956543
v 0.233205184340477 -0.233205184340477 0.937037467956543
v 0.30716219544410706 -5.514352707791659e-08 0.937037467956543
v 0.3298019468784332 -6.028195542739923e-08 0.937037467956543
v 5.871121899758691e-08 0.30716219544410706 0.937037467956543
v -0.21719641983509064 0.2171964943408966 0.41736215353012085
v -0.21719641983509064 0.2171964943408966 0.937037467956543
v 5.871121899758691e-08 0.30716219544410706 0.41736215353012085
v -0.21719641983509064 0.2171964943408966 0.937037467956543
v -0.30716219544410706 4.6486047011740084e-08 0.41736215353012085
v -0.30716219544410706 4.6486047011740084e-08 0.937037467956543
v -0.21719641983509064 0.2171964943408966 0.41736215353012085
v -0.30716219544410706 4.6486047011740084e-08 0.937037467956543
v -0.2171964943408966 -0.21719641983509064 0.41736215353012085
v -0.2171964943408966 -0.21719641983509064 0.937037467956543
v -0.30716219544410706 4.6486047011740084e-08 0.41736215353012085
v -0.2171964943408966 -0.21719641983509064 0.937037467956543
v -3.353056499122431e-08 -0.30716219544410706 0.41736215353012085
v -3.353056499122431e-08 -0.30716219544410706 0.937037467956543
v -0.2171964943408966 -0.21719641983509064 0.41736215353012085
v -3.353056499122431e-08 -0.30716219544410706 0.937037467956543
v 0.21719643473625183 -0.21719646453857422 0.41736215353012085
v 0.21719643473625183 -0.21719646453857422 0.937037467956543
v -3.353056499122431e-08 -0.30716219544410706 0.41736215353012085
v 0.21719643473625183 -0.21719646453857422 0.937037467956543
v 0.30716219544410706 -5.514352707791659e-08 0.41736215353012085
v 0.30716219544410706 -5.514352707791659e-08 0.937037467956543
v 0.21719643473625183 -0.21719646453857422 0.41736215353012085
v 0.30716219544410706 -5.514352707791659e-08 0.937037467956543
v 0.217196524143219 0.21719640493392944 0.41736215353012085
v 0.217196524143219 0.21719640493392944 0.937037467956543
v 0.30716219544410706 -5.514352707791659e-08 0.41736215353012085
v 0.217196524143219 0.21719640493392944 0.937037467956543
v 5.871121899758691e-08 0.30716219544410706 0.41736215353012085
v 5.871121899758691e-08 0.30716219544410706 0.937037467956543
v 0.217196524143219 0.21719640493392944 0.41736215353012085
v 0.26540207862854004 -0.055720534175634384 1.4190425872802734
v 0.22669574618339539 -0.07206432521343231 1.4132397174835205
v 0.26206380128860474 -0.07867155224084854 1.4285410642623901
v 0.22669574618339539 -0.07206432521343231 1.4132397174835205
v 0.26540207862854004 -0.055720534175634384 1.4190425872802734
v 0.2283647358417511 -0.06059085577726364 1.408491611480713
v 0.25461235642433167 -0.035337965935468674 1.4502668380737305
v 0.26206380128860474 -0.07867155224084854 1.4285410642623901
v 0.24960492551326752 -0.0697665736079216 1.4645161628723145
v 0.26206380128860474 -0.07867155224084854 1.4285410642623901
v 0.25461235642433167 -0.035337965935468674 1.4502668380737305
v 0.26540207862854004 -0.055720534175634384 1.4190425872802734
v 0.21757490932941437 -0.04020821303129196 1.4397157430648804
v 0.24960492551326752 -0.0697665736079216 1.4645161628723145
v 0.21423667669296265 -0.06315913051366806 1.449213981628418
v 0.24960492551326752 -0.0697665736079216 1.4645161628723145
v 0.21757490932941437 -0.04020821303129196 1.4397157430648804
v 0.25461235642433167 -0.035337965935468674 1.4502668380737305
v 0.2283647358417511 -0.06059085577726364 1.408491611480713
v 0.21423667669296265 -0.06315913051366806 1.449213981628418
v 0.22669574618339539 -0.07206432521343231 1.4132397174835205
v 0.21423667669296265 -0.06315913051366806 1.449213981628418
v 0.2283647358417511 -0.06059085577726364 1.408491611480713
v 0.21757490932941437 -0.04020821303129196 1.4397157430648804
v 0.2641376554965973 -0.037474989891052246 1.4024266004562378
v 0.2283647358417511 -0.06059085577726364 1.408491611480713
v 0.26540207862854004 -0.055720534175634384 1.4190425872802734
v 0.2283647358417511 -0.06059085577726364 1.408491611480713
v 0.2641376554965973 -0.037474989891052246 1.4024266004562378
v 0.22777146100997925 -0.05203191563487053 1.400696873664856
v 0.25267666578292847 -0.0074057974852621555 1.424829125404358
v 0.26540207862854004 -0.055720534175634384 1.4190425872802734
v 0.25461235642433167 -0.035337965935468674 1.4502668380737305
v 0.26540207862854004 -0.055720534175634384 1.4190425872802734
v 0.25267666578292847 -0.0074057974852621555 1.424829125404358
v 0.2641376554965973 -0.037474989891052246 1.4024266004562378
v 0.2163105309009552 -0.021962575614452362 1.4230996370315552
v 0.25461235642433167 -0.035337965935468674 1.4502668380737305
v 0.21757490932941437 -0.04020821303129196 1.4397157430648804
v 0.25461235642433167 -0.035337965935468674 1.4502668380737305
v 0.2163105309009552 -0.021962575614452362 1.4230996370315552
v 0.25267666578292847 -0.0074057974852621555 1.424829125404358
v 0.22777146100997925 -0.05203191563487053 1.400696873664856
v 0.21757490932941437 -0.04020821303129196 1.4397157430648804
v 0.2283647358417511 -0.06059085577726364 1.408491611480713
v 0.21757490932941437 -0.04020821303129196 1.4397157430648804
v 0.22777146100997925 -0.05203191563487053 1.400696873664856
v 0.2163105309009552 -0.021962575614452362 1.4230996370315552
v 0.2553665339946747 -0.028265485540032387 1.375223994255066
v 0.22777146100997925 -0.05203191563487053 1.400696873664856
v 0.2641376554965973 -0.037474989891052246 1.4024266004562378
v 0.22777146100997925 -0.05203191563487053 1.400696873664856
v 0.2553665339946747 -0.028265485540032387 1.375223994255066
v 0.22170020639896393 -0.04565725103020668 1.381867527961731
v 0.24120570719242096 0.004638346377760172 1.3892536163330078
v 0.2641376554965973 -0.037474989891052246 1.4024266004562378
v 0.25267666578292847 -0.0074057974852621555 1.424829125404358
v 0.2641376554965973 -0.037474989891052246 1.4024266004562378
v 0.24120570719242096 0.004638346377760172 1.3892536163330078
v 0.2553665339946747 -0.028265485540032387 1.375223994255066
v 0.207539364695549 -0.012753219343721867 1.3958970308303833
v 0.25267666578292847 -0.0074057974852621555 1.424829125404358
v 0.2163105309009552 -0.021962575614452362 1.4230996370315552
v 0.25267666578292847 -0.0074057974852621555 1.424829125404358
v 0.207539364695549 -0.012753219343721867 1.3958970308303833
v 0.24120570719242096 0.004638346377760172 1.3892536163330078
v 0.22170020639896393 -0.04565725103020668 1.381867527961731
v 0.2163105309009552 -0.021962575614452362 1.4230996370315552
v 0.22777146100997925 -0.05203191563487053 1.400696873664856
v 0.2163105309009552 -0.021962575614452362 1.4230996370315552
v 0.22170020639896393 -0.04565725103020668 1.381867527961731
v 0.207539364695549 -0.012753219343721867 1.3958970308303833
v 0.2553665339946747 -0.028265485540032387 1.375223994255066
v -0.05102114379405975 0.12163630872964859 0.625395655632019
v 0.22170020639896393 -0.04565725103020668 1.381867527961731
v -0.01757187955081463 0.13916045427322388 0.6181505918502808
v 0.24120570719242096 0.004638346377760172 1.3892536163330078
v -0.01757187955081463 0.13916045427322388 0.6181505918502808
v 0.2553665339946747 -0.028265485540032387 1.375223994255066
v -0.03194968029856682 0.17219671607017517 0.6315786838531494
v 0.207539364695549 -0.012753219343721867 1.3958970308303833
v -0.03194968029856682 0.17219671607017517 0.6315786838531494
v 0.24120570719242096 0.004638346377760172 1.3892536163330078
v -0.06539905071258545 0.154672771692276 0.6388236284255981
v 0.22170020639896393 -0.04565725103020668 1.381867527961731
v -0.06539905071258545 0.154672771692276 0.6388236284255981
v 0.207539364695549 -0.012753219343721867 1.3958970308303833
v -0.05102114379405975 0.12163630872964859 0.625395655632019
v 0.15522754192352295 -0.40520742535591125 1.4662814140319824
v 0.22669574618339539 -0.07206432521343231 1.4132397174835205
v 0.12206261605024338 -0.39246585965156555 1.4515241384506226
v 0.22669574618339539 -0.07206432521343231 1.4132397174835205
v 0.15522754192352295 -0.40520742535591125 1.4662814140319824
v 0.26206380128860474 -0.07867155224084854 1.4285410642623901
v 0.24960492551326752 -0.0697665736079216 1.4645161628723145
v 0.15522754192352295 -0.40520742535591125 1.4662814140319824
v 0.13945823907852173 -0.4057977497577667 1.5013668537139893
v 0.15522754192352295 -0.40520742535591125 1.4662814140319824
v 0.24960492551326752 -0.0697665736079216 1.4645161628723145
v 0.26206380128860474 -0.07867155224084854 1.4285410642623901
v 0.21423667669296265 -0.06315913051366806 1.449213981628418
v 0.13945823907852173 -0.4057977497577667 1.5013668537139893
v 0.10629350692033768 -0.39305636286735535 1.4866101741790771
v 0.13945823907852173 -0.4057977497577667 1.5013668537139893
v 0.21423667669296265 -0.06315913051366806 1.449213981628418
v 0.24960492551326752 -0.0697665736079216 1.4645161628723145
v 0.22669574618339539 -0.07206432521343231 1.4132397174835205
v 0.10629350692033768 -0.39305636286735535 1.4866101741790771
v 0.12206261605024338 -0.39246585965156555 1.4515241384506226
v 0.10629350692033768 -0.39305636286735535 1.4866101741790771
v 0.22669574618339539 -0.07206432521343231 1.4132397174835205
v 0.21423667669296265 -0.06315913051366806 1.449213981628418
v 0.12206261605024338 -0.39246585965156555 1.4515241384506226
v 0.13945823907852173 -0.4057977497577667 1.5013668537139893
v 0.15522754192352295 -0.40520742535591125 1.4662814140319824
v 0.10629350692033768 -0.39305636286735535 1.4866101741790771
v 0.015031576156616211 0.1774756908416748 1.356154203414917
v -0.0453907735645771 0.016662728041410446 0.986640453338623
v -0.020716669037938118 0.03447804972529411 0.9858402609825134
v -0.0453907735645771 0.016662728041410446 0.986640453338623
v 0.015031576156616211 0.1774756908416748 1.356154203414917
v -0.010346680879592896 0.1600854992866516 1.3590295314788818
v -0.028476528823375702 -0.008092367090284824 0.9919255375862122
v 0.24686674773693085 0.05041315779089928 0.5299872756004333
v -0.0453907735645771 0.016662728041410446 0.986640453338623
v 0.24686674773693085 0.05041315779089928 0.5299872756004333
v -0.028476528823375702 -0.008092367090284824 0.9919255375862122
v 0.2630777359008789 0.02608286775648594 0.5373486876487732
v -0.0038014473393559456 0.00972253642976284 0.991125226020813
v 0.2630777359008789 0.02608286775648594 0.5373486876487732
v -0.028476528823375702 -0.008092367090284824 0.9919255375862122
v 0.2630777359008789 0.02608286775648594 0.5373486876487732
v -0.0038014473393559456 0.00972253642976284 0.991125226020813
v 0.2870487868785858 0.044322650879621506 0.5386241674423218
v 0.03264981508255005 0.15229524672031403 1.3593627214431763
v -0.020716669037938118 0.03447804972529411 0.9858402609825134
v -0.0038014473393559456 0.00972253642976284 0.991125226020813
v -0.020716669037938118 0.03447804972529411 0.9858402609825134
v 0.03264981508255005 0.15229524672031403 1.3593627214431763
v 0.015031576156616211 0.1774756908416748 1.356154203414917
v 0.03264981508255005 0.15229524672031403 1.3593627214431763
v -0.010346680879592896 0.1600854992866516 1.3590295314788818
v 0.015031576156616211 0.1774756908416748 1.356154203414917
v 0.007271469570696354 0.13490499556064606 1.3622392416000366
v -0.020716669037938118 0.03447804972529411 0.9858402609825134
v 0.24686674773693085 0.05041315779089928 0.5299872756004333
v 0.27083736658096313 0.0686533972620964 0.5312636494636536
v 0.24686674773693085 0.05041315779089928 0.5299872756004333
v -0.020716669037938118 0.03447804972529411 0.9858402609825134
v -0.0453907735645771 0.016662728041410446 0.986640453338623
v 0.007271469570696354 0.13490499556064606 1.3622392416000366
v -0.0453907735645771 0.016662728041410446 0.986640453338623
v -0.010346680879592896 0.1600854992866516 1.3590295314788818
v -0.0453907735645771 0.016662728041410446 0.986640453338623
v 0.007271469570696354 0.13490499556064606 1.3622392416000366
v -0.028476528823375702 -0.008092367090284824 0.9919255375862122
v 0.03264981508255005 0.15229524672031403 1.3593627214431763
v -0.028476528823375702 -0.008092367090284824 0.9919255375862122
v 0.007271469570696354 0.13490499556064606 1.3622392416000366
v -0.028476528823375702 -0.008092367090284824 0.9919255375862122
v 0.03264981508255005 0.15229524672031403 1.3593627214431763
v -0.0038014473393559456 0.00972253642976284 0.991125226020813
v -0.0038014473393559456 0.00972253642976284 0.991125226020813
v 0.27083736658096313 0.0686533972620964 0.5312636494636536
v 0.2870487868785858 0.044322650879621506 0.5386241674423218
v 0.27083736658096313 0.0686533972620964 0.5312636494636536
v -0.0038014473393559456 0.00972253642976284 0.991125226020813
v -0.020716669037938118 0.03447804972529411 0.9858402609825134
v -0.07711907476186752 0.12929438054561615 1.378350853919983
v -0.10827092081308365 0.08813772350549698 0.9734137654304504
v -0.09854314476251602 0.11689425259828568 0.9711138606071472
v -0.10827092081308365 0.08813772350549698 0.9734137654304504
v -0.07711907476186752 0.12929438054561615 1.378350853919983
v -0.08729690313339233 0.10046659409999847 1.382836103439331
v -0.07628760486841202 0.19588826596736908 0.8095669150352478
v -0.0464094802737236 0.2433602660894394 0.5064749121665955
v -0.10460056364536285 0.20652417838573456 0.8081845641136169
v -0.018321568146348 0.23268845677375793 0.5089501738548279
v -0.06678442656993866 0.22460879385471344 0.8083600997924805
v -0.018321568146348 0.23268845677375793 0.5089501738548279
v -0.07628760486841202 0.19588826596736908 0.8095669150352478
v -0.009043315425515175 0.2613736689090729 0.5088361501693726
v -0.048131197690963745 0.1187649667263031 1.3764536380767822
v -0.09854314476251602 0.11689425259828568 0.9711138606071472
v -0.07000486552715302 0.10629362612962723 0.9714032411575317
v -0.09854314476251602 0.11689425259828568 0.9711138606071472
v -0.048131197690963745 0.1187649667263031 1.3764536380767822
v -0.07711907476186752 0.12929438054561615 1.378350853919983
v -0.048131197690963745 0.1187649667263031 1.3764536380767822
v -0.08729690313339233 0.10046659409999847 1.382836103439331
v -0.07711907476186752 0.12929438054561615 1.378350853919983
v -0.05830923095345497 0.08993686735630035 1.3809391260147095
v -0.09854314476251602 0.11689425259828568 0.9711138606071472
v -0.10460056364536285 0.20652417838573456 0.8081845641136169
v -0.09509778767824173 0.23524485528469086 0.8069782257080078
v -0.10827092081308365 0.08813772350549698 0.9734137654304504
v -0.05830923095345497 0.08993686735630035 1.3809391260147095
v -0.10827092081308365 0.08813772350549698 0.9734137654304504
v -0.08729690313339233 0.10046659409999847 1.382836103439331
v -0.10827092081308365 0.08813772350549698 0.9734137654304504
v -0.05830923095345497 0.08993686735630035 1.3809391260147095
v -0.0797329992055893 0.07753749936819077 0.9737029075622559
v -0.048131197690963745 0.1187649667263031 1.3764536380767822
v -0.0797329992055893 0.07753749936819077 0.9737029075622559
v -0.05830923095345497 0.08993686735630035 1.3809391260147095
v -0.0797329992055893 0.07753749936819077 0.9737029075622559
v -0.048131197690963745 0.1187649667263031 1.3764536380767822
v -0.07000486552715302 0.10629362612962723 0.9714032411575317
v -0.07000486552715302 0.10629362612962723 0.9714032411575317
v -0.09509778767824173 0.23524485528469086 0.8069782257080078
v -0.06678442656993866 0.22460879385471344 0.8083600997924805
v -0.09854314476251602 0.11689425259828568 0.9711138606071472
v -0.0797329992055893 0.07753749936819077 0.9737029075622559
v -0.10460056364536285 0.20652417838573456 0.8081845641136169
v -0.10827092081308365 0.08813772350549698 0.9734137654304504
v -0.07628760486841202 0.19588826596736908 0.8095669150352478
v -0.07000486552715302 0.10629362612962723 0.9714032411575317
v -0.07628760486841202 0.19588826596736908 0.8095669150352478
v -0.0797329992055893 0.07753749936819077 0.9737029075622559
v -0.06678442656993866 0.22460879385471344 0.8083600997924805
v -0.09509778767824173 0.23524485528469086 0.8069782257080078
v -0.0464094802737236 0.2433602660894394 0.5064749121665955
v -0.03713170811533928 0.2720455229282379 0.5063617825508118
v -0.10460056364536285 0.20652417838573456 0.8081845641136169
v -0.06678442656993866 0.22460879385471344 0.8083600997924805
v -0.03713170811533928 0.2720455229282379 0.5063617825508118
v -0.009043315425515175 0.2613736689090729 0.5088361501693726
v -0.09509778767824173 0.23524485528469086 0.8069782257080078
v -0.12902994453907013 -0.07728980481624603 0.4501459300518036
v -0.16557595133781433 -0.13599596917629242 0.9157835841178894
v -0.13239756226539612 -0.16705723106861115 0.9069533348083496
v -0.16220834851264954 -0.04622834920883179 0.45897606015205383
v -0.08471138775348663 -0.0639936700463295 0.4485182762145996
v -0.13239756226539612 -0.16705723106861115 0.9069533348083496
v -0.08807901293039322 -0.1537611186504364 0.9053255915641785
v -0.12902994453907013 -0.07728980481624603 0.4501459300518036
v -0.0735711082816124 -0.019636325538158417 0.4557207524776459
v -0.08807901293039322 -0.1537611186504364 0.9053255915641785
v -0.07693872600793839 -0.10940352827310562 0.9125280380249023
v -0.08471138775348663 -0.0639936700463295 0.4485182762145996
v -0.10674937069416046 0.011425230652093887 0.4645507037639618
v -0.07693872600793839 -0.10940352827310562 0.9125280380249023
v -0.11011698842048645 -0.0783415287733078 0.9213582873344421
v -0.0735711082816124 -0.019636325538158417 0.4557207524776459
v -0.15106789767742157 -0.001870908192358911 0.4661785364151001
v -0.11011698842048645 -0.0783415287733078 0.9213582873344421
v -0.15443553030490875 -0.0916382223367691 0.9229857325553894
v -0.10674937069416046 0.011425230652093887 0.4645507037639618
v -0.16220834851264954 -0.04622834920883179 0.45897606015205383
v -0.15443553030490875 -0.0916382223367691 0.9229857325553894
v -0.16557595133781433 -0.13599596917629242 0.9157835841178894
v -0.15106789767742157 -0.001870908192358911 0.4661785364151001
v 0.010266794823110104 -0.18801522254943848 1.3630365133285522
v -0.045192211866378784 -0.2456689178943634 1.357461929321289
v -0.07837030291557312 -0.21460816264152527 1.3662934303283691
v -0.0008736660820432007 -0.23237277567386627 1.3558340072631836
v -0.022911643609404564 -0.15695373713970184 1.3718664646148682
v -0.06723016500473022 -0.17024986445903778 1.3734943866729736
v -0.0555950328707695 -0.20227354764938354 1.1298987865447998
v -0.07837030291557312 -0.21460816264152527 1.3662934303283691
v -0.045192211866378784 -0.2456689178943634 1.357461929321289
v -0.08877328038215637 -0.17121270298957825 1.1387299299240112
v -0.01127648912370205 -0.1889781355857849 1.1282709836959839
v -0.045192211866378784 -0.2456689178943634 1.357461929321289
v -0.0008736660820432007 -0.23237277567386627 1.3558340072631836
v -0.0555950328707695 -0.20227354764938354 1.1298987865447998
v -0.0001360533497063443 -0.14461998641490936 1.1354734897613525
v -0.0008736660820432007 -0.23237277567386627 1.3558340072631836
v 0.010266794823110104 -0.18801522254943848 1.3630365133285522
v -0.01127648912370205 -0.1889781355857849 1.1282709836959839
v -0.0001360533497063443 -0.14461998641490936 1.1354734897613525
v -0.022911643609404564 -0.15695373713970184 1.3718664646148682
v -0.03331414982676506 -0.1135585755109787 1.1443036794662476
v 0.010266794823110104 -0.18801522254943848 1.3630365133285522
v -0.03331414982676506 -0.1135585755109787 1.1443036794662476
v -0.06723016500473022 -0.17024986445903778 1.3734943866729736
v -0.07763300091028214 -0.1268545538187027 1.1459311246871948
v -0.022911643609404564 -0.15695373713970184 1.3718664646148682
v -0.07763300091028214 -0.1268545538187027 1.1459311246871948
v -0.07837030291557312 -0.21460816264152527 1.3662934303283691
v -0.08877328038215637 -0.17121270298957825 1.1387299299240112
v -0.06723016500473022 -0.17024986445903778 1.3734943866729736
v -0.13239756226539612 -0.16705723106861115 0.9069533348083496
v -0.08877328038215637 -0.17121270298957825 1.1387299299240112
v -0.0555950328707695 -0.20227354764938354 1.1298987865447998
v -0.16557595133781433 -0.13599596917629242 0.9157835841178894
v -0.08807901293039322 -0.1537611186504364 0.9053255915641785
v -0.0555950328707695 -0.20227354764938354 1.1298987865447998
v -0.01127648912370205 -0.1889781355857849 1.1282709836959839
v -0.13239756226539612 -0.16705723106861115 0.9069533348083496
v -0.07693872600793839 -0.10940352827310562 0.9125280380249023
v -0.01127648912370205 -0.1889781355857849 1.1282709836959839
v -0.0001360533497063443 -0.14461998641490936 1.1354734897613525
v -0.08807901293039322 -0.1537611186504364 0.9053255915641785
v -0.03331414982676506 -0.1135585755109787 1.1443036794662476
v -0.07693872600793839 -0.10940352827310562 0.9125280380249023
v -0.0001360533497063443 -0.14461998641490936 1.1354734897613525
v -0.11011698842048645 -0.0783415287733078 0.9213582873344421
v -0.07763300091028214 -0.1268545538187027 1.1459311246871948
v -0.11011698842048645 -0.0783415287733078 0.9213582873344421
v -0.03331414982676506 -0.1135585755109787 1.1443036794662476
v -0.15443553030490875 -0.0916382223367691 0.9229857325553894
v -0.08877328038215637 -0.17121270298957825 1.1387299299240112
v -0.15443553030490875 -0.0916382223367691 0.9229857325553894
v -0.07763300091028214 -0.1268545538187027 1.1459311246871948
v -0.16557595133781433 -0.13599596917629242 0.9157835841178894
vn -0.38268327713012695 0.9238796234130859 0.0
vn -0.38268327713012695 0.9238796234130859 0.0
vn -0.38268330693244934 0.9238796234130859 0.0
vn -0.38268330693244934 0.9238796234130859 0.0
vn -0.9238794445991516 0.3826836049556732 0.0
vn -0.9238794445991516 0.38268354535102844 0.0
vn -0.9238794445991516 0.38268354535102844 0.0
vn -0.9238794445991516 0.38268354535102844 0.0
vn -0.9238796234130859 -0.38268327713012695 0.0
vn -0.9238796234130859 -0.38268327713012695 0.0
vn -0.9238796234130859 -0.38268330693244934 0.0
vn -0.9238796234130859 -0.38268330693244934 0.0
vn -0.3826836049556732 -0.9238794445991516 0.0
vn -0.38268354535102844 -0.9238794445991516 0.0
vn -0.38268354535102844 -0.9238794445991516 0.0
vn -0.38268354535102844 -0.9238794445991516 0.0
vn 0.3826833665370941 -0.9238795042037964 0.0
vn 0.3826833665370941 -0.9238795042037964 0.0
vn 0.3826833963394165 -0.9238795042037964 0.0
vn 0.3826833963394165 -0.9238795042037964 0.0
vn 0.9238795042037964 -0.38268354535102844 0.0
vn 0.9238795042037964 -0.38268354535102844 0.0
vn 0.9238795042037964 -0.38268351554870605 0.0
vn 0.9238795042037964 -0.38268351554870605 0.0
vn 0.9238796234130859 0.3826831579208374 0.0
vn 0.9238796234130859 0.3826831579208374 0.0
vn 0.9238796234130859 0.3826831877231598 0.0
vn 0.9238796234130859 0.3826831877231598 0.0
vn 0.3826836049556732 0.9238794445991516 0.0
vn 0.382683664560318 0.9238794445991516 0.0
vn 0.3826836347579956 0.9238794445991516 0.0
vn 0.3826836347579956 0.9238794445991516 0.0
vn -0.0 0.0 1.0
vn -0.0 0.0 1.0
vn -0.0 0.0 1.0
vn -0.0 0.0 1.0
vn -0.0 0.0 1.0
vn -0.0 0.0 1.0
vn -0.0 0.0 1.0
vn -0.0 0.0 1.0
vn -0.0 0.0 1.0
vn -0.0 0.0 1.0
vn -0.0 0.0 1.0
vn -0.0 0.0 1.0
vn -0.0 0.0 1.0
vn -0.0 0.0 1.0
vn -0.0 0.0 1.0
vn -0.0 0.0 1.0
vn -0.0 0.0 1.0
vn -0.0 0.0 1.0
vn -0.0 0.0 1.0
vn -0.0 0.0 1.0
vn -0.0 0.0 1.0
vn -0.0 0.0 1.0
vn -0.0 0.0 1.0
vn -0.0 0.0 1.0
vn -0.0 0.0 1.0
vn -0.0 0.0 1.0
vn -0.0 0.0 1.0
vn -0.0 0.0 1.0
vn 0.38268324732780457 -0.9238796234130859 0.0
vn 0.38268327713012695 -0.9238796234130859 0.0
vn 0.38268327713012695 -0.9238796234130859 0.0
vn 0.38268327713012695 -0.9238796234130859 0.0
vn 0.9238794445991516 -0.3826836049556732 0.0
vn 0.9238794445991516 -0.3826836049556732 0.0
vn 0.9238794445991516 -0.38268354535102844 0.0
vn 0.9238794445991516 -0.38268354535102844 0.0
vn 0.9238795042037964 0.38268327713012695 0.0
vn 0.9238795042037964 0.38268327713012695 0.0
vn 0.9238795042037964 0.38268330693244934 0.0
vn 0.9238795042037964 0.38268330693244934 0.0
vn 0.3826836049556732 0.9238794445991516 0.0
vn 0.3826836049556732 0.9238794445991516 0.0
vn 0.38268354535102844 0.9238794445991516 0.0
vn 0.38268354535102844 0.9238794445991516 0.0
vn -0.3826833963394165 0.9238795042037964 0.0
vn -0.3826834261417389 0.9238795042037964 0.0
vn -0.3826833963394165 0.9238795042037964 0.0
vn -0.3826833963394165 0.9238795042037964 0.0
vn -0.9238794445991516 0.38268354535102844 0.0
vn -0.9238794445991516 0.3826836049556732 0.0
vn -0.9238794445991516 0.38268354535102844 0.0
vn -0.9238794445991516 0.38268354535102844 0.0
vn -0.9238796234130859 -0.38268324732780457 0.0
vn -0.9238796234130859 -0.38268327713012695 0.0
vn -0.9238796234130859 -0.38268324732780457 0.0
vn -0.9238796234130859 -0.38268324732780457 0.0
vn -0.3826836347579956 -0.9238794445991516 0.0
vn -0.382683664560318 -0.9238794445991516 0.0
vn -0.3826836347579956 -0.9238794445991516 0.0
vn -0.3826836347579956 -0.9238794445991516 0.0
vn 0.29937443137168884 -0.40171629190444946 -0.8654472827911377
vn 0.29937437176704407 -0.40171629190444946 -0.8654472827911377
vn 0.29937440156936646 -0.4017162621021271 -0.8654473423957825
vn 0.29936906695365906 -0.40170037746429443 -0.8654565215110779
vn 0.29936903715133667 -0.40170037746429443 -0.8654565215110779
vn 0.29936906695365906 -0.40170037746429443 -0.8654565215110779
vn 0.9447975754737854 -0.0018079347210004926 0.32764992117881775
vn 0.9447975754737854 -0.0018079346045851707 0.32764992117881775
vn 0.9447975754737854 -0.0018079347210004926 0.32764992117881775
vn 0.9447924494743347 -0.0018160578329116106 0.3276642858982086
vn 0.9447924494743347 -0.0018160578329116106 0.327664315700531
vn 0.9447924494743347 -0.0018160577164962888 0.327664315700531
vn -0.2993883788585663 0.4017125964164734 0.8654442429542542
vn -0.2993883490562439 0.401712566614151 0.8654442429542542
vn -0.2993883490562439 0.401712566614151 0.8654442429542542
vn -0.29937082529067993 0.4017297923564911 0.865442156791687
vn -0.29937082529067993 0.4017297923564911 0.865442156791687
vn -0.2993708550930023 0.4017298221588135 0.8654422760009766
vn -0.9447916150093079 0.0018354329513385892 -0.32766664028167725
vn -0.9447916150093079 0.0018354327185079455 -0.32766664028167725
vn -0.9447916150093079 0.0018354327185079455 -0.32766664028167725
vn -0.9447912573814392 0.0018150709802284837 -0.3276677429676056
vn -0.9447912573814392 0.0018150709802284837 -0.3276677429676056
vn -0.9447912573814392 0.0018150710966438055 -0.3276677429676056
vn 0.2878604829311371 -0.6338390707969666 -0.7179027199745178
vn 0.2878604829311371 -0.6338390707969666 -0.7179027199745178
vn 0.2878604829311371 -0.6338390707969666 -0.7179027199745178
vn 0.28786686062812805 -0.6338465809822083 -0.7178935408592224
vn 0.28786689043045044 -0.633846640586853 -0.7178935408592224
vn 0.28786686062812805 -0.6338465809822083 -0.7178935408592224
vn 0.9563038945198059 0.23030482232570648 0.18011809885501862
vn 0.9563038945198059 0.23030482232570648 0.18011809885501862
vn 0.9563038945198059 0.2303048074245453 0.1801181137561798
vn 0.9563037753105164 0.23030468821525574 0.1801188886165619
vn 0.9563037753105164 0.23030468821525574 0.1801188737154007
vn 0.9563037753105164 0.23030467331409454 0.1801188439130783
vn -0.28786152601242065 0.6338373422622681 0.7179039120674133
vn -0.28786152601242065 0.6338372826576233 0.7179039120674133
vn -0.28786152601242065 0.6338372826576233 0.7179039120674133
vn -0.2878575026988983 0.6338425278663635 0.7179008722305298
vn -0.2878575026988983 0.6338425278663635 0.7179008722305298
vn -0.2878575325012207 0.6338425278663635 0.7179008722305298
vn -0.9563018083572388 -0.23031775653362274 -0.18011222779750824
vn -0.9563018083572388 -0.23031772673130035 -0.18011224269866943
vn -0.9563018083572388 -0.23031772673130035 -0.18011222779750824
vn -0.9563049077987671 -0.2303009033203125 -0.1801181137561798
vn -0.9563049077987671 -0.2303009182214737 -0.1801181435585022
vn -0.9563049077987671 -0.2303009033203125 -0.1801181137561798
vn 0.3568403720855713 -0.8438421487808228 -0.40074336528778076
vn 0.3568403124809265 -0.8438421487808228 -0.40074336528778076
vn 0.3568403720855713 -0.8438421487808228 -0.40074336528778076
vn 0.3568425178527832 -0.8438422679901123 -0.4007412791252136
vn 0.3568425178527832 -0.8438423275947571 -0.400741308927536
vn 0.3568425178527832 -0.8438423275947571 -0.4007412791252136
vn 0.8873260021209717 0.44030874967575073 -0.1370425522327423
vn 0.8873260021209717 0.44030874967575073 -0.13704252243041992
vn 0.8873260021209717 0.4403087794780731 -0.13704253733158112
vn 0.8873260021209717 0.4403098523616791 -0.13703900575637817
vn 0.8873260021209717 0.44030988216400146 -0.13703900575637817
vn 0.8873260021209717 0.4403098523616791 -0.13703900575637817
vn -0.35683563351631165 0.843846321105957 0.4007391035556793
vn -0.35683563351631165 0.843846321105957 0.40073907375335693
vn -0.35683563351631165 0.843846321105957 0.40073907375335693
vn -0.356838583946228 0.8438425064086914 0.40074431896209717
vn -0.356838583946228 0.8438425064086914 0.40074437856674194
vn -0.356838583946228 0.8438425064086914 0.40074431896209717
vn -0.8873276114463806 -0.4403059184551239 0.13704119622707367
vn -0.8873277306556702 -0.4403059482574463 0.13704119622707367
vn -0.8873276114463806 -0.4403059482574463 0.13704121112823486
vn -0.8873260021209717 -0.4403087794780731 0.1370430588722229
vn -0.8873260021209717 -0.4403087794780731 0.1370430588722229
vn -0.8873260021209717 -0.44030874967575073 0.1370430588722229
vn 0.38148772716522217 -0.8639941215515137 -0.328605055809021
vn 0.38148772716522217 -0.8639941215515137 -0.328605055809021
vn 0.3814876973628998 -0.8639941215515137 -0.328605055809021
vn 0.38147664070129395 -0.8640002608299255 -0.32860180735588074
vn 0.8626802563667297 0.46046313643455505 -0.20918065309524536
vn 0.8626802563667297 0.46046310663223267 -0.20918063819408417
vn 0.8626802563667297 0.46046313643455505 -0.20918065309524536
vn 0.8626763820648193 0.46047165989875793 -0.2091778665781021
vn -0.38148510456085205 0.8639959692955017 0.32860323786735535
vn -0.38148510456085205 0.8639959692955017 0.32860320806503296
vn -0.38148510456085205 0.8639959692955017 0.32860326766967773
vn -0.3814728260040283 0.8640022277832031 0.3286009430885315
vn -0.8626812696456909 -0.46046069264411926 0.2091815322637558
vn -0.8626812696456909 -0.46046069264411926 0.2091815322637558
vn -0.8626812696456909 -0.46046069264411926 0.2091815173625946
vn -0.8626770973205566 -0.4604704678058624 0.20917731523513794
vn 0.32626137137413025 -0.21649503707885742 -0.9201540350914001
vn 0.32626140117645264 -0.21649505198001862 -0.9201540350914001
vn 0.32626134157180786 -0.21649505198001862 -0.9201540350914001
vn 0.3523287773132324 -0.22039952874183655 -0.9095539450645447
vn 0.3523287773132324 -0.22039952874183655 -0.9095539450645447
vn 0.3523288071155548 -0.22039954364299774 -0.9095540642738342
vn 0.8853859901428223 -0.24703392386436462 0.39378422498703003
vn 0.8853859901428223 -0.24703392386436462 0.39378422498703003
vn 0.8853859901428223 -0.24703392386436462 0.39378422498703003
vn 0.8942446708679199 -0.24964362382888794 0.37148967385292053
vn 0.8942446708679199 -0.24964362382888794 0.37148967385292053
vn 0.8942446112632751 -0.24964363873004913 0.37148967385292053
vn -0.32824596762657166 0.21175402402877808 0.9205513596534729
vn -0.32824599742889404 0.21175403892993927 0.9205513596534729
vn -0.32824593782424927 0.2117539942264557 0.9205513596534729
vn -0.35351279377937317 0.2156960815191269 0.9102219343185425
vn -0.35351282358169556 0.2156960815191269 0.9102219343185425
vn -0.35351279377937317 0.21569609642028809 0.9102219343185425
vn -0.8864363431930542 0.24236533045768738 -0.39432162046432495
vn -0.8864363431930542 0.24236533045768738 -0.39432162046432495
vn -0.8864363431930542 0.24236533045768738 -0.39432162046432495
vn -0.8939892649650574 0.2503918409347534 -0.3716006577014923
vn -0.8939892649650574 0.2503918409347534 -0.3716006577014923
vn -0.8939893841743469 0.2503918707370758 -0.3716006577014923
vn -0.2961660921573639 -0.9434449672698975 -0.14898735284805298
vn -0.2961660623550415 -0.9434449672698975 -0.14898735284805298
vn -0.2961665689945221 -0.9434448480606079 -0.14898715913295746
vn -0.2961656153202057 -0.943445086479187 -0.1489875763654709
vn -0.572543740272522 0.7818907499313354 -0.24665860831737518
vn -0.572543740272522 0.7818907499313354 -0.2466585785150528
vn -0.572543740272522 0.7818907499313354 -0.2466585636138916
vn -0.5664829015731812 0.7854865789413452 -0.24921458959579468
vn -0.5664829015731812 0.78548663854599 -0.2492145597934723
vn -0.5664829015731812 0.7854865789413452 -0.2492145597934723
vn -0.6763303875923157 -0.563413679599762 -0.4744916558265686
vn -0.6763303875923157 -0.5634136199951172 -0.4744916558265686
vn -0.6763303875923157 -0.563413679599762 -0.47449159622192383
vn -0.6628930568695068 -0.583589494228363 -0.4690374732017517
vn -0.6628930568695068 -0.5835894346237183 -0.4690374732017517
vn -0.6628930568695068 -0.583589494228363 -0.4690374732017517
vn 0.564104437828064 -0.7676693201065063 0.30408886075019836
vn 0.564104437828064 -0.7676693201065063 0.30408886075019836
vn 0.5641043782234192 -0.7676693201065063 0.30408886075019836
vn 0.5662590861320496 -0.7655466198921204 0.30543261766433716
vn 0.5662590265274048 -0.7655466198921204 0.30543258786201477
vn 0.5662590861320496 -0.7655466198921204 0.30543258786201477
vn 0.8201091885566711 0.5015830993652344 -0.27538228034973145
vn 0.8201091885566711 0.5015830993652344 -0.27538228034973145
vn 0.8201091885566711 0.5015830397605896 -0.27538228034973145
vn 0.802863359451294 0.525989294052124 -0.28061652183532715
vn 0.802863359451294 0.525989294052124 -0.28061652183532715
vn 0.802863359451294 0.5259892344474792 -0.28061649203300476
vn 0.017395807430148125 0.1383720338344574 0.9902275800704956
vn 0.017395805567502975 0.1383720189332962 0.9902275800704956
vn 0.017391540110111237 0.13834860920906067 0.9902308583259583
vn 0.017400071024894714 0.13839539885520935 0.9902241826057434
vn -0.5662268400192261 0.7654983997344971 -0.3056129813194275
vn -0.5662268400192261 0.7654983997344971 -0.30561304092407227
vn -0.5662268400192261 0.7654983997344971 -0.30561304092407227
vn -0.5640934109687805 0.7675987482070923 -0.30428728461265564
vn -0.5640934109687805 0.7675986886024475 -0.30428725481033325
vn -0.5640934109687805 0.7675987482070923 -0.30428728461265564
vn -0.8032746911048889 -0.5265452861785889 0.27838796377182007
vn -0.8032746315002441 -0.5265453457832336 0.2783879041671753
vn -0.8032746315002441 -0.5265453457832336 0.27838796377182007
vn -0.8204410076141357 -0.502260684967041 0.2731498181819916
vn -0.8204410076141357 -0.502260684967041 0.2731497585773468
vn -0.8204410076141357 -0.502260684967041 0.2731497287750244
vn 0.5665265917778015 -0.7856241464614868 0.24868106842041016
vn 0.5665265917778015 -0.7856241464614868 0.24868106842041016
vn 0.5665265917778015 -0.7856241464614868 0.24868106842041016
vn 0.5725920796394348 -0.7820302844047546 0.24610330164432526
vn 0.5725920796394348 -0.7820303440093994 0.24610331654548645
vn 0.5725920796394348 -0.7820302844047546 0.24610333144664764
vn 0.6621686220169067 0.5834524035453796 0.4702296257019043
vn 0.6621686220169067 0.5834524631500244 0.4702296555042267
vn 0.6621686220169067 0.5834524035453796 0.4702296555042267
vn 0.675650954246521 0.5632193088531494 0.47568872570991516
vn 0.6756510138511658 0.5632192492485046 0.47568872570991516
vn 0.675650954246521 0.5632192492485046 0.47568872570991516
vn -0.9455402493476868 0.3230494558811188 0.03990667685866356
vn -0.9455403685569763 0.32304948568344116 0.03990667685866356
vn -0.9455402493476868 0.3230494558811188 0.03990667685866356
vn -0.94040447473526 0.3379281163215637 0.03799935802817345
vn -0.94040447473526 0.3379281163215637 0.03799935802817345
vn -0.94040447473526 0.33792808651924133 0.03799935802817345
vn -0.33840876817703247 -0.9239950180053711 -0.1780809462070465
vn -0.33840876817703247 -0.9239950180053711 -0.1780809462070465
vn -0.33840876817703247 -0.9239950180053711 -0.1780809462070465
vn -0.3357568383216858 -0.9249823689460754 -0.1779741644859314
vn 0.941258430480957 -0.3053921163082123 0.14411212503910065
vn 0.941258430480957 -0.30539214611053467 0.14411213994026184
vn 0.941258430480957 -0.30539214611053467 0.14411212503910065
vn 0.941687285900116 -0.3040164113044739 0.14421868324279785
vn 0.34823572635650635 0.9361960887908936 -0.04763064533472061
vn 0.34823572635650635 0.9361960887908936 -0.04763064160943031
vn 0.34823572635650635 0.9361960887908936 -0.04763064533472061
vn 0.3383564352989197 0.9398724436759949 -0.0464189350605011
vn 0.3383564352989197 0.9398724436759949 -0.0464189350605011
vn 0.3383564352989197 0.9398724436759949 -0.0464189350605011
vn 0.10674644261598587 0.11595960706472397 0.9875011444091797
vn 0.10674645751714706 0.11595959961414337 0.9875011444091797
vn 0.10674737393856049 0.11595773696899414 0.9875012636184692
vn 0.10674555599689484 0.11596149951219559 0.9875010251998901
vn -0.9260269999504089 0.31512072682380676 0.20778077840805054
vn -0.9260269999504089 0.31512078642845154 0.20778079330921173
vn -0.9260269999504089 0.31512075662612915 0.20778077840805054
vn -0.9198094606399536 0.3283343017101288 0.2148185670375824
vn -0.3384253680706024 -0.9398858547210693 0.04563958942890167
vn -0.3384253680706024 -0.9398858547210693 0.04563959315419197
vn -0.3384253680706024 -0.9398858547210693 0.04563959315419197
vn -0.34823358058929443 -0.9362375736236572 0.04682595282793045
vn -0.34823358058929443 -0.9362374544143677 0.046825945377349854
vn -0.34823358058929443 -0.9362375736236572 0.04682595282793045
vn 0.9403024911880493 -0.33807772397994995 -0.039173513650894165
vn 0.9403024911880493 -0.33807772397994995 -0.039173513650894165
vn 0.9403024911880493 -0.33807772397994995 -0.039173513650894165
vn 0.9454599022865295 -0.32313433289527893 -0.041107866913080215
vn 0.9454599022865295 -0.32313433289527893 -0.041107870638370514
vn 0.9454599022865295 -0.32313433289527893 -0.041107870638370514
vn 0.2644651234149933 0.7780460715293884 0.5698267817497253
vn 0.2644650936126709 0.7780460715293884 0.5698267817497253
vn 0.2644650936126709 0.7780460715293884 0.5698267817497253
vn 0.28226742148399353 0.7753243446350098 0.5649754405021667
vn -0.2828024923801422 -0.7767132520675659 -0.562795877456665
vn -0.282802551984787 -0.7767132520675659 -0.5627959370613098
vn -0.2828024923801422 -0.7767132520675659 -0.5627959370613098
vn -0.2650955021381378 -0.7794601917266846 -0.5675968527793884
vn 0.9191832542419434 -0.3283481001853943 -0.21746182441711426
vn 0.9191832542419434 -0.3283481299877167 -0.21746182441711426
vn 0.9191832542419434 -0.3283481299877167 -0.21746185421943665
vn 0.9254670143127441 -0.3150612711906433 -0.21035000681877136
vn -0.9416711330413818 0.30399850010871887 -0.14436215162277222
vn -0.9416711330413818 0.30399852991104126 -0.1443621814250946
vn -0.9416711330413818 0.30399850010871887 -0.14436215162277222
vn -0.9412439465522766 0.3053688704967499 -0.14425592124462128
vn 0.33571913838386536 0.9249430298805237 0.17825017869472504
vn 0.3357190787792206 0.9249430298805237 0.17825017869472504
vn 0.3357190787792206 0.9249430298805237 0.17825020849704742
vn 0.33838215470314026 0.9239516854286194 0.17835593223571777
vn -0.696435809135437 -0.703163206577301 -0.14331308007240295
vn -0.696435809135437 -0.703163206577301 -0.14331308007240295
vn -0.696435809135437 -0.703163206577301 -0.14331308007240295
vn -0.6964377164840698 -0.7031614184379578 -0.1433129906654358
vn 0.2763025760650635 -0.9434182643890381 -0.1833547204732895
vn 0.2763025462627411 -0.9434182643890381 -0.1833546906709671
vn 0.2763025462627411 -0.9434182643890381 -0.1833546906709671
vn 0.2763035297393799 -0.9434179067611694 -0.18335455656051636
vn 0.9706196784973145 -0.23735670745372772 -0.039487481117248535
vn 0.9706196784973145 -0.23735669255256653 -0.039487481117248535
vn 0.9706196784973145 -0.2373567372560501 -0.039487481117248535
vn 0.9706193804740906 -0.23735781013965607 -0.039487823843955994
vn 0.6964453458786011 0.7031542658805847 0.1433102786540985
vn 0.6964453458786011 0.7031542658805847 0.1433102786540985
vn 0.6964454650878906 0.7031542658805847 0.1433102786540985
vn 0.6964399218559265 0.7031593322753906 0.14331205189228058
vn -0.27631545066833496 0.9434146285057068 0.18335363268852234
vn -0.27631545066833496 0.9434146285057068 0.18335363268852234
vn -0.2763154208660126 0.9434146285057068 0.18335363268852234
vn -0.27630317211151123 0.9434183239936829 0.18335317075252533
vn -0.9706190228462219 0.23735913634300232 0.03948816657066345
vn -0.9706190228462219 0.23735912144184113 0.039488162845373154
vn -0.9706190228462219 0.23735910654067993 0.039488159120082855
vn -0.970618724822998 0.23736056685447693 0.0394882969558239
vn 0.09049498289823532 -0.18172597885131836 0.97917640209198
vn 0.09049948304891586 -0.1817302107810974 0.9791751503944397
vn 0.0905039831995964 -0.18173441290855408 0.9791739583015442
vn 0.09048597514629364 -0.18171754479408264 0.9791786670684814
vn 0.09048809111118317 -0.1816912740468979 0.9791834950447083
vn 0.09047450125217438 -0.18167850375175476 0.97918701171875
vn -0.6943392753601074 -0.712086021900177 -0.10405083745718002
vn -0.6943392157554626 -0.712086021900177 -0.10405081510543823
vn -0.6943392157554626 -0.7120860815048218 -0.10405083000659943
vn -0.6943381428718567 -0.7120871543884277 -0.10405077785253525
vn 0.2755174934864044 -0.9418848156929016 -0.19220565259456635
vn 0.27551746368408203 -0.9418848156929016 -0.19220565259456635
vn 0.2755174934864044 -0.9418848156929016 -0.19220565259456635
vn 0.2755037248134613 -0.9418883323669434 -0.19220857322216034
vn 0.9693979024887085 -0.22917400300502777 -0.08801768720149994
vn 0.9693979024887085 -0.22917398810386658 -0.08801768720149994
vn 0.9693979024887085 -0.22917398810386658 -0.08801766484975815
vn 0.9693987965583801 -0.22917047142982483 -0.08801627159118652
vn 0.6943442225456238 0.7120811939239502 0.10405022650957108
vn 0.6943442225456238 0.7120811939239502 0.10405022650957108
vn 0.6943442225456238 0.7120811939239502 0.10405023396015167
vn 0.6943411231040955 0.7120842337608337 0.10405009984970093
vn -0.2755141854286194 0.941885232925415 0.1922082155942917
vn -0.2755141854286194 0.941885232925415 0.1922082155942917
vn -0.275514155626297 0.941885232925415 0.1922082155942917
vn -0.27551692724227905 0.9418846368789673 0.19220764935016632
vn -0.9693989157676697 0.2291695475578308 0.08801739662885666
vn -0.9693989157676697 0.2291695475578308 0.08801739662885666
vn -0.9693989157676697 0.2291695475578308 0.08801740407943726
vn -0.9693996906280518 0.2291666716337204 0.08801624923944473
vn -0.6631776690483093 -0.7401024103164673 0.11155211925506592
vn -0.6631776690483093 -0.7401024103164673 0.11155212670564651
vn -0.6631776690483093 -0.7401024103164673 0.11155211925506592
vn -0.6631824970245361 -0.7400979995727539 0.11155309528112411
vn 0.2707940340042114 -0.9321046471595764 -0.2405235469341278
vn 0.27079400420188904 -0.9321046471595764 -0.2405235469341278
vn 0.2707940638065338 -0.9321046471595764 -0.24052351713180542
vn 0.2708073556423187 -0.9321004748344421 -0.24052457511425018
vn 0.9219362735748291 -0.17547164857387543 -0.345316082239151
vn 0.9219362735748291 -0.17547164857387543 -0.345316082239151
vn 0.9219362735748291 -0.17547163367271423 -0.3453161120414734
vn 0.9219362139701843 -0.17547182738780975 -0.3453161120414734
vn 0.6631869673728943 0.7400932908058167 -0.11155673861503601
vn 0.6631870269775391 0.7400932908058167 -0.11155673861503601
vn 0.6631869673728943 0.7400932908058167 -0.1115567535161972
vn 0.6631919145584106 0.7400887608528137 -0.11155778169631958
vn -0.27080437541007996 0.9321007132530212 0.24052706360816956
vn -0.27080437541007996 0.9321007132530212 0.24052703380584717
vn -0.27080437541007996 0.9321007132530212 0.24052706360816956
vn -0.2708199918270111 0.9320958256721497 0.24052824079990387
vn -0.921934962272644 0.17547862231731415 0.3453161418437958
vn -0.921934962272644 0.17547862231731415 0.34531617164611816
vn -0.9219349026679993 0.17547860741615295 0.34531617164611816
vn -0.921935498714447 0.1754765659570694 0.3453155755996704
vt 0.4349920451641083 0.2154673933982849
vt 0.3733355700969696 0.4776366949081421
vt 0.3733353316783905 0.2154673933982849
vt 0.4349920451641083 0.4776366353034973
vt 0.4987403452396393 0.21546727418899536
vt 0.4349920451641083 0.4776366353034973
vt 0.4349920451641083 0.2154673933982849
vt 0.4987403452396393 0.4776366353034973
vt 0.06505215913057327 0.2154671549797058
vt 0.003395412815734744 0.47763699293136597
vt 0.003395412815734744 0.2154671549797058
vt 0.06505218893289566 0.47763699293136597
vt 0.12670886516571045 0.21546727418899536
vt 0.06505218893289566 0.47763699293136597
vt 0.06505215913057327 0.2154671549797058
vt 0.12670886516571045 0.4776369333267212
vt 0.18836556375026703 0.2154673933982849
vt 0.12670886516571045 0.4776369333267212
vt 0.12670886516571045 0.21546727418899536
vt 0.18836556375026703 0.4776369333267212
vt 0.25002214312553406 0.2154673933982849
vt 0.18836556375026703 0.4776369333267212
vt 0.18836556375026703 0.2154673933982849
vt 0.2500222623348236 0.4776368737220764
vt 0.31167879700660706 0.2154673933982849
vt 0.2500222623348236 0.4776368737220764
vt 0.25002214312553406 0.2154673933982849
vt 0.3116789162158966 0.47763675451278687
vt 0.3733353316783905 0.2154673933982849
vt 0.3116789162158966 0.47763675451278687
vt 0.31167879700660706 0.2154673933982849
vt 0.3733355700969696 0.4776366949081421
vt 0.4535466730594635 0.07458370923995972
vt 0.3264661133289337 0.018940269947052002
vt 0.40090808272361755 0.018940269947052002
vt 0.2738276720046997 0.14492058753967285
vt 0.2738277316093445 0.07458370923995972
vt 0.40090808272361755 0.1946563720703125
vt 0.3264661431312561 0.19465625286102295
vt 0.4535466134548187 0.14492064714431763
vt 0.17423869669437408 0.004644572734832764
vt 0.09323281049728394 0.012388050556182861
vt 0.09028299897909164 0.005466759204864502
vt 0.17142526805400848 0.011622250080108643
vt 0.03848449885845184 0.06816065311431885
vt 0.031499363481998444 0.0653502345085144
vt 0.03925108537077904 0.14626926183700562
vt 0.03232245147228241 0.14921587705612183
vt 0.2341863512992859 0.06336522102355957
vt 0.22725771367549896 0.06631201505661011
vt 0.23500941693782806 0.14723092317581177
vt 0.22802427411079407 0.14442062377929688
vt 0.03232245147228241 0.14921587705612183
vt 0.09508353471755981 0.2009589672088623
vt 0.09227009117603302 0.20793664455413818
vt 0.03925108537077904 0.14626926183700562
vt 0.17327596247196198 0.20019322633743286
vt 0.17622581124305725 0.20711439847946167
vt 0.22802427411079407 0.14442062377929688
vt 0.23500941693782806 0.14723092317581177
vt 0.18813955783843994 0.2201155424118042
vt 0.1260930299758911 0.39817482233047485
vt 0.1260930299758911 0.2201155424118042
vt 0.18813955783843994 0.39817482233047485
vt 0.1260930299758911 0.2201155424118042
vt 0.06404651701450348 0.39817482233047485
vt 0.06404651701450348 0.2201155424118042
vt 0.1260930299758911 0.39817482233047485
vt 0.06404651701450348 0.2201155424118042
vt 0.0020000014919787645 0.39817482233047485
vt 0.0020000014919787645 0.2201155424118042
vt 0.06404651701450348 0.39817482233047485
vt 0.4983721673488617 0.2201155424118042
vt 0.43632566928863525 0.39817482233047485
vt 0.43632566928863525 0.2201155424118042
vt 0.4983721673488617 0.39817482233047485
vt 0.43632566928863525 0.2201155424118042
vt 0.3742791414260864 0.39817482233047485
vt 0.3742791414260864 0.2201155424118042
vt 0.43632566928863525 0.39817482233047485
vt 0.3742791414260864 0.2201155424118042
vt 0.3122326135635376 0.39817482233047485
vt 0.3122326135635376 0.2201155424118042
vt 0.3742791414260864 0.39817482233047485
vt 0.3122326135635376 0.2201155424118042
vt 0.25018611550331116 0.39817482233047485
vt 0.25018611550331116 0.2201155424118042
vt 0.3122326135635376 0.39817482233047485
vt 0.25018611550331116 0.2201155424118042
vt 0.18813955783843994 0.39817482233047485
vt 0.18813955783843994 0.2201155424118042
vt 0.25018611550331116 0.39817482233047485
vt 0.21312688291072845 0.33846771717071533
vt 0.2338188737630844 0.28785526752471924
vt 0.21312688291072845 0.28785526752471924
vt 0.2338188737630844 0.28785526752471924
vt 0.21312688291072845 0.33846771717071533
vt 0.2338188737630844 0.33846771717071533
vt 0.18971936404705048 0.33846771717071533
vt 0.21312688291072845 0.28785526752471924
vt 0.18971936404705048 0.28785526752471924
vt 0.21312688291072845 0.28785526752471924
vt 0.18971936404705048 0.33846771717071533
vt 0.21312688291072845 0.33846771717071533
vt 0.213127002120018 0.33846771717071533
vt 0.2338189333677292 0.28785526752471924
vt 0.213127002120018 0.28785526752471924
vt 0.2338189333677292 0.28785526752471924
vt 0.213127002120018 0.33846771717071533
vt 0.2338189333677292 0.33846771717071533
vt 0.18971936404705048 0.33846771717071533
vt 0.213127002120018 0.28785526752471924
vt 0.18971936404705048 0.28785526752471924
vt 0.213127002120018 0.28785526752471924
vt 0.18971936404705048 0.33846771717071533
vt 0.213127002120018 0.33846771717071533
vt 0.21312688291072845 0.3925107717514038
vt 0.2338188737630844 0.33846771717071533
vt 0.21312688291072845 0.33846771717071533
vt 0.2338188737630844 0.33846771717071533
vt 0.21312688291072845 0.3925107717514038
vt 0.2338188737630844 0.3925107717514038
vt 0.18971936404705048 0.3925107717514038
vt 0.21312688291072845 0.33846771717071533
vt 0.18971936404705048 0.33846771717071533
vt 0.21312688291072845 0.33846771717071533
vt 0.18971936404705048 0.3925107717514038
vt 0.21312688291072845 0.3925107717514038
vt 0.213127002120018 0.3925107717514038
vt 0.2338189333677292 0.33846771717071533
vt 0.213127002120018 0.33846771717071533
vt 0.2338189333677292 0.33846771717071533
vt 0.213127002120018 0.3925107717514038
vt 0.2338189333677292 0.3925107717514038
vt 0.18971936404705048 0.3925107717514038
vt 0.213127002120018 0.33846771717071533
vt 0.18971936404705048 0.33846771717071533
vt 0.213127002120018 0.33846771717071533
vt 0.18971936404705048 0.3925107717514038
vt 0.213127002120018 0.3925107717514038
vt 0.21312688291072845 0.4364633560180664
vt 0.2338188737630844 0.3926509618759155
vt 0.21312688291072845 0.3926509618759155
vt 0.2338188737630844 0.3926509618759155
vt 0.21312688291072845 0.4364633560180664
vt 0.2338188737630844 0.4364633560180664
vt 0.18971936404705048 0.4364633560180664
vt 0.21312688291072845 0.3926509618759155
vt 0.18971936404705048 0.3926509618759155
vt 0.21312688291072845 0.3926509618759155
vt 0.18971936404705048 0.4364633560180664
vt 0.21312688291072845 0.4364633560180664
vt 0.213127002120018 0.4364633560180664
vt 0.2338189333677292 0.3926509618759155
vt 0.213127002120018 0.3926509618759155
vt 0.2338189333677292 0.3926509618759155
vt 0.213127002120018 0.4364633560180664
vt 0.2338189333677292 0.4364633560180664
vt 0.18971936404705048 0.4364633560180664
vt 0.213127002120018 0.3926509618759155
vt 0.18971936404705048 0.3926509618759155
vt 0.213127002120018 0.3926509618759155
vt 0.18971936404705048 0.4364633560180664
vt 0.213127002120018 0.4364633560180664
vt 0.21277128159999847 0.09681046009063721
vt 0.23424433171749115 0.4364633560180664
vt 0.23424439132213593 0.09681046009063721
vt 0.21277128159999847 0.4364633560180664
vt 0.18971936404705048 0.09681046009063721
vt 0.21277128159999847 0.4364633560180664
vt 0.21277128159999847 0.09681046009063721
vt 0.18971936404705048 0.4364633560180664
vt 0.21277140080928802 0.09681046009063721
vt 0.18971936404705048 0.4364633560180664
vt 0.18971936404705048 0.09681046009063721
vt 0.21277140080928802 0.4364633560180664
vt 0.23424451053142548 0.09681046009063721
vt 0.21277140080928802 0.4364633560180664
vt 0.21277140080928802 0.09681046009063721
vt 0.23424451053142548 0.4364633560180664
vt 0.21353714168071747 0.09681046009063721
vt 0.2339615672826767 0.4038064479827881
vt 0.23422901332378387 0.09681046009063721
vt 0.2339615672826767 0.4038064479827881
vt 0.21353714168071747 0.09681046009063721
vt 0.21326963603496552 0.4038064479827881
vt 0.18971936404705048 0.4038064479827881
vt 0.21353714168071747 0.09681046009063721
vt 0.18971936404705048 0.09681046009063721
vt 0.21353714168071747 0.09681046009063721
vt 0.18971936404705048 0.4038064479827881
vt 0.21326963603496552 0.4038064479827881
vt 0.21326975524425507 0.4038064479827881
vt 0.23422913253307343 0.09681046009063721
vt 0.21353726089000702 0.09681046009063721
vt 0.23422913253307343 0.09681046009063721
vt 0.21326975524425507 0.4038064479827881
vt 0.23396168649196625 0.4038064479827881
vt 0.18971936404705048 0.4038064479827881
vt 0.21353726089000702 0.09681046009063721
vt 0.18971936404705048 0.09681046009063721
vt 0.21353726089000702 0.09681046009063721
vt 0.18971936404705048 0.4038064479827881
vt 0.21326975524425507 0.4038064479827881
vt 0.20138105750083923 0.4286048412322998
vt 0.2290715128183365 0.401189923286438
vt 0.2290715128183365 0.4286048412322998
vt 0.20138105750083923 0.401189923286438
vt 0.03180703520774841 0.1282510757446289
vt 0.061323702335357666 0.49802660942077637
vt 0.03180703520774841 0.49802517890930176
vt 0.061323702335357666 0.49802660942077637
vt 0.03180703520774841 0.1282510757446289
vt 0.061323732137680054 0.12825250625610352
vt 0.03216773271560669 0.49802517890930176
vt 0.0026507675647735596 0.8677992820739746
vt 0.0026507973670959473 0.49802517890930176
vt 0.0026507675647735596 0.8677992820739746
vt 0.03216773271560669 0.49802517890930176
vt 0.0321677029132843 0.8677992820739746
vt 0.061176300048828125 0.49802517890930176
vt 0.0316595733165741 0.8677992820739746
vt 0.031659603118896484 0.49802517890930176
vt 0.0316595733165741 0.8677992820739746
vt 0.061176300048828125 0.49802517890930176
vt 0.06117627024650574 0.8677992820739746
vt 0.0022288858890533447 0.1282510757446289
vt 0.03174576163291931 0.49802517890930176
vt 0.002228856086730957 0.49802517890930176
vt 0.03174576163291931 0.49802517890930176
vt 0.0022288858890533447 0.1282510757446289
vt 0.03174576163291931 0.1282510757446289
vt 0.06749538332223892 0.17352896928787231
vt 0.113557368516922 0.1274673342704773
vt 0.113557368516922 0.17352896928787231
vt 0.06749538332223892 0.1274673342704773
vt 0.03180703520774841 0.49802517890930176
vt 0.06132367253303528 0.8678007125854492
vt 0.03180703520774841 0.8677992820739746
vt 0.06132367253303528 0.8678007125854492
vt 0.03180703520774841 0.49802517890930176
vt 0.061323702335357666 0.49802660942077637
vt 0.03216776251792908 0.1282510757446289
vt 0.0026507973670959473 0.49802517890930176
vt 0.002650827169418335 0.1282510757446289
vt 0.0026507973670959473 0.49802517890930176
vt 0.03216776251792908 0.1282510757446289
vt 0.03216773271560669 0.49802517890930176
vt 0.06117632985115051 0.1282510757446289
vt 0.031659603118896484 0.49802517890930176
vt 0.03165963292121887 0.1282510757446289
vt 0.031659603118896484 0.49802517890930176
vt 0.06117632985115051 0.1282510757446289
vt 0.061176300048828125 0.49802517890930176
vt 0.002228856086730957 0.49802517890930176
vt 0.03174576163291931 0.8677992820739746
vt 0.0022288262844085693 0.8677992820739746
vt 0.03174576163291931 0.8677992820739746
vt 0.002228856086730957 0.49802517890930176
vt 0.03174576163291931 0.49802517890930176
vt 0.03180703520774841 0.1282510757446289
vt 0.061323702335357666 0.49802660942077637
vt 0.03180703520774841 0.49802517890930176
vt 0.061323702335357666 0.49802660942077637
vt 0.03180703520774841 0.1282510757446289
vt 0.061323732137680054 0.12825250625610352
vt 0.032167717814445496 0.6829122304916382
vt 0.0026507675647735596 0.8677992820739746
vt 0.0026507824659347534 0.6829122304916382
vt 0.0321677029132843 0.8677992820739746
vt 0.06117628514766693 0.6829122304916382
vt 0.0316595733165741 0.8677992820739746
vt 0.03165958821773529 0.6829122304916382
vt 0.06117627024650574 0.8677992820739746
vt 0.0022288858890533447 0.1282510757446289
vt 0.03174576163291931 0.49802517890930176
vt 0.002228856086730957 0.49802517890930176
vt 0.03174576163291931 0.49802517890930176
vt 0.0022288858890533447 0.1282510757446289
vt 0.03174576163291931 0.1282510757446289
vt 0.06749538332223892 0.17352896928787231
vt 0.113557368516922 0.1274673342704773
vt 0.113557368516922 0.17352896928787231
vt 0.06749538332223892 0.1274673342704773
vt 0.03180703520774841 0.49802517890930176
vt 0.06132368743419647 0.6829136610031128
vt 0.03180703520774841 0.6829122304916382
vt 0.061323702335357666 0.49802660942077637
vt 0.03216776251792908 0.1282510757446289
vt 0.0026507973670959473 0.49802517890930176
vt 0.002650827169418335 0.1282510757446289
vt 0.0026507973670959473 0.49802517890930176
vt 0.03216776251792908 0.1282510757446289
vt 0.03216773271560669 0.49802517890930176
vt 0.06117632985115051 0.1282510757446289
vt 0.031659603118896484 0.49802517890930176
vt 0.03165963292121887 0.1282510757446289
vt 0.031659603118896484 0.49802517890930176
vt 0.06117632985115051 0.1282510757446289
vt 0.061176300048828125 0.49802517890930176
vt 0.002228856086730957 0.49802517890930176
vt 0.03174576163291931 0.6829122304916382
vt 0.002228841185569763 0.6829122304916382
vt 0.03174576163291931 0.49802517890930176
vt 0.03216773271560669 0.49802517890930176
vt 0.0026507824659347534 0.6829122304916382
vt 0.0026507973670959473 0.49802517890930176
vt 0.032167717814445496 0.6829122304916382
vt 0.061176300048828125 0.49802517890930176
vt 0.03165958821773529 0.6829122304916382
vt 0.031659603118896484 0.49802517890930176
vt 0.06117628514766693 0.6829122304916382
vt 0.03180703520774841 0.6829122304916382
vt 0.06132367253303528 0.8678007125854492
vt 0.03180703520774841 0.8677992820739746
vt 0.06132368743419647 0.6829136610031128
vt 0.002228841185569763 0.6829122304916382
vt 0.03174576163291931 0.8677992820739746
vt 0.0022288262844085693 0.8677992820739746
vt 0.03174576163291931 0.6829122304916382
vt 0.3449559807777405 0.4995228052139282
vt 0.3148462772369385 0.001977205276489258
vt 0.3449559807777405 0.001977205276489258
vt 0.3148462772369385 0.4995228052139282
vt 0.37506577372550964 0.4995228052139282
vt 0.3449559807777405 0.001977205276489258
vt 0.37506577372550964 0.001977205276489258
vt 0.3449559807777405 0.4995228052139282
vt 0.40517544746398926 0.4995228052139282
vt 0.37506577372550964 0.001977205276489258
vt 0.40517544746398926 0.001977205276489258
vt 0.37506577372550964 0.4995228052139282
vt 0.34519657492637634 0.4995228052139282
vt 0.3150869309902191 0.001977205276489258
vt 0.34519657492637634 0.001977205276489258
vt 0.3150869309902191 0.4995228052139282
vt 0.3753063976764679 0.4995228052139282
vt 0.34519657492637634 0.001977205276489258
vt 0.3753063976764679 0.001977205276489258
vt 0.34519657492637634 0.4995228052139282
vt 0.4054160714149475 0.4995228052139282
vt 0.3753063976764679 0.001977205276489258
vt 0.4054160714149475 0.001977205276489258
vt 0.3753063976764679 0.4995228052139282
vt 0.0580952987074852 0.11603975296020508
vt 0.010367595590651035 0.03291124105453491
vt 0.057087838649749756 0.004604220390319824
vt 0.010871325619518757 0.08862894773483276
vt 0.1048155426979065 0.08773285150527954
vt 0.10431193560361862 0.03201502561569214
vt 0.3449559807777405 0.25075000524520874
vt 0.3148462772369385 0.001977205276489258
vt 0.3449559807777405 0.001977205276489258
vt 0.3148462772369385 0.25075000524520874
vt 0.37506577372550964 0.25075000524520874
vt 0.3449559807777405 0.001977205276489258
vt 0.37506577372550964 0.001977205276489258
vt 0.3449559807777405 0.25075000524520874
vt 0.40517544746398926 0.25075000524520874
vt 0.37506577372550964 0.001977205276489258
vt 0.40517544746398926 0.001977205276489258
vt 0.37506577372550964 0.25075000524520874
vt 0.3150869309902191 0.25075000524520874
vt 0.34519657492637634 0.001977205276489258
vt 0.34519657492637634 0.25075000524520874
vt 0.3150869309902191 0.001977205276489258
vt 0.34519657492637634 0.25075000524520874
vt 0.3753063976764679 0.001977205276489258
vt 0.3753063976764679 0.25075000524520874
vt 0.34519657492637634 0.001977205276489258
vt 0.3753063976764679 0.25075000524520874
vt 0.4054160714149475 0.001977205276489258
vt 0.4054160714149475 0.25075000524520874
vt 0.3753063976764679 0.001977205276489258
vt 0.3449559807777405 0.4995228052139282
vt 0.3148462772369385 0.25075000524520874
vt 0.3449559807777405 0.25075000524520874
vt 0.3148462772369385 0.4995228052139282
vt 0.37506577372550964 0.4995228052139282
vt 0.3449559807777405 0.25075000524520874
vt 0.37506577372550964 0.25075000524520874
vt 0.3449559807777405 0.4995228052139282
vt 0.40517544746398926 0.4995228052139282
vt 0.37506577372550964 0.25075000524520874
vt 0.40517544746398926 0.25075000524520874
vt 0.37506577372550964 0.4995228052139282
vt 0.34519657492637634 0.25075000524520874
vt 0.3150869309902191 0.4995228052139282
vt 0.3150869309902191 0.25075000524520874
vt 0.34519657492637634 0.4995228052139282
vt 0.3753063976764679 0.25075000524520874
vt 0.34519657492637634 0.4995228052139282
vt 0.34519657492637634 0.25075000524520874
vt 0.3753063976764679 0.4995228052139282
vt 0.4054160714149475 0.25075000524520874
vt 0.3753063976764679 0.4995228052139282
vt 0.3753063976764679 0.25075000524520874
vt 0.4054160714149475 0.4995228052139282

g bg_mdl_map_drum00
s 1
usemtl bg_mdl_map_drum00_0
f 3/3/3 2/2/2 1/1/1 
f 4/4/4 1/1/1 2/2/2 
f 7/7/7 6/6/6 5/5/5 
f 8/8/8 5/5/5 6/6/6 
f 11/11/11 10/10/10 9/9/9 
f 12/12/12 9/9/9 10/10/10 
f 15/15/15 14/14/14 13/13/13 
f 16/16/16 13/13/13 14/14/14 
f 19/19/19 18/18/18 17/17/17 
f 20/20/20 17/17/17 18/18/18 
f 23/23/23 22/22/22 21/21/21 
f 24/24/24 21/21/21 22/22/22 
f 27/27/27 26/26/26 25/25/25 
f 28/28/28 25/25/25 26/26/26 
f 31/31/31 30/30/30 29/29/29 
f 32/32/32 29/29/29 30/30/30 
f 35/35/35 34/34/34 33/33/33 
f 34/34/34 36/36/36 33/33/33 
f 37/37/37 36/36/36 34/34/34 
f 36/36/36 38/38/38 33/33/33 
f 39/39/39 38/38/38 36/36/36 
f 38/38/38 40/40/40 33/33/33 
f 43/43/43 42/42/42 41/41/41 
f 44/44/44 41/41/41 42/42/42 
f 42/42/42 43/43/43 45/45/45 
f 46/46/46 45/45/45 43/43/43 
f 45/45/45 46/46/46 47/47/47 
f 48/48/48 47/47/47 46/46/46 
f 41/41/41 44/44/44 49/49/49 
f 50/50/50 49/49/49 44/44/44 
f 49/49/49 50/50/50 51/51/51 
f 52/52/52 51/51/51 50/50/50 
f 55/55/55 54/54/54 53/53/53 
f 56/56/56 53/53/53 54/54/54 
f 54/54/54 55/55/55 57/57/57 
f 58/58/58 57/57/57 55/55/55 
f 57/57/57 58/58/58 59/59/59 
f 60/60/60 59/59/59 58/58/58 
f 63/63/63 62/62/62 61/61/61 
f 64/64/64 61/61/61 62/62/62 
f 67/67/67 66/66/66 65/65/65 
f 68/68/68 65/65/65 66/66/66 
f 71/71/71 70/70/70 69/69/69 
f 72/72/72 69/69/69 70/70/70 
f 75/75/75 74/74/74 73/73/73 
f 76/76/76 73/73/73 74/74/74 
f 79/79/79 78/78/78 77/77/77 
f 80/80/80 77/77/77 78/78/78 
f 83/83/83 82/82/82 81/81/81 
f 84/84/84 81/81/81 82/82/82 
f 87/87/87 86/86/86 85/85/85 
f 88/88/88 85/85/85 86/86/86 
f 91/91/91 90/90/90 89/89/89 
f 92/92/92 89/89/89 90/90/90 

usemtl bg_mdl_map_drum00_1
f 95/95/95 94/94/94 93/93/93 
f 98/98/98 97/97/97 96/96/96 
f 101/101/101 100/100/100 99/99/99 
f 104/104/104 103/103/103 102/102/102 
f 107/107/107 106/106/106 105/105/105 
f 110/110/110 109/109/109 108/108/108 
f 113/113/113 112/112/112 111/111/111 
f 116/116/116 115/115/115 114/114/114 
f 119/119/119 118/118/118 117/117/117 
f 122/122/122 121/121/121 120/120/120 
f 125/125/125 124/124/124 123/123/123 
f 128/128/128 127/127/127 126/126/126 
f 131/131/131 130/130/130 129/129/129 
f 134/134/134 133/133/133 132/132/132 
f 137/137/137 136/136/136 135/135/135 
f 140/140/140 139/139/139 138/138/138 
f 143/143/143 142/142/142 141/141/141 
f 146/146/146 145/145/145 144/144/144 
f 149/149/149 148/148/148 147/147/147 
f 152/152/152 151/151/151 150/150/150 
f 155/155/155 154/154/154 153/153/153 
f 158/158/158 157/157/157 156/156/156 
f 161/161/161 160/160/160 159/159/159 
f 164/164/164 163/163/163 162/162/162 
f 167/167/167 166/166/166 165/165/165 
f 168/168/168 165/165/165 166/166/166 
f 171/171/171 170/170/170 169/169/169 
f 172/172/172 169/169/169 170/170/170 
f 175/175/175 174/174/174 173/173/173 
f 176/176/176 173/173/173 174/174/174 
f 179/179/179 178/178/178 177/177/177 
f 180/180/180 177/177/177 178/178/178 
f 183/183/183 182/182/182 181/181/181 
f 186/186/186 185/185/185 184/184/184 
f 189/189/189 188/188/188 187/187/187 
f 192/192/192 191/191/191 190/190/190 
f 195/195/195 194/194/194 193/193/193 
f 198/198/198 197/197/197 196/196/196 
f 201/201/201 200/200/200 199/199/199 
f 204/204/204 203/203/203 202/202/202 
f 207/207/207 206/206/206 205/205/205 
f 208/208/208 205/205/205 206/206/206 

usemtl bg_mdl_map_drum00_2
f 211/211/211 210/210/210 209/209/209 
f 214/214/214 213/213/213 212/212/212 
f 217/217/217 216/216/216 215/215/215 
f 220/220/220 219/219/219 218/218/218 
f 223/223/223 222/222/222 221/221/221 
f 226/226/226 225/225/225 224/224/224 
f 229/229/229 228/228/228 227/227/227 
f 232/232/232 231/231/231 230/230/230 
f 235/235/235 234/234/234 233/233/233 
f 236/236/236 233/233/233 234/234/234 
f 239/239/239 238/238/238 237/237/237 
f 242/242/242 241/241/241 240/240/240 
f 245/245/245 244/244/244 243/243/243 
f 248/248/248 247/247/247 246/246/246 
f 251/251/251 250/250/250 249/249/249 
f 254/254/254 253/253/253 252/252/252 
f 257/257/257 256/256/256 255/255/255 
f 260/260/260 259/259/259 258/258/258 
f 263/263/263 262/262/262 261/261/261 
f 266/266/266 265/265/265 264/264/264 
f 269/269/269 268/268/268 267/267/267 
f 270/270/270 267/267/267 268/268/268 
f 273/273/273 272/272/272 271/271/271 
f 274/274/274 271/271/271 272/272/272 
f 277/277/277 276/276/276 275/275/275 
f 280/280/280 279/279/279 278/278/278 
f 283/283/283 282/282/282 281/281/281 
f 284/284/284 281/281/281 282/282/282 
f 287/287/287 286/286/286 285/285/285 
f 288/288/288 285/285/285 286/286/286 
f 291/291/291 290/290/290 289/289/289 
f 294/294/294 293/293/293 292/292/292 
f 297/297/297 296/296/296 295/295/295 
f 300/300/300 299/299/299 298/298/298 
f 303/303/303 302/302/302 301/301/301 
f 304/304/304 301/301/301 302/302/302 
f 307/307/307 306/306/306 305/305/305 
f 308/308/308 305/305/305 306/306/306 
f 311/311/311 310/310/310 309/309/309 
f 312/312/312 309/309/309 310/310/310 
f 315/315/315 314/314/314 313/313/313 
f 316/316/316 313/313/313 314/314/314 
f 319/319/319 318/318/318 317/317/317 
f 320/320/320 317/317/317 318/318/318 
f 323/323/323 322/322/322 321/321/321 
f 324/324/324 321/321/321 322/322/322 
f 327/327/327 326/326/326 325/325/325 
f 328/328/328 325/325/325 326/326/326 
f 331/331/331 330/330/330 329/329/329 
f 332/332/332 329/329/329 330/330/330 
f 335/335/335 334/334/334 333/333/333 
f 336/336/336 333/333/333 334/334/334 
f 339/339/339 338/338/338 337/337/337 
f 340/340/340 337/337/337 338/338/338 
f 343/343/343 342/342/342 341/341/341 
f 344/344/344 341/341/341 342/342/342 
f 347/347/347 346/346/346 345/345/345 
f 348/348/348 345/345/345 346/346/346 
f 345/345/345 349/349/349 347/347/347 
f 350/350/350 347/347/347 349/349/349 
f 353/353/353 352/352/352 351/351/351 
f 354/354/354 351/351/351 352/352/352 
f 357/357/357 356/356/356 355/355/355 
f 358/358/358 355/355/355 356/356/356 
f 361/361/361 360/360/360 359/359/359 
f 362/362/362 359/359/359 360/360/360 
f 365/365/365 364/364/364 363/363/363 
f 366/366/366 363/363/363 364/364/364 
f 369/369/369 368/368/368 367/367/367 
f 370/370/370 367/367/367 368/368/368 
f 373/373/373 372/372/372 371/371/371 
f 374/374/374 371/371/371 372/372/372 
f 377/377/377 376/376/376 375/375/375 
f 378/378/378 375/375/375 376/376/376 
f 381/381/381 380/380/380 379/379/379 
f 382/382/382 379/379/379 380/380/380 
f 385/385/385 384/384/384 383/383/383 
f 386/386/386 383/383/383 384/384/384 
f 389/389/389 388/388/388 387/387/387 
f 390/390/390 387/387/387 388/388/388 
f 393/393/393 392/392/392 391/391/391 
f 394/394/394 391/391/391 392/392/392 
f 397/397/397 396/396/396 395/395/395 
f 398/398/398 395/395/395 396/396/396 

