v -0.5 -1.0 1.5
v 0.5 0.0 1.5
v 0.5 -1.0 1.5
v -0.5 0.0 1.5
v 0.5 1.0 1.5
v -0.5 1.0 1.5
v -0.5 -1.0 0.0
v 0.5 -1.0 1.5
v 0.5 -1.0 0.0
v -0.5 -1.0 1.5
v 0.5 -1.0 0.0
v 0.5 0.0 1.5
v 0.5 0.0 0.0
v 0.5 -1.0 1.5
v 0.5 0.0 0.0
v 0.5 1.0 1.5
v 0.5 1.0 0.0
v 0.5 0.0 1.5
v 0.5 1.0 0.0
v -0.5 1.0 1.5
v -0.5 1.0 0.0
v 0.5 1.0 1.5
v -0.5 1.0 0.0
v -0.5 0.0 1.5
v -0.5 0.0 0.0
v -0.5 1.0 1.5
v -0.5 0.0 0.0
v -0.5 -1.0 1.5
v -0.5 -1.0 0.0
v -0.5 0.0 1.5
vn -0.0 0.0 1.0
vn -0.0 0.0 1.0
vn -0.0 0.0 1.0
vn -0.0 0.0 1.0
vn -0.0 0.0 1.0
vn -0.0 0.0 1.0
vn -0.0 -1.0 0.0
vn -0.0 -1.0 0.0
vn -0.0 -1.0 0.0
vn -0.0 -1.0 0.0
vn 1.0 0.0 0.0
vn 1.0 0.0 0.0
vn 1.0 0.0 0.0
vn 1.0 0.0 0.0
vn 1.0 0.0 0.0
vn 1.0 0.0 0.0
vn 1.0 0.0 0.0
vn 1.0 0.0 0.0
vn -0.0 1.0 0.0
vn -0.0 1.0 0.0
vn -0.0 1.0 0.0
vn -0.0 1.0 0.0
vn -1.0 0.0 0.0
vn -1.0 0.0 0.0
vn -1.0 0.0 0.0
vn -1.0 0.0 0.0
vn -1.0 0.0 0.0
vn -1.0 0.0 0.0
vn -1.0 0.0 0.0
vn -1.0 0.0 0.0
vt 0.0011050738394260406 1.00361809739843
vt 0.5011050701141357 0.5036180913448334
vt 0.5011050701141357 1.00361809739843
vt 0.0011050738394260406 0.5036180913448334
vt 0.5011050701141357 0.0036181211471557617
vt 0.0011050738394260406 0.0036181211471557617
vt 0.5 0.9979999999050051
vt 0.9979999661445618 0.0
vt 0.9979999661445618 0.9979999999050051
vt 0.5 0.0
vt 0.5 0.9979999999050051
vt 0.9979512095451355 0.0
vt 0.9979512095451355 0.9979999999050051
vt 0.5 0.0
vt 0.0 0.9979999999050051
vt 0.5 0.0
vt 0.5 0.9979999999050051
vt 0.0 0.0
vt 0.0 0.9979999999050051
vt 0.5 0.0
vt 0.5 0.9979999999050051
vt 0.0 0.0
vt 0.5 0.9979999999050051
vt 0.9979512095451355 0.0
vt 0.9979512095451355 0.9979999999050051
vt 0.5 0.0
vt 0.0 0.9979999999050051
vt 0.5 0.0
vt 0.5 0.9979999999050051
vt 0.0 0.0

g bg_mdl_map_ground00_iseki_2x1h150
s 1
usemtl bg_mdl_map_ground00_iseki_2x1h150_0
f 3/3/3 2/2/2 1/1/1 
f 4/4/4 1/1/1 2/2/2 
f 2/2/2 5/5/5 4/4/4 
f 6/6/6 4/4/4 5/5/5 

usemtl bg_mdl_map_ground00_iseki_2x1h150_1
f 9/9/9 8/8/8 7/7/7 
f 10/10/10 7/7/7 8/8/8 
f 13/13/13 12/12/12 11/11/11 
f 14/14/14 11/11/11 12/12/12 
f 17/17/17 16/16/16 15/15/15 
f 18/18/18 15/15/15 16/16/16 
f 21/21/21 20/20/20 19/19/19 
f 22/22/22 19/19/19 20/20/20 
f 25/25/25 24/24/24 23/23/23 
f 26/26/26 23/23/23 24/24/24 
f 29/29/29 28/28/28 27/27/27 
f 30/30/30 27/27/27 28/28/28 

