v -0.5 -0.9215786457061768 0.5
v 0.40827879309654236 -0.88319331407547 0.5
v 0.35877683758735657 -0.9215786457061768 0.5
v 0.4406372010707855 -0.16775596141815186 0.5
v 0.40827879309654236 6.271362508414313e-05 0.5
v -0.5 6.271362508414313e-05 0.5
v 0.40827879309654236 0.9040391445159912 0.5
v 0.3470190465450287 0.9384229183197021 0.5
v -0.5 0.9384229183197021 0.5
v 0.4187915027141571 -1.0 0.0
v -0.5 -1.0 0.45499998331069946
v 0.4187915027141571 -1.0 0.45499998331069946
v -0.5 -1.0 0.0
v 0.5 -0.9099999666213989 0.0
v 0.4187915027141571 -1.0 0.45499998331069946
v 0.5 -0.9099999666213989 0.45499998331069946
v 0.4187915027141571 -1.0 0.0
v 0.5 0.9313476085662842 0.0
v 0.5 0.0 0.45499998331069946
v 0.5 0.9313476085662842 0.45499998331069946
v 0.5 0.0 0.0
v 0.4099999964237213 1.0 0.0
v 0.5 0.9313476085662842 0.45499998331069946
v 0.4099999964237213 1.0 0.45499998331069946
v 0.5 0.9313476085662842 0.0
v 0.5323584079742432 -0.1729000061750412 0.0
v 0.5 -0.9099999666213989 0.45499998331069946
v 0.5323584079742432 -0.1729000061750412 0.45499998331069946
v 0.5 -0.9099999666213989 0.0
v -0.5 1.0 0.0
v 0.4099999964237213 1.0 0.45499998331069946
v -0.5 1.0 0.45499998331069946
v 0.4099999964237213 1.0 0.0
v 0.35877683758735657 -0.9215786457061768 0.5
v -0.5 -1.0 0.45499998331069946
v -0.5 -0.9215786457061768 0.5
v 0.4187915027141571 -1.0 0.45499998331069946
v 0.40827879309654236 -0.88319331407547 0.5
v 0.4187915027141571 -1.0 0.45499998331069946
v 0.35877683758735657 -0.9215786457061768 0.5
v 0.4187915027141571 -1.0 0.45499998331069946
v 0.40827879309654236 -0.88319331407547 0.5
v 0.5 -0.9099999666213989 0.45499998331069946
v 0.40827879309654236 0.9040391445159912 0.5
v 0.5 0.0 0.45499998331069946
v 0.40827879309654236 6.271362508414313e-05 0.5
v 0.5 0.9313476085662842 0.45499998331069946
v 0.3470190465450287 0.9384229183197021 0.5
v 0.5 0.9313476085662842 0.45499998331069946
v 0.40827879309654236 0.9040391445159912 0.5
v 0.5 0.9313476085662842 0.45499998331069946
v 0.3470190465450287 0.9384229183197021 0.5
v 0.4099999964237213 1.0 0.45499998331069946
v 0.5 0.0 0.45499998331069946
v 0.4406372010707855 -0.16775596141815186 0.5
v 0.40827879309654236 6.271362508414313e-05 0.5
v 0.5323584079742432 -0.1729000061750412 0.45499998331069946
v -0.5 0.9384229183197021 0.5
v 0.4099999964237213 1.0 0.45499998331069946
v 0.3470190465450287 0.9384229183197021 0.5
v -0.5 1.0 0.45499998331069946
v 0.5 0.0 0.0
v 0.5323584079742432 -0.1729000061750412 0.45499998331069946
v 0.5 0.0 0.45499998331069946
v 0.5323584079742432 -0.1729000061750412 0.0
v 0.40827879309654236 -0.88319331407547 0.5
v 0.5323584079742432 -0.1729000061750412 0.45499998331069946
v 0.5 -0.9099999666213989 0.45499998331069946
v 0.4406372010707855 -0.16775596141815186 0.5
vn -0.0 0.0 1.0
vn -0.0 0.0 1.0
vn -0.0 0.0 1.0
vn -0.0 0.0 1.0
vn -0.0 0.0 1.0
vn -0.0 0.0 1.0
vn -0.0 0.0 1.0
vn -0.0 0.0 1.0
vn -0.0 0.0 1.0
vn -0.0 -1.0 0.0
vn -0.0 -1.0 0.0
vn -0.0 -1.0 0.0
vn -0.0 -1.0 0.0
vn 0.7424383163452148 -0.6699143648147583 0.0
vn 0.7424383163452148 -0.6699143648147583 0.0
vn 0.7424383163452148 -0.6699144244194031 0.0
vn 0.7424383163452148 -0.6699144244194031 0.0
vn 1.0 0.0 0.0
vn 1.0 0.0 0.0
vn 1.0 0.0 0.0
vn 1.0 0.0 0.0
vn 0.6064953804016113 0.7950870394706726 0.0
vn 0.6064953804016113 0.7950870394706726 0.0
vn 0.6064953804016113 0.7950870394706726 0.0
vn 0.6064953804016113 0.7950870394706726 0.0
vn 0.9990378618240356 -0.04385736584663391 0.0
vn 0.9990378618240356 -0.04385736212134361 0.0
vn 0.9990378618240356 -0.04385736957192421 0.0
vn 0.9990378618240356 -0.04385736957192421 0.0
vn -0.0 1.0 0.0
vn -0.0 1.0 0.0
vn -0.0 1.0 0.0
vn -0.0 1.0 0.0
vn -0.0 -0.49770402908325195 0.8673468828201294
vn -0.0 -0.4977039694786072 0.8673468828201294
vn -0.0 -0.49770402908325195 0.8673468828201294
vn -0.0 -0.49770402908325195 0.8673468828201294
vn 0.254106730222702 -0.3276977241039276 0.9099692702293396
vn 0.2541067600250244 -0.3276977241039276 0.9099692702293396
vn 0.2541067600250244 -0.3276976943016052 0.9099692702293396
vn 0.34403643012046814 -0.31042978167533875 0.886155903339386
vn 0.34403643012046814 -0.31042981147766113 0.886155903339386
vn 0.34403643012046814 -0.31042981147766113 0.886155903339386
vn 0.44046205282211304 0.0 0.8977711796760559
vn 0.44046205282211304 0.0 0.8977711796760559
vn 0.44046202301979065 0.0 0.8977711796760559
vn 0.4404620826244354 0.0 0.8977711796760559
vn 0.2681702673435211 0.4777849614620209 0.8365442156791687
vn 0.2681702673435211 0.4777849614620209 0.8365442156791687
vn 0.2681702673435211 0.4777849614620209 0.8365442156791687
vn 0.27824220061302185 0.36476242542266846 0.8885548114776611
vn 0.27824220061302185 0.36476242542266846 0.8885548114776611
vn 0.27824217081069946 0.36476242542266846 0.8885548114776611
vn 0.43892842531204224 0.08463314175605774 0.8945273160934448
vn 0.43892842531204224 0.08463313430547714 0.8945273160934448
vn 0.43892842531204224 0.08463313430547714 0.8945273160934448
vn 0.44268903136253357 0.0828496590256691 0.8928394913673401
vn -0.0 0.5900284051895142 0.8073825836181641
vn -0.0 0.5900283455848694 0.8073825836181641
vn -0.0 0.5900283455848694 0.8073825836181641
vn -0.0 0.5900282859802246 0.8073825836181641
vn 0.982934296131134 0.1839570701122284 0.0
vn 0.982934296131134 0.1839570552110672 0.0
vn 0.982934296131134 0.1839570701122284 0.0
vn 0.982934296131134 0.1839570701122284 0.0
vn 0.435868501663208 -0.019134456291794777 0.8998068571090698
vn 0.4358685314655304 -0.019134454429149628 0.8998068571090698
vn 0.435868501663208 -0.019134454429149628 0.8998068571090698
vn 0.43947634100914 -0.019876999780535698 0.8980342745780945
vt 1.7583272438059794e-07 0.7500000596046448
vt 0.022500166669487953 1.0000000596046448
vt 1.649048613217019e-07 1.0000000596046448
vt 0.20677517354488373 1.0000000596046448
vt 0.2500001788139343 1.0000000596046448
vt 0.2500001788139343 0.7500000596046448
vt 0.5002934336662292 1.0000000596046448
vt 0.5002934336662292 0.9775000587105751
vt 0.5002934336662292 0.7500000596046448
vt 0.25099998712539673 0.38478076457977295
vt 0.0020000000949949026 0.28513407707214355
vt 0.25099998712539673 0.28513407707214355
vt 0.0020000000949949026 0.38478076457977295
vt 0.27340999245643616 0.38478076457977295
vt 0.25099998712539673 0.28513407707214355
vt 0.27340999245643616 0.28513407707214355
vt 0.25099998712539673 0.38478076457977295
vt 0.7489999532699585 0.38478076457977295
vt 0.5 0.28513407707214355
vt 0.7489999532699585 0.28513407707214355
vt 0.5 0.38478076457977295
vt 0.7714099287986755 0.38478076457977295
vt 0.7489999532699585 0.28513407707214355
vt 0.7714099287986755 0.28513407707214355
vt 0.7489999532699585 0.38478076457977295
vt 0.4569478929042816 0.38478076457977295
vt 0.27340999245643616 0.28513407707214355
vt 0.4569478929042816 0.28513407707214355
vt 0.27340999245643616 0.38478076457977295
vt 0.9979999661445618 0.38478076457977295
vt 0.7714099287986755 0.28513407707214355
vt 0.9979999661445618 0.28513407707214355
vt 0.7714099287986755 0.38478076457977295
vt 0.25099998712539673 0.241644024848938
vt 0.0020000000949949026 0.28513407707214355
vt 0.0020000000949949026 0.241644024848938
vt 0.25099998712539673 0.28513407707214355
vt 0.27340999245643616 0.241644024848938
vt 0.25099998712539673 0.28513407707214355
vt 0.25099998712539673 0.241644024848938
vt 0.25099998712539673 0.28513407707214355
vt 0.27340999245643616 0.241644024848938
vt 0.27340999245643616 0.28513407707214355
vt 0.7489999532699585 0.241644024848938
vt 0.5 0.28513407707214355
vt 0.5 0.241644024848938
vt 0.7489999532699585 0.28513407707214355
vt 0.7714099287986755 0.241644024848938
vt 0.7489999532699585 0.28513407707214355
vt 0.7489999532699585 0.241644024848938
vt 0.7489999532699585 0.28513407707214355
vt 0.7714099287986755 0.241644024848938
vt 0.7714099287986755 0.28513407707214355
vt 0.5 0.28513407707214355
vt 0.4569478929042816 0.241644024848938
vt 0.5 0.241644024848938
vt 0.4569478929042816 0.28513407707214355
vt 0.9979999661445618 0.241644024848938
vt 0.7714099287986755 0.28513407707214355
vt 0.7714099287986755 0.241644024848938
vt 0.9979999661445618 0.28513407707214355
vt 0.5 0.38478076457977295
vt 0.4569478929042816 0.28513407707214355
vt 0.5 0.28513407707214355
vt 0.4569478929042816 0.38478076457977295
vt 0.27340999245643616 0.241644024848938
vt 0.4569478929042816 0.28513407707214355
vt 0.27340999245643616 0.28513407707214355
vt 0.4569478929042816 0.241644024848938

g bg_mdl_bt_1x2_50
s 1
usemtl bg_mdl_bt_1x2_50_0
f 3/3/3 2/2/2 1/1/1 
f 2/2/2 4/4/4 1/1/1 
f 4/4/4 5/5/5 1/1/1 
f 1/1/1 5/5/5 6/6/6 
f 5/5/5 7/7/7 6/6/6 
f 7/7/7 8/8/8 6/6/6 
f 6/6/6 8/8/8 9/9/9 

usemtl bg_mdl_bt_1x2_50_1
f 12/12/12 11/11/11 10/10/10 
f 13/13/13 10/10/10 11/11/11 
f 16/16/16 15/15/15 14/14/14 
f 17/17/17 14/14/14 15/15/15 
f 20/20/20 19/19/19 18/18/18 
f 21/21/21 18/18/18 19/19/19 
f 24/24/24 23/23/23 22/22/22 
f 25/25/25 22/22/22 23/23/23 
f 28/28/28 27/27/27 26/26/26 
f 29/29/29 26/26/26 27/27/27 
f 32/32/32 31/31/31 30/30/30 
f 33/33/33 30/30/30 31/31/31 
f 36/36/36 35/35/35 34/34/34 
f 37/37/37 34/34/34 35/35/35 
f 40/40/40 39/39/39 38/38/38 
f 43/43/43 42/42/42 41/41/41 
f 46/46/46 45/45/45 44/44/44 
f 47/47/47 44/44/44 45/45/45 
f 50/50/50 49/49/49 48/48/48 
f 53/53/53 52/52/52 51/51/51 
f 56/56/56 55/55/55 54/54/54 
f 57/57/57 54/54/54 55/55/55 
f 60/60/60 59/59/59 58/58/58 
f 61/61/61 58/58/58 59/59/59 
f 64/64/64 63/63/63 62/62/62 
f 65/65/65 62/62/62 63/63/63 
f 68/68/68 67/67/67 66/66/66 
f 69/69/69 66/66/66 67/67/67 

