v -3.0 0.9999987483024597 0.0
v -3.96581768989563 0.4999987781047821 0.0
v -3.9181737899780273 0.9999987483024597 0.0
v -3.0 0.07414977997541428 0.0
v -3.930778741836548 0.04261596500873566 0.0
v -2.0 0.0947377011179924 0.0
v -2.0 0.9999987483024597 0.0
v -1.2777636051177979 0.10116332769393921 0.0
v -1.0 0.9999987483024597 0.0
v -1.0 0.06207626312971115 0.0
v -0.0 0.9999987483024597 0.0
v -0.0 0.05838103964924812 0.0
v -3.0 1.896134853363037 0.0
v -4.022569179534912 1.499998688697815 0.0
v -3.7895219326019287 1.9250030517578125 0.0
v -3.962146520614624 1.7893913984298706 0.0
v -2.0813333988189697 2.034747838973999 0.0
v -1.0 1.999998688697815 0.0
v -0.0 1.999998688697815 0.0
v -1.0 2.9999988079071045 0.0
v -2.0421810150146484 2.519998788833618 0.0
v -1.9205737113952637 2.9999988079071045 0.0
v -0.0 2.9999988079071045 0.0
v -1.0 4.0752105712890625 0.0
v -1.7963415384292603 4.0752105712890625 0.0
v -3.9108409881591797 1.9044322967529297 -0.07810790836811066
v -1.0 -0.0013879394391551614 -0.01529846154153347
v -0.0 -0.019134826958179474 -0.01529846154153347
v -1.2999999523162842 0.05429534614086151 -0.01529846154153347
v -2.0 0.04622802510857582 -0.01529846154153347
v -2.5 0.0005154418759047985 -0.01529846154153347
v -3.0 0.028002776205539703 -0.01529846154153347
v -3.5 0.0010937500046566129 -0.01529846154153347
v 1.0 0.9999987483024597 0.0
v 1.0 -0.0608227513730526 0.0
v 2.0 0.9999987483024597 0.0
v 2.0 -0.0608227513730526 0.0
v 3.0 0.9999987483024597 0.0
v 3.0 -0.0608227513730526 0.0
v 1.0 1.999998688697815 0.0
v 2.0 1.999998688697815 0.0
v 3.0 1.999998688697815 0.0
v 0.9376580715179443 2.9999988079071045 0.0
v 2.0 2.9999988079071045 0.0
v 1.5 3.0742175579071045 0.0
v 3.0 2.9999988079071045 0.0
v -3.5 0.0010937500046566129 -0.01529846154153347
v -3.0 -0.018226470798254013 -0.04198241978883743
v -3.5 -0.045135498046875 -0.04198241978883743
v -3.0 0.028002776205539703 -0.01529846154153347
v -3.930778741836548 0.04261596500873566 0.0
v -2.5 0.0005154418759047985 -0.01529846154153347
v -2.0 -1.220703097715159e-06 -0.04198241978883743
v -2.5 -0.04571380466222763 -0.04198241978883743
v -2.0 0.04622802510857582 -0.01529846154153347
v -1.2999999523162842 0.05429534614086151 -0.01529846154153347
v -1.0 -0.04761718586087227 -0.04198241978883743
v -1.2999999523162842 0.008066100999712944 -0.04198241978883743
v -1.0 -0.0013879394391551614 -0.01529846154153347
v -1.0 -0.0013879394391551614 -0.01529846154153347
v -0.0 -0.06536407023668289 -0.04198241978883743
v -1.0 -0.04761718586087227 -0.04198241978883743
v -0.0 -0.019134826958179474 -0.01529846154153347
v -3.96581768989563 0.4999987781047821 0.0
v -4.0 -1.220703097715159e-06 -0.04198241978883743
v -4.035038948059082 0.4999987781047821 -0.05999999865889549
v -4.0 -1.220703097715159e-06 -0.04198241978883743
v -3.96581768989563 0.4999987781047821 0.0
v -3.930778741836548 0.04261596500873566 0.0
v -4.022569179534912 1.499998688697815 0.0
v -4.0 0.9999987483024597 -0.05999999865889549
v -4.104395389556885 1.499998688697815 -0.05999999865889549
v -3.9181737899780273 0.9999987483024597 0.0
v -3.7968733310699463 2.0045738220214844 -0.12037482857704163
v -3.9108409881591797 1.9044322967529297 -0.07810790836811066
v -4.0 1.965761661529541 -0.13576467335224152
v -3.9108409881591797 1.9044322967529297 -0.07810790836811066
v -3.7968733310699463 2.0045738220214844 -0.12037482857704163
v -3.7895219326019287 1.9250030517578125 0.0
v -3.0 1.896134853363037 0.0
v -2.196455240249634 2.121967077255249 -0.028279494494199753
v -2.0813333988189697 2.034747838973999 0.0
v -2.0813333988189697 2.034747838973999 0.0
v -2.196455240249634 2.121967077255249 -0.028279494494199753
v -2.0421810150146484 2.519998788833618 0.0
v 1.5 3.0742175579071045 0.0
v 0.9376580715179443 2.9999988079071045 -2.0
v 1.5 3.0742175579071045 -2.0
v 0.9376580715179443 2.9999988079071045 0.0
v 2.0 2.9999988079071045 0.0
v 3.0 2.9999988079071045 -2.0
v 3.0 2.9999988079071045 0.0
v 2.0 2.9999988079071045 -2.0
v -2.1795310974121094 2.5848517417907715 -2.0
v -2.0066635608673096 3.0048646926879883 -0.05999273806810379
v -2.109872817993164 2.519998788833618 -0.05688238516449928
v -2.0066635608673096 3.0048646926879883 -0.05999273806810379
v -2.1795310974121094 2.5848517417907715 -2.0
v -2.2221455574035645 3.16222882270813 -2.0
v -2.5292792320251465 2.3823115825653076 -2.0
v -2.109872817993164 2.519998788833618 -0.05688238516449928
v -2.245054006576538 2.1941332817077637 -0.08133814483880997
v -2.109872817993164 2.519998788833618 -0.05688238516449928
v -2.5292792320251465 2.3823115825653076 -2.0
v -2.1795310974121094 2.5848517417907715 -2.0
v -3.0 1.999998688697815 -2.0
v -2.245054006576538 2.1941332817077637 -0.08133814483880997
v -3.0 1.999998688697815 -0.05999999865889549
v -2.245054006576538 2.1941332817077637 -0.08133814483880997
v -3.0 1.999998688697815 -2.0
v -2.5292792320251465 2.3823115825653076 -2.0
v -2.0 0.04622802510857582 -0.01529846154153347
v -1.2999999523162842 0.008066100999712944 -0.04198241978883743
v -2.0 -1.220703097715159e-06 -0.04198241978883743
v -1.2999999523162842 0.05429534614086151 -0.01529846154153347
v -3.962146520614624 1.7893913984298706 0.0
v -4.0 1.965761661529541 -0.13576467335224152
v -3.9108409881591797 1.9044322967529297 -0.07810790836811066
v -3.962146520614624 1.7893913984298706 0.0
v -4.104395389556885 1.499998688697815 -0.05999999865889549
v -4.0 1.965761661529541 -0.13576467335224152
v -4.022569179534912 1.499998688697815 0.0
v -4.104395389556885 1.499998688697815 -0.05999999865889549
v -3.962146520614624 1.7893913984298706 0.0
v -3.930778741836548 0.04261596500873566 0.0
v -3.5 -0.045135498046875 -0.04198241978883743
v -4.0 -1.220703097715159e-06 -0.04198241978883743
v -3.0 0.028002776205539703 -0.01529846154153347
v -2.5 -0.04571380466222763 -0.04198241978883743
v -3.0 -0.018226470798254013 -0.04198241978883743
v -2.5 0.0005154418759047985 -0.01529846154153347
v -3.9181737899780273 0.9999987483024597 0.0
v -4.035038948059082 0.4999987781047821 -0.05999999865889549
v -4.0 0.9999987483024597 -0.05999999865889549
v -4.035038948059082 0.4999987781047821 -0.05999999865889549
v -3.9181737899780273 0.9999987483024597 0.0
v -3.96581768989563 0.4999987781047821 0.0
v 2.0 2.9999988079071045 0.0
v 1.5 3.0742175579071045 -2.0
v 2.0 2.9999988079071045 -2.0
v 1.5 3.0742175579071045 0.0
v -1.8821935653686523 4.0752105712890625 -0.06620371341705322
v -2.2221455574035645 3.16222882270813 -2.0
v -2.0698869228363037 4.0752105712890625 -2.0
v -2.2221455574035645 3.16222882270813 -2.0
v -1.8821935653686523 4.0752105712890625 -0.06620371341705322
v -2.0066635608673096 3.0048646926879883 -0.05999273806810379
v -3.5 -0.045135498046875 -2.0
v -3.0 -0.018226470798254013 -0.04198241978883743
v -3.0 -0.018226470798254013 -2.0
v -3.5 -0.045135498046875 -0.04198241978883743
v -2.5 -0.04571380466222763 -2.0
v -2.0 -1.220703097715159e-06 -0.04198241978883743
v -2.0 -1.220703097715159e-06 -2.0
v -2.5 -0.04571380466222763 -0.04198241978883743
v -1.2999999523162842 0.008066100999712944 -2.0
v -1.0 -0.04761718586087227 -0.04198241978883743
v -1.0 -0.04761718586087227 -2.0
v -1.2999999523162842 0.008066100999712944 -0.04198241978883743
v -1.0 -0.04761718586087227 -2.0
v -0.0 -0.06536407023668289 -0.04198241978883743
v -0.0 -0.06536407023668289 -2.0
v -1.0 -0.04761718586087227 -0.04198241978883743
v -4.035038948059082 0.4999987781047821 -2.0
v -4.0 -1.220703097715159e-06 -0.04198241978883743
v -4.0 -1.220703097715159e-06 -2.0
v -4.035038948059082 0.4999987781047821 -0.05999999865889549
v -4.104395389556885 1.499998688697815 -2.0
v -4.0 0.9999987483024597 -0.05999999865889549
v -4.0 0.9999987483024597 -2.0
v -4.104395389556885 1.499998688697815 -0.05999999865889549
v -3.847588300704956 2.0318565368652344 -2.0
v -4.0 1.965761661529541 -0.13576467335224152
v -4.0 1.999998688697815 -2.0
v -3.7968733310699463 2.0045738220214844 -0.12037482857704163
v -2.0 -1.220703097715159e-06 -2.0
v -1.2999999523162842 0.008066100999712944 -0.04198241978883743
v -1.2999999523162842 0.008066100999712944 -2.0
v -2.0 -1.220703097715159e-06 -0.04198241978883743
v -4.0 1.965761661529541 -0.13576467335224152
v -4.104395389556885 1.499998688697815 -2.0
v -4.0 1.999998688697815 -2.0
v -4.104395389556885 1.499998688697815 -0.05999999865889549
v -4.0 -1.220703097715159e-06 -2.0
v -3.5 -0.045135498046875 -0.04198241978883743
v -3.5 -0.045135498046875 -2.0
v -4.0 -1.220703097715159e-06 -0.04198241978883743
v -3.0 -0.018226470798254013 -2.0
v -2.5 -0.04571380466222763 -0.04198241978883743
v -2.5 -0.04571380466222763 -2.0
v -3.0 -0.018226470798254013 -0.04198241978883743
v -4.0 0.9999987483024597 -2.0
v -4.035038948059082 0.4999987781047821 -0.05999999865889549
v -4.035038948059082 0.4999987781047821 -2.0
v -4.0 0.9999987483024597 -0.05999999865889549
v -3.7895219326019287 1.9250030517578125 0.0
v -3.0 1.999998688697815 -0.05999999865889549
v -3.0 1.896134853363037 0.0
v -3.0 1.999998688697815 -0.05999999865889549
v -3.7895219326019287 1.9250030517578125 0.0
v -3.7968733310699463 2.0045738220214844 -0.12037482857704163
v -3.7968733310699463 2.0045738220214844 -0.12037482857704163
v -3.0 1.999998688697815 -2.0
v -3.0 1.999998688697815 -0.05999999865889549
v -3.847588300704956 2.0318565368652344 -2.0
v -3.0 1.896134853363037 0.0
v -2.245054006576538 2.1941332817077637 -0.08133814483880997
v -2.196455240249634 2.121967077255249 -0.028279494494199753
v -3.0 1.999998688697815 -0.05999999865889549
v -2.245054006576538 2.1941332817077637 -0.08133814483880997
v -2.0421810150146484 2.519998788833618 0.0
v -2.196455240249634 2.121967077255249 -0.028279494494199753
v -2.0421810150146484 2.519998788833618 0.0
v -2.245054006576538 2.1941332817077637 -0.08133814483880997
v -2.109872817993164 2.519998788833618 -0.05688238516449928
v -2.0421810150146484 2.519998788833618 0.0
v -2.0066635608673096 3.0048646926879883 -0.05999273806810379
v -1.9205737113952637 2.9999988079071045 0.0
v -2.0066635608673096 3.0048646926879883 -0.05999273806810379
v -2.0421810150146484 2.519998788833618 0.0
v -2.109872817993164 2.519998788833618 -0.05688238516449928
v -1.9205737113952637 2.9999988079071045 0.0
v -1.8821935653686523 4.0752105712890625 -0.06620371341705322
v -1.7963415384292603 4.0752105712890625 0.0
v -1.8821935653686523 4.0752105712890625 -0.06620371341705322
v -1.9205737113952637 2.9999988079071045 0.0
v -2.0066635608673096 3.0048646926879883 -0.05999273806810379
vn -0.0 0.0 1.0
vn -0.0 0.0 1.0
vn -0.0 0.0 1.0
vn 0.005711215548217297 -0.15773266553878784 0.9874653220176697
vn 0.0006880976143293083 -0.020310474559664726 0.9997934699058533
vn 0.006720989476889372 -0.14829708635807037 0.9889200329780579
vn -0.0 0.0 1.0
vn -0.014577018097043037 -0.14099659025669098 0.9899027347564697
vn -0.0 0.0 1.0
vn -0.009239536710083485 -0.12301633507013321 0.9923615455627441
vn -0.0 0.0 1.0
vn -0.006203386466950178 -0.09417085349559784 0.9955366849899292
vn -0.0 0.0 1.0
vn -0.0 0.0 1.0
vn -0.1234104260802269 0.15709325671195984 0.9798426032066345
vn -0.12122538685798645 0.15431183576583862 0.9805572032928467
vn -0.0 0.0 1.0
vn -0.0 0.0 1.0
vn -0.0 0.0 1.0
vn -0.0 0.0 1.0
vn -0.0 0.0 1.0
vn -0.0 0.0 1.0
vn -0.0 0.0 1.0
vn -0.0 0.0 1.0
vn -0.0 0.0 1.0
vn -0.49363401532173157 0.6283632516860962 0.6012362241744995
vn -0.017143843695521355 -0.23641371726989746 0.9715012311935425
vn -0.013427826575934887 -0.19360677897930145 0.9809873104095459
vn -0.019004078581929207 -0.3020877242088318 0.9530907273292542
vn 0.015479657799005508 -0.3009645938873291 0.9535096287727356
vn -0.0057169715873897076 -0.13063396513462067 0.9914141297340393
vn 0.011204908601939678 -0.30770012736320496 0.9514175057411194
vn 0.009169196709990501 -0.26468417048454285 0.9642916321754456
vn -0.0 0.0 1.0
vn -0.0005841733072884381 -0.004900626838207245 0.9999878406524658
vn -0.0 0.0 1.0
vn -0.0 0.0 1.0
vn -0.0 0.0 1.0
vn -0.0 0.0 1.0
vn -0.0 0.0 1.0
vn -0.0 0.0 1.0
vn -0.0 0.0 1.0
vn -0.0 0.0 1.0
vn -0.0 0.0 1.0
vn -0.0 0.0 1.0
vn -0.0 0.0 1.0
vn 0.026894373819231987 -0.4997277557849884 0.8657649755477905
vn 0.026894377544522285 -0.4997277855873108 0.8657649755477905
vn 0.026894375681877136 -0.4997277557849884 0.8657649755477905
vn 0.026894375681877136 -0.4997277557849884 0.8657649755477905
vn -0.017425432801246643 -0.4998326003551483 0.8659466505050659
vn 0.04565656557679176 -0.499387264251709 0.8651750087738037
vn 0.045656561851501465 -0.4993872046470642 0.8651750087738037
vn 0.045656561851501465 -0.4993872046470642 0.8651750087738037
vn 0.045656561851501465 -0.4993872046470642 0.8651750087738037
vn -0.09239161759614944 -0.4977702498435974 0.8623737692832947
vn -0.09239162504673004 -0.4977703094482422 0.8623737692832947
vn -0.09239161759614944 -0.4977702498435974 0.8623737692832947
vn -0.09239161759614944 -0.4977702498435974 0.8623737692832947
vn -0.008871471509337425 -0.4998888671398163 0.8660441040992737
vn -0.008871471509337425 -0.49988892674446106 0.8660441040992737
vn -0.008871471509337425 -0.49988892674446106 0.8660441040992737
vn -0.008871471509337425 -0.49988892674446106 0.8660441040992737
vn -0.6548681855201721 -0.018666919320821762 0.7555125951766968
vn -0.6548681855201721 -0.018666919320821762 0.7555125951766968
vn -0.6548681855201721 -0.018666919320821762 0.7555125951766968
vn -0.5008178949356079 -0.038366518914699554 0.8647019863128662
vn -0.5008178353309631 -0.038366518914699554 0.8647019863128662
vn -0.5008178949356079 -0.038366518914699554 0.8647019863128662
vn -0.5868701338768005 -0.12253314256668091 0.8003556132316589
vn -0.5868701338768005 -0.12253313511610031 0.8003556132316589
vn -0.5868701338768005 -0.12253314256668091 0.8003556132316589
vn -0.5868701338768005 -0.12253314256668091 0.8003556132316589
vn -0.16531330347061157 0.5372241735458374 0.8270801901817322
vn -0.16531333327293396 0.5372242331504822 0.8270803093910217
vn -0.16531328856945038 0.5372241735458374 0.8270801901817322
vn -0.4527590870857239 0.73084557056427 0.5107583999633789
vn -0.4527590274810791 0.73084557056427 0.5107583999633789
vn -0.4527590274810791 0.73084557056427 0.5107583999633789
vn -0.03935244679450989 0.260810911655426 0.9645875692367554
vn -0.039352450519800186 0.2608109414577484 0.9645875692367554
vn -0.039352450519800186 0.2608109414577484 0.9645875692367554
vn -0.22549563646316528 0.01819407194852829 0.9740743041038513
vn -0.22549563646316528 0.01819407381117344 0.9740743041038513
vn -0.22549563646316528 0.01819407381117344 0.9740743041038513
vn -0.13084682822227478 0.9914025664329529 0.0
vn -0.13084682822227478 0.9914025664329529 0.0
vn -0.13084685802459717 0.9914025664329529 0.0
vn -0.13084685802459717 0.9914025664329529 0.0
vn -0.0 1.0 0.0
vn -0.0 1.0 0.0
vn -0.0 1.0 0.0
vn -0.0 1.0 0.0
vn -0.9771696925163269 0.20827125012874603 0.04198151081800461
vn -0.9771696925163269 0.20827125012874603 0.04198151454329491
vn -0.9771696925163269 0.20827126502990723 0.041981518268585205
vn -0.991855263710022 -0.07320578396320343 0.1042301133275032
vn -0.991855263710022 -0.07320579141378403 0.1042301133275032
vn -0.991855263710022 -0.07320579141378403 0.1042301207780838
vn -0.9144910573959351 0.3665007948875427 0.171415776014328
vn -0.9144910573959351 0.3665007948875427 0.171415776014328
vn -0.9144910573959351 0.3665007948875427 0.171415776014328
vn -0.5005877017974854 0.8644200563430786 0.04679607227444649
vn -0.5005877614021301 0.8644200563430786 0.046796075999736786
vn -0.5005877017974854 0.8644200563430786 0.04679607227444649
vn -0.24904777109622955 0.9684911966323853 0.0
vn -0.24904777109622955 0.9684911966323853 0.0
vn -0.24904777109622955 0.9684911966323853 0.0
vn -0.6215776801109314 0.7653141021728516 0.1671392023563385
vn -0.6215776801109314 0.7653141021728516 0.1671391874551773
vn -0.6215776205062866 0.7653141021728516 0.1671391725540161
vn 0.005761222913861275 -0.49990028142929077 0.8660638928413391
vn 0.005761222913861275 -0.499900221824646 0.8660638928413391
vn 0.005761222913861275 -0.499900221824646 0.8660638928413391
vn 0.005761222913861275 -0.499900221824646 0.8660638928413391
vn -0.10982205718755722 0.5913824439048767 0.7988778948783875
vn -0.10982206463813782 0.5913824439048767 0.7988778352737427
vn -0.10982206463813782 0.5913825035095215 0.7988778352737427
vn -0.7810882925987244 0.26689887046813965 0.5645051598548889
vn -0.7810882329940796 0.26689890027046204 0.5645052194595337
vn -0.7810882329940796 0.26689890027046204 0.5645052194595337
vn -0.5868701338768005 0.12253337353467941 0.8003556132316589
vn -0.5868701934814453 0.12253335863351822 0.8003556132316589
vn -0.5868701934814453 0.12253335863351822 0.8003556132316589
vn -0.05872323736548424 -0.650539219379425 0.7571989893913269
vn -0.05872323736548424 -0.650539219379425 0.7571989893913269
vn -0.05872322991490364 -0.650539219379425 0.7571989893913269
vn -0.027471935376524925 -0.49971985816955566 0.8657513856887817
vn -0.027471939101815224 -0.49971985816955566 0.8657513856887817
vn -0.027471935376524925 -0.4997198283672333 0.8657512664794922
vn -0.027471935376524925 -0.4997198283672333 0.8657512664794922
vn -0.5908191204071045 0.04140349477529526 0.8057410717010498
vn -0.5908190011978149 0.04140349105000496 0.8057410717010498
vn -0.5908190608024597 0.04140349105000496 0.8057410717010498
vn -0.6537103652954102 0.06229081004858017 0.7541767954826355
vn -0.6537103652954102 0.06229081004858017 0.7541767954826355
vn -0.6537103056907654 0.06229081004858017 0.7541768550872803
vn 0.14682872593402863 0.9891619682312012 0.0
vn 0.14682871103286743 0.9891619682312012 0.0
vn 0.14682872593402863 0.9891619682312012 0.0
vn 0.14682872593402863 0.9891619682312012 0.0
vn -0.9818877577781677 0.16375014185905457 0.09530164301395416
vn -0.9818877577781677 0.16375014185905457 0.09530162811279297
vn -0.9818877577781677 0.16375014185905457 0.09530163556337357
vn -0.9861809611320496 0.11537233740091324 0.11889640241861343
vn -0.9861809611320496 0.11537233740091324 0.11889640241861343
vn -0.9861809611320496 0.11537235975265503 0.11889640986919403
vn 0.05374027416110039 -0.9985548853874207 0.0
vn 0.05374028533697128 -0.9985548853874207 0.0
vn 0.05374028533697128 -0.9985548853874207 0.0
vn 0.05374028533697128 -0.9985548853874207 0.0
vn 0.09104545414447784 -0.995846688747406 0.0
vn 0.09104545414447784 -0.995846688747406 0.0
vn 0.09104546159505844 -0.995846688747406 0.0
vn 0.09104546159505844 -0.995846688747406 0.0
vn -0.18249398469924927 -0.9832069873809814 0.0
vn -0.18249398469924927 -0.9832069873809814 0.0
vn -0.18249401450157166 -0.9832069873809814 0.0
vn -0.18249401450157166 -0.9832069873809814 0.0
vn -0.017744094133377075 -0.9998425245285034 0.0
vn -0.017744094133377075 -0.9998425245285034 0.0
vn -0.017744094133377075 -0.9998425245285034 0.0
vn -0.017744094133377075 -0.9998425245285034 0.0
vn -0.9975535273551941 -0.06990666687488556 0.0
vn -0.9975535273551941 -0.06990666687488556 0.0
vn -0.9975535273551941 -0.06990668177604675 0.0
vn -0.9975535273551941 -0.06990668177604675 0.0
vn -0.9788908362388611 -0.2043835073709488 0.0
vn -0.9788908362388611 -0.2043834924697876 0.0
vn -0.9788908362388611 -0.2043834626674652 0.0
vn -0.9788908362388611 -0.2043834626674652 0.0
vn -0.20457063615322113 0.9786867499351501 0.017973782494664192
vn -0.20457062125205994 0.9786867499351501 0.017973782494664192
vn -0.20457062125205994 0.9786867499351501 0.017973780632019043
vn -0.18905815482139587 0.981775164604187 0.01935150846838951
vn 0.011523980647325516 -0.9999336004257202 0.0
vn 0.011523980647325516 -0.9999336004257202 0.0
vn 0.011523980647325516 -0.9999336004257202 0.0
vn 0.011523980647325516 -0.9999336004257202 0.0
vn -0.9788839817047119 0.20438207685947418 0.0037535177543759346
vn -0.9788839817047119 0.204382061958313 0.0037535177543759346
vn -0.9788839817047119 0.204382061958313 0.003753517521545291
vn -0.9757894277572632 0.21871207654476166 0.0
vn -0.08990300446748734 -0.99595046043396 0.0
vn -0.08990301191806793 -0.99595046043396 0.0
vn -0.08990298956632614 -0.99595046043396 0.0
vn -0.08990298956632614 -0.99595046043396 0.0
vn -0.054891787469387054 -0.9984923601150513 0.0
vn -0.054891787469387054 -0.9984923601150513 0.0
vn -0.05489179491996765 -0.9984923601150513 0.0
vn -0.05489179491996765 -0.9984923601150513 0.0
vn -0.9975535273551941 0.06990668177604675 0.0
vn -0.9975535273551941 0.06990667432546616 0.0
vn -0.9975535273551941 0.06990668177604675 0.0
vn -0.9975535273551941 0.06990668177604675 0.0
vn 0.01828676648437977 0.5001300573348999 0.865757167339325
vn 0.018286768347024918 0.5001301169395447 0.865757167339325
vn 0.018286768347024918 0.5001300573348999 0.865757167339325
vn -0.03708982840180397 0.8325981497764587 0.5526342988014221
vn -0.03708982840180397 0.832598090171814 0.5526343584060669
vn -0.03708983212709427 0.8325981497764587 0.5526343584060669
vn 0.005741337779909372 0.999983549118042 0.0
vn 0.005741336848586798 0.999983549118042 0.0
vn 0.005741337779909372 0.999983549118042 0.0
vn 0.037556592375040054 0.9992035031318665 0.013490083627402782
vn -0.120632603764534 0.5340186357498169 0.8368225693702698
vn -0.120632603764534 0.5340185761451721 0.8368225693702698
vn -0.120632603764534 0.5340186357498169 0.8368225693702698
vn -0.10359542816877365 0.49752241373062134 0.8612430691719055
vn -0.5956786870956421 0.175186887383461 0.7838855981826782
vn -0.5956786870956421 0.175186887383461 0.7838855981826782
vn -0.5956786274909973 0.1751868575811386 0.7838854789733887
vn -0.6296732425689697 0.2049759030342102 0.7493306994438171
vn -0.6296732425689697 0.2049759030342102 0.7493306994438171
vn -0.6296733021736145 0.2049759179353714 0.7493306398391724
vn -0.5605237483978271 0.1420079469680786 0.8158718347549438
vn -0.5605238080024719 0.1420079618692398 0.8158718347549438
vn -0.5605238080024719 0.1420079618692398 0.8158718347549438
vn -0.6369565725326538 0.14044609665870667 0.7579981684684753
vn -0.6369565725326538 0.14044608175754547 0.7579981684684753
vn -0.636956512928009 0.14044608175754547 0.7579981684684753
vn -0.6091444492340088 0.07038179785013199 0.7899299263954163
vn -0.6091444492340088 0.07038179785013199 0.789929986000061
vn -0.6091444492340088 0.07038179785013199 0.789929986000061
vn -0.5676046013832092 0.0707661584019661 0.8202543258666992
vn -0.5676044821739197 0.0707661584019661 0.820254385471344
vn -0.5676045417785645 0.07076616585254669 0.820254385471344
vt 0.7478218078613281 0.7623163759708405
vt 0.8700137138366699 1.0163821913301945
vt 0.7478218078613281 1.0074486201629043
vt 0.980283260345459 0.7623163759708405
vt 0.9824410676956177 1.0074486751109362
vt 0.9752299189567566 0.5073566436767578
vt 0.7478218078613281 0.5073566734790802
vt 0.973659336566925 0.3232153654098511
vt 0.7478218078613281 0.252396821975708
vt 0.9831305146217346 0.252396821975708
vt 0.7478218078613281 -0.0025627613067626953
vt 0.9839509725570679 -0.0025627613067626953
vt 0.5100234746932983 0.7623163759708405
vt 0.6256297826766968 1.0340653285384178
vt 0.5094308257102966 0.9636126309633255
vt 0.5549069046974182 1.01865990832448
vt 0.4949456751346588 0.5280933678150177
vt 0.503437876701355 0.252396821975708
vt 0.503437876701355 -0.0025627613067626953
vt 0.2590537369251251 0.252396821975708
vt 0.3763580918312073 0.5301370322704315
vt 0.2590537369251251 0.49913203716278076
vt 0.2590537369251251 -0.0025627613067626953
vt -0.003710536751896143 0.252396821975708
vt -0.0037106401287019253 0.4674578309059143
vt 0.5129494667053223 1.012573752552271
vt 0.9990526437759399 0.252396821975708
vt 1.003389596939087 -0.0025627613067626953
vt 0.9854444861412048 0.3288847804069519
vt 0.9874158501625061 0.5073566734790802
vt 0.9985873103141785 0.6348364353179932
vt 0.9918697476387024 0.7623163759708405
vt 0.9984458684921265 0.8897961899638176
vt 0.7478218078613281 -0.25752246379852295
vt 1.0070693492889404 -0.25752246379852295
vt 0.7478218078613281 -0.5124822854995728
vt 1.0070695877075195 -0.5124822854995728
vt 0.7478218078613281 -0.7674417495727539
vt 1.0070695877075195 -0.7674417495727539
vt 0.5034379363059998 -0.25752246379852295
vt 0.5034379363059998 -0.5124822854995728
vt 0.5034379363059998 -0.7674417495727539
vt 0.2590537965297699 -0.24162793159484863
vt 0.2590537965297699 -0.5124822854995728
vt 0.24091601371765137 -0.3850024938583374
vt 0.2590538561344147 -0.767441987991333
vt 0.6244999766349792 0.25109779834747314
vt 0.7520456910133362 0.26488643884658813
vt 0.6244999766349792 0.26488643884658813
vt 0.7520456910133362 0.25109779834747314
vt 0.5005546808242798 0.25109779834747314
vt 0.8734999895095825 0.25109779834747314
vt 1.0004702806472778 0.26488643884658813
vt 0.8734999895095825 0.26488643884658813
vt 1.0004702806472778 0.25109779834747314
vt 0.17629998922348022 0.25109779834747314
vt 0.2518170475959778 0.26488643884658813
vt 0.17629998922348022 0.26488643884658813
vt 0.2518170475959778 0.25109779834747314
vt 0.2518170475959778 0.25109779834747314
vt 0.5005546808242798 0.26488643884658813
vt 0.2518170475959778 0.26488643884658813
vt 0.5005546808242798 0.25109779834747314
vt 0.37549999356269836 0.25109779834747314
vt 0.5005546808242798 0.26488643884658813
vt 0.37549999356269836 0.26488643884658813
vt 0.5005546808242798 0.26488643884658813
vt 0.37549999356269836 0.25109779834747314
vt 0.5005546808242798 0.25109779834747314
vt 0.1264999955892563 0.25109779834747314
vt 0.2518170475959778 0.26488643884658813
vt 0.1264999955892563 0.26488643884658813
vt 0.2518170475959778 0.25109779834747314
vt 0.9474214315414429 0.26488643884658813
vt 1.0004702806472778 0.25109779834747314
vt 1.0004702806472778 0.26488643884658813
vt 1.0004702806472778 0.25109779834747314
vt 0.9474214315414429 0.26488643884658813
vt 0.9455909729003906 0.25109779834747314
vt 0.7520456910133362 0.25109779834747314
vt 0.5005546808242798 0.28528958559036255
vt 0.5005546808242798 0.25109779834747314
vt 0.5005546808242798 0.25109779834747314
vt 0.5005546808242798 0.28528958559036255
vt 0.3705199956893921 0.25109779834747314
vt 0.37549999356269836 0.25109779834747314
vt 0.5005546808242798 0.7489141821861267
vt 0.37549999356269836 0.7489141821861267
vt 0.5005546808242798 0.25109779834747314
vt 0.2518170475959778 0.25109779834747314
vt 0.0015067122876644135 0.7489141821861267
vt 0.0015067122876644135 0.25109779834747314
vt 0.2518170475959778 0.7489141821861267
vt 0.3705199956893921 0.7489141821861267
vt 0.2518170475959778 0.2648846507072449
vt 0.3705199956893921 0.26411014795303345
vt 0.2518170475959778 0.2648846507072449
vt 0.3705199956893921 0.7489141821861267
vt 0.2518170475959778 0.7489141821861267
vt 0.5005546808242798 0.7489141821861267
vt 0.3705199956893921 0.26411014795303345
vt 0.5005546808242798 0.3052113652229309
vt 0.3705199956893921 0.26411014795303345
vt 0.5005546808242798 0.7489141821861267
vt 0.3705199956893921 0.7489141821861267
vt 0.7520456910133362 0.7489141821861267
vt 0.5005546808242798 0.3052113652229309
vt 0.7520456910133362 0.26488643884658813
vt 0.5005546808242798 0.3052113652229309
vt 0.7520456910133362 0.7489141821861267
vt 0.5005546808242798 0.7489141821861267
vt 0.0015067122876644135 0.25109779834747314
vt 0.17629998922348022 0.26488643884658813
vt 0.0015067122876644135 0.26488643884658813
vt 0.17629998922348022 0.25109779834747314
vt 0.05444123595952988 0.25109779834747314
vt 0.0015067122876644135 0.26488643884658813
vt 0.0015067122876644135 0.25109779834747314
vt 0.05444123595952988 0.25109779834747314
vt 0.1264999955892563 0.26488643884658813
vt 0.0015067122876644135 0.26488643884658813
vt 0.1264999955892563 0.25109779834747314
vt 0.1264999955892563 0.26488643884658813
vt 0.05444123595952988 0.25109779834747314
vt 0.5005546808242798 0.25109779834747314
vt 0.6244999766349792 0.26488643884658813
vt 0.5005546808242798 0.26488643884658813
vt 0.7520456910133362 0.25109779834747314
vt 0.8734999895095825 0.26488643884658813
vt 0.7520456910133362 0.26488643884658813
vt 0.8734999895095825 0.25109779834747314
vt 0.2518170475959778 0.25109779834747314
vt 0.37549999356269836 0.26488643884658813
vt 0.2518170475959778 0.26488643884658813
vt 0.37549999356269836 0.26488643884658813
vt 0.2518170475959778 0.25109779834747314
vt 0.37549999356269836 0.25109779834747314
vt 0.2518170475959778 0.25109779834747314
vt 0.37549999356269836 0.7489141821861267
vt 0.2518170475959778 0.7489141821861267
vt 0.37549999356269836 0.25109779834747314
vt 0.0015067122876644135 0.2664310932159424
vt 0.2518170475959778 0.7489141821861267
vt 0.0015067122876644135 0.7489141821861267
vt 0.2518170475959778 0.7489141821861267
vt 0.0015067122876644135 0.2664310932159424
vt 0.2518170475959778 0.2648846507072449
vt 0.6244999766349792 0.7489141821861267
vt 0.7520456910133362 0.26488643884658813
vt 0.7520456910133362 0.7489141821861267
vt 0.6244999766349792 0.26488643884658813
vt 0.8734999895095825 0.7489141821861267
vt 1.0004702806472778 0.26488643884658813
vt 1.0004702806472778 0.7489141821861267
vt 0.8734999895095825 0.26488643884658813
vt 0.17629998922348022 0.7489141821861267
vt 0.2518170475959778 0.26488643884658813
vt 0.2518170475959778 0.7489141821861267
vt 0.17629998922348022 0.26488643884658813
vt 0.2518170475959778 0.7489141821861267
vt 0.5005546808242798 0.26488643884658813
vt 0.5005546808242798 0.7489141821861267
vt 0.2518170475959778 0.26488643884658813
vt 0.37549999356269836 0.7489141821861267
vt 0.5005546808242798 0.26488643884658813
vt 0.5005546808242798 0.7489141821861267
vt 0.37549999356269836 0.26488643884658813
vt 0.1264999955892563 0.7489141821861267
vt 0.2518170475959778 0.26488643884658813
vt 0.2518170475959778 0.7489141821861267
vt 0.1264999955892563 0.26488643884658813
vt 0.9600495100021362 0.7489141821861267
vt 1.0004702806472778 0.26488643884658813
vt 1.0004702806472778 0.7489141821861267
vt 0.9474214315414429 0.26488643884658813
vt 0.0015067122876644135 0.7489141821861267
vt 0.17629998922348022 0.26488643884658813
vt 0.17629998922348022 0.7489141821861267
vt 0.0015067122876644135 0.26488643884658813
vt 0.0015067122876644135 0.26488643884658813
vt 0.1264999955892563 0.7489141821861267
vt 0.0015067122876644135 0.7489141821861267
vt 0.1264999955892563 0.26488643884658813
vt 0.5005546808242798 0.7489141821861267
vt 0.6244999766349792 0.26488643884658813
vt 0.6244999766349792 0.7489141821861267
vt 0.5005546808242798 0.26488643884658813
vt 0.7520456910133362 0.7489141821861267
vt 0.8734999895095825 0.26488643884658813
vt 0.8734999895095825 0.7489141821861267
vt 0.7520456910133362 0.26488643884658813
vt 0.2518170475959778 0.7489141821861267
vt 0.37549999356269836 0.26488643884658813
vt 0.37549999356269836 0.7489141821861267
vt 0.2518170475959778 0.26488643884658813
vt 0.9455909729003906 0.25109779834747314
vt 0.7520456910133362 0.26488643884658813
vt 0.7520456910133362 0.25109779834747314
vt 0.7520456910133362 0.26488643884658813
vt 0.9455909729003906 0.25109779834747314
vt 0.9474214315414429 0.26488643884658813
vt 0.9474214315414429 0.26488643884658813
vt 0.7520456910133362 0.7489141821861267
vt 0.7520456910133362 0.26488643884658813
vt 0.9600495100021362 0.7489141821861267
vt 0.7520456910133362 0.25109779834747314
vt 0.5005546808242798 0.3052113652229309
vt 0.5005546808242798 0.28528958559036255
vt 0.7520456910133362 0.26488643884658813
vt 0.5005546808242798 0.3052113652229309
vt 0.3705199956893921 0.25109779834747314
vt 0.5005546808242798 0.28528958559036255
vt 0.3705199956893921 0.25109779834747314
vt 0.5005546808242798 0.3052113652229309
vt 0.3705199956893921 0.26411014795303345
vt 0.3705199956893921 0.25109779834747314
vt 0.2518170475959778 0.2648846507072449
vt 0.2518170475959778 0.25109779834747314
vt 0.2518170475959778 0.2648846507072449
vt 0.3705199956893921 0.25109779834747314
vt 0.3705199956893921 0.26411014795303345
vt 0.2518170475959778 0.25109779834747314
vt 0.0015067122876644135 0.2664310932159424
vt 0.0015067122876644135 0.25109779834747314
vt 0.0015067122876644135 0.2664310932159424
vt 0.2518170475959778 0.25109779834747314
vt 0.2518170475959778 0.2648846507072449

g bg_mdl_ground001_2_yama
s 1
usemtl bg_mdl_ground001_2_yama_0
f 3/3/3 2/2/2 1/1/1 
f 1/1/1 2/2/2 4/4/4 
f 4/4/4 2/2/2 5/5/5 
f 4/4/4 6/6/6 1/1/1 
f 7/7/7 1/1/1 6/6/6 
f 7/7/7 6/6/6 8/8/8 
f 9/9/9 7/7/7 8/8/8 
f 10/10/10 9/9/9 8/8/8 
f 9/9/9 10/10/10 11/11/11 
f 12/12/12 11/11/11 10/10/10 
f 1/1/1 13/13/13 3/3/3 
f 13/13/13 14/14/14 3/3/3 
f 15/15/15 14/14/14 13/13/13 
f 16/16/16 14/14/14 15/15/15 
f 13/13/13 1/1/1 17/17/17 
f 7/7/7 17/17/17 1/1/1 
f 17/17/17 7/7/7 18/18/18 
f 9/9/9 18/18/18 7/7/7 
f 18/18/18 9/9/9 19/19/19 
f 11/11/11 19/19/19 9/9/9 
f 18/18/18 20/20/20 17/17/17 
f 20/20/20 21/21/21 17/17/17 
f 22/22/22 21/21/21 20/20/20 
f 20/20/20 18/18/18 23/23/23 
f 19/19/19 23/23/23 18/18/18 
f 20/20/20 24/24/24 22/22/22 
f 25/25/25 22/22/22 24/24/24 
f 26/26/26 16/16/16 15/15/15 
f 28/28/28 12/12/12 27/27/27 
f 10/10/10 27/27/27 12/12/12 
f 10/10/10 8/8/8 27/27/27 
f 29/29/29 27/27/27 8/8/8 
f 29/29/29 8/8/8 30/30/30 
f 6/6/6 30/30/30 8/8/8 
f 30/30/30 6/6/6 31/31/31 
f 31/31/31 6/6/6 32/32/32 
f 32/32/32 6/6/6 4/4/4 
f 32/32/32 4/4/4 33/33/33 
f 5/5/5 33/33/33 4/4/4 

usemtl bg_mdl_ground001_2_yama_1
f 11/11/11 12/12/12 34/34/34 
f 35/35/35 34/34/34 12/12/12 
f 34/34/34 35/35/35 36/36/36 
f 37/37/37 36/36/36 35/35/35 
f 36/36/36 37/37/37 38/38/38 
f 39/39/39 38/38/38 37/37/37 
f 34/34/34 40/40/40 11/11/11 
f 19/19/19 11/11/11 40/40/40 
f 40/40/40 34/34/34 41/41/41 
f 36/36/36 41/41/41 34/34/34 
f 41/41/41 36/36/36 42/42/42 
f 38/38/38 42/42/42 36/36/36 
f 40/40/40 43/43/43 19/19/19 
f 23/23/23 19/19/19 43/43/43 
f 41/41/41 44/44/44 40/40/40 
f 44/44/44 45/45/45 40/40/40 
f 45/45/45 43/43/43 40/40/40 
f 44/44/44 41/41/41 46/46/46 
f 42/42/42 46/46/46 41/41/41 
f 28/28/28 35/35/35 12/12/12 

usemtl bg_mdl_ground001_2_yama_2
f 49/49/49 48/48/48 47/47/47 
f 50/50/50 47/47/47 48/48/48 
f 47/47/47 51/51/51 49/49/49 
f 54/54/54 53/53/53 52/52/52 
f 55/55/55 52/52/52 53/53/53 
f 58/58/58 57/57/57 56/56/56 
f 59/59/59 56/56/56 57/57/57 
f 62/62/62 61/61/61 60/60/60 
f 63/63/63 60/60/60 61/61/61 
f 66/66/66 65/65/65 64/64/64 
f 69/69/69 68/68/68 67/67/67 
f 72/72/72 71/71/71 70/70/70 
f 73/73/73 70/70/70 71/71/71 
f 76/76/76 75/75/75 74/74/74 
f 79/79/79 78/78/78 77/77/77 
f 82/82/82 81/81/81 80/80/80 
f 85/85/85 84/84/84 83/83/83 
f 88/88/88 87/87/87 86/86/86 
f 89/89/89 86/86/86 87/87/87 
f 92/92/92 91/91/91 90/90/90 
f 93/93/93 90/90/90 91/91/91 
f 96/96/96 95/95/95 94/94/94 
f 99/99/99 98/98/98 97/97/97 
f 102/102/102 101/101/101 100/100/100 
f 105/105/105 104/104/104 103/103/103 
f 108/108/108 107/107/107 106/106/106 
f 111/111/111 110/110/110 109/109/109 
f 114/114/114 113/113/113 112/112/112 
f 115/115/115 112/112/112 113/113/113 
f 118/118/118 117/117/117 116/116/116 
f 121/121/121 120/120/120 119/119/119 
f 124/124/124 123/123/123 122/122/122 
f 127/127/127 126/126/126 125/125/125 
f 130/130/130 129/129/129 128/128/128 
f 131/131/131 128/128/128 129/129/129 
f 134/134/134 133/133/133 132/132/132 
f 137/137/137 136/136/136 135/135/135 
f 140/140/140 139/139/139 138/138/138 
f 141/141/141 138/138/138 139/139/139 
f 144/144/144 143/143/143 142/142/142 
f 147/147/147 146/146/146 145/145/145 
f 150/150/150 149/149/149 148/148/148 
f 151/151/151 148/148/148 149/149/149 
f 154/154/154 153/153/153 152/152/152 
f 155/155/155 152/152/152 153/153/153 
f 158/158/158 157/157/157 156/156/156 
f 159/159/159 156/156/156 157/157/157 
f 162/162/162 161/161/161 160/160/160 
f 163/163/163 160/160/160 161/161/161 
f 166/166/166 165/165/165 164/164/164 
f 167/167/167 164/164/164 165/165/165 
f 170/170/170 169/169/169 168/168/168 
f 171/171/171 168/168/168 169/169/169 
f 174/174/174 173/173/173 172/172/172 
f 175/175/175 172/172/172 173/173/173 
f 178/178/178 177/177/177 176/176/176 
f 179/179/179 176/176/176 177/177/177 
f 182/182/182 181/181/181 180/180/180 
f 183/183/183 180/180/180 181/181/181 
f 186/186/186 185/185/185 184/184/184 
f 187/187/187 184/184/184 185/185/185 
f 190/190/190 189/189/189 188/188/188 
f 191/191/191 188/188/188 189/189/189 
f 194/194/194 193/193/193 192/192/192 
f 195/195/195 192/192/192 193/193/193 
f 198/198/198 197/197/197 196/196/196 
f 201/201/201 200/200/200 199/199/199 
f 204/204/204 203/203/203 202/202/202 
f 205/205/205 202/202/202 203/203/203 
f 208/208/208 207/207/207 206/206/206 
f 209/209/209 206/206/206 207/207/207 
f 212/212/212 211/211/211 210/210/210 
f 215/215/215 214/214/214 213/213/213 
f 218/218/218 217/217/217 216/216/216 
f 221/221/221 220/220/220 219/219/219 
f 224/224/224 223/223/223 222/222/222 
f 227/227/227 226/226/226 225/225/225 

