v 0.3742639720439911 -0.958073079586029 0.45870956778526306
v 0.4847889840602875 -0.958073079586029 0.0
v 0.3742639720439911 -0.958073079586029 0.0
v 0.4847889840602875 -0.958073079586029 0.45870956778526306
v 0.4847889840602875 -0.958073079586029 0.45870956778526306
v 0.4847889840602875 -0.8523391485214233 0.0
v 0.4847889840602875 -0.958073079586029 0.0
v 0.4847889840602875 -0.8523391485214233 0.45870956778526306
v 0.4847889840602875 -0.8523391485214233 0.45870956778526306
v 0.3742639720439911 -0.8523391485214233 0.0
v 0.4847889840602875 -0.8523391485214233 0.0
v 0.3742639720439911 -0.8523391485214233 0.45870956778526306
v 0.3742639720439911 -0.8523391485214233 0.45870956778526306
v 0.3742639720439911 -0.958073079586029 0.0
v 0.3742639720439911 -0.8523391485214233 0.0
v 0.3742639720439911 -0.958073079586029 0.45870956778526306
v -0.5 -0.9582830667495728 0.1670738011598587
v 0.5 -0.9740340709686279 0.1635258048772812
v -0.5 -0.9740340709686279 0.1670738011598587
v 0.5 -0.9582830667495728 0.1635258048772812
v -0.5 -0.9740340709686279 0.1670738011598587
v 0.5 -0.9740340709686279 0.054734811186790466
v -0.5 -0.9740340709686279 0.054734811186790466
v 0.5 -0.9740340709686279 0.1635258048772812
v 0.5 -0.9740340709686279 0.1635258048772812
v 0.5 -0.9582830667495728 0.054734811186790466
v 0.5 -0.9740340709686279 0.054734811186790466
v 0.5 -0.9582830667495728 0.1635258048772812
v 0.5 -0.9582830667495728 0.1635258048772812
v -0.5 -0.9582830667495728 0.054734811186790466
v 0.5 -0.9582830667495728 0.054734811186790466
v -0.5 -0.9582830667495728 0.1670738011598587
v -0.5 -0.9582830667495728 0.1670738011598587
v -0.5 -0.9740340709686279 0.054734811186790466
v -0.5 -0.9582830667495728 0.054734811186790466
v -0.5 -0.9740340709686279 0.1670738011598587
v 0.4402519762516022 -0.946584165096283 0.16659268736839294
v 0.40519100427627563 -0.9768160581588745 0.16659268736839294
v 0.4402519762516022 -0.9768160581588745 0.16659268736839294
v 0.40519100427627563 -0.946584165096283 0.16659268736839294
v 0.40519100427627563 -0.9768160581588745 0.223946675658226
v 0.4402519762516022 -0.946584165096283 0.22213569283485413
v 0.4402519762516022 -0.9768160581588745 0.223946675658226
v 0.40519100427627563 -0.946584165096283 0.22213569283485413
v 0.4402519762516022 -0.946584165096283 0.22213569283485413
v 0.4402519762516022 -0.9768160581588745 0.16659268736839294
v 0.4402519762516022 -0.9768160581588745 0.223946675658226
v 0.4402519762516022 -0.946584165096283 0.16659268736839294
v 0.40519100427627563 -0.946584165096283 0.22213569283485413
v 0.40519100427627563 -0.9768160581588745 0.16659268736839294
v 0.40519100427627563 -0.946584165096283 0.16659268736839294
v 0.40519100427627563 -0.9768160581588745 0.223946675658226
v 0.40519100427627563 -0.9768160581588745 0.223946675658226
v 0.4402519762516022 -0.9768160581588745 0.16659268736839294
v 0.40519100427627563 -0.9768160581588745 0.16659268736839294
v 0.4402519762516022 -0.9768160581588745 0.223946675658226
v -0.5 -0.9582830667495728 0.45870956778526306
v 0.5 -0.9740340709686279 0.45516157150268555
v -0.5 -0.9740340709686279 0.45870956778526306
v 0.5 -0.9582830667495728 0.45516157150268555
v -0.5 -0.9740340709686279 0.45870956778526306
v 0.5 -0.9740340709686279 0.34637054800987244
v -0.5 -0.9740340709686279 0.34637054800987244
v 0.5 -0.9740340709686279 0.45516157150268555
v 0.5 -0.9740340709686279 0.45516157150268555
v 0.5 -0.9582830667495728 0.34637054800987244
v 0.5 -0.9740340709686279 0.34637054800987244
v 0.5 -0.9582830667495728 0.45516157150268555
v 0.5 -0.9582830667495728 0.45516157150268555
v -0.5 -0.9582830667495728 0.34637054800987244
v 0.5 -0.9582830667495728 0.34637054800987244
v -0.5 -0.9582830667495728 0.45870956778526306
v -0.5 -0.9582830667495728 0.45870956778526306
v -0.5 -0.9740340709686279 0.34637054800987244
v -0.5 -0.9582830667495728 0.34637054800987244
v -0.5 -0.9740340709686279 0.45870956778526306
v 0.17444798350334167 -0.9450591206550598 0.37818557024002075
v 0.39330199360847473 -0.9450591206550598 0.12369056791067123
v 0.14662699401378632 -0.9450591206550598 0.3503655791282654
v 0.4211220145225525 -0.9450591206550598 0.15151053667068481
v 0.17444798350334167 -0.9450591206550598 0.37818557024002075
v 0.4211220145225525 -0.9074200987815857 0.15151053667068481
v 0.4211220145225525 -0.9450591206550598 0.15151053667068481
v 0.17444798350334167 -0.9074200987815857 0.37818557024002075
v 0.17444798350334167 -0.9074200987815857 0.37818557024002075
v 0.39330199360847473 -0.9074200987815857 0.12369056791067123
v 0.4211220145225525 -0.9074200987815857 0.15151053667068481
v 0.14662699401378632 -0.9074200987815857 0.3503655791282654
v 0.14662699401378632 -0.9074200987815857 0.3503655791282654
v 0.39330199360847473 -0.9450591206550598 0.12369056791067123
v 0.39330199360847473 -0.9074200987815857 0.12369056791067123
v 0.14662699401378632 -0.9450591206550598 0.3503655791282654
v 0.3834669888019562 -0.9343450665473938 0.2330680936574936
v 0.46197599172592163 0.9343456625938416 0.2305661141872406
v 0.46197599172592163 -0.9343450665473938 0.2330680936574936
v 0.3834669888019562 0.9343456625938416 0.2305661141872406
v 0.46197599172592163 -0.9343450665473938 0.2330680936574936
v 0.46197599172592163 0.9343456625938416 0.15383709967136383
v 0.46197599172592163 -0.9343450665473938 0.15383709967136383
v 0.46197599172592163 0.9343456625938416 0.2305661141872406
v 0.3834669888019562 0.9343456625938416 0.2305661141872406
v 0.3834669888019562 -0.9343450665473938 0.15383709967136383
v 0.3834669888019562 0.9343456625938416 0.15383709967136383
v 0.3834669888019562 -0.9343450665473938 0.2330680936574936
v 0.4847889840602875 0.9580737352371216 0.0
v 0.3742639720439911 0.9580737352371216 0.45870956778526306
v 0.3742639720439911 0.9580737352371216 0.0
v 0.4847889840602875 0.9580737352371216 0.45870956778526306
v 0.4847889840602875 0.8523397445678711 0.0
v 0.4847889840602875 0.9580737352371216 0.45870956778526306
v 0.4847889840602875 0.9580737352371216 0.0
v 0.4847889840602875 0.8523397445678711 0.45870956778526306
v 0.3742639720439911 0.8523397445678711 0.0
v 0.4847889840602875 0.8523397445678711 0.45870956778526306
v 0.4847889840602875 0.8523397445678711 0.0
v 0.3742639720439911 0.8523397445678711 0.45870956778526306
v 0.3742639720439911 0.9580737352371216 0.0
v 0.3742639720439911 0.8523397445678711 0.45870956778526306
v 0.3742639720439911 0.8523397445678711 0.0
v 0.3742639720439911 0.9580737352371216 0.45870956778526306
v 0.5 0.9740347266197205 0.1635258048772812
v -0.5 0.9582836627960205 0.1670738011598587
v -0.5 0.9740347266197205 0.1670738011598587
v 0.5 0.9582836627960205 0.1635258048772812
v 0.5 0.9740347266197205 0.05473480001091957
v -0.5 0.9740347266197205 0.1670738011598587
v -0.5 0.9740347266197205 0.05473480001091957
v 0.5 0.9740347266197205 0.1635258048772812
v 0.5 0.9582836627960205 0.05473480001091957
v 0.5 0.9740347266197205 0.1635258048772812
v 0.5 0.9740347266197205 0.05473480001091957
v 0.5 0.9582836627960205 0.1635258048772812
v -0.5 0.9582836627960205 0.05473480001091957
v 0.5 0.9582836627960205 0.1635258048772812
v 0.5 0.9582836627960205 0.05473480001091957
v -0.5 0.9582836627960205 0.1670738011598587
v -0.5 0.9740347266197205 0.05473480001091957
v -0.5 0.9582836627960205 0.1670738011598587
v -0.5 0.9582836627960205 0.05473480001091957
v -0.5 0.9740347266197205 0.1670738011598587
v 0.40519100427627563 0.976816713809967 0.16659268736839294
v 0.4402519762516022 0.9465847611427307 0.16659268736839294
v 0.4402519762516022 0.976816713809967 0.16659268736839294
v 0.40519100427627563 0.9465847611427307 0.16659268736839294
v 0.4402519762516022 0.9465847611427307 0.22213569283485413
v 0.40519100427627563 0.976816713809967 0.223946675658226
v 0.4402519762516022 0.976816713809967 0.223946675658226
v 0.40519100427627563 0.9465847611427307 0.22213569283485413
v 0.4402519762516022 0.9465847611427307 0.22213569283485413
v 0.4402519762516022 0.976816713809967 0.16659268736839294
v 0.4402519762516022 0.9465847611427307 0.16659268736839294
v 0.4402519762516022 0.976816713809967 0.223946675658226
v 0.40519100427627563 0.976816713809967 0.16659268736839294
v 0.40519100427627563 0.9465847611427307 0.22213569283485413
v 0.40519100427627563 0.9465847611427307 0.16659268736839294
v 0.40519100427627563 0.976816713809967 0.223946675658226
v 0.4402519762516022 0.976816713809967 0.16659268736839294
v 0.40519100427627563 0.976816713809967 0.223946675658226
v 0.40519100427627563 0.976816713809967 0.16659268736839294
v 0.4402519762516022 0.976816713809967 0.223946675658226
v 0.5 0.9740347266197205 0.45516157150268555
v -0.5 0.9582836627960205 0.45870956778526306
v -0.5 0.9740347266197205 0.45870956778526306
v 0.5 0.9582836627960205 0.45516157150268555
v 0.5 0.9740347266197205 0.34637054800987244
v -0.5 0.9740347266197205 0.45870956778526306
v -0.5 0.9740347266197205 0.34637054800987244
v 0.5 0.9740347266197205 0.45516157150268555
v 0.5 0.9582836627960205 0.34637054800987244
v 0.5 0.9740347266197205 0.45516157150268555
v 0.5 0.9740347266197205 0.34637054800987244
v 0.5 0.9582836627960205 0.45516157150268555
v -0.5 0.9582836627960205 0.34637054800987244
v 0.5 0.9582836627960205 0.45516157150268555
v 0.5 0.9582836627960205 0.34637054800987244
v -0.5 0.9582836627960205 0.45870956778526306
v -0.5 0.9740347266197205 0.34637054800987244
v -0.5 0.9582836627960205 0.45870956778526306
v -0.5 0.9582836627960205 0.34637054800987244
v -0.5 0.9740347266197205 0.45870956778526306
v 0.17444798350334167 0.9450597763061523 0.37818557024002075
v 0.39330199360847473 0.9450597763061523 0.12369056791067123
v 0.4211220145225525 0.9450597763061523 0.15151053667068481
v 0.14662699401378632 0.9450597763061523 0.3503655791282654
v 0.4211220145225525 0.9074206352233887 0.15151053667068481
v 0.17444798350334167 0.9450597763061523 0.37818557024002075
v 0.4211220145225525 0.9450597763061523 0.15151053667068481
v 0.17444798350334167 0.9074206352233887 0.37818557024002075
v 0.39330199360847473 0.9074206352233887 0.12369056791067123
v 0.17444798350334167 0.9074206352233887 0.37818557024002075
v 0.4211220145225525 0.9074206352233887 0.15151053667068481
v 0.14662699401378632 0.9074206352233887 0.3503655791282654
v 0.39330199360847473 0.9450597763061523 0.12369056791067123
v 0.14662699401378632 0.9074206352233887 0.3503655791282654
v 0.39330199360847473 0.9074206352233887 0.12369056791067123
v 0.14662699401378632 0.9450597763061523 0.3503655791282654
v -0.4999980032444 0.9997137188911438 0.4987095594406128
v 0.5004076957702637 -0.999713122844696 0.4987095594406128
v -0.4999980032444 -0.999713122844696 0.4987095594406128
v 0.5004076957702637 0.9997137188911438 0.4987095594406128
v -0.4999980032444 -0.999713122844696 0.4987095594406128
v 0.5004076957702637 -0.999713122844696 0.45870956778526306
v -0.4999980032444 -0.999713122844696 0.45870956778526306
v 0.5004076957702637 -0.999713122844696 0.4987095594406128
v 0.5004076957702637 -0.999713122844696 0.4987095594406128
v 0.5004076957702637 0.9997137188911438 0.45870956778526306
v 0.5004076957702637 -0.999713122844696 0.45870956778526306
v 0.5004076957702637 0.9997137188911438 0.4987095594406128
v 0.5004076957702637 0.9997137188911438 0.4987095594406128
v -0.4999980032444 0.9997137188911438 0.45870956778526306
v 0.5004076957702637 0.9997137188911438 0.45870956778526306
v -0.4999980032444 0.9997137188911438 0.4987095594406128
v -0.4999980032444 0.9997137188911438 0.4987095594406128
v -0.4999980032444 -0.999713122844696 0.45870956778526306
v -0.4999980032444 0.9997137188911438 0.45870956778526306
v -0.4999980032444 -0.999713122844696 0.4987095594406128
v 0.41410699486732483 0.9028216600418091 0.22125695645809174
v 0.4375479817390442 -0.9148961901664734 0.42513784766197205
v 0.44664397835731506 0.9025564193725586 0.22137196362018585
v 0.4050099849700928 -0.9146312475204468 0.4250229597091675
v 0.4376530051231384 -0.9088581800460815 0.4675225615501404
v 0.41421499848365784 0.9097277522087097 0.26467159390449524
v 0.44675299525260925 0.9094626903533936 0.26478660106658936
v 0.4051159918308258 -0.9085941314697266 0.4674075245857239
v 0.4375479817390442 -0.9148961901664734 0.42513784766197205
v 0.44675299525260925 0.9094626903533936 0.26478660106658936
v 0.44664397835731506 0.9025564193725586 0.22137196362018585
v 0.4376530051231384 -0.9088581800460815 0.4675225615501404
v 0.41410699486732483 0.9028216600418091 0.22125695645809174
v 0.4051159918308258 -0.9085941314697266 0.4674075245857239
v 0.4050099849700928 -0.9146312475204468 0.4250229597091675
v 0.41421499848365784 0.9097277522087097 0.26467159390449524
v 0.43463796377182007 0.9128372073173523 0.43035900592803955
v 0.4170159697532654 -0.9048328399658203 0.2264980971813202
v 0.4437340199947357 -0.9046149253845215 0.22659309208393097
v 0.4079200029373169 0.9126198887825012 0.43026408553123474
v 0.41712501645088196 -0.9097040891647339 0.2646816074848175
v 0.4347429871559143 0.9088357090950012 0.4675125777721405
v 0.4438430070877075 -0.9094860553741455 0.2647756040096283
v 0.4080260097980499 0.9086176753044128 0.4674185812473297
v 0.4438430070877075 -0.9094860553741455 0.2647756040096283
v 0.43463796377182007 0.9128372073173523 0.43035900592803955
v 0.4437340199947357 -0.9046149253845215 0.22659309208393097
v 0.4347429871559143 0.9088357090950012 0.4675125777721405
v 0.4080260097980499 0.9086176753044128 0.4674185812473297
v 0.4170159697532654 -0.9048328399658203 0.2264980971813202
v 0.4079200029373169 0.9126198887825012 0.43026408553123474
v 0.41712501645088196 -0.9097040891647339 0.2646816074848175
vn -0.0 -1.0 0.0
vn -0.0 -1.0 0.0
vn -0.0 -1.0 0.0
vn -0.0 -1.0 0.0
vn 1.0 0.0 0.0
vn 1.0 0.0 0.0
vn 1.0 0.0 0.0
vn 1.0 0.0 0.0
vn -0.0 1.0 0.0
vn -0.0 1.0 0.0
vn -0.0 1.0 0.0
vn -0.0 1.0 0.0
vn -1.0 0.0 0.0
vn -1.0 0.0 0.0
vn -1.0 0.0 0.0
vn -1.0 0.0 0.0
vn 0.00039999998989515007 0.0 1.0
vn 0.00039999998989515007 0.0 1.0
vn 0.00039999998989515007 0.0 1.0
vn 0.00039999998989515007 0.0 1.0
vn -0.0 -1.0 0.0
vn -0.0 -1.0 0.0
vn -0.0 -1.0 0.0
vn -0.0 -1.0 0.0
vn 1.0 0.0 0.0
vn 1.0 0.0 0.0
vn 1.0 0.0 0.0
vn 1.0 0.0 0.0
vn -0.0 1.0 0.0
vn -0.0 1.0 0.0
vn -0.0 1.0 0.0
vn -0.0 1.0 0.0
vn -1.0 0.0 0.0
vn -1.0 0.0 0.0
vn -1.0 0.0 0.0
vn -1.0 0.0 0.0
vn -0.0 0.0 -1.0
vn -0.0 0.0 -1.0
vn -0.0 0.0 -1.0
vn -0.0 0.0 -1.0
vn -0.0 0.00629987521097064 0.9999802112579346
vn -0.0 0.00629987521097064 0.9999802112579346
vn -0.0 0.00629987521097064 0.9999802112579346
vn -0.0 0.00629987521097064 0.9999802112579346
vn 1.0 0.0 0.0
vn 1.0 0.0 0.0
vn 1.0 0.0 0.0
vn 1.0 0.0 0.0
vn -1.0 0.0 0.0
vn -1.0 0.0 0.0
vn -1.0 0.0 0.0
vn -1.0 0.0 0.0
vn -0.0 -1.0 0.0
vn -0.0 -1.0 0.0
vn -0.0 -1.0 0.0
vn -0.0 -1.0 0.0
vn 0.00039999998989515007 0.0 1.0
vn 0.00039999998989515007 0.0 1.0
vn 0.00039999998989515007 0.0 1.0
vn 0.00039999998989515007 0.0 1.0
vn -0.0 -1.0 0.0
vn -0.0 -1.0 0.0
vn -0.0 -1.0 0.0
vn -0.0 -1.0 0.0
vn 1.0 0.0 0.0
vn 1.0 0.0 0.0
vn 1.0 0.0 0.0
vn 1.0 0.0 0.0
vn -0.0 1.0 0.0
vn -0.0 1.0 0.0
vn -0.0 1.0 0.0
vn -0.0 1.0 0.0
vn -1.0 0.0 0.0
vn -1.0 0.0 0.0
vn -1.0 0.0 0.0
vn -1.0 0.0 0.0
vn -0.0 -1.0 0.0
vn -0.0 -1.0 0.0
vn -0.0 -1.0 0.0
vn -0.0 -1.0 0.0
vn 0.1009986400604248 0.0 0.994886577129364
vn 0.1009986400604248 0.0 0.994886577129364
vn 0.1009986400604248 0.0 0.994886577129364
vn 0.1009986400604248 0.0 0.994886577129364
vn -0.0 1.0 0.0
vn -0.0 1.0 0.0
vn -0.0 1.0 0.0
vn -0.0 1.0 0.0
vn -0.1009986400604248 0.0 -0.994886577129364
vn -0.1009986400604248 0.0 -0.994886577129364
vn -0.1009986400604248 0.0 -0.994886577129364
vn -0.1009986400604248 0.0 -0.994886577129364
vn -0.0 0.0003000000142492354 1.0
vn -0.0 0.0003000000142492354 1.0
vn -0.0 0.0003000000142492354 1.0
vn -0.0 0.0003000000142492354 1.0
vn 1.0 0.0 0.0
vn 1.0 0.0 0.0
vn 1.0 0.0 0.0
vn 1.0 0.0 0.0
vn -1.0 0.0 0.0
vn -1.0 0.0 0.0
vn -1.0 0.0 0.0
vn -1.0 0.0 0.0
vn -0.0 1.0 0.0
vn -0.0 1.0 0.0
vn -0.0 1.0 0.0
vn -0.0 1.0 0.0
vn 1.0 0.0 0.0
vn 1.0 0.0 0.0
vn 1.0 0.0 0.0
vn 1.0 0.0 0.0
vn -0.0 -1.0 0.0
vn -0.0 -1.0 0.0
vn -0.0 -1.0 0.0
vn -0.0 -1.0 0.0
vn -1.0 0.0 0.0
vn -1.0 0.0 0.0
vn -1.0 0.0 0.0
vn -1.0 0.0 0.0
vn 0.00039999998989515007 0.0 1.0
vn 0.00039999998989515007 0.0 1.0
vn 0.00039999998989515007 0.0 1.0
vn 0.00039999998989515007 0.0 1.0
vn -0.0 1.0 0.0
vn -0.0 1.0 0.0
vn -0.0 1.0 0.0
vn -0.0 1.0 0.0
vn 1.0 0.0 0.0
vn 1.0 0.0 0.0
vn 1.0 0.0 0.0
vn 1.0 0.0 0.0
vn -0.0 -1.0 0.0
vn -0.0 -1.0 0.0
vn -0.0 -1.0 0.0
vn -0.0 -1.0 0.0
vn -1.0 0.0 0.0
vn -1.0 0.0 0.0
vn -1.0 0.0 0.0
vn -1.0 0.0 0.0
vn -0.0 0.0 -1.0
vn -0.0 0.0 -1.0
vn -0.0 0.0 -1.0
vn -0.0 0.0 -1.0
vn -0.0 -0.00629987521097064 0.9999802112579346
vn -0.0 -0.00629987521097064 0.9999802112579346
vn -0.0 -0.00629987521097064 0.9999802112579346
vn -0.0 -0.00629987521097064 0.9999802112579346
vn 1.0 0.0 0.0
vn 1.0 0.0 0.0
vn 1.0 0.0 0.0
vn 1.0 0.0 0.0
vn -1.0 0.0 0.0
vn -1.0 0.0 0.0
vn -1.0 0.0 0.0
vn -1.0 0.0 0.0
vn -0.0 1.0 0.0
vn -0.0 1.0 0.0
vn -0.0 1.0 0.0
vn -0.0 1.0 0.0
vn 0.00039999998989515007 0.0 1.0
vn 0.00039999998989515007 0.0 1.0
vn 0.00039999998989515007 0.0 1.0
vn 0.00039999998989515007 0.0 1.0
vn -0.0 1.0 0.0
vn -0.0 1.0 0.0
vn -0.0 1.0 0.0
vn -0.0 1.0 0.0
vn 1.0 0.0 0.0
vn 1.0 0.0 0.0
vn 1.0 0.0 0.0
vn 1.0 0.0 0.0
vn -0.0 -1.0 0.0
vn -0.0 -1.0 0.0
vn -0.0 -1.0 0.0
vn -0.0 -1.0 0.0
vn -1.0 0.0 0.0
vn -1.0 0.0 0.0
vn -1.0 0.0 0.0
vn -1.0 0.0 0.0
vn -0.0 1.0 0.0
vn -0.0 1.0 0.0
vn -0.0 1.0 0.0
vn -0.0 1.0 0.0
vn 0.1009986400604248 0.0 0.994886577129364
vn 0.1009986400604248 0.0 0.994886577129364
vn 0.1009986400604248 0.0 0.994886577129364
vn 0.1009986400604248 0.0 0.994886577129364
vn -0.0 -1.0 0.0
vn -0.0 -1.0 0.0
vn -0.0 -1.0 0.0
vn -0.0 -1.0 0.0
vn -0.1009986400604248 0.0 -0.994886577129364
vn -0.1009986400604248 0.0 -0.994886577129364
vn -0.1009986400604248 0.0 -0.994886577129364
vn -0.1009986400604248 0.0 -0.994886577129364
vn -0.0 0.0 1.0
vn -0.0 0.0 1.0
vn -0.0 0.0 1.0
vn -0.0 0.0 1.0
vn -0.0 -1.0 0.0
vn -0.0 -1.0 0.0
vn -0.0 -1.0 0.0
vn -0.0 -1.0 0.0
vn 1.0 0.0 0.0
vn 1.0 0.0 0.0
vn 1.0 0.0 0.0
vn 1.0 0.0 0.0
vn -0.0 1.0 0.0
vn -0.0 1.0 0.0
vn -0.0 1.0 0.0
vn -0.0 1.0 0.0
vn -1.0 0.0 0.0
vn -1.0 0.0 0.0
vn -1.0 0.0 0.0
vn -1.0 0.0 0.0
vn -0.0002999907883349806 -0.08629734814167023 -0.9962693452835083
vn -0.0002999907883349806 -0.08629734814167023 -0.9962693452835083
vn -0.0002999907883349806 -0.08629734814167023 -0.9962693452835083
vn -0.0002999907883349806 -0.08629734814167023 -0.9962693452835083
vn 0.00029999593971297145 0.08609883487224579 0.9962865114212036
vn 0.00029999593971297145 0.08609883487224579 0.9962865114212036
vn 0.00029999593971297145 0.08609883487224579 0.9962865114212036
vn 0.00029999593971297145 0.08609883487224579 0.9962865114212036
vn 0.999447762966156 -0.007800372317433357 0.03230154141783714
vn 0.999447762966156 -0.007800372317433357 0.03230154141783714
vn 0.999447762966156 -0.007800372317433357 0.03230154141783714
vn 0.999447762966156 -0.007800372317433357 0.03230154141783714
vn -0.999447762966156 0.007800372317433357 -0.03230154141783714
vn -0.999447762966156 0.007800372317433357 -0.03230154141783714
vn -0.999447762966156 0.007800372317433357 -0.03230154141783714
vn -0.999447762966156 0.007800372317433357 -0.03230154141783714
vn -0.0002999907883349806 0.08629734814167023 -0.9962693452835083
vn -0.0002999907883349806 0.08629734814167023 -0.9962693452835083
vn -0.0002999907883349806 0.08629734814167023 -0.9962693452835083
vn -0.0002999907883349806 0.08629734814167023 -0.9962693452835083
vn 0.00029999593971297145 -0.08609883487224579 0.9962865114212036
vn 0.00029999593971297145 -0.08609883487224579 0.9962865114212036
vn 0.00029999593971297145 -0.08609883487224579 0.9962865114212036
vn 0.00029999593971297145 -0.08609883487224579 0.9962865114212036
vn 0.999447762966156 0.007800372317433357 0.03230154141783714
vn 0.999447762966156 0.007800372317433357 0.03230154141783714
vn 0.999447762966156 0.007800372317433357 0.03230154141783714
vn 0.999447762966156 0.007800372317433357 0.03230154141783714
vn -0.999447762966156 -0.007800372317433357 -0.03230154141783714
vn -0.999447762966156 -0.007800372317433357 -0.03230154141783714
vn -0.999447762966156 -0.007800372317433357 -0.03230154141783714
vn -0.999447762966156 -0.007800372317433357 -0.03230154141783714
vt 0.0983726978302002 0.39121371507644653
vt 0.17781120538711548 0.722024142742157
vt 0.09837263822555542 0.722024142742157
vt 0.17780938744544983 0.3912137746810913
vt 0.17780938744544983 0.3912137746810913
vt 0.25725072622299194 0.722024142742157
vt 0.17781120538711548 0.722024142742157
vt 0.2572506368160248 0.3912137746810913
vt 0.2572506368160248 0.3912137746810913
vt 0.3366908133029938 0.722024142742157
vt 0.25725072622299194 0.722024142742157
vt 0.33669090270996094 0.39121389389038086
vt 0.01893162727355957 0.39121365547180176
vt 0.09837263822555542 0.722024142742157
vt 0.018931686878204346 0.7220241129398346
vt 0.0983726978302002 0.39121371507644653
vt 0.10381149500608444 0.8920464664697647
vt 0.8384771943092346 0.9036180227994919
vt 0.10381149500608444 0.9036178812384605
vt 0.8384771943092346 0.8920466154813766
vt 0.10381149500608444 0.9036178812384605
vt 0.8384771943092346 0.9743457399308681
vt 0.10381149500608444 0.9743455946445465
vt 0.8384771943092346 0.9036180227994919
vt 0.8384771943092346 0.9036180227994919
vt 0.9181302189826965 0.8920466154813766
vt 0.9181302189826965 0.9036180227994919
vt 0.8384771943092346 0.8920466154813766
vt 0.8384771943092346 0.8920466154813766
vt 0.10381149500608444 0.8109012246131897
vt 0.8384771943092346 0.810901403427124
vt 0.10381149500608444 0.8920464664697647
vt 0.10381149500608444 0.8920464664697647
vt 0.021175971254706383 0.9036178812384605
vt 0.021175971254706383 0.8920464664697647
vt 0.10381149500608444 0.9036178812384605
vt 0.11212107539176941 0.7637622505426407
vt 0.08461843430995941 0.7948122918605804
vt 0.0846184492111206 0.7637622505426407
vt 0.11212107539176941 0.7948122769594193
vt 0.035119179636240005 0.7948122918605804
vt 0.008055003359913826 0.7637622654438019
vt 0.035119179636240005 0.7637622654438019
vt 0.008055003359913826 0.7948122918605804
vt 0.035119179636240005 0.737064778804779
vt 0.0846184492111206 0.7637622505426407
vt 0.035119179636240005 0.7637622654438019
vt 0.0846184492111206 0.737064778804779
vt 0.035119179636240005 0.8214415013790131
vt 0.08461843430995941 0.7948122918605804
vt 0.08461843430995941 0.8214415013790131
vt 0.035119179636240005 0.7948122918605804
vt 0.035119179636240005 0.7948122918605804
vt 0.0846184492111206 0.7637622505426407
vt 0.08461843430995941 0.7948122918605804
vt 0.035119179636240005 0.7637622654438019
vt 0.8384771347045898 0.903618149459362
vt 0.10381149500608444 0.8920464739203453
vt 0.8384771347045898 0.8920467421412468
vt 0.10381149500608444 0.9036178812384605
vt 0.8384771347045898 0.8920467421412468
vt 0.10381153225898743 0.8109010756015778
vt 0.8384771943092346 0.8109013140201569
vt 0.10381149500608444 0.8920464739203453
vt 0.10381149500608444 0.8920464739203453
vt 0.021175971254706383 0.9036178812384605
vt 0.021175971254706383 0.8920464739203453
vt 0.10381149500608444 0.9036178812384605
vt 0.10381149500608444 0.9036178812384605
vt 0.8384771943092346 0.9743457399308681
vt 0.10381153225898743 0.9743454419076443
vt 0.8384771347045898 0.903618149459362
vt 0.8384771347045898 0.903618149459362
vt 0.9181302189826965 0.8920467421412468
vt 0.9181302189826965 0.9036181792616844
vt 0.8384771347045898 0.8920467421412468
vt 0.9287645816802979 0.6713384985923767
vt 0.9063461422920227 0.8665569573640823
vt 0.9063461422920227 0.6713384985923767
vt 0.9287645816802979 0.8665569573640823
vt 0.9287645816802979 0.6713384985923767
vt 0.9511836767196655 0.8665569573640823
vt 0.9287645816802979 0.8665569573640823
vt 0.9511838555335999 0.6713384985923767
vt 0.9511838555335999 0.6713384985923767
vt 0.9736032485961914 0.8665569573640823
vt 0.9511836767196655 0.8665569573640823
vt 0.9736032485961914 0.6713384985923767
vt 0.8839263319969177 0.6713384985923767
vt 0.9063461422920227 0.8665569573640823
vt 0.8839263319969177 0.8665569573640823
vt 0.9063461422920227 0.6713384985923767
vt 0.9530157446861267 0.6325138211250305
vt 0.9258565306663513 0.013106822967529297
vt 0.9274445176124573 0.6325139999389648
vt 0.9518297910690308 0.013106942176818848
vt 0.9274445176124573 0.6325139999389648
vt 0.8992409110069275 0.013071656227111816
vt 0.9003669619560242 0.6324775815010071
vt 0.9258565306663513 0.013106822967529297
vt 0.9518297910690308 0.013106942176818848
vt 0.980093777179718 0.6324777603149414
vt 0.9784457683563232 0.013071775436401367
vt 0.9530157446861267 0.6325138211250305
vt 0.17781132459640503 0.7220244705677032
vt 0.2572506368160248 0.3912140727043152
vt 0.2572508156299591 0.7220244705677032
vt 0.17780938744544983 0.3912140727043152
vt 0.09837275743484497 0.7220244705677032
vt 0.17780938744544983 0.3912140727043152
vt 0.17781132459640503 0.7220244705677032
vt 0.09837275743484497 0.3912140727043152
vt 0.01893174648284912 0.7220244705677032
vt 0.09837275743484497 0.3912140727043152
vt 0.09837275743484497 0.7220244705677032
vt 0.018931686878204346 0.3912140727043152
vt 0.2572508156299591 0.7220244705677032
vt 0.33669090270996094 0.39121413230895996
vt 0.3366909325122833 0.7220244407653809
vt 0.2572506368160248 0.3912140727043152
vt 0.10381149500608444 0.9036178812384605
vt 0.8384771347045898 0.8920467421412468
vt 0.8384771347045898 0.903618149459362
vt 0.10381149500608444 0.8920464739203453
vt 0.10381153225898743 0.9743454419076443
vt 0.8384771347045898 0.903618149459362
vt 0.8384771943092346 0.9743457399308681
vt 0.10381149500608444 0.9036178812384605
vt 0.021175971254706383 0.8920464739203453
vt 0.10381149500608444 0.9036178812384605
vt 0.021175971254706383 0.9036178812384605
vt 0.10381149500608444 0.8920464739203453
vt 0.8384771943092346 0.8109013140201569
vt 0.10381149500608444 0.8920464739203453
vt 0.10381153225898743 0.8109010756015778
vt 0.8384771347045898 0.8920467421412468
vt 0.9181302189826965 0.9036181792616844
vt 0.8384771347045898 0.8920467421412468
vt 0.9181302189826965 0.8920467421412468
vt 0.8384771347045898 0.903618149459362
vt 0.035119179636240005 0.7948122918605804
vt 0.008055003359913826 0.7637622654438019
vt 0.035119179636240005 0.7637622654438019
vt 0.008055003359913826 0.7948122918605804
vt 0.11212107539176941 0.7637622505426407
vt 0.08461843430995941 0.7948122918605804
vt 0.0846184492111206 0.7637622505426407
vt 0.11212107539176941 0.7948122769594193
vt 0.0846184492111206 0.737064778804779
vt 0.035119179636240005 0.7637622654438019
vt 0.035119179636240005 0.737064778804779
vt 0.0846184492111206 0.7637622505426407
vt 0.035119179636240005 0.7948122918605804
vt 0.08461843430995941 0.8214415013790131
vt 0.035119179636240005 0.8214415013790131
vt 0.08461843430995941 0.7948122918605804
vt 0.035119179636240005 0.7637622654438019
vt 0.08461843430995941 0.7948122918605804
vt 0.035119179636240005 0.7948122918605804
vt 0.0846184492111206 0.7637622505426407
vt 0.8384771943092346 0.8920466154813766
vt 0.10381149500608444 0.9036178812384605
vt 0.10381149500608444 0.8920464664697647
vt 0.8384771943092346 0.9036180227994919
vt 0.8384771943092346 0.810901403427124
vt 0.10381149500608444 0.8920464664697647
vt 0.10381149500608444 0.8109012246131897
vt 0.8384771943092346 0.8920466154813766
vt 0.9181302189826965 0.9036180227994919
vt 0.8384771943092346 0.8920466154813766
vt 0.9181302189826965 0.8920466154813766
vt 0.8384771943092346 0.9036180227994919
vt 0.10381149500608444 0.9743455946445465
vt 0.8384771943092346 0.9036180227994919
vt 0.8384771943092346 0.9743457399308681
vt 0.10381149500608444 0.9036178812384605
vt 0.021175971254706383 0.8920464664697647
vt 0.10381149500608444 0.9036178812384605
vt 0.021175971254706383 0.9036178812384605
vt 0.10381149500608444 0.8920464664697647
vt 0.9287645816802979 0.6713384985923767
vt 0.9511836767196655 0.8665569573640823
vt 0.9287645816802979 0.8665569573640823
vt 0.9511838555335999 0.6713384985923767
vt 0.9063461422920227 0.8665569573640823
vt 0.9287645816802979 0.6713384985923767
vt 0.9287645816802979 0.8665569573640823
vt 0.9063461422920227 0.6713384985923767
vt 0.8839263319969177 0.8665569573640823
vt 0.9063461422920227 0.6713384985923767
vt 0.9063461422920227 0.8665569573640823
vt 0.8839263319969177 0.6713384985923767
vt 0.9511836767196655 0.8665569573640823
vt 0.9736032485961914 0.6713384985923767
vt 0.9736032485961914 0.8665569573640823
vt 0.9511838555335999 0.6713384985923767
vt 0.3817295432090759 0.02456796169281006
vt 0.7422508001327515 0.7500570714473724
vt 0.3817294239997864 0.7500569820404053
vt 0.7422508597373962 0.02456796169281006
vt 0.3817294239997864 0.7500569820404053
vt 0.7422507405281067 0.7645504772663116
vt 0.3817294239997864 0.7645503878593445
vt 0.7422508001327515 0.7500570714473724
vt 0.7422508001327515 0.7500570714473724
vt 0.7567434310913086 0.02456796169281006
vt 0.756743311882019 0.7500570714473724
vt 0.7422508597373962 0.02456796169281006
vt 0.7422508597373962 0.02456796169281006
vt 0.3817295432090759 0.010074496269226074
vt 0.7422508597373962 0.010074496269226074
vt 0.3817295432090759 0.02456796169281006
vt 0.3817295432090759 0.02456796169281006
vt 0.3672367334365845 0.7500569820404053
vt 0.367236852645874 0.02456796169281006
vt 0.3817294239997864 0.7500569820404053
vt 0.7855356931686401 0.6324113011360168
vt 0.8019822239875793 0.01155310869216919
vt 0.8019822239875793 0.6324113011360168
vt 0.7855356931686401 0.01155310869216919
vt 0.8183925151824951 0.01155310869216919
vt 0.8348087668418884 0.6324113011360168
vt 0.8183925151824951 0.6324113011360168
vt 0.834808886051178 0.01155310869216919
vt 0.8019822239875793 0.01155310869216919
vt 0.8183925151824951 0.6324113011360168
vt 0.8019822239875793 0.6324113011360168
vt 0.8183925151824951 0.01155310869216919
vt 0.851252555847168 0.6324113011360168
vt 0.834808886051178 0.01155310869216919
vt 0.851252555847168 0.01155310869216919
vt 0.8348087668418884 0.6324113011360168
vt 0.8019822239875793 0.6324113011360168
vt 0.7855356931686401 0.01155310869216919
vt 0.8019822239875793 0.01155310869216919
vt 0.7855356931686401 0.6324113011360168
vt 0.834808886051178 0.01155310869216919
vt 0.8183925151824951 0.6324113011360168
vt 0.8183925151824951 0.01155310869216919
vt 0.8348087668418884 0.6324113011360168
vt 0.8183925151824951 0.01155310869216919
vt 0.8019822239875793 0.6324113011360168
vt 0.8019822239875793 0.01155310869216919
vt 0.8183925151824951 0.6324113011360168
vt 0.8348087668418884 0.6324113011360168
vt 0.851252555847168 0.01155310869216919
vt 0.851252555847168 0.6324113011360168
vt 0.834808886051178 0.01155310869216919

g bg_mdl_map_hashi2x1_50b
s 1
usemtl bg_mdl_map_hashi2x1_50b
f 3/3/3 2/2/2 1/1/1 
f 4/4/4 1/1/1 2/2/2 
f 7/7/7 6/6/6 5/5/5 
f 8/8/8 5/5/5 6/6/6 
f 11/11/11 10/10/10 9/9/9 
f 12/12/12 9/9/9 10/10/10 
f 15/15/15 14/14/14 13/13/13 
f 16/16/16 13/13/13 14/14/14 
f 19/19/19 18/18/18 17/17/17 
f 20/20/20 17/17/17 18/18/18 
f 23/23/23 22/22/22 21/21/21 
f 24/24/24 21/21/21 22/22/22 
f 27/27/27 26/26/26 25/25/25 
f 28/28/28 25/25/25 26/26/26 
f 31/31/31 30/30/30 29/29/29 
f 32/32/32 29/29/29 30/30/30 
f 35/35/35 34/34/34 33/33/33 
f 36/36/36 33/33/33 34/34/34 
f 39/39/39 38/38/38 37/37/37 
f 40/40/40 37/37/37 38/38/38 
f 43/43/43 42/42/42 41/41/41 
f 44/44/44 41/41/41 42/42/42 
f 47/47/47 46/46/46 45/45/45 
f 48/48/48 45/45/45 46/46/46 
f 51/51/51 50/50/50 49/49/49 
f 52/52/52 49/49/49 50/50/50 
f 55/55/55 54/54/54 53/53/53 
f 56/56/56 53/53/53 54/54/54 
f 59/59/59 58/58/58 57/57/57 
f 60/60/60 57/57/57 58/58/58 
f 63/63/63 62/62/62 61/61/61 
f 64/64/64 61/61/61 62/62/62 
f 67/67/67 66/66/66 65/65/65 
f 68/68/68 65/65/65 66/66/66 
f 71/71/71 70/70/70 69/69/69 
f 72/72/72 69/69/69 70/70/70 
f 75/75/75 74/74/74 73/73/73 
f 76/76/76 73/73/73 74/74/74 
f 79/79/79 78/78/78 77/77/77 
f 80/80/80 77/77/77 78/78/78 
f 83/83/83 82/82/82 81/81/81 
f 84/84/84 81/81/81 82/82/82 
f 87/87/87 86/86/86 85/85/85 
f 88/88/88 85/85/85 86/86/86 
f 91/91/91 90/90/90 89/89/89 
f 92/92/92 89/89/89 90/90/90 
f 95/95/95 94/94/94 93/93/93 
f 96/96/96 93/93/93 94/94/94 
f 99/99/99 98/98/98 97/97/97 
f 100/100/100 97/97/97 98/98/98 
f 103/103/103 102/102/102 101/101/101 
f 104/104/104 101/101/101 102/102/102 
f 107/107/107 106/106/106 105/105/105 
f 108/108/108 105/105/105 106/106/106 
f 111/111/111 110/110/110 109/109/109 
f 112/112/112 109/109/109 110/110/110 
f 115/115/115 114/114/114 113/113/113 
f 116/116/116 113/113/113 114/114/114 
f 119/119/119 118/118/118 117/117/117 
f 120/120/120 117/117/117 118/118/118 
f 123/123/123 122/122/122 121/121/121 
f 124/124/124 121/121/121 122/122/122 
f 127/127/127 126/126/126 125/125/125 
f 128/128/128 125/125/125 126/126/126 
f 131/131/131 130/130/130 129/129/129 
f 132/132/132 129/129/129 130/130/130 
f 135/135/135 134/134/134 133/133/133 
f 136/136/136 133/133/133 134/134/134 
f 139/139/139 138/138/138 137/137/137 
f 140/140/140 137/137/137 138/138/138 
f 143/143/143 142/142/142 141/141/141 
f 144/144/144 141/141/141 142/142/142 
f 147/147/147 146/146/146 145/145/145 
f 148/148/148 145/145/145 146/146/146 
f 151/151/151 150/150/150 149/149/149 
f 152/152/152 149/149/149 150/150/150 
f 155/155/155 154/154/154 153/153/153 
f 156/156/156 153/153/153 154/154/154 
f 159/159/159 158/158/158 157/157/157 
f 160/160/160 157/157/157 158/158/158 
f 163/163/163 162/162/162 161/161/161 
f 164/164/164 161/161/161 162/162/162 
f 167/167/167 166/166/166 165/165/165 
f 168/168/168 165/165/165 166/166/166 
f 171/171/171 170/170/170 169/169/169 
f 172/172/172 169/169/169 170/170/170 
f 175/175/175 174/174/174 173/173/173 
f 176/176/176 173/173/173 174/174/174 
f 179/179/179 178/178/178 177/177/177 
f 180/180/180 177/177/177 178/178/178 
f 183/183/183 182/182/182 181/181/181 
f 184/184/184 181/181/181 182/182/182 
f 187/187/187 186/186/186 185/185/185 
f 188/188/188 185/185/185 186/186/186 
f 191/191/191 190/190/190 189/189/189 
f 192/192/192 189/189/189 190/190/190 
f 195/195/195 194/194/194 193/193/193 
f 196/196/196 193/193/193 194/194/194 
f 199/199/199 198/198/198 197/197/197 
f 200/200/200 197/197/197 198/198/198 
f 203/203/203 202/202/202 201/201/201 
f 204/204/204 201/201/201 202/202/202 
f 207/207/207 206/206/206 205/205/205 
f 208/208/208 205/205/205 206/206/206 
f 211/211/211 210/210/210 209/209/209 
f 212/212/212 209/209/209 210/210/210 
f 215/215/215 214/214/214 213/213/213 
f 216/216/216 213/213/213 214/214/214 
f 219/219/219 218/218/218 217/217/217 
f 220/220/220 217/217/217 218/218/218 
f 223/223/223 222/222/222 221/221/221 
f 224/224/224 221/221/221 222/222/222 
f 227/227/227 226/226/226 225/225/225 
f 228/228/228 225/225/225 226/226/226 
f 231/231/231 230/230/230 229/229/229 
f 232/232/232 229/229/229 230/230/230 
f 235/235/235 234/234/234 233/233/233 
f 236/236/236 233/233/233 234/234/234 
f 239/239/239 238/238/238 237/237/237 
f 240/240/240 237/237/237 238/238/238 
f 243/243/243 242/242/242 241/241/241 
f 244/244/244 241/241/241 242/242/242 
f 247/247/247 246/246/246 245/245/245 
f 248/248/248 245/245/245 246/246/246 

