v 0.8997158408164978 -6.556510889765832e-09 0.732916533946991
v 0.9201218485832214 0.1229095458984375 0.39051657915115356
v 1.2159464359283447 0.10753219574689865 0.3921926021575928
v 1.200006365776062 -6.556510889765832e-09 0.6787765622138977
v 0.5812219977378845 -6.556510889765832e-09 0.7243635654449463
v 0.6130269169807434 0.07336114346981049 0.4433521032333374
v 0.30284199118614197 -6.556510889765832e-09 0.6252703070640564
v 0.3717939555644989 0.061203598976135254 0.3770119249820709
v 0.11185714602470398 -6.556510889765832e-09 0.33906492590904236
v 0.2578825056552887 0.061203598976135254 0.23615063726902008
v -7.987021888311574e-08 -6.556510889765832e-09 1.2516975012033527e-08
v 0.21864236891269684 0.10491510480642319 -1.9669531781119076e-08
v 1.5038241147994995 0.11548078060150146 0.40940061211586
v 1.475210189819336 -6.556510889765832e-09 0.6736917495727539
v 1.7632116079330444 0.14400842785835266 0.4793389141559601
v 1.7527517080307007 -6.556510889765832e-09 0.7508780360221863
v 2.043292760848999 0.1327999234199524 0.48520416021347046
v 2.0670218467712402 -6.556510889765832e-09 0.8149287700653076
v 2.3520431518554688 0.08215168118476868 0.45462164282798767
v 2.4237868785858154 -6.556510889765832e-09 0.7725842595100403
v 2.6105034351348877 0.03008149564266205 0.3945830464363098
v 2.747868061065674 -6.556510889765832e-09 0.6047601103782654
v 2.69486403465271 0.03008149564266205 0.17269553244113922
v 2.881150722503662 -6.556510889765832e-09 0.3035086691379547
v 2.7684032917022705 0.06791163980960846 3.33786012163273e-08
v 3.055231809616089 -6.556510889765832e-09 -4.76837147544984e-09
v 2.5126914978027344 0.18302218616008759 3.33786012163273e-08
v 2.300685167312622 0.36572542786598206 4.76837147544984e-09
v 2.040104866027832 0.47170203924179077 -1.0132789718397817e-08
v 1.7829629182815552 0.4947916269302368 3.278255533700758e-08
v 1.543847680091858 0.42275598645210266 8.344650304081824e-09
v 1.2533413171768188 0.43320441246032715 -5.364417798858767e-09
v 0.9344016313552856 0.40668678283691406 1.9222497371629288e-08
v 0.6325172185897827 0.29801371693611145 4.619359827984226e-08
v 0.4312162399291992 0.22887039184570312 2.4437904144747336e-08
vn -0.00526030920445919 0.9476959109306335 0.3191312253475189
vn -0.06333732604980469 0.8756581544876099 0.4787600040435791
vn -0.002276272978633642 0.8513409495353699 0.5246078372001648
vn 0.02330208383500576 0.9334656596183777 0.3579091727733612
vn -0.07101985067129135 0.9605782628059387 0.2687854766845703
vn -0.13656051456928253 0.9179930686950684 0.37234383821487427
vn -0.13779349625110626 0.9667832255363464 0.21527442336082458
vn -0.2077145278453827 0.9332858920097351 0.29297128319740295
vn -0.3090369999408722 0.9351778626441956 0.17302760481834412
vn -0.35105636715888977 0.9135485887527466 0.2053977996110916
vn -0.36945754289627075 0.9142056107521057 0.16652077436447144
vn -0.40782415866851807 0.893321692943573 0.1888273060321808
vn -0.11445538699626923 0.8390834927558899 0.5318259000778198
vn -0.09218122065067291 0.9126393795013428 0.39823612570762634
vn -0.08823037147521973 0.8496074676513672 0.5199831128120422
vn -0.08450580388307571 0.9034999012947083 0.42017459869384766
vn 0.10820040851831436 0.8709343671798706 0.4793390929698944
vn 0.04716089740395546 0.9350986480712891 0.351235568523407
vn 0.2512918710708618 0.8979649543762207 0.361263632774353
vn 0.1223716288805008 0.9634994864463806 0.2381049245595932
vn 0.2737138569355011 0.9407435059547424 0.2002059370279312
vn 0.14051704108715057 0.9828267097473145 0.11961012333631516
vn 0.25384366512298584 0.9538667798042297 0.16031651198863983
vn 0.14232809841632843 0.9843648672103882 0.10377108305692673
vn 0.20722860097885132 0.9573304653167725 0.2014315128326416
vn 0.1577586829662323 0.9745194911956787 0.1594492644071579
vn 0.4540656805038452 0.825836718082428 0.3343920111656189
vn 0.3183477222919464 0.8228601217269897 0.4706973433494568
vn 0.1415695995092392 0.8174875974655151 0.5582759976387024
vn -0.08015096932649612 0.8097818493843079 0.5812307596206665
vn -0.1356145143508911 0.7920511960983276 0.5952004790306091
vn -0.015475713647902012 0.7873582243919373 0.6163015365600586
vn -0.08719794452190399 0.8175856471061707 0.5691661834716797
vn -0.19254006445407867 0.8606618046760559 0.47136983275413513
vn -0.26281753182411194 0.885684072971344 0.38274091482162476
vt 0.6495053172111511 0.751180112361908
vt 0.6393893361091614 0.8444676101207733
vt 0.5649141073226929 0.8405402302742004
vt 0.5688456296920776 0.7625462114810944
vt 0.7361085414886475 0.7529069781303406
vt 0.7209987044334412 0.8293182253837585
vt 0.8143595457077026 0.7807208299636841
vt 0.7860316038131714 0.8498155027627945
vt 0.871069073677063 0.8626141548156738
vt 0.8173619508743286 0.8913840651512146
vt 0.9031111001968384 0.9638364911079407
vt 0.8236877918243408 0.9638364911079407
vt 0.4944663643836975 0.8401769399642944
vt 0.4954000413417816 0.7683655023574829
vt 0.43188586831092834 0.8332513272762299
vt 0.4258708953857422 0.7661132514476776
vt 0.3690802752971649 0.8356884866952896
vt 0.3570578694343567 0.7625528872013092
vt 0.29772013425827026 0.8414121568202972
vt 0.2790241539478302 0.7680356204509735
vt 0.2329874336719513 0.8523794412612915
vt 0.19674015045166016 0.797100841999054
vt 0.20793616771697998 0.9108585864305496
vt 0.15015801787376404 0.8721346408128738
vt 0.19179850816726685 0.9638365656137466
vt 0.09744170308113098 0.9638365656137466
vt 0.26213526725769043 0.9638365656137466
vt 0.32057011127471924 0.9638365656137466
vt 0.37937548756599426 0.9638365283608437
vt 0.4318782687187195 0.9638365283608437
vt 0.4859622120857239 0.9638365283608437
vt 0.554509162902832 0.9638365283608437
vt 0.6296169757843018 0.9638365283608437
vt 0.7090762853622437 0.9638364911079407
vt 0.7627155780792236 0.9638364911079407

g bg_mdl_map_sabaku_sunayama_02
s 1
usemtl bg_mdl_map_sabaku_sunayama_02
f 3/3/3 2/2/2 1/1/1 
f 4/4/4 3/3/3 1/1/1 
f 1/1/1 2/2/2 5/5/5 
f 2/2/2 6/6/6 5/5/5 
f 5/5/5 6/6/6 7/7/7 
f 6/6/6 8/8/8 7/7/7 
f 7/7/7 8/8/8 9/9/9 
f 8/8/8 10/10/10 9/9/9 
f 11/11/11 9/9/9 10/10/10 
f 12/12/12 11/11/11 10/10/10 
f 3/3/3 4/4/4 13/13/13 
f 4/4/4 14/14/14 13/13/13 
f 15/15/15 13/13/13 14/14/14 
f 16/16/16 15/15/15 14/14/14 
f 17/17/17 15/15/15 16/16/16 
f 18/18/18 17/17/17 16/16/16 
f 19/19/19 17/17/17 18/18/18 
f 20/20/20 19/19/19 18/18/18 
f 21/21/21 19/19/19 20/20/20 
f 22/22/22 21/21/21 20/20/20 
f 23/23/23 21/21/21 22/22/22 
f 24/24/24 23/23/23 22/22/22 
f 25/25/25 23/23/23 24/24/24 
f 26/26/26 25/25/25 24/24/24 
f 25/25/25 27/27/27 23/23/23 
f 23/23/23 27/27/27 21/21/21 
f 21/21/21 27/27/27 19/19/19 
f 27/27/27 28/28/28 19/19/19 
f 19/19/19 28/28/28 17/17/17 
f 28/28/28 29/29/29 17/17/17 
f 17/17/17 29/29/29 15/15/15 
f 29/29/29 30/30/30 15/15/15 
f 15/15/15 30/30/30 13/13/13 
f 30/30/30 31/31/31 13/13/13 
f 3/3/3 13/13/13 31/31/31 
f 32/32/32 3/3/3 31/31/31 
f 3/3/3 32/32/32 2/2/2 
f 32/32/32 33/33/33 2/2/2 
f 2/2/2 33/33/33 6/6/6 
f 33/33/33 34/34/34 6/6/6 
f 6/6/6 34/34/34 8/8/8 
f 34/34/34 35/35/35 8/8/8 
f 8/8/8 35/35/35 10/10/10 
f 12/12/12 10/10/10 35/35/35 

