v 14.0 0.0 6.0
v 14.0 0.0 4.999999046325684
v 15.0 0.0 4.999999046325684
v 15.0 0.0 6.0
v 13.0 0.0 6.0
v 13.0 0.0 5.0
v 12.0 0.0 6.0
v 12.0 0.0 5.0
v 11.0 0.0 6.0
v 11.0 0.0 5.0
v 12.0 0.0 7.0
v 13.0 0.0 7.0
v 11.0 0.0 7.0
v 14.0 0.0 7.0
v 13.0 0.0 8.0
v 14.0 0.0 8.0
v 13.0 0.0 9.0
v 14.0 0.0 9.0
v 15.0 0.0 8.0
v 15.0 0.0 9.0
v 13.0 0.0 10.0
v 14.0 0.0 10.0
v 13.0 0.0 11.0
v 14.0 0.0 11.0
v 13.0 0.0 12.0
v 14.0 0.0 12.0
v 15.0 0.0 11.0
v 15.0 0.0 12.0
v 12.0 0.0 12.0
v 12.0 0.0 11.0
v 11.00447940826416 0.0009598922333680093 12.0
v 11.0 0.0 11.0
v 12.0 0.0 10.0
v 11.0 0.0 10.0
v 10.0 0.0 11.0
v 10.0 0.0 10.0
v 10.00447940826416 0.0009598922333680093 12.0
v 15.0 0.0 10.0
v 9.0 0.0 11.0
v 9.0 0.0 10.0
v 8.0 0.0 11.0
v 8.0 0.0 10.0
v 7.0 0.0 11.0
v 7.0 0.0 10.0
v 6.0 0.0 11.0
v 6.0 0.0 10.0
v 6.0 0.0 12.0
v 7.0 0.0 12.0
v 5.0 0.0 12.0
v 5.0 0.0 11.0
v 4.0 0.0 12.0
v 4.0 0.0 11.0
v 8.0 0.0 12.0
v 5.0 0.0 10.0
v 4.0 0.0 10.0
v 7.0 0.0 9.0
v 6.0 0.0 9.0
v 5.0 0.0 9.0
v 8.0 0.0 9.0
v 8.0 0.0 8.0
v 7.0 0.0 8.0
v 8.0 0.0 7.0
v 9.0 0.0 7.0
v 9.0 0.0 8.0
v 7.0 0.0 7.0
v 6.0 0.0 8.0
v 6.0 0.0 7.0
v 7.0 0.0 6.0
v 6.0 0.0 6.0
v 5.0 0.0 7.0
v 5.0 0.0 6.0
v 9.0 0.0 6.0
v 10.0 0.0 6.0
v 10.0 0.0 7.0
v 8.0 0.0 6.0
v 4.0 0.0 7.0
v 4.0 0.0 8.0
v 5.0 0.0 8.0
v 4.0 0.0 9.0
v 4.0 0.0 6.0
v 6.0 0.0 5.0
v 5.0 0.0 5.0
v 6.0 0.0 4.0
v 7.0 0.0 4.0
v 7.0 0.0 3.0
v 8.0 0.0 3.0
v 8.0 0.0 4.0
v 8.0 0.0 2.0
v 7.0 0.0 2.0
v 8.0 0.0 1.0
v 7.0 0.0 1.0
v 6.0 0.0 3.0
v 5.0 0.0 4.0
v 4.999999523162842 0.0 3.0
v 4.0 0.0 4.0
v 4.0 0.0 3.0
v 6.0 0.0 2.0
v 4.999999523162842 0.0 2.0
v 6.0 0.0 1.0
v 5.0 0.0 1.0
v 4.0 0.0 2.0
v 4.0 0.0 1.0
v 5.0 0.0 0.0
v 4.0 0.0 0.0
v 6.0 0.0 0.0
v 7.0 0.0 0.0
v 8.0 0.0 0.0
v 4.0 0.0 5.0
v 3.0 0.0 2.0
v 3.0 0.0 1.0
v 3.0 0.0 3.0
v 3.0 0.0 4.0
v 3.0 0.0 0.0
v 3.0 0.0 6.0
v 3.0 0.0 7.0
v 3.0 0.0 8.0
v 3.0 0.0 9.0
v 3.0 0.0 10.0
v 3.0 0.0 11.0
v 3.0 0.0 12.0
v 3.0 0.0 13.0
v 4.0 0.0 13.0
v 3.0 0.0 14.0
v 4.0 0.0 14.0
v 5.0 0.0 13.0
v 5.0 0.0 14.0
v 4.0 0.0 15.0
v 5.0 0.0 15.0
v 6.0 0.0 14.0
v 6.0 0.0 15.0
v 6.0 0.0 13.0
v 7.0 0.0 13.0
v 7.0 0.0 14.0
v 8.0 0.0 13.0
v 8.0 0.0 14.0
v 7.0 0.0 15.0
v 8.0 0.0 15.0
v 9.0 0.0 13.0
v 9.0 0.0 14.0
v 10.0 0.0 13.0
v 10.0 0.0 14.0
v 11.0 0.0 13.0
v 11.0 0.0 14.0
v 10.0 0.0 15.0
v 11.0 0.0 15.0
v 12.0 0.0 14.0
v 12.0 0.0 15.0
v 13.0 0.0 14.0
v 13.0 0.0 15.0
v 14.0 0.0 14.0
v 14.0 0.0 15.0
v 13.0 0.0 13.0
v 12.0 0.0 13.0
v 9.0 0.0 15.0
v 15.0 0.0 14.0
v 15.0 0.0 13.0
v 14.0 0.0 13.0
v 15.0 0.0 15.0
v 9.0 0.0 12.0
v -0.0 0.0 2.0
v -0.0 0.0 1.0
v 1.0 0.0 1.0
v 1.0 0.0 2.0
v 1.0 0.0 0.0
v -0.0 0.0 0.0
v -0.0 0.0 3.0
v 1.0 0.0 3.0
v -0.0 0.0 4.0
v 1.0 0.0 4.0
v -0.0 0.0 5.0
v 1.0 0.0 5.0
v -0.0 0.0 6.0
v 1.0 0.0 6.0
v -0.0 0.0 7.0
v 1.0 0.0 7.0
v -0.0 0.0 8.0
v 1.0 0.0 8.0
v -0.0 0.0 9.0
v 1.0 0.0 9.0
v -0.0 0.0 10.0
v 1.0 0.0 10.0
v -0.0 0.0 11.0
v 1.0 0.0 11.0
v -0.0 0.0 12.0
v 1.0 0.0 12.0
v -0.0 0.0 13.0
v 1.0 0.0 13.0
v -0.0 0.0 14.0
v 1.0 0.0 14.0
v -0.0 0.0 15.0
v 1.0 0.0 15.0
v 2.0 0.0 8.0
v 2.0 0.0 9.0
v 2.0 0.0 7.0
v 2.0 0.0 6.0
v 3.0 0.0 5.0
v 2.0 0.0 5.0
v 2.0 0.0 4.0
v 2.0 0.0 3.0
v 2.0 0.0 2.0
v 2.0 0.0 1.0
v 2.0 0.0 0.0
v 3.0 0.0 15.0
v 2.0 0.0 15.0
v 2.0 0.0 14.0
v 2.0 0.0 13.0
v 2.0 0.0 12.0
v 2.0 0.0 11.0
v 2.0 0.0 10.0
v 14.0 0.0 0.9999993443489075
v 14.0 0.0 -6.103515488575795e-07
v 15.0 0.0 -6.103515488575795e-07
v 15.0 0.0 0.9999993443489075
v 14.0 0.0 1.9999994039535522
v 13.0 0.0 2.0
v 13.0 0.0 1.0
v 12.0 0.0 2.0
v 12.0 0.0 1.0
v 11.0 0.0 2.0
v 11.0 0.0 1.0
v 10.0 0.0 2.0
v 10.0 0.0 1.0
v 11.0 0.0 0.0
v 10.0 0.0 0.0
v 13.0 0.0 0.0
v 12.0 0.0 0.0
v 9.0 0.0 1.0
v 9.0 0.0 0.0
v 9.0 0.0 2.0
v 8.999999046325684 0.0 3.0
v 9.0 0.0 4.0
v 8.0 0.0 5.0
v 7.0 0.0 5.0
v 9.0 0.0 5.0
v 10.0 0.0 4.0
v 10.0 0.0 5.0
v 10.0 0.0 8.0
v 11.0 0.0 8.0
v 9.0 0.0 9.0
v 10.0 0.0 9.0
v 11.0 0.0 9.0
v 12.0 0.0 9.0
v 12.0 0.0 8.0
v 15.0 0.0 7.0
v 15.0 0.0 1.9999994039535522
v 14.0 0.0 2.9999992847442627
v 15.0 0.0 2.9999992847442627
v 13.0 0.0 3.0
v 12.0 0.0 3.0
v 11.0 0.0 3.0
v 9.999999046325684 0.0 3.0
vn -0.0 1.0 0.0
vn -0.0 1.0 0.0
vn -0.0 1.0 0.0
vn -0.0 1.0 0.0
vn -0.0 1.0 0.0
vn -0.0 1.0 0.0
vn -0.0 1.0 0.0
vn -0.0 1.0 0.0
vn -0.0 1.0 0.0
vn -0.0 1.0 0.0
vn -0.0 1.0 0.0
vn -0.0 1.0 0.0
vn -0.0 1.0 0.0
vn -0.0 1.0 0.0
vn -0.0 1.0 0.0
vn -0.0 1.0 0.0
vn -0.0 1.0 0.0
vn -0.0 1.0 0.0
vn -0.0 1.0 0.0
vn -0.0 1.0 0.0
vn -0.0 1.0 0.0
vn -0.0 1.0 0.0
vn -0.0 1.0 0.0
vn -0.0 1.0 0.0
vn -0.0 1.0 0.0
vn -0.0 1.0 0.0
vn -0.0 1.0 0.0
vn -0.0 1.0 0.0
vn 0.00024024212325457484 1.0 0.0
vn 0.00012005375901935622 1.0 -0.00012005375901935622
vn 0.00024092798412311822 1.0 0.0
vn 0.0001197111705550924 1.0 -0.0003605030942708254
vn -0.0 1.0 0.0
vn -0.0 1.0 0.0
vn -0.00012026121112285182 1.0 -0.00035941554233431816
vn -0.0 1.0 0.0
vn -0.0002390216541243717 1.0 0.0
vn -0.0 1.0 0.0
vn -0.0001199193939100951 1.0 -0.0001199193939100951
vn -0.0 1.0 0.0
vn -0.0 1.0 0.0
vn -0.0 1.0 0.0
vn -0.0 1.0 0.0
vn -0.0 1.0 0.0
vn -0.0 1.0 0.0
vn -0.0 1.0 0.0
vn -0.0 1.0 0.0
vn -0.0 1.0 0.0
vn -0.0 1.0 0.0
vn -0.0 1.0 0.0
vn -0.0 1.0 0.0
vn -0.0 1.0 0.0
vn -0.0 1.0 0.0
vn -0.0 1.0 0.0
vn -0.0 1.0 0.0
vn -0.0 1.0 0.0
vn -0.0 1.0 0.0
vn -0.0 1.0 0.0
vn -0.0 1.0 0.0
vn -0.0 1.0 0.0
vn -0.0 1.0 0.0
vn -0.0 1.0 0.0
vn -0.0 1.0 0.0
vn -0.0 1.0 0.0
vn -0.0 1.0 0.0
vn -0.0 1.0 0.0
vn -0.0 1.0 0.0
vn -0.0 1.0 0.0
vn -0.0 1.0 0.0
vn -0.0 1.0 0.0
vn -0.0 1.0 0.0
vn -0.0 1.0 0.0
vn -0.0 1.0 0.0
vn -0.0 1.0 0.0
vn -0.0 1.0 0.0
vn -0.0 1.0 0.0
vn -0.0 1.0 0.0
vn -0.0 1.0 0.0
vn -0.0 1.0 0.0
vn -0.0 1.0 0.0
vn -0.0 1.0 0.0
vn -0.0 1.0 0.0
vn -0.0 1.0 0.0
vn -0.0 1.0 0.0
vn -0.0 1.0 0.0
vn -0.0 1.0 0.0
vn -0.0 1.0 0.0
vn -0.0 1.0 0.0
vn -0.0 1.0 0.0
vn -0.0 1.0 0.0
vn -0.0 1.0 0.0
vn -0.0 1.0 0.0
vn -0.0 1.0 0.0
vn -0.0 1.0 0.0
vn -0.0 1.0 0.0
vn -0.0 1.0 0.0
vn -0.0 1.0 0.0
vn -0.0 1.0 0.0
vn -0.0 1.0 0.0
vn -0.0 1.0 0.0
vn -0.0 1.0 0.0
vn -0.0 1.0 0.0
vn -0.0 1.0 0.0
vn -0.0 1.0 0.0
vn -0.0 1.0 0.0
vn -0.0 1.0 0.0
vn -0.0 1.0 0.0
vn -0.0 1.0 0.0
vn -0.0 1.0 0.0
vn -0.0 1.0 0.0
vn -0.0 1.0 0.0
vn -0.0 1.0 0.0
vn -0.0 1.0 0.0
vn -0.0 1.0 0.0
vn -0.0 1.0 0.0
vn -0.0 1.0 0.0
vn -0.0 1.0 0.0
vn -0.0 1.0 0.0
vn -0.0 1.0 0.0
vn -0.0 1.0 0.0
vn -0.0 1.0 0.0
vn -0.0 1.0 0.0
vn -0.0 1.0 0.0
vn -0.0 1.0 0.0
vn -0.0 1.0 0.0
vn -0.0 1.0 0.0
vn -0.0 1.0 0.0
vn -0.0 1.0 0.0
vn -0.0 1.0 0.0
vn -0.0 1.0 0.0
vn -0.0 1.0 0.0
vn -0.0 1.0 0.0
vn -0.0 1.0 0.0
vn -0.0 1.0 0.0
vn -0.0 1.0 0.0
vn -0.0 1.0 0.0
vn -0.0 1.0 0.0
vn -0.0001199193939100951 1.0 0.0001199193939100951
vn -0.0 1.0 0.0
vn -0.00012026121112285182 1.0 0.00035941554233431816
vn -0.0 1.0 0.0
vn 0.0001197111705550924 1.0 0.00036050306516699493
vn -0.0 1.0 0.0
vn -0.0 1.0 0.0
vn -0.0 1.0 0.0
vn -0.0 1.0 0.0
vn -0.0 1.0 0.0
vn -0.0 1.0 0.0
vn -0.0 1.0 0.0
vn -0.0 1.0 0.0
vn -0.0 1.0 0.0
vn -0.0 1.0 0.0
vn 0.00012005377357127145 1.0 0.00012005377357127145
vn -0.0 1.0 0.0
vn -0.0 1.0 0.0
vn -0.0 1.0 0.0
vn -0.0 1.0 0.0
vn -0.0 1.0 0.0
vn -0.0002397046482656151 1.0 0.0
vn -0.0 1.0 0.0
vn -0.0 1.0 0.0
vn -0.0 1.0 0.0
vn -0.0 1.0 0.0
vn -0.0 1.0 0.0
vn -0.0 1.0 0.0
vn -0.0 1.0 0.0
vn -0.0 1.0 0.0
vn -0.0 1.0 0.0
vn -0.0 1.0 0.0
vn -0.0 1.0 0.0
vn -0.0 1.0 0.0
vn -0.0 1.0 0.0
vn -0.0 1.0 0.0
vn -0.0 1.0 0.0
vn -0.0 1.0 0.0
vn -0.0 1.0 0.0
vn -0.0 1.0 0.0
vn -0.0 1.0 0.0
vn -0.0 1.0 0.0
vn -0.0 1.0 0.0
vn -0.0 1.0 0.0
vn -0.0 1.0 0.0
vn -0.0 1.0 0.0
vn -0.0 1.0 0.0
vn -0.0 1.0 0.0
vn -0.0 1.0 0.0
vn -0.0 1.0 0.0
vn -0.0 1.0 0.0
vn -0.0 1.0 0.0
vn -0.0 1.0 0.0
vn -0.0 1.0 0.0
vn -0.0 1.0 0.0
vn -0.0 1.0 0.0
vn -0.0 1.0 0.0
vn -0.0 1.0 0.0
vn -0.0 1.0 0.0
vn -0.0 1.0 0.0
vn -0.0 1.0 0.0
vn -0.0 1.0 0.0
vn -0.0 1.0 0.0
vn -0.0 1.0 0.0
vn -0.0 1.0 0.0
vn -0.0 1.0 0.0
vn -0.0 1.0 0.0
vn -0.0 1.0 0.0
vn -0.0 1.0 0.0
vn -0.0 1.0 0.0
vn -0.0 1.0 0.0
vn -0.0 1.0 0.0
vn -0.0 1.0 0.0
vn -0.0 1.0 0.0
vn -0.0 1.0 0.0
vn -0.0 1.0 0.0
vn -0.0 1.0 0.0
vn -0.0 1.0 0.0
vn -0.0 1.0 0.0
vn -0.0 1.0 0.0
vn -0.0 1.0 0.0
vn -0.0 1.0 0.0
vn -0.0 1.0 0.0
vn -0.0 1.0 0.0
vn -0.0 1.0 0.0
vn -0.0 1.0 0.0
vn -0.0 1.0 0.0
vn -0.0 1.0 0.0
vn -0.0 1.0 0.0
vn -0.0 1.0 0.0
vn -0.0 1.0 0.0
vn -0.0 1.0 0.0
vn -0.0 1.0 0.0
vn -0.0 1.0 0.0
vn -0.0 1.0 0.0
vn -0.0 1.0 0.0
vn -0.0 1.0 0.0
vn -0.0 1.0 0.0
vn -0.0 1.0 0.0
vn -0.0 1.0 0.0
vn -0.0 1.0 0.0
vn -0.0 1.0 0.0
vn -0.0 1.0 0.0
vn -0.0 1.0 0.0
vn -0.0 1.0 0.0
vn -0.0 1.0 0.0
vn -0.0 1.0 0.0
vn -0.0 1.0 0.0
vn -0.0 1.0 0.0
vn -0.0 1.0 0.0
vn -0.0 1.0 0.0
vn -0.0 1.0 0.0
vn -0.0 1.0 0.0
vn -0.0 1.0 0.0
vt 2.125000238418579 0.125
vt 2.125000238418579 -0.12499988079071045
vt 2.375 -0.12499964237213135
vt 2.375 0.12500005960464478
vt 1.875 0.12499988079071045
vt 1.8750001192092896 -0.12499988079071045
vt 1.625 0.12499982118606567
vt 1.6250001192092896 -0.125
vt 1.375000238418579 0.1249997615814209
vt 1.375000238418579 -0.125
vt 1.625 0.37500011920928955
vt 1.875 0.37500011920928955
vt 1.375000238418579 0.37500011920928955
vt 2.125000238418579 0.37500011920928955
vt 1.875 0.6249997913837433
vt 2.125000238418579 0.6249997913837433
vt 1.875 0.8749997913837433
vt 2.125000238418579 0.8749997913837433
vt 2.375 0.6249997913837433
vt 2.375 0.8749997913837433
vt 1.875 1.1250000596046448
vt 2.125000238418579 1.1250000596046448
vt 1.875 1.3750000894069672
vt 2.125000238418579 1.3750000894069672
vt 1.875 1.6250001192092896
vt 2.125000238418579 1.6250001192092896
vt 2.375 1.3750000894069672
vt 2.375 1.6250001192092896
vt 1.625 1.6250001192092896
vt 1.625 1.3750000894069672
vt 1.3761199712753296 1.6250001192092896
vt 1.375000238418579 1.3750000894069672
vt 1.625 1.1250000596046448
vt 1.375000238418579 1.1250000596046448
vt 1.1250003576278687 1.3750000894069672
vt 1.1250003576278687 1.1250000596046448
vt 1.1261197328567505 1.6250001192092896
vt 2.375 1.1250000596046448
vt 0.8749996423721313 1.3750000894069672
vt 0.8749996423721313 1.1250000596046448
vt 0.6249998807907104 1.3750000894069672
vt 0.6249998807907104 1.1250000596046448
vt 0.3750002086162567 1.3750000894069672
vt 0.3750002086162567 1.1250000596046448
vt 0.12499997019767761 1.3750000894069672
vt 0.12499997019767761 1.1250000596046448
vt 0.12499997019767761 1.6250001192092896
vt 0.3750002086162567 1.6250001192092896
vt -0.12499982118606567 1.6250001192092896
vt -0.12499982118606567 1.3750000894069672
vt -0.37500008940696716 1.6250001192092896
vt -0.37500008940696716 1.3750000894069672
vt 0.6249998807907104 1.6250001192092896
vt -0.12499982118606567 1.1250000596046448
vt -0.37500008940696716 1.1250000596046448
vt 0.3750002086162567 0.8749997913837433
vt 0.12499997019767761 0.8749997913837433
vt -0.12499982118606567 0.8749997913837433
vt 0.6249998807907104 0.8749997913837433
vt 0.6249998807907104 0.6249997913837433
vt 0.3750002086162567 0.6249997913837433
vt 0.6249998807907104 0.37500011920928955
vt 0.8749996423721313 0.37500011920928955
vt 0.8749996423721313 0.6249997913837433
vt 0.3750002086162567 0.37500011920928955
vt 0.12499997019767761 0.6249997913837433
vt 0.12499997019767761 0.37500011920928955
vt 0.3750002086162567 0.12499988079071045
vt 0.12499997019767761 0.12499988079071045
vt -0.12499982118606567 0.37500011920928955
vt -0.12499982118606567 0.12499988079071045
vt 0.8749996423721313 0.12499988079071045
vt 1.1250003576278687 0.12499988079071045
vt 1.1250003576278687 0.37500011920928955
vt 0.6249998807907104 0.12499988079071045
vt -0.37500008940696716 0.37500011920928955
vt -0.37500008940696716 0.6249997913837433
vt -0.12499982118606567 0.6249997913837433
vt -0.37500008940696716 0.8749997913837433
vt -0.37500008940696716 0.12499988079071045
vt 0.12499997019767761 -0.125
vt -0.12499982118606567 -0.125
vt 0.12499997019767761 -0.3750002384185791
vt 0.3750002086162567 -0.3750002384185791
vt 0.3750002086162567 -0.625
vt 0.6249998807907104 -0.625
vt 0.6249998807907104 -0.3750002384185791
vt 0.6249998807907104 -0.875
vt 0.3750002086162567 -0.875
vt 0.6249998807907104 -1.125000238418579
vt 0.3750002086162567 -1.125000238418579
vt 0.12499997019767761 -0.625
vt -0.12499982118606567 -0.3750002384185791
vt -0.12500005960464478 -0.625
vt -0.37500008940696716 -0.3750002384185791
vt -0.37500008940696716 -0.625
vt 0.12499997019767761 -0.875
vt -0.12500005960464478 -0.875
vt 0.12499997019767761 -1.125000238418579
vt -0.12499982118606567 -1.125000238418579
vt -0.37500008940696716 -0.875
vt -0.37500008940696716 -1.125000238418579
vt -0.12499982118606567 -1.375
vt -0.37500008940696716 -1.375
vt 0.12499997019767761 -1.375
vt 0.3750002086162567 -1.375
vt 0.6249998807907104 -1.375
vt -0.37500008940696716 -0.125
vt -0.6250001192092896 -0.875
vt -0.6250001192092896 -1.125000238418579
vt -0.6250001192092896 -0.625
vt -0.6250001192092896 -0.3750002384185791
vt -0.6250001192092896 -1.375
vt -0.6250001192092896 0.12499988079071045
vt -0.6250001192092896 0.37500011920928955
vt -0.6250001192092896 0.6249997913837433
vt -0.6250001192092896 0.8749997913837433
vt -0.6250001192092896 1.1250000596046448
vt -0.6250001192092896 1.3750000894069672
vt -0.6250001192092896 1.6250001192092896
vt -0.6250001192092896 1.8749999403953552
vt -0.37500008940696716 1.8749999403953552
vt -0.6250001192092896 2.1250001192092896
vt -0.37500008940696716 2.1250001192092896
vt -0.12499982118606567 1.8749999403953552
vt -0.12499982118606567 2.1250001192092896
vt -0.37500008940696716 2.375
vt -0.12499982118606567 2.375
vt 0.12499997019767761 2.1250001192092896
vt 0.12499997019767761 2.375
vt 0.12499997019767761 1.8749999403953552
vt 0.3750002086162567 1.8749999403953552
vt 0.3750002086162567 2.1250001192092896
vt 0.6249998807907104 1.8749999403953552
vt 0.6249998807907104 2.1250001192092896
vt 0.3750002086162567 2.375
vt 0.6249998807907104 2.375
vt 0.8749996423721313 1.8749999403953552
vt 0.8749996423721313 2.1250001192092896
vt 1.1250003576278687 1.8749999403953552
vt 1.1250003576278687 2.1250001192092896
vt 1.375000238418579 1.8749999403953552
vt 1.375000238418579 2.1250001192092896
vt 1.1250003576278687 2.375
vt 1.375000238418579 2.375
vt 1.625 2.1250001192092896
vt 1.625 2.375
vt 1.875 2.1250001192092896
vt 1.875 2.375
vt 2.125000238418579 2.1250001192092896
vt 2.125000238418579 2.375
vt 1.875 1.8749999403953552
vt 1.625 1.8749999403953552
vt 0.8749996423721313 2.375
vt 2.375 2.1250001192092896
vt 2.375 1.8749999403953552
vt 2.125000238418579 1.8749999403953552
vt 2.375 2.375
vt 0.8749996423721313 1.6250001192092896
vt -1.375 -0.875
vt -1.375 -1.125000238418579
vt -1.1250001192092896 -1.125000238418579
vt -1.1250001192092896 -0.875
vt -1.1250001192092896 -1.375
vt -1.375 -1.375
vt -1.375 -0.625
vt -1.1250001192092896 -0.625
vt -1.375 -0.3750002384185791
vt -1.1250001192092896 -0.3750002384185791
vt -1.375 -0.125
vt -1.1250001192092896 -0.125
vt -1.375 0.12499988079071045
vt -1.1250001192092896 0.12499988079071045
vt -1.375 0.37500011920928955
vt -1.1250001192092896 0.37500011920928955
vt -1.375 0.6249997913837433
vt -1.1250001192092896 0.6249997913837433
vt -1.375 0.8749997913837433
vt -1.1250001192092896 0.8749997913837433
vt -1.375 1.1250000596046448
vt -1.1250001192092896 1.1250000596046448
vt -1.375 1.3750000894069672
vt -1.1250001192092896 1.3750000894069672
vt -1.375 1.6250001192092896
vt -1.1250001192092896 1.6250001192092896
vt -1.375 1.8749999403953552
vt -1.1250001192092896 1.8749999403953552
vt -1.375 2.1250001192092896
vt -1.1250001192092896 2.1250001192092896
vt -1.375 2.375
vt -1.1250001192092896 2.375
vt -0.8749999403953552 0.6249997913837433
vt -0.8749999403953552 0.8749997913837433
vt -0.8749999403953552 0.37500011920928955
vt -0.8749999403953552 0.12499988079071045
vt -0.6250001192092896 -0.125
vt -0.8749999403953552 -0.125
vt -0.8749999403953552 -0.3750002384185791
vt -0.8749999403953552 -0.625
vt -0.8749999403953552 -0.875
vt -0.8749999403953552 -1.125000238418579
vt -0.8749999403953552 -1.375
vt -0.6250001192092896 2.375
vt -0.8749999403953552 2.375
vt -0.8749999403953552 2.1250001192092896
vt -0.8749999403953552 1.8749999403953552
vt -0.8749999403953552 1.6250001192092896
vt -0.8749999403953552 1.3750000894069672
vt -0.8749999403953552 1.1250000596046448
vt 2.125000238418579 -1.125000238418579
vt 2.125000238418579 -1.375
vt 2.375 -1.375
vt 2.375 -1.125000238418579
vt 2.125000238418579 -0.875
vt 1.875 -0.875
vt 1.875 -1.125000238418579
vt 1.625 -0.875
vt 1.625 -1.125000238418579
vt 1.375000238418579 -0.875
vt 1.375000238418579 -1.125000238418579
vt 1.1250003576278687 -0.875
vt 1.1250003576278687 -1.125000238418579
vt 1.375000238418579 -1.375
vt 1.1250003576278687 -1.375
vt 1.875 -1.375
vt 1.625 -1.375
vt 0.8749996423721313 -1.125000238418579
vt 0.8749996423721313 -1.375
vt 0.8749996423721313 -0.875
vt 0.8749996423721313 -0.625
vt 0.8749996423721313 -0.3750002384185791
vt 0.6249998807907104 -0.125
vt 0.3750002086162567 -0.125
vt 0.8749996423721313 -0.125
vt 1.1250003576278687 -0.3750002384185791
vt 1.1250003576278687 -0.125
vt 1.1250003576278687 0.6249997913837433
vt 1.375000238418579 0.6249997913837433
vt 0.8749996423721313 0.8749997913837433
vt 1.1250003576278687 0.8749997913837433
vt 1.375000238418579 0.8749997913837433
vt 1.625 0.8749997913837433
vt 1.625 0.6249997913837433
vt 2.375 0.37500011920928955
vt 2.375 -0.8749998807907104
vt 2.125000238418579 -0.6250001192092896
vt 2.375 -0.625
vt 1.875 -0.6250002384185791
vt 1.625 -0.6250002384185791
vt 1.375000238418579 -0.6250002384185791
vt 1.125 -0.625

g bg_mdl_map_sabaku_jimen_01
s 1
usemtl bg_mdl_map_sabaku_jimen_01
f 3/3/3 2/2/2 1/1/1 
f 4/4/4 3/3/3 1/1/1 
f 1/1/1 2/2/2 5/5/5 
f 2/2/2 6/6/6 5/5/5 
f 5/5/5 6/6/6 7/7/7 
f 6/6/6 8/8/8 7/7/7 
f 7/7/7 8/8/8 9/9/9 
f 8/8/8 10/10/10 9/9/9 
f 5/5/5 7/7/7 11/11/11 
f 12/12/12 5/5/5 11/11/11 
f 1/1/1 5/5/5 12/12/12 
f 7/7/7 9/9/9 13/13/13 
f 11/11/11 7/7/7 13/13/13 
f 4/4/4 1/1/1 14/14/14 
f 14/14/14 1/1/1 12/12/12 
f 14/14/14 12/12/12 15/15/15 
f 16/16/16 14/14/14 15/15/15 
f 16/16/16 15/15/15 17/17/17 
f 18/18/18 16/16/16 17/17/17 
f 19/19/19 16/16/16 18/18/18 
f 20/20/20 19/19/19 18/18/18 
f 18/18/18 17/17/17 21/21/21 
f 22/22/22 18/18/18 21/21/21 
f 20/20/20 18/18/18 22/22/22 
f 22/22/22 21/21/21 23/23/23 
f 24/24/24 22/22/22 23/23/23 
f 24/24/24 23/23/23 25/25/25 
f 26/26/26 24/24/24 25/25/25 
f 27/27/27 24/24/24 26/26/26 
f 28/28/28 27/27/27 26/26/26 
f 25/25/25 23/23/23 29/29/29 
f 23/23/23 30/30/30 29/29/29 
f 23/23/23 21/21/21 30/30/30 
f 29/29/29 30/30/30 31/31/31 
f 30/30/30 32/32/32 31/31/31 
f 30/30/30 33/33/33 32/32/32 
f 21/21/21 33/33/33 30/30/30 
f 33/33/33 34/34/34 32/32/32 
f 32/32/32 34/34/34 35/35/35 
f 34/34/34 36/36/36 35/35/35 
f 32/32/32 35/35/35 37/37/37 
f 31/31/31 32/32/32 37/37/37 
f 38/38/38 22/22/22 24/24/24 
f 27/27/27 38/38/38 24/24/24 
f 35/35/35 36/36/36 39/39/39 
f 36/36/36 40/40/40 39/39/39 
f 39/39/39 40/40/40 41/41/41 
f 40/40/40 42/42/42 41/41/41 
f 41/41/41 42/42/42 43/43/43 
f 42/42/42 44/44/44 43/43/43 
f 43/43/43 44/44/44 45/45/45 
f 44/44/44 46/46/46 45/45/45 
f 43/43/43 45/45/45 47/47/47 
f 48/48/48 43/43/43 47/47/47 
f 41/41/41 43/43/43 48/48/48 
f 47/47/47 45/45/45 49/49/49 
f 45/45/45 50/50/50 49/49/49 
f 45/45/45 46/46/46 50/50/50 
f 49/49/49 50/50/50 51/51/51 
f 50/50/50 52/52/52 51/51/51 
f 53/53/53 41/41/41 48/48/48 
f 39/39/39 41/41/41 53/53/53 
f 46/46/46 54/54/54 50/50/50 
f 50/50/50 54/54/54 52/52/52 
f 54/54/54 55/55/55 52/52/52 
f 44/44/44 56/56/56 46/46/46 
f 56/56/56 57/57/57 46/46/46 
f 46/46/46 57/57/57 54/54/54 
f 57/57/57 58/58/58 54/54/54 
f 54/54/54 58/58/58 55/55/55 
f 59/59/59 56/56/56 44/44/44 
f 59/59/59 60/60/60 56/56/56 
f 60/60/60 61/61/61 56/56/56 
f 56/56/56 61/61/61 57/57/57 
f 60/60/60 62/62/62 61/61/61 
f 63/63/63 62/62/62 60/60/60 
f 64/64/64 63/63/63 60/60/60 
f 64/64/64 60/60/60 59/59/59 
f 62/62/62 65/65/65 61/61/61 
f 61/61/61 65/65/65 66/66/66 
f 57/57/57 66/66/66 58/58/58 
f 61/61/61 66/66/66 57/57/57 
f 65/65/65 67/67/67 66/66/66 
f 65/65/65 68/68/68 67/67/67 
f 68/68/68 69/69/69 67/67/67 
f 67/67/67 69/69/69 70/70/70 
f 69/69/69 71/71/71 70/70/70 
f 63/63/63 72/72/72 62/62/62 
f 73/73/73 72/72/72 63/63/63 
f 74/74/74 73/73/73 63/63/63 
f 74/74/74 63/63/63 64/64/64 
f 72/72/72 75/75/75 62/62/62 
f 75/75/75 68/68/68 65/65/65 
f 62/62/62 75/75/75 65/65/65 
f 70/70/70 71/71/71 76/76/76 
f 70/70/70 76/76/76 77/77/77 
f 78/78/78 70/70/70 77/77/77 
f 67/67/67 70/70/70 78/78/78 
f 66/66/66 67/67/67 78/78/78 
f 78/78/78 77/77/77 79/79/79 
f 58/58/58 78/78/78 79/79/79 
f 66/66/66 78/78/78 58/58/58 
f 71/71/71 80/80/80 76/76/76 
f 69/69/69 81/81/81 71/71/71 
f 81/81/81 82/82/82 71/71/71 
f 71/71/71 82/82/82 80/80/80 
f 81/81/81 83/83/83 82/82/82 
f 84/84/84 83/83/83 81/81/81 
f 84/84/84 85/85/85 83/83/83 
f 86/86/86 85/85/85 84/84/84 
f 87/87/87 86/86/86 84/84/84 
f 86/86/86 88/88/88 85/85/85 
f 88/88/88 89/89/89 85/85/85 
f 88/88/88 90/90/90 89/89/89 
f 90/90/90 91/91/91 89/89/89 
f 85/85/85 92/92/92 83/83/83 
f 85/85/85 89/89/89 92/92/92 
f 83/83/83 92/92/92 93/93/93 
f 83/83/83 93/93/93 82/82/82 
f 92/92/92 94/94/94 93/93/93 
f 93/93/93 94/94/94 95/95/95 
f 94/94/94 96/96/96 95/95/95 
f 92/92/92 97/97/97 94/94/94 
f 89/89/89 97/97/97 92/92/92 
f 89/89/89 91/91/91 97/97/97 
f 97/97/97 98/98/98 94/94/94 
f 94/94/94 98/98/98 96/96/96 
f 97/97/97 99/99/99 98/98/98 
f 91/91/91 99/99/99 97/97/97 
f 99/99/99 100/100/100 98/98/98 
f 98/98/98 100/100/100 101/101/101 
f 98/98/98 101/101/101 96/96/96 
f 100/100/100 102/102/102 101/101/101 
f 100/100/100 103/103/103 102/102/102 
f 103/103/103 104/104/104 102/102/102 
f 105/105/105 103/103/103 100/100/100 
f 99/99/99 105/105/105 100/100/100 
f 106/106/106 105/105/105 99/99/99 
f 91/91/91 106/106/106 99/99/99 
f 107/107/107 106/106/106 91/91/91 
f 93/93/93 95/95/95 108/108/108 
f 82/82/82 93/93/93 108/108/108 
f 82/82/82 108/108/108 80/80/80 
f 101/101/101 102/102/102 109/109/109 
f 102/102/102 110/110/110 109/109/109 
f 102/102/102 104/104/104 110/110/110 
f 101/101/101 109/109/109 111/111/111 
f 96/96/96 101/101/101 111/111/111 
f 96/96/96 111/111/111 112/112/112 
f 95/95/95 96/96/96 112/112/112 
f 104/104/104 113/113/113 110/110/110 
f 80/80/80 108/108/108 114/114/114 
f 80/80/80 114/114/114 115/115/115 
f 76/76/76 80/80/80 115/115/115 
f 76/76/76 115/115/115 116/116/116 
f 77/77/77 76/76/76 116/116/116 
f 77/77/77 116/116/116 117/117/117 
f 79/79/79 77/77/77 117/117/117 
f 79/79/79 117/117/117 118/118/118 
f 55/55/55 79/79/79 118/118/118 
f 58/58/58 79/79/79 55/55/55 
f 55/55/55 118/118/118 119/119/119 
f 52/52/52 55/55/55 119/119/119 
f 52/52/52 119/119/119 120/120/120 
f 51/51/51 52/52/52 120/120/120 
f 51/51/51 120/120/120 121/121/121 
f 122/122/122 51/51/51 121/121/121 
f 122/122/122 121/121/121 123/123/123 
f 124/124/124 122/122/122 123/123/123 
f 125/125/125 122/122/122 124/124/124 
f 126/126/126 125/125/125 124/124/124 
f 126/126/126 124/124/124 127/127/127 
f 128/128/128 126/126/126 127/127/127 
f 129/129/129 126/126/126 128/128/128 
f 130/130/130 129/129/129 128/128/128 
f 131/131/131 125/125/125 126/126/126 
f 129/129/129 131/131/131 126/126/126 
f 132/132/132 131/131/131 129/129/129 
f 133/133/133 132/132/132 129/129/129 
f 133/133/133 129/129/129 130/130/130 
f 134/134/134 132/132/132 133/133/133 
f 135/135/135 134/134/134 133/133/133 
f 135/135/135 133/133/133 136/136/136 
f 136/136/136 133/133/133 130/130/130 
f 137/137/137 135/135/135 136/136/136 
f 138/138/138 134/134/134 135/135/135 
f 139/139/139 138/138/138 135/135/135 
f 139/139/139 135/135/135 137/137/137 
f 140/140/140 138/138/138 139/139/139 
f 141/141/141 140/140/140 139/139/139 
f 142/142/142 140/140/140 141/141/141 
f 143/143/143 142/142/142 141/141/141 
f 143/143/143 141/141/141 144/144/144 
f 145/145/145 143/143/143 144/144/144 
f 146/146/146 143/143/143 145/145/145 
f 147/147/147 146/146/146 145/145/145 
f 148/148/148 146/146/146 147/147/147 
f 149/149/149 148/148/148 147/147/147 
f 150/150/150 148/148/148 149/149/149 
f 151/151/151 150/150/150 149/149/149 
f 148/148/148 152/152/152 146/146/146 
f 152/152/152 153/153/153 146/146/146 
f 153/153/153 142/142/142 143/143/143 
f 146/146/146 153/153/153 143/143/143 
f 141/141/141 139/139/139 154/154/154 
f 144/144/144 141/141/141 154/154/154 
f 154/154/154 139/139/139 137/137/137 
f 155/155/155 150/150/150 151/151/151 
f 155/155/155 156/156/156 150/150/150 
f 156/156/156 157/157/157 150/150/150 
f 157/157/157 152/152/152 148/148/148 
f 150/150/150 157/157/157 148/148/148 
f 158/158/158 155/155/155 151/151/151 
f 156/156/156 28/28/28 157/157/157 
f 28/28/28 26/26/26 157/157/157 
f 157/157/157 26/26/26 152/152/152 
f 152/152/152 25/25/25 153/153/153 
f 26/26/26 25/25/25 152/152/152 
f 25/25/25 29/29/29 153/153/153 
f 153/153/153 29/29/29 142/142/142 
f 29/29/29 31/31/31 142/142/142 
f 142/142/142 31/31/31 140/140/140 
f 31/31/31 37/37/37 140/140/140 
f 140/140/140 37/37/37 138/138/138 
f 37/37/37 159/159/159 138/138/138 
f 37/37/37 35/35/35 159/159/159 
f 35/35/35 39/39/39 159/159/159 
f 159/159/159 39/39/39 53/53/53 
f 159/159/159 53/53/53 134/134/134 
f 138/138/138 159/159/159 134/134/134 
f 134/134/134 53/53/53 132/132/132 
f 53/53/53 48/48/48 132/132/132 
f 132/132/132 48/48/48 131/131/131 
f 48/48/48 47/47/47 131/131/131 
f 131/131/131 47/47/47 125/125/125 
f 47/47/47 49/49/49 125/125/125 
f 125/125/125 49/49/49 122/122/122 
f 49/49/49 51/51/51 122/122/122 
f 162/162/162 161/161/161 160/160/160 
f 163/163/163 162/162/162 160/160/160 
f 162/162/162 164/164/164 161/161/161 
f 164/164/164 165/165/165 161/161/161 
f 163/163/163 160/160/160 166/166/166 
f 167/167/167 163/163/163 166/166/166 
f 167/167/167 166/166/166 168/168/168 
f 169/169/169 167/167/167 168/168/168 
f 169/169/169 168/168/168 170/170/170 
f 171/171/171 169/169/169 170/170/170 
f 171/171/171 170/170/170 172/172/172 
f 173/173/173 171/171/171 172/172/172 
f 173/173/173 172/172/172 174/174/174 
f 175/175/175 173/173/173 174/174/174 
f 175/175/175 174/174/174 176/176/176 
f 177/177/177 175/175/175 176/176/176 
f 177/177/177 176/176/176 178/178/178 
f 179/179/179 177/177/177 178/178/178 
f 179/179/179 178/178/178 180/180/180 
f 181/181/181 179/179/179 180/180/180 
f 181/181/181 180/180/180 182/182/182 
f 183/183/183 181/181/181 182/182/182 
f 183/183/183 182/182/182 184/184/184 
f 185/185/185 183/183/183 184/184/184 
f 185/185/185 184/184/184 186/186/186 
f 187/187/187 185/185/185 186/186/186 
f 187/187/187 186/186/186 188/188/188 
f 189/189/189 187/187/187 188/188/188 
f 189/189/189 188/188/188 190/190/190 
f 191/191/191 189/189/189 190/190/190 
f 192/192/192 177/177/177 179/179/179 
f 193/193/193 192/192/192 179/179/179 
f 193/193/193 179/179/179 181/181/181 
f 116/116/116 192/192/192 193/193/193 
f 116/116/116 115/115/115 192/192/192 
f 115/115/115 194/194/194 192/192/192 
f 117/117/117 116/116/116 193/193/193 
f 115/115/115 114/114/114 194/194/194 
f 114/114/114 195/195/195 194/194/194 
f 114/114/114 196/196/196 195/195/195 
f 108/108/108 196/196/196 114/114/114 
f 108/108/108 95/95/95 196/196/196 
f 95/95/95 112/112/112 196/196/196 
f 196/196/196 112/112/112 197/197/197 
f 196/196/196 197/197/197 195/195/195 
f 112/112/112 198/198/198 197/197/197 
f 112/112/112 111/111/111 198/198/198 
f 111/111/111 199/199/199 198/198/198 
f 111/111/111 109/109/109 199/199/199 
f 109/109/109 200/200/200 199/199/199 
f 109/109/109 110/110/110 200/200/200 
f 110/110/110 201/201/201 200/200/200 
f 110/110/110 113/113/113 201/201/201 
f 113/113/113 202/202/202 201/201/201 
f 200/200/200 201/201/201 163/163/163 
f 201/201/201 162/162/162 163/163/163 
f 201/201/201 202/202/202 162/162/162 
f 198/198/198 199/199/199 169/169/169 
f 199/199/199 167/167/167 169/169/169 
f 200/200/200 163/163/163 167/167/167 
f 199/199/199 200/200/200 167/167/167 
f 202/202/202 164/164/164 162/162/162 
f 198/198/198 169/169/169 171/171/171 
f 197/197/197 198/198/198 171/171/171 
f 197/197/197 171/171/171 173/173/173 
f 195/195/195 197/197/197 173/173/173 
f 195/195/195 173/173/173 175/175/175 
f 194/194/194 195/195/195 175/175/175 
f 194/194/194 175/175/175 177/177/177 
f 192/192/192 194/194/194 177/177/177 
f 124/124/124 123/123/123 203/203/203 
f 127/127/127 124/124/124 203/203/203 
f 203/203/203 123/123/123 204/204/204 
f 123/123/123 205/205/205 204/204/204 
f 123/123/123 121/121/121 205/205/205 
f 121/121/121 206/206/206 205/205/205 
f 121/121/121 120/120/120 206/206/206 
f 120/120/120 207/207/207 206/206/206 
f 120/120/120 119/119/119 207/207/207 
f 119/119/119 208/208/208 207/207/207 
f 119/119/119 118/118/118 208/208/208 
f 118/118/118 209/209/209 208/208/208 
f 118/118/118 117/117/117 209/209/209 
f 117/117/117 193/193/193 209/209/209 
f 208/208/208 209/209/209 183/183/183 
f 209/209/209 181/181/181 183/183/183 
f 209/209/209 193/193/193 181/181/181 
f 208/208/208 183/183/183 185/185/185 
f 207/207/207 208/208/208 185/185/185 
f 207/207/207 185/185/185 187/187/187 
f 206/206/206 207/207/207 187/187/187 
f 204/204/204 205/205/205 191/191/191 
f 206/206/206 187/187/187 189/189/189 
f 205/205/205 189/189/189 191/191/191 
f 205/205/205 206/206/206 189/189/189 
f 212/212/212 211/211/211 210/210/210 
f 213/213/213 212/212/212 210/210/210 
f 213/213/213 210/210/210 214/214/214 
f 214/214/214 210/210/210 215/215/215 
f 210/210/210 216/216/216 215/215/215 
f 210/210/210 211/211/211 216/216/216 
f 215/215/215 216/216/216 217/217/217 
f 216/216/216 218/218/218 217/217/217 
f 217/217/217 218/218/218 219/219/219 
f 218/218/218 220/220/220 219/219/219 
f 219/219/219 220/220/220 221/221/221 
f 220/220/220 222/222/222 221/221/221 
f 220/220/220 223/223/223 222/222/222 
f 223/223/223 224/224/224 222/222/222 
f 216/216/216 225/225/225 218/218/218 
f 211/211/211 225/225/225 216/216/216 
f 225/225/225 226/226/226 218/218/218 
f 226/226/226 223/223/223 220/220/220 
f 218/218/218 226/226/226 220/220/220 
f 222/222/222 224/224/224 227/227/227 
f 224/224/224 228/228/228 227/227/227 
f 227/227/227 228/228/228 90/90/90 
f 228/228/228 107/107/107 90/90/90 
f 222/222/222 227/227/227 229/229/229 
f 221/221/221 222/222/222 229/229/229 
f 227/227/227 90/90/90 88/88/88 
f 229/229/229 227/227/227 88/88/88 
f 90/90/90 107/107/107 91/91/91 
f 229/229/229 88/88/88 86/86/86 
f 230/230/230 229/229/229 86/86/86 
f 221/221/221 229/229/229 230/230/230 
f 230/230/230 86/86/86 87/87/87 
f 231/231/231 230/230/230 87/87/87 
f 231/231/231 87/87/87 232/232/232 
f 232/232/232 87/87/87 233/233/233 
f 87/87/87 84/84/84 233/233/233 
f 233/233/233 84/84/84 81/81/81 
f 233/233/233 81/81/81 69/69/69 
f 68/68/68 233/233/233 69/69/69 
f 232/232/232 233/233/233 68/68/68 
f 75/75/75 232/232/232 68/68/68 
f 234/234/234 232/232/232 75/75/75 
f 234/234/234 231/231/231 232/232/232 
f 72/72/72 234/234/234 75/75/75 
f 235/235/235 231/231/231 234/234/234 
f 236/236/236 235/235/235 234/234/234 
f 236/236/236 234/234/234 72/72/72 
f 73/73/73 236/236/236 72/72/72 
f 10/10/10 236/236/236 73/73/73 
f 9/9/9 10/10/10 73/73/73 
f 9/9/9 73/73/73 74/74/74 
f 13/13/13 9/9/9 74/74/74 
f 13/13/13 74/74/74 237/237/237 
f 238/238/238 13/13/13 237/237/237 
f 237/237/237 74/74/74 64/64/64 
f 237/237/237 64/64/64 239/239/239 
f 240/240/240 237/237/237 239/239/239 
f 238/238/238 237/237/237 240/240/240 
f 240/240/240 239/239/239 40/40/40 
f 40/40/40 239/239/239 42/42/42 
f 239/239/239 59/59/59 42/42/42 
f 239/239/239 64/64/64 59/59/59 
f 36/36/36 240/240/240 40/40/40 
f 42/42/42 59/59/59 44/44/44 
f 241/241/241 240/240/240 36/36/36 
f 241/241/241 238/238/238 240/240/240 
f 34/34/34 241/241/241 36/36/36 
f 242/242/242 241/241/241 34/34/34 
f 33/33/33 242/242/242 34/34/34 
f 17/17/17 242/242/242 33/33/33 
f 17/17/17 15/15/15 242/242/242 
f 15/15/15 243/243/243 242/242/242 
f 243/243/243 238/238/238 241/241/241 
f 242/242/242 243/243/243 241/241/241 
f 21/21/21 17/17/17 33/33/33 
f 15/15/15 12/12/12 243/243/243 
f 12/12/12 11/11/11 243/243/243 
f 243/243/243 11/11/11 238/238/238 
f 11/11/11 13/13/13 238/238/238 
f 244/244/244 14/14/14 16/16/16 
f 19/19/19 244/244/244 16/16/16 
f 244/244/244 4/4/4 14/14/14 
f 38/38/38 20/20/20 22/22/22 
f 245/245/245 213/213/213 214/214/214 
f 245/245/245 214/214/214 246/246/246 
f 247/247/247 245/245/245 246/246/246 
f 246/246/246 214/214/214 248/248/248 
f 214/214/214 215/215/215 248/248/248 
f 248/248/248 215/215/215 249/249/249 
f 215/215/215 217/217/217 249/249/249 
f 249/249/249 217/217/217 250/250/250 
f 217/217/217 219/219/219 250/250/250 
f 250/250/250 219/219/219 251/251/251 
f 219/219/219 221/221/221 251/251/251 
f 251/251/251 221/221/221 230/230/230 
f 251/251/251 230/230/230 231/231/231 
f 235/235/235 251/251/251 231/231/231 

