v -3.850013256072998 -7.976913928985596 0.9999998807907104
v -2.0319223403930664 -5.97691535949707 0.9999998807907104
v -2.0319745540618896 -7.976916790008545 0.9999998807907104
v -3.8500137329101562 -5.9769158363342285 0.9999998807907104
v -3.8499341011047363 -5.11609411239624 0.9935240149497986
v -2.031928777694702 -5.115853786468506 0.9935240149497986
v 0.41641101241111755 -5.006009578704834 0.0
v 0.1163085550069809 -3.0060441493988037 0.0
v 0.4164103865623474 -3.0060441493988037 0.0
v 0.11630985140800476 -5.006007194519043 0.0
v 0.11630908399820328 -1.0042469501495361 0.0
v 0.4164115786552429 -1.2913099527359009 0.0
v 0.4164128303527832 -7.006011009216309 0.0
v 0.41641223430633545 -5.006009578704834 0.0
v 0.11631107330322266 -7.006007671356201 0.0
v 0.416415274143219 -8.997993469238281 0.0
v 0.11631343513727188 -8.997993469238281 0.0
v 7.07221794128418 -1.7547606603329768e-06 0.0
v 5.05788516998291 -1.291309118270874 0.0
v 5.057511329650879 -1.7547606603329768e-06 0.0
v 7.07221794128418 -1.2913093566894531 0.0
v 3.0575108528137207 -1.2913093566894531 0.0
v 3.057511329650879 -1.7547606603329768e-06 0.0
v 1.0597100257873535 -1.2917343378067017 0.0
v 1.0597100257873535 -1.7547606603329768e-06 0.0
v -1.8836852312088013 -4.006264686584473 0.0
v -4.000608921051025 -3.0090599060058594 0.0
v -1.8836851119995117 -3.0060441493988037 0.0
v -4.000687599182129 -4.006287574768066 0.0
v -5.00086784362793 -3.011651039123535 0.0
v -5.001016616821289 -4.006505489349365 0.0
v 0.11632613837718964 -9.997082710266113 0.0
v 0.41642630100250244 -8.997991561889648 0.0
v 0.4164280891418457 -10.000003814697266 0.0
v 0.11632659286260605 -8.997993469238281 0.0
v 7.07221794128418 3.9999988079071045 0.0
v 5.057511329650879 1.9999980926513672 0.0
v 5.057511329650879 3.999998092651367 0.0
v 7.07221794128418 1.9999980926513672 0.0
v 3.057511568069458 1.9999983310699463 0.0
v 3.0575108528137207 3.999998092651367 0.0
v 1.0597100257873535 1.9999983310699463 0.0
v 1.0597100257873535 3.999998092651367 0.0
v -2.0319747924804688 -7.976914882659912 0.9999998807907104
v -3.850008964538574 -9.976911544799805 0.9999998807907104
v -3.850013256072998 -7.976913928985596 0.9999998807907104
v -2.0327718257904053 -9.976913452148438 0.9999998807907104
v -5.001696586608887 -7.976914405822754 0.9999998807907104
v -5.001696586608887 -9.97691535949707 0.9999998807907104
v -5.001696586608887 -5.97691535949707 0.9999998807907104
v -3.8500137329101562 -5.9769158363342285 0.9999998807907104
v -5.001242637634277 -5.112339496612549 0.9999998807907104
v -3.8499341011047363 -5.11609411239624 0.9935240149497986
v -4.000124454498291 1.9999996423721313 0.0
v -5.000186443328857 3.9999992847442627 0.0
v -4.000124454498291 3.999999523162842 0.0
v -5.000186443328857 1.9999995231628418 0.0
v -2.941906452178955 1.999999761581421 0.0
v -1.8836884498596191 3.999999523162842 0.0
v -1.8836884498596191 3.0 0.0
v -1.8836909532546997 -1.0042469501495361 0.0
v -4.000608921051025 -3.0090599060058594 0.0
v -4.000610828399658 -1.0042469501495361 0.0
v -1.8836902379989624 -3.0060441493988037 0.0
v -5.00086784362793 -3.011651039123535 0.0
v -5.00079345703125 -1.0042469501495361 0.0
v -4.000608921051025 -3.0090599060058594 0.0
v -3.850008964538574 -9.976909637451172 0.0
v -2.0327718257904053 -9.976913452148438 0.9999998807907104
v -2.0327720642089844 -9.976910591125488 0.0
v -3.850008964538574 -9.976911544799805 0.9999998807907104
v -1.8836884498596191 -4.006264686584473 0.0
v -4.000726222991943 -5.005003452301025 0.0
v -4.000687599182129 -4.006287574768066 0.0
v -1.88368558883667 -4.985661029815674 0.0
v -4.000687599182129 -4.006287574768066 0.0
v -5.001242160797119 -5.004790306091309 0.0
v -5.001016616821289 -4.006505489349365 0.0
v -4.000726222991943 -5.005003452301025 0.0
v 8.018254280090332 2.000012159347534 0.0
v 7.07221794128418 4.000011920928955 0.0
v 8.018255233764648 4.000010967254639 0.0
v 7.07221794128418 2.000012159347534 0.0
v 8.018255233764648 -1.2917208671569824 0.0
v 7.07221794128418 1.1749267287086695e-05 0.0
v 8.018254280090332 1.182556115963962e-05 0.0
v 7.07221794128418 -1.291451334953308 0.0
v 1.0597100257873535 4.0 0.0
v 0.11631152778863907 3.0 0.0
v 0.11631156504154205 4.0 0.0
v 1.0597100257873535 2.0 0.0
v 1.0597100257873535 0.0 0.0
v 0.41641151905059814 -1.2913100719451904 0.0
v 0.11631125956773758 -1.0042469501495361 0.0
v 1.0597100257873535 -1.2914631366729736 0.0
v -2.941906452178955 -3.814697180359872e-08 0.0
v -4.000368595123291 -1.0042469501495361 0.0
v -4.000124454498291 -3.8146970382513246e-07 0.0
v -1.8836885690689087 -1.0042469501495361 0.0
v -5.000492572784424 -1.0042469501495361 0.0
v -5.000186443328857 -5.722045557376987e-07 0.0
v -1.883743405342102 -5.006007671356201 0.0
v 0.1163085550069809 -3.0060441493988037 0.0
v 0.11630985140800476 -5.006007194519043 0.0
v -1.8836902379989624 -3.0060441493988037 0.0
v 0.11630908399820328 -1.0042469501495361 0.0
v -1.8836902379989624 -3.0060441493988037 0.0
v -1.8836909532546997 -1.0042469501495361 0.0
v 0.1163085550069809 -3.0060441493988037 0.0
v 0.11632613837718964 -9.997082710266113 0.0
v -0.8836735486984253 -8.997993469238281 0.0
v 0.11632659286260605 -8.997993469238281 0.0
v -1.8836733102798462 -8.997993469238281 0.0
v -1.8836736679077148 -9.997082710266113 0.0
v 7.07221794128418 1.9999980926513672 0.0
v 5.057511329650879 -1.7547606603329768e-06 0.0
v 5.057511329650879 1.9999980926513672 0.0
v 7.07221794128418 -1.7547606603329768e-06 0.0
v -2.941906452178955 0.9999998211860657 0.0
v -4.000124454498291 1.9999996423721313 0.0
v -2.941906452178955 1.999999761581421 0.0
v -2.941906452178955 -3.814697180359872e-08 0.0
v -4.000124454498291 -3.8146970382513246e-07 0.0
v -5.000186443328857 1.9999995231628418 0.0
v -5.000186443328857 -5.722045557376987e-07 0.0
v -0.8836885094642639 1.5258788721439487e-07 0.0
v -1.8836884498596191 1.0000001192092896 0.0
v -0.8836885094642639 1.0 0.0
v -1.8836884498596191 3.0517577442878974e-07 0.0
v -2.941906452178955 0.9999998211860657 0.0
v -2.941906452178955 -3.814697180359872e-08 0.0
v -1.8836885690689087 -1.0042469501495361 0.0
v -0.8836886882781982 -1.0042469501495361 0.0
v 1.0597100257873535 0.0 0.0
v 0.11631149053573608 1.0 0.0
v 1.0597100257873535 1.0 0.0
v 0.11631149053573608 0.0 0.0
v 0.11631125956773758 -1.0042469501495361 0.0
v -0.8836886882781982 -1.0042469501495361 0.0
v -0.8836885094642639 1.5258788721439487e-07 0.0
v -0.8836885094642639 1.0 0.0
v 1.0597100257873535 -1.7547606603329768e-06 0.0
v 3.057511568069458 1.9999983310699463 0.0
v 3.057511329650879 -1.7547606603329768e-06 0.0
v 1.0597100257873535 1.9999983310699463 0.0
v 3.057511329650879 -1.7547606603329768e-06 0.0
v 5.057511329650879 1.9999980926513672 0.0
v 5.057511329650879 -1.7547606603329768e-06 0.0
v 3.057511568069458 1.9999983310699463 0.0
v -0.8836885094642639 2.0 0.0
v -1.8836884498596191 3.0 0.0
v -0.8836885094642639 3.0 0.0
v -1.8836884498596191 2.0 0.0
v -2.941906452178955 1.999999761581421 0.0
v -1.8836884498596191 1.0000001192092896 0.0
v -0.8836885094642639 1.0 0.0
v -2.941906452178955 0.9999998211860657 0.0
v 1.0597100257873535 2.0 0.0
v 0.11631149053573608 2.0 0.0
v 0.11631152778863907 3.0 0.0
v -0.8836885094642639 3.0 0.0
v -0.8836885094642639 2.0 0.0
v 0.11631149053573608 1.0 0.0
v 1.0597100257873535 1.0 0.0
v -0.8836885094642639 1.0 0.0
v 0.11630985140800476 -5.006007194519043 0.0
v -1.8845402002334595 -7.006008625030518 0.0
v -1.883743405342102 -5.006007671356201 0.0
v 0.11631107330322266 -7.006007671356201 0.0
v 0.11631107330322266 -7.006007671356201 0.0
v -1.884538173675537 -8.997993469238281 0.0
v -1.8845402002334595 -7.006008625030518 0.0
v 0.11631343513727188 -8.997993469238281 0.0
v 0.6614127159118652 -6.005103588104248 0.0
v 0.416412353515625 -4.00510311126709 0.0
v 0.6614123582839966 -4.005102634429932 0.0
v 0.4164128005504608 -6.00510311126709 0.0
v 0.6614123582839966 -4.005102634429932 0.0
v 0.416412353515625 -1.5387895107269287 0.0
v 0.6614126563072205 -1.5389972925186157 0.0
v 0.416412353515625 -4.00510311126709 0.0
v 0.661414623260498 -8.005104064941406 0.0
v 0.4164140224456787 -6.00510311126709 0.0
v 0.6614142656326294 -6.005103588104248 0.0
v 0.41641470789909363 -8.005104064941406 0.0
v 6.0007452964782715 -1.538787841796875 0.0
v 8.021562576293945 -1.2913074493408203 0.0
v 8.022892951965332 -1.538787603378296 0.0
v 6.000373363494873 -1.2913073301315308 0.0
v 4.0 -1.538787841796875 0.0
v 6.000373363494873 -1.2913073301315308 0.0
v 6.0007452964782715 -1.538787841796875 0.0
v 3.999999523162842 -1.2913076877593994 0.0
v 0.41641470789909363 -8.005104064941406 0.0
v 0.6614171266555786 -10.000003814697266 0.0
v 0.4164171516895294 -10.000003814697266 0.0
v 0.661414623260498 -8.005104064941406 0.0
v 0.11631156504154205 4.0 0.0
v -1.8836884498596191 3.0 0.0
v -1.8836884498596191 3.999999523162842 0.0
v -0.8836885094642639 3.0 0.0
v 0.11631152778863907 3.0 0.0
v 8.018254280090332 1.182556115963962e-05 0.0
v 7.07221794128418 2.000012159347534 0.0
v 8.018254280090332 2.000012159347534 0.0
v 7.07221794128418 1.1749267287086695e-05 0.0
v 4.000000953674316 -6.005101203918457 0.0
v 2.0000014305114746 -8.00510025024414 0.0
v 2.0000014305114746 -6.005100727081299 0.0
v 4.000000953674316 -8.005101203918457 0.0
v 6.001492023468018 -6.005100727081299 0.0
v 6.000000953674316 -8.00510025024414 0.0
v 8.024060249328613 -6.005101203918457 0.0
v 8.022568702697754 -8.005101203918457 0.0
v 4.000000953674316 -4.005100727081299 0.0
v 2.0000014305114746 -4.005100727081299 0.0
v 6.001492023468018 -4.005100250244141 0.0
v 4.0 -1.538787841796875 0.0
v 1.9999996423721313 -1.5396380424499512 0.0
v 6.0007452964782715 -1.538787841796875 0.0
v 8.02554988861084 -4.005100250244141 0.0
v 8.022892951965332 -1.538787603378296 0.0
v 2.0000038146972656 -9.999998092651367 0.0
v 0.661414623260498 -8.005104064941406 0.0
v 0.6614171266555786 -10.000003814697266 0.0
v 6.000003337860107 -10.0 0.0
v 4.000003337860107 -10.0 0.0
v 0.6614142656326294 -6.005103588104248 0.0
v 8.022570610046387 -10.000000953674316 0.0
v 1.999998927116394 -6.005100727081299 0.0
v 0.6614123582839966 -4.005102634429932 0.0
v 1.9999990463256836 -4.005100727081299 0.0
v 0.6614127159118652 -6.005103588104248 0.0
v 0.6614126563072205 -1.5389972925186157 0.0
v 1.9999996423721313 -1.5396380424499512 0.0
v 4.942722797393799 -5.453932285308838 0.7012456059455872
v 4.158382892608643 -4.005099773406982 0.7012456059455872
v 4.942722797393799 -4.005099773406982 0.7012456059455872
v 4.158382415771484 -5.4539313316345215 0.7012456059455872
v 5.727062702178955 -5.453935623168945 0.7012456059455872
v 4.942431926727295 -7.005101203918457 0.7012456059455872
v 4.942722797393799 -5.453932285308838 0.7012456059455872
v 5.726479530334473 -7.005101680755615 0.7012456059455872
v 5.727062702178955 -5.453935623168945 0.7012456059455872
v 4.942722797393799 -4.005099773406982 0.7012456059455872
v 5.727060794830322 -4.005099296569824 0.7012456059455872
v 4.942722797393799 -5.453932285308838 0.7012456059455872
v 4.158382415771484 -5.4539313316345215 0.7012456059455872
v 4.942431926727295 -7.005101203918457 0.7012456059455872
v 4.158382892608643 -7.005101680755615 0.7012456059455872
v 4.942722797393799 -5.453932285308838 0.7012456059455872
v 4.158382892608643 -5.453930377960205 0.6293218731880188
v 4.158382892608643 -7.005101680755615 0.7012456059455872
v 4.158383369445801 -7.005102157592773 0.6293218731880188
v 4.158382415771484 -5.4539313316345215 0.7012456059455872
v 4.158383846282959 -4.005099773406982 0.6293218731880188
v 4.158382892608643 -4.005099773406982 0.7012456059455872
v 4.158383369445801 -7.005102157592773 0.6293218731880188
v 4.942431926727295 -7.005101203918457 0.7012456059455872
v 4.942432403564453 -7.005101680755615 0.6293218731880188
v 4.158382892608643 -7.005101680755615 0.7012456059455872
v 4.942432403564453 -7.005101680755615 0.6293218731880188
v 5.726479530334473 -7.005101680755615 0.7012456059455872
v 5.726479530334473 -7.005101680755615 0.6293218731880188
v 4.942431926727295 -7.005101203918457 0.7012456059455872
v 5.726479530334473 -7.005101680755615 0.6293218731880188
v 5.727062702178955 -5.453935623168945 0.7012456059455872
v 5.7270636558532715 -5.453934669494629 0.6293218731880188
v 5.726479530334473 -7.005101680755615 0.7012456059455872
v 5.727060794830322 -4.005099296569824 0.7012456059455872
v 5.727061748504639 -4.005099296569824 0.6293218731880188
v 5.727061748504639 -4.005099296569824 0.6293218731880188
v 4.942722797393799 -4.005099773406982 0.7012456059455872
v 4.942723274230957 -4.005099296569824 0.6293218731880188
v 5.727060794830322 -4.005099296569824 0.7012456059455872
v 4.942723274230957 -4.005099296569824 0.6293218731880188
v 4.158382892608643 -4.005099773406982 0.7012456059455872
v 4.158383846282959 -4.005099773406982 0.6293218731880188
v 4.942722797393799 -4.005099773406982 0.7012456059455872
v -2.0319371223449707 -3.9939961433410645 0.19094043970108032
v -3.8499772548675537 -3.99399995803833 -0.008218803443014622
v -2.031937837600708 -3.9939961433410645 -0.008218803443014622
v -3.8499772548675537 -3.99399995803833 0.19094066321849823
v -3.8499767780303955 -4.250782489776611 0.19094043970108032
v -2.0319371223449707 -3.9939961433410645 0.19094043970108032
v -2.0319366455078125 -4.250778675079346 0.19094043970108032
v -3.8499772548675537 -3.99399995803833 0.19094066321849823
v -3.849976062774658 -4.507565021514893 0.3900999426841736
v -2.0319366455078125 -4.250778675079346 0.3900999426841736
v -2.0319364070892334 -4.507560729980469 0.3900999426841736
v -3.8499767780303955 -4.250782489776611 0.3900998532772064
v -3.8499755859375 -4.764347553253174 0.5892593264579773
v -2.0319364070892334 -4.507560729980469 0.5892593264579773
v -2.031935691833496 -4.76434326171875 0.5892593264579773
v -3.849976062774658 -4.507565021514893 0.5892593264579773
v -3.8499748706817627 -5.021129131317139 0.7884188890457153
v -2.031935691833496 -4.76434326171875 0.7884188890457153
v -2.031935453414917 -5.021125793457031 0.7884188890457153
v -3.8499755859375 -4.764347553253174 0.7884188890457153
v -3.8499341011047363 -5.11609411239624 0.9935240149497986
v -2.031935453414917 -5.021125793457031 0.9875785708427429
v -2.031928777694702 -5.115853786468506 0.9935240149497986
v -3.8499755859375 -5.021130084991455 0.9875785708427429
v -3.8499767780303955 -4.250782489776611 0.19094043970108032
v -2.0319366455078125 -4.250778675079346 0.3900999426841736
v -3.8499767780303955 -4.250782489776611 0.3900998532772064
v -2.0319366455078125 -4.250778675079346 0.19094043970108032
v -3.849976062774658 -4.507565021514893 0.3900999426841736
v -2.0319364070892334 -4.507560729980469 0.5892593264579773
v -3.849976062774658 -4.507565021514893 0.5892593264579773
v -2.0319364070892334 -4.507560729980469 0.3900999426841736
v -3.8499755859375 -4.764347553253174 0.5892593264579773
v -2.031935691833496 -4.76434326171875 0.7884188890457153
v -3.8499755859375 -4.764347553253174 0.7884188890457153
v -2.031935691833496 -4.76434326171875 0.5892593264579773
v -3.8499748706817627 -5.021129131317139 0.7884188890457153
v -2.031935453414917 -5.021125793457031 0.9875785708427429
v -3.8499755859375 -5.021130084991455 0.9875785708427429
v -2.031935453414917 -5.021125793457031 0.7884188890457153
v -3.9486842155456543 -5.136892795562744 1.0571492910385132
v -5.000441074371338 -4.980605602264404 1.0571491718292236
v -3.9486846923828125 -4.9806036949157715 1.0571491718292236
v -5.002044677734375 -5.136895179748535 1.0571492910385132
v -3.9486846923828125 -4.9806036949157715 1.0571491718292236
v -5.000441074371338 -4.980605602264404 0.9842634201049805
v -3.9486846923828125 -4.9806036949157715 0.9842634201049805
v -5.000441074371338 -4.980605602264404 1.0571491718292236
v -2.0623440742492676 -6.70582914352417 1.0571492910385132
v -1.900255799293518 -8.352913856506348 1.0571492910385132
v -2.0623373985290527 -8.352913856506348 1.0571492910385132
v -1.900259017944336 -6.705828666687012 1.0571491718292236
v -1.900255799293518 -8.352913856506348 1.0571492910385132
v -1.9005911350250244 -6.705828666687012 0.9842634201049805
v -1.9009195566177368 -8.352913856506348 0.98426353931427
v -1.900259017944336 -6.705828666687012 1.0571491718292236
v -2.0623440742492676 -6.70582914352417 1.0571492910385132
v -2.0623371601104736 -8.352913856506348 0.9954733848571777
v -2.0623438358306885 -6.70582914352417 0.995473325252533
v -2.0623373985290527 -8.352913856506348 1.0571492910385132
v -2.0623373985290527 -8.352913856506348 1.0571492910385132
v -1.9002526998519897 -10.0 1.0571492910385132
v -2.0623302459716797 -10.0 1.0571492910385132
v -1.900255799293518 -8.352913856506348 1.0571492910385132
v -1.900259017944336 -6.705828666687012 1.0571491718292236
v -2.0623509883880615 -5.136889457702637 1.0571492910385132
v -1.9002621173858643 -4.980599403381348 1.0571491718292236
v -2.0623509883880615 -5.136889457702637 1.0571492910385132
v -1.900259017944336 -6.705828666687012 1.0571491718292236
v -2.0623440742492676 -6.70582914352417 1.0571492910385132
v -1.9002526998519897 -10.0 1.0571492910385132
v -1.9009195566177368 -8.352913856506348 0.98426353931427
v -1.9012480974197388 -10.0 0.98426353931427
v -1.900255799293518 -8.352913856506348 1.0571492910385132
v -1.9002621173858643 -4.980599403381348 0.9842634201049805
v -1.900259017944336 -6.705828666687012 1.0571491718292236
v -1.9002621173858643 -4.980599403381348 1.0571491718292236
v -1.9005911350250244 -6.705828666687012 0.9842634201049805
v -2.0623509883880615 -5.136889457702637 1.0571492910385132
v -2.0623438358306885 -6.70582914352417 0.995473325252533
v -2.0623505115509033 -5.136889457702637 0.995473325252533
v -2.0623440742492676 -6.70582914352417 1.0571492910385132
v -2.062330484390259 -10.000000953674316 0.9954733848571777
v -2.0623373985290527 -8.352913856506348 1.0571492910385132
v -2.0623302459716797 -10.0 1.0571492910385132
v -2.0623371601104736 -8.352913856506348 0.9954733848571777
v -2.0623509883880615 -5.136889457702637 1.0571492910385132
v -2.0932581424713135 -4.980599880218506 1.0571491718292236
v -1.9002621173858643 -4.980599403381348 1.0571491718292236
v -2.0932581424713135 -4.980599880218506 1.0571491718292236
v -2.0623509883880615 -5.136889457702637 1.0571492910385132
v -2.0932579040527344 -5.136889457702637 1.0571492910385132
v -1.9002621173858643 -4.980599403381348 1.0571491718292236
v -2.0932581424713135 -4.980599880218506 0.9842634201049805
v -1.9002621173858643 -4.980599403381348 0.9842634201049805
v -2.0932581424713135 -4.980599880218506 1.0571491718292236
v -5.002044677734375 -5.136895179748535 1.0571492910385132
v -3.9486842155456543 -5.136892795562744 0.995473325252533
v -5.002044677734375 -5.136895179748535 0.995473325252533
v -3.9486842155456543 -5.136892795562744 1.0571492910385132
v -1.9419769048690796 -8.68966007232666 0.5688669681549072
v -1.9408249855041504 -10.040719032287598 0.20870542526245117
v -1.9408249855041504 -10.040719032287598 0.5688669681549072
v -1.9419769048690796 -8.68966007232666 0.20870542526245117
v -1.9419792890548706 -7.455846309661865 0.5688669681549072
v -1.9419769048690796 -8.68966007232666 0.20870542526245117
v -1.9419769048690796 -8.68966007232666 0.5688669681549072
v -1.9419792890548706 -7.455846309661865 0.20870542526245117
v -1.9637835025787354 -8.689661026000977 0.6898719668388367
v -1.9238860607147217 -10.040719032287598 0.6898719668388367
v -1.9626315832138062 -10.040719032287598 0.6898719668388367
v -1.9238885641098022 -8.68966007232666 0.6898719668388367
v -1.963786005973816 -7.455846786499023 0.6898719668388367
v -1.9250402450561523 -7.455846309661865 0.6898719668388367
v -1.9238885641098022 -8.68966007232666 0.6898719668388367
v -1.9238860607147217 -10.040719032287598 0.5688668489456177
v -1.9238860607147217 -10.040719032287598 0.6898719668388367
v -1.9238885641098022 -8.68966007232666 0.5688668489456177
v -1.9250402450561523 -7.455846309661865 0.6898719668388367
v -1.9250402450561523 -7.455846309661865 0.5688668489456177
v -1.9419769048690796 -8.68966007232666 0.20870542526245117
v -1.8813775777816772 -10.040719032287598 0.20870542526245117
v -1.9408249855041504 -10.040719032287598 0.20870542526245117
v -1.8813799619674683 -8.68966007232666 0.20870542526245117
v -1.9419792890548706 -7.455846309661865 0.20870542526245117
v -1.8825316429138184 -7.455846309661865 0.20870542526245117
v -1.8813799619674683 -8.68966007232666 0.20870542526245117
v -1.8813775777816772 -10.040719032287598 2.288818308215923e-07
v -1.8813775777816772 -10.040719032287598 0.20870542526245117
v -1.8813799619674683 -8.68966007232666 2.292543541670966e-07
v -1.8825316429138184 -7.455846309661865 0.20870542526245117
v -1.8825316429138184 -7.455846309661865 2.292543541670966e-07
v -1.9419817924499512 -6.22203254699707 0.5688669681549072
v -1.9419792890548706 -7.455846309661865 0.20870542526245117
v -1.9419792890548706 -7.455846309661865 0.5688669681549072
v -1.9419817924499512 -6.22203254699707 0.20870542526245117
v -1.9419841766357422 -4.985661029815674 0.5688669681549072
v -1.9419817924499512 -6.22203254699707 0.20870542526245117
v -1.9419817924499512 -6.22203254699707 0.5688669681549072
v -1.9419841766357422 -4.985661029815674 0.20870542526245117
v -1.963788390159607 -6.22203254699707 0.6898719668388367
v -1.9250402450561523 -7.455846309661865 0.6898719668388367
v -1.963786005973816 -7.455846786499023 0.6898719668388367
v -1.9238933324813843 -6.22203254699707 0.6898719668388367
v -1.9637908935546875 -4.985661029815674 0.6898719668388367
v -1.9261938333511353 -4.985661029815674 0.6898719668388367
v -1.9238933324813843 -6.22203254699707 0.6898719668388367
v -1.9250402450561523 -7.455846309661865 0.5688668489456177
v -1.9250402450561523 -7.455846309661865 0.6898719668388367
v -1.9238933324813843 -6.22203254699707 0.5688668489456177
v -1.9261938333511353 -4.985661029815674 0.6898719668388367
v -1.9261938333511353 -4.985661029815674 0.5688668489456177
v -1.9419817924499512 -6.22203254699707 0.20870542526245117
v -1.8825316429138184 -7.455846309661865 0.20870542526245117
v -1.9419792890548706 -7.455846309661865 0.20870542526245117
v -1.8813848495483398 -6.22203254699707 0.20870542526245117
v -1.9419841766357422 -4.985661029815674 0.20870542526245117
v -1.8836852312088013 -4.985661029815674 0.20870542526245117
v -1.8813848495483398 -6.22203254699707 0.20870542526245117
v -1.8825316429138184 -7.455846309661865 2.292543541670966e-07
v -1.8825316429138184 -7.455846309661865 0.20870542526245117
v -1.8813848495483398 -6.22203254699707 2.292543541670966e-07
v -1.8836852312088013 -4.985661029815674 0.20870542526245117
v -1.8836852312088013 -4.985661029815674 2.292543541670966e-07
v -2.0697152614593506 -4.985661506652832 0.20870542526245117
v -1.9419841766357422 -4.985661029815674 0.5688669681549072
v -2.0697152614593506 -4.985661506652832 0.5688669681549072
v -1.9419841766357422 -4.985661029815674 0.20870542526245117
v -2.053924798965454 -4.985661506652832 0.6898719668388367
v -1.9637908935546875 -4.985661029815674 0.6898719668388367
v -2.091521978378296 -4.985661506652832 0.6898719668388367
v -1.9261938333511353 -4.985661029815674 0.6898719668388367
v -2.053924798965454 -4.985661506652832 0.5688668489456177
v -1.9261938333511353 -4.985661029815674 0.6898719668388367
v -2.053924798965454 -4.985661506652832 0.6898719668388367
v -1.9261938333511353 -4.985661029815674 0.5688668489456177
v -2.01141619682312 -4.985661506652832 0.20870542526245117
v -1.9419841766357422 -4.985661029815674 0.20870542526245117
v -2.0697152614593506 -4.985661506652832 0.20870542526245117
v -1.8836852312088013 -4.985661029815674 0.20870542526245117
v -2.01141619682312 -4.985661506652832 2.288818308215923e-07
v -1.8836852312088013 -4.985661029815674 0.20870542526245117
v -2.01141619682312 -4.985661506652832 0.20870542526245117
v -1.8836852312088013 -4.985661029815674 2.292543541670966e-07
v -1.9637835025787354 -8.689661026000977 0.6898719668388367
v -1.9626315832138062 -10.040719032287598 1.0387204885482788
v -1.9637835025787354 -8.689661026000977 1.0355000495910645
v -1.9626315832138062 -10.040719032287598 0.6898719668388367
v -1.963786005973816 -7.455846786499023 0.6898719668388367
v -1.963786005973816 -7.455846786499023 1.0355000495910645
v -1.963788390159607 -6.22203254699707 0.6898719668388367
v -1.963786005973816 -7.455846786499023 1.0355000495910645
v -1.963788390159607 -6.22203254699707 1.0419409275054932
v -1.963786005973816 -7.455846786499023 0.6898719668388367
v -1.9637908935546875 -4.985661029815674 0.6898719668388367
v -1.9637908935546875 -4.985661029815674 1.0419409275054932
v -2.091521978378296 -4.985661506652832 0.6898719668388367
v -1.9637908935546875 -4.985661029815674 1.0419409275054932
v -2.091521978378296 -4.985661506652832 1.0419409275054932
v -1.9637908935546875 -4.985661029815674 0.6898719668388367
vn -0.0 0.0 1.0
vn -3.572709204036073e-07 0.0037606586702167988 0.9999929666519165
vn -0.0 0.0 1.0
vn -0.0 0.003761276137083769 0.9999929666519165
vn -2.8157157316854864e-07 0.007522133179008961 0.9999717473983765
vn -9.935363323165802e-07 0.007520628627389669 0.9999717473983765
vn -0.0 0.0 1.0
vn -0.0 0.0 1.0
vn -0.0 0.0 1.0
vn -0.0 0.0 1.0
vn -0.0 0.0 1.0
vn -0.0 0.0 1.0
vn -0.0 0.0 1.0
vn -0.0 0.0 1.0
vn -0.0 0.0 1.0
vn -0.0 0.0 1.0
vn -0.0 0.0 1.0
vn -0.0 0.0 1.0
vn -0.0 0.0 1.0
vn -0.0 0.0 1.0
vn -0.0 0.0 1.0
vn -0.0 0.0 1.0
vn -0.0 0.0 1.0
vn -0.0 0.0 1.0
vn -0.0 0.0 1.0
vn -0.0 0.0 1.0
vn -0.0 0.0 1.0
vn -0.0 0.0 1.0
vn -0.0 0.0 1.0
vn -0.0 0.0 1.0
vn -0.0 0.0 1.0
vn -0.0 0.0 1.0
vn -0.0 0.0 1.0
vn -0.0 0.0 1.0
vn -0.0 0.0 1.0
vn -0.0 0.0 1.0
vn -0.0 0.0 1.0
vn -0.0 0.0 1.0
vn -0.0 0.0 1.0
vn -0.0 0.0 1.0
vn -0.0 0.0 1.0
vn -0.0 0.0 1.0
vn -0.0 0.0 1.0
vn -0.0 0.0 1.0
vn -0.0 0.0 1.0
vn -0.0 0.0 1.0
vn -0.0 0.0 1.0
vn -0.0 0.0 1.0
vn -0.0 0.0 1.0
vn -0.0 0.0 1.0
vn -0.0 0.0 1.0
vn 0.005649103317409754 0.007522079162299633 0.9999557733535767
vn 0.005649104248732328 0.00752207962796092 0.9999557733535767
vn -0.0 0.0 1.0
vn -0.0 0.0 1.0
vn -0.0 0.0 1.0
vn -0.0 0.0 1.0
vn -0.0 0.0 1.0
vn -0.0 0.0 1.0
vn -0.0 0.0 1.0
vn -0.0 0.0 1.0
vn -0.0 0.0 1.0
vn -0.0 0.0 1.0
vn -0.0 0.0 1.0
vn -0.0 0.0 1.0
vn -0.0 0.0 1.0
vn -0.0 0.0 1.0
vn -3.3586792369533214e-07 -1.0 -3.0517580853484105e-06
vn -3.3586792369533214e-07 -1.0 -3.0517580853484105e-06
vn -3.3586795211704157e-07 -1.0 -3.051758312722086e-06
vn -1.0076034868689021e-06 -1.0 -1.8310546465727384e-06
vn -0.0 0.0 1.0
vn -0.0 0.0 1.0
vn -0.0 0.0 1.0
vn -0.0 0.0 1.0
vn -0.0 0.0 1.0
vn -0.0 0.0 1.0
vn -0.0 0.0 1.0
vn -0.0 0.0 1.0
vn -0.0 0.0 1.0
vn -0.0 0.0 1.0
vn -0.0 0.0 1.0
vn -0.0 0.0 1.0
vn -0.0 0.0 1.0
vn -0.0 0.0 1.0
vn -0.0 0.0 1.0
vn -0.0 0.0 1.0
vn -0.0 0.0 1.0
vn -0.0 0.0 1.0
vn -0.0 0.0 1.0
vn -0.0 0.0 1.0
vn -0.0 0.0 1.0
vn -0.0 0.0 1.0
vn -0.0 0.0 1.0
vn -0.0 0.0 1.0
vn -0.0 0.0 1.0
vn -0.0 0.0 1.0
vn -0.0 0.0 1.0
vn -0.0 0.0 1.0
vn -0.0 0.0 1.0
vn -0.0 0.0 1.0
vn -0.0 0.0 1.0
vn -0.0 0.0 1.0
vn -0.0 0.0 1.0
vn -0.0 0.0 1.0
vn -0.0 0.0 1.0
vn -0.0 0.0 1.0
vn -0.0 0.0 1.0
vn -0.0 0.0 1.0
vn -0.0 0.0 1.0
vn -0.0 0.0 1.0
vn -0.0 0.0 1.0
vn -0.0 0.0 1.0
vn -0.0 0.0 1.0
vn -0.0 0.0 1.0
vn -0.0 0.0 1.0
vn -0.0 0.0 1.0
vn -0.0 0.0 1.0
vn -0.0 0.0 1.0
vn -0.0 0.0 1.0
vn -0.0 0.0 1.0
vn -0.0 0.0 1.0
vn -0.0 0.0 1.0
vn -0.0 0.0 1.0
vn -0.0 0.0 1.0
vn -0.0 0.0 1.0
vn -0.0 0.0 1.0
vn -0.0 0.0 1.0
vn -0.0 0.0 1.0
vn -0.0 0.0 1.0
vn -0.0 0.0 1.0
vn -0.0 0.0 1.0
vn -0.0 0.0 1.0
vn -0.0 0.0 1.0
vn -0.0 0.0 1.0
vn -0.0 0.0 1.0
vn -0.0 0.0 1.0
vn -0.0 0.0 1.0
vn -0.0 0.0 1.0
vn -0.0 0.0 1.0
vn -0.0 0.0 1.0
vn -0.0 0.0 1.0
vn -0.0 0.0 1.0
vn -0.0 0.0 1.0
vn -0.0 0.0 1.0
vn -0.0 0.0 1.0
vn -0.0 0.0 1.0
vn -0.0 0.0 1.0
vn -0.0 0.0 1.0
vn -0.0 0.0 1.0
vn -0.0 0.0 1.0
vn -0.0 0.0 1.0
vn -0.0 0.0 1.0
vn -0.0 0.0 1.0
vn -0.0 0.0 1.0
vn -0.0 0.0 1.0
vn -0.0 0.0 1.0
vn -0.0 0.0 1.0
vn -0.0 0.0 1.0
vn -0.0 0.0 1.0
vn -0.0 0.0 1.0
vn -0.0 0.0 1.0
vn -0.0 0.0 1.0
vn -0.0 0.0 1.0
vn -0.0 0.0 1.0
vn -0.0 0.0 1.0
vn -0.0 0.0 1.0
vn -0.0 0.0 1.0
vn -0.0 0.0 1.0
vn -0.0 0.0 1.0
vn -0.0 0.0 1.0
vn -0.0 0.0 1.0
vn -0.0 0.0 1.0
vn -0.0 0.0 1.0
vn -0.0 0.0 1.0
vn -0.0 0.0 1.0
vn -0.0 0.0 1.0
vn -0.0 0.0 1.0
vn -0.0 0.0 1.0
vn -0.0 0.0 1.0
vn -0.0 0.0 1.0
vn -0.0 0.0 1.0
vn -0.0 0.0 1.0
vn -0.0 0.0 1.0
vn -0.0 0.0 1.0
vn -0.0 0.0 1.0
vn -0.0 0.0 1.0
vn -0.0 0.0 1.0
vn -0.0 0.0 1.0
vn -0.0 0.0 1.0
vn -0.0 0.0 1.0
vn -0.0 0.0 1.0
vn -0.0 0.0 1.0
vn -0.0 0.0 1.0
vn -0.0 0.0 1.0
vn -0.0 0.0 1.0
vn -0.0 0.0 1.0
vn -0.0 0.0 1.0
vn -0.0 0.0 1.0
vn -0.0 0.0 1.0
vn -0.0 0.0 1.0
vn -0.0 0.0 1.0
vn -0.0 0.0 1.0
vn -0.0 0.0 1.0
vn -0.0 0.0 1.0
vn -0.0 0.0 1.0
vn -0.0 0.0 1.0
vn -0.0 0.0 1.0
vn -0.0 0.0 1.0
vn -0.0 0.0 1.0
vn -0.0 0.0 1.0
vn -0.0 0.0 1.0
vn -0.0 0.0 1.0
vn -0.0 0.0 1.0
vn -0.0 0.0 1.0
vn -0.0 0.0 1.0
vn -0.0 0.0 1.0
vn -0.0 0.0 1.0
vn -0.0 0.0 1.0
vn -0.0 0.0 1.0
vn -0.0 0.0 1.0
vn -0.0 0.0 1.0
vn -0.0 0.0 1.0
vn -0.0 0.0 1.0
vn -0.0 0.0 1.0
vn -0.0 0.0 1.0
vn -0.0 0.0 1.0
vn -0.0 0.0 1.0
vn -0.0 0.0 1.0
vn -0.0 0.0 1.0
vn -0.0 0.0 1.0
vn -0.0 0.0 1.0
vn -0.0 0.0 1.0
vn -0.0 0.0 1.0
vn -0.0 0.0 1.0
vn -0.0 0.0 1.0
vn -0.0 0.0 1.0
vn -0.0 0.0 1.0
vn -0.0 0.0 1.0
vn -0.0 0.0 1.0
vn -0.0 0.0 1.0
vn -0.0 0.0 1.0
vn -0.0 0.0 1.0
vn -0.0 0.0 1.0
vn -0.0 0.0 1.0
vn -0.0 0.0 1.0
vn -0.0 0.0 1.0
vn -0.0 0.0 1.0
vn -0.0 0.0 1.0
vn -0.0 0.0 1.0
vn -0.0 0.0 1.0
vn -1.0 -1.9673888118632021e-07 -4.243044713803101e-06
vn -1.0 -1.9673888118632021e-07 -4.243044713803101e-06
vn -1.0 -1.9673888118632021e-07 -4.243044713803101e-06
vn -1.0 -3.9347804658973473e-07 -8.486095794069115e-06
vn -1.0 4.212718351936928e-07 -8.486087608616799e-06
vn -1.0 4.212717215068551e-07 -8.486092156090308e-06
vn 7.784609579175594e-07 -1.0 8.486095794069115e-06
vn 7.784609579175594e-07 -1.0 8.486095794069115e-06
vn 7.784609010741406e-07 -1.0 8.486095794069115e-06
vn 7.784609010741406e-07 -1.0 8.486095794069115e-06
vn -0.0 -1.0 0.0
vn -0.0 -1.0 0.0
vn -0.0 -1.0 0.0
vn -7.784627200635441e-07 -1.0 8.486088518111501e-06
vn 1.0 -0.00037655941559933126 8.482898010697681e-06
vn 1.0 -0.0003765593864955008 8.48289710120298e-06
vn 1.0 -0.00037655935739167035 8.482896191708278e-06
vn 1.0 -0.0003761660191230476 0.0
vn 1.0 1.2638113275897922e-06 8.48609306558501e-06
vn 1.0 1.26381144127663e-06 8.486092156090308e-06
vn -0.0 1.0 4.243045623297803e-06
vn -0.0 1.0 4.243045623297803e-06
vn -0.0 1.0 4.243045623297803e-06
vn -3.890870630129939e-07 1.0 0.0
vn -7.781725912536785e-07 1.0 0.0
vn -7.781725912536785e-07 1.0 0.0
vn -7.781725912536785e-07 1.0 0.0
vn -3.890861250965827e-07 1.0 4.2430442590557504e-06
vn -2.014317942666821e-06 1.0 0.0
vn -2.014317942666821e-06 1.0 0.0
vn -2.014317942666821e-06 1.0 0.0
vn -2.014317260545795e-06 1.0 0.0
vn -0.0 0.0 1.0
vn -0.0 0.0 1.0
vn -0.0 0.0 1.0
vn 1.2589660514095158e-07 -8.913447686609288e-07 1.0
vn -0.0 0.0 1.0
vn -0.0 0.0 1.0
vn -0.0 0.0 1.0
vn -0.0 2.971149513086857e-07 1.0
vn -0.0 0.0 1.0
vn -0.0 0.0 1.0
vn -0.0 0.0 1.0
vn -0.0 0.0 1.0
vn -0.0 0.0 1.0
vn -0.0 0.0 1.0
vn -0.0 0.0 1.0
vn -0.0 0.0 1.0
vn -8.275271284219343e-06 0.06264011561870575 0.9980362057685852
vn -8.275270374724641e-06 0.06264011561870575 0.9980362057685852
vn -8.275270374724641e-06 0.06264011561870575 0.9980362057685852
vn -1.4684231075534626e-07 0.062485113739967346 0.9980459213256836
vn -2.0143174879194703e-06 1.0 0.0
vn -2.0143174879194703e-06 1.0 0.0
vn -2.0143174879194703e-06 1.0 0.0
vn -2.0143174879194703e-06 1.0 0.0
vn -2.350036993448157e-06 1.0 0.0
vn -2.350036993448157e-06 1.0 0.0
vn -2.350036993448157e-06 1.0 0.0
vn -2.350036993448157e-06 1.0 0.0
vn -2.517897200959851e-06 1.0 0.0
vn -2.5178969735861756e-06 1.0 0.0
vn -2.5178967462125e-06 1.0 0.0
vn -2.5178967462125e-06 1.0 0.0
vn -2.3500367660744814e-06 1.0 6.129261237219907e-06
vn -2.350036993448157e-06 1.0 6.129261237219907e-06
vn -2.3500367660744814e-06 1.0 6.1292607824725565e-06
vn -1.6785980960776214e-06 1.0 0.0
vn -0.0 9.763184607436415e-07 1.0
vn -0.0 9.763184607436415e-07 1.0
vn -0.0 9.763184607436415e-07 1.0
vn -0.0 9.763165280674002e-07 1.0
vn -2.0311072148615494e-06 1.0 0.0
vn -2.0311072148615494e-06 1.0 0.0
vn -2.0311072148615494e-06 1.0 0.0
vn -2.0311072148615494e-06 1.0 0.0
vn 4.707136440629256e-07 0.0 1.0
vn 4.70713672484635e-07 0.0 1.0
vn 4.70713672484635e-07 0.0 1.0
vn 9.414058013135218e-07 0.0 1.0
vn 0.9999585151672363 -0.00019944859377574176 -0.009106441400945187
vn 0.9999585151672363 -0.0001994486228795722 -0.009106441400945187
vn 0.9999585151672363 -0.00019944859377574176 -0.009106441400945187
vn 0.9999896287918091 1.945233407241176e-06 -0.004555456340312958
vn -1.0 -4.076213372172788e-06 -4.94804635309265e-06
vn -1.0 -4.076213372172788e-06 -4.94804635309265e-06
vn -1.0 -4.076213826920139e-06 -4.94804635309265e-06
vn -1.0 -4.168854957242729e-06 -2.4740259050304303e-06
vn 4.7072472852960345e-07 0.0 1.0
vn 4.70724700107894e-07 0.0 1.0
vn 4.70724700107894e-07 0.0 1.0
vn 4.7071361564121617e-07 0.0 1.0
vn 9.413822681381134e-07 0.0 1.0
vn 9.413822681381134e-07 0.0 1.0
vn 9.413821544512757e-07 0.0 1.0
vn 9.414059718437784e-07 0.0 1.0
vn 9.414059718437784e-07 0.0 1.0
vn 9.414059718437784e-07 0.0 1.0
vn 0.9999067783355713 -0.0001994377380469814 -0.013656864874064922
vn 0.9999067783355713 -0.00019943772349506617 -0.013656863011419773
vn 0.9999067783355713 -0.00019943772349506617 -0.013656862080097198
vn 0.9999585151672363 1.945382791745942e-06 -0.009106442332267761
vn 1.0 1.7688996649667388e-06 0.0
vn 1.0 1.7688996649667388e-06 0.0
vn 1.0 1.7688996649667388e-06 0.0
vn 0.9999896287918091 -0.000190685415873304 -0.004555456805974245
vn -1.0 -4.18198260376812e-06 -9.896090887195896e-06
vn -1.0 -4.18198260376812e-06 -9.896090887195896e-06
vn -1.0 -4.18198260376812e-06 -9.896090887195896e-06
vn -1.0 -4.3764935071521904e-06 -4.948045443597948e-06
vn -1.0 -4.26149108534446e-06 2.4741102606640197e-06
vn -1.0 -4.26149108534446e-06 2.474110488037695e-06
vn -1.0 -4.26149108534446e-06 2.4741100332903443e-06
vn -1.0 -4.076205641467823e-06 -2.4740259050304303e-06
vn -0.0 9.763140269569703e-07 1.0
vn -0.0 9.763139132701326e-07 1.0
vn -0.0 9.763139132701326e-07 1.0
vn -0.0 9.763147090779967e-07 1.0
vn -0.0 9.76314595391159e-07 1.0
vn -0.0 9.76314595391159e-07 1.0
vn -3.1625081646780018e-06 1.0 0.0
vn -3.1625081646780018e-06 1.0 0.0
vn -3.1625081646780018e-06 1.0 0.0
vn -3.1625081646780018e-06 1.0 0.0
vn 2.3177306047728052e-06 -1.0 0.0
vn 2.3177306047728052e-06 -1.0 0.0
vn 2.3177306047728052e-06 -1.0 0.0
vn 2.3177306047728052e-06 -1.0 0.0
vn 0.9999996423721313 0.0008525798330083489 0.0
vn 0.9999996423721313 0.0008525798912160099 0.0
vn 0.9999996423721313 0.0008525797165930271 0.0
vn 0.9999996423721313 0.0008525797165930271 0.0
vn 1.0 1.978747150133131e-06 0.0
vn 1.0 1.9787473775068065e-06 0.0
vn 1.0 1.978747150133131e-06 0.0
vn 1.0 1.978747150133131e-06 0.0
vn -0.0 0.0 1.0
vn -0.0 0.0 1.0
vn -0.0 0.0 1.0
vn -0.0 0.0 1.0
vn -0.0 0.0 1.0
vn -0.0 0.0 1.0
vn 1.0 1.8070317082674592e-06 0.0
vn 1.0 1.8070317082674592e-06 0.0
vn 1.0 1.8070317082674592e-06 0.0
vn 1.0 1.8070317082674592e-06 0.0
vn 0.9999996423721313 0.0009334736387245357 0.0
vn 0.9999996423721313 0.0009334736387245357 0.0
vn -0.0 0.0 1.0
vn -0.0 0.0 1.0
vn -0.0 0.0 1.0
vn -0.0 0.0 1.0
vn -0.0 0.0 1.0
vn -0.0 0.0 1.0
vn 1.0 1.8070317082674592e-06 0.0
vn 1.0 1.8070317082674592e-06 0.0
vn 1.0 1.8070317082674592e-06 0.0
vn 1.0 1.8070317082674592e-06 0.0
vn 0.9999996423721313 0.0009334736387245357 0.0
vn 0.9999996423721313 0.0009334736969321966 0.0
vn 1.0 1.978747150133131e-06 0.0
vn 1.0 1.9787473775068065e-06 0.0
vn 1.0 1.978747150133131e-06 0.0
vn 1.0 1.978747150133131e-06 0.0
vn 1.0 1.9746548787225038e-06 0.0
vn 1.0 1.9746548787225038e-06 0.0
vn 1.0 1.9746548787225038e-06 0.0
vn 1.0 1.9746548787225038e-06 0.0
vn -0.0 0.0 1.0
vn -0.0 0.0 1.0
vn -0.0 0.0 1.0
vn -0.0 0.0 1.0
vn -0.0 0.0 1.0
vn -0.0 0.0 1.0
vn 0.9999996423721313 -0.00092951615806669 0.0
vn 0.9999996423721313 -0.00092951615806669 0.0
vn 0.9999996423721313 -0.00092951615806669 0.0
vn 0.9999996423721313 -0.00092951615806669 0.0
vn 0.9999983310699463 0.0018606153316795826 0.0
vn 0.9999983310699463 0.0018606153316795826 0.0
vn -0.0 0.0 1.0
vn -0.0 0.0 1.0
vn -0.0 0.0 1.0
vn -0.0 0.0 1.0
vn -0.0 0.0 1.0
vn -0.0 0.0 1.0
vn 0.9999996423721313 -0.00092951615806669 0.0
vn 0.9999996423721313 -0.00092951615806669 0.0
vn 0.9999996423721313 -0.0009295162744820118 0.0
vn 0.9999996423721313 -0.0009295162744820118 0.0
vn 0.9999983310699463 0.0018606153316795826 0.0
vn 0.9999983310699463 0.0018606154480949044 0.0
vn -2.3892066565167625e-06 1.0 0.0
vn -2.389206883890438e-06 1.0 0.0
vn -2.3892066565167625e-06 1.0 0.0
vn -2.3892066565167625e-06 1.0 0.0
vn -0.0 0.0 -1.0
vn -0.0 0.0 -1.0
vn -0.0 0.0 -1.0
vn -0.0 0.0 -1.0
vn -2.3892062017694116e-06 1.0 0.0
vn -2.389206429143087e-06 1.0 0.0
vn -2.389206429143087e-06 1.0 0.0
vn -2.389206429143087e-06 1.0 0.0
vn -0.0 0.0 -1.0
vn -0.0 0.0 -1.0
vn -0.0 0.0 -1.0
vn -0.0 0.0 -1.0
vn -2.389206429143087e-06 1.0 0.0
vn -2.3892066565167625e-06 1.0 0.0
vn -2.3892066565167625e-06 1.0 0.0
vn -2.3892066565167625e-06 1.0 0.0
vn 0.9999996423721313 0.0008525802404619753 0.0
vn 0.9999996423721313 0.0008525802404619753 0.0
vn 0.9999996423721313 0.0008525801822543144 0.0
vn 0.9999996423721313 0.0008525801822543144 0.0
vn 1.0 1.978747150133131e-06 0.0
vn 1.0 1.978747150133131e-06 0.0
vn 1.0 1.9787464680121047e-06 0.0
vn 1.0 1.9787464680121047e-06 0.0
vn 1.0 1.9787464680121047e-06 0.0
vn 1.0 1.9787462406384293e-06 0.0
vn 1.0 1.9746548787225038e-06 0.0
vn 1.0 1.9746548787225038e-06 0.0
vn -2.3892037006589817e-06 1.0 0.0
vn -2.3892037006589817e-06 1.0 0.0
vn -2.3892037006589817e-06 1.0 0.0
vn -2.3892037006589817e-06 1.0 0.0
vt 5.994770526885986 3.42903733253479
vt 4.993719100952148 2.52825665473938
vt 5.994773864746094 2.5282845497131348
vt 4.993717193603516 3.4290359020233154
vt 4.562852382659912 3.428995370864868
vt 4.562734127044678 2.5282591581344604
vt 4.507756233215332 1.3152220249176025
vt 3.5067191123962402 1.4639065265655518
vt 3.5067195892333984 1.3152201771736145
vt 4.507754802703857 1.4639078676700592
vt 2.504765510559082 1.4639044106006622
vt 2.6484487056732178 1.3152180314064026
vt 5.5088114738464355 1.3152230978012085
vt 4.507756233215332 1.3152214884757996
vt 5.508809566497803 1.4639092087745667
vt 6.505852699279785 1.3152236342430115
vt 6.505852222442627 1.4639100134372711
vt 2.002120018005371 -1.982421636581421
vt 2.6484525203704834 -0.9844132661819458
vt 2.0021183490753174 -0.9842296838760376
vt 2.6484546661376953 -1.9824206829071045
vt 2.6484508514404297 0.0066776275634765625
vt 2.0021164417266846 0.006676316261291504
vt 2.6486616134643555 0.9964939653873444
vt 2.0021145343780518 0.9964928925037384
vt 4.007354736328125 2.454810380935669
vt 3.5082247257232666 3.503645658493042
vt 3.5067174434661865 2.454809546470642
vt 4.007364749908447 3.503685474395752
vt 3.5095207691192627 3.9992265701293945
vt 4.007472515106201 3.9993016719818115
vt 7.005923748016357 1.4639044106006622
vt 6.505851745605469 1.3152180314064026
vt 7.007385730743408 1.315218299627304
vt 6.505852222442627 1.4639030694961548
vt 1.1678862392727751e-05 -1.9824254512786865
vt 1.0010640621185303 -0.984230637550354
vt 1.000817064777948e-05 -0.9842332601547241
vt 1.0010662078857422 -1.9824233055114746
vt 1.001062273979187 0.00667417049407959
vt 8.12864163890481e-06 0.006672859191894531
vt 1.0010603666305542 0.9964907765388489
vt 6.249112175282789e-06 0.9964889287948608
vt 5.994772434234619 2.5282845497131348
vt 6.995823383331299 3.429037094116211
vt 5.994770526885986 3.42903733253479
vt 6.99582576751709 2.5286813974380493
vt 5.99476957321167 3.9996421337127686
vt 6.995823860168457 3.9996440410614014
vt 4.993715763092041 3.9996402263641357
vt 4.993717193603516 3.4290359020233154
vt 4.560972213745117 3.9994144439697266
vt 4.562852382659912 3.428995370864868
vt 1.0010547637939453 3.5034005641937256
vt -2.248215196232195e-07 3.998882293701172
vt 6.105247507548484e-07 3.503398895263672
vt 1.0010539293289185 3.998884439468384
vt 1.0010557174682617 2.979103446006775
vt 2.490053702786099e-06 2.4548041820526123
vt 0.5005296468734741 2.4548051357269287
vt 2.504763603210449 2.454810380935669
vt 3.5082247257232666 3.503645658493042
vt 2.5047614574432373 3.5036447048187256
vt 3.5067174434661865 2.454811930656433
vt 3.5095207691192627 3.9992265701293945
vt 2.504760503768921 3.99918794631958
vt 3.5082247257232666 3.503645658493042
vt -1.0864837169647217 -1.3163387775421143
vt -0.35838383436203003 -0.588238000869751
vt -0.35838383436203003 -0.588238000869751
vt -1.0864837169647217 -1.3163387775421143
vt 4.007354736328125 2.454811930656433
vt 4.497780799865723 3.5037055015563965
vt 4.007364749908447 3.503685474395752
vt 4.4975690841674805 2.4548113346099854
vt 4.007364749908447 3.503685474395752
vt 4.497673034667969 3.9994142055511475
vt 4.007472515106201 3.9993016719818115
vt 4.497780799865723 3.5037055015563965
vt 1.001059889793396 -2.4511396884918213
vt 4.996092684450559e-06 -1.9824254512786865
vt 6.249112175282789e-06 -2.4511427879333496
vt 1.0010590553283691 -1.9824233055114746
vt 2.6486616134643555 -2.451137065887451
vt 2.0021133422851562 -1.982421636581421
vt 2.0021142959594727 -2.4511380195617676
vt 2.6485257148742676 -1.9824206829071045
vt 5.2049290388822556e-06 0.9964889287948608
vt 0.5005313158035278 1.4638993442058563
vt 4.369582711660769e-06 1.4638985693454742
vt 1.0010595321655273 0.9964907765388489
vt 2.0021135807037354 0.9964928925037384
vt 2.6484487056732178 1.3152180314064026
vt 2.504765510559082 1.4639030694961548
vt 2.6485259532928467 0.9964939653873444
vt 2.0021097660064697 2.9791054725646973
vt 2.5047614574432373 3.5035245418548584
vt 2.0021088123321533 3.5034024715423584
vt 2.504763603210449 2.4548091888427734
vt 2.504760503768921 3.9990389347076416
vt 2.002108097076416 3.9988863468170166
vt 0.502690315246582 0.0015518665313720703
vt 0.9990429282188416 0.49867403507232666
vt 0.9990429282188416 0.0015518665313720703
vt 0.502690315246582 0.49867403507232666
vt 0.9990429282188416 0.49867403507232666
vt 0.502690315246582 0.0015518665313720703
vt 0.502690315246582 0.49867403507232666
vt 0.9990429282188416 0.0015518665313720703
vt 0.9990429282188416 0.24790066480636597
vt 0.7495248913764954 0.49867403507232666
vt 0.9990429282188416 0.49867403507232666
vt 0.502690315246582 0.49867403507232666
vt 0.502690315246582 0.24790066480636597
vt 0.9990429282188416 0.49867403507232666
vt 0.502690315246582 0.0015518665313720703
vt 0.9990429282188416 0.0015518665313720703
vt 0.502690315246582 0.49867403507232666
vt 0.749524712562561 0.0015518665313720703
vt 0.502690315246582 0.24790066480636597
vt 0.502690315246582 0.0015518665313720703
vt 0.9990429282188416 0.0015518665313720703
vt 0.9990429282188416 0.24790066480636597
vt 0.502690315246582 0.49867403507232666
vt 0.9990429282188416 0.49867403507232666
vt 0.9986822605133057 0.7498588562011719
vt 0.7504993081092834 0.9989672303199768
vt 0.9986822605133057 0.9989672303199768
vt 0.7504993081092834 0.7498588562011719
vt 0.5007422566413879 0.9989672303199768
vt 0.5007422566413879 0.7498588562011719
vt 0.7504993081092834 0.5007504820823669
vt 0.9986822605133057 0.5007504820823669
vt 0.5007421970367432 0.7498588562011719
vt 0.7504993081092834 0.9989672303199768
vt 0.5007421970367432 0.9989672303199768
vt 0.7504993081092834 0.7498588562011719
vt 0.7504993081092834 0.5007504820823669
vt 0.9986822009086609 0.5007504820823669
vt 0.9986822009086609 0.7498588562011719
vt 0.9986822009086609 0.9989672303199768
vt 0.502690315246582 0.49867403507232666
vt 0.9990429282188416 0.0015518665313720703
vt 0.502690315246582 0.0015518665313720703
vt 0.9990429282188416 0.49867403507232666
vt 0.502690315246582 0.49867403507232666
vt 0.9990429282188416 0.0015518665313720703
vt 0.502690315246582 0.0015518665313720703
vt 0.9990429282188416 0.49867403507232666
vt 0.9986822605133057 0.7498588562011719
vt 0.7504993081092834 0.5007504820823669
vt 0.9986822605133057 0.5007504820823669
vt 0.7504993081092834 0.7498588562011719
vt 0.5007422566413879 0.7498588562011719
vt 0.7504993081092834 0.9989672258961946
vt 0.9986822605133057 0.9989672258961946
vt 0.5007422566413879 0.9989672258961946
vt 0.5007421970367432 0.7498588562011719
vt 0.7504993081092834 0.7498588562011719
vt 0.7504993081092834 0.5007504820823669
vt 0.9986822009086609 0.5007504820823669
vt 0.9986822009086609 0.7498588562011719
vt 0.7504993081092834 0.9989672258961946
vt 0.5007421970367432 0.9989672258961946
vt 0.9986822009086609 0.9989672258961946
vt 0.9990429282188416 0.49867403507232666
vt 0.502690315246582 0.0015518665313720703
vt 0.502690315246582 0.49867403507232666
vt 0.9990429282188416 0.0015518665313720703
vt 0.9990429282188416 0.49867403507232666
vt 0.502690315246582 0.0015518665313720703
vt 0.502690315246582 0.49867403507232666
vt 0.9990429282188416 0.0015518665313720703
vt 0.9990429282188416 0.49867403507232666
vt 0.9602658748626709 0.0015518665313720703
vt 0.9990429282188416 0.0015518665313720703
vt 0.9602658748626709 0.49867403507232666
vt 0.9990429282188416 0.49867403507232666
vt 0.9602658748626709 0.0015518665313720703
vt 0.9990429282188416 0.0015518665313720703
vt 0.9602658748626709 0.49867403507232666
vt 0.9990429282188416 0.49867403507232666
vt 0.9602658748626709 0.0015518665313720703
vt 0.9990429282188416 0.0015518665313720703
vt 0.9602658748626709 0.49867403507232666
vt 0.502690315246582 0.0015518665313720703
vt 0.5391016006469727 0.49867403507232666
vt 0.502690315246582 0.49867403507232666
vt 0.5389172434806824 0.0015518665313720703
vt 0.502690315246582 0.0015518665313720703
vt 0.5391016006469727 0.49867403507232666
vt 0.502690315246582 0.49867403507232666
vt 0.5391016006469727 0.0015518665313720703
vt 0.9602658748626709 0.0015518665313720703
vt 0.9990429282188416 0.21269893646240234
vt 0.9602658748626709 0.21269893646240234
vt 0.9990429282188416 0.0015518665313720703
vt 0.9990429282188416 0.24790066480636597
vt 0.502690315246582 0.49867403507232666
vt 0.502690315246582 0.24790066480636597
vt 0.7495245933532715 0.49867403507232666
vt 0.9990429282188416 0.49867403507232666
vt 0.9990429282188416 0.24790066480636597
vt 0.502690315246582 0.49867403507232666
vt 0.502690315246582 0.24790066480636597
vt 0.9990429282188416 0.49867403507232666
vt 0.9411043524742126 0.9551252275705338
vt 1.8404359817504883 1.854456901550293
vt 0.9411041140556335 1.854456901550293
vt 1.8404362201690674 0.9551252275705338
vt 0.9411041140556335 0.055123209953308105
vt 1.8404359817504883 0.0557936429977417
vt 0.9411043524742126 -0.8543565273284912
vt 1.8404362201690674 -0.8536856174468994
vt 0.041772663593292236 0.9551252275705338
vt 0.041772663593292236 1.854456901550293
vt 0.041772425174713135 0.055123209953308105
vt -1.067244291305542 0.955125704407692
vt -1.066861867904663 1.854457437992096
vt -1.067244291305542 0.05545938014984131
vt 0.041772425174713135 -0.8550264835357666
vt -1.067244291305542 -0.8538315296173096
vt 2.737473249435425 1.854455828666687
vt 1.840437412261963 2.4563735723495483
vt 2.737475633621216 2.4563724994659424
vt 2.737473726272583 0.05579245090484619
vt 2.737474203109741 0.9551241546869278
vt 0.9411055445671082 2.4563738107681274
vt 2.737474203109741 -0.853687047958374
vt 0.9411041140556335 1.8544580340385437
vt 0.04177337884902954 2.4563746452331543
vt 0.041772663593292236 1.8544580340385437
vt 0.9411055445671082 2.4563746452331543
vt -1.0671501159667969 2.4563746452331543
vt -1.066861867904663 1.854457437992096
vt 0.5568314790725708 0.7543589025735855
vt 0.16022996604442596 0.9925442337989807
vt 0.16022996604442596 0.7543587982654572
vt 0.5568314790725708 0.9925443967804313
vt 0.5568314790725708 0.9946112912148237
vt 0.1623043268918991 0.7563376426696777
vt 0.5568314790725708 0.7564257979393005
vt 0.1623043268918991 0.9944343203678727
vt 0.5568314790725708 0.9946112912148237
vt 0.16022996604442596 0.7564259022474289
vt 0.1602298766374588 0.9946112362667918
vt 0.5568314790725708 0.7564257979393005
vt 0.5568314790725708 0.9925443967804313
vt 0.1623043268918991 0.7544470876455307
vt 0.16230426728725433 0.9925438109785318
vt 0.5568314790725708 0.7543589025735855
vt 0.5568314790725708 0.9925443967804313
vt 0.16230426728725433 0.9925438109785318
vt 0.16230426728725433 0.9925438109785318
vt 0.5568314790725708 0.9925443967804313
vt 0.16022996604442596 0.9925442337989807
vt 0.16022996604442596 0.9925442337989807
vt 0.16230426728725433 0.9925438109785318
vt 0.1623043268918991 0.7544470876455307
vt 0.1623043268918991 0.7544470876455307
vt 0.16230426728725433 0.9925438109785318
vt 0.1623043268918991 0.7563376426696777
vt 0.1623043268918991 0.9944343203678727
vt 0.1623043268918991 0.9944343203678727
vt 0.1623043268918991 0.7563376426696777
vt 0.1623043268918991 0.9944343203678727
vt 0.5568314790725708 0.9946112912148237
vt 0.5568314790725708 0.9946112912148237
vt 0.1623043268918991 0.9944343203678727
vt 0.1602298766374588 0.9946112362667918
vt 0.1602298766374588 0.9946112362667918
vt 0.1602298766374588 0.9946112362667918
vt 0.16022996604442596 0.7564259022474289
vt 0.16022996604442596 0.7564259022474289
vt 0.1602298766374588 0.9946112362667918
vt 0.16022996604442596 0.7543587982654572
vt 0.16022996604442596 0.9925442337989807
vt 0.16022996604442596 0.9925442337989807
vt 0.16022996604442596 0.7543587982654572
vt 0.5005142688751221 0.10028362274169922
vt 0.9934232234954834 0.12243086099624634
vt 0.5005142688751221 0.12243086099624634
vt 0.9934232234954834 0.10028362274169922
vt 0.9934232234954834 0.062277793884277344
vt 0.5005142688751221 0.10081374645233154
vt 0.5005142688751221 0.062277793884277344
vt 0.9934232234954834 0.10081374645233154
vt 0.9934232234954834 0.0017902851104736328
vt 0.5005142688751221 0.04032623767852783
vt 0.5005142688751221 0.0017902851104736328
vt 0.9934232234954834 0.04032623767852783
vt 0.9934232234954834 0.062277793884277344
vt 0.5005142688751221 0.10081374645233154
vt 0.5005142688751221 0.062277793884277344
vt 0.9934232234954834 0.10081374645233154
vt 0.5005142688751221 0.0017902851104736328
vt 0.9934232234954834 0.04032623767852783
vt 0.9934232234954834 0.0017902851104736328
vt 0.5005142688751221 0.04032623767852783
vt 0.9934232234954834 0.062277793884277344
vt 0.5005142688751221 0.10081374645233154
vt 0.5005142688751221 0.062277793884277344
vt 0.9934232234954834 0.10081374645233154
vt 0.9934232234954834 0.0619434118270874
vt 0.5005142688751221 0.03979605436325073
vt 0.9934232234954834 0.03979605436325073
vt 0.5005142688751221 0.0619434118270874
vt 0.9934232234954834 0.12243086099624634
vt 0.5005142688751221 0.10028362274169922
vt 0.9934232234954834 0.10028362274169922
vt 0.5005142688751221 0.12243086099624634
vt 0.5005142688751221 0.0619434118270874
vt 0.9934232234954834 0.03979605436325073
vt 0.5005142688751221 0.03979605436325073
vt 0.9934232234954834 0.0619434118270874
vt 0.9934232234954834 0.12243086099624634
vt 0.5005142688751221 0.10028362274169922
vt 0.9934232234954834 0.10028362274169922
vt 0.5005142688751221 0.12243086099624634
vt 0.41969573497772217 0.0022104382514953613
vt 0.3765120506286621 0.4952872395515442
vt 0.3765121102333069 0.0022104382514953613
vt 0.41969573497772217 0.4952872395515442
vt 0.3765121102333069 0.0022104382514953613
vt 0.35128211975097656 0.4952872395515442
vt 0.3512822985649109 0.0022104382514953613
vt 0.3765120506286621 0.4952872395515442
vt 0.41969573497772217 0.4860352873802185
vt 0.3765121400356293 0.0021968483924865723
vt 0.41969573497772217 0.002196788787841797
vt 0.3765120804309845 0.4860353469848633
vt 0.3765121400356293 0.0021968483924865723
vt 0.3512822389602661 0.4860353469848633
vt 0.35128235816955566 0.0021968483924865723
vt 0.3765120804309845 0.4860353469848633
vt 0.3765121400356293 0.0021968483924865723
vt 0.3512822389602661 0.4860353469848633
vt 0.35128235816955566 0.0021968483924865723
vt 0.3765120804309845 0.4860353469848633
vt 0.41969573497772217 0.4925624132156372
vt 0.37651216983795166 0.0014412403106689453
vt 0.41969573497772217 0.0014412403106689453
vt 0.3765121400356293 0.49256253242492676
vt 0.3765120804309845 0.002466857433319092
vt 0.41969573497772217 0.4952872395515442
vt 0.3765120506286621 0.4952872395515442
vt 0.41969573497772217 0.4952872395515442
vt 0.3765120804309845 0.002466857433319092
vt 0.41969573497772217 0.0024667978286743164
vt 0.37651216983795166 0.0014412403106689453
vt 0.35128235816955566 0.49256253242492676
vt 0.3512824773788452 0.0014412403106689453
vt 0.3765121400356293 0.49256253242492676
vt 0.35128211975097656 0.4952872395515442
vt 0.3765120804309845 0.002466857433319092
vt 0.3765120506286621 0.4952872395515442
vt 0.3512822389602661 0.002466857433319092
vt 0.37651216983795166 0.0014412403106689453
vt 0.35128235816955566 0.16605663299560547
vt 0.3512824773788452 0.0014412403106689453
vt 0.3765121400356293 0.16605663299560547
vt 0.35128211975097656 0.4952872395515442
vt 0.3765120804309845 0.002466857433319092
vt 0.3765120506286621 0.4952872395515442
vt 0.3512822389602661 0.002466857433319092
vt 0.41969573497772217 0.0014412403106689453
vt 0.3765121102333069 0.49840229749679565
vt 0.37651216983795166 0.0014412403106689453
vt 0.3765121102333069 0.49840229749679565
vt 0.41969573497772217 0.0014412403106689453
vt 0.41969573497772217 0.49840229749679565
vt 0.37651216983795166 0.0014412403106689453
vt 0.3512822985649109 0.49840229749679565
vt 0.3512824773788452 0.0014412403106689453
vt 0.3765121102333069 0.49840229749679565
vt 0.41969573497772217 0.4952872395515442
vt 0.41969573497772217 0.0022104382514953613
vt 0.41969573497772217 0.4952872395515442
vt 0.41969573497772217 0.0022104382514953613
vt 0.25 0.3442591428756714
vt 0.0010000000474974513 0.4368629455566406
vt 0.0010000000474974513 0.3442591428756714
vt 0.25 0.4368629455566406
vt 0.2500540316104889 0.3442591428756714
vt 0.0010540485382080078 0.4368629455566406
vt 0.0010540485382080078 0.3442591428756714
vt 0.2500540316104889 0.4368629455566406
vt 0.25012582540512085 0.1571335792541504
vt 0.0006275995983742177 0.17602550983428955
vt 0.0006275995983742177 0.1571335792541504
vt 0.25012582540512085 0.17602550983428955
vt 0.49858033657073975 0.1571335792541504
vt 0.49858033657073975 0.17602550983428955
vt 0.25012582540512085 0.17602550983428955
vt 0.0006275995983742177 0.21766358613967896
vt 0.0006275995983742177 0.17602550983428955
vt 0.25012582540512085 0.21766352653503418
vt 0.49858033657073975 0.17602550983428955
vt 0.49858033657073975 0.21766352653503418
vt 0.25012579560279846 0.1571335792541504
vt 0.0006275995983742177 0.17602550983428955
vt 0.0006275995983742177 0.1571335792541504
vt 0.25012579560279846 0.17602550983428955
vt 0.49858033657073975 0.1571335792541504
vt 0.49858033657073975 0.17602550983428955
vt 0.25012579560279846 0.17602550983428955
vt 0.0006275995983742177 0.21766376495361328
vt 0.0006275995983742177 0.17602550983428955
vt 0.25012579560279846 0.2176637053489685
vt 0.49858033657073975 0.17602550983428955
vt 0.49858033657073975 0.2176637053489685
vt 0.25 0.3442591428756714
vt 0.0010000000474974513 0.4368629455566406
vt 0.0010000000474974513 0.3442591428756714
vt 0.25 0.4368629455566406
vt 0.2500540316104889 0.3442591428756714
vt 0.0010540485382080078 0.4368629455566406
vt 0.0010540485382080078 0.3442591428756714
vt 0.2500540316104889 0.4368629455566406
vt 0.25012582540512085 0.1571335792541504
vt 0.0006275995983742177 0.17602550983428955
vt 0.0006275995983742177 0.1571335792541504
vt 0.25012582540512085 0.17602550983428955
vt 0.49858033657073975 0.1571335792541504
vt 0.49858033657073975 0.17602550983428955
vt 0.25012582540512085 0.17602550983428955
vt 0.0006275995983742177 0.21766358613967896
vt 0.0006275995983742177 0.17602550983428955
vt 0.25012582540512085 0.21766352653503418
vt 0.49858033657073975 0.17602550983428955
vt 0.49858033657073975 0.21766352653503418
vt 0.25012579560279846 0.1571335792541504
vt 0.0006275995983742177 0.17602550983428955
vt 0.0006275995983742177 0.1571335792541504
vt 0.25012579560279846 0.17602550983428955
vt 0.49858033657073975 0.1571335792541504
vt 0.49858033657073975 0.17602550983428955
vt 0.25012579560279846 0.17602550983428955
vt 0.0006275995983742177 0.21766376495361328
vt 0.0006275995983742177 0.17602550983428955
vt 0.25012579560279846 0.2176637053489685
vt 0.49858033657073975 0.17602550983428955
vt 0.49858033657073975 0.2176637053489685
vt 0.2500540316104889 0.4368629455566406
vt 0.2500540316104889 0.3442591428756714
vt 0.2500540316104889 0.3442591428756714
vt 0.2500540316104889 0.4368629455566406
vt 0.49858033657073975 0.17602550983428955
vt 0.49858033657073975 0.1571335792541504
vt 0.49858033657073975 0.1571335792541504
vt 0.49858033657073975 0.17602550983428955
vt 0.49858033657073975 0.21766352653503418
vt 0.49858033657073975 0.17602550983428955
vt 0.49858033657073975 0.17602550983428955
vt 0.49858033657073975 0.21766352653503418
vt 0.49858033657073975 0.17602550983428955
vt 0.49858033657073975 0.1571335792541504
vt 0.49858033657073975 0.1571335792541504
vt 0.49858033657073975 0.17602550983428955
vt 0.49858033657073975 0.2176637053489685
vt 0.49858033657073975 0.17602550983428955
vt 0.49858033657073975 0.17602550983428955
vt 0.49858033657073975 0.2176637053489685
vt 0.9840791821479797 0.9979996785987169
vt 0.33670157194137573 0.7542178481817245
vt 0.9840791821479797 0.7560451179742813
vt 0.33670157194137573 0.9979996785987169
vt 1.63080894947052 0.9979996785987169
vt 1.63080894947052 0.7560451179742813
vt 2.277539014816284 0.9979996785987169
vt 1.63080894947052 0.7560451179742813
vt 2.277539014816284 0.7523906081914902
vt 1.63080894947052 0.9979996785987169
vt 2.924915313720703 0.9979996785987169
vt 2.924915313720703 0.7523906081914902
vt 2.924915313720703 0.9979996785987169
vt 2.924915313720703 0.7523906081914902
vt 2.924915313720703 0.7523906081914902
vt 2.924915313720703 0.9979996785987169

g bg_mdl_map_yuka03
s 1
usemtl bg_mdl_map_yuka03_0
f 3/3/3 2/2/2 1/1/1 
f 4/4/4 1/1/1 2/2/2 
f 4/4/4 2/2/2 5/5/5 
f 6/6/6 5/5/5 2/2/2 
f 9/9/9 8/8/8 7/7/7 
f 10/10/10 7/7/7 8/8/8 
f 8/8/8 9/9/9 11/11/11 
f 12/12/12 11/11/11 9/9/9 
f 14/14/14 10/10/10 13/13/13 
f 15/15/15 13/13/13 10/10/10 
f 13/13/13 15/15/15 16/16/16 
f 17/17/17 16/16/16 15/15/15 
f 20/20/20 19/19/19 18/18/18 
f 21/21/21 18/18/18 19/19/19 
f 19/19/19 20/20/20 22/22/22 
f 23/23/23 22/22/22 20/20/20 
f 22/22/22 23/23/23 24/24/24 
f 25/25/25 24/24/24 23/23/23 
f 28/28/28 27/27/27 26/26/26 
f 29/29/29 26/26/26 27/27/27 
f 27/27/27 30/30/30 29/29/29 
f 31/31/31 29/29/29 30/30/30 
f 34/34/34 33/33/33 32/32/32 
f 32/32/32 33/33/33 35/35/35 
f 38/38/38 37/37/37 36/36/36 
f 39/39/39 36/36/36 37/37/37 
f 37/37/37 38/38/38 40/40/40 
f 41/41/41 40/40/40 38/38/38 
f 40/40/40 41/41/41 42/42/42 
f 43/43/43 42/42/42 41/41/41 
f 46/46/46 45/45/45 44/44/44 
f 47/47/47 44/44/44 45/45/45 
f 46/46/46 48/48/48 45/45/45 
f 49/49/49 45/45/45 48/48/48 
f 48/48/48 46/46/46 50/50/50 
f 51/51/51 50/50/50 46/46/46 
f 50/50/50 51/51/51 52/52/52 
f 53/53/53 52/52/52 51/51/51 
f 56/56/56 55/55/55 54/54/54 
f 57/57/57 54/54/54 55/55/55 
f 54/54/54 58/58/58 56/56/56 
f 56/56/56 58/58/58 59/59/59 
f 59/59/59 58/58/58 60/60/60 
f 63/63/63 62/62/62 61/61/61 
f 64/64/64 61/61/61 62/62/62 
f 66/66/66 65/65/65 63/63/63 
f 67/67/67 63/63/63 65/65/65 
f 70/70/70 69/69/69 68/68/68 
f 71/71/71 68/68/68 69/69/69 
f 74/74/74 73/73/73 72/72/72 
f 75/75/75 72/72/72 73/73/73 
f 78/78/78 77/77/77 76/76/76 
f 79/79/79 76/76/76 77/77/77 
f 82/82/82 81/81/81 80/80/80 
f 80/80/80 81/81/81 83/83/83 
f 86/86/86 85/85/85 84/84/84 
f 87/87/87 84/84/84 85/85/85 
f 90/90/90 89/89/89 88/88/88 
f 91/91/91 88/88/88 89/89/89 
f 94/94/94 93/93/93 92/92/92 
f 93/93/93 95/95/95 92/92/92 
f 98/98/98 97/97/97 96/96/96 
f 99/99/99 96/96/96 97/97/97 
f 97/97/97 98/98/98 100/100/100 
f 101/101/101 100/100/100 98/98/98 

usemtl bg_mdl_map_yuka03_1
f 104/104/104 103/103/103 102/102/102 
f 105/105/105 102/102/102 103/103/103 
f 108/108/108 107/107/107 106/106/106 
f 109/109/109 106/106/106 107/107/107 
f 112/112/112 111/111/111 110/110/110 
f 111/111/111 113/113/113 110/110/110 
f 110/110/110 113/113/113 114/114/114 
f 117/117/117 116/116/116 115/115/115 
f 118/118/118 115/115/115 116/116/116 
f 121/121/121 120/120/120 119/119/119 
f 119/119/119 120/120/120 122/122/122 
f 122/122/122 120/120/120 123/123/123 
f 120/120/120 124/124/124 123/123/123 
f 125/125/125 123/123/123 124/124/124 
f 128/128/128 127/127/127 126/126/126 
f 129/129/129 126/126/126 127/127/127 
f 127/127/127 130/130/130 129/129/129 
f 131/131/131 129/129/129 130/130/130 
f 129/129/129 131/131/131 132/132/132 
f 132/132/132 133/133/133 129/129/129 
f 126/126/126 129/129/129 133/133/133 
f 136/136/136 135/135/135 134/134/134 
f 137/137/137 134/134/134 135/135/135 
f 137/137/137 138/138/138 134/134/134 
f 138/138/138 137/137/137 139/139/139 
f 140/140/140 139/139/139 137/137/137 
f 135/135/135 141/141/141 137/137/137 
f 140/140/140 137/137/137 141/141/141 
f 144/144/144 143/143/143 142/142/142 
f 145/145/145 142/142/142 143/143/143 
f 148/148/148 147/147/147 146/146/146 
f 149/149/149 146/146/146 147/147/147 
f 152/152/152 151/151/151 150/150/150 
f 153/153/153 150/150/150 151/151/151 
f 153/153/153 151/151/151 154/154/154 
f 153/153/153 155/155/155 150/150/150 
f 156/156/156 150/150/150 155/155/155 
f 154/154/154 157/157/157 153/153/153 
f 155/155/155 153/153/153 157/157/157 
f 160/160/160 159/159/159 158/158/158 
f 160/160/160 161/161/161 159/159/159 
f 162/162/162 159/159/159 161/161/161 
f 159/159/159 163/163/163 158/158/158 
f 164/164/164 158/158/158 163/163/163 
f 162/162/162 165/165/165 159/159/159 
f 163/163/163 159/159/159 165/165/165 
f 168/168/168 167/167/167 166/166/166 
f 169/169/169 166/166/166 167/167/167 
f 172/172/172 171/171/171 170/170/170 
f 173/173/173 170/170/170 171/171/171 
f 176/176/176 175/175/175 174/174/174 
f 177/177/177 174/174/174 175/175/175 
f 180/180/180 179/179/179 178/178/178 
f 181/181/181 178/178/178 179/179/179 
f 184/184/184 183/183/183 182/182/182 
f 185/185/185 182/182/182 183/183/183 
f 188/188/188 187/187/187 186/186/186 
f 189/189/189 186/186/186 187/187/187 
f 192/192/192 191/191/191 190/190/190 
f 193/193/193 190/190/190 191/191/191 
f 196/196/196 195/195/195 194/194/194 
f 197/197/197 194/194/194 195/195/195 
f 200/200/200 199/199/199 198/198/198 
f 199/199/199 201/201/201 198/198/198 
f 198/198/198 201/201/201 202/202/202 
f 205/205/205 204/204/204 203/203/203 
f 206/206/206 203/203/203 204/204/204 

usemtl bg_mdl_map_yuka03_2
f 209/209/209 208/208/208 207/207/207 
f 210/210/210 207/207/207 208/208/208 
f 207/207/207 210/210/210 211/211/211 
f 212/212/212 211/211/211 210/210/210 
f 211/211/211 212/212/212 213/213/213 
f 214/214/214 213/213/213 212/212/212 
f 207/207/207 215/215/215 209/209/209 
f 216/216/216 209/209/209 215/215/215 
f 215/215/215 207/207/207 217/217/217 
f 211/211/211 217/217/217 207/207/207 
f 215/215/215 218/218/218 216/216/216 
f 219/219/219 216/216/216 218/218/218 
f 218/218/218 215/215/215 220/220/220 
f 217/217/217 220/220/220 215/215/215 
f 217/217/217 211/211/211 221/221/221 
f 213/213/213 221/221/221 211/211/211 
f 220/220/220 217/217/217 222/222/222 
f 221/221/221 222/222/222 217/217/217 
f 208/208/208 223/223/223 210/210/210 
f 208/208/208 224/224/224 223/223/223 
f 225/225/225 223/223/223 224/224/224 
f 212/212/212 226/226/226 214/214/214 
f 226/226/226 212/212/212 227/227/227 
f 227/227/227 210/210/210 223/223/223 
f 210/210/210 227/227/227 212/212/212 
f 224/224/224 208/208/208 228/228/228 
f 209/209/209 228/228/228 208/208/208 
f 229/229/229 214/214/214 226/226/226 
f 232/232/232 231/231/231 230/230/230 
f 233/233/233 230/230/230 231/231/231 
f 231/231/231 232/232/232 234/234/234 
f 235/235/235 234/234/234 232/232/232 

usemtl bg_mdl_map_yuka03_3
f 238/238/238 237/237/237 236/236/236 
f 239/239/239 236/236/236 237/237/237 
f 242/242/242 241/241/241 240/240/240 
f 243/243/243 240/240/240 241/241/241 
f 246/246/246 245/245/245 244/244/244 
f 247/247/247 244/244/244 245/245/245 
f 250/250/250 249/249/249 248/248/248 
f 251/251/251 248/248/248 249/249/249 
f 254/254/254 253/253/253 252/252/252 
f 255/255/255 252/252/252 253/253/253 
f 252/252/252 255/255/255 256/256/256 
f 257/257/257 256/256/256 255/255/255 
f 260/260/260 259/259/259 258/258/258 
f 261/261/261 258/258/258 259/259/259 
f 264/264/264 263/263/263 262/262/262 
f 265/265/265 262/262/262 263/263/263 
f 268/268/268 267/267/267 266/266/266 
f 269/269/269 266/266/266 267/267/267 
f 267/267/267 268/268/268 270/270/270 
f 271/271/271 270/270/270 268/268/268 
f 274/274/274 273/273/273 272/272/272 
f 275/275/275 272/272/272 273/273/273 
f 278/278/278 277/277/277 276/276/276 
f 279/279/279 276/276/276 277/277/277 

usemtl bg_mdl_map_yuka03_4
f 282/282/282 281/281/281 280/280/280 
f 283/283/283 280/280/280 281/281/281 
f 286/286/286 285/285/285 284/284/284 
f 287/287/287 284/284/284 285/285/285 
f 290/290/290 289/289/289 288/288/288 
f 291/291/291 288/288/288 289/289/289 
f 294/294/294 293/293/293 292/292/292 
f 295/295/295 292/292/292 293/293/293 
f 298/298/298 297/297/297 296/296/296 
f 299/299/299 296/296/296 297/297/297 
f 302/302/302 301/301/301 300/300/300 
f 303/303/303 300/300/300 301/301/301 
f 306/306/306 305/305/305 304/304/304 
f 307/307/307 304/304/304 305/305/305 
f 310/310/310 309/309/309 308/308/308 
f 311/311/311 308/308/308 309/309/309 
f 314/314/314 313/313/313 312/312/312 
f 315/315/315 312/312/312 313/313/313 
f 318/318/318 317/317/317 316/316/316 
f 319/319/319 316/316/316 317/317/317 
f 322/322/322 321/321/321 320/320/320 
f 323/323/323 320/320/320 321/321/321 
f 326/326/326 325/325/325 324/324/324 
f 327/327/327 324/324/324 325/325/325 
f 330/330/330 329/329/329 328/328/328 
f 331/331/331 328/328/328 329/329/329 
f 334/334/334 333/333/333 332/332/332 
f 335/335/335 332/332/332 333/333/333 
f 338/338/338 337/337/337 336/336/336 
f 339/339/339 336/336/336 337/337/337 
f 342/342/342 341/341/341 340/340/340 
f 343/343/343 340/340/340 341/341/341 
f 346/346/346 345/345/345 344/344/344 
f 349/349/349 348/348/348 347/347/347 
f 352/352/352 351/351/351 350/350/350 
f 353/353/353 350/350/350 351/351/351 
f 356/356/356 355/355/355 354/354/354 
f 357/357/357 354/354/354 355/355/355 
f 360/360/360 359/359/359 358/358/358 
f 361/361/361 358/358/358 359/359/359 
f 364/364/364 363/363/363 362/362/362 
f 365/365/365 362/362/362 363/363/363 
f 368/368/368 367/367/367 366/366/366 
f 371/371/371 370/370/370 369/369/369 
f 374/374/374 373/373/373 372/372/372 
f 375/375/375 372/372/372 373/373/373 
f 378/378/378 377/377/377 376/376/376 
f 379/379/379 376/376/376 377/377/377 

usemtl bg_mdl_map_yuka03_5
f 382/382/382 381/381/381 380/380/380 
f 383/383/383 380/380/380 381/381/381 
f 386/386/386 385/385/385 384/384/384 
f 387/387/387 384/384/384 385/385/385 
f 390/390/390 389/389/389 388/388/388 
f 391/391/391 388/388/388 389/389/389 
f 388/388/388 391/391/391 392/392/392 
f 393/393/393 392/392/392 391/391/391 
f 396/396/396 395/395/395 394/394/394 
f 397/397/397 394/394/394 395/395/395 
f 394/394/394 397/397/397 398/398/398 
f 399/399/399 398/398/398 397/397/397 
f 402/402/402 401/401/401 400/400/400 
f 403/403/403 400/400/400 401/401/401 
f 400/400/400 403/403/403 404/404/404 
f 405/405/405 404/404/404 403/403/403 
f 408/408/408 407/407/407 406/406/406 
f 409/409/409 406/406/406 407/407/407 
f 406/406/406 409/409/409 410/410/410 
f 411/411/411 410/410/410 409/409/409 
f 414/414/414 413/413/413 412/412/412 
f 415/415/415 412/412/412 413/413/413 
f 418/418/418 417/417/417 416/416/416 
f 419/419/419 416/416/416 417/417/417 
f 422/422/422 421/421/421 420/420/420 
f 423/423/423 420/420/420 421/421/421 
f 420/420/420 423/423/423 424/424/424 
f 425/425/425 424/424/424 423/423/423 
f 428/428/428 427/427/427 426/426/426 
f 429/429/429 426/426/426 427/427/427 
f 426/426/426 429/429/429 430/430/430 
f 431/431/431 430/430/430 429/429/429 
f 434/434/434 433/433/433 432/432/432 
f 435/435/435 432/432/432 433/433/433 
f 432/432/432 435/435/435 436/436/436 
f 437/437/437 436/436/436 435/435/435 
f 440/440/440 439/439/439 438/438/438 
f 441/441/441 438/438/438 439/439/439 
f 438/438/438 441/441/441 442/442/442 
f 443/443/443 442/442/442 441/441/441 
f 446/446/446 445/445/445 444/444/444 
f 447/447/447 444/444/444 445/445/445 
f 450/450/450 449/449/449 448/448/448 
f 451/451/451 448/448/448 449/449/449 
f 454/454/454 453/453/453 452/452/452 
f 455/455/455 452/452/452 453/453/453 
f 458/458/458 457/457/457 456/456/456 
f 459/459/459 456/456/456 457/457/457 
f 462/462/462 461/461/461 460/460/460 
f 463/463/463 460/460/460 461/461/461 

usemtl bg_mdl_map_yuka03_6
f 466/466/466 465/465/465 464/464/464 
f 467/467/467 464/464/464 465/465/465 
f 464/464/464 468/468/468 466/466/466 
f 469/469/469 466/466/466 468/468/468 
f 472/472/472 471/471/471 470/470/470 
f 473/473/473 470/470/470 471/471/471 
f 470/470/470 474/474/474 472/472/472 
f 475/475/475 472/472/472 474/474/474 
f 478/478/478 477/477/477 476/476/476 
f 479/479/479 476/476/476 477/477/477 

