v -6.5 -0.499886155128479 0.5000002980232239
v -5.5 0.5 0.5000001192092896
v -5.5 -0.4998864531517029 0.5000001192092896
v -6.5 0.5000002980232239 0.5000002980232239
v -3.5 -0.499886155128479 0.5000002980232239
v -2.5 0.5001134872436523 0.5000001192092896
v -2.5 -0.4998864531517029 0.5000001192092896
v -3.5 0.500113844871521 0.5000002980232239
v -0.5 4.5 0.5000002980232239
v 0.5 5.5 0.5000001192092896
v 0.5 4.5 0.5000001192092896
v -0.5 5.5 0.5000002980232239
v 4.5 -1.4999996423721313 0.5000002980232239
v 5.5 -0.49999985098838806 0.5000001192092896
v 5.5 -1.5 0.5000001192092896
v 4.5 -0.49999985098838806 0.5000002980232239
v 5.5 -3.499999523162842 0.5000002980232239
v 6.5 -2.5 0.5000001192092896
v 6.5 -3.5 0.5000001192092896
v 5.5 -2.499999523162842 0.5000002980232239
vn 1.525879156361043e-07 0.0 1.0
vn 1.525879156361043e-07 0.0 1.0
vn 1.525879156361043e-07 0.0 1.0
vn 1.525879156361043e-07 0.0 1.0
vn 1.525879156361043e-07 0.0 1.0
vn 1.525879156361043e-07 0.0 1.0
vn 1.525879156361043e-07 0.0 1.0
vn 1.525879156361043e-07 0.0 1.0
vn 1.525879156361043e-07 0.0 1.0
vn 1.5258788721439487e-07 0.0 1.0
vn 1.525879156361043e-07 0.0 1.0
vn 1.5258788721439487e-07 0.0 1.0
vn 1.525879156361043e-07 0.0 1.0
vn 1.5258788721439487e-07 0.0 1.0
vn 1.525879156361043e-07 0.0 1.0
vn 1.5258788721439487e-07 0.0 1.0
vn 1.525879156361043e-07 0.0 1.0
vn 1.525879156361043e-07 0.0 1.0
vn 1.525879156361043e-07 0.0 1.0
vn 1.525879156361043e-07 0.0 1.0
vt 1.529822587966919 -8.975198745727539
vt 1.8687390089035034 -9.289152145385742
vt 1.8716157674789429 -8.964924812316895
vt 1.524070382118225 -9.290356636047363
vt 1.529822587966919 -8.975198745727539
vt 1.8687390089035034 -9.289152145385742
vt 1.8716157674789429 -8.964924812316895
vt 1.524070382118225 -9.290356636047363
vt 1.529822587966919 -8.975198745727539
vt 1.8687390089035034 -9.289152145385742
vt 1.8716157674789429 -8.964924812316895
vt 1.524070382118225 -9.290356636047363
vt 1.529822587966919 -8.975198745727539
vt 1.8687390089035034 -9.289152145385742
vt 1.8716157674789429 -8.964924812316895
vt 1.524070382118225 -9.290356636047363
vt 1.529822587966919 -8.975198745727539
vt 1.8687390089035034 -9.289152145385742
vt 1.8716157674789429 -8.964924812316895
vt 1.524070382118225 -9.290356636047363

g bg_mdl_map_jimen_col
s 1
usemtl bg_mdl_map_jimen_col
f 3/3/3 2/2/2 1/1/1 
f 4/4/4 1/1/1 2/2/2 
f 7/7/7 6/6/6 5/5/5 
f 8/8/8 5/5/5 6/6/6 
f 11/11/11 10/10/10 9/9/9 
f 12/12/12 9/9/9 10/10/10 
f 15/15/15 14/14/14 13/13/13 
f 16/16/16 13/13/13 14/14/14 
f 19/19/19 18/18/18 17/17/17 
f 20/20/20 17/17/17 18/18/18 

