v 0.05490478500723839 0.07972214370965958 0.04437390714883804
v 0.030370712280273438 0.06935516744852066 0.060278184711933136
v 0.025893324986100197 0.07647431641817093 0.043006427586078644
v 0.05490485951304436 0.07146051526069641 0.06346330046653748
v 0.07136406004428864 0.0770965963602066 0.06438219547271729
v 0.08803680539131165 0.09140332788228989 0.04366526007652283
v 0.01723739504814148 0.0736381933093071 0.05859379470348358
v 0.01763153076171875 0.08686477690935135 0.030080033466219902
v 0.03384307771921158 0.08330784738063812 0.02070489153265953
v 0.05490478500723839 0.086514413356781 0.020210379734635353
v 0.03368896245956421 0.061987098306417465 0.06970155239105225
v 0.018888015300035477 0.059374257922172546 0.06688977777957916
v 0.03789001330733299 0.03973522037267685 0.07448320090770721
v 0.010654602199792862 0.037723612040281296 0.0678686797618866
v 0.007232513278722763 0.05799323320388794 0.06433888524770737
v 0.012030181474983692 0.07439199835062027 0.056855905801057816
v 0.05490478500723839 0.06383681297302246 0.07311205565929413
v 0.08799675107002258 0.06970498710870743 0.07516210526227951
v 0.10055450350046158 0.047907181084156036 0.08045314252376556
v 0.11476799100637436 0.0637202113866806 0.07427916675806046
v 0.1051497608423233 0.08121137320995331 0.06360383331775665
v 0.08811576664447784 0.08044438064098358 0.06456015259027481
v 0.10530693084001541 0.09434106945991516 0.03729136288166046
v 0.13153205811977386 0.07774931937456131 0.059673283249139786
v 0.13155235350131989 0.09173179417848587 0.03448590263724327
v 0.10512451082468033 0.10267245769500732 2.186128540415666e-07
v 0.13154014945030212 0.09859857708215714 2.2423171230911976e-07
v 0.0039659119211137295 0.0386180579662323 0.06430187821388245
v 0.08788947761058807 0.10292739421129227 2.3193689457912114e-07
v 0.07464279234409332 0.09422241151332855 0.021281201392412186
v 0.05490485951304436 0.09527724236249924 2.2237352936826937e-07
v 0.037074051797389984 0.09297586232423782 2.1743605316260073e-07
v 0.02329864539206028 0.09290529042482376 0.009488863870501518
v 0.026687927544116974 0.0960649773478508 2.1723992915667623e-07
v 0.13158828020095825 0.022300150245428085 0.07937818765640259
v 0.10346778482198715 -0.024014148861169815 0.08038269728422165
v 0.10180404782295227 0.023486727848649025 0.0843416079878807
v 0.1393141895532608 -0.020851116627454758 0.07254215329885483
v 0.13147293031215668 0.04956710711121559 0.07639069110155106
v 0.10055450350046158 0.047907181084156036 0.08045314252376556
v 0.11476799100637436 0.0637202113866806 0.07427916675806046
v 0.06989806890487671 0.024532262235879898 0.07966017723083496
v 0.05549415573477745 -0.022936873137950897 0.07324804365634918
v 0.05300506576895714 0.004551238846033812 0.07764715701341629
v 0.02172706462442875 0.02263519912958145 0.07128317654132843
v 0.10291961580514908 -0.060424115508794785 0.04591530188918114
v 0.05545913428068161 -0.05507383123040199 0.04342899098992348
v 0.02247314341366291 -0.016801904886960983 0.0600600503385067
v 0.021978149190545082 -0.03825686499476433 0.03376701846718788
v 0.05545921251177788 -0.06908076256513596 -2.3784059166587213e-08
v 0.10283675789833069 -0.07513397186994553 -3.799021897066268e-08
v -0.0021968840155750513 -0.006430895067751408 0.03291706740856171
v 0.00020011901506222785 -0.02202187478542328 0.02143804542720318
v 0.022096099331974983 -0.04935181140899658 5.518877355115137e-09
v 0.0008961486746557057 -0.028062839061021805 3.713884311196125e-08
v -0.008967437781393528 0.023618901148438454 0.04364148527383804
v -0.015180968679487705 0.014637202955782413 0.026097169145941734
v 0.1393141895532608 -0.06603269279003143 -2.0647794585215706e-08
v 0.1393141895532608 -0.05364610627293587 0.04120435193181038
v 0.16155707836151123 -0.04794447496533394 4.4349142136468345e-09
v 0.16155707836151123 -0.03808111697435379 0.034064196050167084
v 0.16018065810203552 -0.013852695934474468 0.057550571858882904
v 0.14736434817314148 0.02132984809577465 0.07143615931272507
v 0.16155700385570526 0.020539140328764915 0.05839460715651512
v 0.16155700385570526 0.03987621143460274 0.05331268161535263
v 0.14738677442073822 0.046750057488679886 0.06740864366292953
v 0.1615569293498993 0.05824499949812889 0.04490536451339722
v 0.14734488725662231 0.07051428407430649 0.054319825023412704
v 0.13153205811977386 0.07774931937456131 0.059673283249139786
v 0.14740920066833496 0.08321933448314667 0.03117632493376732
v 0.13155235350131989 0.09173179417848587 0.03448590263724327
v 0.1473877727985382 0.09002486616373062 2.140374704140413e-07
v 0.13154014945030212 0.09859857708215714 2.2423171230911976e-07
v 0.16155685484409332 0.07383961230516434 2.0090740804334928e-07
v 0.1615569293498993 0.06802680343389511 0.025579772889614105
v 0.17247435450553894 0.018206745386123657 0.03728538379073143
v 0.1724744439125061 -0.0047677443362772465 0.03601854667067528
v 0.1740386188030243 -0.016294240951538086 0.02236895263195038
v 0.17420585453510284 -0.02120092324912548 5.702220562397997e-08
v 0.17688827216625214 0.0140602458268404 1.0351657664386948e-07
v 0.17621581256389618 0.015736596658825874 0.015920406207442284
v 0.17247427999973297 0.052258871495723724 1.5141672804475093e-07
v 0.17247435450553894 0.04763784259557724 0.018952427431941032
v 0.17247435450553894 0.03589498624205589 0.03181779384613037
v 0.004910125397145748 0.022078407928347588 0.05815093219280243
v -0.0033869934268295765 0.0404353067278862 0.057604048401117325
v 0.0039659119211137295 0.0386180579662323 0.06430187821388245
v -0.012092666700482368 0.04387930408120155 0.04530702903866768
v -0.015551833435893059 0.025563932955265045 0.03041517734527588
v -0.019840925931930542 0.027388211339712143 0.014176186174154282
v 0.010654602199792862 0.037723612040281296 0.0678686797618866
v 0.03789001330733299 0.03973522037267685 0.07448320090770721
v -0.01993458904325962 0.05022933706641197 0.0282010268419981
v -0.026554107666015625 0.058983318507671356 0.00677409116178751
v -0.02334793098270893 0.030362224206328392 1.8871007512188953e-07
v -0.027123335748910904 0.06271782517433167 1.7355465331547748e-07
v -0.011159896850585938 -0.0033377932850271463 0.02763814479112625
v -0.009340896271169186 -0.016648773103952408 0.01735212653875351
v -0.008829879574477673 -0.02260085567831993 4.525138663780126e-08
v 0.013043289072811604 0.0967811569571495 0.010041346773505211
v -0.0044908905401825905 0.0859844833612442 0.018245190382003784
v -0.005676879547536373 0.09160319715738297 2.1906798508553038e-07
v 0.004137496929615736 0.08488937467336655 0.03488931059837341
v 0.01763153076171875 0.08686477690935135 0.030080033466219902
v 0.018112029880285263 0.10336070507764816 2.354231014578545e-07
v -0.009186171926558018 0.07528433203697205 0.037027064710855484
v 0.0021310425363481045 0.07330833375453949 0.053113095462322235
v -0.005986938253045082 0.06058131158351898 0.05268708989024162
v -0.016109008342027664 0.06401631981134415 0.0338410884141922
v -0.012092666700482368 0.04387930408120155 0.04530702903866768
v -0.015277023427188396 0.07745533436536789 0.017768116667866707
v 0.012030181474983692 0.07439199835062027 0.056855905801057816
v 0.007232513278722763 0.05799323320388794 0.06433888524770737
v -0.0033869934268295765 0.0404353067278862 0.057604048401117325
v 0.0004719543212559074 0.05856424197554588 0.06048407405614853
v 0.0039659119211137295 0.0386180579662323 0.06430187821388245
v -0.011035919189453125 0.08680053800344467 2.0038092429786047e-07
v -0.01993458904325962 0.05022933706641197 0.0282010268419981
v -0.022392958402633667 0.0671323835849762 0.011601055972278118
v -0.026554107666015625 0.058983318507671356 0.00677409116178751
v -0.019062500447034836 0.07852746546268463 1.954492176992062e-07
v -0.025396423414349556 0.0692976787686348 1.8466514006831858e-07
v -0.027123335748910904 0.06271782517433167 1.7355465331547748e-07
v 0.06989806890487671 0.024532262235879898 0.07966017723083496
v 0.05300506576895714 0.004551238846033812 0.07764715701341629
v 0.07070907205343246 0.013952251523733139 0.09010615944862366
v 0.057774048298597336 0.006709222681820393 0.09572014957666397
v 0.029908064752817154 0.010708192363381386 0.08550016582012177
v 0.022859038785099983 0.01669919490814209 0.07718217372894287
v 0.02172706462442875 0.02263519912958145 0.07128317654132843
v 0.02102058380842209 0.10247600078582764 2.2897555140843906e-07
v 0.02329864539206028 0.09290529042482376 0.009488863870501518
v 0.026687927544116974 0.0960649773478508 2.1723992915667623e-07
v 0.022859038785099983 0.01669919490814209 0.07718217372894287
v 0.06989806890487671 0.024532262235879898 0.07966017723083496
v 0.07070907205343246 0.013952251523733139 0.09010615944862366
v 0.02172706462442875 0.02263519912958145 0.07128317654132843
v 0.057774048298597336 0.006709222681820393 0.09572014957666397
v 0.029908064752817154 0.010708192363381386 0.08550016582012177
v 0.05490477755665779 0.07972213625907898 -0.044373903423547745
v 0.03037070855498314 0.06935515999794006 -0.060278188437223434
v 0.05490477755665779 0.07146051526069641 -0.06346330046653748
v 0.0258933212608099 0.07647433876991272 -0.04300643503665924
v 0.07136405259370804 0.0770965963602066 -0.06438218802213669
v 0.08803680539131165 0.09140332043170929 -0.04366526007652283
v 0.01723739504814148 0.0736381858587265 -0.05859379470348358
v 0.017631525173783302 0.08686477690935135 -0.030080031603574753
v 0.03384307399392128 0.08330786228179932 -0.02070489339530468
v 0.05490478500723839 0.0865144208073616 -0.020210379734635353
v 0.03368895873427391 0.061987098306417465 -0.06970155239105225
v 0.018888015300035477 0.05937426537275314 -0.06688976287841797
v 0.037890009582042694 0.03973522037267685 -0.07448318600654602
v 0.010654602199792862 0.037723615765571594 -0.0678686872124672
v 0.00723250862210989 0.05799323320388794 -0.06433887034654617
v 0.012030176818370819 0.07439199835062027 -0.056855909526348114
v 0.05490485578775406 0.06383682787418365 -0.07311205565929413
v 0.08799682557582855 0.06970500200986862 -0.0751621201634407
v 0.10055450350046158 0.047907184809446335 -0.08045315742492676
v 0.11476799100637436 0.0637202039361 -0.07427916675806046
v 0.1051497608423233 0.0812113955616951 -0.06360384821891785
v 0.08811576664447784 0.08044438064098358 -0.06456015259027481
v 0.10530693084001541 0.09434106945991516 -0.03729136288166046
v 0.13153205811977386 0.07774931192398071 -0.05967327579855919
v 0.13155235350131989 0.09173177182674408 -0.034485895186662674
v 0.10512451082468033 0.10267245769500732 2.186128540415666e-07
v 0.13154014945030212 0.09859857708215714 2.2423171230911976e-07
v 0.003965902142226696 0.038618054240942 -0.06430187821388245
v 0.08788947761058807 0.10292739421129227 2.3193689457912114e-07
v 0.07464278489351273 0.09422241151332855 -0.021281201392412186
v 0.05490485951304436 0.09527724236249924 2.2237352936826937e-07
v 0.037074051797389984 0.09297586232423782 2.1743605316260073e-07
v 0.02329864166676998 0.09290529042482376 -0.009488862939178944
v 0.026687927544116974 0.0960649773478508 2.1723992915667623e-07
v 0.13158828020095825 0.022300144657492638 -0.0793781653046608
v 0.10346778482198715 -0.024014132097363472 -0.08038268983364105
v 0.1393141895532608 -0.020851099863648415 -0.07254215329885483
v 0.10180412232875824 0.023486724123358727 -0.08434160053730011
v 0.13147293031215668 0.04956710338592529 -0.07639068365097046
v 0.10055450350046158 0.047907184809446335 -0.08045315742492676
v 0.11476799100637436 0.0637202039361 -0.07427916675806046
v 0.06989806890487671 0.024532271549105644 -0.07966020703315735
v 0.05549415573477745 -0.022936875000596046 -0.07324805110692978
v 0.05300506576895714 0.004551244433969259 -0.07764715701341629
v 0.02172713726758957 0.022635195404291153 -0.07128316164016724
v 0.10291954129934311 -0.060424115508794785 -0.045915305614471436
v 0.05545913428068161 -0.055073823779821396 -0.04342900961637497
v 0.02247314341366291 -0.01680191047489643 -0.060060035437345505
v 0.021978149190545082 -0.03825686499476433 -0.03376700356602669
v 0.05545921251177788 -0.06908076256513596 -2.3784059166587213e-08
v 0.10283675789833069 -0.07513397186994553 -3.799021897066268e-08
v -0.0021969603840261698 -0.00643089460209012 -0.0329170748591423
v 0.00020011901506222785 -0.022021876648068428 -0.021438049152493477
v 0.022096099331974983 -0.04935181140899658 5.518877355115137e-09
v 0.0008961486746557057 -0.028062839061021805 3.713884311196125e-08
v -0.00896736141294241 0.023618897423148155 -0.043641507625579834
v -0.015181049704551697 0.014637202955782413 -0.026097171008586884
v 0.1393141895532608 -0.06603269279003143 -2.0647794585215706e-08
v 0.1393141895532608 -0.053646113723516464 -0.04120435565710068
v 0.16155707836151123 -0.04794447496533394 4.4349142136468345e-09
v 0.16155707836151123 -0.03808111697435379 -0.034064196050167084
v 0.16018065810203552 -0.013852713629603386 -0.0575505867600441
v 0.14736442267894745 0.021329838782548904 -0.07143613696098328
v 0.16155700385570526 0.02053914964199066 -0.05839463695883751
v 0.16155700385570526 0.039876215159893036 -0.05331268161535263
v 0.14738677442073822 0.04675005376338959 -0.06740863621234894
v 0.1615569293498993 0.05824501812458038 -0.04490537941455841
v 0.14734488725662231 0.07051428407430649 -0.05431981757283211
v 0.13153205811977386 0.07774931192398071 -0.05967327579855919
v 0.147409126162529 0.08321933448314667 -0.031176328659057617
v 0.13155235350131989 0.09173177182674408 -0.034485895186662674
v 0.1473877727985382 0.09002486616373062 2.140374704140413e-07
v 0.13154014945030212 0.09859857708215714 2.2423171230911976e-07
v 0.16155685484409332 0.07383961230516434 2.0090740804334928e-07
v 0.16155685484409332 0.0680268183350563 -0.025579784065485
v 0.17247435450553894 0.018206750974059105 -0.03728538751602173
v 0.1724744439125061 -0.0047677201218903065 -0.03601853922009468
v 0.17247435450553894 0.03589498996734619 -0.03181780129671097
v 0.17247435450553894 0.04763784632086754 -0.018952423706650734
v 0.17247427999973297 0.052258871495723724 1.5141672804475093e-07
v 0.17688827216625214 0.0140602458268404 1.0351657664386948e-07
v 0.17621579766273499 0.01573660783469677 -0.01592041179537773
v 0.1740386188030243 -0.01629422791302204 -0.02236894704401493
v 0.17420585453510284 -0.02120092324912548 5.702220562397997e-08
v -0.0033869934268295765 0.0404353141784668 -0.05760406702756882
v 0.004910120740532875 0.022078411653637886 -0.05815090611577034
v 0.003965902142226696 0.038618054240942 -0.06430187821388245
v -0.012092671357095242 0.04387930780649185 -0.04530703276395798
v -0.015551838092505932 0.025563934817910194 -0.030415179207921028
v -0.019840864464640617 0.027388159185647964 -0.014176168479025364
v 0.010654602199792862 0.037723615765571594 -0.0678686872124672
v 0.037890009582042694 0.03973522037267685 -0.07448318600654602
v -0.01993454433977604 0.050229303538799286 -0.028201013803482056
v -0.02655404433608055 0.058983366936445236 -0.006774101871997118
v -0.02334793098270893 0.030362224206328392 1.8871007512188953e-07
v -0.027123335748910904 0.06271782517433167 1.7355465331547748e-07
v -0.011159896850585938 -0.0033377925865352154 -0.027638141065835953
v -0.009340896271169186 -0.01664876937866211 -0.017352113500237465
v -0.008829879574477673 -0.02260085567831993 4.525138663780126e-08
v -0.005676879547536373 0.09160319715738297 2.1906798508553038e-07
v -0.0044908951967954636 0.0859844759106636 -0.018245188519358635
v 0.013043289072811604 0.0967811718583107 -0.010041351430118084
v 0.004137496929615736 0.08488939702510834 -0.03488932177424431
v 0.017631525173783302 0.08686477690935135 -0.030080031603574753
v 0.018112029880285263 0.10336070507764816 2.354231014578545e-07
v -0.009186171926558018 0.07528436183929443 -0.03702707588672638
v 0.0021310425363481045 0.07330833375453949 -0.05311309173703194
v -0.005986942909657955 0.060581307858228683 -0.05268707498908043
v -0.016109008342027664 0.06401631981134415 -0.0338410846889019
v -0.012092671357095242 0.04387930780649185 -0.04530703276395798
v -0.01527702808380127 0.07745532691478729 -0.017768114805221558
v 0.012030176818370819 0.07439199835062027 -0.056855909526348114
v 0.00723250862210989 0.05799323320388794 -0.06433887034654617
v -0.0033869934268295765 0.0404353141784668 -0.05760406702756882
v 0.00047194957733154297 0.05856425315141678 -0.060484111309051514
v 0.003965902142226696 0.038618054240942 -0.06430187821388245
v 0.02329864166676998 0.09290529042482376 -0.009488862939178944
v 0.02102058380842209 0.10247600078582764 2.2897555140843906e-07
v -0.01993454433977604 0.050229303538799286 -0.028201013803482056
v -0.022392887622117996 0.0671323910355568 -0.011601056903600693
v -0.02655404433608055 0.058983366936445236 -0.006774101871997118
v 0.026687927544116974 0.0960649773478508 2.1723992915667623e-07
v -0.025396423414349556 0.0692976787686348 1.8466514006831858e-07
v -0.027123335748910904 0.06271782517433167 1.7355465331547748e-07
v -0.019062500447034836 0.07852746546268463 1.954492176992062e-07
v -0.011035919189453125 0.08680053800344467 2.0038092429786047e-07
v 0.07070907205343246 0.013952250592410564 -0.09010615944862366
v 0.05300506576895714 0.004551244433969259 -0.07764715701341629
v 0.06989806890487671 0.024532271549105644 -0.07966020703315735
v 0.05777404084801674 0.006709218490868807 -0.09572014957666397
v 0.029908062890172005 0.010708196088671684 -0.08550016582012177
v 0.022859036922454834 0.01669919490814209 -0.07718217372894287
v 0.02172713726758957 0.022635195404291153 -0.07128316164016724
v 0.022859036922454834 0.01669919490814209 -0.07718217372894287
v 0.06989806890487671 0.024532271549105644 -0.07966020703315735
v 0.02172713726758957 0.022635195404291153 -0.07128316164016724
v 0.07070907205343246 0.013952250592410564 -0.09010615944862366
v 0.05777404084801674 0.006709218490868807 -0.09572014957666397
v 0.029908062890172005 0.010708196088671684 -0.08550016582012177
vn -0.22688689827919006 0.9160812497138977 0.330631822347641
vn 0.04122179374098778 0.8669319748878479 0.49671897292137146
vn 0.18543539941310883 0.9107633829116821 0.36894968152046204
vn -0.22492124140262604 0.8324772119522095 0.5063518285751343
vn -0.2324753999710083 0.8010684251785278 0.5515838861465454
vn -0.14613661170005798 0.9203093647956848 0.3628699779510498
vn 0.006968403700739145 0.7653202414512634 0.6436119675636292
vn 0.22686971724033356 0.8827025890350342 0.41154131293296814
vn 0.11111108213663101 0.9244912266731262 0.3646508455276489
vn -0.24777407944202423 0.9128044247627258 0.3246475160121918
vn -0.16910487413406372 0.4638555347919464 0.8696215152740479
vn -0.23781734704971313 0.30510497093200684 0.9221462607383728
vn -0.1793682724237442 0.08260092884302139 0.9803081750869751
vn -0.37861883640289307 -0.00038863171357661486 0.9255526065826416
vn -0.35720789432525635 0.2709192931652069 0.8938709497451782
vn -0.19297942519187927 0.7224826216697693 0.663910984992981
vn -0.16880859434604645 0.46706274151802063 0.8679608106613159
vn -0.03500686213374138 0.47885948419570923 0.8771932721138
vn 0.013369819149374962 0.19551846385002136 0.9806088805198669
vn 0.1798698604106903 0.4371853768825531 0.8812012672424316
vn 0.11313626915216446 0.7695981860160828 0.628425657749176
vn -0.08335086703300476 0.8017850518226624 0.5917713046073914
vn 0.05672915652394295 0.939842164516449 0.33686578273773193
vn 0.3469912111759186 0.6916282773017883 0.6334408521652222
vn 0.3156616985797882 0.8896592855453491 0.32994556427001953
vn 0.07676563411951065 0.9970491528511047 1.1043437098123832e-06
vn 0.3125329315662384 0.9499068856239319 9.345017133455258e-07
vn -0.590719997882843 -0.1115659549832344 0.799126386642456
vn -0.11604427546262741 0.9932441115379333 1.7466612689531757e-06
vn -0.2757679522037506 0.9203305840492249 0.27738717198371887
vn -0.22393333911895752 0.9746044874191284 3.9726810427964665e-06
vn 0.07993531227111816 0.9968000650405884 5.563908871408785e-06
vn 0.36643391847610474 0.8157324194908142 0.44755658507347107
vn 0.5195870995521545 0.8544174432754517 9.208042683894746e-06
vn 0.31293585896492004 0.018779318779706955 0.9495885968208313
vn 0.0392807312309742 -0.40925440192222595 0.9115743637084961
vn 0.004505855031311512 0.030736234039068222 0.9995173215866089
vn 0.41752225160598755 -0.38377147912979126 0.823647141456604
vn 0.3422952890396118 0.2736615538597107 0.8988566994667053
vn 0.013369819149374962 0.19551846385002136 0.9806088805198669
vn 0.1798698604106903 0.4371853768825531 0.8812012672424316
vn -0.029883259907364845 0.11897995322942734 0.992446780204773
vn -0.24226924777030945 -0.4305332899093628 0.8694519400596619
vn -0.03902348875999451 -0.6678819060325623 0.7432435154914856
vn -0.4519989788532257 -0.09274536371231079 0.8871838450431824
vn 0.049592576920986176 -0.8463883996009827 0.5302519202232361
vn -0.29641541838645935 -0.8113490343093872 0.503835916519165
vn -0.5647889971733093 -0.45151233673095703 0.6907603740692139
vn -0.595901608467102 -0.6982468366622925 0.39667707681655884
vn -0.313463032245636 -0.949600338935852 -2.048651026598236e-07
vn 0.056495148688554764 -0.9984028935432434 -3.1481826567869575e-07
vn -0.6879898905754089 -0.42633819580078125 0.5872865915298462
vn -0.6443369388580322 -0.6520929336547852 0.39950573444366455
vn -0.5946009159088135 -0.8040209412574768 0.0
vn -0.6290374994277954 -0.7773750424385071 4.2275232203792257e-07
vn -0.8099339008331299 -0.2615286409854889 0.5249854922294617
vn -0.8686086535453796 -0.22882096469402313 0.43949976563453674
vn 0.4275699257850647 -0.9039823412895203 -1.2551409156458249e-07
vn 0.41199883818626404 -0.7797467112541199 0.47143611311912537
vn 0.7665612101554871 -0.6421712040901184 0.0
vn 0.7555032968521118 -0.5546038150787354 0.34875378012657166
vn 0.7494480013847351 -0.2658030390739441 0.6063633561134338
vn 0.5721372961997986 0.03997498005628586 0.8191831111907959
vn 0.7872899770736694 0.05980948358774185 0.6136751174926758
vn 0.8122265934944153 0.18356437981128693 0.5537075400352478
vn 0.6138507127761841 0.24756436049938202 0.7495993375778198
vn 0.8180782794952393 0.39891475439071655 0.414264440536499
vn 0.6123203039169312 0.5631296634674072 0.5549314618110657
vn 0.3469912111759186 0.6916282773017883 0.6334408521652222
vn 0.6265421509742737 0.7293165326118469 0.2748495638370514
vn 0.3156616985797882 0.8896592855453491 0.32994556427001953
vn 0.6162853837013245 0.7875229716300964 4.897986514151853e-07
vn 0.3125329315662384 0.9499068856239319 9.345017133455258e-07
vn 0.8217461109161377 0.5698537826538086 0.0
vn 0.821509063243866 0.5349965691566467 0.1972346305847168
vn 0.9437479972839355 0.03785546123981476 0.3284914195537567
vn 0.9370905756950378 -0.12494128197431564 0.32596156001091003
vn 0.953790009021759 -0.2488483488559723 0.1684015989303589
vn 0.9584661722183228 -0.28520622849464417 1.4402870363028342e-07
vn 0.9998252987861633 0.01869177259504795 -1.4091138211824727e-07
vn 0.9955852031707764 0.028055716305971146 0.08957106620073318
vn 0.9508217573165894 0.3097383677959442 1.1807675548425323e-07
vn 0.9530813097953796 0.27404165267944336 0.12859700620174408
vn 0.950710117816925 0.1577543169260025 0.2669525742530823
vn -0.6567777991294861 -0.2854221761226654 0.6979806423187256
vn -0.7487731575965881 -0.11088138818740845 0.6534861326217651
vn -0.590719997882843 -0.1115659549832344 0.799126386642456
vn -0.8720412850379944 -0.04771915078163147 0.4871004819869995
vn -0.928147554397583 -0.15903255343437195 0.3365274667739868
vn -0.9624003767967224 -0.14749112725257874 0.22810471057891846
vn -0.37861883640289307 -0.00038863171357661486 0.9255526065826416
vn -0.1793682724237442 0.08260092884302139 0.9803081750869751
vn -0.9437788128852844 -0.01166256982833147 0.3303720951080322
vn -0.975341260433197 0.057155098766088486 0.21317268908023834
vn -0.9879762530326843 -0.15460564196109772 8.677918117427907e-07
vn -0.9919008612632751 0.12701451778411865 5.773088105343049e-07
vn -0.556275486946106 -0.27156856656074524 0.7853713631629944
vn -0.5622143745422363 -0.6998910307884216 0.4405311644077301
vn -0.489654541015625 -0.8719164729118347 6.79784761814517e-07
vn -0.08392000943422318 0.8987851142883301 0.43028202652931213
vn -0.5147335529327393 0.8105528354644775 0.27938076853752136
vn -0.5436444282531738 0.83931565284729 3.868420662911376e-06
vn -0.27122220396995544 0.8744511604309082 0.4022110104560852
vn 0.22686971724033356 0.8827025890350342 0.41154131293296814
vn 0.006225839257240295 0.9999806880950928 1.128725034504896e-05
vn -0.6900092959403992 0.5936495661735535 0.414086252450943
vn -0.4827757179737091 0.6176390647888184 0.6208457946777344
vn -0.7744526863098145 0.23957780003547668 0.5855131149291992
vn -0.8833081722259521 0.25454625487327576 0.3936658799648285
vn -0.8720412850379944 -0.04771915078163147 0.4871004819869995
vn -0.756135106086731 0.5971987843513489 0.26760661602020264
vn -0.19297942519187927 0.7224826216697693 0.663910984992981
vn -0.35720789432525635 0.2709192931652069 0.8938709497451782
vn -0.7487731575965881 -0.11088138818740845 0.6534861326217651
vn -0.597754180431366 0.23913030326366425 0.7651840448379517
vn -0.590719997882843 -0.1115659549832344 0.799126386642456
vn -0.6767327785491943 0.7362287640571594 2.3323325422097696e-06
vn -0.9437788128852844 -0.01166256982833147 0.3303720951080322
vn -0.8865401744842529 0.35315659642219543 0.2988762855529785
vn -0.975341260433197 0.057155098766088486 0.21317268908023834
vn -0.7935684323310852 0.6084809899330139 1.959285327757243e-06
vn -0.9003990292549133 0.4350651204586029 2.536365400374052e-06
vn -0.9919008612632751 0.12701451778411865 5.773088105343049e-07
vn -0.029883259907364845 0.11897995322942734 0.992446780204773
vn -0.03902348875999451 -0.6678819060325623 0.7432435154914856
vn 0.8623302578926086 -0.011072627268731594 0.5062253475189209
vn 0.13334918022155762 -0.37189120054244995 0.9186484217643738
vn -0.6968089938163757 -0.3109643757343292 0.646342396736145
vn -0.9575074911117554 -0.1675323247909546 0.23476006090641022
vn -0.4519989788532257 -0.09274536371231079 0.8871838450431824
vn 0.490139901638031 0.8716438412666321 1.0601076610328164e-05
vn 0.36643391847610474 0.8157324194908142 0.44755658507347107
vn 0.5195870995521545 0.8544174432754517 9.208042683894746e-06
vn -0.9575074911117554 -0.1675323247909546 0.23476006090641022
vn -0.029883259907364845 0.11897995322942734 0.992446780204773
vn 0.8623302578926086 -0.011072627268731594 0.5062253475189209
vn -0.4519989788532257 -0.09274536371231079 0.8871838450431824
vn 0.13334918022155762 -0.37189120054244995 0.9186484217643738
vn -0.6968089938163757 -0.3109643757343292 0.646342396736145
vn -0.2268865704536438 0.9160813093185425 -0.33063197135925293
vn 0.04122178256511688 0.8669317960739136 -0.49671927094459534
vn -0.2249203473329544 0.8324772119522095 -0.5063521862030029
vn 0.18543487787246704 0.9107632637023926 -0.3689499497413635
vn -0.2324751764535904 0.8010685443878174 -0.5515836477279663
vn -0.1461368054151535 0.9203097820281982 -0.3628692030906677
vn 0.006968693342059851 0.7653200030326843 -0.6436123251914978
vn 0.2268703281879425 0.8827024102210999 -0.411541223526001
vn 0.11111188679933548 0.9244922399520874 -0.36464813351631165
vn -0.24777403473854065 0.9128057360649109 -0.32464393973350525
vn -0.16910524666309357 0.4638550281524658 -0.8696216940879822
vn -0.23781739175319672 0.3051048517227173 -0.9221462607383728
vn -0.1793685257434845 0.08260089159011841 -0.9803080558776855
vn -0.378618985414505 -0.000390095345210284 -0.925552487373352
vn -0.3572055399417877 0.27091971039772034 -0.8938717246055603
vn -0.19297903776168823 0.7224823236465454 -0.6639114618301392
vn -0.1688086986541748 0.46706244349479675 -0.8679609298706055
vn -0.0350065715610981 0.4788595736026764 -0.8771932721138
vn 0.013370174914598465 0.1955184042453766 -0.9806088805198669
vn 0.1798706203699112 0.4371851086616516 -0.8812012672424316
vn 0.11313650757074356 0.7695982456207275 -0.6284254789352417
vn -0.08335180580615997 0.8017852902412415 -0.5917708873748779
vn 0.05672898143529892 0.9398426413536072 -0.3368642330169678
vn 0.346991628408432 0.6916284561157227 -0.6334405541419983
vn 0.3156624138355255 0.8896594643592834 -0.3299444615840912
vn 0.07676563411951065 0.9970491528511047 1.1043437098123832e-06
vn 0.3125329315662384 0.9499068856239319 9.345017133455258e-07
vn -0.5907195210456848 -0.11156708747148514 -0.7991265654563904
vn -0.11604427546262741 0.9932441115379333 1.7466612689531757e-06
vn -0.2757667005062103 0.9203317165374756 -0.27738481760025024
vn -0.22393333911895752 0.9746044874191284 3.9726810427964665e-06
vn 0.07993531227111816 0.9968000650405884 5.563908871408785e-06
vn 0.3664364218711853 0.8157360553741455 -0.4475478231906891
vn 0.5195870995521545 0.8544174432754517 9.208042683894746e-06
vn 0.31293541193008423 0.018779290840029716 -0.9495887160301208
vn 0.03928099572658539 -0.40925413370132446 -0.9115744233131409
vn 0.41752180457115173 -0.3837713599205017 -0.8236473798751831
vn 0.004507141653448343 0.030735833570361137 -0.9995173215866089
vn 0.34229540824890137 0.27366140484809875 -0.8988566994667053
vn 0.013370174914598465 0.1955184042453766 -0.9806088805198669
vn 0.1798706203699112 0.4371851086616516 -0.8812012672424316
vn -0.029883386567234993 0.11898031830787659 -0.992446780204773
vn -0.24226945638656616 -0.43053320050239563 -0.8694519400596619
vn -0.03902464732527733 -0.6678818464279175 -0.743243396282196
vn -0.45199909806251526 -0.09274519234895706 -0.8871838450431824
vn 0.049592163413763046 -0.8463883399963379 -0.5302521586418152
vn -0.29641562700271606 -0.8113488554954529 -0.5038359761238098
vn -0.5647889375686646 -0.45151200890541077 -0.6907607316970825
vn -0.5959012508392334 -0.6982471346855164 -0.39667683839797974
vn -0.313463032245636 -0.949600338935852 -2.048651026598236e-07
vn 0.056495148688554764 -0.9984028935432434 -3.1481826567869575e-07
vn -0.6879903078079224 -0.4263378381729126 -0.5872864723205566
vn -0.6443371772766113 -0.6520935297012329 -0.39950430393218994
vn -0.5946009159088135 -0.8040209412574768 0.0
vn -0.6290374994277954 -0.7773750424385071 4.2275232203792257e-07
vn -0.8099325895309448 -0.2615289092063904 -0.5249873995780945
vn -0.8686090111732483 -0.2288169413805008 -0.439501017332077
vn 0.4275699257850647 -0.9039823412895203 -1.2551409156458249e-07
vn 0.41199859976768494 -0.7797466516494751 -0.4714363217353821
vn 0.7665612101554871 -0.6421712040901184 0.0
vn 0.7555035352706909 -0.5546036958694458 -0.3487536609172821
vn 0.7494478225708008 -0.26580360531806946 -0.6063631772994995
vn 0.5721368193626404 0.039975427091121674 -0.8191834688186646
vn 0.7872902750968933 0.05980982258915901 -0.6136747002601624
vn 0.8122266530990601 0.18356458842754364 -0.5537073612213135
vn 0.6138502359390259 0.2475646436214447 -0.7495995759963989
vn 0.8180779218673706 0.3989157974720001 -0.41426387429237366
vn 0.612320065498352 0.5631303191184998 -0.5549309253692627
vn 0.346991628408432 0.6916284561157227 -0.6334405541419983
vn 0.6265420913696289 0.7293169498443604 -0.274848610162735
vn 0.3156624138355255 0.8896594643592834 -0.3299444615840912
vn 0.6162853837013245 0.7875229716300964 4.897986514151853e-07
vn 0.3125329315662384 0.9499068856239319 9.345017133455258e-07
vn 0.8217461109161377 0.5698537826538086 0.0
vn 0.8215082287788391 0.5349982976913452 -0.19723360240459442
vn 0.9437482357025146 0.03785541653633118 -0.3284910023212433
vn 0.9370907545089722 -0.12494111061096191 -0.32596105337142944
vn 0.9507102370262146 0.1577541083097458 -0.2669523060321808
vn 0.9530810713768005 0.27404293417930603 -0.12859633564949036
vn 0.9508217573165894 0.3097383677959442 1.1807675548425323e-07
vn 0.9998252987861633 0.01869177259504795 -1.4091138211824727e-07
vn 0.9955852031707764 0.02805565856397152 -0.08957109600305557
vn 0.953790009021759 -0.24884818494319916 -0.1684015542268753
vn 0.9584661722183228 -0.28520622849464417 1.4402870363028342e-07
vn -0.7487733364105225 -0.11088240146636963 -0.6534857749938965
vn -0.6567776203155518 -0.2854229211807251 -0.697980523109436
vn -0.5907195210456848 -0.11156708747148514 -0.7991265654563904
vn -0.8720415234565735 -0.047719646245241165 -0.4871000051498413
vn -0.9281479120254517 -0.1590297520160675 -0.3365280330181122
vn -0.962401270866394 -0.14748933911323547 -0.22810257971286774
vn -0.378618985414505 -0.000390095345210284 -0.925552487373352
vn -0.1793685257434845 0.08260089159011841 -0.9803080558776855
vn -0.9437795281410217 -0.011663083918392658 -0.3303699195384979
vn -0.9753403663635254 0.05715833231806755 -0.21317605674266815
vn -0.9879762530326843 -0.15460564196109772 8.677918117427907e-07
vn -0.9919008612632751 0.12701451778411865 5.773088105343049e-07
vn -0.5562795996665955 -0.2715701758861542 -0.7853679060935974
vn -0.5622155666351318 -0.699891209602356 -0.4405290484428406
vn -0.489654541015625 -0.8719164729118347 6.79784761814517e-07
vn -0.5436444282531738 0.83931565284729 3.868420662911376e-06
vn -0.5147348642349243 0.8105531334877014 -0.27937746047973633
vn -0.08391820639371872 0.898789644241333 -0.4302729070186615
vn -0.2712215185165405 0.8744513392448425 -0.4022110104560852
vn 0.2268703281879425 0.8827024102210999 -0.411541223526001
vn 0.006225839257240295 0.9999806880950928 1.128725034504896e-05
vn -0.6900094747543335 0.5936493277549744 -0.4140861928462982
vn -0.48277580738067627 0.6176387071609497 -0.620846152305603
vn -0.7744534611701965 0.23957785964012146 -0.5855119824409485
vn -0.8833091855049133 0.2545448839664459 -0.3936644196510315
vn -0.8720415234565735 -0.047719646245241165 -0.4871000051498413
vn -0.7561365365982056 0.5971983075141907 -0.26760390400886536
vn -0.19297903776168823 0.7224823236465454 -0.6639114618301392
vn -0.3572055399417877 0.27091971039772034 -0.8938717246055603
vn -0.7487733364105225 -0.11088240146636963 -0.6534857749938965
vn -0.5977526903152466 0.23913151025772095 -0.7651848793029785
vn -0.5907195210456848 -0.11156708747148514 -0.7991265654563904
vn 0.3664364218711853 0.8157360553741455 -0.4475478231906891
vn 0.490139901638031 0.8716438412666321 1.0601076610328164e-05
vn -0.9437795281410217 -0.011663083918392658 -0.3303699195384979
vn -0.886540949344635 0.3531568646430969 -0.2988733947277069
vn -0.9753403663635254 0.05715833231806755 -0.21317605674266815
vn 0.5195870995521545 0.8544174432754517 9.208042683894746e-06
vn -0.9003990292549133 0.4350651204586029 2.536365400374052e-06
vn -0.9919008612632751 0.12701451778411865 5.773088105343049e-07
vn -0.7935684323310852 0.6084809899330139 1.959285327757243e-06
vn -0.6767327785491943 0.7362287640571594 2.3323325422097696e-06
vn 0.8623303174972534 -0.0110733387991786 -0.5062249898910522
vn -0.03902464732527733 -0.6678818464279175 -0.743243396282196
vn -0.029883386567234993 0.11898031830787659 -0.992446780204773
vn 0.13334909081459045 -0.37189173698425293 -0.9186482429504395
vn -0.696808934211731 -0.31096401810646057 -0.6463425159454346
vn -0.9575086832046509 -0.16752898693084717 -0.23475748300552368
vn -0.45199909806251526 -0.09274519234895706 -0.8871838450431824
vn -0.9575086832046509 -0.16752898693084717 -0.23475748300552368
vn -0.029883386567234993 0.11898031830787659 -0.992446780204773
vn -0.45199909806251526 -0.09274519234895706 -0.8871838450431824
vn 0.8623303174972534 -0.0110733387991786 -0.5062249898910522
vn 0.13334909081459045 -0.37189173698425293 -0.9186482429504395
vn -0.696808934211731 -0.31096401810646057 -0.6463425159454346
vt 0.12258999794721603 0.17873001098632812
vt 0.17007000744342804 0.24594998359680176
vt 0.11977999657392502 0.25484997034072876
vt 0.1715400069952011 0.18119001388549805
vt 0.17213000357151031 0.13631999492645264
vt 0.11743000149726868 0.08841001987457275
vt 0.1575399935245514 0.28473997116088867
vt 0.08184000104665756 0.2754499912261963
vt 0.06384000182151794 0.23280000686645508
vt 0.06168999895453453 0.17712998390197754
vt 0.20159000158309937 0.24817001819610596
vt 0.19718000292778015 0.298799991607666
vt 0.24312999844551086 0.27667999267578125
vt 0.2368600070476532 0.3431299924850464
vt 0.19014999270439148 0.331279993057251
vt 0.15226000547409058 0.3044400215148926
vt 0.20749999582767487 0.18803000450134277
vt 0.21151000261306763 0.09165000915527344
vt 0.24312999844551086 0.09152001142501831
vt 0.22845999896526337 0.0473099946975708
vt 0.17263999581336975 0.05140000581741333
vt 0.17344999313354492 0.09061998128890991
vt 0.10176999866962433 0.04951000213623047
vt 0.1745000034570694 0.011619985103607178
vt 0.10102999955415726 0.011520028114318848
vt 0.008070000447332859 0.047959983348846436
vt 0.008070000447332859 0.009429991245269775
vt 0.2307099997997284 0.36588001251220703
vt 0.008070000447332859 0.08621001243591309
vt 0.06204000115394592 0.12294000387191772
vt 0.008070000447332859 0.1743599772453308
vt 0.008070000447332859 0.22136002779006958
vt 0.031060000881552696 0.25824999809265137
vt 0.008070000447332859 0.24804002046585083
vt 0.8385999798774719 0.6514100134372711
vt 0.8802199959754944 0.6869499981403351
vt 0.8285599946975708 0.6777899861335754
vt 0.8856099843978882 0.6562899947166443
vt 0.8090699911117554 0.6376799941062927
vt 0.7953799962997437 0.6745199859142303
vt 0.7811800241470337 0.6417799890041351
vt 0.8210700154304504 0.7222500145435333
vt 0.8764399886131287 0.7450799942016602
vt 0.8404200077056885 0.7472699880599976
vt 0.8163999915122986 0.7942799925804138
vt 0.9333599805831909 0.6922700107097626
vt 0.9289900064468384 0.7498700022697449
vt 0.8763899803161621 0.7927200049161911
vt 0.9250699877738953 0.7993600070476532
vt 0.9847599864006042 0.7545599937438965
vt 0.988860011100769 0.6929999887943268
vt 0.8847299814224243 0.8553099930286407
vt 0.9284800291061401 0.8446000069379807
vt 0.9731000065803528 0.803509995341301
vt 0.9647499918937683 0.8426100015640259
vt 0.8217999935150146 0.8601000010967255
vt 0.8351399898529053 0.8980600014328957
vt 0.983430027961731 0.6526300013065338
vt 0.9324600100517273 0.6588299870491028
vt 0.9708399772644043 0.6184599995613098
vt 0.928059995174408 0.6311799883842468
vt 0.8921099901199341 0.6325399875640869
vt 0.847790002822876 0.6335000097751617
vt 0.8578600287437439 0.6152899861335754
vt 0.8404800295829773 0.6020700037479401
vt 0.8230999708175659 0.6192800104618073
vt 0.8241000175476074 0.5848200023174286
vt 0.8006100058555603 0.5946600139141083
vt 0.7791000008583069 0.6052899956703186
vt 0.7908200025558472 0.5605799853801727
vt 0.7660499811172485 0.5656499862670898
vt 0.787850022315979 0.5132400095462799
vt 0.7607700228691101 0.5131700038909912
vt 0.8199800252914429 0.5169599950313568
vt 0.819159984588623 0.5564999878406525
vt 0.8722900152206421 0.5949000120162964
vt 0.8979499936103821 0.6080699861049652
vt 0.9197099804878235 0.6025899946689606
vt 0.9476799964904785 0.5838600099086761
vt 0.9073399901390076 0.549239993095398
vt 0.8910599946975708 0.5701000094413757
vt 0.8562399744987488 0.5253599882125854
vt 0.8505100011825562 0.5567899942398071
vt 0.8570299744606018 0.5795199871063232
vt 0.8173099756240845 0.823050007224083
vt 0.7894799709320068 0.8332699984312057
vt 0.7904099822044373 0.8157700002193451
vt 0.788100004196167 0.8596400022506714
vt 0.8174099922180176 0.8904599994421005
vt 0.8153799772262573 0.9171499982476234
vt 0.7920399904251099 0.8020800054073334
vt 0.7933899760246277 0.7659900039434433
vt 0.7788299918174744 0.8950800001621246
vt 0.7657700181007385 0.9323600009083748
vt 0.8113499879837036 0.9407900013029575
vt 0.760450005531311 0.9437899999320507
vt 0.8905199766159058 0.8816599994897842
vt 0.9435099959373474 0.8659600019454956
vt 0.9805600047111511 0.8549900054931641
vt 0.029659999534487724 0.27969998121261597
vt 0.046640001237392426 0.33688998222351074
vt 0.008070000447332859 0.33184999227523804
vt 0.09390000253915787 0.3167799711227417
vt 0.08184000104665756 0.2754499912261963
vt 0.008070000447332859 0.2671999931335449
vt 0.10480999946594238 0.3608800172805786
vt 0.1443600058555603 0.330780029296875
vt 0.15908999741077423 0.3678699731826782
vt 0.1057400032877922 0.4010699987411499
vt 0.16843999922275543 0.4261000156402588
vt 0.0481100007891655 0.38169002532958984
vt 0.15226000547409058 0.3044400215148926
vt 0.19014999270439148 0.331279993057251
vt 0.21077999472618103 0.3900200128555298
vt 0.17917999625205994 0.3495500087738037
vt 0.2307099997997284 0.36588001251220703
vt 0.008070000447332859 0.3520299792289734
vt 0.10114999860525131 0.4480400085449219
vt 0.03733000159263611 0.4243199825286865
vt 0.024739999324083328 0.45959997177124023
vt 0.008070000447332859 0.39117997884750366
vt 0.008070000447332859 0.4322599768638611
vt 0.008070000447332859 0.453760027885437
vt 0.9294099807739258 0.5127800107002258
vt 0.9291399717330933 0.5306099951267242
vt 0.9203199744224548 0.5172199904918671
vt 0.9167699813842773 0.5273900032043457
vt 0.9232800006866455 0.5466800034046173
vt 0.9292100071907043 0.552700012922287
vt 0.9344800114631653 0.554969996213913
vt 0.008070000447332859 0.25979000329971313
vt 0.031060000881552696 0.25824999809265137
vt 0.008070000447332859 0.24804002046585083
vt 0.9735000133514404 0.5948300063610077
vt 0.9873200058937073 0.5152400135993958
vt 0.9625300168991089 0.5111699998378754
vt 0.9873300194740295 0.5982599854469299
vt 0.9450299739837646 0.5315099954605103
vt 0.9575099945068359 0.5809000134468079
vt 0.12258999794721603 0.17873001098632812
vt 0.17007000744342804 0.24594998359680176
vt 0.1715400069952011 0.18119001388549805
vt 0.11977999657392502 0.25484997034072876
vt 0.17213000357151031 0.13631999492645264
vt 0.11743000149726868 0.08841001987457275
vt 0.1575399935245514 0.28473997116088867
vt 0.08184000104665756 0.2754499912261963
vt 0.06384000182151794 0.23280000686645508
vt 0.06168999895453453 0.17712998390197754
vt 0.20159000158309937 0.24817001819610596
vt 0.19718000292778015 0.298799991607666
vt 0.24312999844551086 0.27667999267578125
vt 0.2368600070476532 0.3431299924850464
vt 0.19014999270439148 0.331279993057251
vt 0.15226000547409058 0.3044400215148926
vt 0.20749999582767487 0.18803000450134277
vt 0.21151000261306763 0.09165000915527344
vt 0.24312999844551086 0.09152001142501831
vt 0.22845999896526337 0.0473099946975708
vt 0.17263999581336975 0.05140000581741333
vt 0.17344999313354492 0.09061998128890991
vt 0.10176999866962433 0.04951000213623047
vt 0.1745000034570694 0.011619985103607178
vt 0.10102999955415726 0.011520028114318848
vt 0.008070000447332859 0.047959983348846436
vt 0.008070000447332859 0.009429991245269775
vt 0.2307099997997284 0.36588001251220703
vt 0.008070000447332859 0.08621001243591309
vt 0.06204000115394592 0.12294000387191772
vt 0.008070000447332859 0.1743599772453308
vt 0.008070000447332859 0.22136002779006958
vt 0.031060000881552696 0.25824999809265137
vt 0.008070000447332859 0.24804002046585083
vt 0.8385999798774719 0.6514100134372711
vt 0.8802199959754944 0.6869499981403351
vt 0.8856099843978882 0.6562899947166443
vt 0.8285599946975708 0.6777899861335754
vt 0.8090699911117554 0.6376799941062927
vt 0.7953799962997437 0.6745199859142303
vt 0.7811800241470337 0.6417799890041351
vt 0.8210700154304504 0.7222500145435333
vt 0.8764399886131287 0.7450799942016602
vt 0.8404200077056885 0.7472699880599976
vt 0.8163999915122986 0.7942799925804138
vt 0.9333599805831909 0.6922700107097626
vt 0.9289900064468384 0.7498700022697449
vt 0.8763899803161621 0.7927200049161911
vt 0.9250699877738953 0.7993600070476532
vt 0.9847599864006042 0.7545599937438965
vt 0.988860011100769 0.6929999887943268
vt 0.8847299814224243 0.8553099930286407
vt 0.9284800291061401 0.8446000069379807
vt 0.9731000065803528 0.803509995341301
vt 0.9647499918937683 0.8426100015640259
vt 0.8217999935150146 0.8601000010967255
vt 0.8351399898529053 0.8980600014328957
vt 0.983430027961731 0.6526300013065338
vt 0.9324600100517273 0.6588299870491028
vt 0.9708399772644043 0.6184599995613098
vt 0.928059995174408 0.6311799883842468
vt 0.8921099901199341 0.6325399875640869
vt 0.847790002822876 0.6335000097751617
vt 0.8578600287437439 0.6152899861335754
vt 0.8404800295829773 0.6020700037479401
vt 0.8230999708175659 0.6192800104618073
vt 0.8241000175476074 0.5848200023174286
vt 0.8006100058555603 0.5946600139141083
vt 0.7791000008583069 0.6052899956703186
vt 0.7908200025558472 0.5605799853801727
vt 0.7660499811172485 0.5656499862670898
vt 0.787850022315979 0.5132400095462799
vt 0.7607700228691101 0.5131700038909912
vt 0.8199800252914429 0.5169599950313568
vt 0.819159984588623 0.5564999878406525
vt 0.8722900152206421 0.5949000120162964
vt 0.8979499936103821 0.6080699861049652
vt 0.8570299744606018 0.5795199871063232
vt 0.8505100011825562 0.5567899942398071
vt 0.8562399744987488 0.5253599882125854
vt 0.9073399901390076 0.549239993095398
vt 0.8910599946975708 0.5701000094413757
vt 0.9197099804878235 0.6025899946689606
vt 0.9476799964904785 0.5838600099086761
vt 0.7894799709320068 0.8332699984312057
vt 0.8173099756240845 0.823050007224083
vt 0.7904099822044373 0.8157700002193451
vt 0.788100004196167 0.8596400022506714
vt 0.8174099922180176 0.8904599994421005
vt 0.8153799772262573 0.9171499982476234
vt 0.7920399904251099 0.8020800054073334
vt 0.7933899760246277 0.7659900039434433
vt 0.7788299918174744 0.8950800001621246
vt 0.7657700181007385 0.9323600009083748
vt 0.8113499879837036 0.9407900013029575
vt 0.760450005531311 0.9437899999320507
vt 0.8905199766159058 0.8816599994897842
vt 0.9435099959373474 0.8659600019454956
vt 0.9805600047111511 0.8549900054931641
vt 0.008070000447332859 0.33184999227523804
vt 0.046640001237392426 0.33688998222351074
vt 0.029659999534487724 0.27969998121261597
vt 0.09390000253915787 0.3167799711227417
vt 0.08184000104665756 0.2754499912261963
vt 0.008070000447332859 0.2671999931335449
vt 0.10480999946594238 0.3608800172805786
vt 0.1443600058555603 0.330780029296875
vt 0.15908999741077423 0.3678699731826782
vt 0.1057400032877922 0.4010699987411499
vt 0.16843999922275543 0.4261000156402588
vt 0.0481100007891655 0.38169002532958984
vt 0.15226000547409058 0.3044400215148926
vt 0.19014999270439148 0.331279993057251
vt 0.21077999472618103 0.3900200128555298
vt 0.17917999625205994 0.3495500087738037
vt 0.2307099997997284 0.36588001251220703
vt 0.031060000881552696 0.25824999809265137
vt 0.008070000447332859 0.25979000329971313
vt 0.10114999860525131 0.4480400085449219
vt 0.03733000159263611 0.4243199825286865
vt 0.024739999324083328 0.45959997177124023
vt 0.008070000447332859 0.24804002046585083
vt 0.008070000447332859 0.4322599768638611
vt 0.008070000447332859 0.453760027885437
vt 0.008070000447332859 0.39117997884750366
vt 0.008070000447332859 0.3520299792289734
vt 0.9203199744224548 0.5172199904918671
vt 0.9291399717330933 0.5306099951267242
vt 0.9294099807739258 0.5127800107002258
vt 0.9167699813842773 0.5273900032043457
vt 0.9232800006866455 0.5466800034046173
vt 0.9292100071907043 0.552700012922287
vt 0.9344800114631653 0.554969996213913
vt 0.9735000133514404 0.5948300063610077
vt 0.9873200058937073 0.5152400135993958
vt 0.9873300194740295 0.5982599854469299
vt 0.9625300168991089 0.5111699998378754
vt 0.9450299739837646 0.5315099954605103
vt 0.9575099945068359 0.5809000134468079

g F_default_head_4
s 1
usemtl F_default_head_4
f 3/3/3 2/2/2 1/1/1 
f 4/4/4 1/1/1 2/2/2 
f 4/4/4 5/5/5 1/1/1 
f 6/6/6 1/1/1 5/5/5 
f 2/2/2 3/3/3 7/7/7 
f 7/7/7 3/3/3 8/8/8 
f 3/3/3 1/1/1 9/9/9 
f 8/8/8 3/3/3 9/9/9 
f 10/10/10 9/9/9 1/1/1 
f 11/11/11 2/2/2 7/7/7 
f 11/11/11 7/7/7 12/12/12 
f 11/11/11 12/12/12 13/13/13 
f 14/14/14 13/13/13 12/12/12 
f 14/14/14 12/12/12 15/15/15 
f 12/12/12 16/16/16 15/15/15 
f 16/16/16 12/12/12 7/7/7 
f 8/8/8 16/16/16 7/7/7 
f 11/11/11 13/13/13 17/17/17 
f 17/17/17 2/2/2 11/11/11 
f 17/17/17 5/5/5 4/4/4 
f 2/2/2 17/17/17 4/4/4 
f 18/18/18 5/5/5 17/17/17 
f 18/18/18 17/17/17 19/19/19 
f 19/19/19 17/17/17 13/13/13 
f 19/19/19 20/20/20 18/18/18 
f 18/18/18 20/20/20 21/21/21 
f 18/18/18 21/21/21 22/22/22 
f 22/22/22 21/21/21 6/6/6 
f 23/23/23 6/6/6 21/21/21 
f 21/21/21 24/24/24 23/23/23 
f 20/20/20 24/24/24 21/21/21 
f 25/25/25 23/23/23 24/24/24 
f 22/22/22 6/6/6 5/5/5 
f 22/22/22 5/5/5 18/18/18 
f 26/26/26 23/23/23 25/25/25 
f 26/26/26 25/25/25 27/27/27 
f 15/15/15 28/28/28 14/14/14 
f 6/6/6 23/23/23 29/29/29 
f 29/29/29 23/23/23 26/26/26 
f 6/6/6 29/29/29 30/30/30 
f 29/29/29 31/31/31 30/30/30 
f 30/30/30 31/31/31 10/10/10 
f 10/10/10 31/31/31 9/9/9 
f 9/9/9 31/31/31 32/32/32 
f 33/33/33 9/9/9 32/32/32 
f 33/33/33 32/32/32 34/34/34 
f 8/8/8 9/9/9 33/33/33 
f 1/1/1 30/30/30 10/10/10 
f 6/6/6 30/30/30 1/1/1 
f 37/37/37 36/36/36 35/35/35 
f 38/38/38 35/35/35 36/36/36 
f 35/35/35 39/39/39 37/37/37 
f 40/40/40 37/37/37 39/39/39 
f 39/39/39 41/41/41 40/40/40 
f 42/42/42 36/36/36 37/37/37 
f 37/37/37 40/40/40 42/42/42 
f 36/36/36 42/42/42 43/43/43 
f 43/43/43 42/42/42 44/44/44 
f 45/45/45 43/43/43 44/44/44 
f 36/36/36 43/43/43 46/46/46 
f 47/47/47 46/46/46 43/43/43 
f 43/43/43 48/48/48 47/47/47 
f 43/43/43 45/45/45 48/48/48 
f 49/49/49 47/47/47 48/48/48 
f 47/47/47 50/50/50 46/46/46 
f 51/51/51 46/46/46 50/50/50 
f 48/48/48 52/52/52 49/49/49 
f 53/53/53 49/49/49 52/52/52 
f 50/50/50 47/47/47 54/54/54 
f 49/49/49 54/54/54 47/47/47 
f 49/49/49 53/53/53 54/54/54 
f 55/55/55 54/54/54 53/53/53 
f 48/48/48 56/56/56 52/52/52 
f 52/52/52 56/56/56 57/57/57 
f 51/51/51 58/58/58 46/46/46 
f 59/59/59 46/46/46 58/58/58 
f 58/58/58 60/60/60 59/59/59 
f 61/61/61 59/59/59 60/60/60 
f 59/59/59 61/61/61 38/38/38 
f 62/62/62 38/38/38 61/61/61 
f 38/38/38 62/62/62 63/63/63 
f 64/64/64 63/63/63 62/62/62 
f 64/64/64 65/65/65 63/63/63 
f 66/66/66 63/63/63 65/65/65 
f 65/65/65 67/67/67 66/66/66 
f 68/68/68 66/66/66 67/67/67 
f 66/66/66 68/68/68 39/39/39 
f 69/69/69 39/39/39 68/68/68 
f 68/68/68 70/70/70 69/69/69 
f 71/71/71 69/69/69 70/70/70 
f 70/70/70 72/72/72 71/71/71 
f 73/73/73 71/71/71 72/72/72 
f 72/72/72 70/70/70 74/74/74 
f 75/75/75 74/74/74 70/70/70 
f 70/70/70 68/68/68 75/75/75 
f 67/67/67 75/75/75 68/68/68 
f 63/63/63 66/66/66 35/35/35 
f 39/39/39 35/35/35 66/66/66 
f 38/38/38 63/63/63 35/35/35 
f 64/64/64 76/76/76 65/65/65 
f 76/76/76 64/64/64 77/77/77 
f 62/62/62 77/77/77 64/64/64 
f 62/62/62 61/61/61 77/77/77 
f 78/78/78 77/77/77 61/61/61 
f 78/78/78 61/61/61 79/79/79 
f 79/79/79 80/80/80 78/78/78 
f 81/81/81 78/78/78 80/80/80 
f 77/77/77 81/81/81 76/76/76 
f 78/78/78 81/81/81 77/77/77 
f 60/60/60 79/79/79 61/61/61 
f 74/74/74 75/75/75 82/82/82 
f 83/83/83 82/82/82 75/75/75 
f 81/81/81 80/80/80 83/83/83 
f 82/82/82 83/83/83 80/80/80 
f 75/75/75 67/67/67 83/83/83 
f 84/84/84 83/83/83 67/67/67 
f 76/76/76 81/81/81 84/84/84 
f 84/84/84 81/81/81 83/83/83 
f 84/84/84 65/65/65 76/76/76 
f 65/65/65 84/84/84 67/67/67 
f 38/38/38 36/36/36 59/59/59 
f 46/46/46 59/59/59 36/36/36 
f 86/86/86 56/56/56 85/85/85 
f 87/87/87 86/86/86 85/85/85 
f 87/87/87 85/85/85 45/45/45 
f 85/85/85 56/56/56 48/48/48 
f 85/85/85 48/48/48 45/45/45 
f 86/86/86 88/88/88 56/56/56 
f 88/88/88 89/89/89 56/56/56 
f 56/56/56 89/89/89 57/57/57 
f 90/90/90 57/57/57 89/89/89 
f 87/87/87 45/45/45 91/91/91 
f 92/92/92 91/91/91 45/45/45 
f 92/92/92 45/45/45 42/42/42 
f 40/40/40 92/92/92 42/42/42 
f 88/88/88 93/93/93 89/89/89 
f 89/89/89 93/93/93 90/90/90 
f 90/90/90 93/93/93 94/94/94 
f 90/90/90 94/94/94 95/95/95 
f 95/95/95 94/94/94 96/96/96 
f 52/52/52 57/57/57 97/97/97 
f 97/97/97 98/98/98 52/52/52 
f 53/53/53 52/52/52 98/98/98 
f 53/53/53 98/98/98 55/55/55 
f 99/99/99 55/55/55 98/98/98 
f 102/102/102 101/101/101 100/100/100 
f 103/103/103 100/100/100 101/101/101 
f 100/100/100 103/103/103 104/104/104 
f 102/102/102 100/100/100 105/105/105 
f 106/106/106 103/103/103 101/101/101 
f 103/103/103 106/106/106 107/107/107 
f 107/107/107 106/106/106 108/108/108 
f 109/109/109 108/108/108 106/106/106 
f 109/109/109 110/110/110 108/108/108 
f 106/106/106 111/111/111 109/109/109 
f 111/111/111 106/106/106 101/101/101 
f 112/112/112 103/103/103 107/107/107 
f 103/103/103 112/112/112 104/104/104 
f 112/112/112 107/107/107 113/113/113 
f 108/108/108 110/110/110 114/114/114 
f 107/107/107 108/108/108 115/115/115 
f 114/114/114 115/115/115 108/108/108 
f 113/113/113 107/107/107 115/115/115 
f 114/114/114 116/116/116 115/115/115 
f 113/113/113 115/115/115 116/116/116 
f 102/102/102 117/117/117 101/101/101 
f 109/109/109 118/118/118 110/110/110 
f 119/119/119 118/118/118 109/109/109 
f 111/111/111 119/119/119 109/109/109 
f 120/120/120 118/118/118 119/119/119 
f 121/121/121 111/111/111 117/117/117 
f 121/121/121 119/119/119 111/111/111 
f 117/117/117 111/111/111 101/101/101 
f 120/120/120 119/119/119 122/122/122 
f 122/122/122 119/119/119 121/121/121 
f 123/123/123 120/120/120 122/122/122 
f 126/126/126 125/125/125 124/124/124 
f 127/127/127 125/125/125 126/126/126 
f 128/128/128 125/125/125 127/127/127 
f 129/129/129 125/125/125 128/128/128 
f 130/130/130 125/125/125 129/129/129 
f 100/100/100 132/132/132 131/131/131 
f 132/132/132 100/100/100 104/104/104 
f 131/131/131 105/105/105 100/100/100 
f 133/133/133 131/131/131 132/132/132 
f 136/136/136 135/135/135 134/134/134 
f 137/137/137 134/134/134 135/135/135 
f 136/136/136 134/134/134 138/138/138 
f 139/139/139 138/138/138 134/134/134 
f 39/39/39 69/69/69 41/41/41 
f 142/142/142 141/141/141 140/140/140 
f 143/143/143 140/140/140 141/141/141 
f 142/142/142 140/140/140 144/144/144 
f 145/145/145 144/144/144 140/140/140 
f 146/146/146 143/143/143 141/141/141 
f 147/147/147 143/143/143 146/146/146 
f 143/143/143 148/148/148 140/140/140 
f 148/148/148 143/143/143 147/147/147 
f 149/149/149 140/140/140 148/148/148 
f 146/146/146 141/141/141 150/150/150 
f 151/151/151 146/146/146 150/150/150 
f 152/152/152 151/151/151 150/150/150 
f 151/151/151 152/152/152 153/153/153 
f 154/154/154 151/151/151 153/153/153 
f 154/154/154 155/155/155 151/151/151 
f 146/146/146 151/151/151 155/155/155 
f 146/146/146 155/155/155 147/147/147 
f 156/156/156 152/152/152 150/150/150 
f 150/150/150 141/141/141 156/156/156 
f 142/142/142 144/144/144 156/156/156 
f 142/142/142 156/156/156 141/141/141 
f 156/156/156 144/144/144 157/157/157 
f 158/158/158 156/156/156 157/157/157 
f 152/152/152 156/156/156 158/158/158 
f 157/157/157 159/159/159 158/158/158 
f 160/160/160 159/159/159 157/157/157 
f 161/161/161 160/160/160 157/157/157 
f 145/145/145 160/160/160 161/161/161 
f 160/160/160 145/145/145 162/162/162 
f 160/160/160 162/162/162 163/163/163 
f 160/160/160 163/163/163 159/159/159 
f 164/164/164 163/163/163 162/162/162 
f 144/144/144 145/145/145 161/161/161 
f 157/157/157 144/144/144 161/161/161 
f 164/164/164 162/162/162 165/165/165 
f 166/166/166 164/164/164 165/165/165 
f 153/153/153 167/167/167 154/154/154 
f 168/168/168 162/162/162 145/145/145 
f 165/165/165 162/162/162 168/168/168 
f 169/169/169 168/168/168 145/145/145 
f 169/169/169 170/170/170 168/168/168 
f 149/149/149 170/170/170 169/169/169 
f 148/148/148 170/170/170 149/149/149 
f 171/171/171 170/170/170 148/148/148 
f 171/171/171 148/148/148 172/172/172 
f 173/173/173 171/171/171 172/172/172 
f 172/172/172 148/148/148 147/147/147 
f 149/149/149 169/169/169 140/140/140 
f 140/140/140 169/169/169 145/145/145 
f 176/176/176 175/175/175 174/174/174 
f 177/177/177 174/174/174 175/175/175 
f 174/174/174 177/177/177 178/178/178 
f 179/179/179 178/178/178 177/177/177 
f 179/179/179 180/180/180 178/178/178 
f 177/177/177 175/175/175 181/181/181 
f 181/181/181 179/179/179 177/177/177 
f 182/182/182 181/181/181 175/175/175 
f 183/183/183 181/181/181 182/182/182 
f 183/183/183 182/182/182 184/184/184 
f 175/175/175 185/185/185 182/182/182 
f 186/186/186 182/182/182 185/185/185 
f 182/182/182 186/186/186 187/187/187 
f 187/187/187 184/184/184 182/182/182 
f 188/188/188 187/187/187 186/186/186 
f 186/186/186 185/185/185 189/189/189 
f 190/190/190 189/189/189 185/185/185 
f 187/187/187 188/188/188 191/191/191 
f 192/192/192 191/191/191 188/188/188 
f 189/189/189 193/193/193 186/186/186 
f 188/188/188 186/186/186 193/193/193 
f 188/188/188 193/193/193 192/192/192 
f 194/194/194 192/192/192 193/193/193 
f 191/191/191 195/195/195 187/187/187 
f 196/196/196 195/195/195 191/191/191 
f 190/190/190 185/185/185 197/197/197 
f 198/198/198 197/197/197 185/185/185 
f 197/197/197 198/198/198 199/199/199 
f 200/200/200 199/199/199 198/198/198 
f 198/198/198 176/176/176 200/200/200 
f 201/201/201 200/200/200 176/176/176 
f 176/176/176 202/202/202 201/201/201 
f 203/203/203 201/201/201 202/202/202 
f 203/203/203 202/202/202 204/204/204 
f 205/205/205 204/204/204 202/202/202 
f 204/204/204 205/205/205 206/206/206 
f 207/207/207 206/206/206 205/205/205 
f 205/205/205 178/178/178 207/207/207 
f 208/208/208 207/207/207 178/178/178 
f 207/207/207 208/208/208 209/209/209 
f 210/210/210 209/209/209 208/208/208 
f 209/209/209 210/210/210 211/211/211 
f 212/212/212 211/211/211 210/210/210 
f 211/211/211 213/213/213 209/209/209 
f 214/214/214 209/209/209 213/213/213 
f 206/206/206 207/207/207 214/214/214 
f 209/209/209 214/214/214 207/207/207 
f 202/202/202 174/174/174 205/205/205 
f 178/178/178 205/205/205 174/174/174 
f 174/174/174 202/202/202 176/176/176 
f 203/203/203 204/204/204 215/215/215 
f 215/215/215 216/216/216 203/203/203 
f 217/217/217 215/215/215 204/204/204 
f 217/217/217 206/206/206 218/218/218 
f 214/214/214 218/218/218 206/206/206 
f 218/218/218 214/214/214 219/219/219 
f 213/213/213 219/219/219 214/214/214 
f 219/219/219 220/220/220 218/218/218 
f 221/221/221 218/218/218 220/220/220 
f 217/217/217 221/221/221 215/215/215 
f 218/218/218 221/221/221 217/217/217 
f 215/215/215 221/221/221 216/216/216 
f 221/221/221 220/220/220 222/222/222 
f 216/216/216 221/221/221 222/222/222 
f 222/222/222 200/200/200 216/216/216 
f 201/201/201 216/216/216 200/200/200 
f 201/201/201 203/203/203 216/216/216 
f 223/223/223 222/222/222 220/220/220 
f 222/222/222 223/223/223 200/200/200 
f 199/199/199 200/200/200 223/223/223 
f 176/176/176 198/198/198 175/175/175 
f 185/185/185 175/175/175 198/198/198 
f 206/206/206 217/217/217 204/204/204 
f 225/225/225 195/195/195 224/224/224 
f 225/225/225 224/224/224 226/226/226 
f 184/184/184 225/225/225 226/226/226 
f 187/187/187 195/195/195 225/225/225 
f 184/184/184 187/187/187 225/225/225 
f 195/195/195 227/227/227 224/224/224 
f 195/195/195 228/228/228 227/227/227 
f 196/196/196 228/228/228 195/195/195 
f 228/228/228 196/196/196 229/229/229 
f 230/230/230 184/184/184 226/226/226 
f 184/184/184 230/230/230 231/231/231 
f 181/181/181 184/184/184 231/231/231 
f 181/181/181 231/231/231 179/179/179 
f 228/228/228 232/232/232 227/227/227 
f 229/229/229 232/232/232 228/228/228 
f 233/233/233 232/232/232 229/229/229 
f 234/234/234 233/233/233 229/229/229 
f 235/235/235 233/233/233 234/234/234 
f 236/236/236 196/196/196 191/191/191 
f 236/236/236 191/191/191 237/237/237 
f 192/192/192 237/237/237 191/191/191 
f 192/192/192 194/194/194 237/237/237 
f 238/238/238 237/237/237 194/194/194 
f 241/241/241 240/240/240 239/239/239 
f 240/240/240 241/241/241 242/242/242 
f 243/243/243 242/242/242 241/241/241 
f 244/244/244 241/241/241 239/239/239 
f 240/240/240 242/242/242 245/245/245 
f 246/246/246 245/245/245 242/242/242 
f 247/247/247 245/245/245 246/246/246 
f 245/245/245 247/247/247 248/248/248 
f 247/247/247 249/249/249 248/248/248 
f 248/248/248 250/250/250 245/245/245 
f 240/240/240 245/245/245 250/250/250 
f 246/246/246 242/242/242 251/251/251 
f 243/243/243 251/251/251 242/242/242 
f 252/252/252 246/246/246 251/251/251 
f 253/253/253 249/249/249 247/247/247 
f 254/254/254 247/247/247 246/246/246 
f 247/247/247 254/254/254 253/253/253 
f 254/254/254 246/246/246 252/252/252 
f 254/254/254 255/255/255 253/253/253 
f 255/255/255 254/254/254 252/252/252 
f 243/243/243 241/241/241 256/256/256 
f 257/257/257 256/256/256 241/241/241 
f 241/241/241 244/244/244 257/257/257 
f 249/249/249 258/258/258 248/248/248 
f 248/248/248 258/258/258 259/259/259 
f 248/248/248 259/259/259 250/250/250 
f 259/259/259 258/258/258 260/260/260 
f 256/256/256 257/257/257 261/261/261 
f 262/262/262 259/259/259 260/260/260 
f 262/262/262 260/260/260 263/263/263 
f 264/264/264 259/259/259 262/262/262 
f 250/250/250 259/259/259 264/264/264 
f 265/265/265 250/250/250 264/264/264 
f 240/240/240 265/265/265 239/239/239 
f 240/240/240 250/250/250 265/265/265 
f 268/268/268 267/267/267 266/266/266 
f 266/266/266 267/267/267 269/269/269 
f 269/269/269 267/267/267 270/270/270 
f 270/270/270 267/267/267 271/271/271 
f 271/271/271 267/267/267 272/272/272 
f 275/275/275 274/274/274 273/273/273 
f 276/276/276 273/273/273 274/274/274 
f 276/276/276 277/277/277 273/273/273 
f 278/278/278 273/273/273 277/277/277 
f 180/180/180 208/208/208 178/178/178 

