v 0.42871081829071045 0.3164611756801605 -5.028414129526482e-09
v 0.28492680191993713 -0.00028737258980982006 0.7170267105102539
v 0.17109481990337372 0.21898509562015533 0.7170267105102539
v 0.28492680191993713 -0.00028737258980982006 0.7170267105102539
v 0.42871081829071045 0.3164611756801605 -5.028414129526482e-09
v 0.6899017691612244 -0.009418646804988384 -5.028414129526482e-09
v -0.36766383051872253 -0.21186195313930511 -5.028414129526482e-09
v -0.28959619998931885 0.03493884205818176 0.7170267105102539
v -0.19213351607322693 -0.14816968142986298 0.7170267105102539
v -0.28959619998931885 0.03493884205818176 0.7170267105102539
v -0.36766383051872253 -0.21186195313930511 -5.028414129526482e-09
v -0.4902995526790619 0.0834929421544075 -5.028414129526482e-09
v -0.0425623320043087 -0.48286139965057373 -5.028414129526482e-09
v -0.19213351607322693 -0.14816968142986298 0.7170267105102539
v -0.06716881692409515 -0.24410304427146912 0.7170267105102539
v -0.36766383051872253 -0.21186195313930511 -5.028414129526482e-09
v 0.17109481990337372 0.21898509562015533 0.7170267105102539
v 0.11317155510187149 0.0012018573470413685 1.212795376777649
v 0.060700707137584686 0.1519315242767334 1.212795376777649
v 0.11317155510187149 0.0012018573470413685 1.212795376777649
v 0.17109481990337372 0.21898509562015533 0.7170267105102539
v 0.28492680191993713 -0.00028737258980982006 0.7170267105102539
v -0.19213351607322693 -0.14816968142986298 0.7170267105102539
v -0.2782266139984131 -0.0034843995235860348 1.212795376777649
v -0.18076393008232117 -0.11570241302251816 1.212795376777649
v -0.2782266139984131 -0.0034843995235860348 1.212795376777649
v -0.19213351607322693 -0.14816968142986298 0.7170267105102539
v -0.28959619998931885 0.03493884205818176 0.7170267105102539
v -0.06716881692409515 -0.24410304427146912 0.7170267105102539
v -0.18076393008232117 -0.11570241302251816 1.212795376777649
v -0.07430808246135712 -0.16492149233818054 1.212795376777649
v -0.18076393008232117 -0.11570241302251816 1.212795376777649
v -0.06716881692409515 -0.24410304427146912 0.7170267105102539
v -0.19213351607322693 -0.14816968142986298 0.7170267105102539
v 0.11317155510187149 0.0012018573470413685 1.212795376777649
v -0.07162150740623474 0.0 1.6956243515014648
v 0.060700707137584686 0.1519315242767334 1.212795376777649
v -0.2782266139984131 -0.0034843995235860348 1.212795376777649
v -0.11712619662284851 0.0 1.7002710103988647
v -0.18076393008232117 -0.11570241302251816 1.212795376777649
v -0.18076393008232117 -0.11570241302251816 1.212795376777649
v -0.11712619662284851 0.0 1.7002710103988647
v -0.07430808246135712 -0.16492149233818054 1.212795376777649
v 0.4241580367088318 -0.2822476625442505 -5.028414129526482e-09
v 0.28492680191993713 -0.00028737258980982006 0.7170267105102539
v 0.6899017691612244 -0.009418646804988384 -5.028414129526482e-09
v 0.13201962411403656 -0.16357943415641785 0.7170267105102539
v 0.13201962411403656 -0.16357943415641785 0.7170267105102539
v 0.11317155510187149 0.0012018573470413685 1.212795376777649
v 0.28492680191993713 -0.00028737258980982006 0.7170267105102539
v 0.11317155510187149 0.0012018573470413685 1.212795376777649
v 0.13201962411403656 -0.16357943415641785 0.7170267105102539
v 0.02263731136918068 -0.12636429071426392 1.212795376777649
v -0.07162150740623474 0.0 1.6956243515014648
v 0.02263731136918068 -0.12636429071426392 1.212795376777649
v -0.11712619662284851 0.0 1.7002710103988647
v 0.02263731136918068 -0.12636429071426392 1.212795376777649
v -0.07162150740623474 0.0 1.6956243515014648
v 0.11317155510187149 0.0012018573470413685 1.212795376777649
v -0.11712619662284851 0.0 1.7002710103988647
v 0.02263731136918068 -0.12636429071426392 1.212795376777649
v -0.07430808246135712 -0.16492149233818054 1.212795376777649
v 0.02263731136918068 -0.12636429071426392 1.212795376777649
v -0.06716881692409515 -0.24410304427146912 0.7170267105102539
v -0.07430808246135712 -0.16492149233818054 1.212795376777649
v 0.13201962411403656 -0.16357943415641785 0.7170267105102539
v 0.13201962411403656 -0.16357943415641785 0.7170267105102539
v -0.0425623320043087 -0.48286139965057373 -5.028414129526482e-09
v -0.06716881692409515 -0.24410304427146912 0.7170267105102539
v 0.4241580367088318 -0.2822476625442505 -5.028414129526482e-09
v -0.09191589802503586 0.5224928259849548 -5.028414129526482e-09
v -0.1921335607767105 0.18313439190387726 0.7170267105102539
v -0.38829511404037476 0.3324875831604004 -5.028414129526482e-09
v -0.1921335607767105 0.18313439190387726 0.7170267105102539
v -0.09191589802503586 0.5224928259849548 -5.028414129526482e-09
v -0.04729149118065834 0.26146170496940613 0.7170267105102539
v -0.04729149118065834 0.26146170496940613 0.7170267105102539
v -0.18076395988464355 0.11810610443353653 1.212795376777649
v -0.1921335607767105 0.18313439190387726 0.7170267105102539
v -0.18076395988464355 0.11810610443353653 1.212795376777649
v -0.04729149118065834 0.26146170496940613 0.7170267105102539
v -0.06465602666139603 0.17005124688148499 1.212795376777649
v -0.18076395988464355 0.11810610443353653 1.212795376777649
v -0.07162150740623474 0.0 1.6956243515014648
v -0.11712619662284851 0.0 1.7002710103988647
v -0.07162150740623474 0.0 1.6956243515014648
v -0.18076395988464355 0.11810610443353653 1.212795376777649
v -0.06465602666139603 0.17005124688148499 1.212795376777649
v -0.07162150740623474 0.0 1.6956243515014648
v -0.06465602666139603 0.17005124688148499 1.212795376777649
v 0.060700707137584686 0.1519315242767334 1.212795376777649
v 0.060700707137584686 0.1519315242767334 1.212795376777649
v -0.04729149118065834 0.26146170496940613 0.7170267105102539
v 0.17109481990337372 0.21898509562015533 0.7170267105102539
v 0.42871081829071045 0.3164611756801605 -5.028414129526482e-09
v -0.04729149118065834 0.26146170496940613 0.7170267105102539
v 0.060700707137584686 0.1519315242767334 1.212795376777649
v -0.06465602666139603 0.17005124688148499 1.212795376777649
v 0.42871081829071045 0.3164611756801605 -5.028414129526482e-09
v -0.04729149118065834 0.26146170496940613 0.7170267105102539
v -0.09191589802503586 0.5224928259849548 -5.028414129526482e-09
v -0.11712619662284851 0.0 1.7002710103988647
v -0.2782266139984131 -0.0034843995235860348 1.212795376777649
v -0.18076395988464355 0.11810610443353653 1.212795376777649
v -0.18076395988464355 0.11810610443353653 1.212795376777649
v -0.28959619998931885 0.03493884205818176 0.7170267105102539
v -0.1921335607767105 0.18313439190387726 0.7170267105102539
v -0.28959619998931885 0.03493884205818176 0.7170267105102539
v -0.18076395988464355 0.11810610443353653 1.212795376777649
v -0.2782266139984131 -0.0034843995235860348 1.212795376777649
v -0.1921335607767105 0.18313439190387726 0.7170267105102539
v -0.4902995526790619 0.0834929421544075 -5.028414129526482e-09
v -0.38829511404037476 0.3324875831604004 -5.028414129526482e-09
v -0.4902995526790619 0.0834929421544075 -5.028414129526482e-09
v -0.1921335607767105 0.18313439190387726 0.7170267105102539
v -0.28959619998931885 0.03493884205818176 0.7170267105102539
vn 0.8657583594322205 0.3346116840839386 0.3721525967121124
vn 0.8657583594322205 0.3346116542816162 0.3721525967121124
vn 0.8657583594322205 0.3346116840839386 0.3721525967121124
vn 0.7753018736839294 0.46263206005096436 0.42997515201568604
vn 0.7753018736839294 0.46263203024864197 0.42997512221336365
vn 0.7753019332885742 0.46263206005096436 0.42997509241104126
vn -0.8971786499023438 -0.35552728176116943 0.2620510160923004
vn -0.8971786499023438 -0.35552725195884705 0.262050986289978
vn -0.8971786499023438 -0.35552722215652466 0.2620510160923004
vn -0.9288933277130127 -0.28714609146118164 0.23388971388339996
vn -0.9288933277130127 -0.28714612126350403 0.23388969898223877
vn -0.9288933277130127 -0.28714609146118164 0.23388969898223877
vn -0.6900559663772583 -0.6692159175872803 0.27563178539276123
vn -0.6900558471679688 -0.6692159175872803 0.2756318151950836
vn -0.6900558471679688 -0.6692159175872803 0.2756318151950836
vn -0.721473753452301 -0.6443701982498169 0.2535005807876587
vn 0.9366117715835571 0.24274104833602905 0.25265610218048096
vn 0.9366117715835571 0.24274104833602905 0.25265610218048096
vn 0.9366117715835571 0.24274104833602905 0.25265616178512573
vn 0.8879430294036865 0.34318599104881287 0.3062363266944885
vn 0.8879430294036865 0.34318599104881287 0.3062363266944885
vn 0.8879430294036865 0.34318599104881287 0.3062363266944885
vn -0.8378637433052063 -0.5417680740356445 0.06687072664499283
vn -0.8378637433052063 -0.5417680740356445 0.06687072664499283
vn -0.8378637433052063 -0.5417680740356445 0.06687072664499283
vn -0.929531991481781 -0.36834800243377686 -0.01702786423265934
vn -0.929531991481781 -0.36834800243377686 -0.01702786423265934
vn -0.929531991481781 -0.36834800243377686 -0.01702786237001419
vn -0.5196938514709473 -0.8368510007858276 0.17204278707504272
vn -0.5196939706802368 -0.8368509411811829 0.17204278707504272
vn -0.519693911075592 -0.8368509411811829 0.17204278707504272
vn -0.7157062292098999 -0.6940916180610657 0.07746816426515579
vn -0.7157062292098999 -0.6940916180610657 0.07746816426515579
vn -0.7157062888145447 -0.6940916180610657 0.07746816426515579
vn 0.9074742794036865 0.23518948256969452 0.34810376167297363
vn 0.9074742794036865 0.23518948256969452 0.34810376167297363
vn 0.9074742794036865 0.23518948256969452 0.348103791475296
vn -0.8080672025680542 -0.5225014090538025 0.2720656096935272
vn -0.8080672025680542 -0.5225014090538025 0.2720656096935272
vn -0.8080672025680542 -0.5225013494491577 0.2720656096935272
vn -0.4995250105857849 -0.8043734431266785 0.32164907455444336
vn -0.49952495098114014 -0.8043734431266785 0.32164904475212097
vn -0.4995250701904297 -0.8043734431266785 0.32164907455444336
vn 0.7334276437759399 -0.5318558812141418 0.4233357310295105
vn 0.7334276437759399 -0.5318559408187866 0.4233357906341553
vn 0.7334276437759399 -0.5318559408187866 0.4233357310295105
vn 0.7448762059211731 -0.519291341304779 0.4189223051071167
vn 0.7886006236076355 -0.5497739315032959 0.2754228115081787
vn 0.7886006832122803 -0.5497738718986511 0.2754228115081787
vn 0.7886006236076355 -0.5497739315032959 0.2754228115081787
vn 0.8593260049819946 -0.45404574275016785 0.23537461459636688
vn 0.8593260049819946 -0.45404574275016785 0.23537461459636688
vn 0.8593260049819946 -0.45404574275016785 0.2353745996952057
vn 0.03445567563176155 -0.9407227039337158 0.33742207288742065
vn 0.03445567563176155 -0.940722644329071 0.33742207288742065
vn 0.03445567935705185 -0.9407227039337158 0.33742207288742065
vn 0.837909996509552 -0.4427301287651062 0.3192128837108612
vn 0.837909996509552 -0.4427300691604614 0.3192128539085388
vn 0.837909996509552 -0.4427301287651062 0.3192128837108612
vn 0.4309382438659668 -0.8066796660423279 0.4044255316257477
vn 0.4309382438659668 -0.8066796660423279 0.40442562103271484
vn 0.4309383034706116 -0.8066796660423279 0.40442562103271484
vn 0.46239349246025085 -0.8655611276626587 0.19234435260295868
vn 0.4623934328556061 -0.8655611276626587 0.19234435260295868
vn 0.46239349246025085 -0.8655611276626587 0.19234438240528107
vn 0.46846041083335876 -0.8627362251281738 0.19034425914287567
vn 0.44160449504852295 -0.8132773637771606 0.3789001703262329
vn 0.4416045546531677 -0.8132773637771606 0.3789001703262329
vn 0.44160449504852295 -0.8132773637771606 0.3789001703262329
vn 0.46484026312828064 -0.8051265478134155 0.3683677315711975
vn -0.6078140139579773 0.7058576941490173 0.3637676239013672
vn -0.6078140735626221 0.7058576941490173 0.3637676537036896
vn -0.6078140139579773 0.7058577537536621 0.3637676239013672
vn -0.5394608974456787 0.7426870465278625 0.3967340588569641
vn -0.5394607782363892 0.7426870465278625 0.3967340588569641
vn -0.5394607782363892 0.7426870465278625 0.3967340886592865
vn -0.5806654095649719 0.7994141578674316 0.15415814518928528
vn -0.5806654095649719 0.7994141578674316 0.15415814518928528
vn -0.5806652903556824 0.7994141578674316 0.15415813028812408
vn -0.505627453327179 0.8414180278778076 0.19067412614822388
vn -0.505627453327179 0.8414180278778076 0.19067412614822388
vn -0.505627453327179 0.8414180278778076 0.19067412614822388
vn 0.031207958236336708 0.9516428709030151 0.3056173324584961
vn 0.031207958236336708 0.9516428709030151 0.3056173622608185
vn 0.031207958236336708 0.9516428709030151 0.3056173324584961
vn -0.4785575568675995 0.7963709235191345 0.3698325753211975
vn -0.4785575270652771 0.796370804309845 0.36983251571655273
vn -0.4785575568675995 0.7963709235191345 0.3698325455188751
vn 0.17267978191375732 0.8894093036651611 0.42324087023735046
vn 0.1726798117160797 0.8894093036651611 0.42324090003967285
vn 0.17267979681491852 0.8894093036651611 0.42324087023735046
vn 0.2462259829044342 0.94248366355896 0.22604697942733765
vn 0.2462259829044342 0.94248366355896 0.22604697942733765
vn 0.24622595310211182 0.94248366355896 0.22604696452617645
vn 0.2441839575767517 0.9346674680709839 0.25840070843696594
vn 0.1849105805158615 0.9524053335189819 0.24234738945960999
vn 0.18491056561470032 0.9524053335189819 0.24234738945960999
vn 0.18491056561470032 0.9524053335189819 0.24234741926193237
vn 0.43540486693382263 0.8191248178482056 0.37343961000442505
vn 0.43540486693382263 0.8191248178482056 0.37343961000442505
vn 0.43540486693382263 0.8191248178482056 0.37343961000442505
vn -0.8271556496620178 0.4936169385910034 0.26861831545829773
vn -0.8271556496620178 0.4936169981956482 0.2686183452606201
vn -0.8271556496620178 0.4936169385910034 0.26861831545829773
vn -0.8938336968421936 0.43764689564704895 0.09760359674692154
vn -0.8938336968421936 0.43764686584472656 0.09760359674692154
vn -0.8938336968421936 0.43764689564704895 0.09760359674692154
vn -0.8564349412918091 0.5110897421836853 0.07284526526927948
vn -0.8564349412918091 0.5110897421836853 0.07284525036811829
vn -0.8564349412918091 0.5110897421836853 0.07284524291753769
vn -0.9046766757965088 0.2759222686290741 0.3246953785419464
vn -0.9046766757965088 0.2759222090244293 0.3246953785419464
vn -0.9046766757965088 0.2759222388267517 0.3246953785419464
vn -0.8622609376907349 0.4221879839897156 0.2797560393810272
vn -0.8622609376907349 0.4221879839897156 0.2797560393810272
vn -0.8622609376907349 0.4221879243850708 0.2797560393810272
vt 0.6481108069419861 0.9258601889014244
vt 0.49993136525154114 0.5652858316898346
vt 0.5924096703529358 0.5424391031265259
vt 0.49993136525154114 0.5652858316898346
vt 0.6481108069419861 0.9258601889014244
vt 0.49993136525154114 0.9819001629948616
vt 0.0920369103550911 0.6581935882568359
vt 0.23148374259471893 0.3395649790763855
vt 0.2812337875366211 0.4082759618759155
vt 0.23148374259471893 0.3395649790763855
vt 0.0920369103550911 0.6581935882568359
vt 0.010377207770943642 0.526280403137207
vt 0.19851231575012207 0.8318026214838028
vt 0.2812337875366211 0.4082759618759155
vt 0.3328157663345337 0.48006439208984375
vt 0.0920369103550911 0.6581935882568359
vt 0.5924096703529358 0.5424391031265259
vt 0.49993136525154114 0.3016878366470337
vt 0.5709854960441589 0.2931772470474243
vt 0.49993136525154114 0.3016878366470337
vt 0.5924096703529358 0.5424391031265259
vt 0.49993136525154114 0.5652858316898346
vt 0.2812337875366211 0.4082759618759155
vt 0.3470715284347534 0.1569070816040039
vt 0.3887401521205902 0.22863554954528809
vt 0.3470715284347534 0.1569070816040039
vt 0.2812337875366211 0.4082759618759155
vt 0.23148374259471893 0.3395649790763855
vt 0.3328157663345337 0.48006439208984375
vt 0.3887401521205902 0.22863554954528809
vt 0.413337767124176 0.26509010791778564
vt 0.3887401521205902 0.22863554954528809
vt 0.3328157663345337 0.48006439208984375
vt 0.2812337875366211 0.4082759618759155
vt 0.49993136525154114 0.3016878366470337
vt 0.49993136525154114 0.037377238273620605
vt 0.5709854960441589 0.2931772470474243
vt 0.3470715284347534 0.1569070816040039
vt 0.4929107129573822 0.02114999294281006
vt 0.3887401521205902 0.22863554954528809
vt 0.3887401521205902 0.22863554954528809
vt 0.4929107129573822 0.02114999294281006
vt 0.413337767124176 0.26509010791778564
vt 0.357938289642334 0.9237575083971024
vt 0.49993136525154114 0.5652858316898346
vt 0.49993136525154114 0.9819001629948616
vt 0.41439756751060486 0.5297321975231171
vt 0.41439756751060486 0.5297321975231171
vt 0.49993136525154114 0.3016878366470337
vt 0.49993136525154114 0.5652858316898346
vt 0.49993136525154114 0.3016878366470337
vt 0.41439756751060486 0.5297321975231171
vt 0.4392743408679962 0.2805931568145752
vt 0.49993136525154114 0.037377238273620605
vt 0.4392743408679962 0.2805931568145752
vt 0.4929107129573822 0.02114999294281006
vt 0.4392743408679962 0.2805931568145752
vt 0.49993136525154114 0.037377238273620605
vt 0.49993136525154114 0.3016878366470337
vt 0.4929107129573822 0.02114999294281006
vt 0.4392743408679962 0.2805931568145752
vt 0.413337767124176 0.26509010791778564
vt 0.4392743408679962 0.2805931568145752
vt 0.3328157663345337 0.48006439208984375
vt 0.413337767124176 0.26509010791778564
vt 0.41439756751060486 0.5297321975231171
vt 0.41439756751060486 0.5297321975231171
vt 0.19851231575012207 0.8318026214838028
vt 0.3328157663345337 0.48006439208984375
vt 0.357938289642334 0.9237575083971024
vt 0.8260483145713806 0.836040198802948
vt 0.7305589318275452 0.42076575756073
vt 0.9130285382270813 0.7020264267921448
vt 0.7305589318275452 0.42076575756073
vt 0.8260483145713806 0.836040198802948
vt 0.6760484576225281 0.49305832386016846
vt 0.6760484576225281 0.49305832386016846
vt 0.6276023983955383 0.2292020320892334
vt 0.7305589318275452 0.42076575756073
vt 0.6276023983955383 0.2292020320892334
vt 0.6760484576225281 0.49305832386016846
vt 0.6004332900047302 0.2704569101333618
vt 0.6276023983955383 0.2292020320892334
vt 0.49993136525154114 0.037377238273620605
vt 0.5223481059074402 0.02114999294281006
vt 0.49993136525154114 0.037377238273620605
vt 0.6276023983955383 0.2292020320892334
vt 0.6004332900047302 0.2704569101333618
vt 0.49993136525154114 0.037377238273620605
vt 0.6004332900047302 0.2704569101333618
vt 0.5709854960441589 0.2931772470474243
vt 0.5709854960441589 0.2931772470474243
vt 0.6760484576225281 0.49305832386016846
vt 0.5924096703529358 0.5424391031265259
vt 0.6481108069419861 0.9258601889014244
vt 0.6760484576225281 0.49305832386016846
vt 0.5709854960441589 0.2931772470474243
vt 0.6004332900047302 0.2704569101333618
vt 0.6481108069419861 0.9258601889014244
vt 0.6760484576225281 0.49305832386016846
vt 0.8260483145713806 0.836040198802948
vt 0.5223481059074402 0.02114999294281006
vt 0.6728984713554382 0.1569070816040039
vt 0.6276023983955383 0.2292020320892334
vt 0.6276023983955383 0.2292020320892334
vt 0.7755852341651917 0.3395649790763855
vt 0.7305589318275452 0.42076575756073
vt 0.7755852341651917 0.3395649790763855
vt 0.6276023983955383 0.2292020320892334
vt 0.6728984713554382 0.1569070816040039
vt 0.7305589318275452 0.42076575756073
vt 0.9746147990226746 0.526280403137207
vt 0.9130285382270813 0.7020264267921448
vt 0.9746147990226746 0.526280403137207
vt 0.7305589318275452 0.42076575756073
vt 0.7755852341651917 0.3395649790763855

g bg_mdl_map_tuti_cristal02
s 1
usemtl bg_mdl_map_tuti_cristal02
f 3/3/3 2/2/2 1/1/1 
f 6/6/6 5/5/5 4/4/4 
f 9/9/9 8/8/8 7/7/7 
f 12/12/12 11/11/11 10/10/10 
f 15/15/15 14/14/14 13/13/13 
f 16/16/16 13/13/13 14/14/14 
f 19/19/19 18/18/18 17/17/17 
f 22/22/22 21/21/21 20/20/20 
f 25/25/25 24/24/24 23/23/23 
f 28/28/28 27/27/27 26/26/26 
f 31/31/31 30/30/30 29/29/29 
f 34/34/34 33/33/33 32/32/32 
f 37/37/37 36/36/36 35/35/35 
f 40/40/40 39/39/39 38/38/38 
f 43/43/43 42/42/42 41/41/41 
f 46/46/46 45/45/45 44/44/44 
f 47/47/47 44/44/44 45/45/45 
f 50/50/50 49/49/49 48/48/48 
f 53/53/53 52/52/52 51/51/51 
f 56/56/56 55/55/55 54/54/54 
f 59/59/59 58/58/58 57/57/57 
f 62/62/62 61/61/61 60/60/60 
f 65/65/65 64/64/64 63/63/63 
f 66/66/66 63/63/63 64/64/64 
f 69/69/69 68/68/68 67/67/67 
f 70/70/70 67/67/67 68/68/68 
f 73/73/73 72/72/72 71/71/71 
f 76/76/76 75/75/75 74/74/74 
f 79/79/79 78/78/78 77/77/77 
f 82/82/82 81/81/81 80/80/80 
f 85/85/85 84/84/84 83/83/83 
f 88/88/88 87/87/87 86/86/86 
f 91/91/91 90/90/90 89/89/89 
f 94/94/94 93/93/93 92/92/92 
f 94/94/94 95/95/95 93/93/93 
f 98/98/98 97/97/97 96/96/96 
f 101/101/101 100/100/100 99/99/99 
f 104/104/104 103/103/103 102/102/102 
f 107/107/107 106/106/106 105/105/105 
f 110/110/110 109/109/109 108/108/108 
f 113/113/113 112/112/112 111/111/111 
f 116/116/116 115/115/115 114/114/114 

