v -0.629472017288208 -5.7220457705398076e-08 0.0
v -0.4602104127407074 -0.1840842217206955 0.0
v -0.5833203196525574 -0.23332816362380981 0.0
v -0.49662184715270996 -4.880043036337156e-08 0.0
v -0.43749022483825684 -0.43749022483825684 0.0
v -0.34515783190727234 -0.3451578915119171 0.0
v -0.25282543897628784 -0.252825528383255 0.0
v -0.3371005952358246 -0.13484027981758118 0.0
v -0.3637717068195343 -4.0531158873591266e-08 0.0
v -0.18408416211605072 -0.4602104723453522 0.0
v -0.1348402351140976 -0.33710068464279175 0.0
v 1.19209286886246e-09 -0.3637717068195343 0.0
v 3.1163716052162727e-09 -0.49662187695503235 0.0
v 4.76837147544984e-09 -0.629472017288208 0.0
v -0.23332810401916504 -0.5833203196525574 0.0
v -0.08559630811214447 -0.21399083733558655 0.0
v -0.16049309074878693 -0.1604931354522705 0.0
v -0.06686682254076004 -0.06686687469482422 0.0
v -0.03566230833530426 -0.08915582299232483 0.0
v -0.0 -0.09807140380144119 0.0
v 7.321859785136553e-10 -0.23092155158519745 0.0
v -0.21399077773094177 -0.08559635281562805 0.0
v -0.23092150688171387 -3.6581475626462634e-08 0.0
v -0.09807134419679642 -3.7550925924279e-08 0.0
v -0.08915577083826065 -0.03566235303878784 0.0
v 0.18408416211605072 -0.4602104425430298 0.0
v 0.23332810401916504 -0.5833203196525574 0.0
v 0.43749019503593445 -0.43749022483825684 0.0
v 0.34515783190727234 -0.34515783190727234 0.0
v 0.25282546877861023 -0.25282546877861023 0.0
v 0.1348402351140976 -0.3371005952358246 0.0
v 0.4602104127407074 -0.18408417701721191 0.0
v 0.3371005952358246 -0.1348402500152588 0.0
v 0.3637717068195343 -1.3113021779531664e-08 0.0
v 0.4966218173503876 -7.255473555289882e-09 0.0
v 0.6294719576835632 0.0 0.0
v 0.5833202004432678 -0.23332810401916504 0.0
v 0.21399077773094177 -0.08559633046388626 0.0
v 0.16049309074878693 -0.16049310564994812 0.0
v 0.06686682254076004 -0.06686687469482422 0.0
v 0.08915577083826065 -0.035662341862916946 0.0
v 0.09807134419679642 -2.562999590338677e-08 0.0
v 0.23092149198055267 -1.8282332092667275e-08 0.0
v 0.08559630811214447 -0.21399082243442535 0.0
v 0.03566230833530426 -0.08915582299232483 0.0
vn -0.0 0.0 1.0
vn -0.0 0.0 1.0
vn -0.0 0.0 1.0
vn -0.0 0.0 1.0
vn -0.0 0.0 1.0
vn -0.0 0.0 1.0
vn -0.0 0.0 1.0
vn -0.0 0.0 1.0
vn -0.0 0.0 1.0
vn -0.0 0.0 1.0
vn -0.0 0.0 1.0
vn -0.0 0.0 1.0
vn -0.0 0.0 1.0
vn -0.0 0.0 1.0
vn -0.0 0.0 1.0
vn -0.0 0.0 1.0
vn -0.0 0.0 1.0
vn -0.0 0.0 1.0
vn -0.0 0.0 1.0
vn -0.0 0.0 1.0
vn -0.0 0.0 1.0
vn -0.0 0.0 1.0
vn -0.0 0.0 1.0
vn -0.0 0.0 1.0
vn -0.0 0.0 1.0
vn -0.0 0.0 1.0
vn -0.0 0.0 1.0
vn -0.0 0.0 1.0
vn -0.0 0.0 1.0
vn -0.0 0.0 1.0
vn -0.0 0.0 1.0
vn -0.0 0.0 1.0
vn -0.0 0.0 1.0
vn -0.0 0.0 1.0
vn -0.0 0.0 1.0
vn -0.0 0.0 1.0
vn -0.0 0.0 1.0
vn -0.0 0.0 1.0
vn -0.0 0.0 1.0
vn -0.0 0.0 1.0
vn -0.0 0.0 1.0
vn -0.0 0.0 1.0
vn -0.0 0.0 1.0
vn -0.0 0.0 1.0
vn -0.0 0.0 1.0
vt 0.0058991312980651855 1.0
vt 0.12938565015792847 0.5959334075450897
vt 0.12938565015792847 1.0
vt 0.0058991312980651855 0.5959334075450897
vt 0.25287240743637085 1.0
vt 0.25287240743637085 0.5959334075450897
vt 0.25287240743637085 0.29397153854370117
vt 0.12938565015792847 0.29397153854370117
vt 0.0058991312980651855 0.29397153854370117
vt 0.37635892629623413 0.5959334075450897
vt 0.37635892629623413 0.29397153854370117
vt 0.49984556436538696 0.29397153854370117
vt 0.49984556436538696 0.5959334075450897
vt 0.49984556436538696 1.0
vt 0.37635892629623413 1.0
vt 0.37635892629623413 0.1461721658706665
vt 0.25287240743637085 0.1461721658706665
vt 0.25287240743637085 0.0
vt 0.37635892629623413 0.0
vt 0.49984556436538696 0.0
vt 0.49984556436538696 0.1461721658706665
vt 0.12938565015792847 0.1461721658706665
vt 0.0058991312980651855 0.1461721658706665
vt 0.0058991312980651855 0.0
vt 0.12938565015792847 0.0
vt 0.6233320832252502 0.5959334075450897
vt 0.6233320832252502 1.0
vt 0.7468187212944031 1.0
vt 0.7468187212944031 0.5959334075450897
vt 0.7468187212944031 0.29397153854370117
vt 0.6233320832252502 0.29397153854370117
vt 0.8703052401542664 0.5959334075450897
vt 0.8703052401542664 0.29397153854370117
vt 0.9937918782234192 0.29397153854370117
vt 0.9937918782234192 0.5959334075450897
vt 0.9937918782234192 1.0
vt 0.8703052401542664 1.0
vt 0.8703052401542664 0.1461721658706665
vt 0.7468187212944031 0.1461721658706665
vt 0.7468187212944031 0.0
vt 0.8703052401542664 0.0
vt 0.9937918782234192 0.0
vt 0.9937918782234192 0.1461721658706665
vt 0.6233320832252502 0.1461721658706665
vt 0.6233320832252502 0.0

g eff_mdl_ripple01
s 1
usemtl eff_mdl_ripple01
f 3/3/3 2/2/2 1/1/1 
f 4/4/4 1/1/1 2/2/2 
f 3/3/3 5/5/5 2/2/2 
f 6/6/6 2/2/2 5/5/5 
f 6/6/6 7/7/7 2/2/2 
f 8/8/8 2/2/2 7/7/7 
f 4/4/4 2/2/2 9/9/9 
f 8/8/8 9/9/9 2/2/2 
f 6/6/6 10/10/10 7/7/7 
f 6/6/6 5/5/5 10/10/10 
f 11/11/11 7/7/7 10/10/10 
f 11/11/11 10/10/10 12/12/12 
f 13/13/13 12/12/12 10/10/10 
f 13/13/13 10/10/10 14/14/14 
f 15/15/15 14/14/14 10/10/10 
f 15/15/15 10/10/10 5/5/5 
f 11/11/11 16/16/16 7/7/7 
f 11/11/11 12/12/12 16/16/16 
f 17/17/17 7/7/7 16/16/16 
f 17/17/17 16/16/16 18/18/18 
f 19/19/19 18/18/18 16/16/16 
f 19/19/19 16/16/16 20/20/20 
f 21/21/21 20/20/20 16/16/16 
f 21/21/21 16/16/16 12/12/12 
f 8/8/8 22/22/22 9/9/9 
f 17/17/17 22/22/22 7/7/7 
f 8/8/8 7/7/7 22/22/22 
f 17/17/17 18/18/18 22/22/22 
f 23/23/23 9/9/9 22/22/22 
f 23/23/23 22/22/22 24/24/24 
f 25/25/25 24/24/24 22/22/22 
f 25/25/25 22/22/22 18/18/18 
f 13/13/13 14/14/14 26/26/26 
f 13/13/13 26/26/26 12/12/12 
f 27/27/27 26/26/26 14/14/14 
f 27/27/27 28/28/28 26/26/26 
f 29/29/29 26/26/26 28/28/28 
f 29/29/29 30/30/30 26/26/26 
f 31/31/31 26/26/26 30/30/30 
f 31/31/31 12/12/12 26/26/26 
f 29/29/29 32/32/32 30/30/30 
f 29/29/29 28/28/28 32/32/32 
f 33/33/33 30/30/30 32/32/32 
f 33/33/33 32/32/32 34/34/34 
f 35/35/35 34/34/34 32/32/32 
f 35/35/35 32/32/32 36/36/36 
f 37/37/37 36/36/36 32/32/32 
f 37/37/37 32/32/32 28/28/28 
f 33/33/33 38/38/38 30/30/30 
f 33/33/33 34/34/34 38/38/38 
f 39/39/39 30/30/30 38/38/38 
f 39/39/39 38/38/38 40/40/40 
f 41/41/41 40/40/40 38/38/38 
f 41/41/41 38/38/38 42/42/42 
f 43/43/43 42/42/42 38/38/38 
f 43/43/43 38/38/38 34/34/34 
f 31/31/31 44/44/44 12/12/12 
f 39/39/39 44/44/44 30/30/30 
f 31/31/31 30/30/30 44/44/44 
f 39/39/39 40/40/40 44/44/44 
f 21/21/21 12/12/12 44/44/44 
f 21/21/21 44/44/44 20/20/20 
f 45/45/45 20/20/20 44/44/44 
f 45/45/45 44/44/44 40/40/40 

