v 0.09123338758945465 0.030337611213326454 0.0
v -0.09123338758945465 -0.030337611213326454 0.0
v 0.09123338758945465 -0.030337611213326454 0.0
v -0.09123338758945465 0.030337611213326454 0.0
v 0.09123338758945465 0.030337611213326454 0.23916354775428772
v -0.09123338758945465 -0.030337611213326454 0.23916354775428772
v -0.09123338758945465 0.030337611213326454 0.23916354775428772
v 0.09123338758945465 -0.030337611213326454 0.23916354775428772
v 0.09123338758945465 -0.030337611213326454 0.23916354775428772
v -0.09123338758945465 -0.030337611213326454 0.0
v -0.09123338758945465 -0.030337611213326454 0.23916354775428772
v 0.09123338758945465 -0.030337611213326454 0.0
v 0.09123338758945465 0.030337611213326454 0.23916354775428772
v 0.09123338758945465 -0.030337611213326454 0.0
v 0.09123338758945465 -0.030337611213326454 0.23916354775428772
v 0.09123338758945465 0.030337611213326454 0.0
v -0.09123338758945465 0.030337611213326454 0.23916354775428772
v 0.09123338758945465 0.030337611213326454 0.0
v 0.09123338758945465 0.030337611213326454 0.23916354775428772
v -0.09123338758945465 0.030337611213326454 0.0
v -0.09123338758945465 -0.030337611213326454 0.23916354775428772
v -0.09123338758945465 0.030337611213326454 0.0
v -0.09123338758945465 0.030337611213326454 0.23916354775428772
v -0.09123338758945465 -0.030337611213326454 0.0
v 0.09123353660106659 0.09434060007333755 0.0
v -0.09123323112726212 0.03366537764668465 0.0
v 0.09123353660106659 0.03366537764668465 0.0
v -0.09123323112726212 0.09434060007333755 0.0
v 0.09123353660106659 0.09434060007333755 0.23916354775428772
v -0.09123323112726212 0.03366537764668465 0.23916354775428772
v -0.09123323112726212 0.09434060007333755 0.23916354775428772
v 0.09123353660106659 0.03366537764668465 0.23916354775428772
v 0.09123353660106659 0.03366537764668465 0.23916354775428772
v -0.09123323112726212 0.03366537764668465 0.0
v -0.09123323112726212 0.03366537764668465 0.23916354775428772
v 0.09123353660106659 0.03366537764668465 0.0
v 0.09123353660106659 0.09434060007333755 0.23916354775428772
v 0.09123353660106659 0.03366537764668465 0.0
v 0.09123353660106659 0.03366537764668465 0.23916354775428772
v 0.09123353660106659 0.09434060007333755 0.0
v -0.09123323112726212 0.09434060007333755 0.23916354775428772
v 0.09123353660106659 0.09434060007333755 0.0
v 0.09123353660106659 0.09434060007333755 0.23916354775428772
v -0.09123323112726212 0.09434060007333755 0.0
v -0.09123323112726212 0.03366537764668465 0.23916354775428772
v -0.09123323112726212 0.09434060007333755 0.0
v -0.09123323112726212 0.09434060007333755 0.23916354775428772
v -0.09123323112726212 0.03366537764668465 0.0
v 0.07124437391757965 0.20330418646335602 0.012690633535385132
v -0.0712437629699707 0.16412073373794556 -0.003006337909027934
v 0.07124437391757965 0.16412073373794556 -0.003006337909027934
v -0.0712437629699707 0.20330418646335602 0.012690633535385132
v 0.07124438136816025 0.13385237753391266 0.1860593557357788
v -0.0712437629699707 0.094668909907341 0.17036236822605133
v -0.0712437629699707 0.13385237753391266 0.1860593557357788
v 0.07124438136816025 0.094668909907341 0.17036236822605133
v 0.07124438136816025 0.094668909907341 0.17036236822605133
v -0.0712437629699707 0.16412073373794556 -0.003006337909027934
v -0.0712437629699707 0.094668909907341 0.17036236822605133
v 0.07124437391757965 0.16412073373794556 -0.003006337909027934
v 0.07124438136816025 0.13385237753391266 0.1860593557357788
v 0.07124437391757965 0.16412073373794556 -0.003006337909027934
v 0.07124438136816025 0.094668909907341 0.17036236822605133
v 0.07124437391757965 0.20330418646335602 0.012690633535385132
v -0.0712437629699707 0.13385237753391266 0.1860593557357788
v 0.07124437391757965 0.20330418646335602 0.012690633535385132
v 0.07124438136816025 0.13385237753391266 0.1860593557357788
v -0.0712437629699707 0.20330418646335602 0.012690633535385132
v -0.0712437629699707 0.094668909907341 0.17036236822605133
v -0.0712437629699707 0.20330418646335602 0.012690633535385132
v -0.0712437629699707 0.13385237753391266 0.1860593557357788
v -0.0712437629699707 0.16412073373794556 -0.003006337909027934
v 0.09123353660106659 0.48911911249160767 0.119756780564785
v -0.09123323112726212 0.48911911249160767 0.059081561863422394
v 0.09123353660106659 0.48911911249160767 0.059081558138132095
v -0.09123323112726212 0.48911911249160767 0.1197567880153656
v 0.09123353660106659 0.24995554983615875 0.11975673586130142
v -0.09123323112726212 0.24995554983615875 0.059081509709358215
v -0.09123323112726212 0.24995554983615875 0.11975673586130142
v 0.09123353660106659 0.24995554983615875 0.05908150598406792
v 0.09123353660106659 0.24995554983615875 0.05908150598406792
v -0.09123323112726212 0.48911911249160767 0.059081561863422394
v -0.09123323112726212 0.24995554983615875 0.059081509709358215
v 0.09123353660106659 0.48911911249160767 0.059081558138132095
v 0.09123353660106659 0.24995554983615875 0.11975673586130142
v 0.09123353660106659 0.48911911249160767 0.059081558138132095
v 0.09123353660106659 0.24995554983615875 0.05908150598406792
v 0.09123353660106659 0.48911911249160767 0.119756780564785
v -0.09123323112726212 0.24995554983615875 0.11975673586130142
v 0.09123353660106659 0.48911911249160767 0.119756780564785
v 0.09123353660106659 0.24995554983615875 0.11975673586130142
v -0.09123323112726212 0.48911911249160767 0.1197567880153656
v -0.09123323112726212 0.24995554983615875 0.059081509709358215
v -0.09123323112726212 0.48911911249160767 0.1197567880153656
v -0.09123323112726212 0.24995554983615875 0.11975673586130142
v -0.09123323112726212 0.48911911249160767 0.059081561863422394
v 0.09123369306325912 0.47160735726356506 0.05695034936070442
v -0.09123308211565018 0.47160735726356506 -0.003724870504811406
v 0.09123369306325912 0.47160735726356506 -0.003724875394254923
v -0.09123308211565018 0.47160735726356506 0.05695035308599472
v 0.09123369306325912 0.23244380950927734 0.056950297206640244
v -0.09123308211565018 0.23244380950927734 -0.003724923124536872
v -0.09123308211565018 0.23244380950927734 0.05695030093193054
v 0.09123369306325912 0.23244380950927734 -0.003724927781149745
v 0.09123369306325912 0.23244380950927734 -0.003724927781149745
v -0.09123308211565018 0.47160735726356506 -0.003724870504811406
v -0.09123308211565018 0.23244380950927734 -0.003724923124536872
v 0.09123369306325912 0.47160735726356506 -0.003724875394254923
v 0.09123369306325912 0.23244380950927734 0.056950297206640244
v 0.09123369306325912 0.47160735726356506 -0.003724875394254923
v 0.09123369306325912 0.23244380950927734 -0.003724927781149745
v 0.09123369306325912 0.47160735726356506 0.05695034936070442
v -0.09123308211565018 0.23244380950927734 0.05695030093193054
v 0.09123369306325912 0.47160735726356506 0.05695034936070442
v 0.09123369306325912 0.23244380950927734 0.056950297206640244
v -0.09123308211565018 0.47160735726356506 0.05695035308599472
v -0.09123308211565018 0.23244380950927734 -0.003724923124536872
v -0.09123308211565018 0.47160735726356506 0.05695035308599472
v -0.09123308211565018 0.23244380950927734 0.05695030093193054
v -0.09123308211565018 0.47160735726356506 -0.003724870504811406
v 0.07220236957073212 3.180825710296631 0.11057303845882416
v -0.11034873127937317 3.1341028213500977 0.11057303845882416
v 0.07211718708276749 3.1342501640319824 0.11057303845882416
v -0.11026354879140854 3.180678367614746 0.11057303845882416
v 0.07220236957073212 3.180825710296631 0.34973660111427307
v -0.11034873127937317 3.1341028213500977 0.34973660111427307
v -0.11026354879140854 3.180678367614746 0.34973660111427307
v 0.07211718708276749 3.1342501640319824 0.34973660111427307
v 0.07211718708276749 3.1342501640319824 0.34973660111427307
v -0.11034873127937317 3.1341028213500977 0.11057303845882416
v -0.11034873127937317 3.1341028213500977 0.34973660111427307
v 0.07211718708276749 3.1342501640319824 0.11057303845882416
v 0.07220236957073212 3.180825710296631 0.34973660111427307
v 0.07211718708276749 3.1342501640319824 0.11057303845882416
v 0.07211718708276749 3.1342501640319824 0.34973660111427307
v 0.07220236957073212 3.180825710296631 0.11057303845882416
v -0.11026354879140854 3.180678367614746 0.34973660111427307
v 0.07220236957073212 3.180825710296631 0.11057303845882416
v 0.07220236957073212 3.180825710296631 0.34973660111427307
v -0.11026354879140854 3.180678367614746 0.11057303845882416
v -0.11034873127937317 3.1341028213500977 0.34973660111427307
v -0.11026354879140854 3.180678367614746 0.11057303845882416
v -0.11026354879140854 3.180678367614746 0.34973660111427307
v -0.11034873127937317 3.1341028213500977 0.11057303845882416
v 0.07229223847389221 3.2299556732177734 0.11057303845882416
v -0.11025885492563248 3.183232545852661 0.11057303845882416
v 0.07220705598592758 3.183380126953125 0.11057303845882416
v -0.11017367243766785 3.2298083305358887 0.11057303845882416
v 0.07229223847389221 3.2299556732177734 0.34973660111427307
v -0.11025885492563248 3.183232545852661 0.34973660111427307
v -0.11017367243766785 3.2298083305358887 0.34973660111427307
v 0.07220705598592758 3.183380126953125 0.34973660111427307
v 0.07220705598592758 3.183380126953125 0.34973660111427307
v -0.11025885492563248 3.183232545852661 0.11057303845882416
v -0.11025885492563248 3.183232545852661 0.34973660111427307
v 0.07220705598592758 3.183380126953125 0.11057303845882416
v 0.07229223847389221 3.2299556732177734 0.34973660111427307
v 0.07220705598592758 3.183380126953125 0.11057303845882416
v 0.07220705598592758 3.183380126953125 0.34973660111427307
v 0.07229223847389221 3.2299556732177734 0.11057303845882416
v -0.11017367243766785 3.2298083305358887 0.34973660111427307
v 0.07229223847389221 3.2299556732177734 0.11057303845882416
v 0.07229223847389221 3.2299556732177734 0.34973660111427307
v -0.11017367243766785 3.2298083305358887 0.11057303845882416
v -0.11025885492563248 3.183232545852661 0.34973660111427307
v -0.11017367243766785 3.2298083305358887 0.11057303845882416
v -0.11017367243766785 3.2298083305358887 0.34973660111427307
v -0.11025885492563248 3.183232545852661 0.11057303845882416
v 0.10547084361314774 3.329108715057373 0.16419392824172974
v 0.011702918447554111 3.447883129119873 0.11148995906114578
v 0.10541681945323944 3.329177141189575 0.11185555905103683
v 0.011756944470107555 3.44781494140625 0.16382832825183868
v -0.09973880648612976 3.2359750270843506 0.16419482231140137
v -0.19350673258304596 3.3547489643096924 0.11149086058139801
v -0.19345271587371826 3.3546810150146484 0.16382922232151031
v -0.09979283064603806 3.2360429763793945 0.11185646057128906
v -0.09979283064603806 3.2360429763793945 0.11185646057128906
v 0.011702918447554111 3.447883129119873 0.11148995906114578
v -0.19350673258304596 3.3547489643096924 0.11149086058139801
v 0.10541681945323944 3.329177141189575 0.11185555905103683
v -0.09973880648612976 3.2359750270843506 0.16419482231140137
v 0.10541681945323944 3.329177141189575 0.11185555905103683
v -0.09979283064603806 3.2360429763793945 0.11185646057128906
v 0.10547084361314774 3.329108715057373 0.16419392824172974
v -0.19345271587371826 3.3546810150146484 0.16382922232151031
v 0.10547084361314774 3.329108715057373 0.16419392824172974
v -0.09973880648612976 3.2359750270843506 0.16419482231140137
v 0.011756944470107555 3.44781494140625 0.16382832825183868
v -0.19350673258304596 3.3547489643096924 0.11149086058139801
v 0.011756944470107555 3.44781494140625 0.16382832825183868
v -0.19345271587371826 3.3546810150146484 0.16382922232151031
v 0.011702918447554111 3.447883129119873 0.11148995906114578
v -0.12440332770347595 3.4737355709075928 0.17126153409481049
v -0.11243168264627457 3.6118416786193848 0.23291493952274323
v -0.12439841777086258 3.47379207611084 0.2326899617910385
v -0.11243660002946854 3.6117851734161377 0.1714865118265152
v 0.11424529552459717 3.4618427753448486 0.1712615191936493
v 0.12621696293354034 3.599949359893799 0.23291493952274323
v 0.12621204555034637 3.5998926162719727 0.1714865118265152
v 0.11425022035837173 3.4618992805480957 0.23268994688987732
v 0.11425022035837173 3.4618992805480957 0.23268994688987732
v -0.11243168264627457 3.6118416786193848 0.23291493952274323
v 0.12621696293354034 3.599949359893799 0.23291493952274323
v -0.12439841777086258 3.47379207611084 0.2326899617910385
v 0.11424529552459717 3.4618427753448486 0.1712615191936493
v -0.12439841777086258 3.47379207611084 0.2326899617910385
v 0.11425022035837173 3.4618992805480957 0.23268994688987732
v -0.12440332770347595 3.4737355709075928 0.17126153409481049
v 0.12621204555034637 3.5998926162719727 0.1714865118265152
v -0.12440332770347595 3.4737355709075928 0.17126153409481049
v 0.11424529552459717 3.4618427753448486 0.1712615191936493
v -0.11243660002946854 3.6117851734161377 0.1714865118265152
v 0.12621696293354034 3.599949359893799 0.23291493952274323
v -0.11243660002946854 3.6117851734161377 0.1714865118265152
v 0.12621204555034637 3.5998926162719727 0.1714865118265152
v -0.11243168264627457 3.6118416786193848 0.23291493952274323
v -0.16001155972480774 3.476602792739868 0.1109704002737999
v -0.11933383345603943 3.6115269660949707 0.17262379825115204
v -0.15999487042427063 3.476658344268799 0.17239883542060852
v -0.11935051530599594 3.61147141456604 0.11119537055492401
v 0.07313811779022217 3.4361934661865234 0.11097036302089691
v 0.11381583660840988 3.571117401123047 0.17262376844882965
v 0.11379916965961456 3.5710623264312744 0.11119533330202103
v 0.07315479218959808 3.436248779296875 0.17239879071712494
v 0.07315479218959808 3.436248779296875 0.17239879071712494
v -0.11933383345603943 3.6115269660949707 0.17262379825115204
v 0.11381583660840988 3.571117401123047 0.17262376844882965
v -0.15999487042427063 3.476658344268799 0.17239883542060852
v 0.07313811779022217 3.4361934661865234 0.11097036302089691
v -0.15999487042427063 3.476658344268799 0.17239883542060852
v 0.07315479218959808 3.436248779296875 0.17239879071712494
v -0.16001155972480774 3.476602792739868 0.1109704002737999
v 0.11379916965961456 3.5710623264312744 0.11119533330202103
v -0.16001155972480774 3.476602792739868 0.1109704002737999
v 0.07313811779022217 3.4361934661865234 0.11097036302089691
v -0.11935051530599594 3.61147141456604 0.11119537055492401
v 0.11381583660840988 3.571117401123047 0.17262376844882965
v -0.11935051530599594 3.61147141456604 0.11119537055492401
v 0.11379916965961456 3.5710623264312744 0.11119533330202103
v -0.11933383345603943 3.6115269660949707 0.17262379825115204
vn -0.0 0.0 -1.0
vn -0.0 0.0 -1.0
vn -0.0 0.0 -1.0
vn -0.0 0.0 -1.0
vn -0.0 0.0 1.0
vn -0.0 0.0 1.0
vn -0.0 0.0 1.0
vn -0.0 0.0 1.0
vn -0.0 -1.0 0.0
vn -0.0 -1.0 0.0
vn -0.0 -1.0 0.0
vn -0.0 -1.0 0.0
vn 1.0 0.0 0.0
vn 1.0 0.0 0.0
vn 1.0 0.0 0.0
vn 1.0 0.0 0.0
vn -0.0 1.0 0.0
vn -0.0 1.0 0.0
vn -0.0 1.0 0.0
vn -0.0 1.0 0.0
vn -1.0 0.0 0.0
vn -1.0 0.0 0.0
vn -1.0 0.0 0.0
vn -1.0 0.0 0.0
vn -0.0 0.0 -1.0
vn -0.0 0.0 -1.0
vn -0.0 0.0 -1.0
vn -0.0 0.0 -1.0
vn -0.0 0.0 1.0
vn -0.0 0.0 1.0
vn -0.0 0.0 1.0
vn -0.0 0.0 1.0
vn -0.0 -1.0 0.0
vn -0.0 -1.0 0.0
vn -0.0 -1.0 0.0
vn -0.0 -1.0 0.0
vn 1.0 0.0 0.0
vn 1.0 0.0 0.0
vn 1.0 0.0 0.0
vn 1.0 0.0 0.0
vn -0.0 1.0 0.0
vn -0.0 1.0 0.0
vn -0.0 1.0 0.0
vn -0.0 1.0 0.0
vn -1.0 0.0 0.0
vn -1.0 0.0 0.0
vn -1.0 0.0 0.0
vn -1.0 0.0 0.0
vn -0.0 0.3718723654747009 -0.9282838702201843
vn -0.0 0.3718723654747009 -0.9282838702201843
vn -0.0 0.37187230587005615 -0.9282838702201843
vn -0.0 0.37187230587005615 -0.9282838702201843
vn -0.0 -0.37187251448631287 0.9282838702201843
vn -0.0 -0.37187251448631287 0.9282838702201843
vn -0.0 -0.3718724846839905 0.9282838702201843
vn -0.0 -0.3718724846839905 0.9282838702201843
vn -0.0 -0.9282839894294739 -0.371872216463089
vn -0.0 -0.9282839894294739 -0.371872216463089
vn -0.0 -0.9282839894294739 -0.371872216463089
vn -0.0 -0.9282839894294739 -0.371872216463089
vn 1.0 0.0 0.0
vn 1.0 0.0 0.0
vn 1.0 0.0 0.0
vn 1.0 0.0 0.0
vn -0.0 0.9282839894294739 0.3718721568584442
vn -0.0 0.9282839894294739 0.3718721568584442
vn -0.0 0.9282839894294739 0.3718721568584442
vn -0.0 0.9282839894294739 0.3718721568584442
vn -1.0 0.0 0.0
vn -1.0 0.0 0.0
vn -1.0 0.0 0.0
vn -1.0 0.0 0.0
vn -0.0 1.0 0.0
vn -0.0 1.0 0.0
vn -0.0 1.0 0.0
vn -0.0 1.0 0.0
vn -0.0 -1.0 0.0
vn -0.0 -1.0 0.0
vn -0.0 -1.0 0.0
vn -0.0 -1.0 0.0
vn -0.0 2.1931471394509572e-07 -1.0
vn -0.0 2.1931471394509572e-07 -1.0
vn -0.0 2.19314699734241e-07 -1.0
vn -0.0 2.19314699734241e-07 -1.0
vn 1.0 0.0 0.0
vn 1.0 0.0 0.0
vn 1.0 0.0 0.0
vn 1.0 0.0 0.0
vn -0.0 -2.1592147447790921e-07 1.0
vn -0.0 -2.2270795341228222e-07 1.0
vn -0.0 -1.9937701267735974e-07 1.0
vn -0.0 -2.392524152128317e-07 1.0
vn -1.0 0.0 0.0
vn -1.0 0.0 0.0
vn -1.0 0.0 0.0
vn -1.0 0.0 0.0
vn -0.0 1.0 0.0
vn -0.0 1.0 0.0
vn -0.0 1.0 0.0
vn -0.0 1.0 0.0
vn -0.0 -1.0 0.0
vn -0.0 -1.0 0.0
vn -0.0 -1.0 0.0
vn -0.0 -1.0 0.0
vn -0.0 2.1931471394509572e-07 -1.0
vn -0.0 2.1931471394509572e-07 -1.0
vn -0.0 2.19314699734241e-07 -1.0
vn -0.0 2.19314699734241e-07 -1.0
vn 1.0 0.0 0.0
vn 1.0 0.0 0.0
vn 1.0 0.0 0.0
vn 1.0 0.0 0.0
vn -0.0 -2.1931471394509572e-07 1.0
vn -0.0 -2.1931471394509572e-07 1.0
vn -0.0 -2.19314699734241e-07 1.0
vn -0.0 -2.19314699734241e-07 1.0
vn -1.0 0.0 0.0
vn -1.0 0.0 0.0
vn -1.0 0.0 0.0
vn -1.0 0.0 0.0
vn -0.0 0.0 -1.0
vn -0.0 0.0 -1.0
vn -0.0 0.0 -1.0
vn -0.0 0.0 -1.0
vn -0.0 0.0 1.0
vn -0.0 0.0 1.0
vn -0.0 0.0 1.0
vn -0.0 0.0 1.0
vn 0.0008078214596025646 -0.9999997615814209 0.0
vn 0.0008078214596025646 -0.9999997615814209 0.0
vn 0.0008078214596025646 -0.9999997615814209 0.0
vn 0.0008078214596025646 -0.9999997615814209 0.0
vn 0.9999983310699463 -0.0018288976280018687 0.0
vn 0.9999983310699463 -0.0018288976280018687 0.0
vn 0.9999983310699463 -0.0018288976280018687 0.0
vn 0.9999983310699463 -0.0018288976280018687 0.0
vn -0.0008078214596025646 0.9999997615814209 0.0
vn -0.0008078214596025646 0.9999997615814209 0.0
vn -0.0008078214596025646 0.9999997615814209 0.0
vn -0.0008078214596025646 0.9999997615814209 0.0
vn -0.9999983310699463 0.0018288976280018687 0.0
vn -0.9999983310699463 0.0018288976280018687 0.0
vn -0.9999983310699463 0.0018288976280018687 0.0
vn -0.9999983310699463 0.0018288976280018687 0.0
vn -0.0 0.0 -1.0
vn -0.0 0.0 -1.0
vn -0.0 0.0 -1.0
vn -0.0 0.0 -1.0
vn -0.0 0.0 1.0
vn -0.0 0.0 1.0
vn -0.0 0.0 1.0
vn -0.0 0.0 1.0
vn 0.0008078214596025646 -0.9999997615814209 0.0
vn 0.0008078214596025646 -0.9999997615814209 0.0
vn 0.0008078214596025646 -0.9999997615814209 0.0
vn 0.0008078214596025646 -0.9999997615814209 0.0
vn 0.9999983310699463 -0.0018288976280018687 0.0
vn 0.9999983310699463 -0.0018288976280018687 0.0
vn 0.9999983310699463 -0.0018288976280018687 0.0
vn 0.9999983310699463 -0.0018288976280018687 0.0
vn -0.0008078214596025646 0.9999997615814209 0.0
vn -0.0008078214596025646 0.9999997615814209 0.0
vn -0.0008078214596025646 0.9999997615814209 0.0
vn -0.0008078214596025646 0.9999997615814209 0.0
vn -0.9999983310699463 0.0018288976280018687 0.0
vn -0.9999983310699463 0.0018288976280018687 0.0
vn -0.9999983310699463 0.0018288976280018687 0.0
vn -0.9999983310699463 0.0018288976280018687 0.0
vn 0.7848873138427734 0.6196385622024536 -8.77717809544265e-07
vn 0.7848873138427734 0.6196385622024536 -8.77717809544265e-07
vn 0.7848872542381287 0.6196385622024536 -8.777177527008462e-07
vn 0.7848872542381287 0.6196385622024536 -8.777177527008462e-07
vn -0.7848872542381287 -0.6196385622024536 4.460330728761619e-06
vn -0.7848872542381287 -0.6196385622024536 4.378028279461432e-06
vn -0.7848872542381287 -0.6196385622024536 4.347644335211953e-06
vn -0.7848872542381287 -0.6196385622024536 4.4907155825058e-06
vn 0.001025864272378385 -0.0022699914406985044 -0.9999969005584717
vn 0.001025864272378385 -0.0022699914406985044 -0.9999969005584717
vn 0.001025864272378385 -0.002269991207867861 -0.9999969005584717
vn 0.001025864272378385 -0.002269991207867861 -0.9999969005584717
vn 0.4132764935493469 -0.9106042385101318 -0.0016114055179059505
vn 0.4132756292819977 -0.9106045961380005 -0.0016151722520589828
vn 0.4132765829563141 -0.9106041193008423 -0.001610634266398847
vn 0.41327548027038574 -0.9106045961380005 -0.0016159432707354426
vn -0.0010258618276566267 0.0022699933033436537 0.9999969005584717
vn -0.0010258618276566267 0.0022699933033436537 0.9999969005584717
vn -0.0010258618276566267 0.0022699933033436537 0.9999969005584717
vn -0.0010258619440719485 0.0022699935361742973 0.9999969005584717
vn -0.4132756292819977 0.9106045961380005 0.001611341256648302
vn -0.41327643394470215 0.9106042385101318 0.001615161425434053
vn -0.41327548027038574 0.9106045961380005 0.0016105585964396596
vn -0.4132765531539917 0.9106041193008423 0.00161594373639673
vn -0.9962639212608337 0.08636043220758438 2.8288835096645926e-07
vn -0.9962639212608337 0.08636043220758438 2.8288835096645926e-07
vn -0.9962639212608337 0.08636043965816498 2.828883793881687e-07
vn -0.9962639212608337 0.08636043965816498 2.828883793881687e-07
vn 0.9962639212608337 -0.0863603726029396 -3.2358016710531956e-07
vn 0.9962639212608337 -0.08636045455932617 -1.2254692194346717e-07
vn 0.9962639212608337 -0.08636051416397095 0.0
vn 0.9962639212608337 -0.08636031299829483 -4.376691435936664e-07
vn -8.083810098469257e-05 -0.0016227246960625052 0.9999986886978149
vn -8.080991392489523e-05 -0.001622681855224073 0.9999986886978149
vn -8.086609886959195e-05 -0.0016227668384090066 0.9999986886978149
vn -8.078190148808062e-05 -0.001622639480046928 0.9999986886978149
vn -0.04977172613143921 -0.9987602233886719 0.0009219243656843901
vn -0.04977172985672951 -0.9987602233886719 0.0009219192434102297
vn -0.049771733582019806 -0.9987602233886719 0.0009219256462529302
vn -0.04977172985672951 -0.9987602233886719 0.0009219180210493505
vn 8.08132317615673e-05 0.0016227284213528037 -0.9999986886978149
vn 8.083701686700806e-05 0.001622681156732142 -0.9999986886978149
vn 8.078875544015318e-05 0.0016227771993726492 -0.9999986886978149
vn 8.086147863650694e-05 0.0016226326115429401 -0.9999986886978149
vn 0.04977152869105339 0.9987602233886719 -0.0009260914521291852
vn 0.04977066069841385 0.9987602233886719 -0.0009227140690200031
vn 0.04977172985672951 0.9987602233886719 -0.0009268875583074987
vn 0.049770452082157135 0.9987602233886719 -0.0009219179046340287
vn -0.957433819770813 0.28865280747413635 -1.0188146006839816e-06
vn -0.957433819770813 0.28865280747413635 -1.0188146006839816e-06
vn -0.957433819770813 0.28865280747413635 -1.0188147143708193e-06
vn -0.957433819770813 0.28865280747413635 -1.0188147143708193e-06
vn 0.957433819770813 -0.2886529266834259 -2.6653211193661264e-07
vn 0.957433819770813 -0.2886529266834259 -2.6653211193661264e-07
vn 0.957433819770813 -0.2886529266834259 -2.665320835149032e-07
vn 0.957433819770813 -0.2886529266834259 -2.665320835149032e-07
vn -0.000274599005933851 -0.0015852891374379396 0.9999986886978149
vn -0.0002745989477261901 -0.0015852891374379396 0.9999986886978149
vn -0.000274599005933851 -0.0015852892538532615 0.9999986886978149
vn -0.000274599005933851 -0.0015852891374379396 0.9999986886978149
vn -0.17077386379241943 -0.9853097796440125 0.0009331363253295422
vn -0.17077304422855377 -0.9853099584579468 0.0009364662109874189
vn -0.17077405750751495 -0.9853097796440125 0.0009323404519818723
vn -0.17077282071113586 -0.9853099584579468 0.0009372619679197669
vn 0.00027459702687337995 0.0015852899523451924 -0.9999986886978149
vn 0.0002745969977695495 0.0015852898359298706 -0.9999986886978149
vn 0.00027459702687337995 0.0015852898359298706 -0.9999986886978149
vn 0.00027459702687337995 0.0015852898359298706 -0.9999986886978149
vn 0.1707729995250702 0.9853099584579468 -0.0009331360924988985
vn 0.17077387869358063 0.9853097796440125 -0.0009364662109874189
vn 0.17077283561229706 0.9853099584579468 -0.0009323402773588896
vn 0.17077407240867615 0.9853097796440125 -0.0009372619679197669
vt 0.781806468963623 0.37352001667022705
vt 0.8603137135505676 0.3558220863342285
vt 0.781806468963623 0.3558220863342285
vt 0.8603137135505676 0.37352001667022705
vt 0.781806468963623 0.37352001667022705
vt 0.8603137135505676 0.35582196712493896
vt 0.8603137135505676 0.3735198974609375
vt 0.781806468963623 0.3558220863342285
vt 0.8637862205505371 0.39287614822387695
vt 0.9529822468757629 0.3362915515899658
vt 0.8637862205505371 0.3362915515899658
vt 0.9529822468757629 0.39287614822387695
vt 0.8527553081512451 0.37352001667022705
vt 0.781806468963623 0.3558220863342285
vt 0.8527553081512451 0.3558220863342285
vt 0.781806468963623 0.37352001667022705
vt 0.8637862205505371 0.3362915515899658
vt 0.9529822468757629 0.39287614822387695
vt 0.8637862205505371 0.39287614822387695
vt 0.9529822468757629 0.3362915515899658
vt 0.9569767713546753 0.33915162086486816
vt 0.9773377180099487 0.42834770679473877
vt 0.9773377180099487 0.3391517400741577
vt 0.9569767713546753 0.42834770679473877
vt 0.781806468963623 0.35270756483078003
vt 0.8603137135505676 0.3350096344947815
vt 0.781806468963623 0.3350096344947815
vt 0.8603137135505676 0.35270756483078003
vt 0.781806468963623 0.35270756483078003
vt 0.8603137135505676 0.33500951528549194
vt 0.8603137135505676 0.3527074456214905
vt 0.781806468963623 0.3350096344947815
vt 0.8637862205505371 0.47410863637924194
vt 0.9529822468757629 0.4183749556541443
vt 0.8637862205505371 0.4183749556541443
vt 0.9529822468757629 0.47410863637924194
vt 0.8527553081512451 0.35270756483078003
vt 0.781806468963623 0.3350096344947815
vt 0.8527553081512451 0.3350096344947815
vt 0.781806468963623 0.35270756483078003
vt 0.8637862205505371 0.4183749556541443
vt 0.9529822468757629 0.47410863637924194
vt 0.8637862205505371 0.47410863637924194
vt 0.9529822468757629 0.4183749556541443
vt 0.8637862205505371 0.4183749556541443
vt 0.9529822468757629 0.3968793749809265
vt 0.8637862205505371 0.3968793749809265
vt 0.9529822468757629 0.4183749556541443
vt 0.781806468963623 0.37352001667022705
vt 0.8603137135505676 0.3558220863342285
vt 0.781806468963623 0.3558220863342285
vt 0.8603137135505676 0.37352001667022705
vt 0.781806468963623 0.37352001667022705
vt 0.8603137135505676 0.35582196712493896
vt 0.8603137135505676 0.3735198974609375
vt 0.781806468963623 0.3558220863342285
vt 0.8637862205505371 0.5539077520370483
vt 0.9529822468757629 0.49732309579849243
vt 0.8637862205505371 0.49732309579849243
vt 0.9529822468757629 0.5539077520370483
vt 0.8527553081512451 0.37352001667022705
vt 0.781806468963623 0.3558220863342285
vt 0.8527553081512451 0.3558220863342285
vt 0.781806468963623 0.37352001667022705
vt 0.8637862205505371 0.49732309579849243
vt 0.9529822468757629 0.5539077520370483
vt 0.8637862205505371 0.5539077520370483
vt 0.9529822468757629 0.49732309579849243
vt 0.8637862205505371 0.49732309579849243
vt 0.9529822468757629 0.476962149143219
vt 0.8637862205505371 0.476962149143219
vt 0.9529822468757629 0.49732309579849243
vt 0.781806468963623 0.35270756483078003
vt 0.8603137135505676 0.3350096344947815
vt 0.781806468963623 0.3350096344947815
vt 0.8603137135505676 0.35270756483078003
vt 0.781806468963623 0.35270756483078003
vt 0.8603137135505676 0.33500951528549194
vt 0.8603137135505676 0.3527074456214905
vt 0.781806468963623 0.3350096344947815
vt 0.8637862205505371 0.47410863637924194
vt 0.9529822468757629 0.4183749556541443
vt 0.8637862205505371 0.4183749556541443
vt 0.9529822468757629 0.47410863637924194
vt 0.8527553081512451 0.35270756483078003
vt 0.781806468963623 0.3350096344947815
vt 0.8527553081512451 0.3350096344947815
vt 0.781806468963623 0.35270756483078003
vt 0.8637862205505371 0.4183749556541443
vt 0.9529822468757629 0.47410863637924194
vt 0.8637862205505371 0.47410863637924194
vt 0.9529822468757629 0.4183749556541443
vt 0.8637862205505371 0.4183749556541443
vt 0.9529822468757629 0.3968793749809265
vt 0.8637862205505371 0.3968793749809265
vt 0.9529822468757629 0.4183749556541443
vt 0.781806468963623 0.37352001667022705
vt 0.8603137135505676 0.3558220863342285
vt 0.781806468963623 0.3558220863342285
vt 0.8603137135505676 0.37352001667022705
vt 0.781806468963623 0.37352001667022705
vt 0.8603137135505676 0.35582196712493896
vt 0.8603137135505676 0.3735198974609375
vt 0.781806468963623 0.3558220863342285
vt 0.8637862205505371 0.39287614822387695
vt 0.9529822468757629 0.3362915515899658
vt 0.8637862205505371 0.3362915515899658
vt 0.9529822468757629 0.39287614822387695
vt 0.8527553081512451 0.37352001667022705
vt 0.781806468963623 0.3558220863342285
vt 0.8527553081512451 0.3558220863342285
vt 0.781806468963623 0.37352001667022705
vt 0.8637862205505371 0.3362915515899658
vt 0.9529822468757629 0.39287614822387695
vt 0.8637862205505371 0.39287614822387695
vt 0.9529822468757629 0.3362915515899658
vt 0.9569767713546753 0.33915162086486816
vt 0.9773377180099487 0.42834770679473877
vt 0.9773377180099487 0.3391517400741577
vt 0.9569767713546753 0.42834770679473877
vt 0.781806468963623 0.37352001667022705
vt 0.8603137135505676 0.3558220863342285
vt 0.781806468963623 0.3558220863342285
vt 0.8603137135505676 0.37352001667022705
vt 0.781806468963623 0.37352001667022705
vt 0.8603137135505676 0.35582196712493896
vt 0.8603137135505676 0.3735198974609375
vt 0.781806468963623 0.3558220863342285
vt 0.8637862205505371 0.39287614822387695
vt 0.9529822468757629 0.3362915515899658
vt 0.8637862205505371 0.3362915515899658
vt 0.9529822468757629 0.39287614822387695
vt 0.8527553081512451 0.37352001667022705
vt 0.781806468963623 0.3558220863342285
vt 0.8527553081512451 0.3558220863342285
vt 0.781806468963623 0.37352001667022705
vt 0.8637862205505371 0.3362915515899658
vt 0.9529822468757629 0.39287614822387695
vt 0.8637862205505371 0.39287614822387695
vt 0.9529822468757629 0.3362915515899658
vt 0.9569767713546753 0.33915162086486816
vt 0.9755438566207886 0.42834770679473877
vt 0.9755438566207886 0.3391517400741577
vt 0.9569767713546753 0.42834770679473877
vt 0.781806468963623 0.35270756483078003
vt 0.8603137135505676 0.3350096344947815
vt 0.781806468963623 0.3350096344947815
vt 0.8603137135505676 0.35270756483078003
vt 0.781806468963623 0.35270756483078003
vt 0.8603137135505676 0.33500951528549194
vt 0.8603137135505676 0.3527074456214905
vt 0.781806468963623 0.3350096344947815
vt 0.8637862205505371 0.47410863637924194
vt 0.9529822468757629 0.4183749556541443
vt 0.8637862205505371 0.4183749556541443
vt 0.9529822468757629 0.47410863637924194
vt 0.8527553081512451 0.35270756483078003
vt 0.781806468963623 0.3350096344947815
vt 0.8527553081512451 0.3350096344947815
vt 0.781806468963623 0.35270756483078003
vt 0.8637862205505371 0.4183749556541443
vt 0.9529822468757629 0.47410863637924194
vt 0.8637862205505371 0.47410863637924194
vt 0.9529822468757629 0.4183749556541443
vt 0.8637862205505371 0.4183749556541443
vt 0.9529822468757629 0.3968793749809265
vt 0.8637862205505371 0.3968793749809265
vt 0.9529822468757629 0.4183749556541443
vt 0.781806468963623 0.37352001667022705
vt 0.8603137135505676 0.3558220863342285
vt 0.781806468963623 0.3558220863342285
vt 0.8603137135505676 0.37352001667022705
vt 0.781806468963623 0.37352001667022705
vt 0.8603137135505676 0.35582196712493896
vt 0.8603137135505676 0.3735198974609375
vt 0.781806468963623 0.3558220863342285
vt 0.8637862205505371 0.39287614822387695
vt 0.9529822468757629 0.3362915515899658
vt 0.8637862205505371 0.3362915515899658
vt 0.9529822468757629 0.39287614822387695
vt 0.8527553081512451 0.37352001667022705
vt 0.781806468963623 0.3558220863342285
vt 0.8527553081512451 0.3558220863342285
vt 0.781806468963623 0.37352001667022705
vt 0.8637862205505371 0.3362915515899658
vt 0.9529822468757629 0.39287614822387695
vt 0.8637862205505371 0.39287614822387695
vt 0.9529822468757629 0.3362915515899658
vt 0.9569767713546753 0.33915162086486816
vt 0.9773377180099487 0.42834770679473877
vt 0.9773377180099487 0.3391517400741577
vt 0.9569767713546753 0.42834770679473877
vt 0.781806468963623 0.35270756483078003
vt 0.8603137135505676 0.3350096344947815
vt 0.781806468963623 0.3350096344947815
vt 0.8603137135505676 0.35270756483078003
vt 0.781806468963623 0.35270756483078003
vt 0.8603137135505676 0.33500951528549194
vt 0.8603137135505676 0.3527074456214905
vt 0.781806468963623 0.3350096344947815
vt 0.8637862205505371 0.47410863637924194
vt 0.9529822468757629 0.4183749556541443
vt 0.8637862205505371 0.4183749556541443
vt 0.9529822468757629 0.47410863637924194
vt 0.8527553081512451 0.35270756483078003
vt 0.781806468963623 0.3350096344947815
vt 0.8527553081512451 0.3350096344947815
vt 0.781806468963623 0.35270756483078003
vt 0.8637862205505371 0.4183749556541443
vt 0.9529822468757629 0.47410863637924194
vt 0.8637862205505371 0.47410863637924194
vt 0.9529822468757629 0.4183749556541443
vt 0.8637862205505371 0.4183749556541443
vt 0.9529822468757629 0.3968793749809265
vt 0.8637862205505371 0.3968793749809265
vt 0.9529822468757629 0.4183749556541443
vt 0.781806468963623 0.37352001667022705
vt 0.8603137135505676 0.3558220863342285
vt 0.781806468963623 0.3558220863342285
vt 0.8603137135505676 0.37352001667022705
vt 0.781806468963623 0.37352001667022705
vt 0.8603137135505676 0.35582196712493896
vt 0.8603137135505676 0.3735198974609375
vt 0.781806468963623 0.3558220863342285
vt 0.8637862205505371 0.39287614822387695
vt 0.9529822468757629 0.3362915515899658
vt 0.8637862205505371 0.3362915515899658
vt 0.9529822468757629 0.39287614822387695
vt 0.8527553081512451 0.37352001667022705
vt 0.781806468963623 0.3558220863342285
vt 0.8527553081512451 0.3558220863342285
vt 0.781806468963623 0.37352001667022705
vt 0.8637862205505371 0.3362915515899658
vt 0.9529822468757629 0.39287614822387695
vt 0.8637862205505371 0.39287614822387695
vt 0.9529822468757629 0.3362915515899658
vt 0.9569767713546753 0.33915162086486816
vt 0.9755438566207886 0.42834770679473877
vt 0.9755438566207886 0.3391517400741577
vt 0.9569767713546753 0.42834770679473877

g d031_book
s 1
usemtl d031_book
f 3/3/3 2/2/2 1/1/1 
f 4/4/4 1/1/1 2/2/2 
f 7/7/7 6/6/6 5/5/5 
f 8/8/8 5/5/5 6/6/6 
f 11/11/11 10/10/10 9/9/9 
f 12/12/12 9/9/9 10/10/10 
f 15/15/15 14/14/14 13/13/13 
f 16/16/16 13/13/13 14/14/14 
f 19/19/19 18/18/18 17/17/17 
f 20/20/20 17/17/17 18/18/18 
f 23/23/23 22/22/22 21/21/21 
f 24/24/24 21/21/21 22/22/22 
f 27/27/27 26/26/26 25/25/25 
f 28/28/28 25/25/25 26/26/26 
f 31/31/31 30/30/30 29/29/29 
f 32/32/32 29/29/29 30/30/30 
f 35/35/35 34/34/34 33/33/33 
f 36/36/36 33/33/33 34/34/34 
f 39/39/39 38/38/38 37/37/37 
f 40/40/40 37/37/37 38/38/38 
f 43/43/43 42/42/42 41/41/41 
f 44/44/44 41/41/41 42/42/42 
f 47/47/47 46/46/46 45/45/45 
f 48/48/48 45/45/45 46/46/46 
f 51/51/51 50/50/50 49/49/49 
f 52/52/52 49/49/49 50/50/50 
f 55/55/55 54/54/54 53/53/53 
f 56/56/56 53/53/53 54/54/54 
f 59/59/59 58/58/58 57/57/57 
f 60/60/60 57/57/57 58/58/58 
f 63/63/63 62/62/62 61/61/61 
f 64/64/64 61/61/61 62/62/62 
f 67/67/67 66/66/66 65/65/65 
f 68/68/68 65/65/65 66/66/66 
f 71/71/71 70/70/70 69/69/69 
f 72/72/72 69/69/69 70/70/70 
f 75/75/75 74/74/74 73/73/73 
f 76/76/76 73/73/73 74/74/74 
f 79/79/79 78/78/78 77/77/77 
f 80/80/80 77/77/77 78/78/78 
f 83/83/83 82/82/82 81/81/81 
f 84/84/84 81/81/81 82/82/82 
f 87/87/87 86/86/86 85/85/85 
f 88/88/88 85/85/85 86/86/86 
f 91/91/91 90/90/90 89/89/89 
f 92/92/92 89/89/89 90/90/90 
f 95/95/95 94/94/94 93/93/93 
f 96/96/96 93/93/93 94/94/94 
f 99/99/99 98/98/98 97/97/97 
f 100/100/100 97/97/97 98/98/98 
f 103/103/103 102/102/102 101/101/101 
f 104/104/104 101/101/101 102/102/102 
f 107/107/107 106/106/106 105/105/105 
f 108/108/108 105/105/105 106/106/106 
f 111/111/111 110/110/110 109/109/109 
f 112/112/112 109/109/109 110/110/110 
f 115/115/115 114/114/114 113/113/113 
f 116/116/116 113/113/113 114/114/114 
f 119/119/119 118/118/118 117/117/117 
f 120/120/120 117/117/117 118/118/118 
f 123/123/123 122/122/122 121/121/121 
f 124/124/124 121/121/121 122/122/122 
f 127/127/127 126/126/126 125/125/125 
f 128/128/128 125/125/125 126/126/126 
f 131/131/131 130/130/130 129/129/129 
f 132/132/132 129/129/129 130/130/130 
f 135/135/135 134/134/134 133/133/133 
f 136/136/136 133/133/133 134/134/134 
f 139/139/139 138/138/138 137/137/137 
f 140/140/140 137/137/137 138/138/138 
f 143/143/143 142/142/142 141/141/141 
f 144/144/144 141/141/141 142/142/142 
f 147/147/147 146/146/146 145/145/145 
f 148/148/148 145/145/145 146/146/146 
f 151/151/151 150/150/150 149/149/149 
f 152/152/152 149/149/149 150/150/150 
f 155/155/155 154/154/154 153/153/153 
f 156/156/156 153/153/153 154/154/154 
f 159/159/159 158/158/158 157/157/157 
f 160/160/160 157/157/157 158/158/158 
f 163/163/163 162/162/162 161/161/161 
f 164/164/164 161/161/161 162/162/162 
f 167/167/167 166/166/166 165/165/165 
f 168/168/168 165/165/165 166/166/166 
f 171/171/171 170/170/170 169/169/169 
f 172/172/172 169/169/169 170/170/170 
f 175/175/175 174/174/174 173/173/173 
f 176/176/176 173/173/173 174/174/174 
f 179/179/179 178/178/178 177/177/177 
f 180/180/180 177/177/177 178/178/178 
f 183/183/183 182/182/182 181/181/181 
f 184/184/184 181/181/181 182/182/182 
f 187/187/187 186/186/186 185/185/185 
f 188/188/188 185/185/185 186/186/186 
f 191/191/191 190/190/190 189/189/189 
f 192/192/192 189/189/189 190/190/190 
f 195/195/195 194/194/194 193/193/193 
f 196/196/196 193/193/193 194/194/194 
f 199/199/199 198/198/198 197/197/197 
f 200/200/200 197/197/197 198/198/198 
f 203/203/203 202/202/202 201/201/201 
f 204/204/204 201/201/201 202/202/202 
f 207/207/207 206/206/206 205/205/205 
f 208/208/208 205/205/205 206/206/206 
f 211/211/211 210/210/210 209/209/209 
f 212/212/212 209/209/209 210/210/210 
f 215/215/215 214/214/214 213/213/213 
f 216/216/216 213/213/213 214/214/214 
f 219/219/219 218/218/218 217/217/217 
f 220/220/220 217/217/217 218/218/218 
f 223/223/223 222/222/222 221/221/221 
f 224/224/224 221/221/221 222/222/222 
f 227/227/227 226/226/226 225/225/225 
f 228/228/228 225/225/225 226/226/226 
f 231/231/231 230/230/230 229/229/229 
f 232/232/232 229/229/229 230/230/230 
f 235/235/235 234/234/234 233/233/233 
f 236/236/236 233/233/233 234/234/234 
f 239/239/239 238/238/238 237/237/237 
f 240/240/240 237/237/237 238/238/238 

