v -5.5 -8.0 2.5000014305114746
v -6.5 -9.0 2.5000014305114746
v -6.5 -8.0 2.5000014305114746
v -5.5 -9.0 2.5000014305114746
v -4.5 -8.0 2.5000014305114746
v -4.5 -9.0 2.5000014305114746
v -3.5 -8.0 2.5000014305114746
v -3.5 -9.0 2.5000014305114746
v -5.5 -7.0 2.5000014305114746
v -6.5 -7.0 2.5000014305114746
v -5.5 -6.0 2.5000014305114746
v -6.5 -6.0 2.5000014305114746
v -5.5 -5.0 2.5000014305114746
v -6.51415491104126 -5.0 2.5000014305114746
v -4.5 -5.0 2.5000014305114746
v -4.5 -6.0 2.5000014305114746
v -3.5 -5.0 2.5000014305114746
v -3.5 -6.0 2.5000014305114746
v -2.5 -8.0 1.999991774559021
v -3.5 -9.0 1.999991774559021
v -3.5 -8.0 1.999991774559021
v -2.5 -9.0 1.999991774559021
v -1.5 -8.0 1.999991774559021
v -1.5 -9.0 1.999991774559021
v -0.5 -8.0 1.999991774559021
v -0.5 -9.0 1.999991774559021
v -0.0 -8.0 1.999991774559021
v -0.0 -9.0 1.999991774559021
v 3.5 -8.0 1.999991774559021
v 2.5 -9.0 1.999991774559021
v 2.5 -8.0 1.999991774559021
v 3.5 -9.0 1.999991774559021
v 4.5 -8.0 1.999991774559021
v 4.5 -9.0 1.999991774559021
v 5.5 -8.0 1.999991774559021
v 5.5 -9.0 1.999991774559021
v 6.5 -8.0 1.999991774559021
v 6.5 -9.0 1.999991774559021
v 2.0 -8.0 1.999991774559021
v 2.0 -9.0 1.999991774559021
v -2.5 -5.0 1.999991774559021
v -3.5 -6.0 1.999991774559021
v -3.5 -5.0 1.999991774559021
v -2.5 -6.0 1.999991774559021
v -1.5 -5.0 1.999991774559021
v -1.5 -6.0 1.999991774559021
v -0.5 -5.0 1.999991774559021
v -0.5 -6.0 1.999991774559021
v -0.0 -5.0 1.999991774559021
v -0.0 -6.0 1.999991774559021
v 3.5 -5.0 1.999991774559021
v 2.5 -6.0 1.999991774559021
v 2.5 -5.0 1.999991774559021
v 3.5 -6.0 1.999991774559021
v 4.5 -5.0 1.999991774559021
v 4.5 -6.0 1.999991774559021
v 5.5 -5.0 1.999991774559021
v 5.5 -6.0 1.999991774559021
v 6.5 -5.0 1.999991774559021
v 6.5 -6.0 1.999991774559021
v 2.0 -5.0 1.999991774559021
v 2.0 -6.0 1.999991774559021
v -5.5 -4.0 1.999991774559021
v -6.51415491104126 -5.0 1.999991774559021
v -6.51415491104126 -4.0 1.999991774559021
v -5.5 -5.0 1.999991774559021
v -4.5 -4.0 1.999991774559021
v -4.5 -5.0 1.999991774559021
v -5.5 -3.0 1.999991774559021
v -6.51415491104126 -3.0 1.999991774559021
v -4.5 -3.0 1.999991774559021
v -5.5 -2.0 1.999991774559021
v -6.51415491104126 -1.999999761581421 1.999991774559021
v -4.5 -2.0 1.999991774559021
v -5.5 -1.0 2.5000014305114746
v -6.51415491104126 -1.999999761581421 2.5000014305114746
v -6.51415491104126 -1.0 2.5000014305114746
v -5.5 -2.0 2.5000014305114746
v -4.5 -1.0 2.5000014305114746
v -4.5 -2.0 2.5000014305114746
v -5.5 2.110973618130174e-09 2.5000014305114746
v -6.51415491104126 0.0 2.5000014305114746
v -4.5 2.110973618130174e-09 2.5000014305114746
v -5.5 1.0 2.5000014305114746
v -6.51415491104126 1.0 2.5000014305114746
v -4.5 1.0 2.5000014305114746
v -5.5 2.0 2.5000014305114746
v -6.51415491104126 2.0 2.5000014305114746
v -4.5 2.0 2.5000014305114746
v -5.5 3.0 1.999991774559021
v -6.51415491104126 2.0 1.999991774559021
v -6.51415491104126 3.0 1.999991774559021
v -5.5 2.0 1.999991774559021
v -4.5 3.0 1.999991774559021
v -4.5 2.0 1.999991774559021
v -5.5 4.0 1.999991774559021
v -6.51415491104126 4.0 1.999991774559021
v -4.5 4.0 1.999991774559021
v -5.5 5.0 1.999991774559021
v -6.51415491104126 5.0 1.999991774559021
v -4.5 5.0 1.999991774559021
v -5.5 6.0 2.5000014305114746
v -6.51415491104126 5.0 2.5000014305114746
v -6.51415491104126 6.0 2.5000014305114746
v -5.5 5.0 2.5000014305114746
v -4.5 6.0 2.5000014305114746
v -4.5 5.0 2.5000014305114746
v -3.5 6.0 2.5000014305114746
v -3.5 5.0 2.5000014305114746
v -5.5 7.0 2.5000014305114746
v -6.51415491104126 7.0 2.5000014305114746
v -5.5 8.0 2.5000014305114746
v -6.51415491104126 8.0 2.5000014305114746
v -5.5 9.0 2.5000014305114746
v -6.51415491104126 9.0 2.5000014305114746
v -4.5 9.0 2.5000014305114746
v -4.5 8.0 2.5000014305114746
v -3.5 9.0 2.5000014305114746
v -3.5 8.0 2.5000014305114746
v -2.5 6.0 1.999991774559021
v -3.5 5.0 1.999991774559021
v -3.5 6.0 1.999991774559021
v -2.5 5.0 1.999991774559021
v -1.5 6.0 1.999991774559021
v -1.5 5.0 1.999991774559021
v -0.5 6.0 1.999991774559021
v -0.5 5.0 1.999991774559021
v -0.0 6.0 1.999991774559021
v -0.0 5.0 1.999991774559021
v 3.5 6.0 1.999991774559021
v 2.5 5.0 1.999991774559021
v 2.5 6.0 1.999991774559021
v 3.5 5.0 1.999991774559021
v 4.5 6.0 1.999991774559021
v 4.5 5.0 1.999991774559021
v 5.5 6.0 1.999991774559021
v 5.5 5.0 1.999991774559021
v 6.5 6.0 1.999991774559021
v 6.5 5.0 1.999991774559021
v 2.0 6.0 1.999991774559021
v 2.0 5.0 1.999991774559021
v -2.5 9.0 1.999991774559021
v -3.5 8.0 1.999991774559021
v -3.5 9.0 1.999991774559021
v -2.5 8.0 1.999991774559021
v -1.5 9.0 1.999991774559021
v -1.5 8.0 1.999991774559021
v -0.5 9.0 1.999991774559021
v -0.5 8.0 1.999991774559021
v -0.0 9.0 1.999991774559021
v -0.0 8.0 1.999991774559021
v 3.5 9.0 1.999991774559021
v 2.5 8.0 1.999991774559021
v 2.5 9.0 1.999991774559021
v 3.5 8.0 1.999991774559021
v 4.5 9.0 1.999991774559021
v 4.5 8.0 1.999991774559021
v 5.5 9.0 1.999991774559021
v 5.5 8.0 1.999991774559021
v 6.5 9.0 1.999991774559021
v 6.5 8.0 1.999991774559021
v 2.0 9.0 1.999991774559021
v 2.0 8.0 1.999991774559021
v -2.5 -3.0 0.0
v -4.5 -5.0 0.0
v -4.5 -3.0 0.0
v -2.5 -5.0 0.0
v -0.5 -3.0 0.0
v -0.5 -5.0 0.0
v 1.5 -3.0 0.0
v 1.5 -5.0 0.0
v 3.5 -3.0 0.0
v 3.5 -5.0 0.0
v 5.5 -3.0 0.0
v 5.5 -5.0 0.0
v 6.5 -3.0 0.0
v 6.5 -5.0 0.0
v -2.5 -1.0 0.0
v -4.5 -2.0 0.0
v -4.5 -1.0 0.0
v 1.5 -1.0 0.0
v -0.5 -1.0 0.0
v 3.5 -1.0 0.0
v 5.5 -1.0 0.0
v 6.5 -1.0 0.0
v -2.5 1.0 0.0
v -4.5 0.0 0.0
v -4.5 1.0 0.0
v -0.5 1.0 0.0
v 1.5 1.0 0.0
v 3.5 1.0 0.0
v 5.5 1.0 0.0
v 6.5 1.0 0.0
v -2.5 3.0 0.0
v -4.5 2.0 0.0
v -4.5 3.0 0.0
v -0.5 3.0 0.0
v 1.5 3.0 0.0
v 3.5 3.0 0.0
v 5.5 3.0 0.0
v 6.5 3.0 0.0
v -2.5 5.0 0.0
v -4.5 4.0 0.0
v -4.5 5.0 0.0
v -0.5 5.0 0.0
v 1.5 5.0 0.0
v 3.5 5.0 0.0
v 5.5 5.0 0.0
v 6.5 5.0 0.0
v 6.5 -7.0 1.220703097715159e-06
v 6.5 -6.0 1.999991774559021
v 6.5 -6.0 1.220703097715159e-06
v 6.5 -7.0 1.999991774559021
v 6.5 -6.0 1.220703097715159e-06
v 6.5 -5.0 1.999991774559021
v 6.5 -5.0 1.220703097715159e-06
v 6.5 -6.0 1.999991774559021
v 6.5 5.0 -3.0517577442878974e-07
v 6.5 6.932895183563232 1.999991774559021
v 6.5 6.932895183563232 -3.0517577442878974e-07
v 6.5 5.0 1.999991774559021
v 1.5 -8.0 1.999991774559021
v 0.5 -9.0 1.999991774559021
v 0.5 -8.0 1.999991774559021
v 1.5 -9.0 1.999991774559021
v 2.0 -8.0 1.999991774559021
v 2.0 -9.0 1.999991774559021
v -0.0 -8.0 1.999991774559021
v -0.0 -9.0 1.999991774559021
v -5.5 -8.0 2.5000014305114746
v -4.5 -6.0 2.5000014305114746
v -4.5 -8.0 2.5000014305114746
v -5.5 -7.0 2.5000014305114746
v -5.5 -6.0 2.5000014305114746
v -3.5 -6.0 2.5000014305114746
v -3.5 -8.0 2.5000014305114746
v -2.5 -6.0 1.999991774559021
v -3.5 -8.0 1.999991774559021
v -3.5 -6.0 1.999991774559021
v -2.5 -8.0 1.999991774559021
v -1.5 -6.0 1.999991774559021
v -2.5 -8.0 1.999991774559021
v -2.5 -6.0 1.999991774559021
v -1.5 -8.0 1.999991774559021
v -0.5 -6.0 1.999991774559021
v -1.5 -8.0 1.999991774559021
v -1.5 -6.0 1.999991774559021
v -0.5 -8.0 1.999991774559021
v 0.5 -6.0 1.999991774559021
v -0.5 -6.0 1.999991774559021
v -0.0 -6.0 1.999991774559021
v -0.5 -8.0 1.999991774559021
v -0.0 -8.0 1.999991774559021
v 0.5 -8.0 1.999991774559021
v 1.5 -6.0 1.999991774559021
v 0.5 -8.0 1.999991774559021
v 0.5 -6.0 1.999991774559021
v 1.5 -8.0 1.999991774559021
v 2.5 -6.0 1.999991774559021
v 1.5 -6.0 1.999991774559021
v 2.0 -6.0 1.999991774559021
v 1.5 -8.0 1.999991774559021
v 2.0 -8.0 1.999991774559021
v 2.5 -8.0 1.999991774559021
v 3.5 -6.0 1.999991774559021
v 2.5 -8.0 1.999991774559021
v 2.5 -6.0 1.999991774559021
v 3.5 -8.0 1.999991774559021
v 4.5 -6.0 1.999991774559021
v 3.5 -8.0 1.999991774559021
v 3.5 -6.0 1.999991774559021
v 4.5 -8.0 1.999991774559021
v 5.5 -6.0 1.999991774559021
v 4.5 -8.0 1.999991774559021
v 4.5 -6.0 1.999991774559021
v 5.5 -8.0 1.999991774559021
v 6.5 -7.0 1.999991774559021
v 5.5 -6.0 1.999991774559021
v 6.5 -6.0 1.999991774559021
v 5.5 -8.0 1.999991774559021
v 6.5 -8.0 1.999991774559021
v 1.5 -5.0 1.999991774559021
v 0.5 -6.0 1.999991774559021
v 0.5 -5.0 1.999991774559021
v 1.5 -6.0 1.999991774559021
v 2.0 -5.0 1.999991774559021
v 2.0 -6.0 1.999991774559021
v -0.0 -5.0 1.999991774559021
v -0.0 -6.0 1.999991774559021
v 1.5 6.0 1.999991774559021
v 0.5 5.0 1.999991774559021
v 0.5 6.0 1.999991774559021
v 1.5 5.0 1.999991774559021
v 2.0 6.0 1.999991774559021
v 2.0 5.0 1.999991774559021
v -0.0 6.0 1.999991774559021
v -0.0 5.0 1.999991774559021
v -5.5 6.0 2.5000014305114746
v -4.5 8.0 2.5000014305114746
v -4.5 6.0 2.5000014305114746
v -5.5 7.0 2.5000014305114746
v -5.5 8.0 2.5000014305114746
v -3.5 8.0 2.5000014305114746
v -3.5 6.0 2.5000014305114746
v -2.5 8.0 1.999991774559021
v -3.5 6.0 1.999991774559021
v -3.5 8.0 1.999991774559021
v -2.5 6.0 1.999991774559021
v -1.5 8.0 1.999991774559021
v -2.5 6.0 1.999991774559021
v -2.5 8.0 1.999991774559021
v -1.5 6.0 1.999991774559021
v -0.5 8.0 1.999991774559021
v -1.5 6.0 1.999991774559021
v -1.5 8.0 1.999991774559021
v -0.5 6.0 1.999991774559021
v 0.5 8.0 1.999991774559021
v -0.5 8.0 1.999991774559021
v -0.0 8.0 1.999991774559021
v -0.5 6.0 1.999991774559021
v -0.0 6.0 1.999991774559021
v 0.5 6.0 1.999991774559021
v 1.5 8.0 1.999991774559021
v 0.5 6.0 1.999991774559021
v 0.5 8.0 1.999991774559021
v 1.5 6.0 1.999991774559021
v 2.5 8.0 1.999991774559021
v 1.5 8.0 1.999991774559021
v 2.0 8.0 1.999991774559021
v 1.5 6.0 1.999991774559021
v 2.0 6.0 1.999991774559021
v 2.5 6.0 1.999991774559021
v 3.5 8.0 1.999991774559021
v 2.5 6.0 1.999991774559021
v 2.5 8.0 1.999991774559021
v 3.5 6.0 1.999991774559021
v 4.5 8.0 1.999991774559021
v 3.5 6.0 1.999991774559021
v 3.5 8.0 1.999991774559021
v 4.5 6.0 1.999991774559021
v 5.5 8.0 1.999991774559021
v 4.5 6.0 1.999991774559021
v 4.5 8.0 1.999991774559021
v 5.5 6.0 1.999991774559021
v 6.5 8.0 1.999991774559021
v 5.5 6.0 1.999991774559021
v 5.5 8.0 1.999991774559021
v 6.5 6.0 1.999991774559021
v 1.5 9.0 1.999991774559021
v 0.5 8.0 1.999991774559021
v 0.5 9.0 1.999991774559021
v 1.5 8.0 1.999991774559021
v 2.0 9.0 1.999991774559021
v 2.0 8.0 1.999991774559021
v -0.0 9.0 1.999991774559021
v -0.0 8.0 1.999991774559021
v -3.5 -8.0 2.5000014305114746
v -3.5 -9.0 1.999991774559021
v -3.5 -9.0 2.5000014305114746
v -3.5 -8.0 1.999991774559021
v -3.5 -6.0 2.5000014305114746
v -3.5 -8.0 1.999991774559021
v -3.5 -8.0 2.5000014305114746
v -3.5 -6.0 1.999991774559021
v -3.5 -5.0 2.5000014305114746
v -3.5 -6.0 1.999991774559021
v -3.5 -6.0 2.5000014305114746
v -3.5 -5.0 1.999991774559021
v -4.5 -5.0 2.5000014305114746
v -3.5 -5.0 1.999991774559021
v -3.5 -5.0 2.5000014305114746
v -4.5 -5.0 1.999991774559021
v -5.5 -5.0 2.5000014305114746
v -5.5 -5.0 1.999991774559021
v -6.51415491104126 -5.0 2.5000014305114746
v -5.5 -5.0 1.999991774559021
v -5.5 -5.0 2.5000014305114746
v -6.51415491104126 -5.0 1.999991774559021
v -5.5 -2.0 2.5000014305114746
v -6.51415491104126 -1.999999761581421 1.999991774559021
v -6.51415491104126 -1.999999761581421 2.5000014305114746
v -5.5 -2.0 1.999991774559021
v -4.5 -2.0 2.5000014305114746
v -4.5 -2.0 1.999991774559021
v -5.5 2.0 2.5000014305114746
v -4.5 2.0 1.999991774559021
v -4.5 2.0 2.5000014305114746
v -5.5 2.0 1.999991774559021
v -6.51415491104126 2.0 2.5000014305114746
v -6.51415491104126 2.0 1.999991774559021
v -5.5 5.0 2.5000014305114746
v -6.51415491104126 5.0 1.999991774559021
v -6.51415491104126 5.0 2.5000014305114746
v -5.5 5.0 1.999991774559021
v -4.5 5.0 2.5000014305114746
v -4.5 5.0 1.999991774559021
v -3.5 5.0 2.5000014305114746
v -4.5 5.0 1.999991774559021
v -4.5 5.0 2.5000014305114746
v -3.5 5.0 1.999991774559021
v -3.5 6.0 2.5000014305114746
v -3.5 5.0 1.999991774559021
v -3.5 5.0 2.5000014305114746
v -3.5 6.0 1.999991774559021
v -3.5 8.0 2.5000014305114746
v -3.5 6.0 1.999991774559021
v -3.5 6.0 2.5000014305114746
v -3.5 8.0 1.999991774559021
v -3.5 9.0 2.5000014305114746
v -3.5 8.0 1.999991774559021
v -3.5 8.0 2.5000014305114746
v -3.5 9.0 1.999991774559021
v -4.459163188934326 -1.0 1.9088143110275269
v -4.459163188934326 -2.0 0.08816726505756378
v -4.459163188934326 -2.0 1.9088143110275269
v -4.459163188934326 -0.9999998211860657 0.08816741406917572
v -4.620642185211182 -0.9999998211860657 0.0
v -4.620642185211182 -2.0 0.08816733956336975
v -4.620642185211182 -2.0 0.0
v -4.620642185211182 -0.9999998211860657 0.08816741406917572
v -4.379358291625977 -0.9999998211860657 0.08816741406917572
v -4.379358291625977 -2.0 0.0
v -4.379358291625977 -2.0 0.08816733956336975
v -4.379358291625977 -0.9999998211860657 0.0
v -4.580642223358154 -0.9999998211860657 0.08816741406917572
v -4.580642223358154 -2.0 1.9088143110275269
v -4.580642223358154 -2.0 0.08816733956336975
v -4.580642223358154 -1.0 1.9088143110275269
v -4.379358291625977 3.0517577442878974e-07 0.08816741406917572
v -4.459163188934326 -0.9999998211860657 0.08816741406917572
v -4.459163188934326 3.0517577442878974e-07 0.08816741406917572
v -4.379358291625977 -0.9999998211860657 0.08816741406917572
v -4.620642185211182 -2.0 0.08816733956336975
v -4.580642223358154 -0.9999998211860657 0.08816741406917572
v -4.580642223358154 -2.0 0.08816733956336975
v -4.620642185211182 -0.9999998211860657 0.08816741406917572
v -4.459163188934326 -1.0 1.9088143110275269
v -4.459163188934326 3.0517577442878974e-07 0.08816741406917572
v -4.459163188934326 -0.9999998211860657 0.08816741406917572
v -4.459163188934326 1.5258788721439487e-07 1.9088143110275269
v -4.620642185211182 -0.9999998211860657 0.0
v -4.620642185211182 3.0517577442878974e-07 0.08816741406917572
v -4.620642185211182 -0.9999998211860657 0.08816741406917572
v -4.620642185211182 3.0517577442878974e-07 0.0
v -4.379358291625977 -0.9999998211860657 0.08816741406917572
v -4.379358291625977 3.0517577442878974e-07 0.0
v -4.379358291625977 -0.9999998211860657 0.0
v -4.379358291625977 3.0517577442878974e-07 0.08816741406917572
v -4.580642223358154 -0.9999998211860657 0.08816741406917572
v -4.580642223358154 1.5258788721439487e-07 1.9088143110275269
v -4.580642223358154 -1.0 1.9088143110275269
v -4.580642223358154 3.0517577442878974e-07 0.08816741406917572
v -4.379358291625977 -0.9999998211860657 0.08816741406917572
v -4.459163188934326 -2.0 0.08816726505756378
v -4.459163188934326 -0.9999998211860657 0.08816741406917572
v -4.379358291625977 -2.0 0.08816733956336975
v -4.620642185211182 -0.9999998211860657 0.08816741406917572
v -4.580642223358154 3.0517577442878974e-07 0.08816741406917572
v -4.580642223358154 -0.9999998211860657 0.08816741406917572
v -4.620642185211182 3.0517577442878974e-07 0.08816741406917572
v -4.580642223358154 -2.0 2.408813953399658
v -4.580642223358154 -1.0 1.9088143110275269
v -4.580642223358154 -1.0 2.408813953399658
v -4.580642223358154 -2.0 1.9088143110275269
v -4.459163188934326 -1.0 2.408813953399658
v -4.459163188934326 -2.0 1.9088143110275269
v -4.459163188934326 -2.0 2.408813953399658
v -4.459163188934326 -1.0 1.9088143110275269
v -4.459163188934326 1.51154210925597e-07 2.408813953399658
v -4.459163188934326 -1.0 1.9088143110275269
v -4.459163188934326 -1.0 2.408813953399658
v -4.459163188934326 1.5258788721439487e-07 1.9088143110275269
v -4.580642223358154 -1.0 2.408813953399658
v -4.580642223358154 1.5258788721439487e-07 1.9088143110275269
v -4.580642223358154 1.51154210925597e-07 2.408813953399658
v -4.580642223358154 -1.0 1.9088143110275269
v -4.459163188934326 0.9999993443489075 1.9088143110275269
v -4.459163188934326 -6.103515488575795e-07 0.08816726505756378
v -4.459163188934326 -7.629394076502649e-07 1.9088143110275269
v -4.459163188934326 0.9999995231628418 0.08816741406917572
v -4.620642185211182 0.9999995231628418 0.0
v -4.620642185211182 -6.103515488575795e-07 0.08816733956336975
v -4.620642185211182 -6.103515488575795e-07 0.0
v -4.620642185211182 0.9999995231628418 0.08816741406917572
v -4.379358291625977 0.9999995231628418 0.08816741406917572
v -4.379358291625977 -6.103515488575795e-07 0.0
v -4.379358291625977 -6.103515488575795e-07 0.08816733956336975
v -4.379358291625977 0.9999995231628418 0.0
v -4.580642223358154 0.9999995231628418 0.08816741406917572
v -4.580642223358154 -7.629394076502649e-07 1.9088143110275269
v -4.580642223358154 -6.103515488575795e-07 0.08816733956336975
v -4.580642223358154 0.9999993443489075 1.9088143110275269
v -4.379358291625977 1.9999996423721313 0.08816741406917572
v -4.459163188934326 0.9999995231628418 0.08816741406917572
v -4.459163188934326 1.9999996423721313 0.08816741406917572
v -4.379358291625977 0.9999995231628418 0.08816741406917572
v -4.620642185211182 -6.103515488575795e-07 0.08816733956336975
v -4.580642223358154 0.9999995231628418 0.08816741406917572
v -4.580642223358154 -6.103515488575795e-07 0.08816733956336975
v -4.620642185211182 0.9999995231628418 0.08816741406917572
v -4.459163188934326 0.9999993443489075 1.9088143110275269
v -4.459163188934326 1.9999996423721313 0.08816741406917572
v -4.459163188934326 0.9999995231628418 0.08816741406917572
v -4.459163188934326 1.9999994039535522 1.9088143110275269
v -4.620642185211182 0.9999995231628418 0.0
v -4.620642185211182 1.9999996423721313 0.08816741406917572
v -4.620642185211182 0.9999995231628418 0.08816741406917572
v -4.620642185211182 1.9999996423721313 0.0
v -4.379358291625977 0.9999995231628418 0.08816741406917572
v -4.379358291625977 1.9999996423721313 0.0
v -4.379358291625977 0.9999995231628418 0.0
v -4.379358291625977 1.9999996423721313 0.08816741406917572
v -4.580642223358154 0.9999995231628418 0.08816741406917572
v -4.580642223358154 1.9999994039535522 1.9088143110275269
v -4.580642223358154 0.9999993443489075 1.9088143110275269
v -4.580642223358154 1.9999996423721313 0.08816741406917572
v -4.379358291625977 0.9999995231628418 0.08816741406917572
v -4.459163188934326 -6.103515488575795e-07 0.08816726505756378
v -4.459163188934326 0.9999995231628418 0.08816741406917572
v -4.379358291625977 -6.103515488575795e-07 0.08816733956336975
v -4.620642185211182 0.9999995231628418 0.08816741406917572
v -4.580642223358154 1.9999996423721313 0.08816741406917572
v -4.580642223358154 0.9999995231628418 0.08816741406917572
v -4.620642185211182 1.9999996423721313 0.08816741406917572
v -4.580642223358154 -7.643731123607722e-07 2.408813953399658
v -4.580642223358154 0.9999993443489075 1.9088143110275269
v -4.580642223358154 0.9999993443489075 2.408813953399658
v -4.580642223358154 -7.629394076502649e-07 1.9088143110275269
v -4.459163188934326 0.9999993443489075 2.408813953399658
v -4.459163188934326 -7.629394076502649e-07 1.9088143110275269
v -4.459163188934326 -7.643731123607722e-07 2.408813953399658
v -4.459163188934326 0.9999993443489075 1.9088143110275269
v -4.459163188934326 1.9999994039535522 2.408813953399658
v -4.459163188934326 0.9999993443489075 1.9088143110275269
v -4.459163188934326 0.9999993443489075 2.408813953399658
v -4.459163188934326 1.9999994039535522 1.9088143110275269
v -4.580642223358154 0.9999993443489075 2.408813953399658
v -4.580642223358154 1.9999994039535522 1.9088143110275269
v -4.580642223358154 1.9999994039535522 2.408813953399658
v -4.580642223358154 0.9999993443489075 1.9088143110275269
v -4.399805068969727 -1.0000011920928955 2.5353832244873047
v -4.399805068969727 -2.0000014305114746 2.4088144302368164
v -4.399805068969727 -2.0000014305114746 2.5353832244873047
v -4.399805068969727 -1.0000011920928955 2.408813953399658
v -4.58352518081665 -1.0000011920928955 2.5353832244873047
v -4.399805068969727 -2.0000014305114746 2.5353832244873047
v -4.58352518081665 -2.0000014305114746 2.5353832244873047
v -4.399805068969727 -1.0000011920928955 2.5353832244873047
v -4.58352518081665 -1.0000011920928955 2.5353832244873047
v -4.399805068969727 -1.0681152389224735e-06 2.5353832244873047
v -4.399805068969727 -1.0000011920928955 2.5353832244873047
v -4.58352518081665 -1.0681152389224735e-06 2.5353832244873047
v -4.58352518081665 -1.0000011920928955 2.4088144302368164
v -4.58352518081665 -1.0681152389224735e-06 2.5353832244873047
v -4.58352518081665 -1.0000011920928955 2.5353832244873047
v -4.58352518081665 -1.0681152389224735e-06 2.4088144302368164
v -4.58352518081665 -1.0000011920928955 2.4088144302368164
v -4.58352518081665 -2.0000014305114746 2.5353832244873047
v -4.58352518081665 -2.0000014305114746 2.408813953399658
v -4.58352518081665 -1.0000011920928955 2.5353832244873047
v -4.399805068969727 -1.0000011920928955 2.408813953399658
v -4.399805068969727 -1.0681152389224735e-06 2.5353832244873047
v -4.399805068969727 -1.0681152389224735e-06 2.408813953399658
v -4.399805068969727 -1.0000011920928955 2.5353832244873047
v -4.399805068969727 1.0 2.5353832244873047
v -4.399805068969727 -1.5258788721439487e-07 2.4088144302368164
v -4.399805068969727 -1.5258788721439487e-07 2.5353832244873047
v -4.399805068969727 1.0 2.408813953399658
v -4.58352518081665 1.0 2.5353832244873047
v -4.399805068969727 -1.5258788721439487e-07 2.5353832244873047
v -4.58352518081665 -1.5258788721439487e-07 2.5353832244873047
v -4.399805068969727 1.0 2.5353832244873047
v -4.58352518081665 1.0 2.5353832244873047
v -4.399805068969727 2.0 2.5353832244873047
v -4.399805068969727 1.0 2.5353832244873047
v -4.58352518081665 2.0 2.5353832244873047
v -4.58352518081665 1.0 2.4088144302368164
v -4.58352518081665 2.0 2.5353832244873047
v -4.58352518081665 1.0 2.5353832244873047
v -4.58352518081665 2.0 2.4088144302368164
v -4.58352518081665 1.0 2.4088144302368164
v -4.58352518081665 -1.5258788721439487e-07 2.5353832244873047
v -4.58352518081665 -1.5258788721439487e-07 2.408813953399658
v -4.58352518081665 1.0 2.5353832244873047
v -4.399805068969727 1.0 2.408813953399658
v -4.399805068969727 2.0 2.5353832244873047
v -4.399805068969727 2.0 2.408813953399658
v -4.399805068969727 1.0 2.5353832244873047
v 1.5 -5.0 1.5000001192092896
v 2.0 -5.0 1.999991774559021
v 1.5 -5.0 1.999991774559021
v 2.0 -5.0 1.5000001192092896
v 0.5 -5.0 1.999991774559021
v 0.5 -5.0 1.5000001192092896
v -0.0 -5.0 1.5000001192092896
v -0.0 -5.0 1.999991774559021
v -0.5 -5.0 1.5000001192092896
v -0.0 -5.0 1.999991774559021
v -0.5 -5.0 1.999991774559021
v -0.0 -5.0 1.5000001192092896
v 0.5 5.0 1.5000001192092896
v -0.0 5.0 1.999991774559021
v 0.5 5.0 1.999991774559021
v -0.0 5.0 1.5000001192092896
v 1.5 5.0 1.999991774559021
v 1.5 5.0 1.5000001192092896
v 2.0 5.0 1.5000001192092896
v 2.0 5.0 1.999991774559021
v 2.5 5.0 1.5000001192092896
v 2.0 5.0 1.999991774559021
v 2.5 5.0 1.999991774559021
v 2.0 5.0 1.5000001192092896
v -0.0 5.0 1.5000001192092896
v -0.5 5.0 1.999991774559021
v -0.0 5.0 1.999991774559021
v -0.5 5.0 1.5000001192092896
v 2.0 -5.0 1.5000001192092896
v 2.5 -5.0 1.999991774559021
v 2.0 -5.0 1.999991774559021
v 2.5 -5.0 1.5000001192092896
vn -0.0 0.0 1.0
vn -0.0 0.0 1.0
vn -0.0 0.0 1.0
vn -0.0 0.0 1.0
vn -0.0 0.0 1.0
vn -0.0 0.0 1.0
vn -0.0 0.0 1.0
vn -0.0 0.0 1.0
vn -0.0 0.0 1.0
vn -0.0 0.0 1.0
vn -0.0 0.0 1.0
vn -0.0 0.0 1.0
vn -0.0 0.0 1.0
vn -0.0 0.0 1.0
vn -0.0 0.0 1.0
vn -0.0 0.0 1.0
vn -0.0 0.0 1.0
vn -0.0 0.0 1.0
vn -0.0 0.0 1.0
vn -0.0 0.0 1.0
vn -0.0 0.0 1.0
vn -0.0 0.0 1.0
vn -0.0 0.0 1.0
vn -0.0 0.0 1.0
vn -0.0 0.0 1.0
vn -0.0 0.0 1.0
vn -0.0 0.0 1.0
vn -0.0 0.0 1.0
vn -0.0 0.0 1.0
vn -0.0 0.0 1.0
vn -0.0 0.0 1.0
vn -0.0 0.0 1.0
vn -0.0 0.0 1.0
vn -0.0 0.0 1.0
vn -0.0 0.0 1.0
vn -0.0 0.0 1.0
vn -0.0 0.0 1.0
vn -0.0 0.0 1.0
vn -0.0 0.0 1.0
vn -0.0 0.0 1.0
vn -0.0 0.0 1.0
vn -0.0 0.0 1.0
vn -0.0 0.0 1.0
vn -0.0 0.0 1.0
vn -0.0 0.0 1.0
vn -0.0 0.0 1.0
vn -0.0 0.0 1.0
vn -0.0 0.0 1.0
vn -0.0 0.0 1.0
vn -0.0 0.0 1.0
vn -0.0 0.0 1.0
vn -0.0 0.0 1.0
vn -0.0 0.0 1.0
vn -0.0 0.0 1.0
vn -0.0 0.0 1.0
vn -0.0 0.0 1.0
vn -0.0 0.0 1.0
vn -0.0 0.0 1.0
vn -0.0 0.0 1.0
vn -0.0 0.0 1.0
vn -0.0 0.0 1.0
vn -0.0 0.0 1.0
vn -0.0 0.0 1.0
vn -0.0 0.0 1.0
vn -0.0 0.0 1.0
vn -0.0 0.0 1.0
vn -0.0 0.0 1.0
vn -0.0 0.0 1.0
vn -0.0 0.0 1.0
vn -0.0 0.0 1.0
vn -0.0 0.0 1.0
vn -0.0 0.0 1.0
vn -0.0 0.0 1.0
vn -0.0 0.0 1.0
vn -0.0 0.0 1.0
vn -0.0 0.0 1.0
vn -0.0 0.0 1.0
vn -0.0 0.0 1.0
vn -0.0 0.0 1.0
vn -0.0 0.0 1.0
vn -0.0 0.0 1.0
vn -0.0 0.0 1.0
vn -0.0 0.0 1.0
vn -0.0 0.0 1.0
vn -0.0 0.0 1.0
vn -0.0 0.0 1.0
vn -0.0 0.0 1.0
vn -0.0 0.0 1.0
vn -0.0 0.0 1.0
vn -0.0 0.0 1.0
vn -0.0 0.0 1.0
vn -0.0 0.0 1.0
vn -0.0 0.0 1.0
vn -0.0 0.0 1.0
vn -0.0 0.0 1.0
vn -0.0 0.0 1.0
vn -0.0 0.0 1.0
vn -0.0 0.0 1.0
vn -0.0 0.0 1.0
vn -0.0 0.0 1.0
vn -0.0 0.0 1.0
vn -0.0 0.0 1.0
vn -0.0 0.0 1.0
vn -0.0 0.0 1.0
vn -0.0 0.0 1.0
vn -0.0 0.0 1.0
vn -0.0 0.0 1.0
vn -0.0 0.0 1.0
vn -0.0 0.0 1.0
vn -0.0 0.0 1.0
vn -0.0 0.0 1.0
vn -0.0 0.0 1.0
vn -0.0 0.0 1.0
vn -0.0 0.0 1.0
vn -0.0 0.0 1.0
vn -0.0 0.0 1.0
vn -0.0 0.0 1.0
vn -0.0 0.0 1.0
vn -0.0 0.0 1.0
vn -0.0 0.0 1.0
vn -0.0 0.0 1.0
vn -0.0 0.0 1.0
vn -0.0 0.0 1.0
vn -0.0 0.0 1.0
vn -0.0 0.0 1.0
vn -0.0 0.0 1.0
vn -0.0 0.0 1.0
vn -0.0 0.0 1.0
vn -0.0 0.0 1.0
vn -0.0 0.0 1.0
vn -0.0 0.0 1.0
vn -0.0 0.0 1.0
vn -0.0 0.0 1.0
vn -0.0 0.0 1.0
vn -0.0 0.0 1.0
vn -0.0 0.0 1.0
vn -0.0 0.0 1.0
vn -0.0 0.0 1.0
vn -0.0 0.0 1.0
vn -0.0 0.0 1.0
vn -0.0 0.0 1.0
vn -0.0 0.0 1.0
vn -0.0 0.0 1.0
vn -0.0 0.0 1.0
vn -0.0 0.0 1.0
vn -0.0 0.0 1.0
vn -0.0 0.0 1.0
vn -0.0 0.0 1.0
vn -0.0 0.0 1.0
vn -0.0 0.0 1.0
vn -0.0 0.0 1.0
vn -0.0 0.0 1.0
vn -0.0 0.0 1.0
vn -0.0 0.0 1.0
vn -0.0 0.0 1.0
vn -0.0 0.0 1.0
vn -0.0 0.0 1.0
vn -0.0 0.0 1.0
vn -0.0 0.0 1.0
vn -0.0 0.0 1.0
vn -0.0 0.0 1.0
vn -0.0 0.0 1.0
vn -0.0 0.0 1.0
vn -0.0 0.0 1.0
vn -0.0 0.0 1.0
vn -0.0 0.0 1.0
vn -0.0 0.0 1.0
vn -0.0 0.0 1.0
vn -0.0 0.0 1.0
vn -0.0 0.0 1.0
vn -0.0 0.0 1.0
vn -0.0 0.0 1.0
vn -0.0 0.0 1.0
vn -0.0 0.0 1.0
vn -0.0 0.0 1.0
vn -0.0 0.0 1.0
vn -0.0 0.0 1.0
vn -0.0 0.0 1.0
vn -0.0 0.0 1.0
vn -0.0 0.0 1.0
vn -0.0 0.0 1.0
vn -0.0 0.0 1.0
vn -0.0 0.0 1.0
vn -0.0 0.0 1.0
vn -0.0 0.0 1.0
vn -0.0 0.0 1.0
vn -0.0 0.0 1.0
vn -0.0 0.0 1.0
vn -0.0 0.0 1.0
vn -0.0 0.0 1.0
vn -0.0 0.0 1.0
vn -0.0 0.0 1.0
vn -0.0 0.0 1.0
vn -0.0 0.0 1.0
vn -0.0 0.0 1.0
vn -0.0 0.0 1.0
vn -0.0 0.0 1.0
vn -0.0 0.0 1.0
vn -0.0 0.0 1.0
vn -0.0 0.0 1.0
vn -0.0 0.0 1.0
vn -0.0 0.0 1.0
vn -0.0 0.0 1.0
vn -0.0 0.0 1.0
vn -0.0 0.0 1.0
vn -0.0 0.0 1.0
vn -0.0 0.0 1.0
vn -0.0 0.0 1.0
vn -0.0 0.0 1.0
vn 1.0 0.0 0.0
vn 1.0 0.0 0.0
vn 1.0 0.0 0.0
vn 1.0 0.0 0.0
vn 1.0 0.0 0.0
vn 1.0 0.0 0.0
vn 1.0 0.0 0.0
vn 1.0 0.0 0.0
vn 1.0 0.0 0.0
vn 1.0 0.0 0.0
vn 1.0 0.0 0.0
vn 1.0 0.0 0.0
vn -0.0 0.0 1.0
vn -0.0 0.0 1.0
vn -0.0 0.0 1.0
vn -0.0 0.0 1.0
vn -0.0 0.0 1.0
vn -0.0 0.0 1.0
vn -0.0 0.0 1.0
vn -0.0 0.0 1.0
vn -0.0 0.0 1.0
vn -0.0 0.0 1.0
vn -0.0 0.0 1.0
vn -0.0 0.0 1.0
vn -0.0 0.0 1.0
vn -0.0 0.0 1.0
vn -0.0 0.0 1.0
vn -0.0 0.0 1.0
vn -0.0 0.0 1.0
vn -0.0 0.0 1.0
vn -0.0 0.0 1.0
vn -0.0 0.0 1.0
vn -0.0 0.0 1.0
vn -0.0 0.0 1.0
vn -0.0 0.0 1.0
vn -0.0 0.0 1.0
vn -0.0 0.0 1.0
vn -0.0 0.0 1.0
vn -0.0 0.0 1.0
vn -0.0 0.0 1.0
vn -0.0 0.0 1.0
vn -0.0 0.0 1.0
vn -0.0 0.0 1.0
vn -0.0 0.0 1.0
vn -0.0 0.0 1.0
vn -0.0 0.0 1.0
vn -0.0 0.0 1.0
vn -0.0 0.0 1.0
vn -0.0 0.0 1.0
vn -0.0 0.0 1.0
vn -0.0 0.0 1.0
vn -0.0 0.0 1.0
vn -0.0 0.0 1.0
vn -0.0 0.0 1.0
vn -0.0 0.0 1.0
vn -0.0 0.0 1.0
vn -0.0 0.0 1.0
vn -0.0 0.0 1.0
vn -0.0 0.0 1.0
vn -0.0 0.0 1.0
vn -0.0 0.0 1.0
vn -0.0 0.0 1.0
vn -0.0 0.0 1.0
vn -0.0 0.0 1.0
vn -0.0 0.0 1.0
vn -0.0 0.0 1.0
vn -0.0 0.0 1.0
vn -0.0 0.0 1.0
vn -0.0 0.0 1.0
vn -0.0 0.0 1.0
vn -0.0 0.0 1.0
vn -0.0 0.0 1.0
vn -0.0 0.0 1.0
vn -0.0 0.0 1.0
vn -0.0 0.0 1.0
vn -0.0 0.0 1.0
vn -0.0 0.0 1.0
vn -0.0 0.0 1.0
vn -0.0 0.0 1.0
vn -0.0 0.0 1.0
vn -0.0 0.0 1.0
vn -0.0 0.0 1.0
vn -0.0 0.0 1.0
vn -0.0 0.0 1.0
vn -0.0 0.0 1.0
vn -0.0 0.0 1.0
vn -0.0 0.0 1.0
vn -0.0 0.0 1.0
vn -0.0 0.0 1.0
vn -0.0 0.0 1.0
vn -0.0 0.0 1.0
vn -0.0 0.0 1.0
vn -0.0 0.0 1.0
vn -0.0 0.0 1.0
vn -0.0 0.0 1.0
vn -0.0 0.0 1.0
vn -0.0 0.0 1.0
vn -0.0 0.0 1.0
vn -0.0 0.0 1.0
vn -0.0 0.0 1.0
vn -0.0 0.0 1.0
vn -0.0 0.0 1.0
vn -0.0 0.0 1.0
vn -0.0 0.0 1.0
vn -0.0 0.0 1.0
vn -0.0 0.0 1.0
vn -0.0 0.0 1.0
vn -0.0 0.0 1.0
vn -0.0 0.0 1.0
vn -0.0 0.0 1.0
vn -0.0 0.0 1.0
vn -0.0 0.0 1.0
vn -0.0 0.0 1.0
vn -0.0 0.0 1.0
vn -0.0 0.0 1.0
vn -0.0 0.0 1.0
vn -0.0 0.0 1.0
vn -0.0 0.0 1.0
vn -0.0 0.0 1.0
vn -0.0 0.0 1.0
vn -0.0 0.0 1.0
vn -0.0 0.0 1.0
vn -0.0 0.0 1.0
vn -0.0 0.0 1.0
vn -0.0 0.0 1.0
vn -0.0 0.0 1.0
vn -0.0 0.0 1.0
vn -0.0 0.0 1.0
vn -0.0 0.0 1.0
vn -0.0 0.0 1.0
vn -0.0 0.0 1.0
vn -0.0 0.0 1.0
vn -0.0 0.0 1.0
vn -0.0 0.0 1.0
vn -0.0 0.0 1.0
vn -0.0 0.0 1.0
vn -0.0 0.0 1.0
vn -0.0 0.0 1.0
vn -0.0 0.0 1.0
vn -0.0 0.0 1.0
vn -0.0 0.0 1.0
vn -0.0 0.0 1.0
vn -0.0 0.0 1.0
vn -0.0 0.0 1.0
vn -0.0 0.0 1.0
vn -0.0 0.0 1.0
vn -0.0 0.0 1.0
vn 1.0 0.0 0.0
vn 1.0 0.0 0.0
vn 1.0 0.0 0.0
vn 1.0 0.0 0.0
vn 1.0 0.0 0.0
vn 1.0 0.0 0.0
vn 1.0 0.0 0.0
vn 1.0 0.0 0.0
vn 1.0 0.0 0.0
vn 1.0 0.0 0.0
vn 1.0 0.0 0.0
vn 1.0 0.0 0.0
vn -0.0 1.0 0.0
vn -0.0 1.0 0.0
vn -0.0 1.0 0.0
vn -0.0 1.0 0.0
vn -0.0 1.0 0.0
vn -0.0 1.0 0.0
vn -0.0 1.0 0.0
vn -0.0 1.0 0.0
vn -0.0 1.0 0.0
vn -0.0 1.0 0.0
vn -1.5045810641822754e-07 -1.0 0.0
vn -1.5045810641822754e-07 -1.0 0.0
vn -1.5045810641822754e-07 -1.0 0.0
vn -1.5045810641822754e-07 -1.0 0.0
vn -0.0 -1.0 0.0
vn -0.0 -1.0 0.0
vn -0.0 1.0 0.0
vn -0.0 1.0 0.0
vn -0.0 1.0 0.0
vn -0.0 1.0 0.0
vn -0.0 1.0 0.0
vn -0.0 1.0 0.0
vn -0.0 -1.0 0.0
vn -0.0 -1.0 0.0
vn -0.0 -1.0 0.0
vn -0.0 -1.0 0.0
vn -0.0 -1.0 0.0
vn -0.0 -1.0 0.0
vn -0.0 -1.0 0.0
vn -0.0 -1.0 0.0
vn -0.0 -1.0 0.0
vn -0.0 -1.0 0.0
vn 1.0 0.0 0.0
vn 1.0 0.0 0.0
vn 1.0 0.0 0.0
vn 1.0 0.0 0.0
vn 1.0 0.0 0.0
vn 1.0 0.0 0.0
vn 1.0 0.0 0.0
vn 1.0 0.0 0.0
vn 1.0 0.0 0.0
vn 1.0 0.0 0.0
vn 1.0 0.0 0.0
vn 1.0 0.0 0.0
vn 1.0 0.0 0.0
vn 1.0 0.0 0.0
vn 1.0 0.0 0.0
vn 1.0 0.0 0.0
vn -1.0 0.0 0.0
vn -1.0 0.0 0.0
vn -1.0 0.0 0.0
vn -1.0 0.0 0.0
vn 1.0 0.0 0.0
vn 1.0 0.0 0.0
vn 1.0 0.0 0.0
vn 1.0 0.0 0.0
vn -1.0 0.0 0.0
vn -1.0 0.0 0.0
vn -1.0 0.0 0.0
vn -1.0 0.0 0.0
vn -0.0 0.0 1.0
vn -0.0 0.0 1.0
vn -0.0 0.0 1.0
vn -0.0 0.0 1.0
vn -0.0 0.0 1.0
vn -0.0 0.0 1.0
vn -0.0 0.0 1.0
vn -0.0 0.0 1.0
vn 1.0 0.0 0.0
vn 1.0 0.0 0.0
vn 1.0 0.0 0.0
vn 1.0 0.0 0.0
vn -1.0 0.0 0.0
vn -1.0 0.0 0.0
vn -1.0 0.0 0.0
vn -1.0 0.0 0.0
vn 1.0 0.0 0.0
vn 1.0 0.0 0.0
vn 1.0 0.0 0.0
vn 1.0 0.0 0.0
vn -1.0 0.0 0.0
vn -1.0 0.0 0.0
vn -1.0 0.0 0.0
vn -1.0 0.0 0.0
vn -9.560083071846748e-07 0.0 1.0
vn -9.560083071846748e-07 0.0 1.0
vn -0.0 -1.5258785879268544e-07 1.0
vn -9.560083071846748e-07 0.0 1.0
vn -0.0 0.0 1.0
vn -0.0 0.0 1.0
vn -0.0 0.0 1.0
vn -0.0 0.0 1.0
vn -1.0 0.0 0.0
vn -1.0 0.0 0.0
vn -1.0 0.0 0.0
vn -1.0 0.0 0.0
vn 1.0 0.0 0.0
vn 1.0 0.0 0.0
vn 1.0 0.0 0.0
vn 1.0 0.0 0.0
vn 1.0 0.0 0.0
vn 1.0 0.0 0.0
vn 1.0 0.0 0.0
vn 1.0 0.0 0.0
vn -1.0 0.0 0.0
vn -1.0 0.0 0.0
vn -1.0 0.0 0.0
vn -1.0 0.0 0.0
vn 1.0 0.0 0.0
vn 1.0 0.0 0.0
vn 1.0 0.0 0.0
vn 1.0 0.0 0.0
vn -1.0 0.0 0.0
vn -1.0 0.0 0.0
vn -1.0 0.0 0.0
vn -1.0 0.0 0.0
vn 1.0 0.0 0.0
vn 1.0 0.0 0.0
vn 1.0 0.0 0.0
vn 1.0 0.0 0.0
vn -1.0 0.0 0.0
vn -1.0 0.0 0.0
vn -1.0 0.0 0.0
vn -1.0 0.0 0.0
vn -0.0 0.0 1.0
vn -0.0 0.0 1.0
vn -0.0 0.0 1.0
vn -0.0 0.0 1.0
vn -0.0 0.0 1.0
vn -0.0 0.0 1.0
vn -0.0 0.0 1.0
vn -0.0 0.0 1.0
vn 1.0 0.0 0.0
vn 1.0 0.0 0.0
vn 1.0 0.0 0.0
vn 1.0 0.0 0.0
vn -1.0 0.0 0.0
vn -1.0 0.0 0.0
vn -1.0 0.0 0.0
vn -1.0 0.0 0.0
vn 1.0 0.0 0.0
vn 1.0 0.0 0.0
vn 1.0 0.0 0.0
vn 1.0 0.0 0.0
vn -1.0 0.0 0.0
vn -1.0 0.0 0.0
vn -1.0 0.0 0.0
vn -1.0 0.0 0.0
vn -9.560083071846748e-07 0.0 1.0
vn -9.560083071846748e-07 0.0 1.0
vn -0.0 -1.5258785879268544e-07 1.0
vn -9.560083071846748e-07 0.0 1.0
vn -0.0 0.0 1.0
vn -0.0 0.0 1.0
vn -0.0 0.0 1.0
vn -0.0 0.0 1.0
vn -1.0 0.0 0.0
vn -1.0 0.0 0.0
vn -1.0 0.0 0.0
vn -1.0 0.0 0.0
vn 1.0 0.0 0.0
vn 1.0 0.0 0.0
vn 1.0 0.0 0.0
vn 1.0 0.0 0.0
vn 1.0 0.0 0.0
vn 1.0 0.0 0.0
vn 1.0 0.0 0.0
vn 1.0 0.0 0.0
vn -1.0 0.0 0.0
vn -1.0 0.0 0.0
vn -1.0 0.0 0.0
vn -1.0 0.0 0.0
vn 1.0 0.0 0.0
vn 1.0 0.0 0.0
vn 1.0 0.0 0.0
vn 1.0 0.0 0.0
vn -0.0 0.0 1.0
vn -0.0 0.0 1.0
vn -0.0 0.0 1.0
vn -0.0 0.0 1.0
vn -0.0 0.0 1.0
vn -0.0 0.0 1.0
vn -0.0 0.0 1.0
vn -0.0 0.0 1.0
vn -1.0 0.0 0.0
vn -1.0 0.0 0.0
vn -1.0 0.0 0.0
vn -1.0 0.0 0.0
vn -1.0 0.0 0.0
vn -1.0 0.0 0.0
vn -1.0 0.0 0.0
vn -1.0 0.0 0.0
vn 1.0 0.0 0.0
vn 1.0 0.0 0.0
vn 1.0 0.0 0.0
vn 1.0 0.0 0.0
vn 1.0 0.0 0.0
vn 1.0 0.0 0.0
vn 1.0 0.0 0.0
vn 1.0 0.0 0.0
vn -0.0 0.0 1.0
vn -0.0 0.0 1.0
vn -0.0 0.0 1.0
vn -0.0 0.0 1.0
vn -0.0 0.0 1.0
vn -0.0 0.0 1.0
vn -0.0 0.0 1.0
vn -0.0 0.0 1.0
vn -1.0 0.0 0.0
vn -1.0 0.0 0.0
vn -1.0 0.0 0.0
vn -1.0 0.0 0.0
vn -1.0 0.0 0.0
vn -1.0 0.0 0.0
vn -1.0 0.0 0.0
vn -1.0 0.0 0.0
vn 1.0 0.0 0.0
vn 1.0 0.0 0.0
vn 1.0 0.0 0.0
vn 1.0 0.0 0.0
vn -0.0 1.0 0.0
vn -0.0 1.0 0.0
vn -0.0 1.0 0.0
vn -0.0 1.0 0.0
vn -0.0 1.0 0.0
vn -0.0 1.0 0.0
vn -0.0 1.0 0.0
vn -0.0 1.0 0.0
vn -0.0 1.0 0.0
vn -0.0 1.0 0.0
vn -0.0 1.0 0.0
vn -0.0 1.0 0.0
vn -0.0 -1.0 0.0
vn -0.0 -1.0 0.0
vn -0.0 -1.0 0.0
vn -0.0 -1.0 0.0
vn -0.0 -1.0 0.0
vn -0.0 -1.0 0.0
vn -0.0 -1.0 0.0
vn -0.0 -1.0 0.0
vn -0.0 -1.0 0.0
vn -0.0 -1.0 0.0
vn -0.0 -1.0 0.0
vn -0.0 -1.0 0.0
vn -0.0 -1.0 0.0
vn -0.0 -1.0 0.0
vn -0.0 -1.0 0.0
vn -0.0 -1.0 0.0
vn -0.0 1.0 0.0
vn -0.0 1.0 0.0
vn -0.0 1.0 0.0
vn -0.0 1.0 0.0
vt 0.5 0.5
vt 0.0 1.0
vt 0.0 0.5
vt 0.5 1.0
vt 1.0 0.5
vt 1.0 1.0
vt 1.5000001192092896 0.5
vt 1.5000001192092896 1.0
vt 0.5 0.0
vt 0.0 0.0
vt 0.5 -0.5
vt 0.0 -0.5
vt 0.5 -1.0
vt 0.0 -1.0
vt 1.0 -1.0
vt 1.0 -0.5
vt 1.5000001192092896 -1.0
vt 1.5000001192092896 -0.5
vt 2.0 0.5
vt 1.5000001192092896 1.0
vt 1.5000001192092896 0.5
vt 2.0 1.0
vt 2.5 0.5
vt 2.5 1.0
vt 3.0 0.5
vt 3.0 1.0
vt 3.25 0.5
vt 3.25 1.0
vt 5.0 0.5
vt 4.5 1.0
vt 4.5 0.5
vt 5.0 1.0
vt 5.5 0.5
vt 5.5 1.0
vt 6.0 0.5
vt 6.0 1.0
vt 6.5 0.5
vt 6.5 1.0
vt 4.25 0.5
vt 4.25 1.0
vt 2.0 -1.0
vt 1.5000001192092896 -0.5
vt 1.5000001192092896 -1.0
vt 2.0 -0.5
vt 2.5 -1.0
vt 2.5 -0.5
vt 3.0 -1.0
vt 3.0 -0.5
vt 3.25 -1.0
vt 3.25 -0.5
vt 5.0 -1.0
vt 4.5 -0.5
vt 4.5 -1.0
vt 5.0 -0.5
vt 5.5 -1.0
vt 5.5 -0.5
vt 6.0 -1.0
vt 6.0 -0.5
vt 6.5 -1.0
vt 6.5 -0.5
vt 4.25 -1.0
vt 4.25 -0.5
vt 0.5 -1.5
vt 0.0 -1.0
vt 0.0 -1.5
vt 0.5 -1.0
vt 1.0 -1.5
vt 1.0 -1.0
vt 0.5 -2.0
vt 0.0 -2.0
vt 1.0 -2.0
vt 0.5 -2.5
vt 0.0 -2.5
vt 1.0 -2.5
vt 0.5 -3.0
vt 0.0 -2.5
vt 0.0 -3.0
vt 0.5 -2.5
vt 1.0 -3.0
vt 1.0 -2.5
vt 0.5 -3.5
vt 0.0 -3.5
vt 1.0 -3.5
vt 0.5 -4.0
vt 0.0 -4.0
vt 1.0 -4.0
vt 0.5 -4.500000476837158
vt 0.0 -4.500000476837158
vt 1.0 -4.500000476837158
vt 0.5 -5.000000953674316
vt 0.0 -4.500000476837158
vt 0.0 -5.000000953674316
vt 0.5 -4.500000476837158
vt 1.0 -5.000000953674316
vt 1.0 -4.500000476837158
vt 0.5 -5.500000953674316
vt 0.0 -5.500000953674316
vt 1.0 -5.500000953674316
vt 0.5 -6.000000953674316
vt 0.0 -6.000000953674316
vt 1.0 -6.000000953674316
vt 0.5 -6.500001430511475
vt 0.0 -6.000000953674316
vt 0.0 -6.500001430511475
vt 0.5 -6.000000953674316
vt 1.0 -6.500001430511475
vt 1.0 -6.000000953674316
vt 1.5000001192092896 -6.500001430511475
vt 1.5000001192092896 -6.000000953674316
vt 0.5 -7.000001907348633
vt 0.0 -7.000001907348633
vt 0.5 -7.500001907348633
vt 0.0 -7.500001907348633
vt 0.5 -8.000001907348633
vt 0.0 -8.000001907348633
vt 1.0 -8.000001907348633
vt 1.0 -7.500001907348633
vt 1.5000001192092896 -8.000001907348633
vt 1.5000001192092896 -7.500001907348633
vt 2.0 -6.500001430511475
vt 1.5000001192092896 -6.000000953674316
vt 1.5000001192092896 -6.500001430511475
vt 2.0 -6.000000953674316
vt 2.5 -6.500001430511475
vt 2.5 -6.000000953674316
vt 3.0 -6.500001430511475
vt 3.0 -6.000000953674316
vt 3.25 -6.500001430511475
vt 3.25 -6.000000953674316
vt 5.0 -6.500001430511475
vt 4.5 -6.000000953674316
vt 4.5 -6.500001430511475
vt 5.0 -6.000000953674316
vt 5.5 -6.500001430511475
vt 5.5 -6.000000953674316
vt 6.0 -6.500001430511475
vt 6.0 -6.000000953674316
vt 6.5 -6.500001430511475
vt 6.5 -6.000000953674316
vt 4.25 -6.500001430511475
vt 4.25 -6.000000953674316
vt 2.0 -8.000001907348633
vt 1.5000001192092896 -7.500001907348633
vt 1.5000001192092896 -8.000001907348633
vt 2.0 -7.500001907348633
vt 2.5 -8.000001907348633
vt 2.5 -7.500001907348633
vt 3.0 -8.000001907348633
vt 3.0 -7.500001907348633
vt 3.25 -8.000001907348633
vt 3.25 -7.500001907348633
vt 5.0 -8.000001907348633
vt 4.5 -7.500001907348633
vt 4.5 -8.000001907348633
vt 5.0 -7.500001907348633
vt 5.5 -8.000001907348633
vt 5.5 -7.500001907348633
vt 6.0 -8.000001907348633
vt 6.0 -7.500001907348633
vt 6.5 -8.000001907348633
vt 6.5 -7.500001907348633
vt 4.25 -8.000001907348633
vt 4.25 -7.500001907348633
vt 2.0 -2.0
vt 1.0 -1.0
vt 1.0 -2.0
vt 2.0 -1.0
vt 3.0 -2.0
vt 3.0 -1.0
vt 4.0 -2.0
vt 4.0 -1.0
vt 5.0 -2.0
vt 5.0 -1.0
vt 6.0 -2.0
vt 6.0 -1.0
vt 6.5 -2.0
vt 6.5 -1.0
vt 2.0 -3.0
vt 1.0 -2.5
vt 1.0 -3.0
vt 4.0 -3.0
vt 3.0 -3.0
vt 5.0 -3.0
vt 6.0 -3.0
vt 6.5 -3.0
vt 2.0 -4.0
vt 1.0 -3.5
vt 1.0 -4.0
vt 3.0 -4.0
vt 4.0 -4.0
vt 5.0 -4.0
vt 6.0 -4.0
vt 6.5 -4.0
vt 2.0 -5.000000953674316
vt 1.0 -4.500000476837158
vt 1.0 -5.000000953674316
vt 3.0 -5.000000953674316
vt 4.0 -5.000000953674316
vt 5.0 -5.000000953674316
vt 6.0 -5.000000953674316
vt 6.5 -5.000000953674316
vt 2.0 -6.000000953674316
vt 1.0 -5.500000953674316
vt 1.0 -6.000000953674316
vt 3.0 -6.000000953674316
vt 4.0 -6.000000953674316
vt 5.0 -6.000000953674316
vt 6.0 -6.000000953674316
vt 6.5 -6.000000953674316
vt 0.7521177530288696 0.7451903820037842
vt 0.9990465641021729 0.7451903820037842
vt 0.9990465641021729 0.7451903820037842
vt 0.7521177530288696 0.7451903820037842
vt 6.5 -0.5
vt 6.5 -1.0
vt 6.5 -1.0
vt 6.5 -0.5
vt 6.5 -6.000000953674316
vt 6.5 -6.500001430511475
vt 6.5 -6.500001430511475
vt 6.5 -6.000000953674316
vt 0.8737795352935791 0.5004677176475525
vt 0.6253389716148376 0.7473843693733215
vt 0.6253389716148376 0.5004677176475525
vt 0.8737795352935791 0.7473843693733215
vt 0.9990465641021729 0.5004677176475525
vt 0.9990465641021729 0.7473843693733215
vt 0.5012173652648926 0.5004677176475525
vt 0.5012173652648926 0.7473843693733215
vt 0.5012173652648926 0.09547382593154907
vt 0.9990465641021729 0.2983301877975464
vt 0.5012173652648926 0.2983301877975464
vt 0.7512937188148499 0.09547388553619385
vt 0.9990465641021729 0.09547388553619385
vt 0.9990465641021729 0.5011865794658661
vt 0.5012173652648926 0.5011865198612213
vt 0.9990465641021729 0.7451903820037842
vt 0.5012173652648926 0.5012660622596741
vt 0.9990465641021729 0.5012660622596741
vt 0.5012173652648926 0.7451903820037842
vt 0.9990465641021729 0.7451903820037842
vt 0.5012173652648926 0.5012660622596741
vt 0.9990465641021729 0.5012660622596741
vt 0.5012173652648926 0.7451903820037842
vt 0.9990465641021729 0.7451903820037842
vt 0.5012173652648926 0.5012660622596741
vt 0.9990465641021729 0.5012660622596741
vt 0.5012173652648926 0.7451903820037842
vt 0.9990465641021729 0.7451903820037842
vt 0.9990465641021729 0.5012660622596741
vt 0.9990465641021729 0.6232282221317291
vt 0.5012173652648926 0.5012660622596741
vt 0.5012173652648926 0.6232282221317291
vt 0.5012173652648926 0.7451903820037842
vt 0.9990465641021729 0.7451903820037842
vt 0.5012173652648926 0.5012660622596741
vt 0.9990465641021729 0.5012660622596741
vt 0.5012173652648926 0.7451903820037842
vt 0.9990465641021729 0.7451903820037842
vt 0.9990465641021729 0.5012660622596741
vt 0.9990465641021729 0.6232282221317291
vt 0.5012173652648926 0.5012660622596741
vt 0.5012173652648926 0.6232282221317291
vt 0.5012173652648926 0.7451903820037842
vt 0.9990465641021729 0.7451903820037842
vt 0.5012173652648926 0.5012660622596741
vt 0.9990465641021729 0.5012660622596741
vt 0.5012173652648926 0.7451903820037842
vt 0.9990465641021729 0.7451903820037842
vt 0.5012173652648926 0.5012660622596741
vt 0.9990465641021729 0.5012660622596741
vt 0.5012173652648926 0.7451903820037842
vt 0.9990465641021729 0.7451903820037842
vt 0.5012173652648926 0.5012660622596741
vt 0.9990465641021729 0.5012660622596741
vt 0.5012173652648926 0.7451903820037842
vt 0.7521177530288696 0.7451903820037842
vt 0.9990465641021729 0.5012660622596741
vt 0.9990465641021729 0.7451903820037842
vt 0.5012173652648926 0.5012660622596741
vt 0.5012173652648926 0.7451903820037842
vt 0.6266477108001709 0.7557635754346848
vt 0.874215841293335 0.5011480450630188
vt 0.874215841293335 0.7557635754346848
vt 0.6266477108001709 0.5011480450630188
vt 0.5012173652648926 0.7557635754346848
vt 0.5012173652648926 0.5011480450630188
vt 0.9990465641021729 0.7557635754346848
vt 0.9990465641021729 0.5011480450630188
vt 0.874215841293335 0.5011480450630188
vt 0.6266477108001709 0.7557635456323624
vt 0.6266477108001709 0.5011480450630188
vt 0.874215841293335 0.7557635456323624
vt 0.9990465641021729 0.5011480450630188
vt 0.9990465641021729 0.7557635456323624
vt 0.5012173652648926 0.5011480450630188
vt 0.5012173652648926 0.7557635456323624
vt 0.5012173652648926 0.09547382593154907
vt 0.9990465641021729 0.2983301877975464
vt 0.5012173652648926 0.2983301877975464
vt 0.7492173910140991 0.09547388553619385
vt 0.9990465641021729 0.09547388553619385
vt 0.9990465641021729 0.5011865794658661
vt 0.5012173652648926 0.5011865198612213
vt 0.9990465641021729 0.7451903820037842
vt 0.5012173652648926 0.5012660622596741
vt 0.9990465641021729 0.5012660622596741
vt 0.5012173652648926 0.7451903820037842
vt 0.9990465641021729 0.7451903820037842
vt 0.5012173652648926 0.5012660622596741
vt 0.9990465641021729 0.5012660622596741
vt 0.5012173652648926 0.7451903820037842
vt 0.9990465641021729 0.7451903820037842
vt 0.5012173652648926 0.5012660622596741
vt 0.9990465641021729 0.5012660622596741
vt 0.5012173652648926 0.7451903820037842
vt 0.9990465641021729 0.7451903820037842
vt 0.9990465641021729 0.5012660622596741
vt 0.9990465641021729 0.6232282221317291
vt 0.5012173652648926 0.5012660622596741
vt 0.5012173652648926 0.6232282221317291
vt 0.5012173652648926 0.7451903820037842
vt 0.9990465641021729 0.7451903820037842
vt 0.5012173652648926 0.5012660622596741
vt 0.9990465641021729 0.5012660622596741
vt 0.5012173652648926 0.7451903820037842
vt 0.9990465641021729 0.7451903820037842
vt 0.9990465641021729 0.5012660622596741
vt 0.9990465641021729 0.6232282221317291
vt 0.5012173652648926 0.5012660622596741
vt 0.5012173652648926 0.6232282221317291
vt 0.5012173652648926 0.7451903820037842
vt 0.9990465641021729 0.7451903820037842
vt 0.5012173652648926 0.5012660622596741
vt 0.9990465641021729 0.5012660622596741
vt 0.5012173652648926 0.7451903820037842
vt 0.9990465641021729 0.7451903820037842
vt 0.5012173652648926 0.5012660622596741
vt 0.9990465641021729 0.5012660622596741
vt 0.5012173652648926 0.7451903820037842
vt 0.9990465641021729 0.7451903820037842
vt 0.5012173652648926 0.5012660622596741
vt 0.9990465641021729 0.5012660622596741
vt 0.5012173652648926 0.7451903820037842
vt 0.9990465641021729 0.7451903820037842
vt 0.5012173652648926 0.5012660622596741
vt 0.9990465641021729 0.5012660622596741
vt 0.5012173652648926 0.7451903820037842
vt 0.8737795352935791 0.5004677176475525
vt 0.6253389716148376 0.7473843693733215
vt 0.6253389716148376 0.5004677176475525
vt 0.8737795352935791 0.7473843693733215
vt 0.9990465641021729 0.5004677176475525
vt 0.9990465641021729 0.7473843693733215
vt 0.5012173652648926 0.5004677176475525
vt 0.5012173652648926 0.7473843693733215
vt 0.750698447227478 0.8761987015604973
vt 0.5022820234298706 0.9979999726638198
vt 0.5012173652648926 0.8761987015604973
vt 0.750698447227478 0.9979999726638198
vt 0.9990465641021729 0.7543680816888809
vt 0.5012173652648926 0.8732965141534805
vt 0.5012173652648926 0.7543680816888809
vt 0.9990465641021729 0.8732965141534805
vt 0.9990465641021729 0.8761987015604973
vt 0.750698447227478 0.9979999726638198
vt 0.750698447227478 0.8761987015604973
vt 0.9990465641021729 0.9979999726638198
vt 0.750698447227478 0.8761987015604973
vt 0.5022820234298706 0.9979999726638198
vt 0.5012173652648926 0.8761987015604973
vt 0.750698447227478 0.9979999726638198
vt 0.9990465641021729 0.8761987015604973
vt 0.9990465641021729 0.9979999726638198
vt 0.750698447227478 0.8761987015604973
vt 0.5022820234298706 0.9979999726638198
vt 0.5012173652648926 0.8761987015604973
vt 0.750698447227478 0.9979999726638198
vt 0.750698447227478 0.8761987015604973
vt 0.5022820234298706 0.9979999726638198
vt 0.5012173652648926 0.8761987015604973
vt 0.750698447227478 0.9979999726638198
vt 0.9990465641021729 0.8761987015604973
vt 0.9990465641021729 0.9979999726638198
vt 0.750698447227478 0.8761987015604973
vt 0.5022820234298706 0.9979999726638198
vt 0.5012173652648926 0.8761987015604973
vt 0.750698447227478 0.9979999726638198
vt 0.9990465641021729 0.8761987015604973
vt 0.9990465641021729 0.9979999726638198
vt 0.750698447227478 0.8761987015604973
vt 0.5022820234298706 0.9979999726638198
vt 0.5012173652648926 0.8761987015604973
vt 0.750698447227478 0.9979999726638198
vt 0.9990465641021729 0.8761987015604973
vt 0.9990465641021729 0.9979999726638198
vt 0.750698447227478 0.8761987015604973
vt 0.5022820234298706 0.9979999726638198
vt 0.5012173652648926 0.8761987015604973
vt 0.750698447227478 0.9979999726638198
vt 0.750698447227478 0.8761987015604973
vt 0.5022820234298706 0.9979999726638198
vt 0.5012173652648926 0.8761987015604973
vt 0.750698447227478 0.9979999726638198
vt 0.9990465641021729 0.7543680816888809
vt 0.5012173652648926 0.8732965141534805
vt 0.5012173652648926 0.7543680816888809
vt 0.9990465641021729 0.8732965141534805
vt 0.9990465641021729 0.8761987015604973
vt 0.750698447227478 0.9979999726638198
vt 0.750698447227478 0.8761987015604973
vt 0.9990465641021729 0.9979999726638198
vt 0.49922022223472595 0.5988225340843201
vt 0.25328272581100464 0.9655290693044662
vt 0.25328272581100464 0.5988225340843201
vt 0.49922022223472595 0.9655290693044662
vt 0.25328272581100464 0.9990627635270357
vt 0.49922022223472595 0.9724165666848421
vt 0.49922022223472595 0.9990627635270357
vt 0.25328272581100464 0.9724165666848421
vt 0.49922022223472595 0.9724165666848421
vt 0.25328272581100464 0.9990627635270357
vt 0.25328272581100464 0.9724165666848421
vt 0.49922022223472595 0.9990627635270357
vt 0.25328272581100464 0.9655290693044662
vt 0.49922022223472595 0.5988225340843201
vt 0.49922022223472595 0.9655290693044662
vt 0.25328272581100464 0.5988225340843201
vt 0.49922022223472595 0.9724165666848421
vt 0.25328272581100464 0.9655290693044662
vt 0.49922022223472595 0.9655290693044662
vt 0.25328272581100464 0.9724165666848421
vt 0.49922022223472595 0.9724165666848421
vt 0.25328272581100464 0.9655290693044662
vt 0.49922022223472595 0.9655290693044662
vt 0.25328272581100464 0.9724165666848421
vt 0.25328272581100464 0.5988225340843201
vt 0.49922022223472595 0.9655290693044662
vt 0.25328272581100464 0.9655290693044662
vt 0.49922022223472595 0.5988225340843201
vt 0.49922022223472595 0.9990627635270357
vt 0.25328272581100464 0.9724165666848421
vt 0.49922022223472595 0.9724165666848421
vt 0.25328272581100464 0.9990627635270357
vt 0.25328272581100464 0.9724165666848421
vt 0.49922022223472595 0.9990627635270357
vt 0.25328272581100464 0.9990627635270357
vt 0.49922022223472595 0.9724165666848421
vt 0.49922022223472595 0.9655290693044662
vt 0.25328272581100464 0.5988225340843201
vt 0.49922022223472595 0.5988225340843201
vt 0.25328272581100464 0.9655290693044662
vt 0.49922022223472595 0.9724165666848421
vt 0.25328272581100464 0.9655290693044662
vt 0.49922022223472595 0.9655290693044662
vt 0.25328272581100464 0.9724165666848421
vt 0.49922022223472595 0.9724165666848421
vt 0.25328272581100464 0.9655290693044662
vt 0.49922022223472595 0.9655290693044662
vt 0.25328272581100464 0.9724165666848421
vt 0.4986524283885956 0.4797779321670532
vt 0.25422778725624084 0.5930817723274231
vt 0.25422778725624084 0.4797779321670532
vt 0.4986524283885956 0.5930817723274231
vt 0.4986524283885956 0.4797779321670532
vt 0.25422778725624084 0.5930817723274231
vt 0.25422778725624084 0.4797779321670532
vt 0.4986524283885956 0.5930817723274231
vt 0.4986524283885956 0.4797779321670532
vt 0.25422778725624084 0.5930817723274231
vt 0.25422778725624084 0.4797779321670532
vt 0.4986524283885956 0.5930817723274231
vt 0.4986524283885956 0.4797779321670532
vt 0.25422778725624084 0.5930817723274231
vt 0.25422778725624084 0.4797779321670532
vt 0.4986524283885956 0.5930817723274231
vt 0.49922022223472595 0.5988225340843201
vt 0.25328272581100464 0.9655290693044662
vt 0.25328272581100464 0.5988225340843201
vt 0.49922022223472595 0.9655290693044662
vt 0.25328272581100464 0.9990627635270357
vt 0.49922022223472595 0.9724165666848421
vt 0.49922022223472595 0.9990627635270357
vt 0.25328272581100464 0.9724165666848421
vt 0.49922022223472595 0.9724165666848421
vt 0.25328272581100464 0.9990627635270357
vt 0.25328272581100464 0.9724165666848421
vt 0.49922022223472595 0.9990627635270357
vt 0.25328272581100464 0.9655290693044662
vt 0.49922022223472595 0.5988225340843201
vt 0.49922022223472595 0.9655290693044662
vt 0.25328272581100464 0.5988225340843201
vt 0.49922022223472595 0.9724165666848421
vt 0.25328272581100464 0.9655290693044662
vt 0.49922022223472595 0.9655290693044662
vt 0.25328272581100464 0.9724165666848421
vt 0.49922022223472595 0.9724165666848421
vt 0.25328272581100464 0.9655290693044662
vt 0.49922022223472595 0.9655290693044662
vt 0.25328272581100464 0.9724165666848421
vt 0.25328272581100464 0.5988225340843201
vt 0.49922022223472595 0.9655290693044662
vt 0.25328272581100464 0.9655290693044662
vt 0.49922022223472595 0.5988225340843201
vt 0.49922022223472595 0.9990627635270357
vt 0.25328272581100464 0.9724165666848421
vt 0.49922022223472595 0.9724165666848421
vt 0.25328272581100464 0.9990627635270357
vt 0.25328272581100464 0.9724165666848421
vt 0.49922022223472595 0.9990627635270357
vt 0.25328272581100464 0.9990627635270357
vt 0.49922022223472595 0.9724165666848421
vt 0.49922022223472595 0.9655290693044662
vt 0.25328272581100464 0.5988225340843201
vt 0.49922022223472595 0.5988225340843201
vt 0.25328272581100464 0.9655290693044662
vt 0.49922022223472595 0.9724165666848421
vt 0.25328272581100464 0.9655290693044662
vt 0.49922022223472595 0.9655290693044662
vt 0.25328272581100464 0.9724165666848421
vt 0.49922022223472595 0.9724165666848421
vt 0.25328272581100464 0.9655290693044662
vt 0.49922022223472595 0.9655290693044662
vt 0.25328272581100464 0.9724165666848421
vt 0.4986524283885956 0.4797779321670532
vt 0.25422778725624084 0.5930817723274231
vt 0.25422778725624084 0.4797779321670532
vt 0.4986524283885956 0.5930817723274231
vt 0.4986524283885956 0.4797779321670532
vt 0.25422778725624084 0.5930817723274231
vt 0.25422778725624084 0.4797779321670532
vt 0.4986524283885956 0.5930817723274231
vt 0.4986524283885956 0.4797779321670532
vt 0.25422778725624084 0.5930817723274231
vt 0.25422778725624084 0.4797779321670532
vt 0.4986524283885956 0.5930817723274231
vt 0.4986524283885956 0.4797779321670532
vt 0.25422778725624084 0.5930817723274231
vt 0.25422778725624084 0.4797779321670532
vt 0.4986524283885956 0.5930817723274231
vt 0.4976862668991089 0.45631706714630127
vt 0.25174880027770996 0.476348876953125
vt 0.25174880027770996 0.45631706714630127
vt 0.4976862668991089 0.47634899616241455
vt 0.4976862668991089 0.4080771803855896
vt 0.25174880027770996 0.45631706714630127
vt 0.25174880027770996 0.4080771803855896
vt 0.4976862668991089 0.45631706714630127
vt 0.25174880027770996 0.4080771803855896
vt 0.4976862668991089 0.45631706714630127
vt 0.25174880027770996 0.45631706714630127
vt 0.4976862668991089 0.4080771803855896
vt 0.4976862668991089 0.476348876953125
vt 0.25174880027770996 0.45631706714630127
vt 0.4976862668991089 0.45631706714630127
vt 0.25174880027770996 0.476348876953125
vt 0.25174880027770996 0.476348876953125
vt 0.4976862668991089 0.45631706714630127
vt 0.4976862668991089 0.47634899616241455
vt 0.25174880027770996 0.45631706714630127
vt 0.25174880027770996 0.47634899616241455
vt 0.4976862668991089 0.45631706714630127
vt 0.4976862668991089 0.47634899616241455
vt 0.25174880027770996 0.45631706714630127
vt 0.4976862668991089 0.45631706714630127
vt 0.25174880027770996 0.476348876953125
vt 0.25174880027770996 0.45631706714630127
vt 0.4976862668991089 0.47634899616241455
vt 0.4976862668991089 0.4080771803855896
vt 0.25174880027770996 0.45631706714630127
vt 0.25174880027770996 0.4080771803855896
vt 0.4976862668991089 0.45631706714630127
vt 0.25174880027770996 0.4080771803855896
vt 0.4976862668991089 0.45631706714630127
vt 0.25174880027770996 0.45631706714630127
vt 0.4976862668991089 0.4080771803855896
vt 0.4976862668991089 0.476348876953125
vt 0.25174880027770996 0.45631706714630127
vt 0.4976862668991089 0.45631706714630127
vt 0.25174880027770996 0.476348876953125
vt 0.25174880027770996 0.476348876953125
vt 0.4976862668991089 0.45631706714630127
vt 0.4976862668991089 0.47634899616241455
vt 0.25174880027770996 0.45631706714630127
vt 0.25174880027770996 0.47634899616241455
vt 0.4976862668991089 0.45631706714630127
vt 0.4976862668991089 0.47634899616241455
vt 0.25174880027770996 0.45631706714630127
vt 0.6266477108001709 0.8715949058532715
vt 0.5012173652648926 0.7557635754346848
vt 0.6266477108001709 0.7557635754346848
vt 0.5012173652648926 0.8715949058532715
vt 0.874215841293335 0.7557635754346848
vt 0.874215841293335 0.8715948462486267
vt 0.9990465641021729 0.8715948462486267
vt 0.9990465641021729 0.7557635754346848
vt 0.7504379749298096 0.9980000136420131
vt 0.6263614892959595 0.8764771968126297
vt 0.7504379749298096 0.8764771968126297
vt 0.6263614892959595 0.9980000136420131
vt 0.6266477108001709 0.8715948462486267
vt 0.5012173652648926 0.7557635456323624
vt 0.6266477108001709 0.7557635456323624
vt 0.5012173652648926 0.8715948462486267
vt 0.874215841293335 0.7557635456323624
vt 0.874215841293335 0.8715948462486267
vt 0.9990465641021729 0.8715948462486267
vt 0.9990465641021729 0.7557635456323624
vt 0.7504379749298096 0.9980000136420131
vt 0.6263614892959595 0.8764771968126297
vt 0.7504379749298096 0.8764771968126297
vt 0.6263614892959595 0.9980000136420131
vt 0.6264420747756958 0.9980000136420131
vt 0.5012173652648926 0.8764771968126297
vt 0.6264420747756958 0.8764771968126297
vt 0.5023656487464905 0.9980000136420131
vt 0.6264420747756958 0.9980000136420131
vt 0.5012173652648926 0.8764771968126297
vt 0.6264420747756958 0.8764771968126297
vt 0.5023656487464905 0.9980000136420131

g bg_mdl_map_yuka00
s 1
usemtl bg_mdl_map_yuka00_0
f 3/3/3 2/2/2 1/1/1 
f 4/4/4 1/1/1 2/2/2 
f 1/1/1 4/4/4 5/5/5 
f 6/6/6 5/5/5 4/4/4 
f 5/5/5 6/6/6 7/7/7 
f 8/8/8 7/7/7 6/6/6 
f 1/1/1 9/9/9 3/3/3 
f 9/9/9 10/10/10 3/3/3 
f 11/11/11 10/10/10 9/9/9 
f 12/12/12 10/10/10 11/11/11 
f 11/11/11 13/13/13 12/12/12 
f 14/14/14 12/12/12 13/13/13 
f 13/13/13 11/11/11 15/15/15 
f 16/16/16 15/15/15 11/11/11 
f 15/15/15 16/16/16 17/17/17 
f 18/18/18 17/17/17 16/16/16 
f 21/21/21 20/20/20 19/19/19 
f 22/22/22 19/19/19 20/20/20 
f 19/19/19 22/22/22 23/23/23 
f 24/24/24 23/23/23 22/22/22 
f 23/23/23 24/24/24 25/25/25 
f 26/26/26 25/25/25 24/24/24 
f 25/25/25 26/26/26 27/27/27 
f 28/28/28 27/27/27 26/26/26 
f 31/31/31 30/30/30 29/29/29 
f 32/32/32 29/29/29 30/30/30 
f 29/29/29 32/32/32 33/33/33 
f 34/34/34 33/33/33 32/32/32 
f 33/33/33 34/34/34 35/35/35 
f 36/36/36 35/35/35 34/34/34 
f 35/35/35 36/36/36 37/37/37 
f 38/38/38 37/37/37 36/36/36 
f 31/31/31 39/39/39 30/30/30 
f 40/40/40 30/30/30 39/39/39 
f 43/43/43 42/42/42 41/41/41 
f 44/44/44 41/41/41 42/42/42 
f 41/41/41 44/44/44 45/45/45 
f 46/46/46 45/45/45 44/44/44 
f 45/45/45 46/46/46 47/47/47 
f 48/48/48 47/47/47 46/46/46 
f 47/47/47 48/48/48 49/49/49 
f 50/50/50 49/49/49 48/48/48 
f 53/53/53 52/52/52 51/51/51 
f 54/54/54 51/51/51 52/52/52 
f 51/51/51 54/54/54 55/55/55 
f 56/56/56 55/55/55 54/54/54 
f 55/55/55 56/56/56 57/57/57 
f 58/58/58 57/57/57 56/56/56 
f 57/57/57 58/58/58 59/59/59 
f 60/60/60 59/59/59 58/58/58 
f 53/53/53 61/61/61 52/52/52 
f 62/62/62 52/52/52 61/61/61 
f 65/65/65 64/64/64 63/63/63 
f 66/66/66 63/63/63 64/64/64 
f 63/63/63 66/66/66 67/67/67 
f 68/68/68 67/67/67 66/66/66 
f 63/63/63 69/69/69 65/65/65 
f 70/70/70 65/65/65 69/69/69 
f 69/69/69 63/63/63 71/71/71 
f 67/67/67 71/71/71 63/63/63 
f 69/69/69 72/72/72 70/70/70 
f 73/73/73 70/70/70 72/72/72 
f 72/72/72 69/69/69 74/74/74 
f 71/71/71 74/74/74 69/69/69 
f 77/77/77 76/76/76 75/75/75 
f 78/78/78 75/75/75 76/76/76 
f 75/75/75 78/78/78 79/79/79 
f 80/80/80 79/79/79 78/78/78 
f 75/75/75 81/81/81 77/77/77 
f 82/82/82 77/77/77 81/81/81 
f 81/81/81 75/75/75 83/83/83 
f 79/79/79 83/83/83 75/75/75 
f 81/81/81 84/84/84 82/82/82 
f 85/85/85 82/82/82 84/84/84 
f 84/84/84 81/81/81 86/86/86 
f 83/83/83 86/86/86 81/81/81 
f 84/84/84 87/87/87 85/85/85 
f 88/88/88 85/85/85 87/87/87 
f 87/87/87 84/84/84 89/89/89 
f 86/86/86 89/89/89 84/84/84 
f 92/92/92 91/91/91 90/90/90 
f 93/93/93 90/90/90 91/91/91 
f 90/90/90 93/93/93 94/94/94 
f 95/95/95 94/94/94 93/93/93 
f 90/90/90 96/96/96 92/92/92 
f 97/97/97 92/92/92 96/96/96 
f 96/96/96 90/90/90 98/98/98 
f 94/94/94 98/98/98 90/90/90 
f 96/96/96 99/99/99 97/97/97 
f 100/100/100 97/97/97 99/99/99 
f 99/99/99 96/96/96 101/101/101 
f 98/98/98 101/101/101 96/96/96 
f 104/104/104 103/103/103 102/102/102 
f 105/105/105 102/102/102 103/103/103 
f 102/102/102 105/105/105 106/106/106 
f 107/107/107 106/106/106 105/105/105 
f 106/106/106 107/107/107 108/108/108 
f 109/109/109 108/108/108 107/107/107 
f 102/102/102 110/110/110 104/104/104 
f 111/111/111 104/104/104 110/110/110 
f 110/110/110 112/112/112 111/111/111 
f 113/113/113 111/111/111 112/112/112 
f 112/112/112 114/114/114 113/113/113 
f 115/115/115 113/113/113 114/114/114 
f 114/114/114 112/112/112 116/116/116 
f 117/117/117 116/116/116 112/112/112 
f 116/116/116 117/117/117 118/118/118 
f 119/119/119 118/118/118 117/117/117 
f 122/122/122 121/121/121 120/120/120 
f 123/123/123 120/120/120 121/121/121 
f 120/120/120 123/123/123 124/124/124 
f 125/125/125 124/124/124 123/123/123 
f 124/124/124 125/125/125 126/126/126 
f 127/127/127 126/126/126 125/125/125 
f 126/126/126 127/127/127 128/128/128 
f 129/129/129 128/128/128 127/127/127 
f 132/132/132 131/131/131 130/130/130 
f 133/133/133 130/130/130 131/131/131 
f 130/130/130 133/133/133 134/134/134 
f 135/135/135 134/134/134 133/133/133 
f 134/134/134 135/135/135 136/136/136 
f 137/137/137 136/136/136 135/135/135 
f 136/136/136 137/137/137 138/138/138 
f 139/139/139 138/138/138 137/137/137 
f 132/132/132 140/140/140 131/131/131 
f 141/141/141 131/131/131 140/140/140 
f 144/144/144 143/143/143 142/142/142 
f 145/145/145 142/142/142 143/143/143 
f 142/142/142 145/145/145 146/146/146 
f 147/147/147 146/146/146 145/145/145 
f 146/146/146 147/147/147 148/148/148 
f 149/149/149 148/148/148 147/147/147 
f 148/148/148 149/149/149 150/150/150 
f 151/151/151 150/150/150 149/149/149 
f 154/154/154 153/153/153 152/152/152 
f 155/155/155 152/152/152 153/153/153 
f 152/152/152 155/155/155 156/156/156 
f 157/157/157 156/156/156 155/155/155 
f 156/156/156 157/157/157 158/158/158 
f 159/159/159 158/158/158 157/157/157 
f 158/158/158 159/159/159 160/160/160 
f 161/161/161 160/160/160 159/159/159 
f 154/154/154 162/162/162 153/153/153 
f 163/163/163 153/153/153 162/162/162 
f 166/166/166 165/165/165 164/164/164 
f 167/167/167 164/164/164 165/165/165 
f 164/164/164 167/167/167 168/168/168 
f 169/169/169 168/168/168 167/167/167 
f 168/168/168 169/169/169 170/170/170 
f 171/171/171 170/170/170 169/169/169 
f 170/170/170 171/171/171 172/172/172 
f 173/173/173 172/172/172 171/171/171 
f 172/172/172 173/173/173 174/174/174 
f 175/175/175 174/174/174 173/173/173 
f 174/174/174 175/175/175 176/176/176 
f 177/177/177 176/176/176 175/175/175 
f 164/164/164 178/178/178 166/166/166 
f 178/178/178 179/179/179 166/166/166 
f 180/180/180 179/179/179 178/178/178 
f 170/170/170 181/181/181 168/168/168 
f 182/182/182 168/168/168 181/181/181 
f 178/178/178 164/164/164 182/182/182 
f 168/168/168 182/182/182 164/164/164 
f 181/181/181 170/170/170 183/183/183 
f 172/172/172 183/183/183 170/170/170 
f 183/183/183 172/172/172 184/184/184 
f 174/174/174 184/184/184 172/172/172 
f 184/184/184 174/174/174 185/185/185 
f 176/176/176 185/185/185 174/174/174 
f 178/178/178 186/186/186 180/180/180 
f 186/186/186 187/187/187 180/180/180 
f 188/188/188 187/187/187 186/186/186 
f 186/186/186 178/178/178 189/189/189 
f 182/182/182 189/189/189 178/178/178 
f 189/189/189 182/182/182 190/190/190 
f 181/181/181 190/190/190 182/182/182 
f 190/190/190 181/181/181 191/191/191 
f 183/183/183 191/191/191 181/181/181 
f 191/191/191 183/183/183 192/192/192 
f 184/184/184 192/192/192 183/183/183 
f 192/192/192 184/184/184 193/193/193 
f 185/185/185 193/193/193 184/184/184 
f 186/186/186 194/194/194 188/188/188 
f 194/194/194 195/195/195 188/188/188 
f 196/196/196 195/195/195 194/194/194 
f 194/194/194 186/186/186 197/197/197 
f 189/189/189 197/197/197 186/186/186 
f 197/197/197 189/189/189 198/198/198 
f 190/190/190 198/198/198 189/189/189 
f 198/198/198 190/190/190 199/199/199 
f 191/191/191 199/199/199 190/190/190 
f 199/199/199 191/191/191 200/200/200 
f 192/192/192 200/200/200 191/191/191 
f 200/200/200 192/192/192 201/201/201 
f 193/193/193 201/201/201 192/192/192 
f 194/194/194 202/202/202 196/196/196 
f 202/202/202 203/203/203 196/196/196 
f 204/204/204 203/203/203 202/202/202 
f 202/202/202 194/194/194 205/205/205 
f 197/197/197 205/205/205 194/194/194 
f 205/205/205 197/197/197 206/206/206 
f 198/198/198 206/206/206 197/197/197 
f 206/206/206 198/198/198 207/207/207 
f 199/199/199 207/207/207 198/198/198 
f 207/207/207 199/199/199 208/208/208 
f 200/200/200 208/208/208 199/199/199 
f 208/208/208 200/200/200 209/209/209 
f 201/201/201 209/209/209 200/200/200 
f 212/212/212 211/211/211 210/210/210 
f 213/213/213 210/210/210 211/211/211 
f 216/216/216 215/215/215 214/214/214 
f 217/217/217 214/214/214 215/215/215 
f 220/220/220 219/219/219 218/218/218 
f 221/221/221 218/218/218 219/219/219 

usemtl bg_mdl_map_yuka00_1
f 224/224/224 223/223/223 222/222/222 
f 225/225/225 222/222/222 223/223/223 
f 222/222/222 225/225/225 226/226/226 
f 227/227/227 226/226/226 225/225/225 
f 224/224/224 228/228/228 223/223/223 
f 229/229/229 223/223/223 228/228/228 
f 232/232/232 231/231/231 230/230/230 
f 231/231/231 233/233/233 230/230/230 
f 234/234/234 233/233/233 231/231/231 
f 231/231/231 232/232/232 235/235/235 
f 236/236/236 235/235/235 232/232/232 
f 239/239/239 238/238/238 237/237/237 
f 240/240/240 237/237/237 238/238/238 
f 243/243/243 242/242/242 241/241/241 
f 244/244/244 241/241/241 242/242/242 
f 247/247/247 246/246/246 245/245/245 
f 248/248/248 245/245/245 246/246/246 
f 251/251/251 250/250/250 249/249/249 
f 250/250/250 252/252/252 249/249/249 
f 252/252/252 253/253/253 249/249/249 
f 253/253/253 254/254/254 249/249/249 
f 257/257/257 256/256/256 255/255/255 
f 258/258/258 255/255/255 256/256/256 
f 261/261/261 260/260/260 259/259/259 
f 260/260/260 262/262/262 259/259/259 
f 262/262/262 263/263/263 259/259/259 
f 263/263/263 264/264/264 259/259/259 
f 267/267/267 266/266/266 265/265/265 
f 268/268/268 265/265/265 266/266/266 
f 271/271/271 270/270/270 269/269/269 
f 272/272/272 269/269/269 270/270/270 
f 275/275/275 274/274/274 273/273/273 
f 276/276/276 273/273/273 274/274/274 
f 279/279/279 278/278/278 277/277/277 
f 278/278/278 280/280/280 277/277/277 
f 280/280/280 281/281/281 277/277/277 
f 284/284/284 283/283/283 282/282/282 
f 285/285/285 282/282/282 283/283/283 
f 282/282/282 285/285/285 286/286/286 
f 287/287/287 286/286/286 285/285/285 
f 284/284/284 288/288/288 283/283/283 
f 289/289/289 283/283/283 288/288/288 
f 292/292/292 291/291/291 290/290/290 
f 293/293/293 290/290/290 291/291/291 
f 290/290/290 293/293/293 294/294/294 
f 295/295/295 294/294/294 293/293/293 
f 292/292/292 296/296/296 291/291/291 
f 297/297/297 291/291/291 296/296/296 
f 300/300/300 299/299/299 298/298/298 
f 299/299/299 301/301/301 298/298/298 
f 302/302/302 301/301/301 299/299/299 
f 299/299/299 300/300/300 303/303/303 
f 304/304/304 303/303/303 300/300/300 
f 307/307/307 306/306/306 305/305/305 
f 308/308/308 305/305/305 306/306/306 
f 311/311/311 310/310/310 309/309/309 
f 312/312/312 309/309/309 310/310/310 
f 315/315/315 314/314/314 313/313/313 
f 316/316/316 313/313/313 314/314/314 
f 319/319/319 318/318/318 317/317/317 
f 318/318/318 320/320/320 317/317/317 
f 320/320/320 321/321/321 317/317/317 
f 321/321/321 322/322/322 317/317/317 
f 325/325/325 324/324/324 323/323/323 
f 326/326/326 323/323/323 324/324/324 
f 329/329/329 328/328/328 327/327/327 
f 328/328/328 330/330/330 327/327/327 
f 330/330/330 331/331/331 327/327/327 
f 331/331/331 332/332/332 327/327/327 
f 335/335/335 334/334/334 333/333/333 
f 336/336/336 333/333/333 334/334/334 
f 339/339/339 338/338/338 337/337/337 
f 340/340/340 337/337/337 338/338/338 
f 343/343/343 342/342/342 341/341/341 
f 344/344/344 341/341/341 342/342/342 
f 347/347/347 346/346/346 345/345/345 
f 348/348/348 345/345/345 346/346/346 
f 351/351/351 350/350/350 349/349/349 
f 352/352/352 349/349/349 350/350/350 
f 349/349/349 352/352/352 353/353/353 
f 354/354/354 353/353/353 352/352/352 
f 351/351/351 355/355/355 350/350/350 
f 356/356/356 350/350/350 355/355/355 
f 359/359/359 358/358/358 357/357/357 
f 360/360/360 357/357/357 358/358/358 
f 363/363/363 362/362/362 361/361/361 
f 364/364/364 361/361/361 362/362/362 
f 367/367/367 366/366/366 365/365/365 
f 368/368/368 365/365/365 366/366/366 
f 371/371/371 370/370/370 369/369/369 
f 372/372/372 369/369/369 370/370/370 
f 369/369/369 372/372/372 373/373/373 
f 374/374/374 373/373/373 372/372/372 
f 377/377/377 376/376/376 375/375/375 
f 378/378/378 375/375/375 376/376/376 
f 381/381/381 380/380/380 379/379/379 
f 382/382/382 379/379/379 380/380/380 
f 379/379/379 382/382/382 383/383/383 
f 384/384/384 383/383/383 382/382/382 
f 387/387/387 386/386/386 385/385/385 
f 388/388/388 385/385/385 386/386/386 
f 385/385/385 388/388/388 389/389/389 
f 390/390/390 389/389/389 388/388/388 
f 393/393/393 392/392/392 391/391/391 
f 394/394/394 391/391/391 392/392/392 
f 391/391/391 394/394/394 395/395/395 
f 396/396/396 395/395/395 394/394/394 
f 399/399/399 398/398/398 397/397/397 
f 400/400/400 397/397/397 398/398/398 
f 403/403/403 402/402/402 401/401/401 
f 404/404/404 401/401/401 402/402/402 
f 407/407/407 406/406/406 405/405/405 
f 408/408/408 405/405/405 406/406/406 
f 411/411/411 410/410/410 409/409/409 
f 412/412/412 409/409/409 410/410/410 
f 415/415/415 414/414/414 413/413/413 
f 416/416/416 413/413/413 414/414/414 
f 419/419/419 418/418/418 417/417/417 
f 420/420/420 417/417/417 418/418/418 
f 423/423/423 422/422/422 421/421/421 
f 424/424/424 421/421/421 422/422/422 
f 427/427/427 426/426/426 425/425/425 
f 428/428/428 425/425/425 426/426/426 
f 431/431/431 430/430/430 429/429/429 
f 432/432/432 429/429/429 430/430/430 
f 435/435/435 434/434/434 433/433/433 
f 436/436/436 433/433/433 434/434/434 
f 439/439/439 438/438/438 437/437/437 
f 440/440/440 437/437/437 438/438/438 
f 443/443/443 442/442/442 441/441/441 
f 444/444/444 441/441/441 442/442/442 
f 447/447/447 446/446/446 445/445/445 
f 448/448/448 445/445/445 446/446/446 
f 451/451/451 450/450/450 449/449/449 
f 452/452/452 449/449/449 450/450/450 
f 455/455/455 454/454/454 453/453/453 
f 456/456/456 453/453/453 454/454/454 
f 459/459/459 458/458/458 457/457/457 
f 460/460/460 457/457/457 458/458/458 
f 463/463/463 462/462/462 461/461/461 
f 464/464/464 461/461/461 462/462/462 
f 467/467/467 466/466/466 465/465/465 
f 468/468/468 465/465/465 466/466/466 
f 471/471/471 470/470/470 469/469/469 
f 472/472/472 469/469/469 470/470/470 
f 475/475/475 474/474/474 473/473/473 
f 476/476/476 473/473/473 474/474/474 
f 479/479/479 478/478/478 477/477/477 
f 480/480/480 477/477/477 478/478/478 
f 483/483/483 482/482/482 481/481/481 
f 484/484/484 481/481/481 482/482/482 
f 487/487/487 486/486/486 485/485/485 
f 488/488/488 485/485/485 486/486/486 
f 491/491/491 490/490/490 489/489/489 
f 492/492/492 489/489/489 490/490/490 
f 495/495/495 494/494/494 493/493/493 
f 496/496/496 493/493/493 494/494/494 
f 499/499/499 498/498/498 497/497/497 
f 500/500/500 497/497/497 498/498/498 
f 503/503/503 502/502/502 501/501/501 
f 504/504/504 501/501/501 502/502/502 
f 507/507/507 506/506/506 505/505/505 
f 508/508/508 505/505/505 506/506/506 
f 511/511/511 510/510/510 509/509/509 
f 512/512/512 509/509/509 510/510/510 
f 515/515/515 514/514/514 513/513/513 
f 516/516/516 513/513/513 514/514/514 
f 519/519/519 518/518/518 517/517/517 
f 520/520/520 517/517/517 518/518/518 
f 523/523/523 522/522/522 521/521/521 
f 524/524/524 521/521/521 522/522/522 
f 527/527/527 526/526/526 525/525/525 
f 528/528/528 525/525/525 526/526/526 
f 531/531/531 530/530/530 529/529/529 
f 532/532/532 529/529/529 530/530/530 
f 535/535/535 534/534/534 533/533/533 
f 536/536/536 533/533/533 534/534/534 
f 539/539/539 538/538/538 537/537/537 
f 540/540/540 537/537/537 538/538/538 
f 543/543/543 542/542/542 541/541/541 
f 544/544/544 541/541/541 542/542/542 
f 547/547/547 546/546/546 545/545/545 
f 548/548/548 545/545/545 546/546/546 
f 551/551/551 550/550/550 549/549/549 
f 552/552/552 549/549/549 550/550/550 
f 555/555/555 554/554/554 553/553/553 
f 556/556/556 553/553/553 554/554/554 
f 559/559/559 558/558/558 557/557/557 
f 560/560/560 557/557/557 558/558/558 
f 563/563/563 562/562/562 561/561/561 
f 564/564/564 561/561/561 562/562/562 
f 567/567/567 566/566/566 565/565/565 
f 568/568/568 565/565/565 566/566/566 
f 571/571/571 570/570/570 569/569/569 
f 572/572/572 569/569/569 570/570/570 
f 575/575/575 574/574/574 573/573/573 
f 576/576/576 573/573/573 574/574/574 
f 579/579/579 578/578/578 577/577/577 
f 580/580/580 577/577/577 578/578/578 
f 583/583/583 582/582/582 581/581/581 
f 584/584/584 581/581/581 582/582/582 
f 587/587/587 586/586/586 585/585/585 
f 588/588/588 585/585/585 586/586/586 
f 591/591/591 590/590/590 589/589/589 
f 592/592/592 589/589/589 590/590/590 
f 591/591/591 589/589/589 593/593/593 
f 594/594/594 593/593/593 589/589/589 
f 594/594/594 595/595/595 593/593/593 
f 596/596/596 593/593/593 595/595/595 
f 599/599/599 598/598/598 597/597/597 
f 600/600/600 597/597/597 598/598/598 
f 603/603/603 602/602/602 601/601/601 
f 604/604/604 601/601/601 602/602/602 
f 603/603/603 601/601/601 605/605/605 
f 606/606/606 605/605/605 601/601/601 
f 606/606/606 607/607/607 605/605/605 
f 608/608/608 605/605/605 607/607/607 
f 611/611/611 610/610/610 609/609/609 
f 612/612/612 609/609/609 610/610/610 
f 615/615/615 614/614/614 613/613/613 
f 616/616/616 613/613/613 614/614/614 
f 619/619/619 618/618/618 617/617/617 
f 620/620/620 617/617/617 618/618/618 

