v 0.3742639720439911 -0.4583599865436554 0.9599999785423279
v 0.4847889840602875 -0.4583599865436554 0.0
v 0.3742639720439911 -0.4583599865436554 0.0
v 0.4847889840602875 -0.4583599865436554 0.9599999785423279
v 0.4847889840602875 -0.4583599865436554 0.9599999785423279
v 0.4847889840602875 -0.3526259958744049 0.0
v 0.4847889840602875 -0.4583599865436554 0.0
v 0.4847889840602875 -0.3526259958744049 0.9599999785423279
v 0.4847889840602875 -0.3526259958744049 0.9599999785423279
v 0.3742639720439911 -0.3526259958744049 0.0
v 0.4847889840602875 -0.3526259958744049 0.0
v 0.3742639720439911 -0.3526259958744049 0.9599999785423279
v 0.3742639720439911 -0.3526259958744049 0.9599999785423279
v 0.3742639720439911 -0.4583599865436554 0.0
v 0.3742639720439911 -0.3526259958744049 0.0
v 0.3742639720439911 -0.4583599865436554 0.9599999785423279
v -0.5 -0.4585699737071991 0.2535479962825775
v 0.5 -0.4743209779262543 0.25
v -0.5 -0.4743209779262543 0.2535479962825775
v 0.5 -0.4585699737071991 0.25
v -0.5 -0.4743209779262543 0.2535479962825775
v 0.5 -0.4743209779262543 0.14120899140834808
v -0.5 -0.4743209779262543 0.14120899140834808
v 0.5 -0.4743209779262543 0.25
v 0.5 -0.4743209779262543 0.25
v 0.5 -0.4585699737071991 0.14120899140834808
v 0.5 -0.4743209779262543 0.14120899140834808
v 0.5 -0.4585699737071991 0.25
v 0.5 -0.4585699737071991 0.25
v -0.5 -0.4585699737071991 0.14120899140834808
v 0.5 -0.4585699737071991 0.14120899140834808
v -0.5 -0.4585699737071991 0.2535479962825775
v -0.5 -0.4585699737071991 0.2535479962825775
v -0.5 -0.4743209779262543 0.14120899140834808
v -0.5 -0.4585699737071991 0.14120899140834808
v -0.5 -0.4743209779262543 0.2535479962825775
v 0.4402519762516022 -0.44687098264694214 0.2531599998474121
v 0.40519100427627563 -0.47710299491882324 0.2531599998474121
v 0.4402519762516022 -0.47710299491882324 0.2531599998474121
v 0.40519100427627563 -0.44687098264694214 0.2531599998474121
v 0.40519100427627563 -0.47710299491882324 0.310513973236084
v 0.4402519762516022 -0.44687098264694214 0.3087030053138733
v 0.4402519762516022 -0.47710299491882324 0.310513973236084
v 0.40519100427627563 -0.44687098264694214 0.3087030053138733
v 0.4402519762516022 -0.44687098264694214 0.3087030053138733
v 0.4402519762516022 -0.47710299491882324 0.2531599998474121
v 0.4402519762516022 -0.47710299491882324 0.310513973236084
v 0.4402519762516022 -0.44687098264694214 0.2531599998474121
v 0.40519100427627563 -0.44687098264694214 0.3087030053138733
v 0.40519100427627563 -0.47710299491882324 0.2531599998474121
v 0.40519100427627563 -0.44687098264694214 0.2531599998474121
v 0.40519100427627563 -0.47710299491882324 0.310513973236084
v 0.40519100427627563 -0.47710299491882324 0.310513973236084
v 0.4402519762516022 -0.47710299491882324 0.2531599998474121
v 0.40519100427627563 -0.47710299491882324 0.2531599998474121
v 0.4402519762516022 -0.47710299491882324 0.310513973236084
v -0.5 -0.4585699737071991 0.9599999785423279
v 0.5 -0.4743209779262543 0.9564520120620728
v -0.5 -0.4743209779262543 0.9599999785423279
v 0.5 -0.4585699737071991 0.9564520120620728
v -0.5 -0.4743209779262543 0.9599999785423279
v 0.5 -0.4743209779262543 0.8476609587669373
v -0.5 -0.4743209779262543 0.8476609587669373
v 0.5 -0.4743209779262543 0.9564520120620728
v 0.5 -0.4743209779262543 0.9564520120620728
v 0.5 -0.4585699737071991 0.8476609587669373
v 0.5 -0.4743209779262543 0.8476609587669373
v 0.5 -0.4585699737071991 0.9564520120620728
v 0.5 -0.4585699737071991 0.9564520120620728
v -0.5 -0.4585699737071991 0.8476609587669373
v 0.5 -0.4585699737071991 0.8476609587669373
v -0.5 -0.4585699737071991 0.9599999785423279
v -0.5 -0.4585699737071991 0.9599999785423279
v -0.5 -0.4743209779262543 0.8476609587669373
v -0.5 -0.4585699737071991 0.8476609587669373
v -0.5 -0.4743209779262543 0.9599999785423279
v 0.17444798350334167 -0.44534599781036377 0.879476010799408
v 0.39330199360847473 -0.44534599781036377 0.6249809861183167
v 0.14662699401378632 -0.44534599781036377 0.8516560196876526
v 0.4211220145225525 -0.44534599781036377 0.652800977230072
v 0.17444798350334167 -0.44534599781036377 0.879476010799408
v 0.4211220145225525 -0.40770697593688965 0.652800977230072
v 0.4211220145225525 -0.44534599781036377 0.652800977230072
v 0.17444798350334167 -0.40770697593688965 0.879476010799408
v 0.17444798350334167 -0.40770697593688965 0.879476010799408
v 0.39330199360847473 -0.40770697593688965 0.6249809861183167
v 0.4211220145225525 -0.40770697593688965 0.652800977230072
v 0.14662699401378632 -0.40770697593688965 0.8516560196876526
v 0.14662699401378632 -0.40770697593688965 0.8516560196876526
v 0.39330199360847473 -0.44534599781036377 0.6249809861183167
v 0.39330199360847473 -0.40770697593688965 0.6249809861183167
v 0.14662699401378632 -0.44534599781036377 0.8516560196876526
v 0.3834669888019562 -0.43463197350502014 0.31790897250175476
v 0.46197599172592163 1.4340587854385376 0.31540700793266296
v 0.46197599172592163 -0.43463197350502014 0.31790897250175476
v 0.3834669888019562 1.4340587854385376 0.31540700793266296
v 0.46197599172592163 -0.43463197350502014 0.31790897250175476
v 0.46197599172592163 1.4340587854385376 0.2386779934167862
v 0.46197599172592163 -0.43463197350502014 0.2386779934167862
v 0.46197599172592163 1.4340587854385376 0.31540700793266296
v 0.3834669888019562 1.4340587854385376 0.31540700793266296
v 0.3834669888019562 -0.43463197350502014 0.2386779934167862
v 0.3834669888019562 1.4340587854385376 0.2386779934167862
v 0.3834669888019562 -0.43463197350502014 0.31790897250175476
v 0.4847889840602875 1.4577867984771729 0.0
v 0.3742639720439911 1.4577867984771729 0.9599999785423279
v 0.3742639720439911 1.4577867984771729 0.0
v 0.4847889840602875 1.4577867984771729 0.9599999785423279
v 0.4847889840602875 1.352052927017212 0.0
v 0.4847889840602875 1.4577867984771729 0.9599999785423279
v 0.4847889840602875 1.4577867984771729 0.0
v 0.4847889840602875 1.352052927017212 0.9599999785423279
v 0.3742639720439911 1.352052927017212 0.0
v 0.4847889840602875 1.352052927017212 0.9599999785423279
v 0.4847889840602875 1.352052927017212 0.0
v 0.3742639720439911 1.352052927017212 0.9599999785423279
v 0.3742639720439911 1.4577867984771729 0.0
v 0.3742639720439911 1.352052927017212 0.9599999785423279
v 0.3742639720439911 1.352052927017212 0.0
v 0.3742639720439911 1.4577867984771729 0.9599999785423279
v 0.5 1.4737478494644165 0.25
v -0.5 1.4579968452453613 0.2535479962825775
v -0.5 1.4737478494644165 0.2535479962825775
v 0.5 1.4579968452453613 0.25
v 0.5 1.4737478494644165 0.14120899140834808
v -0.5 1.4737478494644165 0.2535479962825775
v -0.5 1.4737478494644165 0.14120899140834808
v 0.5 1.4737478494644165 0.25
v 0.5 1.4579968452453613 0.14120899140834808
v 0.5 1.4737478494644165 0.25
v 0.5 1.4737478494644165 0.14120899140834808
v 0.5 1.4579968452453613 0.25
v -0.5 1.4579968452453613 0.14120899140834808
v 0.5 1.4579968452453613 0.25
v 0.5 1.4579968452453613 0.14120899140834808
v -0.5 1.4579968452453613 0.2535479962825775
v -0.5 1.4737478494644165 0.14120899140834808
v -0.5 1.4579968452453613 0.2535479962825775
v -0.5 1.4579968452453613 0.14120899140834808
v -0.5 1.4737478494644165 0.2535479962825775
v 0.40519100427627563 1.476529836654663 0.2531599998474121
v 0.4402519762516022 1.4462978839874268 0.2531599998474121
v 0.4402519762516022 1.476529836654663 0.2531599998474121
v 0.40519100427627563 1.4462978839874268 0.2531599998474121
v 0.4402519762516022 1.4462978839874268 0.3087030053138733
v 0.40519100427627563 1.476529836654663 0.310513973236084
v 0.4402519762516022 1.476529836654663 0.310513973236084
v 0.40519100427627563 1.4462978839874268 0.3087030053138733
v 0.4402519762516022 1.4462978839874268 0.3087030053138733
v 0.4402519762516022 1.476529836654663 0.2531599998474121
v 0.4402519762516022 1.4462978839874268 0.2531599998474121
v 0.4402519762516022 1.476529836654663 0.310513973236084
v 0.40519100427627563 1.476529836654663 0.2531599998474121
v 0.40519100427627563 1.4462978839874268 0.3087030053138733
v 0.40519100427627563 1.4462978839874268 0.2531599998474121
v 0.40519100427627563 1.476529836654663 0.310513973236084
v 0.4402519762516022 1.476529836654663 0.2531599998474121
v 0.40519100427627563 1.476529836654663 0.310513973236084
v 0.40519100427627563 1.476529836654663 0.2531599998474121
v 0.4402519762516022 1.476529836654663 0.310513973236084
v 0.5 1.4737478494644165 0.9564520120620728
v -0.5 1.4579968452453613 0.9599999785423279
v -0.5 1.4737478494644165 0.9599999785423279
v 0.5 1.4579968452453613 0.9564520120620728
v 0.5 1.4737478494644165 0.8476609587669373
v -0.5 1.4737478494644165 0.9599999785423279
v -0.5 1.4737478494644165 0.8476609587669373
v 0.5 1.4737478494644165 0.9564520120620728
v 0.5 1.4579968452453613 0.8476609587669373
v 0.5 1.4737478494644165 0.9564520120620728
v 0.5 1.4737478494644165 0.8476609587669373
v 0.5 1.4579968452453613 0.9564520120620728
v -0.5 1.4579968452453613 0.8476609587669373
v 0.5 1.4579968452453613 0.9564520120620728
v 0.5 1.4579968452453613 0.8476609587669373
v -0.5 1.4579968452453613 0.9599999785423279
v -0.5 1.4737478494644165 0.8476609587669373
v -0.5 1.4579968452453613 0.9599999785423279
v -0.5 1.4579968452453613 0.8476609587669373
v -0.5 1.4737478494644165 0.9599999785423279
v 0.17444798350334167 1.4447729587554932 0.879476010799408
v 0.39330199360847473 1.4447729587554932 0.6249809861183167
v 0.4211220145225525 1.4447729587554932 0.652800977230072
v 0.14662699401378632 1.4447729587554932 0.8516560196876526
v 0.4211220145225525 1.40713369846344 0.652800977230072
v 0.17444798350334167 1.4447729587554932 0.879476010799408
v 0.4211220145225525 1.4447729587554932 0.652800977230072
v 0.17444798350334167 1.40713369846344 0.879476010799408
v 0.39330199360847473 1.40713369846344 0.6249809861183167
v 0.17444798350334167 1.40713369846344 0.879476010799408
v 0.4211220145225525 1.40713369846344 0.652800977230072
v 0.14662699401378632 1.40713369846344 0.8516560196876526
v 0.39330199360847473 1.4447729587554932 0.6249809861183167
v 0.14662699401378632 1.40713369846344 0.8516560196876526
v 0.39330199360847473 1.40713369846344 0.6249809861183167
v 0.14662699401378632 1.4447729587554932 0.8516560196876526
v 0.4949999749660492 1.4994268417358398 1.0
v 0.24625049531459808 -0.5 1.0
v 0.24625049531459808 1.4994268417358398 1.0
v 0.4949999749660492 -0.5 1.0
v 0.4949999749660492 -0.5 1.0
v 0.24625049531459808 -0.5 0.9599999785423279
v 0.24625049531459808 -0.5 1.0
v 0.4949999749660492 -0.5 0.9599999785423279
v 0.4949999749660492 -0.5 1.0
v 0.4949999749660492 1.4994268417358398 0.9599999785423279
v 0.4949999749660492 -0.5 0.9599999785423279
v 0.4949999749660492 1.4994268417358398 1.0
v -0.4999980032444 1.4994268417358398 1.0
v -0.07539207488298416 1.4994268417358398 0.9599999785423279
v -0.07539207488298416 1.4994268417358398 1.0
v -0.4999980032444 1.4994268417358398 0.9599999785423279
v -0.4999980032444 1.4994268417358398 1.0
v -0.4999980032444 -0.5 0.9599999785423279
v -0.4999980032444 1.4994268417358398 0.9599999785423279
v -0.4999980032444 -0.5 1.0
v 0.41410699486732483 1.3912098407745361 0.2611870765686035
v 0.4375479817390442 -0.42650794982910156 0.9318780303001404
v 0.44664397835731506 1.3909448385238647 0.26130211353302
v 0.4050099849700928 -0.42624297738075256 0.9317631125450134
v 0.4376530051231384 -0.4091449975967407 0.9688130021095276
v 0.41421499848365784 1.4094408750534058 0.2991519868373871
v 0.44675299525260925 1.4091758728027344 0.2992669939994812
v 0.4051159918308258 -0.40888097882270813 0.9686979651451111
v 0.4375479817390442 -0.42650794982910156 0.9318780303001404
v 0.44675299525260925 1.4091758728027344 0.2992669939994812
v 0.44664397835731506 1.3909448385238647 0.26130211353302
v 0.4376530051231384 -0.4091449975967407 0.9688130021095276
v 0.41410699486732483 1.3912098407745361 0.2611870765686035
v 0.4051159918308258 -0.40888097882270813 0.9686979651451111
v 0.4050099849700928 -0.42624297738075256 0.9317631125450134
v 0.41421499848365784 1.4094408750534058 0.2991519868373871
v 0.43463796377182007 1.4248526096343994 0.9333927631378174
v 0.4170159697532654 -0.3928173780441284 0.26272186636924744
v 0.4437340199947357 -0.3925994038581848 0.262816846370697
v 0.4079200029373169 1.424635410308838 0.933297872543335
v 0.41712501645088196 -0.40999099612236023 0.29916200041770935
v 0.4347429871559143 1.4085488319396973 0.9688029885292053
v 0.4438430070877075 -0.40977299213409424 0.29925599694252014
v 0.4080260097980499 1.4083307981491089 0.9687089920043945
v 0.4438430070877075 -0.40977299213409424 0.29925599694252014
v 0.43463796377182007 1.4248526096343994 0.9333927631378174
v 0.4437340199947357 -0.3925994038581848 0.262816846370697
v 0.4347429871559143 1.4085488319396973 0.9688029885292053
v 0.4080260097980499 1.4083307981491089 0.9687089920043945
v 0.4170159697532654 -0.3928173780441284 0.26272186636924744
v 0.4079200029373169 1.424635410308838 0.933297872543335
v 0.41712501645088196 -0.40999099612236023 0.29916200041770935
v -0.4815810024738312 -0.4583599865436554 0.0
v -0.3710559904575348 -0.4583599865436554 0.9599999785423279
v -0.3710559904575348 -0.4583599865436554 0.0
v -0.4815810024738312 -0.4583599865436554 0.9599999785423279
v -0.4815810024738312 -0.3526259958744049 0.0
v -0.4815810024738312 -0.4583599865436554 0.9599999785423279
v -0.4815810024738312 -0.4583599865436554 0.0
v -0.4815810024738312 -0.3526259958744049 0.9599999785423279
v -0.3710559904575348 -0.3526259958744049 0.0
v -0.4815810024738312 -0.3526259958744049 0.9599999785423279
v -0.4815810024738312 -0.3526259958744049 0.0
v -0.3710559904575348 -0.3526259958744049 0.9599999785423279
v -0.3710559904575348 -0.4583599865436554 0.0
v -0.3710559904575348 -0.3526259958744049 0.9599999785423279
v -0.3710559904575348 -0.3526259958744049 0.0
v -0.3710559904575348 -0.4583599865436554 0.9599999785423279
v -0.40198299288749695 -0.47710299491882324 0.2531599998474121
v -0.4370439946651459 -0.44687098264694214 0.2531599998474121
v -0.4370439946651459 -0.47710299491882324 0.2531599998474121
v -0.40198299288749695 -0.44687098264694214 0.2531599998474121
v -0.4370439946651459 -0.44687098264694214 0.3087030053138733
v -0.40198299288749695 -0.47710299491882324 0.310513973236084
v -0.4370439946651459 -0.47710299491882324 0.310513973236084
v -0.40198299288749695 -0.44687098264694214 0.3087030053138733
v -0.4370439946651459 -0.44687098264694214 0.3087030053138733
v -0.4370439946651459 -0.47710299491882324 0.2531599998474121
v -0.4370439946651459 -0.44687098264694214 0.2531599998474121
v -0.4370439946651459 -0.47710299491882324 0.310513973236084
v -0.40198299288749695 -0.47710299491882324 0.2531599998474121
v -0.40198299288749695 -0.44687098264694214 0.3087030053138733
v -0.40198299288749695 -0.44687098264694214 0.2531599998474121
v -0.40198299288749695 -0.47710299491882324 0.310513973236084
v -0.4370439946651459 -0.47710299491882324 0.2531599998474121
v -0.40198299288749695 -0.47710299491882324 0.310513973236084
v -0.40198299288749695 -0.47710299491882324 0.2531599998474121
v -0.4370439946651459 -0.47710299491882324 0.310513973236084
v -0.17124000191688538 -0.44534599781036377 0.879476010799408
v -0.39009398221969604 -0.44534599781036377 0.6249809861183167
v -0.4179140031337738 -0.44534599781036377 0.652800977230072
v -0.1434199959039688 -0.44534599781036377 0.8516560196876526
v -0.4179140031337738 -0.40770697593688965 0.652800977230072
v -0.17124000191688538 -0.44534599781036377 0.879476010799408
v -0.4179140031337738 -0.44534599781036377 0.652800977230072
v -0.17124000191688538 -0.40770697593688965 0.879476010799408
v -0.39009398221969604 -0.40770697593688965 0.6249809861183167
v -0.17124000191688538 -0.40770697593688965 0.879476010799408
v -0.4179140031337738 -0.40770697593688965 0.652800977230072
v -0.1434199959039688 -0.40770697593688965 0.8516560196876526
v -0.39009398221969604 -0.44534599781036377 0.6249809861183167
v -0.1434199959039688 -0.40770697593688965 0.8516560196876526
v -0.39009398221969604 -0.40770697593688965 0.6249809861183167
v -0.1434199959039688 -0.44534599781036377 0.8516560196876526
v -0.3710559904575348 1.4577878713607788 0.9599999785423279
v -0.4815810024738312 1.4577878713607788 0.0
v -0.3710559904575348 1.4577878713607788 0.0
v -0.4815810024738312 1.4577878713607788 0.9599999785423279
v -0.4815810024738312 1.4577878713607788 0.9599999785423279
v -0.4815810024738312 1.352052927017212 0.0
v -0.4815810024738312 1.4577878713607788 0.0
v -0.4815810024738312 1.352052927017212 0.9599999785423279
v -0.4815810024738312 1.352052927017212 0.9599999785423279
v -0.3710559904575348 1.352052927017212 0.0
v -0.4815810024738312 1.352052927017212 0.0
v -0.3710559904575348 1.352052927017212 0.9599999785423279
v -0.3710559904575348 1.352052927017212 0.9599999785423279
v -0.3710559904575348 1.4577878713607788 0.0
v -0.3710559904575348 1.352052927017212 0.0
v -0.3710559904575348 1.4577878713607788 0.9599999785423279
v -0.4370439946651459 1.4462978839874268 0.2531599998474121
v -0.40198299288749695 1.476529836654663 0.2531599998474121
v -0.4370439946651459 1.476529836654663 0.2531599998474121
v -0.40198299288749695 1.4462978839874268 0.2531599998474121
v -0.40198299288749695 1.476529836654663 0.310513973236084
v -0.4370439946651459 1.4462978839874268 0.3087030053138733
v -0.4370439946651459 1.476529836654663 0.310513973236084
v -0.40198299288749695 1.4462978839874268 0.3087030053138733
v -0.4370439946651459 1.4462978839874268 0.3087030053138733
v -0.4370439946651459 1.476529836654663 0.2531599998474121
v -0.4370439946651459 1.476529836654663 0.310513973236084
v -0.4370439946651459 1.4462978839874268 0.2531599998474121
v -0.40198299288749695 1.4462978839874268 0.3087030053138733
v -0.40198299288749695 1.476529836654663 0.2531599998474121
v -0.40198299288749695 1.4462978839874268 0.2531599998474121
v -0.40198299288749695 1.476529836654663 0.310513973236084
v -0.40198299288749695 1.476529836654663 0.310513973236084
v -0.4370439946651459 1.476529836654663 0.2531599998474121
v -0.40198299288749695 1.476529836654663 0.2531599998474121
v -0.4370439946651459 1.476529836654663 0.310513973236084
v -0.17124000191688538 1.4447729587554932 0.879476010799408
v -0.39009398221969604 1.4447729587554932 0.6249809861183167
v -0.1434199959039688 1.4447729587554932 0.8516560196876526
v -0.4179140031337738 1.4447729587554932 0.652800977230072
v -0.17124000191688538 1.4447729587554932 0.879476010799408
v -0.4179140031337738 1.40713369846344 0.652800977230072
v -0.4179140031337738 1.4447729587554932 0.652800977230072
v -0.17124000191688538 1.40713369846344 0.879476010799408
v -0.17124000191688538 1.40713369846344 0.879476010799408
v -0.39009398221969604 1.40713369846344 0.6249809861183167
v -0.4179140031337738 1.40713369846344 0.652800977230072
v -0.1434199959039688 1.40713369846344 0.8516560196876526
v -0.1434199959039688 1.40713369846344 0.8516560196876526
v -0.39009398221969604 1.4447729587554932 0.6249809861183167
v -0.39009398221969604 1.40713369846344 0.6249809861183167
v -0.1434199959039688 1.4447729587554932 0.8516560196876526
v -0.4343399703502655 -0.42650794982910156 0.9318780303001404
v -0.41089901328086853 1.3912098407745361 0.2611870765686035
v -0.44343599677085876 1.3909448385238647 0.26130211353302
v -0.40180301666259766 -0.42624297738075256 0.9317631125450134
v -0.41100800037384033 1.4094408750534058 0.2991519868373871
v -0.43444499373435974 -0.4091449975967407 0.9688130021095276
v -0.44354498386383057 1.4091758728027344 0.2992669939994812
v -0.4019079804420471 -0.40888097882270813 0.9686979651451111
v -0.44354498386383057 1.4091758728027344 0.2992669939994812
v -0.4343399703502655 -0.42650794982910156 0.9318780303001404
v -0.44343599677085876 1.3909448385238647 0.26130211353302
v -0.43444499373435974 -0.4091449975967407 0.9688130021095276
v -0.4019079804420471 -0.40888097882270813 0.9686979651451111
v -0.41089901328086853 1.3912098407745361 0.2611870765686035
v -0.40180301666259766 -0.42624297738075256 0.9317631125450134
v -0.41100800037384033 1.4094408750534058 0.2991519868373871
v -0.41380900144577026 -0.3928173780441284 0.26272180676460266
v -0.43143001198768616 1.4248526096343994 0.9333927631378174
v -0.4405269920825958 -0.3925994038581848 0.262816846370697
v -0.404712975025177 1.424635410308838 0.933297872543335
v -0.4315349757671356 1.4085488319396973 0.9688029885292053
v -0.41391798853874207 -0.40999099612236023 0.29916200041770935
v -0.44063499569892883 -0.40977299213409424 0.29925599694252014
v -0.40481799840927124 1.4083307981491089 0.9687089920043945
v -0.43143001198768616 1.4248526096343994 0.9333927631378174
v -0.44063499569892883 -0.40977299213409424 0.29925599694252014
v -0.4405269920825958 -0.3925994038581848 0.262816846370697
v -0.4315349757671356 1.4085488319396973 0.9688029885292053
v -0.41380900144577026 -0.3928173780441284 0.26272180676460266
v -0.40481799840927124 1.4083307981491089 0.9687089920043945
v -0.404712975025177 1.424635410308838 0.933297872543335
v -0.41391798853874207 -0.40999099612236023 0.29916200041770935
v -0.4999980032444 1.4994268417358398 1.0
v -0.07539207488298416 -0.5 1.0
v -0.4999980032444 -0.5 1.0
v -0.07539207488298416 1.4994268417358398 1.0
v -0.4999980032444 -0.5 1.0
v -0.07539207488298416 -0.5 0.9599999785423279
v -0.4999980032444 -0.5 0.9599999785423279
v -0.07539207488298416 -0.5 1.0
v 0.2396409511566162 1.5072944164276123 0.9815612435340881
v 0.024535827338695526 1.513836145401001 0.9415612816810608
v 0.2396409511566162 1.5072944164276123 0.9415612816810608
v 0.024535827338695526 1.513836145401001 0.9815612435340881
v 0.024535827338695526 1.513836145401001 0.9815612435340881
v 0.207809716463089 0.23248974978923798 0.9595593214035034
v -0.00729542737826705 0.23903149366378784 0.9595593214035034
v 0.2396409511566162 1.5072944164276123 0.9815612435340881
v -0.030556896701455116 -0.5258512496948242 0.9815612435340881
v 0.1845482587814331 -0.5323929190635681 0.9815612435340881
v -0.030556896701455116 -0.5258512496948242 0.9815612435340881
v 0.1845482587814331 -0.5323929190635681 0.9415612816810608
v -0.030556896701455116 -0.5258512496948242 0.9415612816810608
v 0.1845482587814331 -0.5323929190635681 0.9815612435340881
v 0.4949999749660492 1.4994268417358398 1.0
v 0.24625049531459808 1.4994268417358398 0.9599999785423279
v 0.4949999749660492 1.4994268417358398 0.9599999785423279
v 0.24625049531459808 1.4994268417358398 1.0
v -0.07539207488298416 1.4994268417358398 1.0
v -0.07539207488298416 -0.5 0.9599999785423279
v -0.07539207488298416 -0.5 1.0
v -0.07539207488298416 1.4994268417358398 0.9599999785423279
v 0.24625049531459808 1.4994268417358398 0.9599999785423279
v 0.24625049531459808 -0.5 1.0
v 0.24625049531459808 -0.5 0.9599999785423279
v 0.24625049531459808 -0.5 1.0
v 0.24625049531459808 1.4994268417358398 0.9599999785423279
v 0.24625049531459808 1.4994268417358398 1.0
v 0.024535827338695526 1.513836145401001 0.9415612816810608
v -0.00729542737826705 0.23903149366378784 0.9595593214035034
v -0.00729542737826705 0.23903149366378784 0.9195592999458313
v 0.024535827338695526 1.513836145401001 0.9815612435340881
v -0.030556896701455116 -0.5258512496948242 0.9415612816810608
v -0.030556896701455116 -0.5258512496948242 0.9815612435340881
v 0.2396409511566162 1.5072944164276123 0.9815612435340881
v 0.207809716463089 0.23248974978923798 0.9195592999458313
v 0.207809716463089 0.23248974978923798 0.9595593214035034
v 0.2396409511566162 1.5072944164276123 0.9415612816810608
v 0.1845482587814331 -0.5323929190635681 0.9815612435340881
v 0.1845482587814331 -0.5323929190635681 0.9415612816810608
vn -0.0 -1.0 0.0
vn -0.0 -1.0 0.0
vn -0.0 -1.0 0.0
vn -0.0 -1.0 0.0
vn 1.0 0.0 0.0
vn 1.0 0.0 0.0
vn 1.0 0.0 0.0
vn 1.0 0.0 0.0
vn -0.0 1.0 0.0
vn -0.0 1.0 0.0
vn -0.0 1.0 0.0
vn -0.0 1.0 0.0
vn -1.0 0.0 0.0
vn -1.0 0.0 0.0
vn -1.0 0.0 0.0
vn -1.0 0.0 0.0
vn 0.00039999998989515007 0.0 1.0
vn 0.00039999998989515007 0.0 1.0
vn 0.00039999998989515007 0.0 1.0
vn 0.00039999998989515007 0.0 1.0
vn -0.0 -1.0 0.0
vn -0.0 -1.0 0.0
vn -0.0 -1.0 0.0
vn -0.0 -1.0 0.0
vn 1.0 0.0 0.0
vn 1.0 0.0 0.0
vn 1.0 0.0 0.0
vn 1.0 0.0 0.0
vn -0.0 1.0 0.0
vn -0.0 1.0 0.0
vn -0.0 1.0 0.0
vn -0.0 1.0 0.0
vn -1.0 0.0 0.0
vn -1.0 0.0 0.0
vn -1.0 0.0 0.0
vn -1.0 0.0 0.0
vn -0.0 0.0 -1.0
vn -0.0 0.0 -1.0
vn -0.0 0.0 -1.0
vn -0.0 0.0 -1.0
vn -0.0 0.00629987521097064 0.9999802112579346
vn -0.0 0.00629987521097064 0.9999802112579346
vn -0.0 0.00629987521097064 0.9999802112579346
vn -0.0 0.00629987521097064 0.9999802112579346
vn 1.0 0.0 0.0
vn 1.0 0.0 0.0
vn 1.0 0.0 0.0
vn 1.0 0.0 0.0
vn -1.0 0.0 0.0
vn -1.0 0.0 0.0
vn -1.0 0.0 0.0
vn -1.0 0.0 0.0
vn -0.0 -1.0 0.0
vn -0.0 -1.0 0.0
vn -0.0 -1.0 0.0
vn -0.0 -1.0 0.0
vn 0.00039999998989515007 0.0 1.0
vn 0.00039999998989515007 0.0 1.0
vn 0.00039999998989515007 0.0 1.0
vn 0.00039999998989515007 0.0 1.0
vn -0.0 -1.0 0.0
vn -0.0 -1.0 0.0
vn -0.0 -1.0 0.0
vn -0.0 -1.0 0.0
vn 1.0 0.0 0.0
vn 1.0 0.0 0.0
vn 1.0 0.0 0.0
vn 1.0 0.0 0.0
vn -0.0 1.0 0.0
vn -0.0 1.0 0.0
vn -0.0 1.0 0.0
vn -0.0 1.0 0.0
vn -1.0 0.0 0.0
vn -1.0 0.0 0.0
vn -1.0 0.0 0.0
vn -1.0 0.0 0.0
vn -0.0 -1.0 0.0
vn -0.0 -1.0 0.0
vn -0.0 -1.0 0.0
vn -0.0 -1.0 0.0
vn 0.1009986400604248 0.0 0.994886577129364
vn 0.1009986400604248 0.0 0.994886577129364
vn 0.1009986400604248 0.0 0.994886577129364
vn 0.1009986400604248 0.0 0.994886577129364
vn -0.0 1.0 0.0
vn -0.0 1.0 0.0
vn -0.0 1.0 0.0
vn -0.0 1.0 0.0
vn -0.1009986400604248 0.0 -0.994886577129364
vn -0.1009986400604248 0.0 -0.994886577129364
vn -0.1009986400604248 0.0 -0.994886577129364
vn -0.1009986400604248 0.0 -0.994886577129364
vn -0.0 0.0003000000142492354 1.0
vn -0.0 0.0003000000142492354 1.0
vn -0.0 0.0003000000142492354 1.0
vn -0.0 0.0003000000142492354 1.0
vn 1.0 0.0 0.0
vn 1.0 0.0 0.0
vn 1.0 0.0 0.0
vn 1.0 0.0 0.0
vn -1.0 0.0 0.0
vn -1.0 0.0 0.0
vn -1.0 0.0 0.0
vn -1.0 0.0 0.0
vn -0.0 1.0 0.0
vn -0.0 1.0 0.0
vn -0.0 1.0 0.0
vn -0.0 1.0 0.0
vn 1.0 0.0 0.0
vn 1.0 0.0 0.0
vn 1.0 0.0 0.0
vn 1.0 0.0 0.0
vn -0.0 -1.0 0.0
vn -0.0 -1.0 0.0
vn -0.0 -1.0 0.0
vn -0.0 -1.0 0.0
vn -1.0 0.0 0.0
vn -1.0 0.0 0.0
vn -1.0 0.0 0.0
vn -1.0 0.0 0.0
vn 0.00039999998989515007 0.0 1.0
vn 0.00039999998989515007 0.0 1.0
vn 0.00039999998989515007 0.0 1.0
vn 0.00039999998989515007 0.0 1.0
vn -0.0 1.0 0.0
vn -0.0 1.0 0.0
vn -0.0 1.0 0.0
vn -0.0 1.0 0.0
vn 1.0 0.0 0.0
vn 1.0 0.0 0.0
vn 1.0 0.0 0.0
vn 1.0 0.0 0.0
vn -0.0 -1.0 0.0
vn -0.0 -1.0 0.0
vn -0.0 -1.0 0.0
vn -0.0 -1.0 0.0
vn -1.0 0.0 0.0
vn -1.0 0.0 0.0
vn -1.0 0.0 0.0
vn -1.0 0.0 0.0
vn -0.0 0.0 -1.0
vn -0.0 0.0 -1.0
vn -0.0 0.0 -1.0
vn -0.0 0.0 -1.0
vn -0.0 -0.00629987521097064 0.9999802112579346
vn -0.0 -0.00629987521097064 0.9999802112579346
vn -0.0 -0.00629987521097064 0.9999802112579346
vn -0.0 -0.00629987521097064 0.9999802112579346
vn 1.0 0.0 0.0
vn 1.0 0.0 0.0
vn 1.0 0.0 0.0
vn 1.0 0.0 0.0
vn -1.0 0.0 0.0
vn -1.0 0.0 0.0
vn -1.0 0.0 0.0
vn -1.0 0.0 0.0
vn -0.0 1.0 0.0
vn -0.0 1.0 0.0
vn -0.0 1.0 0.0
vn -0.0 1.0 0.0
vn 0.00039999998989515007 0.0 1.0
vn 0.00039999998989515007 0.0 1.0
vn 0.00039999998989515007 0.0 1.0
vn 0.00039999998989515007 0.0 1.0
vn -0.0 1.0 0.0
vn -0.0 1.0 0.0
vn -0.0 1.0 0.0
vn -0.0 1.0 0.0
vn 1.0 0.0 0.0
vn 1.0 0.0 0.0
vn 1.0 0.0 0.0
vn 1.0 0.0 0.0
vn -0.0 -1.0 0.0
vn -0.0 -1.0 0.0
vn -0.0 -1.0 0.0
vn -0.0 -1.0 0.0
vn -1.0 0.0 0.0
vn -1.0 0.0 0.0
vn -1.0 0.0 0.0
vn -1.0 0.0 0.0
vn -0.0 1.0 0.0
vn -0.0 1.0 0.0
vn -0.0 1.0 0.0
vn -0.0 1.0 0.0
vn 0.1009986400604248 0.0 0.994886577129364
vn 0.1009986400604248 0.0 0.994886577129364
vn 0.1009986400604248 0.0 0.994886577129364
vn 0.1009986400604248 0.0 0.994886577129364
vn -0.0 -1.0 0.0
vn -0.0 -1.0 0.0
vn -0.0 -1.0 0.0
vn -0.0 -1.0 0.0
vn -0.1009986400604248 0.0 -0.994886577129364
vn -0.1009986400604248 0.0 -0.994886577129364
vn -0.1009986400604248 0.0 -0.994886577129364
vn -0.1009986400604248 0.0 -0.994886577129364
vn -0.0 0.0 1.0
vn -0.0 0.0 1.0
vn -0.0 0.0 1.0
vn -0.0 0.0 1.0
vn -0.0 -1.0 0.0
vn -0.0 -1.0 0.0
vn -0.0 -1.0 0.0
vn -0.0 -1.0 0.0
vn 1.0 0.0 0.0
vn 1.0 0.0 0.0
vn 1.0 0.0 0.0
vn 1.0 0.0 0.0
vn -0.0 1.0 0.0
vn -0.0 1.0 0.0
vn -0.0 1.0 0.0
vn -0.0 1.0 0.0
vn -1.0 0.0 0.0
vn -1.0 0.0 0.0
vn -1.0 0.0 0.0
vn -1.0 0.0 0.0
vn -0.0002999907883349806 -0.08629734814167023 -0.9962693452835083
vn -0.0002999907883349806 -0.08629734814167023 -0.9962693452835083
vn -0.0002999907883349806 -0.08629734814167023 -0.9962693452835083
vn -0.0002999907883349806 -0.08629734814167023 -0.9962693452835083
vn 0.00029999593971297145 0.08609883487224579 0.9962865114212036
vn 0.00029999593971297145 0.08609883487224579 0.9962865114212036
vn 0.00029999593971297145 0.08609883487224579 0.9962865114212036
vn 0.00029999593971297145 0.08609883487224579 0.9962865114212036
vn 0.999447762966156 -0.007800372317433357 0.03230154141783714
vn 0.999447762966156 -0.007800372317433357 0.03230154141783714
vn 0.999447762966156 -0.007800372317433357 0.03230154141783714
vn 0.999447762966156 -0.007800372317433357 0.03230154141783714
vn -0.999447762966156 0.007800372317433357 -0.03230154141783714
vn -0.999447762966156 0.007800372317433357 -0.03230154141783714
vn -0.999447762966156 0.007800372317433357 -0.03230154141783714
vn -0.999447762966156 0.007800372317433357 -0.03230154141783714
vn -0.0002999907883349806 0.08629734814167023 -0.9962693452835083
vn -0.0002999907883349806 0.08629734814167023 -0.9962693452835083
vn -0.0002999907883349806 0.08629734814167023 -0.9962693452835083
vn -0.0002999907883349806 0.08629734814167023 -0.9962693452835083
vn 0.00029999593971297145 -0.08609883487224579 0.9962865114212036
vn 0.00029999593971297145 -0.08609883487224579 0.9962865114212036
vn 0.00029999593971297145 -0.08609883487224579 0.9962865114212036
vn 0.00029999593971297145 -0.08609883487224579 0.9962865114212036
vn 0.999447762966156 0.007800372317433357 0.03230154141783714
vn 0.999447762966156 0.007800372317433357 0.03230154141783714
vn 0.999447762966156 0.007800372317433357 0.03230154141783714
vn 0.999447762966156 0.007800372317433357 0.03230154141783714
vn -0.999447762966156 -0.007800372317433357 -0.03230154141783714
vn -0.999447762966156 -0.007800372317433357 -0.03230154141783714
vn -0.999447762966156 -0.007800372317433357 -0.03230154141783714
vn -0.999447762966156 -0.007800372317433357 -0.03230154141783714
vn -0.0 -1.0 0.0
vn -0.0 -1.0 0.0
vn -0.0 -1.0 0.0
vn -0.0 -1.0 0.0
vn -1.0 0.0 0.0
vn -1.0 0.0 0.0
vn -1.0 0.0 0.0
vn -1.0 0.0 0.0
vn -0.0 1.0 0.0
vn -0.0 1.0 0.0
vn -0.0 1.0 0.0
vn -0.0 1.0 0.0
vn 1.0 0.0 0.0
vn 1.0 0.0 0.0
vn 1.0 0.0 0.0
vn 1.0 0.0 0.0
vn -0.0 0.0 -1.0
vn -0.0 0.0 -1.0
vn -0.0 0.0 -1.0
vn -0.0 0.0 -1.0
vn -0.0 0.00629987521097064 0.9999802112579346
vn -0.0 0.00629987521097064 0.9999802112579346
vn -0.0 0.00629987521097064 0.9999802112579346
vn -0.0 0.00629987521097064 0.9999802112579346
vn -1.0 0.0 0.0
vn -1.0 0.0 0.0
vn -1.0 0.0 0.0
vn -1.0 0.0 0.0
vn 1.0 0.0 0.0
vn 1.0 0.0 0.0
vn 1.0 0.0 0.0
vn 1.0 0.0 0.0
vn -0.0 -1.0 0.0
vn -0.0 -1.0 0.0
vn -0.0 -1.0 0.0
vn -0.0 -1.0 0.0
vn -0.0 -1.0 0.0
vn -0.0 -1.0 0.0
vn -0.0 -1.0 0.0
vn -0.0 -1.0 0.0
vn -0.1009986400604248 0.0 0.994886577129364
vn -0.1009986400604248 0.0 0.994886577129364
vn -0.1009986400604248 0.0 0.994886577129364
vn -0.1009986400604248 0.0 0.994886577129364
vn -0.0 1.0 0.0
vn -0.0 1.0 0.0
vn -0.0 1.0 0.0
vn -0.0 1.0 0.0
vn 0.1009986400604248 0.0 -0.994886577129364
vn 0.1009986400604248 0.0 -0.994886577129364
vn 0.1009986400604248 0.0 -0.994886577129364
vn 0.1009986400604248 0.0 -0.994886577129364
vn -0.0 1.0 0.0
vn -0.0 1.0 0.0
vn -0.0 1.0 0.0
vn -0.0 1.0 0.0
vn -1.0 0.0 0.0
vn -1.0 0.0 0.0
vn -1.0 0.0 0.0
vn -1.0 0.0 0.0
vn -0.0 -1.0 0.0
vn -0.0 -1.0 0.0
vn -0.0 -1.0 0.0
vn -0.0 -1.0 0.0
vn 1.0 0.0 0.0
vn 1.0 0.0 0.0
vn 1.0 0.0 0.0
vn 1.0 0.0 0.0
vn -0.0 0.0 -1.0
vn -0.0 0.0 -1.0
vn -0.0 0.0 -1.0
vn -0.0 0.0 -1.0
vn -0.0 -0.00629987521097064 0.9999802112579346
vn -0.0 -0.00629987521097064 0.9999802112579346
vn -0.0 -0.00629987521097064 0.9999802112579346
vn -0.0 -0.00629987521097064 0.9999802112579346
vn -1.0 0.0 0.0
vn -1.0 0.0 0.0
vn -1.0 0.0 0.0
vn -1.0 0.0 0.0
vn 1.0 0.0 0.0
vn 1.0 0.0 0.0
vn 1.0 0.0 0.0
vn 1.0 0.0 0.0
vn -0.0 1.0 0.0
vn -0.0 1.0 0.0
vn -0.0 1.0 0.0
vn -0.0 1.0 0.0
vn -0.0 1.0 0.0
vn -0.0 1.0 0.0
vn -0.0 1.0 0.0
vn -0.0 1.0 0.0
vn -0.1009986400604248 0.0 0.994886577129364
vn -0.1009986400604248 0.0 0.994886577129364
vn -0.1009986400604248 0.0 0.994886577129364
vn -0.1009986400604248 0.0 0.994886577129364
vn -0.0 -1.0 0.0
vn -0.0 -1.0 0.0
vn -0.0 -1.0 0.0
vn -0.0 -1.0 0.0
vn 0.1009986400604248 0.0 -0.994886577129364
vn 0.1009986400604248 0.0 -0.994886577129364
vn 0.1009986400604248 0.0 -0.994886577129364
vn 0.1009986400604248 0.0 -0.994886577129364
vn 0.0002999907883349806 -0.08629734814167023 -0.9962693452835083
vn 0.0002999907883349806 -0.08629734814167023 -0.9962693452835083
vn 0.0002999907883349806 -0.08629734814167023 -0.9962693452835083
vn 0.0002999907883349806 -0.08629734814167023 -0.9962693452835083
vn -0.00029999593971297145 0.08609883487224579 0.9962865114212036
vn -0.00029999593971297145 0.08609883487224579 0.9962865114212036
vn -0.00029999593971297145 0.08609883487224579 0.9962865114212036
vn -0.00029999593971297145 0.08609883487224579 0.9962865114212036
vn -0.999447762966156 -0.007800372317433357 0.03230154141783714
vn -0.9994444251060486 -0.007800346240401268 0.0324014388024807
vn -0.999447762966156 -0.007800372317433357 0.03230154141783714
vn -0.9994444251060486 -0.007800346240401268 0.0324014388024807
vn 0.999447762966156 0.007800372317433357 -0.03230154141783714
vn 0.9994509816169739 0.007800397463142872 -0.03220164403319359
vn 0.999447762966156 0.007800372317433357 -0.03230154141783714
vn 0.9994509816169739 0.007800397463142872 -0.03220164403319359
vn 0.0002999907883349806 0.08629734814167023 -0.9962693452835083
vn 0.0002999907883349806 0.08629734814167023 -0.9962693452835083
vn 0.0002999907883349806 0.08629734814167023 -0.9962693452835083
vn 0.0002999907883349806 0.08629734814167023 -0.9962693452835083
vn -0.00029999593971297145 -0.08609883487224579 0.9962865114212036
vn -0.00029999593971297145 -0.08609883487224579 0.9962865114212036
vn -0.00029999593971297145 -0.08609883487224579 0.9962865114212036
vn -0.00029999593971297145 -0.08609883487224579 0.9962865114212036
vn -0.999447762966156 0.007800372317433357 0.03230154141783714
vn -0.999447762966156 0.007800372317433357 0.03230154141783714
vn -0.999447762966156 0.007800372317433357 0.03230154141783714
vn -0.999447762966156 0.007800372317433357 0.03230154141783714
vn 0.9994509816169739 -0.007800397463142872 -0.03220164403319359
vn 0.9994444251060486 -0.007800346240401268 -0.0324014388024807
vn 0.999447762966156 -0.007800372317433357 -0.03230154141783714
vn 0.9994509816169739 -0.007800397463142872 -0.03220164403319359
vn -0.0 0.0 1.0
vn -0.0 0.0 1.0
vn -0.0 0.0 1.0
vn -0.0 0.0 1.0
vn -0.0 -1.0 0.0
vn -0.0 -1.0 0.0
vn -0.0 -1.0 0.0
vn -0.0 -1.0 0.0
vn 0.03039781004190445 0.9995379447937012 0.0
vn 0.03039781004190445 0.9995379447937012 0.0
vn 0.030397815629839897 0.9995379447937012 0.0
vn 0.030397815629839897 0.9995379447937012 0.0
vn -0.0005244044004939497 -0.017243418842554092 0.9998512268066406
vn 0.00017587137699592859 0.00578301539644599 0.9999833106994629
vn 0.00017345183005090803 0.005703427363187075 0.9999837875366211
vn -0.0005244044004939497 -0.017243416979908943 0.9998512268066406
vn 0.0008736231829971075 0.02872667834162712 0.9995868802070618
vn 0.0008736215531826019 0.02872668020427227 0.9995868802070618
vn -0.030397450551390648 -0.9995379447937012 0.0
vn -0.030397450551390648 -0.9995379447937012 0.0
vn -0.030397452414035797 -0.9995379447937012 0.0
vn -0.030397452414035797 -0.9995379447937012 0.0
vn -0.0 1.0 0.0
vn -0.0 1.0 0.0
vn -0.0 1.0 0.0
vn -0.0 1.0 0.0
vn 1.0 0.0 0.0
vn 1.0 0.0 0.0
vn 1.0 0.0 0.0
vn 1.0 0.0 0.0
vn -1.0 0.0 0.0
vn -1.0 0.0 0.0
vn -1.0 0.0 0.0
vn -1.0 0.0 0.0
vn -1.0 0.0 0.0
vn -1.0 0.0 0.0
vn -0.9996883869171143 0.02496173605322838 0.0
vn -0.9996165037155151 0.027689646929502487 0.0
vn -0.9996170997619629 0.027669759467244148 0.0
vn -0.9996883869171143 0.02496173419058323 0.0
vn -0.9995379447937012 0.03039775975048542 0.0
vn -0.9995379447937012 0.03039775975048542 0.0
vn 0.9996883869171143 -0.02496172860264778 0.0
vn 0.9996170997619629 -0.027669742703437805 0.0
vn 0.9996165037155151 -0.027689630165696144 0.0
vn 0.9996883869171143 -0.02496172860264778 0.0
vn 0.9995379447937012 -0.03039773367345333 0.0
vn 0.9995379447937012 -0.03039773367345333 0.0
vt 0.09837275743484497 0.016728520393371582
vt 0.17781132459640503 0.7220244407653809
vt 0.09837275743484497 0.7220244407653809
vt 0.17780941724777222 0.01672840118408203
vt 0.17780941724777222 0.01672840118408203
vt 0.2572507858276367 0.7220244407653809
vt 0.17781132459640503 0.7220244407653809
vt 0.2572506070137024 0.01672840118408203
vt 0.2572506070137024 0.01672840118408203
vt 0.33669090270996094 0.7220244407653809
vt 0.2572507858276367 0.7220244407653809
vt 0.33669087290763855 0.016728520393371582
vt 0.018931686878204346 0.016728520393371582
vt 0.09837275743484497 0.7220244407653809
vt 0.01893174648284912 0.7220244407653809
vt 0.09837275743484497 0.016728520393371582
vt 0.10381149500608444 0.8920464664697647
vt 0.8384771943092346 0.9036180227994919
vt 0.10381149500608444 0.9036178812384605
vt 0.8384771943092346 0.8920466154813766
vt 0.10381149500608444 0.9036178812384605
vt 0.8384771943092346 0.9743457399308681
vt 0.10381149500608444 0.9743455946445465
vt 0.8384771943092346 0.9036180227994919
vt 0.8384771943092346 0.9036180227994919
vt 0.9181302189826965 0.8920466154813766
vt 0.9181302189826965 0.9036180227994919
vt 0.8384771943092346 0.8920466154813766
vt 0.8384771943092346 0.8920466154813766
vt 0.10381149500608444 0.8109012246131897
vt 0.8384771943092346 0.810901403427124
vt 0.10381149500608444 0.8920464664697647
vt 0.10381149500608444 0.8920464664697647
vt 0.021175971254706383 0.9036178812384605
vt 0.021175971254706383 0.8920464664697647
vt 0.10381149500608444 0.9036178812384605
vt 0.11212107539176941 0.7637622505426407
vt 0.08461843430995941 0.7948122918605804
vt 0.0846184492111206 0.7637622505426407
vt 0.11212107539176941 0.7948122769594193
vt 0.035119179636240005 0.7948122918605804
vt 0.008055003359913826 0.7637622654438019
vt 0.035119179636240005 0.7637622654438019
vt 0.008055003359913826 0.7948122918605804
vt 0.035119179636240005 0.737064778804779
vt 0.0846184492111206 0.7637622505426407
vt 0.035119179636240005 0.7637622654438019
vt 0.0846184492111206 0.737064778804779
vt 0.035119179636240005 0.8214415013790131
vt 0.08461843430995941 0.7948122918605804
vt 0.08461843430995941 0.8214415013790131
vt 0.035119179636240005 0.7948122918605804
vt 0.035119179636240005 0.7948122918605804
vt 0.0846184492111206 0.7637622505426407
vt 0.08461843430995941 0.7948122918605804
vt 0.035119179636240005 0.7637622654438019
vt 0.8384771347045898 0.903618149459362
vt 0.10381149500608444 0.8920464739203453
vt 0.8384771347045898 0.8920467421412468
vt 0.10381149500608444 0.9036178812384605
vt 0.8384771347045898 0.8920467421412468
vt 0.10381153225898743 0.8109010756015778
vt 0.8384771943092346 0.8109013140201569
vt 0.10381149500608444 0.8920464739203453
vt 0.10381149500608444 0.8920464739203453
vt 0.021175971254706383 0.9036178812384605
vt 0.021175971254706383 0.8920464739203453
vt 0.10381149500608444 0.9036178812384605
vt 0.10381149500608444 0.9036178812384605
vt 0.8384771943092346 0.9743457399308681
vt 0.10381153225898743 0.9743454419076443
vt 0.8384771347045898 0.903618149459362
vt 0.8384771347045898 0.903618149459362
vt 0.9181302189826965 0.8920467421412468
vt 0.9181302189826965 0.9036181792616844
vt 0.8384771347045898 0.8920467421412468
vt 0.9287645816802979 0.6713384985923767
vt 0.9063461422920227 0.8665569573640823
vt 0.9063461422920227 0.6713384985923767
vt 0.9287645816802979 0.8665569573640823
vt 0.9287645816802979 0.6713384985923767
vt 0.9511836767196655 0.8665569573640823
vt 0.9287645816802979 0.8665569573640823
vt 0.9511838555335999 0.6713384985923767
vt 0.9511838555335999 0.6713384985923767
vt 0.9736032485961914 0.8665569573640823
vt 0.9511836767196655 0.8665569573640823
vt 0.9736032485961914 0.6713384985923767
vt 0.8839263319969177 0.6713384985923767
vt 0.9063461422920227 0.8665569573640823
vt 0.8839263319969177 0.8665569573640823
vt 0.9063461422920227 0.6713384985923767
vt 0.9530157446861267 0.6325138211250305
vt 0.9245966672897339 0.013106822967529297
vt 0.926184892654419 0.6325138807296753
vt 0.9518297910690308 0.013106942176818848
vt 0.926184892654419 0.6325138807296753
vt 0.8979810476303101 0.013071775436401367
vt 0.8991073369979858 0.6324775815010071
vt 0.9245966672897339 0.013106822967529297
vt 0.9518297910690308 0.013106942176818848
vt 0.980093777179718 0.6324777603149414
vt 0.9784457683563232 0.013071775436401367
vt 0.9530157446861267 0.6325138211250305
vt 0.17781132459640503 0.7220244407653809
vt 0.2572506070137024 0.01672840118408203
vt 0.2572507858276367 0.7220244407653809
vt 0.17780941724777222 0.01672840118408203
vt 0.09837275743484497 0.7220244407653809
vt 0.17780941724777222 0.01672840118408203
vt 0.17781132459640503 0.7220244407653809
vt 0.09837275743484497 0.016728520393371582
vt 0.01893174648284912 0.7220244407653809
vt 0.09837275743484497 0.016728520393371582
vt 0.09837275743484497 0.7220244407653809
vt 0.018931686878204346 0.016728520393371582
vt 0.2572507858276367 0.7220244407653809
vt 0.33669087290763855 0.016728520393371582
vt 0.33669090270996094 0.7220244407653809
vt 0.2572506070137024 0.01672840118408203
vt 0.10381149500608444 0.9036178812384605
vt 0.8384771347045898 0.8920467421412468
vt 0.8384771347045898 0.903618149459362
vt 0.10381149500608444 0.8920464739203453
vt 0.10381153225898743 0.9743454419076443
vt 0.8384771347045898 0.903618149459362
vt 0.8384771943092346 0.9743457399308681
vt 0.10381149500608444 0.9036178812384605
vt 0.021175971254706383 0.8920464739203453
vt 0.10381149500608444 0.9036178812384605
vt 0.021175971254706383 0.9036178812384605
vt 0.10381149500608444 0.8920464739203453
vt 0.8384771943092346 0.8109013140201569
vt 0.10381149500608444 0.8920464739203453
vt 0.10381153225898743 0.8109010756015778
vt 0.8384771347045898 0.8920467421412468
vt 0.9181302189826965 0.9036181792616844
vt 0.8384771347045898 0.8920467421412468
vt 0.9181302189826965 0.8920467421412468
vt 0.8384771347045898 0.903618149459362
vt 0.035119179636240005 0.7948122918605804
vt 0.008055003359913826 0.7637622654438019
vt 0.035119179636240005 0.7637622654438019
vt 0.008055003359913826 0.7948122918605804
vt 0.11212107539176941 0.7637622505426407
vt 0.08461843430995941 0.7948122918605804
vt 0.0846184492111206 0.7637622505426407
vt 0.11212107539176941 0.7948122769594193
vt 0.0846184492111206 0.737064778804779
vt 0.035119179636240005 0.7637622654438019
vt 0.035119179636240005 0.737064778804779
vt 0.0846184492111206 0.7637622505426407
vt 0.035119179636240005 0.7948122918605804
vt 0.08461843430995941 0.8214415013790131
vt 0.035119179636240005 0.8214415013790131
vt 0.08461843430995941 0.7948122918605804
vt 0.035119179636240005 0.7637622654438019
vt 0.08461843430995941 0.7948122918605804
vt 0.035119179636240005 0.7948122918605804
vt 0.0846184492111206 0.7637622505426407
vt 0.8384771943092346 0.8920466154813766
vt 0.10381149500608444 0.9036178812384605
vt 0.10381149500608444 0.8920464664697647
vt 0.8384771943092346 0.9036180227994919
vt 0.8384771943092346 0.810901403427124
vt 0.10381149500608444 0.8920464664697647
vt 0.10381149500608444 0.8109012246131897
vt 0.8384771943092346 0.8920466154813766
vt 0.9181302189826965 0.9036180227994919
vt 0.8384771943092346 0.8920466154813766
vt 0.9181302189826965 0.8920466154813766
vt 0.8384771943092346 0.9036180227994919
vt 0.10381149500608444 0.9743455946445465
vt 0.8384771943092346 0.9036180227994919
vt 0.8384771943092346 0.9743457399308681
vt 0.10381149500608444 0.9036178812384605
vt 0.021175971254706383 0.8920464664697647
vt 0.10381149500608444 0.9036178812384605
vt 0.021175971254706383 0.9036178812384605
vt 0.10381149500608444 0.8920464664697647
vt 0.9287645816802979 0.6713384985923767
vt 0.9511836767196655 0.8665569573640823
vt 0.9287645816802979 0.8665569573640823
vt 0.9511838555335999 0.6713384985923767
vt 0.9063461422920227 0.8665569573640823
vt 0.9287645816802979 0.6713384985923767
vt 0.9287645816802979 0.8665569573640823
vt 0.9063461422920227 0.6713384985923767
vt 0.8839263319969177 0.8665569573640823
vt 0.9063461422920227 0.6713384985923767
vt 0.9063461422920227 0.8665569573640823
vt 0.8839263319969177 0.6713384985923767
vt 0.9511836767196655 0.8665569573640823
vt 0.9736032485961914 0.6713384985923767
vt 0.9736032485961914 0.8665569573640823
vt 0.9511838555335999 0.6713384985923767
vt 0.7422508597373962 0.02456796169281006
vt 0.6521204710006714 0.75005704164505
vt 0.6521205306053162 0.02456796169281006
vt 0.7422508001327515 0.7500570714473724
vt 0.7422508001327515 0.7500570714473724
vt 0.6521204113960266 0.7645504474639893
vt 0.6521204710006714 0.75005704164505
vt 0.7422507405281067 0.7645504772663116
vt 0.7422508001327515 0.7500570714473724
vt 0.7567434310913086 0.02456796169281006
vt 0.756743311882019 0.7500570714473724
vt 0.7422508597373962 0.02456796169281006
vt 0.3817295432090759 0.02456796169281006
vt 0.5619902014732361 0.010074496269226074
vt 0.5619902014732361 0.02456796169281006
vt 0.3817295432090759 0.010074496269226074
vt 0.3817295432090759 0.02456796169281006
vt 0.3672367334365845 0.7500569820404053
vt 0.367236852645874 0.02456796169281006
vt 0.3817294239997864 0.7500569820404053
vt 0.7855356931686401 0.6324113011360168
vt 0.8019822239875793 0.01155310869216919
vt 0.8019822239875793 0.6324113011360168
vt 0.7855356931686401 0.01155310869216919
vt 0.8183925151824951 0.01155310869216919
vt 0.8348087668418884 0.6324113011360168
vt 0.8183925151824951 0.6324113011360168
vt 0.834808886051178 0.01155310869216919
vt 0.8019822239875793 0.01155310869216919
vt 0.8183925151824951 0.6324113011360168
vt 0.8019822239875793 0.6324113011360168
vt 0.8183925151824951 0.01155310869216919
vt 0.851252555847168 0.6324113011360168
vt 0.834808886051178 0.01155310869216919
vt 0.851252555847168 0.01155310869216919
vt 0.8348087668418884 0.6324113011360168
vt 0.8019822239875793 0.6324113011360168
vt 0.7855356931686401 0.01155310869216919
vt 0.8019822239875793 0.01155310869216919
vt 0.7855356931686401 0.6324113011360168
vt 0.834808886051178 0.01155310869216919
vt 0.8183925151824951 0.6324113011360168
vt 0.8183925151824951 0.01155310869216919
vt 0.8348087668418884 0.6324113011360168
vt 0.8183925151824951 0.01155310869216919
vt 0.8019822239875793 0.6324113011360168
vt 0.8019822239875793 0.01155310869216919
vt 0.8183925151824951 0.6324113011360168
vt 0.8348087668418884 0.6324113011360168
vt 0.851252555847168 0.01155310869216919
vt 0.851252555847168 0.6324113011360168
vt 0.834808886051178 0.01155310869216919
vt 0.1778113692998886 0.7220244109630585
vt 0.2572499215602875 0.01672840118408203
vt 0.2572498917579651 0.7220244109630585
vt 0.1778113692998886 0.01672840118408203
vt 0.09837199747562408 0.7220244109630585
vt 0.1778113692998886 0.01672840118408203
vt 0.1778113692998886 0.7220244109630585
vt 0.09837185591459274 0.01672840118408203
vt 0.01893172599375248 0.7220242917537689
vt 0.09837185591459274 0.01672840118408203
vt 0.09837199747562408 0.7220244109630585
vt 0.018931755796074867 0.01672840118408203
vt 0.2572498917579651 0.7220244109630585
vt 0.33669090270996094 0.01672840118408203
vt 0.3366909623146057 0.7220244109630585
vt 0.2572499215602875 0.01672840118408203
vt 0.0846184492111206 0.7637622505426407
vt 0.11212107539176941 0.7948122769594193
vt 0.08461843430995941 0.7948122918605804
vt 0.11212107539176941 0.7637622505426407
vt 0.008055003359913826 0.7948122918605804
vt 0.035119179636240005 0.7637622654438019
vt 0.035119179636240005 0.7948122918605804
vt 0.008055003359913826 0.7637622654438019
vt 0.035119179636240005 0.8214415013790131
vt 0.08461843430995941 0.7948122918605804
vt 0.08461843430995941 0.8214415013790131
vt 0.035119179636240005 0.7948122918605804
vt 0.0846184492111206 0.7637622505426407
vt 0.035119179636240005 0.737064778804779
vt 0.0846184492111206 0.737064778804779
vt 0.035119179636240005 0.7637622654438019
vt 0.08461843430995941 0.7948122918605804
vt 0.035119179636240005 0.7637622654438019
vt 0.0846184492111206 0.7637622505426407
vt 0.035119179636240005 0.7948122918605804
vt 0.9287645816802979 0.8665569573640823
vt 0.9063461422920227 0.6713384985923767
vt 0.9287645816802979 0.6713384985923767
vt 0.9063461422920227 0.8665569573640823
vt 0.9511838555335999 0.6713384985923767
vt 0.9287645816802979 0.8665569573640823
vt 0.9287645816802979 0.6713384985923767
vt 0.9511836767196655 0.8665569573640823
vt 0.9736032485961914 0.6713384985923767
vt 0.9511836767196655 0.8665569573640823
vt 0.9511838555335999 0.6713384985923767
vt 0.9736032485961914 0.8665569573640823
vt 0.9063461422920227 0.6713384985923767
vt 0.8839263319969177 0.8665569573640823
vt 0.8839263319969177 0.6713384985923767
vt 0.9063461422920227 0.8665569573640823
vt 0.09837185591459274 0.01672840118408203
vt 0.17780980467796326 0.7220244109630585
vt 0.09837199747562408 0.7220244109630585
vt 0.17780980467796326 0.01672840118408203
vt 0.17780980467796326 0.01672840118408203
vt 0.2572498917579651 0.7220244109630585
vt 0.17780980467796326 0.7220244109630585
vt 0.2572499215602875 0.01672840118408203
vt 0.2572499215602875 0.01672840118408203
vt 0.3366909623146057 0.7220244109630585
vt 0.2572498917579651 0.7220244109630585
vt 0.33669090270996094 0.01672840118408203
vt 0.018931755796074867 0.01672840118408203
vt 0.09837199747562408 0.7220244109630585
vt 0.01893172599375248 0.7220242917537689
vt 0.09837185591459274 0.01672840118408203
vt 0.008055003359913826 0.7948122918605804
vt 0.035119179636240005 0.7637622654438019
vt 0.035119179636240005 0.7948122918605804
vt 0.008055003359913826 0.7637622654438019
vt 0.0846184492111206 0.7637622505426407
vt 0.11212107539176941 0.7948122769594193
vt 0.08461843430995941 0.7948122918605804
vt 0.11212107539176941 0.7637622505426407
vt 0.08461843430995941 0.8214415013790131
vt 0.035119179636240005 0.7948122918605804
vt 0.08461843430995941 0.7948122918605804
vt 0.035119179636240005 0.8214415013790131
vt 0.0846184492111206 0.737064778804779
vt 0.035119179636240005 0.7637622654438019
vt 0.035119179636240005 0.737064778804779
vt 0.0846184492111206 0.7637622505426407
vt 0.0846184492111206 0.7637622505426407
vt 0.035119179636240005 0.7948122918605804
vt 0.035119179636240005 0.7637622654438019
vt 0.08461843430995941 0.7948122918605804
vt 0.9287645816802979 0.8665569573640823
vt 0.9511838555335999 0.6713384985923767
vt 0.9511836767196655 0.8665569573640823
vt 0.9287645816802979 0.6713384985923767
vt 0.9287645816802979 0.8665569573640823
vt 0.9063461422920227 0.6713384985923767
vt 0.9287645816802979 0.6713384985923767
vt 0.9063461422920227 0.8665569573640823
vt 0.9063461422920227 0.8665569573640823
vt 0.8839263319969177 0.6713384985923767
vt 0.9063461422920227 0.6713384985923767
vt 0.8839263319969177 0.8665569573640823
vt 0.9736032485961914 0.8665569573640823
vt 0.9511838555335999 0.6713384985923767
vt 0.9736032485961914 0.6713384985923767
vt 0.9511836767196655 0.8665569573640823
vt 0.834808886051178 0.01155310869216919
vt 0.851252555847168 0.6324113011360168
vt 0.8348087668418884 0.6324113011360168
vt 0.851252555847168 0.01155310869216919
vt 0.8019822239875793 0.6324113011360168
vt 0.8183925151824951 0.01155310869216919
vt 0.8183925151824951 0.6324113011360168
vt 0.8019822239875793 0.01155310869216919
vt 0.8183925151824951 0.6324113011360168
vt 0.834808886051178 0.01155310869216919
vt 0.8348087668418884 0.6324113011360168
vt 0.8183925151824951 0.01155310869216919
vt 0.8019822239875793 0.01155310869216919
vt 0.7855356931686401 0.6324113011360168
vt 0.7855356931686401 0.01155310869216919
vt 0.8019822239875793 0.6324113011360168
vt 0.851252555847168 0.01155310869216919
vt 0.8348087668418884 0.6324113011360168
vt 0.834808886051178 0.01155310869216919
vt 0.851252555847168 0.6324113011360168
vt 0.8183925151824951 0.6324113011360168
vt 0.8019822239875793 0.01155310869216919
vt 0.8183925151824951 0.01155310869216919
vt 0.8019822239875793 0.6324113011360168
vt 0.8348087668418884 0.6324113011360168
vt 0.8183925151824951 0.01155310869216919
vt 0.834808886051178 0.01155310869216919
vt 0.8183925151824951 0.6324113011360168
vt 0.7855356931686401 0.01155310869216919
vt 0.8019822239875793 0.6324113011360168
vt 0.7855356931686401 0.6324113011360168
vt 0.8019822239875793 0.01155310869216919
vt 0.3817295432090759 0.02456796169281006
vt 0.5619901418685913 0.7500570267438889
vt 0.3817294239997864 0.7500569820404053
vt 0.5619902014732361 0.02456796169281006
vt 0.3817294239997864 0.7500569820404053
vt 0.5619900822639465 0.7645504325628281
vt 0.3817294239997864 0.7645503878593445
vt 0.5619901418685913 0.7500570267438889
vt 0.6521205306053162 0.02456796169281006
vt 0.5619902014732361 0.010074496269226074
vt 0.6521205306053162 0.010074496269226074
vt 0.5619902014732361 0.02456796169281006
vt 0.5619902014732361 0.02456796169281006
vt 0.6521204710006714 0.47799861431121826
vt 0.5619901418685913 0.47799861431121826
vt 0.6521205306053162 0.02456796169281006
vt 0.5619901418685913 0.7500570267438889
vt 0.6521204710006714 0.75005704164505
vt 0.5619901418685913 0.7500570267438889
vt 0.6521204113960266 0.7645504474639893
vt 0.5619900822639465 0.7645504325628281
vt 0.6521204710006714 0.75005704164505
vt 0.7422508597373962 0.02456796169281006
vt 0.6521205306053162 0.010074496269226074
vt 0.7422508597373962 0.010074496269226074
vt 0.6521205306053162 0.02456796169281006
vt 0.035119179636240005 0.737064778804779
vt 0.11212107539176941 0.7637622505426407
vt 0.008055003359913826 0.7637622654438019
vt 0.0846184492111206 0.737064778804779
vt 0.11212107539176941 0.7948122769594193
vt 0.9518297910690308 0.013106942176818848
vt 0.9245966672897339 0.013106822967529297
vt 0.9518297910690308 0.013106942176818848
vt 0.11212107539176941 0.7948122769594193
vt 0.08461843430995941 0.8214415013790131
vt 0.8979810476303101 0.013071775436401367
vt 0.9429541826248169 0.6325138509273529
vt 0.9482715129852295 0.013071775436401367
vt 0.926184892654419 0.6325138807296753
vt 0.9784457683563232 0.013071775436401367
vt 0.9530157446861267 0.6325138211250305
vt 0.980093777179718 0.6324777603149414
vt 0.40204745531082153 0.8019402623176575
vt 0.8915833830833435 0.8019405007362366
vt 0.8991073369979858 0.6324775815010071
vt 0.8384771347045898 0.903618149459362
vt 0.10381149500608444 0.9036178812384605

g bg_mdl_map_hashi2x1_100a
s 1
usemtl bg_mdl_map_hashi2x1_100a
f 3/3/3 2/2/2 1/1/1 
f 4/4/4 1/1/1 2/2/2 
f 7/7/7 6/6/6 5/5/5 
f 8/8/8 5/5/5 6/6/6 
f 11/11/11 10/10/10 9/9/9 
f 12/12/12 9/9/9 10/10/10 
f 15/15/15 14/14/14 13/13/13 
f 16/16/16 13/13/13 14/14/14 
f 19/19/19 18/18/18 17/17/17 
f 20/20/20 17/17/17 18/18/18 
f 23/23/23 22/22/22 21/21/21 
f 24/24/24 21/21/21 22/22/22 
f 27/27/27 26/26/26 25/25/25 
f 28/28/28 25/25/25 26/26/26 
f 31/31/31 30/30/30 29/29/29 
f 32/32/32 29/29/29 30/30/30 
f 35/35/35 34/34/34 33/33/33 
f 36/36/36 33/33/33 34/34/34 
f 39/39/39 38/38/38 37/37/37 
f 40/40/40 37/37/37 38/38/38 
f 43/43/43 42/42/42 41/41/41 
f 44/44/44 41/41/41 42/42/42 
f 47/47/47 46/46/46 45/45/45 
f 48/48/48 45/45/45 46/46/46 
f 51/51/51 50/50/50 49/49/49 
f 52/52/52 49/49/49 50/50/50 
f 55/55/55 54/54/54 53/53/53 
f 56/56/56 53/53/53 54/54/54 
f 59/59/59 58/58/58 57/57/57 
f 60/60/60 57/57/57 58/58/58 
f 63/63/63 62/62/62 61/61/61 
f 64/64/64 61/61/61 62/62/62 
f 67/67/67 66/66/66 65/65/65 
f 68/68/68 65/65/65 66/66/66 
f 71/71/71 70/70/70 69/69/69 
f 72/72/72 69/69/69 70/70/70 
f 75/75/75 74/74/74 73/73/73 
f 76/76/76 73/73/73 74/74/74 
f 79/79/79 78/78/78 77/77/77 
f 80/80/80 77/77/77 78/78/78 
f 83/83/83 82/82/82 81/81/81 
f 84/84/84 81/81/81 82/82/82 
f 87/87/87 86/86/86 85/85/85 
f 88/88/88 85/85/85 86/86/86 
f 91/91/91 90/90/90 89/89/89 
f 92/92/92 89/89/89 90/90/90 
f 95/95/95 94/94/94 93/93/93 
f 96/96/96 93/93/93 94/94/94 
f 99/99/99 98/98/98 97/97/97 
f 100/100/100 97/97/97 98/98/98 
f 103/103/103 102/102/102 101/101/101 
f 104/104/104 101/101/101 102/102/102 
f 107/107/107 106/106/106 105/105/105 
f 108/108/108 105/105/105 106/106/106 
f 111/111/111 110/110/110 109/109/109 
f 112/112/112 109/109/109 110/110/110 
f 115/115/115 114/114/114 113/113/113 
f 116/116/116 113/113/113 114/114/114 
f 119/119/119 118/118/118 117/117/117 
f 120/120/120 117/117/117 118/118/118 
f 123/123/123 122/122/122 121/121/121 
f 124/124/124 121/121/121 122/122/122 
f 127/127/127 126/126/126 125/125/125 
f 128/128/128 125/125/125 126/126/126 
f 131/131/131 130/130/130 129/129/129 
f 132/132/132 129/129/129 130/130/130 
f 135/135/135 134/134/134 133/133/133 
f 136/136/136 133/133/133 134/134/134 
f 139/139/139 138/138/138 137/137/137 
f 140/140/140 137/137/137 138/138/138 
f 143/143/143 142/142/142 141/141/141 
f 144/144/144 141/141/141 142/142/142 
f 147/147/147 146/146/146 145/145/145 
f 148/148/148 145/145/145 146/146/146 
f 151/151/151 150/150/150 149/149/149 
f 152/152/152 149/149/149 150/150/150 
f 155/155/155 154/154/154 153/153/153 
f 156/156/156 153/153/153 154/154/154 
f 159/159/159 158/158/158 157/157/157 
f 160/160/160 157/157/157 158/158/158 
f 163/163/163 162/162/162 161/161/161 
f 164/164/164 161/161/161 162/162/162 
f 167/167/167 166/166/166 165/165/165 
f 168/168/168 165/165/165 166/166/166 
f 171/171/171 170/170/170 169/169/169 
f 172/172/172 169/169/169 170/170/170 
f 175/175/175 174/174/174 173/173/173 
f 176/176/176 173/173/173 174/174/174 
f 179/179/179 178/178/178 177/177/177 
f 180/180/180 177/177/177 178/178/178 
f 183/183/183 182/182/182 181/181/181 
f 184/184/184 181/181/181 182/182/182 
f 187/187/187 186/186/186 185/185/185 
f 188/188/188 185/185/185 186/186/186 
f 191/191/191 190/190/190 189/189/189 
f 192/192/192 189/189/189 190/190/190 
f 195/195/195 194/194/194 193/193/193 
f 196/196/196 193/193/193 194/194/194 
f 199/199/199 198/198/198 197/197/197 
f 200/200/200 197/197/197 198/198/198 
f 203/203/203 202/202/202 201/201/201 
f 204/204/204 201/201/201 202/202/202 
f 207/207/207 206/206/206 205/205/205 
f 208/208/208 205/205/205 206/206/206 
f 211/211/211 210/210/210 209/209/209 
f 212/212/212 209/209/209 210/210/210 
f 215/215/215 214/214/214 213/213/213 
f 216/216/216 213/213/213 214/214/214 
f 219/219/219 218/218/218 217/217/217 
f 220/220/220 217/217/217 218/218/218 
f 223/223/223 222/222/222 221/221/221 
f 224/224/224 221/221/221 222/222/222 
f 227/227/227 226/226/226 225/225/225 
f 228/228/228 225/225/225 226/226/226 
f 231/231/231 230/230/230 229/229/229 
f 232/232/232 229/229/229 230/230/230 
f 235/235/235 234/234/234 233/233/233 
f 236/236/236 233/233/233 234/234/234 
f 239/239/239 238/238/238 237/237/237 
f 240/240/240 237/237/237 238/238/238 
f 243/243/243 242/242/242 241/241/241 
f 244/244/244 241/241/241 242/242/242 
f 247/247/247 246/246/246 245/245/245 
f 248/248/248 245/245/245 246/246/246 
f 251/251/251 250/250/250 249/249/249 
f 252/252/252 249/249/249 250/250/250 
f 255/255/255 254/254/254 253/253/253 
f 256/256/256 253/253/253 254/254/254 
f 259/259/259 258/258/258 257/257/257 
f 260/260/260 257/257/257 258/258/258 
f 263/263/263 262/262/262 261/261/261 
f 264/264/264 261/261/261 262/262/262 
f 267/267/267 266/266/266 265/265/265 
f 268/268/268 265/265/265 266/266/266 
f 271/271/271 270/270/270 269/269/269 
f 272/272/272 269/269/269 270/270/270 
f 275/275/275 274/274/274 273/273/273 
f 276/276/276 273/273/273 274/274/274 
f 279/279/279 278/278/278 277/277/277 
f 280/280/280 277/277/277 278/278/278 
f 283/283/283 282/282/282 281/281/281 
f 284/284/284 281/281/281 282/282/282 
f 287/287/287 286/286/286 285/285/285 
f 288/288/288 285/285/285 286/286/286 
f 291/291/291 290/290/290 289/289/289 
f 292/292/292 289/289/289 290/290/290 
f 295/295/295 294/294/294 293/293/293 
f 296/296/296 293/293/293 294/294/294 
f 299/299/299 298/298/298 297/297/297 
f 300/300/300 297/297/297 298/298/298 
f 303/303/303 302/302/302 301/301/301 
f 304/304/304 301/301/301 302/302/302 
f 307/307/307 306/306/306 305/305/305 
f 308/308/308 305/305/305 306/306/306 
f 311/311/311 310/310/310 309/309/309 
f 312/312/312 309/309/309 310/310/310 
f 315/315/315 314/314/314 313/313/313 
f 316/316/316 313/313/313 314/314/314 
f 319/319/319 318/318/318 317/317/317 
f 320/320/320 317/317/317 318/318/318 
f 323/323/323 322/322/322 321/321/321 
f 324/324/324 321/321/321 322/322/322 
f 327/327/327 326/326/326 325/325/325 
f 328/328/328 325/325/325 326/326/326 
f 331/331/331 330/330/330 329/329/329 
f 332/332/332 329/329/329 330/330/330 
f 335/335/335 334/334/334 333/333/333 
f 336/336/336 333/333/333 334/334/334 
f 339/339/339 338/338/338 337/337/337 
f 340/340/340 337/337/337 338/338/338 
f 343/343/343 342/342/342 341/341/341 
f 344/344/344 341/341/341 342/342/342 
f 347/347/347 346/346/346 345/345/345 
f 348/348/348 345/345/345 346/346/346 
f 351/351/351 350/350/350 349/349/349 
f 352/352/352 349/349/349 350/350/350 
f 355/355/355 354/354/354 353/353/353 
f 356/356/356 353/353/353 354/354/354 
f 359/359/359 358/358/358 357/357/357 
f 360/360/360 357/357/357 358/358/358 
f 363/363/363 362/362/362 361/361/361 
f 364/364/364 361/361/361 362/362/362 
f 367/367/367 366/366/366 365/365/365 
f 368/368/368 365/365/365 366/366/366 
f 371/371/371 370/370/370 369/369/369 
f 372/372/372 369/369/369 370/370/370 
f 375/375/375 374/374/374 373/373/373 
f 376/376/376 373/373/373 374/374/374 
f 379/379/379 378/378/378 377/377/377 
f 380/380/380 377/377/377 378/378/378 
f 383/383/383 382/382/382 381/381/381 
f 384/384/384 381/381/381 382/382/382 
f 387/387/387 386/386/386 385/385/385 
f 388/388/388 385/385/385 386/386/386 
f 391/391/391 390/390/390 389/389/389 
f 392/392/392 389/389/389 390/390/390 
f 395/395/395 394/394/394 393/393/393 
f 396/396/396 393/393/393 394/394/394 
f 399/399/399 398/398/398 397/397/397 
f 400/400/400 397/397/397 398/398/398 
f 399/399/399 401/401/401 398/398/398 
f 402/402/402 398/398/398 401/401/401 
f 405/405/405 404/404/404 403/403/403 
f 406/406/406 403/403/403 404/404/404 
f 409/409/409 408/408/408 407/407/407 
f 410/410/410 407/407/407 408/408/408 
f 413/413/413 412/412/412 411/411/411 
f 414/414/414 411/411/411 412/412/412 
f 417/417/417 416/416/416 415/415/415 
f 420/420/420 419/419/419 418/418/418 
f 423/423/423 422/422/422 421/421/421 
f 424/424/424 421/421/421 422/422/422 
f 423/423/423 425/425/425 422/422/422 
f 426/426/426 422/422/422 425/425/425 
f 429/429/429 428/428/428 427/427/427 
f 430/430/430 427/427/427 428/428/428 
f 429/429/429 431/431/431 428/428/428 
f 432/432/432 428/428/428 431/431/431 

