v 0.49104613065719604 -0.5085864067077637 0.9009497165679932
v 0.49104613065719604 0.49141356348991394 -3.0517577442878974e-07
v 0.49104613065719604 -0.5085864067077637 -3.0517577442878974e-07
v 0.49104613065719604 0.49141356348991394 0.9009497165679932
v 0.4304211437702179 -0.508587658405304 1.066065788269043
v 0.5089532136917114 0.5085864067077637 1.066065788269043
v 0.5089532136917114 -0.508587658405304 1.066065788269043
v 0.4304211437702179 0.4307885766029358 1.066065788269043
v -0.5 0.5085864067077637 1.0660659074783325
v 0.4304211437702179 0.4307885766029358 1.066065788269043
v -0.5 0.4307885766029358 1.0660659074783325
v 0.5089532136917114 0.5085864067077637 1.066065788269043
v 0.5089532136917114 -0.508587658405304 1.066065788269043
v 0.5041754245758057 0.504162609577179 0.9999997019767761
v 0.5089532136917114 -0.5085864067077637 0.9999997019767761
v 0.5089532136917114 0.5085864067077637 1.066065788269043
v 0.49104613065719604 -0.5085864067077637 0.9009497165679932
v 0.49104613065719604 0.49141356348991394 0.9009497165679932
v 0.5041754245758057 0.504162609577179 0.9999997019767761
v -0.5 0.5085864067077637 1.0660659074783325
v -0.5 0.5085864067077637 0.9999997019767761
v 0.5089532136917114 0.5085864067077637 1.066065788269043
v -0.5 0.5085864067077637 0.9999997019767761
v 0.49104613065719604 0.49141356348991394 0.9009497165679932
v -0.5 0.49141356348991394 0.9009497165679932
v 0.4304211437702179 0.4307885766029358 0.9999997019767761
v -0.5 0.4307885766029358 1.0660659074783325
v 0.4304211437702179 0.4307885766029358 1.066065788269043
v -0.5 0.4307885766029358 0.9999997019767761
v 0.4304211437702179 0.4307885766029358 0.9999997019767761
v 0.4304211437702179 -0.508587658405304 1.066065788269043
v 0.4304211437702179 -0.5085864067077637 0.9999997019767761
v 0.4304211437702179 0.4307885766029358 1.066065788269043
v -0.5 0.49141356348991394 -3.0517577442878974e-07
v 0.49104613065719604 0.49141356348991394 0.9009497165679932
v -0.5 0.49141356348991394 0.9009497165679932
v 0.49104613065719604 0.49141356348991394 -3.0517577442878974e-07
v -0.49999937415122986 -0.5085864067077637 0.9999997019767761
v 0.4304211437702179 0.4307885766029358 0.9999997019767761
v 0.4304211437702179 -0.5085864067077637 0.9999997019767761
v -0.5 0.4307885766029358 0.9999997019767761
vn 0.9961320161819458 0.002184476936236024 -0.08784151822328568
vn 0.7071067690849304 0.7071068286895752 0.0
vn 1.0 0.0 0.0
vn 0.7041585445404053 0.7034926414489746 -0.09622309356927872
vn -0.7071025967597961 0.0 0.7071108818054199
vn 0.5956918001174927 0.5937952995300293 0.540886640548706
vn 0.7081561088562012 0.0032023098319768906 0.7060484886169434
vn -0.3015112578868866 -0.3015114367008209 0.9045340418815613
vn 0.0029890965670347214 0.7080906629562378 0.706115186214447
vn -0.3015112578868866 -0.3015114367008209 0.9045340418815613
vn 1.1596463167506954e-07 -0.7071065902709961 0.7071069478988647
vn 0.5956918001174927 0.5937952995300293 0.540886640548706
vn 0.7081561088562012 0.0032023098319768906 0.7060484886169434
vn 0.7007807493209839 0.7002083659172058 -0.13643507659435272
vn 0.9959951639175415 0.004698792472481728 -0.08928374946117401
vn 0.5956918001174927 0.5937952995300293 0.540886640548706
vn 0.9961320161819458 0.002184476936236024 -0.08784151822328568
vn 0.7041585445404053 0.7034926414489746 -0.09622309356927872
vn 0.7007807493209839 0.7002083659172058 -0.13643507659435272
vn 0.0029890965670347214 0.7080906629562378 0.706115186214447
vn 0.004405390936881304 0.9999903440475464 0.0
vn 0.5956918001174927 0.5937952995300293 0.540886640548706
vn 0.0002794729662127793 0.9857679009437561 -0.16811183094978333
vn 0.7041585445404053 0.7034926414489746 -0.09622309356927872
vn -0.0 0.9963184595108032 -0.0857291966676712
vn -0.5773505568504333 -0.5773500204086304 0.5773503184318542
vn 1.1596463167506954e-07 -0.7071065902709961 0.7071069478988647
vn -0.3015112578868866 -0.3015114367008209 0.9045340418815613
vn -0.0 -0.70710688829422 0.7071066498756409
vn -0.5773505568504333 -0.5773500204086304 0.5773503184318542
vn -0.7071025967597961 0.0 0.7071108818054199
vn -0.7071109414100647 0.0 0.7071025371551514
vn -0.3015112578868866 -0.3015114367008209 0.9045340418815613
vn -0.0 1.0 0.0
vn 0.7041585445404053 0.7034926414489746 -0.09622309356927872
vn -0.0 0.9963184595108032 -0.0857291966676712
vn 0.7071067690849304 0.7071068286895752 0.0
vn -0.0 0.0 1.0
vn -0.5773505568504333 -0.5773500204086304 0.5773503184318542
vn -0.7071109414100647 0.0 0.7071025371551514
vn -0.0 -0.70710688829422 0.7071066498756409
vt 0.01442075427621603 0.4788779616355896
vt 0.4989768862724304 0.014500737190246582
vt 0.4989769160747528 0.478878378868103
vt 0.01442075427621603 0.014500737190246582
vt 0.8621737957000732 0.03383445739746094
vt 0.8961517214775085 0.49372637271881104
vt 0.8961521983146667 0.03383445739746094
vt 0.8621733784675598 0.4602321982383728
vt 0.8961521983146667 0.033778250217437744
vt 0.8621737957000732 0.46023231744766235
vt 0.8621737957000732 0.033778250217437744
vt 0.8961521983146667 0.49372631311416626
vt 0.8961521983146667 0.03383445739746094
vt 0.9398294687271118 0.4941866397857666
vt 0.9395477771759033 0.03383445739746094
vt 0.8961517214775085 0.49372637271881104
vt 0.9907092452049255 0.03383445739746094
vt 0.9907092452049255 0.4888157248497009
vt 0.9398297667503357 0.4941865801811218
vt 0.8961521983146667 0.033778250217437744
vt 0.9395477771759033 0.033778250217437744
vt 0.8961521983146667 0.49372631311416626
vt 0.9395477771759033 0.033778250217437744
vt 0.9907097220420837 0.48881566524505615
vt 0.9907097220420837 0.033778250217437744
vt 0.820234477519989 0.46023231744766235
vt 0.8621737957000732 0.033778250217437744
vt 0.8621737957000732 0.46023231744766235
vt 0.820234477519989 0.033778250217437744
vt 0.8202342391014099 0.4602321982383728
vt 0.8621737957000732 0.03383445739746094
vt 0.820234477519989 0.03383445739746094
vt 0.8621733784675598 0.4602321982383728
vt 0.49986594915390015 0.014500737190246582
vt 0.012079238891601562 0.4764769673347473
vt 0.012079238891601562 0.014500737190246582
vt 0.49986594915390015 0.47647690773010254
vt 0.4993733763694763 0.9993733317242004
vt 0.000626683235168457 0.4993733763694763
vt 0.4993733763694763 0.49937331676483154
vt 0.000626683235168457 0.9993733534938656

g bg_mdl_map_toride_hashi04
s 1
usemtl bg_mdl_map_toride_hashi04_0
f 3/3/3 2/2/2 1/1/1 
f 4/4/4 1/1/1 2/2/2 
f 7/7/7 6/6/6 5/5/5 
f 8/8/8 5/5/5 6/6/6 
f 11/11/11 10/10/10 9/9/9 
f 12/12/12 9/9/9 10/10/10 
f 15/15/15 14/14/14 13/13/13 
f 16/16/16 13/13/13 14/14/14 
f 15/15/15 17/17/17 14/14/14 
f 18/18/18 14/14/14 17/17/17 
f 21/21/21 20/20/20 19/19/19 
f 19/19/19 20/20/20 22/22/22 
f 19/19/19 24/24/24 23/23/23 
f 25/25/25 23/23/23 24/24/24 
f 28/28/28 27/27/27 26/26/26 
f 29/29/29 26/26/26 27/27/27 
f 32/32/32 31/31/31 30/30/30 
f 33/33/33 30/30/30 31/31/31 
f 36/36/36 35/35/35 34/34/34 
f 37/37/37 34/34/34 35/35/35 

usemtl bg_mdl_map_toride_hashi04_1
f 40/40/40 39/39/39 38/38/38 
f 41/41/41 38/38/38 39/39/39 

