v -2.6655688285827637 0.3981188237667084 3.6579461097717285
v -2.2361202239990234 -5.1040002290392295e-05 3.0046920776367188
v -2.2361202239990234 0.3981188237667084 3.6579461097717285
v -2.6655688285827637 -5.1040002290392295e-05 3.0046920776367188
v -2.6655688285827637 0.5324805974960327 6.0
v -2.2361202239990234 5.149999924469739e-05 6.0
v -2.6655688285827637 5.149999924469739e-05 6.0
v -2.2361202239990234 0.5324805974960327 6.0
v -2.2361202239990234 5.149999924469739e-05 5.123383522033691
v -2.2361202239990234 0.3981188237667084 3.6579461097717285
v -2.2361202239990234 -5.1040002290392295e-05 3.0046920776367188
v -2.2361202239990234 0.3981188237667084 5.124614715576172
v -2.2361202239990234 5.149999924469739e-05 5.532380104064941
v -2.2361202239990234 0.5324805974960327 5.534119129180908
v -2.2361202239990234 5.149999924469739e-05 6.0
v -2.2361202239990234 0.5324805974960327 6.0
v -2.6655688285827637 0.3981188237667084 5.124614715576172
v -2.2361202239990234 0.3981188237667084 3.6579461097717285
v -2.2361202239990234 0.3981188237667084 5.124614715576172
v -2.6655688285827637 0.3981188237667084 3.6579461097717285
v -2.6655688285827637 5.149999924469739e-05 5.123383522033691
v -2.6655688285827637 0.3981188237667084 3.6579461097717285
v -2.6655688285827637 0.3981188237667084 5.124614715576172
v -2.6655688285827637 -5.1040002290392295e-05 3.0046920776367188
v -2.6655688285827637 5.149999924469739e-05 5.532380104064941
v -2.6655688285827637 0.5324805974960327 5.534119129180908
v -2.6655688285827637 0.5324805974960327 6.0
v -2.6655688285827637 5.149999924469739e-05 6.0
v -2.6655688285827637 0.5324805974960327 6.0
v -2.2361202239990234 0.5324805974960327 5.534119129180908
v -2.2361202239990234 0.5324805974960327 6.0
v -2.6655688285827637 0.5324805974960327 5.534119129180908
v -2.6655688285827637 0.5324805974960327 5.534119129180908
v -2.2361202239990234 0.3981188237667084 5.124614715576172
v -2.2361202239990234 0.5324805974960327 5.534119129180908
v -2.6655688285827637 0.3981188237667084 5.124614715576172
v -2.23612117767334 0.26935842633247375 3.4360930919647217
v -1.8252912759780884 4.3259999074507505e-05 3.0046920776367188
v -1.8252912759780884 0.26935842633247375 3.4360930919647217
v -2.2361204624176025 4.3259999074507505e-05 3.0046920776367188
v -2.2361204624176025 0.6323134303092957 6.000000953674316
v -1.8252912759780884 4.3259999074507505e-05 6.000000953674316
v -2.2361204624176025 4.3259999074507505e-05 6.000000953674316
v -1.8252912759780884 0.6323134303092957 6.000000953674316
v -1.8252912759780884 -4.341000021668151e-05 5.484338760375977
v -1.8252912759780884 0.26935842633247375 3.4360930919647217
v -1.8252912759780884 4.3259999074507505e-05 3.0046920776367188
v -1.8252912759780884 0.26935842633247375 5.484504222869873
v -1.8252912759780884 4.3259999074507505e-05 6.000000953674316
v -1.8252912759780884 0.6323134303092957 6.000000953674316
v -2.2361207008361816 0.26935842633247375 5.484504222869873
v -1.8252912759780884 0.26935842633247375 3.4360930919647217
v -1.8252912759780884 0.26935842633247375 5.484504222869873
v -2.23612117767334 0.26935842633247375 3.4360930919647217
v -2.2361204624176025 -4.341000021668151e-05 5.484338760375977
v -2.23612117767334 0.26935842633247375 3.4360930919647217
v -2.2361207008361816 0.26935842633247375 5.484504222869873
v -2.2361204624176025 4.3259999074507505e-05 3.0046920776367188
v -2.2361204624176025 4.3259999074507505e-05 6.000000953674316
v -2.2361204624176025 0.6323134303092957 6.000000953674316
v -2.2361204624176025 0.6323134303092957 6.000000953674316
v -1.8252912759780884 0.26935842633247375 5.484504222869873
v -1.8252912759780884 0.6323134303092957 6.000000953674316
v -2.2361207008361816 0.26935842633247375 5.484504222869873
vn -0.0 0.8538866639137268 -0.520458996295929
vn -0.0 0.8538866639137268 -0.5204590559005737
vn -0.0 0.8538867235183716 -0.5204589366912842
vn -0.0 0.8538867235183716 -0.5204589366912842
vn -0.0 0.0 1.0
vn -0.0 0.0 1.0
vn -0.0 0.0 1.0
vn -0.0 0.0 1.0
vn 1.0 0.0 0.0
vn 1.0 0.0 0.0
vn 1.0 0.0 0.0
vn 1.0 0.0 0.0
vn 1.0 0.0 0.0
vn 1.0 0.0 0.0
vn 1.0 0.0 0.0
vn 1.0 0.0 0.0
vn -0.0 1.0 0.0
vn -0.0 1.0 0.0
vn -0.0 1.0 0.0
vn -0.0 1.0 0.0
vn -1.0 0.0 0.0
vn -1.0 0.0 0.0
vn -1.0 0.0 0.0
vn -1.0 0.0 0.0
vn -1.0 0.0 0.0
vn -1.0 0.0 0.0
vn -1.0 0.0 0.0
vn -1.0 0.0 0.0
vn -0.0 1.0 0.0
vn -0.0 1.0 0.0
vn -0.0 1.0 0.0
vn -0.0 1.0 0.0
vn -0.0 0.9501621127128601 -0.31175610423088074
vn -0.0 0.9501621127128601 -0.31175610423088074
vn -0.0 0.9501621127128601 -0.31175607442855835
vn -0.0 0.9501621127128601 -0.31175607442855835
vn -0.0 0.8482725620269775 -0.529559850692749
vn -0.0 0.8482725620269775 -0.5295599102973938
vn -0.0 0.8482725620269775 -0.529559850692749
vn -0.0 0.8482725620269775 -0.529559850692749
vn -0.0 0.0 1.0
vn -0.0 0.0 1.0
vn -0.0 0.0 1.0
vn -0.0 0.0 1.0
vn 1.0 0.0 0.0
vn 1.0 0.0 0.0
vn 1.0 0.0 0.0
vn 1.0 0.0 0.0
vn 1.0 0.0 0.0
vn 1.0 0.0 0.0
vn -0.0 1.0 0.0
vn -0.0 1.0 0.0
vn -0.0 1.0 0.0
vn -0.0 1.0 0.0
vn -1.0 -1.1329274229865405e-06 2.2347256845023367e-07
vn -1.0 -1.1329274229865405e-06 2.2347254002852424e-07
vn -1.0 -1.1329274229865405e-06 2.2347254002852424e-07
vn -1.0 -2.8327281142992433e-06 0.0
vn -1.0 0.0 5.920032322137558e-07
vn -1.0 0.0 5.920032890571747e-07
vn -0.0 0.8176586031913757 -0.5757033824920654
vn -0.0 0.8176586031913757 -0.5757034420967102
vn -0.0 0.8176586031913757 -0.5757033824920654
vn -0.0 0.8176586627960205 -0.5757033824920654
vt 0.4084230065345764 0.514384001493454
vt 0.5322420001029968 0.5835210084915161
vt 0.4084230065345764 0.5835210084915161
vt 0.5322420001029968 0.514384001493454
vt 0.08517900109291077 0.5143850147724152
vt 0.01823499985039234 0.5835210084915161
vt 0.01823499985039234 0.5143850147724152
vt 0.08517900109291077 0.5835210084915161
vt 0.19818300008773804 0.6510849893093109
vt 0.4084230065345764 0.5835210084915161
vt 0.5007669925689697 0.6510849893093109
vt 0.19818300008773804 0.5835210084915161
vt 0.1422179937362671 0.6510849893093109
vt 0.1422179937362671 0.5835210084915161
vt 0.08517900109291077 0.6510860025882721
vt 0.08517900109291077 0.5835210084915161
vt 0.19818300008773804 0.514384001493454
vt 0.4084230065345764 0.5835210084915161
vt 0.19818300008773804 0.5835210084915161
vt 0.4084230065345764 0.514384001493454
vt 0.19818300008773804 0.44700902700424194
vt 0.4084230065345764 0.514384001493454
vt 0.19818300008773804 0.514384001493454
vt 0.5007669925689697 0.44700998067855835
vt 0.1422179937362671 0.44700902700424194
vt 0.1422179937362671 0.514384001493454
vt 0.08517900109291077 0.5143850147724152
vt 0.08517900109291077 0.44700902700424194
vt 0.08517900109291077 0.5143850147724152
vt 0.1422179937362671 0.5835210084915161
vt 0.08517900109291077 0.5835210084915161
vt 0.1422179937362671 0.514384001493454
vt 0.1422179937362671 0.514384001493454
vt 0.19818300008773804 0.5835210084915161
vt 0.1422179937362671 0.5835210084915161
vt 0.19818300008773804 0.514384001493454
vt 0.8519700169563293 0.9107899963855743
vt 0.7925429940223694 0.9820160008966923
vt 0.7925429940223694 0.9107899963855743
vt 0.8519700169563293 0.9820160008966923
vt 0.8519709706306458 0.5326400101184845
vt 0.7925429940223694 0.45270997285842896
vt 0.8519709706306458 0.45270997285842896
vt 0.7925429940223694 0.5326400101184845
vt 0.7547039985656738 0.6194159984588623
vt 0.7925429940223694 0.9107899963855743
vt 0.7547039985656738 0.9710269998759031
vt 0.7925429940223694 0.6194159984588623
vt 0.7289069890975952 0.5737990140914917
vt 0.7925429940223694 0.5326400101184845
vt 0.8519709706306458 0.6194159984588623
vt 0.7925429940223694 0.9107899963855743
vt 0.7925429940223694 0.6194159984588623
vt 0.8519700169563293 0.9107899963855743
vt 0.8888159990310669 0.6194159984588623
vt 0.8519700169563293 0.9107899963855743
vt 0.8519709706306458 0.6194159984588623
vt 0.8888159990310669 0.9710269998759031
vt 0.9150090217590332 0.5737990140914917
vt 0.8519709706306458 0.5326400101184845
vt 0.8519709706306458 0.5326400101184845
vt 0.7925429940223694 0.6194159984588623
vt 0.7925429940223694 0.5326400101184845
vt 0.8519709706306458 0.6194159984588623

g bg_mdl_map_toride_kabe02
s 1
usemtl bg_mdl_map_toride_kabe02
f 3/3/3 2/2/2 1/1/1 
f 4/4/4 1/1/1 2/2/2 
f 7/7/7 6/6/6 5/5/5 
f 8/8/8 5/5/5 6/6/6 
f 11/11/11 10/10/10 9/9/9 
f 12/12/12 9/9/9 10/10/10 
f 9/9/9 12/12/12 13/13/13 
f 14/14/14 13/13/13 12/12/12 
f 13/13/13 14/14/14 15/15/15 
f 16/16/16 15/15/15 14/14/14 
f 19/19/19 18/18/18 17/17/17 
f 20/20/20 17/17/17 18/18/18 
f 23/23/23 22/22/22 21/21/21 
f 24/24/24 21/21/21 22/22/22 
f 21/21/21 25/25/25 23/23/23 
f 26/26/26 23/23/23 25/25/25 
f 26/26/26 25/25/25 27/27/27 
f 28/28/28 27/27/27 25/25/25 
f 31/31/31 30/30/30 29/29/29 
f 32/32/32 29/29/29 30/30/30 
f 35/35/35 34/34/34 33/33/33 
f 36/36/36 33/33/33 34/34/34 
f 39/39/39 38/38/38 37/37/37 
f 40/40/40 37/37/37 38/38/38 
f 43/43/43 42/42/42 41/41/41 
f 44/44/44 41/41/41 42/42/42 
f 47/47/47 46/46/46 45/45/45 
f 48/48/48 45/45/45 46/46/46 
f 45/45/45 48/48/48 49/49/49 
f 50/50/50 49/49/49 48/48/48 
f 53/53/53 52/52/52 51/51/51 
f 54/54/54 51/51/51 52/52/52 
f 57/57/57 56/56/56 55/55/55 
f 58/58/58 55/55/55 56/56/56 
f 55/55/55 59/59/59 57/57/57 
f 60/60/60 57/57/57 59/59/59 
f 63/63/63 62/62/62 61/61/61 
f 64/64/64 61/61/61 62/62/62 

