v -1.0 -1.0 1.0
v -0.0 0.0 1.0
v -0.0 -1.0 1.0
v -1.0 0.0 1.0
v 1.0 0.0 1.0
v 1.0 -1.0 1.0
v -0.0 1.0 1.0
v -1.0 1.0 1.0
v 1.0 1.0 1.0
v -1.0 0.0 0.0
v -1.0 -1.0 1.0
v -1.0 -1.0 0.0
v -1.0 0.0 1.0
v -1.0 1.0 0.0
v -1.0 1.0 1.0
v -1.0 -1.0 0.0
v -0.0 -1.0 1.0
v -0.0 -1.0 0.0
v -1.0 -1.0 1.0
v 1.0 -1.0 1.0
v 1.0 -1.0 0.0
v 1.0 -1.0 0.0
v 1.0 0.0 1.0
v 1.0 0.0 0.0
v 1.0 -1.0 1.0
v 1.0 1.0 1.0
v 1.0 1.0 0.0
v 1.0 1.0 0.0
v -0.0 1.0 1.0
v -0.0 1.0 0.0
v 1.0 1.0 1.0
v -1.0 1.0 1.0
v -1.0 1.0 0.0
vn -0.0 0.0 1.0
vn -0.0 0.0 1.0
vn -0.0 0.0 1.0
vn -0.0 0.0 1.0
vn -0.0 0.0 1.0
vn -0.0 0.0 1.0
vn -0.0 0.0 1.0
vn -0.0 0.0 1.0
vn -0.0 0.0 1.0
vn -1.0 0.0 0.0
vn -1.0 0.0 0.0
vn -1.0 0.0 0.0
vn -1.0 0.0 0.0
vn -1.0 0.0 0.0
vn -1.0 0.0 0.0
vn -0.0 -1.0 0.0
vn -0.0 -1.0 0.0
vn -0.0 -1.0 0.0
vn -0.0 -1.0 0.0
vn -0.0 -1.0 0.0
vn -0.0 -1.0 0.0
vn 1.0 0.0 0.0
vn 1.0 0.0 0.0
vn 1.0 0.0 0.0
vn 1.0 0.0 0.0
vn 1.0 0.0 0.0
vn 1.0 0.0 0.0
vn -0.0 1.0 0.0
vn -0.0 1.0 0.0
vn -0.0 1.0 0.0
vn -0.0 1.0 0.0
vn -0.0 1.0 0.0
vn -0.0 1.0 0.0
vt 0.0 -1.0
vt 0.5 -1.5
vt 0.5 -1.0
vt 0.0 -1.5
vt 1.0 -1.5
vt 1.0 -1.0
vt 0.5 -2.0
vt 0.0 -2.0
vt 1.0 -2.0
vt 0.5 0.9979999999050051
vt 0.9990217685699463 0.0
vt 0.9990217685699463 0.9979999999050051
vt 0.5 0.0
vt 0.0 0.9979999999050051
vt 0.0 0.0
vt 0.0 0.9979999999050051
vt 0.5 0.0
vt 0.5 0.9979999999050051
vt 0.0 0.0
vt 0.9979999661445618 0.0
vt 0.9979999661445618 0.9979999999050051
vt 0.0 0.9979999999050051
vt 0.5 0.0
vt 0.5 0.9979999999050051
vt 0.0 0.0
vt 0.9990217685699463 0.0
vt 0.9990217685699463 0.9979999999050051
vt 0.0 0.9979999999050051
vt 0.5 0.0
vt 0.5 0.9979999999050051
vt 0.0 0.0
vt 0.9979999661445618 0.0
vt 0.9979999661445618 0.9979999999050051

g bg_mdl_map_ground00_arena_2x2
s 1
usemtl bg_mdl_map_ground00_arena_2x2_0
f 3/3/3 2/2/2 1/1/1 
f 4/4/4 1/1/1 2/2/2 
f 2/2/2 3/3/3 5/5/5 
f 6/6/6 5/5/5 3/3/3 
f 2/2/2 7/7/7 4/4/4 
f 8/8/8 4/4/4 7/7/7 
f 5/5/5 9/9/9 2/2/2 
f 7/7/7 2/2/2 9/9/9 

usemtl bg_mdl_map_ground00_arena_2x2_1
f 12/12/12 11/11/11 10/10/10 
f 13/13/13 10/10/10 11/11/11 
f 10/10/10 13/13/13 14/14/14 
f 15/15/15 14/14/14 13/13/13 
f 18/18/18 17/17/17 16/16/16 
f 19/19/19 16/16/16 17/17/17 
f 17/17/17 18/18/18 20/20/20 
f 21/21/21 20/20/20 18/18/18 
f 24/24/24 23/23/23 22/22/22 
f 25/25/25 22/22/22 23/23/23 
f 23/23/23 24/24/24 26/26/26 
f 27/27/27 26/26/26 24/24/24 
f 30/30/30 29/29/29 28/28/28 
f 31/31/31 28/28/28 29/29/29 
f 29/29/29 30/30/30 32/32/32 
f 33/33/33 32/32/32 30/30/30 

