v -0.0 -0.5 0.5
v -0.0 0.5 -0.5
v -0.0 -0.5 -0.5
v -0.0 0.5 0.5
vn 1.0 0.0 0.0
vn 1.0 0.0 0.0
vn 1.0 0.0 0.0
vn 1.0 0.0 0.0
vt 0.0 1.0
vt 1.0 0.0
vt 1.0 1.0
vt 0.0 0.0

g sm_plane01
s 1
usemtl sm_plane01
f 3/3/3 2/2/2 1/1/1 
f 4/4/4 1/1/1 2/2/2 

