v -2.5 -6.5 0.0
v -1.5 -5.5 0.0
v -1.5 -6.5 0.0
v -2.5 -5.5 0.0
v -0.5 -5.5 0.0
v -0.5 -6.5 0.0
v 0.5 -5.5 0.0
v 0.5 -6.5 0.0
v 1.5 -5.5 0.0
v 1.5 -6.5 0.0
v 2.5 -5.5 0.0
v 2.5 -6.5 0.0
v -1.5 -4.5 0.0
v -2.5 -4.5 0.0
v -0.5 -4.5 0.0
v 0.5 -4.5 0.0
v 1.5 -4.5 0.0
v 2.5 -4.5 0.0
v -1.5 -3.5 0.0
v -2.5 -3.5 0.0
v -0.5 -3.5 0.0
v 0.5 -3.5 0.0
v 1.5 -3.5 0.0
v 2.5 -3.5 0.0
v -1.5 -2.5 0.0
v -2.5 -2.5 0.0
v -0.5 -2.5 0.0
v 0.5 -2.5 0.0
v 1.5 -2.5 0.0
v 2.5 -2.5 0.0
v -1.5 -1.5 0.0
v -2.5 -1.5 0.0
v -3.5 -2.5 0.0
v -3.5 -1.5 0.0
v -4.5 -2.5 0.0
v -4.5 -1.5 0.0
v -0.5 -1.5 0.0
v 0.5 -1.5 0.0
v 1.5 -1.5 0.0
v 2.5 -1.5 0.0
v 3.5 -1.5 0.0
v 3.5 -2.5 0.0
v 4.5 -1.5 0.0
v 4.5 -2.5 0.0
v -3.5 -0.5 0.0
v -4.5 -0.5 0.0
v -2.5 -0.5 0.0
v -1.5 -0.5 0.0
v -0.5 -0.5 0.0
v 0.5 -0.5 0.0
v -0.0 -0.5 0.0
v 2.5 -0.5 0.0
v 3.5 -0.5 0.0
v -3.5 0.5 0.0
v -4.5 0.5 0.0
v -2.5 0.5 0.0
v -1.5 0.5 0.0
v 3.5 0.5 0.0
v 2.5 0.5 0.0
v 1.5 -0.5 0.0
v 1.5 0.5 0.0
v 4.5 0.5 0.0
v 4.5 -0.5 0.0
v 5.5 0.5 0.0
v 5.5 -0.5 0.0
v 6.5 0.5 0.0
v 6.5 -0.5 0.0
v -1.5 1.0 0.0
v 2.5 1.5 0.0
v 1.5 1.0 0.0
v 1.5 1.5 0.0
v 2.5 2.5 0.0
v 1.5 2.5 0.0
v 3.5 2.5 0.0
v 3.5 1.5 0.0
v 4.5 1.5 0.0
v 4.5 2.5 0.0
v 2.5 3.5 0.0
v 1.5 3.5 0.0
v 0.5 2.5 0.0
v 0.5 3.5 0.0
v -0.0 2.5 0.0
v -0.5 2.5 0.0
v -0.5 3.5 0.0
v -1.5 2.5 0.0
v -1.5 3.5 0.0
v -2.5 2.5 0.0
v -2.5 1.5 0.0
v -3.5 1.5 0.0
v -1.5 1.5 0.0
v -3.5 2.5 0.0
v -2.5 3.5 0.0
v -3.5 3.5 0.0
v -2.5 4.5 0.0
v -3.5 4.5 0.0
v -1.5 4.5 0.0
v -0.5 4.5 0.0
v 0.5 4.5 0.0
v 1.5 4.5 0.0
v 2.5 4.5 0.0
v 3.5 4.5 0.0
v 3.5 3.5 0.0
v 4.5 3.5 0.0
v 5.5 3.5 0.0
v 5.5 2.5 0.0
v 6.5 3.5 0.0
v 6.5 2.5 0.0
v 4.5 4.5 0.0
v 5.5 4.5 0.0
v 6.5 4.5 0.0
v 3.5 5.5 0.0
v 2.5 5.5 0.0
v 3.5 6.5 0.0
v 2.5 6.5 0.0
v 1.5 5.5 0.0
v 0.5 5.5 0.0
v -0.5 5.5 0.0
v -1.5 5.5 0.0
v -2.5 5.5 0.0
v -3.5 5.5 0.0
v -2.5 6.5 0.0
v -3.5 6.5 0.0
v -1.5 6.5 0.0
v -0.5 6.5 0.0
v 0.5 6.5 0.0
v 1.5 6.5 0.0
v -1.5 -0.5 0.0
v -0.5 0.5 0.0
v -0.5 -0.5 0.0
v -1.5 0.5 0.0
v -0.0 0.5 0.0
v -0.0 -0.5 0.0
v -0.5 1.0 0.0
v -1.5 1.0 0.0
v -0.0 1.0 0.0
v 0.5 -0.5 0.0
v 1.5 0.5 0.0
v 1.5 -0.5 0.0
v 0.5 0.5 0.0
v 1.5 1.0 0.0
v 0.5 1.0 0.0
v -0.0 0.5 0.0
v -0.0 -0.5 0.0
v -0.0 1.0 0.0
v -1.5 1.0 0.0
v -0.5 1.5 0.0
v -0.5 1.0 0.0
v -1.5 1.5 0.0
v -0.0 1.5 0.0
v -0.0 1.0 0.0
v -0.5 2.5 0.0
v -1.5 2.5 0.0
v -0.0 2.5 0.0
v 0.5 1.0 0.0
v 1.5 1.5 0.0
v 1.5 1.0 0.0
v 0.5 1.5 0.0
v 1.5 2.5 0.0
v 0.5 2.5 0.0
v -0.0 1.5 0.0
v -0.0 1.0 0.0
v -0.0 2.5 0.0
v 4.5 0.5 0.4783526360988617
v 5.5 1.5 0.4783526360988617
v 5.5 0.5 0.4783526360988617
v 4.5 1.5 0.4783526360988617
v 6.5 1.5 0.4783526360988617
v 6.5 0.5 0.4783526360988617
v 5.5 2.5 0.4783526360988617
v 4.5 2.5 0.4783526360988617
v 6.5 2.5 0.4783526360988617
vn -0.0 0.0 1.0
vn -0.0 0.0 1.0
vn -0.0 0.0 1.0
vn -0.0 0.0 1.0
vn -0.0 0.0 1.0
vn -0.0 0.0 1.0
vn -0.0 0.0 1.0
vn -0.0 0.0 1.0
vn -0.0 0.0 1.0
vn -0.0 0.0 1.0
vn -0.0 0.0 1.0
vn -0.0 0.0 1.0
vn -0.0 0.0 1.0
vn -0.0 0.0 1.0
vn -0.0 0.0 1.0
vn -0.0 0.0 1.0
vn -0.0 0.0 1.0
vn -0.0 0.0 1.0
vn -0.0 0.0 1.0
vn -0.0 0.0 1.0
vn -0.0 0.0 1.0
vn -0.0 0.0 1.0
vn -0.0 0.0 1.0
vn -0.0 0.0 1.0
vn -0.0 0.0 1.0
vn -0.0 0.0 1.0
vn -0.0 0.0 1.0
vn -0.0 0.0 1.0
vn -0.0 0.0 1.0
vn -0.0 0.0 1.0
vn -0.0 0.0 1.0
vn -0.0 0.0 1.0
vn -0.0 0.0 1.0
vn -0.0 0.0 1.0
vn -0.0 0.0 1.0
vn -0.0 0.0 1.0
vn -0.0 0.0 1.0
vn -0.0 0.0 1.0
vn -0.0 0.0 1.0
vn -0.0 0.0 1.0
vn -0.0 0.0 1.0
vn -0.0 0.0 1.0
vn -0.0 0.0 1.0
vn -0.0 0.0 1.0
vn -0.0 0.0 1.0
vn -0.0 0.0 1.0
vn -0.0 0.0 1.0
vn -0.0 0.0 1.0
vn -0.0 0.0 1.0
vn -0.0 0.0 1.0
vn -0.0 0.0 1.0
vn -0.0 0.0 1.0
vn -0.0 0.0 1.0
vn -0.0 0.0 1.0
vn -0.0 0.0 1.0
vn -0.0 0.0 1.0
vn -0.0 0.0 1.0
vn -0.0 0.0 1.0
vn -0.0 0.0 1.0
vn -0.0 0.0 1.0
vn -0.0 0.0 1.0
vn -0.0 0.0 1.0
vn -0.0 0.0 1.0
vn -0.0 0.0 1.0
vn -0.0 0.0 1.0
vn -0.0 0.0 1.0
vn -0.0 0.0 1.0
vn -0.0 0.0 1.0
vn -0.0 0.0 1.0
vn -0.0 0.0 1.0
vn -0.0 0.0 1.0
vn -0.0 0.0 1.0
vn -0.0 0.0 1.0
vn -0.0 0.0 1.0
vn -0.0 0.0 1.0
vn -0.0 0.0 1.0
vn -0.0 0.0 1.0
vn -0.0 0.0 1.0
vn -0.0 0.0 1.0
vn -0.0 0.0 1.0
vn -0.0 0.0 1.0
vn -0.0 0.0 1.0
vn -0.0 0.0 1.0
vn -0.0 0.0 1.0
vn -0.0 0.0 1.0
vn -0.0 0.0 1.0
vn -0.0 0.0 1.0
vn -0.0 0.0 1.0
vn -0.0 0.0 1.0
vn -0.0 0.0 1.0
vn -0.0 0.0 1.0
vn -0.0 0.0 1.0
vn -0.0 0.0 1.0
vn -0.0 0.0 1.0
vn -0.0 0.0 1.0
vn -0.0 0.0 1.0
vn -0.0 0.0 1.0
vn -0.0 0.0 1.0
vn -0.0 0.0 1.0
vn -0.0 0.0 1.0
vn -0.0 0.0 1.0
vn -0.0 0.0 1.0
vn -0.0 0.0 1.0
vn -0.0 0.0 1.0
vn -0.0 0.0 1.0
vn -0.0 0.0 1.0
vn -0.0 0.0 1.0
vn -0.0 0.0 1.0
vn -0.0 0.0 1.0
vn -0.0 0.0 1.0
vn -0.0 0.0 1.0
vn -0.0 0.0 1.0
vn -0.0 0.0 1.0
vn -0.0 0.0 1.0
vn -0.0 0.0 1.0
vn -0.0 0.0 1.0
vn -0.0 0.0 1.0
vn -0.0 0.0 1.0
vn -0.0 0.0 1.0
vn -0.0 0.0 1.0
vn -0.0 0.0 1.0
vn -0.0 0.0 1.0
vn -0.0 0.0 1.0
vn -0.0 0.0 1.0
vn -0.0 0.0 1.0
vn -0.0 0.0 1.0
vn -0.0 0.0 1.0
vn -0.0 0.0 1.0
vn -0.0 0.0 1.0
vn -0.0 0.0 1.0
vn -0.0 0.0 1.0
vn -0.0 0.0 1.0
vn -0.0 0.0 1.0
vn -0.0 0.0 1.0
vn -0.0 0.0 1.0
vn -0.0 0.0 1.0
vn -0.0 0.0 1.0
vn -0.0 0.0 1.0
vn -0.0 0.0 1.0
vn -0.0 0.0 1.0
vn -0.0 0.0 1.0
vn -0.0 0.0 1.0
vn -0.0 0.0 1.0
vn -0.0 0.0 1.0
vn -0.0 0.0 1.0
vn -0.0 0.0 1.0
vn -0.0 0.0 1.0
vn -0.0 0.0 1.0
vn -0.0 0.0 1.0
vn -0.0 0.0 1.0
vn -0.0 0.0 1.0
vn -0.0 0.0 1.0
vn -0.0 0.0 1.0
vn -0.0 0.0 1.0
vn -0.0 0.0 1.0
vn -0.0 0.0 1.0
vn -0.0 0.0 1.0
vn -0.0 0.0 1.0
vn -0.0 0.0 1.0
vn -0.0 0.0 1.0
vn -0.0 0.0 1.0
vn -0.0 0.0 1.0
vn -0.0 0.0 1.0
vn -0.0 0.0 1.0
vn -0.0 0.0 1.0
vn -0.0 0.0 1.0
vn -0.0 0.0 1.0
vn -0.0 0.0 1.0
vn -0.0 0.0 1.0
vn -0.0 0.0 1.0
vn -0.0 0.0 1.0
vt 2.0 1.0
vt 2.5 0.5
vt 2.5 1.0
vt 2.0 0.5
vt 3.0 0.5
vt 3.0 1.0
vt 3.500000238418579 0.5
vt 3.500000238418579 1.0
vt 4.0 0.5
vt 4.0 1.0
vt 4.5 0.5
vt 4.5 1.0
vt 2.5 0.0
vt 2.0 0.0
vt 3.0 0.0
vt 3.500000238418579 0.0
vt 4.0 0.0
vt 4.5 0.0
vt 2.5 -0.5000001192092896
vt 2.0 -0.5000001192092896
vt 3.0 -0.5000001192092896
vt 3.500000238418579 -0.5000001192092896
vt 4.0 -0.5000001192092896
vt 4.5 -0.5000001192092896
vt 2.5 -1.0
vt 2.0 -1.0
vt 3.0 -1.0
vt 3.500000238418579 -1.0
vt 4.0 -1.0
vt 4.5 -1.0
vt 2.5 -1.5
vt 2.0 -1.5
vt 1.5000001192092896 -1.0
vt 1.5000001192092896 -1.5
vt 1.0 -1.0
vt 1.0 -1.5
vt 3.0 -1.5
vt 3.500000238418579 -1.5
vt 4.0 -1.5
vt 4.5 -1.5
vt 5.0 -1.5
vt 5.0 -1.0
vt 5.5 -1.5
vt 5.5 -1.0
vt 1.5000001192092896 -2.0
vt 1.0 -2.0
vt 2.0 -2.0
vt 2.5 -2.0
vt 3.0 -2.0
vt 3.500000238418579 -2.0
vt 3.25 -2.0
vt 4.5 -2.0
vt 5.0 -2.0
vt 1.5000001192092896 -2.500000238418579
vt 1.0 -2.500000238418579
vt 2.0 -2.500000238418579
vt 2.5 -2.500000238418579
vt 5.0 -2.500000238418579
vt 4.5 -2.500000238418579
vt 4.0 -2.0
vt 4.0 -2.500000238418579
vt 5.5 -2.500000238418579
vt 5.5 -2.0
vt 6.0 -2.500000238418579
vt 6.0 -2.0
vt 6.5 -2.500000238418579
vt 6.5 -2.0
vt 2.5 -2.75
vt 4.5 -3.0
vt 4.0 -2.75
vt 4.0 -3.0
vt 4.5 -3.5
vt 4.0 -3.5
vt 5.0 -3.5
vt 5.0 -3.0
vt 5.5 -3.0
vt 5.5 -3.5
vt 4.5 -4.0
vt 4.0 -4.0
vt 3.500000238418579 -3.5
vt 3.500000238418579 -4.0
vt 3.25 -3.5
vt 3.0 -3.5
vt 3.0 -4.0
vt 2.5 -3.5
vt 2.5 -4.0
vt 2.0 -3.5
vt 2.0 -3.0
vt 1.5000001192092896 -3.0
vt 2.5 -3.0
vt 1.5000001192092896 -3.5
vt 2.0 -4.0
vt 1.5000001192092896 -4.0
vt 2.0 -4.5
vt 1.5000001192092896 -4.5
vt 2.5 -4.5
vt 3.0 -4.5
vt 3.500000238418579 -4.5
vt 4.0 -4.5
vt 4.5 -4.5
vt 5.0 -4.5
vt 5.0 -4.0
vt 5.5 -4.0
vt 6.0 -4.0
vt 6.0 -3.5
vt 6.5 -4.0
vt 6.5 -3.5
vt 5.5 -4.5
vt 6.0 -4.5
vt 6.5 -4.5
vt 5.0 -5.0
vt 4.5 -5.0
vt 5.0 -5.5
vt 4.5 -5.5
vt 4.0 -5.0
vt 3.500000238418579 -5.0
vt 3.0 -5.0
vt 2.5 -5.0
vt 2.0 -5.0
vt 1.5000001192092896 -5.0
vt 2.0 -5.5
vt 1.5000001192092896 -5.5
vt 2.5 -5.5
vt 3.0 -5.5
vt 3.500000238418579 -5.5
vt 4.0 -5.5
vt 0.0028273623902350664 0.0031543970108032227
vt 0.24902819097042084 0.24940437078475952
vt 0.24902819097042084 0.0031543970108032227
vt 0.0028273623902350664 0.24940437078475952
vt 0.37220239639282227 0.24940437078475952
vt 0.37220239639282227 0.0031543970108032227
vt 0.24902819097042084 0.3725293278694153
vt 0.0028273623902350664 0.3725293278694153
vt 0.37220239639282227 0.3725293278694153
vt 0.24912641942501068 0.0031543970108032227
vt 0.0028273623902350664 0.24940437078475952
vt 0.0028273623902350664 0.0031543970108032227
vt 0.24912641942501068 0.24940437078475952
vt 0.0028273623902350664 0.3725293278694153
vt 0.24912641942501068 0.3725293278694153
vt 0.37220239639282227 0.24940437078475952
vt 0.37220239639282227 0.0031543970108032227
vt 0.37220239639282227 0.3725293278694153
vt 0.0028273623902350664 0.3725293278694153
vt 0.24902819097042084 0.24940437078475952
vt 0.24902819097042084 0.3725293278694153
vt 0.0028273623902350664 0.24940437078475952
vt 0.37220239639282227 0.24940437078475952
vt 0.37220239639282227 0.3725293278694153
vt 0.24902819097042084 0.0031543970108032227
vt 0.0028273623902350664 0.0031543970108032227
vt 0.37220239639282227 0.0031543970108032227
vt 0.24912641942501068 0.3725293278694153
vt 0.0028273623902350664 0.24940437078475952
vt 0.0028273623902350664 0.3725293278694153
vt 0.24912641942501068 0.24940437078475952
vt 0.0028273623902350664 0.0031543970108032227
vt 0.24912641942501068 0.0031543970108032227
vt 0.37220239639282227 0.24940437078475952
vt 0.37220239639282227 0.3725293278694153
vt 0.37220239639282227 0.0031543970108032227
vt 5.5 -2.500000238418579
vt 6.0 -3.0
vt 6.0 -2.500000238418579
vt 5.5 -3.0
vt 6.5 -3.0
vt 6.5 -2.500000238418579
vt 6.0 -3.5
vt 5.5 -3.5
vt 6.5 -3.5

g bg_mdl_map_ground00
s 1
usemtl bg_mdl_map_ground00_0
f 3/3/3 2/2/2 1/1/1 
f 4/4/4 1/1/1 2/2/2 
f 2/2/2 3/3/3 5/5/5 
f 6/6/6 5/5/5 3/3/3 
f 5/5/5 6/6/6 7/7/7 
f 8/8/8 7/7/7 6/6/6 
f 7/7/7 8/8/8 9/9/9 
f 10/10/10 9/9/9 8/8/8 
f 9/9/9 10/10/10 11/11/11 
f 12/12/12 11/11/11 10/10/10 
f 2/2/2 13/13/13 4/4/4 
f 14/14/14 4/4/4 13/13/13 
f 5/5/5 15/15/15 2/2/2 
f 13/13/13 2/2/2 15/15/15 
f 7/7/7 16/16/16 5/5/5 
f 15/15/15 5/5/5 16/16/16 
f 9/9/9 17/17/17 7/7/7 
f 16/16/16 7/7/7 17/17/17 
f 11/11/11 18/18/18 9/9/9 
f 17/17/17 9/9/9 18/18/18 
f 13/13/13 19/19/19 14/14/14 
f 20/20/20 14/14/14 19/19/19 
f 15/15/15 21/21/21 13/13/13 
f 19/19/19 13/13/13 21/21/21 
f 16/16/16 22/22/22 15/15/15 
f 21/21/21 15/15/15 22/22/22 
f 17/17/17 23/23/23 16/16/16 
f 22/22/22 16/16/16 23/23/23 
f 18/18/18 24/24/24 17/17/17 
f 23/23/23 17/17/17 24/24/24 
f 19/19/19 25/25/25 20/20/20 
f 26/26/26 20/20/20 25/25/25 
f 21/21/21 27/27/27 19/19/19 
f 25/25/25 19/19/19 27/27/27 
f 22/22/22 28/28/28 21/21/21 
f 27/27/27 21/21/21 28/28/28 
f 23/23/23 29/29/29 22/22/22 
f 28/28/28 22/22/22 29/29/29 
f 24/24/24 30/30/30 23/23/23 
f 29/29/29 23/23/23 30/30/30 
f 25/25/25 31/31/31 26/26/26 
f 32/32/32 26/26/26 31/31/31 
f 26/26/26 32/32/32 33/33/33 
f 34/34/34 33/33/33 32/32/32 
f 33/33/33 34/34/34 35/35/35 
f 36/36/36 35/35/35 34/34/34 
f 27/27/27 37/37/37 25/25/25 
f 31/31/31 25/25/25 37/37/37 
f 28/28/28 38/38/38 27/27/27 
f 37/37/37 27/27/27 38/38/38 
f 29/29/29 39/39/39 28/28/28 
f 38/38/38 28/28/28 39/39/39 
f 30/30/30 40/40/40 29/29/29 
f 39/39/39 29/29/29 40/40/40 
f 40/40/40 30/30/30 41/41/41 
f 42/42/42 41/41/41 30/30/30 
f 41/41/41 42/42/42 43/43/43 
f 44/44/44 43/43/43 42/42/42 
f 34/34/34 45/45/45 36/36/36 
f 46/46/46 36/36/36 45/45/45 
f 32/32/32 47/47/47 34/34/34 
f 45/45/45 34/34/34 47/47/47 
f 47/47/47 32/32/32 48/48/48 
f 31/31/31 48/48/48 32/32/32 
f 37/37/37 49/49/49 31/31/31 
f 48/48/48 31/31/31 49/49/49 
f 38/38/38 50/50/50 37/37/37 
f 50/50/50 51/51/51 37/37/37 
f 37/37/37 51/51/51 49/49/49 
f 40/40/40 52/52/52 39/39/39 
f 41/41/41 53/53/53 40/40/40 
f 52/52/52 40/40/40 53/53/53 
f 45/45/45 54/54/54 46/46/46 
f 55/55/55 46/46/46 54/54/54 
f 47/47/47 56/56/56 45/45/45 
f 54/54/54 45/45/45 56/56/56 
f 48/48/48 57/57/57 47/47/47 
f 56/56/56 47/47/47 57/57/57 
f 53/53/53 58/58/58 52/52/52 
f 59/59/59 52/52/52 58/58/58 
f 52/52/52 59/59/59 60/60/60 
f 50/50/50 38/38/38 60/60/60 
f 39/39/39 60/60/60 38/38/38 
f 60/60/60 39/39/39 52/52/52 
f 61/61/61 60/60/60 59/59/59 
f 58/58/58 53/53/53 62/62/62 
f 63/63/63 62/62/62 53/53/53 
f 53/53/53 41/41/41 63/63/63 
f 43/43/43 63/63/63 41/41/41 
f 62/62/62 63/63/63 64/64/64 
f 65/65/65 64/64/64 63/63/63 
f 64/64/64 65/65/65 66/66/66 
f 67/67/67 66/66/66 65/65/65 
f 57/57/57 68/68/68 56/56/56 
f 59/59/59 69/69/69 61/61/61 
f 61/61/61 69/69/69 70/70/70 
f 70/70/70 69/69/69 71/71/71 
f 69/69/69 72/72/72 71/71/71 
f 73/73/73 71/71/71 72/72/72 
f 72/72/72 69/69/69 74/74/74 
f 75/75/75 74/74/74 69/69/69 
f 69/69/69 59/59/59 75/75/75 
f 58/58/58 75/75/75 59/59/59 
f 75/75/75 58/58/58 76/76/76 
f 62/62/62 76/76/76 58/58/58 
f 76/76/76 77/77/77 75/75/75 
f 74/74/74 75/75/75 77/77/77 
f 72/72/72 78/78/78 73/73/73 
f 79/79/79 73/73/73 78/78/78 
f 73/73/73 79/79/79 80/80/80 
f 81/81/81 80/80/80 79/79/79 
f 80/80/80 81/81/81 82/82/82 
f 82/82/82 81/81/81 83/83/83 
f 83/83/83 81/81/81 84/84/84 
f 83/83/83 84/84/84 85/85/85 
f 86/86/86 85/85/85 84/84/84 
f 85/85/85 86/86/86 87/87/87 
f 87/87/87 88/88/88 85/85/85 
f 88/88/88 87/87/87 89/89/89 
f 89/89/89 54/54/54 88/88/88 
f 56/56/56 88/88/88 54/54/54 
f 56/56/56 90/90/90 88/88/88 
f 90/90/90 85/85/85 88/88/88 
f 68/68/68 90/90/90 56/56/56 
f 91/91/91 89/89/89 87/87/87 
f 87/87/87 92/92/92 91/91/91 
f 92/92/92 87/87/87 86/86/86 
f 93/93/93 91/91/91 92/92/92 
f 92/92/92 94/94/94 93/93/93 
f 95/95/95 93/93/93 94/94/94 
f 86/86/86 96/96/96 92/92/92 
f 94/94/94 92/92/92 96/96/96 
f 84/84/84 97/97/97 86/86/86 
f 96/96/96 86/86/86 97/97/97 
f 97/97/97 84/84/84 98/98/98 
f 81/81/81 98/98/98 84/84/84 
f 98/98/98 81/81/81 99/99/99 
f 79/79/79 99/99/99 81/81/81 
f 99/99/99 79/79/79 100/100/100 
f 78/78/78 100/100/100 79/79/79 
f 100/100/100 78/78/78 101/101/101 
f 102/102/102 101/101/101 78/78/78 
f 78/78/78 72/72/72 102/102/102 
f 74/74/74 102/102/102 72/72/72 
f 102/102/102 74/74/74 103/103/103 
f 77/77/77 103/103/103 74/74/74 
f 103/103/103 77/77/77 104/104/104 
f 105/105/105 104/104/104 77/77/77 
f 104/104/104 105/105/105 106/106/106 
f 107/107/107 106/106/106 105/105/105 
f 103/103/103 108/108/108 102/102/102 
f 101/101/101 102/102/102 108/108/108 
f 104/104/104 109/109/109 103/103/103 
f 108/108/108 103/103/103 109/109/109 
f 106/106/106 110/110/110 104/104/104 
f 109/109/109 104/104/104 110/110/110 
f 101/101/101 111/111/111 100/100/100 
f 112/112/112 100/100/100 111/111/111 
f 111/111/111 113/113/113 112/112/112 
f 114/114/114 112/112/112 113/113/113 
f 112/112/112 114/114/114 115/115/115 
f 115/115/115 99/99/99 112/112/112 
f 99/99/99 115/115/115 98/98/98 
f 116/116/116 98/98/98 115/115/115 
f 98/98/98 116/116/116 97/97/97 
f 117/117/117 97/97/97 116/116/116 
f 97/97/97 117/117/117 96/96/96 
f 118/118/118 96/96/96 117/117/117 
f 96/96/96 118/118/118 94/94/94 
f 119/119/119 94/94/94 118/118/118 
f 94/94/94 119/119/119 95/95/95 
f 120/120/120 95/95/95 119/119/119 
f 100/100/100 112/112/112 99/99/99 
f 119/119/119 121/121/121 120/120/120 
f 122/122/122 120/120/120 121/121/121 
f 118/118/118 123/123/123 119/119/119 
f 121/121/121 119/119/119 123/123/123 
f 117/117/117 124/124/124 118/118/118 
f 123/123/123 118/118/118 124/124/124 
f 116/116/116 125/125/125 117/117/117 
f 124/124/124 117/117/117 125/125/125 
f 125/125/125 116/116/116 126/126/126 
f 115/115/115 126/126/126 116/116/116 
f 126/126/126 115/115/115 114/114/114 

usemtl bg_mdl_map_ground00_1
f 129/129/129 128/128/128 127/127/127 
f 130/130/130 127/127/127 128/128/128 
f 128/128/128 129/129/129 131/131/131 
f 132/132/132 131/131/131 129/129/129 
f 128/128/128 133/133/133 130/130/130 
f 134/134/134 130/130/130 133/133/133 
f 131/131/131 135/135/135 128/128/128 
f 133/133/133 128/128/128 135/135/135 
f 138/138/138 137/137/137 136/136/136 
f 139/139/139 136/136/136 137/137/137 
f 137/137/137 140/140/140 139/139/139 
f 141/141/141 139/139/139 140/140/140 
f 139/139/139 142/142/142 136/136/136 
f 143/143/143 136/136/136 142/142/142 
f 141/141/141 144/144/144 139/139/139 
f 142/142/142 139/139/139 144/144/144 
f 147/147/147 146/146/146 145/145/145 
f 148/148/148 145/145/145 146/146/146 
f 146/146/146 147/147/147 149/149/149 
f 150/150/150 149/149/149 147/147/147 
f 146/146/146 151/151/151 148/148/148 
f 152/152/152 148/148/148 151/151/151 
f 149/149/149 153/153/153 146/146/146 
f 151/151/151 146/146/146 153/153/153 
f 156/156/156 155/155/155 154/154/154 
f 157/157/157 154/154/154 155/155/155 
f 155/155/155 158/158/158 157/157/157 
f 159/159/159 157/157/157 158/158/158 
f 157/157/157 160/160/160 154/154/154 
f 161/161/161 154/154/154 160/160/160 
f 159/159/159 162/162/162 157/157/157 
f 160/160/160 157/157/157 162/162/162 

usemtl bg_mdl_map_ground00_2
f 165/165/165 164/164/164 163/163/163 
f 166/166/166 163/163/163 164/164/164 
f 164/164/164 165/165/165 167/167/167 
f 168/168/168 167/167/167 165/165/165 
f 164/164/164 169/169/169 166/166/166 
f 170/170/170 166/166/166 169/169/169 
f 167/167/167 171/171/171 164/164/164 
f 169/169/169 164/164/164 171/171/171 

