v -0.08391182124614716 -0.42734432220458984 1.014741063117981
v -0.24620498716831207 -0.159064382314682 0.66118323802948
v -0.008748702704906464 -0.010423374362289906 0.5696426033973694
v 0.16589505970478058 -0.1253460794687271 0.36191293597221375
v -0.093393474817276 0.14372104406356812 0.06445737183094025
v 0.09656798839569092 0.10160490870475769 0.05729951336979866
v -0.08391182124614716 -0.42734432220458984 1.014741063117981
v -0.21831724047660828 -0.36585235595703125 0.5100286602973938
v -0.24620498716831207 -0.159064382314682 0.66118323802948
v -0.1915491372346878 -0.008815810084342957 -0.006312249228358269
v -0.093393474817276 0.14372104406356812 0.06445737183094025
v -0.08391182124614716 -0.42734432220458984 1.014741063117981
v 0.036374591290950775 -0.34501326084136963 0.3250695466995239
v -0.21831724047660828 -0.36585235595703125 0.5100286602973938
v -0.06225109100341797 -0.14520496129989624 -0.05720815435051918
v -0.1915491372346878 -0.008815810084342957 -0.006312249228358269
v 0.11581506580114365 -0.07696114480495453 -0.0178938340395689
v -0.08391182124614716 -0.42734432220458984 1.014741063117981
v 0.16589505970478058 -0.1253460794687271 0.36191293597221375
v 0.036374591290950775 -0.34501326084136963 0.3250695466995239
v 0.11581506580114365 -0.07696114480495453 -0.0178938340395689
v 0.09656798839569092 0.10160490870475769 0.05729951336979866
v -0.3055152893066406 0.2989306151866913 1.22531259059906
v -0.2207956463098526 -0.03447730839252472 0.807889461517334
v -0.35196036100387573 0.08363189548254013 0.5491219758987427
v -0.19551557302474976 0.2644432783126831 0.34677019715309143
v -0.11398407816886902 -0.14596305787563324 0.019576050341129303
v -0.14352044463157654 0.0411653146147728 -0.0378318652510643
v -0.3055152893066406 0.2989306151866913 1.22531259059906
v 0.016713466495275497 0.07333862036466599 0.7654647827148438
v -0.2207956463098526 -0.03447730839252472 0.807889461517334
v 0.07579851150512695 -0.16440406441688538 0.07275230437517166
v -0.11398407816886902 -0.14596305787563324 0.019576050341129303
v -0.3055152893066406 0.2989306151866913 1.22531259059906
v 0.03233738988637924 0.25808170437812805 0.4804774224758148
v 0.016713466495275497 0.07333862036466599 0.7654647827148438
v 0.16355425119400024 0.011327249929308891 0.04820909723639488
v 0.07579851150512695 -0.16440406441688538 0.07275230437517166
v 0.028007574379444122 0.13837605714797974 -0.020135611295700073
v -0.3055152893066406 0.2989306151866913 1.22531259059906
v -0.19551557302474976 0.2644432783126831 0.34677019715309143
v 0.03233738988637924 0.25808170437812805 0.4804774224758148
v 0.028007574379444122 0.13837605714797974 -0.020135611295700073
v -0.14352044463157654 0.0411653146147728 -0.0378318652510643
v -3.3565111152711324e-06 0.016952989622950554 1.7077348232269287
v 0.0640394315123558 0.21452108025550842 0.9514960050582886
v 0.20723862946033478 0.017424756661057472 0.8428495526313782
v 0.06404194235801697 -0.1796695441007614 0.734203040599823
v 0.0855063870549202 0.07949529588222504 0.014296473003923893
v 0.08550725132226944 -0.04475351795554161 0.014296382665634155
v -3.3565111152711324e-06 0.016952989622950554 1.7077348232269287
v -0.16765925288200378 0.13923905789852142 0.9099963903427124
v 0.0640394315123558 0.21452108025550842 0.9514960050582886
v -0.032661475241184235 0.11789124459028244 0.014296447858214378
v 0.0855063870549202 0.07949529588222504 0.014296473003923893
v -3.3565111152711324e-06 0.016952989622950554 1.7077348232269287
v -0.16765771806240082 -0.10438410192728043 0.7757025957107544
v -0.16765925288200378 0.13923905789852142 0.9099963903427124
v -0.10569240152835846 0.017372334375977516 0.014296341687440872
v -0.032661475241184235 0.11789124459028244 0.014296447858214378
v -0.03266004100441933 -0.08314762264490128 0.01429641805589199
v -3.3565111152711324e-06 0.016952989622950554 1.7077348232269287
v 0.06404194235801697 -0.1796695441007614 0.734203040599823
v -0.16765771806240082 -0.10438410192728043 0.7757025957107544
v -0.03266004100441933 -0.08314762264490128 0.01429641805589199
v 0.08550725132226944 -0.04475351795554161 0.014296382665634155
v 0.365921288728714 0.023953186348080635 0.918913722038269
v 0.2811010181903839 0.2061695009469986 0.5462536811828613
v 0.35248062014579773 0.02439059130847454 0.3685183525085449
v 0.17846138775348663 -0.15738831460475922 0.28850463032722473
v 0.11408916860818863 0.11161650717258453 -0.03800969198346138
v 0.11408916860818863 -0.0628354623913765 -0.03800969198346138
v 0.365921288728714 0.023953186348080635 0.918913722038269
v 0.0629667192697525 0.13673612475395203 0.5760864019393921
v 0.2811010181903839 0.2061695009469986 0.5462536811828613
v -0.04005247354507446 0.16552524268627167 0.023371877148747444
v 0.11408916860818863 0.11161650717258453 -0.03800969198346138
v 0.365921288728714 0.023953186348080635 0.918913722038269
v -0.0004680156707763672 -0.08795496076345444 0.416788786649704
v 0.0629667192697525 0.13673612475395203 0.5760864019393921
v -0.13531726598739624 0.024390587583184242 0.06130777671933174
v -0.04005247354507446 0.16552524268627167 0.023371877148747444
v -0.040052395313978195 -0.11674404889345169 0.02337190881371498
v 0.365921288728714 0.023953186348080635 0.918913722038269
v 0.17846138775348663 -0.15738831460475922 0.28850463032722473
v -0.0004680156707763672 -0.08795496076345444 0.416788786649704
v -0.040052395313978195 -0.11674404889345169 0.02337190881371498
v 0.11408916860818863 -0.0628354623913765 -0.03800969198346138
v -0.4050396680831909 -0.3967101275920868 0.43686389923095703
v -0.3957687020301819 -0.30588698387145996 0.20342087745666504
v -0.35576075315475464 -0.1369583159685135 0.2285042554140091
v -0.18794377148151398 -0.0876394659280777 0.24161164462566376
v -0.21413594484329224 -0.028481749817728996 -0.035178907215595245
v -0.15369002521038055 0.027981871739029884 0.045978326350450516
v -0.4050396680831909 -0.3967101275920868 0.43686389923095703
v -0.25267794728279114 -0.3609716594219208 0.2010258436203003
v -0.3957687020301819 -0.30588698387145996 0.20342087745666504
v -0.15253444015979767 -0.12106002867221832 -0.06778033822774887
v -0.21413594484329224 -0.028481749817728996 -0.035178907215595245
v -0.4050396680831909 -0.3967101275920868 0.43686389923095703
v -0.1242351159453392 -0.22608733177185059 0.22462907433509827
v -0.25267794728279114 -0.3609716594219208 0.2010258436203003
v -0.054016683250665665 -0.12181304395198822 -0.006771888583898544
v -0.15253444015979767 -0.12106002867221832 -0.06778033822774887
v -0.05473091080784798 -0.029700011014938354 0.06353483349084854
v -0.4050396680831909 -0.3967101275920868 0.43686389923095703
v -0.18794377148151398 -0.0876394659280777 0.24161164462566376
v -0.1242351159453392 -0.22608733177185059 0.22462907433509827
v -0.05473091080784798 -0.029700011014938354 0.06353483349084854
v -0.15369002521038055 0.027981871739029884 0.045978326350450516
v -0.7056005597114563 -0.0005318689509294927 0.6740473508834839
v -0.4407184422016144 0.1482440084218979 0.4362682104110718
v -0.2843170762062073 0.001832666341215372 0.41836103796958923
v -0.2918315827846527 -0.14472191035747528 0.2612508535385132
v -0.08357486873865128 0.07783517241477966 0.09250610321760178
v -0.0822829008102417 -0.0641816109418869 0.09113088250160217
v -0.7056005597114563 -0.0005318689509294927 0.6740473508834839
v -0.544894278049469 0.09217654913663864 0.29022520780563354
v -0.4407184422016144 0.1482440084218979 0.4362682104110718
v -0.18693406879901886 0.12163068354129791 0.005493850447237492
v -0.08357486873865128 0.07783517241477966 0.09250610321760178
v -0.7056005597114563 -0.0005318689509294927 0.6740473508834839
v -0.45287710428237915 -0.08888634294271469 0.18205860257148743
v -0.544894278049469 0.09217654913663864 0.29022520780563354
v -0.2495216280221939 0.006681190803647041 -0.04965789616107941
v -0.18693406879901886 0.12163068354129791 0.005493850447237492
v -0.18484359979629517 -0.1081571951508522 0.0032687378115952015
v -0.7056005597114563 -0.0005318689509294927 0.6740473508834839
v -0.2918315827846527 -0.14472191035747528 0.2612508535385132
v -0.45287710428237915 -0.08888634294271469 0.18205860257148743
v -0.18484359979629517 -0.1081571951508522 0.0032687378115952015
v -0.0822829008102417 -0.0641816109418869 0.09113088250160217
v 0.03293228894472122 -0.6254741549491882 0.35850295424461365
v 0.08097924292087555 -0.4710615575313568 0.14997854828834534
v -0.07443114370107651 -0.39751875400543213 0.11525444686412811
v -0.12047053128480911 -0.24816292524337769 0.1948779970407486
v -0.0224562156945467 -0.1257464438676834 -0.04220016300678253
v -0.11267343908548355 -0.09501063823699951 0.023712672293186188
v 0.03293228894472122 -0.6254741549491882 0.35850295424461365
v 0.1309889256954193 -0.36715736985206604 0.2510627508163452
v 0.08097924292087555 -0.4710615575313568 0.14997854828834534
v 0.07412144541740417 -0.0876239538192749 0.009256486780941486
v -0.0224562156945467 -0.1257464438676834 -0.04220016300678253
v 0.03293228894472122 -0.6254741549491882 0.35850295424461365
v 0.006486005615442991 -0.2293986678123474 0.27881211042404175
v 0.1309889256954193 -0.36715736985206604 0.2510627508163452
v 0.043592460453510284 -0.03332715854048729 0.10697127133607864
v 0.07412144541740417 -0.0876239538192749 0.009256486780941486
v -0.07185313105583191 -0.0378924161195755 0.11590566486120224
v 0.03293228894472122 -0.6254741549491882 0.35850295424461365
v -0.12047053128480911 -0.24816292524337769 0.1948779970407486
v 0.006486005615442991 -0.2293986678123474 0.27881211042404175
v -0.07185313105583191 -0.0378924161195755 0.11590566486120224
v -0.11267343908548355 -0.09501063823699951 0.023712672293186188
v 0.437538206577301 -0.3940354883670807 0.4990171790122986
v 0.33587372303009033 -0.32230812311172485 0.22662346065044403
v 0.101077601313591 -0.2635568082332611 0.2767565846443176
v 0.036166563630104065 -0.026626095175743103 0.30404525995254517
v -0.06990987807512283 -0.054106131196022034 -0.08122962713241577
v -0.14156301319599152 0.029657945036888123 0.03924630954861641
v 0.437538206577301 -0.3940354883670807 0.4990171790122986
v 0.4160747528076172 -0.1216876357793808 0.22292794287204742
v 0.33587372303009033 -0.32230812311172485 0.22662346065044403
v 0.05894157290458679 0.03192869946360588 -0.13280810415744781
v -0.06990987807512283 -0.054106131196022034 -0.08122962713241577
v 0.437538206577301 -0.3940354883670807 0.4990171790122986
v 0.23084552586078644 0.061053864657878876 0.27077728509902954
v 0.4160747528076172 -0.1216876357793808 0.22292794287204742
v 0.06692305207252502 0.16886520385742188 -0.044209402054548264
v 0.05894157290458679 0.03192869946360588 -0.13280810415744781
v -0.05699561908841133 0.16746172308921814 0.0621260441839695
v 0.437538206577301 -0.3940354883670807 0.4990171790122986
v 0.036166563630104065 -0.026626095175743103 0.30404525995254517
v 0.23084552586078644 0.061053864657878876 0.27077728509902954
v -0.05699561908841133 0.16746172308921814 0.0621260441839695
v -0.14156301319599152 0.029657945036888123 0.03924630954861641
v 0.46106576919555664 0.15011706948280334 0.355313241481781
v 0.3661212921142578 0.24796214699745178 0.22387675940990448
v 0.36003950238227844 0.11942622065544128 0.10467852652072906
v 0.24106429517269135 -0.008570441976189613 0.11979269981384277
v 0.08987762033939362 0.1505204290151596 -0.060848694294691086
v 0.09732399135828018 0.035074882209300995 -0.05412624403834343
v 0.46106576919555664 0.15011706948280334 0.355313241481781
v 0.2509046792984009 0.1994050145149231 0.31265947222709656
v 0.3661212921142578 0.24796214699745178 0.22387675940990448
v 0.016665076836943626 0.18653392791748047 0.021439198404550552
v 0.08987762033939362 0.1505204290151596 -0.060848694294691086
v 0.46106576919555664 0.15011706948280334 0.355313241481781
v 0.1736152619123459 0.04085918515920639 0.24833202362060547
v 0.2509046792984009 0.1994050145149231 0.31265947222709656
v -0.021136397495865822 0.0933457463979721 0.07901835441589355
v 0.016665076836943626 0.18653392791748047 0.021439198404550552
v 0.028713569045066833 -0.0002611255622468889 0.03231629356741905
v 0.46106576919555664 0.15011706948280334 0.355313241481781
v 0.24106429517269135 -0.008570441976189613 0.11979269981384277
v 0.1736152619123459 0.04085918515920639 0.24833202362060547
v 0.028713569045066833 -0.0002611255622468889 0.03231629356741905
v 0.09732399135828018 0.035074882209300995 -0.05412624403834343
v 0.2510642409324646 0.4599660038948059 0.5350301265716553
v 0.04464471712708473 0.430091917514801 0.4330833852291107
v 0.12343049794435501 0.42627885937690735 0.22639884054660797
v 0.21814335882663727 0.2425520271062851 0.147568941116333
v -0.10650434345006943 0.17860351502895355 0.009583587758243084
v 0.02490237168967724 0.14968442916870117 -0.04748016223311424
v 0.2510642409324646 0.4599660038948059 0.5350301265716553
v 0.090665303170681 0.24872168898582458 0.48199155926704407
v 0.04464471712708473 0.430091917514801 0.4330833852291107
v -0.1371070295572281 0.07453130185604095 0.10752616822719574
v -0.10650434345006943 0.17860351502895355 0.009583587758243084
v 0.2510642409324646 0.4599660038948059 0.5350301265716553
v 0.19789335131645203 0.1328156590461731 0.3055339753627777
v 0.090665303170681 0.24872168898582458 0.48199155926704407
v -0.024613818153738976 -0.018707942217588425 0.11099432408809662
v -0.1371070295572281 0.07453130185604095 0.10752616822719574
v 0.07551349699497223 0.02773939073085785 0.015195082873106003
v 0.2510642409324646 0.4599660038948059 0.5350301265716553
v 0.21814335882663727 0.2425520271062851 0.147568941116333
v 0.19789335131645203 0.1328156590461731 0.3055339753627777
v 0.07551349699497223 0.02773939073085785 0.015195082873106003
v 0.02490237168967724 0.14968442916870117 -0.04748016223311424
v -0.032683055847883224 0.6447575092315674 0.44631290435791016
v -0.024051055312156677 0.38446542620658875 0.39163729548454285
v -0.15942692756652832 0.3592199981212616 0.28299689292907715
v -0.13792040944099426 0.3791259229183197 0.11005783826112747
v -0.10143962502479553 0.0972302258014679 0.11167142540216446
v -0.15319210290908813 0.16353096067905426 0.03195800632238388
v -0.032683055847883224 0.6447575092315674 0.44631290435791016
v 0.08112236112356186 0.41997408866882324 0.285841703414917
v -0.024051055312156677 0.38446542620658875 0.39163729548454285
v 0.013094830326735973 0.10510306805372238 0.0959164947271347
v -0.10143962502479553 0.0972302258014679 0.11167142540216446
v -0.032683055847883224 0.6447575092315674 0.44631290435791016
v 0.010747208259999752 0.41667401790618896 0.11181606352329254
v 0.08112236112356186 0.41997408866882324 0.285841703414917
v 0.032128553837537766 0.17626948654651642 0.0064659882336854935
v 0.013094830326735973 0.10510306805372238 0.0959164947271347
v -0.07064245641231537 0.21237994730472565 -0.033062513917684555
v -0.032683055847883224 0.6447575092315674 0.44631290435791016
v -0.13792040944099426 0.3791259229183197 0.11005783826112747
v 0.010747208259999752 0.41667401790618896 0.11181606352329254
v -0.07064245641231537 0.21237994730472565 -0.033062513917684555
v -0.15319210290908813 0.16353096067905426 0.03195800632238388
v -0.34982216358184814 0.4424322545528412 0.6097108125686646
v -0.11323091387748718 0.3485087752342224 0.385495662689209
v -0.19225971400737762 0.1954265683889389 0.35252633690834045
v -0.27635079622268677 0.17114529013633728 0.2005203515291214
v -0.03264526277780533 0.049879685044288635 0.11866112798452377
v -0.14138129353523254 0.02046859636902809 0.09146177023649216
v -0.34982216358184814 0.4424322545528412 0.6097108125686646
v -0.14847947657108307 0.41883769631385803 0.25386571884155273
v -0.11323091387748718 0.3485087752342224 0.385495662689209
v -0.0022237205412238836 0.13987158238887787 0.052296027541160583
v -0.03264526277780533 0.049879685044288635 0.11866112798452377
v -0.34982216358184814 0.4424322545528412 0.6097108125686646
v -0.24929314851760864 0.30922091007232666 0.13954481482505798
v -0.14847947657108307 0.41883769631385803 0.25386571884155273
v -0.0921582281589508 0.1660786271095276 -0.01591922715306282
v -0.0022237205412238836 0.13987158238887787 0.052296027541160583
v -0.17816230654716492 0.09228355437517166 0.008286514319479465
v -0.34982216358184814 0.4424322545528412 0.6097108125686646
v -0.27635079622268677 0.17114529013633728 0.2005203515291214
v -0.24929314851760864 0.30922091007232666 0.13954481482505798
v -0.17816230654716492 0.09228355437517166 0.008286514319479465
v -0.14138129353523254 0.02046859636902809 0.09146177023649216
v 0.47835561633110046 -0.012244033627212048 0.17764568328857422
v 0.409328818321228 -0.06712226569652557 -0.04784080386161804
v 0.2655799686908722 -0.1534613072872162 -0.02361234650015831
v 0.11825437098741531 -0.07075679302215576 -0.010951709933578968
v 0.47835561633110046 -0.012244033627212048 0.17764568328857422
v 0.3508448004722595 0.06894262135028839 -0.05015420913696289
v 0.409328818321228 -0.06712226569652557 -0.04784080386161804
v 0.47835561633110046 -0.012244033627212048 0.17764568328857422
v 0.17095094919204712 0.0666964203119278 -0.027355460450053215
v 0.3508448004722595 0.06894262135028839 -0.05015420913696289
v 0.47835561633110046 -0.012244033627212048 0.17764568328857422
v 0.11825437098741531 -0.07075679302215576 -0.010951709933578968
v 0.17095094919204712 0.0666964203119278 -0.027355460450053215
v 0.315028578042984 -0.3778126537799835 0.21207186579704285
v 0.033467281609773636 -0.29513487219810486 -0.017603015527129173
v 0.029120370745658875 -0.08824504911899567 -0.03489980474114418
v 0.13547979295253754 0.005453686695545912 -0.18665514886379242
v 0.315028578042984 -0.3778126537799835 0.21207186579704285
v 0.1425132304430008 -0.32930102944374084 -0.1586684137582779
v 0.033467281609773636 -0.29513487219810486 -0.017603015527129173
v 0.315028578042984 -0.3778126537799835 0.21207186579704285
v 0.20556043088436127 -0.143527090549469 -0.26314830780029297
v 0.1425132304430008 -0.32930102944374084 -0.1586684137582779
v 0.315028578042984 -0.3778126537799835 0.21207186579704285
v 0.13547979295253754 0.005453686695545912 -0.18665514886379242
v 0.20556043088436127 -0.143527090549469 -0.26314830780029297
v 0.3051266670227051 0.31933948397636414 0.12217521667480469
v 0.20309504866600037 0.2775653004646301 -0.10763517767190933
v 0.29128122329711914 0.14613255858421326 -0.16808196902275085
v 0.2410614788532257 -0.011577253229916096 -0.13470834493637085
v 0.3051266670227051 0.31933948397636414 0.12217521667480469
v 0.09849126636981964 0.20050962269306183 -0.0365021713078022
v 0.20309504866600037 0.2775653004646301 -0.10763517767190933
v 0.3051266670227051 0.31933948397636414 0.12217521667480469
v 0.1222853809595108 0.020206736400723457 -0.05211661383509636
v 0.09849126636981964 0.20050962269306183 -0.0365021713078022
v 0.3051266670227051 0.31933948397636414 0.12217521667480469
v 0.2410614788532257 -0.011577253229916096 -0.13470834493637085
v 0.1222853809595108 0.020206736400723457 -0.05211661383509636
v -0.022911356762051582 0.5682849884033203 0.19715248048305511
v -0.0038832854479551315 0.44962096214294434 -0.06595715135335922
v 0.11394771188497543 0.2477012574672699 -0.01753270998597145
v -0.006002307869493961 0.042962707579135895 0.008825855329632759
v -0.022911356762051582 0.5682849884033203 0.19715248048305511
v -0.1966569423675537 0.3696756958961487 -0.06952670216560364
v -0.0038832854479551315 0.44962096214294434 -0.06595715135335922
v -0.022911356762051582 0.5682849884033203 0.19715248048305511
v -0.1979665458202362 0.11834710836410522 -0.023308219388127327
v -0.1966569423675537 0.3696756958961487 -0.06952670216560364
v -0.022911356762051582 0.5682849884033203 0.19715248048305511
v -0.006002307869493961 0.042962707579135895 0.008825855329632759
v -0.1979665458202362 0.11834710836410522 -0.023308219388127327
v -0.42822104692459106 0.1562366783618927 0.09211742132902145
v -0.38822096586227417 0.0567653626203537 -0.056092116981744766
v -0.3425278663635254 0.18705077469348907 -0.15429095923900604
v -0.18825380504131317 0.2552007734775543 -0.13815851509571075
v -0.42822104692459106 0.1562366783618927 0.09211742132902145
v -0.26218661665916443 0.044394444674253464 0.020730532705783844
v -0.38822096586227417 0.0567653626203537 -0.056092116981744766
v -0.42822104692459106 0.1562366783618927 0.09211742132902145
v -0.1386001855134964 0.16703425347805023 -0.02998926118016243
v -0.26218661665916443 0.044394444674253464 0.020730532705783844
v -0.42822104692459106 0.1562366783618927 0.09211742132902145
v -0.18825380504131317 0.2552007734775543 -0.13815851509571075
v -0.1386001855134964 0.16703425347805023 -0.02998926118016243
v -0.4651491343975067 -0.11693038791418076 0.11714786291122437
v -0.27551594376564026 -0.18786311149597168 0.02075689285993576
v -0.32318592071533203 -0.11491111665964127 -0.17434966564178467
v -0.2984056770801544 0.09240051358938217 -0.21983419358730316
v -0.4651491343975067 -0.11693038791418076 0.11714786291122437
v -0.22127413749694824 -0.025638418272137642 0.09585493057966232
v -0.27551594376564026 -0.18786311149597168 0.02075689285993576
v -0.4651491343975067 -0.11693038791418076 0.11714786291122437
v -0.23542073369026184 0.1475740373134613 -0.05283855274319649
v -0.22127413749694824 -0.025638418272137642 0.09585493057966232
v -0.4651491343975067 -0.11693038791418076 0.11714786291122437
v -0.2984056770801544 0.09240051358938217 -0.21983419358730316
v -0.23542073369026184 0.1475740373134613 -0.05283855274319649
v -0.3763827681541443 -0.3966694474220276 0.16323794424533844
v -0.20231086015701294 -0.21506346762180328 0.11042588949203491
v -0.0935138687491417 -0.29159116744995117 0.00548831932246685
v -0.12178367376327515 -0.2901594042778015 -0.1615564078092575
v -0.3763827681541443 -0.3966694474220276 0.16323794424533844
v -0.2978210747241974 -0.16633516550064087 0.008236179128289223
v -0.20231086015701294 -0.21506346762180328 0.11042588949203491
v -0.3763827681541443 -0.3966694474220276 0.16323794424533844
v -0.24805249273777008 -0.2127469778060913 -0.1598581075668335
v -0.2978210747241974 -0.16633516550064087 0.008236179128289223
v -0.3763827681541443 -0.3966694474220276 0.16323794424533844
v -0.12178367376327515 -0.2901594042778015 -0.1615564078092575
v -0.24805249273777008 -0.2127469778060913 -0.1598581075668335
v -0.07768943905830383 -0.6160817742347717 0.20489898324012756
v -0.16529899835586548 -0.32140690088272095 0.0915389433503151
v -0.0054091354832053185 -0.26547494530677795 0.08807256817817688
v 0.07448597997426987 -0.2465973049402237 -0.0601353719830513
v -0.07768943905830383 -0.6160817742347717 0.20489898324012756
v -0.18422134220600128 -0.33709728717803955 -0.054526738822460175
v -0.16529899835586548 -0.32140690088272095 0.0915389433503151
v -0.07768943905830383 -0.6160817742347717 0.20489898324012756
v -0.03602597117424011 -0.29086238145828247 -0.1482664793729782
v -0.18422134220600128 -0.33709728717803955 -0.054526738822460175
v -0.07768943905830383 -0.6160817742347717 0.20489898324012756
v 0.07448597997426987 -0.2465973049402237 -0.0601353719830513
v -0.03602597117424011 -0.29086238145828247 -0.1482664793729782
vn 0.02294357866048813 -0.40797826647758484 0.9127032160758972
vn -0.8285998106002808 0.39615052938461304 0.3955844044685364
vn 0.26898112893104553 0.8119305372238159 0.5180908441543579
vn 0.988481879234314 0.035207945853471756 0.14718669652938843
vn -0.40001168847084045 0.893191397190094 0.2054257094860077
vn 0.7294514179229736 0.6711259484291077 0.13225215673446655
vn 0.02294357866048813 -0.40797826647758484 0.9127032160758972
vn -0.6873219013214111 -0.7148988246917725 -0.12848465144634247
vn -0.8285998106002808 0.39615052938461304 0.3955844044685364
vn -0.978701114654541 -0.015295750461518764 -0.2047194391489029
vn -0.40001168847084045 0.893191397190094 0.2054257094860077
vn 0.02294357866048813 -0.40797826647758484 0.9127032160758972
vn 0.4255507290363312 -0.8724802732467651 -0.2401764988899231
vn -0.6873219013214111 -0.7148988246917725 -0.12848465144634247
vn -0.2200341522693634 -0.8159142136573792 -0.5346672534942627
vn -0.978701114654541 -0.015295750461518764 -0.2047194391489029
vn 0.851137638092041 -0.404365211725235 -0.3347439169883728
vn 0.02294357866048813 -0.40797826647758484 0.9127032160758972
vn 0.988481879234314 0.035207945853471756 0.14718669652938843
vn 0.4255507290363312 -0.8724802732467651 -0.2401764988899231
vn 0.851137638092041 -0.404365211725235 -0.3347439169883728
vn 0.7294514179229736 0.6711259484291077 0.13225215673446655
vn -0.24814245104789734 0.31450217962265015 0.9162498116493225
vn -0.2430158257484436 -0.875480055809021 0.41770583391189575
vn -0.9901589751243591 -0.10950692743062973 -0.08714026212692261
vn -0.44524237513542175 0.8514648675918579 -0.2770683765411377
vn -0.6467036008834839 -0.7567204833030701 -0.09564843028783798
vn -0.8220778107643127 0.32517382502555847 -0.46738624572753906
vn -0.24814245104789734 0.31450217962265015 0.9162498116493225
vn 0.8411101698875427 -0.2610902786254883 0.47367244958877563
vn -0.2430158257484436 -0.875480055809021 0.41770583391189575
vn 0.46030694246292114 -0.8592836260795593 0.22304505109786987
vn -0.6467036008834839 -0.7567204833030701 -0.09564843028783798
vn -0.24814245104789734 0.31450217962265015 0.9162498116493225
vn 0.6414279341697693 0.7653955817222595 0.05234162509441376
vn 0.8411101698875427 -0.2610902786254883 0.47367244958877563
vn 0.9860150814056396 0.15626782178878784 0.05791904777288437
vn 0.46030694246292114 -0.8592836260795593 0.22304505109786987
vn 0.2015685886144638 0.9049408435821533 -0.37476930022239685
vn -0.24814245104789734 0.31450217962265015 0.9162498116493225
vn -0.44524237513542175 0.8514648675918579 -0.2770683765411377
vn 0.6414279341697693 0.7653955817222595 0.05234162509441376
vn 0.2015685886144638 0.9049408435821533 -0.37476930022239685
vn -0.8220778107643127 0.32517382502555847 -0.46738624572753906
vn -1.0458537872182205e-05 -0.02411794662475586 0.9997090697288513
vn 0.32031673192977905 0.9403356313705444 0.1147434189915657
vn 0.9976258873939514 -0.022226482629776 0.06518170982599258
vn 0.30883023142814636 -0.9508761763572693 0.021406279876828194
vn 0.7954042553901672 0.5849267840385437 -0.15872207283973694
vn 0.8002952933311462 -0.5722852349281311 -0.17893308401107788
vn -1.0458537872182205e-05 -0.02411794662475586 0.9997090697288513
vn -0.8222867846488953 0.5613914132118225 0.09318868070840836
vn 0.32031673192977905 0.9403356313705444 0.1147434189915657
vn -0.30346590280532837 0.9404800534248352 -0.1529892385005951
vn 0.7954042553901672 0.5849267840385437 -0.15872207283973694
vn -1.0458537872182205e-05 -0.02411794662475586 0.9997090697288513
vn -0.8041133880615234 -0.5931798815727234 0.03923500329256058
vn -0.8222867846488953 0.5613914132118225 0.09318868070840836
vn -0.985663890838623 0.008008027449250221 -0.16853059828281403
vn -0.30346590280532837 0.9404800534248352 -0.1529892385005951
vn -0.30658024549484253 -0.933576226234436 -0.185590922832489
vn -1.0458537872182205e-05 -0.02411794662475586 0.9997090697288513
vn 0.30883023142814636 -0.9508761763572693 0.021406279876828194
vn -0.8041133880615234 -0.5931798815727234 0.03923500329256058
vn -0.30658024549484253 -0.933576226234436 -0.185590922832489
vn 0.8002952933311462 -0.5722852349281311 -0.17893308401107788
vn 0.3687320351600647 -0.07707928866147995 0.9263343811035156
vn 0.4028186500072479 0.908642053604126 0.11003078520298004
vn 0.9702758193016052 -0.06775470823049545 -0.23232309520244598
vn 0.30454057455062866 -0.951369047164917 -0.046389129012823105
vn 0.6858057379722595 0.5910196900367737 -0.42469537258148193
vn 0.6836245059967041 -0.5616461634635925 -0.46605920791625977
vn 0.3687320351600647 -0.07707928866147995 0.9263343811035156
vn -0.7034454941749573 0.5112134218215942 0.49378666281700134
vn 0.4028186500072479 0.908642053604126 0.11003078520298004
vn -0.3297579884529114 0.9440187215805054 -0.009398375637829304
vn 0.6858057379722595 0.5910196900367737 -0.42469537258148193
vn 0.3687320351600647 -0.07707928866147995 0.9263343811035156
vn -0.6915797591209412 -0.6127339601516724 0.38245850801467896
vn -0.7034454941749573 0.5112134218215942 0.49378666281700134
vn -0.9759674668312073 0.018529361113905907 0.21712714433670044
vn -0.3297579884529114 0.9440187215805054 -0.009398375637829304
vn -0.3614773750305176 -0.9301709532737732 -0.06415682286024094
vn 0.3687320351600647 -0.07707928866147995 0.9263343811035156
vn 0.30454057455062866 -0.951369047164917 -0.046389129012823105
vn -0.6915797591209412 -0.6127339601516724 0.38245850801467896
vn -0.3614773750305176 -0.9301709532737732 -0.06415682286024094
vn 0.6836245059967041 -0.5616461634635925 -0.46605920791625977
vn -0.4050593078136444 -0.5091701149940491 0.7593897581100464
vn -0.8347899317741394 -0.35749170184135437 -0.4187189042568207
vn -0.7477290034294128 0.6212074160575867 0.2345263510942459
vn 0.24236039817333221 0.6221657991409302 0.7444267272949219
vn -0.8243035078048706 0.33034321665763855 -0.4597793519496918
vn -0.21529130637645721 0.9224514365196228 0.3205198049545288
vn -0.4050593078136444 -0.5091701149940491 0.7593897581100464
vn 0.2531774342060089 -0.933234691619873 -0.2549003064632416
vn -0.8347899317741394 -0.35749170184135437 -0.4187189042568207
vn -0.21372278034687042 -0.5951089262962341 -0.7747050523757935
vn -0.8243035078048706 0.33034321665763855 -0.4597793519496918
vn -0.4050593078136444 -0.5091701149940491 0.7593897581100464
vn 0.8384800553321838 -0.2933625280857086 0.4592272639274597
vn 0.2531774342060089 -0.933234691619873 -0.2549003064632416
vn 0.780115008354187 -0.5949377417564392 -0.19357085227966309
vn -0.21372278034687042 -0.5951089262962341 -0.7747050523757935
vn 0.7984136939048767 0.34599223732948303 0.49277257919311523
vn -0.4050593078136444 -0.5091701149940491 0.7593897581100464
vn 0.24236039817333221 0.6221657991409302 0.7444267272949219
vn 0.8384800553321838 -0.2933625280857086 0.4592272639274597
vn 0.7984136939048767 0.34599223732948303 0.49277257919311523
vn -0.21529130637645721 0.9224514365196228 0.3205198049545288
vn -0.6458610892295837 -0.06760038435459137 0.7604563236236572
vn 0.10429222881793976 0.9142329096794128 0.3915371894836426
vn 0.6700126528739929 -0.06524475663900375 0.7394768595695496
vn 0.19609536230564117 -0.95216304063797 0.23437586426734924
vn 0.6911935806274414 0.5933657884597778 0.41251489520072937
vn 0.7371940612792969 -0.5586692690849304 0.380044162273407
vn -0.6458610892295837 -0.06760038435459137 0.7604563236236572
vn -0.7570295333862305 0.5150118470191956 -0.40208083391189575
vn 0.10429222881793976 0.9142329096794128 0.3915371894836426
vn -0.1548396199941635 0.9454680681228638 -0.28655651211738586
vn 0.6911935806274414 0.5933657884597778 0.41251489520072937
vn -0.6458610892295837 -0.06760038435459137 0.7604563236236572
vn -0.6528409719467163 -0.6136208772659302 -0.4441487491130829
vn -0.7570295333862305 0.5150118470191956 -0.40208083391189575
vn -0.6493856906890869 0.019984858110547066 -0.7601966261863708
vn -0.1548396199941635 0.9454680681228638 -0.28655651211738586
vn -0.1042882427573204 -0.927731454372406 -0.3583829998970032
vn -0.6458610892295837 -0.06760038435459137 0.7604563236236572
vn 0.19609536230564117 -0.95216304063797 0.23437586426734924
vn -0.6528409719467163 -0.6136208772659302 -0.4441487491130829
vn -0.1042882427573204 -0.927731454372406 -0.3583829998970032
vn 0.7371940612792969 -0.5586692690849304 0.380044162273407
vn 0.02026798576116562 -0.8419841527938843 0.5391213893890381
vn 0.5154121518135071 -0.6062183380126953 -0.6056812405586243
vn -0.6607116460800171 -0.5379464626312256 -0.5235204100608826
vn -0.9211390614509583 0.05617230758070946 0.3851592242717743
vn -0.04524614289402962 -0.3785586953163147 -0.9244707822799683
vn -0.9537742137908936 -0.044746801257133484 -0.2971740961074829
vn 0.02026798576116562 -0.8419841527938843 0.5391213893890381
vn 0.9307413697242737 0.050236478447914124 0.362211138010025
vn 0.5154121518135071 -0.6062183380126953 -0.6056812405586243
vn 0.9142227172851562 -0.006833986379206181 -0.40515434741973877
vn -0.04524614289402962 -0.3785586953163147 -0.9244707822799683
vn 0.02026798576116562 -0.8419841527938843 0.5391213893890381
vn 0.015806399285793304 0.40674933791160583 0.9134029746055603
vn 0.9307413697242737 0.050236478447914124 0.362211138010025
vn 0.6180844306945801 0.5589293241500854 0.5527834892272949
vn 0.9142227172851562 -0.006833986379206181 -0.40515434741973877
vn -0.5437236428260803 0.5482145547866821 0.6354725360870361
vn 0.02026798576116562 -0.8419841527938843 0.5391213893890381
vn -0.9211390614509583 0.05617230758070946 0.3851592242717743
vn 0.015806399285793304 0.40674933791160583 0.9134029746055603
vn -0.5437236428260803 0.5482145547866821 0.6354725360870361
vn -0.9537742137908936 -0.044746801257133484 -0.2971740961074829
vn 0.47950059175491333 -0.5707787871360779 0.6665515303611755
vn 0.32804974913597107 -0.7858945727348328 -0.5241689085960388
vn -0.636222243309021 -0.7324302792549133 0.2424195557832718
vn -0.5544644594192505 0.23017287254333496 0.7997435331344604
vn -0.36796829104423523 -0.8098768591880798 -0.4568355679512024
vn -0.905598521232605 -0.2098695933818817 0.3685731589794159
vn 0.47950059175491333 -0.5707787871360779 0.6665515303611755
vn 0.9463751912117004 0.2486577183008194 -0.2062605917453766
vn 0.32804974913597107 -0.7858945727348328 -0.5241689085960388
vn 0.5466439127922058 -0.20500080287456512 -0.8118836879730225
vn -0.36796829104423523 -0.8098768591880798 -0.4568355679512024
vn 0.47950059175491333 -0.5707787871360779 0.6665515303611755
vn 0.3489196300506592 0.7918291091918945 0.5012601613998413
vn 0.9463751912117004 0.2486577183008194 -0.2062605917453766
vn 0.5940640568733215 0.7761364579200745 -0.2114240527153015
vn 0.5466439127922058 -0.20500080287456512 -0.8118836879730225
vn -0.3056725561618805 0.7922276854515076 0.528147280216217
vn 0.47950059175491333 -0.5707787871360779 0.6665515303611755
vn -0.5544644594192505 0.23017287254333496 0.7997435331344604
vn 0.3489196300506592 0.7918291091918945 0.5012601613998413
vn -0.3056725561618805 0.7922276854515076 0.528147280216217
vn -0.905598521232605 -0.2098695933818817 0.3685731589794159
vn 0.764843761920929 -0.025056004524230957 0.643728494644165
vn 0.4250621199607849 0.9010910391807556 -0.08577413856983185
vn 0.7872754335403442 -0.07961056381464005 -0.6114405989646912
vn 0.33164939284324646 -0.9377289414405823 -0.10331055521965027
vn 0.36563992500305176 0.5741744041442871 -0.7325511574745178
vn 0.41832202672958374 -0.5775989890098572 -0.7009893655776978
vn 0.764843761920929 -0.025056004524230957 0.643728494644165
vn -0.35806795954704285 0.49963948130607605 0.7887634634971619
vn 0.4250621199607849 0.9010910391807556 -0.08577413856983185
vn -0.3552659749984741 0.9300953149795532 0.09332093596458435
vn 0.36563992500305176 0.5741744041442871 -0.7325511574745178
vn 0.764843761920929 -0.025056004524230957 0.643728494644165
vn -0.345505952835083 -0.6038200259208679 0.7183502316474915
vn -0.35806795954704285 0.49963948130607605 0.7887634634971619
vn -0.7578359842300415 0.007707381621003151 0.6523995995521545
vn -0.3552659749984741 0.9300953149795532 0.09332093596458435
vn -0.28851673007011414 -0.9424464106559753 0.16897578537464142
vn 0.764843761920929 -0.025056004524230957 0.643728494644165
vn 0.33164939284324646 -0.9377289414405823 -0.10331055521965027
vn -0.345505952835083 -0.6038200259208679 0.7183502316474915
vn -0.28851673007011414 -0.9424464106559753 0.16897578537464142
vn 0.41832202672958374 -0.5775989890098572 -0.7009893655776978
vn 0.5339916348457336 0.5201674699783325 0.6665424108505249
vn -0.6539170145988464 0.6411123871803284 0.4017058312892914
vn 0.10577026009559631 0.8856890201568604 -0.45207035541534424
vn 0.8790818452835083 0.11130756884813309 -0.46349287033081055
vn -0.649368941783905 0.6855790615081787 -0.32909175753593445
vn 0.36911070346832275 0.4468100666999817 -0.8149344325065613
vn 0.5339916348457336 0.5201674699783325 0.6665424108505249
vn -0.2421909123659134 -0.43090271949768066 0.8692907691001892
vn -0.6539170145988464 0.6411123871803284 0.4017058312892914
vn -0.8834225535392761 -0.13104240596294403 0.4498803913593292
vn -0.649368941783905 0.6855790615081787 -0.32909175753593445
vn 0.5339916348457336 0.5201674699783325 0.6665424108505249
vn 0.6780633926391602 -0.6674272418022156 0.30784887075424194
vn -0.2421909123659134 -0.43090271949768066 0.8692907691001892
vn -0.014418956823647022 -0.8860809206962585 0.463306188583374
vn -0.8834225535392761 -0.13104240596294403 0.4498803913593292
vn 0.7753149271011353 -0.5436598658561707 -0.3214356303215027
vn 0.5339916348457336 0.5201674699783325 0.6665424108505249
vn 0.8790818452835083 0.11130756884813309 -0.46349287033081055
vn 0.6780633926391602 -0.6674272418022156 0.30784887075424194
vn 0.7753149271011353 -0.5436598658561707 -0.3214356303215027
vn 0.36911070346832275 0.4468100666999817 -0.8149344325065613
vn 0.0028975435998290777 0.815254271030426 0.5790957808494568
vn 0.11361554265022278 -0.40728816390037537 0.9062051773071289
vn -0.9091878533363342 -0.09347637742757797 0.4057580232620239
vn -0.6896051168441772 0.5272220969200134 -0.49646928906440735
vn -0.4508316218852997 -0.6522219181060791 0.609390914440155
vn -0.9787660241127014 -0.026698902249336243 -0.20323479175567627
vn 0.0028975435998290777 0.815254271030426 0.5790957808494568
vn 0.981845498085022 0.08564414829015732 0.16924692690372467
vn 0.11361554265022278 -0.40728816390037537 0.9062051773071289
vn 0.6881511807441711 -0.5639771819114685 0.4564841687679291
vn -0.4508316218852997 -0.6522219181060791 0.609390914440155
vn 0.0028975435998290777 0.815254271030426 0.5790957808494568
vn 0.42730727791786194 0.6369784474372864 -0.6416127681732178
vn 0.981845498085022 0.08564414829015732 0.16924692690372467
vn 0.8856289982795715 0.11931291222572327 -0.44880473613739014
vn 0.6881511807441711 -0.5639771819114685 0.4564841687679291
vn -0.14267322421073914 0.4619494378566742 -0.8753554224967957
vn 0.0028975435998290777 0.815254271030426 0.5790957808494568
vn -0.6896051168441772 0.5272220969200134 -0.49646928906440735
vn 0.42730727791786194 0.6369784474372864 -0.6416127681732178
vn -0.14267322421073914 0.4619494378566742 -0.8753554224967957
vn -0.9787660241127014 -0.026698902249336243 -0.20323479175567627
vn -0.42576950788497925 0.3725949227809906 0.8245564103126526
vn 0.8244866728782654 0.2006257176399231 0.5291227102279663
vn 0.043437376618385315 -0.7377238273620605 0.6737038493156433
vn -0.9001746773719788 -0.435477077960968 -0.00673552555963397
vn 0.6260155439376831 -0.5217662453651428 0.579538106918335
vn -0.4416826069355011 -0.8487768173217773 0.29067912697792053
vn -0.42576950788497925 0.3725949227809906 0.8245564103126526
vn 0.2946227192878723 0.9214569926261902 -0.25320857763290405
vn 0.8244866728782654 0.2006257176399231 0.5291227102279663
vn 0.9221116304397583 0.37960195541381836 -0.07491680979728699
vn 0.6260155439376831 -0.5217662453651428 0.579538106918335
vn -0.42576950788497925 0.3725949227809906 0.8245564103126526
vn -0.6337664127349854 0.5024319887161255 -0.5881344676017761
vn 0.2946227192878723 0.9214569926261902 -0.25320857763290405
vn 0.043803609907627106 0.6289215087890625 -0.7762338519096375
vn 0.9221116304397583 0.37960195541381836 -0.07491680979728699
vn -0.8152212500572205 -0.12874725461006165 -0.5646577477455139
vn -0.42576950788497925 0.3725949227809906 0.8245564103126526
vn -0.9001746773719788 -0.435477077960968 -0.00673552555963397
vn -0.6337664127349854 0.5024319887161255 -0.5881344676017761
vn -0.8152212500572205 -0.12874725461006165 -0.5646577477455139
vn -0.4416826069355011 -0.8487768173217773 0.29067912697792053
vn 0.6472925543785095 0.06587430089712143 0.7593898177146912
vn 0.8988118171691895 -0.4007358253002167 -0.17761783301830292
vn -0.04819271340966225 -0.7929677963256836 0.6073545813560486
vn -0.44722113013267517 -0.10907156765460968 0.887748122215271
vn 0.6472925543785095 0.06587430089712143 0.7593898177146912
vn 0.40406662225723267 0.9094697833061218 0.09795411676168442
vn 0.8988118171691895 -0.4007358253002167 -0.17761783301830292
vn 0.6472925543785095 0.06587430089712143 0.7593898177146912
vn -0.3588202893733978 0.5538477301597595 0.7513325810432434
vn 0.40406662225723267 0.9094697833061218 0.09795411676168442
vn 0.6472925543785095 0.06587430089712143 0.7593898177146912
vn -0.44722113013267517 -0.10907156765460968 0.887748122215271
vn -0.3588202893733978 0.5538477301597595 0.7513325810432434
vn 0.49956315755844116 -0.41490262746810913 0.7604554295539856
vn -0.6219779253005981 -0.538210391998291 0.5687469244003296
vn -0.040098849684000015 0.6251914501190186 0.779440701007843
vn 0.7039679884910583 0.643181562423706 0.30124178528785706
vn 0.49956315755844116 -0.41490262746810913 0.7604554295539856
vn 0.4709341824054718 -0.8195713758468628 -0.3263797163963318
vn -0.6219779253005981 -0.538210391998291 0.5687469244003296
vn 0.49956315755844116 -0.41490262746810913 0.7604554295539856
vn 0.977179229259491 0.14849694073200226 -0.15188604593276978
vn 0.4709341824054718 -0.8195713758468628 -0.3263797163963318
vn 0.49956315755844116 -0.41490262746810913 0.7604554295539856
vn 0.7039679884910583 0.643181562423706 0.30124178528785706
vn 0.977179229259491 0.14849694073200226 -0.15188604593276978
vn 0.3985886871814728 0.5432893633842468 0.7388935089111328
vn 0.14865577220916748 0.9592316150665283 -0.24036656320095062
vn 0.9989743232727051 -0.004318258725106716 -0.04507492110133171
vn 0.666531503200531 -0.5333535075187683 0.5208356976509094
vn 0.3985886871814728 0.5432893633842468 0.7388935089111328
vn -0.6769556403160095 0.2554038166999817 0.6902897953987122
vn 0.14865577220916748 0.9592316150665283 -0.24036656320095062
vn 0.3985886871814728 0.5432893633842468 0.7388935089111328
vn 0.05764082446694374 -0.5286670327186584 0.8468698859214783
vn -0.6769556403160095 0.2554038166999817 0.6902897953987122
vn 0.3985886871814728 0.5432893633842468 0.7388935089111328
vn 0.666531503200531 -0.5333535075187683 0.5208356976509094
vn 0.05764082446694374 -0.5286670327186584 0.8468698859214783
vn 0.07342936098575592 0.7418336868286133 0.6665514707565308
vn 0.3642098009586334 0.8585572838783264 -0.36087480187416077
vn 0.7947561144828796 -0.06483041495084763 0.603456437587738
vn 0.043773725628852844 -0.3358946442604065 0.9408818483352661
vn 0.07342936098575592 0.7418336868286133 0.6665514707565308
vn -0.8744937777519226 0.4033973217010498 0.26931607723236084
vn 0.3642098009586334 0.8585572838783264 -0.36087480187416077
vn 0.07342936098575592 0.7418336868286133 0.6665514707565308
vn -0.5067954659461975 -0.21221989393234253 0.8355364799499512
vn -0.8744937777519226 0.4033973217010498 0.26931607723236084
vn 0.07342936098575592 0.7418336868286133 0.6665514707565308
vn 0.043773725628852844 -0.3358946442604065 0.9408818483352661
vn -0.5067954659461975 -0.21221989393234253 0.8355364799499512
vn -0.653427004814148 0.19997383654117584 0.7300984263420105
vn -0.9048722386360168 -0.4237802028656006 0.04020664840936661
vn -0.6357245445251465 0.761588454246521 -0.12584632635116577
vn -0.054203055799007416 0.9366481900215149 0.3460524380207062
vn -0.653427004814148 0.19997383654117584 0.7300984263420105
vn 0.15315228700637817 -0.3600378930568695 0.9202809929847717
vn -0.9048722386360168 -0.4237802028656006 0.04020664840936661
vn -0.653427004814148 0.19997383654117584 0.7300984263420105
vn 0.2898881435394287 0.6055575609207153 0.7411240935325623
vn 0.15315228700637817 -0.3600378930568695 0.9202809929847717
vn -0.653427004814148 0.19997383654117584 0.7300984263420105
vn -0.054203055799007416 0.9366481900215149 0.3460524380207062
vn 0.2898881435394287 0.6055575609207153 0.7411240935325623
vn -0.776045024394989 -0.23311179876327515 0.5860145092010498
vn -0.16931010782718658 -0.9228289127349854 0.3460070788860321
vn -0.862138569355011 -0.2806902229785919 -0.4218176007270813
vn -0.884495735168457 0.4356118142604828 -0.167061910033226
vn -0.776045024394989 -0.23311179876327515 0.5860145092010498
vn -0.02715178206562996 0.29528236389160156 0.9550241231918335
vn -0.16931010782718658 -0.9228289127349854 0.3460070788860321
vn -0.776045024394989 -0.23311179876327515 0.5860145092010498
vn -0.6165710687637329 0.7280586957931519 0.29961735010147095
vn -0.02715178206562996 0.29528236389160156 0.9550241231918335
vn -0.776045024394989 -0.23311179876327515 0.5860145092010498
vn -0.884495735168457 0.4356118142604828 -0.167061910033226
vn -0.6165710687637329 0.7280586957931519 0.29961735010147095
vn -0.5853555202484131 -0.5674558281898499 0.5790964961051941
vn 0.14341241121292114 0.14713823795318604 0.9786640405654907
vn 0.44652003049850464 -0.8663936853408813 0.22356607019901276
vn -0.13247966766357422 -0.9064094424247742 -0.40108737349510193
vn -0.5853555202484131 -0.5674558281898499 0.5790964961051941
vn -0.9326987862586975 0.3561917543411255 0.056572142988443375
vn 0.14341241121292114 0.14713823795318604 0.9786640405654907
vn -0.5853555202484131 -0.5674558281898499 0.5790964961051941
vn -0.6723970770835876 -0.49600455164909363 -0.5494194626808167
vn -0.9326987862586975 0.3561917543411255 0.056572142988443375
vn -0.5853555202484131 -0.5674558281898499 0.5790964961051941
vn -0.13247966766357422 -0.9064094424247742 -0.40108737349510193
vn -0.6723970770835876 -0.49600455164909363 -0.5494194626808167
vn 0.0014667301438748837 -0.8443930149078369 0.5357222557067871
vn -0.7325432896614075 0.043541811406612396 0.6793264746665955
vn 0.6534842252731323 0.11459370702505112 0.7482156753540039
vn 0.8573470711708069 -0.4822339117527008 -0.18001756072044373
vn 0.0014667301438748837 -0.8443930149078369 0.5357222557067871
vn -0.5549529790878296 -0.6701868176460266 -0.4928252100944519
vn -0.7325432896614075 0.043541811406612396 0.6793264746665955
vn 0.0014667301438748837 -0.8443930149078369 0.5357222557067871
vn 0.33346372842788696 -0.7127840518951416 -0.617042064666748
vn -0.5549529790878296 -0.6701868176460266 -0.4928252100944519
vn 0.0014667301438748837 -0.8443930149078369 0.5357222557067871
vn 0.8573470711708069 -0.4822339117527008 -0.18001756072044373
vn 0.33346372842788696 -0.7127840518951416 -0.617042064666748
vt 0.9882702231407166 0.6908777952194214
vt 0.5582894682884216 0.9686330147087574
vt 0.4109876751899719 0.8192115426063538
vt 0.2636859714984894 0.6697899699211121
vt 0.031245598569512367 0.991043196991086
vt 0.0024999999441206455 0.822608545422554
vt 0.9974804520606995 0.007390618324279785
vt 0.5020783543586731 0.22628360986709595
vt 0.5261598229408264 0.011469066143035889
vt 0.019020885229110718 0.1826934814453125
vt 0.002500087022781372 0.020584940910339355
vt 0.9921531081199646 0.5438733696937561
vt 0.3301330506801605 0.6543823480606079
vt 0.4779100716114044 0.4333644509315491
vt 0.0024999999441206455 0.5438733696937561
vt 0.0024999999441206455 0.4050460457801819
vt 0.0024999999441206455 0.6827006936073303
vt 0.0025000572204589844 0.22040659189224243
vt 0.7113845348358154 0.2545185685157776
vt 0.645074725151062 0.4574301838874817
vt 0.9812420606613159 0.3936445713043213
vt 0.9975001811981201 0.23150157928466797
vt 0.9882702231407166 0.6908777952194214
vt 0.5582894682884216 0.9686330147087574
vt 0.4109876751899719 0.8192115426063538
vt 0.2636859714984894 0.6697899699211121
vt 0.031245598569512367 0.991043196991086
vt 0.0024999999441206455 0.822608545422554
vt 0.9974804520606995 0.007390618324279785
vt 0.5020783543586731 0.22628360986709595
vt 0.5261598229408264 0.011469066143035889
vt 0.019020885229110718 0.1826934814453125
vt 0.002500087022781372 0.020584940910339355
vt 0.9921531081199646 0.5438733696937561
vt 0.3301330506801605 0.6543823480606079
vt 0.4779100716114044 0.4333644509315491
vt 0.0024999999441206455 0.5438733696937561
vt 0.0024999999441206455 0.4050460457801819
vt 0.0024999999441206455 0.6827006936073303
vt 0.0025000572204589844 0.22040659189224243
vt 0.7113845348358154 0.2545185685157776
vt 0.645074725151062 0.4574301838874817
vt 0.9812420606613159 0.3936445713043213
vt 0.9975001811981201 0.23150157928466797
vt 0.9882702231407166 0.6908777952194214
vt 0.5582894682884216 0.9686330147087574
vt 0.4109876751899719 0.8192115426063538
vt 0.2636859714984894 0.6697899699211121
vt 0.031245598569512367 0.991043196991086
vt 0.0024999999441206455 0.822608545422554
vt 0.9974804520606995 0.007390618324279785
vt 0.5020783543586731 0.22628360986709595
vt 0.5261598229408264 0.011469066143035889
vt 0.019020885229110718 0.1826934814453125
vt 0.002500087022781372 0.020584940910339355
vt 0.9921531081199646 0.5438733696937561
vt 0.3301330506801605 0.6543823480606079
vt 0.4779100716114044 0.4333644509315491
vt 0.0024999999441206455 0.5438733696937561
vt 0.0024999999441206455 0.4050460457801819
vt 0.0024999999441206455 0.6827006936073303
vt 0.0025000572204589844 0.22040659189224243
vt 0.7113845348358154 0.2545185685157776
vt 0.645074725151062 0.4574301838874817
vt 0.9812420606613159 0.3936445713043213
vt 0.9975001811981201 0.23150157928466797
vt 0.9882702231407166 0.6908777952194214
vt 0.5582894682884216 0.9686330147087574
vt 0.4109876751899719 0.8192115426063538
vt 0.2636859714984894 0.6697899699211121
vt 0.031245598569512367 0.991043196991086
vt 0.0024999999441206455 0.822608545422554
vt 0.9974804520606995 0.007390618324279785
vt 0.5020783543586731 0.22628360986709595
vt 0.5261598229408264 0.011469066143035889
vt 0.019020885229110718 0.1826934814453125
vt 0.002500087022781372 0.020584940910339355
vt 0.9921531081199646 0.5438733696937561
vt 0.3301330506801605 0.6543823480606079
vt 0.4779100716114044 0.4333644509315491
vt 0.0024999999441206455 0.5438733696937561
vt 0.0024999999441206455 0.4050460457801819
vt 0.0024999999441206455 0.6827006936073303
vt 0.0025000572204589844 0.22040659189224243
vt 0.7113845348358154 0.2545185685157776
vt 0.645074725151062 0.4574301838874817
vt 0.9812420606613159 0.3936445713043213
vt 0.9975001811981201 0.23150157928466797
vt 0.9882702231407166 0.6908777952194214
vt 0.5582894682884216 0.9686330147087574
vt 0.4109876751899719 0.8192115426063538
vt 0.2636859714984894 0.6697899699211121
vt 0.031245598569512367 0.991043196991086
vt 0.0024999999441206455 0.822608545422554
vt 0.9974804520606995 0.007390618324279785
vt 0.5020783543586731 0.22628360986709595
vt 0.5261598229408264 0.011469066143035889
vt 0.019020885229110718 0.1826934814453125
vt 0.002500087022781372 0.020584940910339355
vt 0.9921531081199646 0.5438733696937561
vt 0.3301330506801605 0.6543823480606079
vt 0.4779100716114044 0.4333644509315491
vt 0.0024999999441206455 0.5438733696937561
vt 0.0024999999441206455 0.4050460457801819
vt 0.0024999999441206455 0.6827006936073303
vt 0.0025000572204589844 0.22040659189224243
vt 0.7113845348358154 0.2545185685157776
vt 0.645074725151062 0.4574301838874817
vt 0.9812420606613159 0.3936445713043213
vt 0.9975001811981201 0.23150157928466797
vt 0.9882702231407166 0.6908777952194214
vt 0.5582894682884216 0.9686330147087574
vt 0.4109876751899719 0.8192115426063538
vt 0.2636859714984894 0.6697899699211121
vt 0.031245598569512367 0.991043196991086
vt 0.0024999999441206455 0.822608545422554
vt 0.9974804520606995 0.007390618324279785
vt 0.5020783543586731 0.22628360986709595
vt 0.5261598229408264 0.011469066143035889
vt 0.019020885229110718 0.1826934814453125
vt 0.002500087022781372 0.020584940910339355
vt 0.9921531081199646 0.5438733696937561
vt 0.3301330506801605 0.6543823480606079
vt 0.4779100716114044 0.4333644509315491
vt 0.0024999999441206455 0.5438733696937561
vt 0.0024999999441206455 0.4050460457801819
vt 0.0024999999441206455 0.6827006936073303
vt 0.0025000572204589844 0.22040659189224243
vt 0.7113845348358154 0.2545185685157776
vt 0.645074725151062 0.4574301838874817
vt 0.9812420606613159 0.3936445713043213
vt 0.9975001811981201 0.23150157928466797
vt 0.9882702231407166 0.6908777952194214
vt 0.5582894682884216 0.9686330147087574
vt 0.4109876751899719 0.8192115426063538
vt 0.2636859714984894 0.6697899699211121
vt 0.031245598569512367 0.991043196991086
vt 0.0024999999441206455 0.822608545422554
vt 0.9974804520606995 0.007390618324279785
vt 0.5020783543586731 0.22628360986709595
vt 0.5261598229408264 0.011469066143035889
vt 0.019020885229110718 0.1826934814453125
vt 0.002500087022781372 0.020584940910339355
vt 0.9921531081199646 0.5438733696937561
vt 0.3301330506801605 0.6543823480606079
vt 0.4779100716114044 0.4333644509315491
vt 0.0024999999441206455 0.5438733696937561
vt 0.0024999999441206455 0.4050460457801819
vt 0.0024999999441206455 0.6827006936073303
vt 0.0025000572204589844 0.22040659189224243
vt 0.7113845348358154 0.2545185685157776
vt 0.645074725151062 0.4574301838874817
vt 0.9812420606613159 0.3936445713043213
vt 0.9975001811981201 0.23150157928466797
vt 0.9882702231407166 0.6908777952194214
vt 0.5582894682884216 0.9686330147087574
vt 0.4109876751899719 0.8192115426063538
vt 0.2636859714984894 0.6697899699211121
vt 0.031245598569512367 0.991043196991086
vt 0.0024999999441206455 0.822608545422554
vt 0.9974804520606995 0.007390618324279785
vt 0.5020783543586731 0.22628360986709595
vt 0.5261598229408264 0.011469066143035889
vt 0.019020885229110718 0.1826934814453125
vt 0.002500087022781372 0.020584940910339355
vt 0.9921531081199646 0.5438733696937561
vt 0.3301330506801605 0.6543823480606079
vt 0.4779100716114044 0.4333644509315491
vt 0.0024999999441206455 0.5438733696937561
vt 0.0024999999441206455 0.4050460457801819
vt 0.0024999999441206455 0.6827006936073303
vt 0.0025000572204589844 0.22040659189224243
vt 0.7113845348358154 0.2545185685157776
vt 0.645074725151062 0.4574301838874817
vt 0.9812420606613159 0.3936445713043213
vt 0.9975001811981201 0.23150157928466797
vt 0.9882702231407166 0.6908777952194214
vt 0.5582894682884216 0.9686330147087574
vt 0.4109876751899719 0.8192115426063538
vt 0.2636859714984894 0.6697899699211121
vt 0.031245598569512367 0.991043196991086
vt 0.0024999999441206455 0.822608545422554
vt 0.9974804520606995 0.007390618324279785
vt 0.5020783543586731 0.22628360986709595
vt 0.5261598229408264 0.011469066143035889
vt 0.019020885229110718 0.1826934814453125
vt 0.002500087022781372 0.020584940910339355
vt 0.9921531081199646 0.5438733696937561
vt 0.3301330506801605 0.6543823480606079
vt 0.4779100716114044 0.4333644509315491
vt 0.0024999999441206455 0.5438733696937561
vt 0.0024999999441206455 0.4050460457801819
vt 0.0024999999441206455 0.6827006936073303
vt 0.0025000572204589844 0.22040659189224243
vt 0.7113845348358154 0.2545185685157776
vt 0.645074725151062 0.4574301838874817
vt 0.9812420606613159 0.3936445713043213
vt 0.9975001811981201 0.23150157928466797
vt 0.9882702231407166 0.6908777952194214
vt 0.5582894682884216 0.9686330147087574
vt 0.4109876751899719 0.8192115426063538
vt 0.2636859714984894 0.6697899699211121
vt 0.031245598569512367 0.991043196991086
vt 0.0024999999441206455 0.822608545422554
vt 0.9974804520606995 0.007390618324279785
vt 0.5020783543586731 0.22628360986709595
vt 0.5261598229408264 0.011469066143035889
vt 0.019020885229110718 0.1826934814453125
vt 0.002500087022781372 0.020584940910339355
vt 0.9921531081199646 0.5438733696937561
vt 0.3301330506801605 0.6543823480606079
vt 0.4779100716114044 0.4333644509315491
vt 0.0024999999441206455 0.5438733696937561
vt 0.0024999999441206455 0.4050460457801819
vt 0.0024999999441206455 0.6827006936073303
vt 0.0025000572204589844 0.22040659189224243
vt 0.7113845348358154 0.2545185685157776
vt 0.645074725151062 0.4574301838874817
vt 0.9812420606613159 0.3936445713043213
vt 0.9975001811981201 0.23150157928466797
vt 0.9882702231407166 0.6908777952194214
vt 0.5582894682884216 0.9686330147087574
vt 0.4109876751899719 0.8192115426063538
vt 0.2636859714984894 0.6697899699211121
vt 0.031245598569512367 0.991043196991086
vt 0.0024999999441206455 0.822608545422554
vt 0.9974804520606995 0.007390618324279785
vt 0.5020783543586731 0.22628360986709595
vt 0.5261598229408264 0.011469066143035889
vt 0.019020885229110718 0.1826934814453125
vt 0.002500087022781372 0.020584940910339355
vt 0.9921531081199646 0.5438733696937561
vt 0.3301330506801605 0.6543823480606079
vt 0.4779100716114044 0.4333644509315491
vt 0.0024999999441206455 0.5438733696937561
vt 0.0024999999441206455 0.4050460457801819
vt 0.0024999999441206455 0.6827006936073303
vt 0.0025000572204589844 0.22040659189224243
vt 0.7113845348358154 0.2545185685157776
vt 0.645074725151062 0.4574301838874817
vt 0.9812420606613159 0.3936445713043213
vt 0.9975001811981201 0.23150157928466797
vt 0.9882702231407166 0.6908777952194214
vt 0.5582894682884216 0.9686330147087574
vt 0.4109876751899719 0.8192115426063538
vt 0.2636859714984894 0.6697899699211121
vt 0.031245598569512367 0.991043196991086
vt 0.0024999999441206455 0.822608545422554
vt 0.9974804520606995 0.007390618324279785
vt 0.5020783543586731 0.22628360986709595
vt 0.5261598229408264 0.011469066143035889
vt 0.019020885229110718 0.1826934814453125
vt 0.002500087022781372 0.020584940910339355
vt 0.9921531081199646 0.5438733696937561
vt 0.3301330506801605 0.6543823480606079
vt 0.4779100716114044 0.4333644509315491
vt 0.0024999999441206455 0.5438733696937561
vt 0.0024999999441206455 0.4050460457801819
vt 0.0024999999441206455 0.6827006936073303
vt 0.0025000572204589844 0.22040659189224243
vt 0.7113845348358154 0.2545185685157776
vt 0.645074725151062 0.4574301838874817
vt 0.9812420606613159 0.3936445713043213
vt 0.9975001811981201 0.23150157928466797
vt 0.9882702231407166 0.6908777952194214
vt 0.5582894682884216 0.9686330147087574
vt 0.4109876751899719 0.8192115426063538
vt 0.2636859714984894 0.6697899699211121
vt 0.9974804520606995 0.007390618324279785
vt 0.5020783543586731 0.22628360986709595
vt 0.5261598229408264 0.011469066143035889
vt 0.9921531081199646 0.5438733696937561
vt 0.3301330506801605 0.6543823480606079
vt 0.4779100716114044 0.4333644509315491
vt 0.0025000572204589844 0.22040659189224243
vt 0.7113845348358154 0.2545185685157776
vt 0.645074725151062 0.4574301838874817
vt 0.9882702231407166 0.6908777952194214
vt 0.5582894682884216 0.9686330147087574
vt 0.4109876751899719 0.8192115426063538
vt 0.2636859714984894 0.6697899699211121
vt 0.9974804520606995 0.007390618324279785
vt 0.5020783543586731 0.22628360986709595
vt 0.5261598229408264 0.011469066143035889
vt 0.9921531081199646 0.5438733696937561
vt 0.3301330506801605 0.6543823480606079
vt 0.4779100716114044 0.4333644509315491
vt 0.0025000572204589844 0.22040659189224243
vt 0.7113845348358154 0.2545185685157776
vt 0.645074725151062 0.4574301838874817
vt 0.9882702231407166 0.6908777952194214
vt 0.5582894682884216 0.9686330147087574
vt 0.4109876751899719 0.8192115426063538
vt 0.2636859714984894 0.6697899699211121
vt 0.9974804520606995 0.007390618324279785
vt 0.5020783543586731 0.22628360986709595
vt 0.5261598229408264 0.011469066143035889
vt 0.9921531081199646 0.5438733696937561
vt 0.3301330506801605 0.6543823480606079
vt 0.4779100716114044 0.4333644509315491
vt 0.0025000572204589844 0.22040659189224243
vt 0.7113845348358154 0.2545185685157776
vt 0.645074725151062 0.4574301838874817
vt 0.9882702231407166 0.6908777952194214
vt 0.5582894682884216 0.9686330147087574
vt 0.4109876751899719 0.8192115426063538
vt 0.2636859714984894 0.6697899699211121
vt 0.9974804520606995 0.007390618324279785
vt 0.5020783543586731 0.22628360986709595
vt 0.5261598229408264 0.011469066143035889
vt 0.9921531081199646 0.5438733696937561
vt 0.3301330506801605 0.6543823480606079
vt 0.4779100716114044 0.4333644509315491
vt 0.0025000572204589844 0.22040659189224243
vt 0.7113845348358154 0.2545185685157776
vt 0.645074725151062 0.4574301838874817
vt 0.9882702231407166 0.6908777952194214
vt 0.5582894682884216 0.9686330147087574
vt 0.4109876751899719 0.8192115426063538
vt 0.2636859714984894 0.6697899699211121
vt 0.9974804520606995 0.007390618324279785
vt 0.5020783543586731 0.22628360986709595
vt 0.5261598229408264 0.011469066143035889
vt 0.9921531081199646 0.5438733696937561
vt 0.3301330506801605 0.6543823480606079
vt 0.4779100716114044 0.4333644509315491
vt 0.0025000572204589844 0.22040659189224243
vt 0.7113845348358154 0.2545185685157776
vt 0.645074725151062 0.4574301838874817
vt 0.9882702231407166 0.6908777952194214
vt 0.5582894682884216 0.9686330147087574
vt 0.4109876751899719 0.8192115426063538
vt 0.2636859714984894 0.6697899699211121
vt 0.9974804520606995 0.007390618324279785
vt 0.5020783543586731 0.22628360986709595
vt 0.5261598229408264 0.011469066143035889
vt 0.9921531081199646 0.5438733696937561
vt 0.3301330506801605 0.6543823480606079
vt 0.4779100716114044 0.4333644509315491
vt 0.0025000572204589844 0.22040659189224243
vt 0.7113845348358154 0.2545185685157776
vt 0.645074725151062 0.4574301838874817
vt 0.9882702231407166 0.6908777952194214
vt 0.5582894682884216 0.9686330147087574
vt 0.4109876751899719 0.8192115426063538
vt 0.2636859714984894 0.6697899699211121
vt 0.9974804520606995 0.007390618324279785
vt 0.5020783543586731 0.22628360986709595
vt 0.5261598229408264 0.011469066143035889
vt 0.9921531081199646 0.5438733696937561
vt 0.3301330506801605 0.6543823480606079
vt 0.4779100716114044 0.4333644509315491
vt 0.0025000572204589844 0.22040659189224243
vt 0.7113845348358154 0.2545185685157776
vt 0.645074725151062 0.4574301838874817
vt 0.9882702231407166 0.6908777952194214
vt 0.5582894682884216 0.9686330147087574
vt 0.4109876751899719 0.8192115426063538
vt 0.2636859714984894 0.6697899699211121
vt 0.9974804520606995 0.007390618324279785
vt 0.5020783543586731 0.22628360986709595
vt 0.5261598229408264 0.011469066143035889
vt 0.9921531081199646 0.5438733696937561
vt 0.3301330506801605 0.6543823480606079
vt 0.4779100716114044 0.4333644509315491
vt 0.0025000572204589844 0.22040659189224243
vt 0.7113845348358154 0.2545185685157776
vt 0.645074725151062 0.4574301838874817

g eff_mdl_ice02
s 1
usemtl eff_mdl_ice02
f 3/3/3 2/2/2 1/1/1 
f 4/4/4 3/3/3 1/1/1 
f 2/2/2 3/3/3 5/5/5 
f 6/6/6 5/5/5 3/3/3 
f 3/3/3 4/4/4 6/6/6 
f 9/9/9 8/8/8 7/7/7 
f 8/8/8 9/9/9 10/10/10 
f 11/11/11 10/10/10 9/9/9 
f 14/14/14 13/13/13 12/12/12 
f 13/13/13 14/14/14 15/15/15 
f 16/16/16 15/15/15 14/14/14 
f 15/15/15 17/17/17 13/13/13 
f 20/20/20 19/19/19 18/18/18 
f 19/19/19 20/20/20 21/21/21 
f 21/21/21 22/22/22 19/19/19 
f 25/25/25 24/24/24 23/23/23 
f 26/26/26 25/25/25 23/23/23 
f 24/24/24 25/25/25 27/27/27 
f 28/28/28 27/27/27 25/25/25 
f 25/25/25 26/26/26 28/28/28 
f 31/31/31 30/30/30 29/29/29 
f 30/30/30 31/31/31 32/32/32 
f 33/33/33 32/32/32 31/31/31 
f 36/36/36 35/35/35 34/34/34 
f 35/35/35 36/36/36 37/37/37 
f 38/38/38 37/37/37 36/36/36 
f 37/37/37 39/39/39 35/35/35 
f 42/42/42 41/41/41 40/40/40 
f 41/41/41 42/42/42 43/43/43 
f 43/43/43 44/44/44 41/41/41 
f 47/47/47 46/46/46 45/45/45 
f 48/48/48 47/47/47 45/45/45 
f 46/46/46 47/47/47 49/49/49 
f 50/50/50 49/49/49 47/47/47 
f 47/47/47 48/48/48 50/50/50 
f 53/53/53 52/52/52 51/51/51 
f 52/52/52 53/53/53 54/54/54 
f 55/55/55 54/54/54 53/53/53 
f 58/58/58 57/57/57 56/56/56 
f 57/57/57 58/58/58 59/59/59 
f 60/60/60 59/59/59 58/58/58 
f 59/59/59 61/61/61 57/57/57 
f 64/64/64 63/63/63 62/62/62 
f 63/63/63 64/64/64 65/65/65 
f 65/65/65 66/66/66 63/63/63 
f 69/69/69 68/68/68 67/67/67 
f 70/70/70 69/69/69 67/67/67 
f 68/68/68 69/69/69 71/71/71 
f 72/72/72 71/71/71 69/69/69 
f 69/69/69 70/70/70 72/72/72 
f 75/75/75 74/74/74 73/73/73 
f 74/74/74 75/75/75 76/76/76 
f 77/77/77 76/76/76 75/75/75 
f 80/80/80 79/79/79 78/78/78 
f 79/79/79 80/80/80 81/81/81 
f 82/82/82 81/81/81 80/80/80 
f 81/81/81 83/83/83 79/79/79 
f 86/86/86 85/85/85 84/84/84 
f 85/85/85 86/86/86 87/87/87 
f 87/87/87 88/88/88 85/85/85 
f 91/91/91 90/90/90 89/89/89 
f 92/92/92 91/91/91 89/89/89 
f 90/90/90 91/91/91 93/93/93 
f 94/94/94 93/93/93 91/91/91 
f 91/91/91 92/92/92 94/94/94 
f 97/97/97 96/96/96 95/95/95 
f 96/96/96 97/97/97 98/98/98 
f 99/99/99 98/98/98 97/97/97 
f 102/102/102 101/101/101 100/100/100 
f 101/101/101 102/102/102 103/103/103 
f 104/104/104 103/103/103 102/102/102 
f 103/103/103 105/105/105 101/101/101 
f 108/108/108 107/107/107 106/106/106 
f 107/107/107 108/108/108 109/109/109 
f 109/109/109 110/110/110 107/107/107 
f 113/113/113 112/112/112 111/111/111 
f 114/114/114 113/113/113 111/111/111 
f 112/112/112 113/113/113 115/115/115 
f 116/116/116 115/115/115 113/113/113 
f 113/113/113 114/114/114 116/116/116 
f 119/119/119 118/118/118 117/117/117 
f 118/118/118 119/119/119 120/120/120 
f 121/121/121 120/120/120 119/119/119 
f 124/124/124 123/123/123 122/122/122 
f 123/123/123 124/124/124 125/125/125 
f 126/126/126 125/125/125 124/124/124 
f 125/125/125 127/127/127 123/123/123 
f 130/130/130 129/129/129 128/128/128 
f 129/129/129 130/130/130 131/131/131 
f 131/131/131 132/132/132 129/129/129 
f 135/135/135 134/134/134 133/133/133 
f 136/136/136 135/135/135 133/133/133 
f 134/134/134 135/135/135 137/137/137 
f 138/138/138 137/137/137 135/135/135 
f 135/135/135 136/136/136 138/138/138 
f 141/141/141 140/140/140 139/139/139 
f 140/140/140 141/141/141 142/142/142 
f 143/143/143 142/142/142 141/141/141 
f 146/146/146 145/145/145 144/144/144 
f 145/145/145 146/146/146 147/147/147 
f 148/148/148 147/147/147 146/146/146 
f 147/147/147 149/149/149 145/145/145 
f 152/152/152 151/151/151 150/150/150 
f 151/151/151 152/152/152 153/153/153 
f 153/153/153 154/154/154 151/151/151 
f 157/157/157 156/156/156 155/155/155 
f 158/158/158 157/157/157 155/155/155 
f 156/156/156 157/157/157 159/159/159 
f 160/160/160 159/159/159 157/157/157 
f 157/157/157 158/158/158 160/160/160 
f 163/163/163 162/162/162 161/161/161 
f 162/162/162 163/163/163 164/164/164 
f 165/165/165 164/164/164 163/163/163 
f 168/168/168 167/167/167 166/166/166 
f 167/167/167 168/168/168 169/169/169 
f 170/170/170 169/169/169 168/168/168 
f 169/169/169 171/171/171 167/167/167 
f 174/174/174 173/173/173 172/172/172 
f 173/173/173 174/174/174 175/175/175 
f 175/175/175 176/176/176 173/173/173 
f 179/179/179 178/178/178 177/177/177 
f 180/180/180 179/179/179 177/177/177 
f 178/178/178 179/179/179 181/181/181 
f 182/182/182 181/181/181 179/179/179 
f 179/179/179 180/180/180 182/182/182 
f 185/185/185 184/184/184 183/183/183 
f 184/184/184 185/185/185 186/186/186 
f 187/187/187 186/186/186 185/185/185 
f 190/190/190 189/189/189 188/188/188 
f 189/189/189 190/190/190 191/191/191 
f 192/192/192 191/191/191 190/190/190 
f 191/191/191 193/193/193 189/189/189 
f 196/196/196 195/195/195 194/194/194 
f 195/195/195 196/196/196 197/197/197 
f 197/197/197 198/198/198 195/195/195 
f 201/201/201 200/200/200 199/199/199 
f 202/202/202 201/201/201 199/199/199 
f 200/200/200 201/201/201 203/203/203 
f 204/204/204 203/203/203 201/201/201 
f 201/201/201 202/202/202 204/204/204 
f 207/207/207 206/206/206 205/205/205 
f 206/206/206 207/207/207 208/208/208 
f 209/209/209 208/208/208 207/207/207 
f 212/212/212 211/211/211 210/210/210 
f 211/211/211 212/212/212 213/213/213 
f 214/214/214 213/213/213 212/212/212 
f 213/213/213 215/215/215 211/211/211 
f 218/218/218 217/217/217 216/216/216 
f 217/217/217 218/218/218 219/219/219 
f 219/219/219 220/220/220 217/217/217 
f 223/223/223 222/222/222 221/221/221 
f 224/224/224 223/223/223 221/221/221 
f 222/222/222 223/223/223 225/225/225 
f 226/226/226 225/225/225 223/223/223 
f 223/223/223 224/224/224 226/226/226 
f 229/229/229 228/228/228 227/227/227 
f 228/228/228 229/229/229 230/230/230 
f 231/231/231 230/230/230 229/229/229 
f 234/234/234 233/233/233 232/232/232 
f 233/233/233 234/234/234 235/235/235 
f 236/236/236 235/235/235 234/234/234 
f 235/235/235 237/237/237 233/233/233 
f 240/240/240 239/239/239 238/238/238 
f 239/239/239 240/240/240 241/241/241 
f 241/241/241 242/242/242 239/239/239 
f 245/245/245 244/244/244 243/243/243 
f 246/246/246 245/245/245 243/243/243 
f 244/244/244 245/245/245 247/247/247 
f 248/248/248 247/247/247 245/245/245 
f 245/245/245 246/246/246 248/248/248 
f 251/251/251 250/250/250 249/249/249 
f 250/250/250 251/251/251 252/252/252 
f 253/253/253 252/252/252 251/251/251 
f 256/256/256 255/255/255 254/254/254 
f 255/255/255 256/256/256 257/257/257 
f 258/258/258 257/257/257 256/256/256 
f 257/257/257 259/259/259 255/255/255 
f 262/262/262 261/261/261 260/260/260 
f 261/261/261 262/262/262 263/263/263 
f 263/263/263 264/264/264 261/261/261 
f 267/267/267 266/266/266 265/265/265 
f 268/268/268 267/267/267 265/265/265 
f 271/271/271 270/270/270 269/269/269 
f 274/274/274 273/273/273 272/272/272 
f 277/277/277 276/276/276 275/275/275 
f 280/280/280 279/279/279 278/278/278 
f 281/281/281 280/280/280 278/278/278 
f 284/284/284 283/283/283 282/282/282 
f 287/287/287 286/286/286 285/285/285 
f 290/290/290 289/289/289 288/288/288 
f 293/293/293 292/292/292 291/291/291 
f 294/294/294 293/293/293 291/291/291 
f 297/297/297 296/296/296 295/295/295 
f 300/300/300 299/299/299 298/298/298 
f 303/303/303 302/302/302 301/301/301 
f 306/306/306 305/305/305 304/304/304 
f 307/307/307 306/306/306 304/304/304 
f 310/310/310 309/309/309 308/308/308 
f 313/313/313 312/312/312 311/311/311 
f 316/316/316 315/315/315 314/314/314 
f 319/319/319 318/318/318 317/317/317 
f 320/320/320 319/319/319 317/317/317 
f 323/323/323 322/322/322 321/321/321 
f 326/326/326 325/325/325 324/324/324 
f 329/329/329 328/328/328 327/327/327 
f 332/332/332 331/331/331 330/330/330 
f 333/333/333 332/332/332 330/330/330 
f 336/336/336 335/335/335 334/334/334 
f 339/339/339 338/338/338 337/337/337 
f 342/342/342 341/341/341 340/340/340 
f 345/345/345 344/344/344 343/343/343 
f 346/346/346 345/345/345 343/343/343 
f 349/349/349 348/348/348 347/347/347 
f 352/352/352 351/351/351 350/350/350 
f 355/355/355 354/354/354 353/353/353 
f 358/358/358 357/357/357 356/356/356 
f 359/359/359 358/358/358 356/356/356 
f 362/362/362 361/361/361 360/360/360 
f 365/365/365 364/364/364 363/363/363 
f 368/368/368 367/367/367 366/366/366 

