v -0.05967498570680618 -0.05967500060796738 0.11967500299215317
v 0.05967498570680618 0.05967500060796738 0.11967500299215317
v 0.05967498570680618 -0.05967500060796738 0.11967500299215317
v -0.05967498570680618 0.05967500060796738 0.11967500299215317
v -0.05967498570680618 -0.05967500060796738 0.00025371371884830296
v 0.05967498570680618 -0.05967500060796738 0.11967500299215317
v 0.05967498570680618 -0.05967500060796738 0.00021386206208262593
v -0.05967498570680618 -0.05967500060796738 0.11967500299215317
v 0.05967498570680618 -0.05967500060796738 0.00021386206208262593
v 0.05967498570680618 0.05967500060796738 0.11967500299215317
v 0.05967498570680618 0.05967500060796738 0.00025371849187649786
v 0.05967498570680618 -0.05967500060796738 0.11967500299215317
v 0.05967498570680618 0.05967500060796738 0.00025371849187649786
v -0.05967498570680618 0.05967500060796738 0.11967500299215317
v -0.05967498570680618 0.05967500060796738 0.00025371849187649786
v 0.05967498570680618 0.05967500060796738 0.11967500299215317
v -0.05967498570680618 0.05967500060796738 0.00025371849187649786
v -0.05967498570680618 -0.05967500060796738 0.11967500299215317
v -0.05967498570680618 -0.05967500060796738 0.00025371371884830296
v -0.05967498570680618 0.05967500060796738 0.11967500299215317
v 0.016504822298884392 -0.020385097712278366 0.12174604833126068
v 0.03450942784547806 -0.012707085348665714 0.12174669653177261
v 0.031905822455883026 -0.038745272904634476 0.12174452841281891
v 0.049769897013902664 -0.04410923272371292 0.12174408882856369
v 0.01730148307979107 0.014977297745645046 0.12174902856349945
v 0.004415588453412056 0.00879649631679058 0.12174851447343826
v 0.023699339479207993 -0.056614115834236145 0.12174303829669952
v -0.016504822298884392 -0.020385097712278366 0.12174607068300247
v -0.031905822455883026 -0.038745272904634476 0.12174452841281891
v -0.03450927510857582 -0.012707085348665714 0.12174669653177261
v -0.049769897013902664 -0.04410923272371292 0.12174408882856369
v -0.017301330342888832 0.014977297745645046 0.12174902856349945
v -0.004415435716509819 0.00879649631679058 0.12174851447343826
v -0.023699339479207993 -0.056614115834236145 0.12174303829669952
v 0.014813689514994621 0.0011062956182286143 0.12077607214450836
v 0.0055699157528579235 0.0034897183068096638 0.12910254299640656
v 0.014813689514994621 0.001105456380173564 0.13076671957969666
v 0.0055699157528579235 0.003490404924377799 0.12058113515377045
v 0.037595365196466446 -0.008816514164209366 0.12836551666259766
v 0.03402404859662056 -0.004545101895928383 0.1379542350769043
v 0.03402404859662056 -0.004543747752904892 0.1217670887708664
v 0.0374227911233902 0.012225298210978508 0.12176849693059921
v 0.037595365196466446 -0.008816514164209366 0.12836551666259766
v 0.040994107723236084 0.012224764563143253 0.12836728990077972
v 0.03402404859662056 -0.004543747752904892 0.1217670887708664
v 0.03402404859662056 0.028994325548410416 0.12176989018917084
v 0.037595365196466446 0.033265985548496246 0.12836907804012299
v 0.03402404859662056 0.028994325548410416 0.12176989018917084
v 0.037595365196466446 0.033265985548496246 0.12836907804012299
v 0.014813689514994621 0.023344453424215317 0.12077793478965759
v 0.014813689514994621 0.023343652486801147 0.1307685524225235
v 0.0072073363699018955 0.02096053585410118 0.11905813962221146
v 0.0072073363699018955 0.020959658548235893 0.12910398840904236
v 0.03402404859662056 0.028992990031838417 0.13795705139636993
v 0.014813689514994621 0.001105456380173564 0.13076671957969666
v 0.0374227911233902 0.012223963625729084 0.1379556506872177
v 0.03402404859662056 -0.004545101895928383 0.1379542350769043
v 0.014813689514994621 0.023343652486801147 0.1307685524225235
v 0.0072073363699018955 0.020959658548235893 0.12910398840904236
v 0.0055699157528579235 0.0034897183068096638 0.12910254299640656
v 0.040994107723236084 0.012224764563143253 0.12836728990077972
v 0.03402404859662056 0.028992990031838417 0.13795705139636993
v 0.037595365196466446 0.033265985548496246 0.12836907804012299
v 0.037595365196466446 -0.008816514164209366 0.12836551666259766
v -0.014774322509765625 0.0011062956182286143 0.12077607214450836
v -0.005530547816306353 0.0034897183068096638 0.12910254299640656
v -0.005530547816306353 0.003490404924377799 0.12058113515377045
v -0.014774322509765625 0.001105456380173564 0.13076671957969666
v -0.0375560000538826 -0.008816514164209366 0.12836551666259766
v -0.033984679728746414 -0.004545101895928383 0.1379542350769043
v -0.033984679728746414 -0.004543747752904892 0.1217670887708664
v -0.03738342225551605 0.012225298210978508 0.12176849693059921
v -0.0375560000538826 -0.008816514164209366 0.12836551666259766
v -0.033984679728746414 -0.004543747752904892 0.1217670887708664
v -0.04095474258065224 0.012224764563143253 0.12836728990077972
v -0.033984679728746414 0.028994325548410416 0.12176989018917084
v -0.0375560000538826 0.033265985548496246 0.12836907804012299
v -0.033984679728746414 0.028994325548410416 0.12176989018917084
v -0.014774322509765625 0.023344453424215317 0.12077793478965759
v -0.0375560000538826 0.033265985548496246 0.12836907804012299
v -0.014774322509765625 0.023343652486801147 0.1307685524225235
v -0.007167968433350325 0.02096053585410118 0.11905813962221146
v -0.007167968433350325 0.020959658548235893 0.12910398840904236
v -0.033984679728746414 0.028992990031838417 0.13795705139636993
v -0.014774322509765625 0.001105456380173564 0.13076671957969666
v -0.033984679728746414 -0.004545101895928383 0.1379542350769043
v -0.03738342225551605 0.012223963625729084 0.1379556506872177
v -0.014774322509765625 0.023343652486801147 0.1307685524225235
v -0.007167968433350325 0.020959658548235893 0.12910398840904236
v -0.005530547816306353 0.0034897183068096638 0.12910254299640656
v -0.04095474258065224 0.012224764563143253 0.12836728990077972
v -0.033984679728746414 0.028992990031838417 0.13795705139636993
v -0.0375560000538826 0.033265985548496246 0.12836907804012299
v -0.0375560000538826 -0.008816514164209366 0.12836551666259766
v -0.005530547816306353 0.003490404924377799 0.12058113515377045
v 0.0055699157528579235 0.0034897183068096638 0.12910254299640656
v 0.0055699157528579235 0.003490404924377799 0.12058113515377045
v -0.005530547816306353 0.0034897183068096638 0.12910254299640656
v 0.0072073363699018955 0.020959658548235893 0.12910398840904236
v -0.007167968433350325 0.020959658548235893 0.12910398840904236
v 0.0072073363699018955 0.02096053585410118 0.11905813962221146
v -0.007167968433350325 0.02096053585410118 0.11905813962221146
vn -0.0 0.0 1.0
vn -0.0 0.0 1.0
vn -0.0 0.0 1.0
vn -0.0 0.0 1.0
vn -0.0 -1.0 0.0
vn -0.0 -1.0 0.0
vn -0.0 -1.0 0.0
vn -0.0 -1.0 0.0
vn 1.0 0.0 0.0
vn 1.0 0.0 0.0
vn 1.0 0.0 0.0
vn 1.0 0.0 0.0
vn -0.0 1.0 0.0
vn -0.0 1.0 0.0
vn -0.0 1.0 0.0
vn -0.0 1.0 0.0
vn -1.0 0.0 0.0
vn -1.0 0.0 0.0
vn -1.0 0.0 0.0
vn -1.0 0.0 0.0
vn -1.7756387649114913e-07 -8.37423576740548e-05 1.0
vn -3.049829615520139e-07 -8.377798076253384e-05 1.0
vn -3.186772801200277e-07 -8.334752783412114e-05 1.0
vn -5.021253173254081e-07 -8.345703827217221e-05 1.0
vn 2.1386392745625926e-07 -8.41468499857001e-05 1.0
vn 3.9861890854808735e-07 -8.415101183345541e-05 1.0
vn -1.1583566106310172e-07 -8.320524648297578e-05 1.0
vn -6.204233500284317e-07 -8.35935352370143e-05 1.0
vn -2.2655673603821924e-07 -8.352860459126532e-05 1.0
vn -4.7487756660302693e-07 -8.357395563507453e-05 1.0
vn 5.021322522225091e-07 -8.345704554812983e-05 1.0
vn -3.309121154870809e-07 -8.361011714441702e-05 1.0
vn -1.3707924040318176e-07 -8.360573701793328e-05 1.0
vn -6.844554718554718e-07 -8.357278420589864e-05 1.0
vn -0.31239303946495056 -0.9491596817970276 -0.03881432116031647
vn -0.2497422993183136 -0.9683123230934143 -7.971729792188853e-05
vn -0.3336966335773468 -0.9419766068458557 0.036421678960323334
vn -0.2497408539056778 -0.968312680721283 -7.802557956892997e-05
vn -0.3444058299064636 -0.9386824369430542 -0.016125479713082314
vn -0.3616780638694763 -0.8942479491233826 0.2636466324329376
vn -0.233054980635643 -0.8689676523208618 -0.43655529618263245
vn 0.8743051290512085 0.014806102029979229 -0.48515090346336365
vn 0.9839810729026794 -0.17161104083061218 -0.04827836528420448
vn 0.9980705380439758 0.006564775016158819 -0.0617426298558712
vn 0.8183434009552002 -0.16581515967845917 -0.5502904653549194
vn 0.839606523513794 0.14278604090213776 -0.5240925550460815
vn 0.9857490658760071 0.15923047065734863 -0.054262563586235046
vn -0.23305530846118927 0.8690415620803833 -0.436408132314682
vn -0.34440523386001587 0.9386852979660034 -0.015968699008226395
vn -0.335008442401886 0.9415133595466614 -0.03635997697710991
vn -0.354545921087265 0.9343107342720032 0.036888107657432556
vn -0.2990872263908386 0.9542257189750671 7.951704901643097e-05
vn -0.2990926206111908 0.9542241096496582 8.33396115922369e-05
vn -0.3616774380207062 0.8942042589187622 0.26379549503326416
vn -0.2607480585575104 0.01992400735616684 0.9652013182640076
vn 0.49505680799484253 -7.231820200104266e-05 0.8688605427742004
vn 0.49632373452186584 -0.0799751728773117 0.8644458651542664
vn -0.27364009618759155 -0.015427719801664352 0.9617083668708801
vn -0.10621747374534607 0.4190771281719208 0.9017162919044495
vn -0.08051732182502747 -0.41545066237449646 0.906045138835907
vn 0.9980705380439758 0.006564775016158819 -0.0617426298558712
vn 0.4963223338127136 0.07983026653528214 0.8644600510597229
vn 0.9857490658760071 0.15923047065734863 -0.054262563586235046
vn 0.9839810729026794 -0.17161104083061218 -0.04827836528420448
vn 0.31239303946495056 -0.9491596817970276 -0.03881431743502617
vn 0.2497422993183136 -0.9683123230934143 -7.971729792188853e-05
vn 0.2497408539056778 -0.968312680721283 -7.802557956892997e-05
vn 0.3336966335773468 -0.9419766068458557 0.03642169013619423
vn 0.34440580010414124 -0.9386823177337646 -0.01612546294927597
vn 0.3616781234741211 -0.8942479491233826 0.26364666223526
vn 0.233054980635643 -0.8689676523208618 -0.43655529618263245
vn -0.8743051290512085 0.014806102029979229 -0.48515090346336365
vn -0.9839810729026794 -0.17161104083061218 -0.04827836528420448
vn -0.8183434009552002 -0.16581515967845917 -0.5502904653549194
vn -0.9980705380439758 0.00656476803123951 -0.0617426261305809
vn -0.839606523513794 0.14278604090213776 -0.5240925550460815
vn -0.9857490658760071 0.15923047065734863 -0.054262563586235046
vn 0.23305530846118927 0.8690415620803833 -0.43640807271003723
vn 0.335008442401886 0.9415133595466614 -0.0363599956035614
vn 0.34440523386001587 0.9386852979660034 -0.01596873812377453
vn 0.354545921087265 0.9343107342720032 0.03688808158040047
vn 0.2990872263908386 0.9542257189750671 7.951704901643097e-05
vn 0.2990926206111908 0.9542241096496582 8.33396115922369e-05
vn 0.3616774380207062 0.8942042589187622 0.2637954354286194
vn 0.2607480585575104 0.01992400735616684 0.9652013182640076
vn -0.49632373452186584 -0.0799751728773117 0.8644458651542664
vn -0.49505680799484253 -7.231128256535158e-05 0.8688605427742004
vn 0.27364009618759155 -0.015427712351083755 0.9617083668708801
vn 0.10621748864650726 0.4190770983695984 0.9017162919044495
vn 0.08051732182502747 -0.41545066237449646 0.906045138835907
vn -0.9980705380439758 0.00656476803123951 -0.0617426261305809
vn -0.4963223338127136 0.07983029633760452 0.8644600510597229
vn -0.9857490658760071 0.15923047065734863 -0.054262563586235046
vn -0.9839810729026794 -0.17161104083061218 -0.04827836528420448
vn -0.0 -1.0 -8.057892409851775e-05
vn -0.08051732182502747 -0.41545066237449646 0.906045138835907
vn -0.0 -1.0 -8.057891682256013e-05
vn 0.08051732182502747 -0.41545066237449646 0.906045138835907
vn -0.10621747374534607 0.4190771281719208 0.9017162919044495
vn 0.10621748864650726 0.4190770983695984 0.9017162919044495
vn -0.0 1.0 8.733759023016319e-05
vn -0.0 1.0 8.733757567824796e-05
vt 0.6696218252182007 0.5187959671020508
vt 0.780703067779541 0.4089958071708679
vt 0.780703067779541 0.5187959671020508
vt 0.6696218252182007 0.4089958071708679
vt 0.5449609756469727 0.5187959671020508
vt 0.6560419797897339 0.4089958071708679
vt 0.6560419797897339 0.5187959671020508
vt 0.5449609756469727 0.4089958071708679
vt 0.6560419797897339 0.5187959671020508
vt 0.5449609756469727 0.4089958071708679
vt 0.5449609756469727 0.5187959671020508
vt 0.6560419797897339 0.4089958071708679
vt 0.6560419797897339 0.5187959671020508
vt 0.5449609756469727 0.4089958071708679
vt 0.5449609756469727 0.5187959671020508
vt 0.6560419797897339 0.4089958071708679
vt 0.5449609756469727 0.5187959671020508
vt 0.6560419797897339 0.4089958071708679
vt 0.6560419797897339 0.5187959671020508
vt 0.5449609756469727 0.4089958071708679
vt 0.6574652194976807 0.5968244671821594
vt 0.6574652194976807 0.5608344674110413
vt 0.699669361114502 0.579431027173996
vt 0.7228016257286072 0.5519970655441284
vt 0.5988438725471497 0.5652998685836792
vt 0.5988438725471497 0.5915431678295135
vt 0.7228016257286072 0.6050919592380524
vt 0.6574652194976807 0.5968244671821594
vt 0.699669361114502 0.579431027173996
vt 0.6574652194976807 0.5608344674110413
vt 0.7228016257286072 0.5519970655441284
vt 0.5988438725471497 0.5652998685836792
vt 0.5988438725471497 0.5915431678295135
vt 0.7228016257286072 0.6050919592380524
vt 0.6836424469947815 0.693846583366394
vt 0.7117198705673218 0.7120001316070557
vt 0.7120113968849182 0.6876436471939087
vt 0.6826879978179932 0.7173767983913422
vt 0.6886826157569885 0.6177890002727509
vt 0.7208762764930725 0.62591552734375
vt 0.6713842153549194 0.6362847983837128
vt 0.6326242089271545 0.6982152163982391
vt 0.670970618724823 0.7148199677467346
vt 0.6326242089271545 0.7148199677467346
vt 0.6627551913261414 0.6947201490402222
vt 0.6027569770812988 0.6947201490402222
vt 0.5956835746765137 0.7148199677467346
vt 0.6713761687278748 0.6362654566764832
vt 0.6886826157569885 0.6177890002727509
vt 0.6836360096931458 0.6938420832157135
vt 0.7120113968849182 0.6876436471939087
vt 0.6826809048652649 0.7173781394958496
vt 0.7117198705673218 0.7120001316070557
vt 0.7208762764930725 0.62591552734375
vt 0.6508768796920776 0.656759113073349
vt 0.6326242089271545 0.6982152163982391
vt 0.6627551913261414 0.6947201490402222
vt 0.6115531325340271 0.656759113073349
vt 0.6149148941040039 0.6415711939334869
vt 0.6468905806541443 0.6415711939334869
vt 0.6326242089271545 0.7148199677467346
vt 0.6027569770812988 0.6947201490402222
vt 0.5956835746765137 0.7148199677467346
vt 0.670970618724823 0.7148199677467346
vt 0.6836430430412292 0.693846583366394
vt 0.7117198705673218 0.7120003998279572
vt 0.6826879978179932 0.7173767983913422
vt 0.7120113968849182 0.6876436471939087
vt 0.6886826157569885 0.6177890002727509
vt 0.7208762764930725 0.62591552734375
vt 0.6713854670524597 0.6362846493721008
vt 0.6326242089271545 0.6982152163982391
vt 0.670970618724823 0.7148199677467346
vt 0.6627551913261414 0.6947201490402222
vt 0.6326242089271545 0.7148199677467346
vt 0.6027569770812988 0.6947201490402222
vt 0.5956835746765137 0.7148199677467346
vt 0.6713842153549194 0.6362847983837128
vt 0.6836424469947815 0.693846583366394
vt 0.6886826157569885 0.6177890002727509
vt 0.7120113968849182 0.6876436471939087
vt 0.6826879978179932 0.7173767983913422
vt 0.7117198705673218 0.7120001316070557
vt 0.7208762764930725 0.62591552734375
vt 0.6508768796920776 0.656759113073349
vt 0.6627551913261414 0.6947201490402222
vt 0.6326242089271545 0.6982152163982391
vt 0.6115531325340271 0.656759113073349
vt 0.6149148941040039 0.6415711939334869
vt 0.6468905806541443 0.6415711939334869
vt 0.6326242089271545 0.7148199677467346
vt 0.6027569770812988 0.6947201490402222
vt 0.5956835746765137 0.7148199677467346
vt 0.670970618724823 0.7148199677467346
vt 0.6594984531402588 0.6268627047538757
vt 0.6498628854751587 0.6143701672554016
vt 0.6594984531402588 0.6143107712268829
vt 0.6498628854751587 0.6269221007823944
vt 0.6301089525222778 0.6124577820301056
vt 0.6301089525222778 0.6287127137184143
vt 0.6187492609024048 0.6124249398708344
vt 0.6187492609024048 0.628679633140564

g bg_mdl_map_box00
s 1
usemtl bg_mdl_map_box00
f 3/3/3 2/2/2 1/1/1 
f 4/4/4 1/1/1 2/2/2 
f 7/7/7 6/6/6 5/5/5 
f 8/8/8 5/5/5 6/6/6 
f 11/11/11 10/10/10 9/9/9 
f 12/12/12 9/9/9 10/10/10 
f 15/15/15 14/14/14 13/13/13 
f 16/16/16 13/13/13 14/14/14 
f 19/19/19 18/18/18 17/17/17 
f 20/20/20 17/17/17 18/18/18 
f 23/23/23 22/22/22 21/21/21 
f 24/24/24 22/22/22 23/23/23 
f 22/22/22 25/25/25 21/21/21 
f 26/26/26 21/21/21 25/25/25 
f 27/27/27 23/23/23 21/21/21 
f 30/30/30 29/29/29 28/28/28 
f 30/30/30 31/31/31 29/29/29 
f 30/30/30 28/28/28 32/32/32 
f 33/33/33 32/32/32 28/28/28 
f 29/29/29 34/34/34 28/28/28 
f 37/37/37 36/36/36 35/35/35 
f 38/38/38 35/35/35 36/36/36 
f 39/39/39 37/37/37 35/35/35 
f 40/40/40 37/37/37 39/39/39 
f 41/41/41 39/39/39 35/35/35 
f 44/44/44 43/43/43 42/42/42 
f 45/45/45 42/42/42 43/43/43 
f 42/42/42 46/46/46 44/44/44 
f 47/47/47 44/44/44 46/46/46 
f 50/50/50 49/49/49 48/48/48 
f 51/51/51 49/49/49 50/50/50 
f 50/50/50 52/52/52 51/51/51 
f 53/53/53 51/51/51 52/52/52 
f 54/54/54 49/49/49 51/51/51 
f 57/57/57 56/56/56 55/55/55 
f 58/58/58 55/55/55 56/56/56 
f 58/58/58 59/59/59 55/55/55 
f 60/60/60 55/55/55 59/59/59 
f 56/56/56 57/57/57 61/61/61 
f 56/56/56 61/61/61 62/62/62 
f 62/62/62 58/58/58 56/56/56 
f 63/63/63 62/62/62 61/61/61 
f 64/64/64 61/61/61 57/57/57 
f 67/67/67 66/66/66 65/65/65 
f 68/68/68 65/65/65 66/66/66 
f 68/68/68 69/69/69 65/65/65 
f 68/68/68 70/70/70 69/69/69 
f 69/69/69 71/71/71 65/65/65 
f 74/74/74 73/73/73 72/72/72 
f 75/75/75 72/72/72 73/73/73 
f 72/72/72 75/75/75 76/76/76 
f 77/77/77 76/76/76 75/75/75 
f 80/80/80 79/79/79 78/78/78 
f 80/80/80 81/81/81 79/79/79 
f 79/79/79 81/81/81 82/82/82 
f 83/83/83 82/82/82 81/81/81 
f 80/80/80 84/84/84 81/81/81 
f 87/87/87 86/86/86 85/85/85 
f 85/85/85 88/88/88 87/87/87 
f 88/88/88 85/85/85 89/89/89 
f 90/90/90 89/89/89 85/85/85 
f 87/87/87 91/91/91 86/86/86 
f 87/87/87 92/92/92 91/91/91 
f 88/88/88 92/92/92 87/87/87 
f 93/93/93 91/91/91 92/92/92 
f 94/94/94 86/86/86 91/91/91 
f 97/97/97 96/96/96 95/95/95 
f 98/98/98 95/95/95 96/96/96 
f 96/96/96 99/99/99 98/98/98 
f 100/100/100 98/98/98 99/99/99 
f 99/99/99 101/101/101 100/100/100 
f 102/102/102 100/100/100 101/101/101 

