v 0.059309083968400955 -0.06818905472755432 0.038860056549310684
v 0.04264120012521744 -0.07822906970977783 0.06420614570379257
v 0.06098518148064613 -0.07029003649950027 0.06420613080263138
v 0.0419372022151947 -0.07504807412624359 0.034485068172216415
v 0.06186819449067116 -0.07570602744817734 0.08108213543891907
v 0.0419602207839489 -0.0894540548324585 0.09817710518836975
v 0.05827971175312996 -0.06985224783420563 0.025154082104563713
v 0.029292823746800423 -0.0850720927119255 0.02600509114563465
v 0.019897205755114555 -0.08169011026620865 0.042611148208379745
v 0.019421212375164032 -0.08475610613822937 0.06420615315437317
v 0.06751604378223419 -0.059814393520355225 0.04225504770874977
v 0.0667632520198822 -0.05610622838139534 0.024217093363404274
v 0.07387851178646088 -0.03973502293229103 0.03789008408784866
v 0.06951010972261429 -0.03765103593468666 0.015471103601157665
v 0.06342210620641708 -0.05712205171585083 0.012054085731506348
v 0.055133335292339325 -0.07054725289344788 0.017409102991223335
v 0.05177559331059456 -0.06946825981140137 0.007095076143741608
v 0.07025717943906784 -0.06296402961015701 0.06420611590147018
v 0.07222718745470047 -0.0686030164361 0.09813610464334488
v 0.08045314252376556 -0.04790699854493141 0.10055458545684814
v 0.07427917420864105 -0.06372000277042389 0.11476810276508331
v 0.06112019717693329 -0.07966002076864243 0.11342810094356537
v 0.062039196491241455 -0.07892303168773651 0.0982581153512001
v 0.03583522140979767 -0.09227706491947174 0.1135891005396843
v 0.03437235578894615 -0.08310110121965408 0.010002128779888153
v 0.03640123829245567 -0.0731457993388176 -0.00403292290866375
v 0.05257130414247513 -0.05875089392066002 -0.001748936134390533
v 0.03386994078755379 -0.06288210302591324 -0.011839947663247585
v 0.04671097174286842 -0.043392080813646317 -0.009007873944938183
v 0.01728987880051136 -0.07600913196802139 -0.01208887156099081
v 0.059431612491607666 -0.04019206017255783 0.0008421263773925602
v 0.05967329069972038 -0.07774908095598221 0.1315321922302246
v 0.03448591008782387 -0.09173156321048737 0.13155251741409302
v 0.017569078132510185 -0.08679412305355072 0.000434111338108778
v 0.009733229875564575 -0.09624113142490387 0.021284116432070732
v 2.2411587963233615e-07 -0.09238670766353607 -0.0008658514125272632
v 2.403609187240363e-07 -0.10271614044904709 0.02648111991584301
v 0.059496596455574036 -0.05765705555677414 0.004877038300037384
v 0.06607970595359802 -0.03849305212497711 0.008533087559044361
v 0.009193223901093006 -0.09234112501144409 0.03179909661412239
v 2.393795739408233e-07 -0.10209213942289352 0.02946314588189125
v 2.150146940493869e-07 -0.08659970760345459 -0.007534868083894253
v 2.3023908113373182e-07 -0.09628014266490936 0.03527413681149483
v 2.2521116704865562e-07 -0.09308314323425293 0.04592316597700119
v 2.0018330815219088e-07 -0.07716915756464005 -0.015297869220376015
v 2.259613296473617e-07 -0.093560129404068 0.06420616805553436
v 0.020450221374630928 -0.0921631008386612 0.08444412797689438
v 2.3691987394158787e-07 -0.10052812099456787 0.09802614152431488
v 2.365345892485493e-07 -0.10028311610221863 0.1134021133184433
v 2.328514625560274e-07 -0.09859834611415863 0.13154031336307526
v 0.011974462307989597 -0.06607414036989212 -0.020831946283578873
v 0.028058111667633057 -0.04962911456823349 -0.018123844638466835
v 0.006857170257717371 -0.058249153196811676 -0.025707904249429703
v 1.8606365870255104e-07 -0.06819116324186325 -0.02502688765525818
v 1.7610848601634643e-07 -0.06186116114258766 -0.02687092497944832
v -0.05930871516466141 -0.06818923354148865 0.038860056549310684
v -0.042640797793865204 -0.07822920382022858 0.06420614570379257
v -0.041936811059713364 -0.07504820823669434 0.034485068172216415
v -0.06098480895161629 -0.0702902302145958 0.06420613080263138
v -0.06186780333518982 -0.07570622116327286 0.08108213543891907
v -0.04195978119969368 -0.08945418149232864 0.09817710518836975
v -0.05827934294939041 -0.06985242664813995 0.025154082104563713
v -0.029292399063706398 -0.08507218211889267 0.02600509114563465
v -0.019896792247891426 -0.08169016987085342 0.042611148208379745
v -0.019420787692070007 -0.08475616574287415 0.06420615315437317
v -0.06751570105552673 -0.05981460586190224 0.04225504770874977
v -0.06676291674375534 -0.056106436997652054 0.024217093363404274
v -0.0738782286643982 -0.039735257625579834 0.03789008408784866
v -0.0695098340511322 -0.03765126317739487 0.015471103601157665
v -0.06342177093029022 -0.05712225288152695 0.012054085731506348
v -0.05513296648859978 -0.0705474242568016 0.017409102991223335
v -0.05177522078156471 -0.0694684237241745 0.007095076143741608
v -0.07025682181119919 -0.06296424567699432 0.06420611590147018
v -0.07222681492567062 -0.06860323250293732 0.09813610464334488
v -0.08045284450054169 -0.04790724813938141 0.10055458545684814
v -0.0742788165807724 -0.0637202262878418 0.11476810276508331
v -0.06111979857087135 -0.07966021448373795 0.11342810094356537
v -0.06203879788517952 -0.07892321795225143 0.0982581153512001
v -0.03583477810025215 -0.0922771692276001 0.1135891005396843
v -0.034371938556432724 -0.08310120552778244 0.010002128779888153
v -0.03640085458755493 -0.07314591109752655 -0.00403292290866375
v -0.05257096141576767 -0.05875106528401375 -0.001748936134390533
v -0.03386958688497543 -0.0628822073340416 -0.011839947663247585
v -0.046710677444934845 -0.043392229825258255 -0.009007873944938183
v -0.017289480194449425 -0.07600917667150497 -0.01208887156099081
v -0.059431325644254684 -0.040192246437072754 0.0008421263773925602
v -0.05967288836836815 -0.07774927467107773 0.1315321922302246
v -0.03448546677827835 -0.09173166751861572 0.13155251741409302
v -0.017568645998835564 -0.0867941752076149 0.000434111338108778
v -0.009732769802212715 -0.09624115377664566 0.021284116432070732
v 2.2411587963233615e-07 -0.09238670766353607 -0.0008658514125272632
v 2.403609187240363e-07 -0.10271614044904709 0.02648111991584301
v -0.05949626490473747 -0.05765724182128906 0.004877038300037384
v -0.06607943028211594 -0.03849325701594353 0.008533087559044361
v -0.009192775934934616 -0.09234115481376648 0.03179909661412239
v 2.393795739408233e-07 -0.10209213942289352 0.02946314588189125
v 2.150146940493869e-07 -0.08659970760345459 -0.007534868083894253
v 2.3023908113373182e-07 -0.09628014266490936 0.03527413681149483
v 2.2521116704865562e-07 -0.09308314323425293 0.04592316597700119
v 2.0018330815219088e-07 -0.07716915756464005 -0.015297869220376015
v 2.259613296473617e-07 -0.093560129404068 0.06420616805553436
v -0.02044977806508541 -0.09216316044330597 0.08444412797689438
v 2.3691987394158787e-07 -0.10052812099456787 0.09802614152431488
v 2.365345892485493e-07 -0.10028311610221863 0.1134021133184433
v 2.328514625560274e-07 -0.09859834611415863 0.13154031336307526
v -0.011974094435572624 -0.0660741776227951 -0.020831946283578873
v -0.028057796880602837 -0.04962920397520065 -0.018123844638466835
v -0.006856829393655062 -0.05824917182326317 -0.025707904249429703
v 1.8606365870255104e-07 -0.06819116324186325 -0.02502688765525818
v 1.7610848601634643e-07 -0.06186116114258766 -0.02687092497944832
vn 0.558917224407196 -0.8284032940864563 -0.03687329962849617
vn 0.3292844593524933 -0.9205728769302368 -0.21004155278205872
vn 0.5072442293167114 -0.8385533094406128 -0.1988258957862854
vn 0.38781633973121643 -0.9122909307479858 0.13162009418010712
vn 0.5533967614173889 -0.8036562204360962 -0.21883483231067657
vn 0.364189088344574 -0.9210885763168335 -0.1377032995223999
vn 0.6532179713249207 -0.7524915933609009 -0.08403852581977844
vn 0.4539651870727539 -0.8631858229637146 0.22096577286720276
vn 0.39514902234077454 -0.9106143712997437 0.12099018692970276
vn 0.33340969681739807 -0.9136555790901184 -0.23253285884857178
vn 0.8592313528060913 -0.4921149015426636 -0.13980069756507874
vn 0.9002575278282166 -0.39473992586135864 -0.18362125754356384
vn 0.9427433013916016 -0.29496949911117554 -0.15565374493598938
vn 0.9261044859886169 -0.22908227145671844 -0.29975271224975586
vn 0.8574910163879395 -0.4015975594520569 -0.32160305976867676
vn 0.6517843008041382 -0.7313615679740906 -0.2007175236940384
vn 0.6269100904464722 -0.6517120599746704 -0.4269134998321533
vn 0.8245872855186462 -0.5419990420341492 -0.16215060651302338
vn 0.8328641653060913 -0.5510683655738831 -0.05158359184861183
vn 0.9335029721260071 -0.3489629030227661 -0.08244526386260986
vn 0.8361254334449768 -0.544649600982666 0.06520119309425354
vn 0.6088160276412964 -0.7896320819854736 0.07631772756576538
vn 0.5924740433692932 -0.8017714023590088 -0.07833950966596603
vn 0.3379289209842682 -0.94099360704422 0.018304768949747086
vn 0.48298752307891846 -0.8463006019592285 -0.22471798956394196
vn 0.4712018370628357 -0.6180317401885986 -0.6292897462844849
vn 0.606421947479248 -0.3398028314113617 -0.7188786864280701
vn 0.4516180157661438 -0.347311407327652 -0.8218369483947754
vn 0.5497435927391052 -0.17054177820682526 -0.8177392482757568
vn 0.31255030632019043 -0.6127503514289856 -0.7258437871932983
vn 0.7104480862617493 -0.1397985816001892 -0.6897244453430176
vn 0.5775895714759827 -0.8081075549125671 0.11555313318967819
vn 0.34626030921936035 -0.93612140417099 0.0614871084690094
vn 0.3429914116859436 -0.8159149885177612 -0.4654456079006195
vn 0.4692986011505127 -0.8825768828392029 -0.028582867234945297
vn 1.203872898258851e-06 -0.8725525140762329 -0.4885202944278717
vn 1.4541155906044878e-06 -0.9999858140945435 -0.005337551701813936
vn 0.7577729821205139 -0.3598308861255646 -0.544336199760437
vn 0.8472378849983215 -0.18507614731788635 -0.4979305863380432
vn 0.49919071793556213 -0.7921947240829468 0.35104992985725403
vn 1.3737836752625299e-06 -0.8968637585639954 0.4423069357872009
vn 9.804068668017862e-07 -0.7177442312240601 -0.6963068842887878
vn 1.3239510963103385e-06 -0.8665177822113037 0.499146044254303
vn 1.4840937865301385e-06 -0.9902010560035706 0.13964875042438507
vn 9.375370950692741e-07 -0.6531981229782104 -0.7571870684623718
vn 1.4589996908398462e-06 -0.9823306798934937 -0.18715336918830872
vn 0.2821800410747528 -0.9242954850196838 -0.25700643658638
vn 1.4700872270623222e-06 -0.9944049119949341 -0.10563597828149796
vn 1.5077652051331825e-06 -0.9988895058631897 0.04711427167057991
vn 1.5103139503480634e-06 -0.9957139492034912 0.09248711168766022
vn 0.3561289310455322 -0.43558254837989807 -0.8267043828964233
vn 0.4385938346385956 -0.22585028409957886 -0.8698432445526123
vn 0.3753093481063843 -0.2847997546195984 -0.882061243057251
vn 7.612634931319917e-07 -0.5350357294082642 -0.8448293209075928
vn 3.618382606873638e-07 -0.27969059348106384 -0.9600902199745178
vn -0.5589145421981812 -0.8284050822257996 -0.03687311336398125
vn -0.3292815089225769 -0.920573890209198 -0.21004152297973633
vn -0.3878134787082672 -0.9122921228408813 0.13161993026733398
vn -0.5072416067123413 -0.8385547995567322 -0.1988259255886078
vn -0.5533943772315979 -0.8036579489707947 -0.21883469820022583
vn -0.3641861081123352 -0.9210897088050842 -0.1377033144235611
vn -0.653215765953064 -0.7524936199188232 -0.08403836190700531
vn -0.45396241545677185 -0.863187313079834 0.22096577286720276
vn -0.39514613151550293 -0.9106156826019287 0.12099020928144455
vn -0.33340683579444885 -0.9136566519737244 -0.2325328290462494
vn -0.8592298030853271 -0.492117702960968 -0.13980068266391754
vn -0.9002563953399658 -0.39474260807037354 -0.1836211085319519
vn -0.9427424669265747 -0.29497236013412476 -0.155653715133667
vn -0.9261038303375244 -0.22908514738082886 -0.2997526526451111
vn -0.857489824295044 -0.4016002118587494 -0.3216029107570648
vn -0.6517819762229919 -0.7313636541366577 -0.20071738958358765
vn -0.626908004283905 -0.6517141461372375 -0.4269135296344757
vn -0.8245856761932373 -0.5420015454292297 -0.16215062141418457
vn -0.8328626155853271 -0.5510708689689636 -0.051583681255578995
vn -0.9335018396377563 -0.3489658236503601 -0.08244531601667404
vn -0.8361237645149231 -0.5446521639823914 0.06520096957683563
vn -0.608813464641571 -0.7896339893341064 0.07631757855415344
vn -0.5924715995788574 -0.801773190498352 -0.07833961397409439
vn -0.3379260003566742 -0.9409946799278259 0.018304651603102684
vn -0.48298463225364685 -0.846302330493927 -0.22471798956394196
vn -0.47119981050491333 -0.6180333495140076 -0.6292896866798401
vn -0.6064208149909973 -0.33980482816696167 -0.7188786864280701
vn -0.4516168236732483 -0.3473128378391266 -0.8218369483947754
vn -0.5497431755065918 -0.17054343223571777 -0.8177392482757568
vn -0.3125483989715576 -0.6127514243125916 -0.7258437275886536
vn -0.7104475498199463 -0.13980063796043396 -0.6897246837615967
vn -0.577586829662323 -0.8081094622612 0.11555309593677521
vn -0.34625738859176636 -0.9361224174499512 0.06148693710565567
vn -0.34298884868621826 -0.8159160017967224 -0.4654456675052643
vn -0.4692959189414978 -0.8825782537460327 -0.028582939878106117
vn 1.203872898258851e-06 -0.8725525140762329 -0.4885202944278717
vn 1.4541155906044878e-06 -0.9999858140945435 -0.005337551701813936
vn -0.7577717900276184 -0.35983309149742126 -0.5443362593650818
vn -0.8472372889518738 -0.18507862091064453 -0.497930645942688
vn -0.4991883933544159 -0.7921961545944214 0.3510499894618988
vn 1.3737836752625299e-06 -0.8968637585639954 0.4423069357872009
vn 9.804068668017862e-07 -0.7177442312240601 -0.6963068842887878
vn 1.3239510963103385e-06 -0.8665177822113037 0.499146044254303
vn 1.4840937865301385e-06 -0.9902010560035706 0.13964875042438507
vn 9.375370950692741e-07 -0.6531981229782104 -0.7571870684623718
vn 1.4589996908398462e-06 -0.9823306798934937 -0.18715336918830872
vn -0.282177209854126 -0.9242963790893555 -0.2570064067840576
vn 1.4700872270623222e-06 -0.9944049119949341 -0.10563597828149796
vn 1.5077652051331825e-06 -0.9988895058631897 0.04711427167057991
vn 1.5103139503480634e-06 -0.9957139492034912 0.09248711168766022
vn -0.3561275601387024 -0.4355837106704712 -0.8267042636871338
vn -0.4385930299758911 -0.2258516252040863 -0.8698432445526123
vn -0.37530845403671265 -0.2848009169101715 -0.882061243057251
vn 7.612634931319917e-07 -0.5350357294082642 -0.8448293209075928
vn 3.618382606873638e-07 -0.27969059348106384 -0.9600902199745178
vt 0.17007000744342804 0.24594998359680176
vt 0.12258999794721603 0.17873001098632812
vt 0.1715400069952011 0.18119001388549805
vt 0.11977999657392502 0.25484997034072876
vt 0.17213000357151031 0.13631999492645264
vt 0.11743000149726868 0.08841001987457275
vt 0.1575399935245514 0.28473997116088867
vt 0.08184000104665756 0.2754499912261963
vt 0.06384000182151794 0.23280000686645508
vt 0.06168999895453453 0.17712998390197754
vt 0.20159000158309937 0.24817001819610596
vt 0.19718000292778015 0.298799991607666
vt 0.24312999844551086 0.27667999267578125
vt 0.2368600070476532 0.3431299924850464
vt 0.19014999270439148 0.331279993057251
vt 0.15226000547409058 0.3044400215148926
vt 0.1443600058555603 0.330780029296875
vt 0.20749999582767487 0.18803000450134277
vt 0.21151000261306763 0.09165000915527344
vt 0.24312999844551086 0.09152001142501831
vt 0.22845999896526337 0.0473099946975708
vt 0.17263999581336975 0.05140000581741333
vt 0.17344999313354492 0.09061998128890991
vt 0.10176999866962433 0.04951000213623047
vt 0.09390000253915787 0.3167799711227417
vt 0.10480999946594238 0.3608800172805786
vt 0.15908999741077423 0.3678699731826782
vt 0.1057400032877922 0.4010699987411499
vt 0.16843999922275543 0.4261000156402588
vt 0.0481100007891655 0.38169002532958984
vt 0.21077999472618103 0.3900200128555298
vt 0.1745000034570694 0.011619985103607178
vt 0.10102999955415726 0.011520028114318848
vt 0.046640001237392426 0.33688998222351074
vt 0.029659999534487724 0.27969998121261597
vt 0.008070000447332859 0.33184999227523804
vt 0.008070000447332859 0.2671999931335449
vt 0.17917999625205994 0.3495500087738037
vt 0.2307099997997284 0.36588001251220703
vt 0.031060000881552696 0.25824999809265137
vt 0.008070000447332859 0.25979000329971313
vt 0.008070000447332859 0.3520299792289734
vt 0.008070000447332859 0.24804002046585083
vt 0.008070000447332859 0.22136002779006958
vt 0.008070000447332859 0.39117997884750366
vt 0.008070000447332859 0.1743599772453308
vt 0.06204000115394592 0.12294000387191772
vt 0.008070000447332859 0.08621001243591309
vt 0.008070000447332859 0.047959983348846436
vt 0.008070000447332859 0.009429991245269775
vt 0.03733000159263611 0.4243199825286865
vt 0.10114999860525131 0.4480400085449219
vt 0.024739999324083328 0.45959997177124023
vt 0.008070000447332859 0.4322599768638611
vt 0.008070000447332859 0.453760027885437
vt 0.17007000744342804 0.24594998359680176
vt 0.12258999794721603 0.17873001098632812
vt 0.11977999657392502 0.25484997034072876
vt 0.1715400069952011 0.18119001388549805
vt 0.17213000357151031 0.13631999492645264
vt 0.11743000149726868 0.08841001987457275
vt 0.1575399935245514 0.28473997116088867
vt 0.08184000104665756 0.2754499912261963
vt 0.06384000182151794 0.23280000686645508
vt 0.06168999895453453 0.17712998390197754
vt 0.20159000158309937 0.24817001819610596
vt 0.19718000292778015 0.298799991607666
vt 0.24312999844551086 0.27667999267578125
vt 0.2368600070476532 0.3431299924850464
vt 0.19014999270439148 0.331279993057251
vt 0.15226000547409058 0.3044400215148926
vt 0.1443600058555603 0.330780029296875
vt 0.20749999582767487 0.18803000450134277
vt 0.21151000261306763 0.09165000915527344
vt 0.24312999844551086 0.09152001142501831
vt 0.22845999896526337 0.0473099946975708
vt 0.17263999581336975 0.05140000581741333
vt 0.17344999313354492 0.09061998128890991
vt 0.10176999866962433 0.04951000213623047
vt 0.09390000253915787 0.3167799711227417
vt 0.10480999946594238 0.3608800172805786
vt 0.15908999741077423 0.3678699731826782
vt 0.1057400032877922 0.4010699987411499
vt 0.16843999922275543 0.4261000156402588
vt 0.0481100007891655 0.38169002532958984
vt 0.21077999472618103 0.3900200128555298
vt 0.1745000034570694 0.011619985103607178
vt 0.10102999955415726 0.011520028114318848
vt 0.046640001237392426 0.33688998222351074
vt 0.029659999534487724 0.27969998121261597
vt 0.008070000447332859 0.33184999227523804
vt 0.008070000447332859 0.2671999931335449
vt 0.17917999625205994 0.3495500087738037
vt 0.2307099997997284 0.36588001251220703
vt 0.031060000881552696 0.25824999809265137
vt 0.008070000447332859 0.25979000329971313
vt 0.008070000447332859 0.3520299792289734
vt 0.008070000447332859 0.24804002046585083
vt 0.008070000447332859 0.22136002779006958
vt 0.008070000447332859 0.39117997884750366
vt 0.008070000447332859 0.1743599772453308
vt 0.06204000115394592 0.12294000387191772
vt 0.008070000447332859 0.08621001243591309
vt 0.008070000447332859 0.047959983348846436
vt 0.008070000447332859 0.009429991245269775
vt 0.03733000159263611 0.4243199825286865
vt 0.10114999860525131 0.4480400085449219
vt 0.024739999324083328 0.45959997177124023
vt 0.008070000447332859 0.4322599768638611
vt 0.008070000447332859 0.453760027885437

g M_vision_saha_skill500_saha_face
s 1
usemtl M_vision_saha_skill500_saha_face
f 3/3/3 2/2/2 1/1/1 
f 4/4/4 1/1/1 2/2/2 
f 3/3/3 5/5/5 2/2/2 
f 6/6/6 2/2/2 5/5/5 
f 1/1/1 4/4/4 7/7/7 
f 7/7/7 4/4/4 8/8/8 
f 4/4/4 2/2/2 9/9/9 
f 8/8/8 4/4/4 9/9/9 
f 10/10/10 9/9/9 2/2/2 
f 11/11/11 1/1/1 7/7/7 
f 11/11/11 7/7/7 12/12/12 
f 11/11/11 12/12/12 13/13/13 
f 14/14/14 13/13/13 12/12/12 
f 14/14/14 12/12/12 15/15/15 
f 12/12/12 16/16/16 15/15/15 
f 16/16/16 12/12/12 7/7/7 
f 8/8/8 16/16/16 7/7/7 
f 16/16/16 17/17/17 15/15/15 
f 11/11/11 13/13/13 18/18/18 
f 18/18/18 5/5/5 3/3/3 
f 19/19/19 5/5/5 18/18/18 
f 19/19/19 18/18/18 20/20/20 
f 20/20/20 18/18/18 13/13/13 
f 20/20/20 21/21/21 19/19/19 
f 19/19/19 21/21/21 22/22/22 
f 19/19/19 22/22/22 23/23/23 
f 23/23/23 22/22/22 6/6/6 
f 24/24/24 6/6/6 22/22/22 
f 16/16/16 25/25/25 17/17/17 
f 25/25/25 26/26/26 17/17/17 
f 17/17/17 26/26/26 27/27/27 
f 28/28/28 27/27/27 26/26/26 
f 28/28/28 29/29/29 27/27/27 
f 26/26/26 30/30/30 28/28/28 
f 27/27/27 29/29/29 31/31/31 
f 22/22/22 32/32/32 24/24/24 
f 21/21/21 32/32/32 22/22/22 
f 33/33/33 24/24/24 32/32/32 
f 30/30/30 26/26/26 34/34/34 
f 26/26/26 25/25/25 34/34/34 
f 25/25/25 35/35/35 34/34/34 
f 36/36/36 34/34/34 35/35/35 
f 35/35/35 25/25/25 8/8/8 
f 36/36/36 35/35/35 37/37/37 
f 31/31/31 38/38/38 27/27/27 
f 31/31/31 39/39/39 38/38/38 
f 17/17/17 27/27/27 38/38/38 
f 40/40/40 35/35/35 8/8/8 
f 35/35/35 40/40/40 41/41/41 
f 41/41/41 37/37/37 35/35/35 
f 15/15/15 38/38/38 39/39/39 
f 15/15/15 17/17/17 38/38/38 
f 15/15/15 39/39/39 14/14/14 
f 36/36/36 42/42/42 34/34/34 
f 43/43/43 41/41/41 40/40/40 
f 40/40/40 44/44/44 43/43/43 
f 8/8/8 9/9/9 40/40/40 
f 40/40/40 9/9/9 44/44/44 
f 42/42/42 30/30/30 34/34/34 
f 45/45/45 30/30/30 42/42/42 
f 9/9/9 46/46/46 44/44/44 
f 10/10/10 46/46/46 9/9/9 
f 47/47/47 46/46/46 10/10/10 
f 48/48/48 46/46/46 47/47/47 
f 2/2/2 47/47/47 10/10/10 
f 6/6/6 47/47/47 2/2/2 
f 6/6/6 48/48/48 47/47/47 
f 6/6/6 24/24/24 48/48/48 
f 48/48/48 24/24/24 49/49/49 
f 49/49/49 24/24/24 33/33/33 
f 49/49/49 33/33/33 50/50/50 
f 45/45/45 51/51/51 30/30/30 
f 30/30/30 51/51/51 28/28/28 
f 51/51/51 52/52/52 28/28/28 
f 53/53/53 52/52/52 51/51/51 
f 28/28/28 52/52/52 29/29/29 
f 53/53/53 51/51/51 54/54/54 
f 55/55/55 53/53/53 54/54/54 
f 54/54/54 51/51/51 45/45/45 
f 23/23/23 6/6/6 5/5/5 
f 23/23/23 5/5/5 19/19/19 
f 18/18/18 1/1/1 11/11/11 
f 1/1/1 18/18/18 3/3/3 
f 25/25/25 16/16/16 8/8/8 
f 58/58/58 57/57/57 56/56/56 
f 59/59/59 56/56/56 57/57/57 
f 59/59/59 57/57/57 60/60/60 
f 61/61/61 60/60/60 57/57/57 
f 62/62/62 58/58/58 56/56/56 
f 63/63/63 58/58/58 62/62/62 
f 58/58/58 64/64/64 57/57/57 
f 64/64/64 58/58/58 63/63/63 
f 65/65/65 57/57/57 64/64/64 
f 62/62/62 56/56/56 66/66/66 
f 67/67/67 62/62/62 66/66/66 
f 68/68/68 67/67/67 66/66/66 
f 67/67/67 68/68/68 69/69/69 
f 70/70/70 67/67/67 69/69/69 
f 70/70/70 71/71/71 67/67/67 
f 62/62/62 67/67/67 71/71/71 
f 62/62/62 71/71/71 63/63/63 
f 70/70/70 72/72/72 71/71/71 
f 73/73/73 68/68/68 66/66/66 
f 59/59/59 60/60/60 73/73/73 
f 73/73/73 60/60/60 74/74/74 
f 75/75/75 73/73/73 74/74/74 
f 68/68/68 73/73/73 75/75/75 
f 74/74/74 76/76/76 75/75/75 
f 77/77/77 76/76/76 74/74/74 
f 78/78/78 77/77/77 74/74/74 
f 61/61/61 77/77/77 78/78/78 
f 77/77/77 61/61/61 79/79/79 
f 72/72/72 80/80/80 71/71/71 
f 72/72/72 81/81/81 80/80/80 
f 82/82/82 81/81/81 72/72/72 
f 81/81/81 82/82/82 83/83/83 
f 82/82/82 84/84/84 83/83/83 
f 83/83/83 85/85/85 81/81/81 
f 86/86/86 84/84/84 82/82/82 
f 77/77/77 79/79/79 87/87/87 
f 77/77/77 87/87/87 76/76/76 
f 88/88/88 87/87/87 79/79/79 
f 89/89/89 81/81/81 85/85/85 
f 89/89/89 80/80/80 81/81/81 
f 89/89/89 90/90/90 80/80/80 
f 90/90/90 89/89/89 91/91/91 
f 63/63/63 80/80/80 90/90/90 
f 92/92/92 90/90/90 91/91/91 
f 82/82/82 93/93/93 86/86/86 
f 93/93/93 94/94/94 86/86/86 
f 93/93/93 82/82/82 72/72/72 
f 63/63/63 90/90/90 95/95/95 
f 96/96/96 95/95/95 90/90/90 
f 90/90/90 92/92/92 96/96/96 
f 94/94/94 93/93/93 70/70/70 
f 93/93/93 72/72/72 70/70/70 
f 69/69/69 94/94/94 70/70/70 
f 89/89/89 97/97/97 91/91/91 
f 95/95/95 96/96/96 98/98/98 
f 98/98/98 99/99/99 95/95/95 
f 95/95/95 64/64/64 63/63/63 
f 99/99/99 64/64/64 95/95/95 
f 89/89/89 85/85/85 97/97/97 
f 97/97/97 85/85/85 100/100/100 
f 99/99/99 101/101/101 64/64/64 
f 64/64/64 101/101/101 65/65/65 
f 65/65/65 101/101/101 102/102/102 
f 102/102/102 101/101/101 103/103/103 
f 65/65/65 102/102/102 57/57/57 
f 57/57/57 102/102/102 61/61/61 
f 102/102/102 103/103/103 61/61/61 
f 103/103/103 79/79/79 61/61/61 
f 104/104/104 79/79/79 103/103/103 
f 88/88/88 79/79/79 104/104/104 
f 105/105/105 88/88/88 104/104/104 
f 85/85/85 106/106/106 100/100/100 
f 83/83/83 106/106/106 85/85/85 
f 83/83/83 107/107/107 106/106/106 
f 106/106/106 107/107/107 108/108/108 
f 84/84/84 107/107/107 83/83/83 
f 109/109/109 106/106/106 108/108/108 
f 109/109/109 108/108/108 110/110/110 
f 100/100/100 106/106/106 109/109/109 
f 60/60/60 61/61/61 78/78/78 
f 74/74/74 60/60/60 78/78/78 
f 66/66/66 56/56/56 73/73/73 
f 59/59/59 73/73/73 56/56/56 
f 63/63/63 71/71/71 80/80/80 

