v -4.466909408569336 1.7999998331069946 4.0
v -5.299999713897705 1.7999999523162842 5.999999046325684
v -5.299999713897705 1.799999713897705 3.999999523162842
v -4.466909408569336 1.799999713897705 6.0
v -4.466909408569336 1.799999713897705 2.0
v -5.299999713897705 1.799999713897705 3.999999523162842
v -5.299999713897705 1.7999993562698364 1.9999996423721313
v -4.466909408569336 1.7999998331069946 4.0
v -4.466909408569336 1.7999998331069946 0.013151931576430798
v -5.299999713897705 1.7999993562698364 1.9999996423721313
v -5.299999713897705 1.7999993562698364 0.013151245191693306
v -4.466909408569336 1.799999713897705 2.0
v -4.466909408569336 1.8000000715255737 -1.9999996423721313
v -5.299999713897705 1.7999993562698364 0.013151245191693306
v -5.299999713897705 1.799999713897705 -2.000000238418579
v -4.466909408569336 1.7999998331069946 0.013151931576430798
v -4.466909408569336 1.8000000715255737 -4.0
v -5.299999713897705 1.799999713897705 -2.000000238418579
v -5.299999713897705 1.799999713897705 -4.000000476837158
v -4.466909408569336 1.8000000715255737 -1.9999996423721313
v -4.466909408569336 1.7999998331069946 -6.001076698303223
v -5.299999713897705 1.799999713897705 -4.000000476837158
v -5.299999713897705 1.799999475479126 -6.001077175140381
v -4.466909408569336 1.8000000715255737 -4.0
v -4.466909408569336 1.8000000715255737 -8.0
v -5.299999713897705 1.799999475479126 -6.001077175140381
v -5.299999713897705 1.8000003099441528 -8.0
v -4.466909408569336 1.7999998331069946 -6.001076698303223
v -4.466909408569336 1.8000004291534424 -10.0
v -5.299999713897705 1.8000006675720215 -9.0
v -5.299999713897705 1.8000003099441528 -10.0
v -4.466909408569336 1.8000004291534424 -10.0
v -5.299999713897705 1.8000003099441528 -8.0
v -5.299999713897705 1.8000006675720215 -9.0
v -4.466909408569336 1.8000000715255737 -8.0
v -4.466909408569336 1.7999998331069946 4.0
v -4.416909217834473 1.7499996423721313 6.0
v -4.466909408569336 1.799999713897705 6.0
v -4.416909217834473 1.749999761581421 4.0
v -4.466909408569336 1.799999713897705 2.0
v -4.416909217834473 1.749999761581421 4.0
v -4.466909408569336 1.7999998331069946 4.0
v -4.416909217834473 1.7499996423721313 2.0
v -4.416909217834473 1.7499996423721313 2.0
v -4.466909408569336 1.7999998331069946 0.013151931576430798
v -4.416909217834473 1.749999761581421 0.013152007944881916
v -4.466909408569336 1.799999713897705 2.0
v -4.466909408569336 1.8000000715255737 -1.9999996423721313
v -4.416909217834473 1.749999761581421 0.013152007944881916
v -4.466909408569336 1.7999998331069946 0.013151931576430798
v -4.416909217834473 1.7500001192092896 -1.9999996423721313
v -4.466909408569336 1.8000000715255737 -4.0
v -4.416909217834473 1.7500001192092896 -1.9999996423721313
v -4.466909408569336 1.8000000715255737 -1.9999996423721313
v -4.416909217834473 1.7500001192092896 -4.0
v -4.416909217834473 1.7500001192092896 -4.0
v -4.466909408569336 1.7999998331069946 -6.001076698303223
v -4.416909217834473 1.749999761581421 -6.001076698303223
v -4.466909408569336 1.8000000715255737 -4.0
v -4.466909408569336 1.8000000715255737 -8.0
v -4.416909217834473 1.749999761581421 -6.001076698303223
v -4.466909408569336 1.7999998331069946 -6.001076698303223
v -4.416909217834473 1.7500001192092896 -8.0
v -4.466909408569336 1.8000004291534424 -10.0
v -4.416909217834473 1.7500001192092896 -8.0
v -4.466909408569336 1.8000000715255737 -8.0
v -4.416909217834473 1.7500004768371582 -10.0
v -4.416909217834473 1.7499996423721313 6.0
v -4.416909217834473 1.531249761581421 4.0
v -4.416909217834473 1.5312496423721313 6.0
v -4.416909217834473 1.749999761581421 4.0
v -4.416909217834473 1.749999761581421 4.0
v -4.416909217834473 1.5312496423721313 2.0
v -4.416909217834473 1.531249761581421 4.0
v -4.416909217834473 1.7499996423721313 2.0
v -4.416909217834473 1.531249761581421 0.013151931576430798
v -4.416909217834473 1.7499996423721313 2.0
v -4.416909217834473 1.749999761581421 0.013152007944881916
v -4.416909217834473 1.5312496423721313 2.0
v -4.416909217834473 1.749999761581421 0.013152007944881916
v -4.416909217834473 1.5312501192092896 -2.0
v -4.416909217834473 1.531249761581421 0.013151931576430798
v -4.416909217834473 1.7500001192092896 -1.9999996423721313
v -4.416909217834473 1.7500001192092896 -1.9999996423721313
v -4.416909217834473 1.5312501192092896 -4.0
v -4.416909217834473 1.5312501192092896 -2.0
v -4.416909217834473 1.7500001192092896 -4.0
v -4.416909217834473 1.531249761581421 -6.001076698303223
v -4.416909217834473 1.7500001192092896 -4.0
v -4.416909217834473 1.749999761581421 -6.001076698303223
v -4.416909217834473 1.5312501192092896 -4.0
v -4.416909217834473 1.749999761581421 -6.001076698303223
v -4.416909217834473 1.5312501192092896 -8.0
v -4.416909217834473 1.531249761581421 -6.001076698303223
v -4.416909217834473 1.7500001192092896 -8.0
v -4.416909217834473 1.7500001192092896 -8.0
v -4.416909217834473 1.5312504768371582 -10.0
v -4.416909217834473 1.5312501192092896 -8.0
v -4.416909217834473 1.7500004768371582 -10.0
v -4.416909217834473 1.7500004768371582 -10.0
v -4.416909217834473 1.531250238418579 -12.0
v -4.416909217834473 1.5312504768371582 -10.0
v -4.416909217834473 1.750000238418579 -12.0
v -4.416909217834473 1.7500004768371582 -10.0
v -4.466909408569336 1.8000003099441528 -12.0
v -4.416909217834473 1.750000238418579 -12.0
v -4.466909408569336 1.8000004291534424 -10.0
v -5.299999713897705 1.8000003099441528 -10.0
v -4.466909408569336 1.8000003099441528 -12.0
v -4.466909408569336 1.8000004291534424 -10.0
v -5.299999713897705 1.7999999523162842 -12.0
v -4.416909217834473 1.531249761581421 4.0
v -4.5 1.484843373298645 6.0
v -4.416909217834473 1.5312496423721313 6.0
v -4.5 1.4848436117172241 4.0
v -4.416909217834473 1.5312496423721313 2.0
v -4.5 1.4848436117172241 4.0
v -4.416909217834473 1.531249761581421 4.0
v -4.5 1.4848436117172241 2.0
v -4.416909217834473 1.531249761581421 0.013151931576430798
v -4.5 1.4848436117172241 2.0
v -4.416909217834473 1.5312496423721313 2.0
v -4.5 1.4848436117172241 0.013151931576430798
v -4.416909217834473 1.5312501192092896 -2.0
v -4.5 1.4848436117172241 0.013151931576430798
v -4.416909217834473 1.531249761581421 0.013151931576430798
v -4.5 1.4848438501358032 -2.0
v -4.416909217834473 1.5312501192092896 -4.0
v -4.5 1.4848438501358032 -2.0
v -4.416909217834473 1.5312501192092896 -2.0
v -4.5 1.4848438501358032 -4.0
v -4.416909217834473 1.531249761581421 -6.001076698303223
v -4.5 1.4848438501358032 -4.0
v -4.416909217834473 1.5312501192092896 -4.0
v -4.5 1.4848437309265137 -6.001076698303223
v -4.416909217834473 1.5312501192092896 -8.0
v -4.5 1.4848437309265137 -6.001076698303223
v -4.416909217834473 1.531249761581421 -6.001076698303223
v -4.5 1.4848439693450928 -8.0
v -4.416909217834473 1.5312504768371582 -10.0
v -4.5 1.4848439693450928 -8.0
v -4.416909217834473 1.5312501192092896 -8.0
v -4.5 1.4848442077636719 -10.0
v -4.5 1.4848442077636719 -10.0
v -4.416909217834473 1.531250238418579 -12.0
v -4.5 1.4848442077636719 -12.0
v -4.416909217834473 1.5312504768371582 -10.0
v -4.5 1.4848436117172241 4.0
v -4.5 0.4999997615814209 6.0
v -4.5 1.484843373298645 6.0
v -4.5 0.4999997913837433 4.0
v -4.5 1.4848436117172241 2.0
v -4.5 0.4999997913837433 4.0
v -4.5 1.4848436117172241 4.0
v -4.5 0.49999991059303284 2.0
v -4.5 1.4848436117172241 0.013151931576430798
v -4.5 0.49999991059303284 2.0
v -4.5 1.4848436117172241 2.0
v -4.5 0.49999991059303284 0.0032153427600860596
v -4.5 0.5000000596046448 -2.0
v -4.5 1.4848436117172241 0.013151931576430798
v -4.5 1.4848438501358032 -2.0
v -4.5 0.49999991059303284 0.0032153427600860596
v -4.5 0.5000001788139343 -4.0
v -4.5 1.4848438501358032 -2.0
v -4.5 1.4848438501358032 -4.0
v -4.5 0.5000000596046448 -2.0
v -4.5 1.4848437309265137 -6.001076698303223
v -4.5 0.5000001788139343 -4.0
v -4.5 1.4848438501358032 -4.0
v -4.5 0.5000001192092896 -6.001076698303223
v -4.5 1.4848437309265137 -6.001076698303223
v -4.5 0.5000003576278687 -8.0
v -4.5 0.5000001192092896 -6.001076698303223
v -4.5 1.4848439693450928 -8.0
v -4.5 1.4848442077636719 -10.0
v -4.5 0.5000003576278687 -8.0
v -4.5 1.4848439693450928 -8.0
v -4.5 0.5000004172325134 -10.0
v -4.5 0.5000004172325134 -10.0
v -4.5 1.4848442077636719 -12.0
v -4.5 0.500000536441803 -12.0
v -4.5 1.4848442077636719 -10.0
v -5.350000381469727 1.7499996423721313 5.999998569488525
v -5.299999713897705 1.799999713897705 3.999999523162842
v -5.299999713897705 1.7999999523162842 5.999999046325684
v -5.350000381469727 1.7499994039535522 3.9999983310699463
v -5.350000381469727 1.7499994039535522 3.9999983310699463
v -5.299999713897705 1.7999993562698364 1.9999996423721313
v -5.299999713897705 1.799999713897705 3.999999523162842
v -5.350000381469727 1.7499990463256836 1.9999990463256836
v -5.299999713897705 1.7999993562698364 0.013151245191693306
v -5.350000381469727 1.7499990463256836 1.9999990463256836
v -5.350000381469727 1.7499990463256836 0.013150786980986595
v -5.299999713897705 1.7999993562698364 1.9999996423721313
v -5.350000381469727 1.7499990463256836 0.013150786980986595
v -5.299999713897705 1.799999713897705 -2.000000238418579
v -5.299999713897705 1.7999993562698364 0.013151245191693306
v -5.350000381469727 1.7499994039535522 -2.0000009536743164
v -5.350000381469727 1.7499994039535522 -2.0000009536743164
v -5.299999713897705 1.799999713897705 -4.000000476837158
v -5.299999713897705 1.799999713897705 -2.000000238418579
v -5.350000381469727 1.7499994039535522 -4.000000953674316
v -5.299999713897705 1.799999475479126 -6.001077175140381
v -5.350000381469727 1.7499994039535522 -4.000000953674316
v -5.350000381469727 1.7499990463256836 -6.001077651977539
v -5.299999713897705 1.799999713897705 -4.000000476837158
v -5.350000381469727 1.7499990463256836 -6.001077651977539
v -5.299999713897705 1.8000003099441528 -8.0
v -5.299999713897705 1.799999475479126 -6.001077175140381
v -5.350000381469727 1.7500001192092896 -8.000000953674316
v -5.350000381469727 1.7500001192092896 -8.000000953674316
v -5.299999713897705 1.8000003099441528 -10.0
v -5.299999713897705 1.8000003099441528 -8.0
v -5.350000381469727 1.750000238418579 -10.000000953674316
v -5.350000381469727 1.531249761581421 3.9999983310699463
v -5.350000381469727 1.7499996423721313 5.999998569488525
v -5.350000381469727 1.5312496423721313 5.999998569488525
v -5.350000381469727 1.7499994039535522 3.9999983310699463
v -5.350000381469727 1.531248927116394 1.9999984502792358
v -5.350000381469727 1.7499994039535522 3.9999983310699463
v -5.350000381469727 1.531249761581421 3.9999983310699463
v -5.350000381469727 1.7499990463256836 1.9999990463256836
v -5.350000381469727 1.7499990463256836 1.9999990463256836
v -5.350000381469727 1.5312490463256836 0.013150634244084358
v -5.350000381469727 1.7499990463256836 0.013150786980986595
v -5.350000381469727 1.531248927116394 1.9999984502792358
v -5.350000381469727 1.5312494039535522 -2.0000011920928955
v -5.350000381469727 1.7499990463256836 0.013150786980986595
v -5.350000381469727 1.5312490463256836 0.013150634244084358
v -5.350000381469727 1.7499994039535522 -2.0000009536743164
v -5.350000381469727 1.5312494039535522 -4.000000953674316
v -5.350000381469727 1.7499994039535522 -2.0000009536743164
v -5.350000381469727 1.5312494039535522 -2.0000011920928955
v -5.350000381469727 1.7499994039535522 -4.000000953674316
v -5.350000381469727 1.7499994039535522 -4.000000953674316
v -5.350000381469727 1.5312490463256836 -6.001077651977539
v -5.350000381469727 1.7499990463256836 -6.001077651977539
v -5.350000381469727 1.5312494039535522 -4.000000953674316
v -5.350000381469727 1.5312501192092896 -8.000000953674316
v -5.350000381469727 1.7499990463256836 -6.001077651977539
v -5.350000381469727 1.5312490463256836 -6.001077651977539
v -5.350000381469727 1.7500001192092896 -8.000000953674316
v -5.350000381469727 1.5312504768371582 -10.000000953674316
v -5.350000381469727 1.7500001192092896 -8.000000953674316
v -5.350000381469727 1.5312501192092896 -8.000000953674316
v -5.350000381469727 1.750000238418579 -10.000000953674316
v -5.350000381469727 1.5312496423721313 -12.000000953674316
v -5.350000381469727 1.750000238418579 -10.000000953674316
v -5.350000381469727 1.5312504768371582 -10.000000953674316
v -5.350000381469727 1.7499996423721313 -12.000000953674316
v -5.299999713897705 1.7999999523162842 -12.0
v -5.350000381469727 1.750000238418579 -10.000000953674316
v -5.350000381469727 1.7499996423721313 -12.000000953674316
v -5.299999713897705 1.8000003099441528 -10.0
v -5.266910076141357 1.484843373298645 5.999998569488525
v -5.350000381469727 1.531249761581421 3.9999983310699463
v -5.350000381469727 1.5312496423721313 5.999998569488525
v -5.266910076141357 1.4848436117172241 3.9999983310699463
v -5.266910076141357 1.4848436117172241 3.9999983310699463
v -5.350000381469727 1.531248927116394 1.9999984502792358
v -5.350000381469727 1.531249761581421 3.9999983310699463
v -5.266910076141357 1.4848427772521973 1.9999984502792358
v -5.266910076141357 1.4848427772521973 1.9999984502792358
v -5.350000381469727 1.5312490463256836 0.013150634244084358
v -5.350000381469727 1.531248927116394 1.9999984502792358
v -5.266910076141357 1.4848427772521973 0.013150634244084358
v -5.266910076141357 1.4848427772521973 0.013150634244084358
v -5.350000381469727 1.5312494039535522 -2.0000011920928955
v -5.350000381469727 1.5312490463256836 0.013150634244084358
v -5.266910076141357 1.484843134880066 -2.0000011920928955
v -5.266910076141357 1.484843134880066 -2.0000011920928955
v -5.350000381469727 1.5312494039535522 -4.000000953674316
v -5.350000381469727 1.5312494039535522 -2.0000011920928955
v -5.266910076141357 1.484843134880066 -4.000000953674316
v -5.266910076141357 1.484843134880066 -4.000000953674316
v -5.350000381469727 1.5312490463256836 -6.001077651977539
v -5.350000381469727 1.5312494039535522 -4.000000953674316
v -5.266910076141357 1.4848428964614868 -6.001077651977539
v -5.266910076141357 1.4848428964614868 -6.001077651977539
v -5.350000381469727 1.5312501192092896 -8.000000953674316
v -5.350000381469727 1.5312490463256836 -6.001077651977539
v -5.266910076141357 1.4848439693450928 -8.000000953674316
v -5.266910076141357 1.4848439693450928 -8.000000953674316
v -5.350000381469727 1.5312504768371582 -10.000000953674316
v -5.350000381469727 1.5312501192092896 -8.000000953674316
v -5.266910076141357 1.4848442077636719 -10.000000953674316
v -5.350000381469727 1.5312496423721313 -12.000000953674316
v -5.266910076141357 1.4848442077636719 -10.000000953674316
v -5.266910076141357 1.484843373298645 -12.000000953674316
v -5.350000381469727 1.5312504768371582 -10.000000953674316
v -5.266910076141357 -6.103515488575795e-07 5.999998569488525
v -5.266910076141357 1.4848436117172241 3.9999983310699463
v -5.266910076141357 1.484843373298645 5.999998569488525
v -5.266910076141357 -4.577636616431846e-07 3.9999983310699463
v -5.266910076141357 -4.577636616431846e-07 3.9999983310699463
v -5.266910076141357 1.4848427772521973 1.9999984502792358
v -5.266910076141357 1.4848436117172241 3.9999983310699463
v -5.266910076141357 -7.629394076502649e-07 1.999998688697815
v -5.266910076141357 -7.629394076502649e-07 1.999998688697815
v -5.266910076141357 1.4848427772521973 0.013150634244084358
v -5.266910076141357 1.4848427772521973 1.9999984502792358
v -5.266910076141357 -6.103515488575795e-07 0.0033815002534538507
v -5.266910076141357 1.4848427772521973 0.013150634244084358
v -5.266910076141357 -4.577636616431846e-07 -2.0000011920928955
v -5.266910076141357 1.484843134880066 -2.0000011920928955
v -5.266910076141357 -6.103515488575795e-07 0.0033815002534538507
v -5.266910076141357 1.484843134880066 -2.0000011920928955
v -5.266910076141357 -3.0517577442878974e-07 -4.000000953674316
v -5.266910076141357 1.484843134880066 -4.000000953674316
v -5.266910076141357 -4.577636616431846e-07 -2.0000011920928955
v -5.266910076141357 -3.0517577442878974e-07 -4.000000953674316
v -5.266910076141357 1.4848428964614868 -6.001077651977539
v -5.266910076141357 1.484843134880066 -4.000000953674316
v -5.266910076141357 -1.5258788721439487e-07 -6.001077651977539
v -5.266910076141357 1.4848428964614868 -6.001077651977539
v -5.266910076141357 4.898587939736263e-16 -8.000000953674316
v -5.266910076141357 1.4848439693450928 -8.000000953674316
v -5.266910076141357 -1.5258788721439487e-07 -6.001077651977539
v -5.266910076141357 4.898587939736263e-16 -8.000000953674316
v -5.266910076141357 1.4848442077636719 -10.000000953674316
v -5.266910076141357 1.4848439693450928 -8.000000953674316
v -5.266910076141357 1.5258788721439487e-07 -10.000000953674316
v -5.266910076141357 1.484843373298645 -12.000000953674316
v -5.266910076141357 1.5258788721439487e-07 -10.000000953674316
v -5.266910076141357 -1.5258788721439487e-07 -12.000000953674316
v -5.266910076141357 1.4848442077636719 -10.000000953674316
v -4.466909408569336 1.799999713897705 6.0
v -5.299999713897705 1.799999475479126 8.0
v -5.299999713897705 1.7999999523162842 5.999999046325684
v -4.466909408569336 1.799999713897705 8.0
v -4.466909408569336 1.799999713897705 6.0
v -4.416909217834473 1.7499996423721313 8.0
v -4.466909408569336 1.799999713897705 8.0
v -4.416909217834473 1.7499996423721313 6.0
v -4.416909217834473 1.7499996423721313 8.0
v -4.416909217834473 1.5312496423721313 6.0
v -4.416909217834473 1.5312496423721313 8.0
v -4.416909217834473 1.7499996423721313 6.0
v -4.416909217834473 1.5312496423721313 6.0
v -4.5 1.4848436117172241 8.0
v -4.416909217834473 1.5312496423721313 8.0
v -4.5 1.484843373298645 6.0
v -4.5 1.484843373298645 6.0
v -4.5 0.4999997913837433 8.0
v -4.5 1.4848436117172241 8.0
v -4.5 0.4999997615814209 6.0
v -5.350000381469727 1.7499994039535522 7.999999046325684
v -5.299999713897705 1.7999999523162842 5.999999046325684
v -5.299999713897705 1.799999475479126 8.0
v -5.350000381469727 1.7499996423721313 5.999998569488525
v -5.350000381469727 1.5312496423721313 5.999998569488525
v -5.350000381469727 1.7499994039535522 7.999999046325684
v -5.350000381469727 1.5312494039535522 7.999999046325684
v -5.350000381469727 1.7499996423721313 5.999998569488525
v -5.266910076141357 1.4848432540893555 7.999999046325684
v -5.350000381469727 1.5312496423721313 5.999998569488525
v -5.350000381469727 1.5312494039535522 7.999999046325684
v -5.266910076141357 1.484843373298645 5.999998569488525
v -5.266910076141357 -7.629394076502649e-07 8.0
v -5.266910076141357 1.484843373298645 5.999998569488525
v -5.266910076141357 1.4848432540893555 7.999999046325684
v -5.266910076141357 -6.103515488575795e-07 5.999998569488525
v -4.416909217834473 1.7499996423721313 8.0
v -4.416909217834473 1.5312496423721313 9.000000953674316
v -4.416909217834473 1.7499996423721313 9.000000953674316
v -4.416909217834473 1.5312496423721313 8.0
v -5.350000381469727 1.7499994039535522 7.999999046325684
v -5.299999713897705 1.799999713897705 9.0
v -5.350000381469727 1.7499994039535522 9.0
v -5.299999713897705 1.799999475479126 8.0
v -5.266910076141357 1.4848432540893555 7.999999046325684
v -5.350000381469727 1.5312494039535522 9.0
v -5.266910076141357 1.4848432540893555 9.0
v -5.350000381469727 1.5312494039535522 7.999999046325684
v -5.266910076141357 -7.629394076502649e-07 8.0
v -5.266910076141357 1.4848432540893555 9.0
v -5.266910076141357 -7.629394076502649e-07 9.0
v -5.266910076141357 1.4848432540893555 7.999999046325684
v -4.466909408569336 1.799999713897705 8.0
v -5.299999713897705 1.799999713897705 9.0
v -5.299999713897705 1.799999475479126 8.0
v -4.466909408569336 1.799999713897705 9.000000953674316
v -4.416909217834473 1.7499996423721313 8.0
v -4.466909408569336 1.799999713897705 9.000000953674316
v -4.466909408569336 1.799999713897705 8.0
v -4.416909217834473 1.7499996423721313 9.000000953674316
v -4.5 1.4848436117172241 8.0
v -4.416909217834473 1.5312496423721313 9.000000953674316
v -4.416909217834473 1.5312496423721313 8.0
v -4.5 1.4848436117172241 9.000000953674316
v -4.5 0.4999997913837433 8.0
v -4.5 1.4848436117172241 9.000000953674316
v -4.5 1.4848436117172241 8.0
v -4.5 0.49999985098838806 9.000000953674316
v -5.350000381469727 1.7499994039535522 7.999999046325684
v -5.350000381469727 1.5312494039535522 9.0
v -5.350000381469727 1.5312494039535522 7.999999046325684
v -5.350000381469727 1.7499994039535522 9.0
v -4.5 0.4999997913837433 4.0
v -3.627568483352661 0.4999997317790985 6.0
v -4.5 0.4999997615814209 6.0
v -3.627568483352661 0.4999997317790985 4.0
v -3.5089845657348633 0.4999997615814209 6.0
v -3.48599910736084 0.48484188318252563 4.0
v -3.48599910736084 0.48484182357788086 6.0
v -3.5089845657348633 0.4999997913837433 4.0
v -4.5 0.49999991059303284 2.0
v -3.627568483352661 0.4999997317790985 4.0
v -4.5 0.4999997913837433 4.0
v -3.627568483352661 0.49999991059303284 2.0
v -3.5089845657348633 0.4999997913837433 4.0
v -3.48599910736084 0.4848419725894928 2.0
v -3.48599910736084 0.48484188318252563 4.0
v -3.5089845657348633 0.49999991059303284 2.0
v -3.627568483352661 0.5 2.1855694143368964e-08
v -4.5 0.49999991059303284 2.0
v -4.5 0.49999991059303284 0.0032153427600860596
v -3.627568483352661 0.49999991059303284 2.0
v -3.5089845657348633 0.49999991059303284 2.0
v -3.48599910736084 0.48484206199645996 2.119312014770003e-08
v -3.48599910736084 0.4848419725894928 2.0
v -3.5089845657348633 0.5 2.1855694143368964e-08
v -3.627568483352661 0.5 2.1855694143368964e-08
v -4.5 0.5000000596046448 -2.0
v -3.627568483352661 0.5000000596046448 -2.0
v -4.5 0.49999991059303284 0.0032153427600860596
v -3.5089845657348633 0.5 2.1855694143368964e-08
v -3.48599910736084 0.4848421514034271 -2.0
v -3.48599910736084 0.48484206199645996 2.119312014770003e-08
v -3.5089845657348633 0.5000000596046448 -2.0
v -3.627568483352661 0.5000000596046448 -2.0
v -4.5 0.5000001788139343 -4.0
v -3.627568483352661 0.5000001788139343 -4.0
v -4.5 0.5000000596046448 -2.0
v -3.5089845657348633 0.5000000596046448 -2.0
v -3.48599910736084 0.4848422408103943 -4.0
v -3.48599910736084 0.4848421514034271 -2.0
v -3.5089845657348633 0.5000001788139343 -4.0
v -3.627568483352661 0.5000002384185791 -6.0
v -4.5 0.5000001788139343 -4.0
v -4.5 0.5000002384185791 -6.0
v -3.627568483352661 0.5000001788139343 -4.0
v -3.5089845657348633 0.5000001788139343 -4.0
v -3.48599910736084 0.48484233021736145 -6.0
v -3.48599910736084 0.4848422408103943 -4.0
v -3.5089845657348633 0.5000002384185791 -6.0
v -3.627568483352661 0.5000003576278687 -8.0
v -4.5 0.5000002384185791 -6.0
v -4.5 0.5000003576278687 -8.0
v -3.627568483352661 0.5000002384185791 -6.0
v -3.5089845657348633 0.5000002384185791 -6.0
v -3.48599910736084 0.4848423898220062 -8.0
v -3.48599910736084 0.48484233021736145 -6.0
v -3.5089845657348633 0.5000003576278687 -8.0
v -4.5 0.5000004172325134 -10.0
v -3.627568483352661 0.5000003576278687 -8.0
v -4.5 0.5000003576278687 -8.0
v -3.627568483352661 0.5000003576278687 -10.0
v -3.5089845657348633 0.5000003576278687 -8.0
v -3.48599910736084 0.4848424792289734 -10.0
v -3.48599910736084 0.4848423898220062 -8.0
v -3.5089845657348633 0.5000004172325134 -10.0
v -3.48599910736084 0.48484182357788086 6.0
v -3.48599910736084 0.39514610171318054 4.0
v -3.48599910736084 0.39514604210853577 6.0
v -3.48599910736084 0.48484188318252563 4.0
v -3.48599910736084 0.48484188318252563 4.0
v -3.48599910736084 0.3951462209224701 2.0
v -3.48599910736084 0.39514610171318054 4.0
v -3.48599910736084 0.4848419725894928 2.0
v -3.48599910736084 0.4848419725894928 2.0
v -3.48599910736084 0.39514628052711487 1.727239329341046e-08
v -3.48599910736084 0.3951462209224701 2.0
v -3.48599910736084 0.48484206199645996 2.119312014770003e-08
v -3.48599910736084 0.48484206199645996 2.119312014770003e-08
v -3.48599910736084 0.39514636993408203 -2.0
v -3.48599910736084 0.39514628052711487 1.727239329341046e-08
v -3.48599910736084 0.4848421514034271 -2.0
v -3.48599910736084 0.4848421514034271 -2.0
v -3.48599910736084 0.3951464891433716 -4.0
v -3.48599910736084 0.39514636993408203 -2.0
v -3.48599910736084 0.4848422408103943 -4.0
v -3.48599910736084 0.4848422408103943 -4.0
v -3.48599910736084 0.39514654874801636 -6.0
v -3.48599910736084 0.3951464891433716 -4.0
v -3.48599910736084 0.48484233021736145 -6.0
v -3.48599910736084 0.48484233021736145 -6.0
v -3.48599910736084 0.3951466381549835 -8.0
v -3.48599910736084 0.39514654874801636 -6.0
v -3.48599910736084 0.4848423898220062 -8.0
v -3.48599910736084 0.4848423898220062 -8.0
v -3.48599910736084 0.3951466977596283 -10.0
v -3.48599910736084 0.3951466381549835 -8.0
v -3.48599910736084 0.4848424792289734 -10.0
v -3.48599910736084 0.4848424792289734 -10.0
v -3.48599910736084 0.39514681696891785 -12.0
v -3.48599910736084 0.3951466977596283 -10.0
v -3.48599910736084 0.48484259843826294 -12.0
v -3.5089845657348633 0.5000004172325134 -10.0
v -3.48599910736084 0.48484259843826294 -12.0
v -3.48599910736084 0.4848424792289734 -10.0
v -3.5089845657348633 0.500000536441803 -12.0
v -3.627568483352661 0.500000536441803 -12.0
v -4.5 0.5000004172325134 -10.0
v -4.5 0.500000536441803 -12.0
v -3.627568483352661 0.5000003576278687 -10.0
v -3.5 -1.7484555314695172e-07 4.0
v -3.5 0.39514610171318054 6.0
v -3.5 0.39514610171318054 4.0
v -3.5 -1.9789136729286838e-07 6.0
v -3.5 -8.742277657347586e-08 2.0
v -3.5 0.39514610171318054 4.0
v -3.5 0.3951462209224701 2.0
v -3.5 -1.7484555314695172e-07 4.0
v -3.5 -2.220446049250313e-16 -9.705877942853365e-24
v -3.5 0.3951462209224701 2.0
v -3.5 0.39514628052711487 1.727239329341046e-08
v -3.5 -8.742277657347586e-08 2.0
v -3.5 8.742277657347586e-08 -2.0
v -3.5 0.39514628052711487 1.727239329341046e-08
v -3.5 0.39514636993408203 -2.0
v -3.5 -2.220446049250313e-16 -9.705877942853365e-24
v -3.5 1.7484555314695172e-07 -4.0
v -3.5 0.39514636993408203 -2.0
v -3.5 0.3951464891433716 -4.0
v -3.5 8.742277657347586e-08 -2.0
v -3.5 2.6226831550957286e-07 -6.0
v -3.5 0.3951464891433716 -4.0
v -3.5 0.39514654874801636 -6.0
v -3.5 1.7484555314695172e-07 -4.0
v -3.5 3.4969110629390343e-07 -8.0
v -3.5 0.39514654874801636 -6.0
v -3.5 0.3951466381549835 -8.0
v -3.5 2.6226831550957286e-07 -6.0
v -3.5 4.3711386865652457e-07 -10.0
v -3.5 0.3951466381549835 -8.0
v -3.5 0.3951466977596283 -10.0
v -3.5 3.4969110629390343e-07 -8.0
v -3.5 5.245366310191457e-07 -12.0
v -3.5 0.3951466977596283 -10.0
v -3.5 0.39514681696891785 -12.0
v -3.5 4.3711386865652457e-07 -10.0
v -3.5089845657348633 0.4999997913837433 4.0
v -3.627568483352661 0.4999997317790985 6.0
v -3.627568483352661 0.4999997317790985 4.0
v -3.5089845657348633 0.4999997615814209 6.0
v -3.5089845657348633 0.49999991059303284 2.0
v -3.627568483352661 0.4999997317790985 4.0
v -3.627568483352661 0.49999991059303284 2.0
v -3.5089845657348633 0.4999997913837433 4.0
v -3.5089845657348633 0.49999991059303284 2.0
v -3.627568483352661 0.5 2.1855694143368964e-08
v -3.5089845657348633 0.5 2.1855694143368964e-08
v -3.627568483352661 0.49999991059303284 2.0
v -3.5089845657348633 0.5 2.1855694143368964e-08
v -3.627568483352661 0.5000000596046448 -2.0
v -3.5089845657348633 0.5000000596046448 -2.0
v -3.627568483352661 0.5 2.1855694143368964e-08
v -3.5089845657348633 0.5000000596046448 -2.0
v -3.627568483352661 0.5000001788139343 -4.0
v -3.5089845657348633 0.5000001788139343 -4.0
v -3.627568483352661 0.5000000596046448 -2.0
v -3.5089845657348633 0.5000001788139343 -4.0
v -3.627568483352661 0.5000002384185791 -6.0
v -3.5089845657348633 0.5000002384185791 -6.0
v -3.627568483352661 0.5000001788139343 -4.0
v -3.5089845657348633 0.5000002384185791 -6.0
v -3.627568483352661 0.5000003576278687 -8.0
v -3.5089845657348633 0.5000003576278687 -8.0
v -3.627568483352661 0.5000002384185791 -6.0
v -3.5089845657348633 0.5000004172325134 -10.0
v -3.627568483352661 0.5000003576278687 -8.0
v -3.627568483352661 0.5000003576278687 -10.0
v -3.5089845657348633 0.5000003576278687 -8.0
v -3.5089845657348633 0.5000004172325134 -10.0
v -3.627568483352661 0.500000536441803 -12.0
v -3.5089845657348633 0.500000536441803 -12.0
v -3.627568483352661 0.5000003576278687 -10.0
v -4.5 0.4999997615814209 6.0
v -3.627568483352661 0.4999997913837433 8.000000953674316
v -4.5 0.4999997913837433 8.0
v -3.627568483352661 0.4999997317790985 6.0
v -3.5089845657348633 0.49999985098838806 8.000000953674316
v -3.48599910736084 0.48484182357788086 6.0
v -3.48599910736084 0.484841912984848 8.000000953674316
v -3.5089845657348633 0.4999997615814209 6.0
v -3.48599910736084 0.484841912984848 8.000000953674316
v -3.48599910736084 0.39514604210853577 6.0
v -3.48599910736084 0.39514613151550293 8.000000953674316
v -3.48599910736084 0.48484182357788086 6.0
v -3.5 -1.9789136729286838e-07 6.0
v -3.5 0.3951461613178253 8.000000953674316
v -3.5 0.39514610171318054 6.0
v -3.5 -8.583068478174027e-08 8.000000953674316
v -3.5089845657348633 0.4999997615814209 6.0
v -3.627568483352661 0.4999997913837433 8.000000953674316
v -3.627568483352661 0.4999997317790985 6.0
v -3.5089845657348633 0.49999985098838806 8.000000953674316
v -3.5089845657348633 0.49999985098838806 8.000000953674316
v -3.48599910736084 0.4848419725894928 9.000000953674316
v -3.5089845657348633 0.49999991059303284 9.000000953674316
v -3.48599910736084 0.484841912984848 8.000000953674316
v -3.48599910736084 0.484841912984848 8.000000953674316
v -3.48599910736084 0.3951462507247925 9.000000953674316
v -3.48599910736084 0.4848419725894928 9.000000953674316
v -3.48599910736084 0.39514613151550293 8.000000953674316
v -3.627568483352661 0.4999997913837433 8.000000953674316
v -4.5 0.49999985098838806 9.000000953674316
v -4.5 0.4999997913837433 8.0
v -3.627568483352661 0.49999991059303284 9.000000953674316
v -3.5 -8.583068478174027e-08 8.000000953674316
v -3.5 0.3951462507247925 9.000000953674316
v -3.5 0.3951461613178253 8.000000953674316
v -3.5 9.53674206272126e-09 9.000000953674316
v -3.5089845657348633 0.49999985098838806 8.000000953674316
v -3.627568483352661 0.49999991059303284 9.000000953674316
v -3.627568483352661 0.4999997913837433 8.000000953674316
v -3.5089845657348633 0.49999991059303284 9.000000953674316
vn -1.8315877525765245e-07 1.0 -1.525879156361043e-07
vn -1.8315877525765245e-07 1.0 -1.525879156361043e-07
vn -1.8315877525765245e-07 1.0 -1.525879156361043e-07
vn 3.6631760735872376e-07 1.0 0.0
vn -3.6631757893701433e-07 1.0 -1.5258788721439487e-07
vn -3.663175505153049e-07 1.0 -1.525879156361043e-07
vn -3.6631757893701433e-07 1.0 -1.5258787300354015e-07
vn -1.831588321010713e-07 1.0 0.0
vn -5.494765105140687e-07 1.0 0.0
vn -5.494765105140687e-07 1.0 0.0
vn -5.494765105140687e-07 1.0 0.0
vn -3.663177210455615e-07 1.0 0.0
vn -5.494765673574875e-07 1.0 1.515910525995423e-07
vn -5.494765673574875e-07 1.0 1.515910525995423e-07
vn -5.494765673574875e-07 1.0 1.515910525995423e-07
vn -5.494765673574875e-07 1.0 1.515910525995423e-07
vn -5.494765673574875e-07 1.0 0.0
vn -5.494765673574875e-07 1.0 0.0
vn -5.494765673574875e-07 1.0 0.0
vn -5.494765673574875e-07 1.0 0.0
vn -3.6631760735872376e-07 1.0 0.0
vn -3.6631760735872376e-07 1.0 0.0
vn -3.663176642021426e-07 1.0 0.0
vn -5.494764536706498e-07 1.0 -1.5250581952841458e-07
vn 1.83158547883977e-07 1.0 3.816751927843143e-07
vn 1.8315856209483172e-07 1.0 3.816752212060237e-07
vn 1.8315857630568644e-07 1.0 3.8167524962773314e-07
vn -3.663178063106898e-07 1.0 1.526700970089223e-07
vn -1.8315851946226758e-07 1.0 -4.5776340584779973e-07
vn -1.8315850525141286e-07 1.0 -4.5776340584779973e-07
vn -1.8315850525141286e-07 1.0 -4.5776340584779973e-07
vn 9.157945441984339e-07 1.0 4.5776397428198834e-07
vn 9.157945441984339e-07 1.0 4.5776397428198834e-07
vn 9.157945441984339e-07 1.0 4.5776397428198834e-07
vn 1.831587184142336e-07 1.0 1.5258788721439487e-07
vn 0.7071067690849304 0.7071067690849304 0.0
vn 0.7071067690849304 0.7071067690849304 0.0
vn 0.7071067690849304 0.7071067690849304 0.0
vn 0.7071067690849304 0.7071067690849304 0.0
vn 0.7071067690849304 0.7071067690849304 0.0
vn 0.7071067690849304 0.7071067690849304 0.0
vn 0.7071067690849304 0.7071067690849304 0.0
vn 0.7071067690849304 0.7071067690849304 0.0
vn 0.7071067690849304 0.7071067690849304 0.0
vn 0.7071067690849304 0.7071067690849304 0.0
vn 0.7071067690849304 0.7071067690849304 0.0
vn 0.7071067690849304 0.7071067690849304 0.0
vn 0.7071067690849304 0.7071067690849304 1.0719107024215191e-07
vn 0.7071067690849304 0.7071067690849304 1.0719107024215191e-07
vn 0.7071067690849304 0.7071067690849304 1.071910560312972e-07
vn 0.7071067690849304 0.7071067690849304 1.0719104892586984e-07
vn 0.7071067690849304 0.7071067690849304 0.0
vn 0.7071067690849304 0.7071067690849304 0.0
vn 0.7071067690849304 0.7071067690849304 0.0
vn 0.7071067690849304 0.7071067690849304 0.0
vn 0.7071067690849304 0.7071067690849304 -1.0783787729451433e-07
vn 0.7071067690849304 0.7071067690849304 -1.0783787729451433e-07
vn 0.7071067690849304 0.7071067690849304 -1.0783787729451433e-07
vn 0.7071067690849304 0.7071067690849304 -1.0783787729451433e-07
vn 0.7071067690849304 0.7071067690849304 1.0795403682095639e-07
vn 0.7071067690849304 0.7071067690849304 1.0795403682095639e-07
vn 0.7071067690849304 0.7071067690849304 1.079540510318111e-07
vn 0.7071067690849304 0.7071067690849304 1.079540510318111e-07
vn 0.7071067690849304 0.7071067690849304 1.0789593574145329e-07
vn 0.7071067690849304 0.7071067690849304 1.0789593574145329e-07
vn 0.7071067690849304 0.7071067690849304 1.0789592863602593e-07
vn 0.7071067690849304 0.7071067690849304 1.0789592863602593e-07
vn 1.0 0.0 0.0
vn 1.0 0.0 0.0
vn 1.0 0.0 0.0
vn 1.0 0.0 0.0
vn 1.0 0.0 0.0
vn 1.0 0.0 0.0
vn 1.0 0.0 0.0
vn 1.0 0.0 0.0
vn 1.0 0.0 0.0
vn 1.0 0.0 0.0
vn 1.0 0.0 0.0
vn 1.0 0.0 0.0
vn 1.0 0.0 0.0
vn 1.0 0.0 0.0
vn 1.0 0.0 0.0
vn 1.0 0.0 0.0
vn 1.0 0.0 0.0
vn 1.0 0.0 0.0
vn 1.0 0.0 0.0
vn 1.0 0.0 0.0
vn 1.0 0.0 0.0
vn 1.0 0.0 0.0
vn 1.0 0.0 0.0
vn 1.0 0.0 0.0
vn 1.0 0.0 0.0
vn 1.0 0.0 0.0
vn 1.0 0.0 0.0
vn 1.0 0.0 0.0
vn 1.0 0.0 0.0
vn 1.0 0.0 0.0
vn 1.0 0.0 0.0
vn 1.0 0.0 0.0
vn 1.0 0.0 0.0
vn 1.0 0.0 0.0
vn 1.0 0.0 0.0
vn 1.0 0.0 0.0
vn 0.7071067690849304 0.7071067690849304 0.0
vn 0.7071067690849304 0.7071067690849304 0.0
vn 0.7071067690849304 0.7071067690849304 0.0
vn 0.7071067690849304 0.7071067690849304 0.0
vn -1.8315877525765245e-07 1.0 0.0
vn -1.8315877525765245e-07 1.0 0.0
vn -1.8315877525765245e-07 1.0 0.0
vn -3.6631769262385205e-07 1.0 -1.5258794405781373e-07
vn 0.4876076877117157 -0.8730628490447998 0.0
vn 0.4876076877117157 -0.8730628490447998 0.0
vn 0.4876076877117157 -0.8730628490447998 0.0
vn 0.4876076877117157 -0.8730628490447998 0.0
vn 0.4876076877117157 -0.8730628490447998 0.0
vn 0.4876076877117157 -0.8730628490447998 0.0
vn 0.4876077175140381 -0.8730628490447998 0.0
vn 0.487606406211853 -0.8730635643005371 0.0
vn 0.4876064658164978 -0.8730635643005371 0.0
vn 0.4876064658164978 -0.8730635643005371 0.0
vn 0.487606406211853 -0.8730635643005371 0.0
vn 0.4876077175140381 -0.8730628490447998 0.0
vn 0.4876076877117157 -0.8730628490447998 -1.3234848950105516e-07
vn 0.4876076877117157 -0.8730628490447998 -1.3234848950105516e-07
vn 0.4876076281070709 -0.8730628490447998 -1.3234848950105516e-07
vn 0.4876076281070709 -0.8730628490447998 -1.3234848950105516e-07
vn 0.4876076877117157 -0.8730628490447998 0.0
vn 0.4876076877117157 -0.8730628490447998 0.0
vn 0.4876076877117157 -0.8730628490447998 0.0
vn 0.4876076877117157 -0.8730628490447998 0.0
vn 0.4876076877117157 -0.8730628490447998 1.331471395360495e-07
vn 0.4876076877117157 -0.8730628490447998 1.331471395360495e-07
vn 0.4876076877117157 -0.8730628490447998 1.331471395360495e-07
vn 0.48760634660720825 -0.8730635643005371 0.0
vn 0.4876064658164978 -0.8730635046958923 -1.3329068337952776e-07
vn 0.4876064658164978 -0.8730635046958923 -1.3329066916867305e-07
vn 0.4876064658164978 -0.8730635046958923 -1.3329066916867305e-07
vn 0.4876064658164978 -0.8730635046958923 -1.3329066916867305e-07
vn 0.4876064658164978 -0.8730635643005371 -1.33218918563216e-07
vn 0.487606406211853 -0.8730635643005371 -1.33218918563216e-07
vn 0.487606406211853 -0.8730635643005371 -1.33218918563216e-07
vn 0.4876076877117157 -0.8730628490447998 0.0
vn 0.4876064658164978 -0.8730635643005371 0.0
vn 0.487606406211853 -0.8730635643005371 0.0
vn 0.487606406211853 -0.8730635643005371 0.0
vn 0.4876077175140381 -0.8730628490447998 0.0
vn 1.0 0.0 0.0
vn 1.0 0.0 0.0
vn 1.0 0.0 0.0
vn 1.0 0.0 0.0
vn 1.0 0.0 0.0
vn 1.0 0.0 0.0
vn 1.0 0.0 0.0
vn 1.0 0.0 0.0
vn 1.0 0.0 0.0
vn 1.0 0.0 0.0
vn 1.0 0.0 0.0
vn 1.0 0.0 0.0
vn 1.0 0.0 0.0
vn 1.0 0.0 0.0
vn 1.0 0.0 0.0
vn 1.0 0.0 0.0
vn 1.0 0.0 0.0
vn 1.0 0.0 0.0
vn 1.0 0.0 0.0
vn 1.0 0.0 0.0
vn 1.0 0.0 0.0
vn 1.0 0.0 0.0
vn 1.0 0.0 0.0
vn 1.0 0.0 0.0
vn 1.0 0.0 0.0
vn 1.0 0.0 0.0
vn 1.0 0.0 0.0
vn 1.0 0.0 0.0
vn 1.0 0.0 0.0
vn 1.0 0.0 0.0
vn 1.0 0.0 0.0
vn 1.0 0.0 0.0
vn 1.0 0.0 0.0
vn 1.0 0.0 0.0
vn 1.0 0.0 0.0
vn 1.0 0.0 0.0
vn -0.7071045637130737 0.7071089148521423 -1.0789628390739381e-07
vn -0.7071045637130737 0.7071089148521423 -1.0789627680196645e-07
vn -0.7071045637130737 0.7071089148521423 -1.0789627680196645e-07
vn -0.7071045637130737 0.7071089744567871 -1.078962341694023e-07
vn -0.7071045637130737 0.7071089744567871 -1.0789626259111174e-07
vn -0.7071045637130737 0.7071089148521423 -1.0789625548568438e-07
vn -0.7071045637130737 0.7071089148521423 -1.0789625548568438e-07
vn -0.7071045637130737 0.7071089744567871 -1.0789630522367588e-07
vn -0.7071045637130737 0.7071089148521423 0.0
vn -0.7071046829223633 0.7071089148521423 0.0
vn -0.7071046829223633 0.7071089148521423 0.0
vn -0.7071046829223633 0.7071089148521423 0.0
vn -0.7071045637130737 0.7071089148521423 1.0719139709181036e-07
vn -0.7071045637130737 0.7071089148521423 1.0719138288095564e-07
vn -0.7071045637130737 0.7071089744567871 1.0719139709181036e-07
vn -0.7071046233177185 0.7071088552474976 1.0719138288095564e-07
vn -0.7071045637130737 0.7071089148521423 0.0
vn -0.7071045637130737 0.7071089148521423 0.0
vn -0.7071046829223633 0.7071089148521423 0.0
vn -0.7071046829223633 0.7071089148521423 0.0
vn -0.7071056962013245 0.7071078419685364 -1.078380336139162e-07
vn -0.7071056962013245 0.7071078419685364 -1.0783804071934355e-07
vn -0.7071056365966797 0.7071078419685364 -1.078380336139162e-07
vn -0.7071046829223633 0.7071089148521423 0.0
vn -0.7071056365966797 0.7071078419685364 2.6988553258888714e-07
vn -0.7071056962013245 0.7071078419685364 2.698855610105966e-07
vn -0.7071056962013245 0.7071078419685364 2.698855041671777e-07
vn -0.7071034908294678 0.7071099877357483 3.778408483867679e-07
vn -0.7071036100387573 0.7071099877357483 0.0
vn -0.7071036100387573 0.7071099877357483 0.0
vn -0.7071036100387573 0.7071099877357483 0.0
vn -0.7071024179458618 0.7071110606193542 0.0
vn -1.0 0.0 0.0
vn -1.0 0.0 0.0
vn -1.0 0.0 0.0
vn -1.0 0.0 0.0
vn -1.0 0.0 0.0
vn -1.0 0.0 0.0
vn -1.0 0.0 0.0
vn -1.0 0.0 0.0
vn -1.0 0.0 0.0
vn -1.0 0.0 0.0
vn -1.0 0.0 0.0
vn -1.0 0.0 0.0
vn -1.0 0.0 0.0
vn -1.0 0.0 0.0
vn -1.0 0.0 0.0
vn -1.0 0.0 0.0
vn -1.0 0.0 0.0
vn -1.0 0.0 0.0
vn -1.0 0.0 0.0
vn -1.0 0.0 0.0
vn -1.0 0.0 0.0
vn -1.0 0.0 0.0
vn -1.0 0.0 0.0
vn -1.0 0.0 0.0
vn -1.0 0.0 0.0
vn -1.0 0.0 0.0
vn -1.0 0.0 0.0
vn -1.0 0.0 0.0
vn -1.0 0.0 0.0
vn -1.0 0.0 0.0
vn -1.0 0.0 0.0
vn -1.0 0.0 0.0
vn -1.0 0.0 0.0
vn -1.0 0.0 0.0
vn -1.0 0.0 0.0
vn -1.0 0.0 0.0
vn -0.7071045637130737 0.7071089148521423 -2.1579252518222347e-07
vn -0.7071045637130737 0.7071089148521423 -2.1579251097136876e-07
vn -0.7071046829223633 0.7071089148521423 -2.1579252518222347e-07
vn -0.7071024179458618 0.7071110606193542 -1.0789661075705226e-07
vn -0.48760905861854553 -0.8730621337890625 0.0
vn -0.4876090884208679 -0.8730621337890625 0.0
vn -0.48760905861854553 -0.8730621337890625 0.0
vn -0.48760905861854553 -0.8730621337890625 0.0
vn -0.48760905861854553 -0.8730621337890625 3.9965615883374994e-07
vn -0.48760905861854553 -0.8730621337890625 3.996561019903311e-07
vn -0.48760905861854553 -0.8730621337890625 3.996561304120405e-07
vn -0.48760780692100525 -0.873062789440155 3.330470406126551e-07
vn -0.4876077473163605 -0.873062789440155 0.0
vn -0.48760780692100525 -0.873062789440155 0.0
vn -0.48760780692100525 -0.873062789440155 0.0
vn -0.48760905861854553 -0.8730621337890625 0.0
vn -0.48760905861854553 -0.8730621337890625 -1.3234840423592686e-07
vn -0.4876091182231903 -0.8730620741844177 -1.3234840423592686e-07
vn -0.48760905861854553 -0.8730621337890625 -1.3234840423592686e-07
vn -0.48760905861854553 -0.8730621337890625 -1.3234840423592686e-07
vn -0.48760905861854553 -0.8730621337890625 0.0
vn -0.48760905861854553 -0.8730621337890625 0.0
vn -0.48760905861854553 -0.8730621337890625 0.0
vn -0.48760905861854553 -0.8730621337890625 0.0
vn -0.48760905861854553 -0.8730621337890625 1.3314702584921179e-07
vn -0.48760905861854553 -0.8730621337890625 1.3314702584921179e-07
vn -0.48760905861854553 -0.8730621337890625 1.3314702584921179e-07
vn -0.48760780692100525 -0.873062789440155 0.0
vn -0.48760780692100525 -0.873062789440155 -4.66516951291851e-07
vn -0.48760780692100525 -0.873062789440155 -4.66516951291851e-07
vn -0.48760783672332764 -0.873062789440155 -4.6651700813526986e-07
vn -0.48760783672332764 -0.873062789440155 -4.6651700813526986e-07
vn -0.4876077473163605 -0.873062789440155 -1.3321877645466884e-07
vn -0.48760780692100525 -0.873062789440155 -1.3321879066552356e-07
vn -0.48760780692100525 -0.873062789440155 -1.33218819087233e-07
vn -0.48760905861854553 -0.8730621337890625 0.0
vn -0.48760905861854553 -0.8730621337890625 3.3304681323897967e-07
vn -0.48760905861854553 -0.8730621337890625 3.3304678481727024e-07
vn -0.48760905861854553 -0.8730621337890625 3.3304681323897967e-07
vn -0.48760905861854553 -0.8730621337890625 3.3304681323897967e-07
vn -1.0 0.0 0.0
vn -1.0 0.0 0.0
vn -1.0 0.0 0.0
vn -1.0 0.0 0.0
vn -1.0 0.0 0.0
vn -1.0 0.0 0.0
vn -1.0 0.0 0.0
vn -1.0 0.0 0.0
vn -1.0 0.0 0.0
vn -1.0 0.0 0.0
vn -1.0 0.0 0.0
vn -1.0 0.0 0.0
vn -1.0 0.0 0.0
vn -1.0 0.0 0.0
vn -1.0 0.0 0.0
vn -1.0 0.0 0.0
vn -1.0 0.0 0.0
vn -1.0 0.0 0.0
vn -1.0 0.0 0.0
vn -1.0 0.0 0.0
vn -1.0 0.0 0.0
vn -1.0 0.0 0.0
vn -1.0 0.0 0.0
vn -1.0 0.0 0.0
vn -1.0 0.0 0.0
vn -1.0 0.0 0.0
vn -1.0 0.0 0.0
vn -1.0 0.0 0.0
vn -1.0 0.0 0.0
vn -1.0 0.0 0.0
vn -1.0 0.0 0.0
vn -1.0 0.0 0.0
vn -1.0 0.0 0.0
vn -1.0 0.0 0.0
vn -1.0 0.0 0.0
vn -1.0 0.0 0.0
vn 3.6631752209359547e-07 1.0 2.2888178818902816e-07
vn 3.6631752209359547e-07 1.0 2.2888178818902816e-07
vn 3.663175505153049e-07 1.0 2.2888178818902816e-07
vn -1.8315884631192603e-07 1.0 0.0
vn 0.7071067690849304 0.7071067690849304 0.0
vn 0.7071067690849304 0.7071067690849304 0.0
vn 0.7071067690849304 0.7071067690849304 0.0
vn 0.7071067690849304 0.7071067690849304 0.0
vn 1.0 0.0 0.0
vn 1.0 0.0 0.0
vn 1.0 0.0 0.0
vn 1.0 0.0 0.0
vn 0.4876064658164978 -0.8730635643005371 0.0
vn 0.4876064658164978 -0.8730635643005371 0.0
vn 0.4876064658164978 -0.8730635046958923 0.0
vn 0.4876077175140381 -0.8730628490447998 0.0
vn 1.0 0.0 0.0
vn 1.0 0.0 0.0
vn 1.0 0.0 0.0
vn 1.0 0.0 0.0
vn -0.7071034908294678 0.7071099877357483 1.618445963913473e-07
vn -0.7071034908294678 0.7071099877357483 1.618445963913473e-07
vn -0.7071034908294678 0.7071099877357483 1.6184458218049258e-07
vn -0.7071046233177185 0.7071088552474976 1.078962341694023e-07
vn -1.0 0.0 0.0
vn -1.0 0.0 0.0
vn -1.0 0.0 0.0
vn -1.0 0.0 0.0
vn -0.48760783672332764 -0.873062789440155 -1.3321876224381413e-07
vn -0.48760780692100525 -0.873062789440155 -1.3321876224381413e-07
vn -0.48760783672332764 -0.873062789440155 -1.3321876224381413e-07
vn -0.48760905861854553 -0.8730621337890625 0.0
vn -1.0 0.0 0.0
vn -1.0 0.0 0.0
vn -1.0 0.0 0.0
vn -1.0 0.0 0.0
vn 1.0 0.0 0.0
vn 1.0 0.0 0.0
vn 1.0 0.0 0.0
vn 1.0 0.0 0.0
vn -0.7071045637130737 0.7071089148521423 0.0
vn -0.7071045637130737 0.7071089148521423 0.0
vn -0.7071046829223633 0.7071089148521423 0.0
vn -0.7071034908294678 0.7071099877357483 -1.0789634785624003e-07
vn -0.48760780692100525 -0.873062789440155 0.0
vn -0.48760780692100525 -0.873062789440155 0.0
vn -0.48760783672332764 -0.873062789440155 0.0
vn -0.48760783672332764 -0.873062789440155 0.0
vn -1.0 0.0 0.0
vn -1.0 0.0 0.0
vn -1.0 0.0 0.0
vn -1.0 0.0 0.0
vn -1.8315874683594302e-07 1.0 -1.5258780194926658e-07
vn -1.8315876104679774e-07 1.0 -1.5258780194926658e-07
vn -1.831587326250883e-07 1.0 -1.5258780194926658e-07
vn -0.0 1.0 0.0
vn 0.7071067690849304 0.7071067690849304 0.0
vn 0.7071067690849304 0.7071067690849304 0.0
vn 0.7071067690849304 0.7071067690849304 0.0
vn 0.7071067690849304 0.7071067690849304 0.0
vn 0.4876064658164978 -0.8730635046958923 0.0
vn 0.4876064658164978 -0.8730635046958923 0.0
vn 0.4876064658164978 -0.8730635046958923 0.0
vn 0.4876064658164978 -0.8730635046958923 0.0
vn 1.0 0.0 0.0
vn 1.0 0.0 0.0
vn 1.0 0.0 0.0
vn 1.0 0.0 0.0
vn -1.0 0.0 0.0
vn -1.0 0.0 0.0
vn -1.0 0.0 0.0
vn -1.0 0.0 0.0
vn -0.0 1.0 0.0
vn -0.0 1.0 0.0
vn -0.0 1.0 0.0
vn -0.0 1.0 0.0
vn 0.5505253076553345 0.834818422794342 0.0
vn 0.5505253076553345 0.834818422794342 0.0
vn 0.5505253076553345 0.834818422794342 0.0
vn 0.5505253076553345 0.834818422794342 0.0
vn -0.0 1.0 0.0
vn -0.0 1.0 0.0
vn -0.0 1.0 0.0
vn -0.0 1.0 0.0
vn 0.5505253076553345 0.834818422794342 0.0
vn 0.5505253076553345 0.834818422794342 0.0
vn 0.5505253076553345 0.834818422794342 0.0
vn 0.5505253076553345 0.834818422794342 0.0
vn -0.0 1.0 0.0
vn -0.0 1.0 0.0
vn -0.0 1.0 0.0
vn -0.0 1.0 0.0
vn 0.5505253076553345 0.834818422794342 0.0
vn 0.5505253076553345 0.834818422794342 0.0
vn 0.5505253076553345 0.834818422794342 0.0
vn 0.5505253076553345 0.834818422794342 0.0
vn -0.0 1.0 0.0
vn -0.0 1.0 0.0
vn -0.0 1.0 0.0
vn -0.0 1.0 0.0
vn 0.5505253076553345 0.834818422794342 0.0
vn 0.5505253076553345 0.834818422794342 0.0
vn 0.5505253076553345 0.834818422794342 0.0
vn 0.5505253076553345 0.834818422794342 0.0
vn -0.0 1.0 0.0
vn -0.0 1.0 0.0
vn -0.0 1.0 0.0
vn -0.0 1.0 0.0
vn 0.5505253076553345 0.834818422794342 0.0
vn 0.5505253076553345 0.834818422794342 0.0
vn 0.5505253076553345 0.834818422794342 0.0
vn 0.5505253076553345 0.834818422794342 0.0
vn -0.0 1.0 0.0
vn -0.0 1.0 0.0
vn -0.0 1.0 0.0
vn -0.0 1.0 0.0
vn 0.5505253076553345 0.834818422794342 0.0
vn 0.5505253076553345 0.834818422794342 0.0
vn 0.5505253076553345 0.834818422794342 0.0
vn 0.5505253076553345 0.834818422794342 0.0
vn -0.0 1.0 0.0
vn -0.0 1.0 0.0
vn -0.0 1.0 0.0
vn -0.0 1.0 0.0
vn 0.5505253076553345 0.834818422794342 0.0
vn 0.5505253076553345 0.834818422794342 0.0
vn 0.5505253076553345 0.834818422794342 0.0
vn 0.5505253076553345 0.834818422794342 0.0
vn -0.0 1.0 0.0
vn -0.0 1.0 0.0
vn -0.0 1.0 0.0
vn -0.0 1.0 0.0
vn 0.5505253076553345 0.834818422794342 0.0
vn 0.5505253076553345 0.834818422794342 0.0
vn 0.5505253076553345 0.834818422794342 0.0
vn 0.5505253076553345 0.834818422794342 0.0
vn 1.0 0.0 0.0
vn 1.0 0.0 0.0
vn 1.0 0.0 0.0
vn 1.0 0.0 0.0
vn 1.0 0.0 0.0
vn 1.0 0.0 0.0
vn 1.0 0.0 0.0
vn 1.0 0.0 0.0
vn 1.0 0.0 0.0
vn 1.0 0.0 0.0
vn 1.0 0.0 0.0
vn 1.0 0.0 0.0
vn 1.0 0.0 0.0
vn 1.0 0.0 0.0
vn 1.0 0.0 0.0
vn 1.0 0.0 0.0
vn 1.0 0.0 0.0
vn 1.0 0.0 0.0
vn 1.0 0.0 0.0
vn 1.0 0.0 0.0
vn 1.0 0.0 0.0
vn 1.0 0.0 0.0
vn 1.0 0.0 0.0
vn 1.0 0.0 0.0
vn 1.0 0.0 0.0
vn 1.0 0.0 0.0
vn 1.0 0.0 0.0
vn 1.0 0.0 0.0
vn 1.0 0.0 0.0
vn 1.0 0.0 0.0
vn 1.0 0.0 0.0
vn 1.0 0.0 0.0
vn 1.0 0.0 0.0
vn 1.0 0.0 0.0
vn 1.0 0.0 0.0
vn 1.0 0.0 0.0
vn 0.5505253076553345 0.834818422794342 0.0
vn 0.5505253076553345 0.834818422794342 0.0
vn 0.5505253076553345 0.834818422794342 0.0
vn 0.5505253076553345 0.834818422794342 0.0
vn -0.0 1.0 0.0
vn -0.0 1.0 0.0
vn -0.0 1.0 0.0
vn -0.0 1.0 0.0
vn 1.0 0.0 0.0
vn 1.0 0.0 0.0
vn 1.0 0.0 0.0
vn 1.0 0.0 0.0
vn 1.0 0.0 0.0
vn 1.0 0.0 0.0
vn 1.0 0.0 0.0
vn 1.0 0.0 0.0
vn 1.0 0.0 0.0
vn 1.0 0.0 0.0
vn 1.0 0.0 0.0
vn 1.0 0.0 0.0
vn 1.0 0.0 0.0
vn 1.0 0.0 0.0
vn 1.0 0.0 0.0
vn 1.0 0.0 0.0
vn 1.0 0.0 0.0
vn 1.0 0.0 0.0
vn 1.0 0.0 0.0
vn 1.0 0.0 0.0
vn 1.0 0.0 0.0
vn 1.0 0.0 0.0
vn 1.0 0.0 0.0
vn 1.0 0.0 0.0
vn 1.0 0.0 0.0
vn 1.0 0.0 0.0
vn 1.0 0.0 0.0
vn 1.0 0.0 0.0
vn 1.0 0.0 0.0
vn 1.0 0.0 0.0
vn 1.0 0.0 0.0
vn 1.0 0.0 0.0
vn 1.0 0.0 0.0
vn 1.0 0.0 0.0
vn 1.0 0.0 0.0
vn 1.0 0.0 0.0
vn -6.433747898881848e-07 1.0 0.0
vn -6.433749035750225e-07 1.0 0.0
vn -6.433747330447659e-07 1.0 0.0
vn -3.2168736652238294e-07 1.0 0.0
vn -0.0 1.0 0.0
vn -0.0 1.0 0.0
vn -0.0 1.0 0.0
vn -6.433747330447659e-07 1.0 0.0
vn -0.0 1.0 0.0
vn -0.0 1.0 0.0
vn -0.0 1.0 0.0
vn -0.0 1.0 0.0
vn -0.0 1.0 0.0
vn -0.0 1.0 0.0
vn -0.0 1.0 0.0
vn -0.0 1.0 0.0
vn -0.0 1.0 0.0
vn -0.0 1.0 0.0
vn -0.0 1.0 0.0
vn -0.0 1.0 0.0
vn -0.0 1.0 0.0
vn -0.0 1.0 0.0
vn -0.0 1.0 0.0
vn -0.0 1.0 0.0
vn -0.0 1.0 0.0
vn -0.0 1.0 0.0
vn -0.0 1.0 0.0
vn -0.0 1.0 0.0
vn -6.433747898881848e-07 1.0 0.0
vn -6.433749035750225e-07 1.0 0.0
vn -6.433747330447659e-07 1.0 0.0
vn -0.0 1.0 0.0
vn -0.0 1.0 0.0
vn -0.0 1.0 0.0
vn -0.0 1.0 0.0
vn -6.433747330447659e-07 1.0 0.0
vn -0.0 1.0 0.0
vn -0.0 1.0 0.0
vn -0.0 1.0 0.0
vn -0.0 1.0 0.0
vn 0.5505253076553345 0.834818422794342 0.0
vn 0.5505253076553345 0.834818422794342 0.0
vn 0.5505253076553345 0.834818422794342 0.0
vn 0.5505253076553345 0.834818422794342 0.0
vn 1.0 0.0 0.0
vn 1.0 0.0 0.0
vn 1.0 0.0 0.0
vn 1.0 0.0 0.0
vn 1.0 0.0 0.0
vn 1.0 0.0 0.0
vn 1.0 0.0 0.0
vn 1.0 0.0 0.0
vn -3.216873949440924e-07 1.0 0.0
vn -3.216873949440924e-07 1.0 0.0
vn -3.2168736652238294e-07 1.0 0.0
vn -3.2168736652238294e-07 1.0 0.0
vn 0.5505253076553345 0.834818422794342 0.0
vn 0.5505253672599792 0.834818422794342 0.0
vn 0.5505253076553345 0.834818422794342 0.0
vn 0.5505253076553345 0.834818422794342 0.0
vn 1.0 0.0 0.0
vn 1.0 0.0 0.0
vn 1.0 0.0 0.0
vn 1.0 0.0 0.0
vn -0.0 1.0 0.0
vn -0.0 1.0 0.0
vn -0.0 1.0 0.0
vn -0.0 1.0 -1.1444091541079615e-07
vn 1.0 0.0 0.0
vn 1.0 0.0 0.0
vn 1.0 0.0 0.0
vn 1.0 0.0 0.0
vn -3.216873949440924e-07 1.0 -1.1444091541079615e-07
vn -3.216873949440924e-07 1.0 -1.1444091541079615e-07
vn -3.2168736652238294e-07 1.0 -1.1444091541079615e-07
vn -0.0 1.0 0.0
vt 0.9944774508476257 0.3923787474632263
vt 0.4416610896587372 0.25177001953125
vt 0.9944774508476257 0.25177001953125
vt 0.4416610896587372 0.3923787474632263
vt 0.9944774508476257 0.3923787474632263
vt 0.4416610896587372 0.25177001953125
vt 0.9944774508476257 0.25177001953125
vt 0.4416610896587372 0.3923787474632263
vt 0.9944774508476257 0.3923787474632263
vt 0.4416610896587372 0.25177001953125
vt 0.9944774508476257 0.25177001953125
vt 0.4416610896587372 0.3923787474632263
vt 0.9944774508476257 0.3923787474632263
vt 0.4416610896587372 0.25177001953125
vt 0.9944774508476257 0.25177001953125
vt 0.4416610896587372 0.3923787474632263
vt 0.9944774508476257 0.3923787474632263
vt 0.4416610896587372 0.25177001953125
vt 0.9944774508476257 0.25177001953125
vt 0.4416610896587372 0.3923787474632263
vt 0.9944774508476257 0.3923787474632263
vt 0.4416610896587372 0.25177001953125
vt 0.9944774508476257 0.25177001953125
vt 0.4416610896587372 0.3923787474632263
vt 0.9944774508476257 0.3923787474632263
vt 0.4416610896587372 0.25177001953125
vt 0.9944774508476257 0.25177001953125
vt 0.4416610896587372 0.3923787474632263
vt 0.9944774508476257 0.3923787474632263
vt 0.9944774508476257 0.25177001953125
vt 0.9944774508476257 0.25177001953125
vt 0.9944774508476257 0.3923787474632263
vt 0.4416610896587372 0.25177001953125
vt 0.9944774508476257 0.25177001953125
vt 0.4416610896587372 0.3923787474632263
vt 0.9944774508476257 0.3923787474632263
vt 0.4416610896587372 0.40802001953125
vt 0.4416610896587372 0.3923787474632263
vt 0.9944774508476257 0.40802001953125
vt 0.9944774508476257 0.3923787474632263
vt 0.4416610896587372 0.40802001953125
vt 0.4416610896587372 0.3923787474632263
vt 0.9944774508476257 0.40802001953125
vt 0.4416610896587372 0.40802001953125
vt 0.9944774508476257 0.3923787474632263
vt 0.9944774508476257 0.40802001953125
vt 0.4416610896587372 0.3923787474632263
vt 0.9944774508476257 0.3923787474632263
vt 0.4416610896587372 0.40802001953125
vt 0.4416610896587372 0.3923787474632263
vt 0.9944774508476257 0.40802001953125
vt 0.9944774508476257 0.3923787474632263
vt 0.4416610896587372 0.40802001953125
vt 0.4416610896587372 0.3923787474632263
vt 0.9944774508476257 0.40802001953125
vt 0.4416610896587372 0.40802001953125
vt 0.9944774508476257 0.3923787474632263
vt 0.9944774508476257 0.40802001953125
vt 0.4416610896587372 0.3923787474632263
vt 0.9944774508476257 0.3923787474632263
vt 0.4416610896587372 0.40802001953125
vt 0.4416610896587372 0.3923787474632263
vt 0.9944774508476257 0.40802001953125
vt 0.9944774508476257 0.3923787474632263
vt 0.4416610896587372 0.40802001953125
vt 0.4416610896587372 0.3923787474632263
vt 0.9944774508476257 0.40802001953125
vt 0.4416610896587372 0.40802001953125
vt 0.9944774508476257 0.4661344289779663
vt 0.4416610896587372 0.4661344289779663
vt 0.9944774508476257 0.40802001953125
vt 0.4416610896587372 0.40802001953125
vt 0.9944774508476257 0.4661344289779663
vt 0.4416610896587372 0.4661344289779663
vt 0.9944774508476257 0.40802001953125
vt 0.9944774508476257 0.4661344289779663
vt 0.4416610896587372 0.40802001953125
vt 0.9944774508476257 0.40802001953125
vt 0.4416610896587372 0.4661344289779663
vt 0.4416610896587372 0.40802001953125
vt 0.9944774508476257 0.4661344289779663
vt 0.4416610896587372 0.4661344289779663
vt 0.9944774508476257 0.40802001953125
vt 0.4416610896587372 0.40802001953125
vt 0.9944774508476257 0.4661344289779663
vt 0.4416610896587372 0.4661344289779663
vt 0.9944774508476257 0.40802001953125
vt 0.9944774508476257 0.4661344289779663
vt 0.4416610896587372 0.40802001953125
vt 0.9944774508476257 0.40802001953125
vt 0.4416610896587372 0.4661344289779663
vt 0.4416610896587372 0.40802001953125
vt 0.9944774508476257 0.4661344289779663
vt 0.4416610896587372 0.4661344289779663
vt 0.9944774508476257 0.40802001953125
vt 0.4416610896587372 0.40802001953125
vt 0.9944774508476257 0.4661344289779663
vt 0.4416610896587372 0.4661344289779663
vt 0.9944774508476257 0.40802001953125
vt 0.4416610896587372 0.40802001953125
vt 0.9944774508476257 0.4661344289779663
vt 0.4416610896587372 0.4661344289779663
vt 0.9944774508476257 0.40802001953125
vt 0.4416610896587372 0.40802001953125
vt 0.9944774508476257 0.3923787474632263
vt 0.9944774508476257 0.40802001953125
vt 0.4416610896587372 0.3923787474632263
vt 0.4416610896587372 0.25177001953125
vt 0.9944774508476257 0.3923787474632263
vt 0.4416610896587372 0.3923787474632263
vt 0.9944774508476257 0.25177001953125
vt 0.9944774508476257 0.4661344289779663
vt 0.4416610896587372 0.4890003204345703
vt 0.4416610896587372 0.4661344289779663
vt 0.9944774508476257 0.4890003204345703
vt 0.9944774508476257 0.4661344289779663
vt 0.4416610896587372 0.4890003204345703
vt 0.4416610896587372 0.4661344289779663
vt 0.9944774508476257 0.4890003204345703
vt 0.9944774508476257 0.4661344289779663
vt 0.4416610896587372 0.4890003204345703
vt 0.4416610896587372 0.4661344289779663
vt 0.9944774508476257 0.4890003204345703
vt 0.9944774508476257 0.4661344289779663
vt 0.4416610896587372 0.4890003204345703
vt 0.4416610896587372 0.4661344289779663
vt 0.9944774508476257 0.4890003204345703
vt 0.9944774508476257 0.4661344289779663
vt 0.4416610896587372 0.4890003204345703
vt 0.4416610896587372 0.4661344289779663
vt 0.9944774508476257 0.4890003204345703
vt 0.9944774508476257 0.4661344289779663
vt 0.4416610896587372 0.4890003204345703
vt 0.4416610896587372 0.4661344289779663
vt 0.9944774508476257 0.4890003204345703
vt 0.9944774508476257 0.4661344289779663
vt 0.4416610896587372 0.4890003204345703
vt 0.4416610896587372 0.4661344289779663
vt 0.9944774508476257 0.4890003204345703
vt 0.9944774508476257 0.4661344289779663
vt 0.4416610896587372 0.4890003204345703
vt 0.4416610896587372 0.4661344289779663
vt 0.9944774508476257 0.4890003204345703
vt 0.4416610896587372 0.4890003204345703
vt 0.9944774508476257 0.4661344289779663
vt 0.9944774508476257 0.4890003204345703
vt 0.4416610896587372 0.4661344289779663
vt 0.9944774508476257 0.4890003204345703
vt 0.4416610896587372 0.6876654624938965
vt 0.4416610896587372 0.4890003204345703
vt 0.9944774508476257 0.6876654624938965
vt 0.9944774508476257 0.4890003204345703
vt 0.4416610896587372 0.6870197653770447
vt 0.4416610896587372 0.4890003204345703
vt 0.9944774508476257 0.6870197653770447
vt 0.9944774508476257 0.4890003204345703
vt 0.4416610896587372 0.6915203332901001
vt 0.4416610896587372 0.4890003204345703
vt 0.9944774508476257 0.6915203332901001
vt 0.9944774508476257 0.6870197653770447
vt 0.4416610896587372 0.4890003204345703
vt 0.9944774508476257 0.4890003204345703
vt 0.4416610896587372 0.6870197653770447
vt 0.9944774508476257 0.6870197653770447
vt 0.4416610896587372 0.4890003204345703
vt 0.9944774508476257 0.4890003204345703
vt 0.4416610896587372 0.6870197653770447
vt 0.9944774508476257 0.4890003204345703
vt 0.4416610896587372 0.6915203332901001
vt 0.4416610896587372 0.4890003204345703
vt 0.9944774508476257 0.6915203332901001
vt 0.4416610896587372 0.4890003204345703
vt 0.9944774508476257 0.6870197653770447
vt 0.4416610896587372 0.6870197653770447
vt 0.9944774508476257 0.4890003204345703
vt 0.9944774508476257 0.4890003204345703
vt 0.4416610896587372 0.6870197653770447
vt 0.4416610896587372 0.4890003204345703
vt 0.9944774508476257 0.6870197653770447
vt 0.4416610896587372 0.6887235045433044
vt 0.9944774508476257 0.4890003204345703
vt 0.9944774508476257 0.6887235641479492
vt 0.4416610896587372 0.4890003204345703
vt 0.4416610896587372 0.40802001953125
vt 0.9944774508476257 0.3923787474632263
vt 0.4416610896587372 0.3923787474632263
vt 0.9944774508476257 0.40802001953125
vt 0.4416610896587372 0.40802001953125
vt 0.9944774508476257 0.3923787474632263
vt 0.4416610896587372 0.3923787474632263
vt 0.9944774508476257 0.40802001953125
vt 0.9944774508476257 0.3923787474632263
vt 0.4416610896587372 0.40802001953125
vt 0.9944774508476257 0.40802001953125
vt 0.4416610896587372 0.3923787474632263
vt 0.4416610896587372 0.40802001953125
vt 0.9944774508476257 0.3923787474632263
vt 0.4416610896587372 0.3923787474632263
vt 0.9944774508476257 0.40802001953125
vt 0.4416610896587372 0.40802001953125
vt 0.9944774508476257 0.3923787474632263
vt 0.4416610896587372 0.3923787474632263
vt 0.9944774508476257 0.40802001953125
vt 0.9944774508476257 0.3923787474632263
vt 0.4416610896587372 0.40802001953125
vt 0.9944774508476257 0.40802001953125
vt 0.4416610896587372 0.3923787474632263
vt 0.4416610896587372 0.40802001953125
vt 0.9944774508476257 0.3923787474632263
vt 0.4416610896587372 0.3923787474632263
vt 0.9944774508476257 0.40802001953125
vt 0.4416610896587372 0.40802001953125
vt 0.9944774508476257 0.3923787474632263
vt 0.4416610896587372 0.3923787474632263
vt 0.9944774508476257 0.40802001953125
vt 0.9944774508476257 0.4661344289779663
vt 0.4416610896587372 0.40802001953125
vt 0.4416610896587372 0.4661344289779663
vt 0.9944774508476257 0.40802001953125
vt 0.9944774508476257 0.4661344289779663
vt 0.4416610896587372 0.40802001953125
vt 0.4416610896587372 0.4661344289779663
vt 0.9944774508476257 0.40802001953125
vt 0.4416610896587372 0.40802001953125
vt 0.9944774508476257 0.4661344289779663
vt 0.9944774508476257 0.40802001953125
vt 0.4416610896587372 0.4661344289779663
vt 0.9944774508476257 0.4661344289779663
vt 0.4416610896587372 0.40802001953125
vt 0.4416610896587372 0.4661344289779663
vt 0.9944774508476257 0.40802001953125
vt 0.9944774508476257 0.4661344289779663
vt 0.4416610896587372 0.40802001953125
vt 0.4416610896587372 0.4661344289779663
vt 0.9944774508476257 0.40802001953125
vt 0.4416610896587372 0.40802001953125
vt 0.9944774508476257 0.4661344289779663
vt 0.9944774508476257 0.40802001953125
vt 0.4416610896587372 0.4661344289779663
vt 0.9944774508476257 0.4661344289779663
vt 0.4416610896587372 0.40802001953125
vt 0.4416610896587372 0.4661344289779663
vt 0.9944774508476257 0.40802001953125
vt 0.9944774508476257 0.4661344289779663
vt 0.4416610896587372 0.40802001953125
vt 0.4416610896587372 0.4661344289779663
vt 0.9944774508476257 0.40802001953125
vt 0.9944774508476257 0.4661344289779663
vt 0.4416610896587372 0.40802001953125
vt 0.4416610896587372 0.4661344289779663
vt 0.9944774508476257 0.40802001953125
vt 0.9944774508476257 0.3923787474632263
vt 0.4416610896587372 0.40802001953125
vt 0.9944774508476257 0.40802001953125
vt 0.4416610896587372 0.3923787474632263
vt 0.4416610896587372 0.4890003204345703
vt 0.9944774508476257 0.4661344289779663
vt 0.4416610896587372 0.4661344289779663
vt 0.9944774508476257 0.4890003204345703
vt 0.4416610896587372 0.4890003204345703
vt 0.9944774508476257 0.4661344289779663
vt 0.4416610896587372 0.4661344289779663
vt 0.9944774508476257 0.4890003204345703
vt 0.4416610896587372 0.4890003204345703
vt 0.9944774508476257 0.4661344289779663
vt 0.4416610896587372 0.4661344289779663
vt 0.9944774508476257 0.4890003204345703
vt 0.4416610896587372 0.4890003204345703
vt 0.9944774508476257 0.4661344289779663
vt 0.4416610896587372 0.4661344289779663
vt 0.9944774508476257 0.4890003204345703
vt 0.4416610896587372 0.4890003204345703
vt 0.9944774508476257 0.4661344289779663
vt 0.4416610896587372 0.4661344289779663
vt 0.9944774508476257 0.4890003204345703
vt 0.4416610896587372 0.4890003204345703
vt 0.9944774508476257 0.4661344289779663
vt 0.4416610896587372 0.4661344289779663
vt 0.9944774508476257 0.4890003204345703
vt 0.4416610896587372 0.4890003204345703
vt 0.9944774508476257 0.4661344289779663
vt 0.4416610896587372 0.4661344289779663
vt 0.9944774508476257 0.4890003204345703
vt 0.4416610896587372 0.4890003204345703
vt 0.9944774508476257 0.4661344289779663
vt 0.4416610896587372 0.4661344289779663
vt 0.9944774508476257 0.4890003204345703
vt 0.9944774508476257 0.4661344289779663
vt 0.4416610896587372 0.4890003204345703
vt 0.9944774508476257 0.4890003204345703
vt 0.4416610896587372 0.4661344289779663
vt 0.4416610896587372 0.6876654624938965
vt 0.9944774508476257 0.4890003204345703
vt 0.4416610896587372 0.4890003204345703
vt 0.9944774508476257 0.6876654624938965
vt 0.4416610896587372 0.6870197653770447
vt 0.9944774508476257 0.4890003204345703
vt 0.4416610896587372 0.4890003204345703
vt 0.9944774508476257 0.6870197653770447
vt 0.4416610896587372 0.6915203332901001
vt 0.9944774508476257 0.4890003204345703
vt 0.4416610896587372 0.4890003204345703
vt 0.9944774508476257 0.6915203332901001
vt 0.4416610896587372 0.4890003204345703
vt 0.9944774508476257 0.6870197653770447
vt 0.9944774508476257 0.4890003204345703
vt 0.4416610896587372 0.6870197653770447
vt 0.4416610896587372 0.4890003204345703
vt 0.9944774508476257 0.6870197653770447
vt 0.9944774508476257 0.4890003204345703
vt 0.4416610896587372 0.6870197653770447
vt 0.4416610896587372 0.6915203332901001
vt 0.9944774508476257 0.4890003204345703
vt 0.4416610896587372 0.4890003204345703
vt 0.9944774508476257 0.6915203332901001
vt 0.4416610896587372 0.4890003204345703
vt 0.9944774508476257 0.6870197653770447
vt 0.9944774508476257 0.4890003204345703
vt 0.4416610896587372 0.6870197653770447
vt 0.4416610896587372 0.6870197653770447
vt 0.9944774508476257 0.4890003204345703
vt 0.4416610896587372 0.4890003204345703
vt 0.9944774508476257 0.6870197653770447
vt 0.9944774508476257 0.4890003204345703
vt 0.4416610896587372 0.6887235045433044
vt 0.9944774508476257 0.6887235641479492
vt 0.4416610896587372 0.4890003204345703
vt 0.9944774508476257 0.3923787474632263
vt 0.4416610896587372 0.25177001953125
vt 0.9944774508476257 0.25177001953125
vt 0.4416610896587372 0.3923787474632263
vt 0.9944774508476257 0.3923787474632263
vt 0.4416610896587372 0.40802001953125
vt 0.4416610896587372 0.3923787474632263
vt 0.9944774508476257 0.40802001953125
vt 0.4416610896587372 0.40802001953125
vt 0.9944774508476257 0.4661344289779663
vt 0.4416610896587372 0.4661344289779663
vt 0.9944774508476257 0.40802001953125
vt 0.9944774508476257 0.4661344289779663
vt 0.4416610896587372 0.4890003204345703
vt 0.4416610896587372 0.4661344289779663
vt 0.9944774508476257 0.4890003204345703
vt 0.9944774508476257 0.4890003204345703
vt 0.4416610896587372 0.6876654624938965
vt 0.4416610896587372 0.4890003204345703
vt 0.9944774508476257 0.6876654624938965
vt 0.4416610896587372 0.40802001953125
vt 0.9944774508476257 0.3923787474632263
vt 0.4416610896587372 0.3923787474632263
vt 0.9944774508476257 0.40802001953125
vt 0.9944774508476257 0.4661344289779663
vt 0.4416610896587372 0.40802001953125
vt 0.4416610896587372 0.4661344289779663
vt 0.9944774508476257 0.40802001953125
vt 0.4416610896587372 0.4890003204345703
vt 0.9944774508476257 0.4661344289779663
vt 0.4416610896587372 0.4661344289779663
vt 0.9944774508476257 0.4890003204345703
vt 0.4416610896587372 0.6876654624938965
vt 0.9944774508476257 0.4890003204345703
vt 0.4416610896587372 0.4890003204345703
vt 0.9944774508476257 0.6876654624938965
vt 0.9944774508476257 0.40802001953125
vt 0.718069314956665 0.4661344289779663
vt 0.718069314956665 0.40802001953125
vt 0.9944774508476257 0.4661344289779663
vt 0.9944774508476257 0.40802001953125
vt 0.718069314956665 0.3923787474632263
vt 0.7180692553520203 0.40802001953125
vt 0.9944774508476257 0.3923787474632263
vt 0.9944774508476257 0.4890003204345703
vt 0.7180692553520203 0.4661344289779663
vt 0.7180692553520203 0.4890003204345703
vt 0.9944774508476257 0.4661344289779663
vt 0.9944774508476257 0.6876654624938965
vt 0.7180692553520203 0.4890003204345703
vt 0.7180692553520203 0.6876654624938965
vt 0.9944774508476257 0.4890003204345703
vt 0.9944774508476257 0.3923787474632263
vt 0.7180692553520203 0.25177001953125
vt 0.9944774508476257 0.25177001953125
vt 0.718069314956665 0.3923787474632263
vt 0.9944774508476257 0.40802001953125
vt 0.718069314956665 0.3923787474632263
vt 0.9944774508476257 0.3923787474632263
vt 0.718069314956665 0.40802001953125
vt 0.9944774508476257 0.4890003204345703
vt 0.718069314956665 0.4661344289779663
vt 0.9944774508476257 0.4661344289779663
vt 0.718069314956665 0.4890003204345703
vt 0.9944774508476257 0.6876654624938965
vt 0.718069314956665 0.4890003204345703
vt 0.9944774508476257 0.4890003204345703
vt 0.718069314956665 0.6876654624938965
vt 0.9944774508476257 0.40802001953125
vt 0.7180692553520203 0.4661344289779663
vt 0.9944774508476257 0.4661344289779663
vt 0.7180692553520203 0.40802001953125
vt 0.8113231062889099 0.00782078504562378
vt 0.9838231205940247 0.37696152925491333
vt 0.8113231062889099 0.37696152925491333
vt 0.9838231205940247 0.00782078504562378
vt 0.5019609928131104 0.5969909429550171
vt 0.9943996667861938 0.6051505208015442
vt 0.5019609928131104 0.6051505208015442
vt 0.9943996667861938 0.5969909429550171
vt 0.8113231062889099 0.00782078504562378
vt 0.9838231205940247 0.37696152925491333
vt 0.8113231062889099 0.37696152925491333
vt 0.9838231205940247 0.00782078504562378
vt 0.5019609928131104 0.5969909429550171
vt 0.9943996667861938 0.6051505208015442
vt 0.5019609928131104 0.6051505208015442
vt 0.9943996667861938 0.5969909429550171
vt 0.9838231205940247 0.00782078504562378
vt 0.8113231062889099 0.37696152925491333
vt 0.8113231062889099 0.00782078504562378
vt 0.9838231205940247 0.37696152925491333
vt 0.5019609928131104 0.5969909429550171
vt 0.9943996667861938 0.6051505208015442
vt 0.5019609928131104 0.6051505208015442
vt 0.9943996667861938 0.5969909429550171
vt 0.9838231205940247 0.37696152925491333
vt 0.8113231062889099 0.00782078504562378
vt 0.9838231205940247 0.00782078504562378
vt 0.8113231062889099 0.37696152925491333
vt 0.5019609928131104 0.5969909429550171
vt 0.9943996667861938 0.6051505208015442
vt 0.5019609928131104 0.6051505208015442
vt 0.9943996667861938 0.5969909429550171
vt 0.9838231205940247 0.37696152925491333
vt 0.8113231062889099 0.00782078504562378
vt 0.9838231205940247 0.00782078504562378
vt 0.8113231062889099 0.37696152925491333
vt 0.5019609928131104 0.5969909429550171
vt 0.9943996667861938 0.6051505208015442
vt 0.5019609928131104 0.6051505208015442
vt 0.9943996667861938 0.5969909429550171
vt 0.9838231205940247 0.00782078504562378
vt 0.8113231062889099 0.37696152925491333
vt 0.8113231062889099 0.00782078504562378
vt 0.9838231205940247 0.37696152925491333
vt 0.5019609928131104 0.5969909429550171
vt 0.9943996667861938 0.6051505208015442
vt 0.5019609928131104 0.6051505208015442
vt 0.9943996667861938 0.5969909429550171
vt 0.9838231205940247 0.00782078504562378
vt 0.8113231062889099 0.37696152925491333
vt 0.8113231062889099 0.00782078504562378
vt 0.9838231205940247 0.37696152925491333
vt 0.5019609928131104 0.5969909429550171
vt 0.9943996667861938 0.6051505208015442
vt 0.5019609928131104 0.6051505208015442
vt 0.9943996667861938 0.5969909429550171
vt 0.8113231062889099 0.00782078504562378
vt 0.9838231205940247 0.37696152925491333
vt 0.8113231062889099 0.37696152925491333
vt 0.9838231205940247 0.00782078504562378
vt 0.5019609928131104 0.5969909429550171
vt 0.9943996667861938 0.6051505208015442
vt 0.5019609928131104 0.6051505208015442
vt 0.9943996667861938 0.5969909429550171
vt 0.5019609928131104 0.6051505208015442
vt 0.9943996667861938 0.63020059466362
vt 0.5019609928131104 0.63020059466362
vt 0.9943996667861938 0.6051505208015442
vt 0.5019609928131104 0.6051505208015442
vt 0.9943996667861938 0.6292445957660675
vt 0.5019609928131104 0.6292445659637451
vt 0.9943996667861938 0.6051505506038666
vt 0.5019609928131104 0.6051505208015442
vt 0.9943996667861938 0.63020059466362
vt 0.5019609928131104 0.63020059466362
vt 0.9943996667861938 0.6051505208015442
vt 0.5019609928131104 0.6051505208015442
vt 0.9943996667861938 0.63020059466362
vt 0.5019609928131104 0.63020059466362
vt 0.9943996667861938 0.6051505208015442
vt 0.5019609928131104 0.6051505208015442
vt 0.9943996667861938 0.6302005648612976
vt 0.5019609928131104 0.63020059466362
vt 0.9943996667861938 0.6051504909992218
vt 0.5019609928131104 0.6051505208015442
vt 0.9943996667861938 0.63020059466362
vt 0.5019609928131104 0.63020059466362
vt 0.9943996667861938 0.6051505208015442
vt 0.5019609928131104 0.6051505208015442
vt 0.9943996667861938 0.63020059466362
vt 0.5019609928131104 0.63020059466362
vt 0.9943996667861938 0.6051505208015442
vt 0.5019609928131104 0.6051505208015442
vt 0.9943996667861938 0.63020059466362
vt 0.5019609928131104 0.63020059466362
vt 0.9943996667861938 0.6051505208015442
vt 0.5019609928131104 0.6051505208015442
vt 0.9943996667861938 0.6302006244659424
vt 0.5019609928131104 0.63020059466362
vt 0.9943996667861938 0.6051505506038666
vt 0.5019609928131104 0.5969909429550171
vt 0.9943996667861938 0.6051505208015442
vt 0.5019609928131104 0.6051505208015442
vt 0.9943996667861938 0.5969909429550171
vt 0.9838231205940247 0.00782078504562378
vt 0.8113231062889099 0.37696152925491333
vt 0.8113231062889099 0.00782078504562378
vt 0.9838231205940247 0.37696152925491333
vt 0.9955921173095703 0.7065231204032898
vt 0.50239098072052 0.63020059466362
vt 0.9955921173095703 0.63020059466362
vt 0.50239098072052 0.7065231204032898
vt 0.9955921173095703 0.7067069113254547
vt 0.502288818359375 0.6292445957660675
vt 0.9955921173095703 0.6292445659637451
vt 0.502288818359375 0.7067069411277771
vt 0.9943996667861938 0.7065231204032898
vt 0.5019609928131104 0.63020059466362
vt 0.9943996667861938 0.63020059466362
vt 0.5019609928131104 0.7065231204032898
vt 0.9955921173095703 0.7065231204032898
vt 0.5023127198219299 0.63020059466362
vt 0.9955921173095703 0.63020059466362
vt 0.5023127198219299 0.7065231204032898
vt 0.9955921173095703 0.7065231204032898
vt 0.5023127198219299 0.63020059466362
vt 0.9955921173095703 0.63020059466362
vt 0.5023127198219299 0.7065231204032898
vt 0.9943996667861938 0.7065231204032898
vt 0.5019609928131104 0.63020059466362
vt 0.9943996667861938 0.63020059466362
vt 0.5019609928131104 0.7065231204032898
vt 0.9955921173095703 0.7065231204032898
vt 0.5023127198219299 0.63020059466362
vt 0.9955921173095703 0.63020059466362
vt 0.5023127198219299 0.7065231204032898
vt 0.9961878061294556 0.7065231204032898
vt 0.5028845071792603 0.63020059466362
vt 0.9961878061294556 0.63020059466362
vt 0.5028845071792603 0.7065231204032898
vt 0.9943996667861938 0.7065231204032898
vt 0.5019609928131104 0.63020059466362
vt 0.9943996667861938 0.63020059466362
vt 0.5019609928131104 0.7065231204032898
vt 0.9943996667861938 0.5967193841934204
vt 0.5019609928131104 0.5598784983158112
vt 0.9943996667861938 0.5598784983158112
vt 0.5019609928131104 0.5967193841934204
vt 0.9943996667861938 0.5967193841934204
vt 0.5019609928131104 0.5598784983158112
vt 0.9943996667861938 0.5598784983158112
vt 0.5019609928131104 0.5967193841934204
vt 0.5019609928131104 0.5967193841934204
vt 0.9943996667861938 0.5598784983158112
vt 0.9943996667861938 0.5967193841934204
vt 0.5019609928131104 0.5598784983158112
vt 0.5019609928131104 0.5967193841934204
vt 0.9943996667861938 0.5598784983158112
vt 0.9943996667861938 0.5967193841934204
vt 0.5019609928131104 0.5598784983158112
vt 0.5019609928131104 0.5967193841934204
vt 0.9943996667861938 0.5598784983158112
vt 0.9943996667861938 0.5967193841934204
vt 0.5019609928131104 0.5598784983158112
vt 0.5019609928131104 0.5967193841934204
vt 0.9943996667861938 0.5598784983158112
vt 0.9943996667861938 0.5967193841934204
vt 0.5019609928131104 0.5598784983158112
vt 0.5019609928131104 0.5967193841934204
vt 0.9943996667861938 0.5598784983158112
vt 0.9943996667861938 0.5967193841934204
vt 0.5019609928131104 0.5598784983158112
vt 0.9943996667861938 0.5967193841934204
vt 0.5019609928131104 0.5598784983158112
vt 0.9943996667861938 0.5598784983158112
vt 0.5019609928131104 0.5967193841934204
vt 0.5019609928131104 0.5967193841934204
vt 0.9943996667861938 0.5598784983158112
vt 0.9943996667861938 0.5967193841934204
vt 0.5019609928131104 0.5598784983158112
vt 0.8113231062889099 0.00782078504562378
vt 0.9838231205940247 0.37696152925491333
vt 0.8113231062889099 0.37696152925491333
vt 0.9838231205940247 0.00782078504562378
vt 0.5019609928131104 0.5969909429550171
vt 0.9943996667861938 0.6051505208015442
vt 0.5019609928131104 0.6051505208015442
vt 0.9943996667861938 0.5969909429550171
vt 0.5019609928131104 0.6051505208015442
vt 0.9943996667861938 0.63020059466362
vt 0.5019609928131104 0.63020059466362
vt 0.9943996667861938 0.6051505208015442
vt 0.9955921173095703 0.7065231204032898
vt 0.50239098072052 0.63020059466362
vt 0.9955921173095703 0.63020059466362
vt 0.50239098072052 0.7065231204032898
vt 0.9943996667861938 0.5967193841934204
vt 0.5019609928131104 0.5598784983158112
vt 0.9943996667861938 0.5598784983158112
vt 0.5019609928131104 0.5967193841934204
vt 0.9943996667861938 0.5969909429550171
vt 0.7481803297996521 0.6051505208015442
vt 0.7481803297996521 0.5969909429550171
vt 0.9943996667861938 0.6051505208015442
vt 0.9943996667861938 0.6051505208015442
vt 0.7481803297996521 0.63020059466362
vt 0.7481803297996521 0.6051505208015442
vt 0.9943996667861938 0.63020059466362
vt 0.9838231205940247 0.00782078504562378
vt 0.8113231062889099 0.19239115715026855
vt 0.8113231062889099 0.00782078504562378
vt 0.9838231205940247 0.19239115715026855
vt 0.9955921173095703 0.7065231204032898
vt 0.7489915490150452 0.63020059466362
vt 0.9955921173095703 0.63020059466362
vt 0.7489915490150452 0.7065231204032898
vt 0.9943996667861938 0.5967193841934204
vt 0.7481803297996521 0.5598784983158112
vt 0.9943996667861938 0.5598784983158112
vt 0.7481803297996521 0.5967193841934204

g bg_mdl_map_pillar_aud02_02
s 1
usemtl bg_mdl_map_pillar_aud02_02_0
f 3/3/3 2/2/2 1/1/1 
f 4/4/4 1/1/1 2/2/2 
f 7/7/7 6/6/6 5/5/5 
f 8/8/8 5/5/5 6/6/6 
f 11/11/11 10/10/10 9/9/9 
f 12/12/12 9/9/9 10/10/10 
f 15/15/15 14/14/14 13/13/13 
f 16/16/16 13/13/13 14/14/14 
f 19/19/19 18/18/18 17/17/17 
f 20/20/20 17/17/17 18/18/18 
f 23/23/23 22/22/22 21/21/21 
f 24/24/24 21/21/21 22/22/22 
f 27/27/27 26/26/26 25/25/25 
f 28/28/28 25/25/25 26/26/26 
f 31/31/31 30/30/30 29/29/29 
f 34/34/34 33/33/33 32/32/32 
f 33/33/33 35/35/35 32/32/32 
f 38/38/38 37/37/37 36/36/36 
f 39/39/39 36/36/36 37/37/37 
f 42/42/42 41/41/41 40/40/40 
f 43/43/43 40/40/40 41/41/41 
f 46/46/46 45/45/45 44/44/44 
f 47/47/47 44/44/44 45/45/45 
f 50/50/50 49/49/49 48/48/48 
f 51/51/51 48/48/48 49/49/49 
f 54/54/54 53/53/53 52/52/52 
f 55/55/55 52/52/52 53/53/53 
f 58/58/58 57/57/57 56/56/56 
f 59/59/59 56/56/56 57/57/57 
f 62/62/62 61/61/61 60/60/60 
f 63/63/63 60/60/60 61/61/61 
f 66/66/66 65/65/65 64/64/64 
f 67/67/67 64/64/64 65/65/65 
f 70/70/70 69/69/69 68/68/68 
f 71/71/71 68/68/68 69/69/69 
f 74/74/74 73/73/73 72/72/72 
f 75/75/75 72/72/72 73/73/73 
f 78/78/78 77/77/77 76/76/76 
f 79/79/79 76/76/76 77/77/77 
f 82/82/82 81/81/81 80/80/80 
f 83/83/83 80/80/80 81/81/81 
f 86/86/86 85/85/85 84/84/84 
f 87/87/87 84/84/84 85/85/85 
f 90/90/90 89/89/89 88/88/88 
f 91/91/91 88/88/88 89/89/89 
f 94/94/94 93/93/93 92/92/92 
f 95/95/95 92/92/92 93/93/93 
f 98/98/98 97/97/97 96/96/96 
f 99/99/99 96/96/96 97/97/97 
f 102/102/102 101/101/101 100/100/100 
f 103/103/103 100/100/100 101/101/101 
f 106/106/106 105/105/105 104/104/104 
f 107/107/107 104/104/104 105/105/105 
f 110/110/110 109/109/109 108/108/108 
f 111/111/111 108/108/108 109/109/109 
f 114/114/114 113/113/113 112/112/112 
f 115/115/115 112/112/112 113/113/113 
f 118/118/118 117/117/117 116/116/116 
f 119/119/119 116/116/116 117/117/117 
f 122/122/122 121/121/121 120/120/120 
f 123/123/123 120/120/120 121/121/121 
f 126/126/126 125/125/125 124/124/124 
f 127/127/127 124/124/124 125/125/125 
f 130/130/130 129/129/129 128/128/128 
f 131/131/131 128/128/128 129/129/129 
f 134/134/134 133/133/133 132/132/132 
f 135/135/135 132/132/132 133/133/133 
f 138/138/138 137/137/137 136/136/136 
f 139/139/139 136/136/136 137/137/137 
f 142/142/142 141/141/141 140/140/140 
f 143/143/143 140/140/140 141/141/141 
f 146/146/146 145/145/145 144/144/144 
f 147/147/147 144/144/144 145/145/145 
f 150/150/150 149/149/149 148/148/148 
f 151/151/151 148/148/148 149/149/149 
f 154/154/154 153/153/153 152/152/152 
f 155/155/155 152/152/152 153/153/153 
f 158/158/158 157/157/157 156/156/156 
f 159/159/159 156/156/156 157/157/157 
f 162/162/162 161/161/161 160/160/160 
f 163/163/163 160/160/160 161/161/161 
f 166/166/166 165/165/165 164/164/164 
f 167/167/167 164/164/164 165/165/165 
f 170/170/170 169/169/169 168/168/168 
f 171/171/171 168/168/168 169/169/169 
f 174/174/174 173/173/173 172/172/172 
f 175/175/175 172/172/172 173/173/173 
f 178/178/178 177/177/177 176/176/176 
f 179/179/179 176/176/176 177/177/177 
f 182/182/182 181/181/181 180/180/180 
f 183/183/183 180/180/180 181/181/181 
f 186/186/186 185/185/185 184/184/184 
f 187/187/187 184/184/184 185/185/185 
f 190/190/190 189/189/189 188/188/188 
f 191/191/191 188/188/188 189/189/189 
f 194/194/194 193/193/193 192/192/192 
f 195/195/195 192/192/192 193/193/193 
f 198/198/198 197/197/197 196/196/196 
f 199/199/199 196/196/196 197/197/197 
f 202/202/202 201/201/201 200/200/200 
f 203/203/203 200/200/200 201/201/201 
f 206/206/206 205/205/205 204/204/204 
f 207/207/207 204/204/204 205/205/205 
f 210/210/210 209/209/209 208/208/208 
f 211/211/211 208/208/208 209/209/209 
f 214/214/214 213/213/213 212/212/212 
f 215/215/215 212/212/212 213/213/213 
f 218/218/218 217/217/217 216/216/216 
f 219/219/219 216/216/216 217/217/217 
f 222/222/222 221/221/221 220/220/220 
f 223/223/223 220/220/220 221/221/221 
f 226/226/226 225/225/225 224/224/224 
f 227/227/227 224/224/224 225/225/225 
f 230/230/230 229/229/229 228/228/228 
f 231/231/231 228/228/228 229/229/229 
f 234/234/234 233/233/233 232/232/232 
f 235/235/235 232/232/232 233/233/233 
f 238/238/238 237/237/237 236/236/236 
f 239/239/239 236/236/236 237/237/237 
f 242/242/242 241/241/241 240/240/240 
f 243/243/243 240/240/240 241/241/241 
f 246/246/246 245/245/245 244/244/244 
f 247/247/247 244/244/244 245/245/245 
f 250/250/250 249/249/249 248/248/248 
f 251/251/251 248/248/248 249/249/249 
f 254/254/254 253/253/253 252/252/252 
f 255/255/255 252/252/252 253/253/253 
f 258/258/258 257/257/257 256/256/256 
f 259/259/259 256/256/256 257/257/257 
f 262/262/262 261/261/261 260/260/260 
f 263/263/263 260/260/260 261/261/261 
f 266/266/266 265/265/265 264/264/264 
f 267/267/267 264/264/264 265/265/265 
f 270/270/270 269/269/269 268/268/268 
f 271/271/271 268/268/268 269/269/269 
f 274/274/274 273/273/273 272/272/272 
f 275/275/275 272/272/272 273/273/273 
f 278/278/278 277/277/277 276/276/276 
f 279/279/279 276/276/276 277/277/277 
f 282/282/282 281/281/281 280/280/280 
f 283/283/283 280/280/280 281/281/281 
f 286/286/286 285/285/285 284/284/284 
f 287/287/287 284/284/284 285/285/285 
f 290/290/290 289/289/289 288/288/288 
f 291/291/291 288/288/288 289/289/289 
f 294/294/294 293/293/293 292/292/292 
f 295/295/295 292/292/292 293/293/293 
f 298/298/298 297/297/297 296/296/296 
f 299/299/299 296/296/296 297/297/297 
f 302/302/302 301/301/301 300/300/300 
f 303/303/303 300/300/300 301/301/301 
f 306/306/306 305/305/305 304/304/304 
f 307/307/307 304/304/304 305/305/305 
f 310/310/310 309/309/309 308/308/308 
f 311/311/311 308/308/308 309/309/309 
f 314/314/314 313/313/313 312/312/312 
f 315/315/315 312/312/312 313/313/313 
f 318/318/318 317/317/317 316/316/316 
f 319/319/319 316/316/316 317/317/317 
f 322/322/322 321/321/321 320/320/320 
f 323/323/323 320/320/320 321/321/321 
f 326/326/326 325/325/325 324/324/324 
f 327/327/327 324/324/324 325/325/325 
f 330/330/330 329/329/329 328/328/328 
f 331/331/331 328/328/328 329/329/329 
f 334/334/334 333/333/333 332/332/332 
f 335/335/335 332/332/332 333/333/333 
f 338/338/338 337/337/337 336/336/336 
f 339/339/339 336/336/336 337/337/337 
f 342/342/342 341/341/341 340/340/340 
f 343/343/343 340/340/340 341/341/341 
f 346/346/346 345/345/345 344/344/344 
f 347/347/347 344/344/344 345/345/345 
f 350/350/350 349/349/349 348/348/348 
f 351/351/351 348/348/348 349/349/349 
f 354/354/354 353/353/353 352/352/352 
f 355/355/355 352/352/352 353/353/353 
f 358/358/358 357/357/357 356/356/356 
f 359/359/359 356/356/356 357/357/357 
f 362/362/362 361/361/361 360/360/360 
f 363/363/363 360/360/360 361/361/361 
f 366/366/366 365/365/365 364/364/364 
f 367/367/367 364/364/364 365/365/365 
f 370/370/370 369/369/369 368/368/368 
f 371/371/371 368/368/368 369/369/369 
f 374/374/374 373/373/373 372/372/372 
f 375/375/375 372/372/372 373/373/373 
f 378/378/378 377/377/377 376/376/376 
f 379/379/379 376/376/376 377/377/377 
f 382/382/382 381/381/381 380/380/380 
f 383/383/383 380/380/380 381/381/381 
f 386/386/386 385/385/385 384/384/384 
f 387/387/387 384/384/384 385/385/385 
f 390/390/390 389/389/389 388/388/388 
f 391/391/391 388/388/388 389/389/389 
f 394/394/394 393/393/393 392/392/392 
f 395/395/395 392/392/392 393/393/393 
f 398/398/398 397/397/397 396/396/396 
f 399/399/399 396/396/396 397/397/397 

usemtl bg_mdl_map_pillar_aud02_02_1
f 402/402/402 401/401/401 400/400/400 
f 403/403/403 400/400/400 401/401/401 
f 406/406/406 405/405/405 404/404/404 
f 407/407/407 404/404/404 405/405/405 
f 410/410/410 409/409/409 408/408/408 
f 411/411/411 408/408/408 409/409/409 
f 414/414/414 413/413/413 412/412/412 
f 415/415/415 412/412/412 413/413/413 
f 418/418/418 417/417/417 416/416/416 
f 419/419/419 416/416/416 417/417/417 
f 422/422/422 421/421/421 420/420/420 
f 423/423/423 420/420/420 421/421/421 
f 426/426/426 425/425/425 424/424/424 
f 427/427/427 424/424/424 425/425/425 
f 430/430/430 429/429/429 428/428/428 
f 431/431/431 428/428/428 429/429/429 
f 434/434/434 433/433/433 432/432/432 
f 435/435/435 432/432/432 433/433/433 
f 438/438/438 437/437/437 436/436/436 
f 439/439/439 436/436/436 437/437/437 
f 442/442/442 441/441/441 440/440/440 
f 443/443/443 440/440/440 441/441/441 
f 446/446/446 445/445/445 444/444/444 
f 447/447/447 444/444/444 445/445/445 
f 450/450/450 449/449/449 448/448/448 
f 451/451/451 448/448/448 449/449/449 
f 454/454/454 453/453/453 452/452/452 
f 455/455/455 452/452/452 453/453/453 
f 458/458/458 457/457/457 456/456/456 
f 459/459/459 456/456/456 457/457/457 
f 462/462/462 461/461/461 460/460/460 
f 463/463/463 460/460/460 461/461/461 
f 466/466/466 465/465/465 464/464/464 
f 467/467/467 464/464/464 465/465/465 
f 470/470/470 469/469/469 468/468/468 
f 471/471/471 468/468/468 469/469/469 
f 474/474/474 473/473/473 472/472/472 
f 475/475/475 472/472/472 473/473/473 
f 478/478/478 477/477/477 476/476/476 
f 479/479/479 476/476/476 477/477/477 
f 482/482/482 481/481/481 480/480/480 
f 483/483/483 480/480/480 481/481/481 
f 486/486/486 485/485/485 484/484/484 
f 487/487/487 484/484/484 485/485/485 
f 490/490/490 489/489/489 488/488/488 
f 491/491/491 488/488/488 489/489/489 
f 494/494/494 493/493/493 492/492/492 
f 495/495/495 492/492/492 493/493/493 
f 498/498/498 497/497/497 496/496/496 
f 499/499/499 496/496/496 497/497/497 
f 502/502/502 501/501/501 500/500/500 
f 503/503/503 500/500/500 501/501/501 
f 506/506/506 505/505/505 504/504/504 
f 507/507/507 504/504/504 505/505/505 
f 510/510/510 509/509/509 508/508/508 
f 511/511/511 508/508/508 509/509/509 
f 514/514/514 513/513/513 512/512/512 
f 515/515/515 512/512/512 513/513/513 
f 518/518/518 517/517/517 516/516/516 
f 519/519/519 516/516/516 517/517/517 
f 522/522/522 521/521/521 520/520/520 
f 523/523/523 520/520/520 521/521/521 
f 526/526/526 525/525/525 524/524/524 
f 527/527/527 524/524/524 525/525/525 
f 530/530/530 529/529/529 528/528/528 
f 531/531/531 528/528/528 529/529/529 
f 534/534/534 533/533/533 532/532/532 
f 535/535/535 532/532/532 533/533/533 
f 538/538/538 537/537/537 536/536/536 
f 539/539/539 536/536/536 537/537/537 
f 542/542/542 541/541/541 540/540/540 
f 543/543/543 540/540/540 541/541/541 
f 546/546/546 545/545/545 544/544/544 
f 547/547/547 544/544/544 545/545/545 
f 550/550/550 549/549/549 548/548/548 
f 551/551/551 548/548/548 549/549/549 
f 554/554/554 553/553/553 552/552/552 
f 555/555/555 552/552/552 553/553/553 
f 558/558/558 557/557/557 556/556/556 
f 559/559/559 556/556/556 557/557/557 
f 562/562/562 561/561/561 560/560/560 
f 563/563/563 560/560/560 561/561/561 
f 566/566/566 565/565/565 564/564/564 
f 567/567/567 564/564/564 565/565/565 
f 570/570/570 569/569/569 568/568/568 
f 571/571/571 568/568/568 569/569/569 
f 574/574/574 573/573/573 572/572/572 
f 575/575/575 572/572/572 573/573/573 
f 578/578/578 577/577/577 576/576/576 
f 579/579/579 576/576/576 577/577/577 
f 582/582/582 581/581/581 580/580/580 
f 583/583/583 580/580/580 581/581/581 
f 586/586/586 585/585/585 584/584/584 
f 587/587/587 584/584/584 585/585/585 
f 590/590/590 589/589/589 588/588/588 
f 591/591/591 588/588/588 589/589/589 
f 594/594/594 593/593/593 592/592/592 
f 595/595/595 592/592/592 593/593/593 
f 598/598/598 597/597/597 596/596/596 
f 599/599/599 596/596/596 597/597/597 
f 602/602/602 601/601/601 600/600/600 
f 603/603/603 600/600/600 601/601/601 
f 606/606/606 605/605/605 604/604/604 
f 607/607/607 604/604/604 605/605/605 
f 610/610/610 609/609/609 608/608/608 
f 611/611/611 608/608/608 609/609/609 
f 614/614/614 613/613/613 612/612/612 
f 615/615/615 612/612/612 613/613/613 
f 618/618/618 617/617/617 616/616/616 
f 619/619/619 616/616/616 617/617/617 

