v 0.0025737308897078037 0.0 0.03242490440607071
v -0.06002195179462433 0.0 -0.11923222243785858
v -0.03525977209210396 0.0 -0.11923222243785858
v 0.0036728966515511274 0.0 0.03242490440607071
v -0.010672864504158497 0.0 -0.11923222243785858
v 0.004771315958350897 0.0 0.03242490440607071
v 0.013749122619628906 0.0 -0.11923222243785858
v 0.005868986714631319 0.0 0.03242490440607071
v 0.0380193367600441 0.0 -0.11923222243785858
v 0.006965954322367907 0.0 0.03242490440607071
v 0.06215377151966095 0.0 -0.11923222243785858
v 0.008062226697802544 0.0 0.03242490440607071
v 0.08617057651281357 0.0 -0.11923222243785858
v 0.0091578159481287 0.0 0.03242490440607071
v 0.1100902259349823 0.0 -0.11923222243785858
v 0.010252747684717178 0.0 0.03242490440607071
v 0.13393504917621613 0.0 -0.11923222243785858
v 0.011347012594342232 0.0 0.03242490440607071
v 0.1577286422252655 0.0 -0.11923222243785858
v 0.012440686114132404 0.0 0.03242490440607071
v 0.18149568140506744 0.0 -0.11923222243785858
v 0.013533743098378181 0.0 0.03242490440607071
v 0.062351953238248825 0.0 -0.2770814597606659
v 0.10086499154567719 0.0 -0.2770814597606659
v 0.1391216516494751 0.0 -0.2770814597606659
v 0.17726734280586243 0.0 -0.2770814597606659
v 0.2125508040189743 0.0 -0.2770814597606659
v 0.2538270652294159 0.0 -0.2770814597606659
v 0.2925214469432831 0.0 -0.2770814597606659
v 0.11910928785800934 0.0 -0.46915680170059204
v 0.07064791768789291 0.0 -0.4690299928188324
v 0.02344929613173008 0.0 -0.2770814597606659
v -0.001436910592019558 0.0 -0.2770814597606659
v -0.04144125059247017 0.0 -0.2770814597606659
v -0.08210776001214981 0.0 -0.2770814597606659
v -0.06147591397166252 0.0 -0.46915680170059204
v -0.11326343566179276 0.0 -0.4690299928188324
v -0.010816583409905434 0.0 -0.4690299928188324
v 0.03886162489652634 0.0 -0.46915680170059204
v 0.365376740694046 0.0 -0.4690299928188324
v -0.10099319368600845 0.0 -0.6998470425605774
v -0.16170066595077515 0.0 -0.6998470425605774
v -0.04146191477775574 0.0 -0.6998470425605774
v 0.017058439552783966 0.0 -0.6998955607414246
v 0.07484224438667297 0.0 -0.6998470425605774
v 0.1322735697031021 0.0 -0.6998955607414246
v 0.1897638440132141 0.0 -0.6998470425605774
v 0.16741806268692017 0.0 -0.4690299928188324
v 0.2158895581960678 0.0 -0.46915680170059204
v 0.2648536264896393 0.0 -0.4690299928188324
v 0.3145976960659027 0.0 -0.46915680170059204
v 0.24772979319095612 0.0 -0.6998955607414246
v 0.3065618574619293 0.0 -0.6998470425605774
v 0.36642736196517944 0.0 -0.6998470425605774
v 0.42700567841529846 0.0 -0.6998470425605774
v 0.27485111355781555 0.0 -0.9617522954940796
v 0.20692282915115356 0.0 -0.9617522954940796
v 0.34357160329818726 0.0 -0.9620919823646545
v 0.41322433948516846 0.0 -0.9617522954940796
v 0.48317787051200867 0.0 -0.9620919823646545
v 0.26709726452827454 0.0 -1.2416287660598755
v 0.19546599686145782 0.0 -1.2421326637268066
v 0.1395443081855774 0.0 -0.9620919823646545
v 0.07238902896642685 0.0 -0.9617522954940796
v 0.005102586466819048 0.0 -0.9617522954940796
v -0.06263992935419083 0.0 -0.9620919823646545
v -0.13113762438297272 0.0 -0.9617522954940796
v -0.20059368014335632 0.0 -0.9620919823646545
v -0.15916192531585693 0.0 -1.2425885200500488
v -0.23211726546287537 0.0 -1.2421326637268066
v -0.08736205846071243 0.0 -1.2421326637268066
v -0.01648155227303505 0.0 -1.2416287660598755
v 0.05418149381875992 0.0 -1.2421326637268066
v 0.12465405464172363 0.0 -1.2425885200500488
v -0.16313788294792175 0.0 -1.5242868661880493
v -0.23228015005588531 0.0 -1.5242868661880493
v -0.0950615406036377 3.814697180359872e-08 -1.5233592987060547
v -0.02743934653699398 3.814697180359872e-08 -1.5233592987060547
v 0.039782989770174026 0.0 -1.5242868661880493
v 0.10672470927238464 0.0 -1.5242868661880493
v 0.17388223111629486 0.0 -1.5242868661880493
v 0.24173392355442047 3.814697180359872e-08 -1.5233592987060547
v 0.3102986514568329 3.814697180359872e-08 -1.5233592987060547
v 0.3394445776939392 0.0 -1.2421326637268066
v 0.4127490520477295 0.0 -1.2425885200500488
v 0.48625287413597107 0.0 -1.2421329021453857
v 0.37949347496032715 0.0 -1.5242868661880493
v 0.4491329789161682 0.0 -1.5242868661880493
v 0.022091129794716835 0.0 -1.6487559080123901
v 0.08417780697345734 0.0 -1.6487559080123901
v 0.14634285867214203 0.0 -1.6487559080123901
v 0.20897330343723297 0.0 -1.647981882095337
v 0.27221018075942993 0.0 -1.6476625204086304
v 0.3360331356525421 3.814697180359872e-08 -1.6481560468673706
v 0.4004671275615692 3.814697180359872e-08 -1.6484754085540771
v 0.32337141036987305 -7.629394360719743e-08 -1.7897799015045166
v 0.2676301598548889 0.0 -1.7890970706939697
v 0.27188852429389954 3.814697180359872e-08 -1.8823881149291992
v 0.22330082952976227 0.0 -1.8819968700408936
v 0.2120576798915863 0.0 -1.7890970706939697
v 0.17484262585639954 0.0 -1.8819968700408936
v 0.15690752863883972 -7.629394360719743e-08 -1.7897799015045166
v 0.1266149878501892 3.814697180359872e-08 -1.8823881149291992
v 0.10218429565429688 0.0 -1.790379285812378
v 0.07865402847528458 -7.629394360719743e-08 -1.8829476833343506
v 0.04768238961696625 0.0 -1.790379285812378
v 0.030816873535513878 -7.629394360719743e-08 -1.8829476833343506
v -0.00685882568359375 0.0 -1.790379285812378
v -0.01705424301326275 -7.629394360719743e-08 -1.8829476833343506
v -0.06167444959282875 -7.629394360719743e-08 -1.7897799015045166
v -0.06508629024028778 3.814697180359872e-08 -1.8823881149291992
v -0.11698025465011597 0.0 -1.7890970706939697
v -0.11344870924949646 0.0 -1.8819968700408936
v -0.1727694272994995 0.0 -1.7890970706939697
v -0.16209636628627777 0.0 -1.8819968700408936
v -0.2287646383047104 -7.629394360719743e-08 -1.7897799015045166
v -0.21090088784694672 3.814697180359872e-08 -1.8823881149291992
v 0.07763082534074783 -7.629394360719743e-08 -2.0067098140716553
v 0.11509374529123306 -7.629394360719743e-08 -2.0067098140716553
v 0.07678292691707611 0.0 -2.11083984375
v 0.051406342536211014 0.0 -2.11083984375
v 0.04028346762061119 -7.629394360719743e-08 -2.0072154998779297
v 0.026069529354572296 -7.629394360719743e-08 -2.111114501953125
v 0.002970994682982564 -7.629394360719743e-08 -2.0072154998779297
v 0.0007652140920981765 -7.629394360719743e-08 -2.111114501953125
v -0.03435346856713295 -7.629394360719743e-08 -2.0072154998779297
v -0.0245292279869318 -7.629394360719743e-08 -2.111114501953125
v -0.07170961052179337 -7.629394360719743e-08 -2.0067098140716553
v -0.04981667920947075 0.0 -2.11083984375
v -0.10922478139400482 -7.629394360719743e-08 -2.0067098140716553
v -0.07515403628349304 0.0 -2.11083984375
v -0.1468065083026886 -7.629394360719743e-08 -2.0067098140716553
v -0.10047904402017593 0.0 -2.11083984375
v -0.18451949954032898 -7.629394360719743e-08 -2.0067098140716553
v -0.12582515180110931 0.0 -2.11083984375
v 0.001734043937176466 7.629394360719743e-08 -2.267850637435913
v 0.002312040887773037 7.629394360719743e-08 -2.267850637435913
v 0.10217960923910141 0.0 -2.11083984375
v 0.15261438488960266 -7.629394360719743e-08 -2.0067098140716553
v 0.12761962413787842 0.0 -2.11083984375
v 0.1902686506509781 -7.629394360719743e-08 -2.0067098140716553
v 0.002890070667490363 7.629394360719743e-08 -2.267850637435913
v -0.001155989128164947 7.629394360719743e-08 -2.267850637435913
v -0.0005780017236247659 7.629394360719743e-08 -2.267850637435913
v -5.825145255045072e-09 7.629394360719743e-08 -2.267850637435913
v 0.0005780027713626623 7.629394360719743e-08 -2.267850637435913
v 0.0011560326674953103 7.629394360719743e-08 -2.267850637435913
v -0.0017340225167572498 7.629394360719743e-08 -2.267850637435913
v -0.0023120080586522818 7.629394360719743e-08 -2.267850637435913
v -0.0028900420293211937 7.629394360719743e-08 -2.267850637435913
v -0.2306901067495346 3.814697180359872e-08 -1.6484754085540771
v -0.16659416258335114 3.814697180359872e-08 -1.6481560468673706
v -0.10320313274860382 0.0 -1.6476625204086304
v -0.04031410068273544 0.0 -1.647981882095337
v 0.00805179588496685 0.005591430701315403 0.03242490068078041
v 0.016157452017068863 0.12229423224925995 -0.11923222243785858
v 0.017013076692819595 0.09783516079187393 -0.11923222988843918
v 0.008055548183619976 0.004472503438591957 0.03242490068078041
v 0.0176983829587698 0.07337646186351776 -0.11923225969076157
v 0.008055548183619976 0.003353881649672985 0.03242490068078041
v 0.01819884032011032 0.04891761764883995 -0.11923222243785858
v 0.008062226697802544 0.0022367858327925205 0.03242490813136101
v 0.018503351137042046 0.02445876970887184 -0.11923222988843918
v 0.008062226697802544 0.0011178589193150401 0.03242490813136101
v 0.01860560104250908 0.0 -0.11923222243785858
v 0.008062226697802544 0.0 0.03242490440607071
v 0.018503351137042046 -0.02445876970887184 -0.11923222243785858
v 0.008062226697802544 -0.0011178589193150401 0.03242490068078041
v 0.01819884032011032 -0.04891761764883995 -0.11923222988843918
v 0.008062226697802544 -0.0022367858327925205 0.032424941658973694
v 0.0176983829587698 -0.07337646186351776 -0.11923222243785858
v 0.008055548183619976 -0.003353881649672985 0.032424937933683395
v 0.017013076692819595 -0.09783516079187393 -0.11923222988843918
v 0.008055548183619976 -0.004472503438591957 0.03242494538426399
v 0.016157452017068863 -0.12229415774345398 -0.11923222243785858
v 0.00805179588496685 -0.005591430701315403 0.0324249267578125
v 0.02523791417479515 0.041190411895513535 -0.2770814597606659
v 0.025556985288858414 0.0 -0.2770814597606659
v 0.02523791417479515 -0.041190411895513535 -0.2770814597606659
v 0.0243044625967741 -0.08238090574741364 -0.2770814597606659
v 0.022769562900066376 -0.12357131391763687 -0.2770814597606659
v 0.020762618631124496 -0.1647617369890213 -0.2770814597606659
v 0.01837190054357052 -0.2059522271156311 -0.2770814597606659
v 0.025945493951439857 0.0 -0.46915680170059204
v 0.025402741506695747 0.05255851522088051 -0.4690299928188324
v 0.0243044625967741 0.08238090574741364 -0.2770814597606659
v 0.022769562900066376 0.12357131391763687 -0.2770814299583435
v 0.020762618631124496 0.1647617369890213 -0.2770814597606659
v 0.01837190054357052 0.2059522271156311 -0.2770814597606659
v 0.01807020790874958 0.21023398637771606 -0.46915674209594727
v 0.014408270828425884 0.26278892159461975 -0.4690299928188324
v 0.0213006678968668 0.15767547488212585 -0.4690299928188324
v 0.023808198049664497 0.1051165759563446 -0.46915680170059204
v 0.014408270828425884 -0.26278892159461975 -0.4690299928188324
v 0.009677201509475708 0.2521626949310303 -0.6998470425605774
v 0.006737435702234507 0.3131369650363922 -0.6998470425605774
v 0.01250171847641468 0.18291671574115753 -0.6998470425605774
v 0.014819461852312088 0.12194442749023438 -0.6998955607414246
v 0.016342295333743095 0.0609726719558239 -0.6998470425605774
v 0.016868354752659798 0.0 -0.6998955607414246
v 0.016342295333743095 -0.0609726719558239 -0.6998470425605774
v 0.025402741506695747 -0.05255851522088051 -0.4690299928188324
v 0.023808198049664497 -0.1051165759563446 -0.46915680170059204
v 0.0213006678968668 -0.15767547488212585 -0.4690299928188324
v 0.01807020790874958 -0.21023398637771606 -0.46915680170059204
v 0.014819461852312088 -0.12194442749023438 -0.6998955607414246
v 0.01250171847641468 -0.18291671574115753 -0.6998470425605774
v 0.009677201509475708 -0.2438972443342209 -0.6998470425605774
v 0.006737435702234507 -0.30487149953842163 -0.6998470425605774
v 0.009678533300757408 -0.13986434042453766 -0.9617522954940796
v 0.010824069380760193 -0.0699322521686554 -0.9617522954940796
v 0.007948966696858406 -0.2097824066877365 -0.9620919823646545
v 0.005878813099116087 -0.27970755100250244 -0.9617522954940796
v 0.0037615406326949596 -0.3496609330177307 -0.9620919823646545
v 0.008478662930428982 -0.1468561589717865 -1.2416287660598755
v 0.009635780937969685 -0.07336418330669403 -1.2421326637268066
v 0.011224672198295593 0.0 -0.9620919823646545
v 0.010824069380760193 0.06993217021226883 -0.9617522954940796
v 0.009678533300757408 0.13986442983150482 -0.9617522954940796
v 0.007948966696858406 0.2097824066877365 -0.9620919823646545
v 0.005878813099116087 0.27970755100250244 -0.9617522954940796
v 0.0037615406326949596 0.3496610224246979 -0.9620919823646545
v 0.004724051803350449 0.2934565544128418 -1.2425885200500488
v 0.002735885325819254 0.3669603765010834 -1.2421326637268066
v 0.006748052779585123 0.22009246051311493 -1.2421326637268066
v 0.008478662930428982 0.1468561589717865 -1.2416287660598755
v 0.009635780937969685 0.07336410135030746 -1.2421326637268066
v 0.01005509588867426 0.0 -1.2425885200500488
v 0.005131042096763849 0.2788422405719757 -1.5242868661880493
v 0.003210111754015088 0.3484818935394287 -1.5242868661880493
v 0.007022123318165541 0.20935794711112976 -1.5233592987060547
v 0.008618074469268322 0.13957202434539795 -1.5233592987060547
v 0.009678608737885952 0.06971053779125214 -1.5242868661880493
v 0.010048904456198215 0.0 -1.5242868661880493
v 0.009678608737885952 -0.06971053779125214 -1.5242868661880493
v 0.008618074469268322 -0.13957180082798004 -1.5233592987060547
v 0.007022123318165541 -0.2093578726053238 -1.5233592987060547
v 0.006748052779585123 -0.2200925350189209 -1.2421326637268066
v 0.004724051803350449 -0.2934565544128418 -1.2425885200500488
v 0.002735885325819254 -0.3669603765010834 -1.2421326637268066
v 0.005131042096763849 -0.2788423001766205 -1.5242868661880493
v 0.003210111754015088 -0.3484818935394287 -1.5242868661880493
v 0.009789129719138145 0.06465210020542145 -1.6487559080123901
v 0.010109595954418182 0.0 -1.6487559080123901
v 0.009789129719138145 -0.06465210020542145 -1.6487559080123901
v 0.008865718729794025 -0.1294233649969101 -1.647981882095337
v 0.0074530490674078465 -0.19421523809432983 -1.6476625204086304
v 0.005732973571866751 -0.25883418321609497 -1.6481560468673706
v 0.003921255469322205 -0.3233538269996643 -1.6484754085540771
v 0.004120626952499151 -0.28283149003982544 -1.7897799015045166
v 0.005527180153876543 -0.22651778161525726 -1.7890973091125488
v 0.0034737384412437677 -0.2465638369321823 -1.8823881149291992
v 0.004411210305988789 -0.19739195704460144 -1.8819968700408936
v 0.006779943592846394 -0.16981932520866394 -1.7890970706939697
v 0.005237426608800888 -0.14800551533699036 -1.8819968700408936
v 0.007773543242365122 -0.11310066282749176 -1.7897799015045166
v 0.00587866036221385 -0.09858760982751846 -1.8823881149291992
v 0.008405685424804688 -0.05651092529296875 -1.790379285812378
v 0.00626551266759634 -0.049271926283836365 -1.8829476833343506
v 0.008627146482467651 0.0 -1.790379285812378
v 0.006405004300177097 -7.629394360719743e-08 -1.8829476833343506
v 0.008405685424804688 0.05651077255606651 -1.790379285812378
v 0.00626551266759634 0.04927177354693413 -1.8829476833343506
v 0.007773543242365122 0.11310050636529922 -1.7897799015045166
v 0.00587866036221385 0.09858768433332443 -1.8823881149291992
v 0.006779943592846394 0.16981932520866394 -1.7890970706939697
v 0.005237426608800888 0.14800551533699036 -1.8819968700408936
v 0.005527180153876543 0.2265179455280304 -1.7890969514846802
v 0.004411210305988789 0.19739195704460144 -1.8819968700408936
v 0.004120626952499151 0.2828313410282135 -1.7897799015045166
v 0.0034737384412437677 0.24656391143798828 -1.8823881149291992
v 0.0027794819325208664 -0.07597587257623672 -2.0067098140716553
v 0.0025352686643600464 -0.11402808874845505 -2.0067098140716553
v 0.0006758643430657685 -0.07655487209558487 -2.11083984375
v 0.0007270222995430231 -0.051010437309741974 -2.11083984375
v 0.0029191714711487293 -0.037988051772117615 -2.0072154998779297
v 0.0007652999483980238 -0.025505295023322105 -2.111114501953125
v 0.002970994682982564 -7.629394360719743e-08 -2.0072154998779297
v 0.0007652140920981765 -7.629394360719743e-08 -2.111114501953125
v 0.0029191714711487293 0.03798774629831314 -2.0072154998779297
v 0.0007652999483980238 0.02550514228641987 -2.111114501953125
v 0.0027794819325208664 0.07597572356462479 -2.0067098140716553
v 0.0007270222995430231 0.051010437309741974 -2.11083984375
v 0.0025352686643600464 0.11402793973684311 -2.0067098140716553
v 0.0006758643430657685 0.07655487209558487 -2.11083984375
v 0.0022145179100334644 0.152037113904953 -2.0067098140716553
v 0.0006077302386984229 0.1020730584859848 -2.11083984375
v 0.0018416597740724683 0.19004660844802856 -2.0067098140716553
v 0.0005259086610749364 0.1275915503501892 -2.11083984375
v -5.825145255045072e-09 -0.0017340087797492743 -2.267850637435913
v 6.888702941409974e-09 -0.0023120115511119366 -2.267850637435913
v 0.0006077302386984229 -0.1020730584859848 -2.11083984375
v 0.0022145179100334644 -0.152037113904953 -2.0067098140716553
v 0.0005259086610749364 -0.1275915503501892 -2.11083984375
v 0.0018416597740724683 -0.1900467574596405 -2.0067098140716553
v 9.007678158923227e-09 -0.0028900145553052425 -2.267850637435913
v -5.825145255045072e-09 0.0011561583960428834 -2.267850637435913
v -5.825145255045072e-09 0.0005781555082648993 -2.267850637435913
v -5.825145255045072e-09 7.629394360719743e-08 -2.267850637435913
v -5.825145255045072e-09 -0.0005780028877779841 -2.267850637435913
v -5.825145255045072e-09 -0.0011560057755559683 -2.267850637435913
v -5.825145255045072e-09 0.0017341612838208675 -2.267850637435913
v 6.888702941409974e-09 0.0023121642880141735 -2.267850637435913
v 9.007678158923227e-09 0.002890167059376836 -2.267850637435913
v 0.003921255469322205 0.32335391640663147 -1.6484754085540771
v 0.005732973571866751 0.2588340938091278 -1.6481560468673706
v 0.0074530490674078465 0.19421523809432983 -1.6476625204086304
v 0.008865718729794025 0.1294233649969101 -1.647981882095337
vn -0.0 1.0 0.0
vn -0.0 1.0 0.0
vn -0.0 1.0 0.0
vn -0.0 1.0 0.0
vn -0.0 1.0 0.0
vn -0.0 1.0 0.0
vn -0.0 1.0 0.0
vn -0.0 1.0 0.0
vn -0.0 1.0 0.0
vn -0.0 1.0 0.0
vn -0.0 1.0 0.0
vn -0.0 1.0 0.0
vn -0.0 1.0 0.0
vn -0.0 1.0 0.0
vn -0.0 1.0 0.0
vn -0.0 1.0 0.0
vn -0.0 1.0 0.0
vn -0.0 1.0 0.0
vn -0.0 1.0 0.0
vn -0.0 1.0 0.0
vn -0.0 1.0 0.0
vn -0.0 1.0 0.0
vn -0.0 1.0 0.0
vn -0.0 1.0 0.0
vn -0.0 1.0 0.0
vn -0.0 1.0 0.0
vn -0.0 1.0 0.0
vn -0.0 1.0 0.0
vn -0.0 1.0 0.0
vn -0.0 1.0 0.0
vn -0.0 1.0 0.0
vn -0.0 1.0 0.0
vn -0.0 1.0 0.0
vn -0.0 1.0 0.0
vn -0.0 1.0 0.0
vn -0.0 1.0 0.0
vn -0.0 1.0 0.0
vn -0.0 1.0 0.0
vn -0.0 1.0 0.0
vn -0.0 1.0 0.0
vn -0.0 1.0 0.0
vn -0.0 1.0 0.0
vn -0.0 1.0 0.0
vn -0.0 1.0 0.0
vn -0.0 1.0 0.0
vn -0.0 1.0 0.0
vn -0.0 1.0 0.0
vn -0.0 1.0 0.0
vn -0.0 1.0 0.0
vn -0.0 1.0 0.0
vn -0.0 1.0 0.0
vn -0.0 1.0 0.0
vn -0.0 1.0 0.0
vn -0.0 1.0 0.0
vn -0.0 1.0 0.0
vn -0.0 1.0 0.0
vn -0.0 1.0 0.0
vn -0.0 1.0 0.0
vn -0.0 1.0 0.0
vn -0.0 1.0 0.0
vn -0.0 1.0 0.0
vn -0.0 1.0 0.0
vn -0.0 1.0 0.0
vn -0.0 1.0 0.0
vn -0.0 1.0 0.0
vn -0.0 1.0 0.0
vn -0.0 1.0 0.0
vn -0.0 1.0 0.0
vn -0.0 1.0 0.0
vn -0.0 1.0 0.0
vn -0.0 1.0 0.0
vn -0.0 1.0 0.0
vn -0.0 1.0 0.0
vn -0.0 1.0 0.0
vn -0.0 1.0 0.0
vn -0.0 1.0 0.0
vn -0.0 1.0 0.0
vn 1.4087993349676253e-07 1.0 0.0
vn 1.401845963755477e-07 1.0 0.0
vn -0.0 1.0 0.0
vn -1.412739294437415e-07 1.0 0.0
vn -1.374720852709288e-07 1.0 0.0
vn -0.0 1.0 0.0
vn -0.0 1.0 0.0
vn -0.0 1.0 0.0
vn -0.0 1.0 0.0
vn 1.0124622917828674e-07 1.0 0.0
vn -0.0 1.0 0.0
vn -0.0 1.0 0.0
vn -0.0 1.0 0.0
vn 1.3785019348233618e-07 1.0 -1.6704962035873905e-07
vn -1.5768186756304203e-07 1.0 -1.868039873897942e-07
vn -2.209966964983323e-07 1.0 0.0
vn 1.4699833172926446e-07 1.0 -2.1963596452678757e-07
vn 2.278148372170108e-07 1.0 -1.170397609939755e-07
vn 5.684192956323386e-07 1.0 -5.676099021911796e-07
vn 1.0015880747005212e-07 1.0 0.0
vn -0.0 1.0 1.0576508913118232e-07
vn -0.0 1.0 -2.0686150037363404e-07
vn -3.8445676864284906e-07 1.0 0.0
vn -0.0 1.0 -1.655382817489226e-07
vn -0.0 1.0 0.0
vn -2.9500498044399137e-07 1.0 0.0
vn -0.0 1.0 -1.849651312113565e-07
vn -4.972106921741215e-07 1.0 -1.6001092717488063e-07
vn -0.0 1.0 -3.0044429877307266e-07
vn -0.0 1.0 -3.893616167260916e-07
vn -1.6979065264877136e-07 1.0 -1.8463396145307343e-07
vn 4.1751030721570714e-07 1.0 -2.786307220503659e-07
vn 1.7044938260823983e-07 1.0 0.0
vn 4.2140675304835895e-07 1.0 -1.6343091147064115e-07
vn 3.6630115118896356e-07 1.0 0.0
vn -0.0 1.0 -2.0949782708612474e-07
vn -1.8135580148737063e-07 1.0 -1.1439507829891227e-07
vn -0.0 1.0 -2.1924343229784427e-07
vn -5.42803832104255e-07 1.0 -1.6314250217419612e-07
vn -0.0 1.0 0.0
vn -6.031710313436633e-07 1.0 0.0
vn 1.785027734513278e-07 1.0 -2.397396485775971e-07
vn -0.0 1.0 6.379770525200001e-07
vn -8.881578992259165e-07 1.0 7.385044682450825e-07
vn -5.880940534552792e-07 1.0 1.290224105332527e-07
vn -9.730231340654427e-07 1.0 6.447135660891945e-07
vn -0.0 1.0 0.0
vn -0.0 1.0 3.7385257201094646e-07
vn 6.961242888792185e-07 1.0 0.0
vn 9.80038635134406e-07 1.0 6.280299658101285e-07
vn 4.563046331895748e-07 1.0 -1.7422516407350486e-07
vn 8.825296617942513e-07 1.0 7.181850492088415e-07
vn -1.4157690486626962e-07 1.0 -1.4941404913315637e-07
vn -0.0 1.0 6.381162052093714e-07
vn 1.2741659816128958e-07 1.0 -1.2562068718580122e-07
vn -0.0 1.0 6.38176004486013e-07
vn 3.260541348026891e-07 1.0 -3.1314056059272843e-07
vn -0.0 1.0 6.802739562772331e-07
vn -0.0 1.0 4.859148816649395e-07
vn -0.0 1.0 4.859147111346829e-07
vn -0.0 1.0 6.37997118246858e-07
vn -0.0 1.0 0.0
vn -0.0 1.0 6.810236641285883e-07
vn -3.441404885506927e-07 1.0 -2.1690163976018084e-07
vn -0.0 1.0 4.85914654291264e-07
vn 1.7621887309360318e-06 1.0 1.038537220665603e-06
vn 1.3378793255469645e-06 1.0 1.1730430742318276e-06
vn -0.0 1.0 9.735325647852733e-07
vn -1.3274761840875726e-06 1.0 1.184536813525483e-06
vn -1.7679024040262448e-06 1.0 1.0582282357063377e-06
vn -0.0 1.0 4.859148248215206e-07
vn -0.0 1.0 4.859147679781017e-07
vn -0.0 1.0 4.859148248215206e-07
vn -3.181074248459481e-07 1.0 -1.148446031606909e-07
vn -0.0 1.0 0.0
vn 2.4832527856233355e-07 1.0 -2.0349278884168598e-07
vn -0.0 1.0 -2.4698644551790494e-07
vn 0.9962942004203796 0.03347396478056908 0.0792301595211029
vn 0.9977530837059021 0.047074999660253525 0.04767299070954323
vn 0.9977995753288269 0.04058818146586418 0.05242619663476944
vn 0.9966335892677307 0.02890489622950554 0.07672067731618881
vn 0.998140811920166 0.0320383720099926 0.051849596202373505
vn 0.9970329999923706 0.02228791080415249 0.07367852330207825
vn 0.9984415173530579 0.022046377882361412 0.051269080489873886
vn 0.9973400235176086 0.015075755305588245 0.07131247967481613
vn 0.9986464381217957 0.011147484183311462 0.05080532282590866
vn 0.9975312948226929 0.007549481466412544 0.06981538981199265
vn 0.9987163543701172 0.0 0.05065184831619263
vn 0.9975941777229309 0.0 0.06932447105646133
vn 0.9986463189125061 -0.01114750187844038 0.05080532655119896
vn 0.9975312948226929 -0.007549520581960678 0.06981540471315384
vn 0.9984415173530579 -0.022046390920877457 0.051269061863422394
vn 0.9973400235176086 -0.015075708739459515 0.07131244987249374
vn 0.998140811920166 -0.032038357108831406 0.0518495999276638
vn 0.9970329999923706 -0.022287866100668907 0.07367852330207825
vn 0.9977995753288269 -0.040588222444057465 0.052426207810640335
vn 0.9966335892677307 -0.028905032202601433 0.07672073692083359
vn 0.9977530837059021 -0.0470750518143177 0.047673020511865616
vn 0.9962942004203796 -0.03347397223114967 0.07923023402690887
vn 0.9997273087501526 0.01602574810385704 0.016984103247523308
vn 0.9998546838760376 0.0 0.017044778913259506
vn 0.9997273087501526 -0.016025761142373085 0.016984103247523308
vn 0.9993703961372375 -0.03123854100704193 0.016825253143906593
vn 0.998877227306366 -0.04441788047552109 0.016469858586788177
vn 0.9983810186386108 -0.05463595688343048 0.015819210559129715
vn 0.9981032609939575 -0.06064924970269203 0.010562015697360039
vn 0.9997465014457703 0.0 -0.02251521497964859
vn 0.9995895028114319 0.01829366758465767 -0.022051621228456497
vn 0.9993703961372375 0.031238529831171036 0.016825251281261444
vn 0.998877227306366 0.044417887926101685 0.016469867900013924
vn 0.9983810186386108 0.05463595315814018 0.015819203108549118
vn 0.9981032609939575 0.06064923107624054 0.010562031529843807
vn 0.9982876181602478 0.05620059370994568 -0.01622534729540348
vn 0.998067319393158 0.0601736381649971 -0.01551920548081398
vn 0.9986843466758728 0.04761287942528725 -0.0190396960824728
vn 0.9991682767868042 0.035010725259780884 -0.02090221270918846
vn 0.9980448484420776 -0.060201387852430344 -0.016801688820123672
vn 0.9988698363304138 0.04427190124988556 -0.017292562872171402
vn 0.9988487958908081 0.04593103751540184 -0.013834668323397636
vn 0.9990056157112122 0.038817476481199265 -0.021930700168013573
vn 0.9992313385009766 0.029680227860808372 -0.025606399402022362
vn 0.9994809031486511 0.015786347910761833 -0.0280856192111969
vn 0.9995813965797424 0.0 -0.02893238328397274
vn 0.9994809031486511 -0.015786347910761833 -0.0280856192111969
vn 0.9995895028114319 -0.01829366572201252 -0.022051621228456497
vn 0.9991682767868042 -0.035010725259780884 -0.02090221270918846
vn 0.9986404776573181 -0.048563964664936066 -0.01893741823732853
vn 0.9982036352157593 -0.05758216977119446 -0.016546184197068214
vn 0.9992313385009766 -0.02968022972345352 -0.02560640498995781
vn 0.9989562034606934 -0.04011951759457588 -0.02183743752539158
vn 0.9988057613372803 -0.04570221155881882 -0.01727491430938244
vn 0.9988462924957275 -0.04596719518303871 -0.013892773538827896
vn 0.9996908903121948 -0.022720152512192726 -0.010097977705299854
vn 0.9998584985733032 -0.01226404495537281 -0.011516454629600048
vn 0.9995181560516357 -0.029998237267136574 -0.007968312129378319
vn 0.9994413256645203 -0.03295071795582771 -0.0055937678553164005
vn 0.9994526505470276 -0.0328061543405056 -0.004273011349141598
vn 0.9998024106025696 -0.01979156956076622 -0.001874521840363741
vn 0.9999402761459351 -0.010741767473518848 -0.0020145117305219173
vn 0.99992835521698 0.0 -0.011973973363637924
vn 0.9998584985733032 0.012264044024050236 -0.011516454629600048
vn 0.9996908903121948 0.022720152512192726 -0.010097979567945004
vn 0.9995296001434326 0.02954237535595894 -0.00823160633444786
vn 0.999452531337738 0.03250294178724289 -0.006173890549689531
vn 0.9994483590126038 0.03285795450210571 -0.004816974047571421
vn 0.9996080994606018 0.027962036430835724 -0.0013233142672106624
vn 0.9996084570884705 0.02795599214732647 -0.0011755152372643352
vn 0.9996634721755981 0.025889502838253975 -0.001630303100682795
vn 0.9998024106025696 0.01979156956076622 -0.0018745205597952008
vn 0.9999402761459351 0.010741760954260826 -0.0020145082380622625
vn 0.9999978542327881 0.0 -0.0020575998350977898
vn 0.9996254444122314 0.027367133647203445 6.08565860602539e-05
vn 0.9996236562728882 0.027430785819888115 2.9607434044010006e-05
vn 0.9996838569641113 0.02514125593006611 0.00010372544056735933
vn 0.9998171925544739 0.019121326506137848 0.00014907019794918597
vn 0.9999465942382812 0.010331722907721996 0.0001836769370129332
vn 1.0 0.0 0.0001916167384479195
vn 0.9999465942382812 -0.010331732220947742 0.00018367536540608853
vn 0.9998171925544739 -0.019121330231428146 0.00014906845171935856
vn 0.9996838569641113 -0.02514122799038887 0.00010372699762228876
vn 0.9996634721755981 -0.02588948979973793 -0.0016303047304973006
vn 0.9996080994606018 -0.02796204574406147 -0.0013233096105977893
vn 0.9996084570884705 -0.027956001460552216 -0.001175509300082922
vn 0.9996254444122314 -0.02736714482307434 6.085728091420606e-05
vn 0.9996236562728882 -0.027430810034275055 2.9605536838062108e-05
vn 0.9999449253082275 0.009326894767582417 -0.00482680881395936
vn 0.9999879598617554 0.0 -0.004901088308542967
vn 0.9999449253082275 -0.009326893836259842 -0.004826806951314211
vn 0.999836802482605 -0.01748860813677311 -0.004522441886365414
vn 0.9997171759605408 -0.02342597208917141 -0.00408912543207407
vn 0.9996428489685059 -0.026480069383978844 -0.0035940282978117466
vn 0.9996238946914673 -0.027277182787656784 -0.0028251500334590673
vn 0.9996320009231567 -0.025323854759335518 -0.009730196557939053
vn 0.9996515512466431 -0.023798078298568726 -0.011421561241149902
vn 0.9996360540390015 -0.019212529063224792 -0.018939727917313576
vn 0.9996383190155029 -0.017248159274458885 -0.020632028579711914
vn 0.9997071623802185 -0.020457396283745766 -0.012919784523546696
vn 0.999636173248291 -0.0144881010055542 -0.022751852869987488
vn 0.9997877478599548 -0.015006419271230698 -0.014114292338490486
vn 0.9996501207351685 -0.01039211917668581 -0.024324027821421623
vn 0.9998579025268555 -0.007905447855591774 -0.014885938726365566
vn 0.999665379524231 -0.005377789959311485 -0.025299260392785072
vn 0.9998855590820312 0.0 -0.015131078660488129
vn 0.9996716976165771 0.0 -0.025623785331845284
vn 0.9998579025268555 0.007905449718236923 -0.014885945245623589
vn 0.999665379524231 0.005377789027988911 -0.02529926970601082
vn 0.9997877478599548 0.015006406232714653 -0.014114298857748508
vn 0.9996501207351685 0.010392110794782639 -0.024324029684066772
vn 0.9997071623802185 0.020457390695810318 -0.012919798493385315
vn 0.999636173248291 0.014488096348941326 -0.022751837968826294
vn 0.9996515512466431 0.023798104375600815 -0.011421550065279007
vn 0.9996383190155029 0.017248177900910378 -0.02063203975558281
vn 0.9996320009231567 0.02532386966049671 -0.009730223566293716
vn 0.9996360540390015 0.01921255700290203 -0.018939735367894173
vn 0.999688982963562 -0.00652850279584527 -0.02406691014766693
vn 0.9996961355209351 -0.009207298047840595 -0.022866982966661453
vn 0.9998891353607178 -0.00413229875266552 -0.014304973185062408
vn 0.9998878240585327 -0.0029894972685724497 -0.014677236787974834
vn 0.9996885061264038 -0.0033381658140569925 -0.024734999984502792
vn 0.9998893737792969 -0.0014586305478587747 -0.014801892451941967
vn 0.9996881484985352 0.0 -0.02497052401304245
vn 0.9998897314071655 0.0 -0.01484957616776228
vn 0.9996885061264038 0.003338160226121545 -0.024734996259212494
vn 0.9998893737792969 0.0014586297329515219 -0.014801884070038795
vn 0.999688982963562 0.006528489291667938 -0.024066919460892677
vn 0.9998878240585327 0.002989490982145071 -0.014677241444587708
vn 0.9996961355209351 0.009207295253872871 -0.0228669922798872
vn 0.9998891353607178 0.004132312722504139 -0.01430501788854599
vn 0.999713122844696 0.011163338087499142 -0.02118672989308834
vn 0.999891996383667 0.005143277812749147 -0.013772139325737953
vn 0.9997019171714783 0.013071808964014053 -0.020620258525013924
vn 0.9998618364334106 0.006316371727734804 -0.015378927811980247
vn 0.9999833106994629 -0.002191902371123433 -0.005350180901587009
vn 0.9999803304672241 -0.0027781955432146788 -0.005638575181365013
vn 0.999891996383667 -0.005143270827829838 -0.013772119767963886
vn 0.999713122844696 -0.011163323186337948 -0.021186698228120804
vn 0.9998618364334106 -0.006316353101283312 -0.015378913842141628
vn 0.9997019171714783 -0.013071758672595024 -0.020620197057724
vn 0.9999779462814331 -0.0031352124642580748 -0.005851002410054207
vn 0.9999852180480957 0.001697627711109817 -0.0051698265597224236
vn 0.9999873638153076 0.0006818970432505012 -0.0049886214546859264
vn 0.9999880790710449 0.0 -0.004882162902504206
vn 0.9999873638153076 -0.0006818957626819611 -0.004988617729395628
vn 0.9999852180480957 -0.0016976327169686556 -0.005169824697077274
vn 0.9999833106994629 0.002191911218687892 -0.005350193940103054
vn 0.9999803304672241 0.0027782281395047903 -0.005638638976961374
vn 0.9999779462814331 0.003135212929919362 -0.005850998219102621
vn 0.9996238946914673 0.027277149260044098 -0.0028251372277736664
vn 0.9996428489685059 0.02648008055984974 -0.003594029461964965
vn 0.9997171759605408 0.0234259981662035 -0.004089143592864275
vn 0.999836802482605 0.017488593235611916 -0.0045224581845104694
vt 0.0 -0.001455545425415039
vt 0.0 0.09883546829223633
vt 0.10000000149011612 0.09883546829223633
vt 0.10000000149011612 -0.001455545425415039
vt 0.20000000298023224 0.09883546829223633
vt 0.20000000298023224 -0.001455545425415039
vt 0.30000001192092896 0.09883546829223633
vt 0.30000001192092896 -0.001455545425415039
vt 0.4000000059604645 0.09883546829223633
vt 0.4000000059604645 -0.001455545425415039
vt 0.5 0.09883546829223633
vt 0.5 -0.001455545425415039
vt 0.6000000238418579 0.09883546829223633
vt 0.6000000238418579 -0.001455545425415039
vt 0.699999988079071 0.09883546829223633
vt 0.699999988079071 -0.001455545425415039
vt 0.800000011920929 0.09883546829223633
vt 0.800000011920929 -0.001455545425415039
vt 0.9000000357627869 0.09883546829223633
vt 0.9000000357627869 -0.001455545425415039
vt 1.0 0.09883546829223633
vt 1.0 -0.001455545425415039
vt 0.4000000059604645 0.19912660121917725
vt 0.5 0.19912660121917725
vt 0.6000000238418579 0.19912660121917725
vt 0.699999988079071 0.19912660121917725
vt 0.800000011920929 0.19912660121917725
vt 0.9000000357627869 0.19912660121917725
vt 1.0 0.19912660121917725
vt 0.5 0.29941773414611816
vt 0.4000000059604645 0.29941773414611816
vt 0.30000001192092896 0.19912660121917725
vt 0.20000000298023224 0.19912660121917725
vt 0.10000000149011612 0.19912660121917725
vt 0.0 0.19912660121917725
vt 0.10000000149011612 0.29941773414611816
vt 0.0 0.29941773414611816
vt 0.20000000298023224 0.29941773414611816
vt 0.30000001192092896 0.29941773414611816
vt 1.0 0.29941773414611816
vt 0.10000000149011612 0.3997088670730591
vt 0.0 0.3997088670730591
vt 0.20000000298023224 0.3997088670730591
vt 0.30000001192092896 0.3997088670730591
vt 0.4000000059604645 0.3997088670730591
vt 0.5 0.3997088670730591
vt 0.6000000238418579 0.3997088670730591
vt 0.6000000238418579 0.29941773414611816
vt 0.699999988079071 0.29941773414611816
vt 0.800000011920929 0.29941773414611816
vt 0.9000000357627869 0.29941773414611816
vt 0.699999988079071 0.3997088670730591
vt 0.800000011920929 0.3997088670730591
vt 0.9000000357627869 0.3997088670730591
vt 1.0 0.3997088670730591
vt 0.699999988079071 0.5
vt 0.6000000238418579 0.5
vt 0.800000011920929 0.5
vt 0.9000000357627869 0.5
vt 1.0 0.5
vt 0.699999988079071 0.6002911329269409
vt 0.6000000238418579 0.6002911329269409
vt 0.5 0.5
vt 0.4000000059604645 0.5
vt 0.30000001192092896 0.5
vt 0.20000000298023224 0.5
vt 0.10000000149011612 0.5
vt 0.0 0.5
vt 0.10000000149011612 0.6002911329269409
vt 0.0 0.6002911329269409
vt 0.20000000298023224 0.6002911329269409
vt 0.30000001192092896 0.6002911329269409
vt 0.4000000059604645 0.6002911329269409
vt 0.5 0.6002911329269409
vt 0.10000000149011612 0.7005822360515594
vt 0.0 0.7005822360515594
vt 0.20000000298023224 0.7005822360515594
vt 0.30000001192092896 0.7005822360515594
vt 0.4000000059604645 0.7005822360515594
vt 0.5 0.7005822360515594
vt 0.6000000238418579 0.7005822360515594
vt 0.699999988079071 0.7005822360515594
vt 0.800000011920929 0.7005822360515594
vt 0.800000011920929 0.6002911329269409
vt 0.9000000357627869 0.6002911329269409
vt 1.0 0.6002911329269409
vt 0.9000000357627869 0.7005822360515594
vt 1.0 0.7005822360515594
vt 0.4000000059604645 0.7474949955940247
vt 0.5 0.7474949955940247
vt 0.6000000238418579 0.7474949955940247
vt 0.6999999284744263 0.7474949955940247
vt 0.800000011920929 0.7474949955940247
vt 0.8999999761581421 0.7474949955940247
vt 1.0 0.7474949955940247
vt 1.0 0.800873339176178
vt 0.9000000357627869 0.800873339176178
vt 1.0 0.8436880707740784
vt 0.9000000357627869 0.8436880707740784
vt 0.800000011920929 0.800873339176178
vt 0.800000011920929 0.8436880707740784
vt 0.699999988079071 0.800873339176178
vt 0.699999988079071 0.8436880707740784
vt 0.6000000238418579 0.800873339176178
vt 0.6000000238418579 0.8436880707740784
vt 0.5 0.800873339176178
vt 0.5 0.8436880707740784
vt 0.4000000059604645 0.800873339176178
vt 0.4000000059604645 0.8436880707740784
vt 0.30000001192092896 0.800873339176178
vt 0.30000001192092896 0.8436880707740784
vt 0.20000000298023224 0.800873339176178
vt 0.20000000298023224 0.8436880707740784
vt 0.10000000149011612 0.800873339176178
vt 0.10000000149011612 0.8436880707740784
vt 0.0 0.800873339176178
vt 0.0 0.8436880707740784
vt 0.699999988079071 0.9011645317077637
vt 0.800000011920929 0.9011645317077637
vt 0.7999999523162842 0.9469959735870361
vt 0.6999999284744263 0.9469959735870361
vt 0.6000000238418579 0.9011645317077637
vt 0.6000000238418579 0.9469959735870361
vt 0.5 0.9011645317077637
vt 0.5 0.9469959735870361
vt 0.4000000059604645 0.9011645317077637
vt 0.3999999761581421 0.9469959735870361
vt 0.30000001192092896 0.9011645317077637
vt 0.30000001192092896 0.9469959735870361
vt 0.20000000298023224 0.9011645317077637
vt 0.19999998807907104 0.9469959735870361
vt 0.10000000149011612 0.9011645317077637
vt 0.09999999403953552 0.9469959735870361
vt 0.0 0.9011645317077637
vt 0.0 0.9469959735870361
vt 0.800000011920929 1.001455545425415
vt 0.9000000357627869 1.001455545425415
vt 0.8999999761581421 0.9469959735870361
vt 0.9000000357627869 0.9011645317077637
vt 1.0 0.9469959735870361
vt 1.0 0.9011645317077637
vt 1.0 1.001455545425415
vt 0.30000001192092896 1.001455545425415
vt 0.4000000059604645 1.001455545425415
vt 0.5 1.001455545425415
vt 0.6000000238418579 1.001455545425415
vt 0.699999988079071 1.001455545425415
vt 0.20000000298023224 1.001455545425415
vt 0.10000000149011612 1.001455545425415
vt 0.0 1.001455545425415
vt 0.0 0.7474949955940247
vt 0.10000000149011612 0.7474949955940247
vt 0.20000000298023224 0.7474949955940247
vt 0.30000001192092896 0.7474949955940247
vt 0.0 0.5047412514686584
vt 0.0 0.6050322651863098
vt 0.10000000149011612 0.6050322651863098
vt 0.10000000149011612 0.5047412514686584
vt 0.20000000298023224 0.6050322651863098
vt 0.20000000298023224 0.5047412514686584
vt 0.30000001192092896 0.6050322651863098
vt 0.30000001192092896 0.5047412514686584
vt 0.4000000059604645 0.6050322651863098
vt 0.4000000059604645 0.5047412514686584
vt 0.5 0.6050322651863098
vt 0.5 0.5047412514686584
vt 0.6000000238418579 0.6050322651863098
vt 0.6000000238418579 0.5047412514686584
vt 0.699999988079071 0.6050322651863098
vt 0.699999988079071 0.5047412514686584
vt 0.800000011920929 0.6050322651863098
vt 0.800000011920929 0.5047412514686584
vt 0.9000000357627869 0.6050322651863098
vt 0.9000000357627869 0.5047412514686584
vt 1.0 0.6050322651863098
vt 1.0 0.5047412514686584
vt 0.4000000059604645 0.7053233981132507
vt 0.5 0.7053233981132507
vt 0.6000000238418579 0.7053233981132507
vt 0.699999988079071 0.7053233981132507
vt 0.800000011920929 0.7053233981132507
vt 0.9000000357627869 0.7053233981132507
vt 1.0 0.7053233981132507
vt 0.5 0.8056145310401917
vt 0.4000000059604645 0.8056145310401917
vt 0.30000001192092896 0.7053233981132507
vt 0.20000000298023224 0.7053233981132507
vt 0.10000000149011612 0.7053233981132507
vt 0.0 0.7053233981132507
vt 0.10000000149011612 0.8056145310401917
vt 0.0 0.8056145310401917
vt 0.20000000298023224 0.8056145310401917
vt 0.30000001192092896 0.8056145310401917
vt 1.0 0.8056145310401917
vt 0.10000000149011612 0.9059056639671326
vt 0.0 0.9059056639671326
vt 0.20000000298023224 0.9059056639671326
vt 0.30000001192092896 0.9059056639671326
vt 0.4000000059604645 0.9059056639671326
vt 0.5 0.9059056639671326
vt 0.6000000238418579 0.9059056639671326
vt 0.6000000238418579 0.8056145310401917
vt 0.699999988079071 0.8056145310401917
vt 0.800000011920929 0.8056145310401917
vt 0.9000000357627869 0.8056145310401917
vt 0.699999988079071 0.9059056639671326
vt 0.800000011920929 0.9059056639671326
vt 0.9000000357627869 0.9059056639671326
vt 1.0 0.9059056639671326
vt 0.699999988079071 1.0061967968940735
vt 0.6000000238418579 1.0061967968940735
vt 0.800000011920929 1.0061967968940735
vt 0.9000000357627869 1.0061967968940735
vt 1.0 1.0061967968940735
vt 0.699999988079071 1.1064879298210144
vt 0.6000000238418579 1.1064879298210144
vt 0.5 1.0061967968940735
vt 0.4000000059604645 1.0061967968940735
vt 0.30000001192092896 1.0061967968940735
vt 0.20000000298023224 1.0061967968940735
vt 0.10000000149011612 1.0061967968940735
vt 0.0 1.0061967968940735
vt 0.10000000149011612 1.1064879298210144
vt 0.0 1.1064879298210144
vt 0.20000000298023224 1.1064879298210144
vt 0.30000001192092896 1.1064879298210144
vt 0.4000000059604645 1.1064879298210144
vt 0.5 1.1064879298210144
vt 0.10000000149011612 1.206779032945633
vt 0.0 1.206779032945633
vt 0.20000000298023224 1.206779032945633
vt 0.30000001192092896 1.206779032945633
vt 0.4000000059604645 1.206779032945633
vt 0.5 1.206779032945633
vt 0.6000000238418579 1.206779032945633
vt 0.699999988079071 1.206779032945633
vt 0.800000011920929 1.206779032945633
vt 0.800000011920929 1.1064879298210144
vt 0.9000000357627869 1.1064879298210144
vt 1.0 1.1064879298210144
vt 0.9000000357627869 1.206779032945633
vt 1.0 1.206779032945633
vt 0.4000000059604645 1.2536917924880981
vt 0.5 1.2536917924880981
vt 0.6000000238418579 1.2536917924880981
vt 0.6999999284744263 1.2536917924880981
vt 0.800000011920929 1.2536917924880981
vt 0.8999999761581421 1.2536917924880981
vt 1.0 1.2536917924880981
vt 1.0 1.3070701360702515
vt 0.9000000357627869 1.3070701360702515
vt 1.0 1.3498848676681519
vt 0.9000000357627869 1.3498848676681519
vt 0.800000011920929 1.3070701360702515
vt 0.800000011920929 1.3498848676681519
vt 0.699999988079071 1.3070701360702515
vt 0.699999988079071 1.3498848676681519
vt 0.6000000238418579 1.3070701360702515
vt 0.6000000238418579 1.3498848676681519
vt 0.5 1.3070701360702515
vt 0.5 1.3498848676681519
vt 0.4000000059604645 1.3070701360702515
vt 0.4000000059604645 1.3498848676681519
vt 0.30000001192092896 1.3070701360702515
vt 0.30000001192092896 1.3498848676681519
vt 0.20000000298023224 1.3070701360702515
vt 0.20000000298023224 1.3498848676681519
vt 0.10000000149011612 1.3070701360702515
vt 0.10000000149011612 1.3498848676681519
vt 0.0 1.3070701360702515
vt 0.0 1.3498848676681519
vt 0.699999988079071 1.4073613286018372
vt 0.800000011920929 1.4073613286018372
vt 0.7999999523162842 1.4531927704811096
vt 0.6999999284744263 1.4531927704811096
vt 0.6000000238418579 1.4073613286018372
vt 0.6000000238418579 1.4531927704811096
vt 0.5 1.4073613286018372
vt 0.5 1.4531927704811096
vt 0.4000000059604645 1.4073613286018372
vt 0.3999999761581421 1.4531927704811096
vt 0.30000001192092896 1.4073613286018372
vt 0.30000001192092896 1.4531927704811096
vt 0.20000000298023224 1.4073613286018372
vt 0.19999998807907104 1.4531927704811096
vt 0.10000000149011612 1.4073613286018372
vt 0.09999999403953552 1.4531927704811096
vt 0.0 1.4073613286018372
vt 0.0 1.4531927704811096
vt 0.800000011920929 1.5076523423194885
vt 0.9000000357627869 1.5076523423194885
vt 0.8999999761581421 1.4531927704811096
vt 0.9000000357627869 1.4073613286018372
vt 1.0 1.4531927704811096
vt 1.0 1.4073613286018372
vt 1.0 1.5076523423194885
vt 0.30000001192092896 1.5076523423194885
vt 0.4000000059604645 1.5076523423194885
vt 0.5 1.5076523423194885
vt 0.6000000238418579 1.5076523423194885
vt 0.699999988079071 1.5076523423194885
vt 0.20000000298023224 1.5076523423194885
vt 0.10000000149011612 1.5076523423194885
vt 0.0 1.5076523423194885
vt 0.0 1.2536917924880981
vt 0.10000000149011612 1.2536917924880981
vt 0.20000000298023224 1.2536917924880981
vt 0.30000001192092896 1.2536917924880981

g eff_mdl_wind05
s 1
usemtl eff_mdl_wind05
f 3/3/3 2/2/2 1/1/1 
f 4/4/4 3/3/3 1/1/1 
f 5/5/5 3/3/3 4/4/4 
f 6/6/6 5/5/5 4/4/4 
f 7/7/7 5/5/5 6/6/6 
f 8/8/8 7/7/7 6/6/6 
f 9/9/9 7/7/7 8/8/8 
f 10/10/10 9/9/9 8/8/8 
f 11/11/11 9/9/9 10/10/10 
f 12/12/12 11/11/11 10/10/10 
f 13/13/13 11/11/11 12/12/12 
f 14/14/14 13/13/13 12/12/12 
f 15/15/15 13/13/13 14/14/14 
f 16/16/16 15/15/15 14/14/14 
f 17/17/17 15/15/15 16/16/16 
f 18/18/18 17/17/17 16/16/16 
f 19/19/19 17/17/17 18/18/18 
f 20/20/20 19/19/19 18/18/18 
f 21/21/21 19/19/19 20/20/20 
f 22/22/22 21/21/21 20/20/20 
f 9/9/9 23/23/23 7/7/7 
f 24/24/24 23/23/23 9/9/9 
f 11/11/11 24/24/24 9/9/9 
f 25/25/25 24/24/24 11/11/11 
f 13/13/13 25/25/25 11/11/11 
f 26/26/26 25/25/25 13/13/13 
f 15/15/15 26/26/26 13/13/13 
f 27/27/27 26/26/26 15/15/15 
f 17/17/17 27/27/27 15/15/15 
f 28/28/28 27/27/27 17/17/17 
f 19/19/19 28/28/28 17/17/17 
f 29/29/29 28/28/28 19/19/19 
f 21/21/21 29/29/29 19/19/19 
f 24/24/24 30/30/30 23/23/23 
f 30/30/30 31/31/31 23/23/23 
f 23/23/23 31/31/31 32/32/32 
f 23/23/23 32/32/32 7/7/7 
f 7/7/7 32/32/32 5/5/5 
f 32/32/32 33/33/33 5/5/5 
f 5/5/5 33/33/33 3/3/3 
f 33/33/33 34/34/34 3/3/3 
f 3/3/3 34/34/34 2/2/2 
f 34/34/34 35/35/35 2/2/2 
f 34/34/34 36/36/36 35/35/35 
f 36/36/36 37/37/37 35/35/35 
f 38/38/38 36/36/36 34/34/34 
f 33/33/33 38/38/38 34/34/34 
f 39/39/39 38/38/38 33/33/33 
f 32/32/32 39/39/39 33/33/33 
f 31/31/31 39/39/39 32/32/32 
f 29/29/29 40/40/40 28/28/28 
f 36/36/36 41/41/41 37/37/37 
f 41/41/41 42/42/42 37/37/37 
f 43/43/43 41/41/41 36/36/36 
f 38/38/38 43/43/43 36/36/36 
f 44/44/44 43/43/43 38/38/38 
f 39/39/39 44/44/44 38/38/38 
f 45/45/45 44/44/44 39/39/39 
f 31/31/31 45/45/45 39/39/39 
f 46/46/46 45/45/45 31/31/31 
f 30/30/30 46/46/46 31/31/31 
f 47/47/47 46/46/46 30/30/30 
f 48/48/48 47/47/47 30/30/30 
f 48/48/48 30/30/30 24/24/24 
f 25/25/25 48/48/48 24/24/24 
f 49/49/49 48/48/48 25/25/25 
f 26/26/26 49/49/49 25/25/25 
f 50/50/50 49/49/49 26/26/26 
f 27/27/27 50/50/50 26/26/26 
f 51/51/51 50/50/50 27/27/27 
f 28/28/28 51/51/51 27/27/27 
f 40/40/40 51/51/51 28/28/28 
f 52/52/52 47/47/47 48/48/48 
f 49/49/49 52/52/52 48/48/48 
f 53/53/53 52/52/52 49/49/49 
f 50/50/50 53/53/53 49/49/49 
f 54/54/54 53/53/53 50/50/50 
f 51/51/51 54/54/54 50/50/50 
f 55/55/55 54/54/54 51/51/51 
f 40/40/40 55/55/55 51/51/51 
f 52/52/52 56/56/56 47/47/47 
f 56/56/56 57/57/57 47/47/47 
f 58/58/58 56/56/56 52/52/52 
f 53/53/53 58/58/58 52/52/52 
f 59/59/59 58/58/58 53/53/53 
f 54/54/54 59/59/59 53/53/53 
f 60/60/60 59/59/59 54/54/54 
f 55/55/55 60/60/60 54/54/54 
f 56/56/56 61/61/61 57/57/57 
f 61/61/61 62/62/62 57/57/57 
f 57/57/57 62/62/62 63/63/63 
f 57/57/57 63/63/63 46/46/46 
f 46/46/46 63/63/63 45/45/45 
f 63/63/63 64/64/64 45/45/45 
f 45/45/45 64/64/64 44/44/44 
f 64/64/64 65/65/65 44/44/44 
f 44/44/44 65/65/65 43/43/43 
f 65/65/65 66/66/66 43/43/43 
f 43/43/43 66/66/66 41/41/41 
f 66/66/66 67/67/67 41/41/41 
f 41/41/41 67/67/67 42/42/42 
f 67/67/67 68/68/68 42/42/42 
f 67/67/67 69/69/69 68/68/68 
f 69/69/69 70/70/70 68/68/68 
f 71/71/71 69/69/69 67/67/67 
f 66/66/66 71/71/71 67/67/67 
f 72/72/72 71/71/71 66/66/66 
f 65/65/65 72/72/72 66/66/66 
f 73/73/73 72/72/72 65/65/65 
f 64/64/64 73/73/73 65/65/65 
f 74/74/74 73/73/73 64/64/64 
f 63/63/63 74/74/74 64/64/64 
f 62/62/62 74/74/74 63/63/63 
f 69/69/69 75/75/75 70/70/70 
f 75/75/75 76/76/76 70/70/70 
f 77/77/77 75/75/75 69/69/69 
f 71/71/71 77/77/77 69/69/69 
f 78/78/78 77/77/77 71/71/71 
f 72/72/72 78/78/78 71/71/71 
f 79/79/79 78/78/78 72/72/72 
f 73/73/73 79/79/79 72/72/72 
f 80/80/80 79/79/79 73/73/73 
f 74/74/74 80/80/80 73/73/73 
f 81/81/81 80/80/80 74/74/74 
f 62/62/62 81/81/81 74/74/74 
f 82/82/82 81/81/81 62/62/62 
f 61/61/61 82/82/82 62/62/62 
f 83/83/83 82/82/82 61/61/61 
f 84/84/84 83/83/83 61/61/61 
f 84/84/84 61/61/61 56/56/56 
f 58/58/58 84/84/84 56/56/56 
f 85/85/85 84/84/84 58/58/58 
f 59/59/59 85/85/85 58/58/58 
f 86/86/86 85/85/85 59/59/59 
f 60/60/60 86/86/86 59/59/59 
f 87/87/87 83/83/83 84/84/84 
f 85/85/85 87/87/87 84/84/84 
f 88/88/88 87/87/87 85/85/85 
f 86/86/86 88/88/88 85/85/85 
f 79/79/79 89/89/89 78/78/78 
f 90/90/90 89/89/89 79/79/79 
f 80/80/80 90/90/90 79/79/79 
f 91/91/91 90/90/90 80/80/80 
f 81/81/81 91/91/91 80/80/80 
f 92/92/92 91/91/91 81/81/81 
f 82/82/82 92/92/92 81/81/81 
f 93/93/93 92/92/92 82/82/82 
f 83/83/83 93/93/93 82/82/82 
f 94/94/94 93/93/93 83/83/83 
f 87/87/87 94/94/94 83/83/83 
f 95/95/95 94/94/94 87/87/87 
f 88/88/88 95/95/95 87/87/87 
f 95/95/95 96/96/96 94/94/94 
f 96/96/96 97/97/97 94/94/94 
f 94/94/94 97/97/97 93/93/93 
f 96/96/96 98/98/98 97/97/97 
f 98/98/98 99/99/99 97/97/97 
f 97/97/97 99/99/99 100/100/100 
f 97/97/97 100/100/100 93/93/93 
f 93/93/93 100/100/100 92/92/92 
f 99/99/99 101/101/101 100/100/100 
f 100/100/100 101/101/101 102/102/102 
f 100/100/100 102/102/102 92/92/92 
f 92/92/92 102/102/102 91/91/91 
f 101/101/101 103/103/103 102/102/102 
f 102/102/102 103/103/103 104/104/104 
f 103/103/103 105/105/105 104/104/104 
f 104/104/104 105/105/105 106/106/106 
f 105/105/105 107/107/107 106/106/106 
f 106/106/106 107/107/107 108/108/108 
f 107/107/107 109/109/109 108/108/108 
f 108/108/108 109/109/109 110/110/110 
f 109/109/109 111/111/111 110/110/110 
f 110/110/110 111/111/111 112/112/112 
f 111/111/111 113/113/113 112/112/112 
f 112/112/112 113/113/113 114/114/114 
f 113/113/113 115/115/115 114/114/114 
f 114/114/114 115/115/115 116/116/116 
f 115/115/115 117/117/117 116/116/116 
f 103/103/103 118/118/118 105/105/105 
f 119/119/119 118/118/118 103/103/103 
f 119/119/119 120/120/120 118/118/118 
f 120/120/120 121/121/121 118/118/118 
f 118/118/118 121/121/121 122/122/122 
f 121/121/121 123/123/123 122/122/122 
f 122/122/122 123/123/123 124/124/124 
f 123/123/123 125/125/125 124/124/124 
f 124/124/124 125/125/125 126/126/126 
f 125/125/125 127/127/127 126/126/126 
f 126/126/126 127/127/127 128/128/128 
f 127/127/127 129/129/129 128/128/128 
f 128/128/128 129/129/129 130/130/130 
f 129/129/129 131/131/131 130/130/130 
f 130/130/130 131/131/131 132/132/132 
f 131/131/131 133/133/133 132/132/132 
f 132/132/132 133/133/133 134/134/134 
f 133/133/133 135/135/135 134/134/134 
f 120/120/120 136/136/136 121/121/121 
f 137/137/137 136/136/136 120/120/120 
f 138/138/138 137/137/137 120/120/120 
f 138/138/138 120/120/120 119/119/119 
f 139/139/139 138/138/138 119/119/119 
f 140/140/140 138/138/138 139/139/139 
f 141/141/141 140/140/140 139/139/139 
f 142/142/142 137/137/137 138/138/138 
f 140/140/140 142/142/142 138/138/138 
f 129/129/129 143/143/143 131/131/131 
f 144/144/144 143/143/143 129/129/129 
f 127/127/127 144/144/144 129/129/129 
f 145/145/145 144/144/144 127/127/127 
f 125/125/125 145/145/145 127/127/127 
f 146/146/146 145/145/145 125/125/125 
f 123/123/123 146/146/146 125/125/125 
f 147/147/147 146/146/146 123/123/123 
f 121/121/121 147/147/147 123/123/123 
f 136/136/136 147/147/147 121/121/121 
f 141/141/141 139/139/139 99/99/99 
f 98/98/98 141/141/141 99/99/99 
f 143/143/143 148/148/148 131/131/131 
f 131/131/131 148/148/148 133/133/133 
f 148/148/148 149/149/149 133/133/133 
f 133/133/133 149/149/149 135/135/135 
f 149/149/149 150/150/150 135/135/135 
f 99/99/99 139/139/139 101/101/101 
f 139/139/139 119/119/119 101/101/101 
f 101/101/101 119/119/119 103/103/103 
f 47/47/47 57/57/57 46/46/46 
f 152/152/152 151/151/151 76/76/76 
f 75/75/75 152/152/152 76/76/76 
f 153/153/153 152/152/152 75/75/75 
f 77/77/77 153/153/153 75/75/75 
f 154/154/154 153/153/153 77/77/77 
f 78/78/78 154/154/154 77/77/77 
f 89/89/89 154/154/154 78/78/78 
f 89/89/89 108/108/108 154/154/154 
f 106/106/106 108/108/108 89/89/89 
f 90/90/90 106/106/106 89/89/89 
f 104/104/104 106/106/106 90/90/90 
f 91/91/91 104/104/104 90/90/90 
f 102/102/102 104/104/104 91/91/91 
f 108/108/108 110/110/110 154/154/154 
f 154/154/154 110/110/110 153/153/153 
f 110/110/110 112/112/112 153/153/153 
f 153/153/153 112/112/112 152/152/152 
f 112/112/112 114/114/114 152/152/152 
f 152/152/152 114/114/114 151/151/151 
f 114/114/114 116/116/116 151/151/151 
f 118/118/118 122/122/122 105/105/105 
f 105/105/105 122/122/122 107/107/107 
f 122/122/122 124/124/124 107/107/107 
f 107/107/107 124/124/124 109/109/109 
f 124/124/124 126/126/126 109/109/109 
f 109/109/109 126/126/126 111/111/111 
f 126/126/126 128/128/128 111/111/111 
f 111/111/111 128/128/128 113/113/113 
f 128/128/128 130/130/130 113/113/113 
f 113/113/113 130/130/130 115/115/115 
f 130/130/130 132/132/132 115/115/115 
f 115/115/115 132/132/132 117/117/117 
f 132/132/132 134/134/134 117/117/117 
f 157/157/157 156/156/156 155/155/155 
f 158/158/158 157/157/157 155/155/155 
f 159/159/159 157/157/157 158/158/158 
f 160/160/160 159/159/159 158/158/158 
f 161/161/161 159/159/159 160/160/160 
f 162/162/162 161/161/161 160/160/160 
f 163/163/163 161/161/161 162/162/162 
f 164/164/164 163/163/163 162/162/162 
f 165/165/165 163/163/163 164/164/164 
f 166/166/166 165/165/165 164/164/164 
f 167/167/167 165/165/165 166/166/166 
f 168/168/168 167/167/167 166/166/166 
f 169/169/169 167/167/167 168/168/168 
f 170/170/170 169/169/169 168/168/168 
f 171/171/171 169/169/169 170/170/170 
f 172/172/172 171/171/171 170/170/170 
f 173/173/173 171/171/171 172/172/172 
f 174/174/174 173/173/173 172/172/172 
f 175/175/175 173/173/173 174/174/174 
f 176/176/176 175/175/175 174/174/174 
f 163/163/163 177/177/177 161/161/161 
f 178/178/178 177/177/177 163/163/163 
f 165/165/165 178/178/178 163/163/163 
f 179/179/179 178/178/178 165/165/165 
f 167/167/167 179/179/179 165/165/165 
f 180/180/180 179/179/179 167/167/167 
f 169/169/169 180/180/180 167/167/167 
f 181/181/181 180/180/180 169/169/169 
f 171/171/171 181/181/181 169/169/169 
f 182/182/182 181/181/181 171/171/171 
f 173/173/173 182/182/182 171/171/171 
f 183/183/183 182/182/182 173/173/173 
f 175/175/175 183/183/183 173/173/173 
f 178/178/178 184/184/184 177/177/177 
f 184/184/184 185/185/185 177/177/177 
f 177/177/177 185/185/185 186/186/186 
f 177/177/177 186/186/186 161/161/161 
f 161/161/161 186/186/186 159/159/159 
f 186/186/186 187/187/187 159/159/159 
f 159/159/159 187/187/187 157/157/157 
f 187/187/187 188/188/188 157/157/157 
f 157/157/157 188/188/188 156/156/156 
f 188/188/188 189/189/189 156/156/156 
f 188/188/188 190/190/190 189/189/189 
f 190/190/190 191/191/191 189/189/189 
f 192/192/192 190/190/190 188/188/188 
f 187/187/187 192/192/192 188/188/188 
f 193/193/193 192/192/192 187/187/187 
f 186/186/186 193/193/193 187/187/187 
f 185/185/185 193/193/193 186/186/186 
f 183/183/183 194/194/194 182/182/182 
f 190/190/190 195/195/195 191/191/191 
f 195/195/195 196/196/196 191/191/191 
f 197/197/197 195/195/195 190/190/190 
f 192/192/192 197/197/197 190/190/190 
f 198/198/198 197/197/197 192/192/192 
f 193/193/193 198/198/198 192/192/192 
f 199/199/199 198/198/198 193/193/193 
f 185/185/185 199/199/199 193/193/193 
f 200/200/200 199/199/199 185/185/185 
f 184/184/184 200/200/200 185/185/185 
f 201/201/201 200/200/200 184/184/184 
f 202/202/202 201/201/201 184/184/184 
f 202/202/202 184/184/184 178/178/178 
f 179/179/179 202/202/202 178/178/178 
f 203/203/203 202/202/202 179/179/179 
f 180/180/180 203/203/203 179/179/179 
f 204/204/204 203/203/203 180/180/180 
f 181/181/181 204/204/204 180/180/180 
f 205/205/205 204/204/204 181/181/181 
f 182/182/182 205/205/205 181/181/181 
f 194/194/194 205/205/205 182/182/182 
f 206/206/206 201/201/201 202/202/202 
f 203/203/203 206/206/206 202/202/202 
f 207/207/207 206/206/206 203/203/203 
f 204/204/204 207/207/207 203/203/203 
f 208/208/208 207/207/207 204/204/204 
f 205/205/205 208/208/208 204/204/204 
f 209/209/209 208/208/208 205/205/205 
f 194/194/194 209/209/209 205/205/205 
f 206/206/206 210/210/210 201/201/201 
f 210/210/210 211/211/211 201/201/201 
f 212/212/212 210/210/210 206/206/206 
f 207/207/207 212/212/212 206/206/206 
f 213/213/213 212/212/212 207/207/207 
f 208/208/208 213/213/213 207/207/207 
f 214/214/214 213/213/213 208/208/208 
f 209/209/209 214/214/214 208/208/208 
f 210/210/210 215/215/215 211/211/211 
f 215/215/215 216/216/216 211/211/211 
f 211/211/211 216/216/216 217/217/217 
f 211/211/211 217/217/217 200/200/200 
f 200/200/200 217/217/217 199/199/199 
f 217/217/217 218/218/218 199/199/199 
f 199/199/199 218/218/218 198/198/198 
f 218/218/218 219/219/219 198/198/198 
f 198/198/198 219/219/219 197/197/197 
f 219/219/219 220/220/220 197/197/197 
f 197/197/197 220/220/220 195/195/195 
f 220/220/220 221/221/221 195/195/195 
f 195/195/195 221/221/221 196/196/196 
f 221/221/221 222/222/222 196/196/196 
f 221/221/221 223/223/223 222/222/222 
f 223/223/223 224/224/224 222/222/222 
f 225/225/225 223/223/223 221/221/221 
f 220/220/220 225/225/225 221/221/221 
f 226/226/226 225/225/225 220/220/220 
f 219/219/219 226/226/226 220/220/220 
f 227/227/227 226/226/226 219/219/219 
f 218/218/218 227/227/227 219/219/219 
f 228/228/228 227/227/227 218/218/218 
f 217/217/217 228/228/228 218/218/218 
f 216/216/216 228/228/228 217/217/217 
f 223/223/223 229/229/229 224/224/224 
f 229/229/229 230/230/230 224/224/224 
f 231/231/231 229/229/229 223/223/223 
f 225/225/225 231/231/231 223/223/223 
f 232/232/232 231/231/231 225/225/225 
f 226/226/226 232/232/232 225/225/225 
f 233/233/233 232/232/232 226/226/226 
f 227/227/227 233/233/233 226/226/226 
f 234/234/234 233/233/233 227/227/227 
f 228/228/228 234/234/234 227/227/227 
f 235/235/235 234/234/234 228/228/228 
f 216/216/216 235/235/235 228/228/228 
f 236/236/236 235/235/235 216/216/216 
f 215/215/215 236/236/236 216/216/216 
f 237/237/237 236/236/236 215/215/215 
f 238/238/238 237/237/237 215/215/215 
f 238/238/238 215/215/215 210/210/210 
f 212/212/212 238/238/238 210/210/210 
f 239/239/239 238/238/238 212/212/212 
f 213/213/213 239/239/239 212/212/212 
f 240/240/240 239/239/239 213/213/213 
f 214/214/214 240/240/240 213/213/213 
f 241/241/241 237/237/237 238/238/238 
f 239/239/239 241/241/241 238/238/238 
f 242/242/242 241/241/241 239/239/239 
f 240/240/240 242/242/242 239/239/239 
f 233/233/233 243/243/243 232/232/232 
f 244/244/244 243/243/243 233/233/233 
f 234/234/234 244/244/244 233/233/233 
f 245/245/245 244/244/244 234/234/234 
f 235/235/235 245/245/245 234/234/234 
f 246/246/246 245/245/245 235/235/235 
f 236/236/236 246/246/246 235/235/235 
f 247/247/247 246/246/246 236/236/236 
f 237/237/237 247/247/247 236/236/236 
f 248/248/248 247/247/247 237/237/237 
f 241/241/241 248/248/248 237/237/237 
f 249/249/249 248/248/248 241/241/241 
f 242/242/242 249/249/249 241/241/241 
f 249/249/249 250/250/250 248/248/248 
f 250/250/250 251/251/251 248/248/248 
f 248/248/248 251/251/251 247/247/247 
f 250/250/250 252/252/252 251/251/251 
f 252/252/252 253/253/253 251/251/251 
f 251/251/251 253/253/253 254/254/254 
f 251/251/251 254/254/254 247/247/247 
f 247/247/247 254/254/254 246/246/246 
f 253/253/253 255/255/255 254/254/254 
f 254/254/254 255/255/255 256/256/256 
f 254/254/254 256/256/256 246/246/246 
f 246/246/246 256/256/256 245/245/245 
f 255/255/255 257/257/257 256/256/256 
f 256/256/256 257/257/257 258/258/258 
f 257/257/257 259/259/259 258/258/258 
f 258/258/258 259/259/259 260/260/260 
f 259/259/259 261/261/261 260/260/260 
f 260/260/260 261/261/261 262/262/262 
f 261/261/261 263/263/263 262/262/262 
f 262/262/262 263/263/263 264/264/264 
f 263/263/263 265/265/265 264/264/264 
f 264/264/264 265/265/265 266/266/266 
f 265/265/265 267/267/267 266/266/266 
f 266/266/266 267/267/267 268/268/268 
f 267/267/267 269/269/269 268/268/268 
f 268/268/268 269/269/269 270/270/270 
f 269/269/269 271/271/271 270/270/270 
f 257/257/257 272/272/272 259/259/259 
f 273/273/273 272/272/272 257/257/257 
f 273/273/273 274/274/274 272/272/272 
f 274/274/274 275/275/275 272/272/272 
f 272/272/272 275/275/275 276/276/276 
f 275/275/275 277/277/277 276/276/276 
f 276/276/276 277/277/277 278/278/278 
f 277/277/277 279/279/279 278/278/278 
f 278/278/278 279/279/279 280/280/280 
f 279/279/279 281/281/281 280/280/280 
f 280/280/280 281/281/281 282/282/282 
f 281/281/281 283/283/283 282/282/282 
f 282/282/282 283/283/283 284/284/284 
f 283/283/283 285/285/285 284/284/284 
f 284/284/284 285/285/285 286/286/286 
f 285/285/285 287/287/287 286/286/286 
f 286/286/286 287/287/287 288/288/288 
f 287/287/287 289/289/289 288/288/288 
f 274/274/274 290/290/290 275/275/275 
f 291/291/291 290/290/290 274/274/274 
f 292/292/292 291/291/291 274/274/274 
f 292/292/292 274/274/274 273/273/273 
f 293/293/293 292/292/292 273/273/273 
f 294/294/294 292/292/292 293/293/293 
f 295/295/295 294/294/294 293/293/293 
f 296/296/296 291/291/291 292/292/292 
f 294/294/294 296/296/296 292/292/292 
f 283/283/283 297/297/297 285/285/285 
f 298/298/298 297/297/297 283/283/283 
f 281/281/281 298/298/298 283/283/283 
f 299/299/299 298/298/298 281/281/281 
f 279/279/279 299/299/299 281/281/281 
f 300/300/300 299/299/299 279/279/279 
f 277/277/277 300/300/300 279/279/279 
f 301/301/301 300/300/300 277/277/277 
f 275/275/275 301/301/301 277/277/277 
f 290/290/290 301/301/301 275/275/275 
f 295/295/295 293/293/293 253/253/253 
f 252/252/252 295/295/295 253/253/253 
f 297/297/297 302/302/302 285/285/285 
f 285/285/285 302/302/302 287/287/287 
f 302/302/302 303/303/303 287/287/287 
f 287/287/287 303/303/303 289/289/289 
f 303/303/303 304/304/304 289/289/289 
f 253/253/253 293/293/293 255/255/255 
f 293/293/293 273/273/273 255/255/255 
f 255/255/255 273/273/273 257/257/257 
f 201/201/201 211/211/211 200/200/200 
f 306/306/306 305/305/305 230/230/230 
f 229/229/229 306/306/306 230/230/230 
f 307/307/307 306/306/306 229/229/229 
f 231/231/231 307/307/307 229/229/229 
f 308/308/308 307/307/307 231/231/231 
f 232/232/232 308/308/308 231/231/231 
f 243/243/243 308/308/308 232/232/232 
f 243/243/243 262/262/262 308/308/308 
f 260/260/260 262/262/262 243/243/243 
f 244/244/244 260/260/260 243/243/243 
f 258/258/258 260/260/260 244/244/244 
f 245/245/245 258/258/258 244/244/244 
f 256/256/256 258/258/258 245/245/245 
f 262/262/262 264/264/264 308/308/308 
f 308/308/308 264/264/264 307/307/307 
f 264/264/264 266/266/266 307/307/307 
f 307/307/307 266/266/266 306/306/306 
f 266/266/266 268/268/268 306/306/306 
f 306/306/306 268/268/268 305/305/305 
f 268/268/268 270/270/270 305/305/305 
f 272/272/272 276/276/276 259/259/259 
f 259/259/259 276/276/276 261/261/261 
f 276/276/276 278/278/278 261/261/261 
f 261/261/261 278/278/278 263/263/263 
f 278/278/278 280/280/280 263/263/263 
f 263/263/263 280/280/280 265/265/265 
f 280/280/280 282/282/282 265/265/265 
f 265/265/265 282/282/282 267/267/267 
f 282/282/282 284/284/284 267/267/267 
f 267/267/267 284/284/284 269/269/269 
f 284/284/284 286/286/286 269/269/269 
f 269/269/269 286/286/286 271/271/271 
f 286/286/286 288/288/288 271/271/271 


