v -0.22421273589134216 -0.41447222232818604 1.996090054512024
v 0.22421273589134216 0.41447198390960693 2.0039098262786865
v 0.22421273589134216 -0.41447222232818604 1.996090054512024
v -0.22421273589134216 0.41447198390960693 2.0039098262786865
vn -0.0 -0.009433056227862835 0.9999555349349976
vn -0.0 -0.009433056227862835 0.9999555349349976
vn -0.0 -0.009433056227862835 0.9999555349349976
vn -0.0 -0.009433056227862835 0.9999555349349976
vt 0.855854332447052 0.2363804578781128
vt 0.9966820478439331 0.005441009998321533
vt 0.9966820478439331 0.2363804578781128
vt 0.855854332447052 0.005441009998321533

g bg_mdl_map_kareha00
s 1
usemtl bg_mdl_map_kareha00
f 3/3/3 2/2/2 1/1/1 
f 4/4/4 1/1/1 2/2/2 

