v 2.832749843597412 4.907351016998291 1.181166410446167
v 1.1433106660842896 4.083749294281006 1.181166410446167
v 1.1433101892471313 4.907351016998291 1.181166410446167
v 2.832749843597412 4.083749294281006 1.181166410446167
v 1.1433101892471313 4.907351016998291 1.140334129333496
v 1.1433106660842896 4.066110610961914 1.1716725826263428
v 1.1433106660842896 4.062631130218506 1.1403340101242065
v 1.1433101892471313 4.907351016998291 1.181166410446167
v 1.1433106660842896 4.083749294281006 1.181166410446167
v 1.1433101892471313 4.907351016998291 1.140334129333496
v 1.1433106660842896 4.083749294281006 1.181166410446167
v 1.1433106660842896 4.066110610961914 1.1716725826263428
v 1.1433106660842896 4.062631130218506 1.1403340101242065
v 2.832749843597412 4.066110610961914 1.1716725826263428
v 2.832749843597412 4.062631130218506 1.1403340101242065
v 1.1433106660842896 4.066110610961914 1.1716725826263428
v 2.832749843597412 4.062631130218506 1.1403340101242065
v 2.832749843597412 4.907351016998291 1.181166410446167
v 2.832749843597412 4.907351016998291 1.140334129333496
v 2.832749843597412 4.083749294281006 1.181166410446167
v 2.832749843597412 4.062631130218506 1.1403340101242065
v 2.832749843597412 4.066110610961914 1.1716725826263428
v 2.832749843597412 4.083749294281006 1.181166410446167
v 2.7899346351623535 4.771791458129883 0.6554280519485474
v 2.78993558883667 4.198190689086914 1.051608920097351
v 2.7899348735809326 4.771791934967041 1.051608920097351
v 2.7899346351623535 4.198190689086914 0.6554277539253235
v 1.1940850019454956 4.771791458129883 0.6554282307624817
v 1.1940850019454956 4.198190689086914 1.0516090393066406
v 1.1940850019454956 4.198190689086914 0.6554278135299683
v 1.194084882736206 4.771791458129883 1.051608920097351
v 1.1672859191894531 4.8953633308410645 1.0512136220932007
v 1.1514052152633667 4.066678524017334 1.1390589475631714
v 1.1672866344451904 4.074619293212891 1.0512135028839111
v 1.1514045000076294 4.903303623199463 1.139059066772461
v 1.1672866344451904 4.074619293212891 1.0512135028839111
v 2.824655294418335 4.066678524017334 1.1390589475631714
v 2.80877423286438 4.074619293212891 1.0512135028839111
v 1.1514052152633667 4.066678524017334 1.1390589475631714
v 2.80877423286438 4.074619293212891 1.0512135028839111
v 2.824655294418335 4.903303623199463 1.139059066772461
v 2.8087737560272217 4.8953633308410645 1.0512136220932007
v 2.824655294418335 4.066678524017334 1.1390589475631714
v 1.1433100700378418 4.907351016998291 0.6459819674491882
v 2.832749843597412 4.062631130218506 0.6459817886352539
v 1.1433106660842896 4.062631130218506 0.6459817886352539
v 2.832749843597412 4.907350540161133 0.6459819674491882
v 1.1433100700378418 4.907351016998291 0.6051497459411621
v 1.1433106660842896 4.062631130218506 0.6459817886352539
v 1.1433106660842896 4.062631130218506 0.6051497459411621
v 1.1433100700378418 4.907351016998291 0.6459819674491882
v 1.1433106660842896 4.062631130218506 0.6051497459411621
v 2.832749843597412 4.062631130218506 0.6459817886352539
v 2.832749843597412 4.062631130218506 0.6051497459411621
v 1.1433106660842896 4.062631130218506 0.6459817886352539
v 2.832749843597412 4.062631130218506 0.6051497459411621
v 2.832749843597412 4.907350540161133 0.6459819674491882
v 2.832749843597412 4.907350540161133 0.6051497459411621
v 2.832749843597412 4.062631130218506 0.6459817886352539
v 2.6806912422180176 4.1202616691589355 1.0978782176971436
v 2.6806912422180176 4.228084564208984 0.6441296339035034
v 2.6806912422180176 4.228084564208984 1.097878336906433
v 2.6806912422180176 4.1202616691589355 0.6441293954849243
v 2.6806912422180176 4.750617027282715 1.097878336906433
v 2.6806912422180176 4.858438968658447 0.6441298723220825
v 2.6806907653808594 4.8584394454956055 1.097878336906433
v 2.6806912422180176 4.750616550445557 0.6441298723220825
v 1.2922344207763672 4.228084564208984 0.6441298723220825
v 1.1764286756515503 4.228084564208984 1.097878336906433
v 1.1764286756515503 4.228084564208984 0.6441298723220825
v 1.2922344207763672 4.228084564208984 1.097878336906433
v 1.2922344207763672 4.228084564208984 0.6441298723220825
v 1.2922346591949463 4.1202616691589355 1.0978782176971436
v 1.2922344207763672 4.228084564208984 1.097878336906433
v 1.2922344207763672 4.1202616691589355 0.6441298723220825
v 1.2922344207763672 4.858438968658447 0.6441298723220825
v 1.2922346591949463 4.750616550445557 1.097878336906433
v 1.2922344207763672 4.858438968658447 1.097878336906433
v 1.2922344207763672 4.750616550445557 0.6441298723220825
v 2.796497344970703 4.1202616691589355 0.6441293954849243
v 2.796497344970703 4.228084564208984 1.097878336906433
v 2.796497344970703 4.228084564208984 0.6441296339035034
v 2.796497344970703 4.1202616691589355 1.0978782176971436
v 2.6806912422180176 4.1202616691589355 0.6441293954849243
v 2.796497344970703 4.1202616691589355 1.0978782176971436
v 2.796497344970703 4.1202616691589355 0.6441293954849243
v 2.6806912422180176 4.1202616691589355 1.0978782176971436
v 2.796497344970703 4.228084564208984 1.097878336906433
v 2.6806912422180176 4.228084564208984 0.6441296339035034
v 2.796497344970703 4.228084564208984 0.6441296339035034
v 2.6806912422180176 4.228084564208984 1.097878336906433
v 2.796496868133545 4.750616550445557 0.6441298723220825
v 2.796496868133545 4.858438968658447 1.097878336906433
v 2.796496868133545 4.858438968658447 0.6441298723220825
v 2.796496868133545 4.750617027282715 1.097878336906433
v 2.6806912422180176 4.750616550445557 0.6441298723220825
v 2.796496868133545 4.750617027282715 1.097878336906433
v 2.796496868133545 4.750616550445557 0.6441298723220825
v 2.6806912422180176 4.750617027282715 1.097878336906433
v 1.1764286756515503 4.228084564208984 0.6441298723220825
v 1.1764286756515503 4.1202616691589355 1.0978782176971436
v 1.1764286756515503 4.1202616691589355 0.6441298723220825
v 1.1764286756515503 4.228084564208984 1.097878336906433
v 1.1764286756515503 4.1202616691589355 1.0978782176971436
v 1.2922344207763672 4.1202616691589355 0.6441298723220825
v 1.1764286756515503 4.1202616691589355 0.6441298723220825
v 1.2922346591949463 4.1202616691589355 1.0978782176971436
v 1.1764286756515503 4.858438968658447 0.6441298723220825
v 1.1764286756515503 4.750616550445557 1.097878336906433
v 1.1764286756515503 4.750617027282715 0.6441298723220825
v 1.1764286756515503 4.858438968658447 1.097878336906433
v 1.1764286756515503 4.750616550445557 1.097878336906433
v 1.2922344207763672 4.750616550445557 0.6441298723220825
v 1.1764286756515503 4.750617027282715 0.6441298723220825
v 1.2922346591949463 4.750616550445557 1.097878336906433
v 2.6806912422180176 4.1202616691589355 0.6089750528335571
v 2.695023536682129 4.214739799499512 0.5034981966018677
v 2.6806912422180176 4.228084564208984 0.6089751124382019
v 2.695023536682129 4.133606433868408 0.5034981966018677
v 2.6806912422180176 4.750617027282715 0.6089751124382019
v 2.6923294067382812 4.8476033210754395 0.5034981966018677
v 2.6806907653808594 4.8584394454956055 0.6089751124382019
v 2.6923294067382812 4.761452674865723 0.5034981966018677
v 1.2769709825515747 4.213873386383057 0.5034981966018677
v 1.1764286756515503 4.228084564208984 0.6089751124382019
v 1.191692590713501 4.213873386383057 0.5034981966018677
v 1.1764286756515503 4.228084564208984 0.6089751124382019
v 1.2769709825515747 4.213873386383057 0.5034981966018677
v 1.2922344207763672 4.228084564208984 0.6089751124382019
v 1.2769709825515747 4.213873386383057 0.5034981966018677
v 1.2922346591949463 4.1202616691589355 0.6089751124382019
v 1.2922344207763672 4.228084564208984 0.6089751124382019
v 1.2769711017608643 4.1344733238220215 0.5034981966018677
v 1.2805964946746826 4.8476033210754395 0.5034984946250916
v 1.2922346591949463 4.750616550445557 0.6089751124382019
v 1.2922346591949463 4.858438968658447 0.6089751124382019
v 1.2805964946746826 4.761451721191406 0.5034984946250916
v 2.7821645736694336 4.133606433868408 0.5034981966018677
v 2.796497344970703 4.228084564208984 0.6089751124382019
v 2.7821643352508545 4.214739799499512 0.5034981966018677
v 2.796497344970703 4.1202616691589355 0.6089750528335571
v 2.695023536682129 4.133606433868408 0.5034981966018677
v 2.796497344970703 4.1202616691589355 0.6089750528335571
v 2.7821645736694336 4.133606433868408 0.5034981966018677
v 2.6806912422180176 4.1202616691589355 0.6089750528335571
v 2.796497344970703 4.228084564208984 0.6089751124382019
v 2.695023536682129 4.214739799499512 0.5034981966018677
v 2.7821643352508545 4.214739799499512 0.5034981966018677
v 2.6806912422180176 4.228084564208984 0.6089751124382019
v 2.7848591804504395 4.761452674865723 0.5034981966018677
v 2.796496868133545 4.858438968658447 0.6089751124382019
v 2.7848591804504395 4.8476033210754395 0.5034981966018677
v 2.796497344970703 4.750617027282715 0.6089751124382019
v 2.6923294067382812 4.761452674865723 0.5034981966018677
v 2.796497344970703 4.750617027282715 0.6089751124382019
v 2.7848591804504395 4.761452674865723 0.5034981966018677
v 2.6806912422180176 4.750617027282715 0.6089751124382019
v 1.191692590713501 4.213873386383057 0.5034981966018677
v 1.1764286756515503 4.120262145996094 0.6089751124382019
v 1.191692590713501 4.1344733238220215 0.5034981966018677
v 1.1764286756515503 4.228084564208984 0.6089751124382019
v 1.1764286756515503 4.120262145996094 0.6089751124382019
v 1.2769711017608643 4.1344733238220215 0.5034981966018677
v 1.191692590713501 4.1344733238220215 0.5034981966018677
v 1.2922346591949463 4.1202616691589355 0.6089751124382019
v 1.1880664825439453 4.8476033210754395 0.5034984946250916
v 1.1764286756515503 4.750616550445557 0.6089751124382019
v 1.188066840171814 4.761451721191406 0.5034984946250916
v 1.1764283180236816 4.858438968658447 0.6089751124382019
v 1.1764286756515503 4.750616550445557 0.6089751124382019
v 1.2805964946746826 4.761451721191406 0.5034984946250916
v 1.188066840171814 4.761451721191406 0.5034984946250916
v 1.2922346591949463 4.750616550445557 0.6089751124382019
v 1.922058343887329 4.1202616691589355 1.0978782176971436
v 1.922058343887329 4.228084564208984 0.6441296339035034
v 1.922058343887329 4.228084564208984 1.097878336906433
v 1.922058343887329 4.120262145996094 0.6441293954849243
v 2.0378646850585938 4.120262145996094 0.6441293954849243
v 2.0378646850585938 4.228084564208984 1.097878336906433
v 2.0378646850585938 4.228084564208984 0.6441296339035034
v 2.0378646850585938 4.120262145996094 1.0978782176971436
v 1.922058343887329 4.120262145996094 0.6441293954849243
v 2.0378646850585938 4.120262145996094 1.0978782176971436
v 2.0378646850585938 4.120262145996094 0.6441293954849243
v 1.922058343887329 4.1202616691589355 1.0978782176971436
v 1.922058343887329 4.1202616691589355 0.6089748740196228
v 1.936390995979309 4.214739799499512 0.5034981966018677
v 1.922058343887329 4.228084564208984 0.6089750528335571
v 1.936390995979309 4.133606433868408 0.5034981966018677
v 2.0235321521759033 4.133606433868408 0.5034981966018677
v 2.0378646850585938 4.228084564208984 0.6089750528335571
v 2.0235321521759033 4.214739799499512 0.5034981966018677
v 2.0378646850585938 4.1202616691589355 0.6089748740196228
v 1.936390995979309 4.133606433868408 0.5034981966018677
v 2.0378646850585938 4.1202616691589355 0.6089748740196228
v 2.0235321521759033 4.133606433868408 0.5034981966018677
v 1.922058343887329 4.1202616691589355 0.6089748740196228
v 2.832749843597412 4.083749294281006 1.181166410446167
v 1.1433106660842896 4.066110610961914 1.1716725826263428
v 1.1433106660842896 4.083749294281006 1.181166410446167
v 2.832749843597412 4.066110610961914 1.1716725826263428
v 1.9321459531784058 4.176855564117432 0.6453730463981628
v 1.2960407733917236 4.176855564117432 1.051608920097351
v 1.9321459531784058 4.176855564117432 1.051608920097351
v 1.2960407733917236 4.176855564117432 0.6453730463981628
v 2.6812667846679688 4.176855564117432 0.6453730463981628
v 2.0301811695098877 4.176855564117432 1.051608920097351
v 2.6812663078308105 4.176855564117432 1.051608920097351
v 2.0301811695098877 4.176855564117432 0.6453730463981628
v 5.0 3.1399998664855957 0.4999997615814209
v 5.5 5.0 0.4999997615814209
v 5.5 3.1399998664855957 0.4999997615814209
v 5.0 5.0 0.4999997615814209
v 1.0 1.0 0.5000000596046448
v 1.8600000143051147 3.0 0.49999991059303284
v 1.8600000143051147 1.0 0.5000000596046448
v 1.0 3.0 0.49999991059303284
v 1.0 3.0 0.49999991059303284
v 1.86227285861969 3.1399998664855957 0.49999985098838806
v 1.8600000143051147 3.0 0.49999991059303284
v 1.0 3.1399998664855957 0.49999991059303284
v 3.0 5.0 0.4999997615814209
v 3.0 3.1399998664855957 0.4999997615814209
v 1.0 5.0 0.4999997615814209
v 3.0 3.1399998664855957 0.4999997615814209
v 5.0 5.0 0.4999997615814209
v 5.0 3.1399998664855957 0.4999997615814209
v 3.0 5.0 0.4999997615814209
v 1.0 1.0 0.5000000596046448
v 1.8600000143051147 0.14000000059604645 0.5000000596046448
v 1.0 0.14000000059604645 0.5000000596046448
v 1.8600000143051147 1.0 0.5000000596046448
v -1.0 3.169999837875366 1.5
v 0.8299999833106995 5.0 1.5
v 0.8299999833106995 3.169999837875366 1.5
v -1.0 5.0 1.5
v -1.0 5.0 1.5
v -2.8299999237060547 3.169999837875366 1.5
v -2.8299999237060547 5.0 1.5
v -1.0 3.169999837875366 1.5
v -1.0 3.0 1.0
v 0.85999995470047 1.0 1.0
v -1.0 1.0 1.0
v 0.85999995470047 3.0 1.0
v -1.0 1.0 1.0
v -2.859999895095825 3.0 1.0
v -1.0 3.0 1.0
v -2.859999895095825 1.0 1.0
v -1.0 1.0 1.0
v -0.14000000059604645 0.0 1.0
v -1.0 0.0 1.0
v -0.14000000059604645 0.14000000059604645 1.0
v -0.0 0.14000000059604645 1.0
v 0.85999995470047 0.14000000059604645 1.0
v 0.85999995470047 1.0 1.0
v -0.14000000059604645 0.0 1.0
v -1.0 -1.8600000143051147 0.9999998807907104
v -1.0 0.0 1.0
v -0.14000000059604645 -1.8600000143051147 0.9999998807907104
v -1.0 0.0 1.0
v -1.8600000143051147 -1.8600000143051147 0.9999998807907104
v -1.8600000143051147 0.0 1.0
v -1.0 -1.8600000143051147 0.9999998807907104
v -1.8600000143051147 0.14000000059604645 1.0
v -1.0 0.0 1.0
v -1.8600000143051147 0.0 1.0
v -1.0 1.0 1.0
v -2.0 0.14000000059604645 1.0
v -2.859999895095825 1.0 1.0
v -2.859999895095825 0.14000000059604645 1.0
v -1.8299999237060547 -2.0 0.5000000596046448
v -0.1555500030517578 -3.8299999237060547 0.5000000596046448
v -1.8299999237060547 -3.8299999237060547 0.5000000596046448
v -0.1555500030517578 -2.0 0.5000000596046448
v -3.0 5.0 1.0
v -4.869999885559082 3.129999876022339 1.0
v -4.869999885559082 5.0 1.0
v -3.0 3.129999876022339 1.0
v -7.0 3.169999837875366 0.4999997615814209
v -5.0 5.0 0.4999997615814209
v -5.0 3.169999837875366 0.4999997615814209
v -7.0 5.0 0.4999997615814209
v -7.0 5.0 0.4999997615814209
v -7.789451599121094 3.169999837875366 0.4999997615814209
v -7.789451599121094 5.0 0.4999997615814209
v -7.0 3.169999837875366 0.4999997615814209
v -7.0 -5.0 0.0
v -5.0 -3.0 0.0
v -5.0 -5.0 0.0
v -7.0 -3.0 0.0
v -5.0 -5.0 0.0
v -3.0 -3.0 0.0
v -3.0 -5.0 0.0
v -5.0 -3.0 0.0
v -3.0 -5.0 0.0
v -1.0 -4.0 0.0
v -1.0 -5.0 0.0
v -2.0 -4.0 0.0
v -3.0 -3.0 0.0
v -2.0 -3.0 0.0
v 1.0 -5.0 0.0
v 3.0 -3.0 0.0
v 3.0 -5.0 0.0
v 1.0 -3.0 0.0
v 3.0 -5.0 0.0
v 5.0 -3.0 0.0
v 5.0 -5.0 0.0
v 3.0 -3.0 0.0
v 5.0 -5.0 0.0
v 5.5 -3.0 0.0
v 5.5 -5.0 0.0
v 5.0 -3.0 0.0
v -7.0 -3.0 0.0
v -5.0 -1.0 0.0
v -5.0 -3.0 0.0
v -7.0 -1.0 0.0
v -5.0 -3.0 0.0
v -3.0 -1.0 0.0
v -3.0 -3.0 0.0
v -5.0 -1.0 0.0
v -3.0 -3.0 0.0
v -2.0 -2.0 0.0
v -2.0 -3.0 0.0
v -3.0 -1.0 0.0
v -2.0 -1.0 0.0
v 1.0 -3.0 0.0
v 3.0 -1.0 0.0
v 3.0 -3.0 0.0
v 1.0 -1.0 0.0
v 3.0 -3.0 0.0
v 5.0 -1.0 0.0
v 5.0 -3.0 0.0
v 3.0 -1.0 0.0
v 5.0 -3.0 0.0
v 5.5 -1.0 0.0
v 5.5 -3.0 0.0
v 5.0 -1.0 0.0
v -7.0 -1.0 0.0
v -5.0 1.0 0.0
v -5.0 -1.0 0.0
v -7.0 1.0 0.0
v -5.0 -1.0 0.0
v -3.0 0.0 0.0
v -3.0 -1.0 0.0
v -3.0 1.0 0.0
v -5.0 1.0 0.0
v 3.0 1.0 0.0
v 2.0 0.0 0.0
v 2.0 1.0 0.0
v 3.0 -1.0 0.0
v 1.0 -1.0 0.0
v 1.0 0.0 0.0
v 3.0 -1.0 0.0
v 5.0 1.0 0.0
v 5.0 -1.0 0.0
v 3.0 1.0 0.0
v 5.0 -1.0 0.0
v 5.5 1.0 0.0
v 5.5 -1.0 0.0
v 5.0 1.0 0.0
v -7.0 1.0 0.0
v -5.0 3.0 0.0
v -5.0 1.0 0.0
v -7.0 3.0 0.0
v -5.0 1.0 0.0
v -3.0 3.0 0.0
v -3.0 1.0 0.0
v -5.0 3.0 0.0
v 3.0 1.0 0.0
v 5.0 3.0 0.0
v 5.0 1.0 0.0
v 3.0 3.0 0.0
v 5.0 1.0 0.0
v 5.5 3.0 0.0
v 5.5 1.0 0.0
v 5.0 3.0 0.0
v -3.0 -1.0 0.0
v -2.0 0.0 0.0
v -2.0 -1.0 0.0
v -3.0 0.0 0.0
v -0.0 -4.0 0.0
v -1.0 -5.0 0.0
v -1.0 -4.0 0.0
v 1.0 -3.0 0.0
v 1.0 -5.0 0.0
v -0.0 -3.0 0.0
v -0.0 -4.0 0.0
v 1.0 -3.0 0.0
v -1.0 -5.0 0.0
v -0.0 -2.0 0.0
v 1.0 -3.0 0.0
v -0.0 -3.0 0.0
v 1.0 -1.0 0.0
v -0.0 -1.0 0.0
v 1.0 -1.0 0.0
v -0.0 0.0 0.0
v 1.0 0.0 0.0
v -0.0 -1.0 0.0
v 3.0 1.0 0.0
v 2.0 3.0 0.0
v 3.0 3.0 0.0
v 2.0 1.0 0.0
v 3.7336366176605225 1.0132782459259033 0.012128906324505806
v 2.618356943130493 -0.38696905970573425 0.012128906324505806
v 2.618356943130493 1.0132782459259033 0.012128906324505806
v 3.7336366176605225 -0.38696905970573425 0.012128906324505806
v 4.848917484283447 1.0132782459259033 0.012128906324505806
v 3.7336366176605225 -0.38696905970573425 0.012128906324505806
v 3.7336366176605225 1.0132782459259033 0.012128906324505806
v 4.848917484283447 -0.38696905970573425 0.012128906324505806
v 3.7336366176605225 2.413525104522705 0.012128906324505806
v 2.618356943130493 1.0132782459259033 0.012128906324505806
v 2.618356943130493 2.413525104522705 0.012128906324505806
v 3.7336366176605225 1.0132782459259033 0.012128906324505806
v 4.848917484283447 2.413525104522705 0.012128906324505806
v 3.7336366176605225 1.0132782459259033 0.012128906324505806
v 3.7336366176605225 2.413525104522705 0.012128906324505806
v 4.848917484283447 1.0132782459259033 0.012128906324505806
v -5.522308349609375 -1.0031564235687256 0.012128906324505806
v -6.637587547302246 -2.4034035205841064 0.012128906324505806
v -6.637587547302246 -1.0031564235687256 0.012128906324505806
v -5.522308349609375 -2.4034035205841064 0.012128906324505806
v -4.407027244567871 -1.0031564235687256 0.012128906324505806
v -5.522308349609375 -2.4034035205841064 0.012128906324505806
v -5.522308349609375 -1.0031564235687256 0.012128906324505806
v -4.407027244567871 -2.4034035205841064 0.012128906324505806
v -5.522308349609375 0.39709043502807617 0.012128906324505806
v -6.637587547302246 -1.0031564235687256 0.012128906324505806
v -6.637587547302246 0.39709043502807617 0.012128906324505806
v -5.522308349609375 -1.0031564235687256 0.012128906324505806
v -4.407027244567871 0.39709043502807617 0.012128906324505806
v -5.522308349609375 -1.0031564235687256 0.012128906324505806
v -5.522308349609375 0.39709043502807617 0.012128906324505806
v -4.407027244567871 -1.0031564235687256 0.012128906324505806
v -7.0 -5.0 0.0
v -7.789451599121094 -3.0 0.0
v -7.0 -3.0 0.0
v -7.789451599121094 -4.999999523162842 0.0
v -7.0 -3.0 0.0
v -7.789451599121094 -1.0 0.0
v -7.0 -1.0 0.0
v -7.789451599121094 -3.0 0.0
v -7.0 -1.0 0.0
v -7.789451599121094 1.0 0.0
v -7.0 1.0 0.0
v -7.789451599121094 -1.0 0.0
v -7.0 1.0 0.0
v -7.789451599121094 3.0 0.0
v -7.0 3.0 0.0
v -7.789451599121094 1.0 0.0
v -5.0 -5.0 0.0
v -7.0 -6.0 0.0
v -7.0 -5.0 0.0
v -5.0 -6.0 0.0
v -3.0 -5.0 0.0
v -5.0 -6.0 0.0
v -5.0 -5.0 0.0
v -3.0 -6.0 0.0
v -1.0 -5.0 0.0
v -3.0 -6.0 0.0
v -3.0 -5.0 0.0
v -1.0 -6.0 0.0
v 1.0 -5.0 0.0
v -1.0 -6.0 0.0
v -1.0 -5.0 0.0
v 1.0 -6.0 0.0
v 3.0 -5.0 0.0
v 1.0 -6.0 0.0
v 1.0 -5.0 0.0
v 3.0 -6.0 0.0
v 5.0 -5.0 0.0
v 3.0 -6.0 0.0
v 3.0 -5.0 0.0
v 5.0 -6.0 0.0
v 5.5 -5.0 0.0
v 5.0 -6.0 0.0
v 5.0 -5.0 0.0
v 5.5 -6.0 0.0
v -7.0 -5.0 0.0
v -7.789451599121094 -5.999999046325684 0.0
v -7.789451599121094 -4.999999523162842 0.0
v -7.0 -6.0 0.0
v -1.0 1.545791745185852 1.01956045627594
v -2.224205732345581 0.3215859830379486 1.01956045627594
v -2.224205732345581 1.545791745185852 1.01956045627594
v -1.0 0.3215859830379486 1.01956045627594
v 0.22420577704906464 1.545791745185852 1.01956045627594
v -1.0 0.3215859830379486 1.01956045627594
v -1.0 1.545791745185852 1.01956045627594
v 0.22420577704906464 0.3215859830379486 1.01956045627594
v -1.0 2.7699975967407227 1.01956045627594
v -2.224205732345581 1.545791745185852 1.01956045627594
v -2.224205732345581 2.7699975967407227 1.01956045627594
v -1.0 1.545791745185852 1.01956045627594
v 0.22420577704906464 2.7699975967407227 1.01956045627594
v -1.0 1.545791745185852 1.01956045627594
v -1.0 2.7699975967407227 1.01956045627594
v 0.22420577704906464 1.545791745185852 1.01956045627594
v 5.5 3.0 0.0
v 5.0 3.0 0.4999997615814209
v 5.5 3.0 0.4999997615814209
v 5.0 3.0 0.0
v 3.0 3.0 0.0
v 5.0 3.0 0.4999997615814209
v 5.0 3.0 0.0
v 3.0 3.0 0.4999997615814209
v 3.0 3.0 0.0
v 2.0 3.0 0.49999991059303284
v 3.0 3.0 0.4999997615814209
v 2.0 3.0 0.0
v 1.8600000143051147 1.0 0.5000000596046448
v 2.0 0.0 0.5000000596046448
v 1.8600000143051147 0.14000000059604645 0.5000000596046448
v 2.0 1.0 0.5000000596046448
v 1.0 0.0 0.0
v 2.0 0.0 0.5000000596046448
v 2.0 0.0 0.0
v 1.0 0.0 0.5000000596046448
v 2.0 0.0 0.0
v 2.0 1.0 0.5000000596046448
v 2.0 1.0 0.0
v 2.0 0.0 0.5000000596046448
v 2.0 1.0 0.0
v 2.0 3.0 0.49999991059303284
v 2.0 3.0 0.0
v 2.0 1.0 0.5000000596046448
v 5.0 3.0 0.4999997615814209
v 5.5 3.1399998664855957 0.4999997615814209
v 5.5 3.0 0.4999997615814209
v 5.0 3.1399998664855957 0.4999997615814209
v 3.0 3.0 0.4999997615814209
v 5.0 3.1399998664855957 0.4999997615814209
v 5.0 3.0 0.4999997615814209
v 3.0 3.1399998664855957 0.4999997615814209
v 2.0 1.0 0.5000000596046448
v 1.8600000143051147 3.0 0.49999991059303284
v 2.0 3.0 0.49999991059303284
v 1.8600000143051147 1.0 0.5000000596046448
v 1.0 0.0 0.5000000596046448
v 2.0 0.0 0.5000000596046448
v 2.0 3.0 0.49999991059303284
v 3.0 3.1399998664855957 0.4999997615814209
v 3.0 3.0 0.4999997615814209
v 1.86227285861969 3.1399998664855957 0.49999985098838806
v 1.86227285861969 3.1399998664855957 0.49999985098838806
v 2.0 3.0 0.49999991059303284
v 1.8600000143051147 3.0 0.49999991059303284
v -3.0 3.0 1.5
v -2.8299999237060547 5.0 1.5
v -2.8299999237060547 3.169999837875366 1.5
v -3.0 5.0 1.5
v 1.0 3.0 0.4999997615814209
v 1.0 5.0 1.0
v 1.0 5.0 0.4999997615814209
v 1.0 3.0 1.0
v 1.0 5.0 1.5
v 1.0 3.169999837875366 1.5
v 1.0 3.0 1.5
v -3.0 5.0 1.0
v -3.0 3.0 1.5
v -3.0 3.0 1.0
v -3.0 5.0 1.5
v -3.0 3.0 1.0
v -1.0 3.0 1.5
v -1.0 3.0 1.0
v -3.0 3.0 1.5
v -1.0 3.0 1.0
v 1.0 3.0 1.5
v 1.0 3.0 1.0
v -1.0 3.0 1.5
v 1.0 3.0 1.5
v 0.8299999833106995 3.169999837875366 1.5
v 1.0 3.169999837875366 1.5
v 0.8299999833106995 5.0 1.5
v 1.0 5.0 1.5
v 0.8299999833106995 3.169999837875366 1.5
v -1.0 3.0 1.5
v -1.0 3.169999837875366 1.5
v 1.0 3.0 1.5
v -1.0 3.0 1.5
v -2.8299999237060547 3.169999837875366 1.5
v -1.0 3.169999837875366 1.5
v -3.0 3.0 1.5
v -0.0 -2.0 0.9999998807907104
v -1.0 -1.8600000143051147 0.9999998807907104
v -0.14000000059604645 -1.8600000143051147 0.9999998807907104
v -1.0 -2.0 0.9999998807907104
v -2.0 0.0 1.0
v -1.8600000143051147 0.14000000059604645 1.0
v -1.8600000143051147 0.0 1.0
v 0.85999995470047 0.14000000059604645 1.0
v -0.0 0.0 1.0
v -0.0 0.14000000059604645 1.0
v 1.0 0.0 1.0
v -0.14000000059604645 0.14000000059604645 1.0
v -3.0 1.0 1.0
v -2.859999895095825 3.0 1.0
v -2.859999895095825 1.0 1.0
v -3.0 3.0 1.0
v -3.0 3.0 0.0
v -3.0 1.0 1.0
v -3.0 1.0 0.0
v -3.0 3.0 1.0
v -3.0 1.0 0.0
v -3.0 0.0 1.0
v -3.0 0.0 0.0
v -3.0 1.0 1.0
v -2.0 0.0 0.0
v -3.0 0.0 1.0
v -2.0 0.0 1.0
v -3.0 0.0 0.0
v 1.0 0.0 0.0
v 1.0 1.0 1.0
v 1.0 1.0 0.0
v 1.0 0.0 1.0
v 1.0 1.0 0.0
v 1.0 3.0 1.0
v 1.0 3.0 0.0
v 1.0 1.0 1.0
v -2.0 -2.0 0.9999998807907104
v -1.8600000143051147 0.0 1.0
v -1.8600000143051147 -1.8600000143051147 0.9999998807907104
v -2.0 0.0 1.0
v 1.0 0.0 0.0
v -0.0 0.0 1.0
v 1.0 0.0 1.0
v -0.0 0.0 0.0
v -2.0 0.0 0.0
v -2.0 -2.0 0.9999998807907104
v -2.0 -2.0 0.0
v -2.0 0.0 1.0
v -2.0 -2.0 0.0
v -1.0 -2.0 0.9999998807907104
v -1.0 -2.0 0.0
v -2.0 -2.0 0.9999998807907104
v -0.0 -2.0 0.9999998807907104
v -0.0 -2.0 0.0
v -0.0 0.0 0.0
v -0.0 -1.8600000143051147 0.9999998807907104
v -0.0 0.0 1.0
v -0.0 -2.0 0.9999998807907104
v -0.0 -2.0 0.0
v -3.0 1.0 1.0
v -2.859999895095825 0.14000000059604645 1.0
v -3.0 0.0 1.0
v -2.859999895095825 1.0 1.0
v 1.0 1.0 1.0
v 0.85999995470047 3.0 1.0
v 1.0 3.0 1.0
v 0.85999995470047 1.0 1.0
v -0.0 0.0 1.0
v -0.14000000059604645 -1.8600000143051147 0.9999998807907104
v -0.14000000059604645 0.0 1.0
v -0.0 -1.8600000143051147 0.9999998807907104
v -0.0 -2.0 0.9999998807907104
v -2.859999895095825 0.14000000059604645 1.0
v -2.0 0.0 1.0
v -3.0 0.0 1.0
v -2.0 0.14000000059604645 1.0
v -1.8600000143051147 0.14000000059604645 1.0
v -0.14000000059604645 0.14000000059604645 1.0
v -0.0 0.0 1.0
v -0.14000000059604645 0.0 1.0
v 1.0 1.0 1.0
v 0.85999995470047 0.14000000059604645 1.0
v 0.85999995470047 1.0 1.0
v 1.0 0.0 1.0
v -1.0 -2.0 0.9999998807907104
v -1.8600000143051147 -1.8600000143051147 0.9999998807907104
v -1.0 -1.8600000143051147 0.9999998807907104
v -2.0 -2.0 0.9999998807907104
v -1.8299999237060547 -3.8299999237060547 0.5000000596046448
v -2.0 -2.0 0.5000000596046448
v -1.8299999237060547 -2.0 0.5000000596046448
v -2.0 -4.0 0.5000000596046448
v -0.0 -4.0 0.0
v -0.0 -2.0 0.5000000596046448
v -0.0 -2.0 0.0
v -0.0 -4.0 0.5000000596046448
v -2.0 -2.0 0.0
v -2.0 -4.0 0.5000000596046448
v -2.0 -4.0 0.0
v -2.0 -2.0 0.5000000596046448
v -2.0 -4.0 0.0
v -0.0 -4.0 0.5000000596046448
v -0.0 -4.0 0.0
v -2.0 -4.0 0.5000000596046448
v -0.0 -2.0 0.5000000596046448
v -0.1555500030517578 -3.8299999237060547 0.5000000596046448
v -0.1555500030517578 -2.0 0.5000000596046448
v -0.0 -4.0 0.5000000596046448
v -0.0 -4.0 0.5000000596046448
v -1.8299999237060547 -3.8299999237060547 0.5000000596046448
v -0.1555500030517578 -3.8299999237060547 0.5000000596046448
v -2.0 -4.0 0.5000000596046448
v -5.0 3.0 1.0
v -4.869999885559082 5.0 1.0
v -4.869999885559082 3.129999876022339 1.0
v -5.0 5.0 1.0
v -5.0 5.0 0.4999997615814209
v -5.0 3.0 1.0
v -5.0 3.0 0.4999997615814209
v -5.0 5.0 1.0
v -5.0 3.0 0.0
v -3.0 3.0 1.0
v -3.0 3.0 0.0
v -5.0 3.0 0.4999997615814209
v -5.0 3.0 1.0
v -3.0 3.0 1.0
v -4.869999885559082 3.129999876022339 1.0
v -3.0 3.129999876022339 1.0
v -5.0 3.0 1.0
v -5.0 3.0 0.0
v -7.0 3.0 0.4999997615814209
v -5.0 3.0 0.4999997615814209
v -7.0 3.0 0.0
v -7.0 3.169999837875366 0.4999997615814209
v -7.789451599121094 3.0 0.4999997615814209
v -7.789451599121094 3.169999837875366 0.4999997615814209
v -7.0 3.0 0.4999997615814209
v -7.0 3.0 0.0
v -7.789451599121094 3.0 0.4999997615814209
v -7.0 3.0 0.4999997615814209
v -7.789451599121094 3.0 0.0
v -7.0 3.0 0.4999997615814209
v -5.0 3.169999837875366 0.4999997615814209
v -5.0 3.0 0.4999997615814209
v -7.0 3.169999837875366 0.4999997615814209
vn -0.0 0.0 1.0
vn -0.0 0.0 1.0
vn -0.0 0.0 1.0
vn -0.0 0.0 1.0
vn -1.0 -5.419117883320723e-07 0.0
vn -1.0 -5.419117883320723e-07 0.0
vn -1.0 -5.419118451754912e-07 0.0
vn -1.0 -5.55807105229178e-07 0.0
vn -1.0 -5.55807105229178e-07 0.0
vn -1.0 -5.089286219117639e-07 9.4555690566267e-07
vn -1.0 -5.089286787551828e-07 9.455569625060889e-07
vn -1.0 -5.089286219117639e-07 9.4555690566267e-07
vn -0.0 -0.9938932657241821 0.11034548282623291
vn -0.0 -0.9938932657241821 0.11034546792507172
vn -0.0 -0.9938932657241821 0.11034548282623291
vn -0.0 -0.9938932657241821 0.11034548282623291
vn 1.0 0.0 0.0
vn 1.0 0.0 0.0
vn 1.0 0.0 0.0
vn 1.0 0.0 0.0
vn 1.0 0.0 0.0
vn 1.0 0.0 0.0
vn 1.0 0.0 0.0
vn 1.0 1.0640696928021498e-06 -7.702950597376912e-07
vn 1.0 1.0640696928021498e-06 -7.702950597376912e-07
vn 1.0 1.0640696928021498e-06 -7.702950597376912e-07
vn 1.0 0.0 -2.310880518052727e-06
vn -1.0 0.0 0.0
vn -1.0 0.0 0.0
vn -1.0 0.0 0.0
vn -1.0 -2.660178211044695e-07 -3.8514721723004186e-07
vn -0.9840477108955383 -8.816667786959442e-07 -0.17790520191192627
vn -0.9840477108955383 -8.816667218525254e-07 -0.17790520191192627
vn -0.9840477108955383 -8.816667218525254e-07 -0.17790517210960388
vn -0.9840478897094727 -7.016787435532024e-07 -0.17790351808071136
vn -0.0 -0.9959390163421631 -0.09003004431724548
vn -0.0 -0.9959390163421631 -0.09003004431724548
vn -0.0 -0.9959390163421631 -0.09003002941608429
vn -0.0 -0.9959390163421631 -0.09003003686666489
vn 0.9840473532676697 7.64868559599563e-07 -0.17790696024894714
vn 0.9840473532676697 7.648685027561442e-07 -0.17790694534778595
vn 0.9840473532676697 7.648685027561442e-07 -0.17790694534778595
vn 0.98404860496521 0.0 -0.17790010571479797
vn -0.0 -1.8063725804040587e-07 1.0
vn -0.0 -1.8063725804040587e-07 1.0
vn -0.0 -1.8063727225126058e-07 1.0
vn -0.0 -1.8063742857066245e-07 1.0
vn -1.0 -7.225490321616235e-07 0.0
vn -1.0 -7.225490890050423e-07 0.0
vn -1.0 -7.225490890050423e-07 0.0
vn -1.0 -7.225490890050423e-07 0.0
vn -0.0 -1.0 0.0
vn -0.0 -1.0 0.0
vn -0.0 -1.0 0.0
vn -0.0 -1.0 0.0
vn 1.0 0.0 0.0
vn 1.0 0.0 0.0
vn 1.0 0.0 0.0
vn 1.0 0.0 0.0
vn -1.0 0.0 0.0
vn -1.0 0.0 0.0
vn -1.0 0.0 0.0
vn -1.0 0.0 0.0
vn -1.0 -2.830351832017186e-06 -6.725620664838061e-07
vn -1.0 -2.830351832017186e-06 -6.725620664838061e-07
vn -1.0 -2.8303520593908615e-06 -6.725620664838061e-07
vn -1.0 0.0 0.0
vn -0.0 1.0 0.0
vn -0.0 1.0 0.0
vn -0.0 1.0 0.0
vn -0.0 1.0 0.0
vn 1.0 1.415171823282435e-06 0.0
vn 1.0 1.415171823282435e-06 0.0
vn 1.0 1.4151720506561105e-06 0.0
vn 1.0 0.0 -3.362830511832726e-07
vn 1.0 1.4151760296954308e-06 0.0
vn 1.0 1.415175916008593e-06 0.0
vn 1.0 1.415175916008593e-06 0.0
vn 1.0 0.0 -3.362829374964349e-07
vn 1.0 0.0 0.0
vn 1.0 0.0 0.0
vn 1.0 0.0 0.0
vn 1.0 0.0 0.0
vn -0.0 -1.0 0.0
vn -0.0 -1.0 0.0
vn -0.0 -1.0 0.0
vn -0.0 -1.0 0.0
vn -0.0 1.0 0.0
vn -0.0 1.0 0.0
vn -0.0 1.0 0.0
vn -0.0 1.0 0.0
vn 1.0 0.0 0.0
vn 1.0 0.0 0.0
vn 1.0 0.0 0.0
vn 1.0 0.0 0.0
vn -0.0 -1.0 1.3451318636725773e-06
vn -0.0 -1.0 1.3451318636725773e-06
vn -0.0 -1.0 1.3451318636725773e-06
vn -0.0 -1.0 1.3451318636725773e-06
vn -1.0 0.0 0.0
vn -1.0 0.0 0.0
vn -1.0 0.0 0.0
vn -1.0 0.0 0.0
vn -0.0 -1.0 0.0
vn -0.0 -1.0 0.0
vn -0.0 -1.0 0.0
vn -0.0 -1.0 0.0
vn -1.0 0.0 0.0
vn -1.0 0.0 0.0
vn -1.0 0.0 0.0
vn -1.0 0.0 0.0
vn -5.270473593554925e-06 -1.0 -1.3451317499857396e-06
vn -5.270474048302276e-06 -1.0 -1.3451317499857396e-06
vn -5.270473593554925e-06 -1.0 -1.3451316362989019e-06
vn -0.0 -1.0 0.0
vn -0.990894079208374 0.0 -0.13464336097240448
vn -0.990894079208374 0.0 -0.13464336097240448
vn -0.990894079208374 0.0 -0.13464337587356567
vn -0.990894079208374 0.0 -0.13464346528053284
vn -0.9939674139022827 -2.813276978486101e-06 -0.10967563092708588
vn -0.9939674139022827 -2.813277433233452e-06 -0.10967564582824707
vn -0.9939674139022827 -2.813276978486101e-06 -0.10967563092708588
vn -0.9939676523208618 0.0 -0.10967308282852173
vn -0.0 0.9910449981689453 -0.13352841138839722
vn -0.0 0.9910449981689453 -0.13352841138839722
vn -0.0 0.9910449981689453 -0.13352839648723602
vn -0.0 0.9910449981689453 -0.13352839648723602
vn -0.0 0.9910449981689453 -0.13352838158607483
vn -0.0 0.9910449981689453 -0.13352839648723602
vn 0.9896911978721619 1.4005829598318087e-06 -0.14321796596050262
vn 0.9896911978721619 1.4005829598318087e-06 -0.14321796596050262
vn 0.9896911978721619 1.4005829598318087e-06 -0.14321796596050262
vn 0.9896911978721619 1.9019572619072278e-06 -0.14321750402450562
vn 0.9939676523208618 0.0 -0.1096733808517456
vn 0.9939676523208618 0.0 -0.1096733808517456
vn 0.9939676523208618 0.0 -0.1096733883023262
vn 0.9939676523208618 0.0 -0.1096733808517456
vn 0.9908928871154785 3.7271506698743906e-06 -0.1346522718667984
vn 0.9908928871154785 3.7271506698743906e-06 -0.1346522718667984
vn 0.9908928871154785 3.727150442500715e-06 -0.134652242064476
vn 0.9908933639526367 0.0 -0.1346490979194641
vn -0.0 -0.9920914173126221 -0.12551748752593994
vn -0.0 -0.9920914173126221 -0.12551748752593994
vn -0.0 -0.9920914173126221 -0.12551748752593994
vn -0.0 -0.9920914173126221 -0.12551747262477875
vn -0.0 0.9920914173126221 -0.12551739811897278
vn -0.0 0.9920914173126221 -0.12551739811897278
vn -0.0 0.9920914173126221 -0.12551738321781158
vn -0.0 0.9920914173126221 -0.12551741302013397
vn 0.9939683675765991 0.0 -0.10966740548610687
vn 0.9939683675765991 0.0 -0.10966739803552628
vn 0.9939683675765991 0.0 -0.10966740548610687
vn 0.9939677715301514 5.626588063023519e-06 -0.10967253148555756
vn -0.0 -0.9947646856307983 -0.1021914929151535
vn -0.0 -0.9947646856307983 -0.1021915003657341
vn -0.0 -0.9947646856307983 -0.1021914929151535
vn -0.0 -0.9947646856307983 -0.1021914929151535
vn -0.9896906614303589 0.0 -0.14322201907634735
vn -0.9896906614303589 0.0 -0.14322200417518616
vn -0.9896906614303589 0.0 -0.14322201907634735
vn -0.9896906614303589 0.0 -0.14322198927402496
vn -0.0 -0.9910449981689453 -0.13352838158607483
vn -0.0 -0.9910449981689453 -0.13352839648723602
vn -0.0 -0.9910449981689453 -0.13352839648723602
vn -2.611633817650727e-06 -0.9910446405410767 -0.13353082537651062
vn -0.9939676523208618 -3.520949348967406e-06 -0.10967375338077545
vn -0.9939676523208618 -3.5209495763410814e-06 -0.10967375338077545
vn -0.9939676523208618 -3.5209495763410814e-06 -0.10967375338077545
vn -0.9939676523208618 -2.813277433233452e-06 -0.10967309772968292
vn -0.0 -0.9947646856307983 -0.10219179838895798
vn -0.0 -0.9947646856307983 -0.10219179093837738
vn -0.0 -0.9947646856307983 -0.10219179093837738
vn -0.0 -0.9947646856307983 -0.10219179093837738
vn -1.0 0.0 0.0
vn -1.0 0.0 0.0
vn -1.0 0.0 0.0
vn -1.0 0.0 0.0
vn 1.0 0.0 0.0
vn 1.0 0.0 0.0
vn 1.0 0.0 0.0
vn 1.0 0.0 0.0
vn -0.0 -1.0 0.0
vn -0.0 -1.0 0.0
vn -0.0 -1.0 0.0
vn 2.635226337588392e-06 -1.0 -6.725653634021e-07
vn -0.9908937215805054 1.905476665342576e-07 -0.13464634120464325
vn -0.9908937215805054 1.905476665342576e-07 -0.13464634120464325
vn -0.9908937215805054 1.9054765232340287e-07 -0.13464632630348206
vn -0.9908937215805054 0.0 -0.1346464902162552
vn 0.9908937215805054 0.0 -0.13464629650115967
vn 0.9908937215805054 0.0 -0.13464629650115967
vn 0.9908937215805054 0.0 -0.13464631140232086
vn 0.9908937215805054 1.9054785127536888e-07 -0.1346464455127716
vn -0.0 -0.9920914173126221 -0.12551765143871307
vn -0.0 -0.9920914173126221 -0.12551766633987427
vn -0.0 -0.9920914173126221 -0.12551766633987427
vn -0.0 -0.9920914173126221 -0.12551768124103546
vn -0.0 -0.47394290566444397 0.8805555701255798
vn -0.0 -0.47394290566444397 0.8805555701255798
vn -0.0 -0.47394290566444397 0.8805555701255798
vn -0.0 -0.47394290566444397 0.8805555701255798
vn -0.0 -1.0 0.0
vn -0.0 -1.0 0.0
vn -0.0 -1.0 0.0
vn -0.0 -1.0 0.0
vn -0.0 -1.0 0.0
vn -0.0 -1.0 0.0
vn -0.0 -1.0 0.0
vn -0.0 -1.0 0.0
vn -0.0 0.0 1.0
vn -0.0 0.0 1.0
vn -0.0 0.0 1.0
vn -0.0 0.0 1.0
vn -0.0 0.0 1.0
vn -0.0 3.106253529949754e-07 1.0
vn -0.0 0.0 1.0
vn -0.0 0.0 1.0
vn -0.0 0.0 1.0
vn -0.0 2.624296087105904e-07 1.0
vn -0.0 3.106253529949754e-07 1.0
vn -0.0 0.0 1.0
vn -0.0 0.0 1.0
vn -0.0 0.0 1.0
vn -0.0 0.0 1.0
vn -0.0 0.0 1.0
vn -0.0 0.0 1.0
vn -0.0 0.0 1.0
vn -0.0 0.0 1.0
vn -0.0 0.0 1.0
vn -0.0 0.0 1.0
vn -0.0 0.0 1.0
vn -0.0 0.0 1.0
vn -0.0 0.0 1.0
vn -0.0 0.0 1.0
vn -0.0 0.0 1.0
vn -0.0 0.0 1.0
vn -0.0 0.0 1.0
vn -0.0 0.0 1.0
vn -0.0 0.0 1.0
vn -0.0 0.0 1.0
vn -0.0 0.0 1.0
vn -0.0 0.0 1.0
vn -0.0 0.0 1.0
vn -0.0 0.0 1.0
vn -0.0 0.0 1.0
vn -0.0 0.0 1.0
vn -0.0 0.0 1.0
vn -0.0 0.0 1.0
vn -0.0 0.0 1.0
vn -0.0 0.0 1.0
vn -0.0 0.0 1.0
vn -0.0 0.0 1.0
vn -0.0 0.0 1.0
vn -0.0 0.0 1.0
vn -0.0 0.0 1.0
vn -0.0 0.0 1.0
vn -0.0 0.0 1.0
vn -0.0 0.0 1.0
vn -0.0 0.0 1.0
vn -0.0 0.0 1.0
vn -0.0 0.0 1.0
vn -0.0 0.0 1.0
vn -0.0 0.0 1.0
vn -0.0 0.0 1.0
vn -0.0 0.0 1.0
vn -0.0 0.0 1.0
vn -0.0 0.0 1.0
vn -0.0 0.0 1.0
vn -0.0 0.0 1.0
vn -0.0 0.0 1.0
vn -0.0 0.0 1.0
vn -0.0 0.0 1.0
vn -0.0 0.0 1.0
vn -0.0 0.0 1.0
vn -0.0 0.0 1.0
vn -0.0 0.0 1.0
vn -0.0 0.0 1.0
vn -0.0 0.0 1.0
vn -0.0 0.0 1.0
vn -0.0 0.0 1.0
vn -0.0 0.0 1.0
vn -0.0 0.0 1.0
vn -0.0 0.0 1.0
vn -0.0 0.0 1.0
vn -0.0 0.0 1.0
vn -0.0 0.0 1.0
vn -0.0 0.0 1.0
vn -0.0 0.0 1.0
vn -0.0 0.0 1.0
vn -0.0 0.0 1.0
vn -0.0 0.0 1.0
vn -0.0 0.0 1.0
vn -0.0 0.0 1.0
vn -0.0 0.0 1.0
vn -0.0 0.0 1.0
vn -0.0 0.0 1.0
vn -0.0 0.0 1.0
vn -0.0 0.0 1.0
vn -0.0 0.0 1.0
vn -0.0 0.0 1.0
vn -0.0 0.0 1.0
vn -0.0 0.0 1.0
vn -0.0 0.0 1.0
vn -0.0 0.0 1.0
vn -0.0 0.0 1.0
vn -0.0 0.0 1.0
vn -0.0 0.0 1.0
vn -0.0 0.0 1.0
vn -0.0 0.0 1.0
vn -0.0 0.0 1.0
vn -0.0 0.0 1.0
vn -0.0 0.0 1.0
vn -0.0 0.0 1.0
vn -0.0 0.0 1.0
vn -0.0 0.0 1.0
vn -0.0 0.0 1.0
vn -0.0 0.0 1.0
vn -0.0 0.0 1.0
vn -0.0 0.0 1.0
vn -0.0 0.0 1.0
vn -0.0 0.0 1.0
vn -0.0 0.0 1.0
vn -0.0 0.0 1.0
vn -0.0 0.0 1.0
vn -0.0 0.0 1.0
vn -0.0 0.0 1.0
vn -0.0 0.0 1.0
vn -0.0 0.0 1.0
vn -0.0 0.0 1.0
vn -0.0 0.0 1.0
vn -0.0 0.0 1.0
vn -0.0 0.0 1.0
vn -0.0 0.0 1.0
vn -0.0 0.0 1.0
vn -0.0 0.0 1.0
vn -0.0 0.0 1.0
vn -0.0 0.0 1.0
vn -0.0 0.0 1.0
vn -0.0 0.0 1.0
vn -0.0 0.0 1.0
vn -0.0 0.0 1.0
vn -0.0 0.0 1.0
vn -0.0 0.0 1.0
vn -0.0 0.0 1.0
vn -0.0 0.0 1.0
vn -0.0 0.0 1.0
vn -0.0 0.0 1.0
vn -0.0 0.0 1.0
vn -0.0 0.0 1.0
vn -0.0 0.0 1.0
vn -0.0 0.0 1.0
vn -0.0 0.0 1.0
vn -0.0 0.0 1.0
vn -0.0 0.0 1.0
vn -0.0 0.0 1.0
vn -0.0 0.0 1.0
vn -0.0 0.0 1.0
vn -0.0 0.0 1.0
vn -0.0 0.0 1.0
vn -0.0 0.0 1.0
vn -0.0 0.0 1.0
vn -0.0 0.0 1.0
vn -0.0 0.0 1.0
vn -0.0 0.0 1.0
vn -0.0 0.0 1.0
vn -0.0 0.0 1.0
vn -0.0 0.0 1.0
vn -0.0 0.0 1.0
vn -0.0 0.0 1.0
vn -0.0 0.0 1.0
vn -0.0 0.0 1.0
vn -0.0 0.0 1.0
vn -0.0 0.0 1.0
vn -0.0 0.0 1.0
vn -0.0 0.0 1.0
vn -0.0 0.0 1.0
vn -0.0 0.0 1.0
vn -0.0 0.0 1.0
vn -0.0 0.0 1.0
vn -0.0 0.0 1.0
vn -0.0 0.0 1.0
vn -0.0 0.0 1.0
vn -0.0 0.0 1.0
vn -0.0 0.0 1.0
vn -0.0 0.0 1.0
vn -0.0 0.0 1.0
vn -0.0 0.0 1.0
vn -0.0 0.0 1.0
vn -0.0 0.0 1.0
vn -0.0 0.0 1.0
vn -0.0 0.0 1.0
vn -0.0 0.0 1.0
vn -0.0 0.0 1.0
vn -0.0 0.0 1.0
vn -0.0 0.0 1.0
vn -0.0 0.0 1.0
vn -0.0 0.0 1.0
vn -0.0 0.0 1.0
vn -0.0 0.0 1.0
vn -0.0 0.0 1.0
vn -0.0 0.0 1.0
vn -0.0 0.0 1.0
vn -0.0 0.0 1.0
vn -0.0 0.0 1.0
vn -0.0 0.0 1.0
vn -0.0 0.0 1.0
vn -0.0 0.0 1.0
vn -0.0 0.0 1.0
vn -0.0 0.0 1.0
vn -0.0 0.0 1.0
vn -0.0 0.0 1.0
vn -0.0 0.0 1.0
vn -0.0 0.0 1.0
vn -0.0 0.0 1.0
vn -0.0 0.0 1.0
vn -0.0 0.0 1.0
vn -0.0 0.0 1.0
vn -0.0 0.0 1.0
vn -0.0 0.0 1.0
vn -0.0 0.0 1.0
vn -0.0 0.0 1.0
vn -0.0 0.0 1.0
vn -0.0 0.0 1.0
vn -0.0 0.0 1.0
vn -0.0 0.0 1.0
vn -0.0 0.0 1.0
vn -0.0 0.0 1.0
vn -0.0 0.0 1.0
vn -0.0 0.0 1.0
vn -0.0 0.0 1.0
vn -0.0 0.0 1.0
vn -0.0 0.0 1.0
vn -0.0 0.0 1.0
vn -0.0 0.0 1.0
vn -0.0 0.0 1.0
vn -0.0 0.0 1.0
vn -0.0 0.0 1.0
vn -0.0 0.0 1.0
vn -0.0 0.0 1.0
vn -0.0 0.0 1.0
vn -0.0 0.0 1.0
vn -0.0 0.0 1.0
vn -0.0 0.0 1.0
vn -0.0 0.0 1.0
vn -0.0 0.0 1.0
vn -0.0 0.0 1.0
vn -0.0 0.0 1.0
vn -0.0 0.0 1.0
vn -0.0 0.0 1.0
vn -0.0 0.0 1.0
vn -0.0 0.0 1.0
vn -0.0 0.0 1.0
vn -0.0 0.0 1.0
vn -0.0 0.0 1.0
vn -0.0 0.0 1.0
vn -0.0 0.0 1.0
vn -0.0 0.0 1.0
vn -0.0 0.0 1.0
vn -0.0 0.0 1.0
vn -0.0 0.0 1.0
vn -0.0 0.0 1.0
vn -0.0 0.0 1.0
vn -0.0 0.0 1.0
vn -0.0 0.0 1.0
vn -0.0 0.0 1.0
vn -0.0 0.0 1.0
vn -0.0 0.0 1.0
vn -0.0 0.0 1.0
vn -0.0 0.0 1.0
vn -0.0 0.0 1.0
vn -0.0 0.0 1.0
vn -0.0 0.0 1.0
vn -0.0 0.0 1.0
vn -0.0 0.0 1.0
vn -0.0 0.0 1.0
vn -0.0 0.0 1.0
vn -0.0 0.0 1.0
vn -0.0 0.0 1.0
vn -0.0 0.0 1.0
vn -0.0 0.0 1.0
vn -0.0 0.0 1.0
vn -0.0 0.0 1.0
vn -0.0 0.0 1.0
vn -0.0 0.0 1.0
vn -0.0 0.0 1.0
vn -0.0 0.0 1.0
vn -0.0 0.0 1.0
vn -0.0 0.0 1.0
vn -0.0 0.0 1.0
vn -0.0 0.0 1.0
vn -0.0 0.0 1.0
vn -0.0 0.0 1.0
vn -0.0 0.0 1.0
vn -0.0 0.0 1.0
vn -0.0 0.0 1.0
vn -0.0 0.0 1.0
vn -0.0 0.0 1.0
vn -0.0 0.0 1.0
vn -0.0 -1.0 0.0
vn -0.0 -1.0 0.0
vn -0.0 -1.0 0.0
vn -0.0 -1.0 0.0
vn -0.0 -1.0 0.0
vn -0.0 -1.0 0.0
vn -0.0 -1.0 0.0
vn -0.0 -1.0 0.0
vn -0.0 -1.0 0.0
vn -0.0 -1.0 0.0
vn -0.0 -1.0 0.0
vn -0.0 -1.0 0.0
vn -0.0 0.0 1.0
vn -0.0 0.0 1.0
vn -0.0 0.0 1.0
vn -0.0 0.0 1.0
vn -0.0 -1.0 0.0
vn -0.0 -1.0 0.0
vn -0.0 -1.0 0.0
vn -0.0 -1.0 0.0
vn 1.0 0.0 0.0
vn 1.0 0.0 0.0
vn 1.0 0.0 0.0
vn 1.0 0.0 0.0
vn 1.0 0.0 0.0
vn 1.0 0.0 0.0
vn 1.0 0.0 0.0
vn 1.0 0.0 0.0
vn -0.0 0.0 1.0
vn -0.0 0.0 1.0
vn -0.0 0.0 1.0
vn -0.0 0.0 1.0
vn -0.0 0.0 1.0
vn -0.0 0.0 1.0
vn -0.0 0.0 1.0
vn -0.0 0.0 1.0
vn -0.0 0.0 1.0
vn -0.0 3.106253529949754e-07 1.0
vn -0.0 4.035732956708671e-07 1.0
vn -0.0 0.0 1.0
vn -0.0 0.0 1.0
vn -0.0 0.0 1.0
vn -0.0 4.035732956708671e-07 1.0
vn -0.0 0.0 1.0
vn -0.0 0.0 1.0
vn -0.0 2.624296087105904e-07 1.0
vn -0.0 2.624296087105904e-07 1.0
vn -0.0 4.035732956708671e-07 1.0
vn -0.0 3.106253529949754e-07 1.0
vn -0.0 0.0 1.0
vn -0.0 0.0 1.0
vn -0.0 0.0 1.0
vn -0.0 0.0 1.0
vn 1.0 0.0 0.0
vn 1.0 0.0 0.0
vn 1.0 0.0 0.0
vn 1.0 0.0 0.0
vn 1.0 0.0 0.0
vn 1.0 0.0 0.0
vn 1.0 0.0 0.0
vn -1.0 0.0 0.0
vn -1.0 0.0 0.0
vn -1.0 0.0 0.0
vn -1.0 0.0 0.0
vn -0.0 -1.0 0.0
vn -0.0 -1.0 0.0
vn -0.0 -1.0 0.0
vn -0.0 -1.0 0.0
vn -0.0 -1.0 0.0
vn -0.0 -1.0 0.0
vn -0.0 -1.0 0.0
vn -0.0 -1.0 0.0
vn -0.0 0.0 1.0
vn -0.0 0.0 1.0
vn -0.0 0.0 1.0
vn -0.0 0.0 1.0
vn -0.0 0.0 1.0
vn -0.0 0.0 1.0
vn -0.0 0.0 1.0
vn -0.0 0.0 1.0
vn -0.0 0.0 1.0
vn -0.0 0.0 1.0
vn -0.0 0.0 1.0
vn -0.0 0.0 1.0
vn -0.0 0.0 1.0
vn -0.0 0.0 1.0
vn -0.0 0.0 1.0
vn -0.0 0.0 1.0
vn -0.0 0.0 1.0
vn -0.0 0.0 1.0
vn -0.0 0.0 1.0
vn -0.0 0.0 1.0
vn -0.0 0.0 1.0
vn -0.0 0.0 1.0
vn -0.0 0.0 1.0
vn -0.0 0.0 1.0
vn -0.0 0.0 1.0
vn -0.0 0.0 1.0
vn -0.0 0.0 1.0
vn -0.0 0.0 1.0
vn -0.0 0.0 1.0
vn -1.0 0.0 0.0
vn -1.0 0.0 0.0
vn -1.0 0.0 0.0
vn -1.0 0.0 0.0
vn -1.0 0.0 0.0
vn -1.0 0.0 0.0
vn -1.0 0.0 0.0
vn -1.0 0.0 0.0
vn -0.0 -1.0 0.0
vn -0.0 -1.0 0.0
vn -0.0 -1.0 0.0
vn -0.0 -1.0 0.0
vn 1.0 0.0 0.0
vn 1.0 0.0 0.0
vn 1.0 0.0 0.0
vn 1.0 0.0 0.0
vn 1.0 0.0 0.0
vn 1.0 0.0 0.0
vn 1.0 0.0 0.0
vn 1.0 0.0 0.0
vn -0.0 0.0 1.0
vn -0.0 0.0 1.0
vn -0.0 0.0 1.0
vn -0.0 0.0 1.0
vn -0.0 -1.0 0.0
vn -0.0 -1.0 0.0
vn -0.0 -1.0 0.0
vn -0.0 -1.0 0.0
vn -1.0 0.0 0.0
vn -1.0 0.0 0.0
vn -1.0 0.0 0.0
vn -1.0 0.0 0.0
vn -0.0 -1.0 0.0
vn -0.0 -1.0 0.0
vn -0.0 -1.0 0.0
vn -0.0 -1.0 0.0
vn -0.0 -1.0 0.0
vn -0.0 -1.0 0.0
vn 1.0 0.0 0.0
vn 1.0 0.0 0.0
vn 1.0 0.0 0.0
vn 1.0 0.0 0.0
vn 1.0 0.0 0.0
vn -0.0 0.0 1.0
vn -0.0 0.0 1.0
vn -0.0 0.0 1.0
vn -0.0 0.0 1.0
vn -0.0 0.0 1.0
vn -0.0 0.0 1.0
vn -0.0 0.0 1.0
vn -0.0 0.0 1.0
vn -0.0 0.0 1.0
vn -0.0 0.0 1.0
vn -0.0 0.0 1.0
vn -0.0 0.0 1.0
vn -0.0 0.0 1.0
vn -0.0 0.0 1.0
vn -0.0 0.0 1.0
vn -0.0 0.0 1.0
vn -0.0 0.0 1.0
vn -0.0 0.0 1.0
vn -0.0 0.0 1.0
vn -0.0 0.0 1.0
vn -0.0 0.0 1.0
vn -0.0 0.0 1.0
vn -0.0 0.0 1.0
vn -0.0 0.0 1.0
vn -0.0 0.0 1.0
vn -0.0 0.0 1.0
vn -0.0 0.0 1.0
vn -0.0 0.0 1.0
vn -0.0 0.0 1.0
vn -0.0 0.0 1.0
vn -0.0 0.0 1.0
vn -0.0 0.0 1.0
vn -0.0 0.0 1.0
vn 1.0 0.0 0.0
vn 1.0 0.0 0.0
vn 1.0 0.0 0.0
vn 1.0 0.0 0.0
vn -1.0 0.0 0.0
vn -1.0 0.0 0.0
vn -1.0 0.0 0.0
vn -1.0 0.0 0.0
vn -0.0 -1.0 0.0
vn -0.0 -1.0 0.0
vn -0.0 -1.0 0.0
vn -0.0 -1.0 0.0
vn -0.0 0.0 1.0
vn -0.0 0.0 1.0
vn -0.0 0.0 1.0
vn -0.0 0.0 1.0
vn -0.0 0.0 1.0
vn -0.0 0.0 1.0
vn -0.0 0.0 1.0
vn -0.0 0.0 1.0
vn -0.0 0.0 1.0
vn -0.0 0.0 1.0
vn -0.0 0.0 1.0
vn -0.0 0.0 1.0
vn -1.0 0.0 0.0
vn -1.0 0.0 0.0
vn -1.0 0.0 0.0
vn -1.0 0.0 0.0
vn -0.0 -1.0 0.0
vn -0.0 -1.0 0.0
vn -0.0 -1.0 0.0
vn -0.0 -1.0 0.0
vn -0.0 -1.0 0.0
vn -0.0 0.0 1.0
vn -0.0 0.0 1.0
vn -0.0 0.0 1.0
vn -0.0 0.0 1.0
vn -0.0 -1.0 0.0
vn -0.0 -1.0 0.0
vn -0.0 -1.0 0.0
vn -0.0 -1.0 0.0
vn -0.0 0.0 1.0
vn -0.0 0.0 1.0
vn -0.0 0.0 1.0
vn -0.0 0.0 1.0
vn -0.0 -1.0 0.0
vn -0.0 -1.0 0.0
vn -0.0 -1.0 0.0
vn -0.0 -1.0 0.0
vn -0.0 0.0 1.0
vn -0.0 0.0 1.0
vn -0.0 0.0 1.0
vn -0.0 0.0 1.0
vt 0.40925082564353943 0.05223971605300903
vt 0.00397946871817112 0.23244422674179077
vt 0.00397946871817112 0.05223959684371948
vt 0.4092506468296051 0.23244428634643555
vt 0.21170207858085632 0.25656187534332275
vt 0.4096434414386749 0.23720002174377441
vt 0.4096432030200958 0.25656187534332275
vt 0.21170225739479065 0.23719996213912964
vt 0.40469491481781006 0.23720002174377441
vt 0.21170207858085632 0.25656187534332275
vt 0.40469491481781006 0.23720002174377441
vt 0.4096434414386749 0.23720002174377441
vt 0.4098917245864868 0.25656193494796753
vt 0.003736644983291626 0.23713243007659912
vt 0.003736644983291626 0.25656187534332275
vt 0.4098917245864868 0.23713243007659912
vt 0.21166656911373138 0.25656187534332275
vt 0.4096079468727112 0.23720002174377441
vt 0.4096077084541321 0.25656193494796753
vt 0.21661527454853058 0.23720002174377441
vt 0.21166656911373138 0.25656187534332275
vt 0.2116667479276657 0.23720002174377441
vt 0.21661527454853058 0.23720002174377441
vt 0.2573142349720001 0.204492449760437
vt 0.1446157991886139 0.09396010637283325
vt 0.2573142349720001 0.09396010637283325
vt 0.1446157991886139 0.204492449760437
vt 0.1446157991886139 0.204492449760437
vt 0.2573142349720001 0.09396010637283325
vt 0.2573142349720001 0.204492449760437
vt 0.1446157991886139 0.09396010637283325
vt 0.29391196370124817 0.0030243396759033203
vt 0.10746174305677414 0.049092769622802734
vt 0.10746204107999802 0.0030243396759033203
vt 0.29391178488731384 0.049092769622802734
vt 0.01707613468170166 0.002469778060913086
vt 0.3955029845237732 0.049092769622802734
vt 0.39135414361953735 0.002469778060913086
vt 0.012926816940307617 0.04909253120422363
vt 0.29391196370124817 0.0030243396759033203
vt 0.10746174305677414 0.049092769622802734
vt 0.10746204107999802 0.0030243396759033203
vt 0.29391178488731384 0.049092769622802734
vt 0.00397946871817112 0.05223959684371948
vt 0.4092506468296051 0.23706495761871338
vt 0.00397946871817112 0.23706483840942383
vt 0.40925082564353943 0.05223971605300903
vt 0.21168483793735504 0.25656193494796753
vt 0.40962618589401245 0.23720002174377441
vt 0.40962594747543335 0.25656193494796753
vt 0.21168501675128937 0.23720002174377441
vt 0.4099099636077881 0.25656193494796753
vt 0.003754913806915283 0.23720002174377441
vt 0.003754913806915283 0.25656187534332275
vt 0.4099099636077881 0.23720002174377441
vt 0.21168483793735504 0.25656193494796753
vt 0.40962618589401245 0.23720002174377441
vt 0.40962594747543335 0.25656193494796753
vt 0.21168501675128937 0.23720002174377441
vt 0.20275290310382843 0.26164358854293823
vt 0.24945619702339172 0.4353429079055786
vt 0.24945619702339172 0.26164358854293823
vt 0.20275290310382843 0.4353429079055786
vt 0.20275290310382843 0.26164358854293823
vt 0.24945619702339172 0.4353429079055786
vt 0.24945619702339172 0.26164358854293823
vt 0.20275290310382843 0.4353429079055786
vt 0.24945619702339172 0.26164358854293823
vt 0.20275290310382843 0.4353429079055786
vt 0.24945619702339172 0.4353429079055786
vt 0.20275290310382843 0.26164358854293823
vt 0.24945619702339172 0.4353429079055786
vt 0.20275290310382843 0.26164358854293823
vt 0.24945619702339172 0.26164358854293823
vt 0.20275290310382843 0.4353429079055786
vt 0.24945619702339172 0.4353429079055786
vt 0.20275290310382843 0.26164358854293823
vt 0.24945619702339172 0.26164358854293823
vt 0.20275290310382843 0.4353429079055786
vt 0.24945619702339172 0.4353429079055786
vt 0.20275290310382843 0.26164358854293823
vt 0.20275290310382843 0.4353429079055786
vt 0.24945619702339172 0.26164358854293823
vt 0.20275291800498962 0.4353429079055786
vt 0.24945621192455292 0.26164358854293823
vt 0.24945621192455292 0.4353429079055786
vt 0.20275291800498962 0.26164358854293823
vt 0.24945619702339172 0.26164358854293823
vt 0.20275290310382843 0.4353429079055786
vt 0.24945619702339172 0.4353429079055786
vt 0.20275290310382843 0.26164358854293823
vt 0.24945619702339172 0.4353429079055786
vt 0.20275290310382843 0.26164358854293823
vt 0.20275290310382843 0.4353429079055786
vt 0.24945619702339172 0.26164358854293823
vt 0.24945619702339172 0.4353429079055786
vt 0.20275290310382843 0.26164358854293823
vt 0.20275290310382843 0.4353429079055786
vt 0.24945619702339172 0.26164358854293823
vt 0.20275290310382843 0.4353429079055786
vt 0.24945619702339172 0.26164358854293823
vt 0.24945619702339172 0.4353429079055786
vt 0.20275290310382843 0.26164358854293823
vt 0.20275290310382843 0.26164358854293823
vt 0.24945619702339172 0.4353429079055786
vt 0.20275290310382843 0.4353429079055786
vt 0.24945619702339172 0.26164358854293823
vt 0.20275290310382843 0.4353429079055786
vt 0.24945619702339172 0.26164358854293823
vt 0.24945619702339172 0.4353429079055786
vt 0.20275290310382843 0.26164358854293823
vt 0.20275290310382843 0.26164358854293823
vt 0.24945619702339172 0.4353429079055786
vt 0.20275290310382843 0.4353429079055786
vt 0.24945619702339172 0.26164358854293823
vt 0.4174095094203949 0.5806630253791809
vt 0.45960623025894165 0.6241500675678253
vt 0.45960623025894165 0.5806630253791809
vt 0.4174095094203949 0.6241500675678253
vt 0.4174095094203949 0.5806630253791809
vt 0.45960623025894165 0.6241500675678253
vt 0.45960623025894165 0.5806630253791809
vt 0.4174095094203949 0.6241500675678253
vt 0.4174095094203949 0.5806630253791809
vt 0.45960623025894165 0.6241500675678253
vt 0.4174095094203949 0.6241500675678253
vt 0.45960623025894165 0.6241500675678253
vt 0.4174095094203949 0.5806630253791809
vt 0.45960623025894165 0.5806630253791809
vt 0.45960623025894165 0.6241500675678253
vt 0.4174095094203949 0.5806630253791809
vt 0.45960623025894165 0.5806630253791809
vt 0.4174095094203949 0.6241500675678253
vt 0.45960623025894165 0.6241500675678253
vt 0.4174095094203949 0.5806630253791809
vt 0.45960623025894165 0.5806630253791809
vt 0.4174095094203949 0.6241500675678253
vt 0.45960623025894165 0.6241500675678253
vt 0.4174095094203949 0.5806630253791809
vt 0.4174095094203949 0.6241500675678253
vt 0.45960623025894165 0.5806630253791809
vt 0.45960623025894165 0.6241500675678253
vt 0.4174095094203949 0.5806630253791809
vt 0.4174095094203949 0.6241500675678253
vt 0.45960623025894165 0.5806630253791809
vt 0.4174095094203949 0.5806630253791809
vt 0.45960623025894165 0.6241500675678253
vt 0.4174095094203949 0.6241500675678253
vt 0.45960623025894165 0.5806630253791809
vt 0.45960623025894165 0.6241500675678253
vt 0.4174095094203949 0.5806630253791809
vt 0.4174095094203949 0.6241500675678253
vt 0.45960623025894165 0.5806630253791809
vt 0.45960623025894165 0.6241500675678253
vt 0.4174095094203949 0.5806630253791809
vt 0.4174095094203949 0.6241500675678253
vt 0.45960623025894165 0.5806630253791809
vt 0.4174095094203949 0.6241500675678253
vt 0.45960623025894165 0.5806630253791809
vt 0.45960623025894165 0.6241500675678253
vt 0.4174095094203949 0.5806630253791809
vt 0.4174095094203949 0.5806630253791809
vt 0.45960623025894165 0.6241500675678253
vt 0.4174095094203949 0.6241500675678253
vt 0.45960623025894165 0.5806630253791809
vt 0.4174095094203949 0.6241500675678253
vt 0.45960623025894165 0.5806630253791809
vt 0.45960623025894165 0.6241500675678253
vt 0.4174095094203949 0.5806630253791809
vt 0.4174095094203949 0.5806630253791809
vt 0.45960623025894165 0.6241500675678253
vt 0.4174095094203949 0.6241500675678253
vt 0.45960623025894165 0.5806630253791809
vt 0.20275290310382843 0.26164358854293823
vt 0.24945619702339172 0.4353429079055786
vt 0.24945619702339172 0.26164358854293823
vt 0.20275290310382843 0.4353429079055786
vt 0.24945619702339172 0.4353429079055786
vt 0.20275290310382843 0.26164358854293823
vt 0.20275290310382843 0.4353429079055786
vt 0.24945619702339172 0.26164358854293823
vt 0.20275291800498962 0.4353429079055786
vt 0.24945621192455292 0.26164358854293823
vt 0.24945621192455292 0.4353429079055786
vt 0.20275291800498962 0.26164358854293823
vt 0.4174095094203949 0.5806630253791809
vt 0.45960623025894165 0.6241500675678253
vt 0.45960623025894165 0.5806630253791809
vt 0.4174095094203949 0.6241500675678253
vt 0.45960623025894165 0.6241500675678253
vt 0.4174095094203949 0.5806630253791809
vt 0.4174095094203949 0.6241500675678253
vt 0.45960623025894165 0.5806630253791809
vt 0.45960623025894165 0.6241500675678253
vt 0.4174095094203949 0.5806630253791809
vt 0.4174095094203949 0.6241500675678253
vt 0.45960623025894165 0.5806630253791809
vt 0.4092506468296051 0.23244428634643555
vt 0.00397946871817112 0.2399488091468811
vt 0.00397946871817112 0.23244422674179077
vt 0.4092506468296051 0.2399488091468811
vt 0.005657949484884739 0.15040725469589233
vt 0.1673363894224167 0.005803287029266357
vt 0.005657949484884739 0.005803287029266357
vt 0.1673363894224167 0.15040725469589233
vt 0.005508878268301487 0.15040725469589233
vt 0.1673363894224167 0.005803287029266357
vt 0.005508878268301487 0.005803287029266357
vt 0.1673363894224167 0.15040725469589233
vt 0.0008656398276798427 0.964047260582447
vt 0.12455710768699646 0.5016914010047913
vt 0.12455710768699646 0.964047260582447
vt 0.0008656398276798427 0.5016914010047913
vt 0.0008656398276798427 0.9988482361659408
vt 0.21361497044563293 0.5016914010047913
vt 0.21361497044563293 0.9988482361659408
vt 0.0008656398276798427 0.5016914010047913
vt 0.0008656398276798427 0.9988482361659408
vt 0.21548955142498016 0.9640472568571568
vt 0.21361497044563293 0.9988482361659408
vt 0.0008656398276798427 0.9640472531318665
vt 0.49867531657218933 0.5016914010047913
vt 0.49867531657218933 0.964047260582447
vt 0.0008656398276798427 0.5016914010047913
vt 0.0008656398276798427 0.964047260582447
vt 0.49867531657218933 0.5016914010047913
vt 0.49867531657218933 0.964047260582447
vt 0.0008656398276798427 0.5016914010047913
vt 0.0008656398276798427 0.5016914010047913
vt 0.2151157259941101 0.6900350451469421
vt 0.00043810857459902763 0.6900350451469421
vt 0.21361497044563293 0.5016914010047913
vt 0.0008656398276798427 0.9565899074077606
vt 0.4563615024089813 0.5016914010047913
vt 0.4563615024089813 0.9565899074077606
vt 0.0008656398276798427 0.5016914010047913
vt 0.49867531657218933 0.5016914010047913
vt 0.0431794598698616 0.9565899074077606
vt 0.043179452419281006 0.5016914010047913
vt 0.49867531657218933 0.9565899074077606
vt 0.0008656398276798427 0.5016914010047913
vt 0.4638286232948303 0.9988482361659408
vt 0.0008656398276798427 0.9988482361659408
vt 0.4638286232948303 0.5016914010047913
vt 0.49867531657218933 0.9988482361659408
vt 0.03571231663227081 0.5016914010047913
vt 0.49867531657218933 0.5016914010047913
vt 0.03571231663227081 0.9988482361659408
vt 0.0008656398276798427 0.5016914010047913
vt 0.21361497044563293 0.7521038055419922
vt 0.0008656398276798427 0.7521038055419922
vt 0.21379821002483368 0.7170460820198059
vt 0.24846164882183075 0.7170460820198059
vt 0.46364539861679077 0.7170460820198059
vt 0.4638286232948303 0.5016914010047913
vt 0.21361497044563293 0.502455085515976
vt 0.0008656397112645209 0.96822215244174
vt 0.000865638256072998 0.502455085515976
vt 0.21361497044563293 0.96822215244174
vt 0.49867531657218933 0.502455085515976
vt 0.28330832719802856 0.96822215244174
vt 0.28330832719802856 0.502455085515976
vt 0.49867531657218933 0.96822215244174
vt 0.2834915518760681 0.7170460820198059
vt 0.49867531657218933 0.7521038055419922
vt 0.28330832719802856 0.7521038055419922
vt 0.49867531657218933 0.5016914010047913
vt 0.24846164882183075 0.7170460820198059
vt 0.03571231663227081 0.5016914010047913
vt 0.03552907705307007 0.7170460820198059
vt 0.040855735540390015 0.5014409720897675
vt 0.460182785987854 0.9563466310501099
vt 0.04085573926568031 0.9563466310501099
vt 0.460182785987854 0.5014409720897675
vt 0.49867531657218933 0.5016914010047913
vt 0.033223267644643784 0.9665330424904823
vt 0.03322327136993408 0.5016914010047913
vt 0.49867531657218933 0.9665330424904823
vt 0.0008656398276798427 0.9565899074077606
vt 0.49867531657218933 0.5016914010047913
vt 0.49867531657218933 0.9565899074077606
vt 0.0008656398276798427 0.5016914010047913
vt 0.4989616274833679 0.5016914010047913
vt 0.3533205986022949 0.9565899074077606
vt 0.3533205986022949 0.5016914010047913
vt 0.4989616274833679 0.9565899074077606
vt 0.0008656398276798427 0.9988482361659408
vt 0.49867531657218933 0.5016914010047913
vt 0.49867531657218933 0.9988482361659408
vt 0.0008656398276798427 0.5016914010047913
vt 0.0008656398276798427 0.9988482361659408
vt 0.49867531657218933 0.5016914010047913
vt 0.49867531657218933 0.9988482361659408
vt 0.0008656398276798427 0.5016914010047913
vt 0.0008656398276798427 0.9988482361659408
vt 0.49867531657218933 0.7521038055419922
vt 0.49867531657218933 0.9988482361659408
vt 0.24824857711791992 0.7521038055419922
vt 0.0008656398276798427 0.5016914010047913
vt 0.24824857711791992 0.5016914010047913
vt 0.0008656398276798427 0.9988482361659408
vt 0.49867531657218933 0.5016914010047913
vt 0.49867531657218933 0.9988482361659408
vt 0.0008656398276798427 0.5016914010047913
vt 0.0008656398276798427 0.9988482361659408
vt 0.49867531657218933 0.5016914010047913
vt 0.49867531657218933 0.9988482361659408
vt 0.0008656398276798427 0.5016914010047913
vt 0.0008656398276798427 0.9988482361659408
vt 0.12455710768699646 0.5016914010047913
vt 0.12455710768699646 0.9988482361659408
vt 0.0008656398276798427 0.5016914010047913
vt 0.0008656398276798427 0.9988482361659408
vt 0.49867531657218933 0.5016914010047913
vt 0.49867531657218933 0.9988482361659408
vt 0.0008656398276798427 0.5016914010047913
vt 0.0008656398276798427 0.9988482361659408
vt 0.49867531657218933 0.5016914010047913
vt 0.49867531657218933 0.9988482361659408
vt 0.0008656398276798427 0.5016914010047913
vt 0.0008656398276798427 0.9988482361659408
vt 0.24824857711791992 0.7521038055419922
vt 0.24824857711791992 0.9988482361659408
vt 0.0008656398276798427 0.5016914010047913
vt 0.24824857711791992 0.5016914010047913
vt 0.0008656398276798427 0.9988482361659408
vt 0.49867531657218933 0.5016914010047913
vt 0.49867531657218933 0.9988482361659408
vt 0.0008656398276798427 0.5016914010047913
vt 0.0008656398276798427 0.9988482361659408
vt 0.49867531657218933 0.5016914010047913
vt 0.49867531657218933 0.9988482361659408
vt 0.0008656398276798427 0.5016914010047913
vt 0.0008656398276798427 0.9988482361659408
vt 0.12455710768699646 0.5016914010047913
vt 0.12455710768699646 0.9988482361659408
vt 0.0008656398276798427 0.5016914010047913
vt 0.0008656398276798427 0.9988482361659408
vt 0.49867531657218933 0.5016914010047913
vt 0.49867531657218933 0.9988482361659408
vt 0.0008656398276798427 0.5016914010047913
vt 0.0008656398276798427 0.9988482361659408
vt 0.49867531657218933 0.7521038055419922
vt 0.49867531657218933 0.9988482361659408
vt 0.49867531657218933 0.5016914010047913
vt 0.0008656398276798427 0.5016914010047913
vt 0.49867531657218933 0.5016914010047913
vt 0.24824857711791992 0.7521038055419922
vt 0.24824857711791992 0.5016914010047913
vt 0.49867531657218933 0.9988482361659408
vt 0.0008656398276798427 0.9988482361659408
vt 0.0008656398276798427 0.7521038055419922
vt 0.0008656398276798427 0.9988482361659408
vt 0.49867531657218933 0.5016914010047913
vt 0.49867531657218933 0.9988482361659408
vt 0.0008656398276798427 0.5016914010047913
vt 0.0008656398276798427 0.9988482361659408
vt 0.12455710768699646 0.5016914010047913
vt 0.12455710768699646 0.9988482361659408
vt 0.0008656398276798427 0.5016914010047913
vt 0.0008656398276798427 0.9988482361659408
vt 0.49867531657218933 0.5016914010047913
vt 0.49867531657218933 0.9988482361659408
vt 0.0008656398276798427 0.5016914010047913
vt 0.0008656398276798427 0.9988482361659408
vt 0.49867531657218933 0.5016914010047913
vt 0.49867531657218933 0.9988482361659408
vt 0.0008656398276798427 0.5016914010047913
vt 0.0008656398276798427 0.9988482361659408
vt 0.49867531657218933 0.5016914010047913
vt 0.49867531657218933 0.9988482361659408
vt 0.0008656398276798427 0.5016914010047913
vt 0.0008656398276798427 0.9988482361659408
vt 0.12455710768699646 0.5016914010047913
vt 0.12455710768699646 0.9988482361659408
vt 0.0008656398276798427 0.5016914010047913
vt 0.0008656398276798427 0.9988482361659408
vt 0.24824857711791992 0.7521038055419922
vt 0.24824857711791992 0.9988482361659408
vt 0.0008656398276798427 0.7521038055419922
vt 0.24824857711791992 0.7521038055419922
vt 0.0008656398276798427 0.9988482361659408
vt 0.0008656398276798427 0.7521038055419922
vt 0.49867531657218933 0.5016914010047913
vt 0.49867531657218933 0.9988482361659408
vt 0.24824857711791992 0.5016914010047913
vt 0.24824857711791992 0.7521038055419922
vt 0.49867531657218933 0.5016914010047913
vt 0.0008656398276798427 0.9988482361659408
vt 0.24824857711791992 0.7521038055419922
vt 0.49867531657218933 0.9988482361659408
vt 0.24824857711791992 0.9988482361659408
vt 0.49867531657218933 0.5016914010047913
vt 0.24824857711791992 0.5016914010047913
vt 0.49867531657218933 0.9988482361659408
vt 0.24824857711791992 0.7521038055419922
vt 0.49867531657218933 0.7521038055419922
vt 0.24824857711791992 0.9988482361659408
vt 0.49867531657218933 0.9988482361659408
vt 0.24824857711791992 0.5016914010047913
vt 0.49867531657218933 0.5016914010047913
vt 0.24824857711791992 0.9988482361659408
vt 0.3735774755477905 0.4989415407180786
vt 0.002342232270166278 0.09948444366455078
vt 0.002342130756005645 0.49894142150878906
vt 0.3735775351524353 0.09948456287384033
vt 0.002342130756005645 0.49894148111343384
vt 0.3735775351524353 0.09948456287384033
vt 0.3735774755477905 0.49894148111343384
vt 0.0023421815130859613 0.09948444366455078
vt 0.3735772371292114 0.09948432445526123
vt 0.0023419277276843786 0.4989413022994995
vt 0.0023419277276843786 0.09948432445526123
vt 0.3735772371292114 0.4989413022994995
vt 0.0023419277276843786 0.09948432445526123
vt 0.3735772371292114 0.4989413022994995
vt 0.3735772371292114 0.09948432445526123
vt 0.0023419277276843786 0.4989413022994995
vt 0.3735774755477905 0.4989415407180786
vt 0.002342232270166278 0.09948444366455078
vt 0.002342130756005645 0.49894142150878906
vt 0.3735775351524353 0.09948456287384033
vt 0.002342130756005645 0.49894148111343384
vt 0.3735775351524353 0.09948456287384033
vt 0.3735774755477905 0.49894148111343384
vt 0.0023421815130859613 0.09948444366455078
vt 0.3735772371292114 0.09948432445526123
vt 0.0023419277276843786 0.4989413022994995
vt 0.0023419277276843786 0.09948432445526123
vt 0.3735772371292114 0.4989413022994995
vt 0.0023419277276843786 0.09948432445526123
vt 0.3735772371292114 0.4989413022994995
vt 0.3735772371292114 0.09948432445526123
vt 0.0023419277276843786 0.4989413022994995
vt 0.4989616274833679 0.9988482361659408
vt 0.3533205986022949 0.5016914010047913
vt 0.4989616274833679 0.5016914010047913
vt 0.3533205986022949 0.9988482361659408
vt 0.4989616274833679 0.9988482361659408
vt 0.3533205986022949 0.5016914010047913
vt 0.4989616274833679 0.5016914010047913
vt 0.3533205986022949 0.9988482361659408
vt 0.4989616274833679 0.9988482361659408
vt 0.3533205986022949 0.5016914010047913
vt 0.4989616274833679 0.5016914010047913
vt 0.3533205986022949 0.9988482361659408
vt 0.4989616274833679 0.9988482361659408
vt 0.3533205986022949 0.5016914010047913
vt 0.4989616274833679 0.5016914010047913
vt 0.3533205986022949 0.9988482361659408
vt 0.49867531657218933 0.5002289116382599
vt 0.0008656398276798427 0.7521808743476868
vt 0.0008656398276798427 0.5002289116382599
vt 0.49867531657218933 0.7521808743476868
vt 0.49867531657218933 0.5002289116382599
vt 0.0008656398276798427 0.7521808743476868
vt 0.0008656398276798427 0.5002289116382599
vt 0.49867531657218933 0.7521808743476868
vt 0.49867531657218933 0.5002289116382599
vt 0.0008656398276798427 0.7521808743476868
vt 0.0008656398276798427 0.5002289116382599
vt 0.49867531657218933 0.7521808743476868
vt 0.49867531657218933 0.5002289116382599
vt 0.0008656398276798427 0.7521808743476868
vt 0.0008656398276798427 0.5002289116382599
vt 0.49867531657218933 0.7521808743476868
vt 0.49867531657218933 0.5002289116382599
vt 0.0008656398276798427 0.7521808743476868
vt 0.0008656398276798427 0.5002289116382599
vt 0.49867531657218933 0.7521808743476868
vt 0.49867531657218933 0.5002289116382599
vt 0.0008656398276798427 0.7521808743476868
vt 0.0008656398276798427 0.5002289116382599
vt 0.49867531657218933 0.7521808743476868
vt 0.12455710768699646 0.5002289116382599
vt 0.0008656398276798427 0.7521808743476868
vt 0.0008656398276798427 0.5002289116382599
vt 0.12455710768699646 0.7521808743476868
vt 0.4989616274833679 0.5002289116382599
vt 0.3533205986022949 0.7521808743476868
vt 0.3533205986022949 0.5002289116382599
vt 0.4989616274833679 0.7521808743476868
vt 0.8120129704475403 0.4989415407180786
vt 0.3763542175292969 0.06307113170623779
vt 0.3763540983200073 0.49894142150878906
vt 0.8120130300521851 0.06307125091552734
vt 0.3763540983200073 0.49894148111343384
vt 0.8120130300521851 0.06307125091552734
vt 0.8120129704475403 0.49894148111343384
vt 0.3763541579246521 0.06307113170623779
vt 0.8120126724243164 0.06307101249694824
vt 0.3763538599014282 0.4989413022994995
vt 0.3763538599014282 0.06307101249694824
vt 0.8120126724243164 0.4989413022994995
vt 0.3763538599014282 0.06307101249694824
vt 0.8120126724243164 0.4989413022994995
vt 0.8120126724243164 0.06307101249694824
vt 0.3763538599014282 0.4989413022994995
vt 0.12686888873577118 0.8751886785030365
vt 0.00043810857459902763 0.7498553097248077
vt 0.12686888873577118 0.7498553097248077
vt 0.00043810857459902763 0.8751886785030365
vt 0.00043810857459902763 0.8751886785030365
vt 0.49756646156311035 0.7498553097248077
vt 0.49756646156311035 0.8751886785030365
vt 0.00043810857459902763 0.7498553097248077
vt 0.24858176708221436 0.8751886785030365
vt 0.00043810857459902763 0.7498553097248077
vt 0.24858176708221436 0.7498553097248077
vt 0.00043810857459902763 0.8751886785030365
vt 0.24858176708221436 0.6900350451469421
vt 0.00043810857459902763 0.7498553097248077
vt 0.03707461804151535 0.6900350451469421
vt 0.24858176708221436 0.7498553097248077
vt 0.00043810857459902763 0.8751886785030365
vt 0.24858176708221436 0.7498553097248077
vt 0.24858176708221436 0.8751886785030365
vt 0.00043810857459902763 0.7498553097248077
vt 0.00043810857459902763 0.8751886785030365
vt 0.24858176708221436 0.7498553097248077
vt 0.24858176708221436 0.8751886785030365
vt 0.00043810857459902763 0.7498553097248077
vt 0.00043810857459902763 0.8751886785030365
vt 0.49756646156311035 0.7498553097248077
vt 0.49756646156311035 0.8751886785030365
vt 0.00043810857459902763 0.7498553097248077
vt 0.00043810857459902763 0.7498553097248077
vt 0.12686888873577118 0.6900350451469421
vt 0.12686888873577118 0.7498553097248077
vt 0.00043810857459902763 0.6900350451469421
vt 0.00043810857459902763 0.7498553097248077
vt 0.49756646156311035 0.6900350451469421
vt 0.49756646156311035 0.7498553097248077
vt 0.00043810857459902763 0.6900350451469421
vt 0.00043810857459902763 0.7498553097248077
vt 0.49756646156311035 0.6900350451469421
vt 0.49756646156311035 0.7498553097248077
vt 0.00043810857459902763 0.6900350451469421
vt 0.00043810857459902763 0.7498553097248077
vt 0.24858176708221436 0.7498553097248077
vt 0.24858176708221436 0.7498553097248077
vt 0.49756646156311035 0.6900350451469421
vt 0.49756646156311035 0.7498553097248077
vt 0.2151157259941101 0.6900350451469421
vt 0.03707461804151535 0.6900350451469421
vt 0.00043810857459902763 0.7498553097248077
vt 0.00043810857459902763 0.6900350451469421
vt 0.49756646156311035 0.7498553097248077
vt 0.00043810857459902763 0.6900350451469421
vt 0.4626022279262543 0.6900350451469421
vt 0.00043810857459902763 0.7498553097248077
vt 0.00043810857459902763 0.9980000501964241
vt 0.49756646156311035 0.8751886785030365
vt 0.49756646156311035 0.9980000501964241
vt 0.00043810857459902763 0.8751886785030365
vt 0.49756646156311035 0.7498553097248077
vt 0.03707461804151535 0.7498553097248077
vt 0.00043810857459902763 0.7498553097248077
vt 0.00043810857459902763 0.8751886785030365
vt 0.49756646156311035 0.7498553097248077
vt 0.49756646156311035 0.8751886785030365
vt 0.00043810857459902763 0.7498553097248077
vt 0.00043810857459902763 0.8751886785030365
vt 0.49756646156311035 0.7498553097248077
vt 0.49756646156311035 0.8751886785030365
vt 0.00043810857459902763 0.7498553097248077
vt 0.00043810857459902763 0.8751886785030365
vt 0.49756646156311035 0.7498553097248077
vt 0.49756646156311035 0.8751886785030365
vt 0.00043810857459902763 0.7498553097248077
vt 0.00043810857459902763 0.7498553097248077
vt 0.03707461804151535 0.6900350451469421
vt 0.03707461804151535 0.7498553097248077
vt 0.49756646156311035 0.6900350451469421
vt 0.49756646156311035 0.7498553097248077
vt 0.4626022279262543 0.6900350451469421
vt 0.00043810857459902763 0.7498553097248077
vt 0.00043810857459902763 0.6900350451469421
vt 0.49756646156311035 0.7498553097248077
vt 0.49756646156311035 0.7498553097248077
vt 0.03707461804151535 0.6900350451469421
vt 0.49756646156311035 0.6900350451469421
vt 0.00043810857459902763 0.7498553097248077
vt 0.24858176708221436 0.7498553097248077
vt 0.00043810857459902763 0.6900350451469421
vt 0.2151157259941101 0.6900350451469421
vt 0.00043810857459902763 0.7498553097248077
vt 0.24858176708221436 0.7498553097248077
vt 0.2151157259941101 0.6900350451469421
vt 0.24858176708221436 0.6900350451469421
vt 0.4626022279262543 0.6900350451469421
vt 0.24858176708221436 0.7498553097248077
vt 0.24858176708221436 0.6900350451469421
vt 0.49756646156311035 0.7498553097248077
vt 0.2151157259941101 0.6900350451469421
vt 0.49756646156311035 0.7498553097248077
vt 0.00043810857459902763 0.6900350451469421
vt 0.49756646156311035 0.6900350451469421
vt 0.00043810857459902763 0.7498553097248077
vt 0.00043810857459902763 0.9980000501964241
vt 0.49756646156311035 0.7498553097248077
vt 0.49756646156311035 0.9980000501964241
vt 0.00043810857459902763 0.7498553097248077
vt 0.00043810857459902763 0.9980000501964241
vt 0.24858176708221436 0.7498553097248077
vt 0.24858176708221436 0.9980000501964241
vt 0.00043810857459902763 0.7498553097248077
vt 0.49756646156311035 0.9980000501964241
vt 0.24858176708221436 0.7498553097248077
vt 0.49756646156311035 0.7498553097248077
vt 0.24858176708221436 0.9980000501964241
vt 0.24858176708221436 0.9980000501964241
vt 0.49756646156311035 0.7498553097248077
vt 0.49756646156311035 0.9980000501964241
vt 0.24858176708221436 0.7498553097248077
vt 0.00043810857459902763 0.9980000501964241
vt 0.49756646156311035 0.7498553097248077
vt 0.49756646156311035 0.9980000501964241
vt 0.00043810857459902763 0.7498553097248077
vt 0.49756646156311035 0.7498553097248077
vt 0.00043810857459902763 0.6900350451469421
vt 0.4626022279262543 0.6900350451469421
vt 0.00043810857459902763 0.7498553097248077
vt 0.24858176708221436 0.9980000501964241
vt 0.00043810857459902763 0.7498553097248077
vt 0.24858176708221436 0.7498553097248077
vt 0.00043810857459902763 0.9980000501964241
vt 0.00043810857459902763 0.9980000501964241
vt 0.49756646156311035 0.7498553097248077
vt 0.49756646156311035 0.9980000501964241
vt 0.00043810857459902763 0.7498553097248077
vt 0.00043810857459902763 0.9980000501964241
vt 0.24858176708221436 0.7498553097248077
vt 0.24858176708221436 0.9980000501964241
vt 0.00043810857459902763 0.7498553097248077
vt 0.49756646156311035 0.7498553097248077
vt 0.49756646156311035 0.9980000501964241
vt 0.49756646156311035 0.9980000501964241
vt 0.03707461804151535 0.7498553097248077
vt 0.49756646156311035 0.7498553097248077
vt 0.00043810857459902763 0.7498553097248077
vt 0.00043810857459902763 0.9980000501964241
vt 0.00043810857459902763 0.7498553097248077
vt 0.2151157259941101 0.6900350451469421
vt 0.24858176708221436 0.7498553097248077
vt 0.00043810857459902763 0.6900350451469421
vt 0.00043810857459902763 0.7498553097248077
vt 0.49756646156311035 0.6900350451469421
vt 0.49756646156311035 0.7498553097248077
vt 0.00043810857459902763 0.6900350451469421
vt 0.49756646156311035 0.7498553097248077
vt 0.03707461804151535 0.6900350451469421
vt 0.49756646156311035 0.6900350451469421
vt 0.03707461804151535 0.7498553097248077
vt 0.00043810857459902763 0.7498553097248077
vt 0.03707461804151535 0.6900350451469421
vt 0.24858176708221436 0.7498553097248077
vt 0.00043810857459902763 0.7498553097248077
vt 0.24858176708221436 0.6900350451469421
vt 0.28353020548820496 0.6900350451469421
vt 0.28353020548820496 0.6900350451469421
vt 0.24858176708221436 0.7498553097248077
vt 0.24858176708221436 0.6900350451469421
vt 0.24858176708221436 0.7498553097248077
vt 0.03707461804151535 0.6900350451469421
vt 0.24858176708221436 0.6900350451469421
vt 0.00043810857459902763 0.7498553097248077
vt 0.49756646156311035 0.7498553097248077
vt 0.28353020548820496 0.6900350451469421
vt 0.49756646156311035 0.6900350451469421
vt 0.24858176708221436 0.7498553097248077
vt 0.4626022279262543 0.6900350451469421
vt 0.00043810857459902763 0.7498553097248077
vt 0.00043810857459902763 0.6900350451469421
vt 0.49756646156311035 0.7498553097248077
vt 0.00043810857459902763 0.8751886785030365
vt 0.49756646156311035 0.7498553097248077
vt 0.49756646156311035 0.8751886785030365
vt 0.00043810857459902763 0.7498553097248077
vt 0.00043810857459902763 0.8751886785030365
vt 0.49756646156311035 0.7498553097248077
vt 0.49756646156311035 0.8751886785030365
vt 0.00043810857459902763 0.7498553097248077
vt 0.00043810857459902763 0.8751886785030365
vt 0.49756646156311035 0.7498553097248077
vt 0.49756646156311035 0.8751886785030365
vt 0.00043810857459902763 0.7498553097248077
vt 0.00043810857459902763 0.6900350451469421
vt 0.4626022279262543 0.7498553097248077
vt 0.00043810857459902763 0.7498553097248077
vt 0.49756646156311035 0.6900350451469421
vt 0.49756646156311035 0.7498553097248077
vt 0.03707461804151535 0.6900350451469421
vt 0.4626022279262543 0.6900350451469421
vt 0.00043810857459902763 0.7498553097248077
vt 0.49756646156311035 0.7498553097248077
vt 0.00043810857459902763 0.6900350451469421
vt 0.4626022279262543 0.6900350451469421
vt 0.00043810857459902763 0.7498553097248077
vt 0.00043810857459902763 0.8751886785030365
vt 0.49756646156311035 0.7498553097248077
vt 0.49756646156311035 0.8751886785030365
vt 0.00043810857459902763 0.7498553097248077
vt 0.00043810857459902763 0.9980000501964241
vt 0.49756646156311035 0.7498553097248077
vt 0.49756646156311035 0.9980000501964241
vt 0.00043810857459902763 0.8751886785030365
vt 0.00043810857459902763 0.7498553097248077
vt 0.49756646156311035 0.7498553097248077
vt 0.03707461804151535 0.6900350451469421
vt 0.49756646156311035 0.6900350451469421
vt 0.00043810857459902763 0.7498553097248077
vt 0.49756646156311035 0.8751886785030365
vt 0.00043810857459902763 0.7498553097248077
vt 0.49756646156311035 0.7498553097248077
vt 0.00043810857459902763 0.8751886785030365
vt 0.49756646156311035 0.6900350451469421
vt 0.3533205986022949 0.7498553097248077
vt 0.3533205986022949 0.6900350451469421
vt 0.49756646156311035 0.7498553097248077
vt 0.24858176708221436 0.8751886785030365
vt 0.00043810857459902763 0.7498553097248077
vt 0.24858176708221436 0.7498553097248077
vt 0.00043810857459902763 0.8751886785030365
vt 0.00043810857459902763 0.7498553097248077
vt 0.49756646156311035 0.6900350451469421
vt 0.49756646156311035 0.7498553097248077
vt 0.00043810857459902763 0.6900350451469421

g bg_mdl_map_yuka00
s 1
usemtl bg_mdl_map_yuka00_0
f 3/3/3 2/2/2 1/1/1 
f 4/4/4 1/1/1 2/2/2 
f 7/7/7 6/6/6 5/5/5 
f 9/9/9 8/8/8 5/5/5 
f 12/12/12 11/11/11 10/10/10 
f 15/15/15 14/14/14 13/13/13 
f 16/16/16 13/13/13 14/14/14 
f 19/19/19 18/18/18 17/17/17 
f 18/18/18 20/20/20 17/17/17 
f 23/23/23 22/22/22 21/21/21 
f 26/26/26 25/25/25 24/24/24 
f 27/27/27 24/24/24 25/25/25 
f 30/30/30 29/29/29 28/28/28 
f 31/31/31 28/28/28 29/29/29 
f 34/34/34 33/33/33 32/32/32 
f 35/35/35 32/32/32 33/33/33 
f 38/38/38 37/37/37 36/36/36 
f 39/39/39 36/36/36 37/37/37 
f 42/42/42 41/41/41 40/40/40 
f 43/43/43 40/40/40 41/41/41 
f 46/46/46 45/45/45 44/44/44 
f 47/47/47 44/44/44 45/45/45 
f 50/50/50 49/49/49 48/48/48 
f 51/51/51 48/48/48 49/49/49 
f 54/54/54 53/53/53 52/52/52 
f 55/55/55 52/52/52 53/53/53 
f 58/58/58 57/57/57 56/56/56 
f 59/59/59 56/56/56 57/57/57 
f 62/62/62 61/61/61 60/60/60 
f 63/63/63 60/60/60 61/61/61 
f 66/66/66 65/65/65 64/64/64 
f 67/67/67 64/64/64 65/65/65 
f 70/70/70 69/69/69 68/68/68 
f 71/71/71 68/68/68 69/69/69 
f 74/74/74 73/73/73 72/72/72 
f 75/75/75 72/72/72 73/73/73 
f 78/78/78 77/77/77 76/76/76 
f 79/79/79 76/76/76 77/77/77 
f 82/82/82 81/81/81 80/80/80 
f 83/83/83 80/80/80 81/81/81 
f 86/86/86 85/85/85 84/84/84 
f 87/87/87 84/84/84 85/85/85 
f 90/90/90 89/89/89 88/88/88 
f 91/91/91 88/88/88 89/89/89 
f 94/94/94 93/93/93 92/92/92 
f 95/95/95 92/92/92 93/93/93 
f 98/98/98 97/97/97 96/96/96 
f 99/99/99 96/96/96 97/97/97 
f 102/102/102 101/101/101 100/100/100 
f 103/103/103 100/100/100 101/101/101 
f 106/106/106 105/105/105 104/104/104 
f 107/107/107 104/104/104 105/105/105 
f 110/110/110 109/109/109 108/108/108 
f 111/111/111 108/108/108 109/109/109 
f 114/114/114 113/113/113 112/112/112 
f 115/115/115 112/112/112 113/113/113 
f 118/118/118 117/117/117 116/116/116 
f 119/119/119 116/116/116 117/117/117 
f 122/122/122 121/121/121 120/120/120 
f 123/123/123 120/120/120 121/121/121 
f 126/126/126 125/125/125 124/124/124 
f 129/129/129 128/128/128 127/127/127 
f 132/132/132 131/131/131 130/130/130 
f 133/133/133 130/130/130 131/131/131 
f 136/136/136 135/135/135 134/134/134 
f 137/137/137 134/134/134 135/135/135 
f 140/140/140 139/139/139 138/138/138 
f 141/141/141 138/138/138 139/139/139 
f 144/144/144 143/143/143 142/142/142 
f 145/145/145 142/142/142 143/143/143 
f 148/148/148 147/147/147 146/146/146 
f 149/149/149 146/146/146 147/147/147 
f 152/152/152 151/151/151 150/150/150 
f 153/153/153 150/150/150 151/151/151 
f 156/156/156 155/155/155 154/154/154 
f 157/157/157 154/154/154 155/155/155 
f 160/160/160 159/159/159 158/158/158 
f 161/161/161 158/158/158 159/159/159 
f 164/164/164 163/163/163 162/162/162 
f 165/165/165 162/162/162 163/163/163 
f 168/168/168 167/167/167 166/166/166 
f 169/169/169 166/166/166 167/167/167 
f 172/172/172 171/171/171 170/170/170 
f 173/173/173 170/170/170 171/171/171 
f 176/176/176 175/175/175 174/174/174 
f 177/177/177 174/174/174 175/175/175 
f 180/180/180 179/179/179 178/178/178 
f 181/181/181 178/178/178 179/179/179 
f 184/184/184 183/183/183 182/182/182 
f 185/185/185 182/182/182 183/183/183 
f 188/188/188 187/187/187 186/186/186 
f 189/189/189 186/186/186 187/187/187 
f 192/192/192 191/191/191 190/190/190 
f 193/193/193 190/190/190 191/191/191 
f 196/196/196 195/195/195 194/194/194 
f 197/197/197 194/194/194 195/195/195 
f 200/200/200 199/199/199 198/198/198 
f 201/201/201 198/198/198 199/199/199 

usemtl bg_mdl_map_yuka00_1
f 204/204/204 203/203/203 202/202/202 
f 205/205/205 202/202/202 203/203/203 
f 208/208/208 207/207/207 206/206/206 
f 209/209/209 206/206/206 207/207/207 

usemtl bg_mdl_map_yuka00_2
f 212/212/212 211/211/211 210/210/210 
f 213/213/213 210/210/210 211/211/211 
f 216/216/216 215/215/215 214/214/214 
f 217/217/217 214/214/214 215/215/215 
f 220/220/220 219/219/219 218/218/218 
f 218/218/218 219/219/219 221/221/221 
f 219/219/219 222/222/222 221/221/221 
f 223/223/223 222/222/222 219/219/219 
f 221/221/221 222/222/222 224/224/224 
f 227/227/227 226/226/226 225/225/225 
f 228/228/228 225/225/225 226/226/226 
f 231/231/231 230/230/230 229/229/229 
f 232/232/232 229/229/229 230/230/230 
f 235/235/235 234/234/234 233/233/233 
f 236/236/236 233/233/233 234/234/234 
f 239/239/239 238/238/238 237/237/237 
f 240/240/240 237/237/237 238/238/238 
f 243/243/243 242/242/242 241/241/241 
f 244/244/244 241/241/241 242/242/242 
f 247/247/247 246/246/246 245/245/245 
f 248/248/248 245/245/245 246/246/246 
f 251/251/251 250/250/250 249/249/249 
f 250/250/250 252/252/252 249/249/249 
f 252/252/252 253/253/253 249/249/249 
f 253/253/253 254/254/254 249/249/249 
f 249/249/249 254/254/254 255/255/255 
f 258/258/258 257/257/257 256/256/256 
f 259/259/259 256/256/256 257/257/257 
f 262/262/262 261/261/261 260/260/260 
f 263/263/263 260/260/260 261/261/261 
f 266/266/266 265/265/265 264/264/264 
f 265/265/265 267/267/267 264/264/264 
f 267/267/267 268/268/268 264/264/264 
f 269/269/269 268/268/268 267/267/267 
f 270/270/270 268/268/268 269/269/269 
f 273/273/273 272/272/272 271/271/271 
f 274/274/274 271/271/271 272/272/272 
f 277/277/277 276/276/276 275/275/275 
f 278/278/278 275/275/275 276/276/276 
f 281/281/281 280/280/280 279/279/279 
f 282/282/282 279/279/279 280/280/280 
f 285/285/285 284/284/284 283/283/283 
f 286/286/286 283/283/283 284/284/284 
f 289/289/289 288/288/288 287/287/287 
f 290/290/290 287/287/287 288/288/288 
f 293/293/293 292/292/292 291/291/291 
f 294/294/294 291/291/291 292/292/292 
f 297/297/297 296/296/296 295/295/295 
f 296/296/296 298/298/298 295/295/295 
f 295/295/295 298/298/298 299/299/299 
f 298/298/298 300/300/300 299/299/299 
f 303/303/303 302/302/302 301/301/301 
f 304/304/304 301/301/301 302/302/302 
f 307/307/307 306/306/306 305/305/305 
f 308/308/308 305/305/305 306/306/306 
f 311/311/311 310/310/310 309/309/309 
f 312/312/312 309/309/309 310/310/310 
f 315/315/315 314/314/314 313/313/313 
f 316/316/316 313/313/313 314/314/314 
f 319/319/319 318/318/318 317/317/317 
f 320/320/320 317/317/317 318/318/318 
f 323/323/323 322/322/322 321/321/321 
f 321/321/321 322/322/322 324/324/324 
f 322/322/322 325/325/325 324/324/324 
f 328/328/328 327/327/327 326/326/326 
f 329/329/329 326/326/326 327/327/327 
f 332/332/332 331/331/331 330/330/330 
f 333/333/333 330/330/330 331/331/331 
f 336/336/336 335/335/335 334/334/334 
f 337/337/337 334/334/334 335/335/335 
f 340/340/340 339/339/339 338/338/338 
f 341/341/341 338/338/338 339/339/339 
f 344/344/344 343/343/343 342/342/342 
f 343/343/343 345/345/345 342/342/342 
f 342/342/342 345/345/345 346/346/346 
f 349/349/349 348/348/348 347/347/347 
f 347/347/347 348/348/348 350/350/350 
f 350/350/350 348/348/348 351/351/351 
f 351/351/351 348/348/348 352/352/352 
f 355/355/355 354/354/354 353/353/353 
f 356/356/356 353/353/353 354/354/354 
f 359/359/359 358/358/358 357/357/357 
f 360/360/360 357/357/357 358/358/358 
f 363/363/363 362/362/362 361/361/361 
f 364/364/364 361/361/361 362/362/362 
f 367/367/367 366/366/366 365/365/365 
f 368/368/368 365/365/365 366/366/366 
f 371/371/371 370/370/370 369/369/369 
f 372/372/372 369/369/369 370/370/370 
f 375/375/375 374/374/374 373/373/373 
f 376/376/376 373/373/373 374/374/374 
f 379/379/379 378/378/378 377/377/377 
f 380/380/380 377/377/377 378/378/378 
f 383/383/383 382/382/382 381/381/381 
f 385/385/385 384/384/384 382/382/382 
f 384/384/384 386/386/386 381/381/381 
f 389/389/389 388/388/388 387/387/387 
f 392/392/392 391/391/391 390/390/390 
f 391/391/391 393/393/393 390/390/390 
f 393/393/393 394/394/394 390/390/390 
f 397/397/397 396/396/396 395/395/395 
f 398/398/398 395/395/395 396/396/396 
f 401/401/401 400/400/400 399/399/399 
f 402/402/402 399/399/399 400/400/400 
f 405/405/405 404/404/404 403/403/403 
f 406/406/406 403/403/403 404/404/404 
f 409/409/409 408/408/408 407/407/407 
f 410/410/410 407/407/407 408/408/408 
f 413/413/413 412/412/412 411/411/411 
f 414/414/414 411/411/411 412/412/412 
f 417/417/417 416/416/416 415/415/415 
f 418/418/418 415/415/415 416/416/416 
f 421/421/421 420/420/420 419/419/419 
f 422/422/422 419/419/419 420/420/420 
f 425/425/425 424/424/424 423/423/423 
f 426/426/426 423/423/423 424/424/424 
f 429/429/429 428/428/428 427/427/427 
f 430/430/430 427/427/427 428/428/428 
f 433/433/433 432/432/432 431/431/431 
f 434/434/434 431/431/431 432/432/432 
f 437/437/437 436/436/436 435/435/435 
f 438/438/438 435/435/435 436/436/436 
f 441/441/441 440/440/440 439/439/439 
f 442/442/442 439/439/439 440/440/440 
f 445/445/445 444/444/444 443/443/443 
f 446/446/446 443/443/443 444/444/444 
f 449/449/449 448/448/448 447/447/447 
f 450/450/450 447/447/447 448/448/448 
f 453/453/453 452/452/452 451/451/451 
f 454/454/454 451/451/451 452/452/452 
f 457/457/457 456/456/456 455/455/455 
f 458/458/458 455/455/455 456/456/456 
f 461/461/461 460/460/460 459/459/459 
f 462/462/462 459/459/459 460/460/460 
f 465/465/465 464/464/464 463/463/463 
f 466/466/466 463/463/463 464/464/464 
f 469/469/469 468/468/468 467/467/467 
f 470/470/470 467/467/467 468/468/468 
f 473/473/473 472/472/472 471/471/471 
f 474/474/474 471/471/471 472/472/472 
f 477/477/477 476/476/476 475/475/475 
f 478/478/478 475/475/475 476/476/476 
f 481/481/481 480/480/480 479/479/479 
f 482/482/482 479/479/479 480/480/480 
f 485/485/485 484/484/484 483/483/483 
f 486/486/486 483/483/483 484/484/484 
f 489/489/489 488/488/488 487/487/487 
f 490/490/490 487/487/487 488/488/488 
f 493/493/493 492/492/492 491/491/491 
f 494/494/494 491/491/491 492/492/492 
f 497/497/497 496/496/496 495/495/495 
f 498/498/498 495/495/495 496/496/496 

usemtl bg_mdl_map_yuka00_3
f 501/501/501 500/500/500 499/499/499 
f 502/502/502 499/499/499 500/500/500 
f 505/505/505 504/504/504 503/503/503 
f 506/506/506 503/503/503 504/504/504 
f 509/509/509 508/508/508 507/507/507 
f 510/510/510 507/507/507 508/508/508 
f 513/513/513 512/512/512 511/511/511 
f 514/514/514 511/511/511 512/512/512 
f 517/517/517 516/516/516 515/515/515 
f 518/518/518 515/515/515 516/516/516 
f 521/521/521 520/520/520 519/519/519 
f 522/522/522 519/519/519 520/520/520 
f 525/525/525 524/524/524 523/523/523 
f 526/526/526 523/523/523 524/524/524 
f 529/529/529 528/528/528 527/527/527 
f 530/530/530 527/527/527 528/528/528 
f 533/533/533 532/532/532 531/531/531 
f 534/534/534 531/531/531 532/532/532 
f 537/537/537 536/536/536 535/535/535 
f 538/538/538 535/535/535 536/536/536 
f 231/231/231 539/539/539 230/230/230 
f 540/540/540 230/230/230 539/539/539 
f 543/543/543 542/542/542 541/541/541 
f 544/544/544 541/541/541 542/542/542 
f 547/547/547 546/546/546 545/545/545 
f 550/550/550 549/549/549 548/548/548 
f 551/551/551 548/548/548 549/549/549 
f 554/554/554 553/553/553 552/552/552 
f 555/555/555 552/552/552 553/553/553 
f 553/553/553 556/556/556 555/555/555 
f 556/556/556 557/557/557 555/555/555 
f 557/557/557 558/558/558 555/555/555 
f 561/561/561 560/560/560 559/559/559 
f 562/562/562 559/559/559 560/560/560 
f 565/565/565 564/564/564 563/563/563 
f 566/566/566 563/563/563 564/564/564 
f 569/569/569 568/568/568 567/567/567 
f 570/570/570 567/567/567 568/568/568 
f 573/573/573 572/572/572 571/571/571 
f 572/572/572 573/573/573 574/574/574 
f 575/575/575 574/574/574 573/573/573 
f 578/578/578 577/577/577 576/576/576 
f 579/579/579 576/576/576 577/577/577 
f 582/582/582 581/581/581 580/580/580 
f 583/583/583 580/580/580 581/581/581 
f 586/586/586 585/585/585 584/584/584 
f 587/587/587 584/584/584 585/585/585 
f 590/590/590 589/589/589 588/588/588 
f 593/593/593 592/592/592 591/591/591 
f 594/594/594 591/591/591 592/592/592 
f 592/592/592 593/593/593 595/595/595 
f 598/598/598 597/597/597 596/596/596 
f 599/599/599 596/596/596 597/597/597 
f 602/602/602 601/601/601 600/600/600 
f 603/603/603 600/600/600 601/601/601 
f 606/606/606 605/605/605 604/604/604 
f 607/607/607 604/604/604 605/605/605 
f 610/610/610 609/609/609 608/608/608 
f 611/611/611 608/608/608 609/609/609 
f 614/614/614 613/613/613 612/612/612 
f 615/615/615 612/612/612 613/613/613 
f 618/618/618 617/617/617 616/616/616 
f 619/619/619 616/616/616 617/617/617 
f 622/622/622 621/621/621 620/620/620 
f 623/623/623 620/620/620 621/621/621 
f 626/626/626 625/625/625 624/624/624 
f 627/627/627 624/624/624 625/625/625 
f 630/630/630 629/629/629 628/628/628 
f 631/631/631 628/628/628 629/629/629 
f 634/634/634 633/633/633 632/632/632 
f 635/635/635 632/632/632 633/633/633 
f 633/633/633 634/634/634 636/636/636 
f 637/637/637 636/636/636 634/634/634 
f 640/640/640 639/639/639 638/638/638 
f 639/639/639 641/641/641 638/638/638 
f 638/638/638 641/641/641 642/642/642 
f 645/645/645 644/644/644 643/643/643 
f 646/646/646 643/643/643 644/644/644 
f 649/649/649 648/648/648 647/647/647 
f 650/650/650 647/647/647 648/648/648 
f 653/653/653 652/652/652 651/651/651 
f 651/651/651 652/652/652 654/654/654 
f 654/654/654 652/652/652 655/655/655 
f 658/658/658 657/657/657 656/656/656 
f 657/657/657 659/659/659 656/656/656 
f 659/659/659 657/657/657 660/660/660 
f 663/663/663 662/662/662 661/661/661 
f 666/666/666 665/665/665 664/664/664 
f 667/667/667 664/664/664 665/665/665 
f 670/670/670 669/669/669 668/668/668 
f 671/671/671 668/668/668 669/669/669 
f 674/674/674 673/673/673 672/672/672 
f 675/675/675 672/672/672 673/673/673 
f 678/678/678 677/677/677 676/676/676 
f 679/679/679 676/676/676 677/677/677 
f 682/682/682 681/681/681 680/680/680 
f 683/683/683 680/680/680 681/681/681 
f 686/686/686 685/685/685 684/684/684 
f 687/687/687 684/684/684 685/685/685 
f 690/690/690 689/689/689 688/688/688 
f 691/691/691 688/688/688 689/689/689 
f 694/694/694 693/693/693 692/692/692 
f 695/695/695 692/692/692 693/693/693 
f 698/698/698 697/697/697 696/696/696 
f 699/699/699 696/696/696 697/697/697 
f 702/702/702 701/701/701 700/700/700 
f 703/703/703 700/700/700 701/701/701 
f 706/706/706 705/705/705 704/704/704 
f 704/704/704 705/705/705 707/707/707 
f 705/705/705 708/708/708 707/707/707 
f 711/711/711 710/710/710 709/709/709 
f 712/712/712 709/709/709 710/710/710 
f 715/715/715 714/714/714 713/713/713 
f 716/716/716 713/713/713 714/714/714 
f 719/719/719 718/718/718 717/717/717 
f 720/720/720 717/717/717 718/718/718 
f 723/723/723 722/722/722 721/721/721 
f 724/724/724 721/721/721 722/722/722 
f 727/727/727 726/726/726 725/725/725 
f 728/728/728 725/725/725 726/726/726 

