v -0.1137135848402977 0.588688313961029 0.11057160794734955
v -0.010452301241457462 0.5976998209953308 0.1194688230752945
v -0.09312364459037781 0.588688313961029 -0.12839332222938538
v 0.010452029295265675 0.5976998209953308 -0.11946883052587509
v -0.21356187760829926 0.5616540312767029 0.10277734696865082
v -0.19391530752182007 0.5616540312767029 -0.1362670361995697
v -0.2889759838581085 0.5176838040351868 -0.14215216040611267
v -0.3070875406265259 0.5176838636398315 0.09701337665319443
v -0.39134708046913147 0.45786452293395996 0.09399301558732986
v -0.3753250539302826 0.45786452293395996 -0.1453215777873993
v -0.45047369599342346 0.38423895835876465 -0.14541244506835938
v -0.463922381401062 0.38423895835876465 0.09406053274869919
v -0.5223618149757385 0.298849880695343 0.09723260998725891
v -0.5118997097015381 0.2988499104976654 -0.1423894613981247
v -0.5578905940055847 0.2044493556022644 -0.13663683831691742
v -0.5650491714477539 0.2044493407011032 0.10310667008161545
v -0.5903692841529846 0.10378947854042053 0.11099199205636978
v -0.5867347717285156 0.10378947108983994 -0.12883082032203674
v -0.597770094871521 -4.291534239087014e-08 -0.11992519348859787
v -0.597770094871521 -3.814696825088504e-08 0.1199251338839531
v -0.5867348313331604 -0.10378951579332352 0.12883077561855316
v -0.5903693437576294 -0.1037895455956459 -0.11099202185869217
v -0.5650492310523987 -0.2044493407011032 -0.10310669988393784
v -0.5578906536102295 -0.2044493407011032 0.13663679361343384
v -0.5118997693061829 -0.2988499402999878 0.1423894315958023
v -0.5223618745803833 -0.2988499402999878 -0.0972326248884201
v -0.4639224410057068 -0.3842391073703766 -0.09406059980392456
v -0.450473815202713 -0.3842391073703766 0.14541243016719818
v -0.37532514333724976 -0.4578646719455719 0.14532151818275452
v -0.391347199678421 -0.4578646719455719 -0.09399306774139404
v -0.30708765983581543 -0.5176839232444763 -0.0970134362578392
v -0.28897613286972046 -0.5176839232444763 0.14215204119682312
v -0.19391551613807678 -0.5616542100906372 0.13626694679260254
v -0.21356207132339478 -0.5616542100906372 -0.10277734696865082
v -0.1137138232588768 -0.5886884927749634 -0.11057162284851074
v -0.09312388300895691 -0.5886884927749634 0.1283932626247406
v 0.010451757349073887 -0.5976999402046204 0.11946877837181091
v -0.010452574118971825 -0.5976999998092651 -0.1194688230752945
v 0.09312310069799423 -0.5886886715888977 -0.12839330732822418
v 0.11371304839849472 -0.5886885523796082 0.11057160794734955
v 0.21356137096881866 -0.5616543292999268 0.10277730971574783
v 0.19391481578350067 -0.5616544485092163 -0.1362670361995697
v 0.2889755070209503 -0.5176842212677002 -0.14215216040611267
v 0.3070870637893677 -0.5176842212677002 0.09701337665319443
v 0.39134669303894043 -0.45786505937576294 0.09399301558732986
v 0.37532463669776917 -0.45786505937576294 -0.1453215777873993
v 0.4504733979701996 -0.3842395842075348 -0.14541245996952057
v 0.46392199397087097 -0.3842394948005676 0.09406057000160217
v 0.5223614573478699 -0.298850417137146 0.09723256528377533
v 0.5118993520736694 -0.2988504469394684 -0.14238949120044708
v 0.5578901767730713 -0.2044498324394226 -0.1366368681192398
v 0.5650488138198853 -0.2044498175382614 0.10310663282871246
v 0.5903690457344055 -0.10378982126712799 0.11099191755056381
v 0.5867345333099365 -0.10378985106945038 -0.12883085012435913
v 0.5977698564529419 -1.8596647066715377e-07 -0.11992520838975906
v 0.5977698564529419 -1.7166136956348055e-07 0.11992509663105011
v 0.5867346525192261 0.10378940403461456 0.12883080542087555
v 0.5903691649436951 0.10378935933113098 -0.11099202930927277
v 0.5650490522384644 0.20444925129413605 -0.10310670733451843
v 0.5578904747962952 0.20444928109645844 0.13663679361343384
v 0.5118995308876038 0.29884985089302063 0.1423894315958023
v 0.5223616361618042 0.29884982109069824 -0.0972326472401619
v 0.4639221429824829 0.38423895835876465 -0.09406062960624695
v 0.45047351717948914 0.38423895835876465 0.1454123854637146
v 0.3753248155117035 0.45786452293395996 0.1453215628862381
v 0.39134684205055237 0.45786452293395996 -0.09399308264255524
v 0.3070873022079468 0.5176838636398315 -0.09701341390609741
v 0.2889757752418518 0.5176838040351868 0.14215216040611267
v 0.19391508400440216 0.5616540312767029 0.1362670361995697
v 0.21356163918972015 0.5616540312767029 -0.10277734696865082
v 0.113713338971138 0.588688313961029 -0.11057163029909134
v 0.09312339872121811 0.588688313961029 0.12839330732822418
v -0.010452301241457462 0.5976998209953308 0.1194688230752945
v 0.010452029295265675 0.5976998209953308 -0.11946883052587509
vn 0.17386917769908905 -0.9846547842025757 0.014981094747781754
vn 0.00013459892943501472 -1.0 1.1607081432885025e-05
vn 0.17251747846603394 -0.9848992824554443 0.014528052881360054
vn -0.0002026339789154008 -1.0 -1.772856921888888e-05
vn 0.3424714505672455 -0.9391254782676697 0.027504708617925644
vn 0.3383088707923889 -0.9406242966651917 0.027804909273982048
vn 0.4957294464111328 -0.8676997423171997 0.0367361381649971
vn 0.5035642385482788 -0.8631158471107483 0.038134198635816574
vn 0.6456231474876404 -0.7624929547309875 0.04213383048772812
vn 0.6343689560890198 -0.7718628644943237 0.04247079789638519
vn 0.7599247097969055 -0.6486560702323914 0.04195048660039902
vn 0.7733263373374939 -0.632519006729126 0.043429598212242126
vn 0.8701374530792236 -0.4914366900920868 0.03675227612257004
vn 0.8568935394287109 -0.514133870601654 0.03741268068552017
vn 0.9352806806564331 -0.35281121730804443 0.027827519923448563
vn 0.9458710551261902 -0.3233112692832947 0.028242921456694603
vn 0.9868255257606506 -0.16118326783180237 0.013979032635688782
vn 0.980765163898468 -0.19462476670742035 0.014863409101963043
vn 0.9999144077301025 -0.013066529296338558 0.0006808715406805277
vn 0.9997536540031433 0.022194990888237953 0.0
vn 0.9824280142784119 0.18602176010608673 -0.015197638422250748
vn 0.9882138967514038 0.15234467387199402 -0.014976300299167633
vn 0.9432170391082764 0.33107879757881165 -0.02699020504951477
vn 0.9324626922607422 0.36019167304039 -0.027842730283737183
vn 0.8603183627128601 0.5084044933319092 -0.03711218386888504
vn 0.8735147714614868 0.4853011667728424 -0.038138438016176224
vn 0.7698902487754822 0.6367918848991394 -0.04201263561844826
vn 0.7565054893493652 0.6526058912277222 -0.0424848310649395
vn 0.6372523307800293 0.7695189714431763 -0.0418335422873497
vn 0.6485203504562378 0.7599580883979797 -0.04341822490096092
vn 0.501578688621521 0.8643173575401306 -0.03707238286733627
vn 0.49371424317359924 0.868820071220398 -0.037388015538454056
vn 0.33938828110694885 0.9402506351470947 -0.027281520888209343
vn 0.34349074959754944 0.9387316107749939 -0.028230784460902214
vn 0.17355921864509583 0.9847150444984436 -0.014613104052841663
vn 0.17215757071971893 0.9849576950073242 -0.014833619818091393
vn -0.00013411566033028066 1.0 1.136486025643535e-05
vn 0.00020337193564046174 1.0 -1.8113021724275313e-05
vn -0.17251668870449066 0.9848994016647339 0.014527679421007633
vn -0.17386844754219055 0.9846549034118652 0.014980725012719631
vn -0.34247076511383057 0.9391258358955383 0.02750437520444393
vn -0.33830806612968445 0.9406245350837708 0.027804555371403694
vn -0.49572864174842834 0.8677002191543579 0.036735936999320984
vn -0.5035631060600281 0.863116443157196 0.038133881986141205
vn -0.6456224322319031 0.7624935507774353 0.042133551090955734
vn -0.6343681216239929 0.771863579750061 0.042470838874578476
vn -0.7599244117736816 0.6486562490463257 0.04195040464401245
vn -0.7733262181282043 0.6325192451477051 0.043429140001535416
vn -0.8701374530792236 0.4914366900920868 0.036752235144376755
vn -0.8568938970565796 0.5141334533691406 0.03741270676255226
vn -0.9352805614471436 0.35281142592430115 0.027827583253383636
vn -0.9458709955215454 0.32331153750419617 0.028243213891983032
vn -0.9868254065513611 0.16118383407592773 0.013979126699268818
vn -0.9807649254798889 0.1946256011724472 0.014863370917737484
vn -0.9999144077301025 0.013067016378045082 0.0006808720645494759
vn -0.9997536540031433 -0.022194476798176765 0.0
vn -0.9824281334877014 -0.18602167069911957 -0.01519760861992836
vn -0.9882140159606934 -0.15234453976154327 -0.014976253733038902
vn -0.9432169198989868 -0.3310792148113251 -0.026990139856934547
vn -0.9324626326560974 -0.3601921498775482 -0.027842668816447258
vn -0.8603180050849915 -0.5084049105644226 -0.03711213544011116
vn -0.8735145926475525 -0.485301673412323 -0.03813837841153145
vn -0.7698901891708374 -0.6367920637130737 -0.04201260581612587
vn -0.7565054297447205 -0.6526060700416565 -0.042484816163778305
vn -0.6372522115707397 -0.7695191502571106 -0.041833631694316864
vn -0.6485204100608826 -0.7599579095840454 -0.04341820627450943
vn -0.5015785098075867 -0.8643173575401306 -0.03707243874669075
vn -0.4937140941619873 -0.8688201308250427 -0.037388261407613754
vn -0.33938807249069214 -0.9402507543563843 -0.02728160098195076
vn -0.34349024295806885 -0.938731849193573 -0.028230758383870125
vn -0.17355884611606598 -0.9847151041030884 -0.014612955041229725
vn -0.17215749621391296 -0.9849576950073242 -0.014833610504865646
vn 0.00013459892943501472 -1.0 1.1607081432885025e-05
vn -0.0002026339789154008 -1.0 -1.772856921888888e-05
vt 0.027780959382653236 0.0004994869232177734
vt -5.960464477539063e-08 0.0004994869232177734
vt 0.027780959382653236 0.9995002746582031
vt -5.960464477539063e-08 0.9995002746582031
vt 0.05556153878569603 0.0004994869232177734
vt 0.05556153878569603 0.9995002746582031
vt 0.08334139734506607 0.9995002746582031
vt 0.08334139734506607 0.0004996061325073242
vt 0.11112030595541 0.0004996061325073242
vt 0.11112030595541 0.9995003342628479
vt 0.1388980746269226 0.9995003342628479
vt 0.1388980746269226 0.0004996061325073242
vt 0.16667470335960388 0.0004994869232177734
vt 0.16667470335960388 0.9995003342628479
vt 0.19445039331912994 0.9995003342628479
vt 0.19445039331912994 0.0004994869232177734
vt 0.2222253531217575 0.0004994869232177734
vt 0.2222253531217575 0.9995003342628479
vt 0.24999995529651642 0.9995003342628479
vt 0.24999995529651642 0.0004996061325073242
vt 0.27777451276779175 0.0004996061325073242
vt 0.27777454257011414 0.9995003342628479
vt 0.3055494725704193 0.9995003342628479
vt 0.3055494725704193 0.0004996061325073242
vt 0.33332520723342896 0.0004996061325073242
vt 0.33332520723342896 0.9995003342628479
vt 0.36110183596611023 0.9995003342628479
vt 0.36110183596611023 0.0004996061325073242
vt 0.3888796269893646 0.0004996061325073242
vt 0.3888796269893646 0.9995003342628479
vt 0.416658490896225 0.9995003938674927
vt 0.416658490896225 0.0004998445510864258
vt 0.4444383382797241 0.0004998445510864258
vt 0.4444383382797241 0.9995003938674927
vt 0.47221893072128296 0.9995003938674927
vt 0.47221893072128296 0.0004998445510864258
vt 0.49999988079071045 0.0004998445510864258
vt 0.49999988079071045 0.9995003938674927
vt 0.5277808308601379 0.9995003938674927
vt 0.5277808308601379 0.0004996061325073242
vt 0.5555614829063416 0.0004996061325073242
vt 0.5555614233016968 0.9995003938674927
vt 0.5833413004875183 0.9995003938674927
vt 0.5833413004875183 0.0004996061325073242
vt 0.6111201643943787 0.0004996061325073242
vt 0.6111201643943787 0.9995003938674927
vt 0.6388978958129883 0.9995003938674927
vt 0.6388980150222778 0.0004996061325073242
vt 0.6666745543479919 0.0004996061325073242
vt 0.6666745543479919 0.9995003342628479
vt 0.6944502592086792 0.9995003342628479
vt 0.6944502592086792 0.0004996061325073242
vt 0.7222253084182739 0.0004996061325073242
vt 0.7222253084182739 0.9995003342628479
vt 0.75 0.9995003342628479
vt 0.75 0.0004996061325073242
vt 0.7777745723724365 0.0004994869232177734
vt 0.7777745723724365 0.9995003342628479
vt 0.8055495023727417 0.9995003342628479
vt 0.8055495023727417 0.0004994869232177734
vt 0.8333252668380737 0.0004994869232177734
vt 0.8333251476287842 0.9995003342628479
vt 0.8611018657684326 0.9995003342628479
vt 0.8611018657684326 0.0004994869232177734
vt 0.888879656791687 0.0004994869232177734
vt 0.888879656791687 0.9995002746582031
vt 0.9166585803031921 0.9995002746582031
vt 0.9166585803031921 0.0004994869232177734
vt 0.9444384574890137 0.0004994869232177734
vt 0.9444384574890137 0.9995002746582031
vt 0.972218930721283 0.9995002746582031
vt 0.972218930721283 0.0004994869232177734
vt 0.9999999403953552 0.0004994869232177734
vt 0.9999999403953552 0.9995002746582031

g eff_mdl_thorn00
s 1
usemtl eff_mdl_thorn00
f 3/3/3 2/2/2 1/1/1 
f 2/2/2 3/3/3 4/4/4 
f 5/5/5 3/3/3 1/1/1 
f 3/3/3 5/5/5 6/6/6 
f 5/5/5 7/7/7 6/6/6 
f 7/7/7 5/5/5 8/8/8 
f 9/9/9 7/7/7 8/8/8 
f 7/7/7 9/9/9 10/10/10 
f 9/9/9 11/11/11 10/10/10 
f 11/11/11 9/9/9 12/12/12 
f 13/13/13 11/11/11 12/12/12 
f 11/11/11 13/13/13 14/14/14 
f 13/13/13 15/15/15 14/14/14 
f 15/15/15 13/13/13 16/16/16 
f 17/17/17 15/15/15 16/16/16 
f 15/15/15 17/17/17 18/18/18 
f 17/17/17 19/19/19 18/18/18 
f 19/19/19 17/17/17 20/20/20 
f 21/21/21 19/19/19 20/20/20 
f 19/19/19 21/21/21 22/22/22 
f 21/21/21 23/23/23 22/22/22 
f 23/23/23 21/21/21 24/24/24 
f 25/25/25 23/23/23 24/24/24 
f 23/23/23 25/25/25 26/26/26 
f 25/25/25 27/27/27 26/26/26 
f 27/27/27 25/25/25 28/28/28 
f 29/29/29 27/27/27 28/28/28 
f 27/27/27 29/29/29 30/30/30 
f 29/29/29 31/31/31 30/30/30 
f 31/31/31 29/29/29 32/32/32 
f 33/33/33 31/31/31 32/32/32 
f 31/31/31 33/33/33 34/34/34 
f 33/33/33 35/35/35 34/34/34 
f 35/35/35 33/33/33 36/36/36 
f 37/37/37 35/35/35 36/36/36 
f 35/35/35 37/37/37 38/38/38 
f 37/37/37 39/39/39 38/38/38 
f 39/39/39 37/37/37 40/40/40 
f 41/41/41 39/39/39 40/40/40 
f 39/39/39 41/41/41 42/42/42 
f 41/41/41 43/43/43 42/42/42 
f 43/43/43 41/41/41 44/44/44 
f 45/45/45 43/43/43 44/44/44 
f 43/43/43 45/45/45 46/46/46 
f 45/45/45 47/47/47 46/46/46 
f 47/47/47 45/45/45 48/48/48 
f 49/49/49 47/47/47 48/48/48 
f 47/47/47 49/49/49 50/50/50 
f 49/49/49 51/51/51 50/50/50 
f 51/51/51 49/49/49 52/52/52 
f 53/53/53 51/51/51 52/52/52 
f 51/51/51 53/53/53 54/54/54 
f 53/53/53 55/55/55 54/54/54 
f 55/55/55 53/53/53 56/56/56 
f 57/57/57 55/55/55 56/56/56 
f 55/55/55 57/57/57 58/58/58 
f 57/57/57 59/59/59 58/58/58 
f 59/59/59 57/57/57 60/60/60 
f 61/61/61 59/59/59 60/60/60 
f 59/59/59 61/61/61 62/62/62 
f 61/61/61 63/63/63 62/62/62 
f 63/63/63 61/61/61 64/64/64 
f 65/65/65 63/63/63 64/64/64 
f 63/63/63 65/65/65 66/66/66 
f 65/65/65 67/67/67 66/66/66 
f 67/67/67 65/65/65 68/68/68 
f 69/69/69 67/67/67 68/68/68 
f 67/67/67 69/69/69 70/70/70 
f 69/69/69 71/71/71 70/70/70 
f 71/71/71 69/69/69 72/72/72 
f 73/73/73 71/71/71 72/72/72 
f 71/71/71 73/73/73 74/74/74 

