v -0.022132225334644318 0.011571475304663181 -0.005781719461083412
v -0.3131873309612274 -0.01157157588750124 -0.005781719461083412
v -0.022132225334644318 -0.011571463197469711 -0.005781719461083412
v -0.3131873309612274 0.011571361683309078 -0.005781719461083412
v -0.022132225334644318 0.011571475304663181 0.005665359552949667
v -0.3131873309612274 -0.01157157588750124 0.0056653497740626335
v -0.3131873309612274 0.011571361683309078 0.0056653497740626335
v -0.022132225334644318 -0.011571463197469711 0.005665359552949667
v -0.022132225334644318 0.011571475304663181 -0.005781719461083412
v -0.3131873309612274 0.011571361683309078 0.0056653497740626335
v -0.3131873309612274 0.011571361683309078 -0.005781719461083412
v -0.022132225334644318 0.011571475304663181 0.005665359552949667
v -0.3131873309612274 0.011571361683309078 -0.005781719461083412
v -0.3131873309612274 -0.01157157588750124 0.0056653497740626335
v -0.3131873309612274 -0.01157157588750124 -0.005781719461083412
v -0.3131873309612274 0.011571361683309078 0.0056653497740626335
v -0.3131873309612274 -0.01157157588750124 -0.005781719461083412
v -0.022132225334644318 -0.011571463197469711 0.005665359552949667
v -0.022132225334644318 -0.011571463197469711 -0.005781719461083412
v -0.3131873309612274 -0.01157157588750124 0.0056653497740626335
v -0.022132225334644318 -0.011571463197469711 -0.005781719461083412
v -0.022132225334644318 0.011571475304663181 0.005665359552949667
v -0.022132225334644318 0.011571475304663181 -0.005781719461083412
v -0.022132225334644318 -0.011571463197469711 0.005665359552949667
v -0.011678066104650497 0.029954006895422935 -0.038905832916498184
v -0.027331465855240822 -0.02995399199426174 -0.038905829191207886
v -0.011678027920424938 -0.029953986406326294 -0.038905832916498184
v -0.027331504970788956 0.029954001307487488 -0.038905829191207886
v -0.011678066104650497 0.029954006895422935 0.04410358890891075
v -0.027331465855240822 -0.02995399199426174 0.04410358890891075
v -0.027331504970788956 0.029954001307487488 0.04410358890891075
v -0.011678027920424938 -0.029953986406326294 0.04410358890891075
v -0.011678066104650497 0.029954006895422935 -0.038905832916498184
v -0.027331504970788956 0.029954001307487488 0.04410358890891075
v -0.027331504970788956 0.029954001307487488 -0.038905829191207886
v -0.011678066104650497 0.029954006895422935 0.04410358890891075
v -0.027331504970788956 0.029954001307487488 -0.038905829191207886
v -0.027331465855240822 -0.02995399199426174 0.04410358890891075
v -0.027331465855240822 -0.02995399199426174 -0.038905829191207886
v -0.027331504970788956 0.029954001307487488 0.04410358890891075
v -0.027331465855240822 -0.02995399199426174 -0.038905829191207886
v -0.011678027920424938 -0.029953986406326294 0.04410358890891075
v -0.011678027920424938 -0.029953986406326294 -0.038905832916498184
v -0.027331465855240822 -0.02995399199426174 0.04410358890891075
v -0.1950167566537857 0.05679415911436081 -0.3239036500453949
v -0.31120169162750244 -0.05679432675242424 -0.3239036500453949
v -0.19501672685146332 -0.05679428577423096 -0.3239036500453949
v -0.3112017512321472 0.056794118136167526 -0.3239036500453949
v -0.2213885635137558 0.03101169504225254 0.015080675482749939
v -0.28482988476753235 -0.03101186268031597 0.015080675482749939
v -0.28482988476753235 0.0310116708278656 0.015080675482749939
v -0.2213885486125946 -0.03101183846592903 0.015080675482749939
v -0.20132878422737122 0.05062318593263626 -0.29025906324386597
v -0.3202851414680481 0.06567450612783432 -0.13687612116336823
v -0.3048897087574005 0.05062314495444298 -0.29025906324386597
v -0.18593338131904602 0.0656745582818985 -0.13687612116336823
v -0.3048897087574005 0.05062314495444298 -0.29025906324386597
v -0.32028505206108093 -0.06567472964525223 -0.13687612116336823
v -0.3048896789550781 -0.05062335357069969 -0.29025906324386597
v -0.3202851414680481 0.06567450612783432 -0.13687612116336823
v -0.3048896789550781 -0.05062335357069969 -0.29025906324386597
v -0.18593332171440125 -0.06567467749118805 -0.13687612116336823
v -0.20132875442504883 -0.05062331259250641 -0.29025906324386597
v -0.32028505206108093 -0.06567472964525223 -0.13687612116336823
v -0.20132875442504883 -0.05062331259250641 -0.29025906324386597
v -0.18593338131904602 0.0656745582818985 -0.13687612116336823
v -0.20132878422737122 0.05062318593263626 -0.29025906324386597
v -0.18593332171440125 -0.06567467749118805 -0.13687612116336823
v -0.18593338131904602 0.0656745582818985 -0.13687612116336823
v -0.3465074598789215 0.0913107767701149 -0.13318605720996857
v -0.3202851414680481 0.06567450612783432 -0.13687612116336823
v -0.1597110778093338 0.09131084382534027 -0.13318605720996857
v -0.3202851414680481 0.06567450612783432 -0.13687612116336823
v -0.34650737047195435 -0.0913110226392746 -0.13318605720996857
v -0.32028505206108093 -0.06567472964525223 -0.13687612116336823
v -0.3465074598789215 0.0913107767701149 -0.13318605720996857
v -0.32028505206108093 -0.06567472964525223 -0.13687612116336823
v -0.15971098840236664 -0.09131095558404922 -0.13318605720996857
v -0.18593332171440125 -0.06567467749118805 -0.13687612116336823
v -0.34650737047195435 -0.0913110226392746 -0.13318605720996857
v -0.18593332171440125 -0.06567467749118805 -0.13687612116336823
v -0.1597110778093338 0.09131084382534027 -0.13318605720996857
v -0.18593338131904602 0.0656745582818985 -0.13687612116336823
v -0.15971098840236664 -0.09131095558404922 -0.13318605720996857
v -0.1597110778093338 0.09131084382534027 -0.13318605720996857
v -0.28482988476753235 0.0310116708278656 -0.015230553224682808
v -0.3465074598789215 0.0913107767701149 -0.13318605720996857
v -0.2213885635137558 0.03101169504225254 -0.015230553224682808
v -0.3465074598789215 0.0913107767701149 -0.13318605720996857
v -0.28482988476753235 -0.03101186268031597 -0.015230553224682808
v -0.34650737047195435 -0.0913110226392746 -0.13318605720996857
v -0.28482988476753235 0.0310116708278656 -0.015230553224682808
v -0.34650737047195435 -0.0913110226392746 -0.13318605720996857
v -0.2213885486125946 -0.03101183846592903 -0.015230553224682808
v -0.15971098840236664 -0.09131095558404922 -0.13318605720996857
v -0.28482988476753235 -0.03101186268031597 -0.015230553224682808
v -0.15971098840236664 -0.09131095558404922 -0.13318605720996857
v -0.2213885635137558 0.03101169504225254 -0.015230553224682808
v -0.1597110778093338 0.09131084382534027 -0.13318605720996857
v -0.2213885486125946 -0.03101183846592903 -0.015230553224682808
v -0.20132878422737122 0.05062318593263626 -0.29025906324386597
v -0.19501672685146332 -0.05679428577423096 -0.29516157507896423
v -0.20132875442504883 -0.05062331259250641 -0.29025906324386597
v -0.1950167566537857 0.05679415911436081 -0.29516157507896423
v -0.20132875442504883 -0.05062331259250641 -0.29025906324386597
v -0.31120169162750244 -0.05679432675242424 -0.29516157507896423
v -0.3048896789550781 -0.05062335357069969 -0.29025906324386597
v -0.19501672685146332 -0.05679428577423096 -0.29516157507896423
v -0.3048896789550781 -0.05062335357069969 -0.29025906324386597
v -0.3112017512321472 0.056794118136167526 -0.29516157507896423
v -0.3048897087574005 0.05062314495444298 -0.29025906324386597
v -0.31120169162750244 -0.05679432675242424 -0.29516157507896423
v -0.3048897087574005 0.05062314495444298 -0.29025906324386597
v -0.1950167566537857 0.05679415911436081 -0.29516157507896423
v -0.20132878422737122 0.05062318593263626 -0.29025906324386597
v -0.3112017512321472 0.056794118136167526 -0.29516157507896423
v -0.1950167566537857 0.05679415911436081 -0.29516157507896423
v -0.19501672685146332 -0.05679428577423096 -0.3239036500453949
v -0.19501672685146332 -0.05679428577423096 -0.29516157507896423
v -0.1950167566537857 0.05679415911436081 -0.3239036500453949
v -0.19501672685146332 -0.05679428577423096 -0.29516157507896423
v -0.31120169162750244 -0.05679432675242424 -0.3239036500453949
v -0.31120169162750244 -0.05679432675242424 -0.29516157507896423
v -0.19501672685146332 -0.05679428577423096 -0.3239036500453949
v -0.31120169162750244 -0.05679432675242424 -0.29516157507896423
v -0.3112017512321472 0.056794118136167526 -0.3239036500453949
v -0.3112017512321472 0.056794118136167526 -0.29516157507896423
v -0.31120169162750244 -0.05679432675242424 -0.3239036500453949
v -0.3112017512321472 0.056794118136167526 -0.29516157507896423
v -0.1950167566537857 0.05679415911436081 -0.3239036500453949
v -0.1950167566537857 0.05679415911436081 -0.29516157507896423
v -0.3112017512321472 0.056794118136167526 -0.3239036500453949
v -0.2213885635137558 0.03101169504225254 -0.015230553224682808
v -0.28482988476753235 0.0310116708278656 0.015080675482749939
v -0.28482988476753235 0.0310116708278656 -0.015230553224682808
v -0.2213885635137558 0.03101169504225254 0.015080675482749939
v -0.28482988476753235 0.0310116708278656 -0.015230553224682808
v -0.28482988476753235 -0.03101186268031597 0.015080675482749939
v -0.28482988476753235 -0.03101186268031597 -0.015230553224682808
v -0.28482988476753235 0.0310116708278656 0.015080675482749939
v -0.28482988476753235 -0.03101186268031597 -0.015230553224682808
v -0.2213885486125946 -0.03101183846592903 0.015080675482749939
v -0.2213885486125946 -0.03101183846592903 -0.015230553224682808
v -0.28482988476753235 -0.03101186268031597 0.015080675482749939
v -0.2213885486125946 -0.03101183846592903 -0.015230553224682808
v -0.2213885635137558 0.03101169504225254 0.015080675482749939
v -0.2213885635137558 0.03101169504225254 -0.015230553224682808
v -0.2213885486125946 -0.03101183846592903 0.015080675482749939
v -0.02213251031935215 4.011571407318115 -0.005781719461083412
v -0.3131875991821289 3.9884283542633057 -0.005781719461083412
v -0.022132491692900658 3.9884283542633057 -0.005781719461083412
v -0.3131875991821289 4.011571407318115 -0.005781719461083412
v -0.02213251031935215 4.011571407318115 0.005665359552949667
v -0.3131875991821289 3.9884283542633057 0.0056653497740626335
v -0.3131875991821289 4.011571407318115 0.0056653497740626335
v -0.022132491692900658 3.9884283542633057 0.005665359552949667
v -0.02213251031935215 4.011571407318115 -0.005781719461083412
v -0.3131875991821289 4.011571407318115 0.0056653497740626335
v -0.3131875991821289 4.011571407318115 -0.005781719461083412
v -0.02213251031935215 4.011571407318115 0.005665359552949667
v -0.3131875991821289 4.011571407318115 -0.005781719461083412
v -0.3131875991821289 3.9884283542633057 0.0056653497740626335
v -0.3131875991821289 3.9884283542633057 -0.005781719461083412
v -0.3131875991821289 4.011571407318115 0.0056653497740626335
v -0.3131875991821289 3.9884283542633057 -0.005781719461083412
v -0.022132491692900658 3.9884283542633057 0.005665359552949667
v -0.022132491692900658 3.9884283542633057 -0.005781719461083412
v -0.3131875991821289 3.9884283542633057 0.0056653497740626335
v -0.022132491692900658 3.9884283542633057 -0.005781719461083412
v -0.02213251031935215 4.011571407318115 0.005665359552949667
v -0.02213251031935215 4.011571407318115 -0.005781719461083412
v -0.022132491692900658 3.9884283542633057 0.005665359552949667
v -0.011678333394229412 4.029953956604004 -0.038905832916498184
v -0.027331752702593803 3.970045804977417 -0.038905829191207886
v -0.011678313836455345 3.970045804977417 -0.038905832916498184
v -0.027331771329045296 4.029953956604004 -0.038905829191207886
v -0.011678333394229412 4.029953956604004 0.04410358890891075
v -0.027331752702593803 3.970045804977417 0.04410358890891075
v -0.027331771329045296 4.029953956604004 0.04410358890891075
v -0.011678313836455345 3.970045804977417 0.04410358890891075
v -0.011678333394229412 4.029953956604004 -0.038905832916498184
v -0.027331771329045296 4.029953956604004 0.04410358890891075
v -0.027331771329045296 4.029953956604004 -0.038905829191207886
v -0.011678333394229412 4.029953956604004 0.04410358890891075
v -0.027331771329045296 4.029953956604004 -0.038905829191207886
v -0.027331752702593803 3.970045804977417 0.04410358890891075
v -0.027331752702593803 3.970045804977417 -0.038905829191207886
v -0.027331771329045296 4.029953956604004 0.04410358890891075
v -0.027331752702593803 3.970045804977417 -0.038905829191207886
v -0.011678313836455345 3.970045804977417 0.04410358890891075
v -0.011678313836455345 3.970045804977417 -0.038905832916498184
v -0.027331752702593803 3.970045804977417 0.04410358890891075
v -0.19501705467700958 4.056793689727783 -0.3239036500453949
v -0.31120195984840393 3.9432058334350586 -0.3239036500453949
v -0.1950169950723648 3.9432058334350586 -0.3239036500453949
v -0.3112019896507263 4.056793689727783 -0.3239036500453949
v -0.22138884663581848 4.031011581420898 0.015080675482749939
v -0.28483015298843384 3.9689879417419434 0.015080675482749939
v -0.28483015298843384 4.031011581420898 0.015080675482749939
v -0.2213888317346573 3.9689879417419434 0.015080675482749939
v -0.2013290524482727 4.050622940063477 -0.29025906324386597
v -0.3202854096889496 4.065674304962158 -0.13687612116336823
v -0.304889976978302 4.050622940063477 -0.29025906324386597
v -0.1859336495399475 4.065674304962158 -0.13687612116336823
v -0.304889976978302 4.050622940063477 -0.29025906324386597
v -0.3202853798866272 3.9343252182006836 -0.13687612116336823
v -0.3048899471759796 3.9493768215179443 -0.29025906324386597
v -0.3202854096889496 4.065674304962158 -0.13687612116336823
v -0.3048899471759796 3.9493768215179443 -0.29025906324386597
v -0.18593358993530273 3.9343252182006836 -0.13687612116336823
v -0.20132902264595032 3.9493768215179443 -0.29025906324386597
v -0.3202853798866272 3.9343252182006836 -0.13687612116336823
v -0.20132902264595032 3.9493768215179443 -0.29025906324386597
v -0.1859336495399475 4.065674304962158 -0.13687612116336823
v -0.2013290524482727 4.050622940063477 -0.29025906324386597
v -0.18593358993530273 3.9343252182006836 -0.13687612116336823
v -0.1859336495399475 4.065674304962158 -0.13687612116336823
v -0.346507728099823 4.091310501098633 -0.13318605720996857
v -0.3202854096889496 4.065674304962158 -0.13687612116336823
v -0.1597113311290741 4.091310501098633 -0.13318605720996857
v -0.3202854096889496 4.065674304962158 -0.13687612116336823
v -0.3465076684951782 3.908689260482788 -0.13318605720996857
v -0.3202853798866272 3.9343252182006836 -0.13687612116336823
v -0.346507728099823 4.091310501098633 -0.13318605720996857
v -0.3202853798866272 3.9343252182006836 -0.13687612116336823
v -0.15971127152442932 3.908689260482788 -0.13318605720996857
v -0.18593358993530273 3.9343252182006836 -0.13687612116336823
v -0.3465076684951782 3.908689260482788 -0.13318605720996857
v -0.18593358993530273 3.9343252182006836 -0.13687612116336823
v -0.1597113311290741 4.091310501098633 -0.13318605720996857
v -0.1859336495399475 4.065674304962158 -0.13687612116336823
v -0.15971127152442932 3.908689260482788 -0.13318605720996857
v -0.1597113311290741 4.091310501098633 -0.13318605720996857
v -0.28483015298843384 4.031011581420898 -0.015230553224682808
v -0.346507728099823 4.091310501098633 -0.13318605720996857
v -0.22138884663581848 4.031011581420898 -0.015230553224682808
v -0.346507728099823 4.091310501098633 -0.13318605720996857
v -0.28483015298843384 3.9689879417419434 -0.015230553224682808
v -0.3465076684951782 3.908689260482788 -0.13318605720996857
v -0.28483015298843384 4.031011581420898 -0.015230553224682808
v -0.3465076684951782 3.908689260482788 -0.13318605720996857
v -0.2213888317346573 3.9689879417419434 -0.015230553224682808
v -0.15971127152442932 3.908689260482788 -0.13318605720996857
v -0.28483015298843384 3.9689879417419434 -0.015230553224682808
v -0.15971127152442932 3.908689260482788 -0.13318605720996857
v -0.22138884663581848 4.031011581420898 -0.015230553224682808
v -0.1597113311290741 4.091310501098633 -0.13318605720996857
v -0.2213888317346573 3.9689879417419434 -0.015230553224682808
v -0.2013290524482727 4.050622940063477 -0.29025906324386597
v -0.1950169950723648 3.9432058334350586 -0.29516157507896423
v -0.20132902264595032 3.9493768215179443 -0.29025906324386597
v -0.19501705467700958 4.056793689727783 -0.29516157507896423
v -0.20132902264595032 3.9493768215179443 -0.29025906324386597
v -0.31120195984840393 3.9432058334350586 -0.29516157507896423
v -0.3048899471759796 3.9493768215179443 -0.29025906324386597
v -0.1950169950723648 3.9432058334350586 -0.29516157507896423
v -0.3048899471759796 3.9493768215179443 -0.29025906324386597
v -0.3112019896507263 4.056793689727783 -0.29516157507896423
v -0.304889976978302 4.050622940063477 -0.29025906324386597
v -0.31120195984840393 3.9432058334350586 -0.29516157507896423
v -0.304889976978302 4.050622940063477 -0.29025906324386597
v -0.19501705467700958 4.056793689727783 -0.29516157507896423
v -0.2013290524482727 4.050622940063477 -0.29025906324386597
v -0.3112019896507263 4.056793689727783 -0.29516157507896423
v -0.19501705467700958 4.056793689727783 -0.29516157507896423
v -0.1950169950723648 3.9432058334350586 -0.3239036500453949
v -0.1950169950723648 3.9432058334350586 -0.29516157507896423
v -0.19501705467700958 4.056793689727783 -0.3239036500453949
v -0.1950169950723648 3.9432058334350586 -0.29516157507896423
v -0.31120195984840393 3.9432058334350586 -0.3239036500453949
v -0.31120195984840393 3.9432058334350586 -0.29516157507896423
v -0.1950169950723648 3.9432058334350586 -0.3239036500453949
v -0.31120195984840393 3.9432058334350586 -0.29516157507896423
v -0.3112019896507263 4.056793689727783 -0.3239036500453949
v -0.3112019896507263 4.056793689727783 -0.29516157507896423
v -0.31120195984840393 3.9432058334350586 -0.3239036500453949
v -0.3112019896507263 4.056793689727783 -0.29516157507896423
v -0.19501705467700958 4.056793689727783 -0.3239036500453949
v -0.19501705467700958 4.056793689727783 -0.29516157507896423
v -0.3112019896507263 4.056793689727783 -0.3239036500453949
v -0.22138884663581848 4.031011581420898 -0.015230553224682808
v -0.28483015298843384 4.031011581420898 0.015080675482749939
v -0.28483015298843384 4.031011581420898 -0.015230553224682808
v -0.22138884663581848 4.031011581420898 0.015080675482749939
v -0.28483015298843384 4.031011581420898 -0.015230553224682808
v -0.28483015298843384 3.9689879417419434 0.015080675482749939
v -0.28483015298843384 3.9689879417419434 -0.015230553224682808
v -0.28483015298843384 4.031011581420898 0.015080675482749939
v -0.28483015298843384 3.9689879417419434 -0.015230553224682808
v -0.2213888317346573 3.9689879417419434 0.015080675482749939
v -0.2213888317346573 3.9689879417419434 -0.015230553224682808
v -0.28483015298843384 3.9689879417419434 0.015080675482749939
v -0.2213888317346573 3.9689879417419434 -0.015230553224682808
v -0.22138884663581848 4.031011581420898 0.015080675482749939
v -0.22138884663581848 4.031011581420898 -0.015230553224682808
v -0.2213888317346573 3.9689879417419434 0.015080675482749939
vn -0.0 0.0 -1.0
vn -0.0 0.0 -1.0
vn -0.0 0.0 -1.0
vn -0.0 0.0 -1.0
vn -0.0 0.0 1.0
vn -0.0 0.0 1.0
vn -0.0 0.0 1.0
vn -0.0 0.0 1.0
vn -0.0 1.0 0.0
vn -0.0 1.0 0.0
vn -0.0 1.0 0.0
vn -0.0 1.0 0.0
vn -1.0 0.0 0.0
vn -1.0 0.0 0.0
vn -1.0 0.0 0.0
vn -1.0 0.0 0.0
vn -0.0 -1.0 0.0
vn -0.0 -1.0 0.0
vn -0.0 -1.0 0.0
vn -0.0 -1.0 0.0
vn 1.0 0.0 0.0
vn 1.0 0.0 0.0
vn 1.0 0.0 0.0
vn 1.0 0.0 0.0
vn -0.0 0.0 -1.0
vn -0.0 0.0 -1.0
vn -0.0 0.0 -1.0
vn -0.0 0.0 -1.0
vn -0.0 0.0 1.0
vn -0.0 0.0 1.0
vn -0.0 0.0 1.0
vn -0.0 0.0 1.0
vn -0.0 1.0 0.0
vn -0.0 1.0 0.0
vn -0.0 1.0 0.0
vn -0.0 1.0 0.0
vn -1.0 0.0 0.0
vn -1.0 0.0 0.0
vn -1.0 0.0 0.0
vn -1.0 0.0 0.0
vn -0.0 -1.0 0.0
vn -0.0 -1.0 0.0
vn -0.0 -1.0 0.0
vn -0.0 -1.0 0.0
vn -0.0 0.0 -1.0
vn -0.0 0.0 -1.0
vn -0.0 0.0 -1.0
vn -0.0 0.0 -1.0
vn -0.0 0.0 1.0
vn -0.0 0.0 1.0
vn -0.0 0.0 1.0
vn -0.0 0.0 1.0
vn -0.0 0.9952793121337891 -0.09705161303281784
vn -0.0 0.995276927947998 -0.09707578271627426
vn -0.0 0.9952793121337891 -0.09705161303281784
vn -0.0 0.995276927947998 -0.09707578271627426
vn -0.9950768351554871 0.0 -0.09910725057125092
vn -0.9949775338172913 0.0 -0.10009834170341492
vn -0.9950768351554871 0.0 -0.09910725057125092
vn -0.9949775338172913 0.0 -0.10009834170341492
vn -0.0 -0.9952793121337891 -0.09705161303281784
vn -0.0 -0.995276927947998 -0.09707578271627426
vn -0.0 -0.9952793121337891 -0.09705161303281784
vn -0.0 -0.995276927947998 -0.09707578271627426
vn 0.9950866103172302 0.0 -0.09900861978530884
vn 0.9949876070022583 0.0 -0.09999875724315643
vn 0.9950768351554871 0.0 -0.09910725057125092
vn 0.9949876070022583 0.0 -0.09999875724315643
vn -0.0 0.14236706495285034 -0.9898139834403992
vn -0.0 0.14198124408721924 -0.9898692965507507
vn -0.0 0.14236706495285034 -0.9898139834403992
vn -0.0 0.14198124408721924 -0.9898692965507507
vn -0.13819605112075806 0.0 -0.9904049634933472
vn -0.14002099633216858 0.0 -0.9901485443115234
vn -0.14015981554985046 0.0 -0.9901289343833923
vn -0.14002101123332977 0.0 -0.9901485443115234
vn -0.0 -0.14236706495285034 -0.9898139834403992
vn -0.0 -0.14198124408721924 -0.9898692965507507
vn -0.0 -0.14236706495285034 -0.9898139834403992
vn -0.0 -0.14198124408721924 -0.9898692965507507
vn 0.14015981554985046 0.0 -0.9901289343833923
vn 0.14002099633216858 0.0 -0.9901485443115234
vn 0.14015981554985046 0.0 -0.9901289343833923
vn 0.1390402466058731 0.0 -0.9902867078781128
vn -0.0 0.8907949328422546 0.4544055461883545
vn -0.0 0.890362560749054 0.45525211095809937
vn -0.0 0.8907949328422546 0.4544055461883545
vn -0.0 0.890362560749054 0.45525211095809937
vn -0.8862814903259277 0.0 0.4631471037864685
vn -0.8860151171684265 0.0 0.4636561870574951
vn -0.8862814903259277 0.0 0.4631471335887909
vn -0.8862301707267761 0.0 0.46324530243873596
vn -0.0 -0.8907949328422546 0.4544055461883545
vn -0.0 -0.890362560749054 0.45525211095809937
vn -0.0 -0.8907949328422546 0.4544055461883545
vn -0.0 -0.890362560749054 0.45525211095809937
vn 0.8861740827560425 0.0 0.46335241198539734
vn 0.8860151171684265 0.0 0.4636561870574951
vn 0.8862814903259277 0.0 0.4631471335887909
vn 0.8860151171684265 0.0 0.4636561870574951
vn 0.6130400896072388 0.0 0.7900516986846924
vn 0.6130400896072388 0.0 0.7900516986846924
vn 0.6130401492118835 0.0 0.7900516986846924
vn 0.6130401492118835 0.0 0.7900516986846924
vn -0.0 -0.6217016577720642 0.7832541465759277
vn -0.0 -0.6221891045570374 0.7828670144081116
vn -0.0 -0.621701717376709 0.7832541465759277
vn -0.0 -0.6221890449523926 0.7828670144081116
vn -0.6124153733253479 0.0 0.7905361652374268
vn -0.6124153733253479 0.0 0.7905361652374268
vn -0.6124153733253479 0.0 0.7905361652374268
vn -0.6124153733253479 0.0 0.7905361652374268
vn -0.0 0.6217016577720642 0.7832541465759277
vn -0.0 0.6221891045570374 0.7828670144081116
vn -0.0 0.621701717376709 0.7832541465759277
vn -0.0 0.6221890449523926 0.7828670144081116
vn 1.0 0.0 0.0
vn 1.0 0.0 0.0
vn 1.0 0.0 0.0
vn 1.0 0.0 0.0
vn -0.0 -1.0 0.0
vn -0.0 -1.0 0.0
vn -0.0 -1.0 0.0
vn -0.0 -1.0 0.0
vn -1.0 0.0 0.0
vn -1.0 0.0 0.0
vn -1.0 0.0 0.0
vn -1.0 0.0 0.0
vn -0.0 1.0 0.0
vn -0.0 1.0 0.0
vn -0.0 1.0 0.0
vn -0.0 1.0 0.0
vn -0.0 1.0 0.0
vn -0.0 1.0 0.0
vn -0.0 1.0 0.0
vn -0.0 1.0 0.0
vn -1.0 0.0 0.0
vn -1.0 0.0 0.0
vn -1.0 0.0 0.0
vn -1.0 0.0 0.0
vn -0.0 -1.0 0.0
vn -0.0 -1.0 0.0
vn -0.0 -1.0 0.0
vn -0.0 -1.0 0.0
vn 1.0 0.0 0.0
vn 1.0 0.0 0.0
vn 1.0 0.0 0.0
vn 1.0 0.0 0.0
vn -0.0 0.0 -1.0
vn -0.0 0.0 -1.0
vn -0.0 0.0 -1.0
vn -0.0 0.0 -1.0
vn -0.0 0.0 1.0
vn -0.0 0.0 1.0
vn -0.0 0.0 1.0
vn -0.0 0.0 1.0
vn -0.0 1.0 0.0
vn -0.0 1.0 0.0
vn -0.0 1.0 0.0
vn -0.0 1.0 0.0
vn -1.0 0.0 0.0
vn -1.0 0.0 0.0
vn -1.0 0.0 0.0
vn -1.0 0.0 0.0
vn -0.0 -1.0 0.0
vn -0.0 -1.0 0.0
vn -0.0 -1.0 0.0
vn -0.0 -1.0 0.0
vn 1.0 8.241468663072737e-07 0.0
vn 1.0 8.241468663072737e-07 0.0
vn 1.0 8.241468663072737e-07 0.0
vn 1.0 8.241468663072737e-07 0.0
vn -3.046213237212214e-07 0.0 -1.0
vn -3.046213237212214e-07 0.0 -1.0
vn -3.046213237212214e-07 0.0 -1.0
vn -3.046213237212214e-07 0.0 -1.0
vn -0.0 0.0 1.0
vn -0.0 0.0 1.0
vn -0.0 0.0 1.0
vn -0.0 0.0 1.0
vn -0.0 1.0 0.0
vn -0.0 1.0 0.0
vn -0.0 1.0 0.0
vn -0.0 1.0 0.0
vn -1.0 -3.183788805927179e-07 0.0
vn -1.0 -3.183788805927179e-07 0.0
vn -1.0 -3.183788805927179e-07 0.0
vn -1.0 -3.183788805927179e-07 0.0
vn -0.0 -1.0 0.0
vn -0.0 -1.0 0.0
vn -0.0 -1.0 0.0
vn -0.0 -1.0 0.0
vn -0.0 0.0 -1.0
vn -0.0 0.0 -1.0
vn -0.0 0.0 -1.0
vn -0.0 0.0 -1.0
vn -0.0 0.0 1.0
vn -0.0 0.0 1.0
vn -0.0 0.0 1.0
vn -0.0 0.0 1.0
vn -0.0 0.995219886302948 -0.0976596474647522
vn -0.0 0.995219886302948 -0.0976596474647522
vn -0.0 0.995219886302948 -0.0976596474647522
vn -0.0 0.995219886302948 -0.0976596474647522
vn -0.995000422000885 -3.365874192695628e-07 -0.0998706966638565
vn -0.995000422000885 -3.209842702744936e-07 -0.0998706966638565
vn -0.995000422000885 -3.748901349354128e-07 -0.09987074881792068
vn -0.995000422000885 -2.889721031351655e-07 -0.09987065941095352
vn -0.0 -0.9952196478843689 -0.09766160696744919
vn -0.0 -0.9952196478843689 -0.0976615846157074
vn -0.0 -0.9952196478843689 -0.09766160696744919
vn -0.0 -0.9952196478843689 -0.09766160696744919
vn 0.995000422000885 4.0100002252074773e-07 -0.09987062960863113
vn 0.995000422000885 4.116362788408878e-07 -0.09987062960863113
vn 0.995000422000885 3.748901349354128e-07 -0.09987061470746994
vn 0.995000422000885 4.334581547027483e-07 -0.09987065196037292
vn -0.0 0.142471045255661 -0.9897990226745605
vn -0.0 0.142471045255661 -0.9897990226745605
vn -0.0 0.142471045255661 -0.9897990226745605
vn -0.0 0.14247103035449982 -0.9897990226745605
vn -0.13934965431690216 0.0 -0.9902432560920715
vn -0.1393495798110962 0.0 -0.9902432560920715
vn -0.1393495500087738 0.0 -0.9902432560920715
vn -0.13934962451457977 0.0 -0.9902432560920715
vn -0.0 -0.14247266948223114 -0.9897987842559814
vn -0.0 -0.14247268438339233 -0.9897987842559814
vn -0.0 -0.14247268438339233 -0.9897987842559814
vn -0.0 -0.14247266948223114 -0.9897987842559814
vn 0.13934959471225739 0.0 -0.9902432560920715
vn 0.139349564909935 0.0 -0.9902432560920715
vn 0.1393495351076126 0.0 -0.9902432560920715
vn 0.13934959471225739 0.0 -0.9902432560920715
vn -0.0 0.8904019594192505 0.45517513155937195
vn -0.0 0.8904019594192505 0.45517513155937195
vn -0.0 0.8904019594192505 0.4551750719547272
vn -0.0 0.8904019594192505 0.45517513155937195
vn -0.8861669898033142 -2.0936165867624368e-07 0.46336618065834045
vn -0.8861668705940247 -2.213457435118471e-07 0.46336624026298523
vn -0.8861668705940247 -1.851074244996198e-07 0.46336624026298523
vn -0.8861669898033142 -2.7251383016846376e-07 0.46336618065834045
vn -0.0 -0.8904028534889221 0.4551733136177063
vn -0.0 -0.8904028534889221 0.4551733136177063
vn -0.0 -0.8904028534889221 0.4551733136177063
vn -0.0 -0.8904028534889221 0.4551733136177063
vn 0.8861669898033142 3.096683940384537e-07 0.46336624026298523
vn 0.8861669898033142 3.0261770689321565e-07 0.46336624026298523
vn 0.8861669898033142 3.239380248487578e-07 0.46336624026298523
vn 0.8861668705940247 2.7251383016846376e-07 0.46336629986763
vn 0.6134083271026611 3.0641120929431054e-07 0.7897659540176392
vn 0.6134074926376343 2.3744988197904604e-07 0.7897665500640869
vn 0.6134074330329895 2.3111587665880506e-07 0.7897666096687317
vn 0.6134083271026611 3.0900727665539307e-07 0.7897659540176392
vn -0.0 -0.6220414638519287 0.7829843163490295
vn -0.0 -0.6220413446426392 0.7829843759536743
vn -0.0 -0.6220414638519287 0.7829843163490295
vn -0.0 -0.6220414638519287 0.7829843163490295
vn -0.6134071946144104 -2.068414630684856e-07 0.7897668480873108
vn -0.6134074330329895 -2.2907389052306826e-07 0.7897666096687317
vn -0.6134074330329895 -2.3111587665880506e-07 0.7897666096687317
vn -0.6134071946144104 -2.0600450056917907e-07 0.7897668480873108
vn -0.0 0.6220602989196777 0.7829692959785461
vn -0.0 0.6220602989196777 0.7829692959785461
vn -0.0 0.6220602989196777 0.7829694151878357
vn -0.0 0.6220602989196777 0.7829692959785461
vn 1.0 5.037547339270532e-07 0.0
vn 1.0 5.037547339270532e-07 0.0
vn 1.0 5.037546770836343e-07 0.0
vn 1.0 5.037546770836343e-07 0.0
vn -0.0 -1.0 0.0
vn -0.0 -1.0 0.0
vn -0.0 -1.0 0.0
vn -0.0 -1.0 0.0
vn -1.0 -3.358364608629927e-07 0.0
vn -1.0 -3.358364608629927e-07 0.0
vn -1.0 -3.358364040195738e-07 0.0
vn -1.0 -3.358364040195738e-07 0.0
vn -0.0 1.0 0.0
vn -0.0 1.0 0.0
vn -0.0 1.0 0.0
vn -0.0 1.0 0.0
vn -0.0 1.0 0.0
vn -0.0 1.0 0.0
vn -0.0 1.0 0.0
vn -0.0 1.0 0.0
vn -1.0 -3.075197412272246e-07 0.0
vn -1.0 -3.075197412272246e-07 0.0
vn -1.0 -3.075197412272246e-07 0.0
vn -1.0 -3.075197412272246e-07 0.0
vn -0.0 -1.0 0.0
vn -0.0 -1.0 0.0
vn -0.0 -1.0 0.0
vn -0.0 -1.0 0.0
vn 1.0 3.075197412272246e-07 0.0
vn 1.0 3.075197412272246e-07 0.0
vn 1.0 3.075197412272246e-07 0.0
vn 1.0 3.075197412272246e-07 0.0
vt 0.26763489842414856 0.9385329969227314
vt 0.9880569577217102 0.8127643018960953
vt 0.9880569577217102 0.9385329969227314
vt 0.26763489842414856 0.8127643018960953
vt 0.26763489842414856 0.9385329969227314
vt 0.9880569577217102 0.8127643018960953
vt 0.9880569577217102 0.9385329969227314
vt 0.26763489842414856 0.8127643018960953
vt 0.26763489842414856 0.9385329969227314
vt 0.9880569577217102 0.8127643018960953
vt 0.9880569577217102 0.9385329969227314
vt 0.26763489842414856 0.8127643018960953
vt 0.26763489842414856 0.9385329969227314
vt 0.9880569577217102 0.8127643018960953
vt 0.9880569577217102 0.9385329969227314
vt 0.26763489842414856 0.8127643018960953
vt 0.26763489842414856 0.9385329969227314
vt 0.9880569577217102 0.8127643018960953
vt 0.9880569577217102 0.9385329969227314
vt 0.26763489842414856 0.8127643018960953
vt 0.26763489842414856 0.9385329969227314
vt 0.9880569577217102 0.8127643018960953
vt 0.9880569577217102 0.9385329969227314
vt 0.26763489842414856 0.8127643018960953
vt 0.05954041704535484 0.9141741394996643
vt 0.206862211227417 0.8892171084880829
vt 0.2238140106201172 0.9141741394996643
vt 0.07649219036102295 0.8892171084880829
vt 0.05954041704535484 0.6723247468471527
vt 0.206862211227417 0.6972818076610565
vt 0.07649219036102295 0.6972818076610565
vt 0.2238140106201172 0.6723247468471527
vt 0.05954041704535484 0.9141741394996643
vt 0.07649219036102295 0.6972818076610565
vt 0.07649219036102295 0.8892171084880829
vt 0.05954041704535484 0.6723247468471527
vt 0.07649219036102295 0.8892171084880829
vt 0.206862211227417 0.6972818076610565
vt 0.206862211227417 0.8892171084880829
vt 0.07649219036102295 0.6972818076610565
vt 0.206862211227417 0.8892171084880829
vt 0.2238140106201172 0.6723247468471527
vt 0.2238140106201172 0.9141741394996643
vt 0.206862211227417 0.6972818076610565
vt 0.36713463068008423 0.6857109069824219
vt 0.4672268033027649 0.7782806754112244
vt 0.4672268033027649 0.6857109069824219
vt 0.36713463068008423 0.7782806754112244
vt 0.4672268033027649 0.7782806754112244
vt 0.36713463068008423 0.6857109069824219
vt 0.36713463068008423 0.7782806754112244
vt 0.4672268033027649 0.6857109069824219
vt 0.542744517326355 0.7846076786518097
vt 0.9930430054664612 0.008199453353881836
vt 0.9930430054664612 0.7846076786518097
vt 0.542744517326355 0.008199453353881836
vt 0.542744517326355 0.7846076786518097
vt 0.9930430054664612 0.008199453353881836
vt 0.9930430054664612 0.7846076786518097
vt 0.542744517326355 0.008199453353881836
vt 0.542744517326355 0.7846076786518097
vt 0.9930430054664612 0.008199453353881836
vt 0.9930430054664612 0.7846076786518097
vt 0.542744517326355 0.008199453353881836
vt 0.542744517326355 0.7846076786518097
vt 0.9930430054664612 0.008199453353881836
vt 0.9930430054664612 0.7846076786518097
vt 0.542744517326355 0.008199453353881836
vt 0.060086771845817566 0.469954252243042
vt 0.5258434414863586 0.440382719039917
vt 0.5258434414863586 0.469954252243042
vt 0.060086771845817566 0.440382719039917
vt 0.060086771845817566 0.469954252243042
vt 0.5258434414863586 0.440382719039917
vt 0.5258434414863586 0.469954252243042
vt 0.060086771845817566 0.440382719039917
vt 0.060086771845817566 0.469954252243042
vt 0.5258434414863586 0.440382719039917
vt 0.5258434414863586 0.469954252243042
vt 0.060086771845817566 0.440382719039917
vt 0.5258434414863586 0.469954252243042
vt 0.060086771845817566 0.440382719039917
vt 0.060086771845817566 0.469954252243042
vt 0.5258434414863586 0.440382719039917
vt 0.060086771845817566 0.440382719039917
vt 0.38058042526245117 0.08894878625869751
vt 0.5258434414863586 0.440382719039917
vt 0.20650655031204224 0.08894878625869751
vt 0.060086771845817566 0.440382719039917
vt 0.38058042526245117 0.08894878625869751
vt 0.5258434414863586 0.440382719039917
vt 0.20650655031204224 0.08894878625869751
vt 0.060086771845817566 0.440382719039917
vt 0.38058042526245117 0.08894878625869751
vt 0.5258434414863586 0.440382719039917
vt 0.20650655031204224 0.08894878625869751
vt 0.060086771845817566 0.440382719039917
vt 0.38058042526245117 0.08894878625869751
vt 0.5258434414863586 0.440382719039917
vt 0.20650655031204224 0.08894878625869751
vt 0.5240620374679565 0.49694693088531494
vt 0.056920021772384644 0.5217905342578888
vt 0.056920021772384644 0.49694693088531494
vt 0.5240620374679565 0.5217905342578888
vt 0.5240620374679565 0.49694693088531494
vt 0.056920021772384644 0.5217905342578888
vt 0.056920021772384644 0.49694693088531494
vt 0.5240620374679565 0.5217905342578888
vt 0.5240620374679565 0.49694693088531494
vt 0.056920021772384644 0.5217905342578888
vt 0.056920021772384644 0.49694693088531494
vt 0.5240620374679565 0.5217905342578888
vt 0.5240620374679565 0.49694693088531494
vt 0.056920021772384644 0.5217905342578888
vt 0.056920021772384644 0.49694693088531494
vt 0.5240620374679565 0.5217905342578888
vt 0.5240620374679565 0.5217905342578888
vt 0.056920021772384644 0.6420903205871582
vt 0.056920021772384644 0.5217905342578888
vt 0.5240620374679565 0.6420903205871582
vt 0.5240620374679565 0.5217905342578888
vt 0.056920021772384644 0.6420903205871582
vt 0.056920021772384644 0.5217905342578888
vt 0.5240620374679565 0.6420903205871582
vt 0.5240620374679565 0.5217905342578888
vt 0.056920021772384644 0.6420903205871582
vt 0.056920021772384644 0.5217905342578888
vt 0.5240620374679565 0.6420903205871582
vt 0.5240620374679565 0.5217905342578888
vt 0.056920021772384644 0.6420903205871582
vt 0.056920021772384644 0.5217905342578888
vt 0.5240620374679565 0.6420903205871582
vt 0.20650655031204224 0.08894878625869751
vt 0.38058042526245117 0.02462106943130493
vt 0.38058042526245117 0.08894878625869751
vt 0.20650655031204224 0.02462106943130493
vt 0.20650655031204224 0.08894878625869751
vt 0.38058042526245117 0.02462106943130493
vt 0.38058042526245117 0.08894878625869751
vt 0.20650655031204224 0.02462106943130493
vt 0.20650655031204224 0.08894878625869751
vt 0.38058042526245117 0.02462106943130493
vt 0.38058042526245117 0.08894878625869751
vt 0.20650655031204224 0.02462106943130493
vt 0.20650655031204224 0.08894878625869751
vt 0.38058042526245117 0.02462106943130493
vt 0.38058042526245117 0.08894878625869751
vt 0.20650655031204224 0.02462106943130493
vt 0.26763489842414856 0.9385329969227314
vt 0.9880569577217102 0.8127643018960953
vt 0.9880569577217102 0.9385329969227314
vt 0.26763489842414856 0.8127643018960953
vt 0.26763489842414856 0.9385329969227314
vt 0.9880569577217102 0.8127643018960953
vt 0.9880569577217102 0.9385329969227314
vt 0.26763489842414856 0.8127643018960953
vt 0.26763489842414856 0.9385329969227314
vt 0.9880569577217102 0.8127643018960953
vt 0.9880569577217102 0.9385329969227314
vt 0.26763489842414856 0.8127643018960953
vt 0.26763489842414856 0.9385329969227314
vt 0.9880569577217102 0.8127643018960953
vt 0.9880569577217102 0.9385329969227314
vt 0.26763489842414856 0.8127643018960953
vt 0.26763489842414856 0.9385329969227314
vt 0.9880569577217102 0.8127643018960953
vt 0.9880569577217102 0.9385329969227314
vt 0.26763489842414856 0.8127643018960953
vt 0.26763489842414856 0.9385329969227314
vt 0.9880569577217102 0.8127643018960953
vt 0.9880569577217102 0.9385329969227314
vt 0.26763489842414856 0.8127643018960953
vt 0.05954041704535484 0.9141741394996643
vt 0.206862211227417 0.8892171084880829
vt 0.2238140106201172 0.9141741394996643
vt 0.07649219036102295 0.8892171084880829
vt 0.05954041704535484 0.6723247468471527
vt 0.206862211227417 0.6972818076610565
vt 0.07649219036102295 0.6972818076610565
vt 0.2238140106201172 0.6723247468471527
vt 0.05954041704535484 0.9141741394996643
vt 0.07649219036102295 0.6972818076610565
vt 0.07649219036102295 0.8892171084880829
vt 0.05954041704535484 0.6723247468471527
vt 0.07649219036102295 0.8892171084880829
vt 0.206862211227417 0.6972818076610565
vt 0.206862211227417 0.8892171084880829
vt 0.07649219036102295 0.6972818076610565
vt 0.206862211227417 0.8892171084880829
vt 0.2238140106201172 0.6723247468471527
vt 0.2238140106201172 0.9141741394996643
vt 0.206862211227417 0.6972818076610565
vt 0.36713463068008423 0.6857109069824219
vt 0.4672268033027649 0.7782806754112244
vt 0.4672268033027649 0.6857109069824219
vt 0.36713463068008423 0.7782806754112244
vt 0.4672268033027649 0.7782806754112244
vt 0.36713463068008423 0.6857109069824219
vt 0.36713463068008423 0.7782806754112244
vt 0.4672268033027649 0.6857109069824219
vt 0.542744517326355 0.7846076786518097
vt 0.9930430054664612 0.008199453353881836
vt 0.9930430054664612 0.7846076786518097
vt 0.542744517326355 0.008199453353881836
vt 0.542744517326355 0.7846076786518097
vt 0.9930430054664612 0.008199453353881836
vt 0.9930430054664612 0.7846076786518097
vt 0.542744517326355 0.008199453353881836
vt 0.542744517326355 0.7846076786518097
vt 0.9930430054664612 0.008199453353881836
vt 0.9930430054664612 0.7846076786518097
vt 0.542744517326355 0.008199453353881836
vt 0.542744517326355 0.7846076786518097
vt 0.9930430054664612 0.008199453353881836
vt 0.9930430054664612 0.7846076786518097
vt 0.542744517326355 0.008199453353881836
vt 0.060086771845817566 0.469954252243042
vt 0.5258434414863586 0.440382719039917
vt 0.5258434414863586 0.469954252243042
vt 0.060086771845817566 0.440382719039917
vt 0.060086771845817566 0.469954252243042
vt 0.5258434414863586 0.440382719039917
vt 0.5258434414863586 0.469954252243042
vt 0.060086771845817566 0.440382719039917
vt 0.060086771845817566 0.469954252243042
vt 0.5258434414863586 0.440382719039917
vt 0.5258434414863586 0.469954252243042
vt 0.060086771845817566 0.440382719039917
vt 0.5258434414863586 0.469954252243042
vt 0.060086771845817566 0.440382719039917
vt 0.060086771845817566 0.469954252243042
vt 0.5258434414863586 0.440382719039917
vt 0.060086771845817566 0.440382719039917
vt 0.38058042526245117 0.08894878625869751
vt 0.5258434414863586 0.440382719039917
vt 0.20650655031204224 0.08894878625869751
vt 0.060086771845817566 0.440382719039917
vt 0.38058042526245117 0.08894878625869751
vt 0.5258434414863586 0.440382719039917
vt 0.20650655031204224 0.08894878625869751
vt 0.060086771845817566 0.440382719039917
vt 0.38058042526245117 0.08894878625869751
vt 0.5258434414863586 0.440382719039917
vt 0.20650655031204224 0.08894878625869751
vt 0.060086771845817566 0.440382719039917
vt 0.38058042526245117 0.08894878625869751
vt 0.5258434414863586 0.440382719039917
vt 0.20650655031204224 0.08894878625869751
vt 0.5240620374679565 0.49694693088531494
vt 0.056920021772384644 0.5217905342578888
vt 0.056920021772384644 0.49694693088531494
vt 0.5240620374679565 0.5217905342578888
vt 0.5240620374679565 0.49694693088531494
vt 0.056920021772384644 0.5217905342578888
vt 0.056920021772384644 0.49694693088531494
vt 0.5240620374679565 0.5217905342578888
vt 0.5240620374679565 0.49694693088531494
vt 0.056920021772384644 0.5217905342578888
vt 0.056920021772384644 0.49694693088531494
vt 0.5240620374679565 0.5217905342578888
vt 0.5240620374679565 0.49694693088531494
vt 0.056920021772384644 0.5217905342578888
vt 0.056920021772384644 0.49694693088531494
vt 0.5240620374679565 0.5217905342578888
vt 0.5240620374679565 0.5217905342578888
vt 0.056920021772384644 0.6420903205871582
vt 0.056920021772384644 0.5217905342578888
vt 0.5240620374679565 0.6420903205871582
vt 0.5240620374679565 0.5217905342578888
vt 0.056920021772384644 0.6420903205871582
vt 0.056920021772384644 0.5217905342578888
vt 0.5240620374679565 0.6420903205871582
vt 0.5240620374679565 0.5217905342578888
vt 0.056920021772384644 0.6420903205871582
vt 0.056920021772384644 0.5217905342578888
vt 0.5240620374679565 0.6420903205871582
vt 0.5240620374679565 0.5217905342578888
vt 0.056920021772384644 0.6420903205871582
vt 0.056920021772384644 0.5217905342578888
vt 0.5240620374679565 0.6420903205871582
vt 0.20650655031204224 0.08894878625869751
vt 0.38058042526245117 0.02462106943130493
vt 0.38058042526245117 0.08894878625869751
vt 0.20650655031204224 0.02462106943130493
vt 0.20650655031204224 0.08894878625869751
vt 0.38058042526245117 0.02462106943130493
vt 0.38058042526245117 0.08894878625869751
vt 0.20650655031204224 0.02462106943130493
vt 0.20650655031204224 0.08894878625869751
vt 0.38058042526245117 0.02462106943130493
vt 0.38058042526245117 0.08894878625869751
vt 0.20650655031204224 0.02462106943130493
vt 0.20650655031204224 0.08894878625869751
vt 0.38058042526245117 0.02462106943130493
vt 0.38058042526245117 0.08894878625869751
vt 0.20650655031204224 0.02462106943130493

g d039_lamp
s 1
usemtl d039_lamp
f 3/3/3 2/2/2 1/1/1 
f 4/4/4 1/1/1 2/2/2 
f 7/7/7 6/6/6 5/5/5 
f 8/8/8 5/5/5 6/6/6 
f 11/11/11 10/10/10 9/9/9 
f 12/12/12 9/9/9 10/10/10 
f 15/15/15 14/14/14 13/13/13 
f 16/16/16 13/13/13 14/14/14 
f 19/19/19 18/18/18 17/17/17 
f 20/20/20 17/17/17 18/18/18 
f 23/23/23 22/22/22 21/21/21 
f 24/24/24 21/21/21 22/22/22 
f 27/27/27 26/26/26 25/25/25 
f 28/28/28 25/25/25 26/26/26 
f 31/31/31 30/30/30 29/29/29 
f 32/32/32 29/29/29 30/30/30 
f 35/35/35 34/34/34 33/33/33 
f 36/36/36 33/33/33 34/34/34 
f 39/39/39 38/38/38 37/37/37 
f 40/40/40 37/37/37 38/38/38 
f 43/43/43 42/42/42 41/41/41 
f 44/44/44 41/41/41 42/42/42 
f 47/47/47 46/46/46 45/45/45 
f 48/48/48 45/45/45 46/46/46 
f 51/51/51 50/50/50 49/49/49 
f 52/52/52 49/49/49 50/50/50 
f 55/55/55 54/54/54 53/53/53 
f 56/56/56 53/53/53 54/54/54 
f 59/59/59 58/58/58 57/57/57 
f 60/60/60 57/57/57 58/58/58 
f 63/63/63 62/62/62 61/61/61 
f 64/64/64 61/61/61 62/62/62 
f 67/67/67 66/66/66 65/65/65 
f 68/68/68 65/65/65 66/66/66 
f 71/71/71 70/70/70 69/69/69 
f 72/72/72 69/69/69 70/70/70 
f 75/75/75 74/74/74 73/73/73 
f 76/76/76 73/73/73 74/74/74 
f 79/79/79 78/78/78 77/77/77 
f 80/80/80 77/77/77 78/78/78 
f 83/83/83 82/82/82 81/81/81 
f 84/84/84 81/81/81 82/82/82 
f 87/87/87 86/86/86 85/85/85 
f 88/88/88 85/85/85 86/86/86 
f 91/91/91 90/90/90 89/89/89 
f 92/92/92 89/89/89 90/90/90 
f 95/95/95 94/94/94 93/93/93 
f 96/96/96 93/93/93 94/94/94 
f 99/99/99 98/98/98 97/97/97 
f 100/100/100 97/97/97 98/98/98 
f 103/103/103 102/102/102 101/101/101 
f 104/104/104 101/101/101 102/102/102 
f 107/107/107 106/106/106 105/105/105 
f 108/108/108 105/105/105 106/106/106 
f 111/111/111 110/110/110 109/109/109 
f 112/112/112 109/109/109 110/110/110 
f 115/115/115 114/114/114 113/113/113 
f 116/116/116 113/113/113 114/114/114 
f 119/119/119 118/118/118 117/117/117 
f 120/120/120 117/117/117 118/118/118 
f 123/123/123 122/122/122 121/121/121 
f 124/124/124 121/121/121 122/122/122 
f 127/127/127 126/126/126 125/125/125 
f 128/128/128 125/125/125 126/126/126 
f 131/131/131 130/130/130 129/129/129 
f 132/132/132 129/129/129 130/130/130 
f 135/135/135 134/134/134 133/133/133 
f 136/136/136 133/133/133 134/134/134 
f 139/139/139 138/138/138 137/137/137 
f 140/140/140 137/137/137 138/138/138 
f 143/143/143 142/142/142 141/141/141 
f 144/144/144 141/141/141 142/142/142 
f 147/147/147 146/146/146 145/145/145 
f 148/148/148 145/145/145 146/146/146 
f 151/151/151 150/150/150 149/149/149 
f 152/152/152 149/149/149 150/150/150 
f 155/155/155 154/154/154 153/153/153 
f 156/156/156 153/153/153 154/154/154 
f 159/159/159 158/158/158 157/157/157 
f 160/160/160 157/157/157 158/158/158 
f 163/163/163 162/162/162 161/161/161 
f 164/164/164 161/161/161 162/162/162 
f 167/167/167 166/166/166 165/165/165 
f 168/168/168 165/165/165 166/166/166 
f 171/171/171 170/170/170 169/169/169 
f 172/172/172 169/169/169 170/170/170 
f 175/175/175 174/174/174 173/173/173 
f 176/176/176 173/173/173 174/174/174 
f 179/179/179 178/178/178 177/177/177 
f 180/180/180 177/177/177 178/178/178 
f 183/183/183 182/182/182 181/181/181 
f 184/184/184 181/181/181 182/182/182 
f 187/187/187 186/186/186 185/185/185 
f 188/188/188 185/185/185 186/186/186 
f 191/191/191 190/190/190 189/189/189 
f 192/192/192 189/189/189 190/190/190 
f 195/195/195 194/194/194 193/193/193 
f 196/196/196 193/193/193 194/194/194 
f 199/199/199 198/198/198 197/197/197 
f 200/200/200 197/197/197 198/198/198 
f 203/203/203 202/202/202 201/201/201 
f 204/204/204 201/201/201 202/202/202 
f 207/207/207 206/206/206 205/205/205 
f 208/208/208 205/205/205 206/206/206 
f 211/211/211 210/210/210 209/209/209 
f 212/212/212 209/209/209 210/210/210 
f 215/215/215 214/214/214 213/213/213 
f 216/216/216 213/213/213 214/214/214 
f 219/219/219 218/218/218 217/217/217 
f 220/220/220 217/217/217 218/218/218 
f 223/223/223 222/222/222 221/221/221 
f 224/224/224 221/221/221 222/222/222 
f 227/227/227 226/226/226 225/225/225 
f 228/228/228 225/225/225 226/226/226 
f 231/231/231 230/230/230 229/229/229 
f 232/232/232 229/229/229 230/230/230 
f 235/235/235 234/234/234 233/233/233 
f 236/236/236 233/233/233 234/234/234 
f 239/239/239 238/238/238 237/237/237 
f 240/240/240 237/237/237 238/238/238 
f 243/243/243 242/242/242 241/241/241 
f 244/244/244 241/241/241 242/242/242 
f 247/247/247 246/246/246 245/245/245 
f 248/248/248 245/245/245 246/246/246 
f 251/251/251 250/250/250 249/249/249 
f 252/252/252 249/249/249 250/250/250 
f 255/255/255 254/254/254 253/253/253 
f 256/256/256 253/253/253 254/254/254 
f 259/259/259 258/258/258 257/257/257 
f 260/260/260 257/257/257 258/258/258 
f 263/263/263 262/262/262 261/261/261 
f 264/264/264 261/261/261 262/262/262 
f 267/267/267 266/266/266 265/265/265 
f 268/268/268 265/265/265 266/266/266 
f 271/271/271 270/270/270 269/269/269 
f 272/272/272 269/269/269 270/270/270 
f 275/275/275 274/274/274 273/273/273 
f 276/276/276 273/273/273 274/274/274 
f 279/279/279 278/278/278 277/277/277 
f 280/280/280 277/277/277 278/278/278 
f 283/283/283 282/282/282 281/281/281 
f 284/284/284 281/281/281 282/282/282 
f 287/287/287 286/286/286 285/285/285 
f 288/288/288 285/285/285 286/286/286 
f 291/291/291 290/290/290 289/289/289 
f 292/292/292 289/289/289 290/290/290 
f 295/295/295 294/294/294 293/293/293 
f 296/296/296 293/293/293 294/294/294 

