v 0.33321425318717957 4.3979315757751465 -1.1226121187210083
v 1.0 5.101742267608643 -1.1226122379302979
v 1.0 4.397768974304199 -1.1226122379302979
v 0.3299974799156189 5.101742267608643 -1.1226122379302979
v 1.6744017601013184 4.397855758666992 -1.1226121187210083
v 1.6737133264541626 5.101742267608643 -1.1226122379302979
v 0.33345502614974976 6.060575008392334 -1.1226123571395874
v 1.0 6.060575008392334 -1.1226123571395874
v 1.6690179109573364 6.060575008392334 -1.1226123571395874
v 0.6751853823661804 6.407764911651611 -1.1226119995117188
v 1.0 6.404265403747559 -1.1226119995117188
v 1.314508318901062 6.403907299041748 -1.1226119995117188
v 0.29668065905570984 4.380860805511475 1.09672544112982e-06
v 1.0 4.397768974304199 -1.1226122379302979
v 1.0 4.380716800689697 1.09672544112982e-06
v 0.33321425318717957 4.3979315757751465 -1.1226121187210083
v 1.7104973793029785 4.380706310272217 1.09672544112982e-06
v 1.6744017601013184 4.397855758666992 -1.1226121187210083
v 0.3299974799156189 5.101742267608643 -1.1226122379302979
v 0.29307860136032104 6.079931735992432 1.287460349885805e-06
v 0.33345502614974976 6.060575008392334 -1.1226123571395874
v 0.29576003551483154 5.121098518371582 1.1730194273695815e-06
v 0.33321425318717957 4.3979315757751465 -1.1226121187210083
v 0.29668065905570984 4.380860805511475 1.09672544112982e-06
v 0.6543505191802979 6.457858562469482 1.325607286162267e-06
v 1.0 6.404265403747559 -1.1226119995117188
v 0.6751853823661804 6.407764911651611 -1.1226119995117188
v 1.0 6.458606243133545 1.325607286162267e-06
v 1.3418487310409546 6.456218242645264 1.325607286162267e-06
v 1.0 6.404265403747559 -1.1226119995117188
v 1.0 6.458606243133545 1.325607286162267e-06
v 1.314508318901062 6.403907299041748 -1.1226119995117188
v 1.6690179109573364 6.060575008392334 -1.1226123571395874
v 1.7102798223495483 5.121098518371582 1.1730194273695815e-06
v 1.6737133264541626 5.101742267608643 -1.1226122379302979
v 1.7146954536437988 6.079931735992432 1.287460349885805e-06
v 1.6744017601013184 4.397855758666992 -1.1226121187210083
v 1.7104973793029785 4.380706310272217 1.09672544112982e-06
v 0.6543505191802979 6.457858562469482 1.325607286162267e-06
v 0.33345502614974976 6.060575008392334 -1.1226123571395874
v 0.29307860136032104 6.079931735992432 1.287460349885805e-06
v 0.6751853823661804 6.407764911651611 -1.1226119995117188
v 1.3418487310409546 6.456218242645264 1.325607286162267e-06
v 1.6690179109573364 6.060575008392334 -1.1226123571395874
v 1.314508318901062 6.403907299041748 -1.1226119995117188
v 1.7146954536437988 6.079931735992432 1.287460349885805e-06
v 0.6543505191802979 6.457858562469482 1.325607286162267e-06
v 1.0 7.167443752288818 1.4400482086784905e-06
v 1.0 6.458606243133545 1.325607286162267e-06
v 7.629394360719743e-08 7.167443752288818 1.4400482086784905e-06
v 1.3418487310409546 6.456218242645264 1.325607286162267e-06
v 2.0 7.167443752288818 1.4400482086784905e-06
v 0.29307860136032104 6.079931735992432 1.287460349885805e-06
v 7.629394360719743e-08 6.079931735992432 1.287460349885805e-06
v 0.29576003551483154 5.121098518371582 1.1730194273695815e-06
v 7.629394360719743e-08 5.121098518371582 1.1730194273695815e-06
v 0.29668065905570984 4.380860805511475 1.09672544112982e-06
v 7.629394360719743e-08 4.3806891441345215 1.09672544112982e-06
v 2.0 6.079931735992432 1.287460349885805e-06
v 1.7146954536437988 6.079931735992432 1.287460349885805e-06
v 2.0 5.121098518371582 1.1730194273695815e-06
v 1.7102798223495483 5.121098518371582 1.1730194273695815e-06
v 1.7104973793029785 4.380706310272217 1.09672544112982e-06
v 2.0 4.3806891441345215 1.09672544112982e-06
v 1.0 3.8323254585266113 0.07430703192949295
v 7.629394360719743e-08 3.7853493690490723 1.0204314548900584e-06
v 7.629394360719743e-08 3.8323254585266113 0.07430703192949295
v 1.0 3.7853493690490723 1.0204314548900584e-06
v 2.0 3.8323254585266113 0.07430703192949295
v 2.0 3.7853493690490723 1.0204314548900584e-06
v 1.0 4.17296028137207 0.03168749809265137
v 7.629394360719743e-08 4.003559589385986 0.03168746083974838
v 7.629394360719743e-08 4.17296028137207 0.03168749809265137
v 1.0 4.003559589385986 0.03168746083974838
v 2.0 4.17296028137207 0.03168749809265137
v 2.0 4.003559589385986 0.03168746083974838
v 1.0 4.336945056915283 0.03168753534555435
v 7.629394360719743e-08 4.336945056915283 0.03168753534555435
v 2.0 4.336945056915283 0.03168753534555435
v 1.0 4.003559589385986 0.03168746083974838
v 7.629394360719743e-08 3.94470477104187 0.07430706918239594
v 7.629394360719743e-08 4.003559589385986 0.03168746083974838
v 1.0 3.94470477104187 0.07430706918239594
v 2.0 4.003559589385986 0.03168746083974838
v 2.0 3.94470477104187 0.07430706918239594
v 1.0 3.94470477104187 0.07430706918239594
v 7.629394360719743e-08 3.8323254585266113 0.07430703192949295
v 7.629394360719743e-08 3.94470477104187 0.07430706918239594
v 1.0 3.8323254585266113 0.07430703192949295
v 2.0 3.94470477104187 0.07430706918239594
v 2.0 3.8323254585266113 0.07430703192949295
v 1.0 4.380716800689697 1.09672544112982e-06
v 2.0 4.336945056915283 0.03168753534555435
v 1.0 4.336945056915283 0.03168753534555435
v 2.0 4.3806891441345215 1.09672544112982e-06
v 7.629394360719743e-08 4.3806891441345215 1.09672544112982e-06
v 7.629394360719743e-08 4.336945056915283 0.03168753534555435
v 1.7104973793029785 4.380706310272217 1.09672544112982e-06
v 2.0 4.3806891441345215 1.09672544112982e-06
v 1.0 4.380716800689697 1.09672544112982e-06
v 7.629394360719743e-08 4.3806891441345215 1.09672544112982e-06
v 0.29668065905570984 4.380860805511475 1.09672544112982e-06
v 7.629394360719743e-08 7.167443752288818 1.4400482086784905e-06
v 1.0 8.0 1.7023086229528417e-06
v 1.0 7.167443752288818 1.4400482086784905e-06
v 7.629394360719743e-08 8.0 1.7023086229528417e-06
v 1.0 7.167443752288818 1.4400482086784905e-06
v 2.0 8.0 1.7023086229528417e-06
v 2.0 7.167443752288818 1.4400482086784905e-06
v 1.0 8.0 1.7023086229528417e-06
v 7.629394360719743e-08 1.822750210762024 4.482269275740691e-07
v 1.0 2.8040497303009033 7.581710406157072e-07
v 1.0 1.822750210762024 4.482269275740691e-07
v 7.629394360719743e-08 2.8040497303009033 7.581710406157072e-07
v 7.629394360719743e-08 0.8414504528045654 1.4305113893442467e-07
v 1.0 0.8414504528045654 1.4305113893442467e-07
v 1.0 3.7853493690490723 1.0633468718879158e-06
v 7.629394360719743e-08 3.7853493690490723 1.0633468718879158e-06
v 1.0 1.822750210762024 4.482269275740691e-07
v 2.0 2.8040497303009033 7.581710406157072e-07
v 2.0 1.8227500915527344 4.482269275740691e-07
v 1.0 2.8040497303009033 7.581710406157072e-07
v 1.0 0.8414504528045654 1.4305113893442467e-07
v 2.0 0.8414504528045654 1.4305113893442467e-07
v 2.0 3.7853493690490723 1.0633468718879158e-06
v 1.0 3.7853493690490723 1.0633468718879158e-06
v 1.0 0.623240053653717 2.8610228852699038e-08
v 7.629394360719743e-08 0.0 -1.23977656585339e-07
v 7.629394360719743e-08 0.623240053653717 2.8610228852699038e-08
v 1.0 0.0 -1.23977656585339e-07
v 2.0 0.623240053653717 2.8610228852699038e-08
v 2.0 0.0 -1.23977656585339e-07
v 1.0 0.6702160239219666 0.07430604100227356
v 7.629394360719743e-08 0.623240053653717 2.8610228852699038e-08
v 7.629394360719743e-08 0.6702160239219666 0.07430604100227356
v 1.0 0.623240053653717 2.8610228852699038e-08
v 2.0 0.6702160239219666 0.07430604100227356
v 2.0 0.623240053653717 2.8610228852699038e-08
v 1.0 0.8414504528045654 7.152556946721234e-08
v 7.629394360719743e-08 0.7825955152511597 0.07430606335401535
v 7.629394360719743e-08 0.8414504528045654 7.152556946721234e-08
v 1.0 0.7825955152511597 0.07430606335401535
v 2.0 0.8414504528045654 7.152556946721234e-08
v 2.0 0.7825955152511597 0.07430606335401535
v 1.0 0.7825955152511597 0.07430606335401535
v 7.629394360719743e-08 0.6702160239219666 0.07430604100227356
v 7.629394360719743e-08 0.7825955152511597 0.07430606335401535
v 1.0 0.6702160239219666 0.07430604100227356
v 2.0 0.7825955152511597 0.07430606335401535
v 2.0 0.6702160239219666 0.07430604100227356
vn 2.2884090356001252e-07 0.0 1.0
vn 2.2884094619257667e-07 0.0 1.0
vn 2.2884093198172195e-07 0.0 1.0
vn -0.0 2.1680240536170459e-07 1.0
vn -0.0 2.1677915640339052e-07 1.0
vn -0.0 2.1677915640339052e-07 1.0
vn -0.0 0.0 1.0
vn -0.0 0.0 1.0
vn -0.0 0.0 1.0
vn -0.0 -8.87936323579197e-07 1.0
vn -0.0 -8.879362667357782e-07 1.0
vn -0.0 -8.879362667357782e-07 1.0
vn 0.00020478086662478745 0.9998846054077148 0.015187805518507957
vn 0.00020478088117670268 0.9998846054077148 0.015187805518507957
vn 0.00020478088117670268 0.9998846054077148 0.015187805518507957
vn 0.00024369086895603687 0.9998842477798462 0.015212178230285645
vn -0.00012895467807538807 0.9998832941055298 0.015278913080692291
vn -0.00012895467807538807 0.9998832941055298 0.015278912149369717
vn 0.9993451237678528 -0.0036036521196365356 0.036005038768053055
vn 0.9993451237678528 -0.0036036521196365356 0.036005038768053055
vn 0.9993451237678528 -0.0036036521196365356 0.036005038768053055
vn 0.9995328187942505 0.0027952431701123714 0.030435536056756973
vn 0.9995272159576416 0.0045683663338422775 0.030404789373278618
vn 0.9994695782661438 0.0012430441565811634 0.032544977962970734
vn -0.010762445628643036 -0.9989569187164307 0.04437582194805145
vn -0.010762445628643036 -0.9989569187164307 0.04437582194805145
vn -0.010762445628643036 -0.9989569187164307 0.04437582194805145
vn 0.0021614644210785627 -0.998828113079071 0.048348914831876755
vn -0.006977207493036985 -0.9988061189651489 0.04834785312414169
vn -0.006977207027375698 -0.9988061189651489 0.048347849398851395
vn -0.0069772060960531235 -0.9988061189651489 0.0483478419482708
vn -0.0011369569692760706 -0.9989141225814819 0.046574417501688004
vn -0.9994552731513977 -0.00489452201873064 0.0326392762362957
vn -0.9994552731513977 -0.00489452201873064 0.0326392725110054
vn -0.9994552731513977 -0.004894522950053215 0.032639279961586
vn -0.9991658926010132 0.004601324442774057 0.04057537391781807
vn -0.999468982219696 -0.000977580901235342 0.0325721837580204
vn -0.999483585357666 -0.00029373669531196356 0.03213208168745041
vn 0.7223365306854248 -0.6905031204223633 0.03788590058684349
vn 0.7223366498947144 -0.6905030608177185 0.03788590431213379
vn 0.7223365306854248 -0.6905031204223633 0.03788590058684349
vn 0.7119832038879395 -0.7007860541343689 0.044484443962574005
vn -0.6948104500770569 -0.7174281477928162 0.0503518171608448
vn -0.6948105096817017 -0.7174281477928162 0.0503518171608448
vn -0.6948105096817017 -0.7174281477928162 0.0503518171608448
vn -0.7097493410110474 -0.7032598257064819 0.041004717350006104
vn -0.0 -1.6144878145496477e-07 1.0
vn -0.0 -1.6144878145496477e-07 1.0
vn -0.0 -1.6144878145496477e-07 1.0
vn -0.0 -1.6127860646975023e-07 1.0
vn -0.0 -1.6144878145496477e-07 1.0
vn -0.0 -1.609067084018534e-07 1.0
vn -0.0 -1.193544250099876e-07 1.0
vn -0.0 -1.193544107991329e-07 1.0
vn -0.0 -1.193544250099876e-07 1.0
vn -0.0 -1.193544107991329e-07 1.0
vn -0.0 -1.0304293596163916e-07 1.0
vn -0.0 -1.0304293596163916e-07 1.0
vn -0.0 -1.193544107991329e-07 1.0
vn -0.0 -1.193544107991329e-07 1.0
vn -0.0 -1.193544250099876e-07 1.0
vn -0.0 -1.193544107991329e-07 1.0
vn -0.0 -1.0304527364723981e-07 1.0
vn -0.0 -1.0304293596163916e-07 1.0
vn -0.0 -0.8452531099319458 0.5343661904335022
vn -0.0 -0.8452531099319458 0.5343661904335022
vn -0.0 -0.8452531099319458 0.5343661308288574
vn -0.0 -0.8452531099319458 0.5343661308288574
vn -0.0 -0.8452531099319458 0.5343661904335022
vn -0.0 -0.8452531099319458 0.5343661308288574
vn -0.0 -2.251883302051283e-07 1.0
vn -0.0 -2.251883302051283e-07 1.0
vn -0.0 -2.251883302051283e-07 1.0
vn -0.0 -2.251883302051283e-07 1.0
vn -0.0 -2.251883302051283e-07 1.0
vn -0.0 -2.251883302051283e-07 1.0
vn -0.0 -2.326247852124652e-07 1.0
vn -0.0 -2.326247852124652e-07 1.0
vn -0.0 -2.326247852124652e-07 1.0
vn -0.0 0.5865142345428467 0.809938907623291
vn -0.0 0.5865142345428467 0.809938907623291
vn -0.0 0.5865141749382019 0.809938907623291
vn -0.0 0.5865141749382019 0.809938907623291
vn -0.0 0.5865142345428467 0.809938907623291
vn -0.0 0.5865141749382019 0.809938907623291
vn -0.0 -3.3944792221518583e-07 1.0
vn -0.0 -3.3944792221518583e-07 1.0
vn -0.0 -3.394478937934764e-07 1.0
vn -0.0 -3.394478937934764e-07 1.0
vn -0.0 -3.3944792221518583e-07 1.0
vn -0.0 -3.394478937934764e-07 1.0
vn -0.0 0.5863848924636841 0.8100326061248779
vn -0.0 0.5863848924636841 0.8100325465202332
vn -0.0 0.5863848924636841 0.8100326061248779
vn 1.6112715456984006e-05 0.586626410484314 0.8098576664924622
vn -0.0 0.586626410484314 0.8098576664924622
vn -0.0 0.5866264700889587 0.8098576664924622
vn -0.0 0.0 1.0
vn -0.0 0.0 1.0
vn -0.0 0.0 1.0
vn -0.0 0.0 1.0
vn -0.0 0.0 1.0
vn -0.0 -3.150063037082873e-07 1.0
vn -0.0 -3.1500633212999674e-07 1.0
vn -0.0 -3.150063037082873e-07 1.0
vn -0.0 -3.150063037082873e-07 1.0
vn -0.0 -3.150063037082873e-07 1.0
vn -0.0 -3.1500633212999674e-07 1.0
vn -0.0 -3.150063037082873e-07 1.0
vn -0.0 -3.150063037082873e-07 1.0
vn -0.0 -3.158507126954646e-07 1.0
vn -0.0 -3.158507126954646e-07 1.0
vn -0.0 -3.158507126954646e-07 1.0
vn -0.0 -3.158507126954646e-07 1.0
vn -0.0 -3.10991424612439e-07 1.0
vn -0.0 -3.10991424612439e-07 1.0
vn -0.0 -3.1099145303414844e-07 1.0
vn -0.0 -3.1099145303414844e-07 1.0
vn -0.0 -3.1585074111717404e-07 1.0
vn -0.0 -3.158507126954646e-07 1.0
vn -0.0 -3.158507126954646e-07 1.0
vn -0.0 -3.158507126954646e-07 1.0
vn -0.0 -3.1099145303414844e-07 1.0
vn -0.0 -3.1099145303414844e-07 1.0
vn -0.0 -3.1099145303414844e-07 1.0
vn -0.0 -3.1099145303414844e-07 1.0
vn -0.0 -2.4483003358000133e-07 1.0
vn -0.0 -2.4483003358000133e-07 1.0
vn -0.0 -2.4483003358000133e-07 1.0
vn -0.0 -2.4483003358000133e-07 1.0
vn -0.0 -2.4483003358000133e-07 1.0
vn -0.0 -2.4483003358000133e-07 1.0
vn -0.0 -0.8452531099319458 0.5343661904335022
vn -0.0 -0.8452531099319458 0.5343661904335022
vn -0.0 -0.8452531099319458 0.5343661308288574
vn -0.0 -0.8452531099319458 0.5343661308288574
vn -0.0 -0.8452531099319458 0.5343661904335022
vn -0.0 -0.8452531099319458 0.5343661308288574
vn -0.0 0.7838948965072632 0.6208935976028442
vn -0.0 0.7838947772979736 0.6208935976028442
vn -0.0 0.7838947772979736 0.6208935976028442
vn -0.0 0.7838947772979736 0.6208935976028442
vn -0.0 0.7838948965072632 0.6208935976028442
vn -0.0 0.7838947772979736 0.6208935976028442
vn -0.0 -2.5458592745053465e-07 1.0
vn -0.0 -2.5458592745053465e-07 1.0
vn -0.0 -2.5458592745053465e-07 1.0
vn -0.0 -2.5458592745053465e-07 1.0
vn -0.0 -2.5458592745053465e-07 1.0
vn -0.0 -2.5458592745053465e-07 1.0
vt 0.9530525803565979 0.949848584830761
vt 0.9600526690483093 0.9424214065074921
vt 0.9600526690483093 0.9498693645000458
vt 0.953018844127655 0.9424214065074921
vt 0.9671025276184082 0.949849396944046
vt 0.9670953750610352 0.9424214065074921
vt 0.9530550837516785 0.9325033724308014
vt 0.9600526690483093 0.9325033724308014
vt 0.9670462608337402 0.9325033724308014
vt 0.9566426873207092 0.928897812962532
vt 0.9600526690483093 0.9289341568946838
vt 0.9633404016494751 0.9289378821849823
vt 0.6423810720443726 0.993634364567697
vt 0.7745274901390076 0.8066096752882004
vt 0.7745274901390076 0.9934255396947265
vt 0.6492453813552856 0.8049496114253998
vt 0.9074526429176331 0.993634364567697
vt 0.9006996154785156 0.8050140738487244
vt 0.5047010183334351 0.8366761356592178
vt 0.6429123878479004 0.6889259517192841
vt 0.5047010183334351 0.6889259517192841
vt 0.6429123878479004 0.8366761356592178
vt 0.5047010183334351 0.9946893565356731
vt 0.6429123878479004 0.9946893565356731
vt 0.6429123878479004 0.6093761920928955
vt 0.5047010183334351 0.5577124655246735
vt 0.5047010183334351 0.6093761622905731
vt 0.6429123878479004 0.5577124655246735
vt 0.6429123878479004 0.6093761920928955
vt 0.5047010183334351 0.5577124655246735
vt 0.6429123878479004 0.5577124655246735
vt 0.5047010183334351 0.6093761622905731
vt 0.5047010183334351 0.6889259517192841
vt 0.6429123878479004 0.8366761356592178
vt 0.5047010183334351 0.8366761356592178
vt 0.6429123878479004 0.6889259517192841
vt 0.5047010183334351 0.9946893565356731
vt 0.6429123878479004 0.9946893565356731
vt 0.6429123878479004 0.6093761920928955
vt 0.5047010183334351 0.6889259517192841
vt 0.6429123878479004 0.6889259517192841
vt 0.5047010183334351 0.6093761622905731
vt 0.6429123878479004 0.6093761920928955
vt 0.5047010183334351 0.6889259517192841
vt 0.5047010183334351 0.6093761622905731
vt 0.6429123878479004 0.6889259517192841
vt 0.16428998112678528 0.1732904314994812
vt 0.25 -0.0007643699645996094
vt 0.25 0.1731070876121521
vt 0.0020320462062954903 -0.0007643699645996094
vt 0.3344056010246277 0.17369282245635986
vt 0.4969092607498169 -0.0007643699645996094
vt 0.07470614463090897 0.26599258184432983
vt 0.0020320462062954903 0.2659926414489746
vt 0.07537104189395905 0.50025475025177
vt 0.0020320462062954903 0.50025475025177
vt 0.07559932768344879 0.6870000064373016
vt 0.0020320462062954903 0.6870000064373016
vt 0.4969092607498169 0.2659926414489746
vt 0.4264649450778961 0.2659926414489746
vt 0.4969092607498169 0.50025475025177
vt 0.42537471652030945 0.50025475025177
vt 0.4254283905029297 0.6870000064373016
vt 0.4969092607498169 0.6870000064373016
vt 0.25 0.8487198948860168
vt 0.0020320462062954903 0.8604280054569244
vt 0.0020320462062954903 0.8487198650836945
vt 0.25 0.8604280203580856
vt 0.4969092607498169 0.8487198948860168
vt 0.4969092607498169 0.8604280203580856
vt 0.25 0.7507643103599548
vt 0.0020320462062954903 0.7929848283529282
vt 0.0020320462062954903 0.7507643103599548
vt 0.25 0.7929848432540894
vt 0.4969092607498169 0.7507643103599548
vt 0.4969092607498169 0.7929848432540894
vt 0.25 0.7101755142211914
vt 0.0020320462062954903 0.7093929946422577
vt 0.4969092607498169 0.7109574973583221
vt 0.25 0.7929848432540894
vt 0.0020320462062954903 0.822659820318222
vt 0.0020320462062954903 0.7929848283529282
vt 0.25 0.8226598501205444
vt 0.4969092607498169 0.7929848432540894
vt 0.4969092607498169 0.8226598501205444
vt 0.25 0.8226598501205444
vt 0.0020320462062954903 0.8487198650836945
vt 0.0020320462062954903 0.822659820318222
vt 0.25 0.8487198948860168
vt 0.4969092607498169 0.8226598501205444
vt 0.4969092607498169 0.8487198948860168
vt 0.25 0.686791181564331
vt 0.4969092607498169 0.7109574973583221
vt 0.25 0.7101755142211914
vt 0.4969092607498169 0.6870000064373016
vt 0.0020320462062954903 0.6870000064373016
vt 0.0020320462062954903 0.7093929946422577
vt 0.4254283905029297 0.6870000064373016
vt 0.4969092607498169 0.6870000064373016
vt 0.25 0.686791181564331
vt 0.0020320462062954903 0.6870000064373016
vt 0.07559932768344879 0.6870000064373016
vt 0.7565743327140808 0.4975076913833618
vt 0.9994224309921265 0.6888033449649811
vt 0.7565743327140808 0.6888033449649811
vt 0.9994224309921265 0.4975076913833618
vt 0.7565743327140808 0.4975076913833618
vt 0.9994224309921265 0.6888033449649811
vt 0.7565743327140808 0.6888033449649811
vt 0.9994224309921265 0.4975076913833618
vt 0.7565743327140808 0.4941561222076416
vt 0.9994224309921265 0.3028604984283447
vt 0.9994224309921265 0.4941561222076416
vt 0.7565743327140808 0.3028604984283447
vt 0.7565743327140808 0.6854518055915833
vt 0.9994224309921265 0.6854518055915833
vt 0.9994224309921265 0.11156493425369263
vt 0.7565743327140808 0.11156493425369263
vt 0.7565743327140808 0.4941561222076416
vt 0.9994224309921265 0.3028604984283447
vt 0.9994224309921265 0.4941561222076416
vt 0.7565743327140808 0.3028604984283447
vt 0.7565743327140808 0.6854518055915833
vt 0.9994224309921265 0.6854518055915833
vt 0.9994224309921265 0.11156493425369263
vt 0.7565743327140808 0.11156493425369263
vt 0.25 0.8604280203580856
vt 0.0020320462062954903 1.0
vt 0.0020320462062954903 0.8604280054569244
vt 0.25 1.0
vt 0.4969092607498169 0.8604280203580856
vt 0.4969092607498169 1.0
vt 0.25 0.8487198948860168
vt 0.0020320462062954903 0.8604280054569244
vt 0.0020320462062954903 0.8487198650836945
vt 0.25 0.8604280203580856
vt 0.4969092607498169 0.8487198948860168
vt 0.4969092607498169 0.8604280203580856
vt 0.25 0.7929848432540894
vt 0.0020320462062954903 0.822659820318222
vt 0.0020320462062954903 0.7929848283529282
vt 0.25 0.8226598501205444
vt 0.4969092607498169 0.7929848432540894
vt 0.4969092607498169 0.8226598501205444
vt 0.25 0.8226598501205444
vt 0.0020320462062954903 0.8487198650836945
vt 0.0020320462062954903 0.822659820318222
vt 0.25 0.8487198948860168
vt 0.4969092607498169 0.8226598501205444
vt 0.4969092607498169 0.8487198948860168

g bg_mdl_map_wall02_iseki
s 1
usemtl bg_mdl_map_wall02_iseki_0
f 3/3/3 2/2/2 1/1/1 
f 4/4/4 1/1/1 2/2/2 
f 3/3/3 5/5/5 2/2/2 
f 6/6/6 2/2/2 5/5/5 
f 4/4/4 2/2/2 7/7/7 
f 8/8/8 7/7/7 2/2/2 
f 2/2/2 6/6/6 8/8/8 
f 9/9/9 8/8/8 6/6/6 
f 7/7/7 8/8/8 10/10/10 
f 11/11/11 10/10/10 8/8/8 
f 11/11/11 8/8/8 12/12/12 
f 9/9/9 12/12/12 8/8/8 
f 15/15/15 14/14/14 13/13/13 
f 16/16/16 13/13/13 14/14/14 
f 15/15/15 17/17/17 14/14/14 
f 14/14/14 17/17/17 18/18/18 
f 21/21/21 20/20/20 19/19/19 
f 22/22/22 19/19/19 20/20/20 
f 19/19/19 22/22/22 23/23/23 
f 24/24/24 23/23/23 22/22/22 
f 27/27/27 26/26/26 25/25/25 
f 28/28/28 25/25/25 26/26/26 
f 31/31/31 30/30/30 29/29/29 
f 32/32/32 29/29/29 30/30/30 
f 35/35/35 34/34/34 33/33/33 
f 36/36/36 33/33/33 34/34/34 
f 35/35/35 37/37/37 34/34/34 
f 34/34/34 37/37/37 38/38/38 
f 41/41/41 40/40/40 39/39/39 
f 42/42/42 39/39/39 40/40/40 
f 45/45/45 44/44/44 43/43/43 
f 46/46/46 43/43/43 44/44/44 

usemtl bg_mdl_map_wall02_iseki_1
f 49/49/49 48/48/48 47/47/47 
f 50/50/50 47/47/47 48/48/48 
f 49/49/49 51/51/51 48/48/48 
f 52/52/52 48/48/48 51/51/51 
f 47/47/47 50/50/50 53/53/53 
f 54/54/54 53/53/53 50/50/50 
f 53/53/53 54/54/54 55/55/55 
f 56/56/56 55/55/55 54/54/54 
f 55/55/55 56/56/56 57/57/57 
f 58/58/58 57/57/57 56/56/56 
f 52/52/52 51/51/51 59/59/59 
f 60/60/60 59/59/59 51/51/51 
f 59/59/59 60/60/60 61/61/61 
f 62/62/62 61/61/61 60/60/60 
f 62/62/62 63/63/63 61/61/61 
f 64/64/64 61/61/61 63/63/63 
f 67/67/67 66/66/66 65/65/65 
f 68/68/68 65/65/65 66/66/66 
f 65/65/65 68/68/68 69/69/69 
f 70/70/70 69/69/69 68/68/68 
f 73/73/73 72/72/72 71/71/71 
f 74/74/74 71/71/71 72/72/72 
f 71/71/71 74/74/74 75/75/75 
f 76/76/76 75/75/75 74/74/74 
f 71/71/71 77/77/77 73/73/73 
f 78/78/78 73/73/73 77/77/77 
f 75/75/75 79/79/79 71/71/71 
f 77/77/77 71/71/71 79/79/79 
f 82/82/82 81/81/81 80/80/80 
f 83/83/83 80/80/80 81/81/81 
f 80/80/80 83/83/83 84/84/84 
f 85/85/85 84/84/84 83/83/83 
f 88/88/88 87/87/87 86/86/86 
f 89/89/89 86/86/86 87/87/87 
f 86/86/86 89/89/89 90/90/90 
f 91/91/91 90/90/90 89/89/89 
f 94/94/94 93/93/93 92/92/92 
f 93/93/93 95/95/95 92/92/92 
f 94/94/94 92/92/92 96/96/96 
f 97/97/97 94/94/94 96/96/96 
f 100/100/100 99/99/99 98/98/98 
f 100/100/100 102/102/102 101/101/101 
f 105/105/105 104/104/104 103/103/103 
f 106/106/106 103/103/103 104/104/104 
f 109/109/109 108/108/108 107/107/107 
f 110/110/110 107/107/107 108/108/108 
f 113/113/113 112/112/112 111/111/111 
f 114/114/114 111/111/111 112/112/112 
f 111/111/111 115/115/115 113/113/113 
f 116/116/116 113/113/113 115/115/115 
f 112/112/112 117/117/117 114/114/114 
f 118/118/118 114/114/114 117/117/117 
f 121/121/121 120/120/120 119/119/119 
f 122/122/122 119/119/119 120/120/120 
f 119/119/119 123/123/123 121/121/121 
f 124/124/124 121/121/121 123/123/123 
f 120/120/120 125/125/125 122/122/122 
f 126/126/126 122/122/122 125/125/125 
f 129/129/129 128/128/128 127/127/127 
f 130/130/130 127/127/127 128/128/128 
f 127/127/127 130/130/130 131/131/131 
f 132/132/132 131/131/131 130/130/130 
f 135/135/135 134/134/134 133/133/133 
f 136/136/136 133/133/133 134/134/134 
f 133/133/133 136/136/136 137/137/137 
f 138/138/138 137/137/137 136/136/136 
f 141/141/141 140/140/140 139/139/139 
f 142/142/142 139/139/139 140/140/140 
f 139/139/139 142/142/142 143/143/143 
f 144/144/144 143/143/143 142/142/142 
f 147/147/147 146/146/146 145/145/145 
f 148/148/148 145/145/145 146/146/146 
f 145/145/145 148/148/148 149/149/149 
f 150/150/150 149/149/149 148/148/148 

