v -8.5 -6.43804407119751 2.5
v -6.5 -4.5 2.5
v -6.5 -6.43804407119751 2.5
v -8.5 -4.5 2.5
v -5.5 -4.5 2.5
v -5.5 -6.43804407119751 2.5
v -4.5 -4.5 1.9999979734420776
v -4.5 -6.43804407119751 1.9999979734420776
v -3.5 -4.5 1.9999979734420776
v -3.5 -6.43804407119751 1.9999979734420776
v -2.5 -4.5 1.9999979734420776
v -2.5 -6.43804407119751 1.9999979734420776
v -6.5 -3.5 2.5
v -8.5 -3.5 2.5
v -5.5 -3.5 2.5
v -4.5 -3.5 1.9999979734420776
v -3.5 -3.5 1.9999979734420776
v -2.5 -3.5 1.9999979734420776
v -6.5 -2.5 2.5
v -8.5 -2.5 2.5
v -5.5 -2.5 2.5
v -4.5 -2.5 1.9999979734420776
v -3.5 -2.5 1.9999979734420776
v -2.5 -2.5 1.9999979734420776
v -6.5 -1.5 1.9999979734420776
v -8.5 -1.5 1.9999979734420776
v -5.5 -1.5 1.9999979734420776
v -4.5 -1.5 1.9999979734420776
v -3.5 -1.5 1.9999979734420776
v -2.5 -1.5 1.9999979734420776
v -6.5 -0.5 1.9999979734420776
v -8.5 -0.5 1.9999979734420776
v -5.5 -0.5 1.9999979734420776
v -4.5 -0.5 1.9999979734420776
v -3.5 -0.5 1.9999979734420776
v -2.5 -0.5 1.9999979734420776
v -6.5 0.5 1.9999979734420776
v -8.5 0.5 1.9999979734420776
v -5.5 0.5 1.9999979734420776
v -4.5 0.5 1.9999979734420776
v -3.5 0.5 1.9999979734420776
v -2.5 0.5 1.9999979734420776
v -6.5 1.5 2.4999992847442627
v -8.5 1.5 2.4999992847442627
v -5.5 1.5 2.4999992847442627
v -4.5 1.5 1.9999979734420776
v -3.5 1.5 1.9999979734420776
v -2.5 1.5 1.9999979734420776
v -6.5 2.5 2.4999992847442627
v -8.5 2.5 2.4999992847442627
v -5.5 2.5 2.4999992847442627
v -4.5 2.5 1.9999979734420776
v -3.5 2.5 1.9999979734420776
v -2.5 2.5 1.9999979734420776
v -6.5 3.5 2.4999992847442627
v -8.5 3.5 2.4999992847442627
v -5.5 3.5 2.4999992847442627
v -4.5 3.5 2.4999992847442627
v -3.5 3.5 1.9999979734420776
v -2.5 3.5 1.9999979734420776
v -6.5 4.5 2.4999992847442627
v -8.5 4.5 2.4999992847442627
v -5.5 4.5 2.4999992847442627
v -4.5 4.5 2.4999992847442627
v -3.5 4.5 1.9999979734420776
v -2.5 4.5 1.9999979734420776
v -6.5 6.561953067779541 2.4999992847442627
v -8.5 6.561953067779541 2.4999992847442627
v -5.5 6.561953067779541 2.4999992847442627
v -4.5 6.561953067779541 2.4999992847442627
v -3.5 6.561953067779541 1.9999979734420776
v -2.5 6.561953067779541 1.9999979734420776
v -1.5 -6.43804407119751 0.5
v -0.5 -4.5 0.5
v -0.5 -6.43804407119751 0.5
v -1.5 -4.5 0.5
v 0.5 -4.5 0.5
v 0.5 -6.43804407119751 0.5
v 1.5 -4.5 0.5
v 1.5 -6.43804407119751 0.5
v 2.5 -4.5 0.5
v 2.5 -6.43804407119751 0.5
v -0.5 -3.5 0.5
v -1.5 -3.5 0.5
v 0.5 -3.5 0.5
v 1.5 -3.5 0.5
v 2.5 -3.5 0.5
v -0.5 -2.5 0.5
v -1.5 -2.5 0.5
v 0.5 -2.5 0.5
v 1.5 -2.5 0.5
v 2.5 -2.5 0.5
v -0.5 -1.5 0.5
v -1.5 -1.5 0.5
v 0.5 -1.5 0.5
v 1.5 -1.5 0.5
v 2.5 -1.5 0.5
v -0.5 -0.5 0.5
v -1.5 -0.5 0.5
v 0.5 -0.5 0.5
v 1.5 -0.5 0.5
v 2.5 -0.5 0.5
v -0.5 0.5 0.5
v -1.5 0.5 0.5
v 0.5 0.5 0.5
v 1.5 0.5 0.5
v 2.5 0.5 0.5
v -0.5 1.5 0.5
v -1.5 1.5 0.5
v 0.5 1.5 0.5
v 1.5 1.5 0.5
v 2.5 1.5 0.5
v -0.5 2.5 0.5
v -1.5 2.5 0.5
v 0.5 2.5 0.5
v 1.5 2.5 0.5
v 2.5 2.5 0.5
v -0.5 3.5 0.5
v -1.5 3.5 0.5
v 0.5 3.5 0.5
v 1.5 3.5 0.5
v 2.5 3.5 0.5
v -0.5 4.5 0.5
v -1.5 4.5 0.5
v 0.5 4.5 0.5
v 1.5 4.5 0.5
v 2.5 4.5 0.5
v -0.5 6.561953067779541 0.5
v -1.5 6.561953067779541 0.5
v 0.5 6.561953067779541 0.5
v 1.5 6.561953067779541 0.5
v 2.5 6.561953067779541 0.5
v 3.5 -6.43804407119751 1.9999979734420776
v 4.5 -4.5 2.499999523162842
v 4.5 -6.43804407119751 2.499999523162842
v 3.5 -4.5 1.9999979734420776
v 5.5 -4.5 2.499999523162842
v 5.5 -6.43804407119751 2.499999523162842
v 6.5 -4.5 2.499999523162842
v 6.5 -6.43804407119751 2.499999523162842
v 8.49999713897705 -4.5 2.499999523162842
v 8.49999713897705 -6.43804407119751 2.499999523162842
v 4.5 -3.5 2.499999523162842
v 3.5 -3.5 1.9999979734420776
v 5.5 -3.5 2.499999523162842
v 6.5 -3.5 2.499999523162842
v 8.49999713897705 -3.5 2.499999523162842
v 4.5 -2.5 1.9999979734420776
v 3.5 -2.5 1.9999979734420776
v 5.5 -2.5 2.499999523162842
v 6.5 -2.5 2.499999523162842
v 8.49999713897705 -2.5 2.499999523162842
v 4.5 -1.5 1.9999979734420776
v 3.5 -1.5 1.9999979734420776
v 5.5 -1.5 1.9999979734420776
v 6.5 -1.5 1.9999979734420776
v 8.49999713897705 -1.5 1.9999979734420776
v 4.5 -0.5 1.9999979734420776
v 3.5 -0.5 1.9999979734420776
v 5.5 -0.5 1.9999979734420776
v 6.5 -0.5 1.9999979734420776
v 8.49999713897705 -0.5 1.9999979734420776
v 4.5 0.5 1.9999979734420776
v 3.5 0.5 1.9999979734420776
v 5.5 0.5 1.9999979734420776
v 6.5 0.5 1.9999979734420776
v 8.49999713897705 0.5 1.9999979734420776
v 4.5 1.5 1.9999979734420776
v 3.5 1.5 1.9999979734420776
v 5.5 1.5 1.9999979734420776
v 6.5 1.5 1.9999979734420776
v 8.49999713897705 1.5 1.9999979734420776
v 4.5 2.5 1.9999979734420776
v 3.5 2.5 1.9999979734420776
v 5.5 2.6285791397094727 1.9999979734420776
v 6.5 2.5 1.9999979734420776
v 5.769999980926514 2.5 1.9999979734420776
v 8.49999713897705 2.5 1.9999979734420776
v 7.785560607910156 2.5 1.9999979734420776
v 7.493748664855957 2.5431103706359863 1.9999979734420776
v 6.75 2.4598729610443115 1.9999979734420776
v 4.5 3.5 1.9999996423721313
v 3.5 3.5 1.9999996423721313
v 5.5 3.5 1.9999996423721313
v 5.384999752044678 3.542231321334839 1.9999996423721313
v 5.2035746574401855 3.5 1.9999996423721313
v 5.5 3.5 2.5000014305114746
v 6.5 4.5 2.5000014305114746
v 6.5 3.5 2.5000014305114746
v 5.5 4.5 2.5000014305114746
v 8.49999713897705 4.5 2.5000014305114746
v 8.49999713897705 3.5 2.5000014305114746
v 6.5 6.561953067779541 2.5000014305114746
v 5.5 6.561953067779541 2.5000014305114746
v 4.5 4.5 2.5000014305114746
v 4.5 6.561953067779541 2.5000014305114746
v 3.5 4.5 2.5000014305114746
v 3.5 6.561953067779541 2.5000014305114746
v 2.5 4.5 2.5000016689300537
v 2.5 6.561953067779541 2.5000016689300537
v 8.49999713897705 6.561953067779541 2.5000014305114746
v -2.5 -6.43804407119751 1.9999979734420776
v -1.5 -4.5 1.9999979734420776
v -1.5 -6.43804407119751 1.9999979734420776
v -2.5 -4.5 1.9999979734420776
v -1.5 -3.5 1.9999979734420776
v -2.5 -3.5 1.9999979734420776
v -1.5 -2.5 1.9999979734420776
v -2.5 -2.5 1.9999979734420776
v -1.5 -1.5 1.9999979734420776
v -2.5 -1.5 1.9999979734420776
v -1.5 -0.5 1.9999979734420776
v -2.5 -0.5 1.9999979734420776
v -1.5 0.5 1.9999979734420776
v -2.5 0.5 1.9999979734420776
v -1.5 1.5 1.9999979734420776
v -2.5 1.5 1.9999979734420776
v -1.5 2.5 1.9999979734420776
v -2.5 2.5 1.9999979734420776
v -1.5 3.5 1.9999979734420776
v -2.5 3.5 1.9999979734420776
v -1.5 4.5 1.9999979734420776
v -2.5 4.5 1.9999979734420776
v -1.5 6.561953067779541 1.9999979734420776
v -2.5 6.561953067779541 1.9999979734420776
v 2.5 -6.43804407119751 1.9999979734420776
v 3.5 -4.5 1.9999979734420776
v 3.5 -6.43804407119751 1.9999979734420776
v 2.5 -4.5 1.9999979734420776
v 3.5 -3.5 1.9999979734420776
v 2.5 -3.5 1.9999979734420776
v 3.5 -2.5 1.9999979734420776
v 2.5 -2.5 1.9999979734420776
v 3.5 -1.5 1.9999979734420776
v 2.5 -1.5 1.9999979734420776
v 3.5 -0.5 1.9999979734420776
v 2.5 -0.5 1.9999979734420776
v 3.5 0.5 1.9999979734420776
v 2.5 0.5 1.9999979734420776
v 3.5 1.5 1.9999979734420776
v 2.5 1.5 1.9999979734420776
v 3.5 2.5 1.9999979734420776
v 2.5 2.5 1.9999979734420776
v 3.5 3.5 1.9999996423721313
v 2.5 3.5 2.0
v 5.769999980926514 2.499999761581421 2.499999523162842
v 6.5 3.5 2.5000014305114746
v 6.5 2.499999761581421 2.499999523162842
v 5.5 2.6285791397094727 2.499999523162842
v 5.5 3.5 2.5000014305114746
v 8.49999713897705 3.5 2.5000014305114746
v 6.75 2.4598727226257324 2.499999523162842
v 7.493748664855957 2.5431101322174072 2.499999523162842
v 7.785560607910156 2.499999761581421 2.499999523162842
v 8.49999713897705 2.499999761581421 2.499999523162842
v 2.5 3.5 2.5000016689300537
v 3.5 4.5 2.5000014305114746
v 3.5 3.5 2.5000014305114746
v 2.5 4.5 2.5000016689300537
v 4.5 4.5 2.5000014305114746
v 4.5 3.5 2.5000014305114746
v 5.5 4.5 2.5000014305114746
v 5.2035746574401855 3.5 2.5000014305114746
v 5.384999752044678 3.542231321334839 2.5000014305114746
v 5.5 3.5 2.5000014305114746
v -1.5 -6.43804407119751 0.5
v -1.5 -4.5 1.9999979734420776
v -1.5 -4.5 0.5
v -1.5 -6.43804407119751 1.9999979734420776
v -1.5 -3.5 1.9999979734420776
v -1.5 -3.5 0.5
v -1.5 -2.5 1.9999979734420776
v -1.5 -2.5 0.5
v -1.5 -1.5 1.9999979734420776
v -1.5 -1.5 0.5
v -1.5 -0.5 1.9999979734420776
v -1.5 -0.5 0.5
v -1.5 0.5 1.9999979734420776
v -1.5 0.5 0.5
v -1.5 1.5 1.9999979734420776
v -1.5 1.5 0.5
v -1.5 2.5 1.9999979734420776
v -1.5 2.5 0.5
v -1.5 3.5 1.9999979734420776
v -1.5 3.5 0.5
v -1.5 4.5 1.9999979734420776
v -1.5 4.5 0.5
v -1.5 6.561953067779541 1.9999979734420776
v -1.5 6.561953067779541 0.5
v 2.5 -4.5 0.5
v 2.5 -6.43804407119751 1.9999979734420776
v 2.5 -6.43804407119751 0.5
v 2.5 -4.5 1.9999979734420776
v 2.5 -3.5 0.5
v 2.5 -3.5 1.9999979734420776
v 2.5 -2.5 0.5
v 2.5 -2.5 1.9999979734420776
v 2.5 -1.5 0.5
v 2.5 -1.5 1.9999979734420776
v 2.5 -0.5 0.5
v 2.5 -0.5 1.9999979734420776
v 2.5 0.5 0.5
v 2.5 0.5 1.9999979734420776
v 2.5 1.5 0.5
v 2.5 1.5 1.9999979734420776
v 2.5 2.5 0.5
v 2.5 2.5 1.9999979734420776
v 2.5 3.5 0.5
v 2.5 3.5 2.0
v 2.5 6.561953067779541 0.5
v 2.5 4.5 2.0
v 2.5 4.5 0.5
v 2.5 6.561953067779541 2.0
v 2.5 3.5 2.0
v 2.5 3.5 0.5
v 2.5 4.5 2.5000016689300537
v 2.5 6.561953067779541 2.5000016689300537
v 2.5 3.5 2.5000016689300537
v 5.769999980926514 2.5 1.9999979734420776
v 5.5 2.6285791397094727 2.499999523162842
v 5.769999980926514 2.499999761581421 2.499999523162842
v 5.5 2.6285791397094727 1.9999979734420776
v 6.75 2.4598729610443115 1.9999979734420776
v 6.5 2.499999761581421 2.499999523162842
v 6.75 2.4598727226257324 2.499999523162842
v 6.5 2.5 1.9999979734420776
v 2.5 3.5 2.0
v 3.5 3.5 2.5000014305114746
v 3.5 3.5 1.9999996423721313
v 2.5 3.5 2.5000016689300537
v 4.5 3.5 2.5000014305114746
v 4.5 3.5 1.9999996423721313
v 5.2035746574401855 3.5 1.9999996423721313
v 5.2035746574401855 3.5 2.5000014305114746
v 5.5 3.5 1.9999996423721313
v 5.5 2.6285791397094727 2.499999523162842
v 5.5 2.6285791397094727 1.9999979734420776
v 5.5 3.5 2.5000014305114746
v 6.5 2.5 1.9999979734420776
v 5.769999980926514 2.499999761581421 2.499999523162842
v 6.5 2.499999761581421 2.499999523162842
v 5.769999980926514 2.5 1.9999979734420776
v 5.5 3.5 1.9999996423721313
v 5.384999752044678 3.542231321334839 2.5000014305114746
v 5.5 3.5 2.5000014305114746
v 5.384999752044678 3.542231321334839 1.9999996423721313
v 5.384999752044678 3.542231321334839 1.9999996423721313
v 5.2035746574401855 3.5 2.5000014305114746
v 5.384999752044678 3.542231321334839 2.5000014305114746
v 5.2035746574401855 3.5 1.9999996423721313
v 7.493748664855957 2.5431103706359863 1.9999979734420776
v 6.75 2.4598727226257324 2.499999523162842
v 7.493748664855957 2.5431101322174072 2.499999523162842
v 6.75 2.4598729610443115 1.9999979734420776
v 7.785560607910156 2.5 1.9999979734420776
v 7.493748664855957 2.5431101322174072 2.499999523162842
v 7.785560607910156 2.499999761581421 2.499999523162842
v 7.493748664855957 2.5431103706359863 1.9999979734420776
v 8.49999713897705 2.5 1.9999979734420776
v 7.785560607910156 2.499999761581421 2.499999523162842
v 8.49999713897705 2.499999761581421 2.499999523162842
v 7.785560607910156 2.5 1.9999979734420776
v 2.8982346057891846 -1.0021586418151855 3.0
v 2.4875388145446777 -0.5389232635498047 3.0
v 3.4090216159820557 -0.5389233827590942 3.0
v 2.43530535697937 -0.5951175093650818 3.0
v 2.3608055114746094 -1.0126886367797852 3.0
v 3.506258249282837 -0.5563061833381653 2.9101343154907227
v 3.439896821975708 -0.5072729587554932 0.0
v 3.506258249282837 -0.5563061833381653 0.0
v 3.439896821975708 -0.5072729587554932 2.9101343154907227
v 2.4560067653656006 -0.5072728991508484 2.9101343154907227
v 2.400235891342163 -0.5672729015350342 0.0
v 2.4560067653656006 -0.5072728991508484 0.0
v 2.400235891342163 -0.5672729015350342 0.0
v 2.4560067653656006 -0.5072728991508484 2.9101343154907227
v 2.3894429206848145 -0.5672729015350342 2.9341185092926025
v 2.3894429206848145 -1.4501464366912842 2.9341185092926025
v 2.466597318649292 -1.5072729587554932 0.0
v 2.400235891342163 -1.4501464366912842 0.0
v 2.466597318649292 -1.5072729587554932 0.0
v 2.3894429206848145 -1.4501464366912842 2.9341185092926025
v 2.466597318649292 -1.5072729587554932 2.938308000564575
v 3.449547290802002 -1.5072729587554932 2.938308000564575
v 3.506258249282837 -1.4472728967666626 0.0
v 3.449547290802002 -1.5072729587554932 0.0
v 3.506258249282837 -1.4472728967666626 2.938308000564575
v 3.506258249282837 -1.4472728967666626 2.938308000564575
v 3.506258249282837 -0.5563061833381653 0.0
v 3.506258249282837 -1.4472728967666626 0.0
v 3.506258249282837 -0.5563061833381653 2.9101343154907227
v 2.3894429206848145 -0.5672729015350342 2.9341185092926025
v 2.3257360458374023 -1.0131239891052246 0.0
v 2.400235891342163 -0.5672729015350342 0.0
v 2.3149430751800537 -1.0131239891052246 2.9341185092926025
v 3.439896821975708 -0.5072729587554932 2.9101343154907227
v 2.4560067653656006 -0.5072728991508484 0.0
v 3.439896821975708 -0.5072729587554932 0.0
v 2.4560067653656006 -0.5072728991508484 2.9101343154907227
v 2.466597318649292 -1.5072729587554932 2.938308000564575
v 3.449547290802002 -1.5072729587554932 0.0
v 2.466597318649292 -1.5072729587554932 0.0
v 3.449547290802002 -1.5072729587554932 2.938308000564575
v 3.506258249282837 -0.5563061833381653 2.9101343154907227
v 3.4090216159820557 -0.5389233827590942 3.0
v 3.439896821975708 -0.5072729587554932 2.9101343154907227
v 3.4711735248565674 -0.5848464369773865 3.0
v 2.4560067653656006 -0.5072728991508484 2.9101343154907227
v 2.43530535697937 -0.5951175093650818 3.0
v 2.3894429206848145 -0.5672729015350342 2.9341185092926025
v 2.43530535697937 -0.5951175093650818 3.0
v 2.4560067653656006 -0.5072728991508484 2.9101343154907227
v 2.4875388145446777 -0.5389232635498047 3.0
v 2.3894429206848145 -1.4501464366912842 2.9341185092926025
v 2.497457265853882 -1.4754940271377563 3.0
v 2.466597318649292 -1.5072729587554932 2.938308000564575
v 2.497457265853882 -1.4754940271377563 3.0
v 2.3894429206848145 -1.4501464366912842 2.9341185092926025
v 2.43530535697937 -1.4219911098480225 3.0
v 3.449547290802002 -1.5072729587554932 2.938308000564575
v 3.4711735248565674 -1.419299840927124 3.0
v 3.506258249282837 -1.4472728967666626 2.938308000564575
v 3.418059825897217 -1.475494146347046 3.0
v 3.506258249282837 -1.4472728967666626 2.938308000564575
v 3.4711735248565674 -0.5848464369773865 3.0
v 3.506258249282837 -0.5563061833381653 2.9101343154907227
v 3.4711735248565674 -0.5848464369773865 3.0
v 3.506258249282837 -1.4472728967666626 2.938308000564575
v 3.4711735248565674 -1.419299840927124 3.0
v 2.3149430751800537 -1.0131239891052246 2.9341185092926025
v 2.43530535697937 -1.4219911098480225 3.0
v 2.3894429206848145 -1.4501464366912842 2.9341185092926025
v 2.3149430751800537 -1.0131239891052246 2.9341185092926025
v 2.3608055114746094 -1.0126886367797852 3.0
v 2.3608055114746094 -1.0126886367797852 3.0
v 2.8982346057891846 -1.0021586418151855 3.0
v 3.439896821975708 -0.5072729587554932 2.9101343154907227
v 2.4875388145446777 -0.5389232635498047 3.0
v 2.4560067653656006 -0.5072728991508484 2.9101343154907227
v 3.4090216159820557 -0.5389233827590942 3.0
v 2.466597318649292 -1.5072729587554932 2.938308000564575
v 3.418059825897217 -1.475494146347046 3.0
v 3.449547290802002 -1.5072729587554932 2.938308000564575
v 2.497457265853882 -1.4754940271377563 3.0
v 3.4711735248565674 -0.5848464369773865 3.0
v 2.8982346057891846 -1.0021586418151855 3.0
v 3.4090216159820557 -0.5389233827590942 3.0
v 2.8982346057891846 -1.0021586418151855 3.0
v 3.4711735248565674 -1.419299840927124 3.0
v 3.418059825897217 -1.475494146347046 3.0
v 3.4711735248565674 -0.5848464369773865 3.0
v 3.4711735248565674 -1.419299840927124 3.0
v 2.8982346057891846 -1.0021586418151855 3.0
v 2.497457265853882 -1.4754940271377563 3.0
v 3.418059825897217 -1.475494146347046 3.0
v 2.43530535697937 -1.4219911098480225 3.0
v 2.3149430751800537 -1.0131239891052246 2.9341185092926025
v 2.400235891342163 -1.4501464366912842 0.0
v 2.3257360458374023 -1.0131239891052246 0.0
v 2.3894429206848145 -1.4501464366912842 2.9341185092926025
v 2.3149430751800537 -1.0131239891052246 2.9341185092926025
v 2.43530535697937 -0.5951175093650818 3.0
v 2.3608055114746094 -1.0126886367797852 3.0
v 2.43530535697937 -0.5951175093650818 3.0
v 2.3149430751800537 -1.0131239891052246 2.9341185092926025
v 2.3894429206848145 -0.5672729015350342 2.9341185092926025
vn -0.0 0.0 1.0
vn -0.0 0.0 1.0
vn -0.0 0.0 1.0
vn -0.0 0.0 1.0
vn 0.22975368797779083 0.0 0.9732488393783569
vn 0.22975368797779083 0.0 0.9732488393783569
vn 0.22975370287895203 0.0 0.9732488393783569
vn 0.22975368797779083 0.0 0.9732488393783569
vn -0.0 0.0 1.0
vn -0.0 0.0 1.0
vn -0.0 0.0 1.0
vn -0.0 0.0 1.0
vn -0.0 0.0 1.0
vn -0.0 0.0 1.0
vn 0.22975368797779083 0.0 0.9732488393783569
vn 0.22975370287895203 0.0 0.9732487201690674
vn -0.0 0.0 1.0
vn -0.0 0.0 1.0
vn -0.0 0.22975370287895203 0.9732488393783569
vn -0.0 0.22975370287895203 0.9732487201690674
vn 0.17528991401195526 0.17528991401195526 0.9687862992286682
vn 0.22975370287895203 0.0 0.9732487201690674
vn -0.0 0.0 1.0
vn -0.0 0.0 1.0
vn -0.0 0.22975370287895203 0.9732487201690674
vn -0.0 0.22975370287895203 0.9732488393783569
vn -0.0 0.22975370287895203 0.9732487201690674
vn 0.060281988233327866 0.060281988233327866 0.9963594079017639
vn -0.0 0.0 1.0
vn -0.0 0.0 1.0
vn -0.0 0.0 1.0
vn -0.0 0.0 1.0
vn -0.0 0.0 1.0
vn -0.0 0.0 1.0
vn -0.0 0.0 1.0
vn -0.0 0.0 1.0
vn -0.0 -0.22975338995456696 0.9732488393783569
vn -0.0 -0.22975338995456696 0.9732488393783569
vn 0.05873483046889305 -0.17279517650604248 0.9832049012184143
vn -0.0 0.0 1.0
vn -0.0 0.0 1.0
vn -0.0 0.0 1.0
vn -0.0 -0.22975340485572815 0.9732488393783569
vn -0.0 -0.22975338995456696 0.9732488393783569
vn 0.21822243928909302 -0.21822243928909302 0.9511876702308655
vn 0.17279517650604248 -0.05873483046889305 0.9832049012184143
vn -0.0 0.0 1.0
vn -0.0 0.0 1.0
vn -0.0 0.0 1.0
vn -0.0 0.0 1.0
vn 0.17279517650604248 -0.05873483046889305 0.9832049012184143
vn 0.2748817503452301 -0.15592630207538605 0.9487501382827759
vn -0.0 0.0 1.0
vn -0.0 0.0 1.0
vn -0.0 0.0 1.0
vn -0.0 0.0 1.0
vn -0.0 0.0 1.0
vn 0.2748817801475525 -0.15592631697654724 0.9487501382827759
vn 0.17279517650604248 -0.05873483046889305 0.9832049012184143
vn -0.0 0.0 1.0
vn -0.0 0.0 1.0
vn -0.0 0.0 1.0
vn -0.0 0.0 1.0
vn 0.22975341975688934 0.0 0.9732488393783569
vn 0.22975341975688934 0.0 0.9732488393783569
vn -0.0 0.0 1.0
vn -0.0 0.0 1.0
vn -0.0 0.0 1.0
vn -0.0 0.0 1.0
vn 0.22975341975688934 0.0 0.9732488393783569
vn 0.22975337505340576 0.0 0.9732488393783569
vn -0.0 0.0 1.0
vn -0.0 0.0 1.0
vn -0.0 0.0 1.0
vn -0.0 0.0 1.0
vn -0.0 0.0 1.0
vn -0.0 0.0 1.0
vn -0.0 0.0 1.0
vn -0.0 0.0 1.0
vn -0.0 0.0 1.0
vn -0.0 0.0 1.0
vn -0.0 0.0 1.0
vn -0.0 0.0 1.0
vn -0.0 0.0 1.0
vn -0.0 0.0 1.0
vn -0.0 0.0 1.0
vn -0.0 0.0 1.0
vn -0.0 0.0 1.0
vn -0.0 0.0 1.0
vn -0.0 0.0 1.0
vn -0.0 0.0 1.0
vn -0.0 0.0 1.0
vn -0.0 0.0 1.0
vn -0.0 0.0 1.0
vn -0.0 0.0 1.0
vn -0.0 0.0 1.0
vn -0.0 0.0 1.0
vn -0.0 0.0 1.0
vn -0.0 0.0 1.0
vn -0.0 0.0 1.0
vn -0.0 0.0 1.0
vn -0.0 0.0 1.0
vn -0.0 0.0 1.0
vn -0.0 0.0 1.0
vn -0.0 0.0 1.0
vn -0.0 0.0 1.0
vn -0.0 0.0 1.0
vn -0.0 0.0 1.0
vn -0.0 0.0 1.0
vn -0.0 0.0 1.0
vn -0.0 0.0 1.0
vn -0.0 0.0 1.0
vn -0.0 0.0 1.0
vn -0.0 0.0 1.0
vn -0.0 0.0 1.0
vn -0.0 0.0 1.0
vn -0.0 0.0 1.0
vn -0.0 0.0 1.0
vn -0.0 0.0 1.0
vn -0.0 0.0 1.0
vn -0.0 0.0 1.0
vn -0.0 0.0 1.0
vn -0.0 0.0 1.0
vn -0.0 0.0 1.0
vn -0.0 0.0 1.0
vn -0.0 0.0 1.0
vn -0.0 0.0 1.0
vn -0.0 0.0 1.0
vn -0.0 0.0 1.0
vn -0.0 0.0 1.0
vn -0.0 0.0 1.0
vn -0.0 0.0 1.0
vn -0.22975347936153412 0.0 0.9732488393783569
vn -0.2297535389661789 0.0 0.9732488393783569
vn -0.2297535091638565 0.0 0.9732488393783569
vn -0.2297535091638565 0.0 0.9732488393783569
vn -0.0 0.0 1.0
vn -0.0 0.0 1.0
vn -0.0 0.0 1.0
vn -0.0 0.0 1.0
vn -0.0 0.0 1.0
vn -0.0 0.0 1.0
vn -0.27488192915916443 0.1559264063835144 0.9487501382827759
vn -0.17279526591300964 0.05873486399650574 0.9832049012184143
vn -0.0 0.0 1.0
vn -0.0 0.0 1.0
vn -0.0 0.0 1.0
vn -0.21418696641921997 0.21418696641921997 0.9530203342437744
vn -0.0 0.0 1.0
vn -0.1559264063835144 0.27488192915916443 0.9487501382827759
vn -0.0 0.2297535389661789 0.9732488393783569
vn -0.0 0.2297535389661789 0.9732488393783569
vn -0.0 0.0 1.0
vn -0.0 0.0 1.0
vn -0.05873486027121544 0.17279525101184845 0.9832049012184143
vn -0.0 0.2297535091638565 0.9732488393783569
vn -0.0 0.2297535389661789 0.9732488393783569
vn -0.0 0.0 1.0
vn -0.0 0.0 1.0
vn -0.0 0.0 1.0
vn -0.0 0.0 1.0
vn -0.0 0.0 1.0
vn -0.0 0.0 1.0
vn -0.0 0.0 1.0
vn -0.0 0.0 1.0
vn -0.0 0.0 1.0
vn -0.0 0.0 1.0
vn -0.0 0.0 1.0
vn -0.0 0.0 1.0
vn -0.0 0.0 1.0
vn -0.0 0.0 1.0
vn -0.0 0.0 1.0
vn -0.0 -8.299034561787266e-07 1.0
vn -0.0 -8.392333370466076e-07 1.0
vn -0.0 -7.666122883165372e-07 1.0
vn -0.0 0.0 1.0
vn -0.0 0.0 1.0
vn -0.0 0.0 1.0
vn -0.0 0.0 1.0
vn -0.0 0.0 1.0
vn -0.0 0.0 1.0
vn -0.0 -1.6784669014668907e-06 1.0
vn 1.144409083053688e-07 -1.7929077102962765e-06 1.0
vn -1.6550943371385074e-07 -1.5129573966987664e-06 1.0
vn -2.22079549416776e-07 -1.4218785509001464e-06 1.0
vn 3.3446386282776075e-07 -1.913787173180026e-06 1.0
vn -0.0 -6.938627734598413e-07 1.0
vn -0.0 0.0 1.0
vn -0.0 -8.520908636455715e-07 1.0
vn -0.0 0.0 1.0
vn -0.0 0.0 1.0
vn -0.0 -8.421790198553936e-07 1.0
vn -0.0 0.0 1.0
vn -0.0 0.0 1.0
vn -0.0 0.0 1.0
vn -0.0 0.0 1.0
vn 2.288818308215923e-07 0.0 1.0
vn 2.288818166107376e-07 0.0 1.0
vn 4.577636616431846e-07 0.0 1.0
vn 4.577636616431846e-07 0.0 1.0
vn -0.0 0.0 1.0
vn -0.0 0.0 1.0
vn -0.0 0.0 1.0
vn -0.0 0.0 1.0
vn -0.0 0.0 1.0
vn -0.0 0.0 1.0
vn -0.0 0.0 1.0
vn -0.0 0.0 1.0
vn -0.0 0.0 1.0
vn -0.0 0.0 1.0
vn -0.0 0.0 1.0
vn -0.0 0.0 1.0
vn -0.0 0.0 1.0
vn -0.0 0.0 1.0
vn -0.0 0.0 1.0
vn -0.0 0.0 1.0
vn -0.0 0.0 1.0
vn -0.0 0.0 1.0
vn -0.0 0.0 1.0
vn -0.0 0.0 1.0
vn -0.0 0.0 1.0
vn -0.0 0.0 1.0
vn -0.0 0.0 1.0
vn -0.0 0.0 1.0
vn -0.0 0.0 1.0
vn -0.0 0.0 1.0
vn -0.2297535091638565 0.0 0.9732488393783569
vn -0.22975347936153412 0.0 0.9732488393783569
vn -0.0 0.0 1.0
vn -0.17279526591300964 0.05873486399650574 0.9832049012184143
vn -0.0 0.0 1.0
vn -0.0 0.0 1.0
vn -0.0 0.0 1.0
vn -0.0 0.0 1.0
vn -0.0 0.0 1.0
vn -0.0 0.0 1.0
vn -0.0 0.0 1.0
vn -0.0 0.0 1.0
vn -0.0 0.0 1.0
vn -0.0 0.0 1.0
vn -0.0 0.0 1.0
vn -0.0 -8.392333370466076e-07 1.0
vn 1.144409083053688e-07 -9.536742595628311e-07 1.0
vn 1.144409083053688e-07 -1.7929077102962765e-06 1.0
vn 4.577636616431846e-07 -2.136230477844947e-06 1.0
vn -3.863630695377651e-07 -1.396421794197522e-06 1.0
vn -0.0 -8.520908636455715e-07 1.0
vn -0.0 -1.6015063692975673e-06 1.0
vn -3.4177642760369054e-07 -1.5339204537667683e-06 1.0
vn -0.0 -6.938627734598413e-07 1.0
vn -0.0 -8.421790198553936e-07 1.0
vn -1.4084145050219377e-07 -1.3767497648586868e-06 1.0
vn 1.0330704469652119e-07 -1.8627218878464191e-06 1.0
vn -1.5311236722936883e-07 -1.5690776535848272e-06 1.0
vn -0.0 -1.6784665604063775e-06 1.0
vn 4.577636616431846e-07 0.0 1.0
vn 2.288818308215923e-07 0.0 1.0
vn 2.288818308215923e-07 0.0 1.0
vn 4.577636616431846e-07 0.0 1.0
vn -0.0 0.0 1.0
vn -0.0 0.0 1.0
vn -0.0 0.0 1.0
vn -0.0 0.0 1.0
vn -0.0 0.0 1.0
vn -0.0 -6.938627734598413e-07 1.0
vn 1.0 0.0 0.0
vn 1.0 0.0 0.0
vn 1.0 0.0 0.0
vn 1.0 0.0 0.0
vn 1.0 0.0 0.0
vn 1.0 0.0 0.0
vn 1.0 0.0 0.0
vn 1.0 0.0 0.0
vn 1.0 0.0 0.0
vn 1.0 0.0 0.0
vn 1.0 0.0 0.0
vn 1.0 0.0 0.0
vn 1.0 0.0 0.0
vn 1.0 0.0 0.0
vn 1.0 0.0 0.0
vn 1.0 0.0 0.0
vn 1.0 0.0 0.0
vn 1.0 0.0 0.0
vn 1.0 0.0 0.0
vn 1.0 0.0 0.0
vn 1.0 0.0 0.0
vn 1.0 0.0 0.0
vn 1.0 0.0 0.0
vn 1.0 0.0 0.0
vn -1.0 0.0 0.0
vn -1.0 0.0 0.0
vn -1.0 0.0 0.0
vn -1.0 0.0 0.0
vn -1.0 0.0 0.0
vn -1.0 0.0 0.0
vn -1.0 0.0 0.0
vn -1.0 0.0 0.0
vn -1.0 0.0 0.0
vn -1.0 0.0 0.0
vn -1.0 0.0 0.0
vn -1.0 0.0 0.0
vn -1.0 0.0 0.0
vn -1.0 0.0 0.0
vn -1.0 0.0 0.0
vn -1.0 0.0 0.0
vn -1.0 0.0 0.0
vn -1.0 0.0 0.0
vn -1.0 0.0 0.0
vn -1.0 0.0 0.0
vn -1.0 0.0 0.0
vn -1.0 0.0 0.0
vn -1.0 0.0 0.0
vn -1.0 0.0 0.0
vn -1.0 0.0 0.0
vn -1.0 0.0 0.0
vn -1.0 0.0 0.0
vn -1.0 0.0 0.0
vn -1.0 0.0 0.0
vn -0.4299548864364624 -0.9028503894805908 -2.7552715664569405e-07
vn -0.4299549460411072 -0.9028503894805908 -2.7552715664569405e-07
vn -0.4299548864364624 -0.9028503894805908 -2.7552715664569405e-07
vn -0.42995449900627136 -0.9028506278991699 0.0
vn -0.15847937762737274 -0.987362265586853 -3.01318095807801e-07
vn -0.15847936272621155 -0.987362265586853 -3.0131806738609157e-07
vn -0.15847937762737274 -0.987362265586853 -3.01318095807801e-07
vn -0.15847937762737274 -0.987362265586853 -3.01318095807801e-07
vn -0.0 -1.0 0.0
vn -0.0 -1.0 0.0
vn -0.0 -1.0 0.0
vn -0.0 -1.0 0.0
vn -0.0 -1.0 0.0
vn -0.0 -1.0 0.0
vn -0.0 -1.0 0.0
vn -0.0 -1.0 0.0
vn -1.0 0.0 0.0
vn -1.0 0.0 0.0
vn -1.0 0.0 0.0
vn -1.0 0.0 0.0
vn -0.0 -1.0 -3.051748080906691e-07
vn -0.0 -1.0 -3.0517477966895967e-07
vn -0.0 -1.0 -3.0517475124725024e-07
vn -0.0 -1.0 -3.0517475124725024e-07
vn -0.3447206914424896 -0.9387052655220032 0.0
vn -0.3447206914424896 -0.9387052655220032 0.0
vn -0.3447206914424896 -0.9387052655220032 0.0
vn -0.3447206914424896 -0.9387052655220032 0.0
vn 0.22671489417552948 -0.9739611744880676 0.0
vn 0.22671489417552948 -0.9739611744880676 0.0
vn 0.22671489417552948 -0.9739611744880676 0.0
vn 0.22671489417552948 -0.9739611744880676 0.0
vn 0.11122152954339981 -0.99379563331604 -3.03281382230125e-07
vn 0.11122153699398041 -0.99379563331604 -3.03281382230125e-07
vn 0.11122152954339981 -0.99379563331604 -3.032813538084156e-07
vn 0.11122152954339981 -0.99379563331604 -3.032813538084156e-07
vn -0.1461469978094101 -0.9892628788948059 -3.018980407887284e-07
vn -0.14614702761173248 -0.9892628788948059 -3.018980692104378e-07
vn -0.1461470127105713 -0.9892628788948059 -3.018980692104378e-07
vn -0.1461470127105713 -0.9892628788948059 -3.018980692104378e-07
vn -0.0 -1.0 -3.0517475124725024e-07
vn -0.0 -1.0 -3.0517477966895967e-07
vn -0.0 -1.0 -3.051747228255408e-07
vn -0.0 -1.0 -3.051747228255408e-07
vn -0.0 0.0 1.0
vn -0.0 0.0 1.0
vn -0.0 0.0 1.0
vn -0.0 0.0 1.0
vn -0.0 0.0 1.0
vn 0.5942615270614624 0.8042718768119812 0.0
vn 0.5942615270614624 0.8042718768119812 0.0
vn 0.5942615270614624 0.8042718768119812 0.0
vn 0.5942615270614624 0.8042718768119812 0.0
vn -0.7324480414390564 0.6808229684829712 0.0
vn -0.7324480414390564 0.6808229684829712 0.0
vn -0.7324480414390564 0.6808229684829712 0.0
vn -0.67002272605896 0.7423365712165833 -0.0024646082893013954
vn -0.6700226068496704 0.7423365712165833 -0.0024646080564707518
vn -0.67002272605896 0.7423365712165833 -0.0024646080564707518
vn -0.6524028182029724 -0.7578686475753784 -0.002399794990196824
vn -0.6524026989936829 -0.7578686475753784 -0.002399794990196824
vn -0.6524026989936829 -0.7578686475753784 -0.002399794990196824
vn -0.5950605273246765 -0.8036807775497437 0.0
vn -0.5950606465339661 -0.8036807775497437 0.0
vn -0.5950606465339661 -0.8036807775497437 0.0
vn 0.726746141910553 -0.6869061589241028 0.0
vn 0.726746141910553 -0.6869062185287476 0.0
vn 0.726746141910553 -0.6869062185287476 0.0
vn 0.726746141910553 -0.6869062185287476 0.0
vn 1.0 0.0 0.0
vn 1.0 0.0 0.0
vn 1.0 0.0 0.0
vn 1.0 0.0 0.0
vn -0.9863187074661255 0.16480965912342072 -0.003628069767728448
vn -0.9863187074661255 0.16480965912342072 -0.0036280700005590916
vn -0.9863187074661255 0.16480965912342072 -0.003628069767728448
vn -0.9863187074661255 0.16480965912342072 -0.003628069767728448
vn -0.0 1.0 0.0
vn -0.0 1.0 0.0
vn -0.0 1.0 0.0
vn -0.0 1.0 0.0
vn -0.0 -1.0 0.0
vn -0.0 -1.0 0.0
vn -0.0 -1.0 0.0
vn -0.0 -1.0 0.0
vn 0.5341818928718567 0.7229601740837097 0.43815335631370544
vn 0.5341818928718567 0.7229601740837097 0.43815335631370544
vn 0.5341818928718567 0.7229601740837097 0.43815338611602783
vn 0.5341821908950806 0.7229598164558411 0.4381536841392517
vn -0.4169059693813324 0.6961408853530884 0.584446132183075
vn -0.4169059693813324 0.6961408853530884 0.584446132183075
vn -0.4169059693813324 0.6961408853530884 0.5844461917877197
vn -0.6559634804725647 0.6097284555435181 0.44490790367126465
vn -0.6559634804725647 0.6097284555435181 0.44490790367126465
vn -0.6559634804725647 0.6097284555435181 0.44490787386894226
vn -0.5043694376945496 -0.6385685205459595 0.5812416076660156
vn -0.1530061662197113 -0.5321555137634277 0.8327062726020813
vn -0.5043694376945496 -0.6385685205459595 0.5812416672706604
vn -0.1530061662197113 -0.5321555137634277 0.8327062726020813
vn -0.5149098038673401 -0.5981472730636597 0.61407470703125
vn -0.436134934425354 -0.24331887066364288 0.8663614392280579
vn 0.588445782661438 -0.5561873316764832 0.5868451595306396
vn 0.5160353183746338 -0.17579975724220276 0.8383328914642334
vn 0.588445782661438 -0.5561873316764832 0.5868450999259949
vn 0.18571335077285767 -0.5278613567352295 0.8287779688835144
vn 0.930208683013916 0.011600315570831299 0.36684751510620117
vn 0.930208683013916 0.011600316502153873 0.36684751510620117
vn 0.9302088022232056 0.011600317433476448 0.36684751510620117
vn 0.869260847568512 0.0 0.49435362219810486
vn 0.869260847568512 0.0 0.49435368180274963
vn 0.5160353183746338 -0.17579975724220276 0.8383328914642334
vn -0.7855756878852844 -0.1339181512594223 0.6040999889373779
vn -0.436134934425354 -0.24331887066364288 0.8663614392280579
vn -0.7855756878852844 -0.1339181512594223 0.6040999889373779
vn -0.8112648129463196 -0.1476639360189438 0.5657250881195068
vn -0.8112648129463196 -0.1476639211177826 0.5657250881195068
vn -0.0 0.0 1.0
vn -0.0 0.0 1.0
vn -0.0 0.9432106614112854 0.3321954011917114
vn -0.0 0.9432106614112854 0.3321954309940338
vn -0.0 0.9432106614112854 0.3321954309940338
vn -0.0 0.9432105422019958 0.3321954607963562
vn -0.0 -0.8889859914779663 0.45793431997299194
vn 0.18571335077285767 -0.5278613567352295 0.8287779688835144
vn -0.0 -0.8889859914779663 0.45793429017066956
vn -0.1530061662197113 -0.5321555137634277 0.8327062726020813
vn -0.0 0.0 1.0
vn -0.0 0.0 1.0
vn -0.0 0.0 1.0
vn -0.0 0.0 1.0
vn 0.5160353183746338 -0.17579975724220276 0.8383328914642334
vn 0.18571335077285767 -0.5278613567352295 0.8287779688835144
vn -0.0 0.0 1.0
vn 0.5160353183746338 -0.17579975724220276 0.8383328914642334
vn -0.0 0.0 1.0
vn -0.1530061662197113 -0.5321555137634277 0.8327062726020813
vn 0.18571335077285767 -0.5278613567352295 0.8287779688835144
vn -0.436134934425354 -0.24331887066364288 0.8663614392280579
vn -0.985772430896759 -0.1680459827184677 -0.0036260606721043587
vn -0.9857725501060486 -0.1680459827184677 -0.0036260609049350023
vn -0.985772430896759 -0.1680459827184677 -0.0036260606721043587
vn -0.985772430896759 -0.1680459827184677 -0.0036260606721043587
vn -0.8124995827674866 0.1449601948261261 0.5646511912345886
vn -0.8124995827674866 0.1449601948261261 0.5646511316299438
vn -0.8124995827674866 0.1449601948261261 0.5646511316299438
vn -0.7866846323013306 0.13145165145397186 0.6031978726387024
vn -0.7866847515106201 0.13145165145397186 0.6031978726387024
vn -0.7866847515106201 0.13145166635513306 0.6031979322433472
vt 2.7442164421081543 0.25726914405822754
vt 2.2263028621673584 -0.24743616580963135
vt 2.7442164421081543 -0.24743616580963135
vt 2.2263028621673584 0.25726914405822754
vt 2.2263028621673584 -0.49699485301971436
vt 2.7442164421081543 -0.49699485301971436
vt 2.2263028621673584 -0.7465535402297974
vt 2.7442164421081543 -0.7465535402297974
vt 2.2263026237487793 -0.9961122274398804
vt 2.7442164421081543 -0.9961122274398804
vt 2.2263026237487793 -1.245671033859253
vt 2.7442164421081543 -1.245671033859253
vt 1.9789140224456787 -0.24743616580963135
vt 1.9789140224456787 0.25726914405822754
vt 1.9789140224456787 -0.49699485301971436
vt 1.9789140224456787 -0.7465535402297974
vt 1.9789140224456787 -0.9961122274398804
vt 1.9789140224456787 -1.245671033859253
vt 1.731525182723999 -0.24743616580963135
vt 1.731525182723999 0.25726914405822754
vt 1.731525182723999 -0.49699485301971436
vt 1.731525182723999 -0.7465535402297974
vt 1.731525182723999 -0.9961119890213013
vt 1.731525182723999 -1.245671033859253
vt 1.4841365814208984 -0.24743616580963135
vt 1.4841365814208984 0.25726914405822754
vt 1.4841365814208984 -0.49699485301971436
vt 1.4841365814208984 -0.7465535402297974
vt 1.4841365814208984 -0.9961119890213013
vt 1.4841365814208984 -1.245671033859253
vt 1.2367477416992188 -0.24743616580963135
vt 1.2367477416992188 0.25726914405822754
vt 1.2367477416992188 -0.49699485301971436
vt 1.2367477416992188 -0.7465535402297974
vt 1.2367477416992188 -0.9961119890213013
vt 1.2367477416992188 -1.245671033859253
vt 0.9893591403961182 -0.24743616580963135
vt 0.9893591403961182 0.25726914405822754
vt 0.9893591403961182 -0.49699485301971436
vt 0.9893591403961182 -0.7465535402297974
vt 0.9893591403961182 -0.9961119890213013
vt 0.9893591403961182 -1.2456707954406738
vt 0.7419705390930176 -0.2474360466003418
vt 0.7419705390930176 0.25726914405822754
vt 0.7419705390930176 -0.49699461460113525
vt 0.7419705390930176 -0.7465535402297974
vt 0.7419705390930176 -0.9961119890213013
vt 0.7419705390930176 -1.2456707954406738
vt 0.4945816397666931 -0.2474360466003418
vt 0.4945816397666931 0.25726914405822754
vt 0.4945816397666931 -0.49699461460113525
vt 0.4945816397666931 -0.7465535402297974
vt 0.4945816397666931 -0.9961119890213013
vt 0.4945816397666931 -1.2456707954406738
vt 0.24719268083572388 -0.2474360466003418
vt 0.24719268083572388 0.2572692632675171
vt 0.24719268083572388 -0.49699461460113525
vt 0.24719268083572388 -0.7465533018112183
vt 0.24719268083572388 -0.9961119890213013
vt 0.24719268083572388 -1.2456707954406738
vt -0.00019591301679611206 -0.2474360466003418
vt -0.00019591301679611206 0.2572692632675171
vt -0.00019591301679611206 -0.49699461460113525
vt -0.00019591301679611206 -0.7465533018112183
vt -0.00019591301679611206 -0.9961119890213013
vt -0.00019591301679611206 -1.2456707954406738
vt -0.5360113978385925 -0.24743592739105225
vt -0.5360113978385925 0.2572692632675171
vt -0.5360113978385925 -0.49699461460113525
vt -0.5360113978385925 -0.7465533018112183
vt -0.5360113978385925 -0.9961119890213013
vt -0.5360113978385925 -1.2456707954406738
vt 1.497351884841919 1.2705250084400177
vt 1.746910572052002 0.7526112645864487
vt 1.746910572052002 1.2705250084400177
vt 1.497351884841919 0.7526112645864487
vt 1.996469259262085 0.7526112645864487
vt 1.996469259262085 1.2705250084400177
vt 2.246027946472168 0.7526112645864487
vt 2.246027946472168 1.2705250084400177
vt 2.495586633682251 0.7526112645864487
vt 2.495586633682251 1.2705250084400177
vt 1.746910572052002 0.5052225291728973
vt 1.497351884841919 0.5052225291728973
vt 1.996469259262085 0.5052225291728973
vt 2.246027946472168 0.5052225291728973
vt 2.495586633682251 0.5052225291728973
vt 1.746910572052002 0.2578337788581848
vt 1.497351884841919 0.2578337788581848
vt 1.996469259262085 0.2578337788581848
vt 2.246027946472168 0.2578337788581848
vt 2.495586633682251 0.2578337788581848
vt 1.746910572052002 0.010445058345794678
vt 1.497351884841919 0.010445058345794678
vt 1.996469259262085 0.010445058345794678
vt 2.246027946472168 0.010445058345794678
vt 2.495586633682251 0.010445058345794678
vt 1.746910572052002 -0.23694372177124023
vt 1.497351884841919 -0.23694372177124023
vt 1.996469259262085 -0.23694372177124023
vt 2.246027946472168 -0.23694372177124023
vt 2.495586633682251 -0.23694372177124023
vt 1.746910572052002 -0.48433244228363037
vt 1.497351884841919 -0.48433244228363037
vt 1.996469259262085 -0.48433244228363037
vt 2.246027946472168 -0.48433244228363037
vt 2.495586633682251 -0.48433244228363037
vt 1.746910572052002 -0.731721043586731
vt 1.497351884841919 -0.731721043586731
vt 1.996469259262085 -0.731721043586731
vt 2.246027946472168 -0.731721043586731
vt 2.495586633682251 -0.731721043586731
vt 1.746910572052002 -0.9791098833084106
vt 1.497351884841919 -0.9791098833084106
vt 1.996469259262085 -0.9791098833084106
vt 2.246027946472168 -0.9791098833084106
vt 2.495586633682251 -0.9791098833084106
vt 1.746910572052002 -1.2264988422393799
vt 1.497351884841919 -1.2264988422393799
vt 1.996469259262085 -1.2264988422393799
vt 2.246027946472168 -1.2264988422393799
vt 2.495586633682251 -1.2264988422393799
vt 1.746910572052002 -1.4738874435424805
vt 1.497351884841919 -1.4738874435424805
vt 1.996469259262085 -1.4738874435424805
vt 2.246027946472168 -1.4738874435424805
vt 2.495586633682251 -1.4738874435424805
vt 1.746910572052002 -2.0097029209136963
vt 1.497351884841919 -2.0097029209136963
vt 1.996469259262085 -2.0097029209136963
vt 2.246027946472168 -2.0097029209136963
vt 2.495586633682251 -2.0097029209136963
vt 2.513357400894165 0.005986630916595459
vt 1.9937775135040283 -0.24357235431671143
vt 2.513357400894165 -0.24357235431671143
vt 1.9937775135040283 0.005986630916595459
vt 1.9937775135040283 -0.49313080310821533
vt 2.513357400894165 -0.49313080310821533
vt 1.9937775135040283 -0.7426891326904297
vt 2.513357400894165 -0.7426891326904297
vt 1.9937775135040283 -1.251831293106079
vt 2.513357400894165 -1.251831293106079
vt 1.745592713356018 -0.24357235431671143
vt 1.745592713356018 0.005986630916595459
vt 1.745592713356018 -0.49313080310821533
vt 1.745592713356018 -0.7426891326904297
vt 1.745592713356018 -1.251831293106079
vt 1.497408151626587 -0.24357235431671143
vt 1.497408151626587 0.005986630916595459
vt 1.4974079132080078 -0.49313080310821533
vt 1.4974079132080078 -0.7426891326904297
vt 1.4974079132080078 -1.251831293106079
vt 1.2492233514785767 -0.24357235431671143
vt 1.2492233514785767 0.005986630916595459
vt 1.2492231130599976 -0.49313080310821533
vt 1.2492231130599976 -0.7426891326904297
vt 1.2492231130599976 -1.251831293106079
vt 1.001038670539856 -0.24357235431671143
vt 1.001038670539856 0.005986630916595459
vt 1.0010384321212769 -0.49313080310821533
vt 1.0010384321212769 -0.7426891326904297
vt 1.0010384321212769 -1.251831293106079
vt 0.7528538107872009 -0.24357211589813232
vt 0.7528538107872009 0.0059868693351745605
vt 0.7528535723686218 -0.49313056468963623
vt 0.7528535723686218 -0.7426888942718506
vt 0.7528535723686218 -1.2518310546875
vt 0.5046692490577698 -0.24357211589813232
vt 0.5046692490577698 0.0059868693351745605
vt 0.5046690106391907 -0.49313056468963623
vt 0.5046690106391907 -0.7426888942718506
vt 0.5046690106391907 -1.2518310546875
vt 0.2564845383167267 -0.24357211589813232
vt 0.2564845383167267 0.0059868693351745605
vt 0.2564842998981476 -0.49313056468963623
vt 0.2564842998981476 -0.7426888942718506
vt 0.2564842998981476 -0.5605113506317139
vt 0.2564842998981476 -1.2518310546875
vt 0.2564842998981476 -1.069955825805664
vt 0.2564842998981476 -0.995668888092041
vt 0.2564842998981476 -0.8063316345214844
vt 0.008299507200717926 -0.24357211589813232
vt 0.008299507200717926 0.0059868693351745605
vt 0.00829926785081625 -0.49313056468963623
vt 0.008299295790493488 -0.4644312858581543
vt 0.008299339562654495 -0.4191551208496094
vt 0.7553063035011292 0.2471083402633667
vt 1.0048649311065674 -0.0002802610397338867
vt 1.0048649311065674 0.2471083402633667
vt 0.7553063035011292 -0.0002802610397338867
vt 1.5701566934585571 -0.0002802610397338867
vt 1.5701566934585571 0.2471083402633667
vt 1.0048649311065674 -0.5360957384109497
vt 0.7553063035011292 -0.5360957384109497
vt 0.5057476162910461 -0.0002802610397338867
vt 0.5057476162910461 -0.5360957384109497
vt 0.25618889927864075 -0.0002802610397338867
vt 0.25618889927864075 -0.5360957384109497
vt 0.006630454212427139 -0.0002802610397338867
vt 0.006630454212427139 -0.5360957384109497
vt 1.5701566934585571 -0.5360957384109497
vt -0.2628341317176819 0.0014876723289489746
vt 0.2519131004810333 0.2452700138092041
vt -0.2628341317176819 0.2452700138092041
vt 0.2519131004810333 0.0014876723289489746
vt 0.5000566244125366 0.2452700138092041
vt 0.5000566244125366 0.0014876723289489746
vt 0.7482002973556519 0.2452700138092041
vt 0.7482002973556519 0.0014876723289489746
vt 0.9963439702987671 0.2452700138092041
vt 0.9963439702987671 0.0014876723289489746
vt 1.2444874048233032 0.2452700138092041
vt 1.2444874048233032 0.004964590072631836
vt 1.4926308393478394 0.2452700138092041
vt 1.4926308393478394 0.004964590072631836
vt 1.7407742738723755 0.2452700138092041
vt 1.7407742738723755 0.004964590072631836
vt 1.9889180660247803 0.2452700138092041
vt 1.9889180660247803 0.004964590072631836
vt 2.2370617389678955 0.2452700138092041
vt 2.2370617389678955 0.004964590072631836
vt 2.48520565032959 0.2452700138092041
vt 2.48520565032959 0.004964590072631836
vt 3.0799336433410645 0.2452700138092041
vt 3.0799336433410645 0.004964590072631836
vt 2.5264410972595215 0.2475130558013916
vt 1.9916205406188965 0.004743695259094238
vt 2.5264410972595215 0.004743695259094238
vt 1.9916205406188965 0.2475130558013916
vt 1.7436003684997559 0.004743695259094238
vt 1.7436003684997559 0.2475130558013916
vt 1.4955805540084839 0.004743695259094238
vt 1.4955805540084839 0.2475130558013916
vt 1.247560739517212 0.004743695259094238
vt 1.247560739517212 0.2475130558013916
vt 0.9995409846305847 0.0014876723289489746
vt 0.9995409846305847 0.2475130558013916
vt 0.7515210509300232 0.0014876723289489746
vt 0.7515210509300232 0.2475130558013916
vt 0.5035012364387512 0.0014876723289489746
vt 0.5035012364387512 0.2475130558013916
vt 0.2554813027381897 0.0014876723289489746
vt 0.2554813027381897 0.2475130558013916
vt 0.007461490109562874 0.0014876723289489746
vt 0.007461490109562874 0.24751269817352295
vt 0.07474953681230545 0.2562299370765686
vt 0.25503432750701904 0.0014876723289489746
vt 0.25503432750701904 0.2562299370765686
vt 0.008068868890404701 0.2562299370765686
vt 0.008068868890404701 0.0014876723289489746
vt 0.7494158744812012 0.0014876723289489746
vt 0.316832035779953 0.2562299370765686
vt 0.5006802082061768 0.2562299370765686
vt 0.5728135704994202 0.2562299370765686
vt 0.7494159936904907 0.2562299370765686
vt 0.007359516806900501 0.250008225440979
vt 0.2552569508552551 0.0014876723289489746
vt 0.2552569508552551 0.250008225440979
vt 0.007359625771641731 0.0014876723289489746
vt 0.5031542778015137 0.0014876723289489746
vt 0.5031542778015137 0.250008225440979
vt 0.7510515451431274 0.0014876723289489746
vt 0.6775686144828796 0.25000816583633423
vt 0.7225433588027954 0.25000816583633423
vt 0.7510515451431274 0.25000816583633423
vt -0.2628341317176819 0.6057276725769043
vt 0.2519131004810333 0.2452700138092041
vt 0.2519131004810333 0.6057276725769043
vt -0.2628341317176819 0.2452700138092041
vt 0.5000566244125366 0.2452700138092041
vt 0.5000566244125366 0.6057276725769043
vt 0.7482002973556519 0.2452700138092041
vt 0.7482002973556519 0.6057276725769043
vt 0.9963439702987671 0.2452700138092041
vt 0.9963439702987671 0.6057276725769043
vt 1.2444874048233032 0.2452700138092041
vt 1.2444874048233032 0.6057276725769043
vt 1.4926308393478394 0.2452700138092041
vt 1.4926308393478394 0.6057276725769043
vt 1.7407742738723755 0.2452700138092041
vt 1.7407742738723755 0.6057276725769043
vt 1.9889180660247803 0.2452700138092041
vt 1.9889180660247803 0.6057276725769043
vt 2.2370617389678955 0.2452700138092041
vt 2.2370617389678955 0.6057276725769043
vt 2.48520565032959 0.2452700138092041
vt 2.48520565032959 0.6057276725769043
vt 3.0799336433410645 0.2452700138092041
vt 3.0799336433410645 0.6057276725769043
vt 1.9916205406188965 0.6116665601730347
vt 2.5264410972595215 0.2475130558013916
vt 2.5264410972595215 0.6116665601730347
vt 1.9916205406188965 0.2475130558013916
vt 1.7436003684997559 0.6116665601730347
vt 1.7436003684997559 0.2475130558013916
vt 1.4955805540084839 0.6116665601730347
vt 1.4955805540084839 0.2475130558013916
vt 1.247560739517212 0.6116665601730347
vt 1.247560739517212 0.2475130558013916
vt 0.9995409846305847 0.6116665601730347
vt 0.9995409846305847 0.2475130558013916
vt 0.7515210509300232 0.6116665601730347
vt 0.7515210509300232 0.2475130558013916
vt 0.5035012364387512 0.6116665601730347
vt 0.5035012364387512 0.2475130558013916
vt 0.2554813027381897 0.6116665601730347
vt 0.2554813027381897 0.2475130558013916
vt 0.007461490109562874 0.6116665601730347
vt 0.007461490109562874 0.24751269817352295
vt -0.2500615417957306 0.743497371673584
vt 0.25589683651924133 0.359682559967041
vt 0.25589683651924133 0.743497371673584
vt -0.2500615417957306 0.359682559967041
vt 0.5097935795783997 0.359682559967041
vt 0.5097935795783997 0.743497371673584
vt 0.25589683651924133 0.23174387216567993
vt -0.2500615417957306 0.23174387216567993
vt 0.5097935795783997 0.23174387216567993
vt 0.07474953681230545 0.38199979066848755
vt 0.008068868890404701 0.2562299370765686
vt 0.07474953681230545 0.2562299370765686
vt 0.008068868890404701 0.38199979066848755
vt 0.316832035779953 0.38199979066848755
vt 0.25503432750701904 0.2562299370765686
vt 0.316832035779953 0.2562299370765686
vt 0.25503432750701904 0.38199979066848755
vt 0.007359589450061321 0.37566685676574707
vt 0.2552569508552551 0.250008225440979
vt 0.2552570104598999 0.37566685676574707
vt 0.007359516806900501 0.250008225440979
vt 0.5031542778015137 0.250008225440979
vt 0.5031542778015137 0.37566667795181274
vt 0.6775686740875244 0.37566667795181274
vt 0.6775686144828796 0.25000816583633423
vt 0.5084903240203857 0.3742918372154236
vt 0.7519464492797852 0.22963029146194458
vt 0.7519464492797852 0.3742923140525818
vt 0.5084903240203857 0.22962987422943115
vt 0.25503432750701904 0.38199979066848755
vt 0.07474953681230545 0.2562299370765686
vt 0.25503432750701904 0.2562299370765686
vt 0.07474953681230545 0.38199979066848755
vt 0.751051664352417 0.37566667795181274
vt 0.7225433588027954 0.25000816583633423
vt 0.7510515451431274 0.25000816583633423
vt 0.722543478012085 0.37566667795181274
vt 0.722543478012085 0.37566667795181274
vt 0.6775686144828796 0.25000816583633423
vt 0.7225433588027954 0.25000816583633423
vt 0.6775686740875244 0.37566667795181274
vt 0.5006802082061768 0.38199979066848755
vt 0.316832035779953 0.2562299370765686
vt 0.5006802082061768 0.2562299370765686
vt 0.316832035779953 0.38199979066848755
vt 0.5728135704994202 0.38199979066848755
vt 0.5006802082061768 0.2562299370765686
vt 0.5728135704994202 0.2562299370765686
vt 0.5006802082061768 0.38199979066848755
vt 0.7494159936904907 0.38199979066848755
vt 0.5728135704994202 0.2562299370765686
vt 0.7494159936904907 0.2562299370765686
vt 0.5728135704994202 0.38199979066848755
vt 0.13211756944656372 0.1357991099357605
vt 0.0009738095104694366 0.2475239634513855
vt 0.0009738095104694366 0.0014876723289489746
vt 0.01597379520535469 0.2475239634513855
vt 0.134648859500885 0.2475239634513855
vt 0.7490072250366211 0.2783418893814087
vt 0.7639472484588623 1.0
vt 0.7490072250366211 1.0
vt 0.7639472484588623 0.2783418893814087
vt 0.0009825117886066437 0.2783418893814087
vt 0.015922535210847855 1.0
vt 0.0009825117886066437 1.0
vt 0.015922535210847855 1.0
vt 0.0009825117886066437 0.2783418893814087
vt 0.015922535210847855 0.2783418893814087
vt 0.25100719928741455 0.2783418893814087
vt 0.2659471929073334 1.0
vt 0.25100719928741455 1.0
vt 0.2659471929073334 1.0
vt 0.25100719928741455 0.2783418893814087
vt 0.2659471929073334 0.2783418893814087
vt 0.5000072121620178 0.2783418893814087
vt 0.5149471759796143 1.0
vt 0.5000072121620178 1.0
vt 0.5149471759796143 0.2783418893814087
vt 0.5149471759796143 0.2783418893814087
vt 0.7490072250366211 1.0
vt 0.5149471759796143 1.0
vt 0.7490072250366211 0.2783418893814087
vt 0.015922535210847855 0.2783418893814087
vt 0.1341228485107422 1.0
vt 0.015922535210847855 1.0
vt 0.1341228485107422 0.2783418893814087
vt 0.7639472484588623 0.2783418893814087
vt 0.9980071187019348 1.0
vt 0.7639472484588623 1.0
vt 0.9980071187019348 0.2783418893814087
vt 0.2659471929073334 0.2783418893814087
vt 0.5000072121620178 1.0
vt 0.2659471929073334 1.0
vt 0.5000072121620178 0.2783418893814087
vt 0.7490072250366211 0.2783418893814087
vt 0.7639472484588623 0.24741774797439575
vt 0.7639472484588623 0.2783418893814087
vt 0.7490072250366211 0.24741774797439575
vt 0.0009825117886066437 0.2783418893814087
vt 0.015922535210847855 0.24741774797439575
vt 0.015922535210847855 0.2783418893814087
vt 0.015922535210847855 0.24741774797439575
vt 0.0009825117886066437 0.2783418893814087
vt 0.0009825117886066437 0.24741774797439575
vt 0.25100719928741455 0.2783418893814087
vt 0.2659471929073334 0.24741774797439575
vt 0.2659471929073334 0.2783418893814087
vt 0.2659471929073334 0.24741774797439575
vt 0.25100719928741455 0.2783418893814087
vt 0.25100719928741455 0.24741774797439575
vt 0.5000072121620178 0.2783418893814087
vt 0.5149471759796143 0.24741774797439575
vt 0.5149471759796143 0.2783418893814087
vt 0.5000072121620178 0.24741774797439575
vt 0.5149471759796143 0.2783418893814087
vt 0.7490072250366211 0.24741774797439575
vt 0.7490072250366211 0.2783418893814087
vt 0.7490072250366211 0.24741774797439575
vt 0.5149471759796143 0.2783418893814087
vt 0.5149471759796143 0.24741774797439575
vt 0.1341228485107422 0.2783418893814087
vt 0.24998250603675842 0.24741774797439575
vt 0.24998250603675842 0.2783418893814087
vt 0.1341228485107422 0.2783418893814087
vt 0.1341228485107422 0.24741774797439575
vt 0.134648859500885 0.2475239634513855
vt 0.13211756944656372 0.1357991099357605
vt 0.7639472484588623 0.2783418893814087
vt 0.9980071187019348 0.24741774797439575
vt 0.9980071187019348 0.2783418893814087
vt 0.7639472484588623 0.24741774797439575
vt 0.2659471929073334 0.2783418893814087
vt 0.5000072121620178 0.24741774797439575
vt 0.5000072121620178 0.2783418893814087
vt 0.2659471929073334 0.24741774797439575
vt 0.016142237931489944 0.0014876723289489746
vt 0.13211756944656372 0.1357991099357605
vt 0.0009738095104694366 0.0014876723289489746
vt 0.13211756944656372 0.1357991099357605
vt 0.23597383499145508 0.0014876723289489746
vt 0.25097373127937317 0.0014876723289489746
vt 0.016142237931489944 0.0014876723289489746
vt 0.23597383499145508 0.0014876723289489746
vt 0.13211756944656372 0.1357991099357605
vt 0.25097373127937317 0.23252397775650024
vt 0.25097373127937317 0.0014876723289489746
vt 0.25097373127937317 0.2475239634513855
vt 0.1341228485107422 0.2783418893814087
vt 0.24998250603675842 1.0
vt 0.1341228485107422 1.0
vt 0.24998250603675842 0.2783418893814087
vt 0.1341228485107422 0.2783418893814087
vt 0.015922535210847855 0.24741774797439575
vt 0.1341228485107422 0.24741774797439575
vt 0.015922535210847855 0.24741774797439575
vt 0.1341228485107422 0.2783418893814087
vt 0.015922535210847855 0.2783418893814087

g bg_mdl_map_ground00
s 1
usemtl bg_mdl_map_ground00_0
f 3/3/3 2/2/2 1/1/1 
f 4/4/4 1/1/1 2/2/2 
f 2/2/2 3/3/3 5/5/5 
f 6/6/6 5/5/5 3/3/3 
f 5/5/5 6/6/6 7/7/7 
f 8/8/8 7/7/7 6/6/6 
f 7/7/7 8/8/8 9/9/9 
f 10/10/10 9/9/9 8/8/8 
f 9/9/9 10/10/10 11/11/11 
f 12/12/12 11/11/11 10/10/10 
f 2/2/2 13/13/13 4/4/4 
f 14/14/14 4/4/4 13/13/13 
f 5/5/5 15/15/15 2/2/2 
f 13/13/13 2/2/2 15/15/15 
f 7/7/7 16/16/16 5/5/5 
f 15/15/15 5/5/5 16/16/16 
f 9/9/9 17/17/17 7/7/7 
f 16/16/16 7/7/7 17/17/17 
f 11/11/11 18/18/18 9/9/9 
f 17/17/17 9/9/9 18/18/18 
f 13/13/13 19/19/19 14/14/14 
f 20/20/20 14/14/14 19/19/19 
f 15/15/15 21/21/21 13/13/13 
f 19/19/19 13/13/13 21/21/21 
f 16/16/16 22/22/22 15/15/15 
f 21/21/21 15/15/15 22/22/22 
f 17/17/17 23/23/23 16/16/16 
f 22/22/22 16/16/16 23/23/23 
f 18/18/18 24/24/24 17/17/17 
f 23/23/23 17/17/17 24/24/24 
f 19/19/19 25/25/25 20/20/20 
f 26/26/26 20/20/20 25/25/25 
f 21/21/21 27/27/27 19/19/19 
f 25/25/25 19/19/19 27/27/27 
f 22/22/22 28/28/28 21/21/21 
f 27/27/27 21/21/21 28/28/28 
f 23/23/23 29/29/29 22/22/22 
f 28/28/28 22/22/22 29/29/29 
f 24/24/24 30/30/30 23/23/23 
f 29/29/29 23/23/23 30/30/30 
f 25/25/25 31/31/31 26/26/26 
f 32/32/32 26/26/26 31/31/31 
f 27/27/27 33/33/33 25/25/25 
f 31/31/31 25/25/25 33/33/33 
f 28/28/28 34/34/34 27/27/27 
f 33/33/33 27/27/27 34/34/34 
f 29/29/29 35/35/35 28/28/28 
f 34/34/34 28/28/28 35/35/35 
f 30/30/30 36/36/36 29/29/29 
f 35/35/35 29/29/29 36/36/36 
f 31/31/31 37/37/37 32/32/32 
f 38/38/38 32/32/32 37/37/37 
f 33/33/33 39/39/39 31/31/31 
f 37/37/37 31/31/31 39/39/39 
f 34/34/34 40/40/40 33/33/33 
f 39/39/39 33/33/33 40/40/40 
f 35/35/35 41/41/41 34/34/34 
f 40/40/40 34/34/34 41/41/41 
f 36/36/36 42/42/42 35/35/35 
f 41/41/41 35/35/35 42/42/42 
f 37/37/37 43/43/43 38/38/38 
f 44/44/44 38/38/38 43/43/43 
f 39/39/39 45/45/45 37/37/37 
f 43/43/43 37/37/37 45/45/45 
f 40/40/40 46/46/46 39/39/39 
f 45/45/45 39/39/39 46/46/46 
f 41/41/41 47/47/47 40/40/40 
f 46/46/46 40/40/40 47/47/47 
f 42/42/42 48/48/48 41/41/41 
f 47/47/47 41/41/41 48/48/48 
f 43/43/43 49/49/49 44/44/44 
f 50/50/50 44/44/44 49/49/49 
f 45/45/45 51/51/51 43/43/43 
f 49/49/49 43/43/43 51/51/51 
f 46/46/46 52/52/52 45/45/45 
f 51/51/51 45/45/45 52/52/52 
f 47/47/47 53/53/53 46/46/46 
f 52/52/52 46/46/46 53/53/53 
f 48/48/48 54/54/54 47/47/47 
f 53/53/53 47/47/47 54/54/54 
f 49/49/49 55/55/55 50/50/50 
f 56/56/56 50/50/50 55/55/55 
f 51/51/51 57/57/57 49/49/49 
f 55/55/55 49/49/49 57/57/57 
f 52/52/52 58/58/58 51/51/51 
f 57/57/57 51/51/51 58/58/58 
f 53/53/53 59/59/59 52/52/52 
f 58/58/58 52/52/52 59/59/59 
f 54/54/54 60/60/60 53/53/53 
f 59/59/59 53/53/53 60/60/60 
f 55/55/55 61/61/61 56/56/56 
f 62/62/62 56/56/56 61/61/61 
f 57/57/57 63/63/63 55/55/55 
f 61/61/61 55/55/55 63/63/63 
f 58/58/58 64/64/64 57/57/57 
f 63/63/63 57/57/57 64/64/64 
f 59/59/59 65/65/65 58/58/58 
f 64/64/64 58/58/58 65/65/65 
f 60/60/60 66/66/66 59/59/59 
f 65/65/65 59/59/59 66/66/66 
f 61/61/61 67/67/67 62/62/62 
f 68/68/68 62/62/62 67/67/67 
f 63/63/63 69/69/69 61/61/61 
f 67/67/67 61/61/61 69/69/69 
f 64/64/64 70/70/70 63/63/63 
f 69/69/69 63/63/63 70/70/70 
f 65/65/65 71/71/71 64/64/64 
f 70/70/70 64/64/64 71/71/71 
f 66/66/66 72/72/72 65/65/65 
f 71/71/71 65/65/65 72/72/72 
f 75/75/75 74/74/74 73/73/73 
f 76/76/76 73/73/73 74/74/74 
f 74/74/74 75/75/75 77/77/77 
f 78/78/78 77/77/77 75/75/75 
f 77/77/77 78/78/78 79/79/79 
f 80/80/80 79/79/79 78/78/78 
f 79/79/79 80/80/80 81/81/81 
f 82/82/82 81/81/81 80/80/80 
f 74/74/74 83/83/83 76/76/76 
f 84/84/84 76/76/76 83/83/83 
f 77/77/77 85/85/85 74/74/74 
f 83/83/83 74/74/74 85/85/85 
f 79/79/79 86/86/86 77/77/77 
f 85/85/85 77/77/77 86/86/86 
f 81/81/81 87/87/87 79/79/79 
f 86/86/86 79/79/79 87/87/87 
f 83/83/83 88/88/88 84/84/84 
f 89/89/89 84/84/84 88/88/88 
f 85/85/85 90/90/90 83/83/83 
f 88/88/88 83/83/83 90/90/90 
f 86/86/86 91/91/91 85/85/85 
f 90/90/90 85/85/85 91/91/91 
f 87/87/87 92/92/92 86/86/86 
f 91/91/91 86/86/86 92/92/92 
f 88/88/88 93/93/93 89/89/89 
f 94/94/94 89/89/89 93/93/93 
f 90/90/90 95/95/95 88/88/88 
f 93/93/93 88/88/88 95/95/95 
f 91/91/91 96/96/96 90/90/90 
f 95/95/95 90/90/90 96/96/96 
f 92/92/92 97/97/97 91/91/91 
f 96/96/96 91/91/91 97/97/97 
f 93/93/93 98/98/98 94/94/94 
f 99/99/99 94/94/94 98/98/98 
f 95/95/95 100/100/100 93/93/93 
f 98/98/98 93/93/93 100/100/100 
f 96/96/96 101/101/101 95/95/95 
f 100/100/100 95/95/95 101/101/101 
f 97/97/97 102/102/102 96/96/96 
f 101/101/101 96/96/96 102/102/102 
f 98/98/98 103/103/103 99/99/99 
f 104/104/104 99/99/99 103/103/103 
f 100/100/100 105/105/105 98/98/98 
f 103/103/103 98/98/98 105/105/105 
f 101/101/101 106/106/106 100/100/100 
f 105/105/105 100/100/100 106/106/106 
f 102/102/102 107/107/107 101/101/101 
f 106/106/106 101/101/101 107/107/107 
f 103/103/103 108/108/108 104/104/104 
f 109/109/109 104/104/104 108/108/108 
f 105/105/105 110/110/110 103/103/103 
f 108/108/108 103/103/103 110/110/110 
f 106/106/106 111/111/111 105/105/105 
f 110/110/110 105/105/105 111/111/111 
f 107/107/107 112/112/112 106/106/106 
f 111/111/111 106/106/106 112/112/112 
f 108/108/108 113/113/113 109/109/109 
f 114/114/114 109/109/109 113/113/113 
f 110/110/110 115/115/115 108/108/108 
f 113/113/113 108/108/108 115/115/115 
f 111/111/111 116/116/116 110/110/110 
f 115/115/115 110/110/110 116/116/116 
f 112/112/112 117/117/117 111/111/111 
f 116/116/116 111/111/111 117/117/117 
f 113/113/113 118/118/118 114/114/114 
f 119/119/119 114/114/114 118/118/118 
f 115/115/115 120/120/120 113/113/113 
f 118/118/118 113/113/113 120/120/120 
f 116/116/116 121/121/121 115/115/115 
f 120/120/120 115/115/115 121/121/121 
f 117/117/117 122/122/122 116/116/116 
f 121/121/121 116/116/116 122/122/122 
f 118/118/118 123/123/123 119/119/119 
f 124/124/124 119/119/119 123/123/123 
f 120/120/120 125/125/125 118/118/118 
f 123/123/123 118/118/118 125/125/125 
f 121/121/121 126/126/126 120/120/120 
f 125/125/125 120/120/120 126/126/126 
f 122/122/122 127/127/127 121/121/121 
f 126/126/126 121/121/121 127/127/127 
f 123/123/123 128/128/128 124/124/124 
f 129/129/129 124/124/124 128/128/128 
f 125/125/125 130/130/130 123/123/123 
f 128/128/128 123/123/123 130/130/130 
f 126/126/126 131/131/131 125/125/125 
f 130/130/130 125/125/125 131/131/131 
f 127/127/127 132/132/132 126/126/126 
f 131/131/131 126/126/126 132/132/132 
f 135/135/135 134/134/134 133/133/133 
f 136/136/136 133/133/133 134/134/134 
f 134/134/134 135/135/135 137/137/137 
f 138/138/138 137/137/137 135/135/135 
f 137/137/137 138/138/138 139/139/139 
f 140/140/140 139/139/139 138/138/138 
f 139/139/139 140/140/140 141/141/141 
f 142/142/142 141/141/141 140/140/140 
f 134/134/134 143/143/143 136/136/136 
f 144/144/144 136/136/136 143/143/143 
f 137/137/137 145/145/145 134/134/134 
f 143/143/143 134/134/134 145/145/145 
f 139/139/139 146/146/146 137/137/137 
f 145/145/145 137/137/137 146/146/146 
f 141/141/141 147/147/147 139/139/139 
f 146/146/146 139/139/139 147/147/147 
f 143/143/143 148/148/148 144/144/144 
f 149/149/149 144/144/144 148/148/148 
f 145/145/145 150/150/150 143/143/143 
f 148/148/148 143/143/143 150/150/150 
f 146/146/146 151/151/151 145/145/145 
f 150/150/150 145/145/145 151/151/151 
f 147/147/147 152/152/152 146/146/146 
f 151/151/151 146/146/146 152/152/152 
f 148/148/148 153/153/153 149/149/149 
f 154/154/154 149/149/149 153/153/153 
f 150/150/150 155/155/155 148/148/148 
f 153/153/153 148/148/148 155/155/155 
f 151/151/151 156/156/156 150/150/150 
f 155/155/155 150/150/150 156/156/156 
f 152/152/152 157/157/157 151/151/151 
f 156/156/156 151/151/151 157/157/157 
f 153/153/153 158/158/158 154/154/154 
f 159/159/159 154/154/154 158/158/158 
f 155/155/155 160/160/160 153/153/153 
f 158/158/158 153/153/153 160/160/160 
f 156/156/156 161/161/161 155/155/155 
f 160/160/160 155/155/155 161/161/161 
f 157/157/157 162/162/162 156/156/156 
f 161/161/161 156/156/156 162/162/162 
f 158/158/158 163/163/163 159/159/159 
f 164/164/164 159/159/159 163/163/163 
f 160/160/160 165/165/165 158/158/158 
f 163/163/163 158/158/158 165/165/165 
f 161/161/161 166/166/166 160/160/160 
f 165/165/165 160/160/160 166/166/166 
f 162/162/162 167/167/167 161/161/161 
f 166/166/166 161/161/161 167/167/167 
f 163/163/163 168/168/168 164/164/164 
f 169/169/169 164/164/164 168/168/168 
f 165/165/165 170/170/170 163/163/163 
f 168/168/168 163/163/163 170/170/170 
f 166/166/166 171/171/171 165/165/165 
f 170/170/170 165/165/165 171/171/171 
f 167/167/167 172/172/172 166/166/166 
f 171/171/171 166/166/166 172/172/172 
f 168/168/168 173/173/173 169/169/169 
f 174/174/174 169/169/169 173/173/173 
f 170/170/170 175/175/175 168/168/168 
f 173/173/173 168/168/168 175/175/175 
f 171/171/171 176/176/176 170/170/170 
f 176/176/176 177/177/177 170/170/170 
f 170/170/170 177/177/177 175/175/175 
f 172/172/172 178/178/178 171/171/171 
f 178/178/178 179/179/179 171/171/171 
f 179/179/179 180/180/180 171/171/171 
f 180/180/180 181/181/181 171/171/171 
f 171/171/171 181/181/181 176/176/176 
f 173/173/173 182/182/182 174/174/174 
f 183/183/183 174/174/174 182/182/182 
f 175/175/175 184/184/184 173/173/173 
f 184/184/184 185/185/185 173/173/173 
f 185/185/185 186/186/186 173/173/173 
f 173/173/173 186/186/186 182/182/182 
f 189/189/189 188/188/188 187/187/187 
f 190/190/190 187/187/187 188/188/188 
f 188/188/188 189/189/189 191/191/191 
f 192/192/192 191/191/191 189/189/189 
f 188/188/188 193/193/193 190/190/190 
f 194/194/194 190/190/190 193/193/193 
f 190/190/190 194/194/194 195/195/195 
f 196/196/196 195/195/195 194/194/194 
f 195/195/195 196/196/196 197/197/197 
f 198/198/198 197/197/197 196/196/196 
f 197/197/197 198/198/198 199/199/199 
f 200/200/200 199/199/199 198/198/198 
f 191/191/191 201/201/201 188/188/188 
f 193/193/193 188/188/188 201/201/201 

usemtl bg_mdl_map_ground00_1
f 204/204/204 203/203/203 202/202/202 
f 205/205/205 202/202/202 203/203/203 
f 203/203/203 206/206/206 205/205/205 
f 207/207/207 205/205/205 206/206/206 
f 206/206/206 208/208/208 207/207/207 
f 209/209/209 207/207/207 208/208/208 
f 208/208/208 210/210/210 209/209/209 
f 211/211/211 209/209/209 210/210/210 
f 210/210/210 212/212/212 211/211/211 
f 213/213/213 211/211/211 212/212/212 
f 212/212/212 214/214/214 213/213/213 
f 215/215/215 213/213/213 214/214/214 
f 214/214/214 216/216/216 215/215/215 
f 217/217/217 215/215/215 216/216/216 
f 216/216/216 218/218/218 217/217/217 
f 219/219/219 217/217/217 218/218/218 
f 218/218/218 220/220/220 219/219/219 
f 221/221/221 219/219/219 220/220/220 
f 220/220/220 222/222/222 221/221/221 
f 223/223/223 221/221/221 222/222/222 
f 222/222/222 224/224/224 223/223/223 
f 225/225/225 223/223/223 224/224/224 
f 228/228/228 227/227/227 226/226/226 
f 229/229/229 226/226/226 227/227/227 
f 227/227/227 230/230/230 229/229/229 
f 231/231/231 229/229/229 230/230/230 
f 230/230/230 232/232/232 231/231/231 
f 233/233/233 231/231/231 232/232/232 
f 232/232/232 234/234/234 233/233/233 
f 235/235/235 233/233/233 234/234/234 
f 234/234/234 236/236/236 235/235/235 
f 237/237/237 235/235/235 236/236/236 
f 236/236/236 238/238/238 237/237/237 
f 239/239/239 237/237/237 238/238/238 
f 238/238/238 240/240/240 239/239/239 
f 241/241/241 239/239/239 240/240/240 
f 240/240/240 242/242/242 241/241/241 
f 243/243/243 241/241/241 242/242/242 
f 242/242/242 244/244/244 243/243/243 
f 245/245/245 243/243/243 244/244/244 
f 248/248/248 247/247/247 246/246/246 
f 246/246/246 247/247/247 249/249/249 
f 249/249/249 247/247/247 250/250/250 
f 248/248/248 251/251/251 247/247/247 
f 252/252/252 251/251/251 248/248/248 
f 253/253/253 251/251/251 252/252/252 
f 254/254/254 251/251/251 253/253/253 
f 255/255/255 251/251/251 254/254/254 
f 258/258/258 257/257/257 256/256/256 
f 259/259/259 256/256/256 257/257/257 
f 257/257/257 258/258/258 260/260/260 
f 261/261/261 260/260/260 258/258/258 
f 261/261/261 262/262/262 260/260/260 
f 263/263/263 262/262/262 261/261/261 
f 264/264/264 262/262/262 263/263/263 
f 265/265/265 262/262/262 264/264/264 
f 268/268/268 267/267/267 266/266/266 
f 269/269/269 266/266/266 267/267/267 
f 267/267/267 268/268/268 270/270/270 
f 271/271/271 270/270/270 268/268/268 
f 270/270/270 271/271/271 272/272/272 
f 273/273/273 272/272/272 271/271/271 
f 272/272/272 273/273/273 274/274/274 
f 275/275/275 274/274/274 273/273/273 
f 274/274/274 275/275/275 276/276/276 
f 277/277/277 276/276/276 275/275/275 
f 276/276/276 277/277/277 278/278/278 
f 279/279/279 278/278/278 277/277/277 
f 278/278/278 279/279/279 280/280/280 
f 281/281/281 280/280/280 279/279/279 
f 280/280/280 281/281/281 282/282/282 
f 283/283/283 282/282/282 281/281/281 
f 282/282/282 283/283/283 284/284/284 
f 285/285/285 284/284/284 283/283/283 
f 284/284/284 285/285/285 286/286/286 
f 287/287/287 286/286/286 285/285/285 
f 286/286/286 287/287/287 288/288/288 
f 289/289/289 288/288/288 287/287/287 
f 292/292/292 291/291/291 290/290/290 
f 293/293/293 290/290/290 291/291/291 
f 290/290/290 293/293/293 294/294/294 
f 295/295/295 294/294/294 293/293/293 
f 294/294/294 295/295/295 296/296/296 
f 297/297/297 296/296/296 295/295/295 
f 296/296/296 297/297/297 298/298/298 
f 299/299/299 298/298/298 297/297/297 
f 298/298/298 299/299/299 300/300/300 
f 301/301/301 300/300/300 299/299/299 
f 300/300/300 301/301/301 302/302/302 
f 303/303/303 302/302/302 301/301/301 
f 302/302/302 303/303/303 304/304/304 
f 305/305/305 304/304/304 303/303/303 
f 304/304/304 305/305/305 306/306/306 
f 307/307/307 306/306/306 305/305/305 
f 306/306/306 307/307/307 308/308/308 
f 309/309/309 308/308/308 307/307/307 
f 312/312/312 311/311/311 310/310/310 
f 313/313/313 310/310/310 311/311/311 
f 311/311/311 312/312/312 314/314/314 
f 315/315/315 314/314/314 312/312/312 
f 311/311/311 316/316/316 313/313/313 
f 317/317/317 313/313/313 316/316/316 
f 314/314/314 318/318/318 311/311/311 
f 316/316/316 311/311/311 318/318/318 
f 321/321/321 320/320/320 319/319/319 
f 322/322/322 319/319/319 320/320/320 
f 325/325/325 324/324/324 323/323/323 
f 326/326/326 323/323/323 324/324/324 
f 329/329/329 328/328/328 327/327/327 
f 330/330/330 327/327/327 328/328/328 
f 328/328/328 329/329/329 331/331/331 
f 332/332/332 331/331/331 329/329/329 
f 332/332/332 333/333/333 331/331/331 
f 334/334/334 331/331/331 333/333/333 
f 337/337/337 336/336/336 335/335/335 
f 338/338/338 335/335/335 336/336/336 
f 341/341/341 340/340/340 339/339/339 
f 342/342/342 339/339/339 340/340/340 
f 345/345/345 344/344/344 343/343/343 
f 346/346/346 343/343/343 344/344/344 
f 349/349/349 348/348/348 347/347/347 
f 350/350/350 347/347/347 348/348/348 
f 353/353/353 352/352/352 351/351/351 
f 354/354/354 351/351/351 352/352/352 
f 357/357/357 356/356/356 355/355/355 
f 358/358/358 355/355/355 356/356/356 
f 361/361/361 360/360/360 359/359/359 
f 362/362/362 359/359/359 360/360/360 
f 365/365/365 364/364/364 363/363/363 
f 366/366/366 363/363/363 364/364/364 
f 366/366/366 367/367/367 363/363/363 
f 370/370/370 369/369/369 368/368/368 
f 371/371/371 368/368/368 369/369/369 
f 374/374/374 373/373/373 372/372/372 
f 377/377/377 376/376/376 375/375/375 
f 380/380/380 379/379/379 378/378/378 
f 383/383/383 382/382/382 381/381/381 
f 386/386/386 385/385/385 384/384/384 
f 387/387/387 384/384/384 385/385/385 
f 390/390/390 389/389/389 388/388/388 
f 391/391/391 388/388/388 389/389/389 
f 394/394/394 393/393/393 392/392/392 
f 395/395/395 392/392/392 393/393/393 
f 398/398/398 397/397/397 396/396/396 
f 399/399/399 396/396/396 397/397/397 
f 402/402/402 401/401/401 400/400/400 
f 403/403/403 400/400/400 401/401/401 
f 406/406/406 405/405/405 404/404/404 
f 407/407/407 404/404/404 405/405/405 
f 410/410/410 409/409/409 408/408/408 
f 413/413/413 412/412/412 411/411/411 
f 416/416/416 415/415/415 414/414/414 
f 419/419/419 418/418/418 417/417/417 
f 422/422/422 421/421/421 420/420/420 
f 423/423/423 420/420/420 421/421/421 
f 426/426/426 425/425/425 424/424/424 
f 429/429/429 428/428/428 427/427/427 
f 432/432/432 431/431/431 430/430/430 
f 434/434/434 433/433/433 431/431/431 
f 431/431/431 436/436/436 435/435/435 
f 439/439/439 438/438/438 437/437/437 
f 440/440/440 437/437/437 438/438/438 
f 443/443/443 442/442/442 441/441/441 
f 444/444/444 441/441/441 442/442/442 
f 447/447/447 446/446/446 445/445/445 
f 450/450/450 449/449/449 448/448/448 
f 453/453/453 452/452/452 451/451/451 
f 455/455/455 453/453/453 454/454/454 
f 456/456/456 454/454/454 453/453/453 
f 459/459/459 458/458/458 457/457/457 
f 460/460/460 457/457/457 458/458/458 
f 463/463/463 462/462/462 461/461/461 
f 466/466/466 465/465/465 464/464/464 

