v -8.341538659806247e-07 -0.5749706625938416 0.6745041012763977
v -0.0 0.5749706625938416 0.0
v -8.341538659806247e-07 0.0 0.6745041012763977
v 8.341538659806247e-07 0.5749706625938416 -0.6745041012763977
v 8.341538659806247e-07 -0.5749706625938416 -0.6745041012763977
vn -1.0 0.0 -1.2366922419460025e-06
vn -1.0 0.0 -1.2366922419460025e-06
vn -1.0 0.0 -1.2366922419460025e-06
vn -1.0 0.0 -1.2366921282591647e-06
vn -1.0 0.0 -1.2366922419460025e-06
vt 0.17824828624725342 0.005648314952850342
vt 0.06594928354024887 0.07151788473129272
vt 0.12209880352020264 0.005648374557495117
vt 0.06594923883676529 0.13738739490509033
vt 0.17824828624725342 0.13738739490509033

g bg_mdl_top_town14
s 1
usemtl bg_mdl_top_town14
f 3/3/3 2/2/2 1/1/1 
f 2/2/2 4/4/4 1/1/1 
f 1/1/1 4/4/4 5/5/5 

