v 0.5074628591537476 0.010453948751091957 0.07928558439016342
v -0.5074623227119446 -0.010453490540385246 0.07928558439016342
v -0.5074623227119446 0.010453948751091957 0.07928558439016342
v 0.5074628591537476 -0.010451431386172771 0.07928558439016342
v 0.5074628591537476 0.010453948751091957 0.0005371093866415322
v 0.5074628591537476 -0.010451431386172771 0.07928558439016342
v 0.5074628591537476 0.010453948751091957 0.07928558439016342
v 0.5074628591537476 -0.010451431386172771 -1.5258788721439487e-07
v -0.5074623227119446 0.010453948751091957 0.0005371856386773288
v 0.5074628591537476 0.010453948751091957 0.07928558439016342
v -0.5074623227119446 0.010453948751091957 0.07928558439016342
v 0.5074628591537476 0.010453948751091957 0.0005371093866415322
v -0.5074623227119446 -0.010449142195284367 0.0005371856386773288
v 0.5074628591537476 -0.010451431386172771 0.07928558439016342
v 0.5074628591537476 -0.010451431386172771 -1.5258788721439487e-07
v -0.5074623227119446 -0.010453490540385246 0.07928558439016342
v -0.5074623227119446 -0.010449142195284367 0.0005371856386773288
v -0.5074623227119446 0.010453948751091957 0.07928558439016342
v -0.5074623227119446 -0.010453490540385246 0.07928558439016342
v -0.5074623227119446 0.010453948751091957 0.0005371856386773288
vn -0.0 0.0 1.0
vn -0.0 0.0 1.0
vn -0.0 0.0 1.0
vn -0.0 0.0 1.0
vn 1.0 0.0 0.0
vn 1.0 0.0 0.0
vn 1.0 0.0 0.0
vn 1.0 0.0 0.0
vn -0.0 1.0 0.0
vn -0.0 1.0 0.0
vn -0.0 1.0 0.0
vn -0.0 1.0 0.0
vn -2.2551598704012576e-06 -1.0 0.0
vn -2.2551598704012576e-06 -1.0 0.0
vn -2.2551598704012576e-06 -1.0 0.0
vn 2.029643837886397e-06 -1.0 -5.522340870811604e-05
vn -1.0 0.0 0.0
vn -1.0 0.0 0.0
vn -1.0 0.0 0.0
vn -1.0 0.0 0.0
vt 0.0018185214139521122 0.5886887013912201
vt 0.24474741518497467 0.5886605679988861
vt 0.24474741518497467 0.5886887013912201
vt 0.0018185214139521122 0.5886605679988861
vt 0.015355903655290604 0.5654501616954803
vt 0.025338489562273026 0.5357096195220947
vt 0.025338489562273026 0.5654501616954803
vt 0.015355903655290604 0.5357096195220947
vt 0.24474741518497467 0.6196128726005554
vt 0.0018185214139521122 0.5886887013912201
vt 0.24474741518497467 0.5886887013912201
vt 0.0018185214139521122 0.6196128726005554
vt 0.24474741518497467 0.6196128726005554
vt 0.0018185214139521122 0.5886887013912201
vt 0.0018185214139521122 0.6196128726005554
vt 0.24474741518497467 0.5886887013912201
vt 0.015318166464567184 0.5654501616954803
vt 0.025440340861678123 0.5357096195220947
vt 0.015318166464567184 0.5357096195220947
vt 0.025440340861678123 0.5654501616954803

g bg_mdl_map_trainside02
s 1
usemtl bg_mdl_map_trainside02
f 3/3/3 2/2/2 1/1/1 
f 4/4/4 1/1/1 2/2/2 
f 7/7/7 6/6/6 5/5/5 
f 8/8/8 5/5/5 6/6/6 
f 11/11/11 10/10/10 9/9/9 
f 12/12/12 9/9/9 10/10/10 
f 15/15/15 14/14/14 13/13/13 
f 16/16/16 13/13/13 14/14/14 
f 19/19/19 18/18/18 17/17/17 
f 20/20/20 17/17/17 18/18/18 

