v 3.191372854871588e-07 -1.2435790300369263 -2.3508379459381104
v -1.4767654477054748e-07 1.6973949670791626 0.33698180317878723
v -2.587103153928183e-07 -0.8843679428100586 1.948152780532837
v 9.509053455758476e-08 1.1066622734069824 -1.6382993459701538
v -4.760092906508362e-07 0.12792730331420898 2.3508381843566895
vn -1.0 0.0 -1.2093735790585924e-07
vn -1.0 0.0 -1.43813963404682e-07
vn -1.0 0.0 -1.8690946035349043e-07
vn -1.0 0.0 -1.038050214674513e-07
vn -1.0 -1.1435329128062222e-07 -2.5215626919816714e-07
vt 0.21751223504543304 0.3620195984840393
vt 0.3644501268863678 0.21033155918121338
vt 0.4536306858062744 0.34384387731552124
vt 0.2565973401069641 0.2411590814590454
vt 0.47452476620674133 0.29088497161865234

g bg_mdl_top_town04_06
s 1
usemtl bg_mdl_top_town04_06
f 3/3/3 2/2/2 1/1/1 
f 4/4/4 1/1/1 2/2/2 
f 3/3/3 5/5/5 2/2/2 

