v -1.0000003576278687 0.11248895525932312 2.1429412364959717
v 0.9999995231628418 -0.09396268427371979 2.1429412364959717
v -1.0000007152557373 -0.09396268427371979 2.1429412364959717
v 0.9999995231628418 0.11248882859945297 2.1429412364959717
v 0.2733067572116852 -0.04357222095131874 1.5700746774673462
v 0.9999988079071045 -0.04357222095131874 1.8896158933639526
v 0.5003790259361267 -0.04357222095131874 1.3421512842178345
v -1.000001072883606 -0.04357222095131874 1.8896158933639526
v -0.24216994643211365 -0.04357222095131874 1.5700746774673462
v -0.5003806352615356 -0.04357222095131874 1.3421512842178345
v -1.000001072883606 -0.04357222095131874 0.17584796249866486
v -0.5003808736801147 -0.04357222095131874 0.17584796249866486
v 0.9999988079071045 -0.04357222095131874 0.17584796249866486
v 0.5003787875175476 -0.04357222095131874 0.17584796249866486
v 0.4697507321834564 -0.02378937602043152 0.17584796249866486
v 0.2537135183811188 -0.02378937602043152 1.5408780574798584
v 0.4697509706020355 -0.02378937602043152 1.3298394680023193
v -0.22257527709007263 -0.02378937602043152 1.5408780574798584
v -0.46975135803222656 -0.02378937602043152 1.3298394680023193
v -0.4697515666484833 -0.02378937602043152 0.17584796249866486
v 0.5003787875175476 -0.04357222095131874 0.17584796249866486
v 0.4697509706020355 -0.02378937602043152 1.3298394680023193
v 0.5003790259361267 -0.04357222095131874 1.3421512842178345
v 0.4697507321834564 -0.02378937602043152 0.17584796249866486
v 0.2733067572116852 -0.04357222095131874 1.5700746774673462
v 0.4697509706020355 -0.02378937602043152 1.3298394680023193
v 0.2537135183811188 -0.02378937602043152 1.5408780574798584
v 0.4697509706020355 -0.02378937602043152 1.3298394680023193
v 0.2733067572116852 -0.04357222095131874 1.5700746774673462
v 0.5003790259361267 -0.04357222095131874 1.3421512842178345
v -0.24216994643211365 -0.04357222095131874 1.5700746774673462
v 0.2537135183811188 -0.02378937602043152 1.5408780574798584
v -0.22257527709007263 -0.02378937602043152 1.5408780574798584
v 0.2733067572116852 -0.04357222095131874 1.5700746774673462
v -0.24216994643211365 -0.04357222095131874 1.5700746774673462
v -0.46975135803222656 -0.02378937602043152 1.3298394680023193
v -0.5003806352615356 -0.04357222095131874 1.3421512842178345
v -0.46975135803222656 -0.02378937602043152 1.3298394680023193
v -0.24216994643211365 -0.04357222095131874 1.5700746774673462
v -0.22257527709007263 -0.02378937602043152 1.5408780574798584
v -0.5003806352615356 -0.04357222095131874 1.3421512842178345
v -0.4697515666484833 -0.02378937602043152 0.17584796249866486
v -0.5003808736801147 -0.04357222095131874 0.17584796249866486
v -0.46975135803222656 -0.02378937602043152 1.3298394680023193
v -1.000001072883606 -0.04357222095131874 1.8896158933639526
v 0.9999995231628418 -0.09396268427371979 1.8896158933639526
v 0.9999988079071045 -0.04357222095131874 1.8896158933639526
v -1.0000007152557373 -0.09396268427371979 1.8896154165267944
v -1.0000007152557373 -0.09396268427371979 1.8896154165267944
v 0.9999995231628418 -0.09396268427371979 2.1429412364959717
v 0.9999995231628418 -0.09396268427371979 1.8896158933639526
v -1.0000007152557373 -0.09396268427371979 2.1429412364959717
v -1.0000003576278687 0.11248895525932312 2.1429412364959717
v 0.9999995231628418 0.1124887764453888 1.8896158933639526
v 0.9999995231628418 0.11248882859945297 2.1429412364959717
v -1.0000007152557373 0.11248895525932312 1.8896158933639526
v -1.0000007152557373 -0.0209464393556118 0.17584767937660217
v 0.9999995231628418 -0.11217893660068512 0.1758481115102768
v -1.0000007152557373 -0.11217893660068512 0.17584767937660217
v 0.9999995231628418 -0.020946558564901352 0.17584815621376038
v -1.0000007152557373 -0.11217893660068512 5.983262951758661e-08
v 0.9999995231628418 -0.11217893660068512 0.1758481115102768
v 0.9999995231628418 -0.11217893660068512 -6.040661304496098e-08
v -1.0000007152557373 -0.11217893660068512 0.17584767937660217
v 0.8482539653778076 -0.0422406904399395 0.17645464837551117
v 0.8482537865638733 -0.061491116881370544 1.525209665298462
v 0.8482539653778076 -0.061491116881370544 0.17645464837551117
v 0.8482537865638733 -0.04224057123064995 1.525209665298462
v 0.8482537865638733 -0.061491116881370544 1.525209665298462
v 0.8391045331954956 -0.04224057123064995 1.600050926208496
v 0.8391045331954956 -0.061491116881370544 1.6000508069992065
v 0.8482537865638733 -0.04224057123064995 1.525209665298462
v 0.7737874388694763 -0.061491116881370544 1.7404416799545288
v 0.7039351463317871 -0.04224057123064995 1.7938989400863647
v 0.7039346694946289 -0.061491116881370544 1.7938989400863647
v 0.7737879157066345 -0.04224057123064995 1.7404416799545288
v 0.8482539653778076 -0.061491116881370544 0.17645464837551117
v 0.999998152256012 -0.061491116881370544 1.525209665298462
v 0.9999988079071045 -0.061491116881370544 0.17645451426506042
v 0.8482537865638733 -0.061491116881370544 1.525209665298462
v 0.7737874388694763 -0.061491116881370544 1.7404416799545288
v 0.9999988079071045 -0.061491116881370544 1.889615535736084
v 0.7039346694946289 -0.061491116881370544 1.7938989400863647
v 0.5882049202919006 -0.061491116881370544 1.850433349609375
v 0.5853033065795898 -0.061491116881370544 1.8896158933639526
v 0.8137237429618835 -0.061491116881370544 1.6748920679092407
v 0.8391045331954956 -0.061491116881370544 1.6000508069992065
v 0.8482537865638733 -0.061491116881370544 1.525209665298462
v 0.5882049202919006 -0.04224057123064995 1.850433349609375
v 0.5853033065795898 -0.061491116881370544 1.8896158933639526
v 0.5882049202919006 -0.061491116881370544 1.850433349609375
v 0.585303544998169 -0.0422406904399395 1.8896158933639526
v 0.5882049202919006 -0.061491116881370544 1.850433349609375
v 0.7039351463317871 -0.04224057123064995 1.7938989400863647
v 0.5882049202919006 -0.04224057123064995 1.850433349609375
v 0.7039346694946289 -0.061491116881370544 1.7938989400863647
v 0.7737874388694763 -0.061491116881370544 1.7404416799545288
v 0.8137239813804626 -0.04224057123064995 1.674892544746399
v 0.7737879157066345 -0.04224057123064995 1.7404416799545288
v 0.8137237429618835 -0.061491116881370544 1.6748920679092407
v 0.8137237429618835 -0.061491116881370544 1.6748920679092407
v 0.8391045331954956 -0.04224057123064995 1.600050926208496
v 0.8137239813804626 -0.04224057123064995 1.674892544746399
v 0.8391045331954956 -0.061491116881370544 1.6000508069992065
v -0.8482536673545837 -0.0422406904399395 0.17645463347434998
v -0.8482533693313599 -0.061491116881370544 1.5252094268798828
v -0.8482533693313599 -0.04224057123064995 1.5252094268798828
v -0.8482536673545837 -0.061491116881370544 0.17645463347434998
v -0.8482533693313599 -0.061491116881370544 1.5252094268798828
v -0.8391041159629822 -0.04224057123064995 1.6000508069992065
v -0.8482533693313599 -0.04224057123064995 1.5252094268798828
v -0.8391041159629822 -0.061491116881370544 1.6000505685806274
v -0.7737870812416077 -0.061491116881370544 1.7404416799545288
v -0.7039348483085632 -0.04224057123064995 1.7938987016677856
v -0.7737876176834106 -0.04224057123064995 1.7404416799545288
v -0.7039343118667603 -0.061491116881370544 1.7938987016677856
v -0.9999990463256836 -0.061491116881370544 1.8896152973175049
v -0.8482533693313599 -0.061491116881370544 1.5252094268798828
v -0.999999463558197 -0.061491116881370544 1.5252093076705933
v -0.8391041159629822 -0.061491116881370544 1.6000505685806274
v -0.8137233257293701 -0.061491116881370544 1.6748920679092407
v -0.7737870812416077 -0.061491116881370544 1.7404416799545288
v -0.5853029489517212 -0.061491116881370544 1.889615774154663
v -0.7039343118667603 -0.061491116881370544 1.7938987016677856
v -0.588204562664032 -0.061491116881370544 1.850433111190796
v -0.8482533693313599 -0.061491116881370544 1.5252094268798828
v -1.0000007152557373 -0.061490997672080994 0.176454558968544
v -0.8482536673545837 -0.061491116881370544 0.17645463347434998
v -0.588204562664032 -0.04224057123064995 1.850433111190796
v -0.5853029489517212 -0.061491116881370544 1.889615774154663
v -0.5853031873703003 -0.0422406904399395 1.889615774154663
v -0.588204562664032 -0.061491116881370544 1.850433111190796
v -0.588204562664032 -0.061491116881370544 1.850433111190796
v -0.7039348483085632 -0.04224057123064995 1.7938987016677856
v -0.7039343118667603 -0.061491116881370544 1.7938987016677856
v -0.588204562664032 -0.04224057123064995 1.850433111190796
v -0.7737870812416077 -0.061491116881370544 1.7404416799545288
v -0.8137235641479492 -0.04224057123064995 1.6748924255371094
v -0.8137233257293701 -0.061491116881370544 1.6748920679092407
v -0.7737876176834106 -0.04224057123064995 1.7404416799545288
v -0.8137233257293701 -0.061491116881370544 1.6748920679092407
v -0.8391041159629822 -0.04224057123064995 1.6000508069992065
v -0.8391041159629822 -0.061491116881370544 1.6000505685806274
v -0.8137235641479492 -0.04224057123064995 1.6748924255371094
vn -0.0 0.0 1.0
vn -0.0 0.0 1.0
vn -0.0 0.0 1.0
vn -0.0 0.0 1.0
vn -0.0 -1.0 0.0
vn -0.0 -1.0 0.0
vn -0.0 -1.0 0.0
vn -0.0 -1.0 0.0
vn -0.0 -1.0 0.0
vn -0.0 -1.0 0.0
vn -0.0 -1.0 0.0
vn -0.0 -1.0 0.0
vn -0.0 -1.0 0.0
vn -0.0 -1.0 0.0
vn -0.0 -1.0 0.0
vn -0.0 -1.0 0.0
vn -0.0 -1.0 0.0
vn -0.0 -1.0 0.0
vn -0.0 -1.0 0.0
vn -0.0 -1.0 0.0
vn -0.5425684452056885 -0.8400115966796875 1.1187143655888576e-07
vn -0.5425683856010437 -0.8400115966796875 1.118714294534584e-07
vn -0.5425683856010437 -0.8400115966796875 1.118714294534584e-07
vn -0.5425683259963989 -0.8400115966796875 1.1306496361385143e-07
vn -0.34701913595199585 -0.8679763674736023 -0.3552388846874237
vn -0.34701913595199585 -0.8679763674736023 -0.3552389144897461
vn -0.34701913595199585 -0.8679763674736023 -0.3552388846874237
vn -0.3865121603012085 -0.8380515575408936 -0.38506871461868286
vn -0.3865121304988861 -0.8380515575408936 -0.3850686550140381
vn -0.3865121304988861 -0.8380515575408936 -0.38506871461868286
vn -0.0 -0.8278605937957764 -0.5609338283538818
vn -0.0 -0.8278605937957764 -0.5609338283538818
vn -0.0 -0.8278605937957764 -0.5609338879585266
vn -0.0 -0.8278605937957764 -0.5609338879585266
vn 0.36858224868774414 -0.8305361866950989 -0.4175606071949005
vn 0.36858224868774414 -0.8305360674858093 -0.41756054759025574
vn 0.36858224868774414 -0.8305361866950989 -0.4175606071949005
vn 0.32000795006752014 -0.8701241612434387 -0.37480491399765015
vn 0.32000795006752014 -0.8701241612434387 -0.37480485439300537
vn 0.32000797986984253 -0.8701241612434387 -0.37480491399765015
vn 0.5425534248352051 -0.8400213122367859 -1.1186833148713049e-07
vn 0.5425534248352051 -0.8400213122367859 -1.1186833148713049e-07
vn 0.5425534248352051 -0.8400213122367859 -1.1186833859255785e-07
vn 0.5425532460212708 -0.8400213718414307 -1.1306183722581409e-07
vn -0.0 0.0 -1.0
vn -0.0 0.0 -1.0
vn -0.0 0.0 -1.0
vn 1.8035883897482563e-07 7.158453627198469e-06 -1.0
vn -0.0 -1.0 0.0
vn -0.0 -1.0 0.0
vn -0.0 -1.0 0.0
vn -0.0 -1.0 0.0
vn -0.0 1.0 -2.3732179954549792e-07
vn -0.0 1.0 -2.3732181375635264e-07
vn -0.0 1.0 -2.3732179954549792e-07
vn -0.0 1.0 0.0
vn -2.25666667574842e-07 -1.6952388648405758e-07 1.0
vn -2.3274547800156142e-07 -3.247053257382504e-07 1.0
vn -2.2544855937667307e-07 -1.6474290021051274e-07 1.0
vn -2.3296355777802091e-07 -3.294862835900858e-07 1.0
vn -0.0 -1.0 0.0
vn -0.0 -1.0 0.0
vn -0.0 -1.0 0.0
vn -0.0 -1.0 0.0
vn -1.0 0.0 -1.782966450036838e-07
vn -1.0 0.0 -1.782966450036838e-07
vn -1.0 0.0 -1.782966450036838e-07
vn -1.0 0.0 -1.782966450036838e-07
vn -0.9926102757453918 7.579251359857153e-07 -0.12134532630443573
vn -0.9926102757453918 7.579251359857153e-07 -0.12134532630443573
vn -0.9926102757453918 7.579251928291342e-07 -0.12134533375501633
vn -0.9926103949546814 0.0 -0.1213451474905014
vn -0.607738733291626 1.5183789400907699e-05 -0.7941370010375977
vn -0.6077387928962708 1.5183789400907699e-05 -0.7941370010375977
vn -0.6077387928962708 1.5183787581918295e-05 -0.7941370010375977
vn -0.6077387928962708 1.5183787581918295e-05 -0.7941370010375977
vn -0.0 -1.0 0.0
vn -0.0 -1.0 0.0
vn -0.0 -1.0 0.0
vn -0.0 -1.0 0.0
vn -0.0 -1.0 0.0
vn -0.0 -1.0 0.0
vn -0.0 -1.0 0.0
vn -0.0 -1.0 0.0
vn -0.0 -1.0 0.0
vn -0.0 -1.0 0.0
vn -0.0 -1.0 0.0
vn -0.0 -1.0 0.0
vn -0.9972692131996155 0.0 -0.07385139167308807
vn -0.9972692131996155 0.0 -0.07385139167308807
vn -0.9972692131996155 0.0 -0.07385139167308807
vn -0.9972696900367737 1.2458008313842583e-05 -0.07384531199932098
vn -0.43892937898635864 0.0 -0.8985215425491333
vn -0.4389294385910034 0.0 -0.8985215425491333
vn -0.43892937898635864 0.0 -0.8985215425491333
vn -0.4389308989048004 1.0966280569846276e-05 -0.8985207676887512
vn -0.853987455368042 2.133608541043941e-05 -0.5202935934066772
vn -0.8539873957633972 2.133608541043941e-05 -0.5202935934066772
vn -0.853987455368042 2.1336083591450006e-05 -0.5202935338020325
vn -0.8539873361587524 2.0417332052602433e-05 -0.5202937722206116
vn -0.9470252990722656 1.784816777217202e-05 -0.3211589455604553
vn -0.9470252990722656 1.7848169591161422e-05 -0.3211590349674225
vn -0.9470252990722656 1.7848171410150826e-05 -0.3211589753627777
vn -0.9470239877700806 2.0059876533196075e-06 -0.3211626410484314
vn 1.0 0.0 -1.782966450036838e-07
vn 1.0 0.0 -1.782966450036838e-07
vn 1.0 0.0 -1.782966450036838e-07
vn 1.0 0.0 -1.782966450036838e-07
vn 0.9926103949546814 0.0 -0.1213451474905014
vn 0.9926103949546814 0.0 -0.1213451474905014
vn 0.9926103949546814 0.0 -0.1213451474905014
vn 0.9926102757453918 7.579251928291342e-07 -0.12134533375501633
vn 0.6077387928962708 1.5183789400907699e-05 -0.7941370010375977
vn 0.607738733291626 1.5183789400907699e-05 -0.7941370010375977
vn 0.6077387928962708 1.5183787581918295e-05 -0.7941370010375977
vn 0.6077387928962708 1.5183787581918295e-05 -0.7941370010375977
vn -0.0 -1.0 0.0
vn -0.0 -1.0 0.0
vn -0.0 -1.0 0.0
vn -0.0 -1.0 0.0
vn -0.0 -1.0 0.0
vn -0.0 -1.0 0.0
vn -0.0 -1.0 0.0
vn -0.0 -1.0 0.0
vn -0.0 -1.0 0.0
vn -0.0 -1.0 0.0
vn -7.358505627053091e-07 -1.0 0.0
vn -7.923660518827091e-07 -1.0 0.0
vn 0.9972696900367737 1.2458007404347882e-05 -0.07384530454874039
vn 0.9972696900367737 1.2458009223337285e-05 -0.07384531199932098
vn 0.9972696900367737 1.2458008313842583e-05 -0.07384531199932098
vn 0.9972692131996155 0.0 -0.07385139167308807
vn 0.43893080949783325 1.0966279660351574e-05 -0.8985207676887512
vn 0.438930869102478 1.0966279660351574e-05 -0.8985207676887512
vn 0.4389308989048004 1.0966280569846276e-05 -0.8985207676887512
vn 0.43892937898635864 0.0 -0.8985215425491333
vn 0.8539873361587524 2.041733569058124e-05 -0.5202938318252563
vn 0.8539873361587524 2.041733569058124e-05 -0.5202938318252563
vn 0.8539873361587524 2.0417332052602433e-05 -0.5202937722206116
vn 0.853987455368042 2.1336083591450006e-05 -0.5202935338020325
vn 0.9470239877700806 2.0059876533196075e-06 -0.3211626410484314
vn 0.9470239877700806 2.005987425945932e-06 -0.321162611246109
vn 0.9470239877700806 2.0059876533196075e-06 -0.3211626410484314
vn 0.9470252990722656 1.7848171410150826e-05 -0.3211589753627777
vt 0.002413986949250102 0.3242303729057312
vt 0.5703160762786865 0.3828079104423523
vt 0.002413986949250102 0.3828079104423523
vt 0.5703160762786865 0.3242303729057312
vt 0.3564031422138214 0.5426080226898193
vt 0.571429967880249 0.46347659826278687
vt 0.42907217144966125 0.6168299317359924
vt 0.0019990596920251846 0.46347659826278687
vt 0.21734976768493652 0.5426080226898193
vt 0.14435677230358124 0.6168299317359924
vt 0.0019990596920251846 0.9979310212656856
vt 0.14435677230358124 0.9979310212656856
vt 0.571429967880249 0.9979310212656856
vt 0.42907217144966125 0.9979310212656856
vt 0.4203583300113678 0.9979310212656856
vt 0.35082870721817017 0.5509335696697235
vt 0.4203583300113678 0.6203406751155853
vt 0.22292417287826538 0.5509335696697235
vt 0.1530705839395523 0.6203406751155853
vt 0.1530705839395523 0.9979310212656856
vt 0.42907217144966125 0.9979310212656856
vt 0.4203583300113678 0.6203406751155853
vt 0.42907217144966125 0.6168299317359924
vt 0.4203583300113678 0.9979310212656856
vt 0.3564031422138214 0.5426080226898193
vt 0.4203583300113678 0.6203406751155853
vt 0.35082870721817017 0.5509335696697235
vt 0.4203583300113678 0.6203406751155853
vt 0.3564031422138214 0.5426080226898193
vt 0.42907217144966125 0.6168299317359924
vt 0.21734976768493652 0.5426080226898193
vt 0.35082870721817017 0.5509335696697235
vt 0.22292417287826538 0.5509335696697235
vt 0.3564031422138214 0.5426080226898193
vt 0.21734976768493652 0.5426080226898193
vt 0.1530705839395523 0.6203406751155853
vt 0.14435677230358124 0.6168299317359924
vt 0.1530705839395523 0.6203406751155853
vt 0.21734976768493652 0.5426080226898193
vt 0.22292417287826538 0.5509335696697235
vt 0.14435677230358124 0.6168299317359924
vt 0.1530705839395523 0.9979310212656856
vt 0.14435677230358124 0.9979310212656856
vt 0.1530705839395523 0.6203406751155853
vt 0.002413986949250102 0.462799608707428
vt 0.5703160762786865 0.4546852707862854
vt 0.5703160762786865 0.462799608707428
vt 0.002413986949250102 0.4546852707862854
vt 0.002413986949250102 0.4546852707862854
vt 0.5703160762786865 0.3828079104423523
vt 0.5703160762786865 0.4546852707862854
vt 0.002413986949250102 0.3828079104423523
vt 0.002413986949250102 0.3242303729057312
vt 0.5703160762786865 0.2884543538093567
vt 0.5703160762786865 0.3242303729057312
vt 0.002413986949250102 0.2884543538093567
vt 0.002413986949250102 0.1882873773574829
vt 0.564247190952301 0.21411657333374023
vt 0.002413986949250102 0.21411657333374023
vt 0.564247190952301 0.1882873773574829
vt 0.002413986949250102 0.28475654125213623
vt 0.564247190952301 0.21411657333374023
vt 0.564247190952301 0.28475654125213623
vt 0.002413986949250102 0.21411657333374023
vt 0.9564931392669678 0.9892899245023727
vt 0.9807369709014893 0.5802086889743805
vt 0.9807369709014893 0.9892899245023727
vt 0.9564931392669678 0.5802086889743805
vt 0.9807369709014893 0.5802086889743805
vt 0.9564931392669678 0.5739275217056274
vt 0.9807369709014893 0.5739275217056274
vt 0.9564931392669678 0.5802086889743805
vt 0.9807369709014893 0.5550840497016907
vt 0.9564931392669678 0.5207585692405701
vt 0.9807369709014893 0.5207585692405701
vt 0.9564931392669678 0.5550840497016907
vt 0.5121536254882812 0.9996039643883705
vt 0.5708621740341187 0.6087284684181213
vt 0.5708621740341187 0.9996039643883705
vt 0.5121536254882812 0.6087284684181213
vt 0.487535297870636 0.5231360197067261
vt 0.5710048675537109 0.4640657901763916
vt 0.46176040172576904 0.5019680261611938
vt 0.41905736923217773 0.479581356048584
vt 0.4179867208003998 0.4640657305717468
vt 0.5022714138031006 0.5490925312042236
vt 0.5116366147994995 0.578728437423706
vt 0.5150126218795776 0.6083642840385437
vt 0.9564931392669678 0.48643314838409424
vt 0.9807369709014893 0.47340065240859985
vt 0.9807369709014893 0.48643314838409424
vt 0.9564931392669678 0.47340065240859985
vt 0.9807369709014893 0.48643314838409424
vt 0.9564931392669678 0.5207585692405701
vt 0.9564931392669678 0.48643314838409424
vt 0.9807369709014893 0.5207585692405701
vt 0.9807369709014893 0.5550840497016907
vt 0.9564931392669678 0.5676463544368744
vt 0.9564931392669678 0.5550840497016907
vt 0.9807369709014893 0.5676463544368744
vt 0.9807369709014893 0.5676463544368744
vt 0.9564931392669678 0.5739275217056274
vt 0.9564931392669678 0.5676463544368744
vt 0.9807369709014893 0.5739275217056274
vt 0.9564931392669678 0.9892899245023727
vt 0.9807369709014893 0.5802086889743805
vt 0.9564931392669678 0.5802086889743805
vt 0.9807369709014893 0.9892899245023727
vt 0.9807369709014893 0.5802086889743805
vt 0.9564931392669678 0.5739275217056274
vt 0.9564931392669678 0.5802086889743805
vt 0.9807369709014893 0.5739275217056274
vt 0.9807369709014893 0.5550840497016907
vt 0.9564931392669678 0.5207585692405701
vt 0.9564931392669678 0.5550840497016907
vt 0.9807369709014893 0.5207585692405701
vt 0.5703123807907104 0.46406620740890503
vt 0.5143200159072876 0.6083642244338989
vt 0.5703125 0.6083642840385437
vt 0.5109440088272095 0.578728437423706
vt 0.5015788078308105 0.5490926504135132
vt 0.4868427813053131 0.5231361985206604
vt 0.41729435324668884 0.4640660285949707
vt 0.46106791496276855 0.5019682049751282
vt 0.4183649718761444 0.47958165407180786
vt 0.5121536254882812 0.6087284684181213
vt 0.5708621740341187 0.9996039643883705
vt 0.5121536254882812 0.9996039643883705
vt 0.9564931392669678 0.48643314838409424
vt 0.9807369709014893 0.47340065240859985
vt 0.9564931392669678 0.47340065240859985
vt 0.9807369709014893 0.48643314838409424
vt 0.9807369709014893 0.48643314838409424
vt 0.9564931392669678 0.5207585692405701
vt 0.9807369709014893 0.5207585692405701
vt 0.9564931392669678 0.48643314838409424
vt 0.9807369709014893 0.5550840497016907
vt 0.9564931392669678 0.5676463544368744
vt 0.9807369709014893 0.5676463544368744
vt 0.9564931392669678 0.5550840497016907
vt 0.9807369709014893 0.5676463544368744
vt 0.9564931392669678 0.5739275217056274
vt 0.9807369709014893 0.5739275217056274
vt 0.9564931392669678 0.5676463544368744

g bg_mdl_map_sirokabe00
s 1
usemtl bg_mdl_map_sirokabe00
f 3/3/3 2/2/2 1/1/1 
f 4/4/4 1/1/1 2/2/2 
f 7/7/7 6/6/6 5/5/5 
f 8/8/8 5/5/5 6/6/6 
f 9/9/9 5/5/5 8/8/8 
f 9/9/9 8/8/8 10/10/10 
f 11/11/11 10/10/10 8/8/8 
f 12/12/12 10/10/10 11/11/11 
f 6/6/6 7/7/7 13/13/13 
f 14/14/14 13/13/13 7/7/7 
f 17/17/17 16/16/16 15/15/15 
f 16/16/16 18/18/18 15/15/15 
f 18/18/18 19/19/19 15/15/15 
f 19/19/19 20/20/20 15/15/15 
f 23/23/23 22/22/22 21/21/21 
f 24/24/24 21/21/21 22/22/22 
f 27/27/27 26/26/26 25/25/25 
f 30/30/30 29/29/29 28/28/28 
f 33/33/33 32/32/32 31/31/31 
f 34/34/34 31/31/31 32/32/32 
f 37/37/37 36/36/36 35/35/35 
f 40/40/40 39/39/39 38/38/38 
f 43/43/43 42/42/42 41/41/41 
f 44/44/44 41/41/41 42/42/42 
f 47/47/47 46/46/46 45/45/45 
f 48/48/48 45/45/45 46/46/46 
f 51/51/51 50/50/50 49/49/49 
f 52/52/52 49/49/49 50/50/50 
f 55/55/55 54/54/54 53/53/53 
f 56/56/56 53/53/53 54/54/54 
f 59/59/59 58/58/58 57/57/57 
f 60/60/60 57/57/57 58/58/58 
f 63/63/63 62/62/62 61/61/61 
f 64/64/64 61/61/61 62/62/62 
f 67/67/67 66/66/66 65/65/65 
f 68/68/68 65/65/65 66/66/66 
f 71/71/71 70/70/70 69/69/69 
f 72/72/72 69/69/69 70/70/70 
f 75/75/75 74/74/74 73/73/73 
f 76/76/76 73/73/73 74/74/74 
f 79/79/79 78/78/78 77/77/77 
f 80/80/80 77/77/77 78/78/78 
f 82/82/82 81/81/81 78/78/78 
f 83/83/83 81/81/81 82/82/82 
f 84/84/84 83/83/83 82/82/82 
f 85/85/85 84/84/84 82/82/82 
f 81/81/81 86/86/86 78/78/78 
f 86/86/86 87/87/87 78/78/78 
f 87/87/87 88/88/88 78/78/78 
f 91/91/91 90/90/90 89/89/89 
f 92/92/92 89/89/89 90/90/90 
f 95/95/95 94/94/94 93/93/93 
f 96/96/96 93/93/93 94/94/94 
f 99/99/99 98/98/98 97/97/97 
f 100/100/100 97/97/97 98/98/98 
f 103/103/103 102/102/102 101/101/101 
f 104/104/104 101/101/101 102/102/102 
f 107/107/107 106/106/106 105/105/105 
f 108/108/108 105/105/105 106/106/106 
f 111/111/111 110/110/110 109/109/109 
f 112/112/112 109/109/109 110/110/110 
f 115/115/115 114/114/114 113/113/113 
f 116/116/116 113/113/113 114/114/114 
f 119/119/119 118/118/118 117/117/117 
f 118/118/118 120/120/120 117/117/117 
f 120/120/120 121/121/121 117/117/117 
f 121/121/121 122/122/122 117/117/117 
f 117/117/117 122/122/122 123/123/123 
f 122/122/122 124/124/124 123/123/123 
f 123/123/123 124/124/124 125/125/125 
f 119/119/119 127/127/127 126/126/126 
f 128/128/128 126/126/126 127/127/127 
f 131/131/131 130/130/130 129/129/129 
f 132/132/132 129/129/129 130/130/130 
f 135/135/135 134/134/134 133/133/133 
f 136/136/136 133/133/133 134/134/134 
f 139/139/139 138/138/138 137/137/137 
f 140/140/140 137/137/137 138/138/138 
f 143/143/143 142/142/142 141/141/141 
f 144/144/144 141/141/141 142/142/142 

