v -0.0030495452228933573 0.04643554240465164 -0.11420591920614243
v -0.009075317531824112 0.030963320285081863 -0.12157193571329117
v 0.006544723175466061 0.040171489119529724 -0.10197993367910385
v -0.010062484070658684 0.04634009674191475 -0.10790392011404037
v -0.011756744235754013 0.062248747795820236 -0.10494288802146912
v -0.001657943706959486 0.06349581480026245 -0.10686688870191574
v -0.01543022133409977 0.08413999527692795 -0.09939385950565338
v -0.023598860949277878 0.06788331270217896 -0.0975348949432373
v -0.002757186768576503 0.09344957023859024 -0.08957185596227646
v -0.010906447656452656 0.0903908908367157 -0.08622385561466217
v 0.005438460968434811 0.08585725724697113 -0.09619386494159698
v 0.010725402273237705 0.0710853636264801 -0.11365488916635513
v 0.015837250277400017 0.08687938749790192 -0.09767886996269226
v 0.007163161877542734 0.08249159902334213 -0.08952286839485168
v 0.01756187342107296 0.08351272344589233 -0.09100785851478577
v 0.027013108134269714 0.09462811052799225 -0.09583597630262375
v -0.009229812771081924 0.08683422952890396 -0.08119586855173111
v 0.0316854864358902 0.11010058969259262 -0.07401083409786224
v 0.04562904313206673 0.08291047066450119 -0.09458887577056885
v 0.05028320103883743 0.08200043439865112 -0.10237987339496613
v 0.043933868408203125 0.07394115626811981 -0.1108538880944252
v 0.07185523957014084 0.08670684695243835 -0.10077086836099625
v 0.06774596869945526 0.06370702385902405 -0.11195290088653564
v 0.04680587723851204 0.054593753069639206 -0.12065792083740234
v 0.027855072170495987 0.07323486357927322 -0.11339788138866425
v 0.07913551479578018 0.07580533623695374 -0.10366688668727875
v 0.031249159947037697 0.05759157985448837 -0.1284439116716385
v 0.0741494745016098 0.08581731468439102 -0.0988558754324913
v 0.08306419104337692 0.06265316158533096 -0.11310390383005142
v 0.03708488494157791 0.04924577474594116 -0.13034191727638245
v 0.032000426203012466 0.04159575700759888 -0.14476294815540314
v 0.021823348477482796 0.04679365083575249 -0.125343918800354
v 0.02356727607548237 0.05199398472905159 -0.11156591027975082
v 0.09362632781267166 0.07150829583406448 -0.09927789121866226
v 0.08306419104337692 0.06265316158533096 -0.11310390383005142
v 0.08306419104337692 0.06265316158533096 -0.11310390383005142
v 0.09056449681520462 0.05636768043041229 -0.10715290904045105
v 0.012978439219295979 0.06151283159852028 -0.1191239058971405
v 0.007166213821619749 0.04759864881634712 -0.12230592221021652
v 0.01792190596461296 0.03475585952401161 -0.13068093359470367
v 0.019767455756664276 0.04655321314930916 -0.11814391613006592
v 0.02356727607548237 0.05199398472905159 -0.11156591027975082
v 0.027855072170495987 0.07323486357927322 -0.11339788138866425
v -0.009075317531824112 0.030963320285081863 -0.12157193571329117
v -0.010062484070658684 0.04634009674191475 -0.10790392011404037
v 0.006544723175466061 0.040171489119529724 -0.10197993367910385
v -0.02556358277797699 0.051943883299827576 -0.07841091603040695
v -0.023598860949277878 0.06788331270217896 -0.0975348949432373
v -0.035778503865003586 0.09023179858922958 -0.08347485214471817
v 0.014675750397145748 0.03052513487637043 -0.09108994156122208
v 0.006544723175466061 0.040171489119529724 -0.10197993367910385
v -0.03898437321186066 0.09456212818622589 -0.07194585353136063
v -0.02596687339246273 0.0628548413515091 -0.10433389246463776
v -0.015025405213236809 0.05068809539079666 -0.1132449135184288
v -0.016303787007927895 0.06226184591650963 -0.1250958889722824
v -0.03060920722782612 0.07909488677978516 -0.09856687486171722
v -0.03137573227286339 0.09120771288871765 -0.0881708487868309
v -0.03572860732674599 0.0958048403263092 -0.10341884195804596
v -0.045932311564683914 0.11390369385480881 -0.0625208243727684
v -0.03508163243532181 0.08140687644481659 -0.041127875447273254
v -0.03734992817044258 0.10863233357667923 -0.037615831941366196
v -0.053775787353515625 0.12129805982112885 -0.04541380703449249
v -0.058226849883794785 0.13034819066524506 -0.041632793843746185
v -0.05376243591308594 0.11965388804674149 -0.013768813572824001
v -0.0395784005522728 0.0897849053144455 1.399180860062188e-07
v -0.04985496401786804 0.11221890896558762 -0.07173282653093338
v -0.05111946165561676 0.11450168490409851 -0.0945318192243576
v -0.0424041748046875 0.10316446423530579 -0.0858648344874382
v -0.06424003094434738 0.13214293122291565 -0.04742279276251793
v -0.07320037484169006 0.1339360922574997 -0.05000878870487213
v -0.0580943301320076 0.12392020970582962 -0.06191480904817581
v -0.07308609038591385 0.1373371034860611 -0.03843478485941887
v -0.08230583369731903 0.1410682052373886 -0.023728778585791588
v -0.07992546260356903 0.1389496624469757 -0.006883782800287008
v -0.10404075682163239 0.16473670303821564 2.576993267666694e-07
v -0.08307471871376038 0.1402910351753235 -0.015244781970977783
v -0.07809333503246307 0.13817504048347473 -0.018251784145832062
v -0.09396423399448395 0.1475117951631546 -0.01100676879286766
v -0.10404075682163239 0.16473670303821564 2.576993267666694e-07
v -0.087529756128788 0.14545314013957977 -0.027749773114919662
v -0.015025405213236809 0.05068809539079666 -0.1132449135184288
v -0.015873489901423454 0.06097591295838356 -0.11025990545749664
v -0.016303787007927895 0.06226184591650963 -0.1250958889722824
v -0.02596687339246273 0.0628548413515091 -0.10433389246463776
v -0.03060920722782612 0.07909488677978516 -0.09856687486171722
v -0.024897536262869835 0.090596042573452 -0.09424185752868652
v -0.019316252321004868 0.09387917071580887 -0.08716784417629242
v -0.010906447656452656 0.0903908908367157 -0.08622385561466217
v -0.03572860732674599 0.0958048403263092 -0.10341884195804596
v -0.03137573227286339 0.09120771288871765 -0.0881708487868309
v -0.035778503865003586 0.09023179858922958 -0.08347485214471817
v -0.02957763522863388 0.1154620498418808 -0.07441981881856918
v -0.014532851986587048 0.09684314578771591 -0.08221285045146942
v -0.010877837426960468 0.11615987867116928 -0.07428082078695297
v -0.018988188356161118 0.1134692132472992 -0.06748683005571365
v -0.014363707974553108 0.09602918475866318 -0.08694684505462646
v -0.0016188048757612705 0.10664480179548264 -0.08600582927465439
v -0.010906447656452656 0.0903908908367157 -0.08622385561466217
v -0.0424041748046875 0.10316446423530579 -0.0858648344874382
v 0.010191040113568306 0.11705418676137924 -0.06779282540082932
v -0.019729308784008026 0.11881205439567566 -0.06289281696081161
v -0.009229812771081924 0.08683422952890396 -0.08119586855173111
v 0.010191040113568306 0.11705418676137924 -0.06779282540082932
v 0.003322448581457138 0.12497875094413757 -0.04906681552529335
v -0.01871589571237564 0.12540321052074432 -0.05696680769324303
v -0.02864944376051426 0.11457723379135132 -0.06049482151865959
v -0.025315474718809128 0.12283720076084137 -0.05359181389212608
v -0.029491577297449112 0.11912214756011963 -0.047465819865465164
v -0.045932311564683914 0.11390369385480881 -0.0625208243727684
v -0.050638120621442795 0.13249671459197998 -0.05209779739379883
v -0.027581175789237022 0.12893642485141754 -0.04103580489754677
v -0.0580943301320076 0.12392020970582962 -0.06191480904817581
v -0.00709266634657979 0.11915559321641922 -0.0420348159968853
v -0.002951202215626836 0.13350605964660645 -0.03521779552102089
v -0.029287109151482582 0.1307319551706314 -0.03117379918694496
v -0.058226849883794785 0.13034819066524506 -0.041632793843746185
v -0.014387588016688824 0.13172166049480438 -0.017604798078536987
v -0.027634428814053535 0.13684047758579254 -0.021135790273547173
v -0.03433944657444954 0.1377602219581604 -0.021944787353277206
v -0.029623260721564293 0.13878650963306427 -0.0101197874173522
v -0.0531933568418026 0.13766103982925415 -0.014443786814808846
v -0.05707092210650444 0.14601171016693115 2.25567120537562e-07
v -0.08307471871376038 0.1402910351753235 -0.015244781970977783
v 0.00787353515625 0.12825679779052734 1.9330961720243067e-07
v -0.02980400063097477 0.1416916847229004 2.1671279171187052e-07
v -0.034407805651426315 0.14336055517196655 2.1961322715924325e-07
v -0.07809333503246307 0.13817504048347473 -0.018251784145832062
v -0.05981948599219322 0.14329786598682404 -0.031279776245355606
v -0.08230583369731903 0.1410682052373886 -0.023728778585791588
v -0.07308609038591385 0.1373371034860611 -0.03843478485941887
v -0.087529756128788 0.14545314013957977 -0.027749773114919662
v -0.08147910982370377 0.1522163301706314 2.3699003293131682e-07
v -0.09396423399448395 0.1475117951631546 -0.01100676879286766
v -0.10404075682163239 0.16473670303821564 2.576993267666694e-07
v 0.03519042953848839 0.04669138789176941 -0.12863492965698242
v 0.03320709243416786 0.0483909547328949 -0.11124692857265472
v 0.04377639666199684 0.05178811773657799 -0.1125069186091423
v 0.029904784634709358 0.04499230906367302 -0.12800492346286774
v 0.04680587723851204 0.054593753069639206 -0.12065792083740234
v 0.03708488494157791 0.04924577474594116 -0.13034191727638245
v 0.09056449681520462 0.05636768043041229 -0.10715290904045105
v 0.06774596869945526 0.06370702385902405 -0.11195290088653564
v 0.08306419104337692 0.06265316158533096 -0.11310390383005142
v 0.032000426203012466 0.04159575700759888 -0.14476294815540314
v 0.021823348477482796 0.04679365083575249 -0.125343918800354
v 0.02356727607548237 0.05199398472905159 -0.11156591027975082
v 0.006544723175466061 0.040171489119529724 -0.10197993367910385
v -0.001657943706959486 0.06349581480026245 -0.10686688870191574
v 0.019767455756664276 0.04655321314930916 -0.11814391613006592
v 0.01792190596461296 0.03475585952401161 -0.13068093359470367
v 0.007166213821619749 0.04759864881634712 -0.12230592221021652
v 0.02356727607548237 0.05199398472905159 -0.11156591027975082
v -0.001657943706959486 0.06349581480026245 -0.10686688870191574
v 0.02892211824655533 0.05301506072282791 -0.09922992438077927
v 0.03320709243416786 0.0483909547328949 -0.11124692857265472
v 0.006544723175466061 0.040171489119529724 -0.10197993367910385
v -0.04195693880319595 0.11239353567361832 -0.0817958265542984
v -0.05111946165561676 0.11450168490409851 -0.0945318192243576
v -0.04985496401786804 0.11221890896558762 -0.07173282653093338
v -0.03572860732674599 0.0958048403263092 -0.10341884195804596
v -0.07320037484169006 0.1339360922574997 -0.05000878870487213
v -0.06424003094434738 0.13214293122291565 -0.04742279276251793
v 0.006544723175466061 0.04017118364572525 0.101980060338974
v -0.009075317531824112 0.030962957069277763 0.12157205492258072
v -0.003049468854442239 0.04643520340323448 0.11420607566833496
v -0.010062484070658684 0.04633977636694908 0.10790406912565231
v -0.011756744235754013 0.062248434871435165 0.10494310408830643
v -0.001657943706959486 0.06349549442529678 0.10686710476875305
v -0.015430144965648651 0.08413968980312347 0.09939412772655487
v -0.023598860949277878 0.06788302212953568 0.09753510355949402
v -0.002757110632956028 0.09344930201768875 0.08957213908433914
v -0.010906447656452656 0.090390644967556 0.08622414618730545
v 0.005438460968434811 0.08585696667432785 0.09619413316249847
v 0.010725478641688824 0.07108502089977264 0.11365511268377304
v 0.015837250277400017 0.08687908947467804 0.09767913818359375
v 0.007163161877542734 0.08249133080244064 0.08952312916517258
v 0.01756187342107296 0.08351245522499084 0.09100812673568726
v 0.027013182640075684 0.09462782740592957 0.09463202208280563
v -0.009229812771081924 0.08683399111032486 0.0811961367726326
v 0.0316854864358902 0.11010035872459412 0.07401116192340851
v 0.04562904313206673 0.0829101949930191 0.09458912909030914
v 0.05028320103883743 0.08200012892484665 0.10238011926412582
v 0.043933868408203125 0.07394082099199295 0.11085409671068192
v 0.07185531407594681 0.08670654147863388 0.10077112168073654
v 0.06774596869945526 0.06370668858289719 0.11195309460163116
v 0.04680587723851204 0.054593391716480255 0.12065806984901428
v 0.027855072170495987 0.07323452830314636 0.11339811235666275
v 0.07913551479578018 0.07580503076314926 0.10366711020469666
v 0.031249236315488815 0.05759119987487793 0.12844409048557281
v 0.0741494745016098 0.08581702411174774 0.098856121301651
v 0.08306419104337692 0.0626528188586235 0.11310409009456635
v 0.03708488494157791 0.04924539104104042 0.13034206628799438
v 0.032000504434108734 0.041595324873924255 0.1447630524635315
v 0.021823424845933914 0.04679327458143234 0.12534406781196594
v 0.023567352443933487 0.05199364945292473 0.11156608164310455
v 0.08306419104337692 0.0626528188586235 0.11310409009456635
v 0.09362632781267166 0.0715079978108406 0.09927810728549957
v 0.09056449681520462 0.05636736378073692 0.10715308040380478
v 0.08306419104337692 0.0626528188586235 0.11310409009456635
v 0.012978439219295979 0.06151247397065163 0.11912409216165543
v 0.0071662901900708675 0.047598280012607574 0.12230607867240906
v 0.01792190596461296 0.03475546836853027 0.13068105280399323
v 0.019767455756664276 0.0465528629720211 0.11814407259225845
v 0.027855072170495987 0.07323452830314636 0.11339811235666275
v 0.023567352443933487 0.05199364945292473 0.11156608164310455
v 0.006544723175466061 0.04017118364572525 0.101980060338974
v -0.010062484070658684 0.04633977636694908 0.10790406912565231
v -0.009075317531824112 0.030962957069277763 0.12157205492258072
v -0.023598860949277878 0.06788302212953568 0.09753510355949402
v -0.02556358277797699 0.05194364860653877 0.07841107994318008
v -0.035778503865003586 0.09023155272006989 0.08347514271736145
v 0.014675750397145748 0.030524862930178642 0.09109006077051163
v 0.006544723175466061 0.04017118364572525 0.101980060338974
v -0.03898429870605469 0.09456191956996918 0.0719461441040039
v -0.025966797024011612 0.06285452842712402 0.10433410108089447
v -0.015025405213236809 0.0506877563893795 0.11324508488178253
v -0.016303787007927895 0.06226147338747978 0.12509609758853912
v -0.03060920722782612 0.07909458875656128 0.09856712073087692
v -0.03137565404176712 0.09120744466781616 0.08817113935947418
v -0.03572860732674599 0.09580453485250473 0.10341914743185043
v -0.045932311564683914 0.11390350013971329 0.06252116709947586
v -0.03508163243532181 0.08140676468610764 0.04112812504172325
v -0.03735115006566048 0.10863210260868073 0.03761616721749306
v -0.053775787353515625 0.1212979257106781 0.045414190739393234
v -0.058226775377988815 0.1303480565547943 0.041633203625679016
v -0.0537635013461113 0.11965375393629074 0.013769185170531273
v -0.0395784005522728 0.0897849053144455 1.399180860062188e-07
v -0.04985496401786804 0.11221868544816971 0.07173316925764084
v -0.05111946165561676 0.11450139433145523 0.09453218430280685
v -0.0424041748046875 0.1031641960144043 0.08586516231298447
v -0.06424003094434738 0.1321427971124649 0.04742320254445076
v -0.07320037484169006 0.13393594324588776 0.05000920593738556
v -0.0580943301320076 0.1239200159907341 0.06191519275307655
v -0.07308609038591385 0.13733699917793274 0.03843521326780319
v -0.08230583369731903 0.14106811583042145 0.023729221895337105
v -0.07992546260356903 0.13894963264465332 0.006884216330945492
v -0.08307471871376038 0.1402909904718399 0.015245217829942703
v -0.0780932605266571 0.13817499577999115 0.018252214416861534
v -0.09396423399448395 0.14751175045967102 0.011007231660187244
v -0.10404075682163239 0.16473670303821564 2.576993267666694e-07
v -0.087529756128788 0.1454530656337738 0.027750227600336075
v -0.10404075682163239 0.16473670303821564 2.576993267666694e-07
v -0.015873413532972336 0.060975585132837296 0.11026009172201157
v -0.015025405213236809 0.0506877563893795 0.11324508488178253
v -0.016303787007927895 0.06226147338747978 0.12509609758853912
v -0.025966797024011612 0.06285452842712402 0.10433410108089447
v -0.03060920722782612 0.07909458875656128 0.09856712073087692
v -0.024897536262869835 0.09059575945138931 0.0942421406507492
v -0.019316252321004868 0.09387891739606857 0.0871681496500969
v -0.010906447656452656 0.090390644967556 0.08622414618730545
v -0.03572860732674599 0.09580453485250473 0.10341914743185043
v -0.03137565404176712 0.09120744466781616 0.08817113935947418
v -0.035778503865003586 0.09023155272006989 0.08347514271736145
v -0.029577558860182762 0.11546184122562408 0.07442017644643784
v -0.014532851986587048 0.09684289991855621 0.0822131484746933
v -0.010877761989831924 0.11615966260433197 0.07428117841482162
v -0.018988188356161118 0.11346900463104248 0.06748717278242111
v -0.01436363160610199 0.09602892398834229 0.08694715052843094
v -0.0016188048757612705 0.10664453357458115 0.08600617200136185
v -0.010906447656452656 0.090390644967556 0.08622414618730545
v -0.0424041748046875 0.1031641960144043 0.08586516231298447
v 0.010191040113568306 0.11705398559570312 0.06779317557811737
v -0.019729232415556908 0.11881186068058014 0.06289318203926086
v -0.009229812771081924 0.08683399111032486 0.0811961367726326
v 0.010191040113568306 0.11705398559570312 0.06779317557811737
v 0.003322448581457138 0.12497859448194504 0.049067188054323196
v -0.01871650665998459 0.12540297210216522 0.05696719139814377
v -0.02864944376051426 0.1145770400762558 0.060495175421237946
v -0.025319594889879227 0.12283666431903839 0.05359218642115593
v -0.02950447052717209 0.11912082135677338 0.047466181218624115
v -0.045932311564683914 0.11390350013971329 0.06252116709947586
v -0.050638120621442795 0.13249656558036804 0.052098195999860764
v -0.027689285576343536 0.12892641127109528 0.04103619605302811
v -0.0580943301320076 0.1239200159907341 0.06191519275307655
v -0.007110671605914831 0.11915381252765656 0.04203517735004425
v -0.0030315399635583162 0.13349859416484833 0.03521820157766342
v -0.029538650065660477 0.1307089626789093 0.031174199655652046
v -0.058226775377988815 0.1303480565547943 0.041633203625679016
v -0.014662857167422771 0.1316944658756256 0.017605198547244072
v -0.02821548469364643 0.13678614795207977 0.02113620936870575
v -0.03467613086104393 0.1377309113740921 0.02194521203637123
v -0.029866714030504227 0.1387660652399063 0.01012021116912365
v -0.05321716144680977 0.1376589983701706 0.01444421149790287
v -0.05707092210650444 0.14601171016693115 2.25567120537562e-07
v -0.08307471871376038 0.1402909904718399 0.015245217829942703
v 0.00787353515625 0.12825679779052734 1.9330961720243067e-07
v -0.02980400063097477 0.1416916847229004 2.1671279171187052e-07
v -0.034407805651426315 0.14336055517196655 2.1961322715924325e-07
v -0.0780932605266571 0.13817499577999115 0.018252214416861534
v -0.059819791465997696 0.14329774677753448 0.03128021955490112
v -0.08230583369731903 0.14106811583042145 0.023729221895337105
v -0.07308609038591385 0.13733699917793274 0.03843521326780319
v -0.087529756128788 0.1454530656337738 0.027750227600336075
v -0.08147910982370377 0.1522163301706314 2.3699003293131682e-07
v -0.09396423399448395 0.14751175045967102 0.011007231660187244
v -0.10404075682163239 0.16473670303821564 2.576993267666694e-07
v 0.03519042953848839 0.04669100046157837 0.12863506376743317
v 0.03320709243416786 0.048390619456768036 0.11124706268310547
v 0.029904861003160477 0.04499192163348198 0.12800505757331848
v 0.04377639666199684 0.051787786185741425 0.11250707507133484
v 0.04680587723851204 0.054593391716480255 0.12065806984901428
v 0.03708488494157791 0.04924539104104042 0.13034206628799438
v 0.09056449681520462 0.05636736378073692 0.10715308040380478
v 0.06774596869945526 0.06370668858289719 0.11195309460163116
v 0.08306419104337692 0.0626528188586235 0.11310409009456635
v 0.032000504434108734 0.041595324873924255 0.1447630524635315
v 0.021823424845933914 0.04679327458143234 0.12534406781196594
v 0.023567352443933487 0.05199364945292473 0.11156608164310455
v 0.006544723175466061 0.04017118364572525 0.101980060338974
v -0.001657943706959486 0.06349549442529678 0.10686710476875305
v 0.0071662901900708675 0.047598280012607574 0.12230607867240906
v 0.01792190596461296 0.03475546836853027 0.13068105280399323
v 0.019767455756664276 0.0465528629720211 0.11814407259225845
v 0.023567352443933487 0.05199364945292473 0.11156608164310455
v -0.001657943706959486 0.06349549442529678 0.10686710476875305
v 0.006544723175466061 0.04017118364572525 0.101980060338974
v 0.02892211824655533 0.053014762699604034 0.0992300808429718
v 0.03320709243416786 0.048390619456768036 0.11124706268310547
v -0.04195693880319595 0.11239328980445862 0.08179616928100586
v -0.05111946165561676 0.11450139433145523 0.09453218430280685
v -0.04985496401786804 0.11221868544816971 0.07173316925764084
v -0.03572860732674599 0.09580453485250473 0.10341914743185043
v -0.07320037484169006 0.13393594324588776 0.05000920593738556
v -0.06424003094434738 0.1321427971124649 0.04742320254445076
v 0.028952354565262794 0.15895608067512512 0.020589124411344528
v 0.018934989348053932 0.15389330685138702 0.018283937126398087
v 0.02574465423822403 0.15828880667686462 -2.8907296901922426e-16
v 0.03512246161699295 0.16123071312904358 -2.944455931245399e-16
v 0.037373073399066925 0.15699389576911926 0.02218710072338581
v 0.027291182428598404 0.15285639464855194 0.046893492341041565
v 0.03767632320523262 0.14816273748874664 0.043320126831531525
v 0.031560685485601425 0.1473587453365326 0.06616618484258652
v 0.01253122091293335 0.13839636743068695 0.06105863302946091
v 0.013923989608883858 0.14906759560108185 0.03793363645672798
v 0.029448330402374268 0.13404984772205353 0.08072648197412491
v 0.03662889823317528 0.12747880816459656 0.08419632911682129
v 0.04298437386751175 0.13942237198352814 0.06120283529162407
v 0.042906831949949265 0.1362590342760086 0.08181276172399521
v 0.05131405219435692 0.12894342839717865 0.08264125883579254
v 0.05117065832018852 0.12713663280010223 0.08979552239179611
v 0.05382551625370979 0.12518979609012604 0.08584001660346985
v 0.04641936346888542 0.12238417565822601 0.0904974713921547
v 0.019197620451450348 0.12857602536678314 0.07714205235242844
v 0.0291459783911705 0.1208309531211853 0.08722425997257233
v 0.033568382263183594 0.124488465487957 0.08761143684387207
v 0.06435195356607437 0.11674347519874573 0.09433308988809586
v 0.05464673787355423 0.11955663561820984 0.09330536425113678
v 0.050559673458337784 0.13774777948856354 0.0788186714053154
v 0.06076150760054588 0.13189010322093964 0.08385325223207474
v 0.051372088491916656 0.1366489827632904 0.07534005492925644
v 0.042181313037872314 0.11669843643903732 0.0909203439950943
v 0.0373038649559021 0.12408847361803055 0.08671233803033829
v 0.03957629203796387 0.1591612845659256 -2.906662909325688e-16
v 0.02574465423822403 0.15828880667686462 -2.8907296901922426e-16
v 0.018934989348053932 0.15389330685138702 0.018283937126398087
v 0.026537002995610237 0.14944906532764435 0.03449453413486481
v 0.013923989608883858 0.14906759560108185 0.03793363645672798
v 0.03957629203796387 0.1591612845659256 -2.906662909325688e-16
v 0.037373073399066925 0.15699389576911926 0.02218710072338581
v 0.03767632320523262 0.14816273748874664 0.043320126831531525
v 0.03797738999128342 0.1346874088048935 0.06589297950267792
v 0.04298437386751175 0.13942237198352814 0.06120283529162407
v 0.051372088491916656 0.1366489827632904 0.07534005492925644
v 0.05131405219435692 0.12894342839717865 0.08264125883579254
v 0.049129705876111984 0.12501759827136993 0.08251210302114487
v 0.05382551625370979 0.12518979609012604 0.08584001660346985
v 0.01253122091293335 0.13839636743068695 0.06105863302946091
v 0.019197620451450348 0.12857602536678314 0.07714205235242844
v 0.03662889823317528 0.12747880816459656 0.08419632911682129
v 0.04641936346888542 0.12238417565822601 0.0904974713921547
v 0.06435195356607437 0.11674347519874573 0.09433308988809586
v 0.05464673787355423 0.11955663561820984 0.09330536425113678
v 0.06076150760054588 0.13189010322093964 0.08385325223207474
v 0.03229532763361931 0.12551496922969818 0.08025887608528137
v 0.0373038649559021 0.12408847361803055 0.08671233803033829
v 0.042181313037872314 0.11669843643903732 0.0909203439950943
v 0.0291459783911705 0.1208309531211853 0.08722425997257233
v 0.028952354565262794 0.15895608067512512 -0.020589124411344528
v 0.02574465423822403 0.15828880667686462 -2.8907296901922426e-16
v 0.018934989348053932 0.15389330685138702 -0.018283937126398087
v 0.03512246161699295 0.16123071312904358 -2.944455931245399e-16
v 0.037373073399066925 0.15699389576911926 -0.02218710072338581
v 0.027291182428598404 0.15285639464855194 -0.046893492341041565
v 0.03767632320523262 0.14816273748874664 -0.043320126831531525
v 0.031560685485601425 0.1473587453365326 -0.06616618484258652
v 0.01253122091293335 0.13839636743068695 -0.06105863302946091
v 0.013923989608883858 0.14906759560108185 -0.03793363645672798
v 0.029448330402374268 0.13404984772205353 -0.08072648197412491
v 0.03662889823317528 0.12747880816459656 -0.08419632911682129
v 0.04298437386751175 0.13942237198352814 -0.06120283901691437
v 0.042906831949949265 0.1362590342760086 -0.08181276172399521
v 0.05131405219435692 0.12894342839717865 -0.08264125883579254
v 0.05117065832018852 0.12713663280010223 -0.08979552239179611
v 0.05382551997900009 0.12518979609012604 -0.08582271635532379
v 0.04641936346888542 0.12238417565822601 -0.0904974713921547
v 0.019197620451450348 0.12857602536678314 -0.07714205235242844
v 0.0291459783911705 0.1208309531211853 -0.08722425997257233
v 0.033568382263183594 0.124488465487957 -0.08761143684387207
v 0.06435195356607437 0.11674347519874573 -0.09433308988809586
v 0.05464673787355423 0.11955663561820984 -0.09330536425113678
v 0.05055967718362808 0.13774777948856354 -0.078818678855896
v 0.06076150760054588 0.13189010322093964 -0.08385325968265533
v 0.051372088491916656 0.1366489827632904 -0.07534006237983704
v 0.042181313037872314 0.11669843643903732 -0.0909203439950943
v 0.0373038649559021 0.12408847361803055 -0.08671233803033829
v 0.03957629203796387 0.1591612845659256 -2.906662909325688e-16
v 0.02574465423822403 0.15828880667686462 -2.8907296901922426e-16
v 0.026537002995610237 0.14944906532764435 -0.03449453413486481
v 0.018934989348053932 0.15389330685138702 -0.018283937126398087
v 0.013923989608883858 0.14906759560108185 -0.03793363645672798
v 0.03957629203796387 0.1591612845659256 -2.906662909325688e-16
v 0.037373073399066925 0.15699389576911926 -0.02218710072338581
v 0.03767632320523262 0.14816273748874664 -0.043320126831531525
v 0.037977393716573715 0.1346874088048935 -0.06589297950267792
v 0.04298437386751175 0.13942237198352814 -0.06120283901691437
v 0.051372088491916656 0.1366489827632904 -0.07534006237983704
v 0.05131405219435692 0.12894342839717865 -0.08264125883579254
v 0.049129705876111984 0.12501759827136993 -0.08251210302114487
v 0.05382551997900009 0.12518979609012604 -0.08582271635532379
v 0.01253122091293335 0.13839636743068695 -0.06105863302946091
v 0.019197620451450348 0.12857602536678314 -0.07714205235242844
v 0.03662889823317528 0.12747880816459656 -0.08419632911682129
v 0.04641936346888542 0.12238417565822601 -0.0904974713921547
v 0.06435195356607437 0.11674347519874573 -0.09433308988809586
v 0.05464673787355423 0.11955663561820984 -0.09330536425113678
v 0.06076150760054588 0.13189010322093964 -0.08385325968265533
v 0.03229532763361931 0.12551496922969818 -0.08025887608528137
v 0.0373038649559021 0.12408847361803055 -0.08671233803033829
v 0.042181313037872314 0.11669843643903732 -0.0909203439950943
v 0.0291459783911705 0.1208309531211853 -0.08722425997257233
vn 0.23064585030078888 0.30593550205230713 -0.9236913919448853
vn -0.31371936202049255 -0.6933389902114868 -0.6487380862236023
vn 0.17228928208351135 -0.6783756017684937 -0.7142288684844971
vn -0.7546878457069397 -0.5193364024162292 -0.4009190499782562
vn -0.008294018916785717 0.46036049723625183 -0.8876932263374329
vn -0.29955220222473145 0.2585037052631378 -0.9183923006057739
vn 0.003960863221436739 0.49624645709991455 -0.8681726455688477
vn -0.7899287343025208 -0.12475920468568802 -0.6003729104995728
vn 0.24991971254348755 0.9682604670524597 0.0034144450910389423
vn 0.2980676591396332 0.706724226474762 -0.6416358947753906
vn -0.011487504467368126 0.906699001789093 -0.42162173986434937
vn -0.35016146302223206 0.5331879258155823 -0.7701283097267151
vn -0.30366459488868713 0.9290961027145386 -0.21111233532428741
vn 0.35980331897735596 0.8087417483329773 0.46527254581451416
vn -0.4285515546798706 0.840216338634491 0.3322352170944214
vn -0.2006254345178604 0.8230311274528503 -0.531384289264679
vn 0.9352044463157654 0.244976207613945 0.25569379329681396
vn -0.06617705523967743 0.820636510848999 -0.5676057934761047
vn 0.38062140345573425 0.9218053817749023 -0.07349883019924164
vn 0.00048591464292258024 0.8796053528785706 -0.4757038652896881
vn 0.14417612552642822 0.5917107462882996 -0.7931529879570007
vn 0.2881811857223511 0.59218430519104 -0.7525087594985962
vn 0.14367839694023132 0.11140964180231094 -0.9833332896232605
vn 0.6719108819961548 -0.3072521984577179 -0.6738930344581604
vn -0.0656001940369606 0.6087472438812256 -0.7906474471092224
vn 0.2547750771045685 0.5197605490684509 -0.8154376745223999
vn -0.13541094958782196 0.6139137148857117 -0.7776719927787781
vn 0.6461623907089233 0.567181408405304 -0.5106657147407532
vn 0.21628323197364807 -0.05528927221894264 -0.9747639298439026
vn 0.8554938435554504 -0.06218212842941284 -0.5140659213066101
vn 0.060683656483888626 -0.4287906587123871 -0.9013634324073792
vn -0.8861978650093079 -0.440353125333786 -0.14402291178703308
vn -0.3018636107444763 -0.866057276725769 -0.39852628111839294
vn 0.532021701335907 0.4675951898097992 -0.7059090733528137
vn 0.21628323197364807 -0.05528927221894264 -0.9747639298439026
vn 0.21628323197364807 -0.05528927221894264 -0.9747639298439026
vn 0.5086700320243835 -0.10100488364696503 -0.8550162315368652
vn -0.1210312694311142 0.34187278151512146 -0.9319196939468384
vn -0.8507629036903381 -0.43569210171699524 -0.2938960790634155
vn 0.22478437423706055 -0.8015806674957275 -0.5540220737457275
vn 0.6874532103538513 -0.6944514513015747 0.2124743014574051
vn -0.3018636107444763 -0.866057276725769 -0.39852628111839294
vn -0.0656001940369606 0.6087472438812256 -0.7906474471092224
vn -0.31371936202049255 -0.6933389902114868 -0.6487380862236023
vn -0.7546878457069397 -0.5193364024162292 -0.4009190499782562
vn 0.17228928208351135 -0.6783756017684937 -0.7142288684844971
vn -0.8577345013618469 -0.46296030282974243 -0.22351574897766113
vn -0.7899287343025208 -0.12475920468568802 -0.6003729104995728
vn -0.8418708443641663 0.008895560167729855 -0.5396057963371277
vn 0.02286241203546524 -0.8009656667709351 -0.5982736349105835
vn 0.17228928208351135 -0.6783756017684937 -0.7142288684844971
vn -0.922858476638794 -0.37764281034469604 -0.07561834901571274
vn -0.9880983233451843 0.15363314747810364 -0.007653655018657446
vn 0.026867114007472992 -0.7109953761100769 -0.7026832103729248
vn 0.11582256853580475 0.28303682804107666 -0.9520900249481201
vn -0.6805679798126221 -0.26883837580680847 -0.6815813183784485
vn -0.5108587741851807 0.844365656375885 -0.16146224737167358
vn -0.46594732999801636 0.5827597379684448 -0.6657958626747131
vn -0.8897700905799866 0.3640049993991852 -0.27533549070358276
vn -0.9800682663917542 -0.19627800583839417 0.030679887160658836
vn -0.9082526564598083 -0.41799405217170715 0.018920619040727615
vn -0.653265118598938 -0.6948872804641724 0.30062630772590637
vn -0.9267776012420654 0.2674780488014221 -0.2637019455432892
vn -0.655188262462616 -0.6573631763458252 -0.3722929358482361
vn -0.9070278406143188 -0.42107072472572327 -1.4829135579930153e-05
vn -0.9192990064620972 0.3642171025276184 0.14911487698554993
vn -0.40686047077178955 0.36157774925231934 -0.8388837575912476
vn -0.05885400250554085 -0.41255277395248413 -0.9090304970741272
vn -0.19779758155345917 0.5619727969169617 0.8031579256057739
vn -0.9293555021286011 0.3589182198047638 0.08646458387374878
vn -0.42549437284469604 -0.132426917552948 -0.8952193260192871
vn -0.4847542345523834 -0.08631236106157303 -0.870381236076355
vn -0.7419140338897705 -0.04284946620464325 0.66912442445755
vn -0.6680790185928345 -0.7418296933174133 -0.05795882269740105
vn -0.730410099029541 0.6830087900161743 2.0828269953199197e-06
vn -0.5824676752090454 -0.09994011372327805 -0.8066867589950562
vn -0.9353330135345459 0.13588394224643707 -0.3266308605670929
vn -0.7891367673873901 -0.07065121084451675 -0.6101407408714294
vn -0.730410099029541 0.6830087900161743 2.0828269953199197e-06
vn -0.9107197523117065 0.4098702073097229 0.05094997212290764
vn 0.026867114007472992 -0.7109953761100769 -0.7026832103729248
vn 0.6053988337516785 0.7274148464202881 -0.3230476975440979
vn 0.11582256853580475 0.28303682804107666 -0.9520900249481201
vn -0.9880983233451843 0.15363314747810364 -0.007653655018657446
vn -0.6805679798126221 -0.26883837580680847 -0.6815813183784485
vn 0.19992072880268097 0.796484112739563 -0.570652961730957
vn 0.05291779711842537 0.7249346375465393 -0.6867820024490356
vn 0.2980676591396332 0.706724226474762 -0.6416358947753906
vn -0.46594732999801636 0.5827597379684448 -0.6657958626747131
vn -0.5108587741851807 0.844365656375885 -0.16146224737167358
vn -0.8418708443641663 0.008895560167729855 -0.5396057963371277
vn 0.05536099895834923 0.8945527076721191 -0.44352075457572937
vn -0.16553620994091034 0.7852233052253723 -0.5966759324073792
vn 0.048687200993299484 0.8671175837516785 -0.495718389749527
vn -0.10588927567005157 0.9722992181777954 -0.20837827026844025
vn -0.2536744475364685 0.5010674595832825 -0.8273939490318298
vn 0.3024580478668213 0.5429112911224365 -0.7834324836730957
vn 0.2980676591396332 0.706724226474762 -0.6416358947753906
vn -0.05885400250554085 -0.41255277395248413 -0.9090304970741272
vn 0.13465595245361328 0.8020119071006775 -0.5819318294525146
vn -0.231158047914505 0.6800099015235901 -0.6958105564117432
vn 0.9352044463157654 0.244976207613945 0.25569379329681396
vn 0.13465595245361328 0.8020119071006775 -0.5819318294525146
vn -0.030682222917675972 0.9932025671005249 -0.11228170245885849
vn -0.12248995900154114 0.9470016956329346 -0.2969580888748169
vn -0.2227657437324524 0.9315733909606934 -0.28730905055999756
vn -0.5044230818748474 0.8631784319877625 -0.02191753312945366
vn 0.06598925590515137 0.8246769905090332 -0.5617411136627197
vn -0.8897700905799866 0.3640049993991852 -0.27533549070358276
vn 0.22361882030963898 0.9052227735519409 -0.3613395690917969
vn 0.114566870033741 0.8343439102172852 -0.5392074584960938
vn -0.42549437284469604 -0.132426917552948 -0.8952193260192871
vn 0.04204243794083595 0.9703060388565063 -0.23819896578788757
vn 0.03002544306218624 0.858501136302948 -0.5119318962097168
vn 0.11775710433721542 0.9372119307518005 -0.32827895879745483
vn -0.9267776012420654 0.2674780488014221 -0.2637019455432892
vn 0.22566615045070648 0.9587623476982117 -0.17277024686336517
vn 0.30147913098335266 0.892232358455658 -0.33620205521583557
vn 0.1671295464038849 0.9550756216049194 -0.24474139511585236
vn 0.2129286229610443 0.9496630430221558 -0.22978611290454865
vn 0.05567789077758789 0.990013837814331 -0.12950889766216278
vn 0.11889304220676422 0.9929070472717285 0.00019301440624985844
vn -0.5824676752090454 -0.09994011372327805 -0.8066867589950562
vn 0.32984501123428345 0.9440320134162903 0.002426279941573739
vn 0.33848339319229126 0.940960705280304 0.004686703905463219
vn 0.1965322643518448 0.98049396276474 0.002602222142741084
vn -0.9353330135345459 0.13588394224643707 -0.3266308605670929
vn 0.13204844295978546 0.9526734352111816 -0.27381861209869385
vn -0.7419140338897705 -0.04284946620464325 0.66912442445755
vn -0.4847542345523834 -0.08631236106157303 -0.870381236076355
vn -0.9107197523117065 0.4098702073097229 0.05094997212290764
vn 0.3392496705055237 0.9406963586807251 1.3172508488423773e-06
vn -0.7891367673873901 -0.07065121084451675 -0.6101407408714294
vn -0.730410099029541 0.6830087900161743 2.0828269953199197e-06
vn 0.5337919592857361 -0.8444116115570068 0.045112088322639465
vn 0.11771699786186218 -0.9895854592323303 0.08284511417150497
vn 0.32988986372947693 -0.8533962965011597 -0.40359318256378174
vn 0.06344179809093475 -0.9791678190231323 0.1928875893354416
vn 0.6719108819961548 -0.3072521984577179 -0.6738930344581604
vn 0.8554938435554504 -0.06218212842941284 -0.5140659213066101
vn 0.5086700320243835 -0.10100488364696503 -0.8550162315368652
vn 0.14367839694023132 0.11140964180231094 -0.9833332896232605
vn 0.21628323197364807 -0.05528927221894264 -0.9747639298439026
vn 0.060683656483888626 -0.4287906587123871 -0.9013634324073792
vn -0.8861978650093079 -0.440353125333786 -0.14402291178703308
vn -0.3018636107444763 -0.866057276725769 -0.39852628111839294
vn 0.17228928208351135 -0.6783756017684937 -0.7142288684844971
vn -0.29955220222473145 0.2585037052631378 -0.9183923006057739
vn 0.6874532103538513 -0.6944514513015747 0.2124743014574051
vn 0.22478437423706055 -0.8015806674957275 -0.5540220737457275
vn -0.8507629036903381 -0.43569210171699524 -0.2938960790634155
vn -0.3018636107444763 -0.866057276725769 -0.39852628111839294
vn -0.29955220222473145 0.2585037052631378 -0.9183923006057739
vn 0.48152419924736023 -0.8667618632316589 0.12983959913253784
vn 0.11771699786186218 -0.9895854592323303 0.08284511417150497
vn 0.17228928208351135 -0.6783756017684937 -0.7142288684844971
vn 0.3343196213245392 0.8270041942596436 -0.4519893527030945
vn -0.40686047077178955 0.36157774925231934 -0.8388837575912476
vn -0.9192990064620972 0.3642171025276184 0.14911487698554993
vn -0.46594732999801636 0.5827597379684448 -0.6657958626747131
vn -0.9293555021286011 0.3589182198047638 0.08646458387374878
vn -0.19779758155345917 0.5619727969169617 0.8031579256057739
vn 0.1722901314496994 -0.6783779263496399 0.714226484298706
vn -0.3137209117412567 -0.6933408975601196 0.6487354040145874
vn 0.23065157234668732 0.3059317171573639 0.9236913323402405
vn -0.7546868920326233 -0.519336998462677 0.4009198546409607
vn -0.008292857557535172 0.46035876870155334 0.8876942992210388
vn -0.2995510995388031 0.2585013508796692 0.9183933138847351
vn 0.003961185459047556 0.4962442219257355 0.8681738972663879
vn -0.7899283170700073 -0.12476161867380142 0.6003730297088623
vn 0.24992285668849945 0.9682596921920776 -0.0034129752311855555
vn 0.29806947708129883 0.7067200541496277 0.6416396498680115
vn -0.011487276293337345 0.9066972732543945 0.42162564396858215
vn -0.35015934705734253 0.5331866145133972 0.7701301574707031
vn -0.2919626533985138 0.9298706650733948 0.22382648289203644
vn 0.3598048686981201 0.8087419271469116 -0.4652707576751709
vn -0.4317229688167572 0.8348417282104492 -0.34154725074768066
vn -0.20927853882312775 0.8216882348060608 0.5301233530044556
vn 0.9352043271064758 0.24497592449188232 -0.25569435954093933
vn -0.06756420433521271 0.8053329586982727 0.5889600515365601
vn 0.3799881339073181 0.9227223992347717 0.06474818289279938
vn -0.008622671477496624 0.8787975907325745 0.4771169424057007
vn 0.13849200308322906 0.5989734530448914 0.7887019515037537
vn 0.2881867587566376 0.5921831727027893 0.7525073885917664
vn 0.14367808401584625 0.11140677332878113 0.9833336472511292
vn 0.6719115972518921 -0.30725470185279846 0.6738911867141724
vn -0.061988309025764465 0.6171544790267944 0.7843964695930481
vn 0.2547754645347595 0.519757866859436 0.8154391646385193
vn -0.13540835678577423 0.6139104962348938 0.7776750326156616
vn 0.6461721062660217 0.5671797394752502 0.5106552243232727
vn 0.21628321707248688 -0.05529242753982544 0.9747637510299683
vn 0.8554956316947937 -0.062184177339076996 0.5140625834465027
vn 0.06068592518568039 -0.4287930428981781 0.9013621807098389
vn -0.886197566986084 -0.44035372138023376 0.14402258396148682
vn -0.30186569690704346 -0.8660555481910706 0.3985283672809601
vn 0.21628321707248688 -0.05529242753982544 0.9747637510299683
vn 0.5320218801498413 0.46759310364723206 0.705910325050354
vn 0.5086703300476074 -0.10100694000720978 0.8550158143043518
vn 0.21628321707248688 -0.05529242753982544 0.9747637510299683
vn -0.12103230506181717 0.3418698012828827 0.9319207072257996
vn -0.8507633209228516 -0.4356929063796997 0.2938937544822693
vn 0.22478298842906952 -0.8015823364257812 0.5540202260017395
vn 0.6874518990516663 -0.6944516897201538 -0.21247783303260803
vn -0.061988309025764465 0.6171544790267944 0.7843964695930481
vn -0.30186569690704346 -0.8660555481910706 0.3985283672809601
vn 0.1722901314496994 -0.6783779263496399 0.714226484298706
vn -0.7546868920326233 -0.519336998462677 0.4009198546409607
vn -0.3137209117412567 -0.6933408975601196 0.6487354040145874
vn -0.7899283170700073 -0.12476161867380142 0.6003730297088623
vn -0.8577345609664917 -0.4629608392715454 0.22351430356502533
vn -0.8418716788291931 0.008893764577805996 0.5396044850349426
vn 0.022862717509269714 -0.8009670972824097 0.5982716083526611
vn 0.1722901314496994 -0.6783779263496399 0.714226484298706
vn -0.9228587746620178 -0.37764132022857666 0.07562278211116791
vn -0.9880983233451843 0.15363308787345886 0.007657522801309824
vn 0.026865825057029724 -0.7110001444816589 0.7026784420013428
vn 0.11581969261169434 0.28303396701812744 0.9520912170410156
vn -0.6805686354637146 -0.26883935928344727 0.6815803647041321
vn -0.5108545422554016 0.8443673253059387 0.1614668220281601
vn -0.4659481346607208 0.5827577114105225 0.6657970547676086
vn -0.8897534608840942 0.36408618092536926 0.2752818465232849
vn -0.9800640344619751 -0.19630040228366852 -0.030672548338770866
vn -0.9082476496696472 -0.4180057942867279 -0.01890321634709835
vn -0.653282105922699 -0.6948786973953247 -0.3006097078323364
vn -0.926618754863739 0.2685469090938568 0.26317355036735535
vn -0.655197024345398 -0.657364547252655 0.3722749948501587
vn -0.9070278406143188 -0.42107072472572327 -1.4829135579930153e-05
vn -0.9193001389503479 0.36421483755111694 -0.14911353588104248
vn -0.4068608283996582 0.361574649810791 0.8388850688934326
vn -0.05885942652821541 -0.412556529045105 0.9090284109115601
vn -0.1977972835302353 0.5619753003120422 -0.8031562566757202
vn -0.929355800151825 0.35891786217689514 -0.08646277338266373
vn -0.42549413442611694 -0.1324300318956375 0.8952189683914185
vn -0.48475268483161926 -0.08630760759115219 0.87038254737854
vn -0.7419199347496033 -0.04283817857503891 -0.6691186428070068
vn -0.668083667755127 -0.7418259978294373 0.0579511933028698
vn -0.5824270248413086 -0.09994487464427948 0.8067153692245483
vn -0.93536376953125 0.13603857159614563 0.3264785408973694
vn -0.7891368865966797 -0.07065308839082718 0.6101402044296265
vn -0.730410099029541 0.6830087900161743 2.0828269953199197e-06
vn -0.9107191562652588 0.40987148880958557 -0.05094967782497406
vn -0.730410099029541 0.6830087900161743 2.0828269953199197e-06
vn 0.6054027080535889 0.7274102568626404 0.3230508267879486
vn 0.026865825057029724 -0.7110001444816589 0.7026784420013428
vn 0.11581969261169434 0.28303396701812744 0.9520912170410156
vn -0.9880983233451843 0.15363308787345886 0.007657522801309824
vn -0.6805686354637146 -0.26883935928344727 0.6815803647041321
vn 0.19992078840732574 0.7964820861816406 0.5706557631492615
vn 0.052917711436748505 0.7249329686164856 0.6867837905883789
vn 0.29806947708129883 0.7067200541496277 0.6416396498680115
vn -0.4659481346607208 0.5827577114105225 0.6657970547676086
vn -0.5108545422554016 0.8443673253059387 0.1614668220281601
vn -0.8418716788291931 0.008893764577805996 0.5396044850349426
vn 0.055360984057188034 0.8945517539978027 0.44352278113365173
vn -0.16553384065628052 0.7852202653884888 0.5966805815696716
vn 0.04868800565600395 0.8671161532402039 0.49572089314460754
vn -0.10588911920785904 0.9722990393638611 0.20837941765785217
vn -0.25367122888565063 0.5010612607002258 0.8273985981941223
vn 0.30245834589004517 0.5429085493087769 0.7834342122077942
vn 0.29806947708129883 0.7067200541496277 0.6416396498680115
vn -0.05885942652821541 -0.412556529045105 0.9090284109115601
vn 0.13465632498264313 0.8020104765892029 0.5819336175918579
vn -0.23114807903766632 0.680005669593811 0.6958180665969849
vn 0.9352043271064758 0.24497592449188232 -0.25569435954093933
vn 0.13465632498264313 0.8020104765892029 0.5819336175918579
vn -0.030633289366960526 0.9931769371032715 0.11252127587795258
vn -0.12246683239936829 0.946999728679657 0.2969737946987152
vn -0.22280924022197723 0.9315338134765625 0.28740376234054565
vn -0.5042355060577393 0.8632813692092896 0.022178279235959053
vn 0.06602893024682999 0.8252174258232117 0.5609424710273743
vn -0.8897534608840942 0.36408618092536926 0.2752818465232849
vn 0.22399094700813293 0.905214250087738 0.3611302673816681
vn 0.11485493928194046 0.8352643847465515 0.5377190113067627
vn -0.42549413442611694 -0.1324300318956375 0.8952189683914185
vn 0.04171176999807358 0.9706894755363464 0.23669002950191498
vn 0.030817650258541107 0.8570659160614014 0.5142843127250671
vn 0.11948598921298981 0.9381066560745239 0.3250829577445984
vn -0.926618754863739 0.2685469090938568 0.26317355036735535
vn 0.22207826375961304 0.9591548442840576 0.1752232313156128
vn 0.29888206720352173 0.8930992484092712 0.3362191915512085
vn 0.1722555011510849 0.95478755235672 0.2422989010810852
vn 0.2131069451570511 0.9479289054870605 0.23667745292186737
vn 0.05666717141866684 0.9898923635482788 0.1300073117017746
vn 0.11889304220676422 0.9929070472717285 0.00019301440624985844
vn -0.5824270248413086 -0.09994487464427948 0.8067153692245483
vn 0.32984501123428345 0.9440320134162903 0.002426279941573739
vn 0.33848339319229126 0.940960705280304 0.004686703905463219
vn 0.1965322643518448 0.98049396276474 0.002602222142741084
vn -0.93536376953125 0.13603857159614563 0.3264785408973694
vn 0.13350006937980652 0.9524940848350525 0.2737385034561157
vn -0.7419199347496033 -0.04283817857503891 -0.6691186428070068
vn -0.48475268483161926 -0.08630760759115219 0.87038254737854
vn -0.9107191562652588 0.40987148880958557 -0.05094967782497406
vn 0.3392496705055237 0.9406963586807251 1.3172508488423773e-06
vn -0.7891368865966797 -0.07065308839082718 0.6101402044296265
vn -0.730410099029541 0.6830087900161743 2.0828269953199197e-06
vn 0.5337939262390137 -0.844410240650177 -0.045115429908037186
vn 0.11771627515554428 -0.9895853400230408 -0.08284761756658554
vn 0.0634438619017601 -0.9791669845581055 -0.19289052486419678
vn 0.32988977432250977 -0.8533977270126343 0.4035901129245758
vn 0.6719115972518921 -0.30725470185279846 0.6738911867141724
vn 0.8554956316947937 -0.062184177339076996 0.5140625834465027
vn 0.5086703300476074 -0.10100694000720978 0.8550158143043518
vn 0.14367808401584625 0.11140677332878113 0.9833336472511292
vn 0.21628321707248688 -0.05529242753982544 0.9747637510299683
vn 0.06068592518568039 -0.4287930428981781 0.9013621807098389
vn -0.886197566986084 -0.44035372138023376 0.14402258396148682
vn -0.30186569690704346 -0.8660555481910706 0.3985283672809601
vn 0.1722901314496994 -0.6783779263496399 0.714226484298706
vn -0.2995510995388031 0.2585013508796692 0.9183933138847351
vn -0.8507633209228516 -0.4356929063796997 0.2938937544822693
vn 0.22478298842906952 -0.8015823364257812 0.5540202260017395
vn 0.6874518990516663 -0.6944516897201538 -0.21247783303260803
vn -0.30186569690704346 -0.8660555481910706 0.3985283672809601
vn -0.2995510995388031 0.2585013508796692 0.9183933138847351
vn 0.1722901314496994 -0.6783779263496399 0.714226484298706
vn 0.48152410984039307 -0.8667615056037903 -0.12984217703342438
vn 0.11771627515554428 -0.9895853400230408 -0.08284761756658554
vn 0.33431780338287354 0.8270037174224854 0.4519917070865631
vn -0.4068608283996582 0.361574649810791 0.8388850688934326
vn -0.9193001389503479 0.36421483755111694 -0.14911353588104248
vn -0.4659481346607208 0.5827577114105225 0.6657970547676086
vn -0.929355800151825 0.35891786217689514 -0.08646277338266373
vn -0.1977972835302353 0.5619753003120422 -0.8031562566757202
vn -0.1458728313446045 0.9787551760673523 0.14408180117607117
vn -0.9345257878303528 -0.14969736337661743 -0.3228811025619507
vn -0.9995608925819397 -0.029632452875375748 0.0
vn 0.09950986504554749 0.9950365424156189 0.0
vn 0.9662011861801147 0.197358176112175 0.16584637761116028
vn -0.041682999581098557 0.9560431241989136 0.290248304605484
vn 0.9645713567733765 -0.012660522013902664 -0.2635178565979004
vn 0.010171772912144661 0.914904773235321 0.4035416841506958
vn -0.9774067401885986 -0.2098923921585083 0.024923233315348625
vn -0.9750673770904541 -0.05340486392378807 -0.21538664400577545
vn -0.1602267622947693 0.6477919816970825 0.7447771430015564
vn 0.538060188293457 -0.09201838076114655 0.8378686904907227
vn 0.8836095333099365 -0.07736437022686005 -0.46178898215293884
vn 0.14233426749706268 0.8114368319511414 0.5668431520462036
vn 0.9551162123680115 0.16372065246105194 -0.24687744677066803
vn 0.22795867919921875 0.7030623555183411 0.673600971698761
vn 0.8051625490188599 0.3635592460632324 -0.4685487449169159
vn -0.5516964197158813 -0.5768866539001465 0.6023560166358948
vn -0.8735015988349915 -0.4320572018623352 0.22432473301887512
vn -0.6243467926979065 -0.6414358019828796 0.4458152651786804
vn -0.08347779512405396 0.4573499858379364 0.885360062122345
vn 0.8178576231002808 -0.45562097430229187 0.35145193338394165
vn -0.3071924149990082 -0.6103309988975525 0.7301568984985352
vn 0.11843231320381165 0.8377161622047424 0.5331092476844788
vn 0.8940778970718384 -0.17597751319408417 0.41189390420913696
vn 0.7863834500312805 0.2058849036693573 -0.5824195146560669
vn 0.7142112851142883 -0.558214008808136 0.4222550392150879
vn 0.8083418607711792 0.5594411492347717 0.1833280324935913
vn 0.9983975291252136 -0.05658978223800659 0.0
vn -0.9995608925819397 -0.029632452875375748 0.0
vn -0.9345257878303528 -0.14969736337661743 -0.3228811025619507
vn 0.08595911413431168 -0.9358296990394592 -0.3418097198009491
vn -0.9750673770904541 -0.05340486392378807 -0.21538664400577545
vn 0.9983975291252136 -0.05658978223800659 0.0
vn 0.9662011861801147 0.197358176112175 0.16584637761116028
vn 0.9645713567733765 -0.012660522013902664 -0.2635178565979004
vn 0.18827076256275177 -0.8548968434333801 -0.4834308922290802
vn 0.8836095333099365 -0.07736437022686005 -0.46178898215293884
vn 0.7863834500312805 0.2058849036693573 -0.5824195146560669
vn 0.9551162123680115 0.16372065246105194 -0.24687744677066803
vn 0.20527341961860657 -0.7405397891998291 -0.6398935317993164
vn 0.8051625490188599 0.3635592460632324 -0.4685487449169159
vn -0.9774067401885986 -0.2098923921585083 0.024923233315348625
vn -0.8735015988349915 -0.4320572018623352 0.22432473301887512
vn 0.538060188293457 -0.09201838076114655 0.8378686904907227
vn -0.5516964197158813 -0.5768866539001465 0.6023560166358948
vn 0.8178576231002808 -0.45562097430229187 0.35145193338394165
vn -0.3071924149990082 -0.6103309988975525 0.7301568984985352
vn 0.8940778970718384 -0.17597751319408417 0.41189390420913696
vn 0.2347899228334427 -0.7972627878189087 -0.5560986399650574
vn 0.8083418607711792 0.5594411492347717 0.1833280324935913
vn 0.7142112851142883 -0.558214008808136 0.4222550392150879
vn -0.6243467926979065 -0.6414358019828796 0.4458152651786804
vn -0.1458728015422821 0.9787551760673523 -0.14408181607723236
vn -0.9995608925819397 -0.029632452875375748 0.0
vn -0.9345257878303528 -0.1496977061033249 0.3228810429573059
vn 0.09950986504554749 0.9950365424156189 0.0
vn 0.9662011861801147 0.197358176112175 -0.16584639251232147
vn -0.04168296977877617 0.9560431241989136 -0.290248304605484
vn 0.9645713567733765 -0.012660723179578781 0.26351791620254517
vn 0.010171706788241863 0.9149046540260315 -0.4035416841506958
vn -0.9774067401885986 -0.20989243686199188 -0.024923235177993774
vn -0.9750673770904541 -0.053404949605464935 0.21538668870925903
vn -0.1602267473936081 0.6477919220924377 -0.7447771430015564
vn 0.5380602478981018 -0.09201840311288834 -0.8378685712814331
vn 0.8836095333099365 -0.07736421376466751 0.4617888629436493
vn 0.14233426749706268 0.8114368319511414 -0.5668431520462036
vn 0.9549510478973389 0.16434451937675476 0.2471022605895996
vn 0.228031724691391 0.7030898332595825 -0.6735474467277527
vn 0.805205762386322 0.3609771728515625 0.4704669713973999
vn -0.5516964793205261 -0.5768866539001465 -0.6023560166358948
vn -0.8735015988349915 -0.43205735087394714 -0.22432462871074677
vn -0.6243467926979065 -0.6414358019828796 -0.44581523537635803
vn -0.08347779512405396 0.4573499858379364 -0.885360062122345
vn 0.8177855610847473 -0.4556453227996826 -0.3515879213809967
vn -0.3071923553943634 -0.6103309392929077 -0.7301567196846008
vn 0.11843213438987732 0.8377160429954529 -0.5331093668937683
vn 0.8940770030021667 -0.17597725987434387 -0.4118960499763489
vn 0.7863834500312805 0.20588481426239014 0.5824194550514221
vn 0.7142113447189331 -0.558214008808136 -0.42225509881973267
vn 0.8083418011665344 0.5594411492347717 -0.1833280473947525
vn 0.9983975291252136 -0.05658978223800659 0.0
vn -0.9995608925819397 -0.029632452875375748 0.0
vn 0.08595913648605347 -0.9358296990394592 0.3418096601963043
vn -0.9345257878303528 -0.1496977061033249 0.3228810429573059
vn -0.9750673770904541 -0.053404949605464935 0.21538668870925903
vn 0.9983975291252136 -0.05658978223800659 0.0
vn 0.9662011861801147 0.197358176112175 -0.16584639251232147
vn 0.9645713567733765 -0.012660723179578781 0.26351791620254517
vn 0.1882709264755249 -0.8548968434333801 0.4834308922290802
vn 0.8836095333099365 -0.07736421376466751 0.4617888629436493
vn 0.7863834500312805 0.20588481426239014 0.5824194550514221
vn 0.9549510478973389 0.16434451937675476 0.2471022605895996
vn 0.20463910698890686 -0.7405452132225037 0.6400904059410095
vn 0.805205762386322 0.3609771728515625 0.4704669713973999
vn -0.9774067401885986 -0.20989243686199188 -0.024923235177993774
vn -0.8735015988349915 -0.43205735087394714 -0.22432462871074677
vn 0.5380602478981018 -0.09201840311288834 -0.8378685712814331
vn -0.5516964793205261 -0.5768866539001465 -0.6023560166358948
vn 0.8177855610847473 -0.4556453227996826 -0.3515879213809967
vn -0.3071923553943634 -0.6103309392929077 -0.7301567196846008
vn 0.8940770030021667 -0.17597725987434387 -0.4118960499763489
vn 0.2347898632287979 -0.7972627878189087 0.5560986399650574
vn 0.8083418011665344 0.5594411492347717 -0.1833280473947525
vn 0.7142113447189331 -0.558214008808136 -0.42225509881973267
vn -0.6243467926979065 -0.6414358019828796 -0.44581523537635803
vt 0.38510000705718994 0.7396999895572662
vt 0.420199990272522 0.7528499960899353
vt 0.390749990940094 0.7290000021457672
vt 0.37564998865127563 0.7610500007867813
vt 0.3418999910354614 0.7558999955654144
vt 0.34860000014305115 0.7328999936580658
vt 0.29475000500679016 0.7423000037670135
vt 0.320499986410141 0.7695000022649765
vt 0.2858000099658966 0.7076500058174133
vt 0.2678000032901764 0.7183499932289124
vt 0.3111000061035156 0.6956500113010406
vt 0.359250009059906 0.7010000050067902
vt 0.322299987077713 0.673550009727478
vt 0.3003000020980835 0.684249997138977
vt 0.30709999799728394 0.6712499856948853
vt 0.3179500102996826 0.6295500099658966
vt 0.267300009727478 0.6990000009536743
vt 0.2700499892234802 0.6129499971866608
vt 0.34325000643730164 0.6015999913215637
vt 0.36134999990463257 0.6045500040054321
vt 0.3799999952316284 0.6270000040531158
vt 0.3718000054359436 0.5591999888420105
vt 0.41574999690055847 0.5853500068187714
vt 0.4247500002384186 0.6299499869346619
vt 0.37439998984336853 0.6654999852180481
vt 0.4052000045776367 0.5446000099182129
vt 0.42195001244544983 0.6642000079154968
vt 0.36800000071525574 0.5484000146389008
vt 0.4672999978065491 0.5805999934673309
vt 0.43974998593330383 0.6520000100135803
vt 0.4695500135421753 0.6669999957084656
vt 0.4300999939441681 0.6924000084400177
vt 0.41260001063346863 0.6933499872684479
vt 0.41819998621940613 0.5279499888420105
vt 0.4672999978065491 0.5805999934673309
vt 0.4672999978065491 0.5805999934673309
vt 0.4535500109195709 0.5185999870300293
vt 0.3790000081062317 0.7093000113964081
vt 0.3944999873638153 0.7234500050544739
vt 0.44734999537467957 0.7186000049114227
vt 0.4120500087738037 0.7046000063419342
vt 0.41260001063346863 0.6933499872684479
vt 0.37439998984336853 0.6654999852180481
vt 0.2890999913215637 0.8802499994635582
vt 0.31885001063346863 0.8895500004291534
vt 0.31619998812675476 0.8516499996185303
vt 0.36000001430511475 0.9037000015377998
vt 0.3352000117301941 0.9235000014305115
vt 0.36344999074935913 0.9558999985456467
vt 0.32875001430511475 0.8436000049114227
vt 0.31619998812675476 0.8516499996185303
vt 0.36945000290870667 0.9461500011384487
vt 0.3190000057220459 0.9252500012516975
vt 0.3104499876499176 0.902549996972084
vt 0.2985999882221222 0.9284000024199486
vt 0.335099995136261 0.9417000003159046
vt 0.35295000672340393 0.9568499997258186
vt 0.33180001378059387 0.966949999332428
vt 0.42419999837875366 0.9627499990165234
vt 0.40195000171661377 0.9248000010848045
vt 0.42820000648498535 0.9252500012516975
vt 0.4480000138282776 0.9413000009953976
vt 0.46184998750686646 0.9274500012397766
vt 0.4338499903678894 0.8875499963760376
vt 0.3937000036239624 0.9047000035643578
vt 0.40435001254081726 0.9762500002980232
vt 0.39750000834465027 0.9894000003114343
vt 0.3721500039100647 0.975449999794364
vt 0.4674000144004822 0.9442000016570091
vt 0.4763000011444092 0.9562500007450581
vt 0.44574999809265137 0.9689499996602535
vt 0.48214998841285706 0.902549996972084
vt 0.4805000126361847 0.8730500042438507
vt 0.4408999979496002 0.836899995803833
vt 0.4312500059604645 0.7818000018596649
vt 0.45925000309944153 0.8437999933958054
vt 0.46744999289512634 0.8642999976873398
vt 0.4523000121116638 0.8168999999761581
vt 0.4312500059604645 0.7818000018596649
vt 0.4916499853134155 0.8748999983072281
vt 0.3643999993801117 0.780799999833107
vt 0.3420499861240387 0.7804500013589859
vt 0.33889999985694885 0.8116499930620193
vt 0.32269999384880066 0.7892500013113022
vt 0.297650009393692 0.7743500024080276
vt 0.2737500071525574 0.7597499936819077
vt 0.25984999537467957 0.741349995136261
vt 0.2678000032901764 0.7183499932289124
vt 0.2699500024318695 0.7924499958753586
vt 0.257999986410141 0.7655500024557114
vt 0.25699999928474426 0.7755499929189682
vt 0.21115000545978546 0.7688000053167343
vt 0.24365000426769257 0.7364000082015991
vt 0.2016499936580658 0.7317500114440918
vt 0.19464999437332153 0.7511000037193298
vt 0.25459998846054077 0.7304500043392181
vt 0.22949999570846558 0.7084999978542328
vt 0.2678000032901764 0.7183499932289124
vt 0.24740000069141388 0.7997999936342239
vt 0.18645000457763672 0.6906499862670898
vt 0.1814499944448471 0.7527499943971634
vt 0.267300009727478 0.6990000009536743
vt 0.19214999675750732 0.6777499914169312
vt 0.14425000548362732 0.7098000049591064
vt 0.16474999487400055 0.7521000057458878
vt 0.18494999408721924 0.7736999988555908
vt 0.16314999759197235 0.7664500027894974
vt 0.15479999780654907 0.7800499945878983
vt 0.19415000081062317 0.8066000044345856
vt 0.15950000286102295 0.8322499990463257
vt 0.12764999270439148 0.7868999987840652
vt 0.18934999406337738 0.8384000062942505
vt 0.13054999709129333 0.7376500070095062
vt 0.09749999642372131 0.7436000108718872
vt 0.10575000196695328 0.7950000017881393
vt 0.14315000176429749 0.8513499945402145
vt 0.06909999996423721 0.770349994301796
vt 0.07599999755620956 0.7937500029802322
vt 0.08304999768733978 0.8113500028848648
vt 0.05494999885559082 0.8043500036001205
vt 0.07670000195503235 0.8602499961853027
vt 0.04544999822974205 0.8751500025391579
vt 0.08955000340938568 0.9205999970436096
vt 0.032749999314546585 0.7314999997615814
vt 0.021299999207258224 0.7974500060081482
vt 0.03044999949634075 0.8148999959230423
vt 0.0945499986410141 0.9091499969363213
vt 0.11420000344514847 0.866349995136261
vt 0.10930000245571136 0.9149999991059303
vt 0.14094999432563782 0.8857500031590462
vt 0.12394999712705612 0.9230500012636185
vt 0.050200000405311584 0.9271000027656555
vt 0.07970000058412552 0.9470500014722347
vt 0.04650000110268593 0.9801499992609024
vt 0.17964999377727509 0.9111500009894371
vt 0.20190000534057617 0.9298999980092049
vt 0.21199999749660492 0.9140499979257584
vt 0.17489999532699585 0.9192499965429306
vt 0.20409999787807465 0.9007000029087067
vt 0.180649995803833 0.905299998819828
vt 0.2904999852180481 0.8530000001192093
vt 0.23510000109672546 0.8752000033855438
vt 0.24244999885559082 0.8335500061511993
vt 0.1525000035762787 0.9008499979972839
vt 0.1720999926328659 0.935699999332428
vt 0.19359999895095825 0.9450000002980232
vt 0.22599999606609344 0.9722000006586313
vt 0.17100000381469727 0.9864499997347593
vt 0.17595000565052032 0.9435500018298626
vt 0.15240000188350677 0.9228499978780746
vt 0.15770000219345093 0.9584500007331371
vt 0.19359999895095825 0.9450000002980232
vt 0.17100000381469727 0.9864499997347593
vt 0.302700012922287 0.8139999955892563
vt 0.2869499921798706 0.823400005698204
vt 0.31619998812675476 0.8516499996185303
vt 0.21525000035762787 0.8064000010490417
vt 0.2231999933719635 0.8293499946594238
vt 0.21199999749660492 0.8135000020265579
vt 0.2699500024318695 0.7924499958753586
vt 0.16805000603199005 0.8779999986290932
vt 0.15735000371932983 0.8613999933004379
vt 0.390749990940094 0.7290000021457672
vt 0.420199990272522 0.7528499960899353
vt 0.38510000705718994 0.7396999895572662
vt 0.37564998865127563 0.7610500007867813
vt 0.3418999910354614 0.7558999955654144
vt 0.34860000014305115 0.7328999936580658
vt 0.29475000500679016 0.7423000037670135
vt 0.320499986410141 0.7695000022649765
vt 0.2858000099658966 0.7076500058174133
vt 0.2678000032901764 0.7183499932289124
vt 0.3111000061035156 0.6956500113010406
vt 0.359250009059906 0.7010000050067902
vt 0.322299987077713 0.673550009727478
vt 0.3003000020980835 0.684249997138977
vt 0.30709999799728394 0.6712499856948853
vt 0.3179500102996826 0.6295500099658966
vt 0.267300009727478 0.6990000009536743
vt 0.2700499892234802 0.6129499971866608
vt 0.34325000643730164 0.6015999913215637
vt 0.36134999990463257 0.6045500040054321
vt 0.3799999952316284 0.6270000040531158
vt 0.3718000054359436 0.5591999888420105
vt 0.41574999690055847 0.5853500068187714
vt 0.4247500002384186 0.6299499869346619
vt 0.37439998984336853 0.6654999852180481
vt 0.4052000045776367 0.5446000099182129
vt 0.42195001244544983 0.6642000079154968
vt 0.36800000071525574 0.5484000146389008
vt 0.4672999978065491 0.5805999934673309
vt 0.43974998593330383 0.6520000100135803
vt 0.4695500135421753 0.6669999957084656
vt 0.4300999939441681 0.6924000084400177
vt 0.41260001063346863 0.6933499872684479
vt 0.4672999978065491 0.5805999934673309
vt 0.41819998621940613 0.5279499888420105
vt 0.4535500109195709 0.5185999870300293
vt 0.4672999978065491 0.5805999934673309
vt 0.3790000081062317 0.7093000113964081
vt 0.3944999873638153 0.7234500050544739
vt 0.44734999537467957 0.7186000049114227
vt 0.4120500087738037 0.7046000063419342
vt 0.37439998984336853 0.6654999852180481
vt 0.41260001063346863 0.6933499872684479
vt 0.31619998812675476 0.8516499996185303
vt 0.31885001063346863 0.8895500004291534
vt 0.2890999913215637 0.8802499994635582
vt 0.3352000117301941 0.9235000014305115
vt 0.36000001430511475 0.9037000015377998
vt 0.36344999074935913 0.9558999985456467
vt 0.32875001430511475 0.8436000049114227
vt 0.31619998812675476 0.8516499996185303
vt 0.36945000290870667 0.9461500011384487
vt 0.3190000057220459 0.9252500012516975
vt 0.3104499876499176 0.902549996972084
vt 0.2985999882221222 0.9284000024199486
vt 0.335099995136261 0.9417000003159046
vt 0.35295000672340393 0.9568499997258186
vt 0.33180001378059387 0.966949999332428
vt 0.42419999837875366 0.9627499990165234
vt 0.40195000171661377 0.9248000010848045
vt 0.42820000648498535 0.9252500012516975
vt 0.4480000138282776 0.9413000009953976
vt 0.46184998750686646 0.9274500012397766
vt 0.4338499903678894 0.8875499963760376
vt 0.3937000036239624 0.9047000035643578
vt 0.40435001254081726 0.9762500002980232
vt 0.39750000834465027 0.9894000003114343
vt 0.3721500039100647 0.975449999794364
vt 0.4674000144004822 0.9442000016570091
vt 0.4763000011444092 0.9562500007450581
vt 0.44574999809265137 0.9689499996602535
vt 0.48214998841285706 0.902549996972084
vt 0.4805000126361847 0.8730500042438507
vt 0.4408999979496002 0.836899995803833
vt 0.45925000309944153 0.8437999933958054
vt 0.46744999289512634 0.8642999976873398
vt 0.4523000121116638 0.8168999999761581
vt 0.4312500059604645 0.7818000018596649
vt 0.4916499853134155 0.8748999983072281
vt 0.4312500059604645 0.7818000018596649
vt 0.3420499861240387 0.7804500013589859
vt 0.3643999993801117 0.780799999833107
vt 0.33889999985694885 0.8116499930620193
vt 0.32269999384880066 0.7892500013113022
vt 0.297650009393692 0.7743500024080276
vt 0.2737500071525574 0.7597499936819077
vt 0.25984999537467957 0.741349995136261
vt 0.2678000032901764 0.7183499932289124
vt 0.2699500024318695 0.7924499958753586
vt 0.257999986410141 0.7655500024557114
vt 0.25699999928474426 0.7755499929189682
vt 0.21115000545978546 0.7688000053167343
vt 0.24365000426769257 0.7364000082015991
vt 0.2016499936580658 0.7317500114440918
vt 0.19464999437332153 0.7511000037193298
vt 0.25459998846054077 0.7304500043392181
vt 0.22949999570846558 0.7084999978542328
vt 0.2678000032901764 0.7183499932289124
vt 0.24740000069141388 0.7997999936342239
vt 0.18645000457763672 0.6906499862670898
vt 0.1814499944448471 0.7527499943971634
vt 0.267300009727478 0.6990000009536743
vt 0.19214999675750732 0.6777499914169312
vt 0.14425000548362732 0.7098000049591064
vt 0.16474999487400055 0.7521000057458878
vt 0.18494999408721924 0.7736999988555908
vt 0.16314999759197235 0.7664500027894974
vt 0.15479999780654907 0.7800499945878983
vt 0.19415000081062317 0.8066000044345856
vt 0.15950000286102295 0.8322499990463257
vt 0.12764999270439148 0.7868999987840652
vt 0.18934999406337738 0.8384000062942505
vt 0.13054999709129333 0.7376500070095062
vt 0.09749999642372131 0.7436000108718872
vt 0.10575000196695328 0.7950000017881393
vt 0.14315000176429749 0.8513499945402145
vt 0.06909999996423721 0.770349994301796
vt 0.07599999755620956 0.7937500029802322
vt 0.08304999768733978 0.8113500028848648
vt 0.05494999885559082 0.8043500036001205
vt 0.07670000195503235 0.8602499961853027
vt 0.04544999822974205 0.8751500025391579
vt 0.08955000340938568 0.9205999970436096
vt 0.032749999314546585 0.7314999997615814
vt 0.021299999207258224 0.7974500060081482
vt 0.03044999949634075 0.8148999959230423
vt 0.0945499986410141 0.9091499969363213
vt 0.11420000344514847 0.866349995136261
vt 0.10930000245571136 0.9149999991059303
vt 0.14094999432563782 0.8857500031590462
vt 0.12394999712705612 0.9230500012636185
vt 0.050200000405311584 0.9271000027656555
vt 0.07970000058412552 0.9470500014722347
vt 0.04650000110268593 0.9801499992609024
vt 0.17964999377727509 0.9111500009894371
vt 0.20190000534057617 0.9298999980092049
vt 0.17489999532699585 0.9192499965429306
vt 0.21199999749660492 0.9140499979257584
vt 0.20409999787807465 0.9007000029087067
vt 0.180649995803833 0.905299998819828
vt 0.2904999852180481 0.8530000001192093
vt 0.23510000109672546 0.8752000033855438
vt 0.24244999885559082 0.8335500061511993
vt 0.1525000035762787 0.9008499979972839
vt 0.1720999926328659 0.935699999332428
vt 0.19359999895095825 0.9450000002980232
vt 0.22599999606609344 0.9722000006586313
vt 0.17100000381469727 0.9864499997347593
vt 0.15770000219345093 0.9584500007331371
vt 0.15240000188350677 0.9228499978780746
vt 0.17595000565052032 0.9435500018298626
vt 0.19359999895095825 0.9450000002980232
vt 0.17100000381469727 0.9864499997347593
vt 0.31619998812675476 0.8516499996185303
vt 0.302700012922287 0.8139999955892563
vt 0.2869499921798706 0.823400005698204
vt 0.21525000035762787 0.8064000010490417
vt 0.2231999933719635 0.8293499946594238
vt 0.21199999749660492 0.8135000020265579
vt 0.2699500024318695 0.7924499958753586
vt 0.16805000603199005 0.8779999986290932
vt 0.15735000371932983 0.8613999933004379
vt 0.26089999079704285 0.5694000124931335
vt 0.26080000400543213 0.5453499853610992
vt 0.3114500045776367 0.5567499995231628
vt 0.3152500092983246 0.5722500085830688
vt 0.2805500030517578 0.592849999666214
vt 0.19175000488758087 0.5898000001907349
vt 0.20514999330043793 0.6204000115394592
vt 0.14480000734329224 0.6195000112056732
vt 0.1436000019311905 0.5631000101566315
vt 0.20464999973773956 0.5451000034809113
vt 0.09264999628067017 0.6206499934196472
vt 0.07615000009536743 0.6446000039577484
vt 0.16455000638961792 0.6552999913692474
vt 0.0989999994635582 0.6566500067710876
vt 0.0904499962925911 0.6861000061035156
vt 0.07020000368356705 0.6814500093460083
vt 0.0767500028014183 0.6938000023365021
vt 0.05790000036358833 0.6705000102519989
vt 0.08184999972581863 0.5845000147819519
vt 0.054749999195337296 0.6200500130653381
vt 0.061650000512599945 0.6349000036716461
vt 0.04560000076889992 0.7184000015258789
vt 0.050450000911951065 0.691100001335144
vt 0.11620000004768372 0.6834000051021576
vt 0.10294999927282333 0.7145000100135803
vt 0.12540000677108765 0.6870999932289124
vt 0.035750001668930054 0.6575500071048737
vt 0.062950000166893 0.647599995136261
vt 0.31725001335144043 0.5852499902248383
vt 0.16179999709129333 0.51910001039505
vt 0.13339999318122864 0.512499988079071
vt 0.11124999821186066 0.5273500084877014
vt 0.10350000113248825 0.5106500089168549
vt 0.1647000014781952 0.5325500071048737
vt 0.14444999396800995 0.5374000072479248
vt 0.10159999877214432 0.550000011920929
vt 0.06334999948740005 0.5602000057697296
vt 0.07325000315904617 0.5629000067710876
vt 0.05894999951124191 0.5867500007152557
vt 0.04284999892115593 0.5869500041007996
vt 0.03759999945759773 0.5805999934673309
vt 0.03635000064969063 0.5909000039100647
vt 0.06920000165700912 0.5159499943256378
vt 0.03799999877810478 0.5358499884605408
vt 0.03584999963641167 0.566100001335144
vt 0.02474999986588955 0.5788500010967255
vt 0.02085000090301037 0.6062000095844269
vt 0.02085000090301037 0.5905500054359436
vt 0.04854999855160713 0.6031500101089478
vt 0.036649998277425766 0.5575999915599823
vt 0.02969999983906746 0.5683999955654144
vt 0.015150000341236591 0.5746000111103058
vt 0.02370000071823597 0.5530999898910522
vt 0.26089999079704285 0.5694000124931335
vt 0.3114500045776367 0.5567499995231628
vt 0.26080000400543213 0.5453499853610992
vt 0.3152500092983246 0.5722500085830688
vt 0.2805500030517578 0.592849999666214
vt 0.19175000488758087 0.5898000001907349
vt 0.20514999330043793 0.6204000115394592
vt 0.14480000734329224 0.6195000112056732
vt 0.1436000019311905 0.5631000101566315
vt 0.20464999973773956 0.5451000034809113
vt 0.09264999628067017 0.6206499934196472
vt 0.07615000009536743 0.6446000039577484
vt 0.16455000638961792 0.6552999913692474
vt 0.0989999994635582 0.6566500067710876
vt 0.0904499962925911 0.6861000061035156
vt 0.07020000368356705 0.6814500093460083
vt 0.0767500028014183 0.6938000023365021
vt 0.05790000036358833 0.6705000102519989
vt 0.08184999972581863 0.5845000147819519
vt 0.054749999195337296 0.6200500130653381
vt 0.061650000512599945 0.6349000036716461
vt 0.04560000076889992 0.7184000015258789
vt 0.050450000911951065 0.691100001335144
vt 0.11620000004768372 0.6834000051021576
vt 0.10294999927282333 0.7145000100135803
vt 0.12540000677108765 0.6870999932289124
vt 0.035750001668930054 0.6575500071048737
vt 0.062950000166893 0.647599995136261
vt 0.31725001335144043 0.5852499902248383
vt 0.16179999709129333 0.51910001039505
vt 0.11124999821186066 0.5273500084877014
vt 0.13339999318122864 0.512499988079071
vt 0.10350000113248825 0.5106500089168549
vt 0.1647000014781952 0.5325500071048737
vt 0.14444999396800995 0.5374000072479248
vt 0.10159999877214432 0.550000011920929
vt 0.06334999948740005 0.5602000057697296
vt 0.07325000315904617 0.5629000067710876
vt 0.05894999951124191 0.5867500007152557
vt 0.04284999892115593 0.5869500041007996
vt 0.03759999945759773 0.5805999934673309
vt 0.03635000064969063 0.5909000039100647
vt 0.06920000165700912 0.5159499943256378
vt 0.03799999877810478 0.5358499884605408
vt 0.03584999963641167 0.566100001335144
vt 0.02474999986588955 0.5788500010967255
vt 0.02085000090301037 0.6062000095844269
vt 0.02085000090301037 0.5905500054359436
vt 0.04854999855160713 0.6031500101089478
vt 0.036649998277425766 0.5575999915599823
vt 0.02969999983906746 0.5683999955654144
vt 0.015150000341236591 0.5746000111103058
vt 0.02370000071823597 0.5530999898910522

g MM_donta_hair_short_00
s 1
usemtl MM_donta_hair_short_00
f 3/3/3 2/2/2 1/1/1 
f 4/4/4 1/1/1 2/2/2 
f 4/4/4 5/5/5 1/1/1 
f 1/1/1 5/5/5 6/6/6 
f 3/3/3 1/1/1 6/6/6 
f 6/6/6 5/5/5 7/7/7 
f 7/7/7 5/5/5 8/8/8 
f 9/9/9 6/6/6 7/7/7 
f 10/10/10 9/9/9 7/7/7 
f 6/6/6 9/9/9 11/11/11 
f 12/12/12 6/6/6 11/11/11 
f 12/12/12 11/11/11 13/13/13 
f 11/11/11 14/14/14 13/13/13 
f 11/11/11 9/9/9 14/14/14 
f 15/15/15 13/13/13 14/14/14 
f 16/16/16 13/13/13 15/15/15 
f 14/14/14 9/9/9 17/17/17 
f 9/9/9 10/10/10 17/17/17 
f 16/16/16 15/15/15 18/18/18 
f 19/19/19 16/16/16 18/18/18 
f 20/20/20 16/16/16 19/19/19 
f 20/20/20 21/21/21 16/16/16 
f 20/20/20 22/22/22 21/21/21 
f 22/22/22 20/20/20 19/19/19 
f 22/22/22 23/23/23 21/21/21 
f 24/24/24 21/21/21 23/23/23 
f 16/16/16 21/21/21 25/25/25 
f 12/12/12 13/13/13 25/25/25 
f 13/13/13 16/16/16 25/25/25 
f 26/26/26 23/23/23 22/22/22 
f 25/25/25 21/21/21 27/27/27 
f 27/27/27 21/21/21 24/24/24 
f 28/28/28 26/26/26 22/22/22 
f 29/29/29 23/23/23 26/26/26 
f 27/27/27 24/24/24 30/30/30 
f 27/27/27 30/30/30 31/31/31 
f 32/32/32 27/27/27 31/31/31 
f 32/32/32 25/25/25 27/27/27 
f 33/33/33 25/25/25 32/32/32 
f 35/35/35 26/26/26 34/34/34 
f 37/37/37 36/36/36 34/34/34 
f 12/12/12 25/25/25 38/38/38 
f 12/12/12 38/38/38 6/6/6 
f 39/39/39 6/6/6 38/38/38 
f 39/39/39 38/38/38 40/40/40 
f 41/41/41 40/40/40 38/38/38 
f 41/41/41 38/38/38 25/25/25 
f 41/41/41 43/43/43 42/42/42 
f 46/46/46 45/45/45 44/44/44 
f 48/48/48 45/45/45 47/47/47 
f 49/49/49 48/48/48 47/47/47 
f 45/45/45 50/50/50 47/47/47 
f 45/45/45 51/51/51 50/50/50 
f 49/49/49 47/47/47 52/52/52 
f 48/48/48 53/53/53 45/45/45 
f 54/54/54 45/45/45 53/53/53 
f 53/53/53 55/55/55 54/54/54 
f 48/48/48 49/49/49 56/56/56 
f 57/57/57 56/56/56 49/49/49 
f 57/57/57 58/58/58 56/56/56 
f 47/47/47 59/59/59 52/52/52 
f 59/59/59 47/47/47 60/60/60 
f 61/61/61 59/59/59 60/60/60 
f 59/59/59 61/61/61 62/62/62 
f 62/62/62 61/61/61 63/63/63 
f 63/63/63 61/61/61 64/64/64 
f 64/64/64 61/61/61 65/65/65 
f 61/61/61 60/60/60 65/65/65 
f 66/66/66 52/52/52 59/59/59 
f 66/66/66 67/67/67 52/52/52 
f 68/68/68 52/52/52 67/67/67 
f 62/62/62 63/63/63 69/69/69 
f 62/62/62 69/69/69 70/70/70 
f 71/71/71 62/62/62 70/70/70 
f 59/59/59 62/62/62 71/71/71 
f 63/63/63 64/64/64 72/72/72 
f 72/72/72 64/64/64 73/73/73 
f 65/65/65 74/74/74 64/64/64 
f 65/65/65 75/75/75 74/74/74 
f 74/74/74 76/76/76 64/64/64 
f 77/77/77 64/64/64 76/76/76 
f 73/73/73 64/64/64 77/77/77 
f 78/78/78 76/76/76 74/74/74 
f 78/78/78 74/74/74 79/79/79 
f 72/72/72 73/73/73 80/80/80 
f 49/49/49 52/52/52 68/68/68 
f 82/82/82 5/5/5 81/81/81 
f 82/82/82 81/81/81 83/83/83 
f 84/84/84 82/82/82 83/83/83 
f 84/84/84 8/8/8 82/82/82 
f 82/82/82 8/8/8 5/5/5 
f 81/81/81 5/5/5 4/4/4 
f 85/85/85 7/7/7 8/8/8 
f 86/86/86 7/7/7 85/85/85 
f 86/86/86 87/87/87 7/7/7 
f 87/87/87 88/88/88 7/7/7 
f 86/86/86 85/85/85 89/89/89 
f 90/90/90 87/87/87 86/86/86 
f 90/90/90 91/91/91 87/87/87 
f 91/91/91 92/92/92 87/87/87 
f 92/92/92 93/93/93 87/87/87 
f 93/93/93 92/92/92 94/94/94 
f 92/92/92 95/95/95 94/94/94 
f 96/96/96 87/87/87 93/93/93 
f 93/93/93 97/97/97 96/96/96 
f 97/97/97 98/98/98 96/96/96 
f 98/98/98 87/87/87 96/96/96 
f 92/92/92 91/91/91 99/99/99 
f 93/93/93 94/94/94 100/100/100 
f 93/93/93 100/100/100 97/97/97 
f 95/95/95 100/100/100 94/94/94 
f 95/95/95 101/101/101 100/100/100 
f 98/98/98 97/97/97 102/102/102 
f 103/103/103 102/102/102 97/97/97 
f 104/104/104 100/100/100 101/101/101 
f 105/105/105 104/104/104 101/101/101 
f 105/105/105 101/101/101 106/106/106 
f 106/106/106 101/101/101 95/95/95 
f 106/106/106 95/95/95 92/92/92 
f 107/107/107 105/105/105 106/106/106 
f 105/105/105 107/107/107 104/104/104 
f 107/107/107 106/106/106 108/108/108 
f 106/106/106 109/109/109 108/108/108 
f 110/110/110 108/108/108 109/109/109 
f 111/111/111 108/108/108 110/110/110 
f 110/110/110 109/109/109 112/112/112 
f 107/107/107 108/108/108 113/113/113 
f 107/107/107 113/113/113 104/104/104 
f 108/108/108 111/111/111 114/114/114 
f 113/113/113 108/108/108 114/114/114 
f 111/111/111 115/115/115 114/114/114 
f 115/115/115 111/111/111 116/116/116 
f 111/111/111 110/110/110 116/116/116 
f 115/115/115 117/117/117 114/114/114 
f 115/115/115 118/118/118 117/117/117 
f 119/119/119 118/118/118 115/115/115 
f 119/119/119 120/120/120 118/118/118 
f 118/118/118 120/120/120 117/117/117 
f 120/120/120 119/119/119 121/121/121 
f 122/122/122 120/120/120 121/121/121 
f 121/121/121 123/123/123 122/122/122 
f 120/120/120 124/124/124 117/117/117 
f 120/120/120 125/125/125 124/124/124 
f 120/120/120 122/122/122 126/126/126 
f 125/125/125 120/120/120 126/126/126 
f 123/123/123 121/121/121 127/127/127 
f 128/128/128 127/127/127 121/121/121 
f 119/119/119 128/128/128 121/121/121 
f 115/115/115 128/128/128 119/119/119 
f 116/116/116 128/128/128 115/115/115 
f 128/128/128 129/129/129 127/127/127 
f 130/130/130 128/128/128 116/116/116 
f 128/128/128 130/130/130 131/131/131 
f 129/129/129 128/128/128 131/131/131 
f 123/123/123 132/132/132 122/122/122 
f 133/133/133 132/132/132 123/123/123 
f 133/133/133 134/134/134 132/132/132 
f 137/137/137 136/136/136 135/135/135 
f 138/138/138 135/135/135 136/136/136 
f 137/137/137 135/135/135 139/139/139 
f 140/140/140 139/139/139 135/135/135 
f 136/136/136 137/137/137 141/141/141 
f 141/141/141 137/137/137 142/142/142 
f 142/142/142 137/137/137 139/139/139 
f 143/143/143 141/141/141 142/142/142 
f 135/135/135 138/138/138 144/144/144 
f 140/140/140 135/135/135 144/144/144 
f 145/145/145 144/144/144 138/138/138 
f 138/138/138 136/136/136 145/145/145 
f 146/146/146 145/145/145 136/136/136 
f 146/146/146 136/136/136 147/147/147 
f 148/148/148 146/146/146 147/147/147 
f 151/151/151 150/150/150 149/149/149 
f 149/149/149 152/152/152 151/151/151 
f 153/153/153 151/151/151 152/152/152 
f 155/155/155 154/154/154 51/51/51 
f 50/50/50 156/156/156 154/154/154 
f 109/109/109 106/106/106 92/92/92 
f 109/109/109 92/92/92 157/157/157 
f 92/92/92 99/99/99 157/157/157 
f 157/157/157 99/99/99 158/158/158 
f 159/159/159 157/157/157 158/158/158 
f 109/109/109 157/157/157 159/159/159 
f 90/90/90 86/86/86 160/160/160 
f 110/110/110 112/112/112 161/161/161 
f 110/110/110 161/161/161 162/162/162 
f 116/116/116 110/110/110 162/162/162 
f 165/165/165 164/164/164 163/163/163 
f 164/164/164 165/165/165 166/166/166 
f 165/165/165 167/167/167 166/166/166 
f 168/168/168 167/167/167 165/165/165 
f 168/168/168 165/165/165 163/163/163 
f 169/169/169 167/167/167 168/168/168 
f 170/170/170 167/167/167 169/169/169 
f 169/169/169 168/168/168 171/171/171 
f 169/169/169 171/171/171 172/172/172 
f 173/173/173 171/171/171 168/168/168 
f 173/173/173 168/168/168 174/174/174 
f 175/175/175 173/173/173 174/174/174 
f 173/173/173 175/175/175 176/176/176 
f 176/176/176 171/171/171 173/173/173 
f 177/177/177 176/176/176 175/175/175 
f 177/177/177 175/175/175 178/178/178 
f 179/179/179 171/171/171 176/176/176 
f 179/179/179 172/172/172 171/171/171 
f 180/180/180 177/177/177 178/178/178 
f 180/180/180 178/178/178 181/181/181 
f 181/181/181 178/178/178 182/182/182 
f 178/178/178 183/183/183 182/182/182 
f 183/183/183 184/184/184 182/182/182 
f 181/181/181 182/182/182 184/184/184 
f 183/183/183 185/185/185 184/184/184 
f 185/185/185 183/183/183 186/186/186 
f 187/187/187 183/183/183 178/178/178 
f 187/187/187 175/175/175 174/174/174 
f 187/187/187 178/178/178 175/175/175 
f 184/184/184 185/185/185 188/188/188 
f 189/189/189 183/183/183 187/187/187 
f 186/186/186 183/183/183 189/189/189 
f 184/184/184 188/188/188 190/190/190 
f 188/188/188 185/185/185 191/191/191 
f 192/192/192 186/186/186 189/189/189 
f 193/193/193 192/192/192 189/189/189 
f 193/193/193 189/189/189 194/194/194 
f 189/189/189 187/187/187 194/194/194 
f 194/194/194 187/187/187 195/195/195 
f 197/197/197 188/188/188 196/196/196 
f 197/197/197 199/199/199 198/198/198 
f 200/200/200 187/187/187 174/174/174 
f 174/174/174 168/168/168 200/200/200 
f 201/201/201 200/200/200 168/168/168 
f 202/202/202 200/200/200 201/201/201 
f 200/200/200 202/202/202 203/203/203 
f 187/187/187 200/200/200 203/203/203 
f 205/205/205 204/204/204 203/203/203 
f 208/208/208 207/207/207 206/206/206 
f 210/210/210 207/207/207 209/209/209 
f 210/210/210 209/209/209 211/211/211 
f 210/210/210 212/212/212 207/207/207 
f 212/212/212 213/213/213 207/207/207 
f 214/214/214 210/210/210 211/211/211 
f 209/209/209 207/207/207 215/215/215 
f 216/216/216 215/215/215 207/207/207 
f 216/216/216 217/217/217 215/215/215 
f 209/209/209 218/218/218 211/211/211 
f 219/219/219 211/211/211 218/218/218 
f 218/218/218 220/220/220 219/219/219 
f 210/210/210 214/214/214 221/221/221 
f 222/222/222 210/210/210 221/221/221 
f 222/222/222 221/221/221 223/223/223 
f 224/224/224 223/223/223 221/221/221 
f 225/225/225 223/223/223 224/224/224 
f 226/226/226 223/223/223 225/225/225 
f 227/227/227 223/223/223 226/226/226 
f 227/227/227 222/222/222 223/223/223 
f 228/228/228 221/221/221 214/214/214 
f 214/214/214 229/229/229 228/228/228 
f 229/229/229 214/214/214 230/230/230 
f 230/230/230 214/214/214 211/211/211 
f 231/231/231 225/225/225 224/224/224 
f 232/232/232 231/231/231 224/224/224 
f 232/232/232 224/224/224 233/233/233 
f 233/233/233 224/224/224 221/221/221 
f 234/234/234 226/226/226 225/225/225 
f 235/235/235 226/226/226 234/234/234 
f 226/226/226 236/236/236 227/227/227 
f 226/226/226 237/237/237 236/236/236 
f 237/237/237 226/226/226 238/238/238 
f 238/238/238 226/226/226 235/235/235 
f 236/236/236 237/237/237 239/239/239 
f 240/240/240 236/236/236 239/239/239 
f 241/241/241 235/235/235 234/234/234 
f 236/236/236 242/242/242 65/65/65 
f 244/244/244 167/167/167 243/243/243 
f 245/245/245 244/244/244 243/243/243 
f 245/245/245 243/243/243 246/246/246 
f 243/243/243 170/170/170 246/246/246 
f 167/167/167 170/170/170 243/243/243 
f 166/166/166 167/167/167 244/244/244 
f 170/170/170 169/169/169 247/247/247 
f 247/247/247 169/169/169 248/248/248 
f 169/169/169 249/249/249 248/248/248 
f 169/169/169 250/250/250 249/249/249 
f 251/251/251 247/247/247 248/248/248 
f 248/248/248 249/249/249 252/252/252 
f 249/249/249 253/253/253 252/252/252 
f 249/249/249 254/254/254 253/253/253 
f 249/249/249 255/255/255 254/254/254 
f 256/256/256 254/254/254 255/255/255 
f 256/256/256 257/257/257 254/254/254 
f 255/255/255 249/249/249 258/258/258 
f 258/258/258 259/259/259 255/255/255 
f 258/258/258 260/260/260 259/259/259 
f 258/258/258 249/249/249 260/260/260 
f 261/261/261 253/253/253 254/254/254 
f 262/262/262 256/256/256 255/255/255 
f 259/259/259 262/262/262 255/255/255 
f 256/256/256 262/262/262 257/257/257 
f 262/262/262 263/263/263 257/257/257 
f 264/264/264 259/259/259 260/260/260 
f 259/259/259 264/264/264 265/265/265 
f 263/263/263 262/262/262 266/266/266 
f 263/263/263 266/266/266 267/267/267 
f 268/268/268 263/263/263 267/267/267 
f 257/257/257 263/263/263 268/268/268 
f 254/254/254 257/257/257 268/268/268 
f 268/268/268 267/267/267 269/269/269 
f 266/266/266 269/269/269 267/267/267 
f 270/270/270 268/268/268 269/269/269 
f 270/270/270 271/271/271 268/268/268 
f 271/271/271 270/270/270 272/272/272 
f 272/272/272 270/270/270 273/273/273 
f 274/274/274 271/271/271 272/272/272 
f 275/275/275 270/270/270 269/269/269 
f 266/266/266 275/275/275 269/269/269 
f 276/276/276 273/273/273 270/270/270 
f 276/276/276 270/270/270 275/275/275 
f 276/276/276 277/277/277 273/273/273 
f 278/278/278 273/273/273 277/277/277 
f 278/278/278 272/272/272 273/273/273 
f 276/276/276 279/279/279 277/277/277 
f 279/279/279 280/280/280 277/277/277 
f 277/277/277 280/280/280 281/281/281 
f 280/280/280 282/282/282 281/281/281 
f 279/279/279 282/282/282 280/280/280 
f 283/283/283 281/281/281 282/282/282 
f 283/283/283 282/282/282 284/284/284 
f 284/284/284 285/285/285 283/283/283 
f 279/279/279 286/286/286 282/282/282 
f 286/286/286 287/287/287 282/282/282 
f 288/288/288 284/284/284 282/282/282 
f 288/288/288 282/282/282 287/287/287 
f 289/289/289 283/283/283 285/285/285 
f 283/283/283 289/289/289 290/290/290 
f 283/283/283 290/290/290 281/281/281 
f 281/281/281 290/290/290 277/277/277 
f 277/277/277 290/290/290 278/278/278 
f 289/289/289 291/291/291 290/290/290 
f 278/278/278 290/290/290 292/292/292 
f 293/293/293 292/292/292 290/290/290 
f 293/293/293 290/290/290 291/291/291 
f 284/284/284 294/294/294 285/285/285 
f 285/285/285 294/294/294 295/295/295 
f 294/294/294 296/296/296 295/295/295 
f 299/299/299 298/298/298 297/297/297 
f 300/300/300 297/297/297 298/298/298 
f 300/300/300 301/301/301 297/297/297 
f 302/302/302 297/297/297 301/301/301 
f 303/303/303 300/300/300 298/298/298 
f 304/304/304 300/300/300 303/303/303 
f 301/301/301 300/300/300 304/304/304 
f 304/304/304 303/303/303 305/305/305 
f 306/306/306 299/299/299 297/297/297 
f 306/306/306 297/297/297 302/302/302 
f 299/299/299 306/306/306 307/307/307 
f 299/299/299 307/307/307 298/298/298 
f 308/308/308 298/298/298 307/307/307 
f 309/309/309 298/298/298 308/308/308 
f 309/309/309 308/308/308 310/310/310 
f 313/313/313 312/312/312 311/311/311 
f 313/313/313 311/311/311 314/314/314 
f 315/315/315 314/314/314 311/311/311 
f 212/212/212 317/317/317 316/316/316 
f 318/318/318 213/213/213 317/317/317 
f 254/254/254 268/268/268 271/271/271 
f 319/319/319 254/254/254 271/271/271 
f 319/319/319 261/261/261 254/254/254 
f 320/320/320 261/261/261 319/319/319 
f 320/320/320 319/319/319 321/321/321 
f 321/321/321 319/319/319 271/271/271 
f 322/322/322 248/248/248 252/252/252 
f 323/323/323 274/274/274 272/272/272 
f 324/324/324 323/323/323 272/272/272 
f 324/324/324 272/272/272 278/278/278 
f 327/327/327 326/326/326 325/325/325 
f 327/327/327 325/325/325 328/328/328 
f 328/328/328 325/325/325 329/329/329 
f 325/325/325 330/330/330 329/329/329 
f 331/331/331 329/329/329 330/330/330 
f 330/330/330 332/332/332 331/331/331 
f 333/333/333 332/332/332 330/330/330 
f 334/334/334 333/333/333 330/330/330 
f 334/334/334 330/330/330 325/325/325 
f 334/334/334 325/325/325 326/326/326 
f 332/332/332 333/333/333 335/335/335 
f 335/335/335 336/336/336 332/332/332 
f 332/332/332 337/337/337 331/331/331 
f 338/338/338 332/332/332 336/336/336 
f 339/339/339 332/332/332 338/338/338 
f 338/338/338 340/340/340 339/339/339 
f 338/338/338 336/336/336 340/340/340 
f 341/341/341 339/339/339 340/340/340 
f 342/342/342 340/340/340 336/336/336 
f 335/335/335 333/333/333 343/343/343 
f 343/343/343 344/344/344 335/335/335 
f 345/345/345 335/335/335 344/344/344 
f 335/335/335 345/345/345 336/336/336 
f 346/346/346 341/341/341 340/340/340 
f 347/347/347 340/340/340 342/342/342 
f 346/346/346 340/340/340 347/347/347 
f 332/332/332 339/339/339 348/348/348 
f 332/332/332 348/348/348 337/337/337 
f 348/348/348 339/339/339 349/349/349 
f 348/348/348 349/349/349 350/350/350 
f 350/350/350 337/337/337 348/348/348 
f 351/351/351 345/345/345 344/344/344 
f 345/345/345 351/351/351 352/352/352 
f 352/352/352 336/336/336 345/345/345 
f 328/328/328 329/329/329 353/353/353 
f 356/356/356 355/355/355 354/354/354 
f 356/356/356 357/357/357 355/355/355 
f 356/356/356 354/354/354 358/358/358 
f 356/356/356 358/358/358 359/359/359 
f 356/356/356 359/359/359 360/360/360 
f 356/356/356 360/360/360 361/361/361 
f 362/362/362 361/361/361 360/360/360 
f 362/362/362 363/363/363 361/361/361 
f 364/364/364 361/361/361 363/363/363 
f 361/361/361 364/364/364 365/365/365 
f 366/366/366 365/365/365 364/364/364 
f 361/361/361 367/367/367 356/356/356 
f 356/356/356 367/367/367 357/357/357 
f 361/361/361 368/368/368 367/367/367 
f 361/361/361 365/365/365 369/369/369 
f 370/370/370 369/369/369 365/365/365 
f 371/371/371 365/365/365 366/366/366 
f 365/365/365 371/371/371 372/372/372 
f 370/370/370 365/365/365 372/372/372 
f 373/373/373 364/364/364 363/363/363 
f 361/361/361 369/369/369 374/374/374 
f 361/361/361 374/374/374 368/368/368 
f 374/374/374 369/369/369 375/375/375 
f 376/376/376 374/374/374 375/375/375 
f 374/374/374 376/376/376 377/377/377 
f 368/368/368 374/374/374 377/377/377 
f 380/380/380 379/379/379 378/378/378 
f 378/378/378 379/379/379 381/381/381 
f 378/378/378 381/381/381 382/382/382 
f 378/378/378 382/382/382 383/383/383 
f 384/384/384 383/383/383 382/382/382 
f 385/385/385 383/383/383 384/384/384 
f 385/385/385 386/386/386 383/383/383 
f 386/386/386 387/387/387 383/383/383 
f 383/383/383 387/387/387 378/378/378 
f 378/378/378 387/387/387 380/380/380 
f 386/386/386 385/385/385 388/388/388 
f 389/389/389 388/388/388 385/385/385 
f 390/390/390 385/385/385 384/384/384 
f 385/385/385 391/391/391 389/389/389 
f 385/385/385 392/392/392 391/391/391 
f 391/391/391 392/392/392 393/393/393 
f 391/391/391 393/393/393 389/389/389 
f 394/394/394 393/393/393 392/392/392 
f 395/395/395 389/389/389 393/393/393 
f 386/386/386 388/388/388 396/396/396 
f 396/396/396 388/388/388 397/397/397 
f 398/398/398 397/397/397 388/388/388 
f 388/388/388 389/389/389 398/398/398 
f 394/394/394 399/399/399 393/393/393 
f 393/393/393 400/400/400 395/395/395 
f 393/393/393 399/399/399 400/400/400 
f 392/392/392 385/385/385 401/401/401 
f 385/385/385 390/390/390 401/401/401 
f 392/392/392 401/401/401 402/402/402 
f 402/402/402 401/401/401 403/403/403 
f 403/403/403 401/401/401 390/390/390 
f 398/398/398 404/404/404 397/397/397 
f 404/404/404 398/398/398 405/405/405 
f 405/405/405 398/398/398 389/389/389 
f 382/382/382 381/381/381 406/406/406 
f 409/409/409 408/408/408 407/407/407 
f 410/410/410 408/408/408 409/409/409 
f 407/407/407 408/408/408 411/411/411 
f 411/411/411 408/408/408 412/412/412 
f 412/412/412 408/408/408 413/413/413 
f 408/408/408 414/414/414 413/413/413 
f 415/415/415 413/413/413 414/414/414 
f 415/415/415 414/414/414 416/416/416 
f 417/417/417 416/416/416 414/414/414 
f 414/414/414 418/418/418 417/417/417 
f 419/419/419 417/417/417 418/418/418 
f 420/420/420 414/414/414 408/408/408 
f 420/420/420 408/408/408 410/410/410 
f 421/421/421 414/414/414 420/420/420 
f 414/414/414 422/422/422 418/418/418 
f 423/423/423 418/418/418 422/422/422 
f 418/418/418 424/424/424 419/419/419 
f 424/424/424 418/418/418 425/425/425 
f 418/418/418 423/423/423 425/425/425 
f 417/417/417 426/426/426 416/416/416 
f 422/422/422 414/414/414 427/427/427 
f 427/427/427 414/414/414 421/421/421 
f 422/422/422 427/427/427 428/428/428 
f 427/427/427 429/429/429 428/428/428 
f 429/429/429 427/427/427 430/430/430 
f 427/427/427 421/421/421 430/430/430 

