v -0.2078673094511032 7.629394360719743e-08 -0.25040724873542786
v -0.19533149898052216 0.07109489291906357 -0.2504073977470398
v -0.27029311656951904 0.09837882965803146 -0.2008151262998581
v -0.28763994574546814 0.0 -0.2008151262998581
v -0.22034499049186707 0.18489158153533936 -0.2008151262998581
v -0.1592356413602829 0.13361473381519318 -0.2504073977470398
v -0.1438198834657669 0.24910376965999603 -0.20081503689289093
v -0.10393360257148743 0.1800186187028885 -0.250407338142395
v -0.04994804412126541 0.2832702696323395 -0.20081503689289093
v -0.036095693707466125 0.2047094702720642 -0.25040748715400696
v 0.04994836822152138 0.2832702696323395 -0.20081520080566406
v 0.03609598055481911 0.20470961928367615 -0.25040748715400696
v 0.14382022619247437 0.24910369515419006 -0.20081527531147003
v 0.10393388569355011 0.18001869320869446 -0.2504076361656189
v 0.22034518420696259 0.18489165604114532 -0.20081527531147003
v 0.15923583507537842 0.13361473381519318 -0.25040769577026367
v 0.27029335498809814 0.09837882965803146 -0.200815349817276
v 0.19533170759677887 0.0710950419306755 -0.25040769577026367
v 0.28764015436172485 1.5258788721439487e-07 -0.200815349817276
v 0.20786769688129425 1.5258788721439487e-07 -0.25040769577026367
v 0.2702934145927429 -0.09837844967842102 -0.200815349817276
v 0.19533173739910126 -0.07109474390745163 -0.25040769577026367
v 0.22034524381160736 -0.18489128351211548 -0.20081527531147003
v 0.1592358946800232 -0.13361473381519318 -0.25040769577026367
v 0.14382031559944153 -0.24910354614257812 -0.20081527531147003
v 0.10393398255109787 -0.18001845479011536 -0.2504076361656189
v 0.04994844272732735 -0.2832702100276947 -0.2008151262998581
v 0.036096058785915375 -0.2047094702720642 -0.25040748715400696
v -0.04994785040616989 -0.2832702100276947 -0.20081503689289093
v -0.03609554097056389 -0.20470939576625824 -0.2504073977470398
v -0.14381973445415497 -0.24910369515419006 -0.20081503689289093
v -0.10393344610929489 -0.18001845479011536 -0.250407338142395
v -0.22034484148025513 -0.18489158153533936 -0.2008151262998581
v -0.15923549234867096 -0.13361480832099915 -0.2504073977470398
v -0.27029311656951904 -0.09837882965803146 -0.2008151262998581
v -0.1953313797712326 -0.07109489291906357 -0.2504073977470398
v -0.28763994574546814 0.0 -0.2008151262998581
v -0.27029311656951904 0.09837882965803146 -0.2008151262998581
v -0.2702932059764862 0.0983787551522255 -0.11337371915578842
v -0.28763994574546814 1.5258788721439487e-07 -0.11337363719940186
v -0.22034499049186707 0.18489158153533936 -0.11337371915578842
v -0.22034499049186707 0.18489158153533936 -0.2008151262998581
v -0.27029311656951904 -0.09837882965803146 -0.2008151262998581
v -0.2702929675579071 -0.09837882965803146 -0.11337371915578842
v -0.22034484148025513 -0.18489158153533936 -0.2008151262998581
v -0.22034484148025513 -0.18489158153533936 -0.11337371915578842
v -0.22034499049186707 0.18489158153533936 -0.2008151262998581
v -0.1438198834657669 0.24910376965999603 -0.20081503689289093
v -0.1438198834657669 0.24910376965999603 -0.11337363719940186
v -0.22034499049186707 0.18489158153533936 -0.11337371915578842
v -0.04994804412126541 0.2832702696323395 -0.11337379366159439
v -0.04994804412126541 0.2832702696323395 -0.20081503689289093
v 0.04994836822152138 0.2832702696323395 -0.11337379366159439
v 0.04994836822152138 0.2832702696323395 -0.20081520080566406
v 0.14382022619247437 0.249103844165802 -0.11337386816740036
v 0.14382022619247437 0.24910369515419006 -0.20081527531147003
v 0.22034525871276855 0.18489165604114532 -0.11337386816740036
v 0.22034518420696259 0.18489165604114532 -0.20081527531147003
v 0.22034518420696259 0.18489165604114532 -0.20081527531147003
v 0.27029335498809814 0.09837882965803146 -0.200815349817276
v 0.27029338479042053 0.0983787551522255 -0.11337386816740036
v 0.22034525871276855 0.18489165604114532 -0.11337386816740036
v 0.28764015436172485 7.629394360719743e-08 -0.11337386816740036
v 0.28764015436172485 1.5258788721439487e-07 -0.200815349817276
v 0.2702934443950653 -0.09837852418422699 -0.11337386816740036
v 0.2702934145927429 -0.09837844967842102 -0.200815349817276
v 0.22034533321857452 -0.18489135801792145 -0.11337386816740036
v 0.22034524381160736 -0.18489128351211548 -0.20081527531147003
v 0.22034524381160736 -0.18489128351211548 -0.20081527531147003
v 0.14382031559944153 -0.24910354614257812 -0.20081527531147003
v 0.14382031559944153 -0.24910354614257812 -0.11337386816740036
v 0.22034533321857452 -0.18489135801792145 -0.11337386816740036
v 0.04994844272732735 -0.2832702100276947 -0.11337379366159439
v 0.04994844272732735 -0.2832702100276947 -0.2008151262998581
v -0.04994785040616989 -0.2832702100276947 -0.11337379366159439
v -0.04994785040616989 -0.2832702100276947 -0.20081503689289093
v -0.14381973445415497 -0.2491036206483841 -0.11337363719940186
v -0.14381973445415497 -0.24910369515419006 -0.20081503689289093
v -0.22034484148025513 -0.18489158153533936 -0.11337371915578842
v -0.22034484148025513 -0.18489158153533936 -0.2008151262998581
v -0.28763994574546814 1.5258788721439487e-07 -0.11337363719940186
v -0.2702932059764862 0.0983787551522255 -0.11337371915578842
v -0.19533145427703857 0.07109489291906357 -0.06378135830163956
v -0.2078673541545868 1.5258788721439487e-07 -0.06378123909235
v -0.15923568606376648 0.13361480832099915 -0.06378143280744553
v -0.22034499049186707 0.18489158153533936 -0.11337371915578842
v -0.1039336770772934 0.1800186187028885 -0.06378143280744553
v -0.1438198834657669 0.24910376965999603 -0.11337363719940186
v -0.03609565645456314 0.20470961928367615 -0.06378143280744553
v -0.04994804412126541 0.2832702696323395 -0.11337379366159439
v 0.0360959991812706 0.20470954477787018 -0.06378161907196045
v 0.04994836822152138 0.2832702696323395 -0.11337379366159439
v 0.10393386334180832 0.18001869320869446 -0.06378173828125
v 0.14382022619247437 0.249103844165802 -0.11337386816740036
v 0.15923582017421722 0.13361480832099915 -0.06378170102834702
v 0.22034525871276855 0.18489165604114532 -0.11337386816740036
v 0.19533167779445648 0.0710950419306755 -0.06378177553415298
v 0.27029338479042053 0.0983787551522255 -0.11337386816740036
v 0.20786769688129425 1.5258788721439487e-07 -0.06378177553415298
v 0.28764015436172485 7.629394360719743e-08 -0.11337386816740036
v 0.19533172249794006 -0.07109474390745163 -0.06378177553415298
v 0.2702934443950653 -0.09837852418422699 -0.11337386816740036
v 0.159235879778862 -0.13361473381519318 -0.06378173828125
v 0.22034533321857452 -0.18489135801792145 -0.11337386816740036
v 0.1039339005947113 -0.18001845479011536 -0.06378173828125
v 0.14382031559944153 -0.24910354614257812 -0.11337386816740036
v 0.036096036434173584 -0.20470969378948212 -0.06378161907196045
v 0.04994844272732735 -0.2832702100276947 -0.11337379366159439
v -0.03609558194875717 -0.2047094702720642 -0.06378143280744553
v -0.04994785040616989 -0.2832702100276947 -0.11337379366159439
v -0.10393360257148743 -0.18001845479011536 -0.06378143280744553
v -0.14381973445415497 -0.2491036206483841 -0.11337363719940186
v -0.15923553705215454 -0.13361473381519318 -0.06378143280744553
v -0.22034484148025513 -0.18489158153533936 -0.11337371915578842
v -0.195331409573555 -0.07109489291906357 -0.06378135830163956
v -0.2702929675579071 -0.09837882965803146 -0.11337371915578842
v -0.08620379865169525 4.425048700795742e-06 -0.15708991885185242
v -0.04310081526637077 0.07466094940900803 -3.929138074454386e-06
v -0.08620376139879227 4.425048700795742e-06 -3.929138074454386e-06
v -0.04310081526637077 0.07466094940900803 -0.15708991885185242
v 0.04310508817434311 0.07466094940900803 -3.929138074454386e-06
v 0.0431051068007946 0.07466094940900803 -0.15708991885185242
v -0.04310081526637077 -0.07465202361345291 -0.15708991885185242
v -0.04310081526637077 -0.07465202361345291 -3.929138074454386e-06
v 0.04310508817434311 -0.07465202361345291 -0.15708991885185242
v 0.04310508817434311 -0.07465202361345291 -3.929138074454386e-06
v 0.0862080529332161 4.425048700795742e-06 -0.15708991885185242
v 0.0862080380320549 4.425048700795742e-06 -3.929138074454386e-06
v 0.0431051068007946 0.07466094940900803 -0.15708991885185242
v 0.04310508817434311 0.07466094940900803 -3.929138074454386e-06
v -0.08620376139879227 4.425048700795742e-06 -3.929138074454386e-06
v 0.04310508817434311 -0.07465202361345291 -3.929138074454386e-06
v -0.04310081526637077 -0.07465202361345291 -3.929138074454386e-06
v 0.0862080380320549 4.425048700795742e-06 -3.929138074454386e-06
v 0.04310508817434311 0.07466094940900803 -3.929138074454386e-06
v -0.04310081526637077 0.07466094940900803 -3.929138074454386e-06
vn -0.30224278569221497 1.485699527847828e-07 -0.9532309770584106
vn -0.2840138375759125 0.10337115079164505 -0.9532316327095032
vn -0.8213483095169067 0.2989460527896881 -0.4858170747756958
vn -0.874060332775116 0.0 -0.4858173429965973
vn -0.6695693135261536 0.5618354678153992 -0.4858168363571167
vn -0.2315317839384079 0.19427825510501862 -0.9532307386398315
vn -0.4370299279689789 0.7569589018821716 -0.4858168363571167
vn -0.1511235237121582 0.26175370812416077 -0.953229546546936
vn -0.15177924931049347 0.8607817888259888 -0.4858165979385376
vn -0.052485141903162 0.2976519465446472 -0.9532306790351868
vn 0.15177832543849945 0.8607817888259888 -0.48581674695014954
vn 0.052483297884464264 0.29765450954437256 -0.9532299041748047
vn 0.4370300769805908 0.7569587230682373 -0.4858170449733734
vn 0.1511208862066269 0.26175129413604736 -0.9532306790351868
vn 0.6695694327354431 0.561835527420044 -0.48581650853157043
vn 0.23153068125247955 0.19427791237831116 -0.9532312154769897
vn 0.8213486671447754 0.29894647002220154 -0.48581621050834656
vn 0.2840157449245453 0.10337366163730621 -0.9532307386398315
vn 0.8740609884262085 3.1165023983703577e-07 -0.48581618070602417
vn 0.3022438883781433 1.1713482450659285e-07 -0.9532306790351868
vn 0.8213486075401306 -0.2989461123943329 -0.48581662774086
vn 0.2840157747268677 -0.10337350517511368 -0.9532307386398315
vn 0.6695700287818909 -0.5618351101875305 -0.48581624031066895
vn 0.23153139650821686 -0.19427816569805145 -0.9532309770584106
vn 0.437031090259552 -0.7569587230682373 -0.48581624031066895
vn 0.15112021565437317 -0.2617504298686981 -0.9532310962677002
vn 0.151778906583786 -0.8607819080352783 -0.48581650853157043
vn 0.05248274654150009 -0.29765304923057556 -0.9532304406166077
vn -0.15177921950817108 -0.860781729221344 -0.4858165979385376
vn -0.0524849109351635 -0.29765117168426514 -0.9532308578491211
vn -0.43702977895736694 -0.7569591403007507 -0.4858167767524719
vn -0.15112248063087463 -0.26175230741500854 -0.953230082988739
vn -0.6695688962936401 -0.5618360042572021 -0.48581668734550476
vn -0.23153094947338104 -0.19427840411663055 -0.9532309770584106
vn -0.8213484883308411 -0.29894694685935974 -0.48581621050834656
vn -0.2840130925178528 -0.1033715009689331 -0.9532318711280823
vn -0.874060332775116 0.0 -0.4858173429965973
vn -0.8213483095169067 0.2989460527896881 -0.4858170747756958
vn -0.8213486075401306 0.29894644021987915 0.48581641912460327
vn -0.8740608096122742 -3.079772454839258e-07 0.48581650853157043
vn -0.6695694327354431 0.5618354082107544 0.48581671714782715
vn -0.6695693135261536 0.5618354678153992 -0.4858168363571167
vn -0.8213484883308411 -0.29894694685935974 -0.48581621050834656
vn -0.8213480710983276 -0.2989470958709717 0.48581668734550476
vn -0.6695688962936401 -0.5618360042572021 -0.48581668734550476
vn -0.669569194316864 -0.5618356466293335 0.4858166575431824
vn -0.6695693135261536 0.5618354678153992 -0.4858168363571167
vn -0.4370299279689789 0.7569589018821716 -0.4858168363571167
vn -0.43703001737594604 0.7569588422775269 0.4858168959617615
vn -0.6695694327354431 0.5618354082107544 0.48581671714782715
vn -0.1517781913280487 0.8607819676399231 0.48581668734550476
vn -0.15177924931049347 0.8607817888259888 -0.4858165979385376
vn 0.15177862346172333 0.8607814311981201 0.48581740260124207
vn 0.15177832543849945 0.8607817888259888 -0.48581674695014954
vn 0.437030166387558 0.7569587230682373 0.4858170449733734
vn 0.4370300769805908 0.7569587230682373 -0.4858170449733734
vn 0.6695695519447327 0.5618347525596619 0.4858170449733734
vn 0.6695694327354431 0.561835527420044 -0.48581650853157043
vn 0.6695694327354431 0.561835527420044 -0.48581650853157043
vn 0.8213486671447754 0.29894647002220154 -0.48581621050834656
vn 0.8213483095169067 0.29894572496414185 0.48581719398498535
vn 0.6695695519447327 0.5618347525596619 0.4858170449733734
vn 0.8740604519844055 1.369742079759817e-07 0.4858173131942749
vn 0.8740609884262085 3.1165023983703577e-07 -0.48581618070602417
vn 0.8213484287261963 -0.2989456057548523 0.48581716418266296
vn 0.8213486075401306 -0.2989461123943329 -0.48581662774086
vn 0.6695696115493774 -0.5618350505828857 0.4858167767524719
vn 0.6695700287818909 -0.5618351101875305 -0.48581624031066895
vn 0.6695700287818909 -0.5618351101875305 -0.48581624031066895
vn 0.437031090259552 -0.7569587230682373 -0.48581624031066895
vn 0.4370312988758087 -0.7569579482078552 0.4858171343803406
vn 0.6695696115493774 -0.5618350505828857 0.4858167767524719
vn 0.15177972614765167 -0.8607815504074097 0.4858168661594391
vn 0.151778906583786 -0.8607819080352783 -0.48581650853157043
vn -0.1517789214849472 -0.8607817888259888 0.48581668734550476
vn -0.15177921950817108 -0.860781729221344 -0.4858165979385376
vn -0.43702954053878784 -0.7569589614868164 0.48581716418266296
vn -0.43702977895736694 -0.7569591403007507 -0.4858167767524719
vn -0.669569194316864 -0.5618356466293335 0.4858166575431824
vn -0.6695688962936401 -0.5618360042572021 -0.48581668734550476
vn -0.8740608096122742 -3.079772454839258e-07 0.48581650853157043
vn -0.8213486075401306 0.29894644021987915 0.48581641912460327
vn -0.28401532769203186 0.10337360203266144 0.9532308578491211
vn -0.3022395968437195 0.0 0.953231930732727
vn -0.2315327525138855 0.1942795366048813 0.9532303214073181
vn -0.6695694327354431 0.5618354082107544 0.48581671714782715
vn -0.15112100541591644 0.2617497742176056 0.9532310962677002
vn -0.43703001737594604 0.7569588422775269 0.4858168959617615
vn -0.0524817518889904 0.29764875769615173 0.9532318711280823
vn -0.1517781913280487 0.8607819676399231 0.48581668734550476
vn 0.05248500779271126 0.297651082277298 0.9532308578491211
vn 0.15177862346172333 0.8607814311981201 0.48581740260124207
vn 0.15112267434597015 0.26175177097320557 0.9532303214073181
vn 0.437030166387558 0.7569587230682373 0.4858170449733734
vn 0.23153162002563477 0.19427761435508728 0.9532309770584106
vn 0.6695695519447327 0.5618347525596619 0.4858170449733734
vn 0.2840162515640259 0.10337322950363159 0.9532306790351868
vn 0.8213483095169067 0.29894572496414185 0.48581719398498535
vn 0.3022432029247284 0.0 0.9532308578491211
vn 0.8740604519844055 1.369742079759817e-07 0.4858173131942749
vn 0.28401556611061096 -0.10337270796298981 0.9532309770584106
vn 0.8213484287261963 -0.2989456057548523 0.48581716418266296
vn 0.2315317839384079 -0.1942780613899231 0.9532308578491211
vn 0.6695696115493774 -0.5618350505828857 0.4858167767524719
vn 0.1511230319738388 -0.26175031065940857 0.9532305598258972
vn 0.4370312988758087 -0.7569579482078552 0.4858171343803406
vn 0.05248532444238663 -0.2976514995098114 0.9532307386398315
vn 0.15177972614765167 -0.8607815504074097 0.4858168661594391
vn -0.05248276889324188 -0.29764804244041443 0.953231930732727
vn -0.1517789214849472 -0.8607817888259888 0.48581668734550476
vn -0.15112075209617615 -0.26175013184547424 0.9532310962677002
vn -0.43702954053878784 -0.7569589614868164 0.48581716418266296
vn -0.2315322905778885 -0.1942794919013977 0.9532304406166077
vn -0.669569194316864 -0.5618356466293335 0.4858166575431824
vn -0.28401559591293335 -0.10337383300065994 0.9532307386398315
vn -0.8213480710983276 -0.2989470958709717 0.48581668734550476
vn -1.0 -3.0670989303871465e-07 1.6021751036987553e-07
vn -0.35355332493782043 0.6123723983764648 0.7071068286895752
vn -0.7071066498756409 -1.8589418004921754e-07 0.7071068286895752
vn -0.49999991059303284 0.8660255074501038 0.0
vn 0.3535534143447876 0.6123723983764648 0.7071068286895752
vn 0.5000001192092896 0.8660253286361694 0.0
vn -0.4999997615814209 -0.8660256266593933 0.0
vn -0.35355329513549805 -0.6123724579811096 0.7071067690849304
vn 0.4999997317790985 -0.8660255074501038 0.0
vn 0.35355326533317566 -0.6123724579811096 0.7071068286895752
vn 1.0 -2.628941331295209e-07 0.0
vn 0.7071066498756409 -1.8589419426007225e-07 0.7071068286895752
vn 0.5000001192092896 0.8660253286361694 0.0
vn 0.3535534143447876 0.6123723983764648 0.7071068286895752
vn -0.7071066498756409 -1.8589418004921754e-07 0.7071068286895752
vn 0.35355326533317566 -0.6123724579811096 0.7071068286895752
vn -0.35355329513549805 -0.6123724579811096 0.7071067690849304
vn 0.7071066498756409 -1.8589419426007225e-07 0.7071068286895752
vn 0.3535534143447876 0.6123723983764648 0.7071068286895752
vn -0.35355332493782043 0.6123723983764648 0.7071068286895752
vt 0.8738616108894348 0.174893319606781
vt 0.8501750826835632 0.17071670293807983
vt 0.8410847783088684 0.19569164514541626
vt 0.8738616108894348 0.20147103071212769
vt 0.8122614026069641 0.17905056476593018
vt 0.8293452858924866 0.1586906909942627
vt 0.7908681035041809 0.1535547971725464
vt 0.8138849139213562 0.14026588201522827
vt 0.7794849276542664 0.12227952480316162
vt 0.8056588768959045 0.11766445636749268
vt 0.7794849276542664 0.08899706602096558
vt 0.805658757686615 0.09361231327056885
vt 0.7908681035041809 0.05772197246551514
vt 0.8138851523399353 0.07101094722747803
vt 0.8122614026069641 0.032226383686065674
vt 0.8293452858924866 0.05258619785308838
vt 0.8410847783088684 0.01558530330657959
vt 0.8501749634742737 0.040560007095336914
vt 0.8738616108894348 0.009805679321289062
vt 0.8738616108894348 0.03638356924057007
vt 0.9066383242607117 0.01558530330657959
vt 0.897548258304596 0.040560007095336914
vt 0.935461699962616 0.03222626447677612
vt 0.9183778166770935 0.05258619785308838
vt 0.9568548798561096 0.05772197246551514
vt 0.9338380694389343 0.07101094722747803
vt 0.9682384133338928 0.08899706602096558
vt 0.9420645833015442 0.09361231327056885
vt 0.9682384133338928 0.12227952480316162
vt 0.9420645833015442 0.11766445636749268
vt 0.9568552374839783 0.15355455875396729
vt 0.9338380694389343 0.14026588201522827
vt 0.935461699962616 0.17905056476593018
vt 0.9183778166770935 0.1586906909942627
vt 0.9066385626792908 0.19569164514541626
vt 0.897548258304596 0.17071670293807983
vt 0.6423062682151794 0.11038535833358765
vt 0.6752588748931885 0.11038535833358765
vt 0.6752588748931885 0.08374971151351929
vt 0.6423062682151794 0.08374971151351929
vt 0.7077643871307373 0.08374971151351929
vt 0.7077643871307373 0.11038559675216675
vt 0.6091307997703552 0.11038535833358765
vt 0.6091307997703552 0.08374971151351929
vt 0.5760999321937561 0.11038559675216675
vt 0.5760999321937561 0.08374971151351929
vt 0.5436298251152039 0.11038577556610107
vt 0.5760999321937561 0.11038577556610107
vt 0.5760999321937561 0.08374971151351929
vt 0.5436298251152039 0.08374971151351929
vt 0.6091307997703552 0.08374971151351929
vt 0.6091307997703552 0.11038577556610107
vt 0.6423062682151794 0.08374971151351929
vt 0.6423062682151794 0.11038577556610107
vt 0.6752588748931885 0.08374971151351929
vt 0.6752588748931885 0.11038577556610107
vt 0.7077643871307373 0.08374971151351929
vt 0.7077643871307373 0.11038577556610107
vt 0.5760999321937561 0.11038559675216675
vt 0.6091307997703552 0.11038535833358765
vt 0.6091307997703552 0.08374971151351929
vt 0.5760999321937561 0.08374971151351929
vt 0.6423062682151794 0.08374971151351929
vt 0.6423062682151794 0.11038535833358765
vt 0.6752588748931885 0.08374971151351929
vt 0.6752588748931885 0.11038535833358765
vt 0.7077643871307373 0.08374971151351929
vt 0.7077643871307373 0.11038559675216675
vt 0.5436298251152039 0.11038559675216675
vt 0.5760999321937561 0.11038535833358765
vt 0.5760999321937561 0.08374971151351929
vt 0.5436298251152039 0.08374971151351929
vt 0.6091307997703552 0.08374971151351929
vt 0.6091307997703552 0.11038535833358765
vt 0.6423062682151794 0.08374971151351929
vt 0.6423062682151794 0.11038535833358765
vt 0.6752588748931885 0.08374971151351929
vt 0.6752588748931885 0.11038535833358765
vt 0.7077643871307373 0.08374971151351929
vt 0.7077643871307373 0.11038559675216675
vt 0.8738616108894348 0.20147103071212769
vt 0.9066383242607117 0.19569164514541626
vt 0.897548258304596 0.17071670293807983
vt 0.8738616108894348 0.174893319606781
vt 0.9183778166770935 0.1586906909942627
vt 0.935461699962616 0.17905056476593018
vt 0.9338380694389343 0.14026588201522827
vt 0.9568548798561096 0.15355455875396729
vt 0.9420645833015442 0.11766445636749268
vt 0.9682384133338928 0.12227952480316162
vt 0.9420645833015442 0.09361231327056885
vt 0.9682384133338928 0.08899706602096558
vt 0.9338380694389343 0.07101094722747803
vt 0.9568548798561096 0.05772197246551514
vt 0.9183778166770935 0.05258619785308838
vt 0.935461699962616 0.03222626447677612
vt 0.897548258304596 0.040560007095336914
vt 0.9066383242607117 0.015585064888000488
vt 0.8738616108894348 0.03638356924057007
vt 0.8738616108894348 0.009805679321289062
vt 0.8501749634742737 0.040560007095336914
vt 0.8410847783088684 0.015585064888000488
vt 0.8293452858924866 0.05258619785308838
vt 0.8122616410255432 0.03222626447677612
vt 0.8138849139213562 0.07101094722747803
vt 0.7908681035041809 0.05772197246551514
vt 0.8056588768959045 0.09361231327056885
vt 0.7794849276542664 0.08899706602096558
vt 0.805658757686615 0.11766421794891357
vt 0.7794849276542664 0.12227952480316162
vt 0.8138849139213562 0.14026588201522827
vt 0.7908681035041809 0.15355455875396729
vt 0.8293452858924866 0.1586906909942627
vt 0.8122614026069641 0.1790502667427063
vt 0.8501749634742737 0.17071646451950073
vt 0.8410847783088684 0.19569164514541626
vt 0.6044856309890747 0.07660239934921265
vt 0.5750095248222351 0.011819183826446533
vt 0.6045289635658264 0.011827170848846436
vt 0.5750080943107605 0.07660365104675293
vt 0.5421339869499207 0.011833608150482178
vt 0.5421397686004639 0.07661855220794678
vt 0.632087230682373 0.07664346694946289
vt 0.632087230682373 0.011877059936523438
vt 0.6596455574035645 0.07669347524642944
vt 0.6596888899803162 0.011918365955352783
vt 0.689164936542511 0.0767013430595398
vt 0.689166247844696 0.01191699504852295
vt 0.722040593624115 0.0766867995262146
vt 0.7220345735549927 0.01190197467803955
vt 0.7281141877174377 0.08586388826370239
vt 0.7380505204200745 0.10307401418685913
vt 0.7380505204200745 0.09160059690475464
vt 0.7281141877174377 0.10881072282791138
vt 0.7181777954101562 0.10307401418685913
vt 0.7181777954101562 0.09160059690475464

g tire_b_left
s 1
usemtl tire_b_left
f 3/3/3 2/2/2 1/1/1 
f 1/1/1 4/4/4 3/3/3 
f 2/2/2 3/3/3 5/5/5 
f 5/5/5 6/6/6 2/2/2 
f 1/1/1 2/2/2 6/6/6 
f 6/6/6 5/5/5 7/7/7 
f 7/7/7 8/8/8 6/6/6 
f 8/8/8 7/7/7 9/9/9 
f 9/9/9 10/10/10 8/8/8 
f 6/6/6 8/8/8 10/10/10 
f 10/10/10 9/9/9 11/11/11 
f 11/11/11 12/12/12 10/10/10 
f 12/12/12 11/11/11 13/13/13 
f 13/13/13 14/14/14 12/12/12 
f 10/10/10 12/12/12 14/14/14 
f 6/6/6 10/10/10 14/14/14 
f 14/14/14 13/13/13 15/15/15 
f 15/15/15 16/16/16 14/14/14 
f 16/16/16 15/15/15 17/17/17 
f 17/17/17 18/18/18 16/16/16 
f 14/14/14 16/16/16 18/18/18 
f 18/18/18 17/17/17 19/19/19 
f 19/19/19 20/20/20 18/18/18 
f 20/20/20 19/19/19 21/21/21 
f 21/21/21 22/22/22 20/20/20 
f 18/18/18 20/20/20 22/22/22 
f 14/14/14 18/18/18 22/22/22 
f 22/22/22 21/21/21 23/23/23 
f 23/23/23 24/24/24 22/22/22 
f 24/24/24 23/23/23 25/25/25 
f 25/25/25 26/26/26 24/24/24 
f 22/22/22 24/24/24 26/26/26 
f 26/26/26 25/25/25 27/27/27 
f 27/27/27 28/28/28 26/26/26 
f 28/28/28 27/27/27 29/29/29 
f 29/29/29 30/30/30 28/28/28 
f 26/26/26 28/28/28 30/30/30 
f 22/22/22 26/26/26 30/30/30 
f 30/30/30 29/29/29 31/31/31 
f 31/31/31 32/32/32 30/30/30 
f 32/32/32 31/31/31 33/33/33 
f 33/33/33 34/34/34 32/32/32 
f 30/30/30 32/32/32 34/34/34 
f 34/34/34 33/33/33 35/35/35 
f 35/35/35 36/36/36 34/34/34 
f 36/36/36 35/35/35 4/4/4 
f 4/4/4 1/1/1 36/36/36 
f 1/1/1 30/30/30 34/34/34 
f 1/1/1 34/34/34 36/36/36 
f 1/1/1 6/6/6 30/30/30 
f 6/6/6 22/22/22 30/30/30 
f 6/6/6 14/14/14 22/22/22 
f 39/39/39 38/38/38 37/37/37 
f 37/37/37 40/40/40 39/39/39 
f 38/38/38 39/39/39 41/41/41 
f 41/41/41 42/42/42 38/38/38 
f 40/40/40 37/37/37 43/43/43 
f 43/43/43 44/44/44 40/40/40 
f 44/44/44 43/43/43 45/45/45 
f 45/45/45 46/46/46 44/44/44 
f 49/49/49 48/48/48 47/47/47 
f 47/47/47 50/50/50 49/49/49 
f 48/48/48 49/49/49 51/51/51 
f 51/51/51 52/52/52 48/48/48 
f 52/52/52 51/51/51 53/53/53 
f 53/53/53 54/54/54 52/52/52 
f 54/54/54 53/53/53 55/55/55 
f 55/55/55 56/56/56 54/54/54 
f 56/56/56 55/55/55 57/57/57 
f 57/57/57 58/58/58 56/56/56 
f 61/61/61 60/60/60 59/59/59 
f 59/59/59 62/62/62 61/61/61 
f 60/60/60 61/61/61 63/63/63 
f 63/63/63 64/64/64 60/60/60 
f 64/64/64 63/63/63 65/65/65 
f 65/65/65 66/66/66 64/64/64 
f 66/66/66 65/65/65 67/67/67 
f 67/67/67 68/68/68 66/66/66 
f 71/71/71 70/70/70 69/69/69 
f 69/69/69 72/72/72 71/71/71 
f 70/70/70 71/71/71 73/73/73 
f 73/73/73 74/74/74 70/70/70 
f 74/74/74 73/73/73 75/75/75 
f 75/75/75 76/76/76 74/74/74 
f 76/76/76 75/75/75 77/77/77 
f 77/77/77 78/78/78 76/76/76 
f 78/78/78 77/77/77 79/79/79 
f 79/79/79 80/80/80 78/78/78 
f 83/83/83 82/82/82 81/81/81 
f 81/81/81 84/84/84 83/83/83 
f 82/82/82 83/83/83 85/85/85 
f 85/85/85 86/86/86 82/82/82 
f 86/86/86 85/85/85 87/87/87 
f 87/87/87 85/85/85 83/83/83 
f 87/87/87 88/88/88 86/86/86 
f 88/88/88 87/87/87 89/89/89 
f 89/89/89 90/90/90 88/88/88 
f 90/90/90 89/89/89 91/91/91 
f 91/91/91 89/89/89 87/87/87 
f 91/91/91 92/92/92 90/90/90 
f 92/92/92 91/91/91 93/93/93 
f 93/93/93 94/94/94 92/92/92 
f 94/94/94 93/93/93 95/95/95 
f 95/95/95 93/93/93 91/91/91 
f 95/95/95 91/91/91 87/87/87 
f 95/95/95 96/96/96 94/94/94 
f 96/96/96 95/95/95 97/97/97 
f 97/97/97 98/98/98 96/96/96 
f 98/98/98 97/97/97 99/99/99 
f 99/99/99 97/97/97 95/95/95 
f 99/99/99 100/100/100 98/98/98 
f 100/100/100 99/99/99 101/101/101 
f 101/101/101 102/102/102 100/100/100 
f 102/102/102 101/101/101 103/103/103 
f 103/103/103 101/101/101 99/99/99 
f 103/103/103 99/99/99 95/95/95 
f 103/103/103 104/104/104 102/102/102 
f 104/104/104 103/103/103 105/105/105 
f 105/105/105 106/106/106 104/104/104 
f 106/106/106 105/105/105 107/107/107 
f 107/107/107 105/105/105 103/103/103 
f 107/107/107 108/108/108 106/106/106 
f 108/108/108 107/107/107 109/109/109 
f 109/109/109 110/110/110 108/108/108 
f 110/110/110 109/109/109 111/111/111 
f 111/111/111 109/109/109 107/107/107 
f 111/111/111 107/107/107 103/103/103 
f 111/111/111 112/112/112 110/110/110 
f 112/112/112 111/111/111 113/113/113 
f 113/113/113 114/114/114 112/112/112 
f 114/114/114 113/113/113 115/115/115 
f 115/115/115 113/113/113 111/111/111 
f 115/115/115 116/116/116 114/114/114 
f 116/116/116 115/115/115 84/84/84 
f 84/84/84 81/81/81 116/116/116 
f 111/111/111 103/103/103 95/95/95 
f 111/111/111 95/95/95 87/87/87 
f 115/115/115 111/111/111 87/87/87 
f 115/115/115 87/87/87 83/83/83 
f 115/115/115 83/83/83 84/84/84 
f 119/119/119 118/118/118 117/117/117 
f 120/120/120 117/117/117 118/118/118 
f 118/118/118 121/121/121 120/120/120 
f 122/122/122 120/120/120 121/121/121 
f 117/117/117 123/123/123 119/119/119 
f 124/124/124 119/119/119 123/123/123 
f 123/123/123 125/125/125 124/124/124 
f 126/126/126 124/124/124 125/125/125 
f 125/125/125 127/127/127 126/126/126 
f 128/128/128 126/126/126 127/127/127 
f 127/127/127 129/129/129 128/128/128 
f 130/130/130 128/128/128 129/129/129 
f 133/133/133 132/132/132 131/131/131 
f 134/134/134 131/131/131 132/132/132 
f 134/134/134 135/135/135 131/131/131 
f 136/136/136 131/131/131 135/135/135 

