v -0.166667178273201 0.949999988079071 0.24977540969848633
v 0.16666686534881592 0.0 0.24977540969848633
v -0.166667178273201 0.0 0.24977540969848633
v 0.16666686534881592 0.949999988079071 0.24977540969848633
v 0.16666686534881592 -0.949999988079071 0.24977540969848633
v -0.166667178273201 -0.949999988079071 0.24977540969848633
v 0.5 0.0 0.37477537989616394
v 0.16666686534881592 0.949999988079071 0.37477537989616394
v 0.5 0.949999988079071 0.37477537989616394
v 0.16666686534881592 0.0 0.37477537989616394
v 0.16666686534881592 -0.949999988079071 0.37477537989616394
v 0.5 -0.949999988079071 0.37477537989616394
v -0.166667178273201 0.0 0.12477540969848633
v -0.5 0.949999988079071 0.12477540969848633
v -0.166667178273201 0.949999988079071 0.12477540969848633
v -0.5 0.0 0.12477540969848633
v -0.5 -0.949999988079071 0.12477540969848633
v -0.166667178273201 -0.949999988079071 0.12477540969848633
v 0.16666686534881592 0.949999988079071 0.24977540969848633
v 0.16666686534881592 0.0 0.37477537989616394
v 0.16666686534881592 0.0 0.24977540969848633
v 0.16666686534881592 0.949999988079071 0.2997753918170929
v 0.16666686534881592 0.949999988079071 0.37477537989616394
v 0.16666686534881592 -0.949999988079071 0.2997753918170929
v 0.16666686534881592 -0.949999988079071 0.24977540969848633
v 0.16666686534881592 -0.949999988079071 0.37477537989616394
v -0.166667178273201 0.949999988079071 0.12477540969848633
v -0.166667178273201 0.0 0.24977540969848633
v -0.166667178273201 0.0 0.12477540969848633
v -0.166667178273201 0.949999988079071 0.1747754067182541
v -0.166667178273201 0.949999988079071 0.24977540969848633
v -0.166667178273201 -0.949999988079071 0.1747754067182541
v -0.166667178273201 -0.949999988079071 0.12477540969848633
v -0.166667178273201 -0.949999988079071 0.24977540969848633
v -0.5 1.0 0.1747754067182541
v -0.166667178273201 0.949999988079071 0.1747754067182541
v -0.5 0.949999988079071 0.1747754067182541
v -0.166667178273201 1.0 0.1747754067182541
v 0.16666686534881592 1.0 0.2997753918170929
v -0.166667178273201 0.949999988079071 0.2997753918170929
v -0.166667178273201 1.0 0.2997753918170929
v 0.16666686534881592 0.949999988079071 0.2997753918170929
v 0.16666686534881592 0.949999988079071 0.4247753918170929
v 0.5 1.0 0.4247753918170929
v 0.5 0.949999988079071 0.4247753918170929
v 0.16666686534881592 1.0 0.4247753918170929
v -0.166667178273201 0.949999988079071 0.12477540969848633
v -0.5 0.949999988079071 0.1747754067182541
v -0.166667178273201 0.949999988079071 0.1747754067182541
v -0.5 0.949999988079071 0.12477540969848633
v 0.5 1.0 -0.00022459030151367188
v -0.5 1.0 0.1747754067182541
v -0.5 1.0 -0.00022459030151367188
v -0.166667178273201 1.0 0.1747754067182541
v 0.16666686534881592 1.0 0.2997753918170929
v -0.166667178273201 1.0 0.2997753918170929
v 0.16666686534881592 1.0 0.4247753918170929
v 0.5 1.0 0.4247753918170929
v -0.5 1.0 -0.00022459030151367188
v -0.5 0.949999988079071 0.1747754067182541
v -0.5 0.949999988079071 0.12477540969848633
v -0.5 1.0 0.1747754067182541
v -0.5 0.949999988079071 -0.00022459030151367188
v -0.166667178273201 0.949999988079071 0.2997753918170929
v 0.16666686534881592 0.949999988079071 0.24977540969848633
v -0.166667178273201 0.949999988079071 0.24977540969848633
v 0.16666686534881592 0.949999988079071 0.2997753918170929
v -0.166667178273201 0.949999988079071 0.2997753918170929
v -0.166667178273201 1.0 0.1747754067182541
v -0.166667178273201 1.0 0.2997753918170929
v -0.166667178273201 0.949999988079071 0.24977540969848633
v -0.166667178273201 0.949999988079071 0.1747754067182541
v 0.16666686534881592 0.949999988079071 0.37477537989616394
v 0.5 0.949999988079071 0.4247753918170929
v 0.5 0.949999988079071 0.37477537989616394
v 0.16666686534881592 0.949999988079071 0.4247753918170929
v 0.16666686534881592 1.0 0.2997753918170929
v 0.16666686534881592 0.949999988079071 0.4247753918170929
v 0.16666686534881592 0.949999988079071 0.37477537989616394
v 0.16666686534881592 1.0 0.4247753918170929
v 0.16666686534881592 0.949999988079071 0.2997753918170929
v -0.5 0.949999988079071 0.12477540969848633
v -0.5 0.0 -0.00022459030151367188
v -0.5 0.949999988079071 -0.00022459030151367188
v -0.5 0.0 0.12477540969848633
v -0.5 -0.949999988079071 -0.00022459030151367188
v -0.5 -0.949999988079071 0.12477540969848633
v -0.5 -1.0 0.1747754067182541
v -0.166667178273201 -0.949999988079071 0.1747754067182541
v -0.166667178273201 -1.0 0.1747754067182541
v -0.5 -0.949999988079071 0.1747754067182541
v -0.166667178273201 -0.949999988079071 0.2997753918170929
v 0.16666686534881592 -1.0 0.2997753918170929
v -0.166667178273201 -1.0 0.2997753918170929
v 0.16666686534881592 -0.949999988079071 0.2997753918170929
v 0.5 -1.0 0.4247753918170929
v 0.16666686534881592 -0.949999988079071 0.4247753918170929
v 0.5 -0.949999988079071 0.4247753918170929
v 0.16666686534881592 -1.0 0.4247753918170929
v -0.5 -0.949999988079071 0.1747754067182541
v -0.166667178273201 -0.949999988079071 0.12477540969848633
v -0.166667178273201 -0.949999988079071 0.1747754067182541
v -0.5 -0.949999988079071 0.12477540969848633
v -0.5 -1.0 0.1747754067182541
v 0.5 -1.0 -0.00022459030151367188
v -0.5 -1.0 -0.00022459030151367188
v -0.166667178273201 -1.0 0.1747754067182541
v 0.16666686534881592 -1.0 0.2997753918170929
v -0.166667178273201 -1.0 0.2997753918170929
v 0.16666686534881592 -1.0 0.4247753918170929
v 0.5 -1.0 0.4247753918170929
v -0.5 -0.949999988079071 0.12477540969848633
v -0.5 -1.0 0.1747754067182541
v -0.5 -1.0 -0.00022459030151367188
v -0.5 -0.949999988079071 0.1747754067182541
v -0.5 -0.949999988079071 -0.00022459030151367188
v 0.16666686534881592 -0.949999988079071 0.2997753918170929
v -0.166667178273201 -0.949999988079071 0.24977540969848633
v 0.16666686534881592 -0.949999988079071 0.24977540969848633
v -0.166667178273201 -0.949999988079071 0.2997753918170929
v -0.166667178273201 -0.949999988079071 0.2997753918170929
v -0.166667178273201 -1.0 0.1747754067182541
v -0.166667178273201 -0.949999988079071 0.24977540969848633
v -0.166667178273201 -1.0 0.2997753918170929
v -0.166667178273201 -0.949999988079071 0.1747754067182541
v 0.16666686534881592 -0.949999988079071 0.37477537989616394
v 0.5 -0.949999988079071 0.4247753918170929
v 0.16666686534881592 -0.949999988079071 0.4247753918170929
v 0.5 -0.949999988079071 0.37477537989616394
v 0.16666686534881592 -1.0 0.4247753918170929
v 0.16666686534881592 -0.949999988079071 0.37477537989616394
v 0.16666686534881592 -0.949999988079071 0.4247753918170929
v 0.16666686534881592 -1.0 0.2997753918170929
v 0.16666686534881592 -0.949999988079071 0.2997753918170929
vn -0.0 0.0 1.0
vn -0.0 0.0 1.0
vn -0.0 0.0 1.0
vn -0.0 0.0 1.0
vn -0.0 0.0 1.0
vn -0.0 0.0 1.0
vn -0.0 0.0 1.0
vn -0.0 0.0 1.0
vn -0.0 0.0 1.0
vn -0.0 0.0 1.0
vn -0.0 0.0 1.0
vn -0.0 0.0 1.0
vn -0.0 0.0 1.0
vn -0.0 0.0 1.0
vn -0.0 0.0 1.0
vn -0.0 0.0 1.0
vn -0.0 0.0 1.0
vn -0.0 0.0 1.0
vn -1.0 0.0 0.0
vn -1.0 0.0 0.0
vn -1.0 0.0 0.0
vn -1.0 0.0 0.0
vn -1.0 0.0 0.0
vn -1.0 0.0 0.0
vn -1.0 0.0 0.0
vn -1.0 0.0 0.0
vn -1.0 0.0 0.0
vn -1.0 0.0 0.0
vn -1.0 0.0 0.0
vn -1.0 0.0 0.0
vn -1.0 0.0 0.0
vn -1.0 0.0 0.0
vn -1.0 0.0 0.0
vn -1.0 0.0 0.0
vn -0.0 0.0 1.0
vn -0.0 0.0 1.0
vn -0.0 0.0 1.0
vn -0.0 0.0 1.0
vn -0.0 0.0 1.0
vn -0.0 0.0 1.0
vn -0.0 0.0 1.0
vn -0.0 0.0 1.0
vn -0.0 0.0 1.0
vn -0.0 0.0 1.0
vn -0.0 0.0 1.0
vn -0.0 0.0 1.0
vn -0.0 -1.0 0.0
vn -0.0 -1.0 0.0
vn -0.0 -1.0 0.0
vn -0.0 -1.0 0.0
vn -0.0 1.0 0.0
vn -0.0 1.0 0.0
vn -0.0 1.0 0.0
vn -0.0 1.0 0.0
vn -0.0 1.0 0.0
vn -0.0 1.0 0.0
vn -0.0 1.0 0.0
vn -0.0 1.0 0.0
vn -1.0 0.0 0.0
vn -1.0 0.0 0.0
vn -1.0 0.0 0.0
vn -1.0 0.0 0.0
vn -1.0 0.0 0.0
vn -0.0 -1.0 0.0
vn -0.0 -1.0 0.0
vn -0.0 -1.0 0.0
vn -0.0 -1.0 0.0
vn -1.0 0.0 0.0
vn -1.0 0.0 0.0
vn -1.0 0.0 0.0
vn -1.0 0.0 0.0
vn -1.0 0.0 0.0
vn -0.0 -1.0 0.0
vn -0.0 -1.0 0.0
vn -0.0 -1.0 0.0
vn -0.0 -1.0 0.0
vn -1.0 0.0 0.0
vn -1.0 0.0 0.0
vn -1.0 0.0 0.0
vn -1.0 0.0 0.0
vn -1.0 0.0 0.0
vn -1.0 0.0 0.0
vn -1.0 0.0 0.0
vn -1.0 0.0 0.0
vn -1.0 0.0 0.0
vn -1.0 0.0 0.0
vn -1.0 0.0 0.0
vn -0.0 0.0 1.0
vn -0.0 0.0 1.0
vn -0.0 0.0 1.0
vn -0.0 0.0 1.0
vn -0.0 0.0 1.0
vn -0.0 0.0 1.0
vn -0.0 0.0 1.0
vn -0.0 0.0 1.0
vn -0.0 0.0 1.0
vn -0.0 0.0 1.0
vn -0.0 0.0 1.0
vn -0.0 0.0 1.0
vn -0.0 1.0 0.0
vn -0.0 1.0 0.0
vn -0.0 1.0 0.0
vn -0.0 1.0 0.0
vn -0.0 -1.0 0.0
vn -0.0 -1.0 0.0
vn -0.0 -1.0 0.0
vn -0.0 -1.0 0.0
vn -0.0 -1.0 0.0
vn -0.0 -1.0 0.0
vn -0.0 -1.0 0.0
vn -0.0 -1.0 0.0
vn -1.0 0.0 0.0
vn -1.0 0.0 0.0
vn -1.0 0.0 0.0
vn -1.0 0.0 0.0
vn -1.0 0.0 0.0
vn -0.0 1.0 0.0
vn -0.0 1.0 0.0
vn -0.0 1.0 0.0
vn -0.0 1.0 0.0
vn -1.0 0.0 0.0
vn -1.0 0.0 0.0
vn -1.0 0.0 0.0
vn -1.0 0.0 0.0
vn -1.0 0.0 0.0
vn -0.0 1.0 0.0
vn -0.0 1.0 0.0
vn -0.0 1.0 0.0
vn -0.0 1.0 0.0
vn -1.0 0.0 0.0
vn -1.0 0.0 0.0
vn -1.0 0.0 0.0
vn -1.0 0.0 0.0
vn -1.0 0.0 0.0
vt 0.008275654166936874 0.3949994444847107
vt 0.5029426217079163 0.2310122847557068
vt 0.5029426217079163 0.3949994444847107
vt 0.008275654166936874 0.2310122847557068
vt 0.998399019241333 0.2310122847557068
vt 0.998399019241333 0.3949994444847107
vt 0.5029426217079163 0.007760882377624512
vt 0.008275654166936874 0.17174804210662842
vt 0.008275654166936874 0.007760882377624512
vt 0.5029426217079163 0.17174804210662842
vt 0.998399019241333 0.17174804210662842
vt 0.998399019241333 0.007760882377624512
vt 0.5029426217079163 0.454755961894989
vt 0.008275654166936874 0.6187431514263153
vt 0.008275654166936874 0.454755961894989
vt 0.5029426217079163 0.6187431514263153
vt 0.998399019241333 0.6187431514263153
vt 0.998399019241333 0.454755961894989
vt 0.008301008492708206 0.23319536447525024
vt 0.5029426217079163 0.17174804210662842
vt 0.5029426217079163 0.23319536447525024
vt 0.008301008492708206 0.20862597227096558
vt 0.008275654166936874 0.17174804210662842
vt 0.9983737468719482 0.20862597227096558
vt 0.9983737468719482 0.23319536447525024
vt 0.998399019241333 0.17174804210662842
vt 0.008301008492708206 0.4564467668533325
vt 0.5029426217079163 0.3949994444847107
vt 0.5029426217079163 0.4564467668533325
vt 0.008301008492708206 0.4318774342536926
vt 0.008275654166936874 0.3949994444847107
vt 0.9983737468719482 0.4318774342536926
vt 0.9983737468719482 0.4564467668533325
vt 0.998399019241333 0.3949994444847107
vt 0.017498821020126343 0.7490529417991638
vt 0.3247234523296356 0.7869305163621902
vt 0.017498821020126343 0.7869305163621902
vt 0.3247234523296356 0.7490529417991638
vt 0.3247234523296356 0.7490529417991638
vt 0.017498821020126343 0.7869305163621902
vt 0.017498821020126343 0.7490529417991638
vt 0.3247234523296356 0.7869305163621902
vt 0.017498821020126343 0.7869305163621902
vt 0.3247234523296356 0.7490529417991638
vt 0.3247234523296356 0.7869305163621902
vt 0.017498821020126343 0.7490529417991638
vt 0.017498821020126343 0.8258118778467178
vt 0.3247234523296356 0.7869305163621902
vt 0.017498821020126343 0.7869305163621902
vt 0.3247234523296356 0.8258118778467178
vt 0.9950000047683716 0.9955999893136322
vt 0.14448919892311096 0.8667869716882706
vt 0.14448919892311096 0.9955999893136322
vt 0.4279927611351013 0.8667869716882706
vt 0.7114963531494141 0.7817763090133667
vt 0.4279927611351013 0.7817763090133667
vt 0.7114963531494141 0.694986879825592
vt 0.9950000047683716 0.694986879825592
vt 0.39694565534591675 0.8480615764856339
vt 0.35251539945602417 0.7282000482082367
vt 0.35251539945602417 0.7482997179031372
vt 0.39694565534591675 0.7282000482082367
vt 0.35251539945602417 0.8480615764856339
vt 0.017498821020126343 0.7869305163621902
vt 0.3247234523296356 0.8258118778467178
vt 0.017498821020126343 0.8258118778467178
vt 0.3247234523296356 0.7869305163621902
vt 0.3516659736633301 0.728074312210083
vt 0.39946597814559937 0.8475742787122726
vt 0.39946597814559937 0.728074312210083
vt 0.3516659736633301 0.7758743017911911
vt 0.3516659736633301 0.8475742787122726
vt 0.3247234523296356 0.8258118778467178
vt 0.017498821020126343 0.7869305163621902
vt 0.017498821020126343 0.8258118778467178
vt 0.3247234523296356 0.7869305163621902
vt 0.39809155464172363 0.8472492843866348
vt 0.35029155015945435 0.7277493178844452
vt 0.35029155015945435 0.7755493074655533
vt 0.39809155464172363 0.7277493178844452
vt 0.35029155015945435 0.8472492843866348
vt 0.008275654166936874 0.6187431514263153
vt 0.5029426217079163 0.6801904737949371
vt 0.008301008492708206 0.6801904737949371
vt 0.5029426217079163 0.6187431514263153
vt 0.9983737468719482 0.6801904737949371
vt 0.998399019241333 0.6187431514263153
vt 0.017498821020126343 0.7490529417991638
vt 0.3247234523296356 0.7869305163621902
vt 0.3247234523296356 0.7490529417991638
vt 0.017498821020126343 0.7869305163621902
vt 0.017498821020126343 0.7869305163621902
vt 0.3247234523296356 0.7490529417991638
vt 0.017498821020126343 0.7490529417991638
vt 0.3247234523296356 0.7869305163621902
vt 0.3247234523296356 0.7490529417991638
vt 0.017498821020126343 0.7869305163621902
vt 0.3247234523296356 0.7869305163621902
vt 0.017498821020126343 0.7490529417991638
vt 0.3247234523296356 0.7869305163621902
vt 0.017498821020126343 0.8258118778467178
vt 0.017498821020126343 0.7869305163621902
vt 0.3247234523296356 0.8258118778467178
vt 0.14448919892311096 0.8667869716882706
vt 0.9950000047683716 0.9955999893136322
vt 0.14448919892311096 0.9955999893136322
vt 0.4279927611351013 0.8667869716882706
vt 0.7114963531494141 0.7817763090133667
vt 0.4279927611351013 0.7817763090133667
vt 0.7114963531494141 0.694986879825592
vt 0.9950000047683716 0.694986879825592
vt 0.35251539945602417 0.7482997179031372
vt 0.39694565534591675 0.7282000482082367
vt 0.39694565534591675 0.8480615764856339
vt 0.35251539945602417 0.7282000482082367
vt 0.35251539945602417 0.8480615764856339
vt 0.3247234523296356 0.7869305163621902
vt 0.017498821020126343 0.8258118778467178
vt 0.3247234523296356 0.8258118778467178
vt 0.017498821020126343 0.7869305163621902
vt 0.3516659736633301 0.728074312210083
vt 0.39946597814559937 0.8475742787122726
vt 0.3516659736633301 0.7758743017911911
vt 0.39946597814559937 0.728074312210083
vt 0.3516659736633301 0.8475742787122726
vt 0.3247234523296356 0.8258118778467178
vt 0.017498821020126343 0.7869305163621902
vt 0.3247234523296356 0.7869305163621902
vt 0.017498821020126343 0.8258118778467178
vt 0.39809155464172363 0.7277493178844452
vt 0.35029155015945435 0.7755493074655533
vt 0.35029155015945435 0.7277493178844452
vt 0.39809155464172363 0.8472492843866348
vt 0.35029155015945435 0.8472492843866348

g bg_mdl_map_kaidan00
s 1
usemtl bg_mdl_map_kaidan00
f 3/3/3 2/2/2 1/1/1 
f 4/4/4 1/1/1 2/2/2 
f 2/2/2 3/3/3 5/5/5 
f 6/6/6 5/5/5 3/3/3 
f 9/9/9 8/8/8 7/7/7 
f 10/10/10 7/7/7 8/8/8 
f 10/10/10 11/11/11 7/7/7 
f 12/12/12 7/7/7 11/11/11 
f 15/15/15 14/14/14 13/13/13 
f 16/16/16 13/13/13 14/14/14 
f 16/16/16 17/17/17 13/13/13 
f 18/18/18 13/13/13 17/17/17 
f 21/21/21 20/20/20 19/19/19 
f 22/22/22 19/19/19 20/20/20 
f 23/23/23 22/22/22 20/20/20 
f 20/20/20 21/21/21 24/24/24 
f 25/25/25 24/24/24 21/21/21 
f 24/24/24 26/26/26 20/20/20 
f 29/29/29 28/28/28 27/27/27 
f 30/30/30 27/27/27 28/28/28 
f 31/31/31 30/30/30 28/28/28 
f 28/28/28 29/29/29 32/32/32 
f 33/33/33 32/32/32 29/29/29 
f 32/32/32 34/34/34 28/28/28 
f 37/37/37 36/36/36 35/35/35 
f 38/38/38 35/35/35 36/36/36 
f 41/41/41 40/40/40 39/39/39 
f 42/42/42 39/39/39 40/40/40 
f 45/45/45 44/44/44 43/43/43 
f 46/46/46 43/43/43 44/44/44 
f 49/49/49 48/48/48 47/47/47 
f 50/50/50 47/47/47 48/48/48 
f 53/53/53 52/52/52 51/51/51 
f 54/54/54 51/51/51 52/52/52 
f 51/51/51 54/54/54 55/55/55 
f 56/56/56 55/55/55 54/54/54 
f 55/55/55 57/57/57 51/51/51 
f 58/58/58 51/51/51 57/57/57 
f 61/61/61 60/60/60 59/59/59 
f 62/62/62 59/59/59 60/60/60 
f 59/59/59 63/63/63 61/61/61 
f 66/66/66 65/65/65 64/64/64 
f 67/67/67 64/64/64 65/65/65 
f 70/70/70 69/69/69 68/68/68 
f 71/71/71 68/68/68 69/69/69 
f 69/69/69 72/72/72 71/71/71 
f 75/75/75 74/74/74 73/73/73 
f 76/76/76 73/73/73 74/74/74 
f 79/79/79 78/78/78 77/77/77 
f 80/80/80 77/77/77 78/78/78 
f 77/77/77 81/81/81 79/79/79 
f 84/84/84 83/83/83 82/82/82 
f 85/85/85 82/82/82 83/83/83 
f 83/83/83 86/86/86 85/85/85 
f 87/87/87 85/85/85 86/86/86 
f 90/90/90 89/89/89 88/88/88 
f 91/91/91 88/88/88 89/89/89 
f 94/94/94 93/93/93 92/92/92 
f 95/95/95 92/92/92 93/93/93 
f 98/98/98 97/97/97 96/96/96 
f 99/99/99 96/96/96 97/97/97 
f 102/102/102 101/101/101 100/100/100 
f 103/103/103 100/100/100 101/101/101 
f 106/106/106 105/105/105 104/104/104 
f 107/107/107 104/104/104 105/105/105 
f 105/105/105 108/108/108 107/107/107 
f 109/109/109 107/107/107 108/108/108 
f 108/108/108 105/105/105 110/110/110 
f 111/111/111 110/110/110 105/105/105 
f 114/114/114 113/113/113 112/112/112 
f 115/115/115 112/112/112 113/113/113 
f 116/116/116 114/114/114 112/112/112 
f 119/119/119 118/118/118 117/117/117 
f 120/120/120 117/117/117 118/118/118 
f 123/123/123 122/122/122 121/121/121 
f 124/124/124 121/121/121 122/122/122 
f 125/125/125 122/122/122 123/123/123 
f 128/128/128 127/127/127 126/126/126 
f 129/129/129 126/126/126 127/127/127 
f 132/132/132 131/131/131 130/130/130 
f 133/133/133 130/130/130 131/131/131 
f 134/134/134 133/133/133 131/131/131 

