v 0.060278091579675674 -0.06935524195432663 0.03037073276937008
v 0.04300632327795029 -0.07647436112165451 0.025893349200487137
v 0.044373802840709686 -0.07972218096256256 0.05490480735898018
v 0.06346320360898972 -0.07146058231592178 0.05490488559007645
v 0.06438209116458893 -0.07709666341543198 0.07136408239603043
v 0.04366513714194298 -0.09140335768461227 0.08803682774305344
v 0.05859369784593582 -0.07363826781511307 0.01723741926252842
v 0.03007991798222065 -0.08686480671167374 0.01763155870139599
v 0.020704779773950577 -0.08330786228179932 0.03384310379624367
v 0.02021026238799095 -0.0865144208073616 0.05490481108427048
v 0.06970147788524628 -0.06198718398809433 0.033688984811306
v 0.0668896958231926 -0.05937434360384941 0.01888803392648697
v 0.07448314875364304 -0.03973530977964401 0.03789002448320389
v 0.07311197370290756 -0.06383689492940903 0.05490480363368988
v 0.07516201585531235 -0.0697050616145134 0.08799676597118378
v 0.08045308291912079 -0.047907255589962006 0.10055451840162277
v 0.07427908480167389 -0.06372027099132538 0.11476800590753555
v 0.0636037215590477 -0.08121143281459808 0.10514979064464569
v 0.06456004083156586 -0.08044444024562836 0.08811579644680023
v 0.037291236221790314 -0.09434108436107635 0.1053069531917572
v 0.05967317894101143 -0.0777493566274643 0.13153208792209625
v 0.03448577970266342 -0.09173180162906647 0.13155238330364227
v 8.071464918657512e-08 -0.10267242789268494 0.10512454062700272
v 9.18051128451225e-08 -0.09859853237867355 0.13154016435146332
v 9.440774562108345e-08 -0.09527722001075745 0.054904889315366745
v 0.021281074732542038 -0.09422241896390915 0.07464282214641571
v 9.369629339062158e-08 -0.10292736440896988 0.08788950741291046
v 9.25612368973816e-08 -0.09297585487365723 0.03707407787442207
v 0.00948873907327652 -0.09290529042482376 0.02329867333173752
v 8.821616148679823e-08 -0.0960649624466896 0.02668795734643936
v -0.060277920216321945 -0.06935525685548782 0.03037073276937008
v -0.06346302479505539 -0.07146060466766357 0.05490488559007645
v -0.04437362030148506 -0.07972219586372375 0.05490480735898018
v -0.04300615191459656 -0.0764743760228157 0.025893349200487137
v -0.0643819198012352 -0.07709667831659317 0.07136408239603043
v -0.04366495460271835 -0.09140338003635406 0.08803682774305344
v -0.058593522757291794 -0.07363828271627426 0.01723741926252842
v -0.030079735442996025 -0.08686480671167374 0.01763155870139599
v -0.020704597234725952 -0.08330786228179932 0.03384310379624367
v -0.020210081711411476 -0.0865144208073616 0.05490481108427048
v -0.06970129162073135 -0.061987198889255524 0.033688984811306
v -0.06688952445983887 -0.0593743659555912 0.01888803392648697
v -0.07448284327983856 -0.039735306054353714 0.03789002448320389
v -0.07311180233955383 -0.06383690983057022 0.05490480363368988
v -0.07516184449195862 -0.06970507651567459 0.08799676597118378
v -0.08045290410518646 -0.0479072742164135 0.10055451840162277
v -0.07427891343832016 -0.06372029334306717 0.11476800590753555
v -0.06360354274511337 -0.08121144771575928 0.10514979064464569
v -0.06455986946821213 -0.08044445514678955 0.08811579644680023
v -0.03729104995727539 -0.09434110671281815 0.1053069531917572
v -0.059672996401786804 -0.07774937897920609 0.13153208792209625
v -0.034485600888729095 -0.09173182398080826 0.13155238330364227
v 8.071464918657512e-08 -0.10267242789268494 0.10512454062700272
v 9.18051128451225e-08 -0.09859853237867355 0.13154016435146332
v 9.440774562108345e-08 -0.09527722001075745 0.054904889315366745
v 9.25612368973816e-08 -0.09297585487365723 0.03707407787442207
v -0.009488554671406746 -0.09290529042482376 0.02329867333173752
v 8.821616148679823e-08 -0.0960649624466896 0.02668795734643936
v 9.369629339062158e-08 -0.10292736440896988 0.08788950741291046
v -0.021280894055962563 -0.09422244131565094 0.07464282214641571
vn 0.4964292049407959 -0.867110013961792 0.04096747934818268
vn 0.3694731593132019 -0.9110744595527649 0.18284672498703003
vn 0.33045098185539246 -0.9163529276847839 -0.22605200111865997
vn 0.505782425403595 -0.8338075876235962 -0.22124435007572174
vn 0.5512358546257019 -0.8014546632766724 -0.23196867108345032
vn 0.36341866850852966 -0.9199811220169067 -0.14683827757835388
vn 0.5310120582580566 -0.8303548097610474 0.1689290702342987
vn 0.3826582133769989 -0.8291287422180176 0.40757620334625244
vn 0.3645241856575012 -0.9245238304138184 0.11125559359788895
vn 0.32258176803588867 -0.9142225384712219 -0.2452305406332016
vn 0.8696207404136658 -0.46385684609413147 -0.1691047102212906
vn 0.9030895233154297 -0.3594403564929962 -0.23501494526863098
vn 0.9744760990142822 -0.15817098319530487 -0.1593053787946701
vn 0.8679602146148682 -0.4670639932155609 -0.16880837082862854
vn 0.8771926164627075 -0.47886064648628235 -0.03500676527619362
vn 0.9736425280570984 -0.2280784249305725 -0.0006034167599864304
vn 0.8589702248573303 -0.48916876316070557 0.15127462148666382
vn 0.6325721144676208 -0.7669751644134521 0.10771095007658005
vn 0.5917702317237854 -0.8017858862876892 -0.0833507850766182
vn 0.336520791053772 -0.9399443864822388 0.05708121508359909
vn 0.5869676470756531 -0.7903543710708618 0.17552480101585388
vn 0.3316269516944885 -0.9320223927497864 0.14614342153072357
vn 1.1779665243238924e-07 -0.9970491528511047 0.07676567137241364
vn 3.320225800962362e-07 -0.9883157014846802 0.15242093801498413
vn 2.262921441342769e-07 -0.9746043682098389 -0.22393350303173065
vn 0.277385950088501 -0.9203310608863831 -0.27576756477355957
vn 3.007164650625782e-07 -0.9932441115379333 -0.11604437232017517
vn -0.0 -0.9968000650405884 0.07993428409099579
vn 0.40413591265678406 -0.8564538955688477 0.32118648290634155
vn -3.2425640483779716e-07 -0.9585024118423462 0.28508448600769043
vn -0.4964294731616974 -0.8671098351478577 0.040967050939798355
vn -0.5057821273803711 -0.8338077664375305 -0.22124436497688293
vn -0.3304506838321686 -0.9163530468940735 -0.22605212032794952
vn -0.369472861289978 -0.911074697971344 0.18284642696380615
vn -0.5512357354164124 -0.8014546632766724 -0.2319687455892563
vn -0.3634185194969177 -0.9199812412261963 -0.14683817327022552
vn -0.5310120582580566 -0.8303548693656921 0.16892865300178528
vn -0.38265785574913025 -0.8291289806365967 0.40757590532302856
vn -0.36452391743659973 -0.9245239496231079 0.11125553399324417
vn -0.32258132100105286 -0.9142226576805115 -0.24523098766803741
vn -0.8696222305297852 -0.4638543128967285 -0.1691046953201294
vn -0.9030902981758118 -0.35943877696990967 -0.23501412570476532
vn -0.9744768738746643 -0.15816611051559448 -0.15930573642253876
vn -0.8679609894752502 -0.4670622944831848 -0.16880904138088226
vn -0.8771926164627075 -0.4788607358932495 -0.03500670567154884
vn -0.9736427664756775 -0.22807759046554565 -0.0006037351558916271
vn -0.8589701652526855 -0.4891689419746399 0.151274636387825
vn -0.6325718760490417 -0.7669752836227417 0.10771103948354721
vn -0.5917701721191406 -0.8017858862876892 -0.08335062861442566
vn -0.3365205228328705 -0.9399445056915283 0.05708116292953491
vn -0.5869675278663635 -0.7903544306755066 0.1755247414112091
vn -0.3316267728805542 -0.9320223927497864 0.14614342153072357
vn 1.1779665243238924e-07 -0.9970491528511047 0.07676567137241364
vn 3.320225800962362e-07 -0.9883157014846802 0.15242093801498413
vn 2.262921441342769e-07 -0.9746043682098389 -0.22393350303173065
vn -0.0 -0.9968000650405884 0.07993428409099579
vn -0.4041360020637512 -0.8564540147781372 0.32118645310401917
vn -3.2425640483779716e-07 -0.9585024118423462 0.28508448600769043
vn 3.007164650625782e-07 -0.9932441115379333 -0.11604437232017517
vn -0.27738553285598755 -0.9203311800956726 -0.2757675349712372
vt 0.17007000744342804 0.24594998359680176
vt 0.11977999657392502 0.25484997034072876
vt 0.12258999794721603 0.17873001098632812
vt 0.1715400069952011 0.18119001388549805
vt 0.17213000357151031 0.13631999492645264
vt 0.11743000149726868 0.08841001987457275
vt 0.1575399935245514 0.28473997116088867
vt 0.08184000104665756 0.2754499912261963
vt 0.06384000182151794 0.23280000686645508
vt 0.06168999895453453 0.17712998390197754
vt 0.20159000158309937 0.24817001819610596
vt 0.19718000292778015 0.298799991607666
vt 0.24312999844551086 0.27667999267578125
vt 0.20749999582767487 0.18803000450134277
vt 0.21151000261306763 0.09165000915527344
vt 0.24312999844551086 0.09152001142501831
vt 0.22845999896526337 0.0473099946975708
vt 0.17263999581336975 0.05140000581741333
vt 0.17344999313354492 0.09061998128890991
vt 0.10176999866962433 0.04951000213623047
vt 0.1745000034570694 0.011619985103607178
vt 0.10102999955415726 0.011520028114318848
vt 0.008070000447332859 0.047959983348846436
vt 0.008070000447332859 0.009429991245269775
vt 0.008070000447332859 0.1743599772453308
vt 0.06204000115394592 0.12294000387191772
vt 0.008070000447332859 0.08621001243591309
vt 0.008070000447332859 0.22136002779006958
vt 0.031060000881552696 0.25824999809265137
vt 0.008070000447332859 0.24804002046585083
vt 0.17007000744342804 0.24594998359680176
vt 0.1715400069952011 0.18119001388549805
vt 0.12258999794721603 0.17873001098632812
vt 0.11977999657392502 0.25484997034072876
vt 0.17213000357151031 0.13631999492645264
vt 0.11743000149726868 0.08841001987457275
vt 0.1575399935245514 0.28473997116088867
vt 0.08184000104665756 0.2754499912261963
vt 0.06384000182151794 0.23280000686645508
vt 0.06168999895453453 0.17712998390197754
vt 0.20159000158309937 0.24817001819610596
vt 0.19718000292778015 0.298799991607666
vt 0.24312999844551086 0.27667999267578125
vt 0.20749999582767487 0.18803000450134277
vt 0.21151000261306763 0.09165000915527344
vt 0.24312999844551086 0.09152001142501831
vt 0.22845999896526337 0.0473099946975708
vt 0.17263999581336975 0.05140000581741333
vt 0.17344999313354492 0.09061998128890991
vt 0.10176999866962433 0.04951000213623047
vt 0.1745000034570694 0.011619985103607178
vt 0.10102999955415726 0.011520028114318848
vt 0.008070000447332859 0.047959983348846436
vt 0.008070000447332859 0.009429991245269775
vt 0.008070000447332859 0.1743599772453308
vt 0.008070000447332859 0.22136002779006958
vt 0.031060000881552696 0.25824999809265137
vt 0.008070000447332859 0.24804002046585083
vt 0.008070000447332859 0.08621001243591309
vt 0.06204000115394592 0.12294000387191772

g eff_mdl_fion_skill180_face
s 1
usemtl eff_mdl_fion_skill180_face
f 3/3/3 2/2/2 1/1/1 
f 4/4/4 3/3/3 1/1/1 
f 3/3/3 4/4/4 5/5/5 
f 6/6/6 3/3/3 5/5/5 
f 1/1/1 2/2/2 7/7/7 
f 7/7/7 2/2/2 8/8/8 
f 2/2/2 3/3/3 9/9/9 
f 8/8/8 2/2/2 9/9/9 
f 3/3/3 10/10/10 9/9/9 
f 11/11/11 1/1/1 7/7/7 
f 11/11/11 7/7/7 12/12/12 
f 11/11/11 12/12/12 13/13/13 
f 11/11/11 13/13/13 14/14/14 
f 14/14/14 1/1/1 11/11/11 
f 14/14/14 5/5/5 4/4/4 
f 1/1/1 14/14/14 4/4/4 
f 15/15/15 5/5/5 14/14/14 
f 15/15/15 14/14/14 16/16/16 
f 16/16/16 14/14/14 13/13/13 
f 16/16/16 17/17/17 15/15/15 
f 15/15/15 17/17/17 18/18/18 
f 15/15/15 18/18/18 19/19/19 
f 19/19/19 18/18/18 6/6/6 
f 19/19/19 6/6/6 5/5/5 
f 19/19/19 5/5/5 15/15/15 
f 20/20/20 6/6/6 18/18/18 
f 20/20/20 18/18/18 21/21/21 
f 17/17/17 21/21/21 18/18/18 
f 22/22/22 20/20/20 21/21/21 
f 23/23/23 20/20/20 22/22/22 
f 23/23/23 22/22/22 24/24/24 
f 10/10/10 25/25/25 9/9/9 
f 26/26/26 25/25/25 10/10/10 
f 27/27/27 25/25/25 26/26/26 
f 27/27/27 20/20/20 23/23/23 
f 6/6/6 27/27/27 26/26/26 
f 6/6/6 20/20/20 27/27/27 
f 6/6/6 26/26/26 3/3/3 
f 3/3/3 26/26/26 10/10/10 
f 9/9/9 25/25/25 28/28/28 
f 29/29/29 9/9/9 28/28/28 
f 29/29/29 28/28/28 30/30/30 
f 8/8/8 9/9/9 29/29/29 
f 33/33/33 32/32/32 31/31/31 
f 34/34/34 33/33/33 31/31/31 
f 32/32/32 33/33/33 35/35/35 
f 33/33/33 36/36/36 35/35/35 
f 37/37/37 34/34/34 31/31/31 
f 38/38/38 34/34/34 37/37/37 
f 33/33/33 34/34/34 39/39/39 
f 39/39/39 34/34/34 38/38/38 
f 40/40/40 33/33/33 39/39/39 
f 37/37/37 31/31/31 41/41/41 
f 42/42/42 37/37/37 41/41/41 
f 43/43/43 42/42/42 41/41/41 
f 44/44/44 43/43/43 41/41/41 
f 41/41/41 31/31/31 44/44/44 
f 32/32/32 35/35/35 44/44/44 
f 32/32/32 44/44/44 31/31/31 
f 44/44/44 35/35/35 45/45/45 
f 46/46/46 44/44/44 45/45/45 
f 43/43/43 44/44/44 46/46/46 
f 45/45/45 47/47/47 46/46/46 
f 48/48/48 47/47/47 45/45/45 
f 49/49/49 48/48/48 45/45/45 
f 36/36/36 48/48/48 49/49/49 
f 35/35/35 36/36/36 49/49/49 
f 45/45/45 35/35/35 49/49/49 
f 48/48/48 36/36/36 50/50/50 
f 48/48/48 50/50/50 51/51/51 
f 48/48/48 51/51/51 47/47/47 
f 50/50/50 52/52/52 51/51/51 
f 52/52/52 50/50/50 53/53/53 
f 54/54/54 52/52/52 53/53/53 
f 39/39/39 55/55/55 40/40/40 
f 56/56/56 55/55/55 39/39/39 
f 56/56/56 39/39/39 57/57/57 
f 58/58/58 56/56/56 57/57/57 
f 57/57/57 39/39/39 38/38/38 
f 53/53/53 50/50/50 59/59/59 
f 60/60/60 55/55/55 59/59/59 
f 40/40/40 55/55/55 60/60/60 
f 40/40/40 60/60/60 33/33/33 
f 33/33/33 60/60/60 36/36/36 
f 60/60/60 59/59/59 36/36/36 
f 59/59/59 50/50/50 36/36/36 

