v -0.18084964156150818 -0.01074390858411789 -0.6002684235572815
v -0.1713445782661438 0.043475937098264694 -0.5788608193397522
v 0.18084949254989624 -0.010743984952569008 -0.6002684235572815
v 0.17134442925453186 0.043475858867168427 -0.5788608193397522
v -0.16211996972560883 0.09617689251899719 -0.5544067621231079
v 0.16211989521980286 0.09617680311203003 -0.5544067621231079
v -0.1531759351491928 0.14590486884117126 -0.5239894986152649
v 0.15317583084106445 0.1459048092365265 -0.5239894986152649
v -0.1445123851299286 0.19105775654315948 -0.48737847805023193
v 0.14451231062412262 0.19105768203735352 -0.4873785674571991
v -0.13612930476665497 0.23285862803459167 -0.446995347738266
v 0.1361292451620102 0.2328585535287857 -0.44699540734291077
v -0.12802673876285553 0.2691003978252411 -0.4013376533985138
v 0.12802672386169434 0.2691003084182739 -0.4013376832008362
v -0.12020468711853027 0.2981753647327423 -0.35096755623817444
v 0.12020468711853027 0.29817527532577515 -0.3509675860404968
v -0.11266312003135681 0.321155846118927 -0.2976543605327606
v 0.1126631423830986 0.32115575671195984 -0.297654390335083
v -0.10540206730365753 0.33699747920036316 -0.24171458184719086
v 0.10540210455656052 0.3369974195957184 -0.24171461164951324
v -0.09842151403427124 0.34440290927886963 -0.1838938295841217
v 0.09842157363891602 0.34440284967422485 -0.1838938444852829
v -0.09172146767377853 0.34103941917419434 -0.12571047246456146
v 0.0917215421795845 0.34103935956954956 -0.12571048736572266
v -0.08530191332101822 0.3281254172325134 -0.06900188326835632
v 0.08530201017856598 0.32812532782554626 -0.06900190562009811
v -0.07916288077831268 0.3050891160964966 -0.015654318034648895
v 0.07916297018527985 0.3050890564918518 -0.01565435156226158
v -0.07330433279275894 0.27177807688713074 0.03195244073867798
v 0.0733044296503067 0.27177804708480835 0.031952399760484695
v -0.06772629916667938 0.22852826118469238 0.07077998667955399
v 0.06772638857364655 0.2285282462835312 0.0707799568772316
v -0.06242876872420311 0.17605626583099365 0.09555583447217941
v 0.06242884323000908 0.17605625092983246 0.09555579721927643
v -0.057411737740039825 0.1188000738620758 0.1039808914065361
v 0.0574117936193943 0.11880005896091461 0.10398085415363312
v -0.05267520621418953 0.06279601156711578 0.09071289002895355
v 0.05267525464296341 0.06279601156711578 0.09071286022663116
v -0.048219192773103714 0.01826016791164875 0.054321929812431335
v 0.048219211399555206 0.0182601660490036 0.054321907460689545
v -0.04404366761445999 -5.01244721817784e-05 -0.00028355096583254635
v 0.04404366761445999 -5.01244721817784e-05 -0.0002835653140209615
vn -0.0 -0.3672409951686859 0.930125892162323
vn -0.0 -0.3915186822414398 0.9201701879501343
vn -0.0 -0.3672410249710083 0.930125892162323
vn -0.0 -0.3915187418460846 0.9201701879501343
vn -1.1488943840731736e-07 -0.46714791655540466 0.8841792345046997
vn -0.0 -0.46714773774147034 0.8841792941093445
vn -0.0 -0.5718904137611389 0.8203301429748535
vn -0.0 -0.5718899965286255 0.8203303813934326
vn -0.0 -0.6599153280258179 0.7513399720191956
vn -0.0 -0.6599151492118835 0.7513400912284851
vn -0.0 -0.7366546392440796 0.6762691736221313
vn -0.0 -0.7366547584533691 0.6762690544128418
vn -1.1534913824107207e-07 -0.8232983350753784 0.5676089525222778
vn -1.653435646176149e-07 -0.8232983946800232 0.567608654499054
vn -2.0543650691706716e-07 -0.8915151953697205 0.45299091935157776
vn -2.296509933330526e-07 -0.8915151953697205 0.4529908001422882
vn -2.670433048024279e-07 -0.9404798150062561 0.33984944224357605
vn -2.975494624024577e-07 -0.9404798150062561 0.3398493528366089
vn -3.259931986576703e-07 -0.978563129901886 0.20594710111618042
vn -3.4473922028155357e-07 -0.978563129901886 0.20594704151153564
vn -3.721066832440556e-07 -0.9991301894187927 0.041700128465890884
vn -3.938167765227263e-07 -0.9991301894187927 0.04170005023479462
vn -4.134122946197749e-07 -0.9909165501594543 -0.134477898478508
vn -4.401311741730751e-07 -0.9909165501594543 -0.13447797298431396
vn -4.517806360126997e-07 -0.9524957537651062 -0.3045518398284912
vn -4.1059277577915054e-07 -0.952495813369751 -0.3045516610145569
vn -3.8150099612721533e-07 -0.8764177560806274 -0.48155146837234497
vn -2.971839592191827e-07 -0.8764179348945618 -0.48155131936073303
vn -3.0885965429661155e-07 -0.7533079981803894 -0.657667875289917
vn -2.7196423957320803e-07 -0.7533080577850342 -0.657667875289917
vn -2.7576339789447957e-07 -0.5605370402336121 -0.8281292915344238
vn -2.8463080070650904e-07 -0.5605370998382568 -0.8281294107437134
vn -3.0105098858257406e-07 -0.297433078289032 -0.9547426700592041
vn -3.465589202278352e-07 -0.29743295907974243 -0.9547426700592041
vn -3.154815715333825e-07 0.032985981553792953 -0.9994558691978455
vn -3.16408602429874e-07 0.03298602253198624 -0.9994558691978455
vn -2.3719405817246297e-07 0.43243685364723206 -0.9016642570495605
vn -2.2591828496842936e-07 0.4324367642402649 -0.9016643166542053
vn -1.325086742554049e-07 0.8148321509361267 -0.5796970129013062
vn -1.2854151520969026e-07 0.8148320317268372 -0.5796970129013062
vn -0.0 0.9481168389320374 -0.3179222345352173
vn -0.0 0.9481168389320374 -0.3179222345352173
vt 0.9999999403953552 -1.1920928955078125e-07
vt 0.9999999403953552 0.04999995231628418
vt -5.960464477539063e-08 0.0
vt -5.58297514885453e-08 0.050000011920928955
vt 0.9999999403953552 0.09999990463256836
vt -5.205485464898629e-08 0.10000002384185791
vt 0.9999999403953552 0.14999991655349731
vt -4.827995780942729e-08 0.1499999761581421
vt 0.9999999403953552 0.19999992847442627
vt -4.450506452258196e-08 0.19999998807907104
vt 0.9999999403953552 0.24999994039535522
vt -4.0730171235736634e-08 0.25
vt 0.9999999403953552 0.2999999523162842
vt -3.695527084346395e-08 0.30000001192092896
vt 0.9999999403953552 0.34999990463256836
vt -3.318037755661862e-08 0.3500000238418579
vt 0.9999999403953552 0.3999999761581421
vt -2.9405480717059618e-08 0.40000003576278687
vt 0.9999999403953552 0.44999992847442627
vt -2.5630583877500612e-08 0.4500000476837158
vt 0.9999999403953552 0.5
vt -2.1855690590655286e-08 0.5000000596046448
vt 0.9999999403953552 0.550000011920929
vt -1.808079375109628e-08 0.5500000715255737
vt 0.9999999403953552 0.6000000238418579
vt -1.4305896911537275e-08 0.6000000834465027
vt 0.9999999403953552 0.6500000357627869
vt -1.053100007197827e-08 0.6500000953674316
vt 0.9999999403953552 0.7000000476837158
vt -6.756106785132943e-09 0.7000001072883606
vt 0.9999999403953552 0.7500000596046448
vt -2.981209945573937e-09 0.7500001192092896
vt 1.0 0.8000000715255737
vt 7.936833412713895e-10 0.8000001311302185
vt 1.0 0.8500000834465027
vt 4.568583733544074e-09 0.8500001430511475
vt 1.0 0.9000000953674316
vt 8.3434770203894e-09 0.9000001549720764
vt 1.0 0.9500001072883606
vt 1.2118377412662085e-08 0.9500001668930054
vt 1.0 1.0
vt 1.5893263594080054e-08 1.0000001192092896

g eff_mdl_wind09
s 1
usemtl eff_mdl_wind09
f 3/3/3 2/2/2 1/1/1 
f 2/2/2 3/3/3 4/4/4 
f 4/4/4 5/5/5 2/2/2 
f 5/5/5 4/4/4 6/6/6 
f 6/6/6 7/7/7 5/5/5 
f 7/7/7 6/6/6 8/8/8 
f 8/8/8 9/9/9 7/7/7 
f 9/9/9 8/8/8 10/10/10 
f 10/10/10 11/11/11 9/9/9 
f 11/11/11 10/10/10 12/12/12 
f 12/12/12 13/13/13 11/11/11 
f 13/13/13 12/12/12 14/14/14 
f 14/14/14 15/15/15 13/13/13 
f 15/15/15 14/14/14 16/16/16 
f 16/16/16 17/17/17 15/15/15 
f 17/17/17 16/16/16 18/18/18 
f 18/18/18 19/19/19 17/17/17 
f 19/19/19 18/18/18 20/20/20 
f 20/20/20 21/21/21 19/19/19 
f 21/21/21 20/20/20 22/22/22 
f 22/22/22 23/23/23 21/21/21 
f 23/23/23 22/22/22 24/24/24 
f 24/24/24 25/25/25 23/23/23 
f 25/25/25 24/24/24 26/26/26 
f 26/26/26 27/27/27 25/25/25 
f 27/27/27 26/26/26 28/28/28 
f 28/28/28 29/29/29 27/27/27 
f 29/29/29 28/28/28 30/30/30 
f 30/30/30 31/31/31 29/29/29 
f 31/31/31 30/30/30 32/32/32 
f 32/32/32 33/33/33 31/31/31 
f 33/33/33 32/32/32 34/34/34 
f 34/34/34 35/35/35 33/33/33 
f 35/35/35 34/34/34 36/36/36 
f 36/36/36 37/37/37 35/35/35 
f 37/37/37 36/36/36 38/38/38 
f 38/38/38 39/39/39 37/37/37 
f 39/39/39 38/38/38 40/40/40 
f 40/40/40 41/41/41 39/39/39 
f 41/41/41 40/40/40 42/42/42 


