v -0.7004410624504089 -0.7004410624504089 4.570579528808594
v 0.7004410624504089 0.7004410624504089 4.570579528808594
v 0.7004410624504089 -0.7004410624504089 4.570579528808594
v -0.7004410624504089 0.7004410624504089 4.570579528808594
v 0.5 -0.5 0.0
v -0.4747900366783142 -0.5 3.5799999237060547
v 0.5 -0.5 3.5799999237060547
v -0.4747900366783142 -0.5 0.0
v 0.5 0.5 0.0
v 0.5 -0.5 3.5799999237060547
v 0.5 0.5 3.5799999237060547
v 0.5 -0.5 0.0
v -0.4747900366783142 0.5 0.0
v 0.5 0.5 3.5799999237060547
v -0.4747900366783142 0.5 3.5799999237060547
v 0.5 0.5 0.0
v -0.5 -0.47124168276786804 0.0
v -0.5 0.47124168276786804 3.5799999237060547
v -0.5 -0.47124168276786804 3.5799999237060547
v -0.5 0.47124168276786804 0.0
v -0.4747900366783142 -0.5 0.0
v -0.4747900366783142 -0.5 3.5799999237060547
v -0.4747900366783142 0.5 3.5799999237060547
v -0.4747900366783142 0.5 0.0
v 0.5864419937133789 -0.5864419937133789 3.9796018600463867
v -0.5864419937133789 -0.5864419937133789 3.5799999237060547
v -0.5864419937133789 -0.5864419937133789 3.9796018600463867
v 0.5864419937133789 -0.5864419937133789 3.5799999237060547
v 0.5864419937133789 0.5864419937133789 3.9796018600463867
v 0.5864419937133789 -0.5864419937133789 3.5799999237060547
v 0.5864419937133789 -0.5864419937133789 3.9796018600463867
v 0.5864419937133789 0.5864419937133789 3.5799999237060547
v -0.5864419937133789 0.5864419937133789 3.9796018600463867
v 0.5864419937133789 0.5864419937133789 3.5799999237060547
v 0.5864419937133789 0.5864419937133789 3.9796018600463867
v -0.5864419937133789 0.5864419937133789 3.5799999237060547
v -0.5864419937133789 -0.5864419937133789 3.9796018600463867
v -0.5864419937133789 0.5864419937133789 3.5799999237060547
v -0.5864419937133789 0.5864419937133789 3.9796018600463867
v -0.5864419937133789 -0.5864419937133789 3.5799999237060547
v 0.7004410624504089 -0.7004410624504089 4.570579528808594
v -0.6506664752960205 -0.6506664752960205 4.127399921417236
v -0.7004410624504089 -0.7004410624504089 4.570579528808594
v 0.6506664752960205 -0.6506664752960205 4.127399921417236
v 0.7004410624504089 0.7004410624504089 4.570579528808594
v 0.6506664752960205 -0.6506664752960205 4.127399921417236
v 0.7004410624504089 -0.7004410624504089 4.570579528808594
v 0.6506664752960205 0.6506664752960205 4.127399921417236
v -0.7004410624504089 0.7004410624504089 4.570579528808594
v 0.6506664752960205 0.6506664752960205 4.127399921417236
v 0.7004410624504089 0.7004410624504089 4.570579528808594
v -0.6506664752960205 0.6506664752960205 4.127399921417236
v -0.7004410624504089 -0.7004410624504089 4.570579528808594
v -0.6506664752960205 0.6506664752960205 4.127399921417236
v -0.7004410624504089 0.7004410624504089 4.570579528808594
v -0.6506664752960205 -0.6506664752960205 4.127399921417236
v 0.5 -0.5 4.127399921417236
v -0.5 -0.5 3.9796018600463867
v -0.5 -0.5 4.127399921417236
v 0.5 -0.5 3.9796018600463867
v 0.5 0.5 4.127399921417236
v 0.5 -0.5 3.9796018600463867
v 0.5 -0.5 4.127399921417236
v 0.5 0.5 3.9796018600463867
v -0.5 0.5 4.127399921417236
v 0.5 0.5 3.9796018600463867
v 0.5 0.5 4.127399921417236
v -0.5 0.5 3.9796018600463867
v -0.5 -0.5 4.127399921417236
v -0.5 0.5 3.9796018600463867
v -0.5 0.5 4.127399921417236
v -0.5 -0.5 3.9796018600463867
v 0.5 -0.5 3.9796018600463867
v -0.5864419937133789 -0.5864419937133789 3.9796018600463867
v -0.5 -0.5 3.9796018600463867
v 0.5864419937133789 -0.5864419937133789 3.9796018600463867
v -0.5 -0.5 3.9796018600463867
v -0.5864419937133789 0.5864419937133789 3.9796018600463867
v -0.5 0.5 3.9796018600463867
v -0.5864419937133789 -0.5864419937133789 3.9796018600463867
v -0.5 0.5 3.9796018600463867
v 0.5864419937133789 0.5864419937133789 3.9796018600463867
v 0.5 0.5 3.9796018600463867
v -0.5864419937133789 0.5864419937133789 3.9796018600463867
v 0.5 0.5 3.9796018600463867
v 0.5864419937133789 -0.5864419937133789 3.9796018600463867
v 0.5 -0.5 3.9796018600463867
v 0.5864419937133789 0.5864419937133789 3.9796018600463867
vn -0.0 0.0 1.0
vn -0.0 0.0 1.0
vn -0.0 0.0 1.0
vn -0.0 0.0 1.0
vn -0.0 -1.0 0.0
vn -0.0 -1.0 0.0
vn -0.0 -1.0 0.0
vn -0.0 -1.0 0.0
vn 1.0 0.0 0.0
vn 1.0 0.0 0.0
vn 1.0 0.0 0.0
vn 1.0 0.0 0.0
vn -0.0 1.0 0.0
vn -0.0 1.0 0.0
vn -0.0 1.0 0.0
vn -0.0 1.0 0.0
vn -0.9359419345855713 -0.352154403924942 0.0
vn -0.9359419345855713 0.352154403924942 0.0
vn -0.9359420537948608 -0.3521542549133301 0.0
vn -0.9359420537948608 0.3521542549133301 0.0
vn -0.7519747018814087 -0.6591920256614685 0.0
vn -0.7519746422767639 -0.6591920852661133 0.0
vn -0.7519747018814087 0.6591920256614685 0.0
vn -0.7519746422767639 0.6591920852661133 0.0
vn -0.0 -1.0 0.0
vn -0.0 -1.0 0.0
vn -0.0 -1.0 0.0
vn -0.0 -1.0 0.0
vn 1.0 0.0 0.0
vn 1.0 0.0 0.0
vn 1.0 0.0 0.0
vn 1.0 0.0 0.0
vn -0.0 1.0 0.0
vn -0.0 1.0 0.0
vn -0.0 1.0 0.0
vn -0.0 1.0 0.0
vn -1.0 0.0 0.0
vn -1.0 0.0 0.0
vn -1.0 0.0 0.0
vn -1.0 0.0 0.0
vn -0.0 -0.999212384223938 0.0396808385848999
vn -0.0 -0.999212384223938 0.0396808423101902
vn -0.0 -0.999212384223938 0.039680831134319305
vn -0.0 -0.999212384223938 0.0396808423101902
vn 0.999212384223938 0.0 0.0396808385848999
vn 0.999212384223938 0.0 0.0396808423101902
vn 0.999212384223938 0.0 0.039680831134319305
vn 0.999212384223938 0.0 0.0396808423101902
vn -0.0 0.999212384223938 0.0396808385848999
vn -0.0 0.999212384223938 0.0396808423101902
vn -0.0 0.999212384223938 0.039680831134319305
vn -0.0 0.999212384223938 0.0396808423101902
vn -0.999212384223938 0.0 0.0396808385848999
vn -0.999212384223938 0.0 0.0396808423101902
vn -0.999212384223938 0.0 0.039680831134319305
vn -0.999212384223938 0.0 0.0396808423101902
vn -0.0 -1.0 0.0
vn -0.0 -1.0 0.0
vn -0.0 -1.0 0.0
vn -0.0 -1.0 0.0
vn 1.0 0.0 0.0
vn 1.0 0.0 0.0
vn 1.0 0.0 0.0
vn 1.0 0.0 0.0
vn -0.0 1.0 0.0
vn -0.0 1.0 0.0
vn -0.0 1.0 0.0
vn -0.0 1.0 0.0
vn -1.0 0.0 0.0
vn -1.0 0.0 0.0
vn -1.0 0.0 0.0
vn -1.0 0.0 0.0
vn -0.0 0.0 1.0
vn -0.0 0.0 1.0
vn -0.0 0.0 1.0
vn -0.0 0.0 1.0
vn -0.0 0.0 1.0
vn -0.0 0.0 1.0
vn -0.0 0.0 1.0
vn -0.0 0.0 1.0
vn -0.0 0.0 1.0
vn -0.0 0.0 1.0
vn -0.0 0.0 1.0
vn -0.0 0.0 1.0
vn -0.0 0.0 1.0
vn -0.0 0.0 1.0
vn -0.0 0.0 1.0
vn -0.0 0.0 1.0
vt 0.5066666603088379 0.08443498611450195
vt 0.746666669845581 0.0
vt 0.746666669845581 0.08443498611450195
vt 0.5066666603088379 0.0
vt 0.746666669845581 1.0
vt 0.5066666603088379 0.23000001907348633
vt 0.746666669845581 0.23000001907348633
vt 0.5066666603088379 1.0
vt 0.746666669845581 1.0
vt 0.5066666603088379 0.23000001907348633
vt 0.746666669845581 0.23000001907348633
vt 0.5066666603088379 1.0
vt 0.746666669845581 1.0
vt 0.5066666603088379 0.23000001907348633
vt 0.746666669845581 0.23000001907348633
vt 0.5066666603088379 1.0
vt 0.7397646903991699 1.0
vt 0.513568639755249 0.23000001907348633
vt 0.7397646903991699 0.23000001907348633
vt 0.513568639755249 1.0
vt 0.746666669845581 1.0
vt 0.746666669845581 0.23000001907348633
vt 0.5066666603088379 0.23000001907348633
vt 0.5066666603088379 1.0
vt 0.746666669845581 0.13009953498840332
vt 0.5066666603088379 0.23000001907348633
vt 0.5066666603088379 0.13009953498840332
vt 0.746666669845581 0.23000001907348633
vt 0.746666669845581 0.13009953498840332
vt 0.5066666603088379 0.23000001907348633
vt 0.5066666603088379 0.13009953498840332
vt 0.746666669845581 0.23000001907348633
vt 0.746666669845581 0.13009953498840332
vt 0.5066666603088379 0.23000001907348633
vt 0.5066666603088379 0.13009953498840332
vt 0.746666669845581 0.23000001907348633
vt 0.746666669845581 0.13009953498840332
vt 0.5066666603088379 0.23000001907348633
vt 0.5066666603088379 0.13009953498840332
vt 0.746666669845581 0.23000001907348633
vt 0.746666669845581 0.0
vt 0.5066666603088379 0.09315001964569092
vt 0.5066666603088379 0.0
vt 0.746666669845581 0.09315001964569092
vt 0.746666669845581 0.0
vt 0.5066666603088379 0.09315001964569092
vt 0.5066666603088379 0.0
vt 0.746666669845581 0.09315001964569092
vt 0.746666669845581 0.0
vt 0.5066666603088379 0.09315001964569092
vt 0.5066666603088379 0.0
vt 0.746666669845581 0.09315001964569092
vt 0.746666669845581 0.0
vt 0.5066666603088379 0.09315001964569092
vt 0.5066666603088379 0.0
vt 0.746666669845581 0.09315001964569092
vt 0.746666669845581 0.09315001964569092
vt 0.5066666603088379 0.13009953498840332
vt 0.5066666603088379 0.09315001964569092
vt 0.746666669845581 0.13009953498840332
vt 0.746666669845581 0.09315001964569092
vt 0.5066666603088379 0.13009953498840332
vt 0.5066666603088379 0.09315001964569092
vt 0.746666669845581 0.13009953498840332
vt 0.746666669845581 0.09315001964569092
vt 0.5066666603088379 0.13009953498840332
vt 0.5066666603088379 0.09315001964569092
vt 0.746666669845581 0.13009953498840332
vt 0.746666669845581 0.09315001964569092
vt 0.5066666603088379 0.13009953498840332
vt 0.5066666603088379 0.09315001964569092
vt 0.746666669845581 0.13009953498840332
vt 0.746666669845581 0.13009953498840332
vt 0.5066666603088379 0.13009953498840332
vt 0.5066666603088379 0.13009953498840332
vt 0.746666669845581 0.13009953498840332
vt 0.746666669845581 0.13009953498840332
vt 0.5066666603088379 0.13009953498840332
vt 0.5066666603088379 0.13009953498840332
vt 0.746666669845581 0.13009953498840332
vt 0.746666669845581 0.13009953498840332
vt 0.5066666603088379 0.13009953498840332
vt 0.5066666603088379 0.13009953498840332
vt 0.746666669845581 0.13009953498840332
vt 0.746666669845581 0.13009953498840332
vt 0.5066666603088379 0.13009953498840332
vt 0.5066666603088379 0.13009953498840332
vt 0.746666669845581 0.13009953498840332

g bg_mdl_map_hasira00
s 1
usemtl bg_mdl_map_hasira00
f 3/3/3 2/2/2 1/1/1 
f 4/4/4 1/1/1 2/2/2 
f 7/7/7 6/6/6 5/5/5 
f 8/8/8 5/5/5 6/6/6 
f 11/11/11 10/10/10 9/9/9 
f 12/12/12 9/9/9 10/10/10 
f 15/15/15 14/14/14 13/13/13 
f 16/16/16 13/13/13 14/14/14 
f 19/19/19 18/18/18 17/17/17 
f 20/20/20 17/17/17 18/18/18 
f 17/17/17 21/21/21 19/19/19 
f 22/22/22 19/19/19 21/21/21 
f 18/18/18 23/23/23 20/20/20 
f 24/24/24 20/20/20 23/23/23 
f 27/27/27 26/26/26 25/25/25 
f 28/28/28 25/25/25 26/26/26 
f 31/31/31 30/30/30 29/29/29 
f 32/32/32 29/29/29 30/30/30 
f 35/35/35 34/34/34 33/33/33 
f 36/36/36 33/33/33 34/34/34 
f 39/39/39 38/38/38 37/37/37 
f 40/40/40 37/37/37 38/38/38 
f 43/43/43 42/42/42 41/41/41 
f 44/44/44 41/41/41 42/42/42 
f 47/47/47 46/46/46 45/45/45 
f 48/48/48 45/45/45 46/46/46 
f 51/51/51 50/50/50 49/49/49 
f 52/52/52 49/49/49 50/50/50 
f 55/55/55 54/54/54 53/53/53 
f 56/56/56 53/53/53 54/54/54 
f 59/59/59 58/58/58 57/57/57 
f 60/60/60 57/57/57 58/58/58 
f 63/63/63 62/62/62 61/61/61 
f 64/64/64 61/61/61 62/62/62 
f 67/67/67 66/66/66 65/65/65 
f 68/68/68 65/65/65 66/66/66 
f 71/71/71 70/70/70 69/69/69 
f 72/72/72 69/69/69 70/70/70 
f 75/75/75 74/74/74 73/73/73 
f 76/76/76 73/73/73 74/74/74 
f 79/79/79 78/78/78 77/77/77 
f 80/80/80 77/77/77 78/78/78 
f 83/83/83 82/82/82 81/81/81 
f 84/84/84 81/81/81 82/82/82 
f 87/87/87 86/86/86 85/85/85 
f 88/88/88 85/85/85 86/86/86 

