v 2.0 -0.5155022144317627 0.25
v -1.0 -0.06058749929070473 0.25
v 2.0 -0.06058749929070473 0.25
v -1.0 -0.5155022144317627 0.25
v -1.0 -0.5155022144317627 0.0
v 2.0 -0.5155022144317627 0.25
v 2.0 -0.5155022144317627 0.0
v -1.0 -0.5155022144317627 0.25
v 2.0 0.5155022144317627 0.5
v -1.0 -0.06058749929070473 0.5
v -1.0 0.5155022144317627 0.5
v 2.0 -0.06058749929070473 0.5
v -1.0 -0.06058749929070473 0.25
v 2.0 -0.06058749929070473 0.5
v 2.0 -0.06058749929070473 0.25
v -1.0 -0.06058749929070473 0.5
v 2.0 -0.06058749929070473 0.0
v 2.0 -0.5155022144317627 0.25
v 2.0 -0.06058749929070473 0.25
v 2.0 -0.5155022144317627 0.0
v 2.0 0.5155022144317627 0.0
v 2.0 0.5155022144317627 0.5
v 2.0 -0.06058749929070473 0.5
v -1.0 0.5155022144317627 0.0
v -1.0 -0.5155022144317627 0.25
v -1.0 -0.5155022144317627 0.0
v -1.0 -0.06058749929070473 0.25
v -1.0 0.5155022144317627 0.5
v -1.0 -0.06058749929070473 0.5
vn -0.0 0.0 1.0
vn -0.0 0.0 1.0
vn -0.0 0.0 1.0
vn -0.0 0.0 1.0
vn -0.0 -1.0 0.0
vn -0.0 -1.0 0.0
vn -0.0 -1.0 0.0
vn -0.0 -1.0 0.0
vn -0.0 0.0 1.0
vn -0.0 0.0 1.0
vn -0.0 0.0 1.0
vn -0.0 0.0 1.0
vn -0.0 -1.0 0.0
vn -0.0 -1.0 0.0
vn -0.0 -1.0 0.0
vn -0.0 -1.0 0.0
vn 1.0 0.0 0.0
vn 1.0 0.0 0.0
vn 1.0 0.0 0.0
vn 1.0 0.0 0.0
vn 1.0 0.0 0.0
vn 1.0 0.0 0.0
vn 1.0 0.0 0.0
vn -1.0 0.0 0.0
vn -1.0 0.0 0.0
vn -1.0 0.0 0.0
vn -1.0 0.0 0.0
vn -1.0 0.0 0.0
vn -1.0 0.0 0.0
vt 1.716536045074463 0.6255784630775452
vt 0.20550647377967834 0.37665271759033203
vt 1.716536045074463 0.37665271759033203
vt 0.20550647377967834 0.6255784630775452
vt 0.20550647377967834 0.7462985217571259
vt 1.716536045074463 0.6255784630775452
vt 1.716536045074463 0.7462985217571259
vt 0.20550647377967834 0.6255784630775452
vt 1.5095629692077637 0.0023376941680908203
vt 0.002000015927478671 0.25566476583480835
vt 0.002000015927478671 0.0023376941680908203
vt 1.5095629692077637 0.25566476583480835
vt 0.002000015927478671 0.37851929664611816
vt 1.5095629692077637 0.25566476583480835
vt 1.5095629692077637 0.37851929664611816
vt 0.002000015927478671 0.25566476583480835
vt 0.268073707818985 1.2612095773220062
vt 0.032454125583171844 1.1385112702846527
vt 0.268073707818985 1.1385112702846527
vt 0.032454125583171844 1.2612095773220062
vt 0.5036932826042175 1.2612095773220062
vt 0.5036932826042175 1.015813022851944
vt 0.268073707818985 1.015813022851944
vt 0.5036932826042175 1.2612095773220062
vt 0.03245413675904274 1.1385112702846527
vt 0.03245413675904274 1.2612095773220062
vt 0.268073707818985 1.1385112702846527
vt 0.5036932826042175 1.015813022851944
vt 0.268073707818985 1.015813022851944

g bg_mdl_map_kaidan00
s 1
usemtl bg_mdl_map_kaidan00
f 3/3/3 2/2/2 1/1/1 
f 4/4/4 1/1/1 2/2/2 
f 7/7/7 6/6/6 5/5/5 
f 8/8/8 5/5/5 6/6/6 
f 11/11/11 10/10/10 9/9/9 
f 12/12/12 9/9/9 10/10/10 
f 15/15/15 14/14/14 13/13/13 
f 16/16/16 13/13/13 14/14/14 
f 19/19/19 18/18/18 17/17/17 
f 20/20/20 17/17/17 18/18/18 
f 17/17/17 21/21/21 19/19/19 
f 22/22/22 19/19/19 21/21/21 
f 22/22/22 23/23/23 19/19/19 
f 26/26/26 25/25/25 24/24/24 
f 25/25/25 27/27/27 24/24/24 
f 27/27/27 28/28/28 24/24/24 
f 29/29/29 28/28/28 27/27/27 

