v -0.2504000663757324 5.340576194612368e-07 -0.20786704123020172
v -0.20080801844596863 0.09837852418422699 -0.2702929973602295
v -0.2504000663757324 0.07109451293945312 -0.19533202052116394
v -0.20080801844596863 5.340576194612368e-07 -0.2876400053501129
v -0.20080801844596863 0.1848915070295334 -0.22034502029418945
v -0.2504000663757324 0.13361449539661407 -0.15923604369163513
v -0.20080801844596863 0.24910347163677216 -0.14382001757621765
v -0.2504000663757324 0.18001852929592133 -0.10393407940864563
v -0.2008081078529358 0.2832704782485962 -0.04994802549481392
v -0.2504001557826996 0.2047094702720642 -0.036096058785915375
v -0.20080818235874176 0.2832704782485962 0.049947965890169144
v -0.2504001557826996 0.2047094702720642 0.03609592467546463
v -0.20080818235874176 0.24910347163677216 0.1438199132680893
v -0.2504001557826996 0.18001852929592133 0.10393398255109787
v -0.20080818235874176 0.1848915070295334 0.22034496068954468
v -0.2504001557826996 0.13361449539661407 0.15923595428466797
v -0.20080818235874176 0.09837852418422699 0.2702929377555847
v -0.2504001557826996 0.07109550386667252 0.19533191621303558
v -0.20080818235874176 5.340576194612368e-07 0.28763994574546814
v -0.2504001557826996 5.340576194612368e-07 0.20786792039871216
v -0.20080818235874176 -0.09837852418422699 0.2702929377555847
v -0.2504001557826996 -0.07109451293945312 0.19533191621303558
v -0.20080818235874176 -0.18489143252372742 0.22034496068954468
v -0.2504001557826996 -0.1336144208908081 0.15923595428466797
v -0.20080818235874176 -0.24910347163677216 0.1438199132680893
v -0.2504001557826996 -0.18001852929592133 0.10393398255109787
v -0.20080818235874176 -0.2832704782485962 0.04994804412126541
v -0.2504001557826996 -0.20470954477787018 0.0360959991812706
v -0.2008081078529358 -0.2832704782485962 -0.049947984516620636
v -0.2504001557826996 -0.20470954477787018 -0.03609601780772209
v -0.20080801844596863 -0.24910347163677216 -0.14381997287273407
v -0.2504000663757324 -0.18001852929592133 -0.10393304377794266
v -0.20080801844596863 -0.18489143252372742 -0.22034497559070587
v -0.2504000663757324 -0.1336144208908081 -0.15923601388931274
v -0.20080801844596863 -0.09837852418422699 -0.2702929973602295
v -0.2504000663757324 -0.07109451293945312 -0.19533103704452515
v -0.20080801844596863 5.340576194612368e-07 -0.2876400053501129
v -0.1133660078048706 0.09837852418422699 -0.2702929675579071
v -0.20080801844596863 0.09837852418422699 -0.2702929973602295
v -0.1133660078048706 5.340576194612368e-07 -0.2876400053501129
v -0.1133660078048706 0.1848915070295334 -0.22034502029418945
v -0.20080801844596863 0.1848915070295334 -0.22034502029418945
v -0.20080801844596863 -0.09837852418422699 -0.2702929973602295
v -0.1133660078048706 -0.09837852418422699 -0.2702929675579071
v -0.20080801844596863 -0.18489143252372742 -0.22034497559070587
v -0.1133660078048706 -0.18489143252372742 -0.22034497559070587
v -0.20080801844596863 0.1848915070295334 -0.22034502029418945
v -0.11336608976125717 0.24910347163677216 -0.14382001757621765
v -0.20080801844596863 0.24910347163677216 -0.14382001757621765
v -0.1133660078048706 0.1848915070295334 -0.22034502029418945
v -0.11336608976125717 0.2832704782485962 -0.04994802549481392
v -0.2008081078529358 0.2832704782485962 -0.04994802549481392
v -0.11336616426706314 0.2832704782485962 0.049947965890169144
v -0.20080818235874176 0.2832704782485962 0.049947965890169144
v -0.11336616426706314 0.24910347163677216 0.14382000267505646
v -0.20080818235874176 0.24910347163677216 0.1438199132680893
v -0.11336616426706314 0.1848915070295334 0.22034503519535065
v -0.20080818235874176 0.1848915070295334 0.22034496068954468
v -0.20080818235874176 0.1848915070295334 0.22034496068954468
v -0.11336616426706314 0.09837852418422699 0.2702929973602295
v -0.20080818235874176 0.09837852418422699 0.2702929377555847
v -0.11336616426706314 0.1848915070295334 0.22034503519535065
v -0.11336623877286911 5.340576194612368e-07 0.2876400351524353
v -0.20080818235874176 5.340576194612368e-07 0.28763994574546814
v -0.11336616426706314 -0.09837852418422699 0.2702929973602295
v -0.20080818235874176 -0.09837852418422699 0.2702929377555847
v -0.11336616426706314 -0.18489143252372742 0.22034503519535065
v -0.20080818235874176 -0.18489143252372742 0.22034496068954468
v -0.20080818235874176 -0.18489143252372742 0.22034496068954468
v -0.11336616426706314 -0.24910347163677216 0.14382000267505646
v -0.20080818235874176 -0.24910347163677216 0.1438199132680893
v -0.11336616426706314 -0.18489143252372742 0.22034503519535065
v -0.11336616426706314 -0.2832704782485962 0.04994804412126541
v -0.20080818235874176 -0.2832704782485962 0.04994804412126541
v -0.11336608976125717 -0.2832704782485962 -0.049947984516620636
v -0.2008081078529358 -0.2832704782485962 -0.049947984516620636
v -0.11336608976125717 -0.24910347163677216 -0.14381997287273407
v -0.20080801844596863 -0.24910347163677216 -0.14381997287273407
v -0.1133660078048706 -0.18489143252372742 -0.22034497559070587
v -0.20080801844596863 -0.18489143252372742 -0.22034497559070587
v -0.1133660078048706 5.340576194612368e-07 -0.2876400053501129
v -0.06377407163381577 0.07109451293945312 -0.19533096253871918
v -0.1133660078048706 0.09837852418422699 -0.2702929675579071
v -0.06377403438091278 5.340576194612368e-07 -0.20786696672439575
v -0.06377407163381577 0.13361449539661407 -0.15923595428466797
v -0.1133660078048706 0.1848915070295334 -0.22034502029418945
v -0.06377410888671875 0.18001852929592133 -0.10393399745225906
v -0.11336608976125717 0.24910347163677216 -0.14382001757621765
v -0.06377410888671875 0.2047094702720642 -0.03609598055481911
v -0.11336608976125717 0.2832704782485962 -0.04994802549481392
v -0.06377414613962173 0.2047094702720642 0.0360959991812706
v -0.11336616426706314 0.2832704782485962 0.049947965890169144
v -0.06377418339252472 0.18001852929592133 0.10393405705690384
v -0.11336616426706314 0.24910347163677216 0.14382000267505646
v -0.06377418339252472 0.13361449539661407 0.15923602879047394
v -0.11336616426706314 0.1848915070295334 0.22034503519535065
v -0.06377418339252472 0.07109550386667252 0.19533199071884155
v -0.11336616426706314 0.09837852418422699 0.2702929973602295
v -0.06377418339252472 5.340576194612368e-07 0.20786799490451813
v -0.11336623877286911 5.340576194612368e-07 0.2876400351524353
v -0.06377418339252472 -0.07109451293945312 0.19533199071884155
v -0.11336616426706314 -0.09837852418422699 0.2702929973602295
v -0.06377418339252472 -0.1336144208908081 0.15923602879047394
v -0.11336616426706314 -0.18489143252372742 0.22034503519535065
v -0.06377418339252472 -0.18001852929592133 0.10393405705690384
v -0.11336616426706314 -0.24910347163677216 0.14382000267505646
v -0.06377414613962173 -0.20470954477787018 0.03609607741236687
v -0.11336616426706314 -0.2832704782485962 0.04994804412126541
v -0.06377410888671875 -0.20470954477787018 -0.03609594330191612
v -0.11336608976125717 -0.2832704782485962 -0.049947984516620636
v -0.06377410888671875 -0.18001852929592133 -0.10393396019935608
v -0.11336608976125717 -0.24910347163677216 -0.14381997287273407
v -0.06377407163381577 -0.1336144208908081 -0.15923593938350677
v -0.1133660078048706 -0.18489143252372742 -0.22034497559070587
v -0.06377407163381577 -0.07109451293945312 -0.19533096253871918
v -0.1133660078048706 -0.09837852418422699 -0.2702929675579071
v 3.890991138177924e-06 4.501342573348666e-06 -0.08620395511388779
v -0.15708214044570923 0.07466147840023041 -0.043101005256175995
v -0.15708214044570923 4.501342573348666e-06 -0.08620399236679077
v 3.890991138177924e-06 0.07466147840023041 -0.04310096800327301
v 3.852844201901462e-06 0.07466147840023041 0.04310500994324684
v -0.15708214044570923 0.07466147840023041 0.04310497269034386
v -0.15708214044570923 -0.07465148717164993 -0.043101005256175995
v 3.890991138177924e-06 -0.07465148717164993 -0.04310096800327301
v 3.852844201901462e-06 -0.07465148717164993 0.04310500994324684
v -0.15708214044570923 -0.07465148717164993 0.04310497269034386
v 2.86102294921875e-06 4.501342573348666e-06 0.0862080380320549
v -0.15708312392234802 4.501342573348666e-06 0.08620800077915192
v -0.15708214044570923 0.07466147840023041 0.04310497269034386
v 3.852844201901462e-06 0.07466147840023041 0.04310500994324684
v 3.890991138177924e-06 -0.07465148717164993 -0.04310096800327301
v 2.86102294921875e-06 4.501342573348666e-06 0.0862080380320549
v 3.890991138177924e-06 4.501342573348666e-06 -0.08620395511388779
v 3.852844201901462e-06 -0.07465148717164993 0.04310500994324684
v 3.890991138177924e-06 0.07466147840023041 -0.04310096800327301
v 3.852844201901462e-06 0.07466147840023041 0.04310500994324684
vn 0.9532359838485718 0.0 0.3022269010543823
vn 0.485950231552124 -0.29904627799987793 0.8212330341339111
vn 0.9532182216644287 -0.1037931814789772 0.2839048504829407
vn 0.48591819405555725 0.0 0.8740043640136719
vn 0.4860033094882965 -0.5615360140800476 0.6696850061416626
vn 0.9531468152999878 -0.19459763169288635 0.2316093146800995
vn 0.48655006289482117 -0.7565167546272278 0.43697991967201233
vn 0.9532257914543152 -0.26177459955215454 0.15111185610294342
vn 0.4860112965106964 -0.860629141330719 0.15202157199382782
vn 0.9532235264778137 -0.29764387011528015 0.05266005918383598
vn 0.485414057970047 -0.860923171043396 -0.15226434171199799
vn 0.9532235264778137 -0.29764387011528015 -0.05266005918383598
vn 0.48538464307785034 -0.7570778727531433 -0.4373040795326233
vn 0.9532954096794128 -0.2615842819213867 -0.15100200474262238
vn 0.4859412610530853 -0.5614643096923828 -0.6697902679443359
vn 0.9533006548881531 -0.19447335600852966 -0.2310800850391388
vn 0.485950231552124 -0.29904627799987793 -0.8212330341339111
vn 0.9532878398895264 -0.10371771454811096 -0.2836984395980835
vn 0.4858371913433075 0.0 -0.8740493059158325
vn 0.9533056020736694 0.0 -0.30200719833374023
vn 0.485950231552124 0.29904627799987793 -0.8212330341339111
vn 0.9532878398895264 0.10371772199869156 -0.2836984694004059
vn 0.4859412610530853 0.5614643096923828 -0.6697902679443359
vn 0.9534416794776917 0.19373935461044312 -0.23111426830291748
vn 0.485303670167923 0.7569515109062195 -0.4376125931739807
vn 0.9530350565910339 0.2624852657318115 -0.1510816216468811
vn 0.48544225096702576 0.860973060131073 -0.15189151465892792
vn 0.9532235264778137 0.29764387011528015 -0.05266005918383598
vn 0.486025333404541 0.8606539964675903 0.15183524787425995
vn 0.9532235264778137 0.29764384031295776 0.05266006663441658
vn 0.48655006289482117 0.7565167546272278 0.43697991967201233
vn 0.9530350565910339 0.26248523592948914 0.1510816216468811
vn 0.4860033094882965 0.5615360140800476 0.6696850061416626
vn 0.9532670378684998 0.19385896623134613 0.23173394799232483
vn 0.485950231552124 0.29904627799987793 0.8212330341339111
vn 0.9532182216644287 0.1037931814789772 0.2839048504829407
vn 0.48591819405555725 0.0 0.8740043640136719
vn -0.48536720871925354 -0.29915711283683777 0.821537435054779
vn 0.485950231552124 -0.29904627799987793 0.8212330341339111
vn -0.485335111618042 0.0 0.8743281960487366
vn -0.48542022705078125 -0.561744213104248 0.6699333190917969
vn 0.4860033094882965 -0.5615360140800476 0.6696850061416626
vn 0.485950231552124 0.29904627799987793 0.8212330341339111
vn -0.48536720871925354 0.29915711283683777 0.821537435054779
vn 0.4860033094882965 0.5615360140800476 0.6696850061416626
vn -0.48542022705078125 0.561744213104248 0.6699333190917969
vn 0.4860033094882965 -0.5615360140800476 0.6696850061416626
vn -0.48596763610839844 -0.7567973732948303 0.4371420443058014
vn 0.48655006289482117 -0.7565167546272278 0.43697991967201233
vn -0.48542022705078125 -0.561744213104248 0.6699333190917969
vn -0.4860112965106964 -0.860629141330719 0.15202157199382782
vn 0.4860112965106964 -0.860629141330719 0.15202157199382782
vn -0.48599714040756226 -0.8606041073799133 -0.1522078961133957
vn 0.485414057970047 -0.860923171043396 -0.15226434171199799
vn -0.48596763610839844 -0.7567973732948303 -0.4371420443058014
vn 0.48538464307785034 -0.7570778727531433 -0.4373040795326233
vn -0.4853581488132477 -0.5616723895072937 -0.6700385212898254
vn 0.4859412610530853 -0.5614643096923828 -0.6697902679443359
vn 0.4859412610530853 -0.5614643096923828 -0.6697902679443359
vn -0.4855193793773651 -0.29925093054771423 -0.8214133381843567
vn 0.485950231552124 -0.29904627799987793 -0.8212330341339111
vn -0.4853581488132477 -0.5616723895072937 -0.6700385212898254
vn -0.4858371913433075 0.0 -0.8740493059158325
vn 0.4858371913433075 0.0 -0.8740493059158325
vn -0.4855193793773651 0.29925093054771423 -0.8214133381843567
vn 0.485950231552124 0.29904627799987793 -0.8212330341339111
vn -0.4853581488132477 0.5616723895072937 -0.6700385212898254
vn 0.4859412610530853 0.5614643096923828 -0.6697902679443359
vn 0.4859412610530853 0.5614643096923828 -0.6697902679443359
vn -0.48596763610839844 0.7567973732948303 -0.4371420443058014
vn 0.485303670167923 0.7569515109062195 -0.4376125931739807
vn -0.4853581488132477 0.5616723895072937 -0.6700385212898254
vn -0.486025333404541 0.8606539964675903 -0.15183524787425995
vn 0.48544225096702576 0.860973060131073 -0.15189151465892792
vn -0.486025333404541 0.8606539964675903 0.15183524787425995
vn 0.486025333404541 0.8606539964675903 0.15183524787425995
vn -0.48596763610839844 0.7567973732948303 0.4371420443058014
vn 0.48655006289482117 0.7565167546272278 0.43697991967201233
vn -0.48542022705078125 0.561744213104248 0.6699333190917969
vn 0.4860033094882965 0.5615360140800476 0.6696850061416626
vn -0.485335111618042 0.0 0.8743281960487366
vn -0.9532530903816223 -0.10375543683767319 0.2838016748428345
vn -0.48536720871925354 -0.29915711283683777 0.821537435054779
vn -0.9532359838485718 0.0 0.3022269010543823
vn -0.953181803226471 -0.19452689588069916 0.23152513802051544
vn -0.48542022705078125 -0.561744213104248 0.6699333190917969
vn -0.9532605409622192 -0.26167938113212585 0.1510569006204605
vn -0.48596763610839844 -0.7567973732948303 0.4371420443058014
vn -0.9532583951950073 -0.29753562808036804 0.05264092609286308
vn -0.4860112965106964 -0.860629141330719 0.15202157199382782
vn -0.9532583951950073 -0.29753562808036804 -0.052640918642282486
vn -0.48599714040756226 -0.8606041073799133 -0.1522078961133957
vn -0.9532605409622192 -0.26167938113212585 -0.1510569006204605
vn -0.48596763610839844 -0.7567973732948303 -0.4371420443058014
vn -0.9532658457756042 -0.19454407691955566 -0.2311641126871109
vn -0.4853581488132477 -0.5616723895072937 -0.6700385212898254
vn -0.9532530903816223 -0.10375543683767319 -0.2838016450405121
vn -0.4855193793773651 -0.29925093054771423 -0.8214133381843567
vn -0.9532708525657654 0.0 -0.30211707949638367
vn -0.4858371913433075 0.0 -0.8740493059158325
vn -0.9532530903816223 0.10375543683767319 -0.2838016450405121
vn -0.4855193793773651 0.29925093054771423 -0.8214133381843567
vn -0.9534071087837219 0.1938098520040512 -0.23119831085205078
vn -0.4853581488132477 0.5616723895072937 -0.6700385212898254
vn -0.9530700445175171 0.2623898386955261 -0.15102671086788177
vn -0.48596763610839844 0.7567973732948303 -0.4371420443058014
vn -0.9532583951950073 0.29753562808036804 -0.052640918642282486
vn -0.486025333404541 0.8606539964675903 -0.15183524787425995
vn -0.9532583951950073 0.29753562808036804 0.05264092609286308
vn -0.486025333404541 0.8606539964675903 0.15183524787425995
vn -0.9530700445175171 0.2623898684978485 0.15102671086788177
vn -0.48596763610839844 0.7567973732948303 0.4371420443058014
vn -0.9533229470252991 0.19379274547100067 0.23155944049358368
vn -0.48542022705078125 0.561744213104248 0.6699333190917969
vn -0.9532530903816223 0.103755421936512 0.2838016450405121
vn -0.48536720871925354 0.29915711283683777 0.821537435054779
vn 0.7071067690849304 0.0 -0.7071067690849304
vn -0.0 0.8659568428993225 -0.5001187324523926
vn -0.0 0.0 -1.0
vn 0.7068517804145813 0.612630307674408 -0.3536165654659271
vn 0.7068517804145813 0.612630307674408 0.3536165654659271
vn -0.0 0.8659568428993225 0.5001186728477478
vn -0.0 -0.8659568428993225 -0.5001187324523926
vn 0.7068517804145813 -0.612630307674408 -0.3536165654659271
vn 0.7068517804145813 -0.612630307674408 0.3536165654659271
vn -0.0 -0.8659568428993225 0.5001186728477478
vn 0.7069159746170044 0.0 0.7072975635528564
vn -0.0 0.0 1.0
vn -0.0 0.8659568428993225 0.5001186728477478
vn 0.7068517804145813 0.612630307674408 0.3536165654659271
vn 0.7068517804145813 -0.612630307674408 -0.3536165654659271
vn 0.7069159746170044 0.0 0.7072975635528564
vn 0.7071067690849304 0.0 -0.7071067690849304
vn 0.7068517804145813 -0.612630307674408 0.3536165654659271
vn 0.7068517804145813 0.612630307674408 -0.3536165654659271
vn 0.7068517804145813 0.612630307674408 0.3536165654659271
vt 0.8738999962806702 0.17489999532699585
vt 0.8410999774932861 0.19569998979568481
vt 0.8501999974250793 0.17070001363754272
vt 0.8738999962806702 0.20149999856948853
vt 0.8123000264167786 0.17909997701644897
vt 0.8292999863624573 0.15869998931884766
vt 0.7908999919891357 0.15359997749328613
vt 0.8138999938964844 0.1402999758720398
vt 0.7795000076293945 0.12230002880096436
vt 0.8057000041007996 0.11769998073577881
vt 0.7795000076293945 0.08899998664855957
vt 0.8057000041007996 0.09359997510910034
vt 0.7908999919891357 0.05769997835159302
vt 0.8138999938964844 0.07099997997283936
vt 0.8123000264167786 0.032199978828430176
vt 0.8292999863624573 0.05260002613067627
vt 0.8410999774932861 0.015600025653839111
vt 0.8501999974250793 0.0406000018119812
vt 0.8738999962806702 0.0098000168800354
vt 0.8738999962806702 0.036400020122528076
vt 0.9065999984741211 0.015600025653839111
vt 0.8974999785423279 0.0406000018119812
vt 0.9355000257492065 0.032199978828430176
vt 0.91839998960495 0.05260002613067627
vt 0.9569000005722046 0.05769997835159302
vt 0.9337999820709229 0.07099997997283936
vt 0.9682000279426575 0.08899998664855957
vt 0.9420999884605408 0.09359997510910034
vt 0.9682000279426575 0.12230002880096436
vt 0.9420999884605408 0.11769998073577881
vt 0.9569000005722046 0.15359997749328613
vt 0.9337999820709229 0.1402999758720398
vt 0.9355000257492065 0.17909997701644897
vt 0.91839998960495 0.15869998931884766
vt 0.9065999984741211 0.19569998979568481
vt 0.8974999785423279 0.17070001363754272
vt 0.642300009727478 0.11040002107620239
vt 0.6753000020980835 0.08370000123977661
vt 0.6753000020980835 0.11040002107620239
vt 0.642300009727478 0.08370000123977661
vt 0.7077999711036682 0.08370000123977661
vt 0.7077999711036682 0.11040002107620239
vt 0.6090999841690063 0.11040002107620239
vt 0.6090999841690063 0.08370000123977661
vt 0.5760999917984009 0.11040002107620239
vt 0.5760999917984009 0.08370000123977661
vt 0.5436000227928162 0.11040002107620239
vt 0.5760999917984009 0.08370000123977661
vt 0.5760999917984009 0.11040002107620239
vt 0.5436000227928162 0.08370000123977661
vt 0.6090999841690063 0.08370000123977661
vt 0.6090999841690063 0.11040002107620239
vt 0.642300009727478 0.08370000123977661
vt 0.642300009727478 0.11040002107620239
vt 0.6753000020980835 0.08370000123977661
vt 0.6753000020980835 0.11040002107620239
vt 0.7077999711036682 0.08370000123977661
vt 0.7077999711036682 0.11040002107620239
vt 0.5760999917984009 0.11040002107620239
vt 0.6090999841690063 0.08370000123977661
vt 0.6090999841690063 0.11040002107620239
vt 0.5760999917984009 0.08370000123977661
vt 0.642300009727478 0.08370000123977661
vt 0.642300009727478 0.11040002107620239
vt 0.6753000020980835 0.08370000123977661
vt 0.6753000020980835 0.11040002107620239
vt 0.7077999711036682 0.08370000123977661
vt 0.7077999711036682 0.11040002107620239
vt 0.5436000227928162 0.11040002107620239
vt 0.5760999917984009 0.08370000123977661
vt 0.5760999917984009 0.11040002107620239
vt 0.5436000227928162 0.08370000123977661
vt 0.6090999841690063 0.08370000123977661
vt 0.6090999841690063 0.11040002107620239
vt 0.642300009727478 0.08370000123977661
vt 0.642300009727478 0.11040002107620239
vt 0.6753000020980835 0.08370000123977661
vt 0.6753000020980835 0.11040002107620239
vt 0.7077999711036682 0.08370000123977661
vt 0.7077999711036682 0.11040002107620239
vt 0.8738999962806702 0.20149999856948853
vt 0.8974999785423279 0.17070001363754272
vt 0.9065999984741211 0.19569998979568481
vt 0.8738999962806702 0.17489999532699585
vt 0.91839998960495 0.15869998931884766
vt 0.9355000257492065 0.17909997701644897
vt 0.9337999820709229 0.1402999758720398
vt 0.9569000005722046 0.15359997749328613
vt 0.9420999884605408 0.11769998073577881
vt 0.9682000279426575 0.12230002880096436
vt 0.9420999884605408 0.09359997510910034
vt 0.9682000279426575 0.08899998664855957
vt 0.9337999820709229 0.07099997997283936
vt 0.9569000005722046 0.05769997835159302
vt 0.91839998960495 0.05260002613067627
vt 0.9355000257492065 0.032199978828430176
vt 0.8974999785423279 0.0406000018119812
vt 0.9065999984741211 0.015600025653839111
vt 0.8738999962806702 0.036400020122528076
vt 0.8738999962806702 0.0098000168800354
vt 0.8501999974250793 0.0406000018119812
vt 0.8410999774932861 0.015600025653839111
vt 0.8292999863624573 0.05260002613067627
vt 0.8123000264167786 0.032199978828430176
vt 0.8138999938964844 0.07099997997283936
vt 0.7908999919891357 0.05769997835159302
vt 0.8057000041007996 0.09359997510910034
vt 0.7795000076293945 0.08899998664855957
vt 0.8057000041007996 0.11769998073577881
vt 0.7795000076293945 0.12230002880096436
vt 0.8138999938964844 0.1402999758720398
vt 0.7908999919891357 0.15359997749328613
vt 0.8292999863624573 0.15869998931884766
vt 0.8123000264167786 0.17909997701644897
vt 0.8501999974250793 0.17070001363754272
vt 0.8410999774932861 0.19569998979568481
vt 0.6044999957084656 0.011799991130828857
vt 0.574999988079071 0.07660001516342163
vt 0.6044999957084656 0.07660001516342163
vt 0.574999988079071 0.011799991130828857
vt 0.5421000123023987 0.011799991130828857
vt 0.5421000123023987 0.07660001516342163
vt 0.632099986076355 0.07660001516342163
vt 0.632099986076355 0.011900007724761963
vt 0.6596999764442444 0.011900007724761963
vt 0.659600019454956 0.07669997215270996
vt 0.6891999840736389 0.011900007724761963
vt 0.6891999840736389 0.07669997215270996
vt 0.722000002861023 0.07669997215270996
vt 0.722000002861023 0.011900007724761963
vt 0.738099992275238 0.09160000085830688
vt 0.7281000018119812 0.1087999939918518
vt 0.7281000018119812 0.08590000867843628
vt 0.738099992275238 0.1031000018119812
vt 0.7182000279426575 0.09160000085830688
vt 0.7182000279426575 0.1031000018119812

g tire_f_right
s 1
usemtl tire_f_right
f 3/3/3 2/2/2 1/1/1 
f 4/4/4 1/1/1 2/2/2 
f 2/2/2 3/3/3 5/5/5 
f 6/6/6 5/5/5 3/3/3 
f 3/3/3 1/1/1 6/6/6 
f 5/5/5 6/6/6 7/7/7 
f 8/8/8 7/7/7 6/6/6 
f 7/7/7 8/8/8 9/9/9 
f 10/10/10 9/9/9 8/8/8 
f 8/8/8 6/6/6 10/10/10 
f 9/9/9 10/10/10 11/11/11 
f 12/12/12 11/11/11 10/10/10 
f 11/11/11 12/12/12 13/13/13 
f 14/14/14 13/13/13 12/12/12 
f 12/12/12 10/10/10 14/14/14 
f 10/10/10 6/6/6 14/14/14 
f 13/13/13 14/14/14 15/15/15 
f 16/16/16 15/15/15 14/14/14 
f 15/15/15 16/16/16 17/17/17 
f 18/18/18 17/17/17 16/16/16 
f 16/16/16 14/14/14 18/18/18 
f 17/17/17 18/18/18 19/19/19 
f 20/20/20 19/19/19 18/18/18 
f 19/19/19 20/20/20 21/21/21 
f 22/22/22 21/21/21 20/20/20 
f 20/20/20 18/18/18 22/22/22 
f 18/18/18 14/14/14 22/22/22 
f 21/21/21 22/22/22 23/23/23 
f 24/24/24 23/23/23 22/22/22 
f 23/23/23 24/24/24 25/25/25 
f 26/26/26 25/25/25 24/24/24 
f 24/24/24 22/22/22 26/26/26 
f 25/25/25 26/26/26 27/27/27 
f 28/28/28 27/27/27 26/26/26 
f 27/27/27 28/28/28 29/29/29 
f 30/30/30 29/29/29 28/28/28 
f 28/28/28 26/26/26 30/30/30 
f 26/26/26 22/22/22 30/30/30 
f 29/29/29 30/30/30 31/31/31 
f 32/32/32 31/31/31 30/30/30 
f 31/31/31 32/32/32 33/33/33 
f 34/34/34 33/33/33 32/32/32 
f 32/32/32 30/30/30 34/34/34 
f 33/33/33 34/34/34 35/35/35 
f 36/36/36 35/35/35 34/34/34 
f 35/35/35 36/36/36 4/4/4 
f 1/1/1 4/4/4 36/36/36 
f 30/30/30 1/1/1 34/34/34 
f 34/34/34 1/1/1 36/36/36 
f 6/6/6 1/1/1 30/30/30 
f 22/22/22 6/6/6 30/30/30 
f 14/14/14 6/6/6 22/22/22 
f 39/39/39 38/38/38 37/37/37 
f 40/40/40 37/37/37 38/38/38 
f 38/38/38 39/39/39 41/41/41 
f 42/42/42 41/41/41 39/39/39 
f 37/37/37 40/40/40 43/43/43 
f 44/44/44 43/43/43 40/40/40 
f 43/43/43 44/44/44 45/45/45 
f 46/46/46 45/45/45 44/44/44 
f 49/49/49 48/48/48 47/47/47 
f 50/50/50 47/47/47 48/48/48 
f 48/48/48 49/49/49 51/51/51 
f 52/52/52 51/51/51 49/49/49 
f 51/51/51 52/52/52 53/53/53 
f 54/54/54 53/53/53 52/52/52 
f 53/53/53 54/54/54 55/55/55 
f 56/56/56 55/55/55 54/54/54 
f 55/55/55 56/56/56 57/57/57 
f 58/58/58 57/57/57 56/56/56 
f 61/61/61 60/60/60 59/59/59 
f 62/62/62 59/59/59 60/60/60 
f 60/60/60 61/61/61 63/63/63 
f 64/64/64 63/63/63 61/61/61 
f 63/63/63 64/64/64 65/65/65 
f 66/66/66 65/65/65 64/64/64 
f 65/65/65 66/66/66 67/67/67 
f 68/68/68 67/67/67 66/66/66 
f 71/71/71 70/70/70 69/69/69 
f 72/72/72 69/69/69 70/70/70 
f 70/70/70 71/71/71 73/73/73 
f 74/74/74 73/73/73 71/71/71 
f 73/73/73 74/74/74 75/75/75 
f 76/76/76 75/75/75 74/74/74 
f 75/75/75 76/76/76 77/77/77 
f 78/78/78 77/77/77 76/76/76 
f 77/77/77 78/78/78 79/79/79 
f 80/80/80 79/79/79 78/78/78 
f 83/83/83 82/82/82 81/81/81 
f 84/84/84 81/81/81 82/82/82 
f 82/82/82 83/83/83 85/85/85 
f 86/86/86 85/85/85 83/83/83 
f 85/85/85 86/86/86 87/87/87 
f 85/85/85 87/87/87 82/82/82 
f 88/88/88 87/87/87 86/86/86 
f 87/87/87 88/88/88 89/89/89 
f 90/90/90 89/89/89 88/88/88 
f 89/89/89 90/90/90 91/91/91 
f 89/89/89 91/91/91 87/87/87 
f 92/92/92 91/91/91 90/90/90 
f 91/91/91 92/92/92 93/93/93 
f 94/94/94 93/93/93 92/92/92 
f 93/93/93 94/94/94 95/95/95 
f 93/93/93 95/95/95 91/91/91 
f 91/91/91 95/95/95 87/87/87 
f 96/96/96 95/95/95 94/94/94 
f 95/95/95 96/96/96 97/97/97 
f 98/98/98 97/97/97 96/96/96 
f 97/97/97 98/98/98 99/99/99 
f 97/97/97 99/99/99 95/95/95 
f 100/100/100 99/99/99 98/98/98 
f 99/99/99 100/100/100 101/101/101 
f 102/102/102 101/101/101 100/100/100 
f 101/101/101 102/102/102 103/103/103 
f 101/101/101 103/103/103 99/99/99 
f 99/99/99 103/103/103 95/95/95 
f 104/104/104 103/103/103 102/102/102 
f 103/103/103 104/104/104 105/105/105 
f 106/106/106 105/105/105 104/104/104 
f 105/105/105 106/106/106 107/107/107 
f 105/105/105 107/107/107 103/103/103 
f 108/108/108 107/107/107 106/106/106 
f 107/107/107 108/108/108 109/109/109 
f 110/110/110 109/109/109 108/108/108 
f 109/109/109 110/110/110 111/111/111 
f 109/109/109 111/111/111 107/107/107 
f 107/107/107 111/111/111 103/103/103 
f 112/112/112 111/111/111 110/110/110 
f 111/111/111 112/112/112 113/113/113 
f 114/114/114 113/113/113 112/112/112 
f 113/113/113 114/114/114 115/115/115 
f 113/113/113 115/115/115 111/111/111 
f 116/116/116 115/115/115 114/114/114 
f 115/115/115 116/116/116 84/84/84 
f 81/81/81 84/84/84 116/116/116 
f 103/103/103 111/111/111 95/95/95 
f 95/95/95 111/111/111 87/87/87 
f 111/111/111 115/115/115 87/87/87 
f 87/87/87 115/115/115 82/82/82 
f 82/82/82 115/115/115 84/84/84 
f 119/119/119 118/118/118 117/117/117 
f 120/120/120 117/117/117 118/118/118 
f 120/120/120 118/118/118 121/121/121 
f 122/122/122 121/121/121 118/118/118 
f 119/119/119 117/117/117 123/123/123 
f 124/124/124 123/123/123 117/117/117 
f 124/124/124 125/125/125 123/123/123 
f 126/126/126 123/123/123 125/125/125 
f 125/125/125 127/127/127 126/126/126 
f 128/128/128 126/126/126 127/127/127 
f 128/128/128 127/127/127 129/129/129 
f 130/130/130 129/129/129 127/127/127 
f 133/133/133 132/132/132 131/131/131 
f 134/134/134 131/131/131 132/132/132 
f 133/133/133 135/135/135 132/132/132 
f 136/136/136 132/132/132 135/135/135 

