v 0.4607318043708801 -1.0346251726150513 1.0540579557418823
v 1.5 -1.0346251726150513 0.8650957345962524
v 0.4607318043708801 -1.0346251726150513 0.8650957345962524
v 1.5 -1.0346251726150513 1.0540579557418823
v 2.452282667160034 -1.0346251726150513 0.8650957942008972
v 2.452282667160034 -1.0346251726150513 1.0540579557418823
v 0.4607318043708801 0.0 1.0540579557418823
v 0.4607318043708801 -1.0346251726150513 0.8650957345962524
v 0.4607318043708801 0.0 0.8650957345962524
v 0.4607318043708801 -1.0346251726150513 1.0540579557418823
v 0.4607318043708801 1.0262584686279297 1.0540579557418823
v 0.4607318043708801 1.0262584686279297 0.8650957345962524
v 1.5 1.0262584686279297 1.0540579557418823
v 0.4607318043708801 1.0262584686279297 0.8650957345962524
v 1.5 1.0262584686279297 0.8650957345962524
v 0.4607318043708801 1.0262584686279297 1.0540579557418823
v 2.452282667160034 1.0262584686279297 1.0540579557418823
v 2.452282667160034 1.0262584686279297 0.8650957345962524
v 2.452282667160034 2.0 1.0540579557418823
v 2.452282667160034 1.0262584686279297 0.8650957345962524
v 2.452282667160034 2.0 0.8650957345962524
v 2.452282667160034 1.0262584686279297 1.0540579557418823
v 2.452282667160034 3.0 1.0540579557418823
v 2.452282667160034 3.0 0.8650957345962524
v 2.452282667160034 4.0 1.0540579557418823
v 2.452282667160034 3.0 0.8650957345962524
v 2.452282667160034 4.0 0.8650957345962524
v 2.452282667160034 3.0 1.0540579557418823
v 2.452282667160034 5.019999980926514 1.0540579557418823
v 2.452282667160034 5.019999980926514 0.8650957345962524
v -0.5 -2.9609086513519287 0.05405792221426964
v -1.4680224657058716 -2.9609086513519287 -0.10701382160186768
v -0.5 -2.9609086513519287 -0.10701382160186768
v -1.4680224657058716 -2.9609086513519287 0.05405791103839874
v 0.5 -2.9609086513519287 0.05405792221426964
v 0.5 -2.9609086513519287 -0.10701382160186768
v 1.5 -2.9609086513519287 0.05405792221426964
v 0.5 -2.9609086513519287 -0.10701382160186768
v 1.5 -2.9609086513519287 -0.10701382160186768
v 0.5 -2.9609086513519287 0.05405792221426964
v 2.452282667160034 -2.9609086513519287 -0.10701381415128708
v 2.452282667160034 -2.9609086513519287 0.05405792221426964
v 0.4607318043708801 0.0 1.0540579557418823
v 0.6645810008049011 -0.8320812582969666 1.0540579557418823
v 0.4607318043708801 -1.0346251726150513 1.0540579557418823
v 0.664581298828125 0.0 1.0540579557418823
v 0.4607318043708801 1.0262584686279297 1.0540579557418823
v 0.664581298828125 0.8320361375808716 1.0540579557418823
v 2.452282667160034 2.0 1.0540579557418823
v 2.6561317443847656 0.8320361375808716 1.0540579557418823
v 2.452282667160034 1.0262584686279297 1.0540579557418823
v 2.656132221221924 2.0 1.0540579557418823
v 2.452282667160034 3.0 1.0540579557418823
v 2.656132221221924 3.0 1.0540579557418823
v 2.452282667160034 4.0 1.0540579557418823
v 2.656132221221924 3.0 1.0540579557418823
v 2.452282667160034 3.0 1.0540579557418823
v 2.656132221221924 4.0 1.0540579557418823
v 2.452282667160034 5.019999980926514 1.0540579557418823
v 2.656132221221924 4.819999694824219 1.0540579557418823
v 2.452282667160034 -2.9609086513519287 0.05405792221426964
v 2.656132221221924 -2.9760537147521973 0.05405784398317337
v 2.656132221221924 -3.1551311016082764 0.05405792221426964
v -0.5 -2.9609086513519287 0.05405792221426964
v -1.6706265211105347 -3.1551311016082764 0.05405792221426964
v -1.4680224657058716 -2.9609086513519287 0.05405791103839874
v -0.5 -3.1551311016082764 0.05405792221426964
v 0.5 -2.9609086513519287 0.05405792221426964
v 0.5 -3.1551311016082764 0.05405792221426964
v 1.5 -2.9609086513519287 0.05405792221426964
v 0.5 -3.1551311016082764 0.05405792221426964
v 0.5 -2.9609086513519287 0.05405792221426964
v 1.5 -3.1551311016082764 0.05405792221426964
v 2.452282667160034 -2.9609086513519287 0.05405792221426964
v 2.656132221221924 -3.1551311016082764 0.05405792221426964
v 1.5 1.0262584686279297 1.0540579557418823
v 0.664581298828125 0.8320361375808716 1.0540579557418823
v 0.4607318043708801 1.0262584686279297 1.0540579557418823
v 1.5 0.8320361375808716 1.0540579557418823
v 2.452282667160034 1.0262584686279297 1.0540579557418823
v 2.6561317443847656 0.8320361375808716 1.0540579557418823
v 0.4607318043708801 -1.0346251726150513 1.0540579557418823
v 1.5 -0.8320812582969666 1.0540579557418823
v 1.5 -1.0346251726150513 1.0540579557418823
v 0.6645810008049011 -0.8320812582969666 1.0540579557418823
v 2.6561317443847656 -0.8320815563201904 1.0540579557418823
v 2.470964193344116 -1.0163439512252808 1.0540579557418823
v 2.452282667160034 -1.0346251726150513 1.0540579557418823
v 2.6561317443847656 -1.0163438320159912 1.0540578365325928
v -1.4680224657058716 -2.9609086513519287 0.05405791103839874
v -1.670626163482666 -2.0 0.05405792221426964
v -1.4680224657058716 -2.0 0.05405784398317337
v -1.6706265211105347 -3.1551311016082764 0.05405792221426964
v -1.670626163482666 -1.0 0.05405792221426964
v -1.4680224657058716 -1.0 0.05405784398317337
v -1.4680224657058716 -1.0 0.05405784398317337
v -1.670626163482666 0.0 0.05405792221426964
v -1.4680224657058716 0.0 0.05405784398317337
v -1.670626163482666 -1.0 0.05405792221426964
v -1.670626163482666 1.0 0.05405792221426964
v -1.4680224657058716 1.0 0.05405784398317337
v -1.4680224657058716 1.0 0.05405784398317337
v -1.670626163482666 2.140503406524658 -0.5090059638023376
v -1.4680224657058716 2.140503406524658 -0.5090060234069824
v -1.670626163482666 1.0 0.05405792221426964
v 2.6561317443847656 -1.0163438320159912 1.0540578365325928
v 2.452282667160034 -1.0346251726150513 1.0540579557418823
v 2.470964193344116 -1.0163439512252808 1.0540579557418823
v 2.6561317443847656 -1.0163438320159912 1.0540578365325928
v 2.452282667160034 -2.9609086513519287 0.05405792221426964
v 2.452282667160034 -1.0346251726150513 1.0540579557418823
v 2.6561317443847656 -1.0163438320159912 1.0540578365325928
v 2.656132221221924 -2.9760537147521973 0.05405784398317337
v 2.452282667160034 -2.9609086513519287 0.05405792221426964
v -0.5 -3.1551311016082764 0.05405792221426964
v -1.6706265211105347 -3.1551311016082764 0.00044342040200717747
v -1.6706265211105347 -3.1551311016082764 0.05405792221426964
v -0.5 -3.1551311016082764 0.00044342040200717747
v 0.5 -3.1551311016082764 0.05405792221426964
v 0.5 -3.1551311016082764 0.00044342040200717747
v 1.5 -3.1551311016082764 0.05405792221426964
v 0.5 -3.1551311016082764 0.00044342040200717747
v 0.5 -3.1551311016082764 0.05405792221426964
v 1.5 -3.1551311016082764 0.00044342040200717747
v 2.656132221221924 -3.1551311016082764 0.05405792221426964
v 2.656132221221924 -3.1551311016082764 0.00044342040200717747
v 1.5 0.8320361375808716 1.0540579557418823
v 0.664581298828125 0.8320361375808716 1.0004433393478394
v 0.664581298828125 0.8320361375808716 1.0540579557418823
v 1.5 0.8320361375808716 1.0004433393478394
v 2.6561317443847656 0.8320361375808716 1.0540579557418823
v 2.6561315059661865 0.8320361375808716 1.0004433393478394
v 0.6645810008049011 -0.8320812582969666 1.0540579557418823
v 1.5 -0.8320812582969666 1.0004433393478394
v 1.5 -0.8320812582969666 1.0540579557418823
v 0.6645807027816772 -0.8320812582969666 1.0004433393478394
v 2.6561317443847656 -0.8320815563201904 1.0004433393478394
v 2.6561317443847656 -0.8320815563201904 1.0540579557418823
v -1.6706265211105347 -3.1551311016082764 0.05405792221426964
v -1.670626163482666 -2.0 0.00044342040200717747
v -1.670626163482666 -2.0 0.05405792221426964
v -1.6706265211105347 -3.1551311016082764 0.00044342040200717747
v -1.670626163482666 -1.0 0.00044342040200717747
v -1.670626163482666 -1.0 0.05405792221426964
v -1.670626163482666 -1.0 0.05405792221426964
v -1.670626163482666 0.0 0.00044342040200717747
v -1.670626163482666 0.0 0.05405792221426964
v -1.670626163482666 -1.0 0.00044342040200717747
v -1.670626163482666 1.0 0.00044342040200717747
v -1.670626163482666 1.0 0.05405792221426964
v -1.670626163482666 1.0 0.05405792221426964
v -1.670626163482666 2.140503406524658 -0.5626758933067322
v -1.670626163482666 2.140503406524658 -0.5090059638023376
v -1.670626163482666 1.0 0.00044342040200717747
v -1.4680224657058716 2.140503406524658 -0.5627036690711975
v -1.670626163482666 2.140503406524658 -0.5090059638023376
v -1.670626163482666 2.140503406524658 -0.5626758933067322
v -1.4680224657058716 2.140503406524658 -0.5090060234069824
v 2.452282667160034 -2.9609086513519287 -0.10701381415128708
v 2.452282667160034 -1.0346251726150513 1.0540579557418823
v 2.452282667160034 -2.9609086513519287 0.05405792221426964
v 2.452282667160034 -1.0346251726150513 0.8650957942008972
v -1.4680224657058716 -2.9609086513519287 0.05405791103839874
v -1.4680224657058716 -2.0151453018188477 -0.10701394826173782
v -1.4680224657058716 -2.9760539531707764 -0.10701381415128708
v -1.4680224657058716 -2.0 0.05405784398317337
v -1.4680224657058716 -1.015145182609558 -0.10701394826173782
v -1.4680224657058716 -1.0 0.05405784398317337
v -1.4680224657058716 -1.0 0.05405784398317337
v -1.4680224657058716 -0.015145263634622097 -0.10701394826173782
v -1.4680224657058716 -1.015145182609558 -0.10701394826173782
v -1.4680224657058716 0.0 0.05405784398317337
v -1.4680224657058716 1.0026606321334839 -0.10701394826173782
v -1.4680224657058716 1.0 0.05405784398317337
v -1.4680224657058716 2.140503406524658 -0.5090060234069824
v -1.4680224657058716 1.0026606321334839 -0.10701394826173782
v -1.4680224657058716 1.0 0.05405784398317337
v -1.4680224657058716 1.961106777191162 -0.5626800060272217
v -1.4680224657058716 2.140503406524658 -0.5627036690711975
v 4.656131267547607 5.019999980926514 1.0540579557418823
v 2.452282667160034 5.019999980926514 0.8650957345962524
v 4.656131267547607 5.019999980926514 0.8650957345962524
v 2.452282667160034 5.019999980926514 1.0540579557418823
v 4.656131267547607 4.819999694824219 1.0540579557418823
v 2.452282667160034 5.019999980926514 1.0540579557418823
v 4.656131267547607 5.019999980926514 1.0540579557418823
v 2.656132221221924 4.819999694824219 1.0540579557418823
v 2.470964193344116 -2.9760539531707764 -1.0
v 2.470964193344116 -1.0163439512252808 0.8650957942008972
v 2.470964193344116 -2.9760539531707764 -0.10701381415128708
v 2.470964193344116 -1.0163439512252808 -0.9999998807907104
v 0.4794134497642517 -1.0163439512252808 -1.0
v 1.5 -1.0163439512252808 0.8650957345962524
v 1.5 -1.0163439512252808 -0.9999998807907104
v 0.4794134497642517 -1.0163439512252808 0.8650957345962524
v 2.470964193344116 -1.0163439512252808 0.8650957942008972
v 2.470964193344116 -1.0163439512252808 -0.9999998807907104
v 0.4794134497642517 0.0 -1.0
v 0.4794134497642517 -1.0163439512252808 0.8650957345962524
v 0.4794134497642517 -1.0163439512252808 -1.0
v 0.4794134497642517 0.0 0.8650957345962524
v 0.4794134497642517 1.0111132860183716 -1.0
v 0.4794134497642517 1.0111132860183716 0.8650957345962524
v 1.5 1.0111132860183716 -1.0
v 0.4794134497642517 1.0111132860183716 0.8650957345962524
v 0.4794134497642517 1.0111132860183716 -1.0
v 1.5 1.0111132860183716 0.8650957345962524
v 2.470964193344116 1.0111132860183716 -1.0
v 2.470964193344116 1.0111132860183716 0.8650957345962524
v 2.470964193344116 2.0 -1.0
v 2.470964193344116 1.0111132860183716 0.8650957345962524
v 2.470964193344116 1.0111132860183716 -1.0
v 2.470964193344116 2.0 0.8650957345962524
v 2.470964193344116 3.0 -1.0
v 2.470964193344116 3.0 0.8650957345962524
v 2.470964193344116 4.0 -1.0
v 2.470964193344116 4.0 0.8650957345962524
v 2.470964193344116 5.0 -1.0
v 2.470964193344116 5.0 0.8650957345962524
v -0.5 -2.9760539531707764 -1.0
v -1.476099967956543 -2.9760539531707764 -0.10701381415128708
v -1.476099967956543 -2.9760539531707764 -1.0
v -0.5 -2.9760539531707764 -0.10701382160186768
v 0.5 -2.9760539531707764 -1.0
v 0.5 -2.9760539531707764 -0.10701382160186768
v 1.5 -2.9760539531707764 -1.0
v 1.5 -2.9760539531707764 -0.10701382160186768
v 2.470964193344116 -2.9760539531707764 -1.0
v 2.470964193344116 -2.9760539531707764 -0.10701381415128708
v -1.6559386253356934 1.0 0.00044342040200717747
v -1.6559386253356934 2.117671489715576 -1.0000001192092896
v -1.6559386253356934 2.117671489715576 -0.5459336638450623
v -1.6559386253356934 1.0 -0.9999997019767761
v -1.476104974746704 2.117671489715576 -1.0
v -1.6559386253356934 2.117671489715576 -0.5459336638450623
v -1.6559386253356934 2.117671489715576 -1.0000001192092896
v -1.476104974746704 2.117671489715576 -0.545961320400238
v -1.4761024713516235 1.0 -0.10701190680265427
v -1.476104974746704 2.117671489715576 -1.0
v -1.4761024713516235 1.0 -0.9999997615814209
v -1.476104974746704 2.117671489715576 -0.545961320400238
v -1.476099967956543 -2.9760539531707764 -0.10701381415128708
v -1.476099967956543 -2.9760539531707764 -1.0
v 4.623851299285889 5.0 0.8650957942008972
v 2.470964193344116 5.0 -1.0
v 4.623851299285889 5.0 -1.0
v 2.470964193344116 5.0 0.8650957345962524
vn -0.0 -1.0 0.0
vn -0.0 -1.0 0.0
vn -0.0 -1.0 0.0
vn -0.0 -1.0 0.0
vn -0.0 -1.0 0.0
vn -0.0 -1.0 0.0
vn -1.0 0.0 0.0
vn -1.0 0.0 0.0
vn -1.0 0.0 0.0
vn -1.0 0.0 0.0
vn -1.0 0.0 0.0
vn -1.0 0.0 0.0
vn -0.0 1.0 0.0
vn -0.0 1.0 0.0
vn -0.0 1.0 0.0
vn -0.0 1.0 0.0
vn -0.0 1.0 0.0
vn -0.0 1.0 0.0
vn -1.0 0.0 0.0
vn -1.0 0.0 0.0
vn -1.0 0.0 0.0
vn -1.0 0.0 0.0
vn -1.0 0.0 0.0
vn -1.0 0.0 0.0
vn -1.0 0.0 0.0
vn -1.0 0.0 0.0
vn -1.0 0.0 0.0
vn -1.0 0.0 0.0
vn -1.0 0.0 0.0
vn -1.0 0.0 0.0
vn -0.0 1.0 0.0
vn -0.0 1.0 0.0
vn -0.0 1.0 0.0
vn -0.0 1.0 0.0
vn -0.0 1.0 0.0
vn -0.0 1.0 0.0
vn -0.0 1.0 0.0
vn -0.0 1.0 0.0
vn -0.0 1.0 0.0
vn -0.0 1.0 0.0
vn -0.0 1.0 0.0
vn -0.0 1.0 0.0
vn -0.0 0.0 1.0
vn -0.0 0.0 1.0
vn -0.0 0.0 1.0
vn -0.0 0.0 1.0
vn -0.0 0.0 1.0
vn -0.0 0.0 1.0
vn -0.0 0.0 1.0
vn -0.0 0.0 1.0
vn -0.0 0.0 1.0
vn -0.0 0.0 1.0
vn -0.0 0.0 1.0
vn -0.0 0.0 1.0
vn -0.0 0.0 1.0
vn -0.0 0.0 1.0
vn -0.0 0.0 1.0
vn -0.0 0.0 1.0
vn -0.0 0.0 1.0
vn -0.0 0.0 1.0
vn 4.0591856986793573e-07 4.2603886640790734e-07 1.0
vn 4.0591856986793573e-07 4.260388095644885e-07 1.0
vn 4.0591856986793573e-07 4.260388095644885e-07 1.0
vn -0.0 0.0 1.0
vn -0.0 0.0 1.0
vn -0.0 0.0 1.0
vn -0.0 0.0 1.0
vn -0.0 0.0 1.0
vn -0.0 0.0 1.0
vn -0.0 0.0 1.0
vn -0.0 0.0 1.0
vn -0.0 0.0 1.0
vn -0.0 0.0 1.0
vn -0.0 0.0 1.0
vn -0.0 0.0 1.0
vn -0.0 0.0 1.0
vn -0.0 0.0 1.0
vn -0.0 0.0 1.0
vn -0.0 0.0 1.0
vn -0.0 0.0 1.0
vn -0.0 0.0 1.0
vn -0.0 0.0 1.0
vn -0.0 0.0 1.0
vn -0.0 0.0 1.0
vn -0.0 0.0 1.0
vn -0.0 0.0 1.0
vn -0.0 0.0 1.0
vn -0.0 0.0 1.0
vn 4.1202693523700873e-07 -4.140509588523855e-07 1.0
vn 3.765672715871915e-07 0.0 1.0
vn 3.765672715871915e-07 0.0 1.0
vn 3.765672715871915e-07 0.0 1.0
vn -0.0 0.0 1.0
vn 3.765672715871915e-07 0.0 1.0
vn 3.765672715871915e-07 0.0 1.0
vn 3.765672715871915e-07 0.0 1.0
vn 3.765672715871915e-07 0.0 1.0
vn 3.765672715871915e-07 0.0 1.0
vn 3.765672715871915e-07 0.0 1.0
vn 3.765672715871915e-07 0.0 1.0
vn 3.765672715871915e-07 0.0 1.0
vn 3.3765891771508905e-07 0.44268691539764404 0.896676242351532
vn 3.3765891771508905e-07 0.44268694519996643 0.896676242351532
vn 3.3765891771508905e-07 0.44268694519996643 0.896676242351532
vn 3.3765891771508905e-07 0.44268694519996643 0.896676242351532
vn 4.120269068152993e-07 -4.2105097008970915e-07 1.0
vn 4.120269068152993e-07 -4.210509985114186e-07 1.0
vn 4.120269068152993e-07 -4.210509985114186e-07 1.0
vn 0.0412854366004467 -0.4603549838066101 0.8867743611335754
vn 0.0412854328751564 -0.4603549838066101 0.8867743611335754
vn 0.0412854366004467 -0.4603549838066101 0.8867743611335754
vn -0.03374917805194855 -0.4542648196220398 0.8902272582054138
vn -0.03374917805194855 -0.454264760017395 0.8902272582054138
vn -0.03374917432665825 -0.4542648196220398 0.890227198600769
vn -0.0 -1.0 0.0
vn -0.0 -1.0 0.0
vn -0.0 -1.0 0.0
vn -0.0 -1.0 0.0
vn -0.0 -1.0 0.0
vn -0.0 -1.0 0.0
vn -0.0 -1.0 0.0
vn -0.0 -1.0 0.0
vn -0.0 -1.0 0.0
vn -0.0 -1.0 0.0
vn -0.0 -1.0 0.0
vn -0.0 -1.0 0.0
vn -0.0 -1.0 0.0
vn -0.0 -1.0 0.0
vn -0.0 -1.0 0.0
vn -0.0 -1.0 0.0
vn -0.0 -1.0 0.0
vn -0.0 -1.0 0.0
vn -0.0 1.0 0.0
vn -0.0 1.0 0.0
vn -0.0 1.0 0.0
vn -0.0 1.0 0.0
vn 2.639627609823947e-07 1.0 0.0
vn 2.639627609823947e-07 1.0 0.0
vn -1.0 2.641914420564717e-07 0.0
vn -1.0 2.641914420564717e-07 0.0
vn -1.0 2.641914420564717e-07 0.0
vn -1.0 2.641914420564717e-07 0.0
vn -1.0 0.0 0.0
vn -1.0 0.0 0.0
vn -1.0 0.0 0.0
vn -1.0 0.0 0.0
vn -1.0 0.0 0.0
vn -1.0 0.0 0.0
vn -1.0 0.0 0.0
vn -1.0 0.0 0.0
vn -1.0 0.0 0.0
vn -1.0 0.0 0.0
vn -1.0 0.0 0.0
vn -1.0 0.0 0.0
vn -0.0 1.0 0.0
vn -0.0 1.0 0.0
vn -0.0 1.0 0.0
vn -0.0 1.0 0.0
vn -1.0 0.0 0.0
vn -1.0 0.0 0.0
vn -1.0 0.0 0.0
vn -1.0 0.0 0.0
vn 1.0 0.0 0.0
vn 1.0 0.0 0.0
vn 1.0 0.0 0.0
vn 1.0 0.0 0.0
vn 1.0 0.0 0.0
vn 1.0 0.0 0.0
vn 1.0 0.0 0.0
vn 1.0 0.0 0.0
vn 1.0 0.0 0.0
vn 1.0 0.0 0.0
vn 1.0 0.0 0.0
vn 1.0 0.0 0.0
vn 1.0 0.0 0.0
vn 1.0 0.0 0.0
vn 1.0 0.0 0.0
vn 1.0 0.0 0.0
vn 1.0 0.0 0.0
vn -0.0 1.0 0.0
vn -0.0 1.0 0.0
vn -0.0 1.0 0.0
vn -0.0 1.0 0.0
vn -0.0 0.0 1.0
vn -0.0 0.0 1.0
vn -0.0 0.0 1.0
vn -0.0 0.0 1.0
vn -1.0 0.0 0.0
vn -1.0 0.0 0.0
vn -1.0 0.0 0.0
vn -1.0 0.0 0.0
vn -0.0 -1.0 0.0
vn -0.0 -1.0 0.0
vn -0.0 -1.0 0.0
vn -0.0 -1.0 0.0
vn -0.0 -1.0 0.0
vn -0.0 -1.0 0.0
vn -1.0 0.0 0.0
vn -1.0 0.0 0.0
vn -1.0 0.0 0.0
vn -1.0 0.0 0.0
vn -1.0 0.0 0.0
vn -1.0 0.0 0.0
vn -0.0 1.0 0.0
vn -0.0 1.0 0.0
vn -0.0 1.0 0.0
vn -0.0 1.0 0.0
vn -0.0 1.0 0.0
vn -0.0 1.0 0.0
vn -1.0 0.0 0.0
vn -1.0 0.0 0.0
vn -1.0 0.0 0.0
vn -1.0 0.0 0.0
vn -1.0 0.0 0.0
vn -1.0 0.0 0.0
vn -1.0 0.0 0.0
vn -1.0 0.0 0.0
vn -1.0 0.0 0.0
vn -1.0 0.0 0.0
vn -0.0 1.0 0.0
vn -0.0 1.0 0.0
vn -0.0 1.0 0.0
vn -0.0 1.0 0.0
vn -0.0 1.0 0.0
vn -0.0 1.0 0.0
vn -0.0 1.0 0.0
vn -0.0 1.0 0.0
vn -0.0 1.0 0.0
vn -0.0 1.0 0.0
vn -1.0 0.0 0.0
vn -1.0 0.0 0.0
vn -1.0 0.0 0.0
vn -1.0 0.0 0.0
vn -0.0 1.0 0.0
vn -0.0 1.0 0.0
vn -0.0 1.0 0.0
vn -0.0 1.0 0.0
vn 1.0 2.3208913262351416e-06 0.0
vn 1.0 2.3208913262351416e-06 0.0
vn 1.0 2.320891553608817e-06 0.0
vn 1.0 2.3208913262351416e-06 0.0
vn 1.0 6.140273853816325e-07 0.0
vn 1.0 6.140274422250513e-07 0.0
vn -0.0 1.0 0.0
vn -0.0 1.0 0.0
vn -0.0 1.0 0.0
vn -0.0 1.0 0.0
vt 0.9189143180847168 0.5393477082252502
vt 0.6845274567604065 0.5028951168060303
vt 0.9189143180847168 0.5028951168060303
vt 0.6845274567604065 0.5393477082252502
vt 0.45014065504074097 0.5028951168060303
vt 0.45014065504074097 0.5393477082252502
vt 0.7320731282234192 0.5393477082252502
vt 0.5131171941757202 0.5028951168060303
vt 0.7320731282234192 0.5028951168060303
vt 0.5131171941757202 0.5393477082252502
vt 0.9510291218757629 0.5393477082252502
vt 0.9510291218757629 0.5028951168060303
vt 0.6135605573654175 0.5393477082252502
vt 0.398078590631485 0.5028951168060303
vt 0.6135605573654175 0.5028951168060303
vt 0.398078590631485 0.5393477082252502
vt 0.8290425539016724 0.5393477082252502
vt 0.8290425539016724 0.5028951168060303
vt 0.8153692483901978 0.5393477082252502
vt 0.6327386498451233 0.5028951168060303
vt 0.8153692483901978 0.5028951168060303
vt 0.6327385306358337 0.5393477082252502
vt 0.9979997873306274 0.5393477082252502
vt 0.9979997873306274 0.5028951168060303
vt 0.5360960960388184 0.5393477082252502
vt 0.3136809468269348 0.5028951168060303
vt 0.5360960960388184 0.5028951168060303
vt 0.3136809468269348 0.5393477082252502
vt 0.7585113048553467 0.5393477082252502
vt 0.7585113048553467 0.5028951168060303
vt 0.6787190437316895 0.5393477082252502
vt 0.45096221566200256 0.5028951168060303
vt 0.6787190437316895 0.5028951168060303
vt 0.45096221566200256 0.5393477082252502
vt 0.9064759016036987 0.5393477082252502
vt 0.9064759016036987 0.5028951168060303
vt 0.660602331161499 0.5393477082252502
vt 0.4480002522468567 0.5028951168060303
vt 0.660602331161499 0.5028951168060303
vt 0.4480002522468567 0.5393477082252502
vt 0.8736748099327087 0.5028951168060303
vt 0.8736748099327087 0.5393477082252502
vt 0.7320731282234192 0.5393477082252502
vt 0.553462564945221 0.5698010325431824
vt 0.5131171941757202 0.5393477082252502
vt 0.7320731282234192 0.5698010325431824
vt 0.9510291218757629 0.5393477082252502
vt 0.9118191003799438 0.5698010325431824
vt 0.8153692483901978 0.5393477082252502
vt 0.6000335812568665 0.5698010325431824
vt 0.6327385306358337 0.5393477082252502
vt 0.8153692483901978 0.5698010325431824
vt 0.9979997873306274 0.5393477082252502
vt 0.9979997873306274 0.5698010325431824
vt 0.5360960960388184 0.5393477082252502
vt 0.3136809468269348 0.5698010325431824
vt 0.3136809468269348 0.5393477082252502
vt 0.5360960960388184 0.5698010325431824
vt 0.7585113048553467 0.5393477082252502
vt 0.7153477072715759 0.5698010325431824
vt 0.8734588623046875 0.5393477082252502
vt 0.9136665463447571 0.5393477082252502
vt 0.9136665463447571 0.5698010325431824
vt 0.6787190437316895 0.5393477082252502
vt 0.40816307067871094 0.5698010325431824
vt 0.45096221566200256 0.5393477082252502
vt 0.678719162940979 0.5698010325431824
vt 0.9064759016036987 0.5393477082252502
vt 0.9064759016036987 0.5698010325431824
vt 0.6610727310180664 0.5393477082252502
vt 0.4484706521034241 0.5698010325431824
vt 0.44847068190574646 0.5393477082252502
vt 0.6610726118087769 0.5698010325431824
vt 0.8736748099327087 0.5393477082252502
vt 0.9136665463447571 0.5698010325431824
vt 0.6135605573654175 0.5393477082252502
vt 0.43797895312309265 0.5698010325431824
vt 0.398078590631485 0.5393477082252502
vt 0.6135605573654175 0.5698010325431824
vt 0.8290425539016724 0.5393477082252502
vt 0.8689427971839905 0.5698010325431824
vt 0.9189143180847168 0.5393477082252502
vt 0.6845274567604065 0.5698010325431824
vt 0.6845274567604065 0.5393477082252502
vt 0.8755135536193848 0.5698010325431824
vt 0.40673983097076416 0.5698010325431824
vt 0.45014065504074097 0.5393477082252502
vt 0.45014065504074097 0.5393477082252502
vt 0.40673983097076416 0.5393477082252502
vt 0.8980939984321594 0.5393477082252502
vt 0.6789378523826599 0.5698010325431824
vt 0.6789378523826599 0.5393477082252502
vt 0.9396397471427917 0.5698010325431824
vt 0.43966057896614075 0.5698010325431824
vt 0.43966057896614075 0.5393477082252502
vt 0.9303072690963745 0.5393477082252502
vt 0.6910299062728882 0.5698010325431824
vt 0.6910299062728882 0.5393477082252502
vt 0.9303072690963745 0.5698010325431824
vt 0.4517526924610138 0.5698010325431824
vt 0.4517526924610138 0.5393477082252502
vt 0.8622540235519409 0.5393477082252502
vt 0.5152081251144409 0.5698010325431824
vt 0.5152081251144409 0.5393477082252502
vt 0.8622540235519409 0.5698010325431824
vt 0.996193528175354 0.5698010325431824
vt 0.9961936473846436 0.5393477082252502
vt 0.9961936473846436 0.5393477082252502
vt 0.996193528175354 0.5698010325431824
vt 0.5279679894447327 0.5393477082252502
vt 0.9961936473846436 0.5393477082252502
vt 0.996193528175354 0.5698010325431824
vt 0.5279680490493774 0.5698010325431824
vt 0.5279679894447327 0.5393477082252502
vt 0.678719162940979 0.5698010325431824
vt 0.40816307067871094 0.5769299864768982
vt 0.40816307067871094 0.5698010325431824
vt 0.678719162940979 0.5769299864768982
vt 0.9064759016036987 0.5698010325431824
vt 0.9064759016036987 0.5769299864768982
vt 0.6610726118087769 0.5698010325431824
vt 0.4484706521034241 0.5769299864768982
vt 0.4484706521034241 0.5698010325431824
vt 0.6610726118087769 0.5769299864768982
vt 0.9136665463447571 0.5698010325431824
vt 0.9136665463447571 0.5769299864768982
vt 0.6135605573654175 0.5698010325431824
vt 0.43797895312309265 0.5769299864768982
vt 0.43797895312309265 0.5698010325431824
vt 0.6135605573654175 0.5769299864768982
vt 0.8689427971839905 0.5698010325431824
vt 0.8689427971839905 0.5769299864768982
vt 0.8755135536193848 0.5698010325431824
vt 0.6845274567604065 0.5769299864768982
vt 0.6845274567604065 0.5698010325431824
vt 0.8755135536193848 0.5769299864768982
vt 0.40673983097076416 0.5769299864768982
vt 0.40673983097076416 0.5698010325431824
vt 0.9396397471427917 0.5698010325431824
vt 0.6789378523826599 0.5769299864768982
vt 0.6789378523826599 0.5698010325431824
vt 0.9396397471427917 0.5769299864768982
vt 0.43966057896614075 0.5769299864768982
vt 0.43966057896614075 0.5698010325431824
vt 0.9303072690963745 0.5698010325431824
vt 0.6910299062728882 0.5769299864768982
vt 0.6910299062728882 0.5698010325431824
vt 0.9303072690963745 0.5769299864768982
vt 0.4517526924610138 0.5769299864768982
vt 0.4517526924610138 0.5698010325431824
vt 0.8622540235519409 0.5698010325431824
vt 0.5092165470123291 0.5769299864768982
vt 0.5152081251144409 0.5698010325431824
vt 0.8562624454498291 0.5769299864768982
vt 0.6206262111663818 0.5772122144699097
vt 0.659407913684845 0.5701200664043427
vt 0.659407913684845 0.5772018730640411
vt 0.6206262111663818 0.5701200664043427
vt 0.5143548846244812 0.5028951168060303
vt 0.9961936473846436 0.5393477082252502
vt 0.5279679894447327 0.5393477082252502
vt 0.9799687266349792 0.5028951168060303
vt 0.9396397471427917 0.5025967359542847
vt 0.6789378523826599 0.5356303453445435
vt 0.9396397471427917 0.5356303453445435
vt 0.6789378523826599 0.5025967359542847
vt 0.43966057896614075 0.5356303453445435
vt 0.43966057896614075 0.5025967359542847
vt 0.9303072690963745 0.5025967359542847
vt 0.6910299062728882 0.5356303453445435
vt 0.9303072690963745 0.5356303453445435
vt 0.6910299062728882 0.5025967359542847
vt 0.4517526924610138 0.5356303453445435
vt 0.4517526924610138 0.5025967359542847
vt 0.5152081251144409 0.5025967359542847
vt 0.8562624454498291 0.5356303453445435
vt 0.8622540235519409 0.5025967359542847
vt 0.5602447986602783 0.5356303453445435
vt 0.5092165470123291 0.5356303453445435
vt 0.943230152130127 0.5363625884056091
vt 0.3828689157962799 0.5042349398136139
vt 0.943230152130127 0.5042350590229034
vt 0.3828689157962799 0.5363625288009644
vt 0.943230152130127 0.5708445310592651
vt 0.3828689157962799 0.5363625288009644
vt 0.943230152130127 0.5363625884056091
vt 0.43470069766044617 0.5708444714546204
vt 2.4940133094787598 0.9662739038467407
vt 1.5141584873199463 0.0337260365486145
vt 2.4940133094787598 0.5197808146476746
vt 1.5141584873199463 0.966273844242096
vt -0.002271890640258789 0.9662739038467407
vt 0.5080214142799377 0.0337260365486145
vt 0.5080214142799377 0.966273844242096
vt -0.002271890640258789 0.0337260365486145
vt 0.9935035109519958 0.0337260365486145
vt 0.9935035109519958 0.966273844242096
vt 1.005986213684082 0.9662739038467407
vt 1.5141582489013672 0.0337260365486145
vt 1.5141582489013672 0.9662739038467407
vt 1.005986213684082 0.0337260365486145
vt 0.5004295706748962 0.9662739038467407
vt 0.5004295706748962 0.0337260365486145
vt 0.49197834730148315 0.9662739038467407
vt 1.0022716522216797 0.0337260365486145
vt 1.0022716522216797 0.9662739038467407
vt 0.49197834730148315 0.0337260365486145
vt 0.006496250629425049 0.9662739038467407
vt 0.006496250629425049 0.0337260365486145
vt 0.005986452102661133 0.9662739038467407
vt 0.5004298090934753 0.0337260365486145
vt 0.5004298090934753 0.9662739038467407
vt 0.005986452102661133 0.0337260365486145
vt -0.49401354789733887 0.9662739038467407
vt -0.49401354789733887 0.0337260365486145
vt -0.9940135478973389 0.9662739038467407
vt -0.9940135478973389 0.0337260365486145
vt -1.4940135478973389 0.9662739038467407
vt -1.4940135478973389 0.0337260365486145
vt 1.4919788837432861 0.9662739038467407
vt 1.9800288677215576 0.5197808146476746
vt 1.9800288677215576 0.9662739038467407
vt 1.4919788837432861 0.5197808146476746
vt 0.9919788241386414 0.9662739038467407
vt 0.9919788241386414 0.5197808146476746
vt 0.49197882413864136 0.9662739038467407
vt 0.49197882413864136 0.5197808146476746
vt 0.006496727466583252 0.9662739038467407
vt 0.006496727466583252 0.5197808146476746
vt 0.5059859752655029 0.46605223417282104
vt -0.052849769592285156 0.9662739634513855
vt -0.052849769592285156 0.7392407655715942
vt 0.5059859752655029 0.9662737846374512
vt 1.9800307750701904 0.9662739038467407
vt 2.0699474811553955 0.7392407655715942
vt 2.0699474811553955 0.9662739634513855
vt 1.9800307750701904 0.7392545938491821
vt 0.49401402473449707 0.5197798609733582
vt 1.0528497695922852 0.9662739038467407
vt 0.49401402473449707 0.9662737846374512
vt 1.0528497695922852 0.7392545938491821
vt -1.4940130710601807 0.5197808146476746
vt -1.4940130710601807 0.9662739038467407
vt -1.0699479579925537 0.0337260365486145
vt 0.006495773792266846 0.9662739038467407
vt -1.0699479579925537 0.9662739038467407
vt 0.006495773792266846 0.0337260365486145

g bg_mdl_bt_wall01_both
s 1
usemtl bg_mdl_bt_wall01_both_0
f 3/3/3 2/2/2 1/1/1 
f 4/4/4 1/1/1 2/2/2 
f 2/2/2 5/5/5 4/4/4 
f 6/6/6 4/4/4 5/5/5 
f 9/9/9 8/8/8 7/7/7 
f 10/10/10 7/7/7 8/8/8 
f 7/7/7 11/11/11 9/9/9 
f 12/12/12 9/9/9 11/11/11 
f 15/15/15 14/14/14 13/13/13 
f 16/16/16 13/13/13 14/14/14 
f 13/13/13 17/17/17 15/15/15 
f 18/18/18 15/15/15 17/17/17 
f 21/21/21 20/20/20 19/19/19 
f 22/22/22 19/19/19 20/20/20 
f 19/19/19 23/23/23 21/21/21 
f 24/24/24 21/21/21 23/23/23 
f 27/27/27 26/26/26 25/25/25 
f 28/28/28 25/25/25 26/26/26 
f 25/25/25 29/29/29 27/27/27 
f 30/30/30 27/27/27 29/29/29 
f 33/33/33 32/32/32 31/31/31 
f 34/34/34 31/31/31 32/32/32 
f 31/31/31 35/35/35 33/33/33 
f 36/36/36 33/33/33 35/35/35 
f 39/39/39 38/38/38 37/37/37 
f 40/40/40 37/37/37 38/38/38 
f 39/39/39 37/37/37 41/41/41 
f 42/42/42 41/41/41 37/37/37 
f 45/45/45 44/44/44 43/43/43 
f 46/46/46 43/43/43 44/44/44 
f 43/43/43 46/46/46 47/47/47 
f 48/48/48 47/47/47 46/46/46 
f 51/51/51 50/50/50 49/49/49 
f 52/52/52 49/49/49 50/50/50 
f 49/49/49 52/52/52 53/53/53 
f 54/54/54 53/53/53 52/52/52 
f 57/57/57 56/56/56 55/55/55 
f 58/58/58 55/55/55 56/56/56 
f 55/55/55 58/58/58 59/59/59 
f 60/60/60 59/59/59 58/58/58 
f 63/63/63 62/62/62 61/61/61 
f 66/66/66 65/65/65 64/64/64 
f 67/67/67 64/64/64 65/65/65 
f 64/64/64 67/67/67 68/68/68 
f 69/69/69 68/68/68 67/67/67 
f 72/72/72 71/71/71 70/70/70 
f 73/73/73 70/70/70 71/71/71 
f 70/70/70 73/73/73 74/74/74 
f 75/75/75 74/74/74 73/73/73 
f 78/78/78 77/77/77 76/76/76 
f 79/79/79 76/76/76 77/77/77 
f 76/76/76 79/79/79 80/80/80 
f 81/81/81 80/80/80 79/79/79 
f 84/84/84 83/83/83 82/82/82 
f 85/85/85 82/82/82 83/83/83 
f 86/86/86 83/83/83 84/84/84 
f 87/87/87 86/86/86 84/84/84 
f 88/88/88 87/87/87 84/84/84 
f 86/86/86 87/87/87 89/89/89 
f 92/92/92 91/91/91 90/90/90 
f 93/93/93 90/90/90 91/91/91 
f 91/91/91 92/92/92 94/94/94 
f 95/95/95 94/94/94 92/92/92 
f 98/98/98 97/97/97 96/96/96 
f 99/99/99 96/96/96 97/97/97 
f 97/97/97 98/98/98 100/100/100 
f 101/101/101 100/100/100 98/98/98 
f 104/104/104 103/103/103 102/102/102 
f 105/105/105 102/102/102 103/103/103 
f 108/108/108 107/107/107 106/106/106 
f 111/111/111 110/110/110 109/109/109 
f 114/114/114 113/113/113 112/112/112 
f 117/117/117 116/116/116 115/115/115 
f 118/118/118 115/115/115 116/116/116 
f 115/115/115 118/118/118 119/119/119 
f 120/120/120 119/119/119 118/118/118 
f 123/123/123 122/122/122 121/121/121 
f 124/124/124 121/121/121 122/122/122 
f 121/121/121 124/124/124 125/125/125 
f 126/126/126 125/125/125 124/124/124 
f 129/129/129 128/128/128 127/127/127 
f 130/130/130 127/127/127 128/128/128 
f 127/127/127 130/130/130 131/131/131 
f 132/132/132 131/131/131 130/130/130 
f 135/135/135 134/134/134 133/133/133 
f 136/136/136 133/133/133 134/134/134 
f 134/134/134 135/135/135 137/137/137 
f 138/138/138 137/137/137 135/135/135 
f 141/141/141 140/140/140 139/139/139 
f 142/142/142 139/139/139 140/140/140 
f 140/140/140 141/141/141 143/143/143 
f 144/144/144 143/143/143 141/141/141 
f 147/147/147 146/146/146 145/145/145 
f 148/148/148 145/145/145 146/146/146 
f 146/146/146 147/147/147 149/149/149 
f 150/150/150 149/149/149 147/147/147 
f 153/153/153 152/152/152 151/151/151 
f 154/154/154 151/151/151 152/152/152 
f 157/157/157 156/156/156 155/155/155 
f 158/158/158 155/155/155 156/156/156 
f 161/161/161 160/160/160 159/159/159 
f 162/162/162 159/159/159 160/160/160 
f 165/165/165 164/164/164 163/163/163 
f 166/166/166 163/163/163 164/164/164 
f 164/164/164 167/167/167 166/166/166 
f 168/168/168 166/166/166 167/167/167 
f 171/171/171 170/170/170 169/169/169 
f 172/172/172 169/169/169 170/170/170 
f 170/170/170 173/173/173 172/172/172 
f 174/174/174 172/172/172 173/173/173 
f 177/177/177 176/176/176 175/175/175 
f 178/178/178 175/175/175 176/176/176 
f 179/179/179 175/175/175 178/178/178 
f 182/182/182 181/181/181 180/180/180 
f 183/183/183 180/180/180 181/181/181 
f 186/186/186 185/185/185 184/184/184 
f 187/187/187 184/184/184 185/185/185 

usemtl bg_mdl_bt_wall01_both_1
f 190/190/190 189/189/189 188/188/188 
f 191/191/191 188/188/188 189/189/189 
f 194/194/194 193/193/193 192/192/192 
f 195/195/195 192/192/192 193/193/193 
f 193/193/193 194/194/194 196/196/196 
f 197/197/197 196/196/196 194/194/194 
f 200/200/200 199/199/199 198/198/198 
f 201/201/201 198/198/198 199/199/199 
f 198/198/198 201/201/201 202/202/202 
f 203/203/203 202/202/202 201/201/201 
f 206/206/206 205/205/205 204/204/204 
f 207/207/207 204/204/204 205/205/205 
f 204/204/204 207/207/207 208/208/208 
f 209/209/209 208/208/208 207/207/207 
f 212/212/212 211/211/211 210/210/210 
f 213/213/213 210/210/210 211/211/211 
f 210/210/210 213/213/213 214/214/214 
f 215/215/215 214/214/214 213/213/213 
f 214/214/214 215/215/215 216/216/216 
f 217/217/217 216/216/216 215/215/215 
f 216/216/216 217/217/217 218/218/218 
f 219/219/219 218/218/218 217/217/217 
f 222/222/222 221/221/221 220/220/220 
f 223/223/223 220/220/220 221/221/221 
f 220/220/220 223/223/223 224/224/224 
f 225/225/225 224/224/224 223/223/223 
f 224/224/224 225/225/225 226/226/226 
f 227/227/227 226/226/226 225/225/225 
f 226/226/226 227/227/227 228/228/228 
f 229/229/229 228/228/228 227/227/227 
f 232/232/232 231/231/231 230/230/230 
f 233/233/233 230/230/230 231/231/231 
f 236/236/236 235/235/235 234/234/234 
f 237/237/237 234/234/234 235/235/235 
f 240/240/240 239/239/239 238/238/238 
f 241/241/241 238/238/238 239/239/239 
f 238/238/238 242/242/242 240/240/240 
f 243/243/243 240/240/240 242/242/242 
f 246/246/246 245/245/245 244/244/244 
f 247/247/247 244/244/244 245/245/245 

