v 0.1206413209438324 -4.577636616431846e-07 1.9088143110275269
v 0.1206413209438324 0.9999997019767761 2.0353832244873047
v 0.1206413209438324 0.9999997019767761 1.9088140726089478
v 0.1206413209438324 -4.577636616431846e-07 2.0353832244873047
v 0.1206413209438324 -4.577636616431846e-07 2.0353832244873047
v -0.12064208835363388 0.9999997019767761 2.0353832244873047
v 0.1206413209438324 0.9999997019767761 2.0353832244873047
v -0.12064208835363388 -4.577636616431846e-07 2.0353832244873047
v -0.12064208835363388 -3.433227391269611e-07 0.08816733956336975
v -0.12064208835363388 0.9999998211860657 0.0
v -0.12064208835363388 0.9999998211860657 0.08816741406917572
v -0.12064208835363388 -3.433227391269611e-07 0.0
v 0.1206413209438324 -3.433227391269611e-07 0.0
v 0.1206413209438324 0.9999998211860657 0.08816741406917572
v 0.1206413209438324 0.9999998211860657 0.0
v 0.1206413209438324 -3.433227391269611e-07 0.08816733956336975
v -0.08064208924770355 -4.1961669694501325e-07 1.9088140726089478
v -0.08064208924770355 0.9999998211860657 0.08816741406917572
v -0.08064208924770355 0.9999997019767761 1.9088143110275269
v -0.08064208924770355 -3.433227391269611e-07 0.08816733956336975
v 0.08064132183790207 0.9999998211860657 0.08816741406917572
v 0.1206413209438324 2.0 0.08816741406917572
v 0.1206413209438324 0.9999998211860657 0.08816741406917572
v 0.08064132183790207 2.0 0.08816741406917572
v -0.08064208924770355 0.9999998211860657 0.08816741406917572
v -0.12064208835363388 -3.433227391269611e-07 0.08816733956336975
v -0.12064208835363388 0.9999998211860657 0.08816741406917572
v -0.08064208924770355 -3.433227391269611e-07 0.08816733956336975
v 0.08064132183790207 2.0 0.08816741406917572
v 0.08064132183790207 0.9999997019767761 1.9088140726089478
v 0.08064132183790207 1.999999761581421 1.9088140726089478
v 0.08064132183790207 0.9999998211860657 0.08816741406917572
v 0.1206413209438324 1.999999761581421 2.0353832244873047
v -0.12064208835363388 0.9999997019767761 2.0353832244873047
v -0.12064208835363388 1.999999761581421 2.0353832244873047
v 0.1206413209438324 0.9999997019767761 2.0353832244873047
v -0.12064208835363388 2.0 0.08816741406917572
v -0.12064208835363388 0.9999998211860657 0.0
v -0.12064208835363388 2.0 0.0
v -0.12064208835363388 0.9999998211860657 0.08816741406917572
v 0.1206413209438324 2.0 0.0
v 0.1206413209438324 0.9999998211860657 0.08816741406917572
v 0.1206413209438324 2.0 0.08816741406917572
v 0.1206413209438324 0.9999998211860657 0.0
v -0.12064208835363388 1.999999761581421 2.0353832244873047
v -0.12064208835363388 0.9999997019767761 1.9088143110275269
v -0.12064208835363388 1.999999761581421 1.9088143110275269
v -0.12064208835363388 0.9999997019767761 2.0353832244873047
v 0.08064132183790207 -3.433227391269611e-07 0.08816733956336975
v 0.1206413209438324 0.9999998211860657 0.08816741406917572
v 0.1206413209438324 -3.433227391269611e-07 0.08816733956336975
v 0.08064132183790207 0.9999998211860657 0.08816741406917572
v -0.08064208924770355 2.0 0.08816741406917572
v -0.12064208835363388 0.9999998211860657 0.08816741406917572
v -0.12064208835363388 2.0 0.08816741406917572
v -0.08064208924770355 0.9999998211860657 0.08816741406917572
v 0.08064132183790207 -3.433227391269611e-07 0.08816733956336975
v 0.08064132183790207 0.9999997019767761 1.9088140726089478
v 0.08064132183790207 0.9999998211860657 0.08816741406917572
v 0.08064132183790207 -4.1961669694501325e-07 1.9088143110275269
v -0.12064208835363388 -4.577636616431846e-07 2.0353832244873047
v -0.12064208835363388 0.9999997019767761 1.9088143110275269
v -0.12064208835363388 0.9999997019767761 2.0353832244873047
v -0.12064208835363388 -4.577636616431846e-07 1.9088140726089478
v 0.1206413209438324 1.999999761581421 2.0353832244873047
v 0.1206413209438324 0.9999997019767761 1.9088140726089478
v 0.1206413209438324 0.9999997019767761 2.0353832244873047
v 0.1206413209438324 1.999999761581421 1.9088140726089478
v -0.08064208924770355 2.0 0.08816741406917572
v -0.08064208924770355 0.9999997019767761 1.9088143110275269
v -0.08064208924770355 0.9999998211860657 0.08816741406917572
v -0.08064208924770355 1.999999761581421 1.9088143110275269
vn 1.0 0.0 0.0
vn 1.0 0.0 0.0
vn 1.0 0.0 0.0
vn 1.0 0.0 0.0
vn -0.0 0.0 1.0
vn -0.0 0.0 1.0
vn -0.0 0.0 1.0
vn -0.0 0.0 1.0
vn -1.0 0.0 0.0
vn -1.0 0.0 0.0
vn -1.0 0.0 0.0
vn -1.0 0.0 0.0
vn 1.0 0.0 0.0
vn 1.0 0.0 0.0
vn 1.0 0.0 0.0
vn 1.0 0.0 0.0
vn -1.0 0.0 0.0
vn -1.0 0.0 0.0
vn -1.0 0.0 0.0
vn -1.0 0.0 0.0
vn -0.0 0.0 1.0
vn -0.0 0.0 1.0
vn -0.0 0.0 1.0
vn -0.0 0.0 1.0
vn -0.0 0.0 1.0
vn -0.0 0.0 1.0
vn -0.0 0.0 1.0
vn -0.0 0.0 1.0
vn 1.0 0.0 0.0
vn 1.0 0.0 0.0
vn 1.0 0.0 0.0
vn 1.0 0.0 0.0
vn -0.0 0.0 1.0
vn -0.0 0.0 1.0
vn -0.0 0.0 1.0
vn -0.0 0.0 1.0
vn -1.0 0.0 0.0
vn -1.0 0.0 0.0
vn -1.0 0.0 0.0
vn -1.0 0.0 0.0
vn 1.0 0.0 0.0
vn 1.0 0.0 0.0
vn 1.0 0.0 0.0
vn 1.0 0.0 0.0
vn -1.0 0.0 0.0
vn -1.0 0.0 0.0
vn -1.0 0.0 0.0
vn -1.0 0.0 0.0
vn -0.0 0.0 1.0
vn -0.0 0.0 1.0
vn -0.0 0.0 1.0
vn -0.0 0.0 1.0
vn -0.0 0.0 1.0
vn -0.0 0.0 1.0
vn -0.0 0.0 1.0
vn -0.0 0.0 1.0
vn 1.0 0.0 0.0
vn 1.0 0.0 0.0
vn 1.0 0.0 0.0
vn 1.0 0.0 0.0
vn -1.0 0.0 0.0
vn -1.0 0.0 0.0
vn -1.0 0.0 0.0
vn -1.0 0.0 0.0
vn 1.0 0.0 0.0
vn 1.0 0.0 0.0
vn 1.0 0.0 0.0
vn 1.0 0.0 0.0
vn -1.0 0.0 0.0
vn -1.0 0.0 0.0
vn -1.0 0.0 0.0
vn -1.0 0.0 0.0
vt 0.2537941634654999 0.4759540557861328
vt 0.4997316300868988 0.455177903175354
vt 0.4997316300868988 0.47595417499542236
vt 0.2537941634654999 0.455177903175354
vt 0.2537941634654999 0.455177903175354
vt 0.4997316300868988 0.4067997932434082
vt 0.4997316300868988 0.455177903175354
vt 0.2537941634654999 0.4067997932434082
vt 0.4987940788269043 0.972201393917203
vt 0.25285661220550537 0.9988475909922272
vt 0.25285661220550537 0.972201393917203
vt 0.4987940788269043 0.9988475909922272
vt 0.25285661220550537 0.9988475909922272
vt 0.4987940788269043 0.972201393917203
vt 0.4987940788269043 0.9988475909922272
vt 0.25285661220550537 0.972201393917203
vt 0.4987940788269043 0.5994220972061157
vt 0.25285661220550537 0.9653138965368271
vt 0.25285661220550537 0.5994219779968262
vt 0.4987940788269043 0.9653138965368271
vt 0.25285661220550537 0.9653138965368271
vt 0.4987940788269043 0.972201393917203
vt 0.25285661220550537 0.972201393917203
vt 0.4987940788269043 0.9653138965368271
vt 0.25285661220550537 0.9653138965368271
vt 0.4987940788269043 0.972201393917203
vt 0.25285661220550537 0.972201393917203
vt 0.4987940788269043 0.9653138965368271
vt 0.4987940788269043 0.9653138965368271
vt 0.25285661220550537 0.5994220972061157
vt 0.4987940788269043 0.5994220972061157
vt 0.25285661220550537 0.9653138965368271
vt 0.4997316300868988 0.455177903175354
vt 0.2537941634654999 0.4067997932434082
vt 0.4997316300868988 0.4067997932434082
vt 0.2537941634654999 0.455177903175354
vt 0.25285661220550537 0.972201393917203
vt 0.4987940788269043 0.9988475909922272
vt 0.25285661220550537 0.9988475909922272
vt 0.4987940788269043 0.972201393917203
vt 0.4987940788269043 0.9988475909922272
vt 0.25285661220550537 0.972201393917203
vt 0.4987940788269043 0.972201393917203
vt 0.25285661220550537 0.9988475909922272
vt 0.2537941634654999 0.455177903175354
vt 0.4997316300868988 0.4759540557861328
vt 0.2537941634654999 0.4759540557861328
vt 0.4997316300868988 0.455177903175354
vt 0.25285661220550537 0.9653138965368271
vt 0.4987940788269043 0.972201393917203
vt 0.25285661220550537 0.972201393917203
vt 0.4987940788269043 0.9653138965368271
vt 0.25285661220550537 0.9653138965368271
vt 0.4987940788269043 0.972201393917203
vt 0.25285661220550537 0.972201393917203
vt 0.4987940788269043 0.9653138965368271
vt 0.25285661220550537 0.9653138965368271
vt 0.4987940788269043 0.5994220972061157
vt 0.4987940788269043 0.9653138965368271
vt 0.25285661220550537 0.5994219779968262
vt 0.4997316300868988 0.455177903175354
vt 0.2537941634654999 0.4759540557861328
vt 0.2537941634654999 0.455177903175354
vt 0.4997316300868988 0.47595417499542236
vt 0.4997316300868988 0.455177903175354
vt 0.2537941634654999 0.47595417499542236
vt 0.2537941634654999 0.455177903175354
vt 0.4997316300868988 0.47595417499542236
vt 0.25285661220550537 0.9653138965368271
vt 0.4987940788269043 0.5994219779968262
vt 0.4987940788269043 0.9653138965368271
vt 0.25285661220550537 0.5994219779968262

g bg_mdl_map_sokumen00
s 1
usemtl bg_mdl_map_sokumen00
f 3/3/3 2/2/2 1/1/1 
f 4/4/4 1/1/1 2/2/2 
f 7/7/7 6/6/6 5/5/5 
f 8/8/8 5/5/5 6/6/6 
f 11/11/11 10/10/10 9/9/9 
f 12/12/12 9/9/9 10/10/10 
f 15/15/15 14/14/14 13/13/13 
f 16/16/16 13/13/13 14/14/14 
f 19/19/19 18/18/18 17/17/17 
f 20/20/20 17/17/17 18/18/18 
f 23/23/23 22/22/22 21/21/21 
f 24/24/24 21/21/21 22/22/22 
f 27/27/27 26/26/26 25/25/25 
f 28/28/28 25/25/25 26/26/26 
f 31/31/31 30/30/30 29/29/29 
f 32/32/32 29/29/29 30/30/30 
f 35/35/35 34/34/34 33/33/33 
f 36/36/36 33/33/33 34/34/34 
f 39/39/39 38/38/38 37/37/37 
f 40/40/40 37/37/37 38/38/38 
f 43/43/43 42/42/42 41/41/41 
f 44/44/44 41/41/41 42/42/42 
f 47/47/47 46/46/46 45/45/45 
f 48/48/48 45/45/45 46/46/46 
f 51/51/51 50/50/50 49/49/49 
f 52/52/52 49/49/49 50/50/50 
f 55/55/55 54/54/54 53/53/53 
f 56/56/56 53/53/53 54/54/54 
f 59/59/59 58/58/58 57/57/57 
f 60/60/60 57/57/57 58/58/58 
f 63/63/63 62/62/62 61/61/61 
f 64/64/64 61/61/61 62/62/62 
f 67/67/67 66/66/66 65/65/65 
f 68/68/68 65/65/65 66/66/66 
f 71/71/71 70/70/70 69/69/69 
f 72/72/72 69/69/69 70/70/70 

