v 3.295064630037814e-07 -1.6897969601359364e-07 -3.4824256545107346e-07
v -0.1723131537437439 0.2984547019004822 0.49217694997787476
v -0.3463267385959625 -0.0009820529958233237 0.24608826637268066
v 0.1740139126777649 0.2994365990161896 0.24608832597732544
v 0.17401109635829926 -0.30139583349227905 0.24368707835674286
v -0.3463267385959625 -0.0009820529958233237 0.24608826637268066
v -0.17231595516204834 -0.30237773060798645 0.489775687456131
v 3.295064630037814e-07 -1.6897969601359364e-07 -3.4824256545107346e-07
v -0.17231595516204834 -0.30237773060798645 0.489775687456131
v -0.1723131537437439 0.2984547019004822 0.49217694997787476
v 0.0016976128099486232 -0.0029409551061689854 0.7358644008636475
v -0.3463267385959625 -0.0009820529958233237 0.24608826637268066
v 0.0016976128099486232 -0.0029409551061689854 0.7358644008636475
v 0.1740139126777649 0.2994365990161896 0.24608832597732544
v 0.3480246663093567 -0.0019590710289776325 0.48977574706077576
v -0.1723131537437439 0.2984547019004822 0.49217694997787476
v 0.3480246663093567 -0.0019590710289776325 0.48977574706077576
v 3.295064630037814e-07 -1.6897969601359364e-07 -3.4824256545107346e-07
v 0.17401109635829926 -0.30139583349227905 0.24368707835674286
v 0.1740139126777649 0.2994365990161896 0.24608832597732544
v 0.17401109635829926 -0.30139583349227905 0.24368707835674286
v 0.0016976128099486232 -0.0029409551061689854 0.7358644008636475
v 0.3480246663093567 -0.0019590710289776325 0.48977574706077576
v -0.17231595516204834 -0.30237773060798645 0.489775687456131
vn -0.40957579016685486 0.7094065546989441 -0.5735763907432556
vn -0.40957579016685486 0.7094065546989441 -0.5735763907432556
vn -0.40957579016685486 0.7094065546989441 -0.5735763907432556
vn -0.40957579016685486 0.7094065546989441 -0.5735763907432556
vn -0.40958237648010254 -0.7047957181930542 -0.5792282819747925
vn -0.40958237648010254 -0.7047957181930542 -0.5792282819747925
vn -0.40958237648010254 -0.7047957181930542 -0.5792282819747925
vn -0.40958237648010254 -0.7047957181930542 -0.5792282819747925
vn -0.8151625394821167 -0.0023110960610210896 0.5792276859283447
vn -0.8151625394821167 -0.0023110960610210896 0.5792276859283447
vn -0.8151625394821167 -0.0023110960610210896 0.5792276859283447
vn -0.8151625394821167 -0.0023110960610210896 0.5792276859283447
vn 0.40958237648010254 0.7047957181930542 0.5792282819747925
vn 0.40958237648010254 0.7047957181930542 0.5792282819747925
vn 0.40958237648010254 0.7047957181930542 0.5792282819747925
vn 0.40958237648010254 0.7047957181930542 0.5792282819747925
vn 0.8151625394821167 0.0023110960610210896 -0.5792276859283447
vn 0.8151625394821167 0.0023110960610210896 -0.5792276859283447
vn 0.8151625394821167 0.0023110960610210896 -0.5792276859283447
vn 0.8151625394821167 0.0023110960610210896 -0.5792276859283447
vn 0.40957579016685486 -0.7094065546989441 0.5735763907432556
vn 0.40957579016685486 -0.7094065546989441 0.5735763907432556
vn 0.40957579016685486 -0.7094065546989441 0.5735763907432556
vn 0.40957579016685486 -0.7094065546989441 0.5735763907432556
vt 0.6682923436164856 0.9885133560746908
vt 0.8284693956375122 0.8298266977071762
vt 0.8284693956375122 0.9885133560746908
vt 0.6682923436164856 0.8298266977071762
vt 0.6682923436164856 0.9885133560746908
vt 0.8284693956375122 0.8298266977071762
vt 0.8284693956375122 0.9885133560746908
vt 0.6682923436164856 0.8298266977071762
vt 0.8284693956375122 0.9885163847357035
vt 0.9900814294815063 0.8298297971487045
vt 0.9900815486907959 0.9885163847357035
vt 0.8284693956375122 0.8298297971487045
vt 0.5055922865867615 0.9885133560746908
vt 0.6682922840118408 0.8298266977071762
vt 0.6682922840118408 0.9885133560746908
vt 0.5055922865867615 0.8298266977071762
vt 0.8284693956375122 0.9885163847357035
vt 0.9900814294815063 0.8298297971487045
vt 0.9900815486907959 0.9885163847357035
vt 0.8284693956375122 0.8298297971487045
vt 0.8284693956375122 0.9885133560746908
vt 0.6682923436164856 0.8298266977071762
vt 0.8284693956375122 0.8298266977071762
vt 0.6682923436164856 0.9885133560746908

g bg_mdl_map_objdice_iseki
s 1
usemtl bg_mdl_map_objdice_iseki
f 3/3/3 2/2/2 1/1/1 
f 4/4/4 1/1/1 2/2/2 
f 7/7/7 6/6/6 5/5/5 
f 8/8/8 5/5/5 6/6/6 
f 11/11/11 10/10/10 9/9/9 
f 12/12/12 9/9/9 10/10/10 
f 15/15/15 14/14/14 13/13/13 
f 16/16/16 13/13/13 14/14/14 
f 19/19/19 18/18/18 17/17/17 
f 20/20/20 17/17/17 18/18/18 
f 23/23/23 22/22/22 21/21/21 
f 24/24/24 21/21/21 22/22/22 

