v 0.9126836657524109 -0.9625567197799683 1.0
v 0.5017274618148804 -0.4601367712020874 0.9998391270637512
v 0.954679548740387 -0.9230443835258484 1.0
v 0.9915865659713745 -0.6109685897827148 1.0
v 0.9519591927528381 -0.08595336973667145 1.0
v 0.9126110672950745 -0.043803099542856216 1.0
v 0.5133923292160034 0.013572386465966702 1.0
v 0.0989532470703125 -0.04208435118198395 1.0
v 0.0660729929804802 -0.08945312350988388 1.0
v 0.2811828553676605 -0.9973388314247131 1.0
v 0.08598998934030533 -0.9700726270675659 1.0
v 0.049476318061351776 -0.925443708896637 1.0
v 0.029699696227908134 -0.23345062136650085 1.0
v 0.9126110672950745 -0.043803099542856216 1.0
v 0.9589635729789734 -0.0003613326698541641 0.9504603147506714
v 0.9984725713729858 -0.04236084222793579 0.9505267143249512
v 0.9519591927528381 -0.08595336973667145 1.0
v 0.9589635729789734 -0.0003613326698541641 0.9504603147506714
v 0.9601243138313293 -9.769666939973831e-05 0.47523021697998047
v 1.000562071800232 -0.04118289798498154 0.475263386964798
v 0.9984725713729858 -0.04236084222793579 0.9505267143249512
v 0.9987795948982239 -0.9702996611595154 0.9505545496940613
v 0.9977777004241943 -0.9701459407806396 0.4752773940563202
v 0.956547200679779 -1.0104413032531738 0.47523313760757446
v 0.9567705988883972 -1.009798526763916 0.9504662156105042
v 0.9567705988883972 -1.009798526763916 0.9504662156105042
v 0.9126836657524109 -0.9625567197799683 1.0
v 0.954679548740387 -0.9230443835258484 1.0
v 0.9987795948982239 -0.9702996611595154 0.9505545496940613
v 0.03352905064821243 -1.0125255584716797 0.9504921436309814
v 0.03447815030813217 -1.011433720588684 0.4752460718154907
v -0.002282714704051614 -0.9670116901397705 0.4752468466758728
v -0.0028564452659338713 -0.9677929282188416 0.9504936933517456
v -0.0028564452659338713 -0.9677929282188416 0.9504936933517456
v 0.049476318061351776 -0.925443708896637 1.0
v 0.08598998934030533 -0.9700726270675659 1.0
v 0.03352905064821243 -1.0125255584716797 0.9504921436309814
v 0.0050415038131177425 -0.047516483813524246 0.9506480097770691
v 0.0025207519065588713 -0.04656863957643509 0.47532400488853455
v 0.036651916801929474 -0.0001141761604230851 0.475227028131485
v 0.03803771734237671 -0.00022827602515462786 0.95045405626297
v 0.03803771734237671 -0.00022827602515462786 0.95045405626297
v 0.0989532470703125 -0.04208435118198395 1.0
v 0.0660729929804802 -0.08945312350988388 1.0
v 0.0050415038131177425 -0.047516483813524246 0.9506480097770691
v 0.9126110672950745 -0.043803099542856216 1.0
v 0.5133923292160034 0.013572386465966702 1.0
v 0.5136376619338989 0.06374144554138184 0.9505681991577148
v 0.9589635729789734 -0.0003613326698541641 0.9504603147506714
v 0.9984725713729858 -0.04236084222793579 0.9505267143249512
v 1.0438696146011353 -0.5956512093544006 0.9516583681106567
v 0.9915865659713745 -0.6109685897827148 1.0
v 0.9519591927528381 -0.08595336973667145 1.0
v 1.0438696146011353 -0.5956512093544006 0.9516583681106567
v 0.9987795948982239 -0.9702996611595154 0.9505545496940613
v 0.954679548740387 -0.9230443835258484 1.0
v 0.9915865659713745 -0.6109685897827148 1.0
v -0.0028564452659338713 -0.9677929282188416 0.9504936933517456
v -0.01957032084465027 -0.24872954189777374 0.9515421986579895
v 0.029699696227908134 -0.23345062136650085 1.0
v 0.049476318061351776 -0.925443708896637 1.0
v 0.08598998934030533 -0.9700726270675659 1.0
v 0.2811828553676605 -0.9973388314247131 1.0
v 0.29040220379829407 -1.048624873161316 0.9508496522903442
v 0.03352905064821243 -1.0125255584716797 0.9504921436309814
v 0.2811828553676605 -0.9973388314247131 1.0
v 0.9126836657524109 -0.9625567197799683 1.0
v 0.9567705988883972 -1.009798526763916 0.9504662156105042
v 0.29040220379829407 -1.048624873161316 0.9508496522903442
v 0.5133923292160034 0.013572386465966702 1.0
v 0.0989532470703125 -0.04208435118198395 1.0
v 0.03803771734237671 -0.00022827602515462786 0.95045405626297
v 0.5136376619338989 0.06374144554138184 0.9505681991577148
v 0.0660729929804802 -0.08945312350988388 1.0
v 0.029699696227908134 -0.23345062136650085 1.0
v -0.01957032084465027 -0.24872954189777374 0.9515421986579895
v 0.0050415038131177425 -0.047516483813524246 0.9506480097770691
v 0.0050415038131177425 -0.047516483813524246 0.9506480097770691
v -0.01957032084465027 -0.24872954189777374 0.9515421986579895
v 0.012905266135931015 -0.349208265542984 0.47577112913131714
v 0.0025207519065588713 -0.04656863957643509 0.47532400488853455
v -0.002282714704051614 -0.9670116901397705 0.4752468466758728
v -0.0028564452659338713 -0.9677929282188416 0.9504936933517456
v 0.03352905064821243 -1.0125255584716797 0.9504921436309814
v 0.29040220379829407 -1.048624873161316 0.9508496522903442
v 0.40138792991638184 -1.0486923456192017 0.4754248559474945
v 0.03447815030813217 -1.011433720588684 0.4752460718154907
v 1.0438696146011353 -0.5956512093544006 0.9516583681106567
v 0.9984725713729858 -0.04236084222793579 0.9505267143249512
v 1.000562071800232 -0.04118289798498154 0.475263386964798
v 1.0444669723510742 -0.4333273470401764 0.47582921385765076
v 0.9987795948982239 -0.9702996611595154 0.9505545496940613
v 1.0438696146011353 -0.5956512093544006 0.9516583681106567
v 1.0444669723510742 -0.4333273470401764 0.47582921385765076
v 0.9977777004241943 -0.9701459407806396 0.4752773940563202
v 0.9589635729789734 -0.0003613326698541641 0.9504603147506714
v 0.5136376619338989 0.06374144554138184 0.9505681991577148
v 0.5137789845466614 0.06627773493528366 0.4752840995788574
v 0.9601243138313293 -9.769666939973831e-05 0.47523021697998047
v 0.036651916801929474 -0.0001141761604230851 0.475227028131485
v 0.5137789845466614 0.06627773493528366 0.4752840995788574
v 0.5136376619338989 0.06374144554138184 0.9505681991577148
v 0.03803771734237671 -0.00022827602515462786 0.95045405626297
v 0.956547200679779 -1.0104413032531738 0.47523313760757446
v 0.40138792991638184 -1.0486923456192017 0.4754248559474945
v 0.29040220379829407 -1.048624873161316 0.9508496522903442
v 0.9567705988883972 -1.009798526763916 0.9504662156105042
v 0.513920247554779 0.06881400942802429 1.456545373201834e-08
v 0.5137789845466614 0.06627773493528366 0.4752840995788574
v 0.036651916801929474 -0.0001141761604230851 0.475227028131485
v 0.03526611253619194 -7.629394360719743e-08 1.5151362386944811e-09
v 0.0453808568418026 -0.4496869444847107 1.703680752029868e-08
v 0.012905266135931015 -0.349208265542984 0.47577112913131714
v -0.002282714704051614 -0.9670116901397705 0.4752468466758728
v -0.001708984375 -0.9662305116653442 3.6356496480038913e-08
v 0.5123736262321472 -1.0487598180770874 8.055374678406224e-08
v 0.40138792991638184 -1.0486923456192017 0.4754248559474945
v 0.956547200679779 -1.0104413032531738 0.47523313760757446
v 0.9563238024711609 -1.0110840797424316 1.1159390567172522e-07
v 1.000562071800232 -0.04118289798498154 0.475263386964798
v 0.9601243138313293 -9.769666939973831e-05 0.47523021697998047
v 0.9612850546836853 0.0001659393310546875 3.680118965121437e-08
v 1.0026516914367676 -0.04000495746731758 4.116725804692578e-08
v 0.956547200679779 -1.0104413032531738 0.47523313760757446
v 0.9977777004241943 -0.9701459407806396 0.4752773940563202
v 0.9967758059501648 -0.9699921011924744 1.1137933597638039e-07
v 0.9563238024711609 -1.0110840797424316 1.1159390567172522e-07
v -0.002282714704051614 -0.9670116901397705 0.4752468466758728
v 0.03447815030813217 -1.011433720588684 0.4752460718154907
v 0.03542724624276161 -1.0103418827056885 4.125015706790691e-08
v -0.001708984375 -0.9662305116653442 3.6356496480038913e-08
v 0.036651916801929474 -0.0001141761604230851 0.475227028131485
v 0.0025207519065588713 -0.04656863957643509 0.47532400488853455
v -0.0 -0.04562080278992653 1.924014725318557e-09
v 0.03526611253619194 -7.629394360719743e-08 1.5151362386944811e-09
v 0.0025207519065588713 -0.04656863957643509 0.47532400488853455
v 0.012905266135931015 -0.349208265542984 0.47577112913131714
v 0.0453808568418026 -0.4496869444847107 1.703680752029868e-08
v -0.0 -0.04562080278992653 1.924014725318557e-09
v 0.03447815030813217 -1.011433720588684 0.4752460718154907
v 0.40138792991638184 -1.0486923456192017 0.4754248559474945
v 0.5123736262321472 -1.0487598180770874 8.055374678406224e-08
v 0.03542724624276161 -1.0103418827056885 4.125015706790691e-08
v 1.0444669723510742 -0.4333273470401764 0.47582921385765076
v 1.000562071800232 -0.04118289798498154 0.475263386964798
v 1.0026516914367676 -0.04000495746731758 4.116725804692578e-08
v 1.0450643301010132 -0.27100348472595215 5.8607160013934845e-08
v 0.9977777004241943 -0.9701459407806396 0.4752773940563202
v 1.0444669723510742 -0.4333273470401764 0.47582921385765076
v 1.0450643301010132 -0.27100348472595215 5.8607160013934845e-08
v 0.9967758059501648 -0.9699921011924744 1.1137933597638039e-07
v 0.9601243138313293 -9.769666939973831e-05 0.47523021697998047
v 0.5137789845466614 0.06627773493528366 0.4752840995788574
v 0.513920247554779 0.06881400942802429 1.456545373201834e-08
v 0.9612850546836853 0.0001659393310546875 3.680118965121437e-08
vn -0.0001702767622191459 0.00018097939027938992 1.0
vn -0.00017027673311531544 0.00018097936117555946 1.0
vn -0.00017027674766723067 0.0001809793757274747 1.0
vn -0.00033623946364969015 -2.523353941796813e-05 1.0
vn -0.00020115028019063175 -0.0001877779432106763 1.0
vn -0.00020115028019063175 -0.00018777797231450677 1.0
vn 4.574509148369543e-05 -0.0003406335599720478 1.0
vn 0.00023208845232147723 -0.00016110035357996821 1.0
vn 0.00023208845232147723 -0.00016110035357996821 1.0
vn -1.6878891983651556e-05 0.00030645166407339275 1.0
vn 0.000193174128071405 0.00015804772556293756 1.0
vn 0.00034551150747574866 9.984700227505527e-06 1.0
vn 0.00034551150747574866 9.98470113700023e-06 1.0
vn 0.4477291405200958 0.4201914966106415 0.7892894148826599
vn 0.4477291405200958 0.4201914370059967 0.7892894148826599
vn 0.4477291703224182 0.4201914966106415 0.7892894148826599
vn 0.4477291703224182 0.4201914966106415 0.7892894148826599
vn 0.7205768823623657 0.6933661103248596 0.0035156654193997383
vn 0.7205768823623657 0.6933661103248596 0.0035156651865690947
vn 0.7205768823623657 0.6933661103248596 0.0035156651865690947
vn 0.7205768823623657 0.6933661103248596 0.0035156654193997383
vn 0.692010223865509 -0.7218875288963318 -0.0005206959904171526
vn 0.6920101642608643 -0.7218875288963318 -0.0005206959322094917
vn 0.692010223865509 -0.721887469291687 -0.0005206959904171526
vn 0.692010223865509 -0.7218875288963318 -0.0005206959322094917
vn 0.4161033034324646 -0.443289190530777 0.7939475774765015
vn 0.4161033034324646 -0.44328925013542175 0.7939475774765015
vn 0.4161033034324646 -0.443289190530777 0.7939475774765015
vn 0.4161033034324646 -0.44328925013542175 0.7939475774765015
vn -0.773097574710846 -0.6342821717262268 -0.0024885637685656548
vn -0.773097574710846 -0.6342822313308716 -0.0024885640013962984
vn -0.773097574710846 -0.6342822313308716 -0.0024885644670575857
vn -0.773097574710846 -0.6342821717262268 -0.0024885637685656548
vn -0.4586927592754364 -0.3742050528526306 0.8059599995613098
vn -0.4586927592754364 -0.3742050528526306 0.8059599995613098
vn -0.4586927890777588 -0.374205082654953 0.8059599995613098
vn -0.4586927890777588 -0.3742051124572754 0.8059599995613098
vn -0.8130300045013428 0.5822080969810486 0.003991808742284775
vn -0.8130300045013428 0.5822080969810486 0.003991808742284775
vn -0.8130300045013428 0.5822080969810486 0.003991808742284775
vn -0.8130300045013428 0.5822080969810486 0.003991808742284775
vn -0.4553261995315552 0.3185873031616211 0.8313725590705872
vn -0.4553261995315552 0.3185873031616211 0.8313725590705872
vn -0.4553261995315552 0.3185873031616211 0.8313725590705872
vn -0.4553261995315552 0.3185872733592987 0.8313725590705872
vn 0.10059710592031479 0.69874507188797 0.7082623839378357
vn 0.10059710592031479 0.69874507188797 0.7082623839378357
vn 0.10059711337089539 0.6987451314926147 0.7082623243331909
vn 0.10059710592031479 0.69874507188797 0.7082623839378357
vn 0.6858070492744446 0.05483756959438324 0.7257145643234253
vn 0.6858070492744446 0.05483756959438324 0.7257145047187805
vn 0.6858070492744446 0.05483757331967354 0.7257145643234253
vn 0.6858070492744446 0.05483756214380264 0.7257145643234253
vn 0.6957809925079346 -0.08422500640153885 0.7132986783981323
vn 0.6957809925079346 -0.08422500640153885 0.7132986783981323
vn 0.6957809925079346 -0.08422499895095825 0.7132986187934875
vn 0.6957809925079346 -0.08422501385211945 0.7132986187934875
vn -0.688570499420166 -0.01834535226225853 0.7249372601509094
vn -0.6885704398155212 -0.01834535039961338 0.7249373197555542
vn -0.688570499420166 -0.01834535412490368 0.7249373197555542
vn -0.6885704398155212 -0.01834535412490368 0.7249373197555542
vn -0.09860464185476303 -0.6994779706001282 0.707818865776062
vn -0.09860464185476303 -0.6994779706001282 0.707818865776062
vn -0.09860464930534363 -0.6994779109954834 0.7078189253807068
vn -0.09860464185476303 -0.6994779706001282 0.707818865776062
vn 0.03970251977443695 -0.6963046789169312 0.7166473865509033
vn 0.03970251977443695 -0.6963046789169312 0.7166473269462585
vn 0.03970251977443695 -0.6963046789169312 0.7166473269462585
vn 0.03970252349972725 -0.6963046789169312 0.7166473269462585
vn -0.09413166344165802 0.6996781229972839 0.7082300186157227
vn -0.09413166344165802 0.6996780633926392 0.7082300782203674
vn -0.09413165599107742 0.6996781229972839 0.7082300186157227
vn -0.09413166344165802 0.6996780633926392 0.7082300782203674
vn -0.6432361006736755 0.11559499800205231 0.7568917870521545
vn -0.6432360410690308 0.11559499800205231 0.7568918466567993
vn -0.6432360410690308 0.11559499800205231 0.7568918466567993
vn -0.6432361006736755 0.11559499800205231 0.7568917870521545
vn -0.9990123510360718 0.028117559850215912 -0.03440645709633827
vn -0.9990123510360718 0.02811756357550621 -0.03440646082162857
vn -0.9990123510360718 0.02811756171286106 -0.03440645709633827
vn -0.9990123510360718 0.02811756357550621 -0.03440646082162857
vn -0.9994001388549805 -0.001099986839108169 -0.03461536020040512
vn -0.9994001388549805 -0.001099986839108169 -0.03461536392569542
vn -0.1167711690068245 -0.9930483102798462 -0.014819048345088959
vn -0.1167711615562439 -0.9930483102798462 -0.01481904648244381
vn -0.1167711690068245 -0.9930483102798462 -0.014819047413766384
vn -0.1167711690068245 -0.9930483102798462 -0.014819047413766384
vn 0.9953861832618713 0.09405417740345001 0.018980860710144043
vn 0.9953861832618713 0.09405417740345001 0.018980858847498894
vn 0.9953861832618713 0.09405416995286942 0.018980858847498894
vn 0.9953861832618713 0.09405417740345001 0.018980858847498894
vn 0.9948188662528992 -0.1001405194401741 -0.01753011718392372
vn 0.9948188662528992 -0.1001405268907547 -0.01753011718392372
vn 0.9948188662528992 -0.1001405268907547 -0.01753011718392372
vn 0.9948188662528992 -0.1001405119895935 -0.01753011718392372
vn 0.14478789269924164 0.9894578456878662 0.0031129689887166023
vn 0.14478789269924164 0.9894578456878662 0.0031129687558859587
vn 0.14478789269924164 0.9894578456878662 0.0031129687558859587
vn 0.14478789269924164 0.9894578456878662 0.0031129687558859587
vn -0.13556675612926483 0.9907639622688293 0.002940121106803417
vn -0.13556672632694244 0.9907639622688293 0.0029401204083114862
vn -0.13556674122810364 0.9907639622688293 0.00294012064114213
vn -0.13556675612926483 0.9907639622688293 0.0029401208739727736
vn 0.06297562271356583 -0.9979822635650635 0.008082862943410873
vn 0.06297561526298523 -0.9979822635650635 0.008082862943410873
vn 0.06297562271356583 -0.9979822635650635 0.008082862943410873
vn 0.06297560781240463 -0.9979822635650635 0.008082862012088299
vn -0.14006628096103668 0.9901378154754639 0.0029442613013088703
vn -0.14006629586219788 0.9901378154754639 0.0029442613013088703
vn -0.14006631076335907 0.9901378154754639 0.0029442613013088703
vn -0.14006629586219788 0.9901378154754639 0.0029442613013088703
vn -0.9976795315742493 0.05479319393634796 -0.04041498899459839
vn -0.9976795315742493 0.05479319393634796 -0.04041498899459839
vn -0.9976795315742493 0.05479319021105766 -0.04041498526930809
vn -0.9976795315742493 0.05479319393634796 -0.04041498899459839
vn 0.07577435672283173 -0.9970790147781372 0.00957354437559843
vn 0.07577434927225113 -0.9970790147781372 0.009573543444275856
vn 0.07577434927225113 -0.9970790147781372 0.00957354437559843
vn 0.07577434927225113 -0.9970790147781372 0.009573545306921005
vn 0.7047202587127686 0.7094765901565552 0.0034858728758990765
vn 0.7047202587127686 0.7094765901565552 0.0034858728758990765
vn 0.7047202587127686 0.7094766497612 0.00348587310872972
vn 0.7047203779220581 0.7094765901565552 0.0034858728758990765
vn 0.705825686454773 -0.7083852887153625 -0.0005454508936963975
vn 0.705825686454773 -0.7083853483200073 -0.0005454509519040585
vn 0.705825686454773 -0.7083852887153625 -0.0005454509519040585
vn 0.705825686454773 -0.7083852887153625 -0.0005454508936963975
vn -0.7677100896835327 -0.6407924294471741 -0.0024927640333771706
vn -0.7677100896835327 -0.6407924890518188 -0.0024927640333771706
vn -0.7677100896835327 -0.6407924294471741 -0.0024927640333771706
vn -0.7677100896835327 -0.6407924890518188 -0.002492763800546527
vn -0.7985703945159912 0.6018884778022766 0.003954366315156221
vn -0.7985703945159912 0.6018884778022766 0.003954366315156221
vn -0.7985703945159912 0.6018884181976318 0.003954365849494934
vn -0.7985703945159912 0.6018884181976318 0.003954365849494934
vn -0.9966326355934143 -0.0786578357219696 -0.023157605901360512
vn -0.9966326355934143 -0.0786578431725502 -0.02315760962665081
vn -0.9966326355934143 -0.0786578357219696 -0.023157605901360512
vn -0.9966326355934143 -0.0786578431725502 -0.02315760776400566
vn -0.08931247889995575 -0.9959361553192139 -0.011589090339839458
vn -0.08931247889995575 -0.9959361553192139 -0.011589091271162033
vn -0.08931248635053635 -0.9959361553192139 -0.011589091271162033
vn -0.08931247889995575 -0.9959361553192139 -0.011589091271162033
vn 0.9901940226554871 0.13718536496162415 0.02638084441423416
vn 0.9901940226554871 0.13718536496162415 0.02638084441423416
vn 0.9901940226554871 0.13718535006046295 0.02638084627687931
vn 0.9901940226554871 0.13718536496162415 0.02638084441423416
vn 0.9969691634178162 -0.07661597430706024 -0.013512332923710346
vn 0.9969691634178162 -0.07661596685647964 -0.013512332923710346
vn 0.9969691634178162 -0.07661597430706024 -0.01351233385503292
vn 0.9969691634178162 -0.07661597430706024 -0.01351233385503292
vn 0.14938615262508392 0.9887740612030029 0.003117248183116317
vn 0.14938615262508392 0.9887740612030029 0.0031172477174550295
vn 0.14938615262508392 0.9887740612030029 0.0031172477174550295
vn 0.14938615262508392 0.9887740612030029 0.003117248183116317
vt 0.7327136993408203 0.4724728465080261
vt 0.6444770693778992 0.36459797620773315
vt 0.7417306303977966 0.46398913860321045
vt 0.7496549487113953 0.39698320627212524
vt 0.7411465644836426 0.2842569351196289
vt 0.7326980829238892 0.2752068042755127
vt 0.6469816565513611 0.2628876566886902
vt 0.5579972267150879 0.2748377323150635
vt 0.5509374737739563 0.2850083112716675
vt 0.5971238017082214 0.47994089126586914
vt 0.5552138090133667 0.4740865230560303
vt 0.5473739504814148 0.4645042419433594
vt 0.5431277751922607 0.31592607498168945
vt 0.8876816034317017 0.8726897835731506
vt 0.8862013220787048 0.9129272103309631
vt 0.872304379940033 0.9128733277320862
vt 0.8723087310791016 0.8726897835731506
vt 0.8862013220787048 0.9129272103309631
vt 0.88603675365448 0.9979999999050051
vt 0.8721671104431152 0.9979999999050051
vt 0.872304379940033 0.9128733277320862
vt 0.6175371408462524 0.9128506779670715
vt 0.6173961758613586 0.9979999999050051
vt 0.6040080785751343 0.9979999999050051
vt 0.6041428446769714 0.9129224419593811
vt 0.6041428446769714 0.9129224419593811
vt 0.603264570236206 0.8726897239685059
vt 0.6180672645568848 0.8726897239685059
vt 0.6175371408462524 0.9128506779670715
vt 0.3844184875488281 0.9129014015197754
vt 0.3844072222709656 0.9979999999050051
vt 0.3715980052947998 0.9979999999050051
vt 0.3716409206390381 0.9129001498222351
vt 0.3716409206390381 0.9129001498222351
vt 0.3726259469985962 0.8726897239685059
vt 0.38670212030410767 0.8726897239685059
vt 0.3844184875488281 0.9129014015197754
vt 0.13171350955963135 0.9127748012542725
vt 0.13192862272262573 0.9979999999050051
vt 0.11863983422517776 0.9979999999050051
vt 0.11843196302652359 0.9129323363304138
vt 0.11843196302652359 0.9129323363304138
vt 0.11484473943710327 0.8726897835731506
vt 0.12963449954986572 0.8726897835731506
vt 0.13171350955963135 0.9127748012542725
vt 0.8876816034317017 0.8726897835731506
vt 1.0 0.8726897835731506
vt 1.0 0.9128395915031433
vt 0.8862013220787048 0.9129272103309631
vt 0.872304379940033 0.9128733277320862
vt 0.7140007019042969 0.9119541645050049
vt 0.7052192091941833 0.8726897239685059
vt 0.8723087310791016 0.8726897835731506
vt 0.7140007019042969 0.9119541645050049
vt 0.6175371408462524 0.9128506779670715
vt 0.6180672645568848 0.8726897239685059
vt 0.7052192091941833 0.8726897239685059
vt 0.3716409206390381 0.9129001498222351
vt 0.16542215645313263 0.9120485186576843
vt 0.15348796546459198 0.8726897835731506
vt 0.3726259469985962 0.8726897239685059
vt 0.38670212030410767 0.8726897239685059
vt 0.43224355578422546 0.8726897239685059
vt 0.43984532356262207 0.9126110076904297
vt 0.3844184875488281 0.9129014015197754
vt 0.43224355578422546 0.8726897239685059
vt 0.603264570236206 0.8726897239685059
vt 0.6041428446769714 0.9129224419593811
vt 0.43984532356262207 0.9126110076904297
vt 0.0 0.8726897835731506
vt 0.11484473943710327 0.8726897835731506
vt 0.11843196302652359 0.9129323363304138
vt 0.0 0.9128395915031433
vt 0.12963449954986572 0.8726897835731506
vt 0.15348796546459198 0.8726897835731506
vt 0.16542215645313263 0.9120485186576843
vt 0.13171350955963135 0.9127748012542725
vt 0.13171350955963135 0.9127748012542725
vt 0.16542215645313263 0.9120485186576843
vt 0.2001829296350479 0.9979999999050051
vt 0.13192862272262573 0.9979999999050051
vt 0.3715980052947998 0.9979999999050051
vt 0.3716409206390381 0.9129001498222351
vt 0.3844184875488281 0.9129014015197754
vt 0.43984532356262207 0.9126110076904297
vt 0.4679919183254242 0.9979999999050051
vt 0.3844072222709656 0.9979999999050051
vt 0.7140007019042969 0.9119541645050049
vt 0.872304379940033 0.9128733277320862
vt 0.8721671104431152 0.9979999999050051
vt 0.7641067504882812 0.9979999999050051
vt 0.6175371408462524 0.9128506779670715
vt 0.7140007019042969 0.9119541645050049
vt 0.7641067504882812 0.9979999999050051
vt 0.6173961758613586 0.9979999999050051
vt 0.8862013220787048 0.9129272103309631
vt 1.0 0.9128395915031433
vt 1.0 0.9979999999050051
vt 0.88603675365448 0.9979999999050051
vt 0.11863983422517776 0.9979999999050051
vt 0.0 0.9979999999050051
vt 0.0 0.9128395915031433
vt 0.11843196302652359 0.9129323363304138
vt 0.6040080785751343 0.9979999999050051
vt 0.4679919183254242 0.9979999999050051
vt 0.43984532356262207 0.9126110076904297
vt 0.6041428446769714 0.9129224419593811
vt 0.0 0.09988713264465332
vt 0.0 0.001999974250793457
vt 0.11863983422517776 0.001999974250793457
vt 0.11884769052267075 0.09988713264465332
vt 0.23494374752044678 0.09988713264465332
vt 0.2001829296350479 0.001999974250793457
vt 0.3715980052947998 0.001999974250793457
vt 0.3715550899505615 0.09988713264465332
vt 0.49613842368125916 0.09988713264465332
vt 0.4679919183254242 0.001999974250793457
vt 0.6040080785751343 0.001999974250793457
vt 0.6038734316825867 0.09988701343536377
vt 0.8721671104431152 0.001999974250793457
vt 0.88603675365448 0.001999974250793457
vt 0.8858721852302551 0.09988713264465332
vt 0.8720295429229736 0.09988713264465332
vt 0.6040080785751343 0.001999974250793457
vt 0.6173961758613586 0.001999974250793457
vt 0.6172552704811096 0.09988701343536377
vt 0.6038734316825867 0.09988701343536377
vt 0.3715980052947998 0.001999974250793457
vt 0.3844072222709656 0.001999974250793457
vt 0.38439589738845825 0.09988713264465332
vt 0.3715550899505615 0.09988713264465332
vt 0.11863983422517776 0.001999974250793457
vt 0.13192862272262573 0.001999974250793457
vt 0.13214373588562012 0.09988713264465332
vt 0.11884769052267075 0.09988713264465332
vt 0.13192862272262573 0.001999974250793457
vt 0.2001829296350479 0.001999974250793457
vt 0.23494374752044678 0.09988713264465332
vt 0.13214373588562012 0.09988713264465332
vt 0.3844072222709656 0.001999974250793457
vt 0.4679919183254242 0.001999974250793457
vt 0.49613842368125916 0.09988713264465332
vt 0.38439589738845825 0.09988713264465332
vt 0.7641067504882812 0.001999974250793457
vt 0.8721671104431152 0.001999974250793457
vt 0.8720295429229736 0.09988713264465332
vt 0.814213216304779 0.09988713264465332
vt 0.6173961758613586 0.001999974250793457
vt 0.7641067504882812 0.001999974250793457
vt 0.814213216304779 0.09988713264465332
vt 0.6172552704811096 0.09988701343536377
vt 0.88603675365448 0.001999974250793457
vt 1.0 0.001999974250793457
vt 1.0 0.09988713264465332
vt 0.8858721852302551 0.09988713264465332

g bg_mdl_map_sabaku_block_1x1h100
s 1
usemtl bg_mdl_map_sabaku_block_1x1h100_0
f 3/3/3 2/2/2 1/1/1 
f 2/2/2 3/3/3 4/4/4 
f 5/5/5 2/2/2 4/4/4 
f 6/6/6 2/2/2 5/5/5 
f 2/2/2 6/6/6 7/7/7 
f 8/8/8 2/2/2 7/7/7 
f 9/9/9 2/2/2 8/8/8 
f 1/1/1 2/2/2 10/10/10 
f 2/2/2 11/11/11 10/10/10 
f 2/2/2 12/12/12 11/11/11 
f 2/2/2 13/13/13 12/12/12 
f 13/13/13 2/2/2 9/9/9 

usemtl bg_mdl_map_sabaku_block_1x1h100_1
f 16/16/16 15/15/15 14/14/14 
f 17/17/17 16/16/16 14/14/14 
f 20/20/20 19/19/19 18/18/18 
f 21/21/21 20/20/20 18/18/18 
f 24/24/24 23/23/23 22/22/22 
f 25/25/25 24/24/24 22/22/22 
f 28/28/28 27/27/27 26/26/26 
f 29/29/29 28/28/28 26/26/26 
f 32/32/32 31/31/31 30/30/30 
f 33/33/33 32/32/32 30/30/30 
f 36/36/36 35/35/35 34/34/34 
f 37/37/37 36/36/36 34/34/34 
f 40/40/40 39/39/39 38/38/38 
f 41/41/41 40/40/40 38/38/38 
f 44/44/44 43/43/43 42/42/42 
f 45/45/45 44/44/44 42/42/42 
f 48/48/48 47/47/47 46/46/46 
f 49/49/49 48/48/48 46/46/46 
f 52/52/52 51/51/51 50/50/50 
f 53/53/53 52/52/52 50/50/50 
f 56/56/56 55/55/55 54/54/54 
f 57/57/57 56/56/56 54/54/54 
f 60/60/60 59/59/59 58/58/58 
f 61/61/61 60/60/60 58/58/58 
f 64/64/64 63/63/63 62/62/62 
f 65/65/65 64/64/64 62/62/62 
f 68/68/68 67/67/67 66/66/66 
f 69/69/69 68/68/68 66/66/66 
f 72/72/72 71/71/71 70/70/70 
f 73/73/73 72/72/72 70/70/70 
f 76/76/76 75/75/75 74/74/74 
f 77/77/77 76/76/76 74/74/74 
f 80/80/80 79/79/79 78/78/78 
f 81/81/81 80/80/80 78/78/78 
f 79/79/79 80/80/80 82/82/82 
f 83/83/83 79/79/79 82/82/82 
f 86/86/86 85/85/85 84/84/84 
f 87/87/87 86/86/86 84/84/84 
f 90/90/90 89/89/89 88/88/88 
f 91/91/91 90/90/90 88/88/88 
f 94/94/94 93/93/93 92/92/92 
f 95/95/95 94/94/94 92/92/92 
f 98/98/98 97/97/97 96/96/96 
f 99/99/99 98/98/98 96/96/96 
f 102/102/102 101/101/101 100/100/100 
f 103/103/103 102/102/102 100/100/100 
f 106/106/106 105/105/105 104/104/104 
f 107/107/107 106/106/106 104/104/104 

usemtl bg_mdl_map_sabaku_block_1x1h100_2
f 110/110/110 109/109/109 108/108/108 
f 111/111/111 110/110/110 108/108/108 
f 114/114/114 113/113/113 112/112/112 
f 115/115/115 114/114/114 112/112/112 
f 118/118/118 117/117/117 116/116/116 
f 119/119/119 118/118/118 116/116/116 
f 122/122/122 121/121/121 120/120/120 
f 123/123/123 122/122/122 120/120/120 
f 126/126/126 125/125/125 124/124/124 
f 127/127/127 126/126/126 124/124/124 
f 130/130/130 129/129/129 128/128/128 
f 131/131/131 130/130/130 128/128/128 
f 134/134/134 133/133/133 132/132/132 
f 135/135/135 134/134/134 132/132/132 
f 138/138/138 137/137/137 136/136/136 
f 139/139/139 138/138/138 136/136/136 
f 142/142/142 141/141/141 140/140/140 
f 143/143/143 142/142/142 140/140/140 
f 146/146/146 145/145/145 144/144/144 
f 147/147/147 146/146/146 144/144/144 
f 150/150/150 149/149/149 148/148/148 
f 151/151/151 150/150/150 148/148/148 
f 154/154/154 153/153/153 152/152/152 
f 155/155/155 154/154/154 152/152/152 

