v -0.0 -0.09029655158519745 0.6722946166992188
v -0.0 -0.05132798105478287 0.7165951132774353
v -0.0 -0.05414118990302086 0.7258971929550171
v -0.0 -0.08160741627216339 0.6728278994560242
v -0.0 0.008010528981685638 0.7080754637718201
v -0.0 0.006065343506634235 0.7007673978805542
v -0.0 -0.0504901148378849 0.6213446855545044
v -0.0 -0.05063988268375397 0.6325464248657227
v -0.0 -0.07591750472784042 0.38015016913414
v -0.0 0.03953240066766739 0.32920026779174805
v -0.0 0.0649598240852356 0.38015016913414
v -0.0 -0.0504901260137558 0.32920026779174805
v -0.0 -0.054141201078891754 0.43375280499458313
v -0.0 0.043183501809835434 0.43375277519226074
v 0.09755279123783112 -0.015450811013579369 0.699999988079071
v 0.04999999701976776 -0.04999995976686478 0.0
v 0.04999999701976776 -0.04999995976686478 0.699999988079071
v 0.09755279123783112 -0.015450811944901943 0.0
v 0.0024472044315189123 -0.015450814738869667 0.0
v 0.0024472044315189123 -0.015450814738869667 0.699999988079071
v 0.020610732957720757 0.04045089706778526 0.0
v 0.020610732957720757 0.040450893342494965 0.699999988079071
v 0.07938926666975021 0.040450893342494965 0.0
v 0.07938926666975021 0.040450893342494965 0.699999988079071
v 0.09755279123783112 -0.015450811944901943 0.0
v 0.09755279123783112 -0.015450811013579369 0.699999988079071
v 0.07938926666975021 0.040450893342494965 0.699999988079071
v 0.0024472044315189123 -0.015450814738869667 0.699999988079071
v 0.020610732957720757 0.040450893342494965 0.699999988079071
v 0.09755279123783112 -0.015450811013579369 0.699999988079071
v 0.04999999701976776 -0.04999995976686478 0.699999988079071
v 0.25 -0.030928829684853554 0.6499999761581421
v 0.21907112002372742 1.5459232116654675e-08 0.0
v 0.21907112002372742 1.5459232116654675e-08 0.6499999761581421
v 0.25 -0.030928829684853554 0.0
v 0.2809287905693054 3.063673759129415e-08 0.6499999165534973
v 0.25 -0.030928829684853554 0.0
v 0.25 -0.030928829684853554 0.6499999761581421
v 0.2809287905693054 3.063673759129415e-08 0.0
v 0.24999992549419403 0.030928870663046837 0.6499999761581421
v 0.2809287905693054 3.063673759129415e-08 0.0
v 0.2809287905693054 3.063673759129415e-08 0.6499999165534973
v 0.24999992549419403 0.030928870663046837 0.0
v 0.21907112002372742 1.5459232116654675e-08 0.6499999761581421
v 0.24999992549419403 0.030928870663046837 0.0
v 0.24999992549419403 0.030928870663046837 0.6499999761581421
v 0.21907112002372742 1.5459232116654675e-08 0.0
v -0.0 -0.05414118990302086 0.7258971929550171
v 0.09781248867511749 0.008010524325072765 0.7080754637718201
v 0.09781249612569809 -0.054141197353601456 0.7258971929550171
v -0.0 0.008010528981685638 0.7080754637718201
v 0.09781248867511749 -0.09029655158519745 0.6722946166992188
v -0.0 -0.09029655158519745 0.6722946166992188
v 0.09781248867511749 -0.0504901260137558 0.6213446855545044
v -0.0 -0.0504901148378849 0.6213446855545044
v 0.2805406451225281 0.008010519668459892 0.7080754637718201
v 0.2805406451225281 -0.054141197353601456 0.7258971929550171
v 0.2805406153202057 -0.0504901297390461 0.6213446855545044
v 0.2805406451225281 -0.09029655158519745 0.6722946166992188
v 0.09781248867511749 0.008010524325072765 0.7080754637718201
v -0.0 0.006065343506634235 0.7007673978805542
v 0.09781248867511749 0.00606533931568265 0.7007673978805542
v -0.0 0.008010528981685638 0.7080754637718201
v 0.2805406451225281 0.008010519668459892 0.7080754637718201
v 0.2805406451225281 0.006065333727747202 0.7007673978805542
v 0.09781249612569809 -0.05132798105478287 0.7165951132774353
v -0.0 -0.08160741627216339 0.6728278994560242
v 0.09781248867511749 -0.08160741627216339 0.6728278994560242
v -0.0 -0.05132798105478287 0.7165951132774353
v -0.0 -0.05063988268375397 0.6325464248657227
v 0.09781248867511749 -0.05063988268375397 0.6325464248657227
v 0.28092899918556213 -0.05132798105478287 0.7165951132774353
v 0.28092899918556213 -0.08160741627216339 0.6728278994560242
v 0.28092896938323975 -0.050639886409044266 0.6325464248657227
v 0.09781248867511749 -0.05063988268375397 0.6325464248657227
v -0.0 -0.0504901148378849 0.6213446855545044
v 0.09781248867511749 -0.0504901260137558 0.6213446855545044
v -0.0 -0.05063988268375397 0.6325464248657227
v 0.28092896938323975 -0.050639886409044266 0.6325464248657227
v 0.2805406153202057 -0.0504901297390461 0.6213446855545044
v 0.09781249612569809 -0.0504901297390461 0.32920026779174805
v -0.0 -0.07591750472784042 0.38015016913414
v 0.09781248867511749 -0.07591751217842102 0.38015016913414
v -0.0 -0.0504901260137558 0.32920026779174805
v -0.0 -0.054141201078891754 0.43375280499458313
v 0.09781248867511749 -0.05414120480418205 0.43375280499458313
v 0.2805406153202057 -0.0504901297390461 0.32920026779174805
v 0.2805406153202057 -0.07591751217842102 0.3801501393318176
v 0.2805406153202057 -0.05414120480418205 0.43375280499458313
v 0.09781249612569809 0.06495983153581619 0.3801501393318176
v -0.0 0.03953240066766739 0.32920026779174805
v 0.09781248867511749 0.03953240439295769 0.32920026779174805
v -0.0 0.0649598240852356 0.38015016913414
v 0.09781249612569809 0.043183501809835434 0.43375274538993835
v -0.0 0.043183501809835434 0.43375277519226074
v 0.2805406153202057 0.06495983153581619 0.3801501393318176
v 0.2805406153202057 0.039532408118247986 0.32920026779174805
v 0.2805406153202057 0.04318350553512573 0.4337526857852936
v 0.09781248867511749 -0.05414120480418205 0.43375280499458313
v -0.0 0.043183501809835434 0.43375277519226074
v 0.09781249612569809 0.043183501809835434 0.43375274538993835
v -0.0 -0.054141201078891754 0.43375280499458313
v 0.2805406153202057 -0.05414120480418205 0.43375280499458313
v 0.2805406153202057 0.04318350553512573 0.4337526857852936
v -0.0 0.03813832998275757 0.7427651286125183
v -0.0 0.07084345817565918 0.6936583518981934
v -0.0 0.08055684715509415 0.6939684748649597
v -0.0 0.03640454262495041 0.734234094619751
v -0.0 0.04725625738501549 0.6385470628738403
v -0.0 0.040700722485780716 0.6423174142837524
v -0.0 -0.021378187462687492 0.7175018787384033
v -0.0 -0.010519356466829777 0.7147473096847534
v 0.21900023519992828 0.07084346562623978 0.6936584115028381
v -0.0 0.03640454262495041 0.734234094619751
v 0.21900026500225067 0.036404550075531006 0.7342341542243958
v -0.0 0.07084345817565918 0.6936583518981934
v -0.0 -0.010519356466829777 0.7147473096847534
v 0.21900026500225067 -0.010519351810216904 0.7147473692893982
v 0.09781249612569809 0.08055684715509415 0.6939684748649597
v -0.0 0.04725625738501549 0.6385470628738403
v 0.09781248867511749 0.04725625738501549 0.6385470628738403
v -0.0 0.08055684715509415 0.6939684748649597
v 0.09781248867511749 0.03813832998275757 0.7427651286125183
v -0.0 0.03813832998275757 0.7427651286125183
v 0.09781248867511749 -0.021378187462687492 0.7175018787384033
v -0.0 -0.021378187462687492 0.7175018787384033
v 0.2805406451225281 0.08055684715509415 0.6939684748649597
v 0.2805406153202057 0.04725625738501549 0.6385470628738403
v 0.2805406451225281 -0.021378187462687492 0.7175018191337585
v 0.2805406451225281 0.03813832998275757 0.7427651286125183
v -0.0 0.07084345817565918 0.6936583518981934
v 0.21900026500225067 0.04070074111223221 0.6423174738883972
v -0.0 0.040700722485780716 0.6423174142837524
v 0.21900023519992828 0.07084346562623978 0.6936584115028381
v 1.0 -0.09029655158519745 0.6722946166992188
v 1.0 -0.05132798105478287 0.7165951132774353
v 1.0 -0.08160741627216339 0.6728278994560242
v 1.0 -0.05414118990302086 0.7258971929550171
v 1.0 0.008010529913008213 0.7080754637718201
v 1.0 0.006065344903618097 0.7007673978805542
v 1.0 -0.0504901148378849 0.6213446855545044
v 1.0 -0.05063988268375397 0.6325464248657227
v 1.0 -0.07591750472784042 0.38015016913414
v 1.0 0.03953240439295769 0.32920026779174805
v 1.0 -0.0504901260137558 0.32920026779174805
v 1.0 0.0649598240852356 0.38015016913414
v 1.0 -0.054141201078891754 0.43375280499458313
v 1.0 0.043183501809835434 0.43375277519226074
v 0.9024471640586853 -0.015450811013579369 0.699999988079071
v 0.949999988079071 -0.04999995976686478 0.0
v 0.9024471640586853 -0.015450811944901943 0.0
v 0.949999988079071 -0.04999995976686478 0.699999988079071
v 0.997552752494812 -0.015450814738869667 0.0
v 0.997552752494812 -0.015450814738869667 0.699999988079071
v 0.9793893098831177 0.04045089706778526 0.0
v 0.9793893098831177 0.040450893342494965 0.699999988079071
v 0.9206106066703796 0.040450893342494965 0.0
v 0.9206106066703796 0.040450893342494965 0.699999988079071
v 0.9024471640586853 -0.015450811944901943 0.0
v 0.9024471640586853 -0.015450811013579369 0.699999988079071
v 0.997552752494812 -0.015450814738869667 0.699999988079071
v 0.9206106066703796 0.040450893342494965 0.699999988079071
v 0.9793893098831177 0.040450893342494965 0.699999988079071
v 0.9024471640586853 -0.015450811013579369 0.699999988079071
v 0.949999988079071 -0.04999995976686478 0.699999988079071
v 1.0 -0.05414118990302086 0.7258971929550171
v 0.9021874666213989 0.00801052525639534 0.7080754637718201
v 1.0 0.008010529913008213 0.7080754637718201
v 0.9021874666213989 -0.054141197353601456 0.7258971929550171
v 0.9021874666213989 -0.09029655158519745 0.6722946166992188
v 1.0 -0.09029655158519745 0.6722946166992188
v 0.9021874666213989 -0.0504901260137558 0.6213446855545044
v 1.0 -0.0504901148378849 0.6213446855545044
v 0.7190710306167603 0.008010520599782467 0.7080754637718201
v 0.7190710306167603 -0.054141197353601456 0.7258971929550171
v 0.7190710306167603 -0.0504901297390461 0.6213446855545044
v 0.7190710306167603 -0.09029655158519745 0.6722946166992188
v 0.2805406451225281 0.008010519668459892 0.7080754637718201
v 0.2805406451225281 -0.054141197353601456 0.7258971929550171
v 0.2805406451225281 -0.09029655158519745 0.6722946166992188
v 0.2805406153202057 -0.0504901297390461 0.6213446855545044
v 0.9021874666213989 0.00801052525639534 0.7080754637718201
v 1.0 0.006065344903618097 0.7007673978805542
v 1.0 0.008010529913008213 0.7080754637718201
v 0.9021874666213989 0.006065339781343937 0.7007673978805542
v 0.7190710306167603 0.008010520599782467 0.7080754637718201
v 0.7190710306167603 0.006065339781343937 0.7007673978805542
v 0.2805406451225281 0.006065333727747202 0.7007673978805542
v 0.2805406451225281 0.008010519668459892 0.7080754637718201
v 0.9021874666213989 -0.05132798105478287 0.7165951132774353
v 1.0 -0.08160741627216339 0.6728278994560242
v 1.0 -0.05132798105478287 0.7165951132774353
v 0.9021874666213989 -0.08160741627216339 0.6728278994560242
v 1.0 -0.05063988268375397 0.6325464248657227
v 0.9021874666213989 -0.05063988268375397 0.6325464248657227
v 0.7190710306167603 -0.05132798105478287 0.7165951132774353
v 0.7190710306167603 -0.08160741627216339 0.6728278994560242
v 0.7190710306167603 -0.050639886409044266 0.6325464248657227
v 0.9021874666213989 -0.05063988268375397 0.6325464248657227
v 1.0 -0.0504901148378849 0.6213446855545044
v 1.0 -0.05063988268375397 0.6325464248657227
v 0.9021874666213989 -0.0504901260137558 0.6213446855545044
v 0.7190710306167603 -0.050639886409044266 0.6325464248657227
v 0.7190710306167603 -0.0504901297390461 0.6213446855545044
v 0.9021874666213989 -0.0504901297390461 0.32920026779174805
v 1.0 -0.07591750472784042 0.38015016913414
v 1.0 -0.0504901260137558 0.32920026779174805
v 0.9021874666213989 -0.07591751217842102 0.38015016913414
v 1.0 -0.054141201078891754 0.43375280499458313
v 0.9021874666213989 -0.05414120480418205 0.43375280499458313
v 0.7190710306167603 -0.0504901260137558 0.32920026779174805
v 0.7190710306167603 -0.07591751217842102 0.38015016913414
v 0.7190710306167603 -0.05414120480418205 0.43375280499458313
v 0.2805406153202057 -0.07591751217842102 0.3801501393318176
v 0.2805406153202057 -0.0504901297390461 0.32920026779174805
v 0.2805406153202057 -0.05414120480418205 0.43375280499458313
v 0.9021874666213989 0.06495983153581619 0.3801501393318176
v 1.0 0.03953240439295769 0.32920026779174805
v 1.0 0.0649598240852356 0.38015016913414
v 0.9021874666213989 0.03953240439295769 0.32920026779174805
v 0.9021874666213989 0.043183501809835434 0.43375274538993835
v 1.0 0.043183501809835434 0.43375277519226074
v 0.7190710306167603 0.06495983153581619 0.3801501393318176
v 0.7190710306167603 0.03953240439295769 0.32920026779174805
v 0.7190710306167603 0.043183501809835434 0.4337526857852936
v 0.2805406153202057 0.039532408118247986 0.32920026779174805
v 0.2805406153202057 0.06495983153581619 0.3801501393318176
v 0.2805406153202057 0.04318350553512573 0.4337526857852936
v 0.9021874666213989 -0.05414120480418205 0.43375280499458313
v 1.0 0.043183501809835434 0.43375277519226074
v 1.0 -0.054141201078891754 0.43375280499458313
v 0.9021874666213989 0.043183501809835434 0.43375274538993835
v 0.7190710306167603 -0.05414120480418205 0.43375280499458313
v 0.7190710306167603 0.043183501809835434 0.4337526857852936
v 0.2805406153202057 0.04318350553512573 0.4337526857852936
v 0.2805406153202057 -0.05414120480418205 0.43375280499458313
v 1.0 0.03813832998275757 0.7427651286125183
v 1.0 0.07084360718727112 0.6936585903167725
v 1.0 0.03640454262495041 0.734234094619751
v 1.0 0.08055684715509415 0.6939684748649597
v 1.0 0.04725625738501549 0.6385470628738403
v 1.0 0.040700722485780716 0.6423174142837524
v 1.0 -0.021378187462687492 0.7175018787384033
v 1.0 -0.010519356466829777 0.7147473096847534
v 1.0 0.03640454262495041 0.734234094619751
v 0.7809997200965881 0.07084361463785172 0.6936585903167725
v 0.7809997200965881 0.036404550075531006 0.7342341542243958
v 1.0 0.07084360718727112 0.6936585903167725
v 1.0 -0.010519356466829777 0.7147473096847534
v 0.7809997200965881 -0.010519351810216904 0.7147473692893982
v 0.9021874666213989 0.08055684715509415 0.6939684748649597
v 1.0 0.04725625738501549 0.6385470628738403
v 1.0 0.08055684715509415 0.6939684748649597
v 0.9021874666213989 0.04725625738501549 0.6385470628738403
v 0.9021874666213989 0.03813832998275757 0.7427651286125183
v 1.0 0.03813832998275757 0.7427651286125183
v 0.9021874666213989 -0.021378187462687492 0.7175018787384033
v 1.0 -0.021378187462687492 0.7175018787384033
v 0.7190710306167603 0.08055684715509415 0.6939684748649597
v 0.7190710306167603 0.04725625738501549 0.6385470628738403
v 0.7190710306167603 -0.021378187462687492 0.7175018787384033
v 0.7190710306167603 0.03813832998275757 0.7427651286125183
v 0.2805406153202057 0.04725625738501549 0.6385470628738403
v 0.2805406451225281 0.08055684715509415 0.6939684748649597
v 0.2805406451225281 0.03813832998275757 0.7427651286125183
v 0.2805406451225281 -0.021378187462687492 0.7175018191337585
v 0.499999076128006 -0.030927151441574097 0.6500003933906555
v 0.46907010674476624 1.693926037660276e-06 3.8146970382513246e-07
v 0.46907010674476624 1.693926037660276e-06 0.6500003933906555
v 0.499999076128006 -0.030927151441574097 3.8146970382513246e-07
v 0.5309278964996338 1.7091034578697872e-06 0.650000274181366
v 0.499999076128006 -0.030927151441574097 3.8146970382513246e-07
v 0.499999076128006 -0.030927151441574097 0.6500003933906555
v 0.5309278964996338 1.7091034578697872e-06 3.8146970382513246e-07
v 0.499999076128006 0.030930548906326294 0.6500003933906555
v 0.5309278964996338 1.7091034578697872e-06 3.8146970382513246e-07
v 0.5309278964996338 1.7091034578697872e-06 0.650000274181366
v 0.499999076128006 0.030930548906326294 3.8146970382513246e-07
v 0.46907010674476624 1.693926037660276e-06 0.6500003933906555
v 0.499999076128006 0.030930548906326294 3.8146970382513246e-07
v 0.499999076128006 0.030930548906326294 0.6500003933906555
v 0.46907010674476624 1.693926037660276e-06 3.8146970382513246e-07
v 0.7500008940696716 -0.030927151441574097 0.6500003933906555
v 0.7190719246864319 1.693926037660276e-06 3.8146970382513246e-07
v 0.7190719246864319 1.693926037660276e-06 0.6500003933906555
v 0.7500008940696716 -0.030927151441574097 3.8146970382513246e-07
v 0.7809295654296875 1.7091034578697872e-06 0.650000274181366
v 0.7500008940696716 -0.030927151441574097 3.8146970382513246e-07
v 0.7500008940696716 -0.030927151441574097 0.6500003933906555
v 0.7809295654296875 1.7091034578697872e-06 3.8146970382513246e-07
v 0.7500008940696716 0.030930548906326294 0.6500003933906555
v 0.7809295654296875 1.7091034578697872e-06 3.8146970382513246e-07
v 0.7809295654296875 1.7091034578697872e-06 0.650000274181366
v 0.7500008940696716 0.030930548906326294 3.8146970382513246e-07
v 0.7190719246864319 1.693926037660276e-06 0.6500003933906555
v 0.7500008940696716 0.030930548906326294 3.8146970382513246e-07
v 0.7500008940696716 0.030930548906326294 0.6500003933906555
v 0.7190719246864319 1.693926037660276e-06 3.8146970382513246e-07
v 0.7809997200965881 0.07084361463785172 0.6936585903167725
v 1.0 0.040700722485780716 0.6423174142837524
v 0.7809997200965881 0.04070074111223221 0.6423174738883972
v 1.0 0.07084360718727112 0.6936585903167725
vn -1.0 0.0 0.0
vn -1.0 0.0 0.0
vn -1.0 0.0 0.0
vn -1.0 0.0 0.0
vn -1.0 0.0 0.0
vn -1.0 0.0 0.0
vn -1.0 0.0 0.0
vn -1.0 0.0 0.0
vn -1.0 0.0 0.0
vn -1.0 0.0 0.0
vn -1.0 0.0 0.0
vn -1.0 0.0 0.0
vn -1.0 0.0 0.0
vn -1.0 0.0 0.0
vn 0.9510564804077148 -0.3090170919895172 0.0
vn -0.0 -1.0 0.0
vn -0.0 -1.0 0.0
vn 0.9510565400123596 -0.3090170919895172 0.0
vn -0.9510564804077148 -0.3090171813964844 0.0
vn -0.9510564804077148 -0.3090171217918396 0.0
vn -0.5877854824066162 0.8090168237686157 0.0
vn -0.587785542011261 0.8090168237686157 0.0
vn 0.5877854824066162 0.8090168237686157 0.0
vn 0.587785542011261 0.8090168237686157 0.0
vn 0.9510565400123596 -0.3090170919895172 0.0
vn 0.9510564804077148 -0.3090170919895172 0.0
vn -0.0 0.0 1.0
vn -0.0 0.0 1.0
vn -0.0 0.0 1.0
vn -0.0 0.0 1.0
vn -0.0 0.0 1.0
vn -0.7071064114570618 -0.7071070671081543 0.0
vn -0.7071064114570618 -0.7071070671081543 0.0
vn -0.707106351852417 -0.7071071863174438 0.0
vn -0.707106351852417 -0.7071071863174438 0.0
vn 0.707107424736023 -0.7071060538291931 0.0
vn 0.707107424736023 -0.7071060538291931 0.0
vn 0.707107424736023 -0.7071060538291931 0.0
vn 0.707107424736023 -0.7071060538291931 0.0
vn 0.707106351852417 0.7071071863174438 0.0
vn 0.707106351852417 0.7071071863174438 0.0
vn 0.7071062922477722 0.7071072459220886 0.0
vn 0.7071062326431274 0.7071072459220886 0.0
vn -0.707107424736023 0.7071061134338379 0.0
vn -0.707107424736023 0.7071061134338379 0.0
vn -0.707107424736023 0.7071061134338379 0.0
vn -0.707107424736023 0.7071061134338379 0.0
vn -0.0 -0.3420203924179077 0.9396925568580627
vn -0.0 0.8699465990066528 0.49314597249031067
vn -0.0 -0.3420203924179077 0.9396925568580627
vn -0.0 0.8699467182159424 0.4931458532810211
vn -0.0 -0.9993908405303955 -0.03489968553185463
vn -0.0 -0.9993908405303955 -0.03489964082837105
vn -0.0 0.331880122423172 -0.9433215856552124
vn -1.0924924254140933e-07 0.3318811357021332 -0.943321168422699
vn -0.0 0.8699465990066528 0.4931459426879883
vn -0.0 -0.34202051162719727 0.9396925568580627
vn -0.0 -0.41415688395500183 -0.9102055430412292
vn -0.0 -0.9993908405303955 -0.03489963710308075
vn -0.0 0.8699465990066528 0.49314597249031067
vn -0.0 0.966354250907898 -0.25721490383148193
vn -0.0 0.966354250907898 -0.25721487402915955
vn -0.0 0.8699467182159424 0.4931458532810211
vn -0.0 0.8699465990066528 0.4931459426879883
vn -0.0 0.966354250907898 -0.2572149336338043
vn -0.0 0.8223764896392822 -0.5689436197280884
vn -0.0 0.9996851682662964 0.025092849507927895
vn -0.0 0.9996851682662964 0.025092849507927895
vn -0.0 0.8223764896392822 -0.5689436197280884
vn -0.0 0.9446105360984802 0.32819339632987976
vn -0.0 0.9446107149124146 0.32819291949272156
vn -0.0 0.8223764896392822 -0.5689436793327332
vn -0.0 0.9996851682662964 0.02509271912276745
vn -0.0 0.9433870315551758 0.331694096326828
vn -0.0 0.9446107149124146 0.32819291949272156
vn -1.0924924254140933e-07 0.3318811357021332 -0.943321168422699
vn -0.0 0.331880122423172 -0.9433215856552124
vn -0.0 0.9446105360984802 0.32819339632987976
vn -0.0 0.9433870315551758 0.331694096326828
vn -0.0 -0.41415688395500183 -0.9102055430412292
vn -0.0 -0.8947610855102539 -0.4465451240539551
vn -0.0 -0.9992586970329285 -0.038497500121593475
vn -0.0 -0.9992586970329285 -0.03849748149514198
vn -0.0 -0.8947610855102539 -0.4465450942516327
vn -0.0 -0.9264652132987976 0.37638047337532043
vn -0.0 -0.9264652132987976 0.37638047337532043
vn -0.0 -0.8947609663009644 -0.44654542207717896
vn -0.0 -0.9992586970329285 -0.03849777206778526
vn -0.0 -0.9264652132987976 0.37638023495674133
vn -0.0 0.9992586970329285 -0.03849770501255989
vn -1.52002925801753e-07 0.8947607278823853 -0.44654589891433716
vn -0.0 0.8947606086730957 -0.4465460479259491
vn -0.0 0.9992586970329285 -0.03849747031927109
vn -0.0 0.9264650344848633 0.3763810992240906
vn 1.4678900583930954e-07 0.9264650344848633 0.3763810992240906
vn -0.0 0.9992586970329285 -0.03849756345152855
vn -0.0 0.8947607278823853 -0.4465460479259491
vn -0.0 0.9264649152755737 0.3763812184333801
vn -0.0 6.862342729618831e-07 1.0
vn 1.943798935144514e-07 5.873097848052566e-07 1.0
vn 2.275219799230399e-07 8.449708275293233e-07 1.0
vn -0.0 3.91955694567514e-07 1.0
vn -0.0 1.1148075600431184e-06 1.0
vn 1.0438177611149513e-07 1.1758670552808326e-06 1.0
vn -1.0 0.0 0.0
vn -1.0 0.0 0.0
vn -1.0 0.0 0.0
vn -1.0 0.0 0.0
vn -1.0 0.0 0.0
vn -1.0 0.0 0.0
vn -1.0 0.0 0.0
vn -1.0 0.0 0.0
vn -0.0 -0.9962661862373352 -0.08633507043123245
vn 3.401562764793198e-07 -0.23450152575969696 -0.972115695476532
vn 3.5328972103343403e-07 -0.23450151085853577 -0.972115695476532
vn -0.0 -0.9962661862373352 -0.08633469045162201
vn 3.0624400437773147e-07 0.383527547121048 -0.9235294461250305
vn 3.133827419787849e-07 0.3835274875164032 -0.9235295057296753
vn -0.0 0.99619460105896 0.08715710043907166
vn -0.0 0.85716712474823 -0.5150383114814758
vn -0.0 0.85716712474823 -0.5150383114814758
vn -0.0 0.99619460105896 0.08715710043907166
vn -0.0 0.2249498963356018 0.9743703603744507
vn -0.0 0.22494997084140778 0.9743703603744507
vn 1.921678887129019e-07 -0.3907304108142853 0.920505166053772
vn -0.0 -0.39073047041893005 0.9205051064491272
vn -0.0 0.99619460105896 0.08715716749429703
vn -0.0 0.85716712474823 -0.5150383114814758
vn -0.0 -0.3907313644886017 0.9205048084259033
vn -0.0 0.22494934499263763 0.9743703603744507
vn -0.0 -0.9962661862373352 -0.08633469045162201
vn -1.4808595949489245e-07 -0.8623583316802979 0.506298303604126
vn -1.012753614304529e-07 -0.8623582720756531 0.5062984824180603
vn -0.0 -0.9962661862373352 -0.08633507043123245
vn 1.0 0.0 0.0
vn 1.0 0.0 0.0
vn 1.0 0.0 0.0
vn 1.0 0.0 0.0
vn 1.0 0.0 0.0
vn 1.0 0.0 0.0
vn 1.0 0.0 0.0
vn 1.0 0.0 0.0
vn 1.0 0.0 0.0
vn 1.0 0.0 0.0
vn 1.0 0.0 0.0
vn 1.0 0.0 0.0
vn 1.0 0.0 0.0
vn 1.0 0.0 0.0
vn -0.9510562419891357 -0.30901771783828735 0.0
vn -0.0 -1.0 0.0
vn -0.9510563611984253 -0.30901768803596497 0.0
vn -0.0 -1.0 0.0
vn 0.9510562419891357 -0.30901777744293213 0.0
vn 0.9510562419891357 -0.30901771783828735 0.0
vn 0.5877859592437744 0.8090164065361023 0.0
vn 0.5877859592437744 0.8090164065361023 0.0
vn -0.5877860188484192 0.8090164065361023 0.0
vn -0.5877860188484192 0.8090164065361023 0.0
vn -0.9510563611984253 -0.30901768803596497 0.0
vn -0.9510562419891357 -0.30901771783828735 0.0
vn -0.0 0.0 1.0
vn -0.0 0.0 1.0
vn -0.0 0.0 1.0
vn -0.0 0.0 1.0
vn -0.0 0.0 1.0
vn -0.0 -0.3420202434062958 0.9396925568580627
vn -0.0 0.8699465394020081 0.49314606189727783
vn -0.0 0.8699467182159424 0.4931458532810211
vn -0.0 -0.3420203924179077 0.9396925568580627
vn -0.0 -0.9993908405303955 -0.03489970788359642
vn -0.0 -0.9993908405303955 -0.03489966318011284
vn -0.0 0.3318813443183899 -0.943321168422699
vn 1.0924922833055462e-07 0.3318812847137451 -0.943321168422699
vn -0.0 0.8699465394020081 0.49314606189727783
vn -0.0 -0.3420203924179077 0.9396925568580627
vn -0.0 -0.4275924563407898 -0.9039716124534607
vn -0.0 -0.9993908405303955 -0.034899573773145676
vn -0.0 0.8699465990066528 0.4931459426879883
vn -0.0 -0.34202051162719727 0.9396925568580627
vn -0.0 -0.9993908405303955 -0.03489963710308075
vn -0.0 -0.41415688395500183 -0.9102055430412292
vn -0.0 0.8699465394020081 0.49314606189727783
vn -0.0 0.966354250907898 -0.2572149634361267
vn -0.0 0.8699467182159424 0.4931458532810211
vn -0.0 0.966354250907898 -0.2572149634361267
vn -0.0 0.8699465394020081 0.49314606189727783
vn -0.0 0.9663543701171875 -0.25721436738967896
vn -0.0 0.966354250907898 -0.2572149336338043
vn -0.0 0.8699465990066528 0.4931459426879883
vn -0.0 0.8223764896392822 -0.5689436197280884
vn -0.0 0.9996851682662964 0.025092849507927895
vn -0.0 0.8223764896392822 -0.5689436197280884
vn -0.0 0.9996851682662964 0.025092795491218567
vn -0.0 0.9446105360984802 0.3281933069229126
vn -0.0 0.9446107149124146 0.32819294929504395
vn -0.0 0.8223764896392822 -0.5689436197280884
vn -0.0 0.9996851682662964 0.02509296126663685
vn -0.0 0.9446107149124146 0.3281927704811096
vn -0.0 0.9446107149124146 0.32819294929504395
vn 1.0924922833055462e-07 0.3318812847137451 -0.943321168422699
vn -0.0 0.9446105360984802 0.3281933069229126
vn -0.0 0.3318813443183899 -0.943321168422699
vn -0.0 0.9446107149124146 0.3281927704811096
vn -0.0 -0.4275924563407898 -0.9039716124534607
vn -0.0 -0.8947610855102539 -0.4465451240539551
vn -0.0 -0.9992586970329285 -0.038497503846883774
vn -0.0 -0.8947610855102539 -0.4465450942516327
vn -0.0 -0.9992586970329285 -0.03849751502275467
vn -0.0 -0.9264650940895081 0.37638044357299805
vn -0.0 -0.9264652132987976 0.37638047337532043
vn -0.0 -0.8947610855102539 -0.44654521346092224
vn -0.0 -0.9992586970329285 -0.03849754482507706
vn -0.0 -0.9264652132987976 0.37638047337532043
vn -0.0 -0.9992586970329285 -0.03849777206778526
vn -0.0 -0.8947609663009644 -0.44654542207717896
vn -0.0 -0.9264652132987976 0.37638023495674133
vn -0.0 0.9992586970329285 -0.03849771246314049
vn 1.4468301401393546e-07 0.8947607278823853 -0.4465458393096924
vn -0.0 0.9992586970329285 -0.038497429341077805
vn -0.0 0.8947606086730957 -0.4465460479259491
vn -0.0 0.9264650344848633 0.3763810992240906
vn -1.4678900583930954e-07 0.9264650344848633 0.3763810992240906
vn -0.0 0.9992586970329285 -0.038497570902109146
vn -0.0 0.8947606086730957 -0.4465460479259491
vn -0.0 0.9264649152755737 0.3763812780380249
vn -0.0 0.8947607278823853 -0.4465460479259491
vn -0.0 0.9992586970329285 -0.03849756345152855
vn -0.0 0.9264649152755737 0.3763812184333801
vn -0.0 6.862342729618831e-07 1.0
vn -1.9437986509274197e-07 5.873097848052566e-07 1.0
vn -0.0 3.91955694567514e-07 1.0
vn -2.273946506647917e-07 8.448610060440842e-07 1.0
vn -0.0 1.1149173815283575e-06 1.0
vn -1.0416042073302378e-07 1.1758670552808326e-06 1.0
vn 1.0438177611149513e-07 1.1758670552808326e-06 1.0
vn -0.0 1.1148075600431184e-06 1.0
vn 1.0 0.0 0.0
vn 1.0 0.0 0.0
vn 1.0 0.0 0.0
vn 1.0 0.0 0.0
vn 1.0 0.0 0.0
vn 1.0 0.0 0.0
vn 1.0 0.0 0.0
vn 1.0 0.0 0.0
vn -2.3051897812820243e-07 -0.23449918627738953 -0.972116231918335
vn -0.0 -0.9962660670280457 -0.08633659780025482
vn -3.532898631419812e-07 -0.2344997227191925 -0.9721161723136902
vn -0.0 -0.9962659478187561 -0.0863371342420578
vn -3.0624400437773147e-07 0.3835274875164032 -0.9235294461250305
vn -3.1338277040049434e-07 0.3835274875164032 -0.9235295057296753
vn -0.0 0.99619460105896 0.08715712279081345
vn -0.0 0.85716712474823 -0.5150383710861206
vn -0.0 0.99619460105896 0.08715706318616867
vn -0.0 0.85716712474823 -0.5150383710861206
vn -0.0 0.22494985163211823 0.9743703603744507
vn -0.0 0.2249498963356018 0.9743703603744507
vn -0.0 -0.3907304108142853 0.920505166053772
vn -0.0 -0.39073044061660767 0.9205051064491272
vn -0.0 0.99619460105896 0.08715707808732986
vn -0.0 0.85716712474823 -0.5150383114814758
vn -0.0 -0.39073050022125244 0.9205051064491272
vn -0.0 0.2249499261379242 0.9743703603744507
vn -0.0 0.85716712474823 -0.5150383114814758
vn -0.0 0.99619460105896 0.08715716749429703
vn -0.0 0.22494934499263763 0.9743703603744507
vn -0.0 -0.3907313644886017 0.9205048084259033
vn -0.7071055173873901 -0.7071080207824707 0.0
vn -0.7071055173873901 -0.7071080207824707 0.0
vn -0.7071055173873901 -0.7071080207824707 0.0
vn -0.7071055173873901 -0.7071080207824707 0.0
vn 0.707107424736023 -0.7071060538291931 0.0
vn 0.707107424736023 -0.7071060538291931 0.0
vn 0.707107424736023 -0.7071060538291931 0.0
vn 0.707107424736023 -0.7071060538291931 0.0
vn 0.7071071863174438 0.707106351852417 0.0
vn 0.7071070671081543 0.7071064114570618 0.0
vn 0.7071072459220886 0.7071062922477722 0.0
vn 0.7071071863174438 0.707106351852417 0.0
vn -0.7071056365966797 0.7071078419685364 0.0
vn -0.7071056365966797 0.7071078419685364 0.0
vn -0.7071056365966797 0.7071079015731812 0.0
vn -0.7071056365966797 0.7071079015731812 0.0
vn -0.7071055173873901 -0.7071080207824707 0.0
vn -0.7071055173873901 -0.7071080207824707 0.0
vn -0.7071055173873901 -0.7071080207824707 0.0
vn -0.7071055173873901 -0.7071080207824707 0.0
vn 0.7071091532707214 -0.7071043252944946 0.0
vn 0.707109272480011 -0.7071043252944946 0.0
vn 0.7071091532707214 -0.7071043252944946 0.0
vn 0.7071092128753662 -0.7071043252944946 0.0
vn 0.7071089148521423 0.7071045637130737 0.0
vn 0.7071089148521423 0.7071045637130737 0.0
vn 0.7071089744567871 0.7071045637130737 0.0
vn 0.7071089148521423 0.7071045637130737 0.0
vn -0.7071056365966797 0.7071078419685364 0.0
vn -0.7071056365966797 0.7071078419685364 0.0
vn -0.7071056365966797 0.7071079015731812 0.0
vn -0.7071056365966797 0.7071079015731812 0.0
vn -0.0 -0.9962660670280457 -0.08633659780025482
vn -0.0 -0.8623581528663635 0.5062986612319946
vn 1.0127558880412835e-07 -0.8623579740524292 0.5062990784645081
vn -0.0 -0.9962659478187561 -0.0863371342420578
vt 0.2666884958744049 0.5584200024604797
vt 0.262807160615921 0.5445939302444458
vt 0.2666884660720825 0.5450194478034973
vt 0.2628071904182434 0.5582078099250793
vt 0.2666884958744049 0.5294814109802246
vt 0.262807160615921 0.5294814109802246
vt 0.2666884660720825 0.5711576342582703
vt 0.262807160615921 0.5706409811973572
vt 0.2720649540424347 0.6375428438186646
vt 0.2593274712562561 0.6086804270744324
vt 0.2720649540424347 0.6023234724998474
vt 0.2593275010585785 0.6311860084533691
vt 0.28546562790870667 0.6320987343788147
vt 0.28546562790870667 0.6077675819396973
vt 0.2810887098312378 0.6863824129104614
vt 0.45608872175216675 0.6982706189155579
vt 0.2810887098312378 0.6982706189155579
vt 0.45608872175216675 0.6863824129104614
vt 0.45608872175216675 0.7101587653160095
vt 0.2810887098312378 0.7101587653160095
vt 0.45608869194984436 0.724134236574173
vt 0.2810887098312378 0.724134236574173
vt 0.45608869194984436 0.7388288676738739
vt 0.2810887098312378 0.7388288676738739
vt 0.45608869194984436 0.752804309129715
vt 0.2810887098312378 0.752804309129715
vt 0.26711320877075195 0.7290346920490265
vt 0.2810887098312378 0.7101587653160095
vt 0.2810887098312378 0.724134236574173
vt 0.25847601890563965 0.7171464562416077
vt 0.2671133279800415 0.705258309841156
vt 0.2937026023864746 0.6734461784362793
vt 0.45620256662368774 0.6811783909797668
vt 0.2937026023864746 0.6811783909797668
vt 0.45620256662368774 0.6734461784362793
vt 0.2937026023864746 0.6657139658927917
vt 0.45620256662368774 0.6734461784362793
vt 0.2937026023864746 0.6734461784362793
vt 0.45620256662368774 0.6657139658927917
vt 0.2937026023864746 0.6735714375972748
vt 0.45620256662368774 0.6657139658927917
vt 0.2937026023864746 0.6657139658927917
vt 0.45620256662368774 0.6735714375972748
vt 0.2937026023864746 0.6813036501407623
vt 0.45620256662368774 0.6735714375972748
vt 0.2937026023864746 0.6735714375972748
vt 0.45620256662368774 0.6813036501407623
vt 0.2666884660720825 0.5450194478034973
vt 0.2911416292190552 0.5294814109802246
vt 0.2911415696144104 0.5450194478034973
vt 0.2666884958744049 0.5294814109802246
vt 0.2911416292190552 0.5584200024604797
vt 0.2666884958744049 0.5584200024604797
vt 0.2911415696144104 0.5711576342582703
vt 0.2666884660720825 0.5711576342582703
vt 0.3369207978248596 0.5294815003871918
vt 0.33692073822021484 0.5450194776058197
vt 0.33692070841789246 0.5711576640605927
vt 0.33692073822021484 0.5584200024604797
vt 0.4921571612358093 0.5775662660598755
vt 0.5166102647781372 0.5718876123428345
vt 0.4921571612358093 0.5718876123428345
vt 0.5166102647781372 0.5775662660598755
vt 0.44637805223464966 0.5775662660598755
vt 0.44637805223464966 0.5718876123428345
vt 0.2911469340324402 0.5781404972076416
vt 0.2666938006877899 0.5890823006629944
vt 0.2911469340324402 0.5890823006629944
vt 0.2666938304901123 0.5781404972076416
vt 0.2666938006877899 0.599152684211731
vt 0.2911469340324402 0.599152684211731
vt 0.33692604303359985 0.5781404972076416
vt 0.33692604303359985 0.5890823006629944
vt 0.33692604303359985 0.599152684211731
vt 0.2910633385181427 0.5717313289642334
vt 0.2666102647781372 0.5774099826812744
vt 0.2910633683204651 0.5774099826812744
vt 0.2666102349758148 0.5717313289642334
vt 0.33684247732162476 0.5717312395572662
vt 0.33684250712394714 0.5774098932743073
vt 0.30991876125335693 0.6582368910312653
vt 0.28546562790870667 0.6454994082450867
vt 0.30991873145103455 0.6454994082450867
vt 0.28546562790870667 0.6582368612289429
vt 0.28546562790870667 0.6320987343788147
vt 0.30991873145103455 0.6320987343788147
vt 0.3556978106498718 0.6582369208335876
vt 0.3556978106498718 0.6454994082450867
vt 0.3556978106498718 0.6320987343788147
vt 0.30991870164871216 0.6455431580543518
vt 0.28546565771102905 0.658280611038208
vt 0.30991876125335693 0.658280611038208
vt 0.2854655981063843 0.6455431580543518
vt 0.30991870164871216 0.6321425437927246
vt 0.2854655981063843 0.6321425437927246
vt 0.3556978106498718 0.6455431580543518
vt 0.3556978106498718 0.6582805514335632
vt 0.35569778084754944 0.632142573595047
vt 0.30991873145103455 0.6320987343788147
vt 0.28546562790870667 0.6077675819396973
vt 0.30991876125335693 0.6077675819396973
vt 0.28546562790870667 0.6320987343788147
vt 0.3556978106498718 0.6320987343788147
vt 0.3556978106498718 0.6077675819396973
vt 0.2666884958744049 0.5584200024604797
vt 0.262807160615921 0.5445939302444458
vt 0.2666884660720825 0.5450194478034973
vt 0.2628071904182434 0.5582078099250793
vt 0.2666884958744049 0.5294814109802246
vt 0.262807160615921 0.5294814109802246
vt 0.2666884660720825 0.5711576342582703
vt 0.262807160615921 0.5706409811973572
vt 0.3214438855648041 0.5781404972076416
vt 0.2666938006877899 0.5890823006629944
vt 0.3214438855648041 0.5890823006629944
vt 0.2666938304901123 0.5781404972076416
vt 0.2666938006877899 0.599152684211731
vt 0.3214438855648041 0.599152684211731
vt 0.2911415696144104 0.5450194478034973
vt 0.2666884958744049 0.5294814109802246
vt 0.2911416292190552 0.5294814109802246
vt 0.2666884660720825 0.5450194478034973
vt 0.2911416292190552 0.5584200024604797
vt 0.2666884958744049 0.5584200024604797
vt 0.2911415696144104 0.5711576342582703
vt 0.2666884660720825 0.5711576342582703
vt 0.33692073822021484 0.5450194776058197
vt 0.33692076802253723 0.5294815003871918
vt 0.33692073822021484 0.5711576640605927
vt 0.33692073822021484 0.5584200024604797
vt 0.2666938006877899 0.5890823006629944
vt 0.3214438855648041 0.599152684211731
vt 0.2666938006877899 0.599152684211731
vt 0.3214438855648041 0.5890823006629944
vt 0.2666884958744049 0.5584200024604797
vt 0.262807160615921 0.5445939302444458
vt 0.2628071904182434 0.5582078099250793
vt 0.2666884660720825 0.5450194478034973
vt 0.2666884958744049 0.5294814109802246
vt 0.262807160615921 0.5294814109802246
vt 0.2666884660720825 0.5711576342582703
vt 0.262807160615921 0.5706409811973572
vt 0.2720649540424347 0.6375428438186646
vt 0.2593274712562561 0.6086804270744324
vt 0.2593275010585785 0.6311860084533691
vt 0.2720649540424347 0.6023234724998474
vt 0.28546562790870667 0.6320987343788147
vt 0.28546562790870667 0.6077675819396973
vt 0.2810887098312378 0.6863824129104614
vt 0.45608872175216675 0.6982706189155579
vt 0.45608872175216675 0.6863824129104614
vt 0.2810887098312378 0.6982706189155579
vt 0.45608872175216675 0.7101587653160095
vt 0.2810887098312378 0.7101587653160095
vt 0.45608869194984436 0.724134236574173
vt 0.2810887098312378 0.724134236574173
vt 0.45608869194984436 0.7388288676738739
vt 0.2810887098312378 0.7388288676738739
vt 0.45608869194984436 0.752804309129715
vt 0.2810887098312378 0.752804309129715
vt 0.2810887098312378 0.7101587653160095
vt 0.26711320877075195 0.7290346920490265
vt 0.2810887098312378 0.724134236574173
vt 0.25847601890563965 0.7171464562416077
vt 0.2671133279800415 0.705258309841156
vt 0.2666884660720825 0.5450194478034973
vt 0.2911416292190552 0.5294814109802246
vt 0.2666884958744049 0.5294814109802246
vt 0.2911415696144104 0.5450194478034973
vt 0.2911416292190552 0.5584200024604797
vt 0.2666884958744049 0.5584200024604797
vt 0.2911415696144104 0.5711576342582703
vt 0.2666884660720825 0.5711576342582703
vt 0.3369207978248596 0.5294815003871918
vt 0.33692073822021484 0.5450194776058197
vt 0.33692070841789246 0.5711576640605927
vt 0.33692073822021484 0.5584200024604797
vt 0.44665029644966125 0.5294816493988037
vt 0.44665029644966125 0.5450195372104645
vt 0.44665032625198364 0.5584200322628021
vt 0.4466502368450165 0.5711577236652374
vt 0.4921571612358093 0.5775662660598755
vt 0.5166102647781372 0.5718876123428345
vt 0.5166102647781372 0.5775662660598755
vt 0.4921571612358093 0.5718876123428345
vt 0.44637805223464966 0.5775662660598755
vt 0.44637805223464966 0.5718876123428345
vt 0.33664843440055847 0.5718876123428345
vt 0.33664843440055847 0.5775662660598755
vt 0.2911469340324402 0.5781404972076416
vt 0.2666938006877899 0.5890823006629944
vt 0.2666938304901123 0.5781404972076416
vt 0.2911469340324402 0.5890823006629944
vt 0.2666938006877899 0.599152684211731
vt 0.2911469340324402 0.599152684211731
vt 0.33692604303359985 0.5781404972076416
vt 0.33692604303359985 0.5890823006629944
vt 0.33692604303359985 0.599152684211731
vt 0.2910633385181427 0.5717313289642334
vt 0.2666102647781372 0.5774099826812744
vt 0.2666102349758148 0.5717313289642334
vt 0.2910633683204651 0.5774099826812744
vt 0.33684247732162476 0.5717312395572662
vt 0.33684250712394714 0.5774098932743073
vt 0.30991876125335693 0.6582368910312653
vt 0.28546562790870667 0.6454994082450867
vt 0.28546562790870667 0.6582368612289429
vt 0.30991873145103455 0.6454994082450867
vt 0.28546562790870667 0.6320987343788147
vt 0.30991873145103455 0.6320987343788147
vt 0.3556978106498718 0.6582369208335876
vt 0.3556978106498718 0.6454994082450867
vt 0.3556978106498718 0.6320987343788147
vt 0.4654272496700287 0.6454994082450867
vt 0.46542733907699585 0.6582368910312653
vt 0.4654272496700287 0.6320987343788147
vt 0.30991870164871216 0.6455431580543518
vt 0.28546565771102905 0.658280611038208
vt 0.2854655981063843 0.6455431580543518
vt 0.30991876125335693 0.658280611038208
vt 0.30991870164871216 0.6321425437927246
vt 0.2854655981063843 0.6321425437927246
vt 0.3556978106498718 0.6455431580543518
vt 0.3556978106498718 0.6582805514335632
vt 0.35569778084754944 0.632142573595047
vt 0.46542730927467346 0.6582805216312408
vt 0.465427428483963 0.645543098449707
vt 0.46542733907699585 0.632142573595047
vt 0.30991873145103455 0.6320987343788147
vt 0.28546562790870667 0.6077675819396973
vt 0.28546562790870667 0.6320987343788147
vt 0.30991876125335693 0.6077675819396973
vt 0.3556978106498718 0.6320987343788147
vt 0.3556978106498718 0.6077675819396973
vt 0.46542736887931824 0.6077675521373749
vt 0.4654272496700287 0.6320987343788147
vt 0.2666884958744049 0.5584200024604797
vt 0.262807160615921 0.5445939302444458
vt 0.2628071904182434 0.5582078099250793
vt 0.2666884660720825 0.5450194478034973
vt 0.2666884958744049 0.5294814109802246
vt 0.262807160615921 0.5294814109802246
vt 0.2666884660720825 0.5711576342582703
vt 0.262807160615921 0.5706409811973572
vt 0.2666938006877899 0.5890823006629944
vt 0.3214438855648041 0.5781404972076416
vt 0.3214438855648041 0.5890823006629944
vt 0.2666938304901123 0.5781404972076416
vt 0.2666938006877899 0.599152684211731
vt 0.3214438855648041 0.599152684211731
vt 0.2911415696144104 0.5450194478034973
vt 0.2666884958744049 0.5294814109802246
vt 0.2666884660720825 0.5450194478034973
vt 0.2911416292190552 0.5294814109802246
vt 0.2911416292190552 0.5584200024604797
vt 0.2666884958744049 0.5584200024604797
vt 0.2911415696144104 0.5711576342582703
vt 0.2666884660720825 0.5711576342582703
vt 0.33692073822021484 0.5450194776058197
vt 0.33692076802253723 0.5294815003871918
vt 0.33692073822021484 0.5711576640605927
vt 0.33692073822021484 0.5584200024604797
vt 0.44665029644966125 0.5294816493988037
vt 0.44665029644966125 0.5450195372104645
vt 0.44665032625198364 0.5584200322628021
vt 0.44665026664733887 0.571157693862915
vt 0.2937026023864746 0.6734461784362793
vt 0.45620256662368774 0.6811783909797668
vt 0.2937026023864746 0.6811783909797668
vt 0.45620256662368774 0.6734461784362793
vt 0.2937026023864746 0.6657139658927917
vt 0.45620256662368774 0.6734461784362793
vt 0.2937026023864746 0.6734461784362793
vt 0.45620256662368774 0.6657139658927917
vt 0.2937026023864746 0.6735714375972748
vt 0.45620256662368774 0.6657139658927917
vt 0.2937026023864746 0.6657139658927917
vt 0.45620256662368774 0.6735714375972748
vt 0.2937026023864746 0.6813036501407623
vt 0.45620256662368774 0.6735714375972748
vt 0.2937026023864746 0.6735714375972748
vt 0.45620256662368774 0.6813036501407623
vt 0.2937026023864746 0.6734461784362793
vt 0.45620256662368774 0.6811783909797668
vt 0.2937026023864746 0.6811783909797668
vt 0.45620256662368774 0.6734461784362793
vt 0.2937026023864746 0.6657139658927917
vt 0.45620256662368774 0.6734461784362793
vt 0.2937026023864746 0.6734461784362793
vt 0.45620256662368774 0.6657139658927917
vt 0.2937026023864746 0.6735714375972748
vt 0.45620256662368774 0.6657139658927917
vt 0.2937026023864746 0.6657139658927917
vt 0.45620256662368774 0.6735714375972748
vt 0.2937026023864746 0.6813036501407623
vt 0.45620256662368774 0.6735714375972748
vt 0.2937026023864746 0.6735714375972748
vt 0.45620256662368774 0.6813036501407623
vt 0.3214438855648041 0.5890823006629944
vt 0.2666938006877899 0.599152684211731
vt 0.3214438855648041 0.599152684211731
vt 0.2666938006877899 0.5890823006629944

g bg_mdl_wada_kaidou_tesuri_100
s 1
usemtl bg_mdl_wada_kaidou_tesuri_100
f 3/3/3 2/2/2 1/1/1 
f 4/4/4 1/1/1 2/2/2 
f 3/3/3 5/5/5 2/2/2 
f 6/6/6 2/2/2 5/5/5 
f 1/1/1 4/4/4 7/7/7 
f 8/8/8 7/7/7 4/4/4 
f 11/11/11 10/10/10 9/9/9 
f 12/12/12 9/9/9 10/10/10 
f 9/9/9 13/13/13 11/11/11 
f 14/14/14 11/11/11 13/13/13 
f 17/17/17 16/16/16 15/15/15 
f 18/18/18 15/15/15 16/16/16 
f 16/16/16 17/17/17 19/19/19 
f 20/20/20 19/19/19 17/17/17 
f 19/19/19 20/20/20 21/21/21 
f 22/22/22 21/21/21 20/20/20 
f 21/21/21 22/22/22 23/23/23 
f 24/24/24 23/23/23 22/22/22 
f 23/23/23 24/24/24 25/25/25 
f 26/26/26 25/25/25 24/24/24 
f 29/29/29 28/28/28 27/27/27 
f 28/28/28 30/30/30 27/27/27 
f 31/31/31 30/30/30 28/28/28 
f 34/34/34 33/33/33 32/32/32 
f 35/35/35 32/32/32 33/33/33 
f 38/38/38 37/37/37 36/36/36 
f 39/39/39 36/36/36 37/37/37 
f 42/42/42 41/41/41 40/40/40 
f 43/43/43 40/40/40 41/41/41 
f 46/46/46 45/45/45 44/44/44 
f 47/47/47 44/44/44 45/45/45 
f 50/50/50 49/49/49 48/48/48 
f 51/51/51 48/48/48 49/49/49 
f 50/50/50 48/48/48 52/52/52 
f 53/53/53 52/52/52 48/48/48 
f 52/52/52 53/53/53 54/54/54 
f 55/55/55 54/54/54 53/53/53 
f 49/49/49 50/50/50 56/56/56 
f 57/57/57 56/56/56 50/50/50 
f 54/54/54 58/58/58 52/52/52 
f 59/59/59 52/52/52 58/58/58 
f 57/57/57 50/50/50 59/59/59 
f 52/52/52 59/59/59 50/50/50 
f 62/62/62 61/61/61 60/60/60 
f 63/63/63 60/60/60 61/61/61 
f 60/60/60 64/64/64 62/62/62 
f 65/65/65 62/62/62 64/64/64 
f 68/68/68 67/67/67 66/66/66 
f 69/69/69 66/66/66 67/67/67 
f 67/67/67 68/68/68 70/70/70 
f 71/71/71 70/70/70 68/68/68 
f 66/66/66 72/72/72 68/68/68 
f 73/73/73 68/68/68 72/72/72 
f 68/68/68 73/73/73 71/71/71 
f 74/74/74 71/71/71 73/73/73 
f 77/77/77 76/76/76 75/75/75 
f 78/78/78 75/75/75 76/76/76 
f 75/75/75 79/79/79 77/77/77 
f 80/80/80 77/77/77 79/79/79 
f 83/83/83 82/82/82 81/81/81 
f 84/84/84 81/81/81 82/82/82 
f 82/82/82 83/83/83 85/85/85 
f 86/86/86 85/85/85 83/83/83 
f 81/81/81 87/87/87 83/83/83 
f 88/88/88 83/83/83 87/87/87 
f 83/83/83 88/88/88 86/86/86 
f 89/89/89 86/86/86 88/88/88 
f 92/92/92 91/91/91 90/90/90 
f 93/93/93 90/90/90 91/91/91 
f 90/90/90 93/93/93 94/94/94 
f 95/95/95 94/94/94 93/93/93 
f 90/90/90 96/96/96 92/92/92 
f 97/97/97 92/92/92 96/96/96 
f 96/96/96 90/90/90 98/98/98 
f 94/94/94 98/98/98 90/90/90 
f 101/101/101 100/100/100 99/99/99 
f 102/102/102 99/99/99 100/100/100 
f 99/99/99 103/103/103 101/101/101 
f 104/104/104 101/101/101 103/103/103 
f 107/107/107 106/106/106 105/105/105 
f 108/108/108 105/105/105 106/106/106 
f 107/107/107 109/109/109 106/106/106 
f 110/110/110 106/106/106 109/109/109 
f 105/105/105 108/108/108 111/111/111 
f 112/112/112 111/111/111 108/108/108 
f 115/115/115 114/114/114 113/113/113 
f 116/116/116 113/113/113 114/114/114 
f 114/114/114 115/115/115 117/117/117 
f 118/118/118 117/117/117 115/115/115 
f 121/121/121 120/120/120 119/119/119 
f 122/122/122 119/119/119 120/120/120 
f 119/119/119 122/122/122 123/123/123 
f 124/124/124 123/123/123 122/122/122 
f 123/123/123 124/124/124 125/125/125 
f 126/126/126 125/125/125 124/124/124 
f 119/119/119 127/127/127 121/121/121 
f 128/128/128 121/121/121 127/127/127 
f 125/125/125 129/129/129 123/123/123 
f 130/130/130 123/123/123 129/129/129 
f 127/127/127 119/119/119 130/130/130 
f 123/123/123 130/130/130 119/119/119 
f 133/133/133 132/132/132 131/131/131 
f 134/134/134 131/131/131 132/132/132 
f 137/137/137 136/136/136 135/135/135 
f 138/138/138 135/135/135 136/136/136 
f 138/138/138 136/136/136 139/139/139 
f 140/140/140 139/139/139 136/136/136 
f 135/135/135 141/141/141 137/137/137 
f 142/142/142 137/137/137 141/141/141 
f 145/145/145 144/144/144 143/143/143 
f 146/146/146 143/143/143 144/144/144 
f 143/143/143 146/146/146 147/147/147 
f 148/148/148 147/147/147 146/146/146 
f 151/151/151 150/150/150 149/149/149 
f 152/152/152 149/149/149 150/150/150 
f 150/150/150 153/153/153 152/152/152 
f 154/154/154 152/152/152 153/153/153 
f 153/153/153 155/155/155 154/154/154 
f 156/156/156 154/154/154 155/155/155 
f 155/155/155 157/157/157 156/156/156 
f 158/158/158 156/156/156 157/157/157 
f 157/157/157 159/159/159 158/158/158 
f 160/160/160 158/158/158 159/159/159 
f 163/163/163 162/162/162 161/161/161 
f 162/162/162 164/164/164 161/161/161 
f 164/164/164 165/165/165 161/161/161 
f 168/168/168 167/167/167 166/166/166 
f 169/169/169 166/166/166 167/167/167 
f 169/169/169 170/170/170 166/166/166 
f 171/171/171 166/166/166 170/170/170 
f 170/170/170 172/172/172 171/171/171 
f 173/173/173 171/171/171 172/172/172 
f 167/167/167 174/174/174 169/169/169 
f 175/175/175 169/169/169 174/174/174 
f 172/172/172 170/170/170 176/176/176 
f 177/177/177 176/176/176 170/170/170 
f 170/170/170 169/169/169 177/177/177 
f 175/175/175 177/177/177 169/169/169 
f 174/174/174 178/178/178 175/175/175 
f 179/179/179 175/175/175 178/178/178 
f 175/175/175 179/179/179 177/177/177 
f 177/177/177 180/180/180 176/176/176 
f 180/180/180 177/177/177 179/179/179 
f 181/181/181 176/176/176 180/180/180 
f 184/184/184 183/183/183 182/182/182 
f 185/185/185 182/182/182 183/183/183 
f 182/182/182 185/185/185 186/186/186 
f 187/187/187 186/186/186 185/185/185 
f 187/187/187 188/188/188 186/186/186 
f 189/189/189 186/186/186 188/188/188 
f 192/192/192 191/191/191 190/190/190 
f 193/193/193 190/190/190 191/191/191 
f 191/191/191 194/194/194 193/193/193 
f 195/195/195 193/193/193 194/194/194 
f 190/190/190 193/193/193 196/196/196 
f 197/197/197 196/196/196 193/193/193 
f 193/193/193 195/195/195 197/197/197 
f 198/198/198 197/197/197 195/195/195 
f 201/201/201 200/200/200 199/199/199 
f 202/202/202 199/199/199 200/200/200 
f 199/199/199 202/202/202 203/203/203 
f 204/204/204 203/203/203 202/202/202 
f 207/207/207 206/206/206 205/205/205 
f 208/208/208 205/205/205 206/206/206 
f 206/206/206 209/209/209 208/208/208 
f 210/210/210 208/208/208 209/209/209 
f 205/205/205 208/208/208 211/211/211 
f 212/212/212 211/211/211 208/208/208 
f 208/208/208 210/210/210 212/212/212 
f 213/213/213 212/212/212 210/210/210 
f 212/212/212 214/214/214 211/211/211 
f 215/215/215 211/211/211 214/214/214 
f 214/214/214 212/212/212 216/216/216 
f 213/213/213 216/216/216 212/212/212 
f 219/219/219 218/218/218 217/217/217 
f 220/220/220 217/217/217 218/218/218 
f 217/217/217 221/221/221 219/219/219 
f 222/222/222 219/219/219 221/221/221 
f 217/217/217 220/220/220 223/223/223 
f 224/224/224 223/223/223 220/220/220 
f 221/221/221 217/217/217 225/225/225 
f 223/223/223 225/225/225 217/217/217 
f 224/224/224 226/226/226 223/223/223 
f 227/227/227 223/223/223 226/226/226 
f 223/223/223 227/227/227 225/225/225 
f 228/228/228 225/225/225 227/227/227 
f 231/231/231 230/230/230 229/229/229 
f 232/232/232 229/229/229 230/230/230 
f 229/229/229 232/232/232 233/233/233 
f 234/234/234 233/233/233 232/232/232 
f 234/234/234 235/235/235 233/233/233 
f 236/236/236 233/233/233 235/235/235 
f 239/239/239 238/238/238 237/237/237 
f 240/240/240 237/237/237 238/238/238 
f 240/240/240 238/238/238 241/241/241 
f 242/242/242 241/241/241 238/238/238 
f 237/237/237 243/243/243 239/239/239 
f 244/244/244 239/239/239 243/243/243 
f 247/247/247 246/246/246 245/245/245 
f 248/248/248 245/245/245 246/246/246 
f 245/245/245 249/249/249 247/247/247 
f 250/250/250 247/247/247 249/249/249 
f 253/253/253 252/252/252 251/251/251 
f 254/254/254 251/251/251 252/252/252 
f 251/251/251 255/255/255 253/253/253 
f 256/256/256 253/253/253 255/255/255 
f 255/255/255 257/257/257 256/256/256 
f 258/258/258 256/256/256 257/257/257 
f 251/251/251 254/254/254 259/259/259 
f 260/260/260 259/259/259 254/254/254 
f 257/257/257 255/255/255 261/261/261 
f 262/262/262 261/261/261 255/255/255 
f 255/255/255 251/251/251 262/262/262 
f 259/259/259 262/262/262 251/251/251 
f 260/260/260 263/263/263 259/259/259 
f 264/264/264 259/259/259 263/263/263 
f 259/259/259 264/264/264 262/262/262 
f 262/262/262 265/265/265 261/261/261 
f 265/265/265 262/262/262 264/264/264 
f 266/266/266 261/261/261 265/265/265 
f 269/269/269 268/268/268 267/267/267 
f 270/270/270 267/267/267 268/268/268 
f 273/273/273 272/272/272 271/271/271 
f 274/274/274 271/271/271 272/272/272 
f 277/277/277 276/276/276 275/275/275 
f 278/278/278 275/275/275 276/276/276 
f 281/281/281 280/280/280 279/279/279 
f 282/282/282 279/279/279 280/280/280 
f 285/285/285 284/284/284 283/283/283 
f 286/286/286 283/283/283 284/284/284 
f 289/289/289 288/288/288 287/287/287 
f 290/290/290 287/287/287 288/288/288 
f 293/293/293 292/292/292 291/291/291 
f 294/294/294 291/291/291 292/292/292 
f 297/297/297 296/296/296 295/295/295 
f 298/298/298 295/295/295 296/296/296 
f 301/301/301 300/300/300 299/299/299 
f 302/302/302 299/299/299 300/300/300 

