v -0.1404026299715042 0.7058514952659607 0.5320532321929932
v -9.539425604998542e-08 0.5906583070755005 0.5366328358650208
v -0.11523173749446869 0.5793090462684631 0.5366325378417969
v -1.1006442690586482e-07 0.7196800112724304 0.5320529341697693
v -0.2754095494747162 0.6648975014686584 0.5320532321929932
v -0.22603514790534973 0.5456971526145935 0.5366328358650208
v -0.39983272552490234 0.5983920693397522 0.532053530216217
v -0.3281521499156952 0.4911145567893982 0.5366328358650208
v -0.5088905692100525 0.508890688419342 0.5320529341697693
v -0.41765856742858887 0.4176585376262665 0.5366328358650208
v -0.5983920693397522 0.3998328447341919 0.5320538282394409
v -0.4911145567893982 0.3281521499156952 0.5366328358650208
v -0.6648976802825928 0.2754093408584595 0.532053530216217
v -0.5456972718238831 0.22603507339954376 0.5366328358650208
v -0.7058514952659607 0.14040233194828033 0.5320532321929932
v -0.5793091058731079 0.11523152142763138 0.5366325378417969
v -0.7196799516677856 -2.9564643000412616e-07 0.532053530216217
v -0.59065842628479 -2.1177554287987732e-07 0.5366328358650208
v -0.7058514952659607 -0.1404028981924057 0.5320532321929932
v -0.5793090462684631 -0.11523205786943436 0.5366328358650208
v -0.6648974418640137 -0.2754100263118744 0.5320529341697693
v -0.5456971526145935 -0.22603553533554077 0.5366328358650208
v -0.5983918309211731 -0.39983317255973816 0.5320532321929932
v -0.4911142885684967 -0.32815253734588623 0.5366328358650208
v -0.5088902711868286 -0.5088909864425659 0.532053530216217
v -0.41765838861465454 -0.4176589250564575 0.5366328358650208
v -0.3998323976993561 -0.5983923077583313 0.532053530216217
v -0.3281518816947937 -0.4911147952079773 0.5366328358650208
v -0.2754090130329132 -0.6648977994918823 0.532053530216217
v -0.22603477537631989 -0.5456974506378174 0.5366328358650208
v -0.14040203392505646 -0.7058517336845398 0.5320532321929932
v -0.11523124575614929 -0.5793091654777527 0.5366331338882446
v 6.589784220523143e-07 -0.7196800708770752 0.5320532321929932
v 4.910452275908028e-07 -0.5906584858894348 0.5366328358650208
v 0.14040325582027435 -0.7058514952659607 0.5320529341697693
v 0.11523231863975525 -0.5793090462684631 0.5366328358650208
v 0.2754102945327759 -0.6648973822593689 0.5320532321929932
v 0.22603587806224823 -0.545697033405304 0.5366325378417969
v 0.3998335301876068 -0.598391592502594 0.5320529341697693
v 0.3281528353691101 -0.4911141097545624 0.5366328358650208
v 0.5088911652565002 -0.5088900923728943 0.5320532321929932
v 0.41765907406806946 -0.4176580607891083 0.5366328358650208
v 0.5983927249908447 -0.3998320996761322 0.5320532321929932
v 0.49111491441726685 -0.3281516134738922 0.5366328358650208
v 0.6648979783058167 -0.2754087448120117 0.5320532321929932
v 0.5456975698471069 -0.22603434324264526 0.5366328358650208
v 0.7058515548706055 -0.14040158689022064 0.5320529341697693
v 0.5793090462684631 -0.1152309775352478 0.5366328358650208
v 0.7196800708770752 1.132576016971143e-06 0.5320532321929932
v 0.5906583070755005 9.611032965040067e-07 0.5366328358650208
v 0.7058512568473816 0.14040374755859375 0.5320532321929932
v 0.5793088674545288 0.11523260176181793 0.5366328358650208
v 0.664897084236145 0.27541089057922363 0.532053530216217
v 0.5456967949867249 0.22603604197502136 0.5366328358650208
v 0.5983912944793701 0.3998337984085083 0.5320529341697693
v 0.49111393094062805 0.328153133392334 0.5366328358650208
v 0.5088896155357361 0.5088915228843689 0.532053530216217
v 0.4176577031612396 0.41765913367271423 0.5366328358650208
v 0.3998316526412964 0.5983927249908447 0.5320529341697693
v 0.3281511962413788 0.49111518263816833 0.5366328358650208
v 0.27540823817253113 0.664898157119751 0.5320529341697693
v 0.2260342240333557 0.5456977486610413 0.5366328358650208
v 0.14040106534957886 0.705851674079895 0.5320529341697693
v 0.11523046344518661 0.5793092250823975 0.5366328358650208
v -1.1006442690586482e-07 0.7196800112724304 0.5320529341697693
v -9.539425604998542e-08 0.5906583070755005 0.5366328358650208
v -0.1927964985370636 0.969253420829773 0.2057923823595047
v -1.0522688853598083e-07 0.8769523501396179 0.211811825633049
v -0.17108501493930817 0.8601020574569702 0.211811825633049
v -1.3252477515379724e-07 0.9882421493530273 0.20579223334789276
v -0.37818393111228943 0.9130168557167053 0.2057923823595047
v -0.33559516072273254 0.8101984858512878 0.211811825633049
v -0.5490379929542542 0.8216932415962219 0.2057923823595047
v -0.4872087240219116 0.7291593551635742 0.211811825633049
v -0.6987927556037903 0.6987928748130798 0.20579253137111664
v -0.6200990080833435 0.6200989484786987 0.21181151270866394
v -0.821693480014801 0.5490378141403198 0.20579253137111664
v -0.7291594743728638 0.48720863461494446 0.21181121468544006
v -0.9130168557167053 0.3781837522983551 0.2057928442955017
v -0.8101986646652222 0.33559513092041016 0.21181151270866394
v -0.9692535400390625 0.19279612600803375 0.20579253137111664
v -0.8601022362709045 0.17108477652072906 0.211811825633049
v -0.9882423281669617 -3.2600297572571435e-07 0.20579223334789276
v -0.876952588558197 -3.2098992619467026e-07 0.211811825633049
v -0.969253420829773 -0.19279707968235016 0.20579253137111664
v -0.860102117061615 -0.17108535766601562 0.21181151270866394
v -0.9130166172981262 -0.3781844973564148 0.20579223334789276
v -0.8101984262466431 -0.33559566736221313 0.21181151270866394
v -0.8216930031776428 -0.5490385293960571 0.2057919204235077
v -0.7291591763496399 -0.4872092008590698 0.21181151270866394
v -0.6987923979759216 -0.6987934112548828 0.2057928442955017
v -0.6200987696647644 -0.6200996041297913 0.21181151270866394
v -0.5490373969078064 -0.8216939568519592 0.2057923823595047
v -0.4872082471847534 -0.7291598320007324 0.211811825633049
v -0.3781832158565521 -0.9130171537399292 0.20579269528388977
v -0.33559450507164 -0.810198962688446 0.211811825633049
v -0.19279569387435913 -0.969253659248352 0.20579269528388977
v -0.17108416557312012 -0.8601023554801941 0.211811825633049
v 9.551214361636085e-07 -0.9882423877716064 0.20579223334789276
v 8.623981102573453e-07 -0.8769526481628418 0.21181151270866394
v 0.1927974969148636 -0.969253420829773 0.20579269528388977
v 0.17108604311943054 -0.8601020574569702 0.21181151270866394
v 0.3781850039958954 -0.9130164980888367 0.2057923823595047
v 0.33559614419937134 -0.8101982474327087 0.21181151270866394
v 0.5490392446517944 -0.821692943572998 0.2057923823595047
v 0.48720961809158325 -0.7291589975357056 0.21181219816207886
v 0.6987937092781067 -0.6987920999526978 0.20579223334789276
v 0.6200998425483704 -0.620098352432251 0.211811825633049
v 0.8216941356658936 -0.5490369200706482 0.20579253137111664
v 0.7291598320007324 -0.4872077405452728 0.21181151270866394
v 0.9130173921585083 -0.37818270921707153 0.20579253137111664
v 0.8101990222930908 -0.3355940878391266 0.211811825633049
v 0.969253659248352 -0.19279511272907257 0.2057928442955017
v 0.8601022958755493 -0.17108368873596191 0.211811825633049
v 0.9882423281669617 1.4142307236397755e-06 0.20579253137111664
v 0.8769524097442627 1.3239723557489924e-06 0.211811825633049
v 0.9692531228065491 0.1927979737520218 0.20579223334789276
v 0.8601019382476807 0.1710864007472992 0.211811825633049
v 0.9130160212516785 0.37818557024002075 0.20579223334789276
v 0.8101978898048401 0.33559656143188477 0.21181151270866394
v 0.8216924071311951 0.5490394234657288 0.20579253137111664
v 0.7291586399078369 0.4872099459171295 0.211811825633049
v 0.6987915635108948 0.6987940073013306 0.20579253137111664
v 0.6200977563858032 0.6201001405715942 0.211811825633049
v 0.5490362644195557 0.8216943740844727 0.20579269528388977
v 0.48720720410346985 0.7291601300239563 0.211811825633049
v 0.378182053565979 0.9130175709724426 0.20579269528388977
v 0.33559364080429077 0.8101990818977356 0.211811825633049
v 0.19279438257217407 0.9692538380622864 0.2057923823595047
v 0.17108303308486938 0.8601024150848389 0.21181151270866394
v -1.3252477515379724e-07 0.9882421493530273 0.20579223334789276
v -1.0522688853598083e-07 0.8769523501396179 0.211811825633049
v -0.18106910586357117 0.9102952480316162 -0.21405147016048431
v -2.6807458475275325e-09 0.8365447521209717 -0.2081879824399948
v -0.16320174932479858 0.8204708695411682 -0.20818766951560974
v -1.1416597800462114e-07 0.9281291961669922 -0.21405147016048431
v -0.35517966747283936 0.8574796319007874 -0.21405161917209625
v -0.3201318681240082 0.7728666663169861 -0.20818766951560974
v -0.5156409740447998 0.7717109322547913 -0.21405178308486938
v -0.4647594094276428 0.6955616474151611 -0.2081879824399948
v -0.6562865376472473 0.656286358833313 -0.21405147016048431
v -0.5915265083312988 0.5915263891220093 -0.2081879824399948
v -0.7717113494873047 0.5156407356262207 -0.21405161917209625
v -0.6955616474151611 0.46475934982299805 -0.20818766951560974
v -0.8574797511100769 0.3551793694496155 -0.2140512764453888
v -0.7728667259216309 0.3201316297054291 -0.20818781852722168
v -0.9102955460548401 0.1810685247182846 -0.21405147016048431
v -0.820470929145813 0.1632014811038971 -0.20818781852722168
v -0.9281293749809265 -5.215893565946317e-07 -0.21405147016048431
v -0.8365448713302612 -3.4034403029181703e-07 -0.2081879824399948
v -0.9102955460548401 -0.18106961250305176 -0.21405147016048431
v -0.8204708695411682 -0.16320213675498962 -0.2081875205039978
v -0.857479453086853 -0.3551803231239319 -0.21405161917209625
v -0.772866427898407 -0.320132315158844 -0.20818781852722168
v -0.7717111110687256 -0.5156415700912476 -0.2140515148639679
v -0.6955613493919373 -0.46475985646247864 -0.20818781852722168
v -0.6562862396240234 -0.6562871336936951 -0.21405147016048431
v -0.5915261507034302 -0.5915269255638123 -0.20818781852722168
v -0.5156404972076416 -0.7717119455337524 -0.21405147016048431
v -0.4647589325904846 -0.695561945438385 -0.20818781852722168
v -0.3551788926124573 -0.8574802279472351 -0.21405132114887238
v -0.32013124227523804 -0.77286696434021 -0.20818781852722168
v -0.18106825649738312 -0.9102959036827087 -0.21405132114887238
v -0.16320113837718964 -0.8204711079597473 -0.20818766951560974
v 9.844667374636629e-07 -0.9281296133995056 -0.21405147016048431
v 8.769784471951425e-07 -0.836544930934906 -0.2081879824399948
v 0.18107005953788757 -0.9102956056594849 -0.21405147016048431
v 0.1632026582956314 -0.8204708099365234 -0.2081879824399948
v 0.35518068075180054 -0.8574795126914978 -0.21405147016048431
v 0.32013270258903503 -0.7728662490844727 -0.20818781852722168
v 0.5156419277191162 -0.7717110514640808 -0.21405147016048431
v 0.4647601842880249 -0.6955610513687134 -0.20818781852722168
v 0.6562873721122742 -0.6562859416007996 -0.21405147016048431
v 0.5915274024009705 -0.5915258526802063 -0.20818766951560974
v 0.7717118859291077 -0.5156400799751282 -0.21405135095119476
v 0.6955623626708984 -0.4647585153579712 -0.2081875205039978
v 0.8574802875518799 -0.35517868399620056 -0.21405147016048431
v 0.7728670835494995 -0.3201308250427246 -0.20818781852722168
v 0.9102956652641296 -0.18106776475906372 -0.21405161917209625
v 0.8204711079597473 -0.1632005125284195 -0.20818766951560974
v 0.9281290769577026 1.3460861509884126e-06 -0.21405147016048431
v 0.8365448713302612 1.4189744206305477e-06 -0.20818766951560974
v 0.9102950096130371 0.18107052147388458 -0.21405147016048431
v 0.8204706907272339 0.16320323944091797 -0.20818766951560974
v 0.85747891664505 0.3551810085773468 -0.21405142545700073
v 0.772865891456604 0.3201330900192261 -0.20818781852722168
v 0.7717102766036987 0.5156422853469849 -0.21405147016048431
v 0.6955606937408447 0.4647607207298279 -0.20818766951560974
v 0.6562852263450623 0.656287670135498 -0.21405161917209625
v 0.5915253758430481 0.5915276408195496 -0.20818766951560974
v 0.5156393647193909 0.7717119455337524 -0.21405147016048431
v 0.4647580683231354 0.695562481880188 -0.20818781852722168
v 0.35517793893814087 0.8574802279472351 -0.21405132114887238
v 0.32013025879859924 0.7728675007820129 -0.20818781852722168
v 0.1810670793056488 0.910295844078064 -0.21405147016048431
v 0.1632000356912613 0.8204712271690369 -0.20818766951560974
v -1.1416597800462114e-07 0.9281291961669922 -0.21405147016048431
v -2.6807458475275325e-09 0.8365447521209717 -0.2081879824399948
v -0.092534139752388 0.46520090103149414 -0.6176320314407349
v -4.691305566240089e-09 0.3867376744747162 -0.6051968336105347
v -0.07544875890016556 0.3793065845966339 -0.6051968336105347
v 6.513064310098571e-09 0.47431468963623047 -0.6176320314407349
v -0.18151241540908813 0.4382096827030182 -0.6176320314407349
v -0.14799806475639343 0.35729900002479553 -0.6051968336105347
v -0.2635152041912079 0.3943781852722168 -0.6176320314407349
v -0.21485988795757294 0.3215605914592743 -0.6051966547966003
v -0.33539116382598877 0.33539122343063354 -0.6176320314407349
v -0.2734648883342743 0.2734648287296295 -0.6051968336105347
v -0.3943783938884735 0.2635149657726288 -0.6176320314407349
v -0.32156065106391907 0.21485988795757294 -0.6051966547966003
v -0.43820974230766296 0.18151222169399261 -0.6176320314407349
v -0.3572990596294403 0.14799796044826508 -0.6051968336105347
v -0.4652009606361389 0.09253394603729248 -0.6176320314407349
v -0.3793066442012787 0.07544855773448944 -0.6051968336105347
v -0.4743146300315857 -1.941466649668655e-07 -0.6176319122314453
v -0.3867376744747162 -1.9719900024028902e-07 -0.6051966547966003
v -0.46520084142684937 -0.09253450483083725 -0.6176319122314453
v -0.3793066442012787 -0.0754489153623581 -0.6051968336105347
v -0.43820956349372864 -0.18151280283927917 -0.6176320314407349
v -0.35729891061782837 -0.14799825847148895 -0.6051968336105347
v -0.3943781554698944 -0.263515442609787 -0.6176320314407349
v -0.32156047224998474 -0.21486012637615204 -0.6051966547966003
v -0.33539098501205444 -0.33539146184921265 -0.6176320314407349
v -0.2734645903110504 -0.27346497774124146 -0.6051968336105347
v -0.26351481676101685 -0.39437857270240784 -0.6176320314407349
v -0.2148597538471222 -0.32156074047088623 -0.6051966547966003
v -0.1815120279788971 -0.4382098317146301 -0.6176319122314453
v -0.14799782633781433 -0.3572990596294403 -0.6051969528198242
v -0.09253384172916412 -0.4652010500431061 -0.6176320314407349
v -0.07544852048158646 -0.3793066442012787 -0.6051968336105347
v 4.679388041495258e-07 -0.4743148386478424 -0.6176320314407349
v 3.862682831368147e-07 -0.3867376744747162 -0.6051968336105347
v 0.0925346165895462 -0.46520084142684937 -0.6176320314407349
v 0.0754491537809372 -0.379306435585022 -0.6051968336105347
v 0.18151317536830902 -0.438209593296051 -0.6176320314407349
v 0.14799845218658447 -0.35729873180389404 -0.6051966547966003
v 0.26351574063301086 -0.39437803626060486 -0.6176320314407349
v 0.21486018598079681 -0.32156023383140564 -0.6051968336105347
v 0.3353915810585022 -0.3353908956050873 -0.6176320314407349
v 0.27346503734588623 -0.27346450090408325 -0.6051968336105347
v 0.39437857270240784 -0.2635146975517273 -0.6176320314407349
v 0.3215610384941101 -0.2148595005273819 -0.6051968336105347
v 0.43820998072624207 -0.18151189386844635 -0.6176320314407349
v 0.35729914903640747 -0.14799757301807404 -0.6051968336105347
v 0.46520110964775085 -0.09253356605768204 -0.6176320314407349
v 0.3793065547943115 -0.07544813305139542 -0.6051968336105347
v 0.47431471943855286 5.748960347773391e-07 -0.6176320314407349
v 0.3867376148700714 5.847202260156337e-07 -0.6051968336105347
v 0.4652007818222046 0.09253488481044769 -0.6176320314407349
v 0.3793065547943115 0.07544934004545212 -0.6051968336105347
v 0.4382094144821167 0.18151313066482544 -0.6176320314407349
v 0.3572988510131836 0.1479988396167755 -0.6051968336105347
v 0.39437776803970337 0.2635158598423004 -0.6176320314407349
v 0.32156017422676086 0.2148604542016983 -0.6051966547966003
v 0.33539047837257385 0.33539173007011414 -0.6176320314407349
v 0.27346426248550415 0.2734653353691101 -0.6051968336105347
v 0.26351436972618103 0.3943786919116974 -0.6176320314407349
v 0.21485929191112518 0.3215610086917877 -0.6051968336105347
v 0.18151147663593292 0.43820998072624207 -0.6176320314407349
v 0.14799727499485016 0.3572992980480194 -0.6051968336105347
v 0.09253308176994324 0.4652010500431061 -0.6176320314407349
v 0.07544797658920288 0.37930670380592346 -0.6051968336105347
v 6.513064310098571e-09 0.47431468963623047 -0.6176320314407349
v -4.691305566240089e-09 0.3867376744747162 -0.6051968336105347
vn -0.0069200703874230385 0.03478987514972687 0.9993707537651062
vn -0.0 0.035473767668008804 0.9993706345558167
vn -0.006920795422047377 0.03478927165269852 0.9993707537651062
vn 1.0738983746705344e-06 0.035475004464387894 0.9993706345558167
vn -0.013573038391768932 0.032772522419691086 0.9993707537651062
vn -0.013572782278060913 0.03277271240949631 0.9993707537651062
vn -0.01970779336988926 0.029492055997252464 0.9993707537651062
vn -0.01970789022743702 0.029492700472474098 0.9993707537651062
vn -0.02508246712386608 0.02508530393242836 0.9993706345558167
vn -0.025082094594836235 0.025084765627980232 0.9993706345558167
vn -0.02949134260416031 0.01970643922686577 0.9993707537651062
vn -0.029491320252418518 0.019704697653651237 0.9993708729743958
vn -0.03277046978473663 0.013572091236710548 0.9993707537651062
vn -0.032770637422800064 0.013572750613093376 0.9993707537651062
vn -0.034788891673088074 0.006919825449585915 0.9993707537651062
vn -0.034788910299539566 0.006919791456311941 0.9993707537651062
vn -0.03547019511461258 0.0 0.9993707537651062
vn -0.0354708656668663 6.886290293550701e-07 0.9993707537651062
vn -0.034790217876434326 -0.006921964697539806 0.9993707537651062
vn -0.034791477024555206 -0.006921110674738884 0.9993706345558167
vn -0.032774340361356735 -0.013575100339949131 0.9993706345558167
vn -0.032774362713098526 -0.013574925251305103 0.9993706345558167
vn -0.02949579618871212 -0.019706424325704575 0.9993706345558167
vn -0.029494307935237885 -0.019706735387444496 0.9993707537651062
vn -0.025082090869545937 -0.025081226602196693 0.9993707537651062
vn -0.02508128620684147 -0.025081302970647812 0.9993707537651062
vn -0.01970621384680271 -0.02949249930679798 0.9993707537651062
vn -0.019706211984157562 -0.02949249930679798 0.9993707537651062
vn -0.013572880998253822 -0.03277071937918663 0.9993707537651062
vn -0.013574283570051193 -0.03277146816253662 0.9993707537651062
vn -0.0069205062463879585 -0.034792255610227585 0.9993706345558167
vn -0.0069214110262691975 -0.034792542457580566 0.9993706345558167
vn 1.6670122704454116e-06 -0.03547327220439911 0.9993706345558167
vn 1.9644614894787082e-06 -0.035473208874464035 0.9993706345558167
vn 0.006920321378856897 -0.0347929522395134 0.9993706345558167
vn 0.006920555140823126 -0.034792181104421616 0.9993706345558167
vn 0.01357530988752842 -0.032770950347185135 0.9993707537651062
vn 0.013575708493590355 -0.03277086466550827 0.9993707537651062
vn 0.019707422703504562 -0.029495976865291595 0.9993706345558167
vn 0.01970697194337845 -0.02949698641896248 0.9993706345558167
vn 0.025082886219024658 -0.025083743035793304 0.9993706345558167
vn 0.025082964450120926 -0.025082916021347046 0.9993706345558167
vn 0.029494432732462883 -0.019707484170794487 0.9993706345558167
vn 0.029494432732462883 -0.01970747858285904 0.9993706345558167
vn 0.032772887498140335 -0.013573716394603252 0.9993706345558167
vn 0.03277323767542839 -0.013574354350566864 0.9993706345558167
vn 0.034792784601449966 -0.006921134423464537 0.9993706345558167
vn 0.0347927026450634 -0.006921285297721624 0.9993706345558167
vn 0.03547311946749687 -5.821267450301093e-07 0.9993706345558167
vn 0.03547260910272598 0.0 0.9993706345558167
vn 0.0347912423312664 0.0069193653762340546 0.9993706345558167
vn 0.03479062020778656 0.006919689942151308 0.9993707537651062
vn 0.032770123332738876 0.013575578108429909 0.9993707537651062
vn 0.0327707976102829 0.013575532473623753 0.9993707537651062
vn 0.029496019706130028 0.019707588478922844 0.9993706345558167
vn 0.02949613891541958 0.01970725692808628 0.9993706345558167
vn 0.025081297382712364 0.025082699954509735 0.9993707537651062
vn 0.025081101804971695 0.02508300356566906 0.9993707537651062
vn 0.019707193598151207 0.029496263712644577 0.9993706345558167
vn 0.019708851352334023 0.02949642948806286 0.9993706345558167
vn 0.013575644232332706 0.03277470916509628 0.9993706345558167
vn 0.013575652614235878 0.03277471289038658 0.9993706345558167
vn 0.006920781917870045 0.034793417900800705 0.9993706345558167
vn 0.00692075677216053 0.03479339927434921 0.9993706345558167
vn 1.0738983746705344e-06 0.035475004464387894 0.9993706345558167
vn -0.0 0.035473767668008804 0.9993706345558167
vn -0.010536490939557552 0.05297151952981949 0.9985404014587402
vn 1.1379217994544888e-06 0.05401016026735306 0.9985404014587402
vn -0.010536613874137402 0.05297127738595009 0.9985404014587402
vn 7.034344662315561e-07 0.05400965362787247 0.9985404014587402
vn -0.020668374374508858 0.049897827208042145 0.9985404014587402
vn -0.020668374374508858 0.04989783465862274 0.9985404014587402
vn -0.03000551648437977 0.04490715265274048 0.9985404014587402
vn -0.030005399137735367 0.044906359165906906 0.9985405206680298
vn -0.038188014179468155 0.038187507539987564 0.9985406398773193
vn -0.038187697529792786 0.03818605840206146 0.9985406398773193
vn -0.04490148276090622 0.030002553015947342 0.9985407590866089
vn -0.04490131139755249 0.030002038925886154 0.9985407590866089
vn -0.049891527742147446 0.020665809512138367 0.9985407590866089
vn -0.049892280250787735 0.020666668191552162 0.9985407590866089
vn -0.052969176322221756 0.010535579174757004 0.9985405206680298
vn -0.052970364689826965 0.010536766611039639 0.9985405206680298
vn -0.054009974002838135 4.4171204649501306e-07 0.9985404014587402
vn -0.05400947481393814 3.1866255767454277e-07 0.9985404014587402
vn -0.052968017756938934 -0.01053700502961874 0.9985406398773193
vn -0.05296742543578148 -0.010537385940551758 0.9985406398773193
vn -0.049895744770765305 -0.020668763667345047 0.9985405206680298
vn -0.049896806478500366 -0.020668594166636467 0.9985405206680298
vn -0.0449088029563427 -0.03000468574464321 0.9985404014587402
vn -0.04490789771080017 -0.030004439875483513 0.9985404014587402
vn -0.03818616643548012 -0.0381864495575428 0.9985407590866089
vn -0.0381857194006443 -0.03818664327263832 0.9985407590866089
vn -0.030005790293216705 -0.04490549862384796 0.9985405206680298
vn -0.030006758868694305 -0.044905733317136765 0.9985404014587402
vn -0.02066778391599655 -0.04989567771553993 0.9985405206680298
vn -0.020667297765612602 -0.04989539459347725 0.9985405206680298
vn -0.010534909553825855 -0.05296887084841728 0.9985405206680298
vn -0.010535006411373615 -0.05296901613473892 0.9985405206680298
vn -1.3153345435057417e-07 -0.054007530212402344 0.9985405206680298
vn -0.0 -0.054007016122341156 0.9985405206680298
vn 0.010536041110754013 -0.052966516464948654 0.9985406398773193
vn 0.010536296293139458 -0.052966248244047165 0.9985407590866089
vn 0.020667513832449913 -0.049894802272319794 0.9985406398773193
vn 0.02066729962825775 -0.049896590411663055 0.9985405206680298
vn 0.030006498098373413 -0.04490911215543747 0.9985402822494507
vn 0.030006350949406624 -0.04491008073091507 0.9985402822494507
vn 0.03819146007299423 -0.0381912887096405 0.9985402822494507
vn 0.0381910465657711 -0.038189783692359924 0.9985404014587402
vn 0.04490435868501663 -0.030003821477293968 0.9985406398773193
vn 0.04490424320101738 -0.03000318817794323 0.9985406398773193
vn 0.049895647913217545 -0.02066878229379654 0.9985405206680298
vn 0.04989565163850784 -0.020668979734182358 0.9985405206680298
vn 0.05296780914068222 -0.0105354068800807 0.9985406398773193
vn 0.052967824041843414 -0.010535270906984806 0.9985406398773193
vn 0.05400717258453369 1.2122578709750087e-06 0.9985405206680298
vn 0.054008085280656815 6.622992145821627e-07 0.9985405206680298
vn 0.052972134202718735 0.01053723692893982 0.9985404014587402
vn 0.05297211557626724 0.010537130758166313 0.9985404014587402
vn 0.049897171556949615 0.020667891949415207 0.9985405206680298
vn 0.04989662393927574 0.020668042823672295 0.9985405206680298
vn 0.04490615800023079 0.03000441938638687 0.9985405206680298
vn 0.044906217604875565 0.030004411935806274 0.9985405206680298
vn 0.0381893515586853 0.03818899020552635 0.9985405206680298
vn 0.03818909078836441 0.038188911974430084 0.9985405206680298
vn 0.03000447526574135 0.044904742389917374 0.9985405206680298
vn 0.030004233121871948 0.044904645532369614 0.9985406398773193
vn 0.02066650427877903 0.049895670264959335 0.9985406398773193
vn 0.020666474476456642 0.04989562928676605 0.9985406398773193
vn 0.010534806177020073 0.05296892300248146 0.9985405206680298
vn 0.010535230860114098 0.05296951159834862 0.9985405206680298
vn 7.034344662315561e-07 0.05400965362787247 0.9985404014587402
vn 1.1379217994544888e-06 0.05401016026735306 0.9985404014587402
vn -0.012465112842619419 0.06266725808382034 0.9979566335678101
vn -7.885960826570226e-07 0.06389260292053223 0.9979567527770996
vn -0.012464793398976326 0.06266813725233078 0.9979566335678101
vn -6.544041184497473e-07 0.06389258801937103 0.9979567527770996
vn -0.024452809244394302 0.05903270095586777 0.9979565143585205
vn -0.024452760815620422 0.059032686054706573 0.9979565143585205
vn -0.035498522222042084 0.05312749743461609 0.9979566335678101
vn -0.03549839183688164 0.053126636892557144 0.9979566335678101
vn -0.045178912580013275 0.04517874866724014 0.9979567527770996
vn -0.04517911747097969 0.045178916305303574 0.9979567527770996
vn -0.05312703177332878 0.03549998998641968 0.9979565143585205
vn -0.05312690511345863 0.035500168800354004 0.9979565143585205
vn -0.059029098600149155 0.024450132623314857 0.9979567527770996
vn -0.059028785675764084 0.024449547752738 0.9979568719863892
vn -0.06266577541828156 0.012464789673686028 0.9979567527770996
vn -0.06266579031944275 0.012464904226362705 0.9979567527770996
vn -0.06389224529266357 -3.1269775035980274e-07 0.9979568719863892
vn -0.06389275193214417 -1.590586151678508e-07 0.9979567527770996
vn -0.06266845017671585 -0.012465130537748337 0.9979565143585205
vn -0.0626690462231636 -0.012464801780879498 0.9979565143585205
vn -0.05903162434697151 -0.024452194571495056 0.9979566335678101
vn -0.05903107672929764 -0.02445225976407528 0.9979566335678101
vn -0.053126171231269836 -0.0354975201189518 0.9979566335678101
vn -0.05312589183449745 -0.0354975089430809 0.9979567527770996
vn -0.045179583132267 -0.045179594308137894 0.9979567527770996
vn -0.04517950862646103 -0.0451795719563961 0.9979567527770996
vn -0.03549763560295105 -0.05312532186508179 0.9979567527770996
vn -0.03549744188785553 -0.05312516912817955 0.9979567527770996
vn -0.024450551718473434 -0.05902859568595886 0.9979568719863892
vn -0.024450544267892838 -0.05902864784002304 0.9979568719863892
vn -0.012464797124266624 -0.06266563385725021 0.9979567527770996
vn -0.012464857660233974 -0.06266558915376663 0.9979567527770996
vn 8.040344710025238e-07 -0.06389214843511581 0.9979568719863892
vn 1.0065338074127794e-06 -0.06389184296131134 0.9979568719863892
vn 0.012464758940041065 -0.06266419589519501 0.9979568719863892
vn 0.012464703992009163 -0.06266448646783829 0.9979568719863892
vn 0.024450676515698433 -0.05902969837188721 0.9979567527770996
vn 0.024450626224279404 -0.05903000384569168 0.9979567527770996
vn 0.03549736738204956 -0.053125422447919846 0.9979567527770996
vn 0.03549744188785553 -0.05312572419643402 0.9979567527770996
vn 0.04518021270632744 -0.04518093541264534 0.9979566335678101
vn 0.045180343091487885 -0.04518137499690056 0.9979566335678101
vn 0.05312733352184296 -0.03549861162900925 0.9979566335678101
vn 0.05312715843319893 -0.03549836203455925 0.9979566335678101
vn 0.059030789881944656 -0.02445000596344471 0.9979567527770996
vn 0.0590309239923954 -0.024450009688735008 0.9979567527770996
vn 0.06266865134239197 -0.012465999461710453 0.9979565143585205
vn 0.06266890466213226 -0.012466300278902054 0.9979565143585205
vn 0.06389570236206055 0.0 0.9979566335678101
vn 0.06389547884464264 1.0562051500073721e-07 0.9979566335678101
vn 0.0626678466796875 0.012465383857488632 0.9979566335678101
vn 0.06266745179891586 0.01246546022593975 0.9979566335678101
vn 0.059029798954725266 0.024451475590467453 0.9979567527770996
vn 0.059029720723629 0.02445157989859581 0.9979567527770996
vn 0.053126655519008636 0.035498399287462234 0.9979566335678101
vn 0.05312730744481087 0.03549845889210701 0.9979566335678101
vn 0.04518189653754234 0.0451817624270916 0.9979565143585205
vn 0.045181695371866226 0.045181624591350555 0.9979565143585205
vn 0.0354980006814003 0.05312614515423775 0.9979566335678101
vn 0.035497236996889114 0.0531257726252079 0.9979567527770996
vn 0.024450279772281647 0.059029072523117065 0.9979567527770996
vn 0.02445038966834545 0.05902928113937378 0.9979567527770996
vn 0.012465279549360275 0.06266719102859497 0.9979566335678101
vn 0.012465371750295162 0.062667116522789 0.9979566335678101
vn -6.544041184497473e-07 0.06389258801937103 0.9979567527770996
vn -7.885960826570226e-07 0.06389260292053223 0.9979567527770996
vn -0.027426093816757202 0.13788048923015594 0.9900690913200378
vn -0.0 0.14058174192905426 0.9900690913200378
vn -0.027426140382885933 0.13788042962551117 0.9900690913200378
vn -0.0 0.14058174192905426 0.9900689721107483
vn -0.05379830300807953 0.12988048791885376 0.9900690913200378
vn -0.053798094391822815 0.1298810988664627 0.9900689721107483
vn -0.07810333371162415 0.11689064651727676 0.9900689721107483
vn -0.07810315489768982 0.11689077317714691 0.9900689721107483
vn -0.09940686821937561 0.09940631687641144 0.9900689721107483
vn -0.09940700232982635 0.09940624982118607 0.9900689721107483
vn -0.11689028143882751 0.07810398936271667 0.9900689721107483
vn -0.11689015477895737 0.07810413092374802 0.9900689721107483
vn -0.1298811435699463 0.05379802733659744 0.9900689721107483
vn -0.12988096475601196 0.053797293454408646 0.9900690913200378
vn -0.13788031041622162 0.027426788583397865 0.9900690913200378
vn -0.13788039982318878 0.027426911517977715 0.9900689721107483
vn -0.14058169722557068 8.520240726284101e-07 0.9900690913200378
vn -0.14058132469654083 5.631492854263342e-07 0.9900690913200378
vn -0.1378791183233261 -0.027427105233073235 0.9900692105293274
vn -0.13787896931171417 -0.027427325025200844 0.9900692105293274
vn -0.129879891872406 -0.05379866063594818 0.9900690913200378
vn -0.12988100945949554 -0.0537981353700161 0.9900689721107483
vn -0.11689051240682602 -0.07810333371162415 0.9900689721107483
vn -0.116890549659729 -0.07810318470001221 0.9900689721107483
vn -0.09940607845783234 -0.09940683096647263 0.9900689721107483
vn -0.09940601140260696 -0.09940697252750397 0.9900689721107483
vn -0.07810450345277786 -0.11688974499702454 0.9900689721107483
vn -0.07810354232788086 -0.11688926815986633 0.9900689721107483
vn -0.05379628762602806 -0.12987901270389557 0.9900693297386169
vn -0.05379534512758255 -0.12987901270389557 0.9900694489479065
vn -0.02742578834295273 -0.13787950575351715 0.9900692105293274
vn -0.02742702141404152 -0.1378801316022873 0.9900690913200378
vn 1.7571436217167502e-07 -0.14058151841163635 0.9900690913200378
vn 1.820392157014794e-07 -0.14058151841163635 0.9900690913200378
vn 0.027426155284047127 -0.13788029551506042 0.9900690913200378
vn 0.027425915002822876 -0.13788072764873505 0.9900689721107483
vn 0.053798381239175797 -0.1298813372850418 0.9900689721107483
vn 0.05379824340343475 -0.12988129258155823 0.9900689721107483
vn 0.07810354232788086 -0.11688898503780365 0.9900690913200378
vn 0.07810374349355698 -0.11688840389251709 0.9900690913200378
vn 0.09940619021654129 -0.09940588474273682 0.9900690913200378
vn 0.09940619021654129 -0.0994061529636383 0.9900690913200378
vn 0.11688949912786484 -0.07810301333665848 0.9900689721107483
vn 0.11688947677612305 -0.07810299098491669 0.9900689721107483
vn 0.12988051772117615 -0.053798019886016846 0.9900690913200378
vn 0.12988042831420898 -0.05379774048924446 0.9900690913200378
vn 0.13788019120693207 -0.027425777167081833 0.9900690913200378
vn 0.13788023591041565 -0.027425790205597878 0.9900690913200378
vn 0.14058157801628113 1.3462994274959783e-07 0.9900690913200378
vn 0.14058168232440948 0.0 0.9900690913200378
vn 0.13788045942783356 0.02742627076804638 0.9900690913200378
vn 0.13788048923015594 0.02742622047662735 0.9900689721107483
vn 0.12988057732582092 0.053798552602529526 0.9900689721107483
vn 0.1298811286687851 0.05379839614033699 0.9900689721107483
vn 0.11689041554927826 0.0781036913394928 0.9900689721107483
vn 0.11689041554927826 0.07810357958078384 0.9900689721107483
vn 0.09940613806247711 0.09940710663795471 0.9900689721107483
vn 0.0994054526090622 0.09940718114376068 0.9900689721107483
vn 0.07810284942388535 0.1168895959854126 0.9900689721107483
vn 0.07810282707214355 0.116889588534832 0.9900689721107483
vn 0.05379804968833923 0.12988071143627167 0.9900690913200378
vn 0.05379798635840416 0.12988069653511047 0.9900690913200378
vn 0.027425890788435936 0.13788054883480072 0.9900690913200378
vn 0.027425948530435562 0.13788053393363953 0.9900690913200378
vn -0.0 0.14058174192905426 0.9900689721107483
vn -0.0 0.14058174192905426 0.9900690913200378
vt 2.0295233726501465 1.0
vt 1.998274564743042 0.0
vt 2.0295233726501465 0.0
vt 1.998274564743042 1.0
vt 2.06077241897583 1.0
vt 2.06077241897583 0.0
vt 2.0920212268829346 1.0
vt 2.0920212268829346 0.0
vt 2.123270034790039 1.0
vt 2.123270034790039 0.0
vt 2.1545190811157227 1.0
vt 2.1545190811157227 0.0
vt 2.1857681274414062 1.0
vt 2.1857681274414062 0.0
vt 2.2170166969299316 1.0
vt 2.2170166969299316 0.0
vt 2.2482657432556152 1.0
vt 2.2482657432556152 0.0
vt 2.279514789581299 1.0
vt 2.279514789581299 0.0
vt 2.3107635974884033 1.0
vt 2.3107635974884033 0.0
vt 2.342012405395508 1.0
vt 2.342012405395508 0.0
vt 2.3732614517211914 1.0
vt 2.3732614517211914 0.0
vt 2.404510259628296 1.0
vt 2.404510259628296 0.0
vt 2.4357593059539795 1.0
vt 2.4357593059539795 0.0
vt 2.467008352279663 1.0
vt 2.467008352279663 0.0
vt 2.4982571601867676 1.0
vt 2.4982571601867676 0.0
vt 2.529506206512451 1.0
vt 2.529506206512451 0.0
vt 2.5607550144195557 1.0
vt 2.5607550144195557 0.0
vt 2.59200382232666 1.0
vt 2.59200382232666 0.0
vt 2.6232528686523438 1.0
vt 2.6232528686523438 0.0
vt 2.6545016765594482 1.0
vt 2.6545016765594482 0.0
vt 2.685750722885132 1.0
vt 2.685750722885132 0.0
vt 2.7169997692108154 1.0
vt 2.7169997692108154 0.0
vt 2.74824857711792 1.0
vt 2.74824857711792 0.0
vt 2.7794976234436035 1.0
vt 2.7794976234436035 0.0
vt 2.810746431350708 1.0
vt 2.810746431350708 0.0
vt 2.8419954776763916 1.0
vt 2.8419954776763916 0.0
vt 2.873244285583496 1.0
vt 2.873244285583496 0.0
vt 2.9044930934906006 1.0
vt 2.9044930934906006 0.0
vt 2.935742139816284 1.0
vt 2.935742139816284 0.0
vt 2.9669909477233887 1.0
vt 2.9669909477233887 0.0
vt 2.9982399940490723 1.0
vt 2.9982399940490723 0.0
vt 0.9750654697418213 5.960464477539063e-08
vt 1.0063846111297607 1.0000001192092896
vt 0.9750654697418213 1.0000001192092896
vt 1.0063846111297607 5.960464477539063e-08
vt 0.9437463283538818 5.960464477539063e-08
vt 0.9437463283538818 1.0000001192092896
vt 0.9124271273612976 5.960464477539063e-08
vt 0.9124270677566528 1.0000001192092896
vt 0.8811080455780029 5.960464477539063e-08
vt 0.8811079859733582 1.0000001192092896
vt 0.8497887849807739 5.960464477539063e-08
vt 0.8497887849807739 1.0000001192092896
vt 0.8184695839881897 5.960464477539063e-08
vt 0.8184695243835449 1.0
vt 0.787150502204895 5.960464477539063e-08
vt 0.7871504426002502 1.0
vt 0.7558313608169556 5.960464477539063e-08
vt 0.755831241607666 1.0
vt 0.7245121002197266 5.960464477539063e-08
vt 0.7245121002197266 1.0
vt 0.6931929588317871 5.960464477539063e-08
vt 0.6931929588317871 1.0
vt 0.6618737578392029 0.0
vt 0.6618736982345581 1.0
vt 0.6305545568466187 0.0
vt 0.6305545568466187 1.0
vt 0.5992354154586792 0.0
vt 0.5992353558540344 1.0
vt 0.567916214466095 0.0
vt 0.567916214466095 1.0
vt 0.5365970730781555 0.0
vt 0.5365970134735107 1.0
vt 0.5052778720855713 0.0
vt 0.5052778124809265 1.0
vt 0.4739586412906647 0.0
vt 0.4739586114883423 1.0
vt 0.4426394999027252 0.0
vt 0.44263947010040283 1.0
vt 0.4113203287124634 0.0
vt 0.4113202691078186 1.0
vt 0.38000112771987915 0.0
vt 0.38000109791755676 1.0
vt 0.3486819863319397 0.0
vt 0.3486819565296173 1.0
vt 0.3173627257347107 0.0
vt 0.3173626959323883 0.9999999403953552
vt 0.28604358434677124 0.0
vt 0.28604352474212646 0.9999999403953552
vt 0.254724383354187 0.0
vt 0.254724383354187 0.9999999403953552
vt 0.22340524196624756 0.0
vt 0.22340521216392517 0.9999999403953552
vt 0.1920861005783081 0.0
vt 0.19208607077598572 0.9999999403953552
vt 0.1607668101787567 -1.1920928955078125e-07
vt 0.16076678037643433 0.9999999403953552
vt 0.12944760918617249 -1.1920928955078125e-07
vt 0.1294475495815277 0.9999999403953552
vt 0.09812849760055542 -1.1920928955078125e-07
vt 0.09812846779823303 0.9999999403953552
vt 0.0668092668056488 -1.1920928955078125e-07
vt 0.06680923700332642 0.9999999403953552
vt 0.03549015522003174 -1.1920928955078125e-07
vt 0.03549012541770935 0.9999999403953552
vt 0.004170835018157959 -1.1920928955078125e-07
vt 0.004170775413513184 0.9999999403953552
vt -2.9573538303375244 1.0
vt -2.988325595855713 0.0
vt -2.9573538303375244 0.0
vt -2.988325595855713 1.0
vt -2.926381826400757 1.0
vt -2.926381826400757 0.0
vt -2.895409345626831 1.0
vt -2.895409345626831 0.0
vt -2.8644373416900635 1.0
vt -2.8644373416900635 0.0
vt -2.833465337753296 1.0
vt -2.833465337753296 0.0
vt -2.802493095397949 1.0
vt -2.802493095397949 0.0
vt -2.7715210914611816 1.0
vt -2.7715210914611816 0.0
vt -2.740548849105835 1.0
vt -2.740548849105835 0.0
vt -2.7095768451690674 1.0
vt -2.7095768451690674 0.0
vt -2.6786046028137207 1.0
vt -2.6786046028137207 0.0
vt -2.647632598876953 1.0
vt -2.647632598876953 0.0
vt -2.6166603565216064 1.0
vt -2.6166603565216064 0.0
vt -2.5856881141662598 1.0
vt -2.5856881141662598 0.0
vt -2.554716110229492 1.0
vt -2.554716110229492 0.0
vt -2.5237438678741455 1.0
vt -2.5237438678741455 0.0
vt -2.492771863937378 1.0
vt -2.492771863937378 0.0
vt -2.4618000984191895 1.0
vt -2.4618000984191895 0.0
vt -2.4308276176452637 1.0
vt -2.4308276176452637 0.0
vt -2.399855613708496 1.0
vt -2.399855613708496 0.0
vt -2.3688836097717285 1.0
vt -2.3688836097717285 0.0
vt -2.337911367416382 1.0
vt -2.337911367416382 0.0
vt -2.306939125061035 1.0
vt -2.306939125061035 0.0
vt -2.2759671211242676 1.0
vt -2.2759671211242676 0.0
vt -2.244994878768921 1.0
vt -2.244994878768921 0.0
vt -2.2140228748321533 1.0
vt -2.2140228748321533 0.0
vt -2.1830506324768066 1.0
vt -2.1830506324768066 0.0
vt -2.152078628540039 1.0
vt -2.152078628540039 0.0
vt -2.1211063861846924 1.0
vt -2.1211063861846924 0.0
vt -2.0901341438293457 1.0
vt -2.0901341438293457 0.0
vt -2.059162139892578 1.0
vt -2.059162139892578 0.0
vt -2.0281901359558105 1.0
vt -2.0281901359558105 0.0
vt -1.9972178936004639 1.0
vt -1.9972178936004639 0.0
vt 0.9746289253234863 0.0
vt 1.0059102773666382 1.0
vt 0.9746288061141968 1.0
vt 1.0059103965759277 0.0
vt 0.9433474540710449 0.0
vt 0.9433473944664001 1.0
vt 0.9120659828186035 0.0
vt 0.912065863609314 1.0
vt 0.8807845711708069 0.0
vt 0.8807845115661621 1.0
vt 0.8495030403137207 0.0
vt 0.8495029807090759 1.0
vt 0.8182216882705688 0.0
vt 0.8182215690612793 1.0
vt 0.7869402170181274 0.0
vt 0.7869401574134827 1.0
vt 0.7556588053703308 0.0
vt 0.7556586861610413 1.0
vt 0.7243773341178894 0.0
vt 0.7243772745132446 1.0
vt 0.6930958032608032 0.0
vt 0.6930957436561584 1.0
vt 0.6618144512176514 0.0
vt 0.6618143320083618 0.9999999403953552
vt 0.63053297996521 0.0
vt 0.6305328607559204 0.9999999403953552
vt 0.5992515087127686 0.0
vt 0.5992514491081238 0.9999999403953552
vt 0.5679700374603271 0.0
vt 0.5679699778556824 0.9999999403953552
vt 0.5366885662078857 0.0
vt 0.536688506603241 0.9999999403953552
vt 0.5054070949554443 0.0
vt 0.5054069757461548 0.9999999403953552
vt 0.4741256833076477 0.0
vt 0.47412562370300293 0.9999999403953552
vt 0.4428441524505615 0.0
vt 0.44284409284591675 0.9999999403953552
vt 0.4115627408027649 0.0
vt 0.4115626811981201 0.9999999403953552
vt 0.3802812695503235 0.0
vt 0.3802812099456787 0.9999999403953552
vt 0.34899985790252686 0.0
vt 0.3489997982978821 0.9999999403953552
vt 0.31771838665008545 -1.1920928955078125e-07
vt 0.3177183270454407 0.9999999403953552
vt 0.28643691539764404 -1.1920928955078125e-07
vt 0.28643685579299927 0.9999999403953552
vt 0.25515544414520264 -1.1920928955078125e-07
vt 0.25515538454055786 0.9999999403953552
vt 0.22387409210205078 -1.1920928955078125e-07
vt 0.223874032497406 0.9999999403953552
vt 0.19259250164031982 -1.1920928955078125e-07
vt 0.19259244203567505 0.9999999403953552
vt 0.16131103038787842 -1.1920928955078125e-07
vt 0.16131097078323364 0.9999999403953552
vt 0.1300296187400818 -1.1920928955078125e-07
vt 0.130029559135437 0.9999999403953552
vt 0.09874820709228516 -1.1920928955078125e-07
vt 0.09874814748764038 0.9999999403953552
vt 0.06746667623519897 -1.1920928955078125e-07
vt 0.0674666166305542 0.9999999403953552
vt 0.03618520498275757 -1.1920928955078125e-07
vt 0.03618514537811279 0.9999999403953552
vt 0.004903674125671387 -1.1920928955078125e-07
vt 0.004903614521026611 0.9999999403953552

g eff_mdl_magicsphere06
s 1
usemtl eff_mdl_magicsphere06
f 3/3/3 2/2/2 1/1/1 
f 4/4/4 1/1/1 2/2/2 
f 1/1/1 5/5/5 3/3/3 
f 6/6/6 3/3/3 5/5/5 
f 5/5/5 7/7/7 6/6/6 
f 8/8/8 6/6/6 7/7/7 
f 7/7/7 9/9/9 8/8/8 
f 10/10/10 8/8/8 9/9/9 
f 9/9/9 11/11/11 10/10/10 
f 12/12/12 10/10/10 11/11/11 
f 11/11/11 13/13/13 12/12/12 
f 14/14/14 12/12/12 13/13/13 
f 13/13/13 15/15/15 14/14/14 
f 16/16/16 14/14/14 15/15/15 
f 15/15/15 17/17/17 16/16/16 
f 18/18/18 16/16/16 17/17/17 
f 17/17/17 19/19/19 18/18/18 
f 20/20/20 18/18/18 19/19/19 
f 19/19/19 21/21/21 20/20/20 
f 22/22/22 20/20/20 21/21/21 
f 21/21/21 23/23/23 22/22/22 
f 24/24/24 22/22/22 23/23/23 
f 23/23/23 25/25/25 24/24/24 
f 26/26/26 24/24/24 25/25/25 
f 25/25/25 27/27/27 26/26/26 
f 28/28/28 26/26/26 27/27/27 
f 27/27/27 29/29/29 28/28/28 
f 30/30/30 28/28/28 29/29/29 
f 29/29/29 31/31/31 30/30/30 
f 32/32/32 30/30/30 31/31/31 
f 31/31/31 33/33/33 32/32/32 
f 34/34/34 32/32/32 33/33/33 
f 33/33/33 35/35/35 34/34/34 
f 36/36/36 34/34/34 35/35/35 
f 35/35/35 37/37/37 36/36/36 
f 38/38/38 36/36/36 37/37/37 
f 37/37/37 39/39/39 38/38/38 
f 40/40/40 38/38/38 39/39/39 
f 39/39/39 41/41/41 40/40/40 
f 42/42/42 40/40/40 41/41/41 
f 41/41/41 43/43/43 42/42/42 
f 44/44/44 42/42/42 43/43/43 
f 43/43/43 45/45/45 44/44/44 
f 46/46/46 44/44/44 45/45/45 
f 45/45/45 47/47/47 46/46/46 
f 48/48/48 46/46/46 47/47/47 
f 47/47/47 49/49/49 48/48/48 
f 50/50/50 48/48/48 49/49/49 
f 49/49/49 51/51/51 50/50/50 
f 52/52/52 50/50/50 51/51/51 
f 51/51/51 53/53/53 52/52/52 
f 54/54/54 52/52/52 53/53/53 
f 53/53/53 55/55/55 54/54/54 
f 56/56/56 54/54/54 55/55/55 
f 55/55/55 57/57/57 56/56/56 
f 58/58/58 56/56/56 57/57/57 
f 57/57/57 59/59/59 58/58/58 
f 60/60/60 58/58/58 59/59/59 
f 59/59/59 61/61/61 60/60/60 
f 62/62/62 60/60/60 61/61/61 
f 61/61/61 63/63/63 62/62/62 
f 64/64/64 62/62/62 63/63/63 
f 63/63/63 65/65/65 64/64/64 
f 66/66/66 64/64/64 65/65/65 
f 69/69/69 68/68/68 67/67/67 
f 70/70/70 67/67/67 68/68/68 
f 67/67/67 71/71/71 69/69/69 
f 72/72/72 69/69/69 71/71/71 
f 71/71/71 73/73/73 72/72/72 
f 74/74/74 72/72/72 73/73/73 
f 73/73/73 75/75/75 74/74/74 
f 76/76/76 74/74/74 75/75/75 
f 75/75/75 77/77/77 76/76/76 
f 78/78/78 76/76/76 77/77/77 
f 77/77/77 79/79/79 78/78/78 
f 80/80/80 78/78/78 79/79/79 
f 79/79/79 81/81/81 80/80/80 
f 82/82/82 80/80/80 81/81/81 
f 81/81/81 83/83/83 82/82/82 
f 84/84/84 82/82/82 83/83/83 
f 83/83/83 85/85/85 84/84/84 
f 86/86/86 84/84/84 85/85/85 
f 85/85/85 87/87/87 86/86/86 
f 88/88/88 86/86/86 87/87/87 
f 87/87/87 89/89/89 88/88/88 
f 90/90/90 88/88/88 89/89/89 
f 89/89/89 91/91/91 90/90/90 
f 92/92/92 90/90/90 91/91/91 
f 91/91/91 93/93/93 92/92/92 
f 94/94/94 92/92/92 93/93/93 
f 93/93/93 95/95/95 94/94/94 
f 96/96/96 94/94/94 95/95/95 
f 95/95/95 97/97/97 96/96/96 
f 98/98/98 96/96/96 97/97/97 
f 97/97/97 99/99/99 98/98/98 
f 100/100/100 98/98/98 99/99/99 
f 99/99/99 101/101/101 100/100/100 
f 102/102/102 100/100/100 101/101/101 
f 101/101/101 103/103/103 102/102/102 
f 104/104/104 102/102/102 103/103/103 
f 103/103/103 105/105/105 104/104/104 
f 106/106/106 104/104/104 105/105/105 
f 105/105/105 107/107/107 106/106/106 
f 108/108/108 106/106/106 107/107/107 
f 107/107/107 109/109/109 108/108/108 
f 110/110/110 108/108/108 109/109/109 
f 109/109/109 111/111/111 110/110/110 
f 112/112/112 110/110/110 111/111/111 
f 111/111/111 113/113/113 112/112/112 
f 114/114/114 112/112/112 113/113/113 
f 113/113/113 115/115/115 114/114/114 
f 116/116/116 114/114/114 115/115/115 
f 115/115/115 117/117/117 116/116/116 
f 118/118/118 116/116/116 117/117/117 
f 117/117/117 119/119/119 118/118/118 
f 120/120/120 118/118/118 119/119/119 
f 119/119/119 121/121/121 120/120/120 
f 122/122/122 120/120/120 121/121/121 
f 121/121/121 123/123/123 122/122/122 
f 124/124/124 122/122/122 123/123/123 
f 123/123/123 125/125/125 124/124/124 
f 126/126/126 124/124/124 125/125/125 
f 125/125/125 127/127/127 126/126/126 
f 128/128/128 126/126/126 127/127/127 
f 127/127/127 129/129/129 128/128/128 
f 130/130/130 128/128/128 129/129/129 
f 129/129/129 131/131/131 130/130/130 
f 132/132/132 130/130/130 131/131/131 
f 135/135/135 134/134/134 133/133/133 
f 136/136/136 133/133/133 134/134/134 
f 133/133/133 137/137/137 135/135/135 
f 138/138/138 135/135/135 137/137/137 
f 137/137/137 139/139/139 138/138/138 
f 140/140/140 138/138/138 139/139/139 
f 139/139/139 141/141/141 140/140/140 
f 142/142/142 140/140/140 141/141/141 
f 141/141/141 143/143/143 142/142/142 
f 144/144/144 142/142/142 143/143/143 
f 143/143/143 145/145/145 144/144/144 
f 146/146/146 144/144/144 145/145/145 
f 145/145/145 147/147/147 146/146/146 
f 148/148/148 146/146/146 147/147/147 
f 147/147/147 149/149/149 148/148/148 
f 150/150/150 148/148/148 149/149/149 
f 149/149/149 151/151/151 150/150/150 
f 152/152/152 150/150/150 151/151/151 
f 151/151/151 153/153/153 152/152/152 
f 154/154/154 152/152/152 153/153/153 
f 153/153/153 155/155/155 154/154/154 
f 156/156/156 154/154/154 155/155/155 
f 155/155/155 157/157/157 156/156/156 
f 158/158/158 156/156/156 157/157/157 
f 157/157/157 159/159/159 158/158/158 
f 160/160/160 158/158/158 159/159/159 
f 159/159/159 161/161/161 160/160/160 
f 162/162/162 160/160/160 161/161/161 
f 161/161/161 163/163/163 162/162/162 
f 164/164/164 162/162/162 163/163/163 
f 163/163/163 165/165/165 164/164/164 
f 166/166/166 164/164/164 165/165/165 
f 165/165/165 167/167/167 166/166/166 
f 168/168/168 166/166/166 167/167/167 
f 167/167/167 169/169/169 168/168/168 
f 170/170/170 168/168/168 169/169/169 
f 169/169/169 171/171/171 170/170/170 
f 172/172/172 170/170/170 171/171/171 
f 171/171/171 173/173/173 172/172/172 
f 174/174/174 172/172/172 173/173/173 
f 173/173/173 175/175/175 174/174/174 
f 176/176/176 174/174/174 175/175/175 
f 175/175/175 177/177/177 176/176/176 
f 178/178/178 176/176/176 177/177/177 
f 177/177/177 179/179/179 178/178/178 
f 180/180/180 178/178/178 179/179/179 
f 179/179/179 181/181/181 180/180/180 
f 182/182/182 180/180/180 181/181/181 
f 181/181/181 183/183/183 182/182/182 
f 184/184/184 182/182/182 183/183/183 
f 183/183/183 185/185/185 184/184/184 
f 186/186/186 184/184/184 185/185/185 
f 185/185/185 187/187/187 186/186/186 
f 188/188/188 186/186/186 187/187/187 
f 187/187/187 189/189/189 188/188/188 
f 190/190/190 188/188/188 189/189/189 
f 189/189/189 191/191/191 190/190/190 
f 192/192/192 190/190/190 191/191/191 
f 191/191/191 193/193/193 192/192/192 
f 194/194/194 192/192/192 193/193/193 
f 193/193/193 195/195/195 194/194/194 
f 196/196/196 194/194/194 195/195/195 
f 195/195/195 197/197/197 196/196/196 
f 198/198/198 196/196/196 197/197/197 
f 201/201/201 200/200/200 199/199/199 
f 202/202/202 199/199/199 200/200/200 
f 199/199/199 203/203/203 201/201/201 
f 204/204/204 201/201/201 203/203/203 
f 203/203/203 205/205/205 204/204/204 
f 206/206/206 204/204/204 205/205/205 
f 205/205/205 207/207/207 206/206/206 
f 208/208/208 206/206/206 207/207/207 
f 207/207/207 209/209/209 208/208/208 
f 210/210/210 208/208/208 209/209/209 
f 209/209/209 211/211/211 210/210/210 
f 212/212/212 210/210/210 211/211/211 
f 211/211/211 213/213/213 212/212/212 
f 214/214/214 212/212/212 213/213/213 
f 213/213/213 215/215/215 214/214/214 
f 216/216/216 214/214/214 215/215/215 
f 215/215/215 217/217/217 216/216/216 
f 218/218/218 216/216/216 217/217/217 
f 217/217/217 219/219/219 218/218/218 
f 220/220/220 218/218/218 219/219/219 
f 219/219/219 221/221/221 220/220/220 
f 222/222/222 220/220/220 221/221/221 
f 221/221/221 223/223/223 222/222/222 
f 224/224/224 222/222/222 223/223/223 
f 223/223/223 225/225/225 224/224/224 
f 226/226/226 224/224/224 225/225/225 
f 225/225/225 227/227/227 226/226/226 
f 228/228/228 226/226/226 227/227/227 
f 227/227/227 229/229/229 228/228/228 
f 230/230/230 228/228/228 229/229/229 
f 229/229/229 231/231/231 230/230/230 
f 232/232/232 230/230/230 231/231/231 
f 231/231/231 233/233/233 232/232/232 
f 234/234/234 232/232/232 233/233/233 
f 233/233/233 235/235/235 234/234/234 
f 236/236/236 234/234/234 235/235/235 
f 235/235/235 237/237/237 236/236/236 
f 238/238/238 236/236/236 237/237/237 
f 237/237/237 239/239/239 238/238/238 
f 240/240/240 238/238/238 239/239/239 
f 239/239/239 241/241/241 240/240/240 
f 242/242/242 240/240/240 241/241/241 
f 241/241/241 243/243/243 242/242/242 
f 244/244/244 242/242/242 243/243/243 
f 243/243/243 245/245/245 244/244/244 
f 246/246/246 244/244/244 245/245/245 
f 245/245/245 247/247/247 246/246/246 
f 248/248/248 246/246/246 247/247/247 
f 247/247/247 249/249/249 248/248/248 
f 250/250/250 248/248/248 249/249/249 
f 249/249/249 251/251/251 250/250/250 
f 252/252/252 250/250/250 251/251/251 
f 251/251/251 253/253/253 252/252/252 
f 254/254/254 252/252/252 253/253/253 
f 253/253/253 255/255/255 254/254/254 
f 256/256/256 254/254/254 255/255/255 
f 255/255/255 257/257/257 256/256/256 
f 258/258/258 256/256/256 257/257/257 
f 257/257/257 259/259/259 258/258/258 
f 260/260/260 258/258/258 259/259/259 
f 259/259/259 261/261/261 260/260/260 
f 262/262/262 260/260/260 261/261/261 
f 261/261/261 263/263/263 262/262/262 
f 264/264/264 262/262/262 263/263/263 

