v 0.08129100501537323 -0.0010973751777783036 0.08308182656764984
v 0.05379076302051544 -0.0010973751777783036 0.08308181911706924
v 0.05379076674580574 0.019872115924954414 0.05853159725666046
v 0.08129101246595383 0.019872115924954414 0.07080671191215515
v 0.08129101246595383 0.019872115924954414 0.04625649005174637
v 0.05379076674580574 -0.0010973775060847402 0.03398137167096138
v 0.08129101246595383 -0.0010973775060847402 0.03398137912154198
v 0.02470746450126171 0.019872121512889862 0.051591090857982635
v 0.016607092693448067 -0.0010973744792863727 0.07283258438110352
v 0.032807860523462296 -0.001097376924008131 0.030349597334861755
v 0.0001857280731201172 0.019872115924954414 0.036454685032367706
v -0.012467526830732822 -0.0010973738972097635 0.05486432462930679
v 0.01283894944936037 -0.001097376341931522 0.018045052886009216
v -0.01656229980289936 0.019872115924954414 0.018961863592267036
v -0.03409771993756294 -0.0010973727330565453 0.032894592732191086
v -0.025517843663692474 0.019872115924954414 -0.0038956499192863703
v -0.046099577099084854 -0.001097371568903327 0.0024151562247425318
v -0.0049361130222678185 -0.0010973751777783036 -0.010206465609371662
v 0.0009731102036312222 -0.0010973757598549128 0.005029148887842894
v -0.023602476343512535 0.023313898593187332 -0.019684653729200363
v -0.04689965024590492 -0.0010973704047501087 -0.0073010302148759365
v 0.0025303028523921967 -0.0010973744792863727 -0.02441762387752533
v -0.03666215017437935 0.020958056673407555 -0.024891361594200134
v -0.04451340436935425 -0.0010973704047501087 -0.01798681728541851
v -0.014840011484920979 0.020958056673407555 -0.033028777688741684
v -0.004680433310568333 -0.0010973744792863727 -0.032248709350824356
v -0.03754212334752083 -0.0010973709868267179 -0.029698500409722328
v -0.017766980454325676 -0.0010973727330565453 -0.037545379251241684
v 0.08129101246595383 -0.0010973775060847402 0.03398137912154198
v 0.05379076674580574 -0.0010973775060847402 0.03398137167096138
v 0.05379076674580574 -0.022066868841648102 0.05853159725666046
v 0.08129101246595383 -0.022066868841648102 0.04625649377703667
v 0.08129101246595383 -0.022066868841648102 0.07080671191215515
v 0.05379076302051544 -0.0010973751777783036 0.08308181911706924
v 0.08129100501537323 -0.0010973751777783036 0.08308182656764984
v 0.02470746450126171 -0.022066868841648102 0.051591090857982635
v 0.032807860523462296 -0.001097376924008131 0.030349597334861755
v 0.016607092693448067 -0.0010973744792863727 0.07283258438110352
v 0.01283894944936037 -0.001097376341931522 0.018045052886009216
v 0.0001857280731201172 -0.022066868841648102 0.036454685032367706
v -0.012467526830732822 -0.0010973738972097635 0.05486432462930679
v 0.0009731102036312222 -0.0010973757598549128 0.005029148887842894
v -0.01656229980289936 -0.022066868841648102 0.018961863592267036
v -0.025517843663692474 -0.022066868841648102 -0.0038956499192863703
v -0.0049361130222678185 -0.0010973751777783036 -0.010206465609371662
v -0.046099577099084854 -0.001097371568903327 0.0024151562247425318
v -0.03409771993756294 -0.0010973727330565453 0.032894592732191086
v -0.023602476343512535 -0.02550865150988102 -0.019684653729200363
v 0.0025303028523921967 -0.0010973744792863727 -0.02441762387752533
v -0.04689965024590492 -0.0010973704047501087 -0.0073010302148759365
v -0.014840011484920979 -0.023152807727456093 -0.033028777688741684
v -0.004680433310568333 -0.0010973744792863727 -0.032248709350824356
v -0.03666215017437935 -0.023152807727456093 -0.024891361594200134
v -0.04451340436935425 -0.0010973704047501087 -0.01798681728541851
v -0.03754212334752083 -0.0010973709868267179 -0.029698500409722328
v -0.017766980454325676 -0.0010973727330565453 -0.037545379251241684
v 0.08129101246595383 0.019872115924954414 0.07080671191215515
v 0.09423533082008362 0.028550047427415848 0.07588659971952438
v 0.09423532336950302 -0.0010973751777783036 0.09324158728122711
v 0.08129100501537323 -0.0010973751777783036 0.08308182656764984
v 0.08129101246595383 0.019872115924954414 0.04625649005174637
v 0.09423533082008362 0.028550047427415848 0.04117661342024803
v 0.08129101246595383 -0.0010973775060847402 0.03398137912154198
v 0.09423532336950302 -0.0010973780881613493 0.023821620270609856
v 0.09423533082008362 0.028550047427415848 0.04117661342024803
v 0.08129101246595383 0.019872115924954414 0.04625649005174637
v 0.08129101246595383 -0.022066868841648102 0.04625649377703667
v 0.09423533082008362 -0.030744794756174088 0.04117661342024803
v 0.09423532336950302 -0.0010973780881613493 0.023821620270609856
v 0.08129101246595383 -0.0010973775060847402 0.03398137912154198
v 0.08129101246595383 -0.022066868841648102 0.07080671191215515
v 0.09423533082008362 -0.030744794756174088 0.07588659226894379
v 0.09423533082008362 -0.030744794756174088 0.04117661342024803
v 0.08129101246595383 -0.022066868841648102 0.04625649377703667
v 0.08129100501537323 -0.0010973751777783036 0.08308182656764984
v 0.09423532336950302 -0.0010973751777783036 0.09324158728122711
v 0.09423533082008362 0.028550047427415848 0.07588659971952438
v 0.21292121708393097 0.028550049290060997 0.07588662207126617
v 0.21292121708393097 -0.0010973751777783036 0.0932416021823883
v 0.09423532336950302 -0.0010973751777783036 0.09324158728122711
v 0.15613315999507904 0.028550049290060997 0.04117662459611893
v 0.09423533082008362 0.028550047427415848 0.04117661342024803
v 0.21292124688625336 0.028550049290060997 0.041176632046699524
v 0.15613317489624023 -0.0010973780881613493 0.023821627721190453
v 0.21292121708393097 -0.0010973780881613493 0.023821638897061348
v 0.09423533082008362 0.028550047427415848 0.04117661342024803
v 0.09423532336950302 -0.0010973780881613493 0.023821620270609856
v 0.15613317489624023 -0.0010973780881613493 0.023821627721190453
v 0.15613315999507904 0.028550049290060997 0.04117662459611893
v 0.09423532336950302 -0.0010973780881613493 0.023821620270609856
v 0.09423533082008362 -0.030744794756174088 0.04117661342024803
v 0.15613315999507904 -0.03074479289352894 0.04117662459611893
v 0.15613317489624023 -0.0010973780881613493 0.023821627721190453
v 0.09423533082008362 -0.030744794756174088 0.07588659226894379
v 0.21292121708393097 -0.03074479289352894 0.07588660717010498
v 0.15613315999507904 -0.03074479289352894 0.04117662459611893
v 0.09423532336950302 -0.0010973751777783036 0.09324158728122711
v 0.21292121708393097 -0.0010973751777783036 0.0932416021823883
v 0.09423533082008362 -0.030744794756174088 0.04117661342024803
v 0.21292124688625336 -0.03074479289352894 0.041176632046699524
v 0.21292121708393097 -0.0010973780881613493 0.023821638897061348
v 0.15613317489624023 -0.0010973780881613493 0.023821627721190453
v 0.21292121708393097 -0.03074479289352894 0.07588660717010498
v 0.21292121708393097 -0.0010973751777783036 0.0932416021823883
v 0.21292121708393097 -0.0010973780881613493 0.023821638897061348
v 0.21292124688625336 -0.03074479289352894 0.041176632046699524
v 0.21292124688625336 0.028550049290060997 0.041176632046699524
v 0.21292121708393097 -0.0010973780881613493 0.023821638897061348
v 0.21292121708393097 -0.0010973751777783036 0.0932416021823883
v 0.21292121708393097 0.028550049290060997 0.07588662207126617
v 0.041904233396053314 -0.03519628942012787 0.087081678211689
v -0.0015038204146549106 -0.03519627824425697 0.037043724209070206
v 0.011210107244551182 -0.03519628569483757 0.07242590934038162
v 0.08030484616756439 -0.03519627824425697 0.051015302538871765
v 0.07259836792945862 -0.03519628569483757 0.07242590934038162
v 0.09515741467475891 -0.03519627824425697 0.037043750286102295
v 0.09515741467475891 -0.03519627824425697 0.04331475496292114
v 0.041904229670763016 -0.02350901998579502 0.087081678211689
v 0.011210107244551182 -0.02350902557373047 0.07242590934038162
v -0.001503801322542131 -0.023509016260504723 0.037043724209070206
v 0.08030484616756439 -0.023509016260504723 0.051015302538871765
v 0.07259836792945862 -0.02350902557373047 0.07242590934038162
v 0.08030486851930618 -0.023509016260504723 0.037043746560811996
v 0.08030484616756439 -0.023509016260504723 0.051015302538871765
v 0.08030486851930618 -0.023509016260504723 0.037043746560811996
v 0.09515741467475891 -0.03269682824611664 0.037043750286102295
v 0.09515741467475891 -0.03269682452082634 0.04331475496292114
v 0.011210107244551182 -0.02350902557373047 0.07242590934038162
v 0.041904229670763016 -0.02350901998579502 0.087081678211689
v 0.041904233396053314 -0.03519628942012787 0.087081678211689
v 0.011210107244551182 -0.03519628569483757 0.07242590934038162
v -0.001503801322542131 -0.023509016260504723 0.037043724209070206
v -0.0015038204146549106 -0.03519627824425697 0.037043724209070206
v 0.07259836792945862 -0.03519628569483757 0.07242590934038162
v 0.07259836792945862 -0.02350902557373047 0.07242590934038162
v 0.08030484616756439 -0.03519627824425697 0.051015302538871765
v 0.08030484616756439 -0.023509016260504723 0.051015302538871765
v 0.09515741467475891 -0.03269682452082634 0.04331475496292114
v 0.09515741467475891 -0.03519627824425697 0.04331475496292114
v 0.09515741467475891 -0.03269682452082634 0.04331475496292114
v 0.09515741467475891 -0.03269682824611664 0.037043750286102295
v 0.09515741467475891 -0.03519627824425697 0.037043750286102295
v 0.09515741467475891 -0.03519627824425697 0.04331475496292114
v 0.08030486851930618 -0.023509016260504723 0.037043746560811996
v -0.001503801322542131 -0.023509016260504723 0.037043724209070206
v -0.0015038204146549106 -0.03519627824425697 0.037043724209070206
v 0.09515741467475891 -0.03519627824425697 0.037043750286102295
v 0.08030486851930618 -0.023509016260504723 0.037043746560811996
v 0.09515741467475891 -0.03519627824425697 0.037043750286102295
v 0.09515741467475891 -0.03269682824611664 0.037043750286102295
v 0.05745828524231911 -0.029423359781503677 0.07836602628231049
v 0.06177566573023796 -0.029423359781503677 0.07555904239416122
v 0.07306814193725586 -0.029423365369439125 0.09542960673570633
v 0.0687507763504982 -0.029423365369439125 0.09823659807443619
v 0.05745828524231911 -0.029833845794200897 0.07836602628231049
v 0.0687507763504982 -0.029833849519491196 0.09823659807443619
v 0.07306814193725586 -0.029833849519491196 0.09542960673570633
v 0.06177566573023796 -0.029833845794200897 0.07555904239416122
v 0.07474223524332047 -0.029628600925207138 0.08503731340169907
v 0.06383098661899567 -0.029628600925207138 0.08396939188241959
v 0.06749909371137619 -0.03958934172987938 0.09046903997659683
v 0.060255955904722214 -0.029628600925207138 0.095900759100914
v 0.07474223524332047 -0.029628600925207138 0.08503731340169907
v 0.06749909371137619 -0.019667867571115494 0.09046903997659683
v 0.06383098661899567 -0.029628600925207138 0.08396939188241959
v 0.060255955904722214 -0.029628600925207138 0.095900759100914
v 0.07618585228919983 -0.029628613963723183 0.08657848089933395
v 0.06894271820783615 -0.039589352905750275 0.09201022237539291
v 0.07261082530021667 -0.029628613963723183 0.09850986301898956
v 0.061699580401182175 -0.029628610238432884 0.09744194149971008
v 0.07618585228919983 -0.029628613963723183 0.08657848089933395
v 0.07261082530021667 -0.029628613963723183 0.09850986301898956
v 0.06894271820783615 -0.01966787688434124 0.09201022237539291
v 0.061699580401182175 -0.029628610238432884 0.09744194149971008
v 0.03142276778817177 -0.0012357544619590044 0.03206900507211685
v 0.049766864627599716 -0.0012357544619590044 0.03600403666496277
v 0.04696357622742653 -0.001235752715729177 0.028794962912797928
v 0.03686055541038513 -0.001235752715729177 0.02682744711637497
v 0.04250400885939598 -0.0012357508530840278 0.01515941135585308
v 0.03891647607088089 -0.0012357508530840278 0.01456947810947895
v 0.04416028410196304 -0.0012357496889308095 0.0010773801477625966
v 0.042298343032598495 -0.0012357496889308095 0.0010773706017062068
v 0.02722092531621456 -0.0009590113186277449 0.03114335425198078
v 0.003915367182344198 -0.0009589969995431602 0.013169140554964542
v 0.01669253222644329 -0.000959001190494746 0.011369762010872364
v 0.022000784054398537 -0.0009590047411620617 0.01616441272199154
v 0.01669253222644329 -0.000959001190494746 0.011369762010872364
v 0.027608957141637802 -0.0009590017725713551 0.00013144493277650326
v 0.030697574838995934 -0.0009590041590854526 0.004910750314593315
v 0.030697574838995934 -0.0009590041590854526 0.004910750314593315
v 0.027608957141637802 -0.0009590017725713551 0.00013144493277650326
v 0.04492197930812836 -0.0009590053232386708 -0.007336974143981934
v 0.04492197930812836 -0.0009590077097527683 -0.0013778448337689042
v 0.04492197930812836 -0.0009590077097527683 -0.0013778448337689042
v 0.04492197930812836 -0.0009590053232386708 -0.007336974143981934
v 0.062267329543828964 -0.0009590142872184515 -0.001405796967446804
v 0.05860082805156708 -0.0009590142872184515 0.002795147942379117
v 0.05860082805156708 -0.0009590142872184515 0.002795147942379117
v 0.06998014450073242 -0.0009590226109139621 0.01634131371974945
v 0.06481082737445831 -0.0009590208064764738 0.0163413193076849
v 0.06998014450073242 -0.0009590226109139621 0.01634131371974945
v 0.06786423921585083 -0.0009590255795046687 0.028110718354582787
v 0.06269492208957672 -0.0009590238332748413 0.028110716491937637
v 0.06668771803379059 -0.0009590279660187662 0.036051228642463684
v 0.0580243282020092 -0.0009590244153514504 0.036051228642463684
v 0.022000784054398537 -0.0012357562081888318 0.01616441272199154
v 0.01669253222644329 -0.001235752715729177 0.011369762010872364
v 0.003915367182344198 -0.0012357485247775912 0.013169140554964542
v 0.02722092531621456 -0.001235763425938785 0.03114335425198078
v 0.030697574838995934 -0.0012357556261122227 0.004910750314593315
v 0.027608957141637802 -0.0012357532978057861 0.00013144493277650326
v 0.01669253222644329 -0.001235752715729177 0.011369762010872364
v 0.030697574838995934 -0.0012357556261122227 0.004910750314593315
v 0.04492197930812836 -0.0012357592349871993 -0.0013778448337689042
v 0.04492197930812836 -0.001235757488757372 -0.007336974143981934
v 0.027608957141637802 -0.0012357532978057861 0.00013144493277650326
v 0.04492197930812836 -0.0012357592349871993 -0.0013778448337689042
v 0.05860082805156708 -0.0012357657542452216 0.002795147942379117
v 0.062267329543828964 -0.0012357657542452216 -0.001405796967446804
v 0.04492197930812836 -0.001235757488757372 -0.007336974143981934
v 0.05860082805156708 -0.0012357657542452216 0.002795147942379117
v 0.06998014450073242 -0.0012357741361483932 0.01634131371974945
v 0.06481082737445831 -0.0012357723899185658 0.0163413193076849
v 0.06269492208957672 -0.0012357753003016114 0.028110716491937637
v 0.06786423921585083 -0.0012357771629467607 0.028110718354582787
v 0.06998014450073242 -0.0012357741361483932 0.01634131371974945
v 0.06668771803379059 -0.0012357794912531972 0.036051228642463684
v 0.0580243282020092 -0.0012357764644548297 0.036051228642463684
v 0.03142276778817177 -0.0009590029367245734 0.03206900507211685
v 0.03686055541038513 -0.00095900590531528 0.02682744711637497
v 0.04696357622742653 -0.0009590100962668657 0.028794962912797928
v 0.049766864627599716 -0.0009590106783434749 0.03600403666496277
v 0.04250400885939598 -0.0009590077097527683 0.01515941135585308
v 0.03891647607088089 -0.00095900654559955 0.01456947810947895
v 0.04416028410196304 -0.0009590077097527683 0.0010773801477625966
v 0.042298343032598495 -0.0009590071276761591 0.0010773706017062068
v 0.060255955904722214 -0.029628600925207138 0.095900759100914
v 0.06749909371137619 -0.019667867571115494 0.09046903997659683
v 0.07474223524332047 -0.029628600925207138 0.08503731340169907
v 0.06749909371137619 -0.03958934172987938 0.09046903997659683
vn -0.10781863331794739 0.088455930352211 0.9902275800704956
vn -0.178284153342247 0.04135459288954735 0.9831096529960632
vn -0.127864271402359 0.989118218421936 0.07277191430330276
vn -0.25234460830688477 0.7853150963783264 0.565333902835846
vn -0.10283204168081284 0.8582225441932678 -0.5028713941574097
vn 0.03831849247217178 -0.033600304275751114 -0.9987004995346069
vn -0.10781817883253098 -0.088455930352211 -0.9902275800704956
vn -0.03193061798810959 0.9978318810462952 0.057549867779016495
vn -0.3935040533542633 -0.002759067341685295 0.9193187355995178
vn 0.3618772327899933 0.006046800408512354 -0.9322061538696289
vn -0.03794712573289871 0.9983793497085571 0.04241210222244263
vn -0.6228426694869995 1.3266689791180397e-07 0.7823470830917358
vn 0.643080472946167 0.0 -0.7657986283302307
vn -0.07640141993761063 0.9962441921234131 0.04074719175696373
vn -0.8342732787132263 0.00010802580072777346 0.5513511300086975
vn -0.10423341393470764 0.987504780292511 0.11819396913051605
vn -0.9728392362594604 -0.0006611114949919283 0.23148074746131897
vn 0.9916386008262634 -0.025891607627272606 0.1264222264289856
vn 0.8528622388839722 -0.00036465373705141246 -0.5221359133720398
vn 0.14592649042606354 0.9730827808380127 0.17836852371692657
vn -0.9969035983085632 -0.001330789178609848 0.0786217674612999
vn 0.994236171245575 0.061618559062480927 -0.08773547410964966
vn -0.6288981437683105 0.7394238114356995 -0.2402905374765396
vn -0.9427088499069214 0.0 -0.3336166739463806
vn 0.4789601266384125 0.7278904914855957 -0.49068593978881836
vn 0.652069091796875 0.14134973287582397 -0.7448665499687195
vn -0.6324698328971863 0.0 -0.7745850086212158
vn -0.020111974328756332 0.0 -0.9997977614402771
vn -0.10781817883253098 -0.088455930352211 -0.9902275800704956
vn 0.03831849247217178 -0.033600304275751114 -0.9987004995346069
vn -0.1299678385257721 -0.9913636445999146 0.017507057636976242
vn -0.25234436988830566 -0.7853150367736816 -0.5653339624404907
vn -0.10283224284648895 -0.8582225441932678 0.5028713941574097
vn -0.178284153342247 0.04135459288954735 0.9831096529960632
vn -0.10781863331794739 0.088455930352211 0.9902275800704956
vn -0.034041810780763626 -0.9973202347755432 0.06475705653429031
vn 0.3618772327899933 0.006046800408512354 -0.9322061538696289
vn -0.3935040533542633 -0.002759067341685295 0.9193187355995178
vn 0.643080472946167 0.0 -0.7657986283302307
vn -0.037947144359350204 -0.9983793497085571 0.042412206530570984
vn -0.6228426694869995 1.3266689791180397e-07 0.7823470830917358
vn 0.8528622388839722 -0.00036465373705141246 -0.5221359133720398
vn -0.0760531947016716 -0.996275782585144 0.040626805275678635
vn -0.0959353968501091 -0.9897398948669434 0.10588318854570389
vn 0.9916386008262634 -0.025891607627272606 0.1264222264289856
vn -0.9728392362594604 -0.0006611114949919283 0.23148074746131897
vn -0.8342732787132263 0.00010802580072777346 0.5513511300086975
vn 0.12395231425762177 -0.9701575636863708 0.20839886367321014
vn 0.994236171245575 0.061618559062480927 -0.08773547410964966
vn -0.9969035983085632 -0.001330789178609848 0.0786217674612999
vn 0.3511549234390259 -0.7504782676696777 -0.5598862767219543
vn 0.652069091796875 0.14134973287582397 -0.7448665499687195
vn -0.6288982033729553 -0.7394238114356995 -0.2402903437614441
vn -0.9427088499069214 0.0 -0.3336166739463806
vn -0.6324698328971863 0.0 -0.7745850086212158
vn -0.020111974328756332 0.0 -0.9997977614402771
vn -0.6134450435638428 0.6860777139663696 0.391129732131958
vn -0.6134591102600098 0.6845687031745911 0.3937431573867798
vn -0.6174168586730957 0.0 0.7866361141204834
vn -0.6174167990684509 0.0 0.7866361737251282
vn -0.6134450435638428 0.6860776543617249 -0.3911300003528595
vn -0.613459050655365 0.6845687031745911 -0.3937431573867798
vn -0.6174166798591614 0.0 -0.786636233329773
vn -0.6174167394638062 0.0 -0.786636233329773
vn -0.613459050655365 0.6845687031745911 -0.3937431573867798
vn -0.6134450435638428 0.6860776543617249 -0.3911300003528595
vn -0.6134449243545532 -0.6860777139663696 -0.39112988114356995
vn -0.6134589314460754 -0.6845688223838806 -0.3937431573867798
vn -0.6174167394638062 0.0 -0.786636233329773
vn -0.6174166798591614 0.0 -0.786636233329773
vn -0.6134448647499084 -0.6860778331756592 0.39112988114356995
vn -0.6134588122367859 -0.6845688223838806 0.39374324679374695
vn -0.6134589314460754 -0.6845688223838806 -0.3937431573867798
vn -0.6134449243545532 -0.6860777139663696 -0.39112988114356995
vn -0.6174167990684509 0.0 0.7866361737251282
vn -0.6174168586730957 0.0 0.7866361141204834
vn -0.0 0.8675217032432556 0.4973992705345154
vn -1.1122444476541204e-07 0.8675217032432556 0.4973992705345154
vn -1.8884742303271196e-07 -1.7587527167961525e-07 1.0
vn -1.6770896138496028e-07 0.0 1.0
vn -0.0 0.8675217032432556 -0.49739933013916016
vn -0.0 0.8675217032432556 -0.49739935994148254
vn 1.1122440923827526e-07 0.8675218224525452 -0.497399240732193
vn 1.6770896138496028e-07 0.0 -1.0
vn 2.2361196272413508e-07 0.0 -1.0
vn -0.0 0.8675217032432556 -0.49739935994148254
vn 1.1180597425664018e-07 0.0 -1.0
vn 1.6770896138496028e-07 0.0 -1.0
vn -0.0 0.8675217032432556 -0.49739933013916016
vn 1.1180597425664018e-07 0.0 -1.0
vn -0.0 -0.8675217032432556 -0.4973992109298706
vn -0.0 -0.8675217032432556 -0.4973992705345154
vn 1.6770896138496028e-07 0.0 -1.0
vn -0.0 -0.8675217032432556 0.4973992109298706
vn -0.0 -0.8675218224525452 0.4973991811275482
vn -0.0 -0.8675217032432556 -0.4973992705345154
vn -1.6770896138496028e-07 0.0 1.0
vn -1.8884742303271196e-07 -1.7587527167961525e-07 1.0
vn -0.0 -0.8675217032432556 -0.4973992109298706
vn 1.1122434528942904e-07 -0.8675218224525452 -0.4973991811275482
vn 2.2361196272413508e-07 0.0 -1.0
vn 1.6770896138496028e-07 0.0 -1.0
vn 1.0 4.756531382099638e-07 2.7085175702268316e-07
vn 1.0 -1.5809341391559428e-07 2.7631676857708953e-07
vn 1.0 -1.5809308706593583e-07 2.763169106856367e-07
vn 1.0 1.9300318854220677e-06 1.0990203236360685e-06
vn 1.0 -8.11034453818138e-07 2.708517001792643e-07
vn 1.0 -1.5809308706593583e-07 2.763169106856367e-07
vn 1.0 -1.5809341391559428e-07 2.7631676857708953e-07
vn 1.0 6.433434691643924e-07 1.0990199825755553e-06
vn -0.0 -1.0 -1.9723471211818833e-07
vn -0.0 -1.0 -1.541375382885235e-07
vn -1.0984996379193035e-07 -1.0 0.0
vn -0.0 -1.0 0.0
vn -0.0 -1.0 -2.0140846856975259e-07
vn 0.7071066498756409 -0.7071068286895752 0.0
vn 0.6083861589431763 -0.793641209602356 0.0
vn -0.0 1.0 2.3079701350070536e-07
vn -3.428766603974509e-07 1.0 3.927412990378798e-07
vn -1.1409022704356175e-07 1.0 1.8111892075012292e-07
vn -0.0 1.0 1.3896338657559681e-07
vn 4.4440690771807567e-07 1.0 6.053803076611075e-07
vn -0.0 1.0 0.0
vn 0.5260799527168274 0.8504351377487183 -6.466572131103021e-07
vn 0.5260806083679199 0.8504347205162048 3.5909346252083196e-07
vn 0.5260799527168274 0.8504351377487183 -6.466573267971398e-07
vn 0.5260799527168274 0.8504351377487183 -6.466572131103021e-07
vn -0.7417330145835876 3.767105738461396e-07 0.6706952452659607
vn -2.94343749374093e-07 0.0 1.0
vn -0.0 0.0 1.0
vn -0.7417330145835876 3.767104885810113e-07 0.6706951856613159
vn -0.9410879015922546 7.867574822739698e-07 0.3381621241569519
vn -0.9410879015922546 7.867574822739698e-07 0.3381621539592743
vn 0.7415527701377869 0.0 0.6708945035934448
vn 0.7415528297424316 0.0 0.6708945035934448
vn 0.7524694204330444 0.0 0.6586272120475769
vn 0.7993618249893188 0.0 0.6008499264717102
vn 0.46028056740760803 0.0 0.8877734541893005
vn 0.46028056740760803 0.0 0.8877734541893005
vn 1.0 0.0 0.0
vn 1.0 0.0 0.0
vn 0.7071066498756409 -0.7071068286895752 0.0
vn 0.6083861589431763 -0.793641209602356 0.0
vn 2.7247250500295195e-07 0.0 -1.0
vn 2.914344179316686e-07 -2.0399913580604334e-07 -1.0
vn 2.896172759392357e-07 -1.9127939765439805e-07 -1.0
vn 2.713191804559756e-07 0.0 -1.0
vn 3.210475654213951e-07 0.0 -1.0
vn 3.2104750857797626e-07 0.0 -1.0
vn 3.2104750857797626e-07 0.0 -1.0
vn 1.1720494796918501e-07 1.0 1.5629156280283496e-07
vn 1.1720491954747558e-07 1.0 1.562915912245444e-07
vn 1.1720511139401424e-07 1.0 1.562914206942878e-07
vn 1.1720513271029631e-07 1.0 1.562914206942878e-07
vn -1.1720494796918501e-07 -1.0 -1.5629156280283496e-07
vn -1.1720513271029631e-07 -1.0 -1.562914206942878e-07
vn -1.1720511139401424e-07 -1.0 -1.562914206942878e-07
vn -1.1720491954747558e-07 -1.0 -1.562915912245444e-07
vn 0.09740785509347916 1.330045762415466e-07 -0.995244562625885
vn -0.5456755757331848 2.0766272257333185e-07 -0.8379966020584106
vn -0.4931972026824951 -0.5954492092132568 -0.6341898441314697
vn -0.9579229354858398 1.1864617732726401e-07 -0.28702548146247864
vn 0.09740785509347916 1.330045762415466e-07 -0.995244562625885
vn -0.49319708347320557 0.5954495668411255 -0.6341895461082458
vn -0.5456755757331848 2.0766272257333185e-07 -0.8379966020584106
vn -0.9579229354858398 1.1864617732726401e-07 -0.28702548146247864
vn 0.9579230546951294 0.0 0.28702518343925476
vn 0.4931977689266205 -0.5954487323760986 0.6341898441314697
vn 0.54567551612854 0.0 0.8379964828491211
vn -0.09740833193063736 2.3275794092114666e-07 0.9952444434165955
vn 0.9579230546951294 0.0 0.28702518343925476
vn 0.54567551612854 0.0 0.8379964828491211
vn 0.49319785833358765 0.5954487919807434 0.634189784526825
vn -0.09740833193063736 2.3275794092114666e-07 0.9952444434165955
vn -0.0 -1.0 -2.7815713110612705e-07
vn -0.0 -1.0 -2.7061307150688663e-07
vn -0.0 -1.0 -2.2887198269927467e-07
vn -0.0 -1.0 -2.2320691073218768e-07
vn -0.0 -1.0 -1.1642188724181324e-07
vn -0.0 -1.0 -1.135460721002346e-07
vn -0.0 -1.0 0.0
vn -0.0 -1.0 0.0
vn 3.803005768077128e-07 1.0 3.099505079262599e-07
vn 3.708999543050595e-07 1.0 3.1495585517404834e-07
vn 3.7630633187291096e-07 1.0 3.120772760212276e-07
vn 4.0622941810397606e-07 1.0 2.9614474783556943e-07
vn 3.8438065530499443e-07 1.0 3.2033403840614483e-07
vn 3.1421953394783486e-07 1.0 2.957924039037607e-07
vn 3.14219477104416e-07 1.0 2.957923754820513e-07
vn 4.282977954517264e-07 1.0 4.0008961832427303e-07
vn 3.298156912023842e-07 1.0 2.857133551970037e-07
vn 4.28297767030017e-07 1.0 4.0008961832427303e-07
vn 4.28297767030017e-07 1.0 4.0008961832427303e-07
vn 3.785305295878061e-07 1.0 3.303737798887596e-07
vn 3.786428237617656e-07 1.0 4.0008961832427303e-07
vn 3.785305295878061e-07 1.0 3.303737798887596e-07
vn 3.785305295878061e-07 1.0 3.303737798887596e-07
vn 3.459144579665008e-07 1.0 3.2543385941607994e-07
vn 3.459144863882102e-07 1.0 3.254339162594988e-07
vn 3.459144579665008e-07 1.0 3.2543385941607994e-07
vn 3.459144863882102e-07 1.0 3.1540707823296543e-07
vn 3.459136621586367e-07 1.0 3.154072203415126e-07
vn 3.459136621586367e-07 1.0 3.154072203415126e-07
vn 4.128035300254851e-07 1.0 3.178741962983622e-07
vn 4.128035300254851e-07 1.0 3.178741962983622e-07
vn -3.7132485886104405e-07 -1.0 -3.4488951428102155e-07
vn -3.7337346725507814e-07 -1.0 -3.32520272650072e-07
vn -3.717573520134465e-07 -1.0 -3.4227815604026546e-07
vn -3.707604037117562e-07 -1.0 -3.482979309410439e-07
vn -3.14219477104416e-07 -1.0 -2.957923754820513e-07
vn -3.84380626883285e-07 -1.0 -3.2033403840614483e-07
vn -3.8438065530499443e-07 -1.0 -3.2033403840614483e-07
vn -3.5673804177349666e-07 -1.0 -2.683148352389253e-07
vn -3.8407796409956063e-07 -1.0 -3.0006719953235006e-07
vn -3.5673804177349666e-07 -1.0 -2.683148352389253e-07
vn -3.5673801335178723e-07 -1.0 -2.683148352389253e-07
vn -3.784816726692952e-07 -1.0 -3.0006719953235006e-07
vn -3.785305295878061e-07 -1.0 -3.303737798887596e-07
vn -3.784816726692952e-07 -1.0 -3.0006719953235006e-07
vn -3.784816726692952e-07 -1.0 -3.0006719953235006e-07
vn -3.596501585434453e-07 -1.0 -3.1389535593007167e-07
vn -3.59650073278317e-07 -1.0 -3.1389532750836224e-07
vn -3.459144579665008e-07 -1.0 -3.2543385941607994e-07
vn -3.459136621586367e-07 -1.0 -3.154072203415126e-07
vn -3.459144863882102e-07 -1.0 -3.1540707823296543e-07
vn -3.459144863882102e-07 -1.0 -3.1540707823296543e-07
vn -3.4591369058034616e-07 -1.0 -3.5150895882907207e-07
vn -3.440028990553401e-07 -1.0 -3.524697547163669e-07
vn 4.381710425604979e-07 1.0 -1.0477095457872565e-07
vn 4.170578051798657e-07 1.0 0.0
vn 4.285386978608585e-07 1.0 0.0
vn 4.414941088271007e-07 1.0 0.0
vn 3.447191261329863e-07 1.0 0.0
vn 3.2839969321685203e-07 1.0 0.0
vn 3.211437160643982e-07 1.0 0.0
vn 3.2012110295909224e-07 1.0 0.0
vn 0.5999552011489868 0.0 0.8000335693359375
vn 0.5999552011489868 0.0 0.8000335693359375
vn 0.5999552011489868 0.0 0.8000335693359375
vn 0.5999552011489868 0.0 0.8000335693359375
vt 0.5296046733856201 0.003177642822265625
vt 0.4926583468914032 0.003177642822265625
vt 0.4926583468914032 0.03822934627532959
vt 0.5296046733856201 0.020703673362731934
vt 0.5296046733856201 0.05575525760650635
vt 0.4926583468914032 0.07328081130981445
vt 0.5296046733856201 0.07328081130981445
vt 0.4636031687259674 0.03822934627532959
vt 0.4636031687259674 0.003177642822265625
vt 0.4636031687259674 0.07328081130981445
vt 0.43423524498939514 0.03822934627532959
vt 0.43423524498939514 0.003177642822265625
vt 0.43423524498939514 0.07328081130981445
vt 0.4125196933746338 0.03822934627532959
vt 0.40486738085746765 0.003177642822265625
vt 0.3834649920463562 0.03822934627532959
vt 0.37581267952919006 0.003177642822265625
vt 0.37581267952919006 0.07328081130981445
vt 0.40486738085746765 0.07328081130981445
vt 0.3508954644203186 0.04931080341339111
vt 0.35957249999046326 0.007054805755615234
vt 0.35609641671180725 0.09189903736114502
vt 0.3359479308128357 0.032006144523620605
vt 0.34332630038261414 0.01633012294769287
vt 0.3334663510322571 0.06976759433746338
vt 0.33976107835769653 0.08494842052459717
vt 0.3276737332344055 0.033181190490722656
vt 0.3246537446975708 0.0676494836807251
vt 0.5296046733856201 0.07328081130981445
vt 0.4926583468914032 0.07328081130981445
vt 0.4926583468914032 0.03822934627532959
vt 0.5296046733856201 0.05575525760650635
vt 0.5296046733856201 0.020703673362731934
vt 0.4926583468914032 0.003177642822265625
vt 0.5296046733856201 0.003177642822265625
vt 0.4636031687259674 0.03822934627532959
vt 0.4636031687259674 0.07328081130981445
vt 0.4636031687259674 0.003177642822265625
vt 0.43423524498939514 0.07328081130981445
vt 0.43423524498939514 0.03822934627532959
vt 0.43423524498939514 0.003177642822265625
vt 0.40486738085746765 0.07328081130981445
vt 0.4125196933746338 0.03822934627532959
vt 0.3834649920463562 0.03822934627532959
vt 0.37581267952919006 0.07328081130981445
vt 0.37581267952919006 0.003177642822265625
vt 0.40486738085746765 0.003177642822265625
vt 0.3508954644203186 0.04931080341339111
vt 0.35609641671180725 0.09189903736114502
vt 0.35957249999046326 0.007054805755615234
vt 0.3334663510322571 0.06976759433746338
vt 0.33976107835769653 0.08494842052459717
vt 0.33594831824302673 0.032006144523620605
vt 0.34332630038261414 0.01633012294769287
vt 0.3276737332344055 0.033181190490722656
vt 0.3246537446975708 0.0676494836807251
vt 0.2666499614715576 0.007294952869415283
vt 0.2666499614715576 0.03412288427352905
vt 0.21994459629058838 0.0341222882270813
vt 0.21994459629058838 0.007294952869415283
vt 0.3006494641304016 0.007294952869415283
vt 0.3116997480392456 0.0341222882270813
vt 0.2114098221063614 0.08796626329421997
vt 0.2114098221063614 0.11221039295196533
vt 0.1766054779291153 0.11221039295196533
vt 0.1766054779291153 0.08796626329421997
vt 0.1766054779291153 0.08796626329421997
vt 0.1766054779291153 0.11221039295196533
vt 0.2114098221063614 0.11221039295196533
vt 0.2114098221063614 0.08796626329421997
vt 0.2666499614715576 0.007294952869415283
vt 0.2666499614715576 0.03412288427352905
vt 0.3116997480392456 0.03412288427352905
vt 0.3006494641304016 0.007294952869415283
vt 0.21994459629058838 0.007294952869415283
vt 0.21994459629058838 0.0341222882270813
vt 0.2666499614715576 0.0341222882270813
vt 0.2666499614715576 0.17702192068099976
vt 0.21994447708129883 0.17702192068099976
vt 0.21994459629058838 0.0341222882270813
vt 0.3116997480392456 0.10864859819412231
vt 0.3116997480392456 0.0341222882270813
vt 0.3116997480392456 0.17702192068099976
vt 0.3547206521034241 0.10864859819412231
vt 0.3547206521034241 0.17702192068099976
vt 0.1766054779291153 0.11221039295196533
vt 0.2114098221063614 0.11221039295196533
vt 0.2114098221063614 0.17864829301834106
vt 0.1766054779291153 0.17864829301834106
vt 0.2114098221063614 0.11221039295196533
vt 0.1766054779291153 0.11221039295196533
vt 0.1766054779291153 0.17864829301834106
vt 0.2114098221063614 0.17864829301834106
vt 0.2666499614715576 0.0341222882270813
vt 0.2666499614715576 0.17702192068099976
vt 0.3116997480392456 0.10864859819412231
vt 0.21994459629058838 0.0341222882270813
vt 0.21994447708129883 0.17702192068099976
vt 0.3116997480392456 0.0341222882270813
vt 0.3116997480392456 0.17702192068099976
vt 0.3547206521034241 0.17702192068099976
vt 0.3547206521034241 0.10864859819412231
vt 0.39528578519821167 0.1562345027923584
vt 0.3676072955131531 0.1089523434638977
vt 0.4783203601837158 0.1089523434638977
vt 0.4506424069404602 0.1562345027923584
vt 0.4506424069404602 0.1562345027923584
vt 0.4783203601837158 0.1089523434638977
vt 0.3676072955131531 0.1089523434638977
vt 0.395285427570343 0.1562345027923584
vt 0.5614025592803955 0.08385169506072998
vt 0.4768117666244507 0.1817033290863037
vt 0.501453697681427 0.11271953582763672
vt 0.6367551684379578 0.15415585041046143
vt 0.6215413808822632 0.11232227087020874
vt 0.665899932384491 0.1817033290863037
vt 0.6658595204353333 0.16912353038787842
vt 0.60672926902771 0.05867403745651245
vt 0.6216551065444946 0.02702254056930542
vt 0.6582409143447876 0.013766467571258545
vt 0.6440261006355286 0.09800207614898682
vt 0.6219603419303894 0.09017997980117798
vt 0.6582408547401428 0.09793257713317871
vt 0.6440261006355286 0.09800207614898682
vt 0.6582408547401428 0.09793257713317871
vt 0.6582406163215637 0.11590027809143066
vt 0.652035117149353 0.11593151092529297
vt 0.14132511615753174 0.1211807131767273
vt 0.14132511615753174 0.13852351903915405
vt 0.12715303897857666 0.13852351903915405
vt 0.12715303897857666 0.1211807131767273
vt 0.14132511615753174 0.10201090574264526
vt 0.12715303897857666 0.10201090574264526
vt 0.12715303897857666 0.1558663249015808
vt 0.14132511615753174 0.1558663249015808
vt 0.12715303897857666 0.16746848821640015
vt 0.14132511615753174 0.16746848821640015
vt 0.14132511615753174 0.17599433660507202
vt 0.12715303897857666 0.17599433660507202
vt 0.14132511615753174 0.17599433660507202
vt 0.14132511615753174 0.17919296026229858
vt 0.12715303897857666 0.17919057607650757
vt 0.12715303897857666 0.17599433660507202
vt 0.20054076611995697 0.04351109266281128
vt 0.1656738966703415 0.04351109266281128
vt 0.1656738966703415 0.058959782123565674
vt 0.20054076611995697 0.058959782123565674
vt 0.20054076611995697 0.04351109266281128
vt 0.20054076611995697 0.058959782123565674
vt 0.20054076611995697 0.05565553903579712
vt 0.45119529962539673 0.1829431653022766
vt 0.45119529962539673 0.16433930397033691
vt 0.3961954712867737 0.16433930397033691
vt 0.3961954712867737 0.1829431653022766
vt 0.45119529962539673 0.1829431653022766
vt 0.3961954712867737 0.1829431653022766
vt 0.3961954712867737 0.16433930397033691
vt 0.45119529962539673 0.16433930397033691
vt 0.5726810693740845 0.009501338005065918
vt 0.5726810693740845 0.03227478265762329
vt 0.5979705452919006 0.03227478265762329
vt 0.5726810693740845 0.056823551654815674
vt 0.5726810693740845 0.009501338005065918
vt 0.5979705452919006 0.03227478265762329
vt 0.5726810693740845 0.03227478265762329
vt 0.5726810693740845 0.056823551654815674
vt 0.5672115087509155 0.009501338005065918
vt 0.5419221520423889 0.03227478265762329
vt 0.5672115087509155 0.03227478265762329
vt 0.5672115087509155 0.056823551654815674
vt 0.5672115087509155 0.009501338005065918
vt 0.5672115087509155 0.03227478265762329
vt 0.5419221520423889 0.03227478265762329
vt 0.5672115087509155 0.056823551654815674
vt 0.20028743147850037 0.021755218505859375
vt 0.20028743147850037 0.00393831729888916
vt 0.18652819097042084 0.00393831729888916
vt 0.18652819097042084 0.03769046068191528
vt 0.1680040806531906 0.00393831729888916
vt 0.1680040806531906 0.021755218505859375
vt 0.1446678787469864 0.00393831729888916
vt 0.1446678787469864 0.021755218505859375
vt 0.1406547576189041 0.07302922010421753
vt 0.17808277904987335 0.07302922010421753
vt 0.16414283215999603 0.08862370252609253
vt 0.15459467470645905 0.08862370252609253
vt 0.16414283215999603 0.08862370252609253
vt 0.16414283215999603 0.10657531023025513
vt 0.15459467470645905 0.10657531023025513
vt 0.15459467470645905 0.10657531023025513
vt 0.16414283215999603 0.10657531023025513
vt 0.16414283215999603 0.1261550784111023
vt 0.15459467470645905 0.1261550784111023
vt 0.15459467470645905 0.1261550784111023
vt 0.16414283215999603 0.1261550784111023
vt 0.16414283215999603 0.1450325846672058
vt 0.15459467470645905 0.1450325846672058
vt 0.15459467470645905 0.1450325846672058
vt 0.16414283215999603 0.16173595190048218
vt 0.15459467470645905 0.16173595190048218
vt 0.16414283215999603 0.16173595190048218
vt 0.16414283215999603 0.1730617880821228
vt 0.15459467470645905 0.1730617880821228
vt 0.16414283215999603 0.1815144419670105
vt 0.15459467470645905 0.1815144419670105
vt 0.15459467470645905 0.08862370252609253
vt 0.16414283215999603 0.08862370252609253
vt 0.17808277904987335 0.07302922010421753
vt 0.1406547576189041 0.07302922010421753
vt 0.15459467470645905 0.10657531023025513
vt 0.16414283215999603 0.10657531023025513
vt 0.16414283215999603 0.08862370252609253
vt 0.15459467470645905 0.10657531023025513
vt 0.15459467470645905 0.1261550784111023
vt 0.16414283215999603 0.1261550784111023
vt 0.16414283215999603 0.10657531023025513
vt 0.15459467470645905 0.1261550784111023
vt 0.15459467470645905 0.1450325846672058
vt 0.16414283215999603 0.1450325846672058
vt 0.16414283215999603 0.1261550784111023
vt 0.15459467470645905 0.1450325846672058
vt 0.16414283215999603 0.16173595190048218
vt 0.15459467470645905 0.16173595190048218
vt 0.15459467470645905 0.1730617880821228
vt 0.16414283215999603 0.1730617880821228
vt 0.16414283215999603 0.16173595190048218
vt 0.16414283215999603 0.1815144419670105
vt 0.15459467470645905 0.1815144419670105
vt 0.20028743147850037 0.021755218505859375
vt 0.18652819097042084 0.03769046068191528
vt 0.18652819097042084 0.00393831729888916
vt 0.20028743147850037 0.00393831729888916
vt 0.1680040806531906 0.00393831729888916
vt 0.1680040806531906 0.021755218505859375
vt 0.1446678787469864 0.00393831729888916
vt 0.1446678787469864 0.021755218505859375
vt 0.5826972126960754 0.07284122705459595
vt 0.573008120059967 0.06403440237045288
vt 0.5826972126960754 0.055227696895599365
vt 0.5923865437507629 0.06403440237045288

g eff_mdl_aot_Abomb
s 1
usemtl eff_mdl_aot_Abomb
f 3/3/3 2/2/2 1/1/1 
f 4/4/4 3/3/3 1/1/1 
f 5/5/5 3/3/3 4/4/4 
f 6/6/6 3/3/3 5/5/5 
f 7/7/7 6/6/6 5/5/5 
f 3/3/3 8/8/8 2/2/2 
f 8/8/8 9/9/9 2/2/2 
f 10/10/10 8/8/8 3/3/3 
f 6/6/6 10/10/10 3/3/3 
f 8/8/8 11/11/11 9/9/9 
f 11/11/11 12/12/12 9/9/9 
f 13/13/13 11/11/11 8/8/8 
f 10/10/10 13/13/13 8/8/8 
f 12/12/12 11/11/11 14/14/14 
f 15/15/15 12/12/12 14/14/14 
f 14/14/14 16/16/16 15/15/15 
f 16/16/16 17/17/17 15/15/15 
f 18/18/18 16/16/16 14/14/14 
f 19/19/19 18/18/18 14/14/14 
f 11/11/11 13/13/13 19/19/19 
f 14/14/14 11/11/11 19/19/19 
f 16/16/16 20/20/20 17/17/17 
f 20/20/20 21/21/21 17/17/17 
f 22/22/22 20/20/20 16/16/16 
f 18/18/18 22/22/22 16/16/16 
f 20/20/20 23/23/23 21/21/21 
f 23/23/23 24/24/24 21/21/21 
f 25/25/25 23/23/23 20/20/20 
f 26/26/26 25/25/25 20/20/20 
f 22/22/22 26/26/26 20/20/20 
f 24/24/24 23/23/23 27/27/27 
f 26/26/26 28/28/28 25/25/25 
f 23/23/23 25/25/25 28/28/28 
f 27/27/27 23/23/23 28/28/28 
f 31/31/31 30/30/30 29/29/29 
f 32/32/32 31/31/31 29/29/29 
f 33/33/33 31/31/31 32/32/32 
f 34/34/34 31/31/31 33/33/33 
f 35/35/35 34/34/34 33/33/33 
f 31/31/31 36/36/36 30/30/30 
f 36/36/36 37/37/37 30/30/30 
f 38/38/38 36/36/36 31/31/31 
f 34/34/34 38/38/38 31/31/31 
f 39/39/39 37/37/37 36/36/36 
f 40/40/40 39/39/39 36/36/36 
f 40/40/40 36/36/36 38/38/38 
f 41/41/41 40/40/40 38/38/38 
f 42/42/42 39/39/39 40/40/40 
f 43/43/43 42/42/42 40/40/40 
f 43/43/43 40/40/40 41/41/41 
f 43/43/43 44/44/44 42/42/42 
f 44/44/44 45/45/45 42/42/42 
f 46/46/46 44/44/44 43/43/43 
f 47/47/47 46/46/46 43/43/43 
f 47/47/47 43/43/43 41/41/41 
f 44/44/44 48/48/48 45/45/45 
f 48/48/48 49/49/49 45/45/45 
f 50/50/50 48/48/48 44/44/44 
f 46/46/46 50/50/50 44/44/44 
f 48/48/48 51/51/51 49/49/49 
f 51/51/51 52/52/52 49/49/49 
f 53/53/53 51/51/51 48/48/48 
f 48/48/48 50/50/50 53/53/53 
f 50/50/50 54/54/54 53/53/53 
f 54/54/54 55/55/55 53/53/53 
f 52/52/52 51/51/51 56/56/56 
f 53/53/53 55/55/55 56/56/56 
f 51/51/51 53/53/53 56/56/56 
f 59/59/59 58/58/58 57/57/57 
f 60/60/60 59/59/59 57/57/57 
f 57/57/57 58/58/58 61/61/61 
f 58/58/58 62/62/62 61/61/61 
f 65/65/65 64/64/64 63/63/63 
f 66/66/66 65/65/65 63/63/63 
f 69/69/69 68/68/68 67/67/67 
f 70/70/70 69/69/69 67/67/67 
f 73/73/73 72/72/72 71/71/71 
f 74/74/74 73/73/73 71/71/71 
f 71/71/71 72/72/72 75/75/75 
f 72/72/72 76/76/76 75/75/75 
f 79/79/79 78/78/78 77/77/77 
f 80/80/80 79/79/79 77/77/77 
f 78/78/78 81/81/81 77/77/77 
f 77/77/77 81/81/81 82/82/82 
f 83/83/83 81/81/81 78/78/78 
f 84/84/84 81/81/81 83/83/83 
f 85/85/85 84/84/84 83/83/83 
f 88/88/88 87/87/87 86/86/86 
f 89/89/89 88/88/88 86/86/86 
f 92/92/92 91/91/91 90/90/90 
f 93/93/93 92/92/92 90/90/90 
f 96/96/96 95/95/95 94/94/94 
f 94/94/94 95/95/95 97/97/97 
f 95/95/95 98/98/98 97/97/97 
f 99/99/99 96/96/96 94/94/94 
f 100/100/100 95/95/95 96/96/96 
f 100/100/100 96/96/96 101/101/101 
f 96/96/96 102/102/102 101/101/101 
f 105/105/105 104/104/104 103/103/103 
f 106/106/106 105/105/105 103/103/103 
f 109/109/109 108/108/108 107/107/107 
f 110/110/110 109/109/109 107/107/107 
f 113/113/113 112/112/112 111/111/111 
f 111/111/111 112/112/112 114/114/114 
f 115/115/115 111/111/111 114/114/114 
f 114/114/114 112/112/112 116/116/116 
f 117/117/117 114/114/114 116/116/116 
f 120/120/120 119/119/119 118/118/118 
f 118/118/118 121/121/121 120/120/120 
f 118/118/118 122/122/122 121/121/121 
f 121/121/121 123/123/123 120/120/120 
f 126/126/126 125/125/125 124/124/124 
f 127/127/127 126/126/126 124/124/124 
f 130/130/130 129/129/129 128/128/128 
f 131/131/131 130/130/130 128/128/128 
f 131/131/131 128/128/128 132/132/132 
f 133/133/133 131/131/131 132/132/132 
f 130/130/130 134/134/134 129/129/129 
f 134/134/134 135/135/135 129/129/129 
f 134/134/134 136/136/136 135/135/135 
f 136/136/136 137/137/137 135/135/135 
f 137/137/137 136/136/136 138/138/138 
f 136/136/136 139/139/139 138/138/138 
f 142/142/142 141/141/141 140/140/140 
f 143/143/143 142/142/142 140/140/140 
f 146/146/146 145/145/145 144/144/144 
f 147/147/147 146/146/146 144/144/144 
f 150/150/150 149/149/149 148/148/148 
f 153/153/153 152/152/152 151/151/151 
f 154/154/154 153/153/153 151/151/151 
f 157/157/157 156/156/156 155/155/155 
f 158/158/158 157/157/157 155/155/155 
f 161/161/161 160/160/160 159/159/159 
f 161/161/161 162/162/162 160/160/160 
f 165/165/165 164/164/164 163/163/163 
f 165/165/165 166/166/166 164/164/164 
f 169/169/169 168/168/168 167/167/167 
f 170/170/170 168/168/168 169/169/169 
f 173/173/173 172/172/172 171/171/171 
f 174/174/174 172/172/172 173/173/173 
f 177/177/177 176/176/176 175/175/175 
f 178/178/178 177/177/177 175/175/175 
f 179/179/179 177/177/177 178/178/178 
f 180/180/180 179/179/179 178/178/178 
f 181/181/181 179/179/179 180/180/180 
f 182/182/182 181/181/181 180/180/180 
f 185/185/185 184/184/184 183/183/183 
f 186/186/186 185/185/185 183/183/183 
f 188/188/188 187/187/187 186/186/186 
f 189/189/189 188/188/188 186/186/186 
f 192/192/192 191/191/191 190/190/190 
f 193/193/193 192/192/192 190/190/190 
f 196/196/196 195/195/195 194/194/194 
f 197/197/197 196/196/196 194/194/194 
f 199/199/199 196/196/196 198/198/198 
f 200/200/200 199/199/199 198/198/198 
f 202/202/202 201/201/201 200/200/200 
f 203/203/203 202/202/202 200/200/200 
f 204/204/204 202/202/202 203/203/203 
f 205/205/205 204/204/204 203/203/203 
f 208/208/208 207/207/207 206/206/206 
f 209/209/209 208/208/208 206/206/206 
f 211/211/211 210/210/210 206/206/206 
f 212/212/212 211/211/211 206/206/206 
f 215/215/215 214/214/214 213/213/213 
f 216/216/216 215/215/215 213/213/213 
f 219/219/219 218/218/218 217/217/217 
f 220/220/220 219/219/219 217/217/217 
f 219/219/219 222/222/222 221/221/221 
f 222/222/222 223/223/223 221/221/221 
f 225/225/225 224/224/224 223/223/223 
f 226/226/226 225/225/225 223/223/223 
f 225/225/225 227/227/227 224/224/224 
f 227/227/227 228/228/228 224/224/224 
f 231/231/231 230/230/230 229/229/229 
f 232/232/232 231/231/231 229/229/229 
f 231/231/231 233/233/233 230/230/230 
f 233/233/233 234/234/234 230/230/230 
f 233/233/233 235/235/235 234/234/234 
f 235/235/235 236/236/236 234/234/234 
f 239/239/239 238/238/238 237/237/237 
f 240/240/240 239/239/239 237/237/237 

