v 2.059997086689691e-06 -0.5988283157348633 -1.7783355712890625
v -2.059997086689691e-06 0.5988287329673767 1.829944372177124
v -2.059997086689691e-06 -0.5347796678543091 1.825618863105774
v 2.059997086689691e-06 0.5988287329673767 -1.8299459218978882
vn -1.0 0.0 -1.1290436532362946e-06
vn -1.0 0.0 -1.1396755326131824e-06
vn -1.0 0.0 -1.1432646260800539e-06
vn -1.0 0.0 -1.1257152436883189e-06
vt 0.4906280040740967 0.5296511650085449
vt 0.44326791167259216 0.38696545362472534
vt 0.488095223903656 0.38713663816452026
vt 0.44326791167259216 0.5316920876502991

g bg_mdl_top_town03_17
s 1
usemtl bg_mdl_top_town03_17
f 3/3/3 2/2/2 1/1/1 
f 4/4/4 1/1/1 2/2/2 

