v -0.04714715853333473 1.2182917785708014e-08 0.0
v 0.05796162784099579 -3.179487961801897e-08 0.1482948511838913
v 0.05796162784099579 1.2182917785708014e-08 0.0
v -0.04714715853333473 -3.179487961801897e-08 0.1482948511838913
v -1.0122050753125222e-08 -0.04714715853333473 0.0
v 2.926129560876234e-08 0.05796162784099579 0.1482948511838913
v -1.4716501794964643e-08 0.05796162784099579 0.0
v 3.385574487424492e-08 -0.04714715853333473 0.1482948511838913
vn -0.0 -1.0 -2.9655646471837827e-07
vn -0.0 -1.0 -2.9655646471837827e-07
vn -0.0 -1.0 -2.9655646471837827e-07
vn -0.0 -1.0 -2.9655646471837827e-07
vn 1.0 0.0 -2.9655646471837827e-07
vn 1.0 0.0 -2.9655646471837827e-07
vn 1.0 0.0 -2.9655646471837827e-07
vn 1.0 0.0 -2.9655646471837827e-07
vt 0.28022250533103943 0.4768739342689514
vt 0.5807297229766846 0.0426902174949646
vt 0.5807297229766846 0.4768739342689514
vt 0.28022250533103943 0.0426902174949646
vt 0.28022250533103943 0.4768739342689514
vt 0.5807297229766846 0.0426902174949646
vt 0.5807297229766846 0.4768739342689514
vt 0.28022250533103943 0.0426902174949646

g bg_mdl_map_flower01
s 1
usemtl bg_mdl_map_flower01
f 3/3/3 2/2/2 1/1/1 
f 4/4/4 1/1/1 2/2/2 
f 7/7/7 6/6/6 5/5/5 
f 8/8/8 5/5/5 6/6/6 

