v -1.8499999046325684 -1.4499999284744263 0.5000000596046448
v -1.0 -0.5 0.5000000596046448
v -1.0 -1.4499999284744263 0.5000000596046448
v -1.9499999284744263 -0.5 0.5000000596046448
v -1.9499999284744263 -1.350000023841858 0.5000000596046448
v -1.0 0.5 0.5000000596046448
v -1.9499999284744263 0.5 0.5000000596046448
v -1.0 -1.474983811378479 0.48750007152557373
v -1.0730453729629517 -1.494564175605774 0.48750007152557373
v -1.388281226158142 -1.48007071018219 0.48750007152557373
v -1.443750023841858 -1.4913058280944824 0.48750007152557373
v -1.8874999284744263 -1.4874999523162842 0.48750007152557373
v -1.9874999523162842 -1.3874999284744263 0.48750007152557373
v -1.9499999284744263 -0.5 0.5000000596046448
v -1.9827958345413208 0.5 0.48750007152557373
v -1.975279688835144 -0.04100000113248825 0.48750007152557373
v -1.975279688835144 -0.4075602889060974 0.48750007152557373
v -1.9872382879257202 -0.5 0.48750007152557373
v -1.9827985763549805 -0.832812488079071 0.48750007152557373
v -1.9827284812927246 -0.8782414197921753 0.48750007152557373
v -1.9827284812927246 -1.011394739151001 0.48750007152557373
v -1.975279688835144 -1.0657812356948853 0.48750007152557373
v -1.9499999284744263 -0.5 0.5000000596046448
v -1.0 -1.4499999284744263 0.5000000596046448
v -0.0 -0.5 0.5000000596046448
v -0.0 -1.4499999284744263 0.5000000596046448
v -1.0 -0.5 0.5000000596046448
v -0.0 -1.4800381660461426 0.48750007152557373
v -0.0837000235915184 -1.4874999523162842 0.48750007152557373
v -0.9300000071525574 -1.4874999523162842 0.48750007152557373
v -1.0 -1.474983811378479 0.48750007152557373
v -0.0 -1.4499999284744263 0.5000000596046448
v 1.0 -0.5 0.5000000596046448
v 1.0 -1.4499999284744263 0.5000000596046448
v -0.0 -0.5 0.5000000596046448
v -0.0 -1.4800381660461426 0.48750007152557373
v 0.6180624961853027 -1.4828753471374512 0.48750007152557373
v 0.9064252972602844 -1.4874999523162842 0.48750007152557373
v 1.0 -1.4961473941802979 0.48750007152557373
v 1.0 -1.4499999284744263 0.5000000596046448
v 1.9499999284744263 -1.350000023841858 0.5000000596046448
v 1.8499999046325684 -1.4499999284744263 0.5000000596046448
v 1.9499999284744263 -0.5 0.5000000596046448
v 1.0 -0.5 0.5000000596046448
v 1.8874999284744263 -1.4874999523162842 0.48750007152557373
v 1.5444238185882568 -1.4874999523162842 0.48750007152557373
v 1.355599045753479 -1.4874999523162842 0.48750007152557373
v 1.306187391281128 -1.4961910247802734 0.48750007152557373
v 1.0 -1.4961473941802979 0.48750007152557373
v 1.9730665683746338 -0.5 0.48750007152557373
v 1.9736971855163574 -1.3874999284744263 0.48750007152557373
v 1.9756983518600464 -1.0103124380111694 0.48750007152557373
v 1.9677708148956299 -0.9567296504974365 0.48750007152557373
v 1.9677708148956299 -0.6351403594017029 0.48750007152557373
v -1.0 -0.5 0.5000000596046448
v -0.0 0.5 0.5000000596046448
v -0.0 -0.5 0.5000000596046448
v -1.0 0.5 0.5000000596046448
v 1.0 0.5 0.5000000596046448
v 1.0 -0.5 0.5000000596046448
v -0.0 1.4499999284744263 0.5000000596046448
v -0.736019492149353 1.4499999284744263 0.5000000596046448
v -1.0 1.4499999284744263 0.5000000596046448
v 1.0 1.4499999284744263 0.5000000596046448
v 1.7063955068588257 1.4499999284744263 0.5000000596046448
v 1.8499999046325684 1.4499999284744263 0.5000000596046448
v 1.9499999284744263 0.5 0.5000000596046448
v 1.9499999284744263 1.350000023841858 0.5000000596046448
v -0.7906500101089478 1.4676934480667114 0.48750007152557373
v -0.8482212424278259 1.4698617458343506 0.48750007152557373
v -1.0 1.479996919631958 0.48750007152557373
v -0.749451756477356 1.4797725677490234 0.4875001311302185
v 1.9736971855163574 0.5 0.48750007152557373
v 1.9677708148956299 0.9526249766349792 0.48750007152557373
v 1.9677708148956299 0.9961124062538147 0.48750007152557373
v 1.974661946296692 1.3217458724975586 0.48750007152557373
v 1.9874999523162842 1.3874999284744263 0.48750007152557373
v 1.8874999284744263 1.4874999523162842 0.48750007152557373
v 1.742571234703064 1.4874999523162842 0.48750007152557373
v 1.7205054759979248 1.4873406887054443 0.48750007152557373
v 1.0 1.4499999284744263 0.5000000596046448
v 1.198178768157959 1.4726378917694092 0.48750007152557373
v 1.0 1.4908684492111206 0.48750007152557373
v 0.5799999833106995 1.4859670400619507 0.48750007152557373
v 0.5393999814987183 1.4695385694503784 0.48750007152557373
v 0.2175419181585312 1.4769052267074585 0.48750007152557373
v -0.0 1.4839239120483398 0.48750007152557373
v -0.73499995470047 1.4840096235275269 0.48750007152557373
v 1.0 -0.5 0.5000000596046448
v 1.9499999284744263 0.5 0.5000000596046448
v 1.9499999284744263 -0.5 0.5000000596046448
v 1.0 0.5 0.5000000596046448
v 1.9730665683746338 -0.5 0.48750007152557373
v 1.9677708148956299 0.3440069854259491 0.48750007152557373
v 1.9736971855163574 0.5 0.48750007152557373
v 1.9677708148956299 -0.21040000021457672 0.48750007152557373
v 1.9730665683746338 -0.5 0.48750007152557373
v -1.9499999284744263 0.5 0.5000000596046448
v -1.0 1.4499999284744263 0.5000000596046448
v -1.0 0.5 0.5000000596046448
v -1.9499999284744263 1.350000023841858 0.5000000596046448
v -1.8499999046325684 1.4499999284744263 0.5000000596046448
v -1.8874999284744263 1.4874999523162842 0.48750007152557373
v -1.466514229774475 1.4729260206222534 0.48750007152557373
v -1.9827958345413208 0.5 0.48750007152557373
v -1.9874999523162842 1.3874999284744263 0.48750007152557373
v -1.9846405982971191 0.7129999995231628 0.48750007152557373
v -1.975279688835144 0.6448400020599365 0.48750007152557373
v -1.41712486743927 1.4867138862609863 0.48750007152557373
v -1.0 1.479996919631958 0.48750007152557373
v -1.466514229774475 1.4729260206222534 0.48750007152557373
v -1.388281226158142 -1.48007071018219 0.48750007152557373
v -1.0730453729629517 -1.494564175605774 0.48750007152557373
v -1.339746117591858 -1.494564175605774 0.48750007152557373
v -0.0 -1.4800381660461426 0.48750007152557373
v 0.5756250023841858 -1.4858916997909546 0.48750007152557373
v 0.125 -1.4858916997909546 0.48750007152557373
v 0.6180624961853027 -1.4828753471374512 0.48750007152557373
v 1.5444238185882568 -1.4874999523162842 0.48750007152557373
v 1.8874999284744263 -1.4874999523162842 0.48750007152557373
v 1.5890237092971802 -1.4961730241775513 0.48750007152557373
v 1.9677708148956299 -0.9567296504974365 0.48750007152557373
v 1.9802265167236328 -0.6778162717819214 0.48750007152557373
v 1.9802265167236328 -0.9087730050086975 0.48750007152557373
v 1.9677708148956299 -0.6351403594017029 0.48750007152557373
v 1.9499999284744263 -1.350000023841858 0.5000000596046448
v 1.9730665683746338 -0.5 0.48750007152557373
v 1.9677708148956299 -0.6351403594017029 0.48750007152557373
v -1.9827958345413208 0.5 0.48750007152557373
v -1.975279688835144 -0.04100000113248825 0.48750007152557373
v -1.9827958345413208 0.009999999776482582 0.48750007152557373
v -1.982992172241211 -0.366993248462677 0.48750007152557373
v -1.982992172241211 -0.10296501219272614 0.48750007152557373
v -1.975279688835144 -0.4075602889060974 0.48750007152557373
v 1.9730665683746338 -0.5 0.48750007152557373
v 1.9677708148956299 -0.21040000021457672 0.48750007152557373
v 1.9744515419006348 -0.23999999463558197 0.48750007152557373
v 1.979893445968628 0.2974116802215576 0.48750007152557373
v 1.9793767929077148 -0.16422401368618011 0.48750007152557373
v 1.9677708148956299 0.3440069854259491 0.48750007152557373
v -1.466514229774475 1.4729260206222534 0.48750007152557373
v -1.8874999284744263 1.4874999523162842 0.48750007152557373
v -1.5259995460510254 1.488069772720337 0.48750007152557373
v -1.9499999284744263 1.350000023841858 0.5000000596046448
v -1.9827958345413208 0.5 0.48750007152557373
v -1.975279688835144 0.6448400020599365 0.48750007152557373
v 0.5393999814987183 1.4695385694503784 0.48750007152557373
v 0.2544349730014801 1.4804223775863647 0.48750007152557373
v 0.4800659716129303 1.4764361381530762 0.48750007152557373
v 0.2175419181585312 1.4769052267074585 0.48750007152557373
v -0.0 1.4839239120483398 0.48750007152557373
v 0.16098102927207947 1.4804834127426147 0.48750007152557373
v 1.0 1.4499999284744263 0.5000000596046448
v -0.0 1.4839239120483398 0.48750007152557373
v 0.2175419181585312 1.4769052267074585 0.48750007152557373
v 1.9677708148956299 0.9961124062538147 0.48750007152557373
v 1.9784328937530518 1.2760523557662964 0.48750007152557373
v 1.9784328937530518 1.0548205375671387 0.48750007152557373
v 1.974661946296692 1.3217458724975586 0.48750007152557373
v 1.7205054759979248 1.4873406887054443 0.48750007152557373
v 1.2573750019073486 1.48164701461792 0.48750007152557373
v 1.674643874168396 1.4870092868804932 0.48750007152557373
v 1.198178768157959 1.4726378917694092 0.48750007152557373
v 1.0 1.4908684492111206 0.48750007152557373
v 1.1397160291671753 1.4871902465820312 0.48750007152557373
v -1.4499999284744263 -1.521965503692627 0.0
v -1.899999976158142 -1.5 0.4500000774860382
v -1.4499999284744263 -1.5100091695785522 0.4500000774860382
v -1.899999976158142 -1.5111231803894043 0.0
v -1.8874999284744263 -1.4874999523162842 0.48750007152557373
v -1.443750023841858 -1.4913058280944824 0.48750007152557373
v -2.0220749378204346 -1.4061543941497803 0.0
v -2.0 -1.399999976158142 0.4500000774860382
v -1.9874999523162842 -1.3874999284744263 0.48750007152557373
v -1.9877796173095703 -1.0737500190734863 0.4500000774860382
v -2.0144832134246826 -1.0737500190734863 0.0
v -1.975279688835144 -1.0657812356948853 0.48750007152557373
v -2.000969409942627 -1.0185973644256592 0.4500000774860382
v -2.0587551593780518 -1.0185973644256592 0.0
v -2.000969409942627 -0.8835687041282654 0.4500000774860382
v -2.0588817596435547 -0.8835687041282654 0.0
v -1.9952986240386963 -0.8374999761581421 0.4500000774860382
v -2.027519702911377 -0.8374999761581421 0.0
v -2.004236936569214 -0.5 0.4500000774860382
v -2.050438642501831 -0.5 0.0
v -1.9827985763549805 -0.832812488079071 0.48750007152557373
v -1.9872382879257202 -0.5 0.48750007152557373
v -1.9877796173095703 -0.4075602889060974 0.4500000774860382
v -1.9877796173095703 -0.4075602889060974 0.0
v -1.975279688835144 -0.4075602889060974 0.48750007152557373
v -1.975279688835144 -0.4075602889060974 0.48750007152557373
v -1.982992172241211 -0.366993248462677 0.48750007152557373
v -1.9827284812927246 -0.8782414197921753 0.48750007152557373
v -1.9827284812927246 -1.011394739151001 0.48750007152557373
v -1.9877796173095703 -0.4075602889060974 0.0
v -2.001359701156616 -0.366993248462677 0.4500000774860382
v -1.982992172241211 -0.366993248462677 0.48750007152557373
v -1.982992172241211 -0.10296501219272614 0.48750007152557373
v -2.001359701156616 -0.10296501219272614 0.4500000774860382
v -1.975279688835144 -0.04100000113248825 0.48750007152557373
v -2.0594754219055176 -0.366993248462677 0.0
v -2.0594754219055176 -0.10296499729156494 0.0
v -1.9877796173095703 -0.04100000113248825 0.4500000774860382
v -1.9877796173095703 -0.04100000113248825 0.0
v -1.975279688835144 -0.04100000113248825 0.48750007152557373
v -1.9827958345413208 0.009999999776482582 0.48750007152557373
v -1.9952958822250366 0.009999999776482582 0.4500000774860382
v -1.9952958822250366 0.5 0.4500000774860382
v -2.0158331394195557 0.009999999776482582 0.0
v -2.0158331394195557 0.5 0.0
v -1.9827958345413208 0.5 0.48750007152557373
v -1.9877796173095703 0.6468799710273743 0.4500000774860382
v -1.9877796173095703 0.6468799710273743 0.0
v -1.997140645980835 0.715999960899353 0.4500000774860382
v -2.003323793411255 0.715999960899353 0.0
v -2.0 1.399999976158142 0.4500000774860382
v -2.0 1.399999976158142 0.0
v -1.9874999523162842 1.3874999284744263 0.48750007152557373
v -1.9846405982971191 0.7129999995231628 0.48750007152557373
v -1.899999976158142 1.5 0.0
v -1.899999976158142 1.5 0.4500000774860382
v -1.8874999284744263 1.4874999523162842 0.48750007152557373
v -1.975279688835144 0.6448400020599365 0.48750007152557373
v -1.9877796173095703 -0.04100000113248825 0.0
v -1.9877796173095703 -0.04100000113248825 0.0
v -0.9300000071525574 -1.558592438697815 0.0
v -1.0 -1.4912279844284058 0.4500000774860382
v -0.9300000071525574 -1.5081517696380615 0.4500000774860382
v -1.0 -1.5 0.0
v -0.9300000071525574 -1.4874999523162842 0.48750007152557373
v -1.0 -1.474983811378479 0.48750007152557373
v -1.0740742683410645 -1.5126525163650513 0.4500000774860382
v -1.0740742683410645 -1.5280990600585938 0.0
v -1.3445311784744263 -1.5126525163650513 0.4500000774860382
v -1.3445311784744263 -1.5280990600585938 0.0
v -1.3937499523162842 -1.5 0.4500000774860382
v -1.3937499523162842 -1.5 0.0
v -1.388281226158142 -1.48007071018219 0.48750007152557373
v -1.339746117591858 -1.494564175605774 0.48750007152557373
v -1.0730453729629517 -1.494564175605774 0.48750007152557373
v -0.0837000235915184 -1.5081517696380615 0.4500000774860382
v -0.0837000235915184 -1.4874999523162842 0.48750007152557373
v -0.0 -1.4925380945205688 0.4500000774860382
v -0.0 -1.5 0.0
v 0.125 -1.565481424331665 0.0
v 0.125 -1.4983917474746704 0.4500000774860382
v 0.125 -1.4858916997909546 0.48750007152557373
v -0.0 -1.4800381660461426 0.48750007152557373
v -0.0837000235915184 -1.558592438697815 0.0
v 0.5756250023841858 -1.565481424331665 0.0
v 0.5756250023841858 -1.4983917474746704 0.4500000774860382
v 0.5756250023841858 -1.4858916997909546 0.48750007152557373
v 0.6180624961853027 -1.5 0.0
v 0.6180624961853027 -1.4953752756118774 0.4500000774860382
v 0.6180624961853027 -1.4828753471374512 0.48750007152557373
v 0.9064252972602844 -1.5 0.0
v 0.9064252972602844 -1.5 0.4500000774860382
v 0.9064252972602844 -1.4874999523162842 0.48750007152557373
v 1.0 -1.5726836919784546 0.0
v 1.0 -1.5086474418640137 0.4500000774860382
v 1.3105000257492065 -1.575784683227539 0.0
v 1.3105000257492065 -1.5086910724639893 0.4500000774860382
v 1.306187391281128 -1.4961910247802734 0.48750007152557373
v 1.0 -1.4961473941802979 0.48750007152557373
v 1.360607624053955 -1.5 0.0
v 1.360607624053955 -1.5 0.4500000774860382
v 1.355599045753479 -1.4874999523162842 0.48750007152557373
v 1.5520919561386108 -1.5 0.0
v 1.5520919561386108 -1.5 0.4500000774860382
v 1.5444238185882568 -1.4874999523162842 0.48750007152557373
v 1.5973199605941772 -1.5192257165908813 0.0
v 1.5973199605941772 -1.508673071861267 0.4500000774860382
v 1.5890237092971802 -1.4961730241775513 0.48750007152557373
v 1.899999976158142 -1.5 0.0
v 1.899999976158142 -1.5 0.4500000774860382
v 1.9861971139907837 -1.399999976158142 0.4500000774860382
v 1.9861971139907837 -1.399999976158142 0.0
v 1.9908376932144165 -1.0174999237060547 0.0
v 1.9881983995437622 -1.0174999237060547 0.4500000774860382
v 1.9736971855163574 -1.3874999284744263 0.48750007152557373
v 1.9756983518600464 -1.0103124380111694 0.48750007152557373
v 1.8874999284744263 -1.4874999523162842 0.48750007152557373
v 1.8874999284744263 -1.4874999523162842 0.48750007152557373
v 1.9802707433700562 -0.9631625413894653 0.0
v 1.9802707433700562 -0.9631625413894653 0.4500000774860382
v 1.9677708148956299 -0.9567296504974365 0.48750007152557373
v 2.0313937664031982 -0.9145304560661316 0.0
v 1.9927265644073486 -0.9145304560661316 0.4500000774860382
v 1.9802265167236328 -0.9087730050086975 0.48750007152557373
v 1.9677708148956299 -0.9567296504974365 0.48750007152557373
v 2.0313937664031982 -0.6803207397460938 0.0
v 1.9927265644073486 -0.6803207397460938 0.4500000774860382
v 1.9802265167236328 -0.6778162717819214 0.48750007152557373
v 1.9802707433700562 -0.6370437741279602 0.0
v 1.9802707433700562 -0.6370437741279602 0.4500000774860382
v 1.9677708148956299 -0.6351403594017029 0.48750007152557373
v 2.0206034183502197 -0.5 0.0
v 1.98556649684906 -0.5 0.4500000774860382
v 2.014584541320801 -0.23999999463558197 0.0
v 1.9869515895843506 -0.23999999463558197 0.4500000774860382
v 1.9744515419006348 -0.23999999463558197 0.48750007152557373
v 1.9730665683746338 -0.5 0.48750007152557373
v 1.9802707433700562 -0.21040000021457672 0.0
v 1.9802707433700562 -0.21040000021457672 0.4500000774860382
v 1.9677708148956299 -0.21040000021457672 0.48750007152557373
v 1.9918768405914307 -0.16422401368618011 0.4500000774860382
v 1.9793767929077148 -0.16422401368618011 0.48750007152557373
v 1.9802707433700562 -0.21040000021457672 0.4500000774860382
v 2.0594985485076904 -0.16422401368618011 0.0
v 2.059683322906494 0.2974116802215576 0.0
v 1.9923934936523438 0.2974116802215576 0.4500000774860382
v 1.979893445968628 0.2974116802215576 0.48750007152557373
v 1.9802707433700562 0.3440069854259491 0.0
v 1.9802707433700562 0.3440069854259491 0.4500000774860382
v 1.9802707433700562 0.3440069854259491 0.0
v 1.9677708148956299 0.3440069854259491 0.48750007152557373
v 1.9907450675964355 0.5 0.4500000774860382
v 2.021240472793579 0.5 0.0
v 2.021240472793579 0.9589999914169312 0.0
v 1.9907450675964355 0.9589999914169312 0.4500000774860382
v 1.9677708148956299 0.9526249766349792 0.48750007152557373
v 1.9736971855163574 0.5 0.48750007152557373
v 1.9802707433700562 0.3440069854259491 0.0
v 1.9677708148956299 0.3440069854259491 0.48750007152557373
v 1.9802707433700562 1.0030999183654785 0.0
v 1.9677708148956299 0.9961124062538147 0.48750007152557373
v 1.9802707433700562 1.0030999183654785 0.4500000774860382
v 1.9802707433700562 1.0030999183654785 0.0
v 2.0167620182037354 1.0626349449157715 0.0
v 1.990932822227478 1.0569201707839966 0.4500000774860382
v 1.9802707433700562 1.0030999183654785 0.0
v 1.9784328937530518 1.0548205375671387 0.48750007152557373
v 1.9677708148956299 0.9961124062538147 0.48750007152557373
v 2.0167620182037354 1.2869826555252075 0.0
v 1.990932822227478 1.2869826555252075 0.4500000774860382
v 1.9784328937530518 1.2760523557662964 0.48750007152557373
v 1.9802707433700562 1.3333197832107544 0.0
v 1.9861971139907837 1.3333200216293335 0.4500000774860382
v 1.974661946296692 1.3217458724975586 0.48750007152557373
v 2.0 1.399999976158142 0.0
v 2.0 1.399999976158142 0.4500000774860382
v 1.899999976158142 1.5 0.4500000774860382
v 1.899999976158142 1.5 0.0
v 1.7530299425125122 1.5 0.0
v 1.7530299425125122 1.5 0.4500000774860382
v 1.8874999284744263 1.4874999523162842 0.48750007152557373
v 1.742571234703064 1.4874999523162842 0.48750007152557373
v 1.9874999523162842 1.3874999284744263 0.48750007152557373
v 1.7202563285827637 1.5018301010131836 0.4500000774860382
v 1.7205054759979248 1.4873406887054443 0.48750007152557373
v 1.7273815870285034 1.5077433586120605 0.0
v -1.4229999780654907 1.5526539087295532 0.0
v -1.0 1.499353289604187 0.4500000774860382
v -1.4229999780654907 1.4992138147354126 0.4500000774860382
v -1.0 1.5504883527755737 0.0
v -1.41712486743927 1.4867138862609863 0.48750007152557373
v -1.0 1.479996919631958 0.48750007152557373
v -0.8482212424278259 1.4892181158065796 0.4500000774860382
v -0.8482212424278259 1.5076732635498047 0.0
v -0.7906500101089478 1.4801934957504272 0.4500000774860382
v -0.7906500101089478 1.4871147871017456 0.0
v -0.7548956871032715 1.4906765222549438 0.4500000774860382
v -0.7666871547698975 1.5099825859069824 0.0
v -0.749451756477356 1.4797725677490234 0.4875001311302185
v -0.7906500101089478 1.4676934480667114 0.48750007152557373
v -0.8482212424278259 1.4698617458343506 0.48750007152557373
v -1.4730850458145142 1.4924616813659668 0.0
v -1.466514229774475 1.4729260206222534 0.48750007152557373
v -1.4730850458145142 1.4924616813659668 0.0
v -1.4730850458145142 1.484250783920288 0.4500000774860382
v -1.466514229774475 1.4729260206222534 0.48750007152557373
v -1.5243148803710938 1.5141525268554688 0.0
v -1.5243148803710938 1.5005697011947632 0.4500000774860382
v -1.4730850458145142 1.4924616813659668 0.0
v -1.5259995460510254 1.488069772720337 0.48750007152557373
v -1.466514229774475 1.4729260206222534 0.48750007152557373
v -1.899999976158142 1.5 0.0
v -1.899999976158142 1.5 0.4500000774860382
v -1.8874999284744263 1.4874999523162842 0.48750007152557373
v -1.9877796173095703 -0.4075602889060974 0.0
v 1.9802707433700562 -0.21040000021457672 0.4500000774860382
v 1.9802707433700562 -0.21040000021457672 0.0
v 0.5799999833106995 1.547538161277771 0.0
v 1.0 1.5033684968948364 0.4500000774860382
v 0.5799999833106995 1.4984670877456665 0.4500000774860382
v 1.0 1.549748182296753 0.0
v 0.5799999833106995 1.4859670400619507 0.48750007152557373
v 1.0 1.4908684492111206 0.48750007152557373
v 1.14168381690979 1.4996901750564575 0.4500000774860382
v 1.14168381690979 1.5457485914230347 0.0
v 1.200969934463501 1.485137939453125 0.4500000774860382
v 1.200969934463501 1.496274709701538 0.0
v 1.2609999179840088 1.4984359741210938 0.4500000774860382
v 1.2609999179840088 1.5207964181900024 0.0
v 1.2573750019073486 1.48164701461792 0.48750007152557373
v 1.198178768157959 1.4726378917694092 0.48750007152557373
v 1.2573750019073486 1.48164701461792 0.48750007152557373
v 1.1397160291671753 1.4871902465820312 0.48750007152557373
v 0.5393999814987183 1.5014017820358276 0.0
v 0.5393999814987183 1.4834295511245728 0.4500000774860382
v 0.5393999814987183 1.5014017820358276 0.0
v 1.6841458082199097 1.5038464069366455 0.4500000774860382
v 1.6841458082199097 1.5207964181900024 0.0
v 1.674643874168396 1.4870092868804932 0.48750007152557373
v 0.5393999814987183 1.4695385694503784 0.48750007152557373
v 0.4800659716129303 1.564896821975708 0.0
v 0.4800659716129303 1.4946588277816772 0.4500000774860382
v 0.5393999814987183 1.5014017820358276 0.0
v 0.5393999814987183 1.4695385694503784 0.48750007152557373
v 0.4800659716129303 1.4764361381530762 0.48750007152557373
v 0.2544349730014801 1.5647975206375122 0.0
v 0.2544349730014801 1.4986449480056763 0.4500000774860382
v 0.2544349730014801 1.4804223775863647 0.48750007152557373
v 0.2175419181585312 1.4871668815612793 0.0
v 0.2175419181585312 1.4871670007705688 0.4500000774860382
v 0.2175419181585312 1.4871668815612793 0.0
v 0.2544349730014801 1.4804223775863647 0.48750007152557373
v 0.2175419181585312 1.4769052267074585 0.48750007152557373
v 0.16098102927207947 1.4928585290908813 0.4500000774860382
v 0.16098102927207947 1.5162690877914429 0.0
v 0.2175419181585312 1.4871668815612793 0.0
v 0.16098102927207947 1.4804834127426147 0.48750007152557373
v -0.0 1.540273666381836 0.0
v -0.0 1.4984066486358643 0.4500000774860382
v -0.73499995470047 1.5402216911315918 0.0
v -0.73499995470047 1.4965096712112427 0.4500000774860382
v -0.73499995470047 1.4840096235275269 0.48750007152557373
v -0.0 1.4839239120483398 0.48750007152557373
v 0.16098102927207947 1.4804834127426147 0.48750007152557373
vn -0.03452230617403984 -0.2139441967010498 0.9762356281280518
vn -0.0 0.0 1.0
vn -0.008987615816295147 -0.21664214134216309 0.9762097001075745
vn -0.24542959034442902 0.0009519248269498348 0.9694138765335083
vn -0.16134588420391083 -0.054705407470464706 0.9853805899620056
vn -0.0 0.0 1.0
vn -0.14475750923156738 0.0 0.989467203617096
vn 0.00232133106328547 -0.6095491647720337 0.7927448749542236
vn 0.08960414677858353 -0.6769223809242249 0.7305800914764404
vn -0.05928008630871773 -0.6629303097724915 0.7463304996490479
vn 0.07725630700588226 -0.6858012080192566 0.723676860332489
vn -0.2799958884716034 -0.6836064457893372 0.6740064024925232
vn -0.6924606561660767 -0.14322087168693542 0.7070968747138977
vn -0.3072843849658966 0.0036432878114283085 0.951610803604126
vn -0.5890499949455261 0.007737090345472097 0.8080596923828125
vn -0.5440008640289307 0.024408847093582153 0.8387295603752136
vn -0.6735088229179382 0.028044933453202248 0.738646924495697
vn -0.6692445278167725 0.03869936987757683 0.7420337796211243
vn -0.7643357515335083 -0.009562073275446892 0.6447474956512451
vn -0.7499572038650513 0.02360198274254799 0.6610651612281799
vn -0.6962233185768127 -0.030304115265607834 0.717185378074646
vn -0.8457575440406799 -0.06262043863534927 0.5298801064491272
vn -0.42685914039611816 0.005061014089733362 0.904304027557373
vn -0.008987615816295147 -0.21664214134216309 0.9762097001075745
vn -0.0 0.0 1.0
vn -0.0 -0.15659108757972717 0.9876634478569031
vn -0.0 0.0 1.0
vn 0.006685144267976284 -0.4358246624469757 0.9000068306922913
vn 0.05689582601189613 -0.6935179829597473 0.7181892395019531
vn -0.07940217852592468 -0.7565559148788452 0.6490904688835144
vn 0.00232133106328547 -0.6095491647720337 0.7927448749542236
vn -0.0 -0.15659108757972717 0.9876634478569031
vn -0.0 0.0 1.0
vn -0.0006879261345602572 -0.20415158569812775 0.9789390563964844
vn -0.0 0.0 1.0
vn 0.006685144267976284 -0.4358246624469757 0.9000068306922913
vn 0.005858694203197956 -0.672325611114502 0.7402324080467224
vn -0.0491478405892849 -0.7644467949867249 0.6428107023239136
vn -0.03169315680861473 -0.6858980059623718 0.727007269859314
vn -0.0006879261345602572 -0.20415158569812775 0.9789390563964844
vn 0.26382264494895935 -0.04176647961139679 0.9636664986610413
vn 0.054705407470464706 -0.16134588420391083 0.9853805899620056
vn 0.1963571161031723 0.0 0.9805324673652649
vn -0.0 0.0 1.0
vn 0.1610340029001236 -0.4994182586669922 0.8512633442878723
vn -0.035573240369558334 -0.6735618114471436 0.738274335861206
vn 0.07914309948682785 -0.7417002320289612 0.6660459041595459
vn 0.042603954672813416 -0.7395244240760803 0.6717801690101624
vn -0.03169315680861473 -0.6858980059623718 0.727007269859314
vn 0.7104439735412598 -0.004718088544905186 0.7037379145622253
vn 0.7382007241249084 -0.25797712802886963 0.6233037710189819
vn 0.7795814275741577 0.06625708937644958 0.622786283493042
vn 0.5905472040176392 -0.051477156579494476 0.8053596019744873
vn 0.7763998508453369 0.044485319405794144 0.6286686658859253
vn -0.0 0.0 1.0
vn -0.0 0.0 1.0
vn -0.0 0.0 1.0
vn -0.0 0.0 1.0
vn -0.0 0.0 1.0
vn -0.0 0.0 1.0
vn -0.0021228871773928404 0.16380055248737335 0.9864912033081055
vn -0.020897237583994865 0.2699446380138397 0.9626489877700806
vn 0.0053750816732645035 0.2932050824165344 0.9560344815254211
vn 9.505559137323871e-05 0.2830274701118469 0.959111750125885
vn -0.0 0.1608135998249054 0.9869847893714905
vn 0.04076780006289482 0.16050873696804047 0.9861921668052673
vn 0.34955304861068726 -7.722759619355202e-05 0.9369166493415833
vn 0.4033697545528412 0.012916957959532738 0.9149458408355713
vn -0.03108607418835163 0.7400932908058167 0.6717854142189026
vn 0.04101891815662384 0.7365358471870422 0.6751535534858704
vn 0.028055500239133835 0.6772816181182861 0.7351887226104736
vn -0.17554722726345062 0.672610342502594 0.7188732028007507
vn 0.7229048013687134 -0.006508387625217438 0.6909171342849731
vn 0.7937482595443726 0.004309092182666063 0.6082311272621155
vn 0.6083662509918213 0.005893688183277845 0.7936345338821411
vn 0.7023338079452515 -0.018476469442248344 0.7116078734397888
vn 0.648216724395752 0.10121946781873703 0.7546985149383545
vn 0.27716460824012756 0.7028056979179382 0.6551671028137207
vn 0.0096820667386055 0.7650025486946106 0.6439543962478638
vn 0.002465079538524151 0.5366769433021545 0.8437842130661011
vn 0.003278789110481739 0.36918264627456665 0.9293510913848877
vn 0.053804975003004074 0.6133461594581604 0.7879794239997864
vn 0.008638424798846245 0.5735501050949097 0.8191249966621399
vn -0.14165255427360535 0.7737458348274231 0.6174560189247131
vn -0.013923107646405697 0.6058095693588257 0.7954877614974976
vn 0.019683202728629112 0.7956588864326477 0.6054250001907349
vn 0.010112270712852478 0.6892772912979126 0.7244271039962769
vn -0.1053471639752388 0.7822020649909973 0.6140536069869995
vn -0.0 0.0 1.0
vn 0.34955304861068726 -7.722759619355202e-05 0.9369166493415833
vn 0.1963571161031723 0.0 0.9805324673652649
vn -0.0 0.0 1.0
vn 0.7104439735412598 -0.004718088544905186 0.7037379145622253
vn 0.7144467234611511 0.023151792585849762 0.6993067264556885
vn 0.7229048013687134 -0.006508387625217438 0.6909171342849731
vn 0.6426895260810852 -0.03563237190246582 0.7652976512908936
vn 0.825554609298706 -0.010041426867246628 0.5642328858375549
vn -0.14475750923156738 0.0 0.989467203617096
vn 0.0053750816732645035 0.2932050824165344 0.9560344815254211
vn -0.0 0.0 1.0
vn -0.15895938873291016 0.04467592388391495 0.9862738251686096
vn -0.054705407470464706 0.16134588420391083 0.9853805899620056
vn -0.1368660181760788 0.5927690863609314 0.7936577200889587
vn -0.05504149571061134 0.7385966777801514 0.6718969345092773
vn -0.5890499949455261 0.007737090345472097 0.8080596923828125
vn -0.7034862041473389 0.27550897002220154 0.6551350355148315
vn -0.7484637498855591 -0.06362280249595642 0.6601167917251587
vn -0.8350196480751038 -0.013025566935539246 0.5500659346580505
vn -0.05769110471010208 0.725178599357605 0.6861396431922913
vn 0.028055500239133835 0.6772816181182861 0.7351887226104736
vn -0.1223682388663292 0.6574400663375854 0.7435042858123779
vn -0.05928008630871773 -0.6629303097724915 0.7463304996490479
vn 0.08960414677858353 -0.6769223809242249 0.7305800914764404
vn -0.0724375918507576 -0.752183198928833 0.6549605131149292
vn 0.0013101886725053191 -0.20520761609077454 0.978717565536499
vn -0.0 0.0 1.0
vn -0.0 0.0 1.0
vn -0.0021773807238787413 -0.21753421425819397 0.9760501980781555
vn -0.0 -0.2132645696401596 0.976994514465332
vn 0.19004635512828827 -0.28102967143058777 0.940693736076355
vn -0.0 0.0 1.0
vn 0.36876070499420166 -0.0467839315533638 0.9283462166786194
vn -0.0 0.0 1.0
vn -0.0 0.0 1.0
vn 0.3017254173755646 0.0 0.953394889831543
vn 0.7731494903564453 -0.030297232791781425 -0.6334997415542603
vn 0.9950429201126099 -0.015303201042115688 0.09826149791479111
vn 0.9956570863723755 0.045491091907024384 0.08122474700212479
vn -0.3230181336402893 -0.0019584938418120146 0.9463907480239868
vn -0.34299397468566895 0.018795842304825783 0.9391494989395142
vn -0.0 0.0 1.0
vn -0.5216249823570251 -0.08541993796825409 0.8488879203796387
vn -0.7571638226509094 0.0312839113175869 0.6524754762649536
vn -0.45528483390808105 0.04322611168026924 0.8892958760261536
vn 0.5180115103721619 0.00468855956569314 0.8553608059883118
vn 0.339952677488327 0.0038467110134661198 0.9404345750808716
vn -0.0 0.0 1.0
vn -0.0 0.0 1.0
vn -0.0 0.0 1.0
vn 0.5307640433311462 -0.014219995588064194 0.8474003076553345
vn -0.07238013297319412 0.5510513782501221 0.8313263058662415
vn -0.17471671104431152 0.40403276681900024 0.8979039788246155
vn -0.0 0.0 1.0
vn -0.7408812046051025 0.03844650089740753 -0.6705348491668701
vn -0.9993423819541931 0.03320287540555 -0.01457529328763485
vn -0.9971473813056946 0.0018351092003285885 0.07545729726552963
vn 0.05318547040224075 0.524444580078125 0.84978187084198
vn -0.07527472823858261 0.5240650177001953 0.8483451008796692
vn 0.038245510309934616 0.758662760257721 0.6503599286079407
vn 0.00685740914195776 0.29960912466049194 0.9540374279022217
vn 0.004550339188426733 0.5793742537498474 0.81504887342453
vn 0.01208541076630354 0.5654680132865906 0.8246816992759705
vn 0.008900327607989311 0.5647302865982056 0.8252274394035339
vn 0.011628234758973122 0.7926090359687805 0.6096192598342896
vn 0.023466672748327255 0.9485989809036255 0.315609335899353
vn 0.5190292000770569 0.038678307086229324 0.8538810014724731
vn -0.0 0.0 1.0
vn -0.0 0.0 1.0
vn 0.2809305787086487 -0.02856326289474964 0.9593029022216797
vn 0.002465079538524151 0.5366769433021545 0.8437842130661011
vn -0.06336454302072525 0.5438314080238342 0.8367988467216492
vn -0.00850606244057417 0.7764570713043213 0.6301125884056091
vn 0.0026550597976893187 0.2285631000995636 0.9735254645347595
vn 0.007905502803623676 0.19689400494098663 0.9803929924964905
vn -0.0 0.0 1.0
vn 0.10763678699731827 -0.9938560128211975 0.02577875182032585
vn -0.37392309308052063 -0.9141975045204163 0.15628308057785034
vn 0.11114982515573502 -0.9706844091415405 0.21311382949352264
vn -0.3588763475418091 -0.9331001043319702 0.023064570501446724
vn -0.2799958884716034 -0.6836064457893372 0.6740064024925232
vn 0.07725630700588226 -0.6858012080192566 0.723676860332489
vn -0.9214094281196594 -0.38575294613838196 0.046896837651729584
vn -0.8647609353065491 -0.4202776849269867 0.27487313747406006
vn -0.6924606561660767 -0.14322087168693542 0.7070968747138977
vn -0.9800013899803162 -0.05394415929913521 0.19153966009616852
vn -0.9542625546455383 -0.28934240341186523 0.07526000589132309
vn -0.8457575440406799 -0.06262043863534927 0.5298801064491272
vn -0.9419295787811279 -0.2070174664258957 0.26440972089767456
vn -0.9678170084953308 -0.21877023577690125 0.12437804043292999
vn -0.9580878615379333 0.03906045854091644 0.2837992310523987
vn -0.9659321904182434 0.23515240848064423 0.10806643962860107
vn -0.9655978083610535 0.12766492366790771 0.22654488682746887
vn -0.9832056164741516 0.16345633566379547 0.08117067813873291
vn -0.9669463038444519 0.0474090613424778 0.2505339980125427
vn -0.970294713973999 0.231526717543602 0.0701679140329361
vn -0.7643357515335083 -0.009562073275446892 0.6447474956512451
vn -0.6692445278167725 0.03869936987757683 0.7420337796211243
vn -0.9786807298660278 0.021264400333166122 0.20428360998630524
vn -0.9907209873199463 0.1359112560749054 0.0
vn -0.6735088229179382 0.028044933453202248 0.738646924495697
vn -0.7752113938331604 0.032279834151268005 0.6308766007423401
vn -0.9055132865905762 -0.15656393766403198 0.3943774104118347
vn -0.7499572038650513 0.02360198274254799 0.6610651612281799
vn -0.6962233185768127 -0.030304115265607834 0.717185378074646
vn -0.9637048244476318 -0.26560354232788086 0.026975462213158607
vn -0.9245035648345947 -0.26783376932144165 0.2712160348892212
vn -0.6429741978645325 -0.11117073148488998 0.7577764987945557
vn -0.7571638226509094 0.0312839113175869 0.6524754762649536
vn -0.9600087404251099 0.08920211344957352 0.26537925004959106
vn -0.5440008640289307 0.024408847093582153 0.8387295603752136
vn -0.9366515278816223 -0.3287118971347809 0.12096475064754486
vn -0.933843731880188 0.3460579216480255 0.0904424637556076
vn -0.9724506139755249 0.13452161848545074 0.19037777185440063
vn -0.9373421669006348 0.34841012954711914 0.0
vn -0.8021727800369263 0.03599280118942261 0.5960061550140381
vn -0.9463958740234375 -0.06940048187971115 0.3154652714729309
vn -0.9765465259552002 -0.15738384425640106 0.1469254344701767
vn -0.9790642857551575 0.021445905789732933 0.20241829752922058
vn -0.9852467775344849 -0.16512653231620789 0.04496537148952484
vn -0.9963429570198059 0.07982411980628967 0.03047800436615944
vn -0.8256425857543945 0.016922270879149437 0.5639395713806152
vn -0.9860174059867859 -0.01773769035935402 0.16569563746452332
vn -0.9984092116355896 -0.05620105192065239 0.004538554698228836
vn -0.9830958843231201 -0.08354682475328445 0.16291852295398712
vn -0.9972681999206543 -0.07330358028411865 0.009097560308873653
vn -0.9163957834243774 0.37561067938804626 0.13833117485046387
vn -0.9229469895362854 0.38492700457572937 0.0
vn -0.7034862041473389 0.27550897002220154 0.6551350355148315
vn -0.7484637498855591 -0.06362280249595642 0.6601167917251587
vn -0.39176955819129944 0.9200274348258972 0.00812696386128664
vn -0.4360930919647217 0.8626097440719604 0.2563730776309967
vn -0.1368660181760788 0.5927690863609314 0.7936577200889587
vn -0.9456427693367004 -0.0019011362455785275 0.3252018094062805
vn -0.9476027488708496 -0.31880512833595276 0.020303811877965927
vn -0.998561680316925 0.05122274532914162 0.01584099978208542
vn -0.3046509325504303 -0.9489569664001465 0.08166086673736572
vn -0.07312995195388794 -0.9577451348304749 0.27816590666770935
vn -0.09033206850290298 -0.9604424238204956 0.2634207308292389
vn -0.0035679296124726534 -0.9996887445449829 0.02469308115541935
vn -0.07940217852592468 -0.7565559148788452 0.6490904688835144
vn 0.00232133106328547 -0.6095491647720337 0.7927448749542236
vn 0.15251368284225464 -0.959748387336731 0.2358444184064865
vn 0.11990746855735779 -0.9922007918357849 0.034057777374982834
vn -0.1244802325963974 -0.9596145749092102 0.2522788941860199
vn -0.2539026737213135 -0.9669556617736816 0.023026783019304276
vn -0.07996005564928055 -0.9663682579994202 0.24441532790660858
vn 0.01545301079750061 -0.9998410940170288 0.008885187096893787
vn -0.05928008630871773 -0.6629303097724915 0.7463304996490479
vn -0.0724375918507576 -0.752183198928833 0.6549605131149292
vn 0.08960414677858353 -0.6769223809242249 0.7305800914764404
vn 0.15976588428020477 -0.9437100291252136 0.28963154554367065
vn 0.05689582601189613 -0.6935179829597473 0.7181892395019531
vn -0.02517852373421192 -0.9711838364601135 0.2369978278875351
vn 0.10745877772569656 -0.9931771755218506 0.04529549553990364
vn -0.1744852215051651 -0.9789573550224304 0.1058175265789032
vn -0.018200108781456947 -0.9762887954711914 0.2157059609889984
vn -0.022196339443325996 -0.9484496116638184 0.31614989042282104
vn 0.008827395737171173 -0.5754844546318054 0.8177650570869446
vn 0.1984197050333023 -0.9740173816680908 0.10917795449495316
vn 0.31188708543777466 -0.9397327303886414 0.1401030421257019
vn 0.17442311346530914 -0.9615021347999573 0.2123444527387619
vn 0.04487418383359909 -0.9477276802062988 0.3159092366695404
vn 0.33622342348098755 -0.9410331845283508 0.03755471482872963
vn 0.02942041866481304 -0.9861146211624146 0.16343913972377777
vn 0.00675687100738287 -0.775397539138794 0.6314373016357422
vn -0.2201150804758072 -0.9754672646522522 0.00359350279904902
vn -0.14496232569217682 -0.9713966846466064 0.1880807876586914
vn -0.0491478405892849 -0.7644467949867249 0.6428107023239136
vn -0.24891069531440735 -0.9635594487190247 0.09796234965324402
vn -0.03962917625904083 -0.9692785739898682 0.24275194108486176
vn 0.3059593141078949 -0.9419981241226196 0.13794344663619995
vn 0.2358449101448059 -0.9478560090065002 0.21435056626796722
vn 0.042603954672813416 -0.7395244240760803 0.6717801690101624
vn -0.03169315680861473 -0.6858980059623718 0.727007269859314
vn 0.3675093352794647 -0.9295341372489929 0.030051609501242638
vn 0.056284867227077484 -0.9849632382392883 0.16333863139152527
vn 0.07914309948682785 -0.7417002320289612 0.6660459041595459
vn -0.13277524709701538 -0.9911461472511292 0.0
vn -0.16045302152633667 -0.9753595590591431 0.15142160654067993
vn -0.04104221612215042 -0.7771141529083252 0.6280199885368347
vn -0.17520427703857422 -0.9844059944152832 0.015758521854877472
vn -0.037757739424705505 -0.985754132270813 0.16389960050582886
vn -0.11291607469320297 -0.9495548605918884 0.2925668954849243
vn 0.4374556243419647 -0.899217426776886 0.006369416136294603
vn 0.4831232726573944 -0.8360783457756042 0.2599324882030487
vn 0.9284391403198242 -0.3460575342178345 0.13507433235645294
vn 0.935272753238678 -0.3539279103279114 0.0
vn 0.9983030557632446 0.05810210108757019 0.0038914845790714025
vn 0.9843252897262573 0.0775671899318695 0.15838930010795593
vn 0.7382007241249084 -0.25797712802886963 0.6233037710189819
vn 0.7795814275741577 0.06625708937644958 0.622786283493042
vn 0.1610340029001236 -0.4994182586669922 0.8512633442878723
vn 0.18289701640605927 -0.567222535610199 0.802998960018158
vn 0.9894607663154602 -0.14478513598442078 0.002141260774806142
vn 0.9736842513084412 -0.13982121646404266 0.17996947467327118
vn 0.7817163467407227 -0.06814110279083252 0.6199004054069519
vn 0.9372329711914062 -0.3435736894607544 0.059595249593257904
vn 0.9696571826934814 -0.12135400623083115 0.21222183108329773
vn 0.9419767260551453 -0.07932419329881668 0.32617104053497314
vn 0.5905472040176392 -0.051477156579494476 0.8053596019744873
vn 0.9574525952339172 0.27661508321762085 0.08227100223302841
vn 0.9550834894180298 0.22969508171081543 0.18723170459270477
vn 0.9364634156227112 0.17902125418186188 0.3016417324542999
vn 0.9589780569076538 0.28272193670272827 0.02072129212319851
vn 0.982653796672821 0.07787170261144638 0.16830740869045258
vn 0.9654985666275024 0.03801523149013519 0.2576185464859009
vn 0.9935948252677917 -0.10021021962165833 0.05222330242395401
vn 0.9768306016921997 -0.015063251368701458 0.21348340809345245
vn 0.9577745199203491 0.2801350951194763 0.06474651396274567
vn 0.9559658765792847 0.2496328502893448 0.15431378781795502
vn 0.9436612725257874 0.10275843739509583 0.31455376744270325
vn 0.9070529341697693 -0.01103271171450615 0.42087191343307495
vn 0.8573288917541504 0.5143364071846008 0.021103883162140846
vn 0.9746021032333374 0.03427448868751526 0.2213050276041031
vn 0.8967915773391724 -0.04972044751048088 0.43965065479278564
vn 0.9655873775482178 -0.11921139806509018 0.2311486303806305
vn 0.945756196975708 -0.07849462330341339 0.31525206565856934
vn 0.971285343170166 -0.1299956887960434 0.1992635428905487
vn 0.9062728881835938 -0.4086047112941742 0.10822046548128128
vn 0.9357463121414185 0.3236091732978821 0.1401999145746231
vn 0.9475758075714111 0.24196632206439972 0.20869210362434387
vn 0.9363923072814941 0.16044867038726807 0.31213080883026123
vn 0.79737389087677 0.6021004319190979 0.040863923728466034
vn 0.9833905100822449 0.05959591269493103 0.1714397668838501
vn 0.9429814219474792 0.3315650224685669 0.029166854918003082
vn 0.812411367893219 0.02632635459303856 0.5824900269508362
vn 0.9620731472969055 -0.02227594330906868 0.27188074588775635
vn 0.9931562542915344 -0.10764433443546295 0.045314814895391464
vn 0.9682185649871826 0.24134524166584015 0.06561390310525894
vn 0.9427602291107178 0.19981616735458374 0.26697680354118347
vn 0.7937482595443726 0.004309092182666063 0.6082311272621155
vn 0.7229048013687134 -0.006508387625217438 0.6909171342849731
vn 0.9999994039535522 -0.0011555860983207822 0.0
vn 0.7144467234611511 0.023151792585849762 0.6993067264556885
vn 0.8816931843757629 0.4711255729198456 0.025647884234786034
vn 0.6083662509918213 0.005893688183277845 0.7936345338821411
vn 0.9790284037590027 -0.10937560349702835 0.17187300324440002
vn 0.9884865283966064 0.1500903218984604 0.019167697057127953
vn 0.9687110781669617 -0.2452632635831833 0.03801039233803749
vn 0.9804542660713196 -0.06402657926082611 0.18603743612766266
vn 0.9874897599220276 -0.15768298506736755 0.0
vn 0.9460647106170654 -0.1193355843424797 0.3011987507343292
vn 0.7930201888084412 0.007682565599679947 0.6091468334197998
vn 0.9746622443199158 0.21657304465770721 0.05594379082322121
vn 0.9707549214363098 0.1546728014945984 0.18360626697540283
vn 0.9460821747779846 0.025844790041446686 0.322893887758255
vn 0.9875349998474121 0.15724509954452515 0.0069673387333750725
vn 0.9845008850097656 -0.11432130634784698 0.13299882411956787
vn 0.8036601543426514 -0.021142087876796722 0.5947128534317017
vn 0.9637615084648132 0.2667408287525177 -0.0036303026136010885
vn 0.8965781331062317 0.3636605441570282 0.2527821660041809
vn 0.37626367807388306 0.916469156742096 0.13605135679244995
vn 0.3826834261417389 0.9238795042037964 0.0
vn 0.09726723283529282 0.9952582716941833 0.0
vn 0.06746450066566467 0.9838852882385254 0.16558457911014557
vn 0.27716460824012756 0.7028056979179382 0.6551671028137207
vn 0.0096820667386055 0.7650025486946106 0.6439543962478638
vn 0.648216724395752 0.10121946781873703 0.7546985149383545
vn 0.08462680876255035 0.978167712688446 0.18980567157268524
vn 0.002465079538524151 0.5366769433021545 0.8437842130661011
vn 0.21258485317230225 0.9770867228507996 0.010450652800500393
vn -0.27700671553611755 0.9543782472610474 0.11148711293935776
vn 0.02948550507426262 0.9550924897193909 0.2948371171951294
vn -0.2765289545059204 0.9380703568458557 0.20870010554790497
vn 0.11502020806074142 0.9893702268600464 0.08897658437490463
vn -0.05769110471010208 0.725178599357605 0.6861396431922913
vn 0.028055500239133835 0.6772816181182861 0.7351887226104736
vn 0.12458445131778717 0.9622543454170227 0.24196137487888336
vn 0.25487667322158813 0.9664582014083862 0.0315660685300827
vn -0.031196465715765953 0.984483540058136 0.17268157005310059
vn -0.2349960207939148 0.9715636968612671 0.028998058289289474
vn -0.3512723445892334 0.9197041988372803 0.17536263167858124
vn -0.5673096179962158 0.8215070962905884 0.05732208490371704
vn -0.17554722726345062 0.672610342502594 0.7188732028007507
vn -0.03108607418835163 0.7400932908058167 0.6717854142189026
vn 0.04101891815662384 0.7365358471870422 0.6751535534858704
vn -0.5499970316886902 0.8337453007698059 0.04870445653796196
vn -0.05504149571061134 0.7385966777801514 0.6718969345092773
vn -0.25448647141456604 0.9661534428596497 0.04223953187465668
vn 0.1163826435804367 0.9793923497200012 0.16506293416023254
vn -0.06263387203216553 0.8404781222343445 0.538213312625885
vn 0.22247593104839325 0.9745997190475464 0.025687431916594505
vn 0.0936625599861145 0.9807178974151611 0.1715216040611267
vn 0.05506674945354462 0.9983165264129639 0.018215740099549294
vn 0.1768970489501953 0.9394594430923462 0.29346778988838196
vn -0.06523160636425018 0.9326906204223633 0.354729562997818
vn -0.39176955819129944 0.9200274348258972 0.00812696386128664
vn -0.4360930919647217 0.8626097440719604 0.2563730776309967
vn -0.15404576063156128 0.6671748161315918 0.7287987470626831
vn -0.7713908553123474 -0.6354523301124573 0.034006502479314804
vn 0.8606964349746704 -0.4823268949985504 0.16297978162765503
vn 0.5035439133644104 -0.8639695644378662 0.0
vn -0.27633118629455566 0.9556279182434082 0.10206088423728943
vn 0.005233824718743563 0.9738916754722595 0.22695302963256836
vn -0.30601319670677185 0.9356863498687744 0.17563307285308838
vn 0.016219552606344223 0.9946240186691284 0.10227517783641815
vn -0.14165255427360535 0.7737458348274231 0.6174560189247131
vn 0.010515812784433365 0.6981998085975647 0.7158256769180298
vn 0.12990450859069824 0.96840500831604 0.21287699043750763
vn 0.314181923866272 0.946300208568573 0.07619456946849823
vn 0.09683766216039658 0.9739262461662292 0.205158531665802
vn 0.017457908019423485 0.9992905855178833 0.03336833417415619
vn -0.14211972057819366 0.9637392163276672 0.22585108876228333
vn -0.13230513036251068 0.9901810884475708 0.045131754130125046
vn -0.08528587967157364 0.6626349091529846 0.7440707683563232
vn 0.07037778943777084 0.8022667765617371 0.5928026437759399
vn -0.11876475811004639 0.9227514863014221 0.366639643907547
vn 0.09328687936067581 0.9432008862495422 0.3188568353652954
vn -0.5651373863220215 0.8230698108673096 0.05635569617152214
vn 0.010257753543555737 0.9758706092834473 0.21810875833034515
vn -0.15810304880142212 0.9856545329093933 0.05906408280134201
vn 0.012999852187931538 0.9753368496894836 0.2203381210565567
vn 0.11583517491817474 0.9927831888198853 0.03104335442185402
vn -0.00850606244057417 0.7764570713043213 0.6301125884056091
vn -0.018362268805503845 0.7989622354507446 0.6011008620262146
vn 0.3245876431465149 0.938426673412323 0.11831460148096085
vn 0.08360957354307175 0.9560707807540894 0.2809593677520752
vn 0.2301226109266281 0.972386360168457 0.03883551061153412
vn -0.013923107646405697 0.6058095693588257 0.7954877614974976
vn 0.038245510309934616 0.758662760257721 0.6503599286079407
vn -0.3416414260864258 0.9293320178985596 0.14008231461048126
vn -0.26055654883384705 0.9251378774642944 0.2760983109474182
vn -0.08300908654928207 0.6555923223495483 0.7505385279655457
vn -0.6544389128684998 0.7553324103355408 0.03438768908381462
vn -0.0007003300124779344 0.9846150279045105 0.1747361123561859
vn -0.30989041924476624 0.9504073262214661 0.02633766084909439
vn -0.11631090939044952 0.9186046719551086 0.3776734471321106
vn 0.023466672748327255 0.9485989809036255 0.315609335899353
vn 0.07910645008087158 0.9800766110420227 0.18218646943569183
vn 0.23829518258571625 0.9705672860145569 0.03485153615474701
vn 0.08668125420808792 0.9962361454963684 0.0
vn 0.03755280375480652 0.94362473487854 0.3288802206516266
vn 0.060637056827545166 0.9950254559516907 0.07904142141342163
vn 0.011802480556070805 0.9719277024269104 0.23498360812664032
vn -0.24590234458446503 0.9648923277854919 0.09227544814348221
vn -0.26003462076187134 0.9496147632598877 0.17496813833713531
vn -0.1053471639752388 0.7822020649909973 0.6140536069869995
vn 0.010112270712852478 0.6892772912979126 0.7244271039962769
vn 0.032555706799030304 0.8180578947067261 0.5742136836051941
vt 0.7145112752914429 0.010598719120025635
vt 0.5002424716949463 0.2500254511833191
vt 0.5002424716949463 0.010598719120025635
vt 0.7396790981292725 0.2500254511833191
vt 0.7396790981292725 0.03517073392868042
vt 0.5002906322479248 0.4979948401451111
vt 0.7397271394729614 0.4979948401451111
vt 0.5002424716949463 0.002067863941192627
vt 0.5197039842605591 0.002067863941192627
vt 0.5987446308135986 0.002067863941192627
vt 0.6126517057418823 0.002067863941192627
vt 0.7239141464233398 0.002067863941192627
vt 0.7492949962615967 0.02579575777053833
vt 0.7396790981292725 0.2500254511833191
vt 0.7493431568145752 0.4979948401451111
vt 0.7493431568145752 0.3650990128517151
vt 0.7493431568145752 0.273459255695343
vt 0.7492949962615967 0.2500254511833191
vt 0.7492949962615967 0.16446810960769653
vt 0.7492949962615967 0.1531098484992981
vt 0.7492949962615967 0.11982184648513794
vt 0.7492949962615967 0.10622578859329224
vt 0.7396790981292725 0.2500254511833191
vt 0.9992322325706482 0.2586934566497803
vt 0.7501797080039978 0.499278724193573
vt 0.7501797080039978 0.2586934566497803
vt 0.9992322325706482 0.499278724193573
vt 0.7501797080039978 0.25012147426605225
vt 0.7697542309761047 0.25012147426605225
vt 0.9819474816322327 0.25012147426605225
vt 0.9992322325706482 0.25012147426605225
vt 0.9995474219322205 0.009496033191680908
vt 0.7504948973655701 0.24984276294708252
vt 0.7504948973655701 0.009496033191680908
vt 0.9995474219322205 0.24984276294708252
vt 0.9995474219322205 0.0009324550628662109
vt 0.8445366024971008 0.0009324550628662109
vt 0.7722355127334595 0.0009324550628662109
vt 0.7504948973655701 0.0009324550628662109
vt 0.9993318319320679 0.010014533996582031
vt 0.7609835267066956 0.035442352294921875
vt 0.7856840491294861 0.010014533996582031
vt 0.7609835267066956 0.24944132566452026
vt 0.9993318319320679 0.24944132566452026
vt 0.7762811779975891 0.0014837980270385742
vt 0.8623016476631165 0.0014837980270385742
vt 0.9096453189849854 0.0014837980270385742
vt 0.9220350384712219 0.0014837980270385742
vt 0.9993318319320679 0.0014837980270385742
vt 0.7502793073654175 0.24944132566452026
vt 0.7502793073654175 0.026067733764648438
vt 0.7502793073654175 0.1203652024269104
vt 0.7502793073654175 0.13376069068908691
vt 0.7502793073654175 0.21415823698043823
vt 0.7485839128494263 0.4998764395713806
vt 0.49992281198501587 0.7501368820667267
vt 0.49992281198501587 0.4998764395713806
vt 0.7485839128494263 0.7501368820667267
vt 0.2511552572250366 0.7501368820667267
vt 0.2511552572250366 0.4998764395713806
vt 0.49992281198501587 0.9883971363306046
vt 0.682942271232605 0.9883971363306046
vt 0.7485839128494263 0.9883971363306046
vt 0.2511552572250366 0.9884016532450914
vt 0.07477065920829773 0.9883708450943232
vt 0.03891311213374138 0.9883708460256457
vt 0.01149455551058054 0.7501368820667267
vt 0.01149455551058054 0.9626392722129822
vt 0.696388840675354 0.9986616550013423
vt 0.7107908725738525 0.9986616550013423
vt 0.7485839128494263 0.9986616550013423
vt 0.6860827803611755 0.9986616550013423
vt 0.0008147722110152245 0.7501368820667267
vt 0.0008147722110152245 0.86366768181324
vt 0.0008147722110152245 0.874498724937439
vt 0.0008147722110152245 0.9556018486618996
vt 0.0008147722110152245 0.9719786066561937
vt 0.029532352462410927 0.9985302892746404
vt 0.06578787416219711 0.9985302892746404
vt 0.071307472884655 0.9985302892746404
vt 0.2511552572250366 0.9884016532450914
vt 0.20197145640850067 0.9985302892746404
vt 0.2511552572250366 0.9986470807343721
vt 0.3551076650619507 0.9986470807343721
vt 0.3652634024620056 0.9986470807343721
vt 0.44577932357788086 0.9986470807343721
vt 0.49992281198501587 0.9986470807343721
vt 0.6824675798416138 0.9986616550013423
vt 0.750505805015564 0.500773549079895
vt 0.988854169845581 0.7494990527629852
vt 0.988854169845581 0.500773549079895
vt 0.750505805015564 0.7494990527629852
vt 0.9995583295822144 0.500773549079895
vt 0.9995583295822144 0.7119431495666504
vt 0.9995583295822144 0.7494990527629852
vt 0.9995583295822144 0.5729111433029175
vt 0.9995583295822144 0.500773549079895
vt 0.9896975755691528 0.5006056725978851
vt 0.7502610683441162 0.7405271232128143
vt 0.7502610683441162 0.5006056725978851
vt 0.9896975755691528 0.716321736574173
vt 0.9641693830490112 0.7405271232128143
vt 0.9735711812973022 0.7498345077037811
vt 0.8680176734924316 0.7498345077037811
vt 0.9993135929107666 0.5006056725978851
vt 0.9993135929107666 0.7257820069789886
vt 0.9993135929107666 0.5556239187717438
vt 0.9993135929107666 0.5384286344051361
vt 0.8556336164474487 0.7498345077037811
vt 0.7502610683441162 0.7498345077037811
vt 0.8680176734924316 0.7498345077037811
vt 0.5987446308135986 0.002067863941192627
vt 0.5197039842605591 0.002067863941192627
vt 0.5865750312805176 0.002067863941192627
vt 0.9995474219322205 0.0009324550628662109
vt 0.8551768660545349 0.0009324550628662109
vt 0.9681641459465027 0.0009324550628662109
vt 0.8445366024971008 0.0009324550628662109
vt 0.8623016476631165 0.0014837980270385742
vt 0.7762811779975891 0.0014837980270385742
vt 0.851118803024292 0.0014837980270385742
vt 0.7502793073654175 0.13376069068908691
vt 0.7502793073654175 0.20348906517028809
vt 0.7502793073654175 0.14574962854385376
vt 0.7502793073654175 0.21415823698043823
vt 0.7609835267066956 0.035442352294921875
vt 0.7502793073654175 0.24944132566452026
vt 0.7502793073654175 0.21415823698043823
vt 0.7493431568145752 0.4979948401451111
vt 0.7493431568145752 0.3650990128517151
vt 0.7493431568145752 0.37784868478775024
vt 0.7493431568145752 0.28360074758529663
vt 0.7493431568145752 0.3496078848838806
vt 0.7493431568145752 0.273459255695343
vt 0.9995583295822144 0.500773549079895
vt 0.9995583295822144 0.5729111433029175
vt 0.9995583295822144 0.5654879808425903
vt 0.9995583295822144 0.7002575397491455
vt 0.9995583295822144 0.5844906568527222
vt 0.9995583295822144 0.7119431495666504
vt 0.8680176734924316 0.7498345077037811
vt 0.9735711812973022 0.7498345077037811
vt 0.8806833028793335 0.7498345077037811
vt 0.9896975755691528 0.716321736574173
vt 0.9993135929107666 0.5006056725978851
vt 0.9993135929107666 0.5384286344051361
vt 0.3652634024620056 0.9986470807343721
vt 0.43654942512512207 0.9986470807343721
vt 0.38010668754577637 0.9986470807343721
vt 0.44577932357788086 0.9986470807343721
vt 0.49992281198501587 0.9986470807343721
vt 0.45992735028266907 0.9986470807343721
vt 0.2511552572250366 0.9884016532450914
vt 0.49992281198501587 0.9986470807343721
vt 0.44577932357788086 0.9986470807343721
vt 0.0008147722110152245 0.874498724937439
vt 0.0008147722110152245 0.9442219436168671
vt 0.0008147722110152245 0.8891207650303841
vt 0.0008147722110152245 0.9556018486618996
vt 0.071307472884655 0.9985302892746404
vt 0.18716315925121307 0.9985302892746404
vt 0.08277949690818787 0.9985302892746404
vt 0.20197145640850067 0.9985302892746404
vt 0.2511552572250366 0.9985302892746404
vt 0.21659636497497559 0.9985302892746404
vt -1.3485996723175049 0.7487458288669586
vt -1.5607798099517822 0.5177822709083557
vt -1.3485996723175049 0.5177822709083557
vt -1.5607798099517822 0.7487458288669586
vt -1.5601826906204224 0.5011642277240753
vt -1.3483010530471802 0.5011642277240753
vt -1.6574952602386475 0.7487458288669586
vt -1.6574952602386475 0.5177822709083557
vt -1.6580108404159546 0.5011642277240753
vt -1.8191990852355957 0.5177822709083557
vt -1.8191990852355957 0.7487458288669586
vt -1.819126844406128 0.5011642277240753
vt -1.846535086631775 0.5177822709083557
vt -1.846535086631775 0.7487458288669586
vt -1.9134613275527954 0.5177822709083557
vt -1.9134613275527954 0.7487458288669586
vt -1.9362950325012207 0.5177822709083557
vt -1.9362950325012207 0.7487458288669586
vt -2.1035749912261963 0.5177822709083557
vt -2.1035749912261963 0.7487458288669586
vt -1.9357969760894775 0.5011642277240753
vt -2.102468729019165 0.5011642277240753
vt -2.1478161811828613 0.5177822709083557
vt -2.1478161811828613 0.7487458288669586
vt -2.146914482116699 0.5011642277240753
vt -2.146914482116699 0.5011642277240753
vt -2.166419506072998 0.5011642277240753
vt -1.9130463600158691 0.5011642277240753
vt -1.8463635444641113 0.5011642277240753
vt -2.1478161811828613 0.7487458288669586
vt -2.167231321334839 0.5177822709083557
vt -2.166419506072998 0.5011642277240753
vt -2.2933664321899414 0.5011642277240753
vt -2.2935941219329834 0.5177822709083557
vt -2.323159694671631 0.5011642277240753
vt -2.167231321334839 0.7487458288669586
vt -2.2935941219329834 0.7487458288669586
vt -2.3232502937316895 0.5177822709083557
vt -2.3232502937316895 0.7487458288669586
vt -2.323159694671631 0.5011642277240753
vt -2.3476810455322266 0.5011642277240753
vt -2.347658634185791 0.5177822709083557
vt -2.5821704864501953 0.5177822709083557
vt -2.347658634185791 0.7487458288669586
vt -2.5821704864501953 0.7487458288669586
vt -2.5832769870758057 0.5011642277240753
vt -2.6552064418792725 0.5177822709083557
vt -2.6552064418792725 0.7487458288669586
vt -2.6895763874053955 0.5177822709083557
vt -2.6895763874053955 0.7487458288669586
vt -3.0296947956085205 0.5177822709083557
vt -3.0296947956085205 0.7487458288669586
vt -3.028501272201538 0.5011642277240753
vt -2.6901307106018066 0.5011642277240753
vt -3.101710557937622 0.7487458288669586
vt -3.101710557937622 0.5177822709083557
vt -3.1018378734588623 0.500939667224884
vt -2.655937433242798 0.5011642277240753
vt -2.3232502937316895 0.7487458288669586
vt -2.3232502937316895 0.7487458288669586
vt -1.1018942594528198 0.7487458288669586
vt -1.136419415473938 0.5177822709083557
vt -1.1018942594528198 0.5177822709083557
vt -1.136419415473938 0.7487458288669586
vt -1.1018942594528198 0.5011642277240753
vt -1.136419415473938 0.5011642277240753
vt -1.1713463068008423 0.5177822709083557
vt -1.1713463068008423 0.7487458288669586
vt -1.2988699674606323 0.5177822709083557
vt -1.2988699674606323 0.7487458288669586
vt -1.3220771551132202 0.5177822709083557
vt -1.3220771551132202 0.7487458288669586
vt -1.321815848350525 0.5011642277240753
vt -1.298641324043274 0.5011642277240753
vt -1.1712970733642578 0.5011642277240753
vt -0.6844854354858398 0.5177822709083557
vt -0.6844854354858398 0.5011642277240753
vt -0.6432032585144043 0.5177822709083557
vt -0.6432032585144043 0.7487458288669586
vt -0.577903151512146 0.7487458288669586
vt -0.577903151512146 0.5177822709083557
vt -0.5779032111167908 0.5011642277240753
vt -0.6432032585144043 0.5011642277240753
vt -0.6844854354858398 0.7487458288669586
vt -0.342496395111084 0.7487458288669586
vt -0.342496395111084 0.5177822709083557
vt -0.34249642491340637 0.5011642277240753
vt -0.3203270137310028 0.7487458288669586
vt -0.3203270137310028 0.5177822709083557
vt -0.3203270435333252 0.5011642277240753
vt -0.16968610882759094 0.7487458288669586
vt -0.16968610882759094 0.5177822709083557
vt -0.16968612372875214 0.5011642277240753
vt -0.12080264836549759 0.7487458288669586
vt -0.12080264836549759 0.5177822709083557
vt 0.04316096752882004 0.7487458288669586
vt 0.04316096752882004 0.5177822709083557
vt 0.042930327355861664 0.5011642277240753
vt -0.12080264836549759 0.5011642277240753
vt 0.06962089240550995 0.7487458288669586
vt 0.06962089240550995 0.5177822709083557
vt 0.06935303658246994 0.5011642277240753
vt 0.17073671519756317 0.7487458288669586
vt 0.17073671519756317 0.5177822709083557
vt 0.17032663524150848 0.5011642277240753
vt 0.19461998343467712 0.7487458288669586
vt 0.19461998343467712 0.5177822709083557
vt 0.1941763162612915 0.5011642277240753
vt 0.3544542193412781 0.7487458288669586
vt 0.3544542193412781 0.5177822709083557
vt 0.4581166207790375 0.5177822709083557
vt 0.4581166207790375 0.7487458288669586
vt 0.6526408195495605 0.7487458288669586
vt 0.6526408195495605 0.5177822709083557
vt 0.45876023173332214 0.5011642277240753
vt 0.653010904788971 0.5011642277240753
vt 0.3537857234477997 0.5011642277240753
vt 0.3537857234477997 0.5011642277240753
vt 0.6802747249603271 0.7487458288669586
vt 0.6802747249603271 0.5177822709083557
vt 0.680605947971344 0.5011642277240753
vt 0.705007016658783 0.7487458288669586
vt 0.705007016658783 0.5177822709083557
vt 0.7053034901618958 0.5011642277240753
vt 0.680605947971344 0.5011642277240753
vt 0.8241167068481445 0.7487458288669586
vt 0.8241167068481445 0.5177822709083557
vt 0.8242456316947937 0.5011642277240753
vt 0.8461256623268127 0.7487458288669586
vt 0.8461256623268127 0.5177822709083557
vt 0.8462236523628235 0.5011642277240753
vt 0.9158205986022949 0.7487458288669586
vt 0.9158205986022949 0.5177822709083557
vt 1.0466707944869995 0.7487458288669586
vt 1.0466707944869995 0.5177822709083557
vt 1.0466707944869995 0.5011642277240753
vt 0.9158205986022949 0.5011642277240753
vt 1.0615675449371338 0.7487458288669586
vt 1.0615675449371338 0.5177822709083557
vt 1.0615675449371338 0.5011642277240753
vt 1.0848065614700317 0.5177822709083557
vt 1.0848065614700317 0.5011642277240753
vt 1.0615675449371338 0.5177822709083557
vt 1.0848065614700317 0.7487458288669586
vt 1.3171337842941284 0.7487458288669586
vt 1.3171337842941284 0.5177822709083557
vt 1.3171337842941284 0.5011642277240753
vt 1.3405838012695312 0.7487458288669586
vt 1.3405838012695312 0.5177822709083557
vt 1.3405838012695312 0.7487458288669586
vt 1.3405838012695312 0.5011642277240753
vt 1.4190903902053833 0.5177822709083557
vt 1.4190903902053833 0.7487458288669586
vt 1.6567881107330322 0.7487458288669586
vt 1.6567881107330322 0.5177822709083557
vt 1.6561084985733032 0.5011642277240753
vt 1.4190903902053833 0.5011642277240753
vt 1.3405838012695312 0.7487458288669586
vt 1.3405838012695312 0.5011642277240753
vt 1.6796257495880127 0.7487458288669586
vt 1.6788808107376099 0.5011642277240753
vt 1.6796257495880127 0.5177822709083557
vt 1.6796257495880127 0.7487458288669586
vt 1.7104564905166626 0.7487458288669586
vt 1.7104564905166626 0.5177822709083557
vt 1.6796257495880127 0.7487458288669586
vt 1.7096234560012817 0.5011642277240753
vt 1.6788808107376099 0.5011642277240753
vt 1.8266371488571167 0.7487458288669586
vt 1.8266371488571167 0.5177822709083557
vt 1.8254719972610474 0.5011642277240753
vt 1.8506332635879517 0.7487458288669586
vt 1.8506332635879517 0.5177822709083557
vt 1.849399447441101 0.5011642277240753
vt 1.8851642608642578 0.7487458288669586
vt 1.8851642608642578 0.5177822709083557
vt 1.9875555038452148 0.5177822709083557
vt 1.9875555038452148 0.7487458288669586
vt 2.061929941177368 0.7487458288669586
vt 2.061929941177368 0.5177822709083557
vt 1.987225890159607 0.5011642277240753
vt 2.0611817836761475 0.5011642277240753
vt 1.8838317394256592 0.5011642277240753
vt 2.07851505279541 0.5177822709083557
vt 2.072441816329956 0.5011641979217529
vt 2.074909210205078 0.7487458288669586
vt 3.6580417156219482 0.7487457096576691
vt 3.446486711502075 0.5177821516990662
vt 3.6580417156219482 0.5177821516990662
vt 3.446486711502075 0.7487457096576691
vt 3.65806245803833 0.5011640787124634
vt 3.446486711502075 0.5011641085147858
vt 3.3726742267608643 0.5177821516990662
vt 3.3726742267608643 0.7487457394599915
vt 3.3446764945983887 0.5177821516990662
vt 3.3446764945983887 0.7487457692623138
vt 3.3272886276245117 0.5177821815013885
vt 3.3330228328704834 0.7487457692623138
vt 3.324640989303589 0.5011641383171082
vt 3.3446762561798096 0.5011641383171082
vt 3.3726742267608643 0.5011641085147858
vt 3.6830906867980957 0.7487456798553467
vt 3.6831138134002686 0.501164048910141
vt 3.6830906867980957 0.7487456798553467
vt 3.6830906867980957 0.5177821516990662
vt 3.6831138134002686 0.501164048910141
vt 3.708712339401245 0.7487456798553467
vt 3.708712339401245 0.5177821516990662
vt 3.6830906867980957 0.7487456798553467
vt 3.708737850189209 0.501164048910141
vt 3.6831138134002686 0.501164048910141
vt 3.89660382270813 0.7487456500530243
vt 3.89660382270813 0.5177820920944214
vt 3.8966476917266846 0.501164048910141
vt -2.1478161811828613 0.7487458288669586
vt 1.0615675449371338 0.5177822709083557
vt 1.0615675449371338 0.7487458288669586
vt 2.660212755203247 0.7487458288669586
vt 2.443002223968506 0.5177822709083557
vt 2.660212755203247 0.5177822709083557
vt 2.443002223968506 0.7487458288669586
vt 2.6585350036621094 0.5011642277240753
vt 2.4401097297668457 0.5011642277240753
vt 2.371302843093872 0.5177822709083557
vt 2.371302843093872 0.7487458288669586
vt 2.3413009643554688 0.5177822709083557
vt 2.3413009643554688 0.7487458288669586
vt 2.310922622680664 0.5177822709083557
vt 2.310922622680664 0.7487458288669586
vt 2.3087735176086426 0.5011642277240753
vt 2.3389809131622314 0.5011642277240753
vt 2.3087735176086426 0.5011642277240753
vt 2.368813991546631 0.5011642277240753
vt 2.6812098026275635 0.7487458288669586
vt 2.6812098026275635 0.5177822709083557
vt 2.6812098026275635 0.7487458288669586
vt 2.0967888832092285 0.5177822709083557
vt 2.0967888832092285 0.7487458288669586
vt 2.0958447456359863 0.5011642277240753
vt 2.6796493530273438 0.5011642277240753
vt 2.71189546585083 0.7487458288669586
vt 2.71189546585083 0.5177822709083557
vt 2.6812098026275635 0.7487458288669586
vt 2.6796493530273438 0.5011642277240753
vt 2.7105066776275635 0.5011642277240753
vt 2.8285844326019287 0.7487458288669586
vt 2.8285844326019287 0.5177822709083557
vt 2.827848434448242 0.5011642277240753
vt 2.8476643562316895 0.7487458288669586
vt 2.8476643562316895 0.5177822709083557
vt 2.8476643562316895 0.7487458288669586
vt 2.827848434448242 0.5011642277240753
vt 2.8470351696014404 0.5011642277240753
vt 2.87691593170166 0.5177822709083557
vt 2.87691593170166 0.7487458288669586
vt 2.8476643562316895 0.7487458288669586
vt 2.876450300216675 0.5011642277240753
vt 2.960170030593872 0.7487458288669586
vt 2.960170030593872 0.5177822709083557
vt 3.317612886428833 0.7487457692623138
vt 3.317612886428833 0.5177821815013885
vt 3.317612648010254 0.5011641681194305
vt 2.960170030593872 0.5011642277240753
vt 2.876450300216675 0.5011642277240753

g bg_mdl_bt_4x3_50
s 1
usemtl bg_mdl_bt_4x3_50_0
f 3/3/3 2/2/2 1/1/1 
f 2/2/2 4/4/4 1/1/1 
f 1/1/1 4/4/4 5/5/5 
f 2/2/2 6/6/6 4/4/4 
f 7/7/7 4/4/4 6/6/6 
f 8/8/8 3/3/3 1/1/1 
f 9/9/9 8/8/8 1/1/1 
f 10/10/10 9/9/9 1/1/1 
f 11/11/11 10/10/10 1/1/1 
f 12/12/12 11/11/11 1/1/1 
f 5/5/5 13/13/13 1/1/1 
f 12/12/12 1/1/1 13/13/13 
f 13/13/13 5/5/5 14/14/14 
f 15/15/15 14/14/14 7/7/7 
f 16/16/16 14/14/14 15/15/15 
f 17/17/17 14/14/14 16/16/16 
f 18/18/18 14/14/14 17/17/17 
f 18/18/18 19/19/19 14/14/14 
f 19/19/19 20/20/20 14/14/14 
f 20/20/20 21/21/21 14/14/14 
f 21/21/21 22/22/22 14/14/14 
f 22/22/22 13/13/13 23/23/23 
f 26/26/26 25/25/25 24/24/24 
f 27/27/27 24/24/24 25/25/25 
f 28/28/28 26/26/26 24/24/24 
f 29/29/29 28/28/28 24/24/24 
f 30/30/30 29/29/29 24/24/24 
f 31/31/31 30/30/30 24/24/24 
f 34/34/34 33/33/33 32/32/32 
f 35/35/35 32/32/32 33/33/33 
f 36/36/36 34/34/34 32/32/32 
f 37/37/37 34/34/34 36/36/36 
f 38/38/38 34/34/34 37/37/37 
f 39/39/39 34/34/34 38/38/38 
f 42/42/42 41/41/41 40/40/40 
f 41/41/41 43/43/43 40/40/40 
f 43/43/43 44/44/44 40/40/40 
f 45/45/45 42/42/42 40/40/40 
f 42/42/42 45/45/45 41/41/41 
f 46/46/46 45/45/45 40/40/40 
f 47/47/47 46/46/46 40/40/40 
f 48/48/48 47/47/47 40/40/40 
f 49/49/49 48/48/48 40/40/40 
f 50/50/50 43/43/43 41/41/41 
f 51/51/51 41/41/41 45/45/45 
f 51/51/51 52/52/52 41/41/41 
f 52/52/52 53/53/53 41/41/41 
f 53/53/53 54/54/54 41/41/41 
f 57/57/57 56/56/56 55/55/55 
f 58/58/58 55/55/55 56/56/56 
f 56/56/56 57/57/57 59/59/59 
f 60/60/60 59/59/59 57/57/57 
f 56/56/56 61/61/61 58/58/58 
f 61/61/61 62/62/62 58/58/58 
f 62/62/62 63/63/63 58/58/58 
f 59/59/59 64/64/64 56/56/56 
f 61/61/61 56/56/56 64/64/64 
f 65/65/65 64/64/64 59/59/59 
f 66/66/66 65/65/65 59/59/59 
f 67/67/67 66/66/66 59/59/59 
f 68/68/68 66/66/66 67/67/67 
f 63/63/63 62/62/62 69/69/69 
f 70/70/70 63/63/63 69/69/69 
f 71/71/71 63/63/63 70/70/70 
f 69/69/69 62/62/62 72/72/72 
f 61/61/61 72/72/72 62/62/62 
f 73/73/73 68/68/68 67/67/67 
f 74/74/74 68/68/68 73/73/73 
f 75/75/75 68/68/68 74/74/74 
f 76/76/76 68/68/68 75/75/75 
f 77/77/77 68/68/68 76/76/76 
f 68/68/68 77/77/77 66/66/66 
f 78/78/78 66/66/66 77/77/77 
f 78/78/78 79/79/79 66/66/66 
f 79/79/79 80/80/80 66/66/66 
f 66/66/66 80/80/80 65/65/65 
f 81/81/81 65/65/65 80/80/80 
f 82/82/82 81/81/81 80/80/80 
f 83/83/83 81/81/81 82/82/82 
f 83/83/83 84/84/84 81/81/81 
f 84/84/84 85/85/85 64/64/64 
f 85/85/85 86/86/86 81/81/81 
f 87/87/87 61/61/61 81/81/81 
f 87/87/87 88/88/88 61/61/61 
f 88/88/88 72/72/72 61/61/61 
f 91/91/91 90/90/90 89/89/89 
f 92/92/92 89/89/89 90/90/90 
f 93/93/93 90/90/90 91/91/91 
f 95/95/95 90/90/90 94/94/94 
f 94/94/94 90/90/90 96/96/96 
f 96/96/96 90/90/90 97/97/97 
f 100/100/100 99/99/99 98/98/98 
f 99/99/99 101/101/101 98/98/98 
f 102/102/102 101/101/101 99/99/99 
f 103/103/103 102/102/102 99/99/99 
f 102/102/102 103/103/103 101/101/101 
f 104/104/104 103/103/103 99/99/99 
f 105/105/105 98/98/98 101/101/101 
f 106/106/106 101/101/101 103/103/103 
f 106/106/106 107/107/107 101/101/101 
f 107/107/107 108/108/108 101/101/101 
f 110/110/110 109/109/109 99/99/99 
f 109/109/109 111/111/111 99/99/99 
f 114/114/114 113/113/113 112/112/112 
f 117/117/117 116/116/116 115/115/115 
f 116/116/116 118/118/118 115/115/115 
f 121/121/121 120/120/120 119/119/119 
f 124/124/124 123/123/123 122/122/122 
f 123/123/123 125/125/125 122/122/122 
f 128/128/128 127/127/127 126/126/126 
f 131/131/131 130/130/130 129/129/129 
f 133/133/133 132/132/132 130/130/130 
f 132/132/132 134/134/134 130/130/130 
f 137/137/137 136/136/136 135/135/135 
f 139/139/139 138/138/138 136/136/136 
f 138/138/138 140/140/140 136/136/136 
f 143/143/143 142/142/142 141/141/141 
f 146/146/146 145/145/145 144/144/144 
f 149/149/149 148/148/148 147/147/147 
f 148/148/148 150/150/150 147/147/147 
f 152/152/152 151/151/151 150/150/150 
f 155/155/155 154/154/154 153/153/153 
f 158/158/158 157/157/157 156/156/156 
f 157/157/157 159/159/159 156/156/156 
f 162/162/162 161/161/161 160/160/160 
f 161/161/161 163/163/163 160/160/160 
f 165/165/165 164/164/164 163/163/163 

usemtl bg_mdl_bt_4x3_50_1
f 168/168/168 167/167/167 166/166/166 
f 169/169/169 166/166/166 167/167/167 
f 167/167/167 168/168/168 170/170/170 
f 171/171/171 170/170/170 168/168/168 
f 169/169/169 167/167/167 172/172/172 
f 173/173/173 172/172/172 167/167/167 
f 167/167/167 170/170/170 173/173/173 
f 174/174/174 173/173/173 170/170/170 
f 173/173/173 175/175/175 172/172/172 
f 173/173/173 174/174/174 175/175/175 
f 176/176/176 172/172/172 175/175/175 
f 177/177/177 175/175/175 174/174/174 
f 175/175/175 178/178/178 176/176/176 
f 175/175/175 177/177/177 178/178/178 
f 179/179/179 176/176/176 178/178/178 
f 178/178/178 180/180/180 179/179/179 
f 181/181/181 179/179/179 180/180/180 
f 180/180/180 182/182/182 181/181/181 
f 183/183/183 181/181/181 182/182/182 
f 182/182/182 184/184/184 183/183/183 
f 185/185/185 183/183/183 184/184/184 
f 182/182/182 186/186/186 184/184/184 
f 187/187/187 184/184/184 186/186/186 
f 184/184/184 188/188/188 185/185/185 
f 189/189/189 185/185/185 188/188/188 
f 187/187/187 190/190/190 184/184/184 
f 188/188/188 184/184/184 191/191/191 
f 191/191/191 192/192/192 188/188/188 
f 180/180/180 193/193/193 182/182/182 
f 186/186/186 182/182/182 193/193/193 
f 178/178/178 194/194/194 180/180/180 
f 193/193/193 180/180/180 194/194/194 
f 194/194/194 178/178/178 177/177/177 
f 188/188/188 196/196/196 195/195/195 
f 196/196/196 188/188/188 197/197/197 
f 197/197/197 198/198/198 196/196/196 
f 199/199/199 196/196/196 198/198/198 
f 198/198/198 200/200/200 199/199/199 
f 196/196/196 199/199/199 201/201/201 
f 202/202/202 201/201/201 199/199/199 
f 199/199/199 203/203/203 202/202/202 
f 204/204/204 202/202/202 203/203/203 
f 203/203/203 199/199/199 205/205/205 
f 205/205/205 206/206/206 203/203/203 
f 207/207/207 203/203/203 206/206/206 
f 207/207/207 206/206/206 208/208/208 
f 207/207/207 208/208/208 209/209/209 
f 210/210/210 209/209/209 208/208/208 
f 211/211/211 208/208/208 206/206/206 
f 208/208/208 212/212/212 210/210/210 
f 213/213/213 210/210/210 212/212/212 
f 212/212/212 214/214/214 213/213/213 
f 215/215/215 213/213/213 214/214/214 
f 214/214/214 216/216/216 215/215/215 
f 217/217/217 215/215/215 216/216/216 
f 216/216/216 214/214/214 218/218/218 
f 219/219/219 218/218/218 214/214/214 
f 214/214/214 212/212/212 219/219/219 
f 217/217/217 216/216/216 220/220/220 
f 221/221/221 220/220/220 216/216/216 
f 216/216/216 218/218/218 221/221/221 
f 222/222/222 221/221/221 218/218/218 
f 223/223/223 219/219/219 212/212/212 
f 211/211/211 223/223/223 208/208/208 
f 212/212/212 208/208/208 223/223/223 
f 209/209/209 224/224/224 207/207/207 
f 203/203/203 207/207/207 225/225/225 
f 228/228/228 227/227/227 226/226/226 
f 229/229/229 226/226/226 227/227/227 
f 228/228/228 230/230/230 227/227/227 
f 231/231/231 227/227/227 230/230/230 
f 227/227/227 232/232/232 229/229/229 
f 233/233/233 229/229/229 232/232/232 
f 232/232/232 234/234/234 233/233/233 
f 235/235/235 233/233/233 234/234/234 
f 234/234/234 236/236/236 235/235/235 
f 237/237/237 235/235/235 236/236/236 
f 236/236/236 168/168/168 237/237/237 
f 166/166/166 237/237/237 168/168/168 
f 168/168/168 236/236/236 171/171/171 
f 238/238/238 171/171/171 236/236/236 
f 236/236/236 234/234/234 238/238/238 
f 239/239/239 238/238/238 234/234/234 
f 234/234/234 232/232/232 239/239/239 
f 240/240/240 239/239/239 232/232/232 
f 231/231/231 240/240/240 227/227/227 
f 232/232/232 227/227/227 240/240/240 
f 242/242/242 230/230/230 241/241/241 
f 241/241/241 243/243/243 242/242/242 
f 243/243/243 241/241/241 244/244/244 
f 244/244/244 245/245/245 243/243/243 
f 246/246/246 243/243/243 245/245/245 
f 246/246/246 247/247/247 243/243/243 
f 248/248/248 243/243/243 247/247/247 
f 248/248/248 242/242/242 243/243/243 
f 249/249/249 244/244/244 241/241/241 
f 241/241/241 228/228/228 249/249/249 
f 226/226/226 249/249/249 228/228/228 
f 228/228/228 241/241/241 230/230/230 
f 245/245/245 250/250/250 246/246/246 
f 251/251/251 246/246/246 250/250/250 
f 246/246/246 251/251/251 247/247/247 
f 252/252/252 247/247/247 251/251/251 
f 250/250/250 253/253/253 251/251/251 
f 254/254/254 251/251/251 253/253/253 
f 251/251/251 254/254/254 252/252/252 
f 255/255/255 252/252/252 254/254/254 
f 253/253/253 256/256/256 254/254/254 
f 257/257/257 254/254/254 256/256/256 
f 254/254/254 257/257/257 255/255/255 
f 258/258/258 255/255/255 257/257/257 
f 256/256/256 259/259/259 257/257/257 
f 260/260/260 257/257/257 259/259/259 
f 257/257/257 260/260/260 258/258/258 
f 259/259/259 261/261/261 260/260/260 
f 262/262/262 260/260/260 261/261/261 
f 262/262/262 263/263/263 260/260/260 
f 264/264/264 260/260/260 263/263/263 
f 264/264/264 258/258/258 260/260/260 
f 261/261/261 265/265/265 262/262/262 
f 266/266/266 262/262/262 265/265/265 
f 266/266/266 267/267/267 262/262/262 
f 263/263/263 262/262/262 267/267/267 
f 265/265/265 268/268/268 266/266/266 
f 269/269/269 266/266/266 268/268/268 
f 269/269/269 270/270/270 266/266/266 
f 267/267/267 266/266/266 270/270/270 
f 268/268/268 271/271/271 269/269/269 
f 272/272/272 269/269/269 271/271/271 
f 272/272/272 273/273/273 269/269/269 
f 270/270/270 269/269/269 273/273/273 
f 271/271/271 274/274/274 272/272/272 
f 275/275/275 272/272/272 274/274/274 
f 275/275/275 274/274/274 276/276/276 
f 277/277/277 276/276/276 274/274/274 
f 277/277/277 278/278/278 276/276/276 
f 279/279/279 276/276/276 278/278/278 
f 276/276/276 279/279/279 280/280/280 
f 276/276/276 280/280/280 275/275/275 
f 281/281/281 280/280/280 279/279/279 
f 282/282/282 275/275/275 280/280/280 
f 275/275/275 283/283/283 272/272/272 
f 273/273/273 272/272/272 283/283/283 
f 278/278/278 284/284/284 279/279/279 
f 285/285/285 279/279/279 284/284/284 
f 279/279/279 285/285/285 281/281/281 
f 286/286/286 281/281/281 285/285/285 
f 284/284/284 287/287/287 285/285/285 
f 288/288/288 285/285/285 287/287/287 
f 289/289/289 286/286/286 288/288/288 
f 285/285/285 288/288/288 290/290/290 
f 287/287/287 291/291/291 288/288/288 
f 292/292/292 288/288/288 291/291/291 
f 288/288/288 292/292/292 289/289/289 
f 293/293/293 289/289/289 292/292/292 
f 291/291/291 294/294/294 292/292/292 
f 295/295/295 292/292/292 294/294/294 
f 292/292/292 295/295/295 293/293/293 
f 296/296/296 293/293/293 295/295/295 
f 294/294/294 297/297/297 295/295/295 
f 298/298/298 295/295/295 297/297/297 
f 295/295/295 298/298/298 296/296/296 
f 297/297/297 299/299/299 298/298/298 
f 300/300/300 298/298/298 299/299/299 
f 300/300/300 301/301/301 298/298/298 
f 302/302/302 298/298/298 301/301/301 
f 302/302/302 296/296/296 298/298/298 
f 299/299/299 303/303/303 300/300/300 
f 304/304/304 300/300/300 303/303/303 
f 300/300/300 304/304/304 301/301/301 
f 305/305/305 301/301/301 304/304/304 
f 307/307/307 305/305/305 306/306/306 
f 308/308/308 306/306/306 305/305/305 
f 306/306/306 308/308/308 309/309/309 
f 309/309/309 310/310/310 306/306/306 
f 311/311/311 306/306/306 310/310/310 
f 306/306/306 311/311/311 307/307/307 
f 312/312/312 307/307/307 311/311/311 
f 310/310/310 313/313/313 311/311/311 
f 311/311/311 314/314/314 312/312/312 
f 314/314/314 311/311/311 315/315/315 
f 316/316/316 312/312/312 314/314/314 
f 314/314/314 317/317/317 316/316/316 
f 317/317/317 314/314/314 318/318/318 
f 318/318/318 319/319/319 317/317/317 
f 320/320/320 317/317/317 319/319/319 
f 320/320/320 321/321/321 317/317/317 
f 322/322/322 317/317/317 321/321/321 
f 323/323/323 318/318/318 314/314/314 
f 322/322/322 324/324/324 317/317/317 
f 319/319/319 325/325/325 320/320/320 
f 321/321/321 320/320/320 326/326/326 
f 327/327/327 326/326/326 320/320/320 
f 327/327/327 320/320/320 328/328/328 
f 330/330/330 327/327/327 329/329/329 
f 331/331/331 329/329/329 327/327/327 
f 330/330/330 332/332/332 327/327/327 
f 333/333/333 327/327/327 332/332/332 
f 329/329/329 334/334/334 330/330/330 
f 335/335/335 330/330/330 334/334/334 
f 335/335/335 336/336/336 330/330/330 
f 332/332/332 330/330/330 336/336/336 
f 334/334/334 337/337/337 335/335/335 
f 338/338/338 335/335/335 337/337/337 
f 338/338/338 339/339/339 335/335/335 
f 336/336/336 335/335/335 339/339/339 
f 337/337/337 340/340/340 338/338/338 
f 341/341/341 338/338/338 340/340/340 
f 341/341/341 340/340/340 342/342/342 
f 343/343/343 342/342/342 340/340/340 
f 343/343/343 344/344/344 342/342/342 
f 345/345/345 342/342/342 344/344/344 
f 342/342/342 345/345/345 346/346/346 
f 342/342/342 346/346/346 341/341/341 
f 347/347/347 346/346/346 345/345/345 
f 348/348/348 341/341/341 346/346/346 
f 341/341/341 348/348/348 338/338/338 
f 339/339/339 338/338/338 348/348/348 
f 345/345/345 349/349/349 347/347/347 
f 350/350/350 347/347/347 349/349/349 
f 344/344/344 351/351/351 345/345/345 
f 349/349/349 345/345/345 351/351/351 
f 354/354/354 353/353/353 352/352/352 
f 355/355/355 352/352/352 353/353/353 
f 354/354/354 356/356/356 353/353/353 
f 357/357/357 353/353/353 356/356/356 
f 353/353/353 358/358/358 355/355/355 
f 359/359/359 355/355/355 358/358/358 
f 358/358/358 360/360/360 359/359/359 
f 361/361/361 359/359/359 360/360/360 
f 360/360/360 362/362/362 361/361/361 
f 363/363/363 361/361/361 362/362/362 
f 362/362/362 360/360/360 364/364/364 
f 365/365/365 364/364/364 360/360/360 
f 360/360/360 358/358/358 365/365/365 
f 366/366/366 365/365/365 358/358/358 
f 357/357/357 366/366/366 353/353/353 
f 358/358/358 353/353/353 366/366/366 
f 352/352/352 367/367/367 354/354/354 
f 356/356/356 354/354/354 368/368/368 
f 370/370/370 354/354/354 369/369/369 
f 370/370/370 371/371/371 354/354/354 
f 373/373/373 370/370/370 372/372/372 
f 374/374/374 372/372/372 370/370/370 
f 373/373/373 375/375/375 370/370/370 
f 376/376/376 370/370/370 375/375/375 
f 372/372/372 377/377/377 373/373/373 
f 378/378/378 373/373/373 377/377/377 
f 378/378/378 379/379/379 373/373/373 
f 375/375/375 373/373/373 379/379/379 
f 201/201/201 380/380/380 196/196/196 
f 382/382/382 309/309/309 381/381/381 

usemtl bg_mdl_bt_4x3_50_2
f 385/385/385 384/384/384 383/383/383 
f 386/386/386 383/383/383 384/384/384 
f 385/385/385 387/387/387 384/384/384 
f 388/388/388 384/384/384 387/387/387 
f 384/384/384 389/389/389 386/386/386 
f 390/390/390 386/386/386 389/389/389 
f 389/389/389 391/391/391 390/390/390 
f 392/392/392 390/390/390 391/391/391 
f 391/391/391 393/393/393 392/392/392 
f 394/394/394 392/392/392 393/393/393 
f 393/393/393 391/391/391 395/395/395 
f 391/391/391 389/389/389 396/396/396 
f 396/396/396 397/397/397 391/391/391 
f 398/398/398 396/396/396 389/389/389 
f 388/388/388 398/398/398 384/384/384 
f 389/389/389 384/384/384 398/398/398 
f 383/383/383 399/399/399 385/385/385 
f 385/385/385 400/400/400 387/387/387 
f 400/400/400 385/385/385 401/401/401 
f 393/393/393 402/402/402 394/394/394 
f 403/403/403 394/394/394 402/402/402 
f 402/402/402 349/349/349 403/403/403 
f 351/351/351 403/403/403 349/349/349 
f 349/349/349 402/402/402 350/350/350 
f 404/404/404 350/350/350 402/402/402 
f 395/395/395 404/404/404 393/393/393 
f 402/402/402 393/393/393 404/404/404 
f 405/405/405 387/387/387 400/400/400 
f 407/407/407 400/400/400 406/406/406 
f 408/408/408 406/406/406 400/400/400 
f 400/400/400 407/407/407 409/409/409 
f 410/410/410 409/409/409 407/407/407 
f 406/406/406 411/411/411 407/407/407 
f 412/412/412 407/407/407 411/411/411 
f 407/407/407 412/412/412 410/410/410 
f 413/413/413 410/410/410 412/412/412 
f 411/411/411 414/414/414 412/412/412 
f 412/412/412 415/415/415 413/413/413 
f 415/415/415 412/412/412 416/416/416 
f 418/418/418 417/417/417 415/415/415 
f 415/415/415 419/419/419 418/418/418 
f 419/419/419 415/415/415 420/420/420 
f 421/421/421 420/420/420 415/415/415 
f 422/422/422 418/418/418 419/419/419 
f 420/420/420 423/423/423 419/419/419 
f 424/424/424 419/419/419 423/423/423 
f 419/419/419 424/424/424 422/422/422 
f 423/423/423 425/425/425 424/424/424 
f 426/426/426 424/424/424 425/425/425 
f 426/426/426 427/427/427 424/424/424 
f 428/428/428 424/424/424 427/427/427 
f 428/428/428 429/429/429 424/424/424 
f 426/426/426 362/362/362 427/427/427 
f 364/364/364 427/427/427 362/362/362 
f 425/425/425 363/363/363 426/426/426 
f 362/362/362 426/426/426 363/363/363 

