v 0.3870468735694885 -0.3870468735694885 0.3116528391838074
v -0.3870468735694885 -0.3870468735694885 0.0
v -0.3870468735694885 -0.3870468735694885 0.3116528391838074
v 0.3870468735694885 -0.3870468735694885 0.0
v 0.3870468735694885 0.3870468735694885 0.3116528391838074
v 0.3870468735694885 -0.3870468735694885 0.0
v 0.3870468735694885 -0.3870468735694885 0.3116528391838074
v 0.3870468735694885 0.3870468735694885 0.0
v -0.3870468735694885 0.3870468735694885 0.3116528391838074
v 0.3870468735694885 0.3870468735694885 0.0
v 0.3870468735694885 0.3870468735694885 0.3116528391838074
v -0.3870468735694885 0.3870468735694885 0.0
v -0.3870468735694885 -0.3870468735694885 0.3116528391838074
v -0.3870468735694885 0.3870468735694885 0.0
v -0.3870468735694885 0.3870468735694885 0.3116528391838074
v -0.3870468735694885 -0.3870468735694885 0.0
v -0.3870468735694885 -0.3870468735694885 0.3116528391838074
v 0.35391730070114136 -0.35391730070114136 0.4015158712863922
v 0.3870468735694885 -0.3870468735694885 0.3116528391838074
v -0.35391730070114136 -0.35391730070114136 0.4015158712863922
v 0.3870468735694885 -0.3870468735694885 0.3116528391838074
v 0.35391730070114136 0.35391730070114136 0.4015158712863922
v 0.3870468735694885 0.3870468735694885 0.3116528391838074
v 0.35391730070114136 -0.35391730070114136 0.4015158712863922
v 0.3870468735694885 0.3870468735694885 0.3116528391838074
v -0.35391730070114136 0.35391730070114136 0.4015158712863922
v -0.3870468735694885 0.3870468735694885 0.3116528391838074
v 0.35391730070114136 0.35391730070114136 0.4015158712863922
v -0.3870468735694885 0.3870468735694885 0.3116528391838074
v -0.35391730070114136 -0.35391730070114136 0.4015158712863922
v -0.3870468735694885 -0.3870468735694885 0.3116528391838074
v -0.35391730070114136 0.35391730070114136 0.4015158712863922
v -0.35391730070114136 -0.35391730070114136 0.4015158712863922
v 0.3539172410964966 -0.3539171814918518 1.6038529872894287
v 0.35391730070114136 -0.35391730070114136 0.4015158712863922
v -0.3539171814918518 -0.3539171516895294 1.583006739616394
v 0.35391730070114136 -0.35391730070114136 0.4015158712863922
v 0.35391727089881897 0.35391727089881897 1.621677041053772
v 0.35391730070114136 0.35391730070114136 0.4015158712863922
v 0.3539172410964966 -0.3539171814918518 1.6038529872894287
v 0.35391730070114136 0.35391730070114136 0.4015158712863922
v -0.35391727089881897 0.35391727089881897 1.621677041053772
v -0.35391730070114136 0.35391730070114136 0.4015158712863922
v 0.35391727089881897 0.35391727089881897 1.621677041053772
v -0.35391730070114136 0.35391730070114136 0.4015158712863922
v -0.3539171516895294 0.14736048877239227 1.623643398284912
v -0.3539171814918518 0.021701481193304062 1.593569278717041
v -0.3539171814918518 -0.3539171516895294 1.583006739616394
v -0.35391730070114136 -0.35391730070114136 0.4015158712863922
v -0.35391727089881897 0.35391727089881897 1.621677041053772
v -0.3539171814918518 -0.3539171516895294 1.583006739616394
v 0.3221207857131958 -0.322120726108551 1.6726315021514893
v 0.3539172410964966 -0.3539171814918518 1.6038529872894287
v -0.32212069630622864 -0.32212069630622864 1.6517852544784546
v -0.1431618332862854 -0.2014453113079071 1.7175467014312744
v 0.3221207857131958 -0.322120726108551 1.6726315021514893
v 0.20193251967430115 -0.2019321620464325 1.7041566371917725
v -0.10852956771850586 0.046224839985370636 1.7353707551956177
v 0.14736244082450867 -0.028078950941562653 1.7110143899917603
v 0.3221207857131958 0.078870989382267 1.6837257146835327
v 0.21888786554336548 0.20280034840106964 1.7633181810379028
v 0.045608069747686386 0.0014676342252641916 1.7430506944656372
v -0.3221207857131958 0.3221207857131958 1.6904557943344116
v 0.21888786554336548 0.20280034840106964 1.7633181810379028
v 0.3221207857131958 0.3221207857131958 1.6904557943344116
v -0.32212069630622864 0.03463299572467804 1.66275954246521
v -0.32212066650390625 0.13287818431854248 1.6923877000808716
v -0.3539171814918518 0.021701481193304062 1.593569278717041
v -0.3539171814918518 -0.3539171516895294 1.583006739616394
v -0.32212069630622864 0.03463299572467804 1.66275954246521
v 0.3539172410964966 -0.3539171814918518 1.6038529872894287
v 0.3221207857131958 0.3221207857131958 1.6904557943344116
v 0.35391727089881897 0.35391727089881897 1.621677041053772
v 0.3221207857131958 0.078870989382267 1.6837257146835327
v 0.3221207857131958 -0.322120726108551 1.6726315021514893
v 0.35391727089881897 0.35391727089881897 1.621677041053772
v -0.3221207857131958 0.3221207857131958 1.6904557943344116
v -0.35391727089881897 0.35391727089881897 1.621677041053772
v 0.3221207857131958 0.3221207857131958 1.6904557943344116
v -0.3539171516895294 0.14736048877239227 1.623643398284912
v -0.32212069630622864 0.03463299572467804 1.66275954246521
v -0.3539171814918518 0.021701481193304062 1.593569278717041
v -0.32212066650390625 0.13287818431854248 1.6923877000808716
v -0.3221207857131958 0.3221207857131958 1.6904557943344116
v -0.3539171516895294 0.14736048877239227 1.623643398284912
v -0.35391727089881897 0.35391727089881897 1.621677041053772
v -0.32212066650390625 0.13287818431854248 1.6923877000808716
vn -0.0 -1.0 0.0
vn -0.0 -1.0 0.0
vn -0.0 -1.0 0.0
vn -0.0 -1.0 0.0
vn 1.0 0.0 0.0
vn 1.0 0.0 0.0
vn 1.0 0.0 0.0
vn 1.0 0.0 0.0
vn -0.0 1.0 0.0
vn -0.0 1.0 0.0
vn -0.0 1.0 0.0
vn -0.0 1.0 0.0
vn -1.0 0.0 0.0
vn -1.0 0.0 0.0
vn -1.0 0.0 0.0
vn -1.0 0.0 0.0
vn -0.0 -0.9382680654525757 0.3459089994430542
vn -0.0 -0.9382680654525757 0.3459089696407318
vn -0.0 -0.9382680654525757 0.3459089696407318
vn -0.0 -0.9382680654525757 0.3459089696407318
vn 0.9382680654525757 0.0 0.3459089994430542
vn 0.9382680654525757 0.0 0.3459089696407318
vn 0.9382680654525757 0.0 0.3459089696407318
vn 0.9382680654525757 0.0 0.3459089696407318
vn -0.0 0.9382680654525757 0.3459089994430542
vn -0.0 0.9382680654525757 0.3459089696407318
vn -0.0 0.9382680654525757 0.3459089696407318
vn -0.0 0.9382680654525757 0.3459089696407318
vn -0.9382680654525757 0.0 0.3459089994430542
vn -0.9382680654525757 0.0 0.3459089696407318
vn -0.9382680654525757 0.0 0.3459089696407318
vn -0.9382680654525757 0.0 0.3459089696407318
vn -0.0 -1.0 0.0
vn -0.0 -1.0 0.0
vn -0.0 -1.0 0.0
vn -0.0 -1.0 1.0733982946931064e-07
vn 1.0 0.0 0.0
vn 1.0 0.0 0.0
vn 1.0 0.0 0.0
vn 1.0 0.0 0.0
vn -0.0 1.0 0.0
vn -0.0 1.0 0.0
vn -0.0 1.0 0.0
vn -0.0 1.0 0.0
vn -1.0 2.1863245081021887e-07 1.407226619676294e-07
vn -1.0 2.1863243659936415e-07 1.407226619676294e-07
vn -1.0 2.1863246502107359e-07 1.407226619676294e-07
vn -1.0 0.0 0.0
vn -1.0 0.0 0.0
vn -1.0 -4.602350998084148e-07 0.0
vn -0.01222024392336607 -0.9097676277160645 0.4149378538131714
vn 0.4611370265483856 -0.4788612425327301 0.74702388048172
vn -0.01222024392336607 -0.9097676277160645 0.4149378538131714
vn -0.4916587471961975 -0.4835391640663147 0.7241972088813782
vn -0.1287849098443985 -0.20619095861911774 0.9699998497962952
vn 0.4611370265483856 -0.4788612425327301 0.74702388048172
vn 0.11036250740289688 -0.09562841802835464 0.9892801642417908
vn -0.1265684813261032 0.024818193167448044 0.9916473627090454
vn 0.1736970692873001 -0.1525496244430542 0.9729120135307312
vn 0.3544333577156067 -0.14190280437469482 0.92425137758255
vn 0.29177552461624146 -0.29640790820121765 0.9094005227088928
vn 0.06153065711259842 -0.14987796545028687 0.9867880344390869
vn -0.12339236587285995 0.11132659763097763 0.9860936403274536
vn 0.18344607949256897 0.24077530205249786 0.9530870318412781
vn 0.3049740791320801 0.290068119764328 0.9071115255355835
vn -0.3113618791103363 -0.1453908532857895 0.9391034245491028
vn -0.23645150661468506 -0.10360636562108994 0.966103732585907
vn -0.9055189490318298 -0.011926930397748947 0.4241381287574768
vn -0.9055189490318298 -0.011926930397748947 0.4241381287574768
vn -0.9076520204544067 -0.012905282899737358 0.4195250868797302
vn 0.9094797968864441 -0.010465795174241066 0.4156162440776825
vn 0.9094797968864441 -0.010465794242918491 0.4156162440776825
vn 0.9094797968864441 -0.010465795174241066 0.4156162440776825
vn 0.9055559039115906 -0.011732636019587517 0.4240647852420807
vn 0.4611370265483856 -0.4788612425327301 0.74702388048172
vn -0.0 0.9076954126358032 0.4196297228336334
vn -0.0 0.9076954126358032 0.4196297228336334
vn -0.0 0.9076954126358032 0.4196297228336334
vn -0.0 0.9076954126358032 0.4196297228336334
vn -0.8963348865509033 -0.10319973528385162 0.4312001168727875
vn -0.8963349461555481 -0.10319974273443222 0.4312001168727875
vn -0.8963348865509033 -0.10319973528385162 0.4312001168727875
vn -0.9104680418968201 -0.11941250413656235 0.3959653377532959
vn -0.9069808721542358 0.004008832387626171 0.42115268111228943
vn -0.9069808721542358 0.004008832387626171 0.42115268111228943
vn -0.9069808721542358 0.004008832387626171 0.42115268111228943
vn -0.9072623252868652 0.004292904864996672 0.42054349184036255
vt 0.9946780800819397 0.8789939433336258
vt 0.7534336447715759 0.9978331178426743
vt 0.7534336447715759 0.8789939433336258
vt 0.9946780800819397 0.9978331178426743
vt 0.9946780800819397 0.8789939433336258
vt 0.7534336447715759 0.9978331178426743
vt 0.7534336447715759 0.8789939433336258
vt 0.9946780800819397 0.9978331178426743
vt 0.9946780800819397 0.8789939433336258
vt 0.7534336447715759 0.9978331178426743
vt 0.7534336447715759 0.8789939433336258
vt 0.9946780800819397 0.9978331178426743
vt 0.3710712790489197 0.9948285794816911
vt 0.2522321045398712 0.753584161400795
vt 0.3710712790489197 0.753584161400795
vt 0.2522321045398712 0.9948285794816911
vt 0.7534336447715759 0.8789939433336258
vt 0.9840418100357056 0.8510118573904037
vt 0.9946780800819397 0.8789939433336258
vt 0.7640701532363892 0.8510118573904037
vt 0.7534336447715759 0.8789939433336258
vt 0.9840418100357056 0.8510118573904037
vt 0.9946780800819397 0.8789939433336258
vt 0.7640701532363892 0.8510118573904037
vt 0.7534336447715759 0.8789939433336258
vt 0.9840418100357056 0.8510118573904037
vt 0.9946780800819397 0.8789939433336258
vt 0.7640701532363892 0.8510118573904037
vt 0.3710712790489197 0.753584161400795
vt 0.3990533947944641 0.984192369505763
vt 0.3710712790489197 0.9948285794816911
vt 0.39905333518981934 0.7642206698656082
vt 0.7640701532363892 0.8510118573904037
vt 0.9840418100357056 0.5001133978366852
vt 0.9840418100357056 0.8510118573904037
vt 0.7640701532363892 0.5001133978366852
vt 0.7640701532363892 0.8510118573904037
vt 0.9840418100357056 0.5001133978366852
vt 0.9840418100357056 0.8510118573904037
vt 0.7640701532363892 0.5001133978366852
vt 0.7640701532363892 0.8510118573904037
vt 0.9840418100357056 0.5001133978366852
vt 0.9840418100357056 0.8510118573904037
vt 0.7640701532363892 0.5001133978366852
vt 0.39905333518981934 0.7642206698656082
vt 0.748931884765625 0.8284116834402084
vt 0.748931884765625 0.8674623668193817
vt 0.748931884765625 0.9841923099011183
vt 0.3990533947944641 0.984192369505763
vt 0.748931884765625 0.7642206400632858
vt 0.7650713324546814 0.24986732006072998
vt 0.9748218059539795 0.22628992795944214
vt 0.9846869707107544 0.24986732006072998
vt 0.7749366760253906 0.22628992795944214
vt 0.8304612636566162 0.18874067068099976
vt 0.9748218059539795 0.22628992795944214
vt 0.9375317692756653 0.1888921856880188
vt 0.841206431388855 0.11167579889297485
vt 0.9221556782722473 0.1357126235961914
vt 0.9748218059539795 0.1015176773071289
vt 0.9427924156188965 0.06295591592788696
vt 0.889966607093811 0.12615442276000977
vt 0.7749366760253906 0.025828301906585693
vt 0.9427924156188965 0.06295591592788696
vt 0.9748218059539795 0.025828301906585693
vt 0.7749366760253906 0.11528277397155762
vt 0.7749366760253906 0.08471286296844482
vt 0.7514271140098572 0.11930650472640991
vt 0.7514271140098572 0.23618370294570923
vt 0.7749366760253906 0.11528277397155762
vt 0.9983313083648682 0.23618370294570923
vt 0.9748218059539795 0.025828301906585693
vt 0.9983313083648682 0.015934526920318604
vt 0.9748218059539795 0.1015176773071289
vt 0.9748218059539795 0.22628992795944214
vt 0.9846869707107544 0.002250969409942627
vt 0.7749366760253906 0.025828301906585693
vt 0.7650713324546814 0.002250969409942627
vt 0.9748218059539795 0.025828301906585693
vt 0.7514271140098572 0.08020657300949097
vt 0.7749366760253906 0.11528277397155762
vt 0.7514271140098572 0.11930650472640991
vt 0.7749366760253906 0.08471286296844482
vt 0.7749366760253906 0.025828301906585693
vt 0.7514271140098572 0.08020657300949097
vt 0.7514271140098572 0.015934526920318604
vt 0.7749366760253906 0.08471286296844482

g bg_mdl_map_haikyo_pillar02
s 1
usemtl bg_mdl_map_haikyo_pillar02
f 3/3/3 2/2/2 1/1/1 
f 4/4/4 1/1/1 2/2/2 
f 7/7/7 6/6/6 5/5/5 
f 8/8/8 5/5/5 6/6/6 
f 11/11/11 10/10/10 9/9/9 
f 12/12/12 9/9/9 10/10/10 
f 15/15/15 14/14/14 13/13/13 
f 16/16/16 13/13/13 14/14/14 
f 19/19/19 18/18/18 17/17/17 
f 20/20/20 17/17/17 18/18/18 
f 23/23/23 22/22/22 21/21/21 
f 24/24/24 21/21/21 22/22/22 
f 27/27/27 26/26/26 25/25/25 
f 28/28/28 25/25/25 26/26/26 
f 31/31/31 30/30/30 29/29/29 
f 32/32/32 29/29/29 30/30/30 
f 35/35/35 34/34/34 33/33/33 
f 36/36/36 33/33/33 34/34/34 
f 39/39/39 38/38/38 37/37/37 
f 40/40/40 37/37/37 38/38/38 
f 43/43/43 42/42/42 41/41/41 
f 42/42/42 44/44/44 41/41/41 
f 47/47/47 46/46/46 45/45/45 
f 47/47/47 45/45/45 48/48/48 
f 49/49/49 48/48/48 45/45/45 
f 50/50/50 45/45/45 46/46/46 
f 53/53/53 52/52/52 51/51/51 
f 54/54/54 51/51/51 52/52/52 
f 54/54/54 56/56/56 55/55/55 
f 57/57/57 55/55/55 56/56/56 
f 55/55/55 58/58/58 54/54/54 
f 55/55/55 57/57/57 59/59/59 
f 57/57/57 60/60/60 59/59/59 
f 56/56/56 60/60/60 57/57/57 
f 59/59/59 60/60/60 61/61/61 
f 55/55/55 62/62/62 58/58/58 
f 59/59/59 62/62/62 55/55/55 
f 59/59/59 61/61/61 62/62/62 
f 62/62/62 63/63/63 58/58/58 
f 64/64/64 63/63/63 62/62/62 
f 65/65/65 63/63/63 64/64/64 
f 65/65/65 64/64/64 60/60/60 
f 54/54/54 58/58/58 66/66/66 
f 66/66/66 58/58/58 67/67/67 
f 63/63/63 67/67/67 58/58/58 
f 69/69/69 54/54/54 68/68/68 
f 70/70/70 68/68/68 54/54/54 
f 73/73/73 72/72/72 71/71/71 
f 72/72/72 74/74/74 71/71/71 
f 74/74/74 75/75/75 71/71/71 
f 78/78/78 77/77/77 76/76/76 
f 79/79/79 76/76/76 77/77/77 
f 82/82/82 81/81/81 80/80/80 
f 83/83/83 80/80/80 81/81/81 
f 86/86/86 85/85/85 84/84/84 
f 87/87/87 84/84/84 85/85/85 

