v -1.8165663139695798e-16 -3.532939218953146e-10 -0.03805887699127197
v -0.05108587443828583 0.05108587443828583 4.200149117394858e-09
v -0.1942673772573471 -3.532939218953146e-10 3.432724382523844e-10
v -2.7020778947672852e-09 0.1942673772573471 1.501005186810289e-08
v 0.05108587443828583 0.05108587443828583 4.200150005573278e-09
v -2.7020778947672852e-09 0.1942673772573471 1.501005186810289e-08
v 0.1942673772573471 -3.532939218953146e-10 3.4327340969753095e-10
v -1.8165663139695798e-16 -6.100024485533595e-09 0.03805887699127197
v -0.05108587443828583 -0.05108587443828583 -3.5136036302674256e-09
v -2.7020776727226803e-09 -0.1942673772573471 -1.4323506825064669e-08
v -0.1942673772573471 -3.532939218953146e-10 3.432724382523844e-10
v -2.7020776727226803e-09 -0.1942673772573471 -1.4323506825064669e-08
v 0.05108587443828583 -0.05108587443828583 -3.5136036302674256e-09
v 0.1942673772573471 -3.532939218953146e-10 3.4327340969753095e-10
vn -0.0 0.0 -1.0
vn -0.7071067690849304 0.7071067690849304 0.0
vn -1.0 0.0 -2.2479532901797938e-07
vn -1.6859650031619822e-07 1.0 1.1239766450898969e-07
vn 0.7071067690849304 0.7071067690849304 0.0
vn -1.6859650031619822e-07 1.0 1.1239766450898969e-07
vn 1.0 0.0 -2.2479532901797938e-07
vn -0.0 0.0 1.0
vn -0.7071067690849304 -0.7071067690849304 -1.0025752317233128e-07
vn -1.6859650031619822e-07 -1.0 1.1239766450898969e-07
vn -1.0 0.0 -2.2479532901797938e-07
vn -1.6859650031619822e-07 -1.0 1.1239766450898969e-07
vn 0.7071067690849304 -0.7071067690849304 0.0
vn 1.0 0.0 -2.2479532901797938e-07
vt 0.9995002746582031 0.9995005117962137
vt 0.7432071566581726 0.7432072758674622
vt 0.024878650903701782 0.9995003083022311
vt 0.9995005130767822 0.024878621101379395
vt 0.7432071566581726 0.7432072758674622
vt 0.024878650903701782 0.9995003083022311
vt 0.9995005130767822 0.024878621101379395
vt 0.9995002746582031 0.9995005117962137
vt 0.7432071566581726 0.7432072758674622
vt 0.024878650903701782 0.9995003083022311
vt 0.9995005130767822 0.024878621101379395
vt 0.9995005130767822 0.024878621101379395
vt 0.7432071566581726 0.7432072758674622
vt 0.024878650903701782 0.9995003083022311

g eff_mdl_wpn_shuriken00
s 1
usemtl eff_mdl_wpn_shuriken00
f 3/3/3 2/2/2 1/1/1 
f 4/4/4 1/1/1 2/2/2 
f 6/6/6 5/5/5 1/1/1 
f 7/7/7 1/1/1 5/5/5 
f 4/4/4 8/8/8 5/5/5 
f 6/6/6 2/2/2 8/8/8 
f 3/3/3 9/9/9 8/8/8 
f 10/10/10 9/9/9 1/1/1 
f 11/11/11 1/1/1 9/9/9 
f 11/11/11 8/8/8 2/2/2 
f 12/12/12 8/8/8 9/9/9 
f 12/12/12 1/1/1 13/13/13 
f 10/10/10 13/13/13 8/8/8 
f 7/7/7 8/8/8 13/13/13 
f 14/14/14 13/13/13 1/1/1 
f 14/14/14 5/5/5 8/8/8 

