v 0.4829629063606262 0.129409521818161 -0.02499999850988388
v 0.4829629063606262 0.129409521818161 0.02499999850988388
v 0.4330126941204071 0.25 0.02499999850988388
v 0.4330126941204071 0.25 -0.02499999850988388
v 0.3535533845424652 0.3535533845424652 0.02499999850988388
v 0.3535533845424652 0.3535533845424652 -0.02499999850988388
v 0.3535531461238861 -0.3535536229610443 -0.02499999850988388
v 0.3535531461238861 -0.3535536229610443 0.02499999850988388
v 0.43301254510879517 -0.2500002980232239 0.02499999850988388
v 0.43301254510879517 -0.2500002980232239 -0.02499999850988388
v 0.48296278715133667 -0.12940987944602966 0.02499999850988388
v 0.48296278715133667 -0.12940987944602966 -0.02499999850988388
vn 0.9238795042037964 0.38268351554870605 0.0
vn 0.9238795042037964 0.38268351554870605 0.0
vn 0.8660253286361694 0.5000000596046448 0.0
vn 0.866025447845459 0.5 0.0
vn 0.793353259563446 0.6087614297866821 0.0
vn 0.7933534383773804 0.6087614297866821 0.0
vn 0.7933528423309326 -0.6087620854377747 0.0
vn 0.7933528423309326 -0.6087620854377747 0.0
vn 0.8660250902175903 -0.5000006556510925 0.0
vn 0.8660250902175903 -0.500000536441803 0.0
vn 0.9238794445991516 -0.3826838731765747 0.0
vn 0.9238794445991516 -0.3826839029788971 0.0
vt 0.7916666269302368 1.0
vt 0.7916666269302368 0.0
vt 0.8333333134651184 0.0
vt 0.8333333134651184 1.0
vt 0.875 0.0
vt 0.875 1.0
vt 0.6249998807907104 1.0
vt 0.6249998807907104 0.0
vt 0.666666567325592 0.0
vt 0.666666567325592 1.0
vt 0.7083332538604736 0.0
vt 0.7083332538604736 1.0

g eff_mdl_breath_gen00
s 1
usemtl eff_mdl_breath_gen00
f 3/3/3 2/2/2 1/1/1 
f 4/4/4 3/3/3 1/1/1 
f 5/5/5 3/3/3 4/4/4 
f 6/6/6 5/5/5 4/4/4 
f 9/9/9 8/8/8 7/7/7 
f 10/10/10 9/9/9 7/7/7 
f 11/11/11 9/9/9 10/10/10 
f 12/12/12 11/11/11 10/10/10 

