v -0.07541225105524063 6.183981895446777e-07 0.005212230607867241
v -0.011314191855490208 0.0037889303639531136 0.0024653044529259205
v -0.011320638470351696 0.00010662931890692562 0.005212230607867241
v -0.07180297374725342 0.0028369177598506212 0.0024653044529259205
v 0.0036370849702507257 0.005127915646880865 0.0024653044529259205
v 0.011677856557071209 0.013371933251619339 0.0024653044529259205
v 0.0062380218878388405 0.02073908969759941 0.0024653044529259205
v 0.012254294939339161 0.03882158547639847 0.0024653044529259205
v 0.02294067293405533 0.04164484888315201 0.0024653044529259205
v 0.028554953634738922 0.019085261970758438 0.0024653044529259205
v 0.03719623386859894 0.017681030556559563 0.0024653044529259205
v 0.015061129815876484 0.007621135096997023 0.0024653044529259205
v -0.005119896028190851 0.0476377010345459 0.0024653044529259205
v -0.00889673177152872 0.04297221079468727 0.0024653044529259205
v 0.03171653673052788 0.014448282308876514 0.0024653044529259205
v 0.06894680112600327 0.014329835772514343 0.0024653044529259205
v 0.059544637799263 0.005304454360157251 0.0024653044529259205
v 0.059544637799263 0.005304454360157251 0.0024653044529259205
v 0.08206497132778168 6.184354219840316e-07 0.0050758980214595795
v -0.07541225105524063 6.183981895446777e-07 -0.0003298489609733224
v -0.07180297374725342 -0.002835680730640888 0.0024653044529259205
v -0.011314191855490208 -0.003575672162696719 0.0024653044529259205
v -0.011320638470351696 0.00010662931890692562 -0.0003298489609733224
v 0.0036370849702507257 -0.0049146562814712524 0.0024653044529259205
v 0.011677856557071209 -0.013158679008483887 0.0024653044529259205
v 0.0062380218878388405 -0.02052583359181881 0.0024653044529259205
v 0.012254294939339161 -0.03888469561934471 0.0024653044529259205
v 0.02294067293405533 -0.04143158718943596 0.0024653044529259205
v 0.028554953634738922 -0.018872005864977837 0.0024653044529259205
v 0.03719623386859894 -0.01746777445077896 0.0024653044529259205
v 0.015061129815876484 -0.007407876662909985 0.0024653044529259205
v -0.005119896028190851 -0.04742443934082985 0.0024653044529259205
v -0.00889673177152872 -0.04275894910097122 0.0024653044529259205
v 0.03171653673052788 -0.014235026203095913 0.0024653044529259205
v 0.059544637799263 -0.005303218029439449 0.0024653044529259205
v 0.06894680112600327 -0.014328599907457829 0.0024653044529259205
v 0.08206497132778168 6.184354219840316e-07 -0.00019232511112932116
v 0.08206497132778168 6.184354219840316e-07 0.0050758980214595795
v 0.08206497132778168 0.021937089040875435 0.0024647086393088102
v 0.12731637060642242 0.012908549048006535 0.0024653044529259205
v 0.06894680112600327 0.014329835772514343 0.0024653044529259205
v 0.059544637799263 0.005304454360157251 0.0024653044529259205
v 0.1771882325410843 0.009150334633886814 0.0024646916426718235
v 0.17719072103500366 6.183981895446777e-07 0.005072029307484627
v 0.39246702194213867 0.025130044668912888 0.0024653044529259205
v 0.41927188634872437 0.01068794447928667 0.0024653044529259205
v 0.4137088358402252 0.006158040836453438 0.0024653044529259205
v 0.4384368360042572 0.012883555144071579 0.0024653044529259205
v 0.4296846389770508 0.006586836650967598 0.0024653044529259205
v 0.42346590757369995 0.007479542400687933 0.0024653044529259205
v 0.42555660009384155 0.0028924092184752226 0.0024653044529259205
v 0.41799211502075195 0.0036488953046500683 0.0024653044529259205
v 0.4246629476547241 6.18360900261905e-07 0.005212230607867241
v 0.4402112066745758 0.0028924092184752226 0.0024653044529259205
v 0.4442645311355591 6.183981895446777e-07 0.005212230607867241
v 0.4705652594566345 6.183981895446777e-07 0.0024742144159972668
v -0.07541225105524063 6.183981895446777e-07 0.005212230607867241
v -0.011314191855490208 -0.003575672162696719 0.0024653044529259205
v -0.07180297374725342 -0.002835680730640888 0.0024653044529259205
v -0.011320638470351696 0.00010662931890692562 0.005212230607867241
v 0.0036370849702507257 -0.0049146562814712524 0.0024653044529259205
v 0.011677856557071209 -0.013158679008483887 0.0024653044529259205
v 0.0062380218878388405 -0.02052583359181881 0.0024653044529259205
v 0.012254294939339161 -0.03888469561934471 0.0024653044529259205
v 0.02294067293405533 -0.04143158718943596 0.0024653044529259205
v 0.028554953634738922 -0.018872005864977837 0.0024653044529259205
v 0.03719623386859894 -0.01746777445077896 0.0024653044529259205
v 0.015061129815876484 -0.007407876662909985 0.0024653044529259205
v -0.005119896028190851 -0.04742443934082985 0.0024653044529259205
v -0.00889673177152872 -0.04275894910097122 0.0024653044529259205
v 0.03171653673052788 -0.014235026203095913 0.0024653044529259205
v 0.06894680112600327 -0.014328599907457829 0.0024653044529259205
v 0.059544637799263 -0.005303218029439449 0.0024653044529259205
v 0.08206497132778168 6.184354219840316e-07 0.0050758980214595795
v 0.39246702194213867 -0.025128809735178947 0.0024653044529259205
v 0.4137088358402252 -0.006156804505735636 0.0024653044529259205
v 0.41927188634872437 -0.01068670954555273 0.0024653044529259205
v 0.4384368360042572 -0.012882322072982788 0.0024653044529259205
v 0.4296846389770508 -0.006585600320249796 0.0024653044529259205
v 0.42346590757369995 -0.007478305138647556 0.0024653044529259205
v 0.42555660009384155 -0.0028911721892654896 0.0024653044529259205
v 0.41799211502075195 -0.003647658508270979 0.0024653044529259205
v 0.4246629476547241 6.18360900261905e-07 0.005212230607867241
v 0.4402112066745758 -0.0028911721892654896 0.0024653044529259205
v 0.4442645311355591 6.183981895446777e-07 0.005212230607867241
v 0.4705652594566345 6.183981895446777e-07 0.0024742144159972668
v -0.07541225105524063 6.183981895446777e-07 -0.0003298489609733224
v -0.011314191855490208 0.0037889303639531136 0.0024653044529259205
v -0.07180297374725342 0.0028369177598506212 0.0024653044529259205
v -0.011320638470351696 0.00010662931890692562 -0.0003298489609733224
v 0.0036370849702507257 0.005127915646880865 0.0024653044529259205
v 0.011677856557071209 0.013371933251619339 0.0024653044529259205
v 0.0062380218878388405 0.02073908969759941 0.0024653044529259205
v 0.012254294939339161 0.03882158547639847 0.0024653044529259205
v 0.02294067293405533 0.04164484888315201 0.0024653044529259205
v 0.028554953634738922 0.019085261970758438 0.0024653044529259205
v 0.03719623386859894 0.017681030556559563 0.0024653044529259205
v 0.015061129815876484 0.007621135096997023 0.0024653044529259205
v -0.005119896028190851 0.0476377010345459 0.0024653044529259205
v -0.00889673177152872 0.04297221079468727 0.0024653044529259205
v 0.03171653673052788 0.014448282308876514 0.0024653044529259205
v 0.06894680112600327 0.014329835772514343 0.0024653044529259205
v 0.059544637799263 0.005304454360157251 0.0024653044529259205
v 0.08206497132778168 6.184354219840316e-07 -0.00019232511112932116
v 0.4442645311355591 6.183981895446777e-07 -0.0003298489609733224
v 0.4705652594566345 6.183981895446777e-07 0.0024742144159972668
v 0.4384368360042572 0.012883555144071579 0.0024653044529259205
v 0.4402112066745758 0.0028924092184752226 0.0024653044529259205
v 0.4296846389770508 0.006586836650967598 0.0024653044529259205
v 0.4246629476547241 6.18360900261905e-07 -0.0003298489609733224
v 0.42555660009384155 0.0028924092184752226 0.0024653044529259205
v 0.41927188634872437 0.01068794447928667 0.0024653044529259205
v 0.39246702194213867 0.025130044668912888 0.0024653044529259205
v 0.4137088358402252 0.006158040836453438 0.0024653044529259205
v 0.42346590757369995 0.007479542400687933 0.0024653044529259205
v 0.41799211502075195 0.0036488953046500683 0.0024653044529259205
v 0.08206497132778168 6.184354219840316e-07 -0.00019232511112932116
v 0.08206497132778168 -0.021935854107141495 0.0024647086393088102
v 0.12731637060642242 -0.012907314114272594 0.0024653044529259205
v 0.06894680112600327 -0.014328599907457829 0.0024653044529259205
v 0.059544637799263 -0.005303218029439449 0.0024653044529259205
v 0.1771882325410843 -0.009149099700152874 0.0024646916426718235
v 0.17720092833042145 6.183981895446777e-07 -0.00018842249119188637
v 0.4442645311355591 6.183981895446777e-07 -0.0003298489609733224
v 0.4384368360042572 -0.012882322072982788 0.0024653044529259205
v 0.4705652594566345 6.183981895446777e-07 0.0024742144159972668
v 0.4402112066745758 -0.0028911721892654896 0.0024653044529259205
v 0.4296846389770508 -0.006585600320249796 0.0024653044529259205
v 0.4246629476547241 6.18360900261905e-07 -0.0003298489609733224
v 0.42555660009384155 -0.0028911721892654896 0.0024653044529259205
v 0.41927188634872437 -0.01068670954555273 0.0024653044529259205
v 0.39246702194213867 -0.025128809735178947 0.0024653044529259205
v 0.4137088358402252 -0.006156804505735636 0.0024653044529259205
v 0.42346590757369995 -0.007478305138647556 0.0024653044529259205
v 0.41799211502075195 -0.003647658508270979 0.0024653044529259205
v 0.06894680112600327 0.014329835772514343 0.0024653044529259205
v 0.08206497132778168 6.184354219840316e-07 -0.00019232511112932116
v 0.08206497132778168 0.021937089040875435 0.0024647086393088102
v 0.059544637799263 0.005304454360157251 0.0024653044529259205
v 0.12731637060642242 0.012908549048006535 0.0024653044529259205
v 0.1771882325410843 0.009150334633886814 0.0024646916426718235
v 0.17720092833042145 6.183981895446777e-07 -0.00018842249119188637
v 0.06894680112600327 -0.014328599907457829 0.0024653044529259205
v 0.08206497132778168 6.184354219840316e-07 0.0050758980214595795
v 0.08206497132778168 -0.021935854107141495 0.0024647086393088102
v 0.059544637799263 -0.005303218029439449 0.0024653044529259205
v 0.12731637060642242 -0.012907314114272594 0.0024653044529259205
v 0.1771882325410843 -0.009149099700152874 0.0024646916426718235
v 0.17719072103500366 6.183981895446777e-07 0.005072029307484627
v 0.17719072103500366 6.183981895446777e-07 0.005072029307484627
v 0.29921865463256836 0.005530367139726877 0.0024676898028701544
v 0.2993008494377136 6.18360900261905e-07 0.005758121609687805
v 0.1771882325410843 0.009150334633886814 0.0024646916426718235
v 0.41799211502075195 0.0036488953046500683 0.0024653044529259205
v 0.4246629476547241 6.18360900261905e-07 0.005212230607867241
v 0.17720092833042145 6.183981895446777e-07 -0.00018842249119188637
v 0.29921865463256836 -0.00552913174033165 0.0024676898028701544
v 0.2993009686470032 6.18360900261905e-07 -0.0008805113611742854
v 0.1771882325410843 -0.009149099700152874 0.0024646916426718235
v 0.41799211502075195 -0.003647658508270979 0.0024653044529259205
v 0.4246629476547241 6.18360900261905e-07 -0.0003298489609733224
v 0.29921865463256836 -0.00552913174033165 0.0024676898028701544
v 0.17719072103500366 6.183981895446777e-07 0.005072029307484627
v 0.2993008494377136 6.18360900261905e-07 0.005758121609687805
v 0.1771882325410843 -0.009149099700152874 0.0024646916426718235
v 0.41799211502075195 -0.003647658508270979 0.0024653044529259205
v 0.4246629476547241 6.18360900261905e-07 0.005212230607867241
v 0.29921865463256836 0.005530367139726877 0.0024676898028701544
v 0.17720092833042145 6.183981895446777e-07 -0.00018842249119188637
v 0.2993009686470032 6.18360900261905e-07 -0.0008805113611742854
v 0.1771882325410843 0.009150334633886814 0.0024646916426718235
v 0.41799211502075195 0.0036488953046500683 0.0024653044529259205
v 0.4246629476547241 6.18360900261905e-07 -0.0003298489609733224
vn -0.7332236170768738 -0.0002493459323886782 0.6799875497817993
vn -0.04687144234776497 0.9988917708396912 0.0042779999785125256
vn -0.02534807100892067 0.000295669655315578 0.9996786117553711
vn -0.17235568165779114 0.9850261807441711 0.004130903631448746
vn -0.003714838996529579 0.2851555049419403 0.9584740400314331
vn -0.0 0.0 1.0
vn -0.0 0.0 1.0
vn -0.0 0.0 -1.0
vn -0.0 0.0 1.0
vn -0.0 0.0 1.0
vn -0.0 0.0 1.0
vn -0.0 0.0 -1.0
vn -0.0 0.0 -1.0
vn -0.0 0.0 -1.0
vn -0.0 0.0 -1.0
vn -0.6065809726715088 0.7950209379196167 0.001121741021052003
vn -0.015556925907731056 0.2475595474243164 0.9687477946281433
vn -0.015556925907731056 0.2475595474243164 0.9687477946281433
vn -0.023350438103079796 -1.4455083146458492e-05 0.9997273087501526
vn -0.7318938970565796 -0.00025308853946626186 -0.6814185380935669
vn -0.1701010763645172 -0.9854179620742798 0.004129896871745586
vn -0.04521745443344116 -0.9989680051803589 0.004282053094357252
vn -0.025567857548594475 0.0003237073542550206 -0.9996730089187622
vn -0.0026352510321885347 -0.28573986887931824 -0.958303689956665
vn -0.0 0.0 -1.0
vn -0.0 0.0 1.0
vn -0.0 0.0 -1.0
vn -0.0 0.0 -1.0
vn -0.0 0.0 -1.0
vn -0.0 0.0 -1.0
vn -0.0 0.0 -1.0
vn -0.0 0.0 -1.0
vn -0.0 0.0 -1.0
vn -0.0 0.0 -1.0
vn -0.01825760491192341 -0.2413255274295807 -0.9702724814414978
vn -0.6065810322761536 -0.7950208783149719 0.0011214365949854255
vn -0.023869218304753304 -5.248105935606873e-06 -0.9997150301933289
vn -0.023350438103079796 -1.4455083146458492e-05 0.9997273087501526
vn -0.1361345499753952 0.9906899929046631 0.0008524060831405222
vn 0.08912622183561325 0.9960193037986755 0.0014443784020841122
vn -0.6065809726715088 0.7950209379196167 0.001121741021052003
vn -0.015556925907731056 0.2475595474243164 0.9687477946281433
vn 0.017171747982501984 0.9998499155044556 0.0022849126253277063
vn 0.004021554719656706 0.0 0.9999918937683105
vn -0.0 0.0 1.0
vn -0.0 0.0 1.0
vn -0.0 0.0 -1.0
vn -0.5662079453468323 0.8214377164840698 0.06818106770515442
vn -0.0 0.0 1.0
vn -0.0 0.0 -1.0
vn 0.018692003563046455 0.42656347155570984 0.9042644500732422
vn 0.02349991165101528 0.9997151494026184 0.004158593248575926
vn 0.035459619015455246 0.0 0.9993711113929749
vn -0.3475680947303772 0.9250795245170593 0.15305039286613464
vn 0.07599180191755295 0.0 0.9971083998680115
vn 0.9997488856315613 2.9629200071212836e-07 0.022407125681638718
vn -0.7332236170768738 -0.0002493459323886782 0.6799875497817993
vn -0.04521745443344116 -0.9989680051803589 0.004282053094357252
vn -0.1701010763645172 -0.9854179620742798 0.004129896871745586
vn -0.02534807100892067 0.000295669655315578 0.9996786117553711
vn -0.0025810147635638714 -0.2816711366176605 0.9595075249671936
vn -0.0 0.0 1.0
vn -0.0 0.0 1.0
vn -0.0 0.0 1.0
vn -0.0 0.0 -1.0
vn -0.0 0.0 1.0
vn -0.0 0.0 1.0
vn -0.0 0.0 -1.0
vn -0.0 0.0 -1.0
vn -0.0 0.0 -1.0
vn -0.0 0.0 -1.0
vn -0.6065810322761536 -0.7950208783149719 0.0011214365949854255
vn -0.017927994951605797 -0.23766660690307617 0.971181333065033
vn -0.023350438103079796 -1.4455083146458492e-05 0.9997273087501526
vn -0.0 0.0 1.0
vn -0.0 0.0 -1.0
vn -0.0 0.0 1.0
vn -0.00010020305489888415 1.7795457097236067e-05 1.0
vn -0.0 0.0 1.0
vn -0.0 0.0 1.0
vn 0.0186920128762722 -0.4265635311603546 0.9042644500732422
vn 0.02349991910159588 -0.9997151494026184 0.004158628173172474
vn 0.035459619015455246 0.0 0.9993711113929749
vn -0.3475680351257324 -0.9250795245170593 0.15305045247077942
vn 0.07599180191755295 0.0 0.9971083998680115
vn 0.9997488856315613 2.9629200071212836e-07 0.022407125681638718
vn -0.7318938970565796 -0.00025308853946626186 -0.6814185380935669
vn -0.04687144234776497 0.9988917708396912 0.0042779999785125256
vn -0.17235568165779114 0.9850261807441711 0.004130903631448746
vn -0.025567857548594475 0.0003237073542550206 -0.9996730089187622
vn -0.002053907373920083 0.28434351086616516 -0.958720326423645
vn -0.0 0.0 -1.0
vn -0.0 0.0 -1.0
vn -0.0 0.0 -1.0
vn -0.0 0.0 1.0
vn -0.0 0.0 -1.0
vn -0.0 0.0 -1.0
vn -0.0 0.0 -1.0
vn -0.0 0.0 -1.0
vn -0.0 0.0 -1.0
vn -0.0 0.0 -1.0
vn -0.6065809726715088 0.7950209379196167 0.001121741021052003
vn -0.01744173653423786 0.24478748440742493 -0.9694198369979858
vn -0.023869218304753304 -5.248105935606873e-06 -0.9997150301933289
vn -0.05440880358219147 0.0 -0.9985187649726868
vn 0.9997488856315613 2.9629200071212836e-07 0.022407125681638718
vn -0.5662079453468323 0.8214377164840698 0.06818106770515442
vn -0.3475680947303772 0.9250795245170593 0.15305039286613464
vn -0.0 0.0 -1.0
vn 0.03592853248119354 0.0 -0.9993543028831482
vn 0.018915997818112373 0.4311819076538086 -0.902066707611084
vn -0.0 0.0 -1.0
vn -0.0 0.0 1.0
vn -0.0 0.0 -1.0
vn -0.0 0.0 -1.0
vn 0.02349991165101528 0.9997151494026184 0.004158593248575926
vn -0.023869218304753304 -5.248105935606873e-06 -0.9997150301933289
vn -0.1361345797777176 -0.9906899929046631 0.0008526106248609722
vn 0.08912623673677444 -0.9960193037986755 0.0014443787513300776
vn -0.6065810322761536 -0.7950208783149719 0.0011214365949854255
vn -0.01825760491192341 -0.2413255274295807 -0.9702724814414978
vn 0.017171746119856834 -0.9998499155044556 0.002284982241690159
vn 0.0041193594224750996 0.0 -0.9999915361404419
vn -0.05440880358219147 0.0 -0.9985187649726868
vn -0.037742745131254196 -0.0549195297062397 -0.9977771639823914
vn 0.9997488856315613 2.9629200071212836e-07 0.022407125681638718
vn -0.3475680351257324 -0.9250795245170593 0.15305045247077942
vn -0.0 0.0 -1.0
vn 0.03592853248119354 0.0 -0.9993543028831482
vn 0.01891600526869297 -0.43118202686309814 -0.902066707611084
vn -0.0 0.0 1.0
vn -0.0 0.0 -1.0
vn -0.0 0.0 -1.0
vn -0.0 0.0 1.0
vn 0.02349991910159588 -0.9997151494026184 0.004158628173172474
vn -0.6065809726715088 0.7950209379196167 0.001121741021052003
vn -0.023869218304753304 -5.248105935606873e-06 -0.9997150301933289
vn -0.1361345499753952 0.9906899929046631 0.0008524060831405222
vn -0.01744173653423786 0.24478748440742493 -0.9694198369979858
vn 0.08912622183561325 0.9960193037986755 0.0014443784020841122
vn 0.017171747982501984 0.9998499155044556 0.0022849126253277063
vn 0.0041193594224750996 0.0 -0.9999915361404419
vn -0.6065810322761536 -0.7950208783149719 0.0011214365949854255
vn -0.023350438103079796 -1.4455083146458492e-05 0.9997273087501526
vn -0.1361345797777176 -0.9906899929046631 0.0008526106248609722
vn -0.017927994951605797 -0.23766660690307617 0.971181333065033
vn 0.08912623673677444 -0.9960193037986755 0.0014443787513300776
vn 0.017171746119856834 -0.9998499155044556 0.002284982241690159
vn 0.004021554719656706 0.0 0.9999918937683105
vn 0.004021554719656706 0.0 0.9999918937683105
vn 0.003619075519964099 0.9999861717224121 0.0038260160945355892
vn 0.001912963460199535 0.0 0.9999982118606567
vn 0.017171747982501984 0.9998499155044556 0.0022849126253277063
vn 0.02349991165101528 0.9997151494026184 0.004158593248575926
vn 0.035459619015455246 0.0 0.9993711113929749
vn 0.0041193594224750996 0.0 -0.9999915361404419
vn 0.003619080875068903 -0.9999861717224121 0.0038259420543909073
vn 0.0019498764304444194 0.0 -0.9999980926513672
vn 0.017171746119856834 -0.9998499155044556 0.002284982241690159
vn 0.02349991910159588 -0.9997151494026184 0.004158628173172474
vn 0.03592853248119354 0.0 -0.9993543028831482
vn 0.003619080875068903 -0.9999861717224121 0.0038259420543909073
vn 0.004021554719656706 0.0 0.9999918937683105
vn 0.001912963460199535 0.0 0.9999982118606567
vn 0.017171746119856834 -0.9998499155044556 0.002284982241690159
vn 0.02349991910159588 -0.9997151494026184 0.004158628173172474
vn 0.035459619015455246 0.0 0.9993711113929749
vn 0.003619075519964099 0.9999861717224121 0.0038260160945355892
vn 0.0041193594224750996 0.0 -0.9999915361404419
vn 0.0019498764304444194 0.0 -0.9999980926513672
vn 0.017171747982501984 0.9998499155044556 0.0022849126253277063
vn 0.02349991165101528 0.9997151494026184 0.004158593248575926
vn 0.03592853248119354 0.0 -0.9993543028831482
vt 0.0212864950299263 0.01953113079071045
vt 0.0694693997502327 0.24652671813964844
vt 0.0212864950299263 0.24286514520645142
vt 0.0694693997502327 0.01953113079071045
vt 0.054984696209430695 0.33593833446502686
vt 0.1114417314529419 0.40281379222869873
vt 0.15646040439605713 0.36117804050445557
vt 0.28816232085227966 0.4076082706451416
vt 0.3035937249660492 0.4964873194694519
vt 0.14492148160934448 0.5277142822742462
vt 0.14133203029632568 0.6153953075408936
vt 0.07235728204250336 0.4309527277946472
vt 0.3443228006362915 0.26310569047927856
vt 0.31261470913887024 0.23169374465942383
vt 0.11397787183523178 0.5548775494098663
vt 0.14375264942646027 0.8791235014796257
vt 0.054984696209430695 0.7999999970197678
vt 0.054984696209430695 0.7999999970197678
vt 0.0212864950299263 0.9882280472666025
vt 0.0212864950299263 0.01953113079071045
vt 0.0694693997502327 0.01953113079071045
vt 0.0694693997502327 0.24652671813964844
vt 0.0212864950299263 0.24286514520645142
vt 0.054984696209430695 0.33593833446502686
vt 0.1114417314529419 0.40281379222869873
vt 0.15646040439605713 0.36117804050445557
vt 0.28816232085227966 0.4076082706451416
vt 0.3035937249660492 0.4964873194694519
vt 0.14492149651050568 0.527714341878891
vt 0.14133237302303314 0.6153952777385712
vt 0.07235728204250336 0.4309527277946472
vt 0.3443228006362915 0.26310569047927856
vt 0.31261470913887024 0.23169374465942383
vt 0.1139783263206482 0.5548775494098663
vt 0.054984696209430695 0.7999999970197678
vt 0.14375323057174683 0.8791235014796257
vt 0.0212864950299263 0.9882280472666025
vt 0.3627004027366638 0.28043824434280396
vt 0.5370759963989258 0.28043824434280396
vt 0.47646191716194153 0.6407922804355621
vt 0.481324166059494 0.17133378982543945
vt 0.4041876792907715 0.09313535690307617
vt 0.44124096632003784 0.9291042760014534
vt 0.3627004027366638 0.9286812171339989
vt 0.8844508528709412 0.05435425043106079
vt 0.713965654373169 0.3486369848251343
vt 0.672731339931488 0.29736942052841187
vt 0.7324021458625793 0.5853818356990814
vt 0.6542239785194397 0.4796357750892639
vt 0.6653076410293579 0.40450024604797363
vt 0.5908634662628174 0.429729700088501
vt 0.6177476048469543 0.3383641242980957
vt 0.5724515318870544 0.41896313428878784
vt 0.5930367112159729 0.6078159511089325
vt 0.5724515318870544 0.6557924747467041
vt 0.5724515318870544 0.9735629875212908
vt 0.0212864950299263 0.01953113079071045
vt 0.0694693997502327 0.24652671813964844
vt 0.0694693997502327 0.01953113079071045
vt 0.0212864950299263 0.24286514520645142
vt 0.054984696209430695 0.33593833446502686
vt 0.1114417314529419 0.40281379222869873
vt 0.15646040439605713 0.36117804050445557
vt 0.28816232085227966 0.4076082706451416
vt 0.3035937249660492 0.4964873194694519
vt 0.14512959122657776 0.5277979671955109
vt 0.14121726155281067 0.614578902721405
vt 0.07235728204250336 0.4309527277946472
vt 0.3443228006362915 0.26310569047927856
vt 0.31261470913887024 0.23169374465942383
vt 0.1139783263206482 0.5548775494098663
vt 0.14375323057174683 0.8791235014796257
vt 0.054984696209430695 0.7999999970197678
vt 0.0212864950299263 0.9882280472666025
vt 0.8844508528709412 0.05435425043106079
vt 0.672731339931488 0.29736942052841187
vt 0.713965654373169 0.3486369848251343
vt 0.7324021458625793 0.5853818356990814
vt 0.6542239785194397 0.4796357750892639
vt 0.6653076410293579 0.40450024604797363
vt 0.5908668637275696 0.4297342300415039
vt 0.6177476048469543 0.3383641242980957
vt 0.5724515318870544 0.41896313428878784
vt 0.593052327632904 0.6078252494335175
vt 0.5724515318870544 0.6557924747467041
vt 0.5724515318870544 0.9735629875212908
vt 0.0212864950299263 0.01953113079071045
vt 0.0694693997502327 0.24652671813964844
vt 0.0694693997502327 0.01953113079071045
vt 0.0212864950299263 0.24286514520645142
vt 0.054984696209430695 0.33593833446502686
vt 0.1114417314529419 0.40281379222869873
vt 0.15646040439605713 0.36117804050445557
vt 0.28816232085227966 0.4076082706451416
vt 0.3035937249660492 0.4964873194694519
vt 0.14512959122657776 0.5277979373931885
vt 0.14121688902378082 0.6145789623260498
vt 0.07235728204250336 0.4309527277946472
vt 0.3443228006362915 0.26310569047927856
vt 0.31261470913887024 0.23169374465942383
vt 0.11397787183523178 0.5548775494098663
vt 0.14375264942646027 0.8791235014796257
vt 0.054984696209430695 0.7999999970197678
vt 0.0212864950299263 0.9882280472666025
vt 0.5724515318870544 0.6557924747467041
vt 0.5724515318870544 0.9735629875212908
vt 0.7324021458625793 0.5853818356990814
vt 0.5930367112159729 0.6078159511089325
vt 0.6542239785194397 0.4796357750892639
vt 0.5724515318870544 0.41896313428878784
vt 0.5908647775650024 0.4297339916229248
vt 0.713965654373169 0.3486369848251343
vt 0.8844508528709412 0.05435425043106079
vt 0.672731339931488 0.29736942052841187
vt 0.6653076410293579 0.40450024604797363
vt 0.6177476048469543 0.3383641242980957
vt 0.3627004027366638 0.28043824434280396
vt 0.5370759963989258 0.28043824434280396
vt 0.4764605462551117 0.6407903730869293
vt 0.4813246428966522 0.17133378982543945
vt 0.4041876792907715 0.09313535690307617
vt 0.4412035346031189 0.9292774498462677
vt 0.3627004027366638 0.9286812171339989
vt 0.5724515318870544 0.6557924747467041
vt 0.7324021458625793 0.5853818356990814
vt 0.5724515318870544 0.9735629875212908
vt 0.593052327632904 0.6078252494335175
vt 0.6542239785194397 0.4796357750892639
vt 0.5724515318870544 0.41896313428878784
vt 0.5908612012863159 0.42972928285598755
vt 0.713965654373169 0.3486369848251343
vt 0.8844508528709412 0.05435425043106079
vt 0.672731339931488 0.29736942052841187
vt 0.6653076410293579 0.40450024604797363
vt 0.6177476048469543 0.3383641242980957
vt 0.481324166059494 0.17133378982543945
vt 0.3627004027366638 0.28043824434280396
vt 0.5370759963989258 0.28043824434280396
vt 0.4041876792907715 0.09313535690307617
vt 0.47646191716194153 0.6407922804355621
vt 0.44124096632003784 0.9291042760014534
vt 0.3627004027366638 0.9286812171339989
vt 0.4813246428966522 0.17133378982543945
vt 0.3627004027366638 0.28043824434280396
vt 0.5370759963989258 0.28043824434280396
vt 0.4041876792907715 0.09313535690307617
vt 0.4764605462551117 0.6407903730869293
vt 0.4412035346031189 0.9292774498462677
vt 0.3627004027366638 0.9286812171339989
vt 0.9046507477760315 0.040354371070861816
vt 0.9711775779724121 0.49348902702331543
vt 0.9046507477760315 0.49349379539489746
vt 0.9711775779724121 0.0403447151184082
vt 0.9711775779724121 0.9466332793235779
vt 0.9046507477760315 0.9466332793235779
vt 0.9046507477760315 0.04039424657821655
vt 0.9711775779724121 0.49348902702331543
vt 0.9046507477760315 0.4935137629508972
vt 0.9711775779724121 0.0403447151184082
vt 0.9711775779724121 0.9466332793235779
vt 0.9046507477760315 0.9466332793235779
vt 0.9711775779724121 0.49348902702331543
vt 0.9046507477760315 0.040354371070861816
vt 0.9046507477760315 0.49349379539489746
vt 0.9711775779724121 0.0403447151184082
vt 0.9711775779724121 0.9466332793235779
vt 0.9046507477760315 0.9466332793235779
vt 0.9711775779724121 0.49348902702331543
vt 0.9046507477760315 0.04039424657821655
vt 0.9046507477760315 0.4935137629508972
vt 0.9711775779724121 0.0403447151184082
vt 0.9711775779724121 0.9466332793235779
vt 0.9046507477760315 0.9466332793235779

g eff_wpn_ryle_01
s 1
usemtl eff_wpn_ryle_01
f 3/3/3 2/2/2 1/1/1 
f 4/4/4 1/1/1 2/2/2 
f 5/5/5 2/2/2 3/3/3 
f 5/5/5 6/6/6 2/2/2 
f 7/7/7 2/2/2 6/6/6 
f 7/7/7 6/6/6 8/8/8 
f 9/9/9 8/8/8 6/6/6 
f 9/9/9 6/6/6 10/10/10 
f 11/11/11 9/9/9 10/10/10 
f 12/12/12 10/10/10 6/6/6 
f 8/8/8 13/13/13 7/7/7 
f 14/14/14 7/7/7 13/13/13 
f 15/15/15 11/11/11 10/10/10 
f 9/9/9 11/11/11 16/16/16 
f 17/17/17 16/16/16 11/11/11 
f 5/5/5 3/3/3 18/18/18 
f 19/19/19 18/18/18 3/3/3 
f 20/20/20 1/1/1 4/4/4 
f 21/21/21 1/1/1 20/20/20 
f 21/21/21 20/20/20 22/22/22 
f 23/23/23 22/22/22 20/20/20 
f 24/24/24 22/22/22 23/23/23 
f 24/24/24 25/25/25 22/22/22 
f 26/26/26 22/22/22 25/25/25 
f 26/26/26 25/25/25 27/27/27 
f 28/28/28 27/27/27 25/25/25 
f 28/28/28 25/25/25 29/29/29 
f 30/30/30 28/28/28 29/29/29 
f 31/31/31 29/29/29 25/25/25 
f 27/27/27 32/32/32 26/26/26 
f 33/33/33 26/26/26 32/32/32 
f 34/34/34 30/30/30 29/29/29 
f 30/30/30 35/35/35 28/28/28 
f 36/36/36 28/28/28 35/35/35 
f 35/35/35 24/24/24 37/37/37 
f 23/23/23 37/37/37 24/24/24 
f 40/40/40 39/39/39 38/38/38 
f 39/39/39 41/41/41 38/38/38 
f 42/42/42 38/38/38 41/41/41 
f 40/40/40 38/38/38 43/43/43 
f 44/44/44 43/43/43 38/38/38 
f 47/47/47 46/46/46 45/45/45 
f 45/45/45 46/46/46 48/48/48 
f 48/48/48 46/46/46 49/49/49 
f 50/50/50 49/49/49 46/46/46 
f 49/49/49 50/50/50 51/51/51 
f 50/50/50 52/52/52 51/51/51 
f 51/51/51 52/52/52 53/53/53 
f 51/51/51 53/53/53 54/54/54 
f 49/49/49 54/54/54 48/48/48 
f 55/55/55 54/54/54 53/53/53 
f 56/56/56 54/54/54 55/55/55 
f 56/56/56 48/48/48 54/54/54 
f 59/59/59 58/58/58 57/57/57 
f 60/60/60 57/57/57 58/58/58 
f 58/58/58 61/61/61 60/60/60 
f 61/61/61 58/58/58 62/62/62 
f 63/63/63 62/62/62 58/58/58 
f 63/63/63 64/64/64 62/62/62 
f 65/65/65 62/62/62 64/64/64 
f 65/65/65 66/66/66 62/62/62 
f 65/65/65 67/67/67 66/66/66 
f 68/68/68 62/62/62 66/66/66 
f 64/64/64 63/63/63 69/69/69 
f 70/70/70 69/69/69 63/63/63 
f 67/67/67 71/71/71 66/66/66 
f 65/65/65 72/72/72 67/67/67 
f 73/73/73 67/67/67 72/72/72 
f 73/73/73 74/74/74 61/61/61 
f 60/60/60 61/61/61 74/74/74 
f 77/77/77 76/76/76 75/75/75 
f 77/77/77 75/75/75 78/78/78 
f 78/78/78 79/79/79 77/77/77 
f 80/80/80 77/77/77 79/79/79 
f 79/79/79 81/81/81 80/80/80 
f 80/80/80 81/81/81 82/82/82 
f 81/81/81 83/83/83 82/82/82 
f 81/81/81 84/84/84 83/83/83 
f 79/79/79 78/78/78 84/84/84 
f 85/85/85 83/83/83 84/84/84 
f 84/84/84 86/86/86 85/85/85 
f 86/86/86 84/84/84 78/78/78 
f 89/89/89 88/88/88 87/87/87 
f 90/90/90 87/87/87 88/88/88 
f 88/88/88 91/91/91 90/90/90 
f 91/91/91 88/88/88 92/92/92 
f 93/93/93 92/92/92 88/88/88 
f 93/93/93 94/94/94 92/92/92 
f 95/95/95 92/92/92 94/94/94 
f 95/95/95 96/96/96 92/92/92 
f 95/95/95 97/97/97 96/96/96 
f 98/98/98 92/92/92 96/96/96 
f 94/94/94 93/93/93 99/99/99 
f 100/100/100 99/99/99 93/93/93 
f 97/97/97 101/101/101 96/96/96 
f 95/95/95 102/102/102 97/97/97 
f 103/103/103 97/97/97 102/102/102 
f 90/90/90 91/91/91 104/104/104 
f 103/103/103 104/104/104 91/91/91 
f 107/107/107 106/106/106 105/105/105 
f 105/105/105 108/108/108 107/107/107 
f 109/109/109 107/107/107 108/108/108 
f 105/105/105 110/110/110 108/108/108 
f 111/111/111 108/108/108 110/110/110 
f 107/107/107 109/109/109 112/112/112 
f 112/112/112 113/113/113 107/107/107 
f 112/112/112 114/114/114 113/113/113 
f 115/115/115 112/112/112 109/109/109 
f 109/109/109 111/111/111 115/115/115 
f 111/111/111 110/110/110 116/116/116 
f 115/115/115 111/111/111 116/116/116 
f 119/119/119 118/118/118 117/117/117 
f 118/118/118 120/120/120 117/117/117 
f 121/121/121 117/117/117 120/120/120 
f 119/119/119 117/117/117 122/122/122 
f 123/123/123 122/122/122 117/117/117 
f 126/126/126 125/125/125 124/124/124 
f 124/124/124 125/125/125 127/127/127 
f 128/128/128 127/127/127 125/125/125 
f 124/124/124 127/127/127 129/129/129 
f 130/130/130 129/129/129 127/127/127 
f 125/125/125 131/131/131 128/128/128 
f 132/132/132 131/131/131 125/125/125 
f 133/133/133 131/131/131 132/132/132 
f 134/134/134 128/128/128 131/131/131 
f 128/128/128 134/134/134 130/130/130 
f 130/130/130 135/135/135 129/129/129 
f 134/134/134 135/135/135 130/130/130 
f 138/138/138 137/137/137 136/136/136 
f 139/139/139 136/136/136 137/137/137 
f 138/138/138 140/140/140 137/137/137 
f 140/140/140 141/141/141 137/137/137 
f 142/142/142 137/137/137 141/141/141 
f 145/145/145 144/144/144 143/143/143 
f 146/146/146 143/143/143 144/144/144 
f 145/145/145 147/147/147 144/144/144 
f 147/147/147 148/148/148 144/144/144 
f 149/149/149 144/144/144 148/148/148 
f 152/152/152 151/151/151 150/150/150 
f 153/153/153 150/150/150 151/151/151 
f 151/151/151 152/152/152 154/154/154 
f 155/155/155 154/154/154 152/152/152 
f 158/158/158 157/157/157 156/156/156 
f 159/159/159 156/156/156 157/157/157 
f 157/157/157 158/158/158 160/160/160 
f 161/161/161 160/160/160 158/158/158 
f 164/164/164 163/163/163 162/162/162 
f 165/165/165 162/162/162 163/163/163 
f 162/162/162 166/166/166 164/164/164 
f 167/167/167 164/164/164 166/166/166 
f 170/170/170 169/169/169 168/168/168 
f 171/171/171 168/168/168 169/169/169 
f 168/168/168 172/172/172 170/170/170 
f 173/173/173 170/170/170 172/172/172 

