v 0.1068124771118164 0.0003968167875427753 -0.05991903692483902
v 0.07754567265510559 0.07803633064031601 0.2836035192012787
v 0.07550035417079926 0.07599099725484848 -0.05991903692483902
v 0.10970500856637955 0.0003968451055698097 0.2836035192012787
v 0.07550035417079926 0.07599099725484848 -0.05991903692483902
v -9.382927237311378e-05 0.11019566655158997 0.2836035490036011
v -9.383088035974652e-05 0.10730310529470444 -0.05991903692483902
v 0.07754567265510559 0.07803633064031601 0.2836035192012787
v -9.383088035974652e-05 0.10730310529470444 -0.05991903692483902
v -0.07773330807685852 0.07803633064031601 0.2836035192012787
v -0.07568800449371338 0.07599099725484848 -0.05991903692483902
v -9.382927237311378e-05 0.11019566655158997 0.2836035490036011
v -0.07568800449371338 0.07599099725484848 -0.05991903692483902
v -0.10989264398813248 0.00039683550130575895 0.2836035192012787
v -0.10700012743473053 0.0003968074161093682 -0.05991903692483902
v -0.07773330807685852 0.07803633064031601 0.2836035192012787
v -0.10700012743473053 0.0003968074161093682 -0.05991903692483902
v -0.07773329317569733 -0.0772426649928093 0.2836035192012787
v -0.07568798214197159 -0.07519736886024475 -0.05991903692483902
v -0.10989264398813248 0.00039683550130575895 0.2836035192012787
v -0.07568798214197159 -0.07519736886024475 -0.05991903692483902
v -9.38231751206331e-05 -0.10940197110176086 0.2836035192012787
v -9.382491407450289e-05 -0.10650947690010071 -0.05991903692483902
v -0.07773329317569733 -0.0772426649928093 0.2836035192012787
v -9.382491407450289e-05 -0.10650947690010071 -0.05991903692483902
v 0.0775456577539444 -0.0772426649928093 0.2836035192012787
v 0.07550034672021866 -0.07519736886024475 -0.05991903692483902
v -9.38231751206331e-05 -0.10940197110176086 0.2836035192012787
v 0.07550034672021866 -0.07519736886024475 -0.05991903692483902
v 0.10970500856637955 0.0003968451055698097 0.2836035192012787
v 0.1068124771118164 0.0003968167875427753 -0.05991903692483902
v 0.0775456577539444 -0.0772426649928093 0.2836035192012787
v 0.10970500856637955 0.0003968451055698097 0.2836035192012787
v 0.055315326899290085 0.05580597743391991 0.35507628321647644
v 0.07754567265510559 0.07803633064031601 0.2836035192012787
v 0.07826655358076096 0.0003968322416767478 0.35507628321647644
v -9.382015559822321e-05 0.07875719666481018 0.35507628321647644
v -9.382927237311378e-05 0.11019566655158997 0.2836035490036011
v -9.382535790791735e-05 0.02061026357114315 0.43232235312461853
v 0.020119590684771538 0.0003968451055698097 0.43232235312461853
v -9.382927237311378e-05 0.11019566655158997 0.2836035490036011
v -0.05550296604633331 0.05580597743391991 0.35507628321647644
v -0.07773330807685852 0.07803633064031601 0.2836035192012787
v -9.382015559822321e-05 0.07875719666481018 0.35507628321647644
v -0.07845418155193329 0.0003968254313804209 0.35507628321647644
v -0.10989264398813248 0.00039683550130575895 0.2836035192012787
v -0.02030724287033081 0.00039684335933998227 0.43232235312461853
v -9.382535790791735e-05 0.02061026357114315 0.43232235312461853
v -0.10989264398813248 0.00039683550130575895 0.2836035192012787
v -0.055502958595752716 -0.05501231923699379 0.35507628321647644
v -0.07773329317569733 -0.0772426649928093 0.2836035192012787
v -0.07845418155193329 0.0003968254313804209 0.35507628321647644
v -9.381578274769709e-05 -0.07796353846788406 0.35507628321647644
v -9.38231751206331e-05 -0.10940197110176086 0.2836035192012787
v 0.055315326899290085 -0.05501231923699379 0.35507628321647644
v 0.0775456577539444 -0.0772426649928093 0.2836035192012787
v 0.07826655358076096 0.0003968322416767478 0.35507628321647644
v 0.10970500856637955 0.0003968451055698097 0.2836035192012787
v -9.382424468640238e-05 -0.019816571846604347 0.43232235312461853
v 0.020119590684771538 0.0003968451055698097 0.43232235312461853
v -9.382424468640238e-05 -0.019816571846604347 0.43232235312461853
v -0.02030724287033081 0.00039684335933998227 0.43232235312461853
v -9.382424468640238e-05 -0.019816571846604347 0.43232235312461853
v 0.020119590684771538 0.0003968451055698097 0.43232235312461853
v -9.382572170579806e-05 0.02902607060968876 0.4475616216659546
v -9.382535790791735e-05 0.02061026357114315 0.43232235312461853
v 0.028535403311252594 0.0003968451055698097 0.4475616216659546
v -9.382447751704603e-05 0.0003968451055698097 0.5433604717254639
v -9.382535790791735e-05 0.02061026357114315 0.43232235312461853
v -0.028723053634166718 0.0003968426026403904 0.4475616216659546
v -0.02030724287033081 0.00039684335933998227 0.43232235312461853
v -9.382572170579806e-05 0.02902607060968876 0.4475616216659546
v -9.382447751704603e-05 0.0003968451055698097 0.5433604717254639
v -0.02030724287033081 0.00039684335933998227 0.43232235312461853
v -9.382413554703817e-05 -0.028232382610440254 0.4475616216659546
v -9.382424468640238e-05 -0.019816571846604347 0.43232235312461853
v -0.028723053634166718 0.0003968426026403904 0.4475616216659546
v -9.382447751704603e-05 0.0003968451055698097 0.5433604717254639
v -9.382424468640238e-05 -0.019816571846604347 0.43232235312461853
v 0.028535403311252594 0.0003968451055698097 0.4475616216659546
v 0.020119590684771538 0.0003968451055698097 0.43232235312461853
v -9.382413554703817e-05 -0.028232382610440254 0.4475616216659546
v -9.382447751704603e-05 0.0003968451055698097 0.5433604717254639
v 0.04145768657326698 0.00039693331927992404 -0.07182617485523224
v -9.380903793498874e-05 -0.05845442786812782 -0.10315261781215668
v -9.380826668348163e-05 -0.041154563426971436 -0.07182617485523224
v 0.058757562190294266 0.00039693605503998697 -0.10315261781215668
v -9.380647679790854e-05 0.00039695328450761735 -0.22779101133346558
v -9.380826668348163e-05 -0.041154563426971436 -0.07182617485523224
v -0.058945171535015106 0.00039694117731414735 -0.10315261781215668
v -0.04164531081914902 0.00039693692815490067 -0.07182617485523224
v -9.380903793498874e-05 -0.05845442786812782 -0.10315261781215668
v -9.380647679790854e-05 0.00039695328450761735 -0.22779101133346558
v -0.04164531081914902 0.00039693692815490067 -0.07182617485523224
v -9.380580740980804e-05 0.05924830958247185 -0.10315261781215668
v -9.380600386066362e-05 0.04194843769073486 -0.07182617485523224
v -0.058945171535015106 0.00039694117731414735 -0.10315261781215668
v -9.380647679790854e-05 0.00039695328450761735 -0.22779101133346558
v -9.380600386066362e-05 0.04194843769073486 -0.07182617485523224
v 0.058757562190294266 0.00039693605503998697 -0.10315261781215668
v 0.04145768657326698 0.00039693331927992404 -0.07182617485523224
v -9.380580740980804e-05 0.05924830958247185 -0.10315261781215668
v -9.380647679790854e-05 0.00039695328450761735 -0.22779101133346558
vn 0.9999645948410034 0.0 -0.008419875986874104
vn 0.6939268112182617 0.6939268112182617 0.19217480719089508
vn 0.70708167552948 0.70708167552948 -0.008419922553002834
vn 0.9813607335090637 0.0 0.1921747773885727
vn 0.70708167552948 0.70708167552948 -0.008419922553002834
vn -0.0 0.9813607335090637 0.19217492640018463
vn -1.1783937026166313e-07 0.9999645948410034 -0.008419949561357498
vn 0.6939268112182617 0.6939268112182617 0.19217480719089508
vn -1.1783937026166313e-07 0.9999645948410034 -0.008419949561357498
vn -0.6939268112182617 0.6939267516136169 0.19217480719089508
vn -0.7070817351341248 0.7070817351341248 -0.008419892750680447
vn -0.0 0.9813607335090637 0.19217492640018463
vn -0.7070817351341248 0.7070817351341248 -0.008419892750680447
vn -0.9813607335090637 0.0 0.19217482209205627
vn -0.9999645948410034 -2.2799360976932803e-07 -0.008419863879680634
vn -0.6939268112182617 0.6939267516136169 0.19217480719089508
vn -0.9999645948410034 -2.2799360976932803e-07 -0.008419863879680634
vn -0.6939266920089722 -0.6939268708229065 0.1921747624874115
vn -0.7070815563201904 -0.7070819139480591 -0.008419814519584179
vn -0.9813607335090637 0.0 0.19217482209205627
vn -0.7070815563201904 -0.7070819139480591 -0.008419814519584179
vn -0.0 -0.9813607335090637 0.19217468798160553
vn -0.0 -0.9999645948410034 -0.008419802412390709
vn -0.6939266920089722 -0.6939268708229065 0.1921747624874115
vn -0.0 -0.9999645948410034 -0.008419802412390709
vn 0.6939266920089722 -0.6939269304275513 0.1921747475862503
vn 0.7070817351341248 -0.7070817351341248 -0.008419834077358246
vn -0.0 -0.9813607335090637 0.19217468798160553
vn 0.7070817351341248 -0.7070817351341248 -0.008419834077358246
vn 0.9813607335090637 0.0 0.1921747773885727
vn 0.9999645948410034 0.0 -0.008419875986874104
vn 0.6939266920089722 -0.6939269304275513 0.1921747475862503
vn 0.9813607335090637 0.0 0.1921747773885727
vn 0.6142187714576721 0.6142188310623169 0.4954499900341034
vn 0.6939268112182617 0.6939268112182617 0.19217480719089508
vn 0.8697733283042908 0.0 0.49345162510871887
vn -0.0 0.8697732090950012 0.49345171451568604
vn -0.0 0.9813607335090637 0.19217492640018463
vn -0.0 0.9755879044532776 0.21960929036140442
vn 0.9755879044532776 0.0 0.21960920095443726
vn -0.0 0.9813607335090637 0.19217492640018463
vn -0.6142188310623169 0.6142187714576721 0.4954499900341034
vn -0.6939268112182617 0.6939267516136169 0.19217480719089508
vn -0.0 0.8697732090950012 0.49345171451568604
vn -0.8697733283042908 -1.0401181782526692e-07 0.49345162510871887
vn -0.9813607335090637 0.0 0.19217482209205627
vn -0.9755880236625671 0.0 0.21960914134979248
vn -0.0 0.9755879044532776 0.21960929036140442
vn -0.9813607335090637 0.0 0.19217482209205627
vn -0.6142187714576721 -0.6142188310623169 0.4954499900341034
vn -0.6939266920089722 -0.6939268708229065 0.1921747624874115
vn -0.8697733283042908 -1.0401181782526692e-07 0.49345162510871887
vn -0.0 -0.8697733283042908 0.4934515058994293
vn -0.0 -0.9813607335090637 0.19217468798160553
vn 0.6142187714576721 -0.6142188310623169 0.4954499900341034
vn 0.6939266920089722 -0.6939269304275513 0.1921747475862503
vn 0.8697733283042908 0.0 0.49345162510871887
vn 0.9813607335090637 0.0 0.1921747773885727
vn -0.0 -0.9755879044532776 0.21960920095443726
vn 0.9755879044532776 0.0 0.21960920095443726
vn -0.0 -0.9755879044532776 0.21960920095443726
vn -0.9755880236625671 0.0 0.21960914134979248
vn -0.0 -0.9755879044532776 0.21960920095443726
vn 0.9755879044532776 0.0 0.21960920095443726
vn -0.0 0.9957524538040161 -0.09207101911306381
vn -0.0 0.9755879044532776 0.21960929036140442
vn 0.9957524538040161 1.0171521580559784e-07 -0.09207116067409515
vn 0.691828727722168 0.691828727722168 0.20675115287303925
vn -0.0 0.9755879044532776 0.21960929036140442
vn -0.9957524538040161 -1.0171521580559784e-07 -0.09207108616828918
vn -0.9755880236625671 0.0 0.21960914134979248
vn -0.0 0.9957524538040161 -0.09207101911306381
vn -0.691828727722168 0.691828727722168 0.20675118267536163
vn -0.9755880236625671 0.0 0.21960914134979248
vn -0.0 -0.9957524538040161 -0.09207111597061157
vn -0.0 -0.9755879044532776 0.21960920095443726
vn -0.9957524538040161 -1.0171521580559784e-07 -0.09207108616828918
vn -0.691828727722168 -0.691828727722168 0.20675118267536163
vn -0.0 -0.9755879044532776 0.21960920095443726
vn 0.9957524538040161 1.0171521580559784e-07 -0.09207116067409515
vn 0.9755879044532776 0.0 0.21960920095443726
vn -0.0 -0.9957524538040161 -0.09207111597061157
vn 0.691828727722168 -0.691828727722168 0.20675118267536163
vn 0.8753847479820251 -2.475927942668932e-07 0.48342692852020264
vn -0.0 -0.9996435642242432 0.026698797941207886
vn -0.0 -0.8753848075866699 0.48342660069465637
vn 0.9996435642242432 -1.802621625301981e-07 0.0266988817602396
vn 0.6707103252410889 -0.6707105040550232 -0.3166940212249756
vn -0.0 -0.8753848075866699 0.48342660069465637
vn -0.9996435642242432 0.0 0.02669881097972393
vn -0.8753849267959595 0.0 0.4834265410900116
vn -0.0 -0.9996435642242432 0.026698797941207886
vn -0.6707105040550232 -0.6707103252410889 -0.3166940212249756
vn -0.8753849267959595 0.0 0.4834265410900116
vn -0.0 0.9996435642242432 0.026698950678110123
vn -0.0 0.8753847479820251 0.48342692852020264
vn -0.9996435642242432 0.0 0.02669881097972393
vn -0.6707103848457336 0.6707103848457336 -0.3166937828063965
vn -0.0 0.8753847479820251 0.48342692852020264
vn 0.9996435642242432 -1.802621625301981e-07 0.0266988817602396
vn 0.8753847479820251 -2.475927942668932e-07 0.48342692852020264
vn -0.0 0.9996435642242432 0.026698950678110123
vn 0.6707104444503784 0.6707103848457336 -0.31669387221336365
vt 0.7192462682723999 0.6819092631340027
vt 0.7494726181030273 0.5943463742733002
vt 0.7494726181030273 0.6819092631340027
vt 0.7192462682723999 0.5943463742733002
vt 0.7494726181030273 0.5943463742733002
vt 0.7192462682723999 0.6819092631340027
vt 0.7192462682723999 0.5943463742733002
vt 0.7494726181030273 0.6819092631340027
vt 0.7192462682723999 0.6819092631340027
vt 0.7494726181030273 0.5943463742733002
vt 0.7494726181030273 0.6819092631340027
vt 0.7192462682723999 0.5943463742733002
vt 0.7192462682723999 0.6819092631340027
vt 0.7494726181030273 0.5943463742733002
vt 0.7494726181030273 0.6819092631340027
vt 0.7192462682723999 0.5943463742733002
vt 0.7192462682723999 0.6819092631340027
vt 0.7494726181030273 0.5943463742733002
vt 0.7494726181030273 0.6819092631340027
vt 0.7192462682723999 0.5943463742733002
vt 0.7494726181030273 0.5943463742733002
vt 0.7192462682723999 0.6819092631340027
vt 0.7192462682723999 0.5943463742733002
vt 0.7494726181030273 0.6819092631340027
vt 0.7192462682723999 0.6819092631340027
vt 0.7494726181030273 0.5943463742733002
vt 0.7494726181030273 0.6819092631340027
vt 0.7192462682723999 0.5943463742733002
vt 0.7192462682723999 0.6819092631340027
vt 0.7494726181030273 0.5943463742733002
vt 0.7494726181030273 0.6819092631340027
vt 0.7192462682723999 0.5943463742733002
vt 0.9083389639854431 0.8945653736591339
vt 0.9414975643157959 0.8547399640083313
vt 0.9293270707130432 0.8945750370621681
vt 0.9312164783477783 0.8547353148460388
vt 0.9531942009925842 0.854751318693161
vt 0.9531691074371338 0.8945981934666634
vt 0.9532192945480347 0.814904510974884
vt 0.9449945688247681 0.8148984611034393
vt 0.9531691074371338 0.8945981934666634
vt 0.9648908376693726 0.8547626733779907
vt 0.9770110249519348 0.894621342420578
vt 0.9531942009925842 0.854751318693161
vt 0.9752171039581299 0.8547674119472504
vt 0.9980279803276062 0.8946309462189674
vt 0.9615057706832886 0.8149104416370392
vt 0.9532192945480347 0.814904510974884
vt 0.9082224369049072 0.8945624753832817
vt 0.9414100646972656 0.8547370433807373
vt 0.9292395710945129 0.8945720717310905
vt 0.9311001300811768 0.8547322750091553
vt 0.953106701374054 0.8547484278678894
vt 0.953081488609314 0.8945952281355858
vt 0.9648032188415527 0.8547597229480743
vt 0.9769235253334045 0.8946184515953064
vt 0.9751006960868835 0.8547645211219788
vt 0.9979115724563599 0.8946280553936958
vt 0.953131914138794 0.8149015307426453
vt 0.9613894820213318 0.8149076104164124
vt 0.953131914138794 0.8149015307426453
vt 0.9448781609535217 0.8148954808712006
vt 0.953131914138794 0.8149015307426453
vt 0.9333366751670837 0.8177609741687775
vt 0.9251083731651306 0.8235696852207184
vt 0.9251120090484619 0.8177548944950104
vt 0.9367691874504089 0.823578268289566
vt 0.925085186958313 0.8601233065128326
vt 0.9251120090484619 0.8177548944950104
vt 0.9133832454681396 0.8235611319541931
vt 0.9168253540992737 0.8177489042282104
vt 0.9251083731651306 0.8235696852207184
vt 0.925085186958313 0.8601233065128326
vt 0.9334531426429749 0.8177638649940491
vt 0.9251957535743713 0.82357257604599
vt 0.9251993894577026 0.8177578151226044
vt 0.936885416507721 0.8235810995101929
vt 0.9251726865768433 0.8601262867450714
vt 0.9251993894577026 0.8177578151226044
vt 0.9134995937347412 0.8235641121864319
vt 0.9169416427612305 0.8177517652511597
vt 0.9251957535743713 0.82357257604599
vt 0.9251726865768433 0.8601262867450714
vt 0.9333366751670837 0.8177609741687775
vt 0.9251083731651306 0.8235696852207184
vt 0.9251120090484619 0.8177548944950104
vt 0.9367691874504089 0.823578268289566
vt 0.925085186958313 0.8601233065128326
vt 0.9251120090484619 0.8177548944950104
vt 0.9133832454681396 0.8235611319541931
vt 0.9168253540992737 0.8177489042282104
vt 0.9251083731651306 0.8235696852207184
vt 0.925085186958313 0.8601233065128326
vt 0.9334531426429749 0.8177638649940491
vt 0.9251957535743713 0.82357257604599
vt 0.9251993894577026 0.8177578151226044
vt 0.936885416507721 0.8235810995101929
vt 0.9251726865768433 0.8601262867450714
vt 0.9251993894577026 0.8177578151226044
vt 0.9134995937347412 0.8235641121864319
vt 0.9169416427612305 0.8177517652511597
vt 0.9251957535743713 0.82357257604599
vt 0.9251726865768433 0.8601262867450714

g bg_mdl_map_light02
s 1
usemtl bg_mdl_map_light02
f 3/3/3 2/2/2 1/1/1 
f 4/4/4 1/1/1 2/2/2 
f 7/7/7 6/6/6 5/5/5 
f 8/8/8 5/5/5 6/6/6 
f 11/11/11 10/10/10 9/9/9 
f 12/12/12 9/9/9 10/10/10 
f 15/15/15 14/14/14 13/13/13 
f 16/16/16 13/13/13 14/14/14 
f 19/19/19 18/18/18 17/17/17 
f 20/20/20 17/17/17 18/18/18 
f 23/23/23 22/22/22 21/21/21 
f 24/24/24 21/21/21 22/22/22 
f 27/27/27 26/26/26 25/25/25 
f 28/28/28 25/25/25 26/26/26 
f 31/31/31 30/30/30 29/29/29 
f 32/32/32 29/29/29 30/30/30 
f 35/35/35 34/34/34 33/33/33 
f 36/36/36 33/33/33 34/34/34 
f 34/34/34 35/35/35 37/37/37 
f 38/38/38 37/37/37 35/35/35 
f 37/37/37 39/39/39 34/34/34 
f 40/40/40 34/34/34 39/39/39 
f 36/36/36 34/34/34 40/40/40 
f 43/43/43 42/42/42 41/41/41 
f 44/44/44 41/41/41 42/42/42 
f 42/42/42 43/43/43 45/45/45 
f 46/46/46 45/45/45 43/43/43 
f 45/45/45 47/47/47 42/42/42 
f 48/48/48 42/42/42 47/47/47 
f 44/44/44 42/42/42 48/48/48 
f 51/51/51 50/50/50 49/49/49 
f 52/52/52 49/49/49 50/50/50 
f 50/50/50 51/51/51 53/53/53 
f 54/54/54 53/53/53 51/51/51 
f 53/53/53 54/54/54 55/55/55 
f 56/56/56 55/55/55 54/54/54 
f 55/55/55 56/56/56 57/57/57 
f 58/58/58 57/57/57 56/56/56 
f 53/53/53 59/59/59 50/50/50 
f 53/53/53 55/55/55 59/59/59 
f 57/57/57 60/60/60 55/55/55 
f 61/61/61 55/55/55 60/60/60 
f 52/52/52 50/50/50 62/62/62 
f 62/62/62 50/50/50 63/63/63 
f 66/66/66 65/65/65 64/64/64 
f 67/67/67 64/64/64 65/65/65 
f 65/65/65 68/68/68 67/67/67 
f 71/71/71 70/70/70 69/69/69 
f 72/72/72 69/69/69 70/70/70 
f 70/70/70 73/73/73 72/72/72 
f 76/76/76 75/75/75 74/74/74 
f 77/77/77 74/74/74 75/75/75 
f 75/75/75 78/78/78 77/77/77 
f 81/81/81 80/80/80 79/79/79 
f 82/82/82 79/79/79 80/80/80 
f 80/80/80 83/83/83 82/82/82 
f 86/86/86 85/85/85 84/84/84 
f 87/87/87 84/84/84 85/85/85 
f 85/85/85 88/88/88 87/87/87 
f 91/91/91 90/90/90 89/89/89 
f 92/92/92 89/89/89 90/90/90 
f 90/90/90 93/93/93 92/92/92 
f 96/96/96 95/95/95 94/94/94 
f 97/97/97 94/94/94 95/95/95 
f 95/95/95 98/98/98 97/97/97 
f 101/101/101 100/100/100 99/99/99 
f 102/102/102 99/99/99 100/100/100 
f 100/100/100 103/103/103 102/102/102 

