v -0.2534114718437195 -1.231585855521189e-07 1.469052506308799e-07
v 0.2515188455581665 -1.231585855521189e-07 1.469052506308799e-07
v -0.2534114718437195 -0.030765237286686897 0.030765261501073837
v 0.19350142776966095 -0.030765237286686897 0.030765261501073837
v -0.2534114718437195 0.030764993280172348 -0.03076496534049511
v 0.19350142776966095 0.030764993280172348 -0.03076496534049511
v -0.2534114718437195 1.2296230522679252e-07 1.4690527905258932e-07
v -0.2534114718437195 0.03076523169875145 0.030765265226364136
v 0.2515188455581665 1.2296230522679252e-07 1.4690527905258932e-07
v 0.19350142776966095 0.03076523169875145 0.030765265226364136
v -0.2534114718437195 -0.03076498955488205 -0.030764970928430557
v 0.19350142776966095 -0.03076498955488205 -0.030764970928430557
vn -0.0 0.7071067690849304 0.7071067690849304
vn -0.0 0.7071067690849304 0.7071067690849304
vn -0.0 0.7071067690849304 0.7071067690849304
vn -0.0 0.7071067690849304 0.7071067690849304
vn -0.0 0.7071066498756409 0.7071068286895752
vn -0.0 0.7071066498756409 0.7071068286895752
vn -0.0 -0.7071069478988647 0.7071065902709961
vn -0.0 -0.70710688829422 0.7071066498756409
vn -0.0 -0.70710688829422 0.7071066498756409
vn -0.0 -0.70710688829422 0.7071066498756409
vn -0.0 -0.7071068286895752 0.7071066498756409
vn -0.0 -0.7071068286895752 0.7071066498756409
vt 0.0 0.10922205448150635
vt 1.0 0.10922205448150635
vt 0.0 1.0
vt 1.0 1.0
vt 0.0 1.0
vt 1.0 1.0
vt 0.0 0.10922205448150635
vt 0.0 1.0
vt 1.0 0.10922205448150635
vt 1.0 1.0
vt 0.0 1.0
vt 1.0 1.0

g eff_mdl_slash03_01
s 1
usemtl eff_mdl_slash03_01
f 3/3/3 2/2/2 1/1/1 
f 2/2/2 3/3/3 4/4/4 
f 2/2/2 5/5/5 1/1/1 
f 5/5/5 2/2/2 6/6/6 
f 9/9/9 8/8/8 7/7/7 
f 8/8/8 9/9/9 10/10/10 
f 11/11/11 9/9/9 7/7/7 
f 9/9/9 11/11/11 12/12/12 

