v -7.629394360719743e-08 0.46105679869651794 1.2488923072814941
v -0.09750182926654816 0.4901747703552246 1.1490581035614014
v -7.629394360719743e-08 0.4997778832912445 1.1490578651428223
v -0.08994773775339127 0.452197790145874 1.2488921880722046
v -0.19125667214393616 0.4617345333099365 1.1490581035614014
v -0.1764388233423233 0.4259609878063202 1.2488923072814941
v -0.27766165137290955 0.4155501425266266 1.149058222770691
v -0.25614944100379944 0.38335487246513367 1.2488923072814941
v -0.35339629650115967 0.35339635610580444 1.1490578651428223
v -0.32601645588874817 0.32601645588874817 1.2488923072814941
v -0.4155501127243042 0.2776617407798767 1.1490583419799805
v -0.3833548128604889 0.25614944100379944 1.2488923072814941
v -0.4617345333099365 0.1912565529346466 1.149058222770691
v -0.42596107721328735 0.17643874883651733 1.2488923072814941
v -0.4901747405529022 0.09750167280435562 1.1490581035614014
v -0.4521978199481964 0.08994758129119873 1.2488921880722046
v -0.49977782368659973 -1.5258788721439487e-07 1.149058222770691
v -0.4610568881034851 -1.5258788721439487e-07 1.2488923072814941
v -0.49017471075057983 -0.0975019782781601 1.1490581035614014
v -0.452197790145874 -0.08994796872138977 1.2488923072814941
v -0.4617343842983246 -0.19125694036483765 1.1490578651428223
v -0.4259609580039978 -0.1764390915632248 1.2488923072814941
v -0.4155499041080475 -0.27766191959381104 1.1490581035614014
v -0.38335463404655457 -0.2561497092247009 1.2488923072814941
v -0.35339605808258057 -0.35339653491973877 1.149058222770691
v -0.32601630687713623 -0.32601672410964966 1.2488923072814941
v -0.27766144275665283 -0.41555026173591614 1.149058222770691
v -0.25614920258522034 -0.3833550214767456 1.2488923072814941
v -0.19125628471374512 -0.4617346227169037 1.149058222770691
v -0.17643852531909943 -0.4259612262248993 1.2488923072814941
v -0.09750141203403473 -0.4901747703552246 1.1490581035614014
v -0.08994735777378082 -0.4521978795528412 1.2488925457000732
v 4.577636616431846e-07 -0.49977782368659973 1.1490581035614014
v 3.8146970382513246e-07 -0.4610569179058075 1.2488923072814941
v 0.09750228375196457 -0.49017462134361267 1.1490578651428223
v 0.08994819223880768 -0.452197790145874 1.2488923072814941
v 0.19125716388225555 -0.46173426508903503 1.1490581035614014
v 0.17643935978412628 -0.42596083879470825 1.2488921880722046
v 0.2776621878147125 -0.41554972529411316 1.1490578651428223
v 0.2561499774456024 -0.3833544850349426 1.2488923072814941
v 0.3533966839313507 -0.35339587926864624 1.1490581035614014
v 0.3260168433189392 -0.32601603865623474 1.2488923072814941
v 0.4155505299568176 -0.27766117453575134 1.1490581035614014
v 0.3833550810813904 -0.2561489939689636 1.2488923072814941
v 0.4617347717285156 -0.1912560611963272 1.1490581035614014
v 0.42596128582954407 -0.17643816769123077 1.2488923072814941
v 0.4901747703552246 -0.09750106930732727 1.1490578651428223
v 0.452197790145874 -0.08994712680578232 1.2488923072814941
v 0.4997778832912445 8.392333938900265e-07 1.1490581035614014
v 0.46105679869651794 7.629394076502649e-07 1.2488923072814941
v 0.4901745617389679 0.09750267118215561 1.1490581035614014
v 0.4521976411342621 0.08994842320680618 1.2488923072814941
v 0.4617341458797455 0.19125762581825256 1.149058222770691
v 0.4259606897830963 0.17643950879573822 1.2488923072814941
v 0.41554954648017883 0.2776624262332916 1.1490578651428223
v 0.3833543360233307 0.2561502158641815 1.2488923072814941
v 0.35339561104774475 0.3533969819545746 1.149058222770691
v 0.32601577043533325 0.326016902923584 1.2488923072814941
v 0.27766090631484985 0.4155505895614624 1.1490578651428223
v 0.25614866614341736 0.3833553194999695 1.2488923072814941
v 0.19125571846961975 0.46173498034477234 1.1490578651428223
v 0.17643806338310242 0.425961434841156 1.2488923072814941
v 0.0975007638335228 0.49017491936683655 1.1490578651428223
v 0.08994674682617188 0.45219793915748596 1.2488923072814941
v -7.629394360719743e-08 0.4997778832912445 1.1490578651428223
v -7.629394360719743e-08 0.46105679869651794 1.2488923072814941
v -7.629394360719743e-08 0.6914471983909607 0.9286211729049683
v -0.1352388709783554 0.6798918843269348 0.8360377550125122
v -7.629394360719743e-08 0.6932117342948914 0.8360375761985779
v -0.1348947137594223 0.6781613826751709 0.9286211729049683
v -0.2652806043624878 0.6404442191123962 0.8360377550125122
v -0.26460540294647217 0.6388139724731445 0.9286211729049683
v -0.3851277828216553 0.576384425163269 0.8360375761985779
v -0.3841475546360016 0.5749174356460571 0.9286211729049683
v -0.49017471075057983 0.4901747703552246 0.8360377550125122
v -0.48892706632614136 0.4889269769191742 0.9286210536956787
v -0.5763845443725586 0.3851276934146881 0.8360377550125122
v -0.5749174952507019 0.3841474950313568 0.9286208748817444
v -0.6404441595077515 0.26528051495552063 0.8360378742218018
v -0.6388141512870789 0.26460540294647217 0.9286210536956787
v -0.6798918843269348 0.13523872196674347 0.8360377550125122
v -0.6781614422798157 0.13489456474781036 0.9286211729049683
v -0.6932117342948914 -1.5258788721439487e-07 0.8360375761985779
v -0.691447377204895 -2.288818308215923e-07 0.9286211729049683
v -0.67989182472229 -0.13523921370506287 0.8360377550125122
v -0.6781613826751709 -0.1348949819803238 0.9286210536956787
v -0.6404440402984619 -0.26528093218803406 0.8360375761985779
v -0.6388139724731445 -0.26460573077201843 0.9286210536956787
v -0.5763842463493347 -0.3851281702518463 0.8360373973846436
v -0.5749172568321228 -0.3841479420661926 0.9286210536956787
v -0.49017438292503357 -0.4901750981807709 0.8360378742218018
v -0.48892682790756226 -0.4889275133609772 0.9286210536956787
v -0.38512739539146423 -0.5763847827911377 0.8360377550125122
v -0.38414716720581055 -0.5749177932739258 0.9286211729049683
v -0.2652800977230072 -0.6404443383216858 0.8360377550125122
v -0.2646048963069916 -0.638814389705658 0.9286211729049683
v -0.13523830473423004 -0.6798919439315796 0.8360377550125122
v -0.13489405810832977 -0.6781615018844604 0.9286211729049683
v 6.866454782539222e-07 -0.6932117342948914 0.8360375761985779
v 6.866454782539222e-07 -0.691447377204895 0.9286210536956787
v 0.1352396309375763 -0.6798917055130005 0.8360377550125122
v 0.13489554822444916 -0.6781613230705261 0.9286210536956787
v 0.2652813792228699 -0.6404438018798828 0.8360375761985779
v 0.26460617780685425 -0.638813853263855 0.9286210536956787
v 0.38512861728668213 -0.5763840079307556 0.8360377550125122
v 0.3841482400894165 -0.5749170780181885 0.9286213517189026
v 0.4901753067970276 -0.4901740849018097 0.8360375761985779
v 0.4889276921749115 -0.4889265298843384 0.9286211729049683
v 0.5763850212097168 -0.3851270079612732 0.8360377550125122
v 0.5749177932739258 -0.3841468095779419 0.9286210536956787
v 0.6404445767402649 -0.26527974009513855 0.8360377550125122
v 0.6388144493103027 -0.2646045386791229 0.9286211729049683
v 0.6798920035362244 -0.13523784279823303 0.8360378742218018
v 0.6781615018844604 -0.13489368557929993 0.9286211729049683
v 0.6932117342948914 1.0681152389224735e-06 0.8360377550125122
v 0.6914471983909607 1.0681152389224735e-06 0.9286211729049683
v 0.6798915863037109 0.13524001836776733 0.8360375761985779
v 0.6781612038612366 0.13489586114883423 0.9286211729049683
v 0.6404436230659485 0.2652818262577057 0.8360375761985779
v 0.6388135552406311 0.2646065354347229 0.9286210536956787
v 0.5763838291168213 0.38512885570526123 0.8360377550125122
v 0.5749168395996094 0.3841485381126404 0.9286211729049683
v 0.4901737868785858 0.4901755452156067 0.8360377550125122
v 0.48892608284950256 0.4889279007911682 0.9286211729049683
v 0.3851265609264374 0.5763852596282959 0.8360377550125122
v 0.3841463327407837 0.5749180316925049 0.9286211729049683
v 0.26527929306030273 0.6404446959495544 0.8360378742218018
v 0.2646041810512543 0.6388144493103027 0.9286211729049683
v 0.1352374255657196 0.6798921823501587 0.8360377550125122
v 0.13489317893981934 0.6781616806983948 0.9286210536956787
v -7.629394360719743e-08 0.6932117342948914 0.8360375761985779
v -7.629394360719743e-08 0.6914471983909607 0.9286211729049683
v -0.0 0.6529912352561951 0.4853760302066803
v -0.12574245035648346 0.6321496963500977 0.3481539785861969
v -7.629394360719743e-08 0.6445343494415283 0.3481539785861969
v -0.1273922324180603 0.6404442191123962 0.4853762090206146
v -0.24665255844593048 0.5954721570014954 0.3481539189815521
v -0.24988894164562225 0.6032852530479431 0.4853762090206146
v -0.3580840528011322 0.5359106063842773 0.34815382957458496
v -0.36278247833251953 0.5429424047470093 0.4853760302066803
v -0.4557546079158783 0.4557546079158783 0.3481539785861969
v -0.4617345333099365 0.46173444390296936 0.4853760302066803
v -0.5359107255935669 0.35808393359184265 0.3481539189815521
v -0.5429424047470093 0.3627825081348419 0.4853762090206146
v -0.5954721570014954 0.24665243923664093 0.34815406799316406
v -0.6032853126525879 0.2498888373374939 0.48537611961364746
v -0.6321498155593872 0.125742107629776 0.3481539785861969
v -0.6404442191123962 0.12739203870296478 0.48537611961364746
v -0.6445343494415283 -3.0517577442878974e-07 0.3481539785861969
v -0.6529912352561951 -2.288818308215923e-07 0.4853760302066803
v -0.6321497559547424 -0.12574276328086853 0.3481539785861969
v -0.6404441595077515 -0.1273925006389618 0.4853762686252594
v -0.5954719185829163 -0.24665294587612152 0.3481539189815521
v -0.6032850742340088 -0.24988920986652374 0.48537611961364746
v -0.5359105467796326 -0.35808441042900085 0.3481539189815521
v -0.5429421663284302 -0.3627827763557434 0.48537611961364746
v -0.4557543396949768 -0.4557548761367798 0.3481539785861969
v -0.46173426508903503 -0.461734801530838 0.48537611961364746
v -0.35808372497558594 -0.535910964012146 0.3481539785861969
v -0.3627821207046509 -0.5429425835609436 0.48537611961364746
v -0.24665206670761108 -0.5954722762107849 0.34815406799316406
v -0.24988844990730286 -0.6032854318618774 0.48537611961364746
v -0.1257418841123581 -0.6321498155593872 0.34815406799316406
v -0.1273917406797409 -0.6404443383216858 0.4853762090206146
v 6.866454782539222e-07 -0.6445343494415283 0.3481539785861969
v 6.866454782539222e-07 -0.6529912352561951 0.4853760302066803
v 0.125743106007576 -0.6321496963500977 0.3481539785861969
v 0.1273929625749588 -0.6404440999031067 0.4853760302066803
v 0.24665328860282898 -0.5954717993736267 0.3481539785861969
v 0.24988959729671478 -0.6032848954200745 0.48537611961364746
v 0.35808470845222473 -0.5359103083610535 0.3481539785861969
v 0.3627831041812897 -0.5429418683052063 0.48537611961364746
v 0.4557551443576813 -0.45575401186943054 0.3481539785861969
v 0.46173521876335144 -0.4617339074611664 0.4853762090206146
v 0.5359110832214355 -0.3580833673477173 0.3481539785861969
v 0.5429429411888123 -0.36278173327445984 0.4853762686252594
v 0.5954724550247192 -0.2466517984867096 0.3481539785861969
v 0.6032856106758118 -0.249888077378273 0.48537611961364746
v 0.632149875164032 -0.12574146687984467 0.3481539189815521
v 0.6404443979263306 -0.12739123404026031 0.4853762090206146
v 0.6445342302322388 9.91821252682712e-07 0.3481539785861969
v 0.6529912352561951 1.1444091114753974e-06 0.4853762090206146
v 0.6321493983268738 0.12574347853660583 0.3481539785861969
v 0.6404440999031067 0.12739340960979462 0.4853762090206146
v 0.5954715609550476 0.24665358662605286 0.3481539785861969
v 0.6032846570014954 0.24988998472690582 0.48537611961364746
v 0.5359100103378296 0.3580850064754486 0.3481539785861969
v 0.5429416298866272 0.3627835810184479 0.4853762090206146
v 0.4557536840438843 0.4557555317878723 0.3481539189815521
v 0.4617336094379425 0.46173545718193054 0.4853762090206146
v 0.35808295011520386 0.5359113216400146 0.3481539785861969
v 0.36278143525123596 0.5429431200027466 0.48537611961364746
v 0.24665138125419617 0.5954726338386536 0.34815406799316406
v 0.24988768994808197 0.6032859086990356 0.48537611961364746
v 0.12574103474617004 0.6321501731872559 0.3481539785861969
v 0.12739089131355286 0.6404445767402649 0.4853762090206146
v -7.629394360719743e-08 0.6445343494415283 0.3481539785861969
v -0.0 0.6529912352561951 0.4853760302066803
v -0.0 0.3018801808357239 0.10629776120185852
v -0.0458998866379261 0.23075446486473083 0.004937286488711834
v -0.0 0.23527519404888153 0.004937286488711834
v -0.05889388918876648 0.2960796356201172 0.10629776120185852
v -0.09003593027591705 0.21736595034599304 0.004937286488711834
v -0.11552451550960541 0.2789008915424347 0.10629776120185852
v -0.13071192800998688 0.19562415778636932 0.004937286488711834
v -0.16771560907363892 0.2510041892528534 0.10629783570766449
v -0.16636469960212708 0.16636474430561066 0.004937286488711834
v -0.21346156299114227 0.21346153318881989 0.10629776120185852
v -0.19562427699565887 0.13071182370185852 0.004937286488711834
v -0.2510042190551758 0.16771560907363892 0.10629783570766449
v -0.217366024851799 0.09003585577011108 0.004937286488711834
v -0.27890095114707947 0.11552444100379944 0.10629776120185852
v -0.23075450956821442 0.045899808406829834 0.004937286488711834
v -0.2960796356201172 0.05889373645186424 0.10629776120185852
v -0.23527519404888153 -7.629394360719743e-08 0.004937362391501665
v -0.3018801510334015 -1.5258788721439487e-07 0.10629783570766449
v -0.23075446486473083 -0.04590003937482834 0.004937362391501665
v -0.2960796356201172 -0.05889400467276573 0.10629776120185852
v -0.21736595034599304 -0.09003612399101257 0.004937286488711834
v -0.2789008319377899 -0.11552467197179794 0.10629776120185852
v -0.19562415778636932 -0.13071204721927643 0.004937286488711834
v -0.25100407004356384 -0.16771578788757324 0.10629783570766449
v -0.1663646250963211 -0.1663648635149002 0.004937286488711834
v -0.21346133947372437 -0.21346163749694824 0.10629776120185852
v -0.13071174919605255 -0.19562435150146484 0.004937286488711834
v -0.16771548986434937 -0.25100427865982056 0.10629783570766449
v -0.09003574401140213 -0.217366024851799 0.004937362391501665
v -0.11552432924509048 -0.27890098094940186 0.10629767924547195
v -0.045899733901023865 -0.2307545393705368 0.004937286488711834
v -0.05889369919896126 -0.2960796654224396 0.10629776120185852
v 2.288818308215923e-07 -0.2352752685546875 0.004937286488711834
v 3.0517577442878974e-07 -0.3018801808357239 0.10629776120185852
v 0.04590011388063431 -0.23075442016124725 0.004937286488711834
v 0.05889419466257095 -0.29607951641082764 0.10629776120185852
v 0.0900363102555275 -0.21736590564250946 0.004937286488711834
v 0.11552482098340988 -0.27890071272850037 0.10629783570766449
v 0.13071219623088837 -0.19562408328056335 0.004937286488711834
v 0.16771583259105682 -0.2510039210319519 0.10629776120185852
v 0.1663648933172226 -0.16636455059051514 0.004937286488711834
v 0.21346168220043182 -0.2134612649679184 0.10629776120185852
v 0.19562430679798126 -0.1307116597890854 0.004937286488711834
v 0.25100454688072205 -0.16771529614925385 0.10629776120185852
v 0.21736609935760498 -0.09003566205501556 0.004937286488711834
v 0.278901070356369 -0.11552413552999496 0.10629776120185852
v 0.2307545393705368 -0.04589958116412163 0.004937286488711834
v 0.2960796356201172 -0.058893393725156784 0.10629776120185852
v 0.23527519404888153 3.0517577442878974e-07 0.004937286488711834
v 0.3018801808357239 4.577636616431846e-07 0.10629776120185852
v 0.23075439035892487 0.045900266617536545 0.004937286488711834
v 0.2960796356201172 0.05889434739947319 0.10629776120185852
v 0.2173658013343811 0.0900363102555275 0.004937286488711834
v 0.2789008319377899 0.11552512645721436 0.10629776120185852
v 0.19562393426895142 0.13071227073669434 0.004937286488711834
v 0.25100386142730713 0.16771605610847473 0.10629783570766449
v 0.16636435687541962 0.16636496782302856 0.004937286488711834
v 0.21346107125282288 0.21346190571784973 0.10629776120185852
v 0.13071151077747345 0.19562438130378723 0.004937286488711834
v 0.1677151471376419 0.25100448727607727 0.10629776120185852
v 0.09003547579050064 0.21736609935760498 0.004937286488711834
v 0.11552390456199646 0.2789011299610138 0.10629776120185852
v 0.04589935019612312 0.2307545393705368 0.004937286488711834
v 0.05889327824115753 0.29607969522476196 0.10629776120185852
v -0.0 0.23527519404888153 0.004937286488711834
v -0.0 0.3018801808357239 0.10629776120185852
vn -5.636202899950149e-07 0.9323305487632751 0.3616071939468384
vn -0.1818886697292328 0.9144159555435181 0.3616074025630951
vn -1.7543254671181785e-07 0.9323306679725647 0.36160698533058167
vn -0.1818886697292328 0.9144159555435181 0.3616073727607727
vn -0.35678696632385254 0.8613613843917847 0.36160704493522644
vn -0.35678696632385254 0.8613614439964294 0.3616069257259369
vn -0.5179752111434937 0.7752045392990112 0.36160704493522644
vn -0.5179750919342041 0.7752047181129456 0.3616068959236145
vn -0.6592570543289185 0.6592578887939453 0.36160653829574585
vn -0.659257173538208 0.6592574715614319 0.36160680651664734
vn -0.7752044796943665 0.5179749131202698 0.36160749197006226
vn -0.7752046585083008 0.5179746747016907 0.36160752177238464
vn -0.861361563205719 0.3567866086959839 0.3616069257259369
vn -0.8613614439964294 0.3567870557308197 0.3616066575050354
vn -0.9144162535667419 0.18188847601413727 0.36160674691200256
vn -0.9144162535667419 0.1818884015083313 0.3616069257259369
vn -0.9323306679725647 -1.8030540616109647e-07 0.3616068959236145
vn -0.9323306679725647 0.0 0.36160674691200256
vn -0.9144161939620972 -0.181889608502388 0.3616064190864563
vn -0.9144163727760315 -0.18188923597335815 0.36160606145858765
vn -0.861361563205719 -0.35678791999816895 0.3616057336330414
vn -0.8613614439964294 -0.3567880690097809 0.36160585284233093
vn -0.7752047777175903 -0.5179753303527832 0.36160629987716675
vn -0.7752045392990112 -0.5179755687713623 0.3616064786911011
vn -0.6592573523521423 -0.6592575907707214 0.3616063594818115
vn -0.6592572331428528 -0.6592576503753662 0.3616064488887787
vn -0.5179742574691772 -0.7752052545547485 0.36160656809806824
vn -0.517974317073822 -0.7752053737640381 0.3616065979003906
vn -0.3567866086959839 -0.8613619208335876 0.3616062104701996
vn -0.35678690671920776 -0.8613618016242981 0.3616059422492981
vn -0.18188796937465668 -0.9144167900085449 0.3616059124469757
vn -0.18188799917697906 -0.9144167900085449 0.3616059124469757
vn 1.145183546213957e-06 -0.9323309659957886 0.36160609126091003
vn 8.24468543214607e-07 -0.9323310852050781 0.36160582304000854
vn 0.1818896234035492 -0.9144165515899658 0.3616054952144623
vn 0.18188966810703278 -0.914416491985321 0.36160558462142944
vn 0.3567887544631958 -0.861361026763916 0.36160606145858765
vn 0.3567890524864197 -0.8613608479499817 0.361606240272522
vn 0.5179761052131653 -0.7752044200897217 0.3616059422492981
vn 0.5179761052131653 -0.7752044200897217 0.36160600185394287
vn 0.6592578887939453 -0.6592572331428528 0.36160629987716675
vn 0.659258246421814 -0.6592565774917603 0.3616066575050354
vn 0.7752052545547485 -0.5179739594459534 0.361607164144516
vn 0.7752052545547485 -0.5179738998413086 0.3616071343421936
vn 0.8613621592521667 -0.3567854166030884 0.3616066575050354
vn 0.8613621592521667 -0.35678571462631226 0.3616063594818115
vn 0.9144165515899658 -0.1818876564502716 0.36160629987716675
vn 0.9144165515899658 -0.1818874031305313 0.36160653829574585
vn 0.9323304891586304 1.120818296840298e-06 0.3616073727607727
vn 0.9323304891586304 1.2134132703067735e-06 0.3616073429584503
vn 0.9144159555435181 0.18188995122909546 0.3616069257259369
vn 0.9144159555435181 0.18188975751399994 0.36160680651664734
vn 0.8613600134849548 0.3567896783351898 0.3616073429584503
vn 0.861360490322113 0.3567892014980316 0.3616071045398712
vn 0.775204062461853 0.5179764032363892 0.3616061508655548
vn 0.775204062461853 0.5179764032363892 0.361606240272522
vn 0.6592555642127991 0.6592587232589722 0.36160749197006226
vn 0.6592554450035095 0.6592587828636169 0.3616076111793518
vn 0.5179738998413086 0.7752055525779724 0.3616066575050354
vn 0.5179747939109802 0.7752052545547485 0.36160600185394287
vn 0.3567858338356018 0.8613623380661011 0.3616059422492981
vn 0.3567858338356018 0.8613622784614563 0.3616059720516205
vn 0.18188706040382385 0.9144167900085449 0.361606240272522
vn 0.18188658356666565 0.9144167900085449 0.36160656809806824
vn -1.7543254671181785e-07 0.9323306679725647 0.36160698533058167
vn -5.636202899950149e-07 0.9323305487632751 0.3616071939468384
vn -9.330521493211563e-07 0.9998185038566589 0.019055010750889778
vn -0.19505418837070465 0.9806073904037476 0.019054101780056953
vn -9.114150429923029e-07 0.9998185038566589 0.01905503123998642
vn -0.19505435228347778 0.980607271194458 0.019054176285862923
vn -0.38261449337005615 0.9237115383148193 0.019055135548114777
vn -0.3826144337654114 0.9237115383148193 0.019055044278502464
vn -0.5554691553115845 0.8313188552856445 0.019053610041737556
vn -0.5554690957069397 0.8313188552856445 0.019053619354963303
vn -0.7069785594940186 0.7069782614707947 0.019054938107728958
vn -0.7069786190986633 0.7069781422615051 0.01905505731701851
vn -0.8313185572624207 0.5554694533348083 0.019053930416703224
vn -0.8313184380531311 0.5554696917533875 0.01905347965657711
vn -0.9237118363380432 0.38261380791664124 0.019053075462579727
vn -0.9237117767333984 0.3826139569282532 0.019052935764193535
vn -0.980607271194458 0.19505460560321808 0.019053028896450996
vn -0.980607271194458 0.1950545758008957 0.019053149968385696
vn -0.9998185038566589 -2.910801413236186e-07 0.0190535057336092
vn -0.9998185038566589 -3.9035862187120074e-07 0.019053557887673378
vn -0.9806071519851685 -0.19505523145198822 0.019053291529417038
vn -0.9806071519851685 -0.19505509734153748 0.019053282216191292
vn -0.9237115383148193 -0.38261449337005615 0.019053513184189796
vn -0.9237116575241089 -0.38261449337005615 0.019053565338253975
vn -0.8313184380531311 -0.5554696917533875 0.01905353181064129
vn -0.8313184380531311 -0.5554697513580322 0.019053442403674126
vn -0.7069780230522156 -0.7069787979125977 0.01905316300690174
vn -0.7069780230522156 -0.7069787979125977 0.019053105264902115
vn -0.5554684400558472 -0.8313192129135132 0.019053183495998383
vn -0.5554685592651367 -0.8313192129135132 0.019053077325224876
vn -0.38261333107948303 -0.9237120747566223 0.019052565097808838
vn -0.38261324167251587 -0.9237121939659119 0.019052593037486076
vn -0.19505394995212555 -0.9806073904037476 0.019053028896450996
vn -0.19505375623703003 -0.9806073904037476 0.01905328966677189
vn 9.591329899194534e-07 -0.9998185038566589 0.019053559750318527
vn 9.128197007157723e-07 -0.9998185038566589 0.019053533673286438
vn 0.19505588710308075 -0.9806070327758789 0.01905302330851555
vn 0.19505587220191956 -0.9806070327758789 0.01905275136232376
vn 0.38261470198631287 -0.9237115383148193 0.019052201882004738
vn 0.38261479139328003 -0.9237114787101746 0.019052328541874886
vn 0.5554707646369934 -0.8313177824020386 0.01905347779393196
vn 0.5554707050323486 -0.8313177824020386 0.01905367523431778
vn 0.7069793939590454 -0.7069774270057678 0.019053645431995392
vn 0.7069794535636902 -0.706977367401123 0.019053863361477852
vn 0.8313195109367371 -0.5554682016372681 0.01905500330030918
vn 0.8313193917274475 -0.5554682016372681 0.019055021926760674
vn 0.9237123727798462 -0.38261279463768005 0.01905423402786255
vn 0.9237122535705566 -0.3826128840446472 0.019053928554058075
vn 0.9806075096130371 -0.19505327939987183 0.019053900614380836
vn 0.9806075096130371 -0.19505317509174347 0.01905413158237934
vn 0.9998185038566589 2.0518755263765343e-06 0.019055040553212166
vn 0.9998185038566589 1.7601831814317848e-06 0.01905471831560135
vn 0.9806070327758789 0.19505596160888672 0.01905278116464615
vn 0.9806070327758789 0.1950557976961136 0.01905258372426033
vn 0.9237111806869507 0.38261574506759644 0.019053878262639046
vn 0.9237110614776611 0.3826158344745636 0.019054127857089043
vn 0.8313176035881042 0.5554710030555725 0.019053813070058823
vn 0.8313176035881042 0.5554710030555725 0.019053876399993896
vn 0.7069767713546753 0.7069800496101379 0.019054556265473366
vn 0.7069765329360962 0.706980288028717 0.019054848700761795
vn 0.5554678440093994 0.8313196301460266 0.019055182114243507
vn 0.5554679036140442 0.8313195705413818 0.019055204465985298
vn 0.3826122283935547 0.9237124919891357 0.019055252894759178
vn 0.3826126158237457 0.9237123727798462 0.019054945558309555
vn 0.195053368806839 0.9806075096130371 0.019054273143410683
vn 0.19505341351032257 0.9806075096130371 0.019054273143410683
vn -9.114150429923029e-07 0.9998185038566589 0.01905503123998642
vn -9.330521493211563e-07 0.9998185038566589 0.019055010750889778
vn -8.707628467163886e-07 0.9981063604354858 -0.06151270493865013
vn -0.1947205811738968 0.9789279699325562 -0.0615130253136158
vn -1.2914088074467145e-06 0.9981063604354858 -0.061512384563684464
vn -0.19472047686576843 0.9789279699325562 -0.06151304766535759
vn -0.3819589614868164 0.9221298694610596 -0.06151261180639267
vn -0.3819589912891388 0.9221298694610596 -0.06151264160871506
vn -0.5545181632041931 0.8298951387405396 -0.06151309609413147
vn -0.5545181035995483 0.82989501953125 -0.061513010412454605
vn -0.7057679891586304 0.7057675123214722 -0.061512406915426254
vn -0.7057680487632751 0.7057675123214722 -0.061512455344200134
vn -0.82989501953125 0.5545181035995483 -0.061513081192970276
vn -0.8298947811126709 0.5545184016227722 -0.06151336058974266
vn -0.9221300482749939 0.3819584846496582 -0.06151309236884117
vn -0.9221300482749939 0.3819584250450134 -0.0615130178630352
vn -0.9789279699325562 0.19472064077854156 -0.061512965708971024
vn -0.9789279699325562 0.19472061097621918 -0.06151287257671356
vn -0.9981063604354858 -2.8012178177050373e-07 -0.06151255592703819
vn -0.9981063604354858 -3.5165427902938973e-07 -0.06151247024536133
vn -0.9789278507232666 -0.19472171366214752 -0.06151236966252327
vn -0.9789278507232666 -0.194721519947052 -0.061512406915426254
vn -0.92212975025177 -0.3819592297077179 -0.061512332409620285
vn -0.9221298694610596 -0.3819592297077179 -0.061512283980846405
vn -0.8298948407173157 -0.554518461227417 -0.06151210889220238
vn -0.8298948407173157 -0.554518461227417 -0.06151214614510536
vn -0.7057672739028931 -0.7057682275772095 -0.061512332409620285
vn -0.7057673335075378 -0.7057681083679199 -0.061512455344200134
vn -0.5545174479484558 -0.8298956155776978 -0.061512451618909836
vn -0.5545175075531006 -0.8298954963684082 -0.061512552201747894
vn -0.3819577693939209 -0.9221303462982178 -0.06151265278458595
vn -0.3819580376148224 -0.922130286693573 -0.061512868851423264
vn -0.1947202980518341 -0.9789280891418457 -0.06151304021477699
vn -0.19472025334835052 -0.9789280891418457 -0.061512965708971024
vn 8.451132202935696e-07 -0.9981063604354858 -0.06151263415813446
vn 9.233917808160186e-07 -0.9981063604354858 -0.061512503772974014
vn 0.19472205638885498 -0.978927731513977 -0.06151258572936058
vn 0.19472210109233856 -0.978927731513977 -0.061512552201747894
vn 0.3819599747657776 -0.9221294522285461 -0.06151234358549118
vn 0.3819601237773895 -0.9221293330192566 -0.06151222810149193
vn 0.5545191764831543 -0.8298943638801575 -0.06151222810149193
vn 0.55451899766922 -0.8298945426940918 -0.061512451618909836
vn 0.7057686448097229 -0.7057668566703796 -0.061512965708971024
vn 0.7057684659957886 -0.7057669758796692 -0.0615132600069046
vn 0.8298954367637634 -0.554517388343811 -0.06151353195309639
vn 0.8298957943916321 -0.5545170903205872 -0.06151320040225983
vn 0.9221307039260864 -0.3819570541381836 -0.061512552201747894
vn 0.9221307635307312 -0.38195696473121643 -0.06151241064071655
vn 0.9789283275604248 -0.1947190761566162 -0.06151297315955162
vn 0.9789282083511353 -0.19471926987171173 -0.0615132674574852
vn 0.9981062412261963 1.7092171447075089e-06 -0.06151346117258072
vn 0.9981062412261963 1.5429741324624047e-06 -0.061513740569353104
vn 0.9789276123046875 0.19472219049930573 -0.061514321714639664
vn 0.9789276123046875 0.194722518324852 -0.06151401624083519
vn 0.9221292734146118 0.3819604516029358 -0.0615130290389061
vn 0.9221290349960327 0.38196104764938354 -0.06151256337761879
vn 0.829894483089447 0.5545190572738647 -0.06151292845606804
vn 0.8298943042755127 0.5545192360877991 -0.06151282787322998
vn 0.7057660222053528 0.7057694792747498 -0.061512574553489685
vn 0.7057662010192871 0.7057693004608154 -0.061512719839811325
vn 0.5545167326927185 0.8298959136009216 -0.06151331961154938
vn 0.5545170903205872 0.8298957943916321 -0.06151357665657997
vn 0.38195765018463135 0.9221303462982178 -0.061513401567935944
vn 0.38195720314979553 0.9221305847167969 -0.06151304021477699
vn 0.19471895694732666 0.9789283275604248 -0.06151255965232849
vn 0.1947188377380371 0.9789284467697144 -0.06151236221194267
vn -1.2914088074467145e-06 0.9981063604354858 -0.061512384563684464
vn -8.707628467163886e-07 0.9981063604354858 -0.06151270493865013
vn -0.0 0.8357180953025818 -0.5491587519645691
vn -0.16304032504558563 0.8196600079536438 -0.5491586923599243
vn -1.0468348676795358e-07 0.8357180953025818 -0.5491586923599243
vn -0.16304060816764832 0.8196600079536438 -0.54915851354599
vn -0.31981563568115234 0.772102952003479 -0.5491585731506348
vn -0.3198159337043762 0.7721027731895447 -0.5491584539413452
vn -0.46430012583732605 0.6948745250701904 -0.5491583347320557
vn -0.46429991722106934 0.6948745846748352 -0.5491583347320557
vn -0.590941846370697 0.5909423232078552 -0.5491584539413452
vn -0.590941846370697 0.5909422039985657 -0.54915851354599
vn -0.6948747038841248 0.4642998278141022 -0.5491583943367004
vn -0.6948747634887695 0.4642997980117798 -0.5491582751274109
vn -0.7721033096313477 0.3198153078556061 -0.5491582751274109
vn -0.7721031308174133 0.31981542706489563 -0.5491583347320557
vn -0.8196606040000916 0.16303928196430206 -0.5491582751274109
vn -0.8196604251861572 0.16303956508636475 -0.5491584539413452
vn -0.8357182741165161 -5.337705033525708e-07 -0.5491583943367004
vn -0.8357181549072266 -1.0102785097387823e-07 -0.5491585731506348
vn -0.8196601271629333 -0.16303959488868713 -0.5491587519645691
vn -0.8196601271629333 -0.16304020583629608 -0.5491585731506348
vn -0.772102952003479 -0.3198157846927643 -0.5491583347320557
vn -0.7721028327941895 -0.31981655955314636 -0.549157977104187
vn -0.6948742866516113 -0.4643009305000305 -0.5491579174995422
vn -0.6948741674423218 -0.46430090069770813 -0.5491579174995422
vn -0.590941846370697 -0.5909427404403687 -0.549157977104187
vn -0.5909419059753418 -0.5909424424171448 -0.5491580367088318
vn -0.464298814535141 -0.6948755383491516 -0.549157977104187
vn -0.46429991722106934 -0.6948745846748352 -0.5491584539413452
vn -0.31981518864631653 -0.7721030116081238 -0.5491585731506348
vn -0.319815456867218 -0.7721027731895447 -0.5491588115692139
vn -0.1630403846502304 -0.8196600079536438 -0.5491586327552795
vn -0.16303975880146027 -0.8196604251861572 -0.5491583943367004
vn 1.1135559816466412e-06 -0.8357183337211609 -0.5491583347320557
vn 1.101449583984504e-06 -0.8357183337211609 -0.5491583347320557
vn 0.1630409061908722 -0.8196601867675781 -0.5491583347320557
vn 0.1630420833826065 -0.8196601867675781 -0.5491579174995422
vn 0.31981658935546875 -0.7721030712127686 -0.5491577386856079
vn 0.31981712579727173 -0.7721030712127686 -0.5491573214530945
vn 0.4643019735813141 -0.6948739886283875 -0.5491573214530945
vn 0.46430087089538574 -0.6948744654655457 -0.5491576194763184
vn 0.5909435749053955 -0.5909411907196045 -0.5491577982902527
vn 0.5909417867660522 -0.5909422039985657 -0.5491584539413452
vn 0.6948741674423218 -0.464299738407135 -0.5491588711738586
vn 0.6948743462562561 -0.4642995595932007 -0.5491589307785034
vn 0.7721033096313477 -0.31981441378593445 -0.5491587519645691
vn 0.7721041440963745 -0.31981316208839417 -0.5491582155227661
vn 0.8196607232093811 -0.16303882002830505 -0.5491580963134766
vn 0.8196606040000916 -0.16303928196430206 -0.5491582751274109
vn 0.8357182741165161 9.847151432040846e-07 -0.54915851354599
vn 0.8357179760932922 1.182764535201386e-07 -0.5491588115692139
vn 0.8196597099304199 0.1630413979291916 -0.549159049987793
vn 0.8196595907211304 0.16304093599319458 -0.5491591691970825
vn 0.7721019387245178 0.31981661915779114 -0.5491593480110168
vn 0.772101640701294 0.31981757283210754 -0.5491591095924377
vn 0.6948728561401367 0.4643021523952484 -0.5491586327552795
vn 0.6948727369308472 0.4643026292324066 -0.5491582751274109
vn 0.5909408330917358 0.5909432768821716 -0.5491584539413452
vn 0.5909410119056702 0.5909427404403687 -0.5491586327552795
vn 0.4642988443374634 0.6948750019073486 -0.5491586923599243
vn 0.4642987847328186 0.6948750615119934 -0.5491587519645691
vn 0.319813996553421 0.7721034288406372 -0.5491586923599243
vn 0.3198138177394867 0.7721036672592163 -0.5491585731506348
vn 0.1630392223596573 0.8196603655815125 -0.5491586327552795
vn 0.16303949058055878 0.8196602463722229 -0.5491585731506348
vn -1.0468348676795358e-07 0.8357180953025818 -0.5491586923599243
vn -0.0 0.8357180953025818 -0.5491587519645691
vt 1.998274564743042 0.0
vt 2.0295233726501465 1.0
vt 1.998274564743042 1.0
vt 2.0295233726501465 0.0
vt 2.06077241897583 1.0
vt 2.06077241897583 0.0
vt 2.0920212268829346 1.0
vt 2.0920212268829346 0.0
vt 2.123270034790039 1.0
vt 2.123270034790039 0.0
vt 2.1545190811157227 1.0
vt 2.1545190811157227 0.0
vt 2.1857681274414062 1.0
vt 2.1857681274414062 0.0
vt 2.2170166969299316 1.0
vt 2.2170166969299316 0.0
vt 2.2482657432556152 1.0
vt 2.2482657432556152 0.0
vt 2.279514789581299 1.0
vt 2.279514789581299 0.0
vt 2.3107635974884033 1.0
vt 2.3107635974884033 0.0
vt 2.342012405395508 1.0
vt 2.342012405395508 0.0
vt 2.3732614517211914 1.0
vt 2.3732614517211914 0.0
vt 2.404510259628296 1.0
vt 2.404510259628296 0.0
vt 2.4357593059539795 1.0
vt 2.4357593059539795 0.0
vt 2.467008352279663 1.0
vt 2.467008352279663 0.0
vt 2.4982571601867676 1.0
vt 2.4982571601867676 0.0
vt 2.529506206512451 1.0
vt 2.529506206512451 0.0
vt 2.5607550144195557 1.0
vt 2.5607550144195557 0.0
vt 2.59200382232666 1.0
vt 2.59200382232666 0.0
vt 2.6232528686523438 1.0
vt 2.6232528686523438 0.0
vt 2.6545016765594482 1.0
vt 2.6545016765594482 0.0
vt 2.685750722885132 1.0
vt 2.685750722885132 0.0
vt 2.7169997692108154 1.0
vt 2.7169997692108154 0.0
vt 2.74824857711792 1.0
vt 2.74824857711792 0.0
vt 2.7794976234436035 1.0
vt 2.7794976234436035 0.0
vt 2.810746431350708 1.0
vt 2.810746431350708 0.0
vt 2.8419954776763916 1.0
vt 2.8419954776763916 0.0
vt 2.873244285583496 1.0
vt 2.873244285583496 0.0
vt 2.9044930934906006 1.0
vt 2.9044930934906006 0.0
vt 2.935742139816284 1.0
vt 2.935742139816284 0.0
vt 2.9669909477233887 1.0
vt 2.9669909477233887 0.0
vt 2.9982399940490723 1.0
vt 2.9982399940490723 0.0
vt 1.0063846111297607 1.0000001192092896
vt 0.9437980055809021 5.960464477539063e-08
vt 1.0063846111297607 5.960464477539063e-08
vt 0.9437979459762573 1.0000001192092896
vt 0.881211519241333 5.960464477539063e-08
vt 0.8812114596366882 1.0000001192092896
vt 0.8186249136924744 5.960464477539063e-08
vt 0.8186248540878296 1.0000001192092896
vt 0.75603848695755 5.960464477539063e-08
vt 0.7560384273529053 1.0000001192092896
vt 0.6934518218040466 5.960464477539063e-08
vt 0.6934517621994019 1.0000001192092896
vt 0.630865216255188 5.960464477539063e-08
vt 0.6308651566505432 1.0
vt 0.5682787895202637 5.960464477539063e-08
vt 0.5682787299156189 1.0
vt 0.5056923031806946 5.960464477539063e-08
vt 0.505692183971405 1.0
vt 0.44310569763183594 5.960464477539063e-08
vt 0.4431056082248688 1.0
vt 0.38051918148994446 5.960464477539063e-08
vt 0.3805190920829773 1.0
vt 0.3179325759410858 0.0
vt 0.31793248653411865 1.0
vt 0.25534600019454956 0.0
vt 0.2553459107875824 1.0
vt 0.1927594691514969 0.0
vt 0.19275937974452972 1.0
vt 0.13017292320728302 0.0
vt 0.13017283380031586 1.0
vt 0.06758636236190796 0.0
vt 0.0675862729549408 1.0
vt 0.004999806173145771 0.0
vt 0.004999718628823757 1.0
vt -0.05758684501051903 0.0
vt -0.05758693441748619 1.0
vt -0.12017334252595901 0.0
vt -0.12017343193292618 1.0
vt -0.18275989592075348 0.0
vt -0.18275998532772064 1.0
vt -0.24534647166728973 0.0
vt -0.2453465610742569 1.0
vt -0.30793294310569763 0.0
vt -0.3079330325126648 1.0
vt -0.3705196678638458 0.0
vt -0.370519757270813 0.9999999403953552
vt -0.4331062138080597 0.0
vt -0.43310630321502686 0.9999999403953552
vt -0.49569275975227356 0.0
vt -0.49569281935691833 0.9999999403953552
vt -0.558279275894165 0.0
vt -0.5582793354988098 0.9999999403953552
vt -0.6208657622337341 0.0
vt -0.6208658218383789 0.9999999403953552
vt -0.6834525465965271 -1.1920928955078125e-07
vt -0.6834526062011719 0.9999999403953552
vt -0.7460391521453857 -1.1920928955078125e-07
vt -0.7460392117500305 0.9999999403953552
vt -0.8086255192756653 -1.1920928955078125e-07
vt -0.8086255788803101 0.9999999403953552
vt -0.8712121844291687 -1.1920928955078125e-07
vt -0.8712122440338135 0.9999999403953552
vt -0.933798611164093 -1.1920928955078125e-07
vt -0.9337986707687378 0.9999999403953552
vt -0.9963854551315308 -1.1920928955078125e-07
vt -0.9963855743408203 0.9999999403953552
vt -2.988325595855713 0.0
vt -2.9573538303375244 1.0
vt -2.988325595855713 1.0
vt -2.9573538303375244 0.0
vt -2.926381826400757 1.0
vt -2.926381826400757 0.0
vt -2.895409345626831 1.0
vt -2.895409345626831 0.0
vt -2.8644373416900635 1.0
vt -2.8644373416900635 0.0
vt -2.833465337753296 1.0
vt -2.833465337753296 0.0
vt -2.802493095397949 1.0
vt -2.802493095397949 0.0
vt -2.7715210914611816 1.0
vt -2.7715210914611816 0.0
vt -2.740548849105835 1.0
vt -2.740548849105835 0.0
vt -2.7095768451690674 1.0
vt -2.7095768451690674 0.0
vt -2.6786046028137207 1.0
vt -2.6786046028137207 0.0
vt -2.647632598876953 1.0
vt -2.647632598876953 0.0
vt -2.6166603565216064 1.0
vt -2.6166603565216064 0.0
vt -2.5856881141662598 1.0
vt -2.5856881141662598 0.0
vt -2.554716110229492 1.0
vt -2.554716110229492 0.0
vt -2.5237438678741455 1.0
vt -2.5237438678741455 0.0
vt -2.492771863937378 1.0
vt -2.492771863937378 0.0
vt -2.4618000984191895 1.0
vt -2.4618000984191895 0.0
vt -2.4308276176452637 1.0
vt -2.4308276176452637 0.0
vt -2.399855613708496 1.0
vt -2.399855613708496 0.0
vt -2.3688836097717285 1.0
vt -2.3688836097717285 0.0
vt -2.337911367416382 1.0
vt -2.337911367416382 0.0
vt -2.306939125061035 1.0
vt -2.306939125061035 0.0
vt -2.2759671211242676 1.0
vt -2.2759671211242676 0.0
vt -2.244994878768921 1.0
vt -2.244994878768921 0.0
vt -2.2140228748321533 1.0
vt -2.2140228748321533 0.0
vt -2.1830506324768066 1.0
vt -2.1830506324768066 0.0
vt -2.152078628540039 1.0
vt -2.152078628540039 0.0
vt -2.1211063861846924 1.0
vt -2.1211063861846924 0.0
vt -2.0901341438293457 1.0
vt -2.0901341438293457 0.0
vt -2.059162139892578 1.0
vt -2.059162139892578 0.0
vt -2.0281901359558105 1.0
vt -2.0281901359558105 0.0
vt -1.9972178936004639 1.0
vt -1.9972178936004639 0.0
vt 0.011309676803648472 1.0
vt -0.019971739500761032 0.0
vt 0.011309764347970486 0.0
vt -0.019971825182437897 1.0
vt -0.05125318095088005 0.0
vt -0.051253266632556915 1.0
vt -0.08253468573093414 0.0
vt -0.0825347751379013 1.0
vt -0.11381606012582779 0.0
vt -0.11381614953279495 1.0
vt -0.14509758353233337 0.0
vt -0.14509767293930054 1.0
vt -0.17637899518013 0.0
vt -0.17637908458709717 1.0
vt -0.20766040682792664 0.0
vt -0.2076604962348938 1.0
vt -0.23894186317920685 0.0
vt -0.238941952586174 1.0
vt -0.27022331953048706 0.0
vt -0.2702234089374542 1.0
vt -0.30150482058525085 0.0
vt -0.301504909992218 1.0
vt -0.3327862024307251 0.0
vt -0.33278629183769226 0.9999999403953552
vt -0.3640677034854889 0.0
vt -0.36406779289245605 0.9999999403953552
vt -0.3953491151332855 0.0
vt -0.3953492045402527 0.9999999403953552
vt -0.42663058638572693 0.0
vt -0.4266306757926941 0.9999999403953552
vt -0.45791205763816833 0.0
vt -0.4579121470451355 0.9999999403953552
vt -0.4891935884952545 0.0
vt -0.4891936779022217 0.9999999403953552
vt -0.5204749703407288 0.0
vt -0.5204750299453735 0.9999999403953552
vt -0.5517565011978149 0.0
vt -0.5517565608024597 0.9999999403953552
vt -0.5830379128456116 0.0
vt -0.5830379724502563 0.9999999403953552
vt -0.614319384098053 0.0
vt -0.6143194437026978 0.9999999403953552
vt -0.6456007957458496 0.0
vt -0.6456008553504944 0.9999999403953552
vt -0.676882266998291 -1.1920928955078125e-07
vt -0.6768823266029358 0.9999999403953552
vt -0.7081637382507324 -1.1920928955078125e-07
vt -0.7081637978553772 0.9999999403953552
vt -0.7394452095031738 -1.1920928955078125e-07
vt -0.7394452691078186 0.9999999403953552
vt -0.7707265615463257 -1.1920928955078125e-07
vt -0.7707266211509705 0.9999999403953552
vt -0.8020081520080566 -1.1920928955078125e-07
vt -0.8020082116127014 0.9999999403953552
vt -0.833289623260498 -1.1920928955078125e-07
vt -0.8332896828651428 0.9999999403953552
vt -0.8645710349082947 -1.1920928955078125e-07
vt -0.8645710945129395 0.9999999403953552
vt -0.8958524465560913 -1.1920928955078125e-07
vt -0.8958525061607361 0.9999999403953552
vt -0.9271339774131775 -1.1920928955078125e-07
vt -0.9271340370178223 0.9999999403953552
vt -0.9584154486656189 -1.1920928955078125e-07
vt -0.9584155082702637 0.9999999403953552
vt -0.9896969795227051 -1.1920928955078125e-07
vt -0.9896970391273499 0.9999999403953552

g eff_mdl_magicsphere01
s 1
usemtl eff_mdl_magicsphere01
f 3/3/3 2/2/2 1/1/1 
f 2/2/2 4/4/4 1/1/1 
f 2/2/2 5/5/5 4/4/4 
f 5/5/5 6/6/6 4/4/4 
f 5/5/5 7/7/7 6/6/6 
f 7/7/7 8/8/8 6/6/6 
f 7/7/7 9/9/9 8/8/8 
f 9/9/9 10/10/10 8/8/8 
f 9/9/9 11/11/11 10/10/10 
f 11/11/11 12/12/12 10/10/10 
f 11/11/11 13/13/13 12/12/12 
f 13/13/13 14/14/14 12/12/12 
f 13/13/13 15/15/15 14/14/14 
f 15/15/15 16/16/16 14/14/14 
f 15/15/15 17/17/17 16/16/16 
f 17/17/17 18/18/18 16/16/16 
f 17/17/17 19/19/19 18/18/18 
f 19/19/19 20/20/20 18/18/18 
f 19/19/19 21/21/21 20/20/20 
f 21/21/21 22/22/22 20/20/20 
f 21/21/21 23/23/23 22/22/22 
f 23/23/23 24/24/24 22/22/22 
f 23/23/23 25/25/25 24/24/24 
f 25/25/25 26/26/26 24/24/24 
f 25/25/25 27/27/27 26/26/26 
f 27/27/27 28/28/28 26/26/26 
f 27/27/27 29/29/29 28/28/28 
f 29/29/29 30/30/30 28/28/28 
f 29/29/29 31/31/31 30/30/30 
f 31/31/31 32/32/32 30/30/30 
f 31/31/31 33/33/33 32/32/32 
f 33/33/33 34/34/34 32/32/32 
f 33/33/33 35/35/35 34/34/34 
f 35/35/35 36/36/36 34/34/34 
f 35/35/35 37/37/37 36/36/36 
f 37/37/37 38/38/38 36/36/36 
f 37/37/37 39/39/39 38/38/38 
f 39/39/39 40/40/40 38/38/38 
f 39/39/39 41/41/41 40/40/40 
f 41/41/41 42/42/42 40/40/40 
f 41/41/41 43/43/43 42/42/42 
f 43/43/43 44/44/44 42/42/42 
f 43/43/43 45/45/45 44/44/44 
f 45/45/45 46/46/46 44/44/44 
f 45/45/45 47/47/47 46/46/46 
f 47/47/47 48/48/48 46/46/46 
f 47/47/47 49/49/49 48/48/48 
f 49/49/49 50/50/50 48/48/48 
f 49/49/49 51/51/51 50/50/50 
f 51/51/51 52/52/52 50/50/50 
f 51/51/51 53/53/53 52/52/52 
f 53/53/53 54/54/54 52/52/52 
f 53/53/53 55/55/55 54/54/54 
f 55/55/55 56/56/56 54/54/54 
f 55/55/55 57/57/57 56/56/56 
f 57/57/57 58/58/58 56/56/56 
f 57/57/57 59/59/59 58/58/58 
f 59/59/59 60/60/60 58/58/58 
f 59/59/59 61/61/61 60/60/60 
f 61/61/61 62/62/62 60/60/60 
f 61/61/61 63/63/63 62/62/62 
f 63/63/63 64/64/64 62/62/62 
f 63/63/63 65/65/65 64/64/64 
f 65/65/65 66/66/66 64/64/64 
f 69/69/69 68/68/68 67/67/67 
f 68/68/68 70/70/70 67/67/67 
f 68/68/68 71/71/71 70/70/70 
f 71/71/71 72/72/72 70/70/70 
f 71/71/71 73/73/73 72/72/72 
f 73/73/73 74/74/74 72/72/72 
f 73/73/73 75/75/75 74/74/74 
f 75/75/75 76/76/76 74/74/74 
f 75/75/75 77/77/77 76/76/76 
f 77/77/77 78/78/78 76/76/76 
f 77/77/77 79/79/79 78/78/78 
f 79/79/79 80/80/80 78/78/78 
f 79/79/79 81/81/81 80/80/80 
f 81/81/81 82/82/82 80/80/80 
f 81/81/81 83/83/83 82/82/82 
f 83/83/83 84/84/84 82/82/82 
f 83/83/83 85/85/85 84/84/84 
f 85/85/85 86/86/86 84/84/84 
f 85/85/85 87/87/87 86/86/86 
f 87/87/87 88/88/88 86/86/86 
f 87/87/87 89/89/89 88/88/88 
f 89/89/89 90/90/90 88/88/88 
f 89/89/89 91/91/91 90/90/90 
f 91/91/91 92/92/92 90/90/90 
f 91/91/91 93/93/93 92/92/92 
f 93/93/93 94/94/94 92/92/92 
f 93/93/93 95/95/95 94/94/94 
f 95/95/95 96/96/96 94/94/94 
f 95/95/95 97/97/97 96/96/96 
f 97/97/97 98/98/98 96/96/96 
f 97/97/97 99/99/99 98/98/98 
f 99/99/99 100/100/100 98/98/98 
f 99/99/99 101/101/101 100/100/100 
f 101/101/101 102/102/102 100/100/100 
f 101/101/101 103/103/103 102/102/102 
f 103/103/103 104/104/104 102/102/102 
f 103/103/103 105/105/105 104/104/104 
f 105/105/105 106/106/106 104/104/104 
f 105/105/105 107/107/107 106/106/106 
f 107/107/107 108/108/108 106/106/106 
f 107/107/107 109/109/109 108/108/108 
f 109/109/109 110/110/110 108/108/108 
f 109/109/109 111/111/111 110/110/110 
f 111/111/111 112/112/112 110/110/110 
f 111/111/111 113/113/113 112/112/112 
f 113/113/113 114/114/114 112/112/112 
f 113/113/113 115/115/115 114/114/114 
f 115/115/115 116/116/116 114/114/114 
f 115/115/115 117/117/117 116/116/116 
f 117/117/117 118/118/118 116/116/116 
f 117/117/117 119/119/119 118/118/118 
f 119/119/119 120/120/120 118/118/118 
f 119/119/119 121/121/121 120/120/120 
f 121/121/121 122/122/122 120/120/120 
f 121/121/121 123/123/123 122/122/122 
f 123/123/123 124/124/124 122/122/122 
f 123/123/123 125/125/125 124/124/124 
f 125/125/125 126/126/126 124/124/124 
f 125/125/125 127/127/127 126/126/126 
f 127/127/127 128/128/128 126/126/126 
f 127/127/127 129/129/129 128/128/128 
f 129/129/129 130/130/130 128/128/128 
f 129/129/129 131/131/131 130/130/130 
f 131/131/131 132/132/132 130/130/130 
f 135/135/135 134/134/134 133/133/133 
f 134/134/134 136/136/136 133/133/133 
f 134/134/134 137/137/137 136/136/136 
f 137/137/137 138/138/138 136/136/136 
f 137/137/137 139/139/139 138/138/138 
f 139/139/139 140/140/140 138/138/138 
f 139/139/139 141/141/141 140/140/140 
f 141/141/141 142/142/142 140/140/140 
f 141/141/141 143/143/143 142/142/142 
f 143/143/143 144/144/144 142/142/142 
f 143/143/143 145/145/145 144/144/144 
f 145/145/145 146/146/146 144/144/144 
f 145/145/145 147/147/147 146/146/146 
f 147/147/147 148/148/148 146/146/146 
f 147/147/147 149/149/149 148/148/148 
f 149/149/149 150/150/150 148/148/148 
f 149/149/149 151/151/151 150/150/150 
f 151/151/151 152/152/152 150/150/150 
f 151/151/151 153/153/153 152/152/152 
f 153/153/153 154/154/154 152/152/152 
f 153/153/153 155/155/155 154/154/154 
f 155/155/155 156/156/156 154/154/154 
f 155/155/155 157/157/157 156/156/156 
f 157/157/157 158/158/158 156/156/156 
f 157/157/157 159/159/159 158/158/158 
f 159/159/159 160/160/160 158/158/158 
f 159/159/159 161/161/161 160/160/160 
f 161/161/161 162/162/162 160/160/160 
f 161/161/161 163/163/163 162/162/162 
f 163/163/163 164/164/164 162/162/162 
f 163/163/163 165/165/165 164/164/164 
f 165/165/165 166/166/166 164/164/164 
f 165/165/165 167/167/167 166/166/166 
f 167/167/167 168/168/168 166/166/166 
f 167/167/167 169/169/169 168/168/168 
f 169/169/169 170/170/170 168/168/168 
f 169/169/169 171/171/171 170/170/170 
f 171/171/171 172/172/172 170/170/170 
f 171/171/171 173/173/173 172/172/172 
f 173/173/173 174/174/174 172/172/172 
f 173/173/173 175/175/175 174/174/174 
f 175/175/175 176/176/176 174/174/174 
f 175/175/175 177/177/177 176/176/176 
f 177/177/177 178/178/178 176/176/176 
f 177/177/177 179/179/179 178/178/178 
f 179/179/179 180/180/180 178/178/178 
f 179/179/179 181/181/181 180/180/180 
f 181/181/181 182/182/182 180/180/180 
f 181/181/181 183/183/183 182/182/182 
f 183/183/183 184/184/184 182/182/182 
f 183/183/183 185/185/185 184/184/184 
f 185/185/185 186/186/186 184/184/184 
f 185/185/185 187/187/187 186/186/186 
f 187/187/187 188/188/188 186/186/186 
f 187/187/187 189/189/189 188/188/188 
f 189/189/189 190/190/190 188/188/188 
f 189/189/189 191/191/191 190/190/190 
f 191/191/191 192/192/192 190/190/190 
f 191/191/191 193/193/193 192/192/192 
f 193/193/193 194/194/194 192/192/192 
f 193/193/193 195/195/195 194/194/194 
f 195/195/195 196/196/196 194/194/194 
f 195/195/195 197/197/197 196/196/196 
f 197/197/197 198/198/198 196/196/196 
f 201/201/201 200/200/200 199/199/199 
f 200/200/200 202/202/202 199/199/199 
f 200/200/200 203/203/203 202/202/202 
f 203/203/203 204/204/204 202/202/202 
f 203/203/203 205/205/205 204/204/204 
f 205/205/205 206/206/206 204/204/204 
f 205/205/205 207/207/207 206/206/206 
f 207/207/207 208/208/208 206/206/206 
f 207/207/207 209/209/209 208/208/208 
f 209/209/209 210/210/210 208/208/208 
f 209/209/209 211/211/211 210/210/210 
f 211/211/211 212/212/212 210/210/210 
f 211/211/211 213/213/213 212/212/212 
f 213/213/213 214/214/214 212/212/212 
f 213/213/213 215/215/215 214/214/214 
f 215/215/215 216/216/216 214/214/214 
f 215/215/215 217/217/217 216/216/216 
f 217/217/217 218/218/218 216/216/216 
f 217/217/217 219/219/219 218/218/218 
f 219/219/219 220/220/220 218/218/218 
f 219/219/219 221/221/221 220/220/220 
f 221/221/221 222/222/222 220/220/220 
f 221/221/221 223/223/223 222/222/222 
f 223/223/223 224/224/224 222/222/222 
f 223/223/223 225/225/225 224/224/224 
f 225/225/225 226/226/226 224/224/224 
f 225/225/225 227/227/227 226/226/226 
f 227/227/227 228/228/228 226/226/226 
f 227/227/227 229/229/229 228/228/228 
f 229/229/229 230/230/230 228/228/228 
f 229/229/229 231/231/231 230/230/230 
f 231/231/231 232/232/232 230/230/230 
f 231/231/231 233/233/233 232/232/232 
f 233/233/233 234/234/234 232/232/232 
f 233/233/233 235/235/235 234/234/234 
f 235/235/235 236/236/236 234/234/234 
f 235/235/235 237/237/237 236/236/236 
f 237/237/237 238/238/238 236/236/236 
f 237/237/237 239/239/239 238/238/238 
f 239/239/239 240/240/240 238/238/238 
f 239/239/239 241/241/241 240/240/240 
f 241/241/241 242/242/242 240/240/240 
f 241/241/241 243/243/243 242/242/242 
f 243/243/243 244/244/244 242/242/242 
f 243/243/243 245/245/245 244/244/244 
f 245/245/245 246/246/246 244/244/244 
f 245/245/245 247/247/247 246/246/246 
f 247/247/247 248/248/248 246/246/246 
f 247/247/247 249/249/249 248/248/248 
f 249/249/249 250/250/250 248/248/248 
f 249/249/249 251/251/251 250/250/250 
f 251/251/251 252/252/252 250/250/250 
f 251/251/251 253/253/253 252/252/252 
f 253/253/253 254/254/254 252/252/252 
f 253/253/253 255/255/255 254/254/254 
f 255/255/255 256/256/256 254/254/254 
f 255/255/255 257/257/257 256/256/256 
f 257/257/257 258/258/258 256/256/256 
f 257/257/257 259/259/259 258/258/258 
f 259/259/259 260/260/260 258/258/258 
f 259/259/259 261/261/261 260/260/260 
f 261/261/261 262/262/262 260/260/260 
f 261/261/261 263/263/263 262/262/262 
f 263/263/263 264/264/264 262/262/262 

