v -1.2866493463516235 -1.9287797212600708 3.0
v -0.47408580780029297 -0.9434526562690735 3.0
v -0.47408580780029297 -1.9211173057556152 3.0
v -1.452579140663147 -1.7985981702804565 3.0
v -1.4428575038909912 -0.9434526562690735 3.0
v 0.4740853011608124 -0.9434526562690735 3.0
v 0.4740853011608124 -1.8869107961654663 3.0
v 1.4434895515441895 -0.9434526562690735 3.0
v 1.442558765411377 -1.7598830461502075 3.0
v 1.3131135702133179 -1.9249881505966187 3.0
v -0.47408580780029297 5.3146109166846145e-06 3.0
v -1.5017173290252686 -0.4717237055301666 3.0
v -1.475440502166748 -0.23585918545722961 3.0
v -1.4222569465637207 5.3146109166846145e-06 3.0
v 0.4740853011608124 5.3146109166846145e-06 3.0
v 1.4820486307144165 -0.5755040645599365 3.0
v 1.4397087097167969 5.3146109166846145e-06 3.0
v -0.47408580780029297 0.9434633255004883 3.0
v -1.4222569465637207 0.9434633255004883 3.0
v 0.4740853011608124 0.9434633255004883 3.0
v 1.4891479015350342 0.47173434495925903 3.0
v 1.437024712562561 0.9434633255004883 3.0
v -0.47408580780029297 1.9352734088897705 3.0
v -1.4389170408248901 1.7623484134674072 3.0
v -1.309714913368225 1.9274535179138184 3.0
v 0.4740853011608124 1.8869212865829468 3.0
v 1.4479997158050537 1.8035378456115723 3.0
v 1.2820698022842407 1.9291356801986694 3.0
v -1.5 -1.8620165586471558 0.0
v -1.5 -1.0 2.945815324783325
v -1.5 -1.8620165586471558 2.945815324783325
v -1.5 -1.0 0.0
v -1.3249999284744263 -2.0 0.0
v -1.5 -1.8620165586471558 2.945815324783325
v -1.3249999284744263 -2.0 2.945815324783325
v -1.5 -1.8620165586471558 0.0
v 0.5 -2.0 0.0
v -0.5 -2.0 2.945815324783325
v 0.5 -2.0 2.945815324783325
v -0.5 -2.0 0.0
v 1.3634790182113647 -2.0 0.0
v 1.3634790182113647 -2.0 2.945815324783325
v 1.5 -1.8249999284744263 0.0
v 1.3634790182113647 -2.0 2.945815324783325
v 1.5 -1.8249999284744263 2.945815324783325
v 1.3634790182113647 -2.0 0.0
v 1.5 -0.6100000143051147 0.0
v 1.5 -1.0 2.945815324783325
v 1.5557537078857422 -0.6100000143051147 2.9777636528015137
v 1.5 -1.0 2.945815324783325
v 1.5 -0.6100000143051147 0.0
v 1.5 -1.0 0.0
v 1.5 -1.8249999284744263 2.945815324783325
v 1.5 -1.8249999284744263 0.0
v 1.5557537078857422 -0.6100000143051147 2.9777636528015137
v 1.5 0.0 0.0
v 1.5 0.0 2.945815324783325
v 1.5 0.5 0.0
v 1.55078125 0.5 2.9671971797943115
v 1.5 1.0 0.0
v 1.5 1.0 2.945815324783325
v 1.5 1.8668749332427979 0.0
v 1.5 1.8668749332427979 2.945815324783325
v 1.5 0.5 0.0
v 1.5 0.0 2.945815324783325
v 1.55078125 0.5 2.9671971797943115
v 1.3249999284744263 2.0 0.0
v 1.5 1.8668749332427979 2.945815324783325
v 1.3249999284744263 2.0 2.945815324783325
v 1.5 1.8668749332427979 0.0
v -0.5 2.0 0.0
v 0.5 2.0 2.945815324783325
v -0.5 2.0 2.945815324783325
v 0.5 2.0 0.0
v -1.363735318183899 2.0 0.0
v -1.363735318183899 2.0 2.945815324783325
v 1.3249999284744263 2.0 2.945815324783325
v 1.3249999284744263 2.0 0.0
v -1.5 1.8249999284744263 0.0
v -1.363735318183899 2.0 2.945815324783325
v -1.5 1.8249999284744263 2.945815324783325
v -1.363735318183899 2.0 0.0
v -1.5 0.0 0.0
v -1.5 1.0 2.945815324783325
v -1.5 0.0 2.945815324783325
v -1.5 1.0 0.0
v -1.5531835556030273 -0.25 0.0
v -1.5 0.0 2.945815324783325
v -1.5531835556030273 -0.25 2.945815324783325
v -1.5 0.0 0.0
v -1.5 1.0 0.0
v -1.5 1.8249999284744263 2.945815324783325
v -1.5 1.0 2.945815324783325
v -1.5 1.8249999284744263 0.0
v -0.5 -2.0 0.0
v -1.3249999284744263 -2.0 2.945815324783325
v -0.5 -2.0 2.945815324783325
v -1.3249999284744263 -2.0 0.0
v -1.452579140663147 -1.7985981702804565 3.0
v -1.5 -1.0 2.945815324783325
v -1.4428575038909912 -0.9434526562690735 3.0
v -1.5 -1.0 2.945815324783325
v -1.452579140663147 -1.7985981702804565 3.0
v -1.5 -1.8620165586471558 2.945815324783325
v -1.2866493463516235 -1.9287797212600708 3.0
v -1.5 -1.8620165586471558 2.945815324783325
v -1.452579140663147 -1.7985981702804565 3.0
v -1.3249999284744263 -2.0 2.945815324783325
v 0.4740853011608124 -1.8869107961654663 3.0
v -0.5 -2.0 2.945815324783325
v -0.47408580780029297 -1.9211173057556152 3.0
v -0.5 -2.0 2.945815324783325
v 0.4740853011608124 -1.8869107961654663 3.0
v 0.5 -2.0 2.945815324783325
v 1.3131135702133179 -1.9249881505966187 3.0
v 0.5 -2.0 2.945815324783325
v 1.3131135702133179 -1.9249881505966187 3.0
v 1.3634790182113647 -2.0 2.945815324783325
v 1.442558765411377 -1.7598830461502075 3.0
v 1.3634790182113647 -2.0 2.945815324783325
v 1.3131135702133179 -1.9249881505966187 3.0
v 1.5 -1.8249999284744263 2.945815324783325
v 1.5 0.0 2.945815324783325
v 1.4820486307144165 -0.5755040645599365 3.0
v 1.4397087097167969 5.3146109166846145e-06 3.0
v 1.4820486307144165 -0.5755040645599365 3.0
v 1.5 0.0 2.945815324783325
v 1.5557537078857422 -0.6100000143051147 2.9777636528015137
v 1.437024712562561 0.9434633255004883 3.0
v 1.55078125 0.5 2.9671971797943115
v 1.4891479015350342 0.47173434495925903 3.0
v 1.55078125 0.5 2.9671971797943115
v 1.437024712562561 0.9434633255004883 3.0
v 1.5 1.0 2.945815324783325
v 1.4479997158050537 1.8035378456115723 3.0
v 1.5 1.0 2.945815324783325
v 1.437024712562561 0.9434633255004883 3.0
v 1.5 1.0 2.945815324783325
v 1.4479997158050537 1.8035378456115723 3.0
v 1.5 1.8668749332427979 2.945815324783325
v 1.2820698022842407 1.9291356801986694 3.0
v 1.5 1.8668749332427979 2.945815324783325
v 1.4479997158050537 1.8035378456115723 3.0
v 1.3249999284744263 2.0 2.945815324783325
v -0.47408580780029297 1.9352734088897705 3.0
v 0.5 2.0 2.945815324783325
v 0.4740853011608124 1.8869212865829468 3.0
v 1.3249999284744263 2.0 2.945815324783325
v 0.5 2.0 2.945815324783325
v -0.47408580780029297 1.9352734088897705 3.0
v -0.5 2.0 2.945815324783325
v -1.309714913368225 1.9274535179138184 3.0
v -0.5 2.0 2.945815324783325
v -1.309714913368225 1.9274535179138184 3.0
v -1.363735318183899 2.0 2.945815324783325
v -1.4389170408248901 1.7623484134674072 3.0
v -1.363735318183899 2.0 2.945815324783325
v -1.309714913368225 1.9274535179138184 3.0
v -1.5 1.8249999284744263 2.945815324783325
v -1.4222569465637207 5.3146109166846145e-06 3.0
v -1.5 1.0 2.945815324783325
v -1.4222569465637207 0.9434633255004883 3.0
v -1.5 0.0 2.945815324783325
v -1.4428575038909912 -0.9434526562690735 3.0
v -1.5588598251342773 -0.5 2.945815324783325
v -1.5017173290252686 -0.4717237055301666 3.0
v -1.5 -1.0 2.945815324783325
v 1.4434895515441895 -0.9434526562690735 3.0
v 1.5 -1.8249999284744263 2.945815324783325
v 1.442558765411377 -1.7598830461502075 3.0
v 1.5 -1.0 2.945815324783325
v 0.4740853011608124 1.8869212865829468 3.0
v 1.3249999284744263 2.0 2.945815324783325
v 1.2820698022842407 1.9291356801986694 3.0
v -1.4222569465637207 0.9434633255004883 3.0
v -1.5 1.8249999284744263 2.945815324783325
v -1.4389170408248901 1.7623484134674072 3.0
v -1.5 1.8249999284744263 2.945815324783325
v -1.4222569465637207 0.9434633255004883 3.0
v -1.5 1.0 2.945815324783325
v -0.47408580780029297 -1.9211173057556152 3.0
v -1.3249999284744263 -2.0 2.945815324783325
v -1.2866493463516235 -1.9287797212600708 3.0
v -1.3249999284744263 -2.0 2.945815324783325
v -0.47408580780029297 -1.9211173057556152 3.0
v -0.5 -2.0 2.945815324783325
v -1.5 -1.0 0.0
v -1.5588598251342773 -0.5 2.945815324783325
v -1.5 -1.0 2.945815324783325
v -1.5588598251342773 -0.5 0.0
v -1.5017173290252686 -0.4717237055301666 3.0
v -1.5531835556030273 -0.25 2.945815324783325
v -1.475440502166748 -0.23585918545722961 3.0
v -1.5531835556030273 -0.25 2.945815324783325
v -1.5017173290252686 -0.4717237055301666 3.0
v -1.5588598251342773 -0.5 2.945815324783325
v -1.5588598251342773 -0.5 0.0
v -1.5531835556030273 -0.25 2.945815324783325
v -1.5588598251342773 -0.5 2.945815324783325
v -1.5531835556030273 -0.25 0.0
v -1.475440502166748 -0.23585918545722961 3.0
v -1.5 0.0 2.945815324783325
v -1.4222569465637207 5.3146109166846145e-06 3.0
v -1.5531835556030273 -0.25 2.945815324783325
v 1.5 1.0 0.0
v 1.55078125 0.5 2.9671971797943115
v 1.5 1.0 2.945815324783325
v 1.4891479015350342 0.47173434495925903 3.0
v 1.5 0.0 2.945815324783325
v 1.4397087097167969 5.3146109166846145e-06 3.0
v 1.5 0.0 2.945815324783325
v 1.4891479015350342 0.47173434495925903 3.0
v 1.55078125 0.5 2.9671971797943115
v 1.5 0.0 0.0
v 1.5557537078857422 -0.6100000143051147 2.9777636528015137
v 1.5 0.0 2.945815324783325
v 1.4434895515441895 -0.9434526562690735 3.0
v 1.5557537078857422 -0.6100000143051147 2.9777636528015137
v 1.5 -1.0 2.945815324783325
v 1.5557537078857422 -0.6100000143051147 2.9777636528015137
v 1.4434895515441895 -0.9434526562690735 3.0
v 1.4820486307144165 -0.5755040645599365 3.0
vn -0.0 0.0 1.0
vn -0.0 0.0 1.0
vn -0.0 0.0 1.0
vn -0.0 0.0 1.0
vn -0.0 0.0 1.0
vn -0.0 0.0 1.0
vn -0.0 0.0 1.0
vn -0.0 0.0 1.0
vn -0.0 0.0 1.0
vn -0.0 0.0 1.0
vn -0.0 0.0 1.0
vn -0.0 0.0 1.0
vn -0.0 0.0 1.0
vn -0.0 0.0 1.0
vn -0.0 0.0 1.0
vn -0.0 0.0 1.0
vn -0.0 0.0 1.0
vn -0.0 0.0 1.0
vn -0.0 0.0 1.0
vn -0.0 0.0 1.0
vn -0.0 0.0 1.0
vn -0.0 0.0 1.0
vn -0.0 0.0 1.0
vn -0.0 0.0 1.0
vn -0.0 0.0 1.0
vn -0.0 0.0 1.0
vn -0.0 0.0 1.0
vn -0.0 0.0 1.0
vn -1.0 0.0 0.0
vn -1.0 0.0 0.0
vn -1.0 0.0 0.0
vn -1.0 0.0 0.0
vn -0.61916184425354 -0.7852634191513062 0.0
vn -0.61916184425354 -0.7852634191513062 0.0
vn -0.61916184425354 -0.7852634191513062 0.0
vn -0.61916184425354 -0.7852634191513062 0.0
vn -0.0 -1.0 0.0
vn -0.0 -1.0 0.0
vn -0.0 -1.0 0.0
vn -0.0 -1.0 0.0
vn -0.0 -1.0 0.0
vn -0.0 -1.0 0.0
vn 0.7884564399719238 -0.6150906682014465 0.0
vn 0.7884564399719238 -0.6150906682014465 0.0
vn 0.7884564399719238 -0.6150906682014465 0.0
vn 0.7884564399719238 -0.6150906682014465 0.0
vn 0.9899769425392151 -0.1400071233510971 -0.018535710871219635
vn 0.9899769425392151 -0.1400071233510971 -0.018535710871219635
vn 0.9899769425392151 -0.1400071084499359 -0.018535709008574486
vn 1.0 0.0 0.0
vn 1.0 0.0 0.0
vn 1.0 0.0 0.0
vn 1.0 0.0 0.0
vn 1.0 0.0 0.0
vn 0.9998248219490051 0.0 -0.018720095977187157
vn 1.0 0.0 0.0
vn 1.0 0.0 0.0
vn 1.0 0.0 0.0
vn 0.9998536109924316 0.0 -0.017111707478761673
vn 1.0 0.0 0.0
vn 1.0 0.0 0.0
vn 1.0 0.0 0.0
vn 1.0 0.0 0.0
vn 0.9948108196258545 -0.1003074198961258 -0.017025405541062355
vn 0.9948108196258545 -0.1003074198961258 -0.017025405541062355
vn 0.9948108196258545 -0.1003074049949646 -0.017025403678417206
vn 0.60544353723526 0.7958882451057434 0.0
vn 0.60544353723526 0.7958882451057434 0.0
vn 0.60544353723526 0.7958882451057434 0.0
vn 0.60544353723526 0.7958882451057434 0.0
vn -0.0 1.0 0.0
vn -0.0 1.0 0.0
vn -0.0 1.0 0.0
vn -0.0 1.0 0.0
vn -0.0 1.0 0.0
vn -0.0 1.0 0.0
vn -0.0 1.0 0.0
vn -0.0 1.0 0.0
vn -0.7890165448188782 0.6143718361854553 0.0
vn -0.7890165448188782 0.6143718361854553 0.0
vn -0.7890165448188782 0.6143718361854553 0.0
vn -0.7890165448188782 0.6143718361854553 0.0
vn -1.0 0.0 0.0
vn -1.0 0.0 0.0
vn -1.0 0.0 0.0
vn -1.0 0.0 0.0
vn -0.9781121611595154 0.20807808637619019 0.0
vn -0.9781121611595154 0.20807808637619019 0.0
vn -0.9781121611595154 0.20807808637619019 0.0
vn -0.9781121611595154 0.20807808637619019 0.0
vn -1.0 0.0 0.0
vn -1.0 0.0 0.0
vn -1.0 0.0 0.0
vn -1.0 0.0 0.0
vn -0.0 -1.0 0.0
vn -0.0 -1.0 0.0
vn -0.0 -1.0 0.0
vn -0.0 -1.0 0.0
vn -0.6921442151069641 0.00786860566586256 0.7217163443565369
vn -0.6921442151069641 0.007868606597185135 0.7217163443565369
vn -0.6921442151069641 0.007868606597185135 0.7217163443565369
vn -0.7525126338005066 0.0 0.6585778594017029
vn -0.7525126338005066 0.0 0.6585778594017029
vn -0.7525126338005066 0.0 0.6585778594017029
vn -0.3486366271972656 -0.44437336921691895 0.8252180218696594
vn -0.34863656759262085 -0.44437330961227417 0.8252180218696594
vn -0.3486366271972656 -0.44437330961227417 0.8252180218696594
vn -0.34819450974464417 -0.4416041672229767 0.8268895149230957
vn 0.02058732882142067 -0.5706601142883301 0.8209282755851746
vn 0.02058732882142067 -0.5706601142883301 0.8209282755851746
vn 0.02058733068406582 -0.5706601142883301 0.8209282755851746
vn -0.0 -0.43209436535835266 0.9018283486366272
vn -0.0 -0.43209442496299744 0.9018283486366272
vn -0.0 -0.43209442496299744 0.9018283486366272
vn -0.019772861152887344 -0.43569129705429077 0.8998788595199585
vn -0.0 -0.5855574011802673 0.8106309771537781
vn -0.0 -0.5855574607849121 0.8106309175491333
vn -0.0 -0.5855574607849121 0.8106309175491333
vn 0.419795423746109 -0.32912662625312805 0.8458412885665894
vn 0.4197954535484314 -0.32912662625312805 0.8458412885665894
vn 0.4197953939437866 -0.32912665605545044 0.8458412885665894
vn 0.4226120114326477 -0.32968801259994507 0.8442185521125793
vn 0.6676313281059265 0.049117304384708405 0.742870032787323
vn 0.6676312685012817 0.049117304384708405 0.742870032787323
vn 0.6676313281059265 0.04911729693412781 0.742870032787323
vn 0.3215639889240265 0.07881122082471848 0.9436023831367493
vn 0.3215640187263489 0.07881122827529907 0.9436023831367493
vn 0.3215640187263489 0.07881122827529907 0.9436023831367493
vn 0.4513234794139862 0.049868565052747726 0.8909659385681152
vn 0.4513234794139862 0.049868565052747726 0.8909659385681152
vn 0.4513234794139862 0.049868565052747726 0.8909659385681152
vn 0.5989892482757568 0.09483715146780014 0.7951212525367737
vn 0.5989892482757568 0.09483715146780014 0.7951212525367737
vn 0.5989891886711121 0.09483714401721954 0.7951212525367737
vn 0.656505823135376 -0.008377385325729847 0.7542744278907776
vn 0.656505823135376 -0.008377384394407272 0.7542744278907776
vn 0.6565057635307312 -0.008377385325729847 0.7542744278907776
vn 0.7214998602867126 0.0 0.6924146413803101
vn 0.7214999198913574 0.0 0.6924145817756653
vn 0.7214998602867126 0.0 0.6924146413803101
vn 0.33305230736732483 0.4400022625923157 0.833950936794281
vn 0.33305230736732483 0.4400022625923157 0.833950936794281
vn 0.33305230736732483 0.44000229239463806 0.833950936794281
vn 0.33267366886138916 0.43731746077537537 0.8355128169059753
vn 0.0218234620988369 0.4279524087905884 0.9035377502441406
vn 0.0218234583735466 0.4279524087905884 0.9035377502441406
vn 0.0218234620988369 0.4279523491859436 0.9035377502441406
vn -0.0 0.43212711811065674 0.901812732219696
vn -0.0 0.6419010758399963 0.7667875289916992
vn -0.0 0.6419010758399963 0.7667875289916992
vn -0.0 0.6419010162353516 0.7667875289916992
vn -0.005993593484163284 0.6404775977134705 0.7679534554481506
vn -0.0 0.5984070301055908 0.8011922836303711
vn -0.0 0.5984070301055908 0.8011922836303711
vn -0.0 0.598406970500946 0.8011922836303711
vn -0.41547203063964844 0.3251253664493561 0.849515438079834
vn -0.4154720604419708 0.3251253366470337 0.8495154976844788
vn -0.41547203063964844 0.3251253664493561 0.849515438079834
vn -0.41820764541625977 0.3256395161151886 0.8479748368263245
vn -0.571792721748352 0.0 0.8203981518745422
vn -0.571792721748352 0.0 0.8203981518745422
vn -0.571792721748352 0.0 0.8203981518745422
vn -0.571792721748352 0.0 0.8203981518745422
vn -0.6638250350952148 -0.0828285962343216 0.7432871460914612
vn -0.6638250350952148 -0.082828588783741 0.7432870864868164
vn -0.6638250350952148 -0.0828285962343216 0.7432871460914612
vn -0.6454663872718811 -0.07598412781953812 0.759999692440033
vn 0.6857156753540039 -0.0007817624136805534 0.7278691530227661
vn 0.6857156753540039 -0.0007817624136805534 0.7278691530227661
vn 0.6857156753540039 -0.0007817625300958753 0.7278691530227661
vn 0.692096471786499 0.0 0.7218050360679626
vn -0.03236090764403343 0.6193890571594238 0.784416913986206
vn -0.03236090764403343 0.6193891167640686 0.784416913986206
vn -0.032360903918743134 0.6193890571594238 0.784416913986206
vn -0.6713432669639587 -0.013658431358635426 0.7410207390785217
vn -0.6713432669639587 -0.013658431358635426 0.7410207390785217
vn -0.6713432669639587 -0.013658429495990276 0.7410207390785217
vn -0.5717926621437073 0.0 0.8203981518745422
vn -0.5717926621437073 0.0 0.8203981518745422
vn -0.571792721748352 0.0 0.8203981518745422
vn 0.005727976560592651 -0.607430100440979 0.7943525314331055
vn 0.005727976560592651 -0.607430100440979 0.7943525314331055
vn 0.005727976560592651 -0.607430100440979 0.7943525314331055
vn -0.0 -0.5661937594413757 0.8242721557617188
vn -0.0 -0.5661937594413757 0.8242721557617188
vn -0.0 -0.5661937594413757 0.8242721557617188
vn -0.9931421279907227 -0.11691243201494217 0.0
vn -0.9931421279907227 -0.11691242456436157 0.0
vn -0.9931421279907227 -0.11691242456436157 0.0
vn -0.9931421279907227 -0.11691242456436157 0.0
vn -0.578467071056366 0.06444502621889114 0.8131559491157532
vn -0.578467071056366 0.06444502621889114 0.8131559491157532
vn -0.578467071056366 0.06444503366947174 0.8131559491157532
vn -0.6920748353004456 0.015713613480329514 0.7216547727584839
vn -0.6920748353004456 0.015713613480329514 0.7216547727584839
vn -0.6920747756958008 0.015713609755039215 0.7216547727584839
vn -0.999742329120636 0.022699229419231415 0.0
vn -0.999742329120636 0.022699223831295967 0.0
vn -0.999742329120636 0.022699225693941116 0.0
vn -0.999742329120636 0.022699225693941116 0.0
vn -0.5671044588088989 0.1278727799654007 0.8136590123176575
vn -0.5671044588088989 0.1278727799654007 0.8136590123176575
vn -0.5671043992042542 0.1278727799654007 0.8136590719223022
vn -0.5824569463729858 0.1239086240530014 0.8033620715141296
vn 0.9948821067810059 0.1010427176952362 0.0
vn 0.9948821067810059 0.10104271024465561 0.0
vn 0.9948821067810059 0.1010427176952362 0.0
vn 0.6667980551719666 -0.0698833167552948 0.7419546246528625
vn 0.6667981147766113 -0.0698833167552948 0.7419545650482178
vn 0.6667980551719666 -0.0698833167552948 0.7419546246528625
vn 0.4990139305591583 -0.08755022287368774 0.8621601462364197
vn 0.4990139305591583 -0.08755023777484894 0.8621601462364197
vn 0.49901390075683594 -0.08755022287368774 0.8621601462364197
vn 0.9958490133285522 0.09102025628089905 0.0
vn 0.9958490133285522 0.09102024883031845 0.0
vn 0.9958490133285522 0.09102024883031845 0.0
vn 0.6017504334449768 -0.15028367936611176 0.7844177484512329
vn 0.601750373840332 -0.15028366446495056 0.7844177484512329
vn 0.6017504334449768 -0.15028367936611176 0.7844177484512329
vn 0.2762695252895355 -0.02895161882042885 0.9606440663337708
vn 0.27626946568489075 -0.02895161882042885 0.9606440663337708
vn 0.27626949548721313 -0.02895161882042885 0.9606440663337708
vt 0.04579266533255577 0.9979999999050051
vt 0.25224387645721436 0.7490000128746033
vt 0.25224387645721436 0.9979999999050051
vt 0.0020000000949949026 0.9636421240866184
vt 0.0020000000949949026 0.7490000128746033
vt 0.5024877190589905 0.7490000128746033
vt 0.5024877190589905 0.9979999999050051
vt 0.7527316212654114 0.7490000128746033
vt 0.7527316212654114 0.9544250033795834
vt 0.7185680270195007 0.9979999999050051
vt 0.25224387645721436 0.5
vt 0.0020000000949949026 0.6245000064373016
vt 0.0020000000949949026 0.562250018119812
vt 0.0020000000949949026 0.5
vt 0.5024877190589905 0.5
vt 0.7527316212654114 0.6518900096416473
vt 0.7527316212654114 0.5
vt 0.25224387645721436 0.2510000467300415
vt 0.0020000000949949026 0.2510000467300415
vt 0.5024877190589905 0.2510000467300415
vt 0.7527316212654114 0.37550002336502075
vt 0.7527316212654114 0.2510000467300415
vt 0.25224387645721436 0.0020000338554382324
vt 0.0020000000949949026 0.045574963092803955
vt 0.0360993891954422 0.0020000338554382324
vt 0.5024877190589905 0.0020000338554382324
vt 0.7527316212654114 0.03514820337295532
vt 0.7089389562606812 0.0020000338554382324
vt 0.7489999532699585 0.9979999999050051
vt 0.5 0.27714502811431885
vt 0.7489999532699585 0.27714502811431885
vt 0.5 0.9979999999050051
vt 0.792574942111969 0.9979999999050051
vt 0.7489999532699585 0.27714502811431885
vt 0.792574942111969 0.27714502811431885
vt 0.7489999532699585 0.9979999999050051
vt 0.25099998712539673 0.9979999999050051
vt 0.0020000000949949026 0.27714502811431885
vt 0.25099998712539673 0.27714502811431885
vt 0.0020000000949949026 0.9979999999050051
vt 0.5 0.9979999999050051
vt 0.5 0.27714502811431885
vt 0.04557499662041664 0.9979999999050051
vt 0.0020000000949949026 0.27714502811431885
vt 0.04557499662041664 0.27714502811431885
vt 0.0020000000949949026 0.9979999999050051
vt 0.34810999035835266 0.9979999999050051
vt 0.25099998712539673 0.27714502811431885
vt 0.34810999035835266 0.27714502811431885
vt 0.25099998712539673 0.27714502811431885
vt 0.34810999035835266 0.9979999999050051
vt 0.25099998712539673 0.9979999999050051
vt 0.04557499662041664 0.27714502811431885
vt 0.04557499662041664 0.9979999999050051
vt 0.34810999035835266 0.27714502811431885
vt 0.5 0.9979999999050051
vt 0.5 0.27714502811431885
vt 0.6244999766349792 0.9979999999050051
vt 0.6244999766349792 0.27714502811431885
vt 0.7489999532699585 0.9979999999050051
vt 0.7489999532699585 0.27714502811431885
vt 0.9979999661445618 0.9979999999050051
vt 0.9979999661445618 0.27714502811431885
vt 0.6244999766349792 0.9979999999050051
vt 0.5 0.27714502811431885
vt 0.6244999766349792 0.27714502811431885
vt 0.04557499662041664 0.9979999999050051
vt 0.0020000000949949026 0.27714502811431885
vt 0.04557499662041664 0.27714502811431885
vt 0.0020000000949949026 0.9979999999050051
vt 0.5 0.9979999999050051
vt 0.25099998712539673 0.27714502811431885
vt 0.5 0.27714502811431885
vt 0.25099998712539673 0.9979999999050051
vt 0.7489999532699585 0.9979999999050051
vt 0.7489999532699585 0.27714502811431885
vt 0.04557499662041664 0.27714502811431885
vt 0.04557499662041664 0.9979999999050051
vt 0.792574942111969 0.9979999999050051
vt 0.7489999532699585 0.27714502811431885
vt 0.792574942111969 0.27714502811431885
vt 0.7489999532699585 0.9979999999050051
vt 0.25099998712539673 0.9979999999050051
vt 0.0020000000949949026 0.27714502811431885
vt 0.25099998712539673 0.27714502811431885
vt 0.0020000000949949026 0.9979999999050051
vt 0.31325000524520874 0.9979999999050051
vt 0.25099998712539673 0.27714502811431885
vt 0.31325000524520874 0.27714502811431885
vt 0.25099998712539673 0.9979999999050051
vt 0.9979999661445618 0.9979999999050051
vt 0.792574942111969 0.27714502811431885
vt 0.9979999661445618 0.27714502811431885
vt 0.792574942111969 0.9979999999050051
vt 0.9979999661445618 0.9979999999050051
vt 0.792574942111969 0.27714502811431885
vt 0.9979999661445618 0.27714502811431885
vt 0.792574942111969 0.9979999999050051
vt 0.7489999532699585 0.2510000467300415
vt 0.5 0.27714502811431885
vt 0.5 0.2510000467300415
vt 0.5 0.27714502811431885
vt 0.7489999532699585 0.2510000467300415
vt 0.7489999532699585 0.27714502811431885
vt 0.792574942111969 0.2510000467300415
vt 0.7489999532699585 0.27714502811431885
vt 0.7489999532699585 0.2510000467300415
vt 0.792574942111969 0.27714502811431885
vt 0.25099998712539673 0.2510000467300415
vt 0.0020000000949949026 0.27714502811431885
vt 0.0020000000949949026 0.2510000467300415
vt 0.0020000000949949026 0.27714502811431885
vt 0.25099998712539673 0.2510000467300415
vt 0.25099998712539673 0.27714502811431885
vt 0.5 0.2510000467300415
vt 0.25099998712539673 0.27714502811431885
vt 0.5 0.2510000467300415
vt 0.5 0.27714502811431885
vt 0.04557499662041664 0.2510000467300415
vt 0.0020000000949949026 0.27714502811431885
vt 0.0020000000949949026 0.2510000467300415
vt 0.04557499662041664 0.27714502811431885
vt 0.5 0.27714502811431885
vt 0.34810999035835266 0.2510000467300415
vt 0.5 0.2510000467300415
vt 0.34810999035835266 0.2510000467300415
vt 0.5 0.27714502811431885
vt 0.34810999035835266 0.27714502811431885
vt 0.7489999532699585 0.2510000467300415
vt 0.6244999766349792 0.27714502811431885
vt 0.6244999766349792 0.2510000467300415
vt 0.6244999766349792 0.27714502811431885
vt 0.7489999532699585 0.2510000467300415
vt 0.7489999532699585 0.27714502811431885
vt 0.9979999661445618 0.2510000467300415
vt 0.7489999532699585 0.27714502811431885
vt 0.7489999532699585 0.2510000467300415
vt 0.7489999532699585 0.27714502811431885
vt 0.9979999661445618 0.2510000467300415
vt 0.9979999661445618 0.27714502811431885
vt 0.04557499662041664 0.2510000467300415
vt 0.0020000000949949026 0.27714502811431885
vt 0.0020000000949949026 0.2510000467300415
vt 0.04557499662041664 0.27714502811431885
vt 0.5 0.2510000467300415
vt 0.25099998712539673 0.27714502811431885
vt 0.25099998712539673 0.2510000467300415
vt 0.04557499662041664 0.27714502811431885
vt 0.25099998712539673 0.27714502811431885
vt 0.5 0.2510000467300415
vt 0.5 0.27714502811431885
vt 0.7489999532699585 0.2510000467300415
vt 0.5 0.27714502811431885
vt 0.7489999532699585 0.2510000467300415
vt 0.7489999532699585 0.27714502811431885
vt 0.792574942111969 0.2510000467300415
vt 0.7489999532699585 0.27714502811431885
vt 0.7489999532699585 0.2510000467300415
vt 0.792574942111969 0.27714502811431885
vt 0.25099998712539673 0.2510000467300415
vt 0.0020000000949949026 0.27714502811431885
vt 0.0020000000949949026 0.2510000467300415
vt 0.25099998712539673 0.27714502811431885
vt 0.5 0.2510000467300415
vt 0.37549999356269836 0.27714502811431885
vt 0.37549999356269836 0.2510000467300415
vt 0.5 0.27714502811431885
vt 0.25099998712539673 0.2510000467300415
vt 0.04557499662041664 0.27714502811431885
vt 0.04557499662041664 0.2510000467300415
vt 0.25099998712539673 0.27714502811431885
vt 0.25099998712539673 0.2510000467300415
vt 0.04557499662041664 0.27714502811431885
vt 0.04557499662041664 0.2510000467300415
vt 0.9979999661445618 0.2510000467300415
vt 0.792574942111969 0.27714502811431885
vt 0.792574942111969 0.2510000467300415
vt 0.792574942111969 0.27714502811431885
vt 0.9979999661445618 0.2510000467300415
vt 0.9979999661445618 0.27714502811431885
vt 0.9979999661445618 0.2510000467300415
vt 0.792574942111969 0.27714502811431885
vt 0.792574942111969 0.2510000467300415
vt 0.792574942111969 0.27714502811431885
vt 0.9979999661445618 0.2510000467300415
vt 0.9979999661445618 0.27714502811431885
vt 0.5 0.9979999999050051
vt 0.37549999356269836 0.27714502811431885
vt 0.5 0.27714502811431885
vt 0.37549999356269836 0.9979999999050051
vt 0.37549999356269836 0.2510000467300415
vt 0.31325000524520874 0.27714502811431885
vt 0.31325000524520874 0.2510000467300415
vt 0.31325000524520874 0.27714502811431885
vt 0.37549999356269836 0.2510000467300415
vt 0.37549999356269836 0.27714502811431885
vt 0.37549999356269836 0.9979999999050051
vt 0.31325000524520874 0.27714502811431885
vt 0.37549999356269836 0.27714502811431885
vt 0.31325000524520874 0.9979999999050051
vt 0.31325000524520874 0.2510000467300415
vt 0.25099998712539673 0.27714502811431885
vt 0.25099998712539673 0.2510000467300415
vt 0.31325000524520874 0.27714502811431885
vt 0.7489999532699585 0.9979999999050051
vt 0.6244999766349792 0.27714502811431885
vt 0.7489999532699585 0.27714502811431885
vt 0.6244999766349792 0.2510000467300415
vt 0.5 0.27714502811431885
vt 0.5 0.2510000467300415
vt 0.5 0.27714502811431885
vt 0.6244999766349792 0.2510000467300415
vt 0.6244999766349792 0.27714502811431885
vt 0.5 0.9979999999050051
vt 0.34810999035835266 0.27714502811431885
vt 0.5 0.27714502811431885
vt 0.25099998712539673 0.2510000467300415
vt 0.34810999035835266 0.27714502811431885
vt 0.25099998712539673 0.27714502811431885
vt 0.34810999035835266 0.27714502811431885
vt 0.25099998712539673 0.2510000467300415
vt 0.34810999035835266 0.2510000467300415

g bg_mdl_bt_3x4_300
s 1
usemtl bg_mdl_bt_3x4_300_0
f 3/3/3 2/2/2 1/1/1 
f 1/1/1 2/2/2 4/4/4 
f 4/4/4 2/2/2 5/5/5 
f 2/2/2 3/3/3 6/6/6 
f 7/7/7 6/6/6 3/3/3 
f 7/7/7 8/8/8 6/6/6 
f 9/9/9 8/8/8 7/7/7 
f 10/10/10 9/9/9 7/7/7 
f 2/2/2 11/11/11 5/5/5 
f 5/5/5 11/11/11 12/12/12 
f 12/12/12 11/11/11 13/13/13 
f 13/13/13 11/11/11 14/14/14 
f 6/6/6 15/15/15 2/2/2 
f 11/11/11 2/2/2 15/15/15 
f 8/8/8 16/16/16 6/6/6 
f 16/16/16 17/17/17 6/6/6 
f 6/6/6 17/17/17 15/15/15 
f 11/11/11 18/18/18 14/14/14 
f 19/19/19 14/14/14 18/18/18 
f 15/15/15 20/20/20 11/11/11 
f 18/18/18 11/11/11 20/20/20 
f 17/17/17 21/21/21 15/15/15 
f 21/21/21 22/22/22 15/15/15 
f 15/15/15 22/22/22 20/20/20 
f 18/18/18 23/23/23 19/19/19 
f 19/19/19 23/23/23 24/24/24 
f 24/24/24 23/23/23 25/25/25 
f 20/20/20 26/26/26 18/18/18 
f 23/23/23 18/18/18 26/26/26 
f 22/22/22 27/27/27 20/20/20 
f 27/27/27 28/28/28 20/20/20 
f 20/20/20 28/28/28 26/26/26 

usemtl bg_mdl_bt_3x4_300_1
f 31/31/31 30/30/30 29/29/29 
f 32/32/32 29/29/29 30/30/30 
f 35/35/35 34/34/34 33/33/33 
f 36/36/36 33/33/33 34/34/34 
f 39/39/39 38/38/38 37/37/37 
f 40/40/40 37/37/37 38/38/38 
f 37/37/37 41/41/41 39/39/39 
f 42/42/42 39/39/39 41/41/41 
f 45/45/45 44/44/44 43/43/43 
f 46/46/46 43/43/43 44/44/44 
f 49/49/49 48/48/48 47/47/47 
f 52/52/52 51/51/51 50/50/50 
f 50/50/50 53/53/53 52/52/52 
f 54/54/54 52/52/52 53/53/53 
f 51/51/51 56/56/56 55/55/55 
f 56/56/56 58/58/58 57/57/57 
f 58/58/58 60/60/60 59/59/59 
f 60/60/60 62/62/62 61/61/61 
f 63/63/63 61/61/61 62/62/62 
f 66/66/66 65/65/65 64/64/64 
f 69/69/69 68/68/68 67/67/67 
f 70/70/70 67/67/67 68/68/68 
f 73/73/73 72/72/72 71/71/71 
f 74/74/74 71/71/71 72/72/72 
f 71/71/71 75/75/75 73/73/73 
f 76/76/76 73/73/73 75/75/75 
f 72/72/72 77/77/77 74/74/74 
f 78/78/78 74/74/74 77/77/77 
f 81/81/81 80/80/80 79/79/79 
f 82/82/82 79/79/79 80/80/80 
f 85/85/85 84/84/84 83/83/83 
f 86/86/86 83/83/83 84/84/84 
f 89/89/89 88/88/88 87/87/87 
f 90/90/90 87/87/87 88/88/88 
f 93/93/93 92/92/92 91/91/91 
f 94/94/94 91/91/91 92/92/92 
f 97/97/97 96/96/96 95/95/95 
f 98/98/98 95/95/95 96/96/96 
f 101/101/101 100/100/100 99/99/99 
f 104/104/104 103/103/103 102/102/102 
f 107/107/107 106/106/106 105/105/105 
f 108/108/108 105/105/105 106/106/106 
f 111/111/111 110/110/110 109/109/109 
f 114/114/114 113/113/113 112/112/112 
f 113/113/113 114/114/114 115/115/115 
f 118/118/118 117/117/117 116/116/116 
f 121/121/121 120/120/120 119/119/119 
f 122/122/122 119/119/119 120/120/120 
f 125/125/125 124/124/124 123/123/123 
f 128/128/128 127/127/127 126/126/126 
f 131/131/131 130/130/130 129/129/129 
f 134/134/134 133/133/133 132/132/132 
f 137/137/137 136/136/136 135/135/135 
f 140/140/140 139/139/139 138/138/138 
f 143/143/143 142/142/142 141/141/141 
f 144/144/144 141/141/141 142/142/142 
f 147/147/147 146/146/146 145/145/145 
f 146/146/146 147/147/147 148/148/148 
f 151/151/151 150/150/150 149/149/149 
f 150/150/150 151/151/151 152/152/152 
f 155/155/155 154/154/154 153/153/153 
f 158/158/158 157/157/157 156/156/156 
f 159/159/159 156/156/156 157/157/157 
f 162/162/162 161/161/161 160/160/160 
f 163/163/163 160/160/160 161/161/161 
f 166/166/166 165/165/165 164/164/164 
f 167/167/167 164/164/164 165/165/165 
f 170/170/170 169/169/169 168/168/168 
f 171/171/171 168/168/168 169/169/169 
f 174/174/174 173/173/173 172/172/172 
f 177/177/177 176/176/176 175/175/175 
f 180/180/180 179/179/179 178/178/178 
f 183/183/183 182/182/182 181/181/181 
f 186/186/186 185/185/185 184/184/184 
f 189/189/189 188/188/188 187/187/187 
f 190/190/190 187/187/187 188/188/188 
f 193/193/193 192/192/192 191/191/191 
f 196/196/196 195/195/195 194/194/194 
f 199/199/199 198/198/198 197/197/197 
f 200/200/200 197/197/197 198/198/198 
f 203/203/203 202/202/202 201/201/201 
f 204/204/204 201/201/201 202/202/202 
f 207/207/207 206/206/206 205/205/205 
f 210/210/210 209/209/209 208/208/208 
f 213/213/213 212/212/212 211/211/211 
f 216/216/216 215/215/215 214/214/214 
f 219/219/219 218/218/218 217/217/217 
f 222/222/222 221/221/221 220/220/220 

