v -5.5 -5.5 0.0
v -4.5 -4.5 0.0
v -4.5 -5.5 0.0
v -5.5 -4.5 0.0
v -3.5 -4.5 0.0
v -3.5 -5.5 0.0
v -2.5 -4.5 0.0
v -2.5 -5.5 0.0
v -1.5 -4.5 0.0
v -1.5 -5.5 0.0
v -0.5 -4.5 0.0
v -0.5 -5.5 0.0
v 0.5 -4.5 0.0
v 0.5 -5.5 0.0
v 1.5 -4.5 0.0
v 1.5 -5.5 0.0
v 2.5 -4.5 0.0
v 2.5 -5.5 0.0
v 3.5 -4.5 0.0
v 3.5 -5.5 0.0
v 4.5 -4.5 0.0
v 4.5 -5.5 0.0
v 5.5 -4.5 0.0
v 5.5 -5.5 0.0
v -0.5 -3.5 0.0
v 0.5 -3.5 0.0
v 1.5 -3.5 0.0
v 2.5 -3.5 0.0
v 3.5 -3.5 0.0
v 4.5 -3.5 0.0
v 5.5 -3.5 0.0
v 0.5 -2.5 0.0
v -0.5 -2.5 0.0
v -1.5 -3.5 0.0
v -2.5 -3.5 0.0
v -3.5 -3.5 0.0
v -4.5 -3.5 0.0
v -5.5 -3.5 0.0
v -4.5 -2.5 0.0
v -5.5 -2.5 0.0
v -3.5 -2.5 0.0
v -2.5 -2.5 0.0
v -1.5 -2.5 0.0
v -4.5 -1.5 0.0
v -5.5 -1.5 0.0
v -3.5 -1.5 0.0
v -2.5 -1.5 0.0
v -1.5 -1.5 0.0
v -0.5 -1.5 0.0
v 0.5 -1.5 0.0
v 1.5 -1.5 0.0
v 1.5 -2.5 0.0
v 2.5 -2.5 0.0
v 3.5 -2.5 0.0
v 4.5 -2.5 0.0
v 5.5 -2.5 0.0
v 2.5 -1.5 0.0
v 3.5 -1.5 0.0
v 4.5 -1.5 0.0
v 5.5 -1.5 0.0
v 2.5 -0.5 0.0
v 3.5 -0.5 0.0
v 4.5 -0.5 0.0
v 5.5 -0.5 0.0
v 3.5 0.5 0.0
v 2.5 0.5 0.0
v 1.5 -0.5 0.0
v 0.5 -0.5 0.0
v -0.5 -0.5 0.0
v -1.5 -0.5 0.0
v -2.5 -0.5 0.0
v -3.5 -0.5 0.0
v -4.5 -0.5 0.0
v -5.5 -0.5 0.0
v -4.5 0.5 0.0
v -5.5 0.5 0.0
v -3.5 0.5 0.0
v -2.5 0.5 0.0
v -1.5 0.5 0.0
v -0.5 0.5 0.0
v 0.5 0.5 0.0
v 1.5 0.5 0.0
v -4.5 1.5 0.0
v -5.5 1.5 0.0
v -3.5 1.5 0.0
v -2.5 1.5 0.0
v -1.5 1.5 0.0
v -0.5 1.5 0.0
v 0.5 1.5 0.0
v 1.5 1.5 0.0
v 2.5 1.5 0.0
v 3.5 1.5 0.0
v 4.5 1.5 0.0
v 4.5 0.5 0.0
v 5.5 0.5 0.0
v 5.5 1.5 0.0
v -2.5 2.5 0.0
v -1.5 2.5 0.0
v 0.5 2.5 0.0
v 1.5 2.5 0.0
v 3.5 2.5 0.0
v 4.5 2.5 0.0
v 5.5 2.5 0.0
v -1.5 3.5 0.0
v -2.5 3.5 0.0
v -3.5 2.5 0.0
v -4.5 2.5 0.0
v -5.5 2.5 0.0
v -4.5 3.5 0.0
v -5.5 3.5 0.0
v -3.5 3.5 0.0
v 4.5 3.5 0.0
v 5.5 3.5 0.0
v -4.5 4.5 0.0
v -5.5 4.5 0.0
v -3.5 4.5 0.0
v -2.5 4.5 0.0
v -1.5 4.5 0.0
v -0.5 4.5 0.0
v -0.5 3.5 0.0
v -0.5 2.5 0.0
v 0.5 3.5 0.0
v 1.5 3.5 0.0
v 2.5 3.5 0.0
v 2.5 2.5 0.0
v 3.5 3.5 0.0
v 0.5 4.5 0.0
v 1.5 4.5 0.0
v 2.5 4.5 0.0
v 3.5 4.5 0.0
v 4.5 4.5 0.0
v 5.5 4.5 0.0
v 1.5 5.5 0.0
v 0.5 5.5 0.0
v -0.5 5.5 0.0
v -1.5 5.5 0.0
v -2.5 5.5 0.0
v -3.5 5.5 0.0
v -4.5 5.5 0.0
v -5.5 5.5 0.0
v -4.5 6.500001907348633 0.0
v -5.5 6.500001907348633 0.0
v -3.5 6.500001907348633 0.0
v -2.5 6.500001907348633 0.0
v -1.5 6.500001907348633 0.0
v -0.5 6.500001907348633 0.0
v 0.5 6.500001907348633 0.0
v 1.5 6.500001907348633 0.0
v 2.5 6.500001907348633 0.0
v 2.5 5.5 0.0
v 3.5 5.5 0.0
v 4.5 5.5 0.0
v 5.5 5.5 0.0
v 3.5 6.500001907348633 0.0
v 4.5 6.500001907348633 0.0
v 5.5 6.500001907348633 0.0
v -5.5 -6.500001907348633 0.0
v -4.5 -6.500001907348633 0.0
v -3.5 -6.500001907348633 0.0
v -2.5 -6.500001907348633 0.0
v -1.5 -6.500001907348633 0.0
v -0.5 -6.500001907348633 0.0
v 0.5 -6.500001907348633 0.0
v 1.5 -6.500001907348633 0.0
v 2.5 -6.500001907348633 0.0
v 3.5 -6.500001907348633 0.0
v 4.5 -6.500001907348633 0.0
v 5.5 -6.500001907348633 0.0
vn -0.0 0.0 1.0
vn -0.0 0.0 1.0
vn -0.0 0.0 1.0
vn -0.0 0.0 1.0
vn -0.0 0.0 1.0
vn -0.0 0.0 1.0
vn -0.0 0.0 1.0
vn -0.0 0.0 1.0
vn -0.0 0.0 1.0
vn -0.0 0.0 1.0
vn -0.0 0.0 1.0
vn -0.0 0.0 1.0
vn -0.0 0.0 1.0
vn -0.0 0.0 1.0
vn -0.0 0.0 1.0
vn -0.0 0.0 1.0
vn -0.0 0.0 1.0
vn -0.0 0.0 1.0
vn -0.0 0.0 1.0
vn -0.0 0.0 1.0
vn -0.0 0.0 1.0
vn -0.0 0.0 1.0
vn -0.0 0.0 1.0
vn -0.0 0.0 1.0
vn -0.0 0.0 1.0
vn -0.0 0.0 1.0
vn -0.0 0.0 1.0
vn -0.0 0.0 1.0
vn -0.0 0.0 1.0
vn -0.0 0.0 1.0
vn -0.0 0.0 1.0
vn -0.0 0.0 1.0
vn -0.0 0.0 1.0
vn -0.0 0.0 1.0
vn -0.0 0.0 1.0
vn -0.0 0.0 1.0
vn -0.0 0.0 1.0
vn -0.0 0.0 1.0
vn -0.0 0.0 1.0
vn -0.0 0.0 1.0
vn -0.0 0.0 1.0
vn -0.0 0.0 1.0
vn -0.0 0.0 1.0
vn -0.0 0.0 1.0
vn -0.0 0.0 1.0
vn -0.0 0.0 1.0
vn -0.0 0.0 1.0
vn -0.0 0.0 1.0
vn -0.0 0.0 1.0
vn -0.0 0.0 1.0
vn -0.0 0.0 1.0
vn -0.0 0.0 1.0
vn -0.0 0.0 1.0
vn -0.0 0.0 1.0
vn -0.0 0.0 1.0
vn -0.0 0.0 1.0
vn -0.0 0.0 1.0
vn -0.0 0.0 1.0
vn -0.0 0.0 1.0
vn -0.0 0.0 1.0
vn -0.0 0.0 1.0
vn -0.0 0.0 1.0
vn -0.0 0.0 1.0
vn -0.0 0.0 1.0
vn -0.0 0.0 1.0
vn -0.0 0.0 1.0
vn -0.0 0.0 1.0
vn -0.0 0.0 1.0
vn -0.0 0.0 1.0
vn -0.0 0.0 1.0
vn -0.0 0.0 1.0
vn -0.0 0.0 1.0
vn -0.0 0.0 1.0
vn -0.0 0.0 1.0
vn -0.0 0.0 1.0
vn -0.0 0.0 1.0
vn -0.0 0.0 1.0
vn -0.0 0.0 1.0
vn -0.0 0.0 1.0
vn -0.0 0.0 1.0
vn -0.0 0.0 1.0
vn -0.0 0.0 1.0
vn -0.0 0.0 1.0
vn -0.0 0.0 1.0
vn -0.0 0.0 1.0
vn -0.0 0.0 1.0
vn -0.0 0.0 1.0
vn -0.0 0.0 1.0
vn -0.0 0.0 1.0
vn -0.0 0.0 1.0
vn -0.0 0.0 1.0
vn -0.0 0.0 1.0
vn -0.0 0.0 1.0
vn -0.0 0.0 1.0
vn -0.0 0.0 1.0
vn -0.0 0.0 1.0
vn -0.0 0.0 1.0
vn -0.0 0.0 1.0
vn -0.0 0.0 1.0
vn -0.0 0.0 1.0
vn -0.0 0.0 1.0
vn -0.0 0.0 1.0
vn -0.0 0.0 1.0
vn -0.0 0.0 1.0
vn -0.0 0.0 1.0
vn -0.0 0.0 1.0
vn -0.0 0.0 1.0
vn -0.0 0.0 1.0
vn -0.0 0.0 1.0
vn -0.0 0.0 1.0
vn -0.0 0.0 1.0
vn -0.0 0.0 1.0
vn -0.0 0.0 1.0
vn -0.0 0.0 1.0
vn -0.0 0.0 1.0
vn -0.0 0.0 1.0
vn -0.0 0.0 1.0
vn -0.0 0.0 1.0
vn -0.0 0.0 1.0
vn -0.0 0.0 1.0
vn -0.0 0.0 1.0
vn -0.0 0.0 1.0
vn -0.0 0.0 1.0
vn -0.0 0.0 1.0
vn -0.0 0.0 1.0
vn -0.0 0.0 1.0
vn -0.0 0.0 1.0
vn -0.0 0.0 1.0
vn -0.0 0.0 1.0
vn -0.0 0.0 1.0
vn -0.0 0.0 1.0
vn -0.0 0.0 1.0
vn -0.0 0.0 1.0
vn -0.0 0.0 1.0
vn -0.0 0.0 1.0
vn -0.0 0.0 1.0
vn -0.0 0.0 1.0
vn -0.0 0.0 1.0
vn -0.0 0.0 1.0
vn -0.0 0.0 1.0
vn -0.0 0.0 1.0
vn -0.0 0.0 1.0
vn -0.0 0.0 1.0
vn -0.0 0.0 1.0
vn -0.0 0.0 1.0
vn -0.0 0.0 1.0
vn -0.0 0.0 1.0
vn -0.0 0.0 1.0
vn -0.0 0.0 1.0
vn -0.0 0.0 1.0
vn -0.0 0.0 1.0
vn -0.0 0.0 1.0
vn -0.0 0.0 1.0
vn -0.0 0.0 1.0
vn -0.0 0.0 1.0
vn -0.0 0.0 1.0
vn -0.0 0.0 1.0
vn -0.0 0.0 1.0
vn -0.0 0.0 1.0
vn -0.0 0.0 1.0
vn -0.0 0.0 1.0
vn -0.0 0.0 1.0
vn -0.0 0.0 1.0
vn -0.0 0.0 1.0
vn -0.0 0.0 1.0
vn -0.0 0.0 1.0
vn -0.0 0.0 1.0
vn -0.0 0.0 1.0
vt 0.0 1.0
vt 0.5 0.5
vt 0.5 1.0
vt 0.0 0.5
vt 1.0 0.5
vt 1.0 1.0
vt 1.5 0.5
vt 1.5 1.0
vt 2.0 0.5
vt 2.0 1.0
vt 2.5 0.5
vt 2.5 1.0
vt 3.0 0.5
vt 3.0 1.0
vt 3.5 0.5
vt 3.5 1.0
vt 4.0 0.5
vt 4.0 1.0
vt 4.500000476837158 0.5
vt 4.500000476837158 1.0
vt 5.000000476837158 0.5
vt 5.000000476837158 1.0
vt 5.500000476837158 0.5
vt 5.500000476837158 1.0
vt 2.5 0.0
vt 3.0 0.0
vt 3.5 0.0
vt 4.0 0.0
vt 4.500000476837158 0.0
vt 5.000000476837158 0.0
vt 5.500000476837158 0.0
vt 3.0 -0.5
vt 2.5 -0.5
vt 2.0 0.0
vt 1.5 0.0
vt 1.0 0.0
vt 0.5 0.0
vt 0.0 0.0
vt 0.5 -0.5
vt 0.0 -0.5
vt 1.0 -0.5
vt 1.5 -0.5
vt 2.0 -0.5
vt 0.5 -1.0
vt 0.0 -1.0
vt 1.0 -1.0
vt 1.5 -1.0
vt 2.0 -1.0
vt 2.5 -1.0
vt 3.0 -1.0
vt 3.5 -1.0
vt 3.5 -0.5
vt 4.0 -0.5
vt 4.500000476837158 -0.5
vt 5.000000476837158 -0.5
vt 5.500000476837158 -0.5
vt 4.0 -1.0
vt 4.500000476837158 -1.0
vt 5.000000476837158 -1.0
vt 5.500000476837158 -1.0
vt 4.0 -1.5
vt 4.500000476837158 -1.5
vt 5.000000476837158 -1.5
vt 5.500000476837158 -1.5
vt 4.500000476837158 -2.0
vt 4.0 -2.0
vt 3.5 -1.5
vt 3.0 -1.5
vt 2.5 -1.5
vt 2.0 -1.5
vt 1.5 -1.5
vt 1.0 -1.5
vt 0.5 -1.5
vt 0.0 -1.5
vt 0.5 -2.0
vt 0.0 -2.0
vt 1.0 -2.0
vt 1.5 -2.0
vt 2.0 -2.0
vt 2.5 -2.0
vt 3.0 -2.0
vt 3.5 -2.0
vt 0.5 -2.5
vt 0.0 -2.5
vt 1.0 -2.5
vt 1.5 -2.5
vt 2.0 -2.5
vt 2.5 -2.5
vt 3.0 -2.5
vt 3.5 -2.5
vt 4.0 -2.5
vt 4.500000476837158 -2.5
vt 5.000000476837158 -2.5
vt 5.000000476837158 -2.0
vt 5.500000476837158 -2.0
vt 5.500000476837158 -2.5
vt 1.5 -3.0
vt 2.0 -3.0
vt 3.0 -3.0
vt 3.5 -3.0
vt 4.500000476837158 -3.0
vt 5.000000476837158 -3.0
vt 5.500000476837158 -3.0
vt 2.0 -3.500000476837158
vt 1.5 -3.500000476837158
vt 1.0 -3.0
vt 0.5 -3.0
vt 0.0 -3.0
vt 0.5 -3.500000476837158
vt 0.0 -3.500000476837158
vt 1.0 -3.500000476837158
vt 5.000000476837158 -3.500000476837158
vt 5.500000476837158 -3.500000476837158
vt 0.5 -4.000000476837158
vt 0.0 -4.000000476837158
vt 1.0 -4.000000476837158
vt 1.5 -4.000000476837158
vt 2.0 -4.000000476837158
vt 2.5 -4.000000476837158
vt 2.5 -3.500000476837158
vt 2.5 -3.0
vt 3.0 -3.500000476837158
vt 3.5 -3.500000476837158
vt 4.0 -3.500000476837158
vt 4.0 -3.0
vt 4.500000476837158 -3.500000476837158
vt 3.0 -4.000000476837158
vt 3.5 -4.000000476837158
vt 4.0 -4.000000476837158
vt 4.500000476837158 -4.000000476837158
vt 5.000000476837158 -4.000000476837158
vt 5.500000476837158 -4.000000476837158
vt 3.5 -4.500000476837158
vt 3.0 -4.500000476837158
vt 2.5 -4.500000476837158
vt 2.0 -4.500000476837158
vt 1.5 -4.500000476837158
vt 1.0 -4.500000476837158
vt 0.5 -4.500000476837158
vt 0.0 -4.500000476837158
vt 0.5 -4.987495422363281
vt 0.0 -4.987495422363281
vt 1.0 -4.987495422363281
vt 1.5 -4.987495422363281
vt 2.0 -4.987495422363281
vt 2.5 -4.987495422363281
vt 3.0 -4.987495422363281
vt 3.5 -4.987495422363281
vt 4.0 -4.987495422363281
vt 4.0 -4.500000476837158
vt 4.500000476837158 -4.500000476837158
vt 5.000000476837158 -4.500000476837158
vt 5.500000476837158 -4.500000476837158
vt 4.500000476837158 -4.987495422363281
vt 5.000000476837158 -4.987495422363281
vt 5.500000476837158 -4.987495422363281
vt 0.0 1.5066246390342712
vt 0.5 1.5066246390342712
vt 1.0 1.5066246390342712
vt 1.5 1.5066246390342712
vt 2.0 1.5066246390342712
vt 2.5 1.5066246390342712
vt 3.0 1.5066246390342712
vt 3.5 1.5066246390342712
vt 4.0 1.5066246390342712
vt 4.500000476837158 1.5066246390342712
vt 5.000000476837158 1.5066246390342712
vt 5.500000476837158 1.5066246390342712

g bg_mdl_map_ground00_iseki_mlt
s 1
usemtl bg_mdl_map_ground00_iseki_mlt
f 3/3/3 2/2/2 1/1/1 
f 4/4/4 1/1/1 2/2/2 
f 2/2/2 3/3/3 5/5/5 
f 6/6/6 5/5/5 3/3/3 
f 5/5/5 6/6/6 7/7/7 
f 8/8/8 7/7/7 6/6/6 
f 7/7/7 8/8/8 9/9/9 
f 10/10/10 9/9/9 8/8/8 
f 9/9/9 10/10/10 11/11/11 
f 12/12/12 11/11/11 10/10/10 
f 11/11/11 12/12/12 13/13/13 
f 14/14/14 13/13/13 12/12/12 
f 13/13/13 14/14/14 15/15/15 
f 16/16/16 15/15/15 14/14/14 
f 15/15/15 16/16/16 17/17/17 
f 18/18/18 17/17/17 16/16/16 
f 17/17/17 18/18/18 19/19/19 
f 20/20/20 19/19/19 18/18/18 
f 19/19/19 20/20/20 21/21/21 
f 22/22/22 21/21/21 20/20/20 
f 21/21/21 22/22/22 23/23/23 
f 24/24/24 23/23/23 22/22/22 
f 11/11/11 25/25/25 9/9/9 
f 13/13/13 26/26/26 11/11/11 
f 25/25/25 11/11/11 26/26/26 
f 15/15/15 27/27/27 13/13/13 
f 26/26/26 13/13/13 27/27/27 
f 17/17/17 28/28/28 15/15/15 
f 27/27/27 15/15/15 28/28/28 
f 19/19/19 29/29/29 17/17/17 
f 28/28/28 17/17/17 29/29/29 
f 21/21/21 30/30/30 19/19/19 
f 29/29/29 19/19/19 30/30/30 
f 23/23/23 31/31/31 21/21/21 
f 30/30/30 21/21/21 31/31/31 
f 26/26/26 32/32/32 25/25/25 
f 33/33/33 25/25/25 32/32/32 
f 25/25/25 33/33/33 34/34/34 
f 34/34/34 9/9/9 25/25/25 
f 9/9/9 34/34/34 7/7/7 
f 35/35/35 7/7/7 34/34/34 
f 7/7/7 35/35/35 5/5/5 
f 36/36/36 5/5/5 35/35/35 
f 5/5/5 36/36/36 2/2/2 
f 37/37/37 2/2/2 36/36/36 
f 2/2/2 37/37/37 4/4/4 
f 38/38/38 4/4/4 37/37/37 
f 37/37/37 39/39/39 38/38/38 
f 40/40/40 38/38/38 39/39/39 
f 36/36/36 41/41/41 37/37/37 
f 39/39/39 37/37/37 41/41/41 
f 35/35/35 42/42/42 36/36/36 
f 41/41/41 36/36/36 42/42/42 
f 34/34/34 43/43/43 35/35/35 
f 42/42/42 35/35/35 43/43/43 
f 43/43/43 34/34/34 33/33/33 
f 39/39/39 44/44/44 40/40/40 
f 45/45/45 40/40/40 44/44/44 
f 41/41/41 46/46/46 39/39/39 
f 44/44/44 39/39/39 46/46/46 
f 42/42/42 47/47/47 41/41/41 
f 46/46/46 41/41/41 47/47/47 
f 43/43/43 48/48/48 42/42/42 
f 47/47/47 42/42/42 48/48/48 
f 48/48/48 43/43/43 49/49/49 
f 33/33/33 49/49/49 43/43/43 
f 49/49/49 33/33/33 50/50/50 
f 32/32/32 50/50/50 33/33/33 
f 50/50/50 32/32/32 51/51/51 
f 52/52/52 51/51/51 32/32/32 
f 32/32/32 26/26/26 52/52/52 
f 27/27/27 52/52/52 26/26/26 
f 52/52/52 27/27/27 53/53/53 
f 28/28/28 53/53/53 27/27/27 
f 53/53/53 28/28/28 54/54/54 
f 29/29/29 54/54/54 28/28/28 
f 54/54/54 29/29/29 55/55/55 
f 30/30/30 55/55/55 29/29/29 
f 55/55/55 30/30/30 56/56/56 
f 31/31/31 56/56/56 30/30/30 
f 53/53/53 57/57/57 52/52/52 
f 51/51/51 52/52/52 57/57/57 
f 54/54/54 58/58/58 53/53/53 
f 57/57/57 53/53/53 58/58/58 
f 55/55/55 59/59/59 54/54/54 
f 58/58/58 54/54/54 59/59/59 
f 56/56/56 60/60/60 55/55/55 
f 59/59/59 55/55/55 60/60/60 
f 57/57/57 61/61/61 51/51/51 
f 58/58/58 62/62/62 57/57/57 
f 61/61/61 57/57/57 62/62/62 
f 59/59/59 63/63/63 58/58/58 
f 62/62/62 58/58/58 63/63/63 
f 60/60/60 64/64/64 59/59/59 
f 63/63/63 59/59/59 64/64/64 
f 62/62/62 65/65/65 61/61/61 
f 66/66/66 61/61/61 65/65/65 
f 61/61/61 66/66/66 67/67/67 
f 67/67/67 51/51/51 61/61/61 
f 51/51/51 67/67/67 50/50/50 
f 68/68/68 50/50/50 67/67/67 
f 50/50/50 68/68/68 49/49/49 
f 69/69/69 49/49/49 68/68/68 
f 49/49/49 69/69/69 48/48/48 
f 70/70/70 48/48/48 69/69/69 
f 48/48/48 70/70/70 47/47/47 
f 71/71/71 47/47/47 70/70/70 
f 47/47/47 71/71/71 46/46/46 
f 72/72/72 46/46/46 71/71/71 
f 46/46/46 72/72/72 44/44/44 
f 73/73/73 44/44/44 72/72/72 
f 44/44/44 73/73/73 45/45/45 
f 74/74/74 45/45/45 73/73/73 
f 73/73/73 75/75/75 74/74/74 
f 76/76/76 74/74/74 75/75/75 
f 72/72/72 77/77/77 73/73/73 
f 75/75/75 73/73/73 77/77/77 
f 71/71/71 78/78/78 72/72/72 
f 77/77/77 72/72/72 78/78/78 
f 70/70/70 79/79/79 71/71/71 
f 78/78/78 71/71/71 79/79/79 
f 69/69/69 80/80/80 70/70/70 
f 79/79/79 70/70/70 80/80/80 
f 80/80/80 69/69/69 81/81/81 
f 68/68/68 81/81/81 69/69/69 
f 81/81/81 68/68/68 82/82/82 
f 67/67/67 82/82/82 68/68/68 
f 82/82/82 67/67/67 66/66/66 
f 75/75/75 83/83/83 76/76/76 
f 84/84/84 76/76/76 83/83/83 
f 77/77/77 85/85/85 75/75/75 
f 83/83/83 75/75/75 85/85/85 
f 78/78/78 86/86/86 77/77/77 
f 85/85/85 77/77/77 86/86/86 
f 79/79/79 87/87/87 78/78/78 
f 86/86/86 78/78/78 87/87/87 
f 80/80/80 88/88/88 79/79/79 
f 87/87/87 79/79/79 88/88/88 
f 81/81/81 89/89/89 80/80/80 
f 88/88/88 80/80/80 89/89/89 
f 82/82/82 90/90/90 81/81/81 
f 89/89/89 81/81/81 90/90/90 
f 66/66/66 91/91/91 82/82/82 
f 90/90/90 82/82/82 91/91/91 
f 91/91/91 66/66/66 92/92/92 
f 65/65/65 92/92/92 66/66/66 
f 92/92/92 65/65/65 93/93/93 
f 94/94/94 93/93/93 65/65/65 
f 65/65/65 62/62/62 94/94/94 
f 63/63/63 94/94/94 62/62/62 
f 94/94/94 63/63/63 95/95/95 
f 64/64/64 95/95/95 63/63/63 
f 95/95/95 96/96/96 94/94/94 
f 93/93/93 94/94/94 96/96/96 
f 86/86/86 97/97/97 85/85/85 
f 87/87/87 98/98/98 86/86/86 
f 97/97/97 86/86/86 98/98/98 
f 89/89/89 99/99/99 88/88/88 
f 90/90/90 100/100/100 89/89/89 
f 99/99/99 89/89/89 100/100/100 
f 92/92/92 101/101/101 91/91/91 
f 93/93/93 102/102/102 92/92/92 
f 101/101/101 92/92/92 102/102/102 
f 96/96/96 103/103/103 93/93/93 
f 102/102/102 93/93/93 103/103/103 
f 98/98/98 104/104/104 97/97/97 
f 105/105/105 97/97/97 104/104/104 
f 97/97/97 105/105/105 106/106/106 
f 106/106/106 85/85/85 97/97/97 
f 85/85/85 106/106/106 83/83/83 
f 107/107/107 83/83/83 106/106/106 
f 83/83/83 107/107/107 84/84/84 
f 108/108/108 84/84/84 107/107/107 
f 107/107/107 109/109/109 108/108/108 
f 110/110/110 108/108/108 109/109/109 
f 106/106/106 111/111/111 107/107/107 
f 109/109/109 107/107/107 111/111/111 
f 111/111/111 106/106/106 105/105/105 
f 102/102/102 112/112/112 101/101/101 
f 103/103/103 113/113/113 102/102/102 
f 112/112/112 102/102/102 113/113/113 
f 109/109/109 114/114/114 110/110/110 
f 115/115/115 110/110/110 114/114/114 
f 111/111/111 116/116/116 109/109/109 
f 114/114/114 109/109/109 116/116/116 
f 105/105/105 117/117/117 111/111/111 
f 116/116/116 111/111/111 117/117/117 
f 117/117/117 105/105/105 118/118/118 
f 104/104/104 118/118/118 105/105/105 
f 118/118/118 104/104/104 119/119/119 
f 120/120/120 119/119/119 104/104/104 
f 104/104/104 98/98/98 120/120/120 
f 121/121/121 120/120/120 98/98/98 
f 98/98/98 87/87/87 121/121/121 
f 88/88/88 121/121/121 87/87/87 
f 121/121/121 88/88/88 99/99/99 
f 99/99/99 122/122/122 121/121/121 
f 120/120/120 121/121/121 122/122/122 
f 122/122/122 99/99/99 123/123/123 
f 100/100/100 123/123/123 99/99/99 
f 123/123/123 100/100/100 124/124/124 
f 125/125/125 124/124/124 100/100/100 
f 100/100/100 90/90/90 125/125/125 
f 91/91/91 125/125/125 90/90/90 
f 125/125/125 91/91/91 101/101/101 
f 101/101/101 126/126/126 125/125/125 
f 124/124/124 125/125/125 126/126/126 
f 126/126/126 101/101/101 112/112/112 
f 122/122/122 127/127/127 120/120/120 
f 123/123/123 128/128/128 122/122/122 
f 127/127/127 122/122/122 128/128/128 
f 124/124/124 129/129/129 123/123/123 
f 128/128/128 123/123/123 129/129/129 
f 126/126/126 130/130/130 124/124/124 
f 129/129/129 124/124/124 130/130/130 
f 112/112/112 131/131/131 126/126/126 
f 130/130/130 126/126/126 131/131/131 
f 131/131/131 112/112/112 132/132/132 
f 113/113/113 132/132/132 112/112/112 
f 128/128/128 133/133/133 127/127/127 
f 134/134/134 127/127/127 133/133/133 
f 127/127/127 134/134/134 119/119/119 
f 119/119/119 120/120/120 127/127/127 
f 135/135/135 119/119/119 134/134/134 
f 119/119/119 135/135/135 118/118/118 
f 136/136/136 118/118/118 135/135/135 
f 118/118/118 136/136/136 117/117/117 
f 137/137/137 117/117/117 136/136/136 
f 117/117/117 137/137/137 116/116/116 
f 138/138/138 116/116/116 137/137/137 
f 116/116/116 138/138/138 114/114/114 
f 139/139/139 114/114/114 138/138/138 
f 114/114/114 139/139/139 115/115/115 
f 140/140/140 115/115/115 139/139/139 
f 139/139/139 141/141/141 140/140/140 
f 142/142/142 140/140/140 141/141/141 
f 138/138/138 143/143/143 139/139/139 
f 141/141/141 139/139/139 143/143/143 
f 137/137/137 144/144/144 138/138/138 
f 143/143/143 138/138/138 144/144/144 
f 136/136/136 145/145/145 137/137/137 
f 144/144/144 137/137/137 145/145/145 
f 135/135/135 146/146/146 136/136/136 
f 145/145/145 136/136/136 146/146/146 
f 146/146/146 135/135/135 147/147/147 
f 134/134/134 147/147/147 135/135/135 
f 147/147/147 134/134/134 148/148/148 
f 133/133/133 148/148/148 134/134/134 
f 148/148/148 133/133/133 149/149/149 
f 150/150/150 149/149/149 133/133/133 
f 133/133/133 128/128/128 150/150/150 
f 129/129/129 150/150/150 128/128/128 
f 150/150/150 129/129/129 151/151/151 
f 130/130/130 151/151/151 129/129/129 
f 151/151/151 130/130/130 152/152/152 
f 131/131/131 152/152/152 130/130/130 
f 152/152/152 131/131/131 153/153/153 
f 132/132/132 153/153/153 131/131/131 
f 151/151/151 154/154/154 150/150/150 
f 149/149/149 150/150/150 154/154/154 
f 152/152/152 155/155/155 151/151/151 
f 154/154/154 151/151/151 155/155/155 
f 153/153/153 156/156/156 152/152/152 
f 155/155/155 152/152/152 156/156/156 
f 1/1/1 157/157/157 3/3/3 
f 158/158/158 3/3/3 157/157/157 
f 3/3/3 158/158/158 6/6/6 
f 159/159/159 6/6/6 158/158/158 
f 6/6/6 159/159/159 8/8/8 
f 160/160/160 8/8/8 159/159/159 
f 8/8/8 160/160/160 10/10/10 
f 161/161/161 10/10/10 160/160/160 
f 10/10/10 161/161/161 12/12/12 
f 162/162/162 12/12/12 161/161/161 
f 12/12/12 162/162/162 14/14/14 
f 163/163/163 14/14/14 162/162/162 
f 14/14/14 163/163/163 16/16/16 
f 164/164/164 16/16/16 163/163/163 
f 16/16/16 164/164/164 18/18/18 
f 165/165/165 18/18/18 164/164/164 
f 18/18/18 165/165/165 20/20/20 
f 166/166/166 20/20/20 165/165/165 
f 20/20/20 166/166/166 22/22/22 
f 167/167/167 22/22/22 166/166/166 
f 22/22/22 167/167/167 24/24/24 
f 168/168/168 24/24/24 167/167/167 

