v -0.3134628236293793 1.5304594039916992 -1.1385080814361572
v 1.9239629978073935e-07 1.4006186723709106 -1.7210992574691772
v -0.3134627342224121 1.5304594039916992 -1.7210992574691772
v 1.172718171460474e-07 1.4006189107894897 -1.1614208221435547
v -0.4433034360408783 1.8439223766326904 -1.0831918716430664
v -0.4433033764362335 1.8439223766326904 -1.7210992574691772
v 1.0664671634685874e-07 1.3723852634429932 -1.0839157104492188
v -0.31346285343170166 1.488588571548462 -1.023566722869873
v 1.0144599826844569e-07 1.3585656881332397 -1.0459787845611572
v -0.31346285343170166 1.4701354503631592 -0.9729107618331909
v -0.4433034658432007 1.7670284509658813 -0.8721080422401428
v -0.4433034658432007 1.7394890785217285 -0.7965088486671448
v -0.31346285343170166 2.1573851108551025 -1.027875542640686
v -0.4433033764362335 1.8439223766326904 -1.7210992574691772
v -0.3134627342224121 2.1573851108551025 -1.7210992574691772
v -0.4433034360408783 1.8439223766326904 -1.0831918716430664
v -0.1567312479019165 2.2419865131378174 -1.7210992574691772
v -0.1762164682149887 2.2419867515563965 -1.0087740421295166
v -0.4433034658432007 1.7670284509658813 -0.8721080422401428
v -0.31346288323402405 2.034686803817749 -0.691052258014679
v -0.17621654272079468 2.110630989074707 -0.6443176865577698
v -0.4433034658432007 1.7394890785217285 -0.7965088486671448
v -0.31346291303634644 2.0088424682617188 -0.6201068758964539
v -0.17621655762195587 2.084308624267578 -0.5720587968826294
v 2.3115113378935348e-07 2.2872259616851807 -1.7210992574691772
v 1.363906108053925e-07 2.2872259616851807 -1.0049628019332886
v 0.16561359167099 2.2419867515563965 -1.010701060295105
v 0.1567317098379135 2.2419865131378174 -1.7210990190505981
v 0.16561351716518402 2.111154317855835 -0.647680938243866
v 8.559196373880695e-08 2.1472134590148926 -0.6206110715866089
v 0.16561350226402283 2.084308624267578 -0.573985755443573
v 7.58681153456564e-08 2.120412588119507 -0.547038733959198
v 0.31346309185028076 2.1573851108551025 -1.027875542640686
v 0.3134631812572479 2.1573851108551025 -1.7210990190505981
v 0.443303644657135 1.8439223766326904 -1.0831917524337769
v 0.4433037340641022 1.8439223766326904 -1.7210990190505981
v 0.443303644657135 1.7652699947357178 -0.8672808408737183
v 0.3134630620479584 2.035733222961426 -0.6939248442649841
v 0.44330358505249023 1.7394890785217285 -0.7965086698532104
v 0.313463032245636 2.0088424682617188 -0.6201067566871643
v 0.3134629428386688 1.5304592847824097 -1.1385080814361572
v 0.4433037340641022 1.8439223766326904 -1.7210990190505981
v 0.3134630024433136 1.5304592847824097 -1.7210990190505981
v 0.443303644657135 1.8439223766326904 -1.0831917524337769
v 1.172718171460474e-07 1.4006189107894897 -1.1614208221435547
v 1.9239629978073935e-07 1.4006186723709106 -1.7210992574691772
v 0.3134629428386688 1.4920088052749634 -1.0329561233520508
v 0.443303644657135 1.7652699947357178 -0.8672808408737183
v 1.0664671634685874e-07 1.3723852634429932 -1.0839157104492188
v 0.31346291303634644 1.4701354503631592 -0.9729107618331909
v 0.44330358505249023 1.7394890785217285 -0.7965086698532104
v 1.0144599826844569e-07 1.3585656881332397 -1.0459787845611572
v -0.31346285343170166 1.3181591033935547 -0.8283184766769409
v 1.0144599826844569e-07 1.3585656881332397 -1.0459787845611572
v -0.31346285343170166 1.4701354503631592 -0.9729107618331909
v 8.777404758575358e-08 1.2504041194915771 -0.9430725574493408
v -0.44330352544784546 1.4817341566085815 -0.5512775182723999
v -0.4433034658432007 1.7394890785217285 -0.7965088486671448
v -0.31346288323402405 1.0918378829956055 -0.7567667961120605
v 8.081831026629516e-08 1.071802020072937 -0.8866074085235596
v -0.44330352544784546 1.1402088403701782 -0.4433038532733917
v -0.31346288323402405 0.5089704990386963 -0.7567667961120605
v 8.097121195760337e-08 0.5089704990386963 -0.8866073489189148
v -0.44330352544784546 0.5089705586433411 -0.4433038532733917
v -0.3134629428386688 1.6453089714050293 -0.2742365002632141
v -0.4433034658432007 1.7394890785217285 -0.7965088486671448
v -0.31346291303634644 2.0088424682617188 -0.6201068758964539
v -0.44330352544784546 1.4817341566085815 -0.5512775182723999
v -0.17621655762195587 2.084308624267578 -0.5720587968826294
v -0.17621661722660065 1.6987230777740479 -0.18623368442058563
v -0.3134629428386688 1.1885795593261719 -0.12984098494052887
v -0.44330352544784546 1.1402088403701782 -0.4433038532733917
v -0.17621663212776184 1.1985975503921509 -0.03429488465189934
v -0.3134629428386688 0.5089705586433411 -0.1298409402370453
v -0.44330352544784546 0.5089705586433411 -0.4433038532733917
v 2.4231020745446585e-08 1.7130639553070068 -0.15948230028152466
v 7.58681153456564e-08 2.120412588119507 -0.547038733959198
v 0.16561350226402283 2.084308624267578 -0.573985755443573
v 0.16561345756053925 1.6987229585647583 -0.18816061317920685
v 2.4316528790535585e-09 1.2086154222488403 -2.811777051192621e-07
v 0.16561341285705566 1.1985975503921509 -0.03622181713581085
v 2.278753408191392e-09 0.5089706182479858 -2.3947561089698866e-07
v -0.17621663212776184 0.5089706182479858 -0.034294843673706055
v 0.3134630024433136 1.6453089714050293 -0.27423641085624695
v 0.313463032245636 2.0088424682617188 -0.6201067566871643
v 0.44330358505249023 1.4817339181900024 -0.5512773990631104
v 0.44330358505249023 1.7394890785217285 -0.7965086698532104
v 0.44330355525016785 1.1402087211608887 -0.44330379366874695
v 0.3134629726409912 1.1885795593261719 -0.1298409104347229
v 0.16561338305473328 0.5089706182479858 -0.03622177615761757
v 0.3134629726409912 0.5089705586433411 -0.12984086573123932
v 0.44330355525016785 0.5089705586433411 -0.4433037340641022
v 0.31346291303634644 1.3181589841842651 -0.8283185362815857
v 0.44330358505249023 1.7394890785217285 -0.7965086698532104
v 0.31346291303634644 1.4701354503631592 -0.9729107618331909
v 0.44330358505249023 1.4817339181900024 -0.5512773990631104
v 8.777404758575358e-08 1.2504041194915771 -0.9430725574493408
v 1.0144599826844569e-07 1.3585656881332397 -1.0459787845611572
v 0.31346288323402405 1.091837763786316 -0.7567668557167053
v 0.44330355525016785 1.1402087211608887 -0.44330379366874695
v 8.081831026629516e-08 1.071802020072937 -0.8866074085235596
v 0.44330355525016785 0.5089705586433411 -0.4433037340641022
v 0.31346288323402405 0.5089704990386963 -0.7567667961120605
v 8.097121195760337e-08 0.5089704990386963 -0.8866073489189148
v 1.0536747652167833e-07 0.030805444344878197 -0.9337859153747559
v -0.34682315587997437 0.4781661033630371 -0.7901270985603333
v -0.34682315587997437 0.030805453658103943 -0.7901270985603333
v 8.7738548870675e-08 0.4781661033630371 -0.9337859749794006
v -0.4904821217060089 0.4781661629676819 -0.4433038532733917
v -0.4904821217060089 0.030805474147200584 -0.44330382347106934
v -0.00011018178338417783 9.206825097862747e-07 -0.8320044279098511
v -0.28096577525138855 9.276165542360104e-07 -0.7156702280044556
v -0.31346288323402405 0.5089704990386963 -0.7567667961120605
v 8.097121195760337e-08 0.5089704990386963 -0.8866073489189148
v -0.28096577525138855 9.276165542360104e-07 -0.7156702280044556
v -0.39729997515678406 9.443568274036807e-07 -0.4348146319389343
v -0.44330352544784546 0.5089705586433411 -0.4433038532733917
v -0.4904821217060089 0.030805474147200584 -0.44330382347106934
v -0.3468232750892639 0.4781661629676819 -0.09648065268993378
v -0.3468232750892639 0.030805494636297226 -0.09648063778877258
v -0.4904821217060089 0.4781661629676819 -0.4433038532733917
v -0.1928967982530594 0.4781661629676819 0.005974627565592527
v -0.192896768450737 0.030805502086877823 0.005974653642624617
v -0.39729997515678406 9.443568274036807e-07 -0.4348146319389343
v -0.28096580505371094 9.610971574147698e-07 -0.15395906567573547
v -0.3134629428386688 0.5089705586433411 -0.1298409402370453
v -0.44330352544784546 0.5089705586433411 -0.4433038532733917
v -0.28096580505371094 9.610971574147698e-07 -0.15395906567573547
v -0.1579963117837906 8.507842039762181e-07 -0.06835192441940308
v 1.8025009040911755e-08 0.030805503949522972 0.04717843979597092
v 6.547292152880857e-10 0.4781661629676819 0.04717841371893883
v 0.18229356408119202 0.4781661629676819 0.004047699272632599
v 0.1822936236858368 0.030805502086877823 0.004047725815325975
v 2.278753408191392e-09 0.5089706182479858 -2.3947561089698866e-07
v -0.17621663212776184 0.5089706182479858 -0.034294843673706055
v -0.0001102525056921877 9.680312587079243e-07 -0.03762476146221161
v 0.14827556908130646 9.66096877164091e-07 -0.07007844001054764
v -0.0001102525056921877 9.680312587079243e-07 -0.03762476146221161
v -0.1579963117837906 8.507842039762181e-07 -0.06835192441940308
v 0.3468233048915863 0.030805494636297226 -0.09648054093122482
v 0.3468233048915863 0.4781661629676819 -0.09648057073354721
v 0.4904822111129761 0.4781661629676819 -0.4433037340641022
v 0.4904822111129761 0.030805474147200584 -0.4433037042617798
v 0.3134629726409912 0.5089705586433411 -0.12984086573123932
v 0.16561338305473328 0.5089706182479858 -0.03622177615761757
v 0.28074541687965393 8.456815976387588e-07 -0.15395905077457428
v 0.39707961678504944 9.443568274036807e-07 -0.43481460213661194
v 0.44330355525016785 0.5089705586433411 -0.4433037340641022
v 0.28074541687965393 8.456815976387588e-07 -0.15395905077457428
v 0.14827556908130646 9.66096877164091e-07 -0.07007844001054764
v 0.4904822111129761 0.030805474147200584 -0.4433037042617798
v 0.34682321548461914 0.4781661033630371 -0.790127158164978
v 0.34682321548461914 0.030805453658103943 -0.7901270985603333
v 0.4904822111129761 0.4781661629676819 -0.4433037340641022
v 8.7738548870675e-08 0.4781661033630371 -0.9337859749794006
v 1.0536747652167833e-07 0.030805444344878197 -0.9337859153747559
v 0.39707961678504944 9.443568274036807e-07 -0.43481460213661194
v 0.2807452976703644 8.122009944599995e-07 -0.7156702280044556
v 0.31346288323402405 0.5089704990386963 -0.7567667961120605
v 0.44330355525016785 0.5089705586433411 -0.4433037340641022
v 0.2807452976703644 8.122009944599995e-07 -0.7156702280044556
v -0.00011018178338417783 9.206825097862747e-07 -0.8320044279098511
v 8.097121195760337e-08 0.5089704990386963 -0.8866073489189148
vn -0.7327532172203064 -0.6701399683952332 -0.1182585209608078
vn -1.0267977756939217e-07 -1.0 0.0
vn -0.7071067690849304 -0.7071067690849304 0.0
vn -0.0 -0.9847840070724487 -0.17378272116184235
vn -0.9991205334663391 0.04129359498620033 0.007286891806870699
vn -1.0 0.0 -1.3315805347247078e-07
vn -0.0 -0.9395991563796997 -0.342276930809021
vn -0.7071065902709961 -0.6643968224525452 -0.24202688038349152
vn -0.0 -0.8365640044212341 -0.5478691458702087
vn -0.7427456974983215 -0.5601409673690796 -0.36683911085128784
vn -1.0 0.0 0.0
vn -0.9985015392303467 0.04577963426709175 0.029981115832924843
vn -0.7484944462776184 0.6539376974105835 0.11009762436151505
vn -1.0 0.0 -1.3315805347247078e-07
vn -0.7423239350318909 0.6700412034988403 -1.387839887456721e-07
vn -0.9991205334663391 0.04129359498620033 0.007286891806870699
vn -0.380465567111969 0.9247820377349854 -0.004920990206301212
vn -0.392287015914917 0.9062371850013733 0.15762300789356232
vn -1.0 0.0 0.0
vn -0.7655746936798096 0.6046963334083557 0.21963053941726685
vn -0.3913072645664215 0.8649852871894836 0.31413233280181885
vn -0.9985015392303467 0.04577963426709175 0.029981115832924843
vn -0.7512929439544678 0.5517985224723816 0.36204585433006287
vn -0.3907044529914856 0.7718168497085571 0.5016459822654724
vn 0.0012825366575270891 0.9999874830245972 -0.004846817813813686
vn 0.008353900164365768 0.9852779507637024 0.17075589299201965
vn 0.38420945405960083 0.9094308018684387 0.15911823511123657
vn 0.3793065845966339 0.9252683520317078 -0.002234346466138959
vn 0.3829317092895508 0.8682920932769775 0.31532859802246094
vn 0.009134642779827118 0.939559280872345 0.3422645032405853
vn 0.38408952951431274 0.7748190760612488 0.502126157283783
vn 0.010105420835316181 0.8356736302375793 0.5491335391998291
vn 0.7371774911880493 0.665826141834259 0.11508647352457047
vn 0.7423239350318909 0.6700410842895508 0.0
vn 0.9991205334663391 0.0412934385240078 0.007287149783223867
vn 1.0 -1.7455562328905216e-07 1.331580676833255e-07
vn 1.0 -1.78406111217555e-07 1.171143537703756e-07
vn 0.7537126541137695 0.617718517780304 0.22436809539794922
vn 0.9985015392303467 0.045779481530189514 0.029981272295117378
vn 0.7374640107154846 0.5642873048782349 0.3711153566837311
vn 0.7327531576156616 -0.6701400876045227 -0.11825840175151825
vn 1.0 -1.7455562328905216e-07 1.331580676833255e-07
vn 0.7071066498756409 -0.70710688829422 1.3644850582750223e-07
vn 0.9991205334663391 0.0412934385240078 0.007287149783223867
vn -0.0 -0.9847840070724487 -0.17378272116184235
vn -1.0267977756939217e-07 -1.0 0.0
vn 0.7071066498756409 -0.6643968820571899 -0.2420266717672348
vn 1.0 -1.78406111217555e-07 1.171143537703756e-07
vn -0.0 -0.9395991563796997 -0.342276930809021
vn 0.7427456378936768 -0.5601410865783691 -0.3668390214443207
vn 0.9985015392303467 0.045779481530189514 0.029981272295117378
vn -0.0 -0.8365640044212341 -0.5478691458702087
vn -0.7421262860298157 -0.340777724981308 -0.5771647095680237
vn -0.0 -0.8365640044212341 -0.5478691458702087
vn -0.7427456974983215 -0.5601409673690796 -0.36683911085128784
vn -0.0 -0.5084261894226074 -0.8611056804656982
vn -0.998542308807373 0.027441509068012238 0.0464768148958683
vn -0.9985015392303467 0.04577963426709175 0.029981115832924843
vn -0.7291205525398254 -0.1043730303645134 -0.6763796210289001
vn -0.0 -0.1525062471628189 -0.9883025288581848
vn -0.9993196725845337 0.005624521058052778 0.036448884755373
vn -0.5985356569290161 0.5324568152427673 -0.5985356569290161
vn -0.0 0.5324569940567017 -0.8464570641517639
vn -0.8464570045471191 0.5324570536613464 -1.2908451196835813e-07
vn -0.7714942097663879 0.3255307674407959 0.5466501712799072
vn -0.9985015392303467 0.04577963426709175 0.029981115832924843
vn -0.7512929439544678 0.5517985224723816 0.36204585433006287
vn -0.998542308807373 0.027441509068012238 0.0464768148958683
vn -0.3907044529914856 0.7718168497085571 0.5016459822654724
vn -0.3847479224205017 0.477669358253479 0.7898107767105103
vn -0.7677052021026611 0.09905943274497986 0.6331003308296204
vn -0.9993196725845337 0.005624521058052778 0.036448884755373
vn -0.387769877910614 0.13486650586128235 0.9118363261222839
vn -0.6713212132453918 0.512365996837616 0.5355454683303833
vn -0.8464570045471191 0.5324570536613464 -1.2908451196835813e-07
vn 0.009895551949739456 0.5155407190322876 0.8568079471588135
vn 0.010105420835316181 0.8356736302375793 0.5491335391998291
vn 0.38408952951431274 0.7748190760612488 0.502126157283783
vn 0.37618526816368103 0.4802023768424988 0.792395293712616
vn 0.011428033001720905 0.15052033960819244 0.9885409474372864
vn 0.37963902950286865 0.13547807931900024 0.9151611924171448
vn 0.010316121391952038 0.5008254051208496 0.8654868006706238
vn -0.34069275856018066 0.486416757106781 0.804566502571106
vn 0.7565399408340454 0.33419349789619446 0.5621049404144287
vn 0.7374640107154846 0.5642873048782349 0.3711153566837311
vn 0.998542308807373 0.027441393584012985 0.04647688940167427
vn 0.9985015392303467 0.045779481530189514 0.029981272295117378
vn 0.9993196725845337 0.005624485667794943 0.03644895181059837
vn 0.7528438568115234 0.10160750895738602 0.6503090858459473
vn 0.3329533040523529 0.48192042112350464 0.8104904890060425
vn 0.6573943495750427 0.5166168808937073 0.5485795736312866
vn 0.8464570045471191 0.5324570536613464 0.0
vn 0.7421262860298157 -0.34077778458595276 -0.5771647691726685
vn 0.9985015392303467 0.045779481530189514 0.029981272295117378
vn 0.7427456378936768 -0.5601410865783691 -0.3668390214443207
vn 0.998542308807373 0.027441393584012985 0.04647688940167427
vn -0.0 -0.5084261894226074 -0.8611056804656982
vn -0.0 -0.8365640044212341 -0.5478691458702087
vn 0.729120671749115 -0.10437308251857758 -0.6763795018196106
vn 0.9993196725845337 0.005624485667794943 0.03644895181059837
vn -0.0 -0.1525062471628189 -0.9883025288581848
vn 0.8464570045471191 0.5324570536613464 0.0
vn 0.5985355377197266 0.5324569940567017 -0.5985355973243713
vn -0.0 0.5324569940567017 -0.8464570641517639
vn 3.057449430343695e-05 -0.5348643660545349 -0.8449379205703735
vn -0.6373239159584045 0.43316999077796936 -0.6373240947723389
vn -0.5972777009010315 -0.5324846506118774 -0.599766194820404
vn -0.0 0.43316999077796936 -0.9013122916221619
vn -0.9013122916221619 0.43316999077796936 -1.1963987844865187e-07
vn -0.8502855896949768 -0.5263145565986633 -0.002735119080170989
vn -0.11918193101882935 -0.9502667188644409 -0.2877306640148163
vn -0.11918193101882935 -0.9502667188644409 -0.28773054480552673
vn -0.5985356569290161 0.5324568152427673 -0.5985356569290161
vn -0.0 0.5324569940567017 -0.8464570641517639
vn -0.30116233229637146 -0.9453781843185425 -0.12474551796913147
vn -0.30116215348243713 -0.9453781843185425 -0.12474537640810013
vn -0.8464570045471191 0.5324570536613464 -1.2908451196835813e-07
vn -0.8502855896949768 -0.5263145565986633 -0.002735119080170989
vn -0.6906731724739075 0.44187718629837036 0.572464108467102
vn -0.6535566449165344 -0.5320389866828918 0.5383290648460388
vn -0.9013122916221619 0.43316999077796936 -1.1963987844865187e-07
vn -0.3484976887702942 0.4417039752006531 0.8267084360122681
vn -0.32743045687675476 -0.5412269234657288 0.774507999420166
vn -0.3220060467720032 -0.9372950792312622 0.13337934017181396
vn -0.3220062553882599 -0.9372950792312622 0.13337935507297516
vn -0.6713212132453918 0.512365996837616 0.5355454683303833
vn -0.8464570045471191 0.5324570536613464 -1.2908451196835813e-07
vn -0.19364768266677856 -0.9380578994750977 0.2873115837574005
vn -0.20322570204734802 -0.9346024990081787 0.2919202744960785
vn 0.00900928396731615 -0.5389133095741272 0.8423129916191101
vn 0.009449332021176815 0.4501754939556122 0.8928900361061096
vn 0.34086674451828003 0.44445091485977173 0.8284160494804382
vn 0.319778174161911 -0.5446390509605408 0.7753130197525024
vn 0.010316121391952038 0.5008254051208496 0.8654868006706238
vn -0.34069275856018066 0.486416757106781 0.804566502571106
vn 0.07958642393350601 -0.9358109831809998 0.34340032935142517
vn 0.07704243808984756 -0.9327272176742554 0.35225605964660645
vn -0.07179219275712967 -0.9362137317657471 0.3440198004245758
vn -0.06892596930265427 -0.9326385259628296 0.3541674315929413
vn 0.6444706916809082 -0.5296686291694641 0.5514605045318604
vn 0.680448055267334 0.4401853382587433 0.585856020450592
vn 0.9013122916221619 0.43316999077796936 0.0
vn 0.8501363396644592 -0.526555597782135 -0.0027239613700658083
vn 0.6573943495750427 0.5166168808937073 0.5485795736312866
vn 0.3329533040523529 0.48192042112350464 0.8104904890060425
vn 0.3213127553462982 -0.9375737309455872 0.13309212028980255
vn 0.3213118612766266 -0.9375741481781006 0.13309141993522644
vn 0.8464570045471191 0.5324570536613464 0.0
vn 0.18306024372577667 -0.9372345209121704 0.296783447265625
vn 0.19052253663539886 -0.934434711933136 0.30088725686073303
vn 0.8501363396644592 -0.526555597782135 -0.0027239613700658083
vn 0.6373239159584045 0.4331700801849365 -0.6373240947723389
vn 0.5972470045089722 -0.5326329469680786 -0.5996650457382202
vn 0.9013122916221619 0.43316999077796936 0.0
vn -0.0 0.43316999077796936 -0.9013122916221619
vn 3.057449430343695e-05 -0.5348643660545349 -0.8449379205703735
vn 0.30055004358291626 -0.9456064105033875 -0.12449180334806442
vn 0.3005509674549103 -0.945605993270874 -0.12449191510677338
vn 0.5985355377197266 0.5324569940567017 -0.5985355973243713
vn 0.8464570045471191 0.5324570536613464 0.0
vn 0.1190856546163559 -0.9503490924835205 -0.2874982953071594
vn 0.11908503621816635 -0.9503493309020996 -0.28749752044677734
vn -0.0 0.5324569940567017 -0.8464570641517639
vt 0.04774181917309761 0.9229390323162079
vt 0.09378457069396973 0.8232214897871017
vt 0.04774181917309761 0.8232214897871017
vt 0.09378457069396973 0.9229390323162079
vt 0.0016990990843623877 0.9229390323162079
vt 0.0016990990843623877 0.8232213705778122
vt 0.09378457069396973 0.9786840081214905
vt 0.04774181544780731 0.9786840081214905
vt 0.09378457069396973 0.9982830808730796
vt 0.04774181917309761 0.9982830808730796
vt 0.0016990990843623877 0.9786840081214905
vt 0.0016990990843623877 0.9982830808730796
vt 0.1397853046655655 0.9229390323162079
vt 0.1858280748128891 0.8232214897871017
vt 0.1397853046655655 0.8232214897871017
vt 0.1858280748128891 0.9229391515254974
vt 0.11676394939422607 0.8232214897871017
vt 0.11676394939422607 0.9229390323162079
vt 0.1858280748128891 0.9786840081214905
vt 0.1397853046655655 0.9786840081214905
vt 0.11676394939422607 0.9786840081214905
vt 0.1858280748128891 0.9982830808730796
vt 0.1397853046655655 0.9982830808730796
vt 0.11676394939422607 0.9982830808730796
vt 0.09374258667230606 0.8232214897871017
vt 0.09374258667230606 0.9229390323162079
vt 0.07072122395038605 0.9229390323162079
vt 0.07072122395038605 0.8232214897871017
vt 0.07072122395038605 0.9786840081214905
vt 0.09374258667230606 0.9786840081214905
vt 0.07072122395038605 0.9982830808730796
vt 0.09374258667230606 0.9982830808730796
vt 0.04769986495375633 0.9229390323162079
vt 0.04769986495375633 0.8232214897871017
vt 0.0016571043524891138 0.9229390323162079
vt 0.0016571278683841228 0.8232213705778122
vt 0.0016571043524891138 0.9786840081214905
vt 0.04769986867904663 0.9786840081214905
vt 0.0016571043524891138 0.9982830808730796
vt 0.04769986495375633 0.9982830808730796
vt 0.14020122587680817 0.9229390323162079
vt 0.1862439513206482 0.8232214897871017
vt 0.14020122587680817 0.8232214897871017
vt 0.1862439513206482 0.9229391515254974
vt 0.09415851533412933 0.9229390323162079
vt 0.09415851533412933 0.8232214897871017
vt 0.14020122587680817 0.9786840081214905
vt 0.1862439513206482 0.9786840081214905
vt 0.09415851533412933 0.9786840081214905
vt 0.14020122587680817 0.9982830808730796
vt 0.1862439513206482 0.9982830808730796
vt 0.09415851533412933 0.9982830808730796
vt 0.04774181917309761 0.7790351510047913
vt 0.09378457069396973 0.6903447508811951
vt 0.04774181917309761 0.6903446912765503
vt 0.09378454089164734 0.7790351510047913
vt 0.0016990990843623877 0.7790351510047913
vt 0.0016990990843623877 0.6903446912765503
vt 0.04774181917309761 0.8610591441392899
vt 0.09378454089164734 0.8610591441392899
vt 0.0016990737058222294 0.8610591441392899
vt 0.04774181917309761 0.9786842577159405
vt 0.09378454089164734 0.9786842577159405
vt 0.0016990737058222294 0.9786842577159405
vt 0.1397853046655655 0.7790351510047913
vt 0.1858280748128891 0.6903447508811951
vt 0.1397853046655655 0.6903447508811951
vt 0.1858280748128891 0.7790351510047913
vt 0.11676394939422607 0.6903447508811951
vt 0.11676394939422607 0.7790351510047913
vt 0.1397853046655655 0.8610591441392899
vt 0.1858280748128891 0.8610591441392899
vt 0.11676394939422607 0.8610591441392899
vt 0.1397853046655655 0.9786842577159405
vt 0.1858280450105667 0.9786842577159405
vt 0.09374258667230606 0.7790351510047913
vt 0.09374258667230606 0.6903447508811951
vt 0.07072122395038605 0.6903447210788727
vt 0.07072121649980545 0.7790351510047913
vt 0.09374258667230606 0.8610591441392899
vt 0.07072121649980545 0.8610591441392899
vt 0.09374258667230606 0.9786842577159405
vt 0.11676394939422607 0.9786842577159405
vt 0.04769984260201454 0.7790351510047913
vt 0.04769986495375633 0.6903446912765503
vt 0.0016571043524891138 0.7790351510047913
vt 0.0016571043524891138 0.6903446912765503
vt 0.0016571043524891138 0.8610591441392899
vt 0.04769984260201454 0.8610591441392899
vt 0.07072121649980545 0.9786842577159405
vt 0.04769984260201454 0.9786842577159405
vt 0.0016570917796343565 0.9786842577159405
vt 0.14020122587680817 0.7790351510047913
vt 0.1862439513206482 0.6903447508811951
vt 0.14020122587680817 0.6903447508811951
vt 0.1862439513206482 0.7790351510047913
vt 0.09415847063064575 0.7790351510047913
vt 0.09415851533412933 0.6903447508811951
vt 0.14020122587680817 0.8610591441392899
vt 0.1862439513206482 0.8610591441392899
vt 0.09415847063064575 0.8610591441392899
vt 0.186243936419487 0.9786842577159405
vt 0.14020121097564697 0.9786842577159405
vt 0.09415847063064575 0.9786842577159405
vt 0.4226188361644745 0.8260975331068039
vt 0.3689590096473694 0.7057520151138306
vt 0.3689589500427246 0.8260975033044815
vt 0.4226188361644745 0.705752044916153
vt 0.3152991235256195 0.7057520151138306
vt 0.3152991235256195 0.8260975033044815
vt 0.4226188361644745 0.840541422367096
vt 0.3689589500427246 0.8405413776636124
vt 0.3689590096473694 0.6868883669376373
vt 0.4226188361644745 0.6868884265422821
vt 0.3689589500427246 0.8405413776636124
vt 0.3152991235256195 0.8405413776636124
vt 0.3152991235256195 0.6868883669376373
vt 0.5298895239830017 0.8260975778102875
vt 0.4762296676635742 0.7057520151138306
vt 0.4762296676635742 0.8260975033044815
vt 0.5298895239830017 0.705752044916153
vt 0.44939979910850525 0.7057520151138306
vt 0.44939979910850525 0.8260975033044815
vt 0.5298895239830017 0.840541422367096
vt 0.4762296676635742 0.8405413776636124
vt 0.4762296676635742 0.6868883669376373
vt 0.5298895239830017 0.6868884861469269
vt 0.4762296676635742 0.8405413776636124
vt 0.44939979910850525 0.8405413776636124
vt 0.4225699007511139 0.8260975033044815
vt 0.4225699007511139 0.7057520151138306
vt 0.39573997259140015 0.7057520151138306
vt 0.39573997259140015 0.8260975033044815
vt 0.4225699007511139 0.6868883669376373
vt 0.44939979910850525 0.6868883669376373
vt 0.4225699007511139 0.8405413776636124
vt 0.39573997259140015 0.8405413776636124
vt 0.4225699007511139 0.8405413776636124
vt 0.44939979910850525 0.8405413776636124
vt 0.3689100444316864 0.8260975033044815
vt 0.3689100444316864 0.7057520151138306
vt 0.3152502179145813 0.7057520151138306
vt 0.3152502179145813 0.8260975033044815
vt 0.3689100444316864 0.6868883669376373
vt 0.39573997259140015 0.6868883669376373
vt 0.3689100444316864 0.8405413776636124
vt 0.3152502179145813 0.8405413776636124
vt 0.3152502179145813 0.6868883669376373
vt 0.3689100444316864 0.8405413776636124
vt 0.39573997259140015 0.8405413776636124
vt 0.5303742289543152 0.8260975778102875
vt 0.47671449184417725 0.7057520151138306
vt 0.47671449184417725 0.8260975033044815
vt 0.5303742289543152 0.705752044916153
vt 0.42305460572242737 0.705752044916153
vt 0.4230545461177826 0.8260975331068039
vt 0.5303742289543152 0.840541422367096
vt 0.47671449184417725 0.8405413776636124
vt 0.47671449184417725 0.6868883669376373
vt 0.5303742289543152 0.6868884861469269
vt 0.47671449184417725 0.8405413776636124
vt 0.4230545461177826 0.840541422367096
vt 0.42305460572242737 0.6868884265422821

g bg_mdl_map_pipe_bg01
s 1
usemtl bg_mdl_map_pipe_bg01
f 3/3/3 2/2/2 1/1/1 
f 4/4/4 1/1/1 2/2/2 
f 1/1/1 5/5/5 3/3/3 
f 6/6/6 3/3/3 5/5/5 
f 4/4/4 7/7/7 1/1/1 
f 8/8/8 1/1/1 7/7/7 
f 7/7/7 9/9/9 8/8/8 
f 10/10/10 8/8/8 9/9/9 
f 8/8/8 10/10/10 11/11/11 
f 5/5/5 1/1/1 11/11/11 
f 8/8/8 11/11/11 1/1/1 
f 12/12/12 11/11/11 10/10/10 
f 15/15/15 14/14/14 13/13/13 
f 16/16/16 13/13/13 14/14/14 
f 15/15/15 13/13/13 17/17/17 
f 18/18/18 17/17/17 13/13/13 
f 16/16/16 19/19/19 13/13/13 
f 20/20/20 13/13/13 19/19/19 
f 13/13/13 20/20/20 18/18/18 
f 21/21/21 18/18/18 20/20/20 
f 19/19/19 22/22/22 20/20/20 
f 23/23/23 20/20/20 22/22/22 
f 20/20/20 23/23/23 21/21/21 
f 24/24/24 21/21/21 23/23/23 
f 17/17/17 18/18/18 25/25/25 
f 26/26/26 25/25/25 18/18/18 
f 18/18/18 21/21/21 26/26/26 
f 26/26/26 27/27/27 25/25/25 
f 28/28/28 25/25/25 27/27/27 
f 27/27/27 26/26/26 29/29/29 
f 30/30/30 29/29/29 26/26/26 
f 30/30/30 26/26/26 21/21/21 
f 21/21/21 24/24/24 30/30/30 
f 29/29/29 30/30/30 31/31/31 
f 32/32/32 31/31/31 30/30/30 
f 32/32/32 30/30/30 24/24/24 
f 27/27/27 33/33/33 28/28/28 
f 34/34/34 28/28/28 33/33/33 
f 33/33/33 35/35/35 34/34/34 
f 36/36/36 34/34/34 35/35/35 
f 35/35/35 33/33/33 37/37/37 
f 38/38/38 37/37/37 33/33/33 
f 33/33/33 27/27/27 38/38/38 
f 29/29/29 38/38/38 27/27/27 
f 37/37/37 38/38/38 39/39/39 
f 40/40/40 39/39/39 38/38/38 
f 38/38/38 29/29/29 40/40/40 
f 31/31/31 40/40/40 29/29/29 
f 43/43/43 42/42/42 41/41/41 
f 44/44/44 41/41/41 42/42/42 
f 41/41/41 45/45/45 43/43/43 
f 46/46/46 43/43/43 45/45/45 
f 41/41/41 44/44/44 47/47/47 
f 41/41/41 47/47/47 45/45/45 
f 48/48/48 47/47/47 44/44/44 
f 49/49/49 45/45/45 47/47/47 
f 47/47/47 48/48/48 50/50/50 
f 51/51/51 50/50/50 48/48/48 
f 50/50/50 52/52/52 47/47/47 
f 49/49/49 47/47/47 52/52/52 
f 55/55/55 54/54/54 53/53/53 
f 56/56/56 53/53/53 54/54/54 
f 53/53/53 57/57/57 55/55/55 
f 58/58/58 55/55/55 57/57/57 
f 53/53/53 56/56/56 59/59/59 
f 60/60/60 59/59/59 56/56/56 
f 57/57/57 53/53/53 61/61/61 
f 59/59/59 61/61/61 53/53/53 
f 59/59/59 60/60/60 62/62/62 
f 63/63/63 62/62/62 60/60/60 
f 61/61/61 59/59/59 64/64/64 
f 62/62/62 64/64/64 59/59/59 
f 67/67/67 66/66/66 65/65/65 
f 68/68/68 65/65/65 66/66/66 
f 67/67/67 65/65/65 69/69/69 
f 70/70/70 69/69/69 65/65/65 
f 65/65/65 68/68/68 71/71/71 
f 72/72/72 71/71/71 68/68/68 
f 71/71/71 73/73/73 65/65/65 
f 70/70/70 65/65/65 73/73/73 
f 71/71/71 72/72/72 74/74/74 
f 75/75/75 74/74/74 72/72/72 
f 70/70/70 76/76/76 69/69/69 
f 77/77/77 69/69/69 76/76/76 
f 77/77/77 76/76/76 78/78/78 
f 79/79/79 78/78/78 76/76/76 
f 76/76/76 80/80/80 79/79/79 
f 76/76/76 70/70/70 80/80/80 
f 73/73/73 80/80/80 70/70/70 
f 81/81/81 79/79/79 80/80/80 
f 80/80/80 73/73/73 82/82/82 
f 80/80/80 82/82/82 81/81/81 
f 83/83/83 82/82/82 73/73/73 
f 74/74/74 83/83/83 71/71/71 
f 73/73/73 71/71/71 83/83/83 
f 79/79/79 84/84/84 78/78/78 
f 79/79/79 81/81/81 84/84/84 
f 85/85/85 78/78/78 84/84/84 
f 84/84/84 86/86/86 85/85/85 
f 87/87/87 85/85/85 86/86/86 
f 86/86/86 84/84/84 88/88/88 
f 89/89/89 88/88/88 84/84/84 
f 89/89/89 84/84/84 81/81/81 
f 81/81/81 90/90/90 89/89/89 
f 90/90/90 81/81/81 82/82/82 
f 91/91/91 89/89/89 90/90/90 
f 89/89/89 91/91/91 88/88/88 
f 92/92/92 88/88/88 91/91/91 
f 95/95/95 94/94/94 93/93/93 
f 96/96/96 93/93/93 94/94/94 
f 93/93/93 97/97/97 95/95/95 
f 98/98/98 95/95/95 97/97/97 
f 93/93/93 96/96/96 99/99/99 
f 100/100/100 99/99/99 96/96/96 
f 97/97/97 93/93/93 101/101/101 
f 99/99/99 101/101/101 93/93/93 
f 100/100/100 102/102/102 99/99/99 
f 103/103/103 99/99/99 102/102/102 
f 99/99/99 103/103/103 101/101/101 
f 104/104/104 101/101/101 103/103/103 
f 107/107/107 106/106/106 105/105/105 
f 108/108/108 105/105/105 106/106/106 
f 106/106/106 107/107/107 109/109/109 
f 110/110/110 109/109/109 107/107/107 
f 105/105/105 111/111/111 107/107/107 
f 112/112/112 107/107/107 111/111/111 
f 106/106/106 113/113/113 108/108/108 
f 114/114/114 108/108/108 113/113/113 
f 107/107/107 115/115/115 110/110/110 
f 116/116/116 110/110/110 115/115/115 
f 113/113/113 106/106/106 117/117/117 
f 109/109/109 117/117/117 106/106/106 
f 120/120/120 119/119/119 118/118/118 
f 121/121/121 118/118/118 119/119/119 
f 119/119/119 120/120/120 122/122/122 
f 123/123/123 122/122/122 120/120/120 
f 118/118/118 124/124/124 120/120/120 
f 125/125/125 120/120/120 124/124/124 
f 119/119/119 126/126/126 121/121/121 
f 119/119/119 122/122/122 126/126/126 
f 127/127/127 121/121/121 126/126/126 
f 120/120/120 128/128/128 123/123/123 
f 129/129/129 123/123/123 128/128/128 
f 123/123/123 130/130/130 122/122/122 
f 131/131/131 122/122/122 130/130/130 
f 131/131/131 130/130/130 132/132/132 
f 133/133/133 132/132/132 130/130/130 
f 131/131/131 134/134/134 122/122/122 
f 131/131/131 132/132/132 134/134/134 
f 135/135/135 122/122/122 134/134/134 
f 135/135/135 126/126/126 122/122/122 
f 130/130/130 136/136/136 133/133/133 
f 137/137/137 133/133/133 136/136/136 
f 130/130/130 123/123/123 138/138/138 
f 139/139/139 138/138/138 123/123/123 
f 133/133/133 140/140/140 132/132/132 
f 141/141/141 132/132/132 140/140/140 
f 141/141/141 140/140/140 142/142/142 
f 143/143/143 142/142/142 140/140/140 
f 141/141/141 144/144/144 132/132/132 
f 145/145/145 132/132/132 144/144/144 
f 145/145/145 134/134/134 132/132/132 
f 140/140/140 146/146/146 143/143/143 
f 147/147/147 143/143/143 146/146/146 
f 144/144/144 141/141/141 148/148/148 
f 142/142/142 148/148/148 141/141/141 
f 140/140/140 133/133/133 149/149/149 
f 150/150/150 149/149/149 133/133/133 
f 153/153/153 152/152/152 151/151/151 
f 154/154/154 151/151/151 152/152/152 
f 152/152/152 153/153/153 155/155/155 
f 156/156/156 155/155/155 153/153/153 
f 151/151/151 157/157/157 153/153/153 
f 158/158/158 153/153/153 157/157/157 
f 152/152/152 159/159/159 154/154/154 
f 160/160/160 154/154/154 159/159/159 
f 153/153/153 161/161/161 156/156/156 
f 162/162/162 156/156/156 161/161/161 
f 159/159/159 152/152/152 163/163/163 
f 155/155/155 163/163/163 152/152/152 

