v -0.5000003576278687 0.49999991059303284 0.3837291896343231
v 0.500001072883606 0.49999961256980896 -3.1127927968555014e-07
v 0.5000008344650269 0.49999991059303284 0.38372886180877686
v -0.5000006556510925 0.49999961256980896 3.1127927968555014e-07
v -0.5000006556510925 -0.49999961256980896 3.1127927968555014e-07
v -0.5000003576278687 0.49999991059303284 0.3837291896343231
v -0.5000003576278687 -0.49999991059303284 0.3837291896343231
v -0.5000006556510925 0.49999961256980896 3.1127927968555014e-07
v 6.738304136888473e-07 -0.00015342404367402196 7.692666053771973
v 0.25000080466270447 0.24992305040359497 7.142843246459961
v 0.25000080466270447 -0.2500765025615692 7.142843246459961
v 0.5000009536743164 -0.49999961256980896 -3.1127927968555014e-07
v -0.5000003576278687 -0.49999991059303284 0.3837291896343231
v 0.5000008344650269 -0.49999991059303284 0.38372886180877686
v -0.5000006556510925 -0.49999961256980896 3.1127927968555014e-07
v -0.24999995529651642 0.24992305040359497 7.142843246459961
v 0.25000080466270447 0.24992305040359497 7.142843246459961
v 6.738304136888473e-07 -0.00015342404367402196 7.692666053771973
v -0.24999995529651642 -0.2500765025615692 7.142843246459961
v -0.24999995529651642 0.24992305040359497 7.142843246459961
v 6.738304136888473e-07 -0.00015342404367402196 7.692666053771973
v 0.3750007450580597 -0.3750380575656891 0.5263408422470093
v 0.25000080466270447 0.24992305040359497 7.142843246459961
v 0.37500083446502686 0.3749612271785736 0.5263408422470093
v 0.25000080466270447 -0.2500765025615692 7.142843246459961
v 0.25000080466270447 -0.2500765025615692 7.142843246459961
v -0.24999995529651642 -0.2500765025615692 7.142843246459961
v 6.738304136888473e-07 -0.00015342404367402196 7.692666053771973
v -0.24999995529651642 0.24992305040359497 7.142843246459961
v 0.37500083446502686 0.3749612271785736 0.5263408422470093
v 0.25000080466270447 0.24992305040359497 7.142843246459961
v -0.3750002086162567 0.3749612271785736 0.5263408422470093
v -0.24999995529651642 -0.2500765025615692 7.142843246459961
v -0.3750002086162567 0.3749612271785736 0.5263408422470093
v -0.24999995529651642 0.24992305040359497 7.142843246459961
v -0.3750002086162567 -0.3750380575656891 0.5263408422470093
v 0.25000080466270447 -0.2500765025615692 7.142843246459961
v -0.3750002086162567 -0.3750380575656891 0.5263408422470093
v -0.24999995529651642 -0.2500765025615692 7.142843246459961
v 0.3750007450580597 -0.3750380575656891 0.5263408422470093
v 0.5000008344650269 -0.49999991059303284 0.38372886180877686
v 0.37500083446502686 0.3749612271785736 0.5263408422470093
v 0.5000008344650269 0.49999991059303284 0.38372886180877686
v 0.3750007450580597 -0.3750380575656891 0.5263408422470093
v -0.3750002086162567 0.3749612271785736 0.5263408422470093
v 0.5000008344650269 0.49999991059303284 0.38372886180877686
v 0.37500083446502686 0.3749612271785736 0.5263408422470093
v -0.5000003576278687 0.49999991059303284 0.3837291896343231
v -0.3750002086162567 -0.3750380575656891 0.5263408422470093
v -0.5000003576278687 0.49999991059303284 0.3837291896343231
v -0.3750002086162567 0.3749612271785736 0.5263408422470093
v -0.5000003576278687 -0.49999991059303284 0.3837291896343231
v 0.3750007450580597 -0.3750380575656891 0.5263408422470093
v -0.5000003576278687 -0.49999991059303284 0.3837291896343231
v -0.3750002086162567 -0.3750380575656891 0.5263408422470093
v 0.5000008344650269 -0.49999991059303284 0.38372886180877686
v 0.5000009536743164 -0.49999961256980896 -3.1127927968555014e-07
v 0.5000008344650269 0.49999991059303284 0.38372886180877686
v 0.500001072883606 0.49999961256980896 -3.1127927968555014e-07
v 0.5000008344650269 -0.49999991059303284 0.38372886180877686
vn -0.0 1.0 -7.952896226015582e-07
vn -0.0 1.0 -7.952895089147205e-07
vn -0.0 1.0 -7.952895089147205e-07
vn -0.0 1.0 -7.95290134192328e-07
vn -1.0 0.0 6.958787253097398e-07
vn -1.0 0.0 6.958787821531587e-07
vn -1.0 0.0 6.958787821531587e-07
vn -1.0 0.0 6.958787821531587e-07
vn 0.9103160500526428 0.0 0.41391390562057495
vn 0.9103160500526428 0.0 0.41391390562057495
vn 0.9103160500526428 0.0 0.41391390562057495
vn -0.0 -1.0 -7.952896226015582e-07
vn -0.0 -1.0 -7.952895089147205e-07
vn -0.0 -1.0 -7.952895089147205e-07
vn -0.0 -1.0 -7.95290134192328e-07
vn -0.0 0.9102683663368225 0.4140186309814453
vn -0.0 0.9102683663368225 0.4140186309814453
vn -0.0 0.9102683663368225 0.4140186309814453
vn -0.910315752029419 0.0 0.41391462087631226
vn -0.910315752029419 0.0 0.41391459107398987
vn -0.910315752029419 0.0 0.41391459107398987
vn 0.9998216032981873 -1.0170720798896582e-07 0.018888792023062706
vn 0.9998216032981873 -1.0170720088353846e-07 0.018888790160417557
vn 0.9998216032981873 -1.0170718667268375e-07 0.018888788297772408
vn 0.9998216032981873 0.0 0.01888877898454666
vn -0.0 -0.9103640913963318 0.4138081967830658
vn -0.0 -0.9103640913963318 0.4138082265853882
vn -0.0 -0.9103640913963318 0.4138081967830658
vn -0.0 0.9998214840888977 0.018894553184509277
vn -0.0 0.9998214840888977 0.018894555047154427
vn -0.0 0.9998214840888977 0.018894556909799576
vn -0.0 0.9998214840888977 0.018894553184509277
vn -0.9998216032981873 0.0 0.01888882741332054
vn -0.9998216032981873 0.0 0.01888882741332054
vn -0.9998216032981873 0.0 0.01888882741332054
vn -0.9998216032981873 0.0 0.018888823688030243
vn -0.0 -0.9998217225074768 0.018882978707551956
vn -0.0 -0.9998217225074768 0.018882978707551956
vn -0.0 -0.9998217225074768 0.018882976844906807
vn -0.0 -0.9998217225074768 0.018882976844906807
vn 0.7520158290863037 0.0 0.6591451168060303
vn 0.7520158290863037 0.0 0.6591451168060303
vn 0.7520158290863037 0.0 0.6591451168060303
vn 0.7520155906677246 0.0 0.6591453552246094
vn -0.0 0.7519146800041199 0.6592605113983154
vn -0.0 0.7519146800041199 0.6592603921890259
vn -0.0 0.7519146800041199 0.6592605113983154
vn 2.263390683765465e-07 0.7519140243530273 0.659261167049408
vn -0.7520146369934082 0.0 0.6591464281082153
vn -0.7520146369934082 0.0 0.6591465473175049
vn -0.7520146369934082 0.0 0.6591464877128601
vn -0.7520146369934082 0.0 0.6591465473175049
vn -0.0 -0.7521147727966309 0.6590322256088257
vn -0.0 -0.7521147727966309 0.6590321660041809
vn -0.0 -0.7521147727966309 0.6590322256088257
vn 2.2626021234373184e-07 -0.7521154284477234 0.6590313911437988
vn 1.0 -1.1444100067592444e-07 5.964672595837328e-07
vn 1.0 -1.1444100067592444e-07 5.964672595837328e-07
vn 1.0 -1.144410077813518e-07 5.964672595837328e-07
vn 1.0 0.0 2.9823357294844755e-07
vt 0.046307727694511414 0.8796222805976868
vt 0.0023521631956100464 0.9967539520002902
vt 0.046307727694511414 0.9967539520002902
vt 0.0023521631956100464 0.8796222805976868
vt 0.8880401253700256 0.9097829833626747
vt 0.8440845608711243 0.7926513403654099
vt 0.8440845608711243 0.9097829833626747
vt 0.8880401253700256 0.7926513403654099
vt 0.006857927888631821 0.8512173742055893
vt 0.0698392391204834 0.8219341486692429
vt 0.0698392391204834 0.8805001825094223
vt 0.0023521631956100464 0.8796218708157539
vt 0.046307727694511414 0.9967539520002902
vt 0.04630754888057709 0.8796222805976868
vt 0.0023521631956100464 0.9967539520002902
vt 0.8205530643463135 0.9089050963521004
vt 0.8205530643463135 0.9674711376428604
vt 0.88353431224823 0.938187912106514
vt 0.0698392391204834 0.8805001825094223
vt 0.0698392391204834 0.8219341486692429
vt 0.006857927888631821 0.8512173742055893
vt 0.8277485370635986 0.8951417878270149
vt 0.0698392391204834 0.8219341486692429
vt 0.827748715877533 0.8072929382324219
vt 0.0698392391204834 0.8805001825094223
vt 0.8205530643463135 0.9089050963521004
vt 0.8205530643463135 0.9674711376428604
vt 0.88353431224823 0.938187912106514
vt 0.8205530643463135 0.9089050963521004
vt 0.06264375150203705 0.9821127466857433
vt 0.8205530643463135 0.9674711376428604
vt 0.06264375150203705 0.8942634835839272
vt 0.0698392391204834 0.8805001825094223
vt 0.827748715877533 0.8072929382324219
vt 0.0698392391204834 0.8219341486692429
vt 0.827748715877533 0.8951417878270149
vt 0.8205530643463135 0.9089050963521004
vt 0.06264351308345795 0.9821127466857433
vt 0.8205530643463135 0.9674711376428604
vt 0.06264351308345795 0.8942634835839272
vt 0.8440845608711243 0.9097829833626747
vt 0.8277485370635986 0.8072925359010696
vt 0.8440845608711243 0.7926513403654099
vt 0.8277485370635986 0.8951417878270149
vt 0.06264375150203705 0.8942634835839272
vt 0.046307727694511414 0.9967539520002902
vt 0.06264375150203705 0.9821127466857433
vt 0.046307727694511414 0.8796222805976868
vt 0.8277485370635986 0.8951417878270149
vt 0.8440845608711243 0.7926513403654099
vt 0.8277487754821777 0.8072925359010696
vt 0.8440845608711243 0.9097829833626747
vt 0.06264351308345795 0.8942634835839272
vt 0.046307727694511414 0.9967539520002902
vt 0.06264351308345795 0.9821127466857433
vt 0.04630754888057709 0.8796222805976868
vt 0.8880401253700256 0.9097829833626747
vt 0.8440845608711243 0.7926513403654099
vt 0.8880401253700256 0.7926513403654099
vt 0.8440845608711243 0.9097829833626747

g bg_mdl_map_house_20
s 1
usemtl bg_mdl_map_house_20
f 3/3/3 2/2/2 1/1/1 
f 4/4/4 1/1/1 2/2/2 
f 7/7/7 6/6/6 5/5/5 
f 8/8/8 5/5/5 6/6/6 
f 11/11/11 10/10/10 9/9/9 
f 14/14/14 13/13/13 12/12/12 
f 15/15/15 12/12/12 13/13/13 
f 18/18/18 17/17/17 16/16/16 
f 21/21/21 20/20/20 19/19/19 
f 24/24/24 23/23/23 22/22/22 
f 25/25/25 22/22/22 23/23/23 
f 28/28/28 27/27/27 26/26/26 
f 31/31/31 30/30/30 29/29/29 
f 32/32/32 29/29/29 30/30/30 
f 35/35/35 34/34/34 33/33/33 
f 36/36/36 33/33/33 34/34/34 
f 39/39/39 38/38/38 37/37/37 
f 40/40/40 37/37/37 38/38/38 
f 43/43/43 42/42/42 41/41/41 
f 44/44/44 41/41/41 42/42/42 
f 47/47/47 46/46/46 45/45/45 
f 48/48/48 45/45/45 46/46/46 
f 51/51/51 50/50/50 49/49/49 
f 52/52/52 49/49/49 50/50/50 
f 55/55/55 54/54/54 53/53/53 
f 56/56/56 53/53/53 54/54/54 
f 59/59/59 58/58/58 57/57/57 
f 60/60/60 57/57/57 58/58/58 

