v 0.4568100869655609 -0.16626527905464172 9.827270730511373e-08
v 0.3483063280582428 -0.061415791511535645 6.35915071711679e-08
v 0.4786857068538666 -0.08440516889095306 1.0149039297857598e-07
v 0.3323890268802643 -0.1209796816110611 6.125022622427423e-08
v 0.48612716794013977 6.088973236728634e-08 1.0300635011617487e-07
v 0.3537209928035736 4.814740250935756e-08 6.46945679250166e-08
v 0.3062955141067505 -0.17683975398540497 5.772344380261529e-08
v 0.42094916105270386 -0.24303507804870605 9.342576845483563e-08
v 0.3483063280582428 0.06141594424843788 6.45066720039722e-08
v 0.4786856472492218 0.08440538495779037 1.0274812467514494e-07
v 0.45680999755859375 0.1662655621767044 1.007502348215894e-07
v 0.33238890767097473 0.1209799200296402 6.305295130459854e-08
v 0.30629533529281616 0.17683997750282288 6.035855193431416e-08
v 0.42094898223876953 0.24303536117076874 9.704725556503035e-08
v 0.3723948299884796 0.3124767243862152 9.177652771086287e-08
v 0.2709658443927765 0.22736763954162598 5.65234010707627e-08
v 0.22734063863754272 0.2709343731403351 5.1647475629579276e-08
v 0.3124396502971649 0.3723514974117279 8.507542048619143e-08
v 0.2430633306503296 0.4209984838962555 7.716757011166919e-08
v 0.17686030268669128 0.30633142590522766 4.589347923911191e-08
v 0.12096534669399261 0.33235007524490356 3.942413329127703e-08
v 0.16624554991722107 0.456756591796875 6.82765914916672e-08
v 0.08441485464572906 0.47874173521995544 5.8685415638137783e-08
v 0.06142282485961914 0.34834715723991394 3.244529978019273e-08
v -1.6938854230375e-07 0.35367950797080994 2.5162837147263417e-08
v -2.1670319938493776e-07 0.4860701262950897 4.867695579946485e-08
vn -2.842200217401114e-07 0.0 1.0
vn -2.8422005016182084e-07 0.0 1.0
vn -2.8422005016182084e-07 0.0 1.0
vn -2.8422007858353027e-07 0.0 1.0
vn -2.8935045293110306e-07 0.0 1.0
vn -2.8935045293110306e-07 0.0 1.0
vn -2.739593583100941e-07 0.0 1.0
vn -2.7395932988838467e-07 0.0 1.0
vn -2.893505097745219e-07 0.0 1.0
vn -2.893505097745219e-07 0.0 1.0
vn -2.739591877798375e-07 0.0 1.0
vn -2.739591877798375e-07 0.0 1.0
vn -2.739591877798375e-07 0.0 1.0
vn -2.739591877798375e-07 0.0 1.0
vn -2.3990278918972763e-07 -1.283063539858631e-07 1.0
vn -2.399028460331465e-07 -1.2830619766646123e-07 1.0
vn -2.3990278918972763e-07 -1.283063539858631e-07 1.0
vn -2.3990278918972763e-07 -1.283063681967178e-07 1.0
vn -1.9128927419842512e-07 -1.6229731159000949e-07 1.0
vn -1.9128920314415154e-07 -1.622974252768472e-07 1.0
vn -1.9128927419842512e-07 -1.6229729737915477e-07 1.0
vn -1.9128927419842512e-07 -1.6229729737915477e-07 1.0
vn -1.3398160092492617e-07 -1.776117102281205e-07 1.0
vn -1.3398155829236202e-07 -1.7761175286068465e-07 1.0
vn -1.3398160092492617e-07 -1.776117102281205e-07 1.0
vn -1.3398160092492617e-07 -1.776117102281205e-07 1.0
vt 0.08320486545562744 0.0
vt 0.1665724515914917 0.9943018555641174
vt 0.1665724515914917 0.0
vt 0.08320486545562744 0.9943018555641174
vt 0.24993979930877686 0.0
vt 0.24993979930877686 0.9943018555641174
vt -0.00016248226165771484 0.9943018555641174
vt -0.00016248226165771484 0.0
vt 0.3333073854446411 0.9943018555641174
vt 0.3333073854446411 0.0
vt 0.4166749119758606 0.0
vt 0.4166749119758606 0.9943018555641174
vt 0.5000424981117249 0.9943018555641174
vt 0.5000424981117249 0.0
vt 0.5834099054336548 0.0
vt 0.5834099054336548 0.9943018555641174
vt 0.6667771935462952 0.9943018555641174
vt 0.6667771935462952 0.0
vt 0.7501447796821594 0.0
vt 0.7501447796821594 0.9943018555641174
vt 0.8335121273994446 0.9943018555641174
vt 0.8335121273994446 0.0
vt 0.9166945815086365 0.0
vt 0.9166945815086365 0.9943018555641174
vt 0.9998766779899597 0.9943018555641174
vt 0.9998766779899597 0.0

g eff_mdl_slash00_02
s 1
usemtl eff_mdl_slash00_02
f 3/3/3 2/2/2 1/1/1 
f 4/4/4 1/1/1 2/2/2 
f 3/3/3 5/5/5 2/2/2 
f 6/6/6 2/2/2 5/5/5 
f 4/4/4 7/7/7 1/1/1 
f 8/8/8 1/1/1 7/7/7 
f 6/6/6 5/5/5 9/9/9 
f 10/10/10 9/9/9 5/5/5 
f 10/10/10 11/11/11 9/9/9 
f 12/12/12 9/9/9 11/11/11 
f 12/12/12 11/11/11 13/13/13 
f 14/14/14 13/13/13 11/11/11 
f 14/14/14 15/15/15 13/13/13 
f 16/16/16 13/13/13 15/15/15 
f 16/16/16 15/15/15 17/17/17 
f 18/18/18 17/17/17 15/15/15 
f 18/18/18 19/19/19 17/17/17 
f 20/20/20 17/17/17 19/19/19 
f 20/20/20 19/19/19 21/21/21 
f 22/22/22 21/21/21 19/19/19 
f 22/22/22 23/23/23 21/21/21 
f 24/24/24 21/21/21 23/23/23 
f 24/24/24 23/23/23 25/25/25 
f 26/26/26 25/25/25 23/23/23 

