v -0.01943695917725563 -0.23276656866073608 0.10393302887678146
v 0.06968732923269272 -0.23854441940784454 0.13445213437080383
v 0.07846649736166 -0.22166678309440613 0.0779988095164299
v -0.0012256745249032974 -0.2164648175239563 0.05021354556083679
v 0.07339414209127426 -0.15999870002269745 -0.012529906816780567
v 0.005601073149591684 -0.15543000400066376 -0.03679557889699936
v -0.06157863512635231 -0.16039833426475525 0.11561118811368942
v 0.0328645184636116 -0.16683858633041382 0.14786453545093536
v -0.1149689108133316 -0.07460107654333115 0.04959769919514656
v -0.020403333008289337 -0.08138258010149002 0.08238182216882706
v -0.09550045430660248 0.05468013510107994 0.05556197836995125
v -0.0068915849551558495 0.04796867445111275 0.08630073070526123
v -0.022908518090844154 0.08189861476421356 -0.025669783353805542
v 0.05369403213262558 0.08462607860565186 0.0012060547014698386
v -0.00567086273804307 0.15008510649204254 -0.10761260986328125
v 0.04986345022916794 0.18097098171710968 -0.08906085789203644
v -0.058826979249715805 0.1474994271993637 -0.14058800041675568
v -0.02940494753420353 0.2162025421857834 -0.13324962556362152
vn -0.23011165857315063 -0.8247393369674683 0.5165787935256958
vn -0.17377299070358276 -0.9267380833625793 0.33310580253601074
vn 0.08034003525972366 -0.9127228260040283 -0.40060287714004517
vn 0.09511365741491318 -0.8936725854873657 -0.43852341175079346
vn 0.14424535632133484 -0.8147056698799133 -0.5616474747657776
vn 0.14424537122249603 -0.8147056698799133 -0.5616474747657776
vn -0.29971638321876526 0.24105098843574524 0.923073410987854
vn -0.32769790291786194 -0.09156165271997452 0.9403352737426758
vn -0.3092074990272522 0.18839000165462494 0.9321480393409729
vn -0.293404221534729 0.2946641445159912 0.9094432592391968
vn -0.2740582227706909 0.4952160120010376 0.8244108557701111
vn -0.2389940768480301 0.6370948553085327 0.732797384262085
vn -0.22896361351013184 0.856632649898529 0.4623377025127411
vn -0.2452635020017624 0.8425417542457581 0.47955095767974854
vn -0.45140185952186584 0.3923877775669098 0.8014163970947266
vn -0.43319380283355713 0.5089573860168457 0.7438451051712036
vn -0.4644417464733124 0.17026618123054504 0.8690817952156067
vn -0.4644417464733124 0.17026618123054504 0.8690817952156067
vt 0.5060279369354248 0.06451660394668579
vt 0.5060279369354248 0.014062345027923584
vt 0.4670056998729706 0.014062345027923584
vt 0.4670056998729706 0.06451660394668579
vt 0.4279835820198059 0.014062345027923584
vt 0.4279835820198059 0.06451660394668579
vt 0.5450499057769775 0.06451660394668579
vt 0.5450499057769775 0.014062345027923584
vt 0.5840720534324646 0.06451660394668579
vt 0.5840720534324646 0.014062345027923584
vt 0.6230941414833069 0.06451660394668579
vt 0.6230941414833069 0.014062345027923584
vt 0.6621163487434387 0.06451654434204102
vt 0.6621163487434387 0.014062345027923584
vt 0.7011383175849915 0.06451654434204102
vt 0.7011383175849915 0.014062345027923584
vt 0.7401605248451233 0.06451654434204102
vt 0.7401605248451233 0.014062345027923584

g eff_takoyaki_02
s 1
usemtl eff_takoyaki_02
f 3/3/3 2/2/2 1/1/1 
f 4/4/4 3/3/3 1/1/1 
f 5/5/5 3/3/3 4/4/4 
f 6/6/6 5/5/5 4/4/4 
f 1/1/1 2/2/2 7/7/7 
f 2/2/2 8/8/8 7/7/7 
f 7/7/7 8/8/8 9/9/9 
f 8/8/8 10/10/10 9/9/9 
f 9/9/9 10/10/10 11/11/11 
f 10/10/10 12/12/12 11/11/11 
f 11/11/11 12/12/12 13/13/13 
f 12/12/12 14/14/14 13/13/13 
f 13/13/13 14/14/14 15/15/15 
f 14/14/14 16/16/16 15/15/15 
f 15/15/15 16/16/16 17/17/17 
f 16/16/16 18/18/18 17/17/17 

