v -0.16971254348754883 0.46628129482269287 0.03459944576025009
v -5.947243808535063e-10 0.4962061941623688 0.03459944576025009
v 2.0633994513019616e-09 0.17303311824798584 0.0017999998526647687
v -0.059180814772844315 0.16259793937206268 0.0017999998526647687
v -0.3189552128314972 0.3801160454750061 0.03459947928786278
v -0.11122354865074158 0.13255105912685394 0.0017999998526647687
v -0.429727166891098 0.2481030970811844 0.03459947183728218
v -0.14985108375549316 0.08651655167341232 0.0017999998526647687
v -0.488667756319046 0.08616533130407333 0.034599460661411285
v -0.1704043745994568 0.030046874657273293 0.0017999998526647687
v 0.05918093025684357 0.1625978946685791 0.0017999998526647687
v 0.1697128266096115 0.4662812054157257 0.03459944576025009
v 0.11122363060712814 0.13255098462104797 0.0017999998526647687
v 0.3189553916454315 0.380115807056427 0.03459947928786278
v 0.14985112845897675 0.08651647716760635 0.0017999998526647687
v 0.42972731590270996 0.24810287356376648 0.03459947183728218
v 0.1704043745994568 0.030046798288822174 0.0017999998526647687
v 0.488667756319046 0.08616510033607483 0.034599460661411285
v 0.1704043596982956 -0.030046960338950157 0.0017999998526647687
v 0.48866766691207886 -0.08616546541452408 0.034599460661411285
v 0.14985103905200958 -0.0865166187286377 0.0017999998526647687
v 0.42972704768180847 -0.24810321629047394 0.03459944948554039
v 0.11122351139783859 -0.13255108892917633 0.0017999998526647687
v 0.31895506381988525 -0.3801160752773285 0.03459944576025009
v 0.05918077751994133 -0.16259795427322388 0.0017999998526647687
v 0.1697123944759369 -0.4662812650203705 0.03459947928786278
v -2.819067468351477e-08 -0.17303311824798584 0.0017999998526647687
v -8.73541594614835e-08 -0.496206134557724 0.03459947928786278
v -0.05918082594871521 -0.16259793937206268 0.0017999998526647687
v -0.16971255838871002 -0.4662812352180481 0.03459947928786278
v -0.11122354865074158 -0.13255105912685394 0.0017999998526647687
v -0.3189552128314972 -0.38011595606803894 0.03459944576025009
v -0.14985106885433197 -0.08651656657457352 0.0017999998526647687
v -0.42972713708877563 -0.2481030970811844 0.03459944948554039
v -0.1704043596982956 -0.03004690632224083 0.0017999998526647687
v -0.48866766691207886 -0.08616529405117035 0.034599460661411285
v -0.1704043745994568 0.030046874657273293 0.0017999998526647687
v -0.488667756319046 0.08616533130407333 0.034599460661411285
v -0.4869474768638611 -0.08586201816797256 1.029177188873291
v -0.48694750666618347 0.08586197346448898 1.029177188873291
v -0.4282144010066986 -0.2472296804189682 1.029177188873291
v -0.31783241033554077 -0.3787779211997986 1.029177188873291
v -0.16911514103412628 -0.46463993191719055 1.029177188873291
v -8.717143629155544e-08 -0.49445948004722595 1.029177188873291
v 0.16911496222019196 -0.46463996171951294 1.029177188873291
v 0.3178322911262512 -0.37877804040908813 1.029177188873291
v 0.42821434140205383 -0.24722979962825775 1.029177188873291
v 0.4869474768638611 -0.0858621895313263 1.029177188873291
v 0.48694750666618347 0.08586173504590988 1.029177188873291
v 0.42821455001831055 0.24722954630851746 1.029177188873291
v 0.3178326487541199 0.3787776827812195 1.029177188873291
v 0.16911540925502777 0.46463972330093384 1.029177188873291
v -7.17397030669531e-10 0.4944594204425812 1.029177188873291
v -0.1691151261329651 0.4646398425102234 1.029177188873291
v -0.31783241033554077 0.3787778317928314 1.029177188873291
v -0.428214430809021 0.24722972512245178 1.029177188873291
v -0.48694750666618347 0.08586197346448898 1.029177188873291
vn 0.26412755250930786 -0.7255551815032959 0.635457456111908
vn -1.228045789503085e-07 -0.7726009488105774 0.634891927242279
vn -0.0 -0.10014431178569794 0.9949729442596436
vn 0.0349712036550045 -0.09378641098737717 0.9949778914451599
vn 0.4964844882488251 -0.5932434797286987 0.6336919069290161
vn 0.06516799330711365 -0.07708896696567535 0.9948922395706177
vn 0.6682264804840088 -0.3866167664527893 0.6356106400489807
vn 0.08742223680019379 -0.05006910488009453 0.9949122667312622
vn 0.760336697101593 -0.13441097736358643 0.6354696750640869
vn 0.10012900084257126 -0.01748283952474594 0.9948208332061768
vn -0.0349712036550045 -0.09378641098737717 0.9949778914451599
vn -0.26412755250930786 -0.7255551815032959 0.635457456111908
vn -0.06437657028436661 -0.07709292322397232 0.9949433207511902
vn -0.49741899967193604 -0.5911816954612732 0.6348846554756165
vn -0.08741873502731323 -0.05086180940270424 0.9948722720146179
vn -0.6682264804840088 -0.3866167664527893 0.6356106400489807
vn -0.10012900084257126 -0.01748283952474594 0.9948208332061768
vn -0.760336697101593 -0.13441097736358643 0.6354696750640869
vn -0.10012900084257126 0.01748283952474594 0.9948208332061768
vn -0.760336697101593 0.13441097736358643 0.6354696750640869
vn -0.08742223680019379 0.05006910488009453 0.9949122667312622
vn -0.6682264804840088 0.3866167664527893 0.6356106400489807
vn -0.06516799330711365 0.07708896696567535 0.9948922395706177
vn -0.49654683470726013 0.593317985534668 0.6335731744766235
vn -0.03457428142428398 0.09378771483898163 0.9949917197227478
vn -0.26409417390823364 0.7254635095596313 0.635576069355011
vn -0.0 0.10014431178569794 0.9949729442596436
vn -0.0 0.7725034356117249 0.6350105404853821
vn 0.0349712036550045 0.09378641098737717 0.9949778914451599
vn 0.26409417390823364 0.7254635095596313 0.635576069355011
vn 0.06516799330711365 0.07708896696567535 0.9948922395706177
vn 0.49748173356056213 0.5912562608718872 0.6347660422325134
vn 0.08742223680019379 0.05006910488009453 0.9949122667312622
vn 0.6682264804840088 0.3866167664527893 0.6356106400489807
vn 0.10012900084257126 0.01748283952474594 0.9948208332061768
vn 0.760336697101593 0.13441097736358643 0.6354696750640869
vn 0.10012900084257126 -0.01748283952474594 0.9948208332061768
vn 0.760336697101593 -0.13441097736358643 0.6354696750640869
vn 0.9847596287727356 0.17392124235630035 0.0
vn 0.9847596287727356 -0.17392124235630035 0.0
vn 0.8653899431228638 0.5010989308357239 0.0
vn 0.6433038711547852 0.7656109929084778 0.0
vn 0.34136056900024414 0.9399324655532837 0.0
vn 1.248859291536064e-07 1.0 0.0
vn -0.34136056900024414 0.9399324655532837 0.0
vn -0.6433038711547852 0.7656109929084778 0.0
vn -0.8653899431228638 0.5010989308357239 0.0
vn -0.9847596287727356 0.17392124235630035 0.0
vn -0.9847596287727356 -0.17392124235630035 0.0
vn -0.8653899431228638 -0.5010989308357239 0.0
vn -0.6433038711547852 -0.7656109929084778 0.0
vn -0.3423823118209839 -0.9395606517791748 0.0
vn -1.9596208744587784e-07 -1.0 0.0
vn 0.34136056900024414 -0.9399324655532837 0.0
vn 0.6433038711547852 -0.7656109929084778 0.0
vn 0.8653899431228638 -0.5010989308357239 0.0
vn 0.9847596287727356 -0.17392124235630035 0.0
vt 0.805555522441864 0.5
vt 0.75 0.5
vt 0.75 1.0
vt 0.805555522441864 1.0
vt 0.861111044883728 0.5
vt 0.861111044883728 1.0
vt 0.9166666865348816 0.5
vt 0.9166666865348816 1.0
vt 0.9722222089767456 0.5
vt 0.9722222089767456 1.0
vt 0.6944442987442017 1.0
vt 0.6944442987442017 0.5
vt 0.6388888359069824 1.0
vt 0.6388888359069824 0.5
vt 0.5833332538604736 1.0
vt 0.5833332538604736 0.5
vt 0.5277776718139648 1.0
vt 0.5277776718139648 0.5
vt 0.47222214937210083 1.0
vt 0.47222214937210083 0.5
vt 0.41666659712791443 1.0
vt 0.41666659712791443 0.5
vt 0.3611110746860504 1.0
vt 0.3611110746860504 0.5
vt 0.305555522441864 1.0
vt 0.305555522441864 0.5
vt 0.2499999850988388 1.0
vt 0.2499999850988388 0.5
vt 0.1944444328546524 1.0
vt 0.1944444328546524 0.5
vt 0.1388888955116272 1.0
vt 0.1388888955116272 0.5
vt 0.08333335071802139 1.0
vt 0.08333335071802139 0.5
vt 0.027777809649705887 1.0
vt 0.027777809649705887 0.5
vt -0.027777791023254395 1.0
vt -0.027777791023254395 0.5
vt 0.027777809649705887 0.0
vt -0.027777791023254395 0.0
vt 0.08333335071802139 0.0
vt 0.1388888955116272 0.0
vt 0.1944444328546524 0.0
vt 0.2499999850988388 0.0
vt 0.305555522441864 0.0
vt 0.3611110746860504 0.0
vt 0.41666659712791443 0.0
vt 0.47222214937210083 0.0
vt 0.5277776718139648 0.0
vt 0.5833332538604736 0.0
vt 0.6388888359069824 0.0
vt 0.6944442987442017 0.0
vt 0.75 0.0
vt 0.805555522441864 0.0
vt 0.861111044883728 0.0
vt 0.9166666865348816 0.0
vt 0.9722222089767456 0.0

g eff_mdl_gimmicpanel00
s 1
usemtl eff_mdl_gimmicpanel00
f 3/3/3 2/2/2 1/1/1 
f 3/3/3 1/1/1 4/4/4 
f 4/4/4 1/1/1 5/5/5 
f 4/4/4 5/5/5 6/6/6 
f 6/6/6 5/5/5 7/7/7 
f 6/6/6 7/7/7 8/8/8 
f 8/8/8 7/7/7 9/9/9 
f 8/8/8 9/9/9 10/10/10 
f 11/11/11 2/2/2 3/3/3 
f 11/11/11 12/12/12 2/2/2 
f 13/13/13 12/12/12 11/11/11 
f 13/13/13 14/14/14 12/12/12 
f 15/15/15 14/14/14 13/13/13 
f 15/15/15 16/16/16 14/14/14 
f 17/17/17 16/16/16 15/15/15 
f 17/17/17 18/18/18 16/16/16 
f 19/19/19 18/18/18 17/17/17 
f 19/19/19 20/20/20 18/18/18 
f 21/21/21 20/20/20 19/19/19 
f 21/21/21 22/22/22 20/20/20 
f 23/23/23 22/22/22 21/21/21 
f 23/23/23 24/24/24 22/22/22 
f 25/25/25 24/24/24 23/23/23 
f 25/25/25 26/26/26 24/24/24 
f 27/27/27 26/26/26 25/25/25 
f 27/27/27 28/28/28 26/26/26 
f 29/29/29 28/28/28 27/27/27 
f 29/29/29 30/30/30 28/28/28 
f 31/31/31 30/30/30 29/29/29 
f 31/31/31 32/32/32 30/30/30 
f 33/33/33 32/32/32 31/31/31 
f 33/33/33 34/34/34 32/32/32 
f 35/35/35 34/34/34 33/33/33 
f 35/35/35 36/36/36 34/34/34 
f 37/37/37 36/36/36 35/35/35 
f 37/37/37 38/38/38 36/36/36 
f 38/38/38 39/39/39 36/36/36 
f 38/38/38 40/40/40 39/39/39 
f 36/36/36 39/39/39 41/41/41 
f 36/36/36 41/41/41 34/34/34 
f 34/34/34 41/41/41 42/42/42 
f 34/34/34 42/42/42 32/32/32 
f 32/32/32 42/42/42 43/43/43 
f 32/32/32 43/43/43 30/30/30 
f 30/30/30 43/43/43 44/44/44 
f 30/30/30 44/44/44 28/28/28 
f 28/28/28 44/44/44 45/45/45 
f 28/28/28 45/45/45 26/26/26 
f 26/26/26 45/45/45 46/46/46 
f 26/26/26 46/46/46 24/24/24 
f 24/24/24 46/46/46 47/47/47 
f 24/24/24 47/47/47 22/22/22 
f 22/22/22 47/47/47 48/48/48 
f 22/22/22 48/48/48 20/20/20 
f 20/20/20 48/48/48 49/49/49 
f 20/20/20 49/49/49 18/18/18 
f 18/18/18 49/49/49 50/50/50 
f 18/18/18 50/50/50 16/16/16 
f 16/16/16 50/50/50 51/51/51 
f 16/16/16 51/51/51 14/14/14 
f 14/14/14 51/51/51 52/52/52 
f 14/14/14 52/52/52 12/12/12 
f 12/12/12 52/52/52 53/53/53 
f 12/12/12 53/53/53 2/2/2 
f 2/2/2 53/53/53 54/54/54 
f 2/2/2 54/54/54 1/1/1 
f 1/1/1 54/54/54 55/55/55 
f 1/1/1 55/55/55 5/5/5 
f 5/5/5 55/55/55 56/56/56 
f 5/5/5 56/56/56 7/7/7 
f 7/7/7 56/56/56 57/57/57 
f 7/7/7 57/57/57 9/9/9 

