v 0.0634043887257576 -0.021598638966679573 0.02803059108555317
v 0.044236838817596436 -0.01897452399134636 0.03124156966805458
v 0.05244612693786621 -0.002839567605406046 0.029780035838484764
v 0.07053250819444656 -0.0077112819999456406 0.026336144655942917
v 0.008023003116250038 -0.0024360762909054756 0.03971262276172638
v 0.036069534718990326 -0.00029223854653537273 0.03033890575170517
v 0.022921400144696236 -0.0016543124802410603 0.045733291655778885
v 0.05153663456439972 -0.004942367319017649 0.04241018369793892
v 0.05202166363596916 -0.005701342131942511 0.03520349785685539
v 0.012209909968078136 0.01915992982685566 0.03631538897752762
v 0.029561053961515427 0.012239359319210052 0.042074110358953476
v 0.03024659864604473 0.016970105469226837 0.02905264124274254
v 0.016548587009310722 0.02055906504392624 0.019427133724093437
v 0.04972444474697113 0.008027483709156513 0.04008370637893677
v 0.04954449087381363 0.0063454024493694305 0.03332489728927612
v 0.06192509084939957 -0.02384074404835701 0.013429983519017696
v 0.07874926924705505 -0.022518634796142578 0.02494511380791664
v 0.07725640386343002 -0.023495418950915337 0.012095291167497635
v 0.09226436167955399 -0.01581701822578907 0.02124113030731678
v 0.09134463965892792 -0.021115833893418312 0.022739838808774948
v 0.06895142793655396 -0.006414230912923813 0.012841103598475456
v 0.04954437538981438 -0.0013422764604911208 0.011795330792665482
v 0.04518523067235947 -0.02315436489880085 0.014784402213990688
v 0.06453260779380798 -0.0230660792440176 0.01310859527438879
v 0.06191230192780495 -0.004039695020765066 0.012155805714428425
v 0.07810379564762115 -0.007965313270688057 0.01186678372323513
v 0.07744380086660385 -0.022279836237430573 0.012096618302166462
v 0.061988089233636856 -0.022263802587985992 -0.002543224021792412
v 0.07331060618162155 -0.02229471318423748 -0.003434034762904048
v 0.09214013069868088 -0.016306012868881226 0.012535718269646168
v 0.08985929191112518 -0.022213615477085114 0.0113387955352664
v 0.07010675966739655 -0.01758739724755287 -0.018823647871613503
v 0.03753586858510971 -0.012716066092252731 -0.034317176789045334
v 0.055992983281612396 -0.012596696615219116 -0.03298394754528999
v 0.04249831289052963 0.003397524356842041 -0.03357735648751259
v 0.058272335678339005 -0.0030423817224800587 -0.030914852395653725
v 0.020556623116135597 -0.0018590494291856885 -0.032605160027742386
v 0.06912633031606674 -0.013262316584587097 -0.03125493973493576
v 0.07943958789110184 -0.01485797856003046 -0.028692204505205154
v 0.09645393490791321 -0.02078544721007347 0.010485812090337276
v 0.08087699115276337 -0.01589060202240944 -0.022809680551290512
v 0.09848836064338684 -0.022804925218224525 0.004047249909490347
v 0.0965578630566597 -0.018276840448379517 -0.0025953142903745174
v 0.07563914358615875 -0.006498071365058422 -0.0024249525740742683
v 0.09744913130998611 -0.012759353965520859 0.00022302505385596305
v 0.09756681323051453 -0.014416004531085491 0.00878763385117054
v 0.07890055328607559 -0.016103681176900864 -0.01810796558856964
v 0.06701061874628067 -0.005566503386944532 -0.016222676262259483
v 0.07911710441112518 -0.009924827143549919 -0.020535089075565338
v 0.024737248197197914 0.013057518750429153 -0.029753578826785088
v -0.0027265807148069143 0.017963722348213196 -0.025005731731653214
v -0.0029568830505013466 0.0005771348951384425 -0.02711162529885769
v -0.0018504636827856302 -0.016457125544548035 0.002999178133904934
v -0.0005326217506080866 -0.015872586518526077 0.02452024258673191
v -0.017275022342801094 -0.011633924208581448 0.022121088579297066
v -0.01908690109848976 -0.014622214250266552 0.001995842205360532
v -0.019956814125180244 0.0013387982035055757 -0.022056469693779945
v -0.019356535747647285 0.01902373507618904 -0.019121816381812096
v -0.002020477084442973 0.020620157942175865 0.028770502656698227
v -0.0013309064088389277 0.022627877071499825 0.004845249466598034
v -0.016511907801032066 0.012684858404099941 0.024866649881005287
v -0.017594873905181885 0.021259013563394547 0.005170135293155909
v 0.03024659864604473 0.016970105469226837 0.02905264124274254
v 0.016548587009310722 0.02055906504392624 0.019427133724093437
v 0.0234905444085598 0.011134404689073563 0.004246562719345093
v 0.036069534718990326 -0.00029223854653537273 0.03033890575170517
v 0.04954437538981438 -0.0013422764604911208 0.011795330792665482
v 0.05244612693786621 -0.002839567605406046 0.029780035838484764
v 0.06895142793655396 -0.006414230912923813 0.012841103598475456
v 0.07053250819444656 -0.0077112819999456406 0.026336144655942917
v 0.09214013069868088 -0.016306012868881226 0.012535718269646168
v 0.09226436167955399 -0.01581701822578907 0.02124113030731678
v 0.04249831289052963 0.003397524356842041 -0.03357735648751259
v 0.06191230192780495 -0.004039695020765066 0.012155805714428425
v 0.058272335678339005 -0.0030423817224800587 -0.030914852395653725
v 0.024737248197197914 0.013057518750429153 -0.029753578826785088
v 0.06701061874628067 -0.005566503386944532 -0.016222676262259483
v 0.07563914358615875 -0.006498071365058422 -0.0024249525740742683
v 0.07810379564762115 -0.007965313270688057 0.01186678372323513
v -0.0013309064088389277 0.022627877071499825 0.004845249466598034
v -0.0027265807148069143 0.017963722348213196 -0.025005731731653214
v -0.019356535747647285 0.01902373507618904 -0.019121816381812096
v -0.017594873905181885 0.021259013563394547 0.005170135293155909
v 0.09744913130998611 -0.012759353965520859 0.00022302505385596305
v 0.09756681323051453 -0.014416004531085491 0.00878763385117054
v 0.09076271206140518 -0.01458203885704279 -0.012500678189098835
v 0.09082865715026855 -0.01458922028541565 -0.006525104865431786
v 0.07955984771251678 -0.009739642962813377 -0.026735475286841393
v 0.07911710441112518 -0.009924827143549919 -0.020535089075565338
v 0.04954449087381363 0.0063454024493694305 0.03332489728927612
v 0.04643825814127922 -0.000665989879053086 0.02918848767876625
v 0.054103560745716095 0.0010945599060505629 0.03535435348749161
v 0.05202166363596916 -0.005701342131942511 0.03520349785685539
v 0.09405321627855301 -0.02405807375907898 0.01675926335155964
v 0.08986423909664154 -0.019960667937994003 -0.003788044909015298
v 0.09194596856832504 -0.019927198067307472 -0.009213203564286232
v 0.08972188085317612 -0.018898483365774155 -0.015169518999755383
v 0.09076271206140518 -0.01458203885704279 -0.012500678189098835
v 0.09082865715026855 -0.01458922028541565 -0.006525104865431786
v 0.05441080778837204 0.0026314598508179188 0.042810890823602676
v 0.05202166363596916 -0.005701342131942511 0.03520349785685539
v 0.054103560745716095 0.0010945599060505629 0.03535435348749161
v 0.04954449087381363 0.0063454024493694305 0.03332489728927612
v 0.09226436167955399 -0.01581701822578907 0.02124113030731678
v 0.09405321627855301 -0.02405807375907898 0.01675926335155964
v 0.09134463965892792 -0.021115833893418312 0.022739838808774948
v 0.09214013069868088 -0.016306012868881226 0.012535718269646168
v 0.08985929191112518 -0.022213615477085114 0.0113387955352664
v 0.07955984771251678 -0.009739642962813377 -0.026735475286841393
vn 0.07619709521532059 -0.6514543294906616 0.754851758480072
vn 0.032295696437358856 -0.6458712816238403 0.7627629041671753
vn 0.266120582818985 0.6781378388404846 0.6850612759590149
vn 0.35332754254341125 0.6504234075546265 0.6723905205726624
vn -0.34091442823410034 -0.2690610885620117 0.9007682800292969
vn 0.6357502341270447 0.6570035815238953 -0.4051763713359833
vn -0.13218124210834503 -0.5652308464050293 0.81427401304245
vn 0.386709988117218 -0.7347171902656555 0.5573561787605286
vn 0.46145692467689514 -0.8330013155937195 -0.305231511592865
vn -0.13554704189300537 0.7534376382827759 0.6433963179588318
vn 0.09120400249958038 0.6394823789596558 0.7633767127990723
vn 0.5119904279708862 0.8500295877456665 -0.12375553697347641
vn 0.2609260380268097 0.9586369395256042 -0.11372245848178864
vn 0.5221230983734131 0.79587322473526 0.3065505921840668
vn 0.6158077120780945 0.5635747909545898 -0.5506035089492798
vn -0.06378582864999771 -0.7838392853736877 -0.6176789402961731
vn 0.14278899133205414 -0.6548866629600525 0.7421150207519531
vn -0.026797307655215263 -0.7043813467025757 -0.7093157172203064
vn 0.6874104142189026 0.5475006103515625 0.4771897792816162
vn 0.4932640790939331 -0.3065238296985626 0.8140846490859985
vn 0.23926904797554016 0.7026958465576172 -0.6700513958930969
vn 0.2878146469593048 0.9534077644348145 0.09042251110076904
vn -0.09922454506158829 -0.9935043454170227 0.05571117624640465
vn 0.06139795109629631 -0.7112098932266235 0.7002933621406555
vn 0.1565203070640564 0.6924037933349609 0.7043282389640808
vn 0.22474728524684906 0.6643789410591125 0.7128037810325623
vn 0.06611619144678116 -0.6968532800674438 0.7141597867012024
vn -0.0394434817135334 -0.985372006893158 -0.16578985750675201
vn 0.022520005702972412 -0.9871116280555725 -0.15844087302684784
vn 0.6238489747047424 0.4862018823623657 -0.6118988394737244
vn 0.25836291909217834 -0.41196027398109436 -0.8738062381744385
vn 0.051204171031713486 -0.9506478905677795 -0.3060177266597748
vn -0.09190015494823456 -0.5999841690063477 -0.794715940952301
vn 0.10216414928436279 -0.5206658244132996 -0.8476258516311646
vn 0.27174603939056396 0.6486605405807495 -0.7109103798866272
vn 0.3448309004306793 0.7020527124404907 -0.6230678558349609
vn -0.1749729961156845 -0.003954076673835516 -0.984565258026123
vn 0.17146743834018707 -0.4387318789958954 -0.8821073770523071
vn 0.5291727185249329 -0.49496856331825256 -0.689189612865448
vn 0.5079237818717957 -0.4264315068721771 0.7484448552131653
vn 0.8111764192581177 -0.5844112038612366 -0.021363217383623123
vn 0.7152109742164612 -0.6948205232620239 -0.07548291981220245
vn 0.5388138890266418 -0.2074938267469406 -0.8164716958999634
vn 0.29476311802864075 0.9531767964363098 -0.06759129464626312
vn 0.6989871859550476 0.6140385866165161 -0.366569846868515
vn 0.7108213901519775 0.4725532531738281 0.5209859609603882
vn 0.5381335616111755 -0.4917145073413849 0.6845649480819702
vn 0.32965314388275146 0.94361412525177 -0.030351528897881508
vn 0.6976454854011536 0.584381103515625 0.41447487473487854
vn 0.20730838179588318 0.7724820971488953 -0.6002454161643982
vn -0.11042144149541855 0.7000105977058411 -0.7055438160896301
vn -0.30066394805908203 -0.38289839029312134 -0.8734930753707886
vn -0.13427332043647766 -0.9726991653442383 -0.1892804205417633
vn -0.18756337463855743 -0.892879843711853 0.40937209129333496
vn -0.40328189730644226 -0.6829091906547546 0.6090965867042542
vn -0.1432507187128067 -0.9592299461364746 -0.24363300204277039
vn -0.27686694264411926 -0.4092194437980652 -0.8694158792495728
vn -0.18133050203323364 0.7643285989761353 -0.6188061237335205
vn -0.32453083992004395 0.7455378174781799 0.5821110010147095
vn 0.09948787093162537 0.993887722492218 -0.047848235815763474
vn -0.4113948345184326 0.3340977132320404 0.8480170965194702
vn -0.17532598972320557 0.9829251766204834 0.055847007781267166
vn 0.5119904279708862 0.8500295877456665 -0.12375553697347641
vn 0.2609260380268097 0.9586369395256042 -0.11372245848178864
vn 0.48847416043281555 0.8698976039886475 -0.06834594160318375
vn 0.6357502341270447 0.6570035815238953 -0.4051763713359833
vn 0.2878146469593048 0.9534077644348145 0.09042251110076904
vn 0.266120582818985 0.6781378388404846 0.6850612759590149
vn 0.23926904797554016 0.7026958465576172 -0.6700513958930969
vn 0.35332754254341125 0.6504234075546265 0.6723905205726624
vn 0.6238489747047424 0.4862018823623657 -0.6118988394737244
vn 0.6874104142189026 0.5475006103515625 0.4771897792816162
vn 0.27174603939056396 0.6486605405807495 -0.7109103798866272
vn 0.1565203070640564 0.6924037933349609 0.7043282389640808
vn 0.3448309004306793 0.7020527124404907 -0.6230678558349609
vn 0.20730838179588318 0.7724820971488953 -0.6002454161643982
vn 0.32965314388275146 0.94361412525177 -0.030351528897881508
vn 0.29476311802864075 0.9531767964363098 -0.06759129464626312
vn 0.22474728524684906 0.6643789410591125 0.7128037810325623
vn 0.09948787093162537 0.993887722492218 -0.047848235815763474
vn -0.11042144149541855 0.7000105977058411 -0.7055438160896301
vn -0.18133050203323364 0.7643285989761353 -0.6188061237335205
vn -0.17532598972320557 0.9829251766204834 0.055847007781267166
vn 0.6989871859550476 0.6140385866165161 -0.366569846868515
vn 0.7108213901519775 0.4725532531738281 0.5209859609603882
vn 0.7298123240470886 0.5433727502822876 -0.4148736000061035
vn 0.7631109952926636 0.5213428139686584 0.3819207549095154
vn 0.6971388459205627 0.5948173999786377 -0.4002370238304138
vn 0.6976454854011536 0.584381103515625 0.41447487473487854
vn 0.6158077120780945 0.5635747909545898 -0.5506035089492798
vn 0.23985445499420166 -0.2957456409931183 -0.9246644973754883
vn 0.9127867817878723 0.10978497564792633 -0.39340513944625854
vn 0.46145692467689514 -0.8330013155937195 -0.305231511592865
vn 0.7596229910850525 -0.6495591998100281 -0.0323379784822464
vn 0.5324578285217285 -0.48307615518569946 0.6950727701187134
vn 0.7964723110198975 -0.6016132831573486 -0.0607726015150547
vn 0.48433443903923035 -0.44600120186805725 -0.7526639699935913
vn 0.7298123240470886 0.5433727502822876 -0.4148736000061035
vn 0.7631109952926636 0.5213428139686584 0.3819207549095154
vn 0.7810955047607422 0.22413110733032227 0.5827993154525757
vn 0.46145692467689514 -0.8330013155937195 -0.305231511592865
vn 0.9127867817878723 0.10978497564792633 -0.39340513944625854
vn 0.6158077120780945 0.5635747909545898 -0.5506035089492798
vn 0.6874104142189026 0.5475006103515625 0.4771897792816162
vn 0.7596229910850525 -0.6495591998100281 -0.0323379784822464
vn 0.4932640790939331 -0.3065238296985626 0.8140846490859985
vn 0.6238489747047424 0.4862018823623657 -0.6118988394737244
vn 0.25836291909217834 -0.41196027398109436 -0.8738062381744385
vn 0.6971388459205627 0.5948173999786377 -0.4002370238304138
vt 0.4841400384902954 0.18403995037078857
vt 0.4123903810977936 0.2804890275001526
vt 0.356707364320755 0.24234122037887573
vt 0.4606446623802185 0.12837177515029907
vt 0.2842845022678375 0.35047584772109985
vt 0.2821715772151947 0.22429531812667847
vt 0.23721997439861298 0.29125338792800903
vt 0.18296454846858978 0.1730908751487732
vt 0.21106652915477753 0.15285724401474
vt 0.1806088238954544 0.388976514339447
vt 0.16800415515899658 0.2999972701072693
vt 0.10645680874586105 0.3286897540092468
vt 0.09826295077800751 0.41905122995376587
vt 0.13028709590435028 0.20974403619766235
vt 0.0958343893289566 0.2162603735923767
vt 0.5721884369850159 0.23754841089248657
vt 0.5392192602157593 0.1094970703125
vt 0.6018526554107666 0.148729145526886
vt 0.5514591336250305 0.031229615211486816
vt 0.5940743088722229 0.03352022171020508
vt 0.5955115556716919 0.24202734231948853
vt 0.536105751991272 0.3445625305175781
vt 0.536105751991272 0.3445625305175781
vt 0.6276381611824036 0.25853925943374634
vt 0.6089328527450562 0.24181252717971802
vt 0.7124041318893433 0.1008862853050232
vt 0.6801853775978088 0.19160497188568115
vt 0.709434986114502 0.3498850464820862
vt 0.7720378637313843 0.29725056886672974
vt 0.6768307685852051 0.101529061794281
vt 0.6470792293548584 0.0614398717880249
vt 0.8368065357208252 0.4104289412498474
vt 0.7872499227523804 0.6191059052944183
vt 0.8758125901222229 0.5262170433998108
vt 0.8506906032562256 0.6756753325462341
vt 0.9087122082710266 0.5524530410766602
vt 0.7283464074134827 0.7002134621143341
vt 0.9123207926750183 0.4583452343940735
vt 0.9588673710823059 0.397796094417572
vt 0.7679685950279236 0.10290735960006714
vt 0.9512653350830078 0.36621981859207153
vt 0.8094766139984131 0.11407774686813354
vt 0.8412073850631714 0.17849493026733398
vt 0.8648111820220947 0.20435047149658203
vt 0.8635124564170837 0.10138601064682007
vt 0.813991904258728 0.05649280548095703
vt 0.9076421856880188 0.34881383180618286
vt 0.9479745030403137 0.30382150411605835
vt 0.9506696462631226 0.3189833164215088
vt 0.7968682646751404 0.7905452698469162
vt 0.6143753528594971 0.8960735276341438
vt 0.5680966973304749 0.7745734602212906
vt 0.4339182674884796 0.6125641167163849
vt 0.3426428735256195 0.5181918442249298
vt 0.28573817014694214 0.6021452248096466
vt 0.3652953505516052 0.6905684471130371
vt 0.4743838310241699 0.8251992017030716
vt 0.5215181112289429 0.9474312737584114
vt 0.1972373127937317 0.4668477177619934
vt 0.09544476866722107 0.5459250211715698
vt 0.21183490753173828 0.551612377166748
vt 0.1559048742055893 0.6147394776344299
vt 0.33273714780807495 0.7507319897413254
vt 0.36214423179626465 0.7959185093641281
vt 0.30834251642227173 0.8429230898618698
vt 0.25686079263687134 0.7360749840736389
vt 0.19903960824012756 0.8103270828723907
vt 0.1826738715171814 0.7412421107292175
vt 0.12094845622777939 0.7998328059911728
vt 0.10564705729484558 0.7468365728855133
vt 0.035991691052913666 0.7931035906076431
vt 0.03585226833820343 0.7594683319330215
vt 0.22276051342487335 0.97591882199049
vt 0.15452654659748077 0.8128149956464767
vt 0.1616975963115692 0.9694763161242008
vt 0.29456228017807007 0.9688358381390572
vt 0.13701201975345612 0.9170260727405548
vt 0.10184737294912338 0.868197575211525
vt 0.09276486933231354 0.8100581914186478
vt 0.410400390625 0.8587940186262131
vt 0.3966038227081299 0.9669075384736061
vt 0.4595193862915039 0.9567030668258667
vt 0.4689963459968567 0.8685310482978821
vt 0.008518406189978123 0.8429127484560013
vt 0.013622796162962914 0.8136496692895889
vt 0.03756238520145416 0.8976617753505707
vt 0.03766407072544098 0.8759002983570099
vt 0.0817609503865242 0.9496635496616364
vt 0.08224767446517944 0.9373838678002357
vt 0.30781078338623047 0.675209641456604
vt 0.28069359064102173 0.6867409944534302
vt 0.2935827374458313 0.6540051698684692
vt 0.26751989126205444 0.657406747341156
vt 0.626998245716095 0.05186581611633301
vt 0.8595492839813232 0.23093563318252563
vt 0.8970350027084351 0.2532944083213806
vt 0.9179322719573975 0.27606022357940674
vt 0.9350653290748596 0.24261122941970825
vt 0.9058467745780945 0.20211321115493774
vt 0.15093688666820526 0.1860937476158142
vt 0.16485565900802612 0.1432233452796936
vt 0.13525883853435516 0.16247183084487915
vt 0.10815311223268509 0.18462449312210083
vt 0.6211017370223999 0.011283040046691895
vt 0.6279362440109253 0.05280381441116333
vt 0.5940743088722229 0.03352022171020508
vt 0.656952977180481 0.03936660289764404
vt 0.6470792293548584 0.0614398717880249
vt 0.9999346733093262 0.3674919009208679

g eff_mdl_fa_edwa01_hand_R
s 1
usemtl eff_mdl_fa_edwa01_hand_R
f 3/3/3 2/2/2 1/1/1 
f 1/1/1 4/4/4 3/3/3 
f 3/3/3 5/5/5 2/2/2 
f 5/5/5 3/3/3 6/6/6 
f 5/5/5 6/6/6 7/7/7 
f 7/7/7 6/6/6 8/8/8 
f 9/9/9 8/8/8 6/6/6 
f 7/7/7 10/10/10 5/5/5 
f 11/11/11 10/10/10 7/7/7 
f 10/10/10 11/11/11 12/12/12 
f 12/12/12 13/13/13 10/10/10 
f 12/12/12 11/11/11 14/14/14 
f 14/14/14 15/15/15 12/12/12 
f 1/1/1 2/2/2 16/16/16 
f 17/17/17 1/1/1 16/16/16 
f 16/16/16 18/18/18 17/17/17 
f 19/19/19 4/4/4 17/17/17 
f 17/17/17 20/20/20 19/19/19 
f 16/16/16 21/21/21 18/18/18 
f 22/22/22 21/21/21 16/16/16 
f 16/16/16 23/23/23 22/22/22 
f 22/22/22 23/23/23 24/24/24 
f 24/24/24 25/25/25 22/22/22 
f 26/26/26 25/25/25 24/24/24 
f 24/24/24 27/27/27 26/26/26 
f 27/27/27 24/24/24 28/28/28 
f 23/23/23 28/28/28 24/24/24 
f 28/28/28 29/29/29 27/27/27 
f 18/18/18 21/21/21 30/30/30 
f 30/30/30 31/31/31 18/18/18 
f 29/29/29 28/28/28 32/32/32 
f 23/23/23 33/33/33 28/28/28 
f 28/28/28 33/33/33 34/34/34 
f 28/28/28 34/34/34 32/32/32 
f 34/34/34 33/33/33 35/35/35 
f 35/35/35 36/36/36 34/34/34 
f 33/33/33 37/37/37 35/35/35 
f 32/32/32 34/34/34 38/38/38 
f 34/34/34 36/36/36 38/38/38 
f 38/38/38 36/36/36 39/39/39 
f 40/40/40 26/26/26 27/27/27 
f 39/39/39 41/41/41 38/38/38 
f 41/41/41 32/32/32 38/38/38 
f 42/42/42 27/27/27 29/29/29 
f 40/40/40 27/27/27 42/42/42 
f 43/43/43 42/42/42 29/29/29 
f 44/44/44 43/43/43 29/29/29 
f 45/45/45 43/43/43 44/44/44 
f 42/42/42 43/43/43 45/45/45 
f 46/46/46 42/42/42 45/45/45 
f 46/46/46 40/40/40 42/42/42 
f 47/47/47 32/32/32 41/41/41 
f 47/47/47 48/48/48 32/32/32 
f 47/47/47 49/49/49 48/48/48 
f 47/47/47 41/41/41 49/49/49 
f 37/37/37 50/50/50 35/35/35 
f 51/51/51 50/50/50 37/37/37 
f 51/51/51 37/37/37 52/52/52 
f 52/52/52 37/37/37 33/33/33 
f 53/53/53 52/52/52 33/33/33 
f 33/33/33 23/23/23 53/53/53 
f 53/53/53 23/23/23 2/2/2 
f 16/16/16 2/2/2 23/23/23 
f 2/2/2 54/54/54 53/53/53 
f 2/2/2 5/5/5 54/54/54 
f 5/5/5 55/55/55 54/54/54 
f 55/55/55 56/56/56 54/54/54 
f 53/53/53 54/54/54 56/56/56 
f 53/53/53 56/56/56 52/52/52 
f 57/57/57 52/52/52 56/56/56 
f 51/51/51 52/52/52 58/58/58 
f 57/57/57 58/58/58 52/52/52 
f 5/5/5 59/59/59 55/55/55 
f 10/10/10 59/59/59 5/5/5 
f 10/10/10 13/13/13 59/59/59 
f 13/13/13 60/60/60 59/59/59 
f 61/61/61 55/55/55 59/59/59 
f 62/62/62 59/59/59 60/60/60 
f 59/59/59 62/62/62 61/61/61 
f 65/65/65 64/64/64 63/63/63 
f 66/66/66 65/65/65 63/63/63 
f 67/67/67 65/65/65 66/66/66 
f 67/67/67 66/66/66 68/68/68 
f 69/69/69 67/67/67 68/68/68 
f 68/68/68 70/70/70 69/69/69 
f 71/71/71 69/69/69 70/70/70 
f 72/72/72 71/71/71 70/70/70 
f 67/67/67 73/73/73 65/65/65 
f 74/74/74 73/73/73 67/67/67 
f 74/74/74 75/75/75 73/73/73 
f 65/65/65 73/73/73 76/76/76 
f 74/74/74 77/77/77 75/75/75 
f 78/78/78 77/77/77 74/74/74 
f 78/78/78 74/74/74 79/79/79 
f 80/80/80 65/65/65 76/76/76 
f 80/80/80 76/76/76 81/81/81 
f 82/82/82 80/80/80 81/81/81 
f 80/80/80 82/82/82 83/83/83 
f 78/78/78 79/79/79 84/84/84 
f 79/79/79 85/85/85 84/84/84 
f 86/86/86 77/77/77 78/78/78 
f 87/87/87 86/86/86 78/78/78 
f 88/88/88 75/75/75 77/77/77 
f 89/89/89 88/88/88 77/77/77 
f 65/65/65 80/80/80 64/64/64 
f 92/92/92 91/91/91 90/90/90 
f 93/93/93 91/91/91 92/92/92 
f 93/93/93 66/66/66 91/91/91 
f 91/91/91 63/63/63 90/90/90 
f 66/66/66 63/63/63 91/91/91 
f 17/17/17 4/4/4 1/1/1 
f 17/17/17 94/94/94 20/20/20 
f 18/18/18 94/94/94 17/17/17 
f 31/31/31 94/94/94 18/18/18 
f 29/29/29 95/95/95 44/44/44 
f 95/95/95 29/29/29 96/96/96 
f 96/96/96 29/29/29 32/32/32 
f 97/97/97 96/96/96 32/32/32 
f 32/32/32 48/48/48 97/97/97 
f 98/98/98 97/97/97 48/48/48 
f 98/98/98 96/96/96 97/97/97 
f 99/99/99 44/44/44 95/95/95 
f 99/99/99 95/95/95 96/96/96 
f 98/98/98 99/99/99 96/96/96 
f 8/8/8 100/100/100 7/7/7 
f 8/8/8 101/101/101 100/100/100 
f 100/100/100 101/101/101 102/102/102 
f 102/102/102 103/103/103 100/100/100 
f 100/100/100 103/103/103 14/14/14 
f 14/14/14 11/11/11 100/100/100 
f 7/7/7 100/100/100 11/11/11 
f 106/106/106 105/105/105 104/104/104 
f 105/105/105 107/107/107 104/104/104 
f 108/108/108 107/107/107 105/105/105 
f 26/26/26 40/40/40 46/46/46 
f 109/109/109 39/39/39 36/36/36 
f 41/41/41 39/39/39 109/109/109 
f 41/41/41 109/109/109 49/49/49 

