v -0.09186851233243942 0.08788665384054184 0.0
v 0.09186836332082748 0.08788634836673737 1.999999761581421
v -0.09186851233243942 0.08788634836673737 1.999999761581421
v 0.09186836332082748 0.08788665384054184 0.0
v -0.09186851233243942 -0.08788726478815079 0.0
v -0.09186851233243942 0.08788634836673737 1.999999761581421
v -0.09186851233243942 -0.08788726478815079 1.999999761581421
v -0.09186851233243942 0.08788665384054184 0.0
v 0.09186836332082748 -0.08788726478815079 0.0
v -0.09186851233243942 -0.08788726478815079 1.999999761581421
v 0.09186836332082748 -0.08788726478815079 1.999999761581421
v -0.09186851233243942 -0.08788726478815079 0.0
v 0.09186836332082748 0.08788665384054184 0.0
v 0.09186836332082748 -0.08788726478815079 1.999999761581421
v 0.09186836332082748 0.08788634836673737 1.999999761581421
v 0.09186836332082748 -0.08788726478815079 0.0
v 0.09186836332082748 0.08788634836673737 1.999999761581421
v -0.09186851233243942 -0.08788726478815079 1.999999761581421
v -0.09186851233243942 0.08788634836673737 1.999999761581421
v 0.09186836332082748 -0.08788726478815079 1.999999761581421
vn -0.0 1.0 3.051758312722086e-07
vn -0.0 1.0 3.051758312722086e-07
vn -0.0 1.0 3.0517577442878974e-07
vn -0.0 1.0 3.0517577442878974e-07
vn -1.0 0.0 0.0
vn -1.0 0.0 0.0
vn -1.0 0.0 0.0
vn -1.0 0.0 0.0
vn -0.0 -1.0 0.0
vn -0.0 -1.0 0.0
vn -0.0 -1.0 0.0
vn -0.0 -1.0 0.0
vn 1.0 0.0 0.0
vn 1.0 0.0 0.0
vn 1.0 0.0 0.0
vn 1.0 0.0 0.0
vn -0.0 0.0 1.0
vn -0.0 0.0 1.0
vn -0.0 0.0 1.0
vn -0.0 0.0 1.0
vt 0.5071237683296204 0.31805896759033203
vt 0.9999741911888123 0.28471219539642334
vt 0.9999741911888123 0.31805896759033203
vt 0.5071237683296204 0.28471219539642334
vt 0.5071237683296204 0.3513859510421753
vt 0.9999741911888123 0.31803905963897705
vt 0.9999741911888123 0.3513859510421753
vt 0.5071237683296204 0.3180391788482666
vt 0.5071237683296204 0.31805896759033203
vt 0.9999741911888123 0.28471219539642334
vt 0.9999741911888123 0.31805896759033203
vt 0.5071237683296204 0.28471219539642334
vt 0.5071237683296204 0.3513859510421753
vt 0.9999741911888123 0.31803905963897705
vt 0.9999741911888123 0.3513859510421753
vt 0.5071237683296204 0.3180391788482666
vt 0.9582905769348145 0.040314555168151855
vt 0.8827348947525024 0.11259573698043823
vt 0.8827348947525024 0.040314555168151855
vt 0.9582905769348145 0.11259573698043823

g bg_mdl_map_hasira02
s 1
usemtl bg_mdl_map_hasira02
f 3/3/3 2/2/2 1/1/1 
f 4/4/4 1/1/1 2/2/2 
f 7/7/7 6/6/6 5/5/5 
f 8/8/8 5/5/5 6/6/6 
f 11/11/11 10/10/10 9/9/9 
f 12/12/12 9/9/9 10/10/10 
f 15/15/15 14/14/14 13/13/13 
f 16/16/16 13/13/13 14/14/14 
f 19/19/19 18/18/18 17/17/17 
f 20/20/20 17/17/17 18/18/18 

