v -0.1964399814605713 -0.042393360286951065 0.3862934708595276
v 0.1964399814605713 0.3504866063594818 0.45673537254333496
v 0.1964399814605713 -0.042393360286951065 0.3862934708595276
v -0.1964399814605713 0.3504866063594818 0.45673537254333496
v -0.26922979950904846 0.12020725011825562 0.5538660883903503
v -0.015272168442606926 -0.37064674496650696 0.5237537622451782
v -0.3893415033817291 -0.25134363770484924 0.5376678109169006
v 0.10483953356742859 0.0009041785961017013 0.5399520397186279
v -0.0 0.13278312981128693 0.3982168436050415
v -0.04915771260857582 0.16025519371032715 0.0
v -0.04915771260857582 0.11772819608449936 0.0
v -0.0 0.1753101348876953 0.3982168436050415
v -0.015035567805171013 0.13901107013225555 0.3982168436050415
v -0.03412214666604996 0.15402725338935852 0.0
v -0.06419327855110168 0.1239561215043068 0.0
v 0.015035567805171013 0.16908219456672668 0.3982168436050415
v -0.13519683480262756 -0.14406561851501465 0.5102308392524719
v -0.1050814762711525 -0.08811027556657791 0.0
v -0.1050814762711525 -0.1306372731924057 0.0
v -0.13519683480262756 -0.10153862088918686 0.5102308392524719
v -0.15023240447044373 -0.13783767819404602 0.5102308392524719
v -0.09004590660333633 -0.09433820843696594 0.0
v -0.12011705338954926 -0.12440933287143707 0.0
v -0.1201612651348114 -0.1077665463089943 0.5102308392524719
vn -0.0 -0.17648197710514069 0.984303891658783
vn -0.0 -0.17648197710514069 0.984303891658783
vn -0.0 -0.17648197710514069 0.984303891658783
vn -0.0 -0.17648197710514069 0.984303891658783
vn 0.021083684638142586 -0.050347138196229935 0.9985092282295227
vn 0.021083684638142586 -0.05034713074564934 0.9985092282295227
vn 0.021083682775497437 -0.05034713074564934 0.9985092282295227
vn 0.021083688363432884 -0.05034713074564934 0.9985092282295227
vn 0.9924667477607727 0.0 -0.12251465022563934
vn 0.9924667477607727 0.0 -0.12251465022563934
vn 0.9924667477607727 0.0 -0.12251465022563934
vn 0.9924667477607727 0.0 -0.12251465022563934
vn 0.7058138251304626 -0.7058138847351074 -0.06044498831033707
vn 0.7058138251304626 -0.7058138251304626 -0.060444995760917664
vn 0.7058138251304626 -0.7058138251304626 -0.060444995760917664
vn 0.7058137655258179 -0.7058139443397522 -0.06044498458504677
vn 0.9982627034187317 0.0 0.05892046168446541
vn 0.9982627034187317 0.0 0.05892046168446541
vn 0.9982627034187317 0.0 0.05892046540975571
vn 0.9982627034187317 0.0 0.05892046540975571
vn 0.7069174647331238 -0.7069180011749268 0.023119604215025902
vn 0.7069174647331238 -0.7069180011749268 0.023119604215025902
vn 0.7069174647331238 -0.7069180011749268 0.023119604215025902
vn 0.7069174647331238 -0.7069180011749268 0.023119604215025902
vt 0.7594981789588928 0.528721034526825
vt 0.9424718022346497 0.3620595932006836
vt 0.9424718022346497 0.528721034526825
vt 0.7594981789588928 0.3620595932006836
vt 0.7594981789588928 0.528721034526825
vt 0.9424718022346497 0.3620595932006836
vt 0.9424718022346497 0.528721034526825
vt 0.7594981789588928 0.3620595932006836
vt 0.6024032235145569 0.22494381666183472
vt 0.4491843283176422 0.24046790599822998
vt 0.4491843283176422 0.22494375705718994
vt 0.6024032235145569 0.24046796560287476
vt 0.6024032235145569 0.22494381666183472
vt 0.4491843283176422 0.24046790599822998
vt 0.4491843283176422 0.22494375705718994
vt 0.6024032235145569 0.24046796560287476
vt 0.6024032235145569 0.22494381666183472
vt 0.4491843283176422 0.24046790599822998
vt 0.4491843283176422 0.22494375705718994
vt 0.6024032235145569 0.24046796560287476
vt 0.6024032235145569 0.22494381666183472
vt 0.4491843283176422 0.24046790599822998
vt 0.4491843283176422 0.22494375705718994
vt 0.6024032235145569 0.24046796560287476

g bg_mdl_map_hasu00
s 1
usemtl bg_mdl_map_hasu00
f 3/3/3 2/2/2 1/1/1 
f 4/4/4 1/1/1 2/2/2 
f 7/7/7 6/6/6 5/5/5 
f 8/8/8 5/5/5 6/6/6 
f 11/11/11 10/10/10 9/9/9 
f 12/12/12 9/9/9 10/10/10 
f 15/15/15 14/14/14 13/13/13 
f 16/16/16 13/13/13 14/14/14 
f 19/19/19 18/18/18 17/17/17 
f 20/20/20 17/17/17 18/18/18 
f 23/23/23 22/22/22 21/21/21 
f 24/24/24 21/21/21 22/22/22 

