v -3.666710138320923 2.0417978763580322 10.000001907348633
v -4.569018363952637 2.0520517826080322 7.500000953674316
v -4.9804840087890625 1.7457623481750488 7.5
v -4.976950645446777 2.056687116622925 9.999999046325684
v -3.6667089462280273 2.0417978763580322 12.988090515136719
v -3.666710138320923 2.0417978763580322 10.000001907348633
v -4.976950645446777 2.056687116622925 9.999999046325684
v -4.976950645446777 2.056687116622925 12.988090515136719
v 0.5370045900344849 2.9806652069091797 7.5
v 0.6065038442611694 2.429839611053467 7.5
v 1.2564772367477417 2.2607710361480713 9.999998092651367
v 1.1600818634033203 3.0247654914855957 10.0
v 1.7213910818099976 4.755173683166504 9.999999046325684
v 1.617327094078064 5.288012504577637 7.5
v 1.0288922786712646 4.642344951629639 7.5
v 1.29353928565979 4.280210494995117 9.999999046325684
v 3.812929391860962 4.84703254699707 10.0
v 2.7822983264923096 4.685637950897217 7.5
v 2.084021806716919 4.40100622177124 7.5
v 3.062607765197754 4.573385715484619 10.0
v 1.0288922786712646 4.642344951629639 7.5
v -0.029138516634702682 5.37235689163208 7.5
v 0.6629897356033325 4.704560279846191 10.000001907348633
v 1.29353928565979 4.280210494995117 9.999999046325684
v 2.2873826026916504 5.308840274810791 10.0
v 1.617327094078064 5.288012504577637 7.5
v 1.7213910818099976 4.755173683166504 9.999999046325684
v 2.7822983264923096 4.685637950897217 7.5
v 3.812929391860962 4.84703254699707 10.0
v 4.553718090057373 5.813196659088135 9.999999046325684
v 2.8690426349639893 5.6856231689453125 7.5
v 2.8690426349639893 5.6856231689453125 7.5
v 4.553718090057373 5.813196659088135 9.999999046325684
v 3.55794358253479 5.533130168914795 7.5
v 4.187538146972656 5.786766052246094 7.796883583068848
v 4.553718090057373 5.813196659088135 9.999999046325684
v 4.586462020874023 5.474327087402344 7.4817986488342285
v 4.934362888336182 6.74058723449707 7.199694633483887
v 4.938169956207275 7.105443477630615 9.999999046325684
v 5.368799209594727 7.696037292480469 9.999999046325684
v 5.325494766235352 7.146020412445068 7.5
v 5.083797454833984 9.340599060058594 7.3657755851745605
v 4.6759538650512695 9.647488594055176 8.75
v 4.413763523101807 9.650467872619629 7.5
v 4.413763523101807 9.650467872619629 7.5
v 4.6759538650512695 9.647488594055176 8.75
v 4.36690616607666 10.75107192993164 7.5
v 1.617327094078064 5.288012504577637 7.5
v 2.2873826026916504 5.308840274810791 10.0
v 3.062607765197754 4.573385715484619 10.0
v 2.084021806716919 4.40100622177124 7.5
v 5.391210079193115 7.795315265655518 7.5
v 5.325494766235352 7.146020412445068 7.5
v 5.368799209594727 7.696037292480469 9.999999046325684
v 5.262879371643066 8.682405471801758 9.999999046325684
v 5.443331241607666 9.142115592956543 7.574311256408691
v 5.535988807678223 8.609163284301758 7.628667831420898
v 5.46439790725708 8.938483238220215 8.75
v -0.22349947690963745 3.4915218353271484 7.5
v 0.6621615290641785 3.424931287765503 9.999999046325684
v 0.47831088304519653 3.982325315475464 9.999999046325684
v 0.2617327570915222 4.103291988372803 7.5
v -0.22349947690963745 3.4915218353271484 7.5
v 0.5370045900344849 2.9806652069091797 7.5
v 1.1600818634033203 3.0247654914855957 10.0
v 0.6621615290641785 3.424931287765503 9.999999046325684
v 0.2617327570915222 4.103291988372803 7.5
v 0.47831088304519653 3.982325315475464 9.999999046325684
v 0.7026165723800659 4.416841506958008 9.999999046325684
v 0.48692911863327026 4.761867046356201 7.5
v 1.2564772367477417 2.2607710361480713 9.999998092651367
v 0.6065038442611694 2.429839611053467 7.5
v 0.12003643065690994 1.7930370569229126 7.377775192260742
v 0.7615438103675842 1.5191197395324707 9.944254875183105
v -0.029138516634702682 5.37235689163208 7.5
v 0.48692911863327026 4.761867046356201 7.5
v 0.7026165723800659 4.416841506958008 9.999999046325684
v 0.6629897356033325 4.704560279846191 10.000001907348633
v 1.2564772367477417 2.2607710361480713 9.999998092651367
v 1.5113574266433716 2.3529698848724365 12.988090515136719
v 1.401513695716858 3.2235498428344727 12.988090515136719
v 1.1600818634033203 3.0247654914855957 10.0
v 3.062607765197754 4.573385715484619 10.0
v 3.4275240898132324 4.924032688140869 12.988090515136719
v 4.152386665344238 5.188394069671631 12.988090515136719
v 3.812929391860962 4.84703254699707 10.0
v 1.7213910818099976 4.755173683166504 9.999999046325684
v 1.6368180513381958 5.4344305992126465 12.992533683776855
v 2.5240416526794434 5.306150913238525 12.988090515136719
v 2.2873826026916504 5.308840274810791 10.0
v 3.812929391860962 4.84703254699707 10.0
v 4.152386665344238 5.188394069671631 12.988090515136719
v 4.862977027893066 6.125158786773682 12.988090515136719
v 4.553718090057373 5.813196659088135 9.999999046325684
v 4.862977027893066 6.125158786773682 12.988090515136719
v 5.363249778747559 7.004995346069336 12.988090515136719
v 5.204133033752441 6.454113006591797 9.999999046325684
v 4.553718090057373 5.813196659088135 9.999999046325684
v 4.938169956207275 7.105443477630615 9.999999046325684
v 4.947145462036133 7.895244598388672 12.988090515136719
v 5.377774715423584 8.485838890075684 12.988090515136719
v 5.368799209594727 7.696037292480469 9.999999046325684
v 5.484227180480957 9.053060531616211 9.999999046325684
v 5.381078243255615 9.529950141906738 12.988090515136719
v 4.701858997344971 10.296696662902832 12.988090515136719
v 4.6957831382751465 9.762064933776855 9.999999046325684
v 4.6957831382751465 9.762064933776855 9.999999046325684
v 4.701858997344971 10.296696662902832 12.988090515136719
v 4.775290489196777 10.746430397033691 12.988090515136719
v 4.775290489196777 10.746430397033691 9.999999046325684
v 4.6759538650512695 9.647488594055176 8.75
v 2.2873826026916504 5.308840274810791 10.0
v 2.5240416526794434 5.306150913238525 12.988090515136719
v 3.4275240898132324 4.924032688140869 12.988090515136719
v 3.062607765197754 4.573385715484619 10.0
v 5.368799209594727 7.696037292480469 9.999999046325684
v 5.377774715423584 8.485838890075684 12.988090515136719
v 5.381078243255615 9.529950141906738 12.988090515136719
v 5.262879371643066 8.682405471801758 9.999999046325684
v 5.262879371643066 8.682405471801758 9.999999046325684
v 5.381078243255615 9.529950141906738 12.988090515136719
v 5.484227180480957 9.053060531616211 9.999999046325684
v 0.6621615290641785 3.424931287765503 9.999999046325684
v 0.967939555644989 3.6578800678253174 12.987869262695312
v 0.4131027162075043 3.9830663204193115 12.988090515136719
v 0.47831088304519653 3.982325315475464 9.999999046325684
v 1.1600818634033203 3.0247654914855957 10.0
v 1.401513695716858 3.2235498428344727 12.988090515136719
v 0.967939555644989 3.6578800678253174 12.987869262695312
v 0.6621615290641785 3.424931287765503 9.999999046325684
v 0.47831088304519653 3.982325315475464 9.999999046325684
v 0.4131027162075043 3.9830663204193115 12.988090515136719
v 0.26832568645477295 4.421450138092041 12.98119831085205
v 0.7026165723800659 4.416841506958008 9.999999046325684
v 0.9764856696128845 1.5308268070220947 12.98713493347168
v 1.5113574266433716 2.3529698848724365 12.988090515136719
v 1.2564772367477417 2.2607710361480713 9.999998092651367
v 0.7615438103675842 1.5191197395324707 9.944254875183105
v 5.46439790725708 8.938483238220215 8.75
v 5.484227180480957 9.053060531616211 9.999999046325684
v 4.6957831382751465 9.762064933776855 9.999999046325684
v 4.6759538650512695 9.647488594055176 8.75
v 5.03122091293335 8.074383735656738 7.365340232849121
v 5.473109245300293 8.2383394241333 8.75
v 5.4313507080078125 8.088117599487305 7.574311256408691
v 5.473109245300293 8.2383394241333 8.75
v 5.46439790725708 8.938483238220215 8.75
v 5.535988807678223 8.609163284301758 7.628667831420898
v 5.473109245300293 8.2383394241333 8.75
v 5.262879371643066 8.682405471801758 9.999999046325684
v 5.484227180480957 9.053060531616211 9.999999046325684
v 5.46439790725708 8.938483238220215 8.75
v 5.473109245300293 8.2383394241333 8.75
v 5.535988807678223 8.609163284301758 7.628667831420898
v 5.4313507080078125 8.088117599487305 7.574311256408691
v 5.46439790725708 8.938483238220215 8.75
v 5.083797454833984 9.340599060058594 7.3657755851745605
v 5.443331241607666 9.142115592956543 7.574311256408691
v 5.083797454833984 9.340599060058594 7.3657755851745605
v 5.46439790725708 8.938483238220215 8.75
v 4.6759538650512695 9.647488594055176 8.75
v 4.36690616607666 10.75107192993164 7.5
v 4.6759538650512695 9.647488594055176 8.75
v 4.775290489196777 10.746430397033691 9.999999046325684
v 5.391210079193115 7.795315265655518 7.5
v 5.262879371643066 8.682405471801758 9.999999046325684
v 5.03122091293335 8.074383735656738 7.365340232849121
v 5.03122091293335 8.074383735656738 7.365340232849121
v 5.262879371643066 8.682405471801758 9.999999046325684
v 5.473109245300293 8.2383394241333 8.75
v -1.3610721826553345 1.8525325059890747 9.999652862548828
v -2.059528350830078 1.9142099618911743 7.5
v -2.506991147994995 1.0694552659988403 7.500000476837158
v -1.733921766281128 0.8466070890426636 10.000001907348633
v -1.733921766281128 0.8466070890426636 10.000001907348633
v -2.506991147994995 1.0694552659988403 7.500000476837158
v -3.710449457168579 1.0831313133239746 7.500000476837158
v -2.937380075454712 0.8602832555770874 10.000001907348633
v -3.666710138320923 2.0417978763580322 10.000001907348633
v -2.937380075454712 0.8602832555770874 10.000001907348633
v -3.710449457168579 1.0831313133239746 7.500000476837158
v -4.569018363952637 2.0520517826080322 7.500000953674316
v -1.3854457139968872 1.8700289726257324 12.988090515136719
v -1.3610721826553345 1.8525325059890747 9.999652862548828
v -1.733921766281128 0.8466070890426636 10.000001907348633
v -1.5877162218093872 1.0624558925628662 12.988090515136719
v -1.5877162218093872 1.0624558925628662 12.988090515136719
v -1.733921766281128 0.8466070890426636 10.000001907348633
v -2.937380075454712 0.8602832555770874 10.000001907348633
v -2.7911739349365234 1.0761319398880005 12.988090515136719
v -2.7911739349365234 1.0761319398880005 12.988090515136719
v -2.937380075454712 0.8602832555770874 10.000001907348633
v -3.666710138320923 2.0417978763580322 10.000001907348633
v -3.6667089462280273 2.0417978763580322 12.988090515136719
v 4.553718090057373 5.813196659088135 9.999999046325684
v 4.187538146972656 5.786766052246094 7.796883583068848
v 3.803860664367676 6.153571128845215 7.672828197479248
v 3.55794358253479 5.533130168914795 7.5
v 4.553718090057373 5.813196659088135 9.999999046325684
v 3.803860664367676 6.153571128845215 7.672828197479248
v -1.3854457139968872 1.8700289726257324 12.988090515136719
v 0.02843247354030609 1.236332654953003 12.987802505493164
v -0.0740843340754509 1.1171069145202637 9.985052108764648
v -1.3610721826553345 1.8525325059890747 9.999652862548828
v -1.3610721826553345 1.8525325059890747 9.999652862548828
v -0.0740843340754509 1.1171069145202637 9.985052108764648
v -0.6915218830108643 1.4014530181884766 7.5
v -1.4092413187026978 2.245116710662842 7.5
v 0.02843247354030609 1.236332654953003 12.987802505493164
v 0.9764856696128845 1.5308268070220947 12.98713493347168
v 0.7615438103675842 1.5191197395324707 9.944254875183105
v -0.0740843340754509 1.1171069145202637 9.985052108764648
v -0.0740843340754509 1.1171069145202637 9.985052108764648
v 0.7615438103675842 1.5191197395324707 9.944254875183105
v 0.12003643065690994 1.7930370569229126 7.377775192260742
v -0.6915218830108643 1.4014530181884766 7.5
v -2.059528350830078 1.9142099618911743 7.5
v -1.3610721826553345 1.8525325059890747 9.999652862548828
v -1.4092413187026978 2.245116710662842 7.5
v 1.8320631980895996 6.097233772277832 5.366232872009277
v 1.10624098777771 6.719417572021484 5.440179347991943
v 0.6753895282745361 4.989062309265137 8.857388496398926
v 1.3098015785217285 4.382624626159668 8.910637855529785
v 1.0618517398834229 3.9033758640289307 10.947072982788086
v 0.4695765972137451 4.5046491622924805 10.919294357299805
v 0.2683229446411133 4.421450614929199 12.981199264526367
v 0.8184613585472107 3.825340986251831 12.983505249023438
v 1.0618517398834229 3.9033758640289307 10.947072982788086
v 1.771209478378296 3.939487934112549 11.177204132080078
v 2.049156904220581 4.390017986297607 9.36623764038086
v 1.3098015785217285 4.382624626159668 8.910637855529785
v 2.049156904220581 4.390017986297607 9.36623764038086
v 2.6517648696899414 6.037874221801758 5.759295463562012
v 1.8320631980895996 6.097233772277832 5.366232872009277
v 1.3098015785217285 4.382624626159668 8.910637855529785
v 2.7178125381469727 7.478829383850098 6.493710041046143
v 3.056570291519165 6.675538063049316 6.169185161590576
v 2.4422824382781982 5.031978607177734 9.775074005126953
v 2.1719095706939697 5.849663734436035 9.974467277526855
v 2.1499760150909424 4.5872368812561035 11.38360595703125
v 1.902084469795227 5.441439628601074 11.483500480651855
v 1.8622289896011353 4.5437092781066895 12.992137908935547
v 2.1499760150909424 4.5872368812561035 11.38360595703125
v 1.771209478378296 3.939487934112549 11.177204132080078
v 1.4978212118148804 3.890172004699707 12.98816967010498
v 2.6517648696899414 6.037874221801758 5.759295463562012
v 2.049156904220581 4.390017986297607 9.36623764038086
v 2.4422824382781982 5.031978607177734 9.775074005126953
v 3.056570291519165 6.675538063049316 6.169185161590576
v 5.204133033752441 6.454113006591797 9.999999046325684
v 4.992341041564941 5.774009704589844 7.166713714599609
v 4.586462020874023 5.474327087402344 7.4817986488342285
v 4.553718090057373 5.813196659088135 9.999999046325684
v 5.363249778747559 7.004995346069336 12.988090515136719
v 4.947145462036133 7.895244598388672 12.988090515136719
v 4.938169956207275 7.105443477630615 9.999999046325684
v 5.204133033752441 6.454113006591797 9.999999046325684
v 5.204133033752441 6.454113006591797 9.999999046325684
v 4.938169956207275 7.105443477630615 9.999999046325684
v 4.934362888336182 6.74058723449707 7.199694633483887
v 4.992341041564941 5.774009704589844 7.166713714599609
v 5.381078243255615 9.529950141906738 12.988090515136719
v 5.377774715423584 8.485838890075684 12.988090515136719
v 4.947145462036133 7.895244598388672 12.988090515136719
v 4.701858997344971 10.296696662902832 12.988090515136719
v -4.876954078674316 10.856118202209473 12.988090515136719
v 2.5240416526794434 5.306150913238525 12.988090515136719
v 5.363249778747559 7.004995346069336 12.988090515136719
v 3.4275240898132324 4.924032688140869 12.988090515136719
v 4.862977027893066 6.125158786773682 12.988090515136719
v 4.152386665344238 5.188394069671631 12.988090515136719
v 4.775290489196777 10.746430397033691 12.988090515136719
v 1.6368180513381958 5.4344305992126465 12.992533683776855
v -4.876954078674316 10.856118202209473 12.988090515136719
v 0.8637934923171997 4.702270984649658 12.987574577331543
v 0.26832568645477295 4.421450138092041 12.98119831085205
v 1.8622289896011353 4.5437092781066895 12.992137908935547
v 1.4978212118148804 3.890172004699707 12.98816967010498
v 0.8184613585472107 3.825340986251831 12.983505249023438
v 0.2683229446411133 4.421450614929199 12.981199264526367
v 0.26832568645477295 4.421450138092041 12.98119831085205
v 0.4131027162075043 3.9830663204193115 12.988090515136719
v 0.967939555644989 3.6578800678253174 12.987869262695312
v 0.02843247354030609 1.236332654953003 12.987802505493164
v -1.3854457139968872 1.8700289726257324 12.988090515136719
v 0.9764856696128845 1.5308268070220947 12.98713493347168
v 1.401513695716858 3.2235498428344727 12.988090515136719
v 1.5113574266433716 2.3529698848724365 12.988090515136719
v -3.6667089462280273 2.0417978763580322 12.988090515136719
v -1.5877162218093872 1.0624558925628662 12.988090515136719
v -2.7911739349365234 1.0761319398880005 12.988090515136719
v -4.976950645446777 2.056687116622925 12.988090515136719
v 0.8637934923171997 4.702270984649658 12.987574577331543
v 0.6629897356033325 4.704560279846191 10.000001907348633
v 0.7026165723800659 4.416841506958008 9.999999046325684
v 0.26832568645477295 4.421450138092041 12.98119831085205
v -4.976950645446777 2.056687116622925 9.999999046325684
v -4.876954078674316 10.856118202209473 12.988090515136719
v -4.976950645446777 2.056687116622925 12.988090515136719
v -4.9804840087890625 1.7457623481750488 7.5
v -4.876954555511475 10.856119155883789 7.515869617462158
v 4.775290489196777 10.746430397033691 9.999999046325684
v 4.775290489196777 10.746430397033691 12.988090515136719
v -4.876954078674316 10.856118202209473 12.988090515136719
v -4.876954555511475 10.856119155883789 7.515869617462158
v 4.36690616607666 10.75107192993164 7.5
v 1.3098015785217285 4.382624626159668 8.910637855529785
v 0.6753895282745361 4.989062309265137 8.857388496398926
v 0.4695765972137451 4.5046491622924805 10.919294357299805
v 1.0618517398834229 3.9033758640289307 10.947072982788086
v 0.8184613585472107 3.825340986251831 12.983505249023438
v 1.4978212118148804 3.890172004699707 12.98816967010498
v 1.771209478378296 3.939487934112549 11.177204132080078
v 1.0618517398834229 3.9033758640289307 10.947072982788086
v 2.1499760150909424 4.5872368812561035 11.38360595703125
v 1.8622289896011353 4.5437092781066895 12.992137908935547
v 1.6368180513381958 5.4344305992126465 12.992533683776855
v 1.902084469795227 5.441439628601074 11.483500480651855
v 2.4422824382781982 5.031978607177734 9.775074005126953
v 2.049156904220581 4.390017986297607 9.36623764038086
v 1.771209478378296 3.939487934112549 11.177204132080078
v 2.1499760150909424 4.5872368812561035 11.38360595703125
vn 0.1668071150779724 -0.9855616688728333 0.029045792296528816
vn 0.1668071150779724 -0.9855616688728333 0.029045794159173965
vn 0.1668071150779724 -0.9855616688728333 0.029045796021819115
vn 0.1668071150779724 -0.9855616688728333 0.029045794159173965
vn -0.011362994089722633 -0.999935507774353 0.0
vn -0.011362993158400059 -0.999935507774353 0.0
vn -0.011362994089722633 -0.999935507774353 0.0
vn -0.011362992227077484 -0.999935507774353 0.0
vn 0.9626291990280151 0.12145788967609406 -0.2420596331357956
vn 0.9626291990280151 0.12145790457725525 -0.2420596331357956
vn 0.9626291990280151 0.12145790457725525 -0.2420596331357956
vn 0.9626291990280151 0.12145788967609406 -0.2420596033334732
vn 0.72967928647995 -0.661737322807312 -0.17225562036037445
vn 0.72967928647995 -0.661737322807312 -0.17225560545921326
vn 0.72967928647995 -0.661737322807312 -0.17225560545921326
vn 0.72967928647995 -0.661737322807312 -0.17225562036037445
vn 0.3584011495113373 -0.9299646019935608 -0.0819414034485817
vn 0.3584011495113373 -0.9299646019935608 -0.08194141089916229
vn 0.3584011197090149 -0.9299646019935608 -0.0819414034485817
vn 0.3584011495113373 -0.9299646019935608 -0.0819414034485817
vn -0.5632731914520264 -0.8239460587501526 -0.0619363971054554
vn -0.5632731914520264 -0.8239460587501526 -0.0619363971054554
vn -0.5632733106613159 -0.8239460587501526 -0.0619363896548748
vn -0.5632731914520264 -0.8239460587501526 -0.0619363896548748
vn 0.6880436539649963 -0.7033599615097046 -0.17855127155780792
vn 0.6880436539649963 -0.7033599615097046 -0.17855127155780792
vn 0.6880436539649963 -0.7033599615097046 -0.17855124175548553
vn 0.8315346240997314 -0.34998491406440735 -0.43134739995002747
vn 0.8315346240997314 -0.3499850034713745 -0.43134742975234985
vn 0.8315346240997314 -0.34998494386672974 -0.43134742975234985
vn 0.8315346240997314 -0.34998494386672974 -0.43134739995002747
vn -0.21211084723472595 -0.9582321643829346 0.19183340668678284
vn -0.21211086213588715 -0.9582321643829346 0.19183340668678284
vn -0.21211084723472595 -0.9582321643829346 0.19183340668678284
vn -0.5615199208259583 -0.8210049867630005 0.10317974537611008
vn -0.561519980430603 -0.8210049867630005 0.10317976027727127
vn -0.5615199208259583 -0.8210049867630005 0.10317976027727127
vn 0.7511358857154846 -0.651614785194397 0.10579738020896912
vn 0.7511359453201294 -0.651614785194397 0.10579738020896912
vn 0.7511358857154846 -0.651614785194397 0.10579737275838852
vn 0.7511359453201294 -0.651614785194397 0.10579738020896912
vn 0.40461966395378113 0.9107380509376526 -0.08269941061735153
vn 0.40461966395378113 0.9107380509376526 -0.08269941806793213
vn 0.40461966395378113 0.9107380509376526 -0.08269941061735153
vn 0.9778735637664795 0.04163188859820366 -0.20501211285591125
vn 0.9778735637664795 0.04163189232349396 -0.20501214265823364
vn 0.9778735637664795 0.04163188859820366 -0.20501211285591125
vn -0.7635987401008606 -0.5845000147819519 0.2743660807609558
vn -0.7635987401008606 -0.5844999551773071 0.27436602115631104
vn -0.7635987401008606 -0.5845000147819519 0.2743660807609558
vn -0.7635987401008606 -0.5844999551773071 0.2743660807609558
vn 0.9996486902236938 0.024571288377046585 0.009936963208019733
vn 0.9996486902236938 0.024571286514401436 0.009936964139342308
vn 0.9996486902236938 0.024571288377046585 0.009936963208019733
vn 0.9996486902236938 0.024571286514401436 0.009936963208019733
vn 0.9849362969398499 0.17248499393463135 0.01222589798271656
vn 0.9849362969398499 0.17248497903347015 0.012225897051393986
vn 0.9849362969398499 0.17248499393463135 0.012225896120071411
vn 0.9451635479927063 -0.24363970756530762 -0.21749861538410187
vn 0.9451635479927063 -0.24363970756530762 -0.21749861538410187
vn 0.9451635479927063 -0.24363967776298523 -0.21749861538410187
vn 0.9451635479927063 -0.24363967776298523 -0.21749860048294067
vn 0.5777915120124817 0.798121988773346 -0.17075730860233307
vn 0.5777915120124817 0.798121988773346 -0.17075730860233307
vn 0.5777915120124817 0.798121988773346 -0.17075730860233307
vn 0.5777915120124817 0.798121988773346 -0.17075730860233307
vn 0.918757438659668 -0.37781235575675964 -0.1146409884095192
vn 0.918757438659668 -0.3778124153614044 -0.1146409884095192
vn 0.918757438659668 -0.37781235575675964 -0.1146409884095192
vn 0.918757438659668 -0.37781238555908203 -0.1146409884095192
vn 0.8034204840660095 -0.5394707918167114 -0.2519659698009491
vn 0.8034204244613647 -0.5394707918167114 -0.2519659399986267
vn 0.8034204840660095 -0.5394707322120667 -0.2519659399986267
vn 0.8034204840660095 -0.5394707918167114 -0.2519659698009491
vn 0.8494378328323364 0.5255216956138611 -0.04777459427714348
vn 0.8494378328323364 0.5255216360092163 -0.04777459055185318
vn 0.8494378328323364 0.5255216956138611 -0.04777459427714348
vn 0.8494378328323364 0.5255216360092163 -0.04777459055185318
vn 0.9882722496986389 0.12469329684972763 -0.08814570307731628
vn 0.9882722496986389 0.12469329684972763 -0.08814571052789688
vn 0.9882722496986389 0.12469331175088882 -0.08814571797847748
vn 0.9882722496986389 0.12469329684972763 -0.08814570307731628
vn 0.34183135628700256 -0.9372801780700684 0.06824234127998352
vn 0.34183135628700256 -0.9372801780700684 0.06824233382940292
vn 0.34183141589164734 -0.9372801780700684 0.06824234127998352
vn 0.34183135628700256 -0.9372801780700684 0.06824233382940292
vn 0.2797832489013672 -0.9547471404075623 0.10089239478111267
vn 0.2797832489013672 -0.9547471404075623 0.10089238733053207
vn 0.2797832489013672 -0.9547471404075623 0.10089238733053207
vn 0.2797832489013672 -0.9547471404075623 0.10089239478111267
vn 0.7949644327163696 -0.6063258647918701 -0.020009392872452736
vn 0.7949645519256592 -0.6063259243965149 -0.020009394735097885
vn 0.7949645519256592 -0.6063258647918701 -0.020009392872452736
vn 0.7949644327163696 -0.6063258647918701 -0.020009391009807587
vn 0.7972032427787781 -0.6032090187072754 0.024611813947558403
vn 0.7972032427787781 -0.6032090783119202 0.024611813947558403
vn 0.7972032427787781 -0.6032091379165649 0.0246118176728487
vn 0.7972032427787781 -0.6032091379165649 0.0246118176728487
vn 0.7986851930618286 -0.5823584794998169 0.1515277624130249
vn 0.7986850738525391 -0.5823584198951721 0.1515277475118637
vn 0.7986851930618286 -0.5823584794998169 0.1515277624130249
vn 0.7986851930618286 -0.5823584198951721 0.15152773261070251
vn 0.7049601078033447 0.70109623670578 -0.10721579194068909
vn 0.7049601674079895 0.7010962963104248 -0.10721579194068909
vn 0.7049601078033447 0.70109623670578 -0.10721580684185028
vn 0.7049601078033447 0.70109623670578 -0.10721579194068909
vn 0.9943258166313171 -0.10603984445333481 0.008475418202579021
vn 0.9943258166313171 -0.1060398519039154 0.008475418202579021
vn 0.9943258166313171 -0.10603984445333481 0.008475418202579021
vn 0.9943258166313171 -0.10603984445333481 0.008475418202579021
vn 0.9967184662818909 -0.08050552010536194 -0.008432004600763321
vn -0.5511755347251892 -0.8279217481613159 0.10368752479553223
vn -0.551175594329834 -0.8279217481613159 0.10368753969669342
vn -0.551175594329834 -0.8279217481613159 0.10368752479553223
vn -0.551175594329834 -0.8279217481613159 0.10368753969669342
vn 0.998111367225647 0.05044236034154892 -0.0350600890815258
vn 0.998111367225647 0.05044236034154892 -0.035060085356235504
vn 0.998111367225647 0.05044236034154892 -0.0350600890815258
vn 0.998111367225647 0.05044236406683922 -0.0350600890815258
vn 0.853274941444397 -0.5095585584640503 0.11077890545129776
vn 0.853274941444397 -0.5095585584640503 0.11077890545129776
vn 0.853274941444397 -0.5095585584640503 0.11077890545129776
vn 0.7656452059745789 0.6408312320709229 -0.05588170513510704
vn 0.7656452059745789 0.6408312320709229 -0.05588171258568764
vn 0.7656452059745789 0.6408312320709229 -0.05588171258568764
vn 0.7656452059745789 0.6408312320709229 -0.05588170513510704
vn 0.6629154086112976 0.7399397492408752 -0.11415909230709076
vn 0.6629155278205872 0.7399397492408752 -0.11415909230709076
vn 0.6629155278205872 0.7399397492408752 -0.11415909230709076
vn 0.6629155278205872 0.7399397492408752 -0.11415907740592957
vn 0.9924873113632202 -0.0897677093744278 0.08312993496656418
vn 0.9924873113632202 -0.0897677093744278 0.08312993496656418
vn 0.9924873113632202 -0.08976772427558899 0.08312993496656418
vn 0.9924873113632202 -0.08976772427558899 0.08312993496656418
vn 0.834806501865387 -0.5477291345596313 -0.05559602007269859
vn 0.834806501865387 -0.5477291345596313 -0.05559602007269859
vn 0.834806501865387 -0.5477291345596313 -0.05559602007269859
vn 0.834806501865387 -0.5477291345596313 -0.05559602007269859
vn 0.6665903925895691 0.7412771582603455 -0.07852064818143845
vn 0.6665903925895691 0.7412771582603455 -0.07852065563201904
vn 0.6665903925895691 0.7412771582603455 -0.07852064818143845
vn 0.6665903925895691 0.7412771582603455 -0.07852065563201904
vn -0.032730232924222946 -0.9912573099136353 0.12781870365142822
vn -0.032730232924222946 -0.9912573099136353 0.12781868875026703
vn -0.032730232924222946 -0.9912573099136353 0.12781868875026703
vn 0.9981164932250977 0.012418191879987717 0.06007692962884903
vn 0.9981164932250977 0.012418191879987717 0.06007692962884903
vn 0.9981164932250977 0.012418190948665142 0.06007692590355873
vn 0.9740643501281738 -0.19342726469039917 0.11740763485431671
vn 0.9740643501281738 -0.19342727959156036 0.11740764230489731
vn 0.9740643501281738 -0.19342727959156036 0.11740764230489731
vn 0.9740643501281738 -0.19342729449272156 0.11740763485431671
vn 0.9805748462677002 -0.19590015709400177 -0.009797526523470879
vn 0.9805748462677002 -0.1959001123905182 -0.009797525592148304
vn 0.9805748462677002 -0.19590015709400177 -0.009797525592148304
vn 0.4105559289455414 0.8996672630310059 0.1484675109386444
vn 0.4105559289455414 0.8996672630310059 0.1484675109386444
vn 0.4105559289455414 0.8996672630310059 0.1484675109386444
vn 0.6683093905448914 0.7431887984275818 0.0321398563683033
vn 0.6683093905448914 0.7431888580322266 0.0321398600935936
vn 0.6683093905448914 0.7431887984275818 0.0321398600935936
vn 0.9826177954673767 0.09355872124433517 -0.16034065186977386
vn 0.9826177954673767 0.09355871379375458 -0.16034065186977386
vn 0.9826177954673767 0.09355872869491577 -0.16034066677093506
vn 0.6481369137763977 0.7275585532188416 -0.2248936891555786
vn 0.6481369137763977 0.7275585532188416 -0.2248936891555786
vn 0.6481368541717529 0.7275585532188416 -0.22489364445209503
vn -0.4244712293148041 -0.8733628392219543 0.23887576162815094
vn -0.42447125911712646 -0.8733628392219543 0.23887579143047333
vn -0.4244711697101593 -0.8733628392219543 0.23887576162815094
vn 0.877517819404602 -0.3890119791030884 -0.2804141342639923
vn 0.877517819404602 -0.3890119791030884 -0.2804141342639923
vn 0.877517819404602 -0.3890119791030884 -0.2804141342639923
vn 0.877517819404602 -0.3890119791030884 -0.2804141342639923
vn -0.011321848258376122 -0.9962903261184692 -0.08530747890472412
vn -0.011321848258376122 -0.9962903261184692 -0.08530747890472412
vn -0.011321848258376122 -0.9962903261184692 -0.08530747890472412
vn -0.011321848258376122 -0.9962903261184692 -0.08530747890472412
vn -0.7819094657897949 -0.5773683786392212 0.2350814789533615
vn -0.7819094657897949 -0.5773683190345764 0.23508143424987793
vn -0.7819094657897949 -0.5773683786392212 0.2350814789533615
vn -0.7819094657897949 -0.5773683190345764 0.23508143424987793
vn 0.9531861543655396 -0.30228814482688904 -0.007628372870385647
vn 0.9531861543655396 -0.3022881746292114 -0.007628372870385647
vn 0.9531861543655396 -0.30228814482688904 -0.0076283738017082214
vn 0.9531861543655396 -0.3022881746292114 -0.007628372870385647
vn -0.011333294212818146 -0.9972971081733704 0.07259567826986313
vn -0.011333294212818146 -0.9972971081733704 0.07259567081928253
vn -0.011333293281495571 -0.9972971081733704 0.07259567826986313
vn -0.011333294212818146 -0.9972971081733704 0.07259567826986313
vn -0.8003078103065491 -0.5981732606887817 0.041184477508068085
vn -0.8003078103065491 -0.598173201084137 0.041184477508068085
vn -0.8003078103065491 -0.598173201084137 0.041184477508068085
vn -0.8003078699111938 -0.598173201084137 0.04118447005748749
vn -0.7064937353134155 -0.6964520812034607 0.1257815808057785
vn -0.7064937353134155 -0.6964521408081055 0.1257815808057785
vn -0.7064937353134155 -0.6964520812034607 0.1257815808057785
vn 0.9052690863609314 -0.26669207215309143 -0.3307010531425476
vn 0.9052690863609314 -0.26669204235076904 -0.3307010531425476
vn 0.9052690863609314 -0.26669207215309143 -0.33070108294487
vn -0.45187345147132874 -0.891696035861969 0.026242801919579506
vn -0.4518734812736511 -0.891696035861969 0.026242801919579506
vn -0.45187345147132874 -0.891696035861969 0.026242800056934357
vn -0.4518734812736511 -0.891696035861969 0.026242805644869804
vn -0.6187103986740112 -0.785251796245575 -0.024022076278924942
vn -0.6187103986740112 -0.7852517366409302 -0.02402208000421524
vn -0.6187103986740112 -0.785251796245575 -0.02402208000421524
vn -0.6187103986740112 -0.7852517366409302 -0.02402207814157009
vn 0.3637616038322449 -0.931491494178772 0.0010724506573751569
vn 0.3637615740299225 -0.931491494178772 0.001072450540959835
vn 0.36376166343688965 -0.931491494178772 0.0010724506573751569
vn 0.3637616038322449 -0.931491494178772 0.0010724506573751569
vn 0.40907931327819824 -0.8902360796928406 -0.20033420622348785
vn 0.409079372882843 -0.8902360796928406 -0.20033423602581024
vn 0.40907934308052063 -0.8902360796928406 -0.20033420622348785
vn 0.40907931327819824 -0.8902360796928406 -0.20033420622348785
vn 0.4485880434513092 -0.8815506100654602 -0.14709676802158356
vn 0.4485880434513092 -0.8815504908561707 -0.14709676802158356
vn 0.4485880434513092 -0.8815506100654602 -0.14709678292274475
vn -0.6129423975944519 -0.6715902090072632 -0.4162551462650299
vn -0.6129423975944519 -0.6715902090072632 -0.4162551462650299
vn -0.6129422783851624 -0.6715902090072632 -0.4162551164627075
vn -0.6129423975944519 -0.6715902090072632 -0.4162551164627075
vn -0.7182025909423828 -0.6878690123558044 -0.10498201102018356
vn -0.718202531337738 -0.6878690719604492 -0.10498201102018356
vn -0.7182025909423828 -0.6878690123558044 -0.10498201847076416
vn -0.7182025909423828 -0.6878690123558044 -0.10498201847076416
vn 0.1312425583600998 -0.9675583243370056 -0.21588478982448578
vn 0.1312425434589386 -0.9675583243370056 -0.21588477492332458
vn 0.1312425583600998 -0.9675583243370056 -0.21588478982448578
vn 0.1312425434589386 -0.9675583243370056 -0.21588478982448578
vn 0.18460319936275482 -0.9002684950828552 -0.3942568004131317
vn 0.18460321426391602 -0.9002684950828552 -0.3942568004131317
vn 0.1846032291650772 -0.9002684950828552 -0.3942568004131317
vn 0.1846032291650772 -0.9002683758735657 -0.3942567706108093
vn 0.9264668822288513 0.2602745294570923 0.2718755006790161
vn 0.9264668822288513 0.2602745592594147 0.2718755006790161
vn 0.9264668822288513 0.26027458906173706 0.2718755006790161
vn 0.9264668822288513 0.2602745592594147 0.2718755006790161
vn 0.9390731453895569 0.2486131191253662 0.2373458445072174
vn 0.9390731453895569 0.2486131191253662 0.2373458743095398
vn 0.8525111079216003 -0.5072648525238037 0.12612317502498627
vn 0.8525111079216003 -0.5072648525238037 0.12612317502498627
vn 0.8525111079216003 -0.5072648525238037 0.12612317502498627
vn 0.8525111079216003 -0.5072648525238037 0.12612317502498627
vn 0.8675596714019775 -0.491212397813797 -0.07778561860322952
vn 0.8675596714019775 -0.4912124574184418 -0.07778561115264893
vn 0.8675596714019775 -0.491212397813797 -0.07778561115264893
vn 0.8675596714019775 -0.491212397813797 -0.07778561115264893
vn 0.679543137550354 -0.7245309948921204 0.1152215227484703
vn 0.679543137550354 -0.7245310544967651 0.1152215301990509
vn 0.679543137550354 -0.7245309948921204 0.1152215227484703
vn 0.6795431971549988 -0.7245309948921204 0.1152215301990509
vn 0.9083455204963684 0.40189528465270996 -0.11570937186479568
vn 0.9083455204963684 0.40189528465270996 -0.11570937931537628
vn 0.9083455204963684 0.40189528465270996 -0.11570937931537628
vn 0.9083455204963684 0.40189528465270996 -0.11570937186479568
vn 0.9775590300559998 0.19723781943321228 -0.07399652898311615
vn 0.9775590300559998 0.1972378045320511 -0.07399652153253555
vn 0.9775590300559998 0.1972378045320511 -0.07399652898311615
vn 0.9775590300559998 0.1972378045320511 -0.07399652153253555
vn -0.0 0.0 1.0
vn -0.0 0.0 1.0
vn -0.0 0.0 1.0
vn -0.0 0.0 1.0
vn 0.03574088215827942 0.02750908024609089 0.9989823698997498
vn -0.0 0.0 1.0
vn -0.0 0.0 1.0
vn -0.0 0.0 1.0
vn -0.0 0.0 1.0
vn -0.0 0.0 1.0
vn -0.0 0.0 1.0
vn 0.0062040891498327255 0.008273282088339329 0.9999465942382812
vn -0.0074079311452806 -0.0069945515133440495 0.9999481439590454
vn -0.007407930679619312 -0.006994551047682762 0.9999481439590454
vn -0.0074079311452806 -0.006994551047682762 0.9999481439590454
vn -0.00508530018851161 -0.00323671055957675 0.9999818801879883
vn -0.005085301585495472 -0.00323671055957675 0.9999818801879883
vn -0.008729404769837856 -0.004188123159110546 0.9999531507492065
vn -0.008729404769837856 -0.004188123624771833 0.9999531507492065
vn 0.03574087843298912 0.02750907465815544 0.9989823698997498
vn 0.0001942282688105479 -0.00013208406744524837 1.0
vn 0.0001942282688105479 -0.00013208406744524837 1.0
vn 0.0001942282688105479 -0.0001320840819971636 1.0
vn 0.00019422828336246312 -0.0001320840819971636 1.0
vn 0.0002885207941289991 -0.00034432491520419717 0.9999998807907104
vn 0.0002885207941289991 -0.0003443248861003667 0.9999998807907104
vn -0.0014967168681323528 -0.00018884539895225316 0.999998927116394
vn -0.0 0.0 1.0
vn -0.0 0.0 1.0
vn -0.0 0.0 1.0
vn -0.0 0.0 1.0
vn 0.7146039009094238 -0.6989596486091614 0.02822556160390377
vn 0.7146039009094238 -0.6989596486091614 0.02822555974125862
vn 0.7146039009094238 -0.6989596486091614 0.02822555974125862
vn 0.714603841304779 -0.6989597082138062 0.028225556015968323
vn -0.999935507774353 0.011363220401108265 0.0
vn -0.999935507774353 0.011363220401108265 0.0
vn -0.999935507774353 0.01136322133243084 0.0
vn -0.999935507774353 0.0113631971180439 0.0
vn -0.999935507774353 0.01136319525539875 0.0
vn 0.011363202705979347 0.999935507774353 0.0
vn 0.011363203637301922 0.999935507774353 0.0
vn 0.011363202705979347 0.999935507774353 0.0
vn 0.01136328186839819 0.999935507774353 1.8132060120024107e-07
vn 0.011363280937075615 0.999935507774353 1.8132058698938636e-07
vn -0.6731640100479126 -0.6997811198234558 -0.2390746772289276
vn -0.6731640100479126 -0.6997811198234558 -0.23907466232776642
vn -0.6731640100479126 -0.6997811198234558 -0.23907466232776642
vn -0.6731639504432678 -0.6997810006141663 -0.23907466232776642
vn 0.07630296796560287 -0.9968252182006836 -0.022746378555893898
vn 0.07630296796560287 -0.9968252182006836 -0.022746380418539047
vn 0.07630296796560287 -0.9968252182006836 -0.022746378555893898
vn 0.07630296051502228 -0.9968252182006836 -0.022746378555893898
vn 0.9530277848243713 0.2485562413930893 0.17308323085308075
vn 0.9530277848243713 0.2485562413930893 0.17308323085308075
vn 0.9530277848243713 0.2485562413930893 0.17308323085308075
vn 0.9530277848243713 0.2485562413930893 0.17308324575424194
vn 0.8564190864562988 -0.5162243843078613 0.007666338235139847
vn 0.8564190864562988 -0.5162243247032166 0.007666338235139847
vn 0.8564190864562988 -0.5162243843078613 0.0076663377694785595
vn 0.8564190864562988 -0.5162243843078613 0.007666338235139847
vt 2.3345556259155273 -2.6470518112182617
vt 2.0729904174804688 -1.825211524963379
vt 1.906644344329834 -1.830988883972168
vt 1.9093656539916992 -2.648468017578125
vt 2.3377737998962402 -3.6127982139587402
vt 2.3345556259155273 -2.6470518112182617
vt 1.9093656539916992 -2.648468017578125
vt 1.9111816883087158 -3.6187009811401367
vt 1.6368286609649658 -0.46664857864379883
vt 1.5368561744689941 -0.4918529987335205
vt 1.602463960647583 -0.9785737991333008
vt 1.7479162216186523 -0.9553959369659424
vt 3.3182663917541504 -1.5692956447601318
vt 3.3295044898986816 -0.9935188293457031
vt 3.1333413124084473 -1.0166020393371582
vt 3.1788907051086426 -1.5763027667999268
vt 4.346134185791016 -1.7600739002227783
vt 4.346244812011719 -1.1499011516571045
vt 4.0894670486450195 -1.1518075466156006
vt 4.085031509399414 -1.7608320713043213
vt 3.1333413124084473 -1.0166020393371582
vt 2.8438658714294434 -0.9905655384063721
vt 2.967158794403076 -1.572272539138794
vt 3.1788907051086426 -1.5763027667999268
vt 3.496072292327881 -1.5595448017120361
vt 3.3295044898986816 -0.9935188293457031
vt 3.3182663917541504 -1.5692956447601318
vt 4.346244812011719 -1.1499011516571045
vt 4.346134185791016 -1.7600739002227783
vt 4.6319732666015625 -1.76011061668396
vt 4.648663520812988 -1.1505825519561768
vt 4.358409404754639 1.3795596957206726
vt 4.92498254776001 0.5726027190685272
vt 4.588665008544922 1.3889113366603851
vt 5.957270622253418 -3.0057363510131836
vt 6.220458030700684 -3.379131317138672
vt 6.017710208892822 -2.906158924102783
vt 7.651564598083496 -2.909968852996826
vt 7.672496795654297 -3.471566677093506
vt 7.819608688354492 -3.4808545112609863
vt 7.760759353637695 -2.9688644409179688
vt 4.978080749511719 -4.5263261795043945
vt 5.049271106719971 -4.663962364196777
vt 5.063326835632324 -4.524904251098633
vt 7.067927837371826 -1.7121758460998535
vt 7.015952110290527 -2.0671591758728027
vt 7.374580383300781 -1.7536156177520752
vt 3.686899185180664 -1.1534831523895264
vt 3.6877946853637695 -1.7617719173431396
vt 4.085031509399414 -1.7608320713043213
vt 4.0894670486450195 -1.1518075466156006
vt 7.889684677124023 -2.9804489612579346
vt 7.760759353637695 -2.9688644409179688
vt 7.819608688354492 -3.4808545112609863
vt 8.019577026367188 -3.5015101432800293
vt 4.905625343322754 -4.5263261795043945
vt 4.833168983459473 -4.5263261795043945
vt 4.9052019119262695 -4.663962364196777
vt 2.0769479274749756 -0.5954484939575195
vt 2.0318069458007812 0.3019297122955322
vt 1.8332231044769287 0.27607262134552
vt 1.8210707902908325 -0.5791418552398682
vt 1.7953978776931763 -0.3866084814071655
vt 1.6368286609649658 -0.46664857864379883
vt 1.7479162216186523 -0.9553959369659424
vt 1.8693162202835083 -0.9192306995391846
vt 1.8210707902908325 -0.5791418552398682
vt 1.8332231044769287 0.27607262134552
vt 1.6660404205322266 0.2702435255050659
vt 1.5703504085540771 -0.580704927444458
vt 1.602463960647583 -0.9785737991333008
vt 1.5368561744689941 -0.4918529987335205
vt 1.3843023777008057 -0.46677303314208984
vt 1.435255527496338 -0.9717898368835449
vt 1.3021514415740967 -0.5954484939575195
vt 1.5703504085540771 -0.580704927444458
vt 1.6660404205322266 0.2702435255050659
vt 1.5335255861282349 0.2609071731567383
vt 1.602463960647583 -0.9785737991333008
vt 1.6564221382141113 -1.5736174583435059
vt 1.8353277444839478 -1.557598352432251
vt 1.7479162216186523 -0.9553959369659424
vt 4.085031509399414 -1.7608320713043213
vt 4.086434841156006 -2.491408109664917
vt 4.345952987670898 -2.490786075592041
vt 4.346134185791016 -1.7600739002227783
vt 3.3182663917541504 -1.5692956447601318
vt 3.334949254989624 -2.2424144744873047
vt 3.5437326431274414 -2.2400033473968506
vt 3.496072292327881 -1.5595448017120361
vt 4.346134185791016 -1.7600739002227783
vt 4.345952987670898 -2.490786075592041
vt 4.631766319274902 -2.490443468093872
vt 4.6319732666015625 -1.76011061668396
vt 6.526247024536133 -3.9672417640686035
vt 6.738392353057861 -3.895960807800293
vt 6.405365943908691 -3.315545082092285
vt 6.220458030700684 -3.379131317138672
vt 7.672496795654297 -3.471566677093506
vt 7.765099048614502 -4.097079277038574
vt 7.913743019104004 -4.107614994049072
vt 7.819608688354492 -3.4808545112609863
vt 4.9052019119262695 -4.801599025726318
vt 4.817195892333984 -5.073663234710693
vt 5.049254417419434 -5.073753833770752
vt 5.049271106719971 -4.801599025726318
vt 6.999276161193848 -2.419407367706299
vt 7.030349254608154 -3.271531105041504
vt 7.157122611999512 -3.2892141342163086
vt 7.273983955383301 -2.4580297470092773
vt 7.015952110290527 -2.0671591758728027
vt 3.6877946853637695 -1.7617719173431396
vt 3.689371109008789 -2.49198842048645
vt 4.086434841156006 -2.491408109664917
vt 4.085031509399414 -1.7608320713043213
vt 7.819608688354492 -3.4808545112609863
vt 7.913743019104004 -4.107614994049072
vt 8.124397277832031 -4.1296491622924805
vt 8.019577026367188 -3.5015101432800293
vt 4.727690696716309 -4.801599025726318
vt 4.817195892333984 -5.073663234710693
vt 4.9052019119262695 -4.801599025726318
vt 2.0318069458007812 0.3019297122955322
vt 1.9627999067306519 1.3162766993045807
vt 1.74704909324646 1.2910102009773254
vt 1.8332231044769287 0.27607262134552
vt 1.7479162216186523 -0.9553959369659424
vt 1.8353277444839478 -1.557598352432251
vt 1.9611455202102661 -1.5365662574768066
vt 1.8693162202835083 -0.9192306995391846
vt 1.8332231044769287 0.27607262134552
vt 1.74704909324646 1.2910102009773254
vt 1.5829722881317139 1.2758064568042755
vt 1.6660404205322266 0.2702435255050659
vt 1.4504637718200684 -1.5721044540405273
vt 1.6564221382141113 -1.5736174583435059
vt 1.602463960647583 -0.9785737991333008
vt 1.435255527496338 -0.9717898368835449
vt 4.9052019119262695 -4.663962364196777
vt 4.9052019119262695 -4.801599025726318
vt 5.049271106719971 -4.801599025726318
vt 5.049271106719971 -4.663962364196777
vt 4.688255786895752 -4.5263261795043945
vt 4.761135578155518 -4.663962364196777
vt 4.760712146759033 -4.5263261795043945
vt 4.761135578155518 -4.663962364196777
vt 4.9052019119262695 -4.663962364196777
vt 4.833168983459473 -4.5263261795043945
vt 4.761135578155518 -4.663962364196777
vt 4.727690696716309 -4.801599025726318
vt 4.9052019119262695 -4.801599025726318
vt 4.9052019119262695 -4.663962364196777
vt 4.761135578155518 -4.663962364196777
vt 4.833168983459473 -4.5263261795043945
vt 4.760712146759033 -4.5263261795043945
vt 4.9052019119262695 -4.663962364196777
vt 4.978080749511719 -4.5263261795043945
vt 4.905625343322754 -4.5263261795043945
vt 4.978080749511719 -4.5263261795043945
vt 4.9052019119262695 -4.663962364196777
vt 5.049271106719971 -4.663962364196777
vt 7.374580383300781 -1.7536156177520752
vt 7.015952110290527 -2.0671591758728027
vt 7.273983955383301 -2.4580297470092773
vt 7.889684677124023 -2.9804489612579346
vt 8.019577026367188 -3.5015101432800293
vt 7.98077392578125 -2.961484909057617
vt 4.688255786895752 -4.5263261795043945
vt 4.727690696716309 -4.801599025726318
vt 4.761135578155518 -4.663962364196777
vt 0.9013254642486572 -0.7048559188842773
vt 0.7254412174224854 -0.1472381353378296
vt 0.42928722500801086 -0.176741361618042
vt 0.5697348117828369 -0.7137010097503662
vt 0.5697348117828369 -0.7137010097503662
vt 0.42928722500801086 -0.176741361618042
vt 0.0612051784992218 -0.14934277534484863
vt 0.20541980862617493 -0.6924189329147339
vt -0.23010608553886414 -0.6872482299804688
vt 0.20541980862617493 -0.6924189329147339
vt 0.0612051784992218 -0.14934277534484863
vt -0.34375736117362976 -0.11065328121185303
vt 0.8466058969497681 -1.3522565364837646
vt 0.9013254642486572 -0.7048559188842773
vt 0.5697348117828369 -0.7137010097503662
vt 0.5778128504753113 -1.344980239868164
vt 0.5778128504753113 -1.344980239868164
vt 0.5697348117828369 -0.7137010097503662
vt 0.20541980862617493 -0.6924189329147339
vt 0.19529345631599426 -1.331860065460205
vt 0.19529345631599426 -1.331860065460205
vt 0.20541980862617493 -0.6924189329147339
vt -0.23010608553886414 -0.6872482299804688
vt -0.21942172944545746 -1.3349883556365967
vt 6.220458030700684 -3.379131317138672
vt 5.957270622253418 -3.0057363510131836
vt 5.851438045501709 -3.0304770469665527
vt 4.588665008544922 1.3889113366603851
vt 4.92498254776001 0.5726027190685272
vt 4.812902450561523 1.371583342552185
vt 0.93672776222229 -1.5435638427734375
vt 1.2487508058547974 -1.5604808330535889
vt 1.2619487047195435 -0.9687080383300781
vt 0.9738755226135254 -0.9412291049957275
vt 0.9738755226135254 -0.9412291049957275
vt 1.2619487047195435 -0.9687080383300781
vt 1.2086015939712524 -0.4767735004425049
vt 0.9951083660125732 -0.4310934543609619
vt 1.2487508058547974 -1.5604808330535889
vt 1.4504637718200684 -1.5721044540405273
vt 1.435255527496338 -0.9717898368835449
vt 1.2619487047195435 -0.9687080383300781
vt 1.2619487047195435 -0.9687080383300781
vt 1.435255527496338 -0.9717898368835449
vt 1.3843023777008057 -0.46677303314208984
vt 1.2086015939712524 -0.4767735004425049
vt 1.338465929031372 -0.6664056777954102
vt 1.0247414112091064 0.08874964714050293
vt 0.961993932723999 -0.6675724983215332
vt 5.090035915374756 -5.524576663970947
vt 5.26967716217041 -5.52281379699707
vt 5.123420238494873 -4.736761093139648
vt 4.968624114990234 -4.745671272277832
vt 4.8493757247924805 -4.395425796508789
vt 5.002137184143066 -4.365936756134033
vt 4.880854606628418 -3.995112419128418
vt 4.730126857757568 -4.045179843902588
vt 4.8493757247924805 -4.395425796508789
vt 4.714198112487793 -4.4170379638671875
vt 4.8195013999938965 -4.730234146118164
vt 4.968624114990234 -4.745671272277832
vt 4.8195013999938965 -4.730234146118164
vt 4.920857906341553 -5.516412734985352
vt 5.090035915374756 -5.524576663970947
vt 4.968624114990234 -4.745671272277832
vt 4.595949172973633 -5.58757209777832
vt 4.765162944793701 -5.552752494812012
vt 4.671060562133789 -4.750141143798828
vt 4.515635967254639 -4.793134689331055
vt 4.588964462280273 -4.456879615783691
vt 4.419517517089844 -4.520456314086914
vt 4.506868839263916 -4.1636176109313965
vt 4.588964462280273 -4.456879615783691
vt 4.714198112487793 -4.4170379638671875
vt 4.6088948249816895 -4.103841781616211
vt 4.920857906341553 -5.516412734985352
vt 4.8195013999938965 -4.730234146118164
vt 4.671060562133789 -4.750141143798828
vt 4.765162944793701 -5.552752494812012
vt 6.405365943908691 -3.315545082092285
vt 6.08519983291626 -2.8130202293395996
vt 6.017710208892822 -2.906158924102783
vt 6.220458030700684 -3.379131317138672
vt 6.738392353057861 -3.895960807800293
vt 6.939883708953857 -3.8149266242980957
vt 6.545847415924072 -3.261218547821045
vt 6.405365943908691 -3.315545082092285
vt 6.405365943908691 -3.315545082092285
vt 6.545847415924072 -3.261218547821045
vt 6.265748500823975 -2.751183032989502
vt 6.08519983291626 -2.8130202293395996
vt 1.7947537899017334 -0.39266538619995117
vt 1.793927788734436 -0.1316375732421875
vt 1.6862704753875732 0.01601099967956543
vt 1.6249489784240723 -0.5843520164489746
vt -0.7697542905807495 -0.724207878112793
vt 1.0804944038391113 0.6632843017578125
vt 1.7902965545654297 0.23857343196868896
vt 1.3063650131225586 0.7588139772415161
vt 1.665228247642517 0.458532452583313
vt 1.4875807762145996 0.6927236318588257
vt 1.643306851387024 -0.6967854499816895
vt 0.858688473701477 0.6312143802642822
vt -0.7697542905807495 -0.724207878112793
vt 0.665432333946228 0.8142541646957397
vt 0.5165653228759766 0.884459376335144
vt 0.9150412082672119 0.8538947105407715
vt 0.8239392042160034 1.0172789692878723
vt 0.6540992259979248 1.0334867238998413
vt 0.516564667224884 0.8844592571258545
vt 0.5165653228759766 0.884459376335144
vt 0.55275958776474 0.9940553307533264
vt 0.6914687752723694 1.0753519535064697
vt 0.4565918743610382 1.6807386875152588
vt 0.10312235355377197 1.5223145484924316
vt 0.6936051845550537 1.6071152687072754
vt 0.799862265586853 1.183934509754181
vt 0.8273231983184814 1.4015795588493347
vt -0.4671934247016907 1.4793722033500671
vt 0.0525546669960022 1.724207878112793
vt -0.24830973148345947 1.7207887172698975
vt -0.794753909111023 1.4756498336791992
vt 1.5445139408111572 1.272306114435196
vt 1.5335255861282349 0.2609071731567383
vt 1.6660404205322266 0.2702435255050659
vt 1.5829722881317139 1.2758064568042755
vt 5.636711120605469 5.285564422607422
vt 3.939229965209961 5.6575164794921875
vt 5.348018169403076 4.807333946228027
vt 5.928012847900391 5.655636310577393
vt 4.46796989440918 6.533483505249023
vt 10.947943687438965 4.925982236862183
vt 11.15185260772705 4.2698798179626465
vt 13.269542694091797 4.92811918258667
vt 12.897000312805176 6.129908561706543
vt 10.86701774597168 5.502782821655273
vt 4.968624114990234 -4.745671272277832
vt 5.123420238494873 -4.736761093139648
vt 5.002137184143066 -4.365936756134033
vt 4.8493757247924805 -4.395425796508789
vt 4.730126857757568 -4.045179843902588
vt 4.6088948249816895 -4.103841781616211
vt 4.714198112487793 -4.4170379638671875
vt 4.8493757247924805 -4.395425796508789
vt 4.588964462280273 -4.456879615783691
vt 4.506868839263916 -4.1636176109313965
vt 4.323398590087891 -4.247777938842773
vt 4.419517517089844 -4.520456314086914
vt 4.671060562133789 -4.750141143798828
vt 4.8195013999938965 -4.730234146118164
vt 4.714198112487793 -4.4170379638671875
vt 4.588964462280273 -4.456879615783691

g bg_mdl_map_taijyu01_bath
s 1
usemtl bg_mdl_map_taijyu01_bath
f 3/3/3 2/2/2 1/1/1 
f 4/4/4 3/3/3 1/1/1 
f 7/7/7 6/6/6 5/5/5 
f 8/8/8 7/7/7 5/5/5 
f 11/11/11 10/10/10 9/9/9 
f 12/12/12 11/11/11 9/9/9 
f 15/15/15 14/14/14 13/13/13 
f 16/16/16 15/15/15 13/13/13 
f 19/19/19 18/18/18 17/17/17 
f 20/20/20 19/19/19 17/17/17 
f 23/23/23 22/22/22 21/21/21 
f 24/24/24 23/23/23 21/21/21 
f 27/27/27 26/26/26 25/25/25 
f 30/30/30 29/29/29 28/28/28 
f 31/31/31 30/30/30 28/28/28 
f 34/34/34 33/33/33 32/32/32 
f 37/37/37 36/36/36 35/35/35 
f 40/40/40 39/39/39 38/38/38 
f 41/41/41 40/40/40 38/38/38 
f 44/44/44 43/43/43 42/42/42 
f 47/47/47 46/46/46 45/45/45 
f 50/50/50 49/49/49 48/48/48 
f 51/51/51 50/50/50 48/48/48 
f 54/54/54 53/53/53 52/52/52 
f 55/55/55 54/54/54 52/52/52 
f 58/58/58 57/57/57 56/56/56 
f 61/61/61 60/60/60 59/59/59 
f 62/62/62 61/61/61 59/59/59 
f 65/65/65 64/64/64 63/63/63 
f 66/66/66 65/65/65 63/63/63 
f 69/69/69 68/68/68 67/67/67 
f 70/70/70 69/69/69 67/67/67 
f 73/73/73 72/72/72 71/71/71 
f 74/74/74 73/73/73 71/71/71 
f 77/77/77 76/76/76 75/75/75 
f 78/78/78 77/77/77 75/75/75 
f 81/81/81 80/80/80 79/79/79 
f 82/82/82 81/81/81 79/79/79 
f 85/85/85 84/84/84 83/83/83 
f 86/86/86 85/85/85 83/83/83 
f 89/89/89 88/88/88 87/87/87 
f 90/90/90 89/89/89 87/87/87 
f 93/93/93 92/92/92 91/91/91 
f 94/94/94 93/93/93 91/91/91 
f 97/97/97 96/96/96 95/95/95 
f 98/98/98 97/97/97 95/95/95 
f 101/101/101 100/100/100 99/99/99 
f 102/102/102 101/101/101 99/99/99 
f 105/105/105 104/104/104 103/103/103 
f 106/106/106 105/105/105 103/103/103 
f 109/109/109 108/108/108 107/107/107 
f 110/110/110 109/109/109 107/107/107 
f 107/107/107 111/111/111 110/110/110 
f 114/114/114 113/113/113 112/112/112 
f 115/115/115 114/114/114 112/112/112 
f 118/118/118 117/117/117 116/116/116 
f 119/119/119 118/118/118 116/116/116 
f 122/122/122 121/121/121 120/120/120 
f 125/125/125 124/124/124 123/123/123 
f 126/126/126 125/125/125 123/123/123 
f 129/129/129 128/128/128 127/127/127 
f 130/130/130 129/129/129 127/127/127 
f 133/133/133 132/132/132 131/131/131 
f 134/134/134 133/133/133 131/131/131 
f 137/137/137 136/136/136 135/135/135 
f 138/138/138 137/137/137 135/135/135 
f 141/141/141 140/140/140 139/139/139 
f 142/142/142 141/141/141 139/139/139 
f 145/145/145 144/144/144 143/143/143 
f 148/148/148 147/147/147 146/146/146 
f 151/151/151 150/150/150 149/149/149 
f 152/152/152 151/151/151 149/149/149 
f 155/155/155 154/154/154 153/153/153 
f 158/158/158 157/157/157 156/156/156 
f 161/161/161 160/160/160 159/159/159 
f 164/164/164 163/163/163 162/162/162 
f 167/167/167 166/166/166 165/165/165 
f 170/170/170 169/169/169 168/168/168 
f 173/173/173 172/172/172 171/171/171 
f 174/174/174 173/173/173 171/171/171 
f 177/177/177 176/176/176 175/175/175 
f 178/178/178 177/177/177 175/175/175 
f 181/181/181 180/180/180 179/179/179 
f 182/182/182 181/181/181 179/179/179 
f 185/185/185 184/184/184 183/183/183 
f 186/186/186 185/185/185 183/183/183 
f 189/189/189 188/188/188 187/187/187 
f 190/190/190 189/189/189 187/187/187 
f 193/193/193 192/192/192 191/191/191 
f 194/194/194 193/193/193 191/191/191 
f 197/197/197 196/196/196 195/195/195 
f 200/200/200 199/199/199 198/198/198 
f 203/203/203 202/202/202 201/201/201 
f 204/204/204 203/203/203 201/201/201 
f 207/207/207 206/206/206 205/205/205 
f 208/208/208 207/207/207 205/205/205 
f 211/211/211 210/210/210 209/209/209 
f 212/212/212 211/211/211 209/209/209 
f 215/215/215 214/214/214 213/213/213 
f 216/216/216 215/215/215 213/213/213 
f 219/219/219 218/218/218 217/217/217 
f 222/222/222 221/221/221 220/220/220 
f 223/223/223 222/222/222 220/220/220 
f 226/226/226 225/225/225 224/224/224 
f 227/227/227 226/226/226 224/224/224 
f 230/230/230 229/229/229 228/228/228 
f 231/231/231 230/230/230 228/228/228 
f 234/234/234 233/233/233 232/232/232 
f 235/235/235 234/234/234 232/232/232 
f 238/238/238 237/237/237 236/236/236 
f 239/239/239 238/238/238 236/236/236 
f 238/238/238 239/239/239 240/240/240 
f 239/239/239 241/241/241 240/240/240 
f 244/244/244 243/243/243 242/242/242 
f 245/245/245 244/244/244 242/242/242 
f 248/248/248 247/247/247 246/246/246 
f 249/249/249 248/248/248 246/246/246 
f 252/252/252 251/251/251 250/250/250 
f 253/253/253 252/252/252 250/250/250 
f 256/256/256 255/255/255 254/254/254 
f 257/257/257 256/256/256 254/254/254 
f 260/260/260 259/259/259 258/258/258 
f 261/261/261 260/260/260 258/258/258 
f 264/264/264 263/263/263 262/262/262 
f 265/265/265 264/264/264 262/262/262 
f 264/264/264 265/265/265 266/266/266 
f 264/264/264 266/266/266 267/267/267 
f 264/264/264 267/267/267 268/268/268 
f 267/267/267 269/269/269 268/268/268 
f 268/268/268 269/269/269 270/270/270 
f 269/269/269 271/271/271 270/270/270 
f 272/272/272 266/266/266 265/265/265 
f 267/267/267 274/274/274 273/273/273 
f 273/273/273 274/274/274 275/275/275 
f 276/276/276 275/275/275 274/274/274 
f 273/273/273 275/275/275 277/277/277 
f 277/277/277 275/275/275 278/278/278 
f 278/278/278 275/275/275 279/279/279 
f 279/279/279 275/275/275 280/280/280 
f 282/282/282 281/281/281 266/266/266 
f 284/284/284 283/283/283 282/282/282 
f 285/285/285 284/284/284 282/282/282 
f 284/284/284 286/286/286 283/283/283 
f 286/286/286 287/287/287 283/283/283 
f 288/288/288 287/287/287 286/286/286 
f 285/285/285 282/282/282 266/266/266 
f 285/285/285 266/266/266 289/289/289 
f 285/285/285 289/289/289 290/290/290 
f 289/289/289 291/291/291 290/290/290 
f 292/292/292 289/289/289 266/266/266 
f 295/295/295 294/294/294 293/293/293 
f 296/296/296 295/295/295 293/293/293 
f 299/299/299 298/298/298 297/297/297 
f 297/297/297 298/298/298 300/300/300 
f 298/298/298 301/301/301 300/300/300 
f 304/304/304 303/303/303 302/302/302 
f 305/305/305 304/304/304 302/302/302 
f 306/306/306 305/305/305 302/302/302 
f 309/309/309 308/308/308 307/307/307 
f 310/310/310 309/309/309 307/307/307 
f 313/313/313 312/312/312 311/311/311 
f 314/314/314 313/313/313 311/311/311 
f 317/317/317 316/316/316 315/315/315 
f 318/318/318 317/317/317 315/315/315 
f 321/321/321 320/320/320 319/319/319 
f 322/322/322 321/321/321 319/319/319 

