v -2.5 -3.5 0.9999995827674866
v -1.5 -2.5 0.9999995827674866
v -1.5 -3.5 0.9999995827674866
v -2.5 -2.5 0.9999995827674866
v -1.5 -1.5 0.9999995827674866
v -2.5 -1.5 0.9999995827674866
v -1.5 -0.5 0.9999995827674866
v -2.5 -0.5 0.9999995827674866
v -0.5 -0.5 0.9999995827674866
v -0.5 -1.5 0.9999995827674866
v 1.5 -3.5 0.9999995827674866
v 2.5 -2.5 0.9999995827674866
v 2.5 -3.5 0.9999995827674866
v 1.5 -2.5 0.9999995827674866
v 2.5 -1.5 0.9999995827674866
v 1.5 -1.5 0.9999995827674866
v 3.5 -0.5 0.9999995827674866
v 3.5 -1.5 0.9999995827674866
v 2.5 -0.5 0.9999995827674866
v 1.5 -0.5 0.9999995827674866
v 2.5 0.5 0.9999995827674866
v 1.5 0.5 0.9999995827674866
v 2.5 1.5 0.9999995827674866
v 1.5 1.5 0.9999995827674866
v 2.5 2.5 0.9999995827674866
v 1.5 2.5 0.9999995827674866
v 2.5 3.5 0.9999995827674866
v 1.5 3.5 0.9999995827674866
v 2.5 4.5 0.9999995827674866
v 1.5 4.5 0.9999995827674866
v -3.5 -1.5 0.9999995827674866
v -2.5 -0.5 0.9999995827674866
v -2.5 -1.5 0.9999995827674866
v -3.5 -0.5 0.9999995827674866
v -2.5 0.5 0.9999995827674866
v -3.5 0.5 0.9999995827674866
v -1.5 0.5 0.9999995827674866
v -1.5 -0.5 0.9999995827674866
v -2.5 1.5 0.9999995827674866
v -3.5 1.5 0.9999995827674866
v -1.5 1.5 0.9999995827674866
v -0.5 -1.5 0.9999995827674866
v 0.5 -0.5 0.9999995827674866
v 0.5 -1.5 0.9999995827674866
v -0.5 -0.5 0.9999995827674866
v 1.5 -0.5 0.9999995827674866
v 1.5 -1.5 0.9999995827674866
v 0.5 0.5 0.9999995827674866
v -0.5 0.5 0.9999995827674866
v 0.5 1.5 0.9999995827674866
v -0.5 1.5 0.9999995827674866
v 1.5 -1.5 0.9999995827674866
v 2.5 -0.5 0.9999995827674866
v 2.5 -1.5 0.9999995827674866
v 1.5 -0.5 0.9999995827674866
v -1.5 -0.5 0.9999995827674866
v -0.5 0.5 0.9999995827674866
v -0.5 -0.5 0.9999995827674866
v -1.5 0.5 0.9999995827674866
v 0.5 -0.5 0.9999995827674866
v 1.5 0.5 0.9999995827674866
v 1.5 -0.5 0.9999995827674866
v 0.5 0.5 0.9999995827674866
v 1.5 1.5 0.9999995827674866
v 0.5 1.5 0.9999995827674866
v 2.5 -0.5 0.9999995827674866
v 3.5 0.5 0.9999995827674866
v 3.5 -0.5 0.9999995827674866
v 2.5 0.5 0.9999995827674866
v 3.5 1.5 0.9999995827674866
v 2.5 1.5 0.9999995827674866
v -1.5 0.5 0.9999995827674866
v -0.5 1.5 0.9999995827674866
v -0.5 0.5 0.9999995827674866
v -1.5 1.5 0.9999995827674866
v -2.5 1.5 0.9999995827674866
v -1.5 2.5 0.9999995827674866
v -2.5 2.5 0.9999995827674866
v -1.5 3.5 0.9999995827674866
v -2.5 3.5 0.9999995827674866
v -2.5 -3.5 0.0
v -1.5 -3.5 0.9999995827674866
v -1.5 -3.5 0.0
v -2.5 -3.5 0.9999995827674866
v 1.5 -3.5 0.0
v 2.5 -3.5 0.9999995827674866
v 2.5 -3.5 0.0
v 1.5 -3.5 0.9999995827674866
v 2.5 -3.5 0.0
v 2.5 -2.5 0.9999995827674866
v 2.5 -2.5 0.0
v 2.5 -3.5 0.9999995827674866
v 2.5 -1.5 0.9999995827674866
v 2.5 -1.5 0.0
v 2.5 -1.5 0.0
v 3.5 -1.5 0.9999995827674866
v 3.5 -1.5 0.0
v 2.5 -1.5 0.9999995827674866
v 3.5 -1.5 0.0
v 3.5 -0.5 0.9999995827674866
v 3.5 -0.5 0.0
v 3.5 -1.5 0.9999995827674866
v 3.5 0.5 0.9999995827674866
v 3.5 0.5 0.0
v 3.5 1.5 0.9999995827674866
v 3.5 1.5 0.0
v 3.5 1.5 0.0
v 2.5 1.5 0.9999995827674866
v 2.5 1.5 0.0
v 3.5 1.5 0.9999995827674866
v 2.5 1.5 0.0
v 2.5 2.5 0.9999995827674866
v 2.5 2.5 0.0
v 2.5 1.5 0.9999995827674866
v 2.5 3.5 0.9999995827674866
v 2.5 3.5 0.0
v 2.5 4.5 0.9999995827674866
v 2.5 4.5 0.0
v 2.5 4.5 0.0
v 1.5 4.5 0.9999995827674866
v 1.5 4.5 0.0
v 2.5 4.5 0.9999995827674866
v -1.5 3.5 0.0
v -2.5 3.5 0.9999995827674866
v -2.5 3.5 0.0
v -1.5 3.5 0.9999995827674866
v -2.5 3.5 0.0
v -2.5 2.5 0.9999995827674866
v -2.5 2.5 0.0
v -2.5 3.5 0.9999995827674866
v -2.5 1.5 0.9999995827674866
v -2.5 1.5 0.0
v -2.5 1.5 0.0
v -3.5 1.5 0.9999995827674866
v -3.5 1.5 0.0
v -2.5 1.5 0.9999995827674866
v -3.5 1.5 0.0
v -3.5 0.5 0.9999995827674866
v -3.5 0.5 0.0
v -3.5 1.5 0.9999995827674866
v -3.5 -0.5 0.9999995827674866
v -3.5 -0.5 0.0
v -3.5 -1.5 0.9999995827674866
v -3.5 -1.5 0.0
v -3.5 -1.5 0.0
v -2.5 -1.5 0.9999995827674866
v -2.5 -1.5 0.0
v -3.5 -1.5 0.9999995827674866
v -2.5 -1.5 0.0
v -2.5 -2.5 0.9999995827674866
v -2.5 -2.5 0.0
v -2.5 -1.5 0.9999995827674866
v -2.5 -3.5 0.9999995827674866
v -2.5 -3.5 0.0
v -1.5 1.5 1.500000238418579
v -0.5 2.5 1.500000238418579
v -0.5 1.5 1.500000238418579
v -1.5 2.5 1.500000238418579
v -0.5 1.5 1.500000238418579
v 0.5 2.5 1.500000238418579
v 0.5 1.5 1.500000238418579
v -0.5 2.5 1.500000238418579
v 1.5 2.5 1.500000238418579
v 1.5 1.5 1.500000238418579
v -1.5 1.5 0.9999995827674866
v -0.5 1.5 1.500000238418579
v -0.5 1.5 0.9999995827674866
v -1.5 1.5 1.500000238418579
v 0.5 1.5 1.500000238418579
v 0.5 1.5 0.9999995827674866
v 1.5 1.5 1.500000238418579
v 1.5 1.5 0.9999995827674866
v 1.5 1.5 0.9999995827674866
v 1.5 2.5 1.500000238418579
v 1.5 2.5 0.9999995827674866
v 1.5 1.5 1.500000238418579
v -1.5 2.5 0.9999995827674866
v -1.5 1.5 1.500000238418579
v -1.5 1.5 0.9999995827674866
v -1.5 2.5 1.500000238418579
v -1.5 -1.5 1.500000238418579
v -0.5 -2.5 1.500000238418579
v -1.5 -2.5 1.500000238418579
v -0.5 -1.5 1.500000238418579
v -0.5 -1.5 1.500000238418579
v 0.5 -2.5 1.500000238418579
v -0.5 -2.5 1.500000238418579
v 0.5 -1.5 1.500000238418579
v 1.5 -2.5 1.500000238418579
v 1.5 -1.5 1.500000238418579
v -1.5 -1.5 0.9999995827674866
v -0.5 -1.5 1.500000238418579
v -1.5 -1.5 1.500000238418579
v -0.5 -1.5 0.9999995827674866
v 0.5 -1.5 1.500000238418579
v 0.5 -1.5 0.9999995827674866
v 1.5 -1.5 1.500000238418579
v 1.5 -1.5 0.9999995827674866
v 1.5 -1.5 0.9999995827674866
v 1.5 -2.5 1.500000238418579
v 1.5 -1.5 1.500000238418579
v 1.5 -2.5 0.9999995827674866
v -1.5 -2.5 0.9999995827674866
v -1.5 -1.5 1.500000238418579
v -1.5 -2.5 1.500000238418579
v -1.5 -1.5 0.9999995827674866
vn -0.0 0.0 1.0
vn -0.0 0.0 1.0
vn -0.0 0.0 1.0
vn -0.0 0.0 1.0
vn -0.0 0.0 1.0
vn -0.0 0.0 1.0
vn -0.0 0.0 1.0
vn -0.0 0.0 1.0
vn -0.0 0.0 1.0
vn -0.0 0.0 1.0
vn -0.0 0.0 1.0
vn -0.0 0.0 1.0
vn -0.0 0.0 1.0
vn -0.0 0.0 1.0
vn -0.0 0.0 1.0
vn -0.0 0.0 1.0
vn -0.0 0.0 1.0
vn -0.0 0.0 1.0
vn -0.0 0.0 1.0
vn -0.0 0.0 1.0
vn -0.0 0.0 1.0
vn -0.0 0.0 1.0
vn -0.0 0.0 1.0
vn -0.0 0.0 1.0
vn -0.0 0.0 1.0
vn -0.0 0.0 1.0
vn -0.0 0.0 1.0
vn -0.0 0.0 1.0
vn -0.0 0.0 1.0
vn -0.0 0.0 1.0
vn -0.0 0.0 1.0
vn -0.0 0.0 1.0
vn -0.0 0.0 1.0
vn -0.0 0.0 1.0
vn -0.0 0.0 1.0
vn -0.0 0.0 1.0
vn -0.0 0.0 1.0
vn -0.0 0.0 1.0
vn -0.0 0.0 1.0
vn -0.0 0.0 1.0
vn -0.0 0.0 1.0
vn -0.0 0.0 1.0
vn -0.0 0.0 1.0
vn -0.0 0.0 1.0
vn -0.0 0.0 1.0
vn -0.0 0.0 1.0
vn -0.0 0.0 1.0
vn -0.0 0.0 1.0
vn -0.0 0.0 1.0
vn -0.0 0.0 1.0
vn -0.0 0.0 1.0
vn -0.0 0.0 1.0
vn -0.0 0.0 1.0
vn -0.0 0.0 1.0
vn -0.0 0.0 1.0
vn -0.0 0.0 1.0
vn -0.0 0.0 1.0
vn -0.0 0.0 1.0
vn -0.0 0.0 1.0
vn -0.0 0.0 1.0
vn -0.0 0.0 1.0
vn -0.0 0.0 1.0
vn -0.0 0.0 1.0
vn -0.0 0.0 1.0
vn -0.0 0.0 1.0
vn -0.0 0.0 1.0
vn -0.0 0.0 1.0
vn -0.0 0.0 1.0
vn -0.0 0.0 1.0
vn -0.0 0.0 1.0
vn -0.0 0.0 1.0
vn -0.0 0.0 1.0
vn -0.0 0.0 1.0
vn -0.0 0.0 1.0
vn -0.0 0.0 1.0
vn -0.0 0.0 1.0
vn -0.0 0.0 1.0
vn -0.0 0.0 1.0
vn -0.0 0.0 1.0
vn -0.0 0.0 1.0
vn -0.0 -1.0 0.0
vn -0.0 -1.0 0.0
vn -0.0 -1.0 0.0
vn -0.0 -1.0 0.0
vn -0.0 -1.0 0.0
vn -0.0 -1.0 0.0
vn -0.0 -1.0 0.0
vn -0.0 -1.0 0.0
vn 1.0 0.0 0.0
vn 1.0 0.0 0.0
vn 1.0 0.0 0.0
vn 1.0 0.0 0.0
vn 1.0 0.0 0.0
vn 1.0 0.0 0.0
vn -0.0 -1.0 0.0
vn -0.0 -1.0 0.0
vn -0.0 -1.0 0.0
vn -0.0 -1.0 0.0
vn 1.0 0.0 0.0
vn 1.0 0.0 0.0
vn 1.0 0.0 0.0
vn 1.0 0.0 0.0
vn 1.0 0.0 0.0
vn 1.0 0.0 0.0
vn 1.0 0.0 0.0
vn 1.0 0.0 0.0
vn -0.0 1.0 0.0
vn -0.0 1.0 0.0
vn -0.0 1.0 0.0
vn -0.0 1.0 0.0
vn 1.0 0.0 0.0
vn 1.0 0.0 0.0
vn 1.0 0.0 0.0
vn 1.0 0.0 0.0
vn 1.0 0.0 0.0
vn 1.0 0.0 0.0
vn 1.0 0.0 0.0
vn 1.0 0.0 0.0
vn -0.0 1.0 0.0
vn -0.0 1.0 0.0
vn -0.0 1.0 0.0
vn -0.0 1.0 0.0
vn -0.0 1.0 0.0
vn -0.0 1.0 0.0
vn -0.0 1.0 0.0
vn -0.0 1.0 0.0
vn -1.0 0.0 0.0
vn -1.0 0.0 0.0
vn -1.0 0.0 0.0
vn -1.0 0.0 0.0
vn -1.0 0.0 0.0
vn -1.0 0.0 0.0
vn -0.0 1.0 0.0
vn -0.0 1.0 0.0
vn -0.0 1.0 0.0
vn -0.0 1.0 0.0
vn -1.0 0.0 0.0
vn -1.0 0.0 0.0
vn -1.0 0.0 0.0
vn -1.0 0.0 0.0
vn -1.0 0.0 0.0
vn -1.0 0.0 0.0
vn -1.0 0.0 0.0
vn -1.0 0.0 0.0
vn -0.0 -1.0 0.0
vn -0.0 -1.0 0.0
vn -0.0 -1.0 0.0
vn -0.0 -1.0 0.0
vn -1.0 0.0 0.0
vn -1.0 0.0 0.0
vn -1.0 0.0 0.0
vn -1.0 0.0 0.0
vn -1.0 0.0 0.0
vn -1.0 0.0 0.0
vn -0.0 0.0 1.0
vn -0.0 0.0 1.0
vn -0.0 0.0 1.0
vn -0.0 0.0 1.0
vn -0.0 0.0 1.0
vn -0.0 0.0 1.0
vn -0.0 0.0 1.0
vn -0.0 0.0 1.0
vn -0.0 0.0 1.0
vn -0.0 0.0 1.0
vn -0.0 -1.0 0.0
vn -0.0 -1.0 0.0
vn -0.0 -1.0 0.0
vn -0.0 -1.0 0.0
vn -0.0 -1.0 0.0
vn -0.0 -1.0 0.0
vn -0.0 -1.0 0.0
vn -0.0 -1.0 0.0
vn 1.0 0.0 0.0
vn 1.0 0.0 0.0
vn 1.0 0.0 0.0
vn 1.0 0.0 0.0
vn -1.0 0.0 0.0
vn -1.0 0.0 0.0
vn -1.0 0.0 0.0
vn -1.0 0.0 0.0
vn -0.0 0.0 1.0
vn -0.0 0.0 1.0
vn -0.0 0.0 1.0
vn -0.0 0.0 1.0
vn -0.0 0.0 1.0
vn -0.0 0.0 1.0
vn -0.0 0.0 1.0
vn -0.0 0.0 1.0
vn -0.0 0.0 1.0
vn -0.0 0.0 1.0
vn -0.0 1.0 0.0
vn -0.0 1.0 0.0
vn -0.0 1.0 0.0
vn -0.0 1.0 0.0
vn -0.0 1.0 0.0
vn -0.0 1.0 0.0
vn -0.0 1.0 0.0
vn -0.0 1.0 0.0
vn 1.0 0.0 0.0
vn 1.0 0.0 0.0
vn 1.0 0.0 0.0
vn 1.0 0.0 0.0
vn -1.0 0.0 0.0
vn -1.0 0.0 0.0
vn -1.0 0.0 0.0
vn -1.0 0.0 0.0
vt 1.753921389579773 0.5003573596477509
vt 1.5038875341415405 0.25021666288375854
vt 1.7539218664169312 0.25021666288375854
vt 1.5038870573043823 0.5003573596477509
vt 1.25385320186615 0.25021666288375854
vt 1.2538527250289917 0.5003573596477509
vt 0.9994902014732361 0.25021666288375854
vt 0.9994902014732361 0.5003573596477509
vt 0.9994902014732361 0.00011581182479858398
vt 1.25385320186615 0.00011581182479858398
vt 1.7539218664169312 0.5003573596477509
vt 1.5038877725601196 0.25021666288375854
vt 1.7539221048355103 0.25021666288375854
vt 1.5038875341415405 0.5003573596477509
vt 1.253853440284729 0.25021666288375854
vt 1.25385320186615 0.5003573596477509
vt 0.9994902014732361 0.00011581182479858398
vt 1.253853440284729 0.00011581182479858398
vt 0.9994902014732361 0.25021666288375854
vt 0.9994902014732361 0.5003573596477509
vt 0.7500278949737549 0.25021666288375854
vt 0.7500278949737549 0.5003573596477509
vt 0.5005659461021423 0.25021666288375854
vt 0.5005659461021423 0.5003573596477509
vt 0.25060486793518066 0.25021666288375854
vt 0.25060486793518066 0.5003573596477509
vt 0.0008056239457800984 0.25021666288375854
vt 0.0008056239457800984 0.5003573596477509
vt -0.2463526427745819 0.25021666288375854
vt -0.2463531494140625 0.5003573596477509
vt 0.7500278949737549 0.5003573596477509
vt 0.5005659461021423 0.25021666288375854
vt 0.7500278949737549 0.25021666288375854
vt 0.5005659461021423 0.5003573596477509
vt 0.25060486793518066 0.25021666288375854
vt 0.25060486793518066 0.5003573596477509
vt 0.25060486793518066 0.00011581182479858398
vt 0.5005659461021423 0.00011581182479858398
vt 0.0008056239457800984 0.25021666288375854
vt 0.0008056239457800984 0.5003573596477509
vt 0.0008056239457800984 0.00011581182479858398
vt 1.25385320186615 0.5003573596477509
vt 0.9994902014732361 0.25021666288375854
vt 1.25385320186615 0.25021666288375854
vt 0.9994902014732361 0.5003573596477509
vt 0.9994902014732361 0.00011581182479858398
vt 1.25385320186615 0.00011581182479858398
vt 0.7500278949737549 0.25021666288375854
vt 0.7500278949737549 0.5003573596477509
vt 0.5005659461021423 0.25021666288375854
vt 0.5005659461021423 0.5003573596477509
vt 0.7500278949737549 0.25021666288375854
vt 0.5005659461021423 0.00011581182479858398
vt 0.7500278949737549 0.00011581182479858398
vt 0.5005659461021423 0.25021666288375854
vt 0.5005659461021423 0.25021666288375854
vt 0.25060486793518066 0.00011581182479858398
vt 0.5005659461021423 0.00011581182479858398
vt 0.25060486793518066 0.25021666288375854
vt 0.5005659461021423 0.25021666288375854
vt 0.25060486793518066 0.00011581182479858398
vt 0.5005659461021423 0.00011581182479858398
vt 0.25060486793518066 0.25021666288375854
vt 0.0008056239457800984 0.00011581182479858398
vt 0.0008056239457800984 0.25021666288375854
vt 0.5005659461021423 0.25021666288375854
vt 0.25060486793518066 0.00011581182479858398
vt 0.5005659461021423 0.00011581182479858398
vt 0.25060486793518066 0.25021666288375854
vt 0.0008056239457800984 0.00011581182479858398
vt 0.0008056239457800984 0.25021666288375854
vt 0.7500278949737549 0.25021666288375854
vt 0.5005659461021423 0.00011581182479858398
vt 0.7500278949737549 0.00011581182479858398
vt 0.5005659461021423 0.25021666288375854
vt 0.5005659461021423 0.5003573596477509
vt 0.25060486793518066 0.25021666288375854
vt 0.25060486793518066 0.5003573596477509
vt 0.0008056239457800984 0.25021666288375854
vt 0.0008056239457800984 0.5003573596477509
vt 2.5031111240386963 0.75
vt 2.7532219886779785 0.5003573596477509
vt 2.7532219886779785 0.75
vt 2.5031111240386963 0.5003573596477509
vt 0.0008056239457800984 0.75
vt 0.25060486793518066 0.5003573596477509
vt 0.25060486793518066 0.75
vt 0.0008056239457800984 0.5003573596477509
vt 0.25060486793518066 0.75
vt 0.5005659461021423 0.5003573596477509
vt 0.5005659461021423 0.75
vt 0.25060486793518066 0.5003573596477509
vt 0.7500278949737549 0.5003573596477509
vt 0.7500278949737549 0.75
vt 2.5031111240386963 0.75
vt 2.7532219886779785 0.5003573596477509
vt 2.7532219886779785 0.75
vt 2.5031111240386963 0.5003573596477509
vt 2.252999782562256 0.75
vt 2.5031111240386963 0.5003573596477509
vt 2.5031111240386963 0.75
vt 2.252999782562256 0.5003573596477509
vt 2.7532219886779785 0.5003573596477509
vt 2.7532219886779785 0.75
vt 3.00333309173584 0.5003573596477509
vt 3.00333309173584 0.75
vt 2.5031111240386963 0.75
vt 2.7532219886779785 0.5003573596477509
vt 2.7532219886779785 0.75
vt 2.5031111240386963 0.5003573596477509
vt 2.252999782562256 0.75
vt 2.5031111240386963 0.5003573596477509
vt 2.5031111240386963 0.75
vt 2.252999782562256 0.5003573596477509
vt 2.7532219886779785 0.5003573596477509
vt 2.7532219886779785 0.75
vt 3.00333309173584 0.5003573596477509
vt 3.00333309173584 0.75
vt 2.5031111240386963 0.75
vt 2.7532219886779785 0.5003573596477509
vt 2.7532219886779785 0.75
vt 2.5031111240386963 0.5003573596477509
vt 0.0008056239457800984 0.75
vt 0.25060486793518066 0.5003573596477509
vt 0.25060486793518066 0.75
vt 0.0008056239457800984 0.5003573596477509
vt 0.25060486793518066 0.75
vt 0.5005659461021423 0.5003573596477509
vt 0.5005659461021423 0.75
vt 0.25060486793518066 0.5003573596477509
vt 0.7500278949737549 0.5003573596477509
vt 0.7500278949737549 0.75
vt 0.7500278949737549 0.75
vt 0.9994902014732361 0.5003573596477509
vt 0.9994902014732361 0.75
vt 0.7500278949737549 0.5003573596477509
vt 0.9994902014732361 0.75
vt 1.2525556087493896 0.5003573596477509
vt 1.2525556087493896 0.75
vt 0.9994902014732361 0.5003573596477509
vt 1.5026665925979614 0.5003573596477509
vt 1.5026665925979614 0.75
vt 1.7527776956558228 0.5003573596477509
vt 1.7527776956558228 0.75
vt 1.7527776956558228 0.75
vt 2.0028889179229736 0.5003573596477509
vt 2.0028889179229736 0.75
vt 1.7527776956558228 0.5003573596477509
vt 2.0028889179229736 0.75
vt 2.252999782562256 0.5003573596477509
vt 2.252999782562256 0.75
vt 2.0028889179229736 0.5003573596477509
vt 2.5031111240386963 0.5003573596477509
vt 2.5031111240386963 0.75
vt 0.9993964433670044 0.25021666288375854
vt 0.7500278949737549 0.00011581182479858398
vt 0.9993964433670044 0.00011581182479858398
vt 0.7500278949737549 0.25021666288375854
vt 0.5005659461021423 0.5003573596477509
vt 0.25060486793518066 0.25021666288375854
vt 0.5005659461021423 0.25021666288375854
vt 0.25060486793518066 0.5003573596477509
vt 0.25060486793518066 0.00011581182479858398
vt 0.5005659461021423 0.00011581182479858398
vt 0.25060486793518066 0.5862300992012024
vt 0.5005659461021423 0.5003573596477509
vt 0.5005659461021423 0.5862300992012024
vt 0.25060486793518066 0.5003573596477509
vt 0.7500278949737549 0.5003573596477509
vt 0.7500278949737549 0.5862300992012024
vt 0.9999865889549255 0.5003573596477509
vt 0.9999865889549255 0.5862300992012024
vt 0.9999865889549255 0.5862300992012024
vt 1.2499866485595703 0.5003573596477509
vt 1.2499866485595703 0.5862300992012024
vt 0.9999865889549255 0.5003573596477509
vt 0.0008056239457800984 0.5862300992012024
vt 0.25060486793518066 0.5003573596477509
vt 0.25060486793518066 0.5862300992012024
vt 0.0008056239457800984 0.5003573596477509
vt 0.9993964433670044 0.25021666288375854
vt 0.7500278949737549 0.00011581182479858398
vt 0.7500278949737549 0.25021666288375854
vt 0.9993964433670044 0.00011581182479858398
vt 0.5005659461021423 0.5003573596477509
vt 0.25060486793518066 0.25021666288375854
vt 0.25060486793518066 0.5003573596477509
vt 0.5005659461021423 0.25021666288375854
vt 0.25060486793518066 0.00011581182479858398
vt 0.5005659461021423 0.00011581182479858398
vt 0.25060486793518066 0.5862300992012024
vt 0.5005659461021423 0.5003573596477509
vt 0.25060486793518066 0.5003573596477509
vt 0.5005659461021423 0.5862300992012024
vt 0.7500278949737549 0.5003573596477509
vt 0.7500278949737549 0.5862300992012024
vt 0.9999865889549255 0.5003573596477509
vt 0.9999865889549255 0.5862300992012024
vt 0.9999865889549255 0.5862300992012024
vt 1.2499866485595703 0.5003573596477509
vt 0.9999865889549255 0.5003573596477509
vt 1.2499866485595703 0.5862300992012024
vt 0.0008056239457800984 0.5862300992012024
vt 0.25060486793518066 0.5003573596477509
vt 0.0008056239457800984 0.5003573596477509
vt 0.25060486793518066 0.5862300992012024

g bg_mdl_map_haikyo_step04
s 1
usemtl bg_mdl_map_haikyo_step04
f 3/3/3 2/2/2 1/1/1 
f 4/4/4 1/1/1 2/2/2 
f 2/2/2 5/5/5 4/4/4 
f 6/6/6 4/4/4 5/5/5 
f 5/5/5 7/7/7 6/6/6 
f 8/8/8 6/6/6 7/7/7 
f 7/7/7 5/5/5 9/9/9 
f 10/10/10 9/9/9 5/5/5 
f 13/13/13 12/12/12 11/11/11 
f 14/14/14 11/11/11 12/12/12 
f 12/12/12 15/15/15 14/14/14 
f 16/16/16 14/14/14 15/15/15 
f 18/18/18 17/17/17 15/15/15 
f 19/19/19 15/15/15 17/17/17 
f 19/19/19 21/21/21 20/20/20 
f 22/22/22 20/20/20 21/21/21 
f 21/21/21 23/23/23 22/22/22 
f 24/24/24 22/22/22 23/23/23 
f 23/23/23 25/25/25 24/24/24 
f 26/26/26 24/24/24 25/25/25 
f 25/25/25 27/27/27 26/26/26 
f 28/28/28 26/26/26 27/27/27 
f 27/27/27 29/29/29 28/28/28 
f 30/30/30 28/28/28 29/29/29 
f 33/33/33 32/32/32 31/31/31 
f 34/34/34 31/31/31 32/32/32 
f 32/32/32 35/35/35 34/34/34 
f 36/36/36 34/34/34 35/35/35 
f 35/35/35 32/32/32 37/37/37 
f 38/38/38 37/37/37 32/32/32 
f 35/35/35 39/39/39 36/36/36 
f 40/40/40 36/36/36 39/39/39 
f 37/37/37 41/41/41 35/35/35 
f 39/39/39 35/35/35 41/41/41 
f 44/44/44 43/43/43 42/42/42 
f 45/45/45 42/42/42 43/43/43 
f 43/43/43 44/44/44 46/46/46 
f 47/47/47 46/46/46 44/44/44 
f 43/43/43 48/48/48 45/45/45 
f 49/49/49 45/45/45 48/48/48 
f 48/48/48 50/50/50 49/49/49 
f 51/51/51 49/49/49 50/50/50 
f 54/54/54 53/53/53 52/52/52 
f 55/55/55 52/52/52 53/53/53 
f 58/58/58 57/57/57 56/56/56 
f 59/59/59 56/56/56 57/57/57 
f 62/62/62 61/61/61 60/60/60 
f 63/63/63 60/60/60 61/61/61 
f 61/61/61 64/64/64 63/63/63 
f 65/65/65 63/63/63 64/64/64 
f 68/68/68 67/67/67 66/66/66 
f 69/69/69 66/66/66 67/67/67 
f 67/67/67 70/70/70 69/69/69 
f 71/71/71 69/69/69 70/70/70 
f 74/74/74 73/73/73 72/72/72 
f 75/75/75 72/72/72 73/73/73 
f 75/75/75 77/77/77 76/76/76 
f 78/78/78 76/76/76 77/77/77 
f 77/77/77 79/79/79 78/78/78 
f 80/80/80 78/78/78 79/79/79 
f 83/83/83 82/82/82 81/81/81 
f 84/84/84 81/81/81 82/82/82 
f 87/87/87 86/86/86 85/85/85 
f 88/88/88 85/85/85 86/86/86 
f 91/91/91 90/90/90 89/89/89 
f 92/92/92 89/89/89 90/90/90 
f 90/90/90 91/91/91 93/93/93 
f 94/94/94 93/93/93 91/91/91 
f 97/97/97 96/96/96 95/95/95 
f 98/98/98 95/95/95 96/96/96 
f 101/101/101 100/100/100 99/99/99 
f 102/102/102 99/99/99 100/100/100 
f 100/100/100 101/101/101 103/103/103 
f 104/104/104 103/103/103 101/101/101 
f 103/103/103 104/104/104 105/105/105 
f 106/106/106 105/105/105 104/104/104 
f 109/109/109 108/108/108 107/107/107 
f 110/110/110 107/107/107 108/108/108 
f 113/113/113 112/112/112 111/111/111 
f 114/114/114 111/111/111 112/112/112 
f 112/112/112 113/113/113 115/115/115 
f 116/116/116 115/115/115 113/113/113 
f 115/115/115 116/116/116 117/117/117 
f 118/118/118 117/117/117 116/116/116 
f 121/121/121 120/120/120 119/119/119 
f 122/122/122 119/119/119 120/120/120 
f 125/125/125 124/124/124 123/123/123 
f 126/126/126 123/123/123 124/124/124 
f 129/129/129 128/128/128 127/127/127 
f 130/130/130 127/127/127 128/128/128 
f 128/128/128 129/129/129 131/131/131 
f 132/132/132 131/131/131 129/129/129 
f 135/135/135 134/134/134 133/133/133 
f 136/136/136 133/133/133 134/134/134 
f 139/139/139 138/138/138 137/137/137 
f 140/140/140 137/137/137 138/138/138 
f 138/138/138 139/139/139 141/141/141 
f 142/142/142 141/141/141 139/139/139 
f 141/141/141 142/142/142 143/143/143 
f 144/144/144 143/143/143 142/142/142 
f 147/147/147 146/146/146 145/145/145 
f 148/148/148 145/145/145 146/146/146 
f 151/151/151 150/150/150 149/149/149 
f 152/152/152 149/149/149 150/150/150 
f 150/150/150 151/151/151 153/153/153 
f 154/154/154 153/153/153 151/151/151 
f 157/157/157 156/156/156 155/155/155 
f 158/158/158 155/155/155 156/156/156 
f 161/161/161 160/160/160 159/159/159 
f 162/162/162 159/159/159 160/160/160 
f 160/160/160 161/161/161 163/163/163 
f 164/164/164 163/163/163 161/161/161 
f 167/167/167 166/166/166 165/165/165 
f 168/168/168 165/165/165 166/166/166 
f 166/166/166 167/167/167 169/169/169 
f 170/170/170 169/169/169 167/167/167 
f 169/169/169 170/170/170 171/171/171 
f 172/172/172 171/171/171 170/170/170 
f 175/175/175 174/174/174 173/173/173 
f 176/176/176 173/173/173 174/174/174 
f 179/179/179 178/178/178 177/177/177 
f 180/180/180 177/177/177 178/178/178 
f 183/183/183 182/182/182 181/181/181 
f 184/184/184 181/181/181 182/182/182 
f 187/187/187 186/186/186 185/185/185 
f 188/188/188 185/185/185 186/186/186 
f 186/186/186 189/189/189 188/188/188 
f 190/190/190 188/188/188 189/189/189 
f 193/193/193 192/192/192 191/191/191 
f 194/194/194 191/191/191 192/192/192 
f 192/192/192 195/195/195 194/194/194 
f 196/196/196 194/194/194 195/195/195 
f 195/195/195 197/197/197 196/196/196 
f 198/198/198 196/196/196 197/197/197 
f 201/201/201 200/200/200 199/199/199 
f 202/202/202 199/199/199 200/200/200 
f 205/205/205 204/204/204 203/203/203 
f 206/206/206 203/203/203 204/204/204 

