v -0.949999988079071 0.3499999940395355 1.0
v -0.8499999642372131 -0.44999998807907104 1.0
v -0.949999988079071 -0.3499999940395355 1.0
v -0.0 -0.44999998807907104 1.0
v -0.0 0.44999998807907104 1.0
v -0.8499999642372131 0.44999998807907104 1.0
v 0.949999988079071 -0.3499999940395355 1.0
v 0.8499999642372131 0.44999998807907104 1.0
v 0.949999988079071 0.3499999940395355 1.0
v 0.8499999642372131 -0.44999998807907104 1.0
v -0.0 -0.48749998211860657 0.9874999523162842
v -0.40270861983299255 -0.48749998211860657 0.9874999523162842
v -0.44187435507774353 -0.48749998211860657 0.9874999523162842
v 0.9874999523162842 0.38749998807907104 0.9874999523162842
v 0.9874999523162842 -0.38749998807907104 0.9874999523162842
v -0.0 0.4902658760547638 0.9874999523162842
v 0.45883750915527344 0.4802015721797943 0.9874999523162842
v 0.4881249964237213 0.48749998211860657 0.9874999523162842
v 0.887499988079071 0.48749998211860657 0.9874999523162842
v 0.8499999642372131 -0.44999998807907104 1.0
v 0.887499988079071 -0.48749998211860657 0.9874999523162842
v 0.5924105048179626 -0.48749998211860657 0.9874999523162842
v 0.5340994000434875 -0.48074302077293396 0.9874999523162842
v 0.2402462363243103 -0.4775286018848419 0.9874999523162842
v -0.17749999463558197 0.47701629996299744 0.9874999523162842
v -0.48368749022483826 0.47946691513061523 0.9874999523162842
v -0.5247748494148254 0.4971939027309418 0.9874999523162842
v -0.887499988079071 0.48749998211860657 0.9874999523162842
v -0.9874999523162842 0.38749998807907104 0.9874999523162842
v -0.9874999523162842 0.3061249852180481 0.9874999523162842
v -0.9874999523162842 0.2541031241416931 0.9874999523162842
v -0.9874999523162842 -0.008954143151640892 0.9874999523162842
v -0.9874999523162842 -0.049647822976112366 0.9874999523162842
v -0.9874999523162842 -0.09034150093793869 0.9874999523162842
v -0.9874999523162842 -0.38749998807907104 0.9874999523162842
v -0.887499988079071 -0.48749998211860657 0.9874999523162842
v -0.7499374747276306 -0.48749998211860657 0.9874999523162842
v -0.47760009765625 -0.49912282824516296 0.9874999523162842
v -0.7199400067329407 -0.49912282824516296 0.9874999523162842
v -0.44187435507774353 -0.48749998211860657 0.9874999523162842
v -0.8499999642372131 -0.44999998807907104 1.0
v -0.7199400067329407 -0.49912282824516296 0.9874999523162842
v -0.7499374747276306 -0.48749998211860657 0.9874999523162842
v 0.45883750915527344 0.4802015721797943 0.9874999523162842
v -0.0 0.4902658760547638 0.9874999523162842
v 0.4221304953098297 0.48749998211860657 0.9874999523162842
v 0.2402462363243103 -0.4775286018848419 0.9874999523162842
v 0.5340994000434875 -0.48074302077293396 0.9874999523162842
v 0.29849904775619507 -0.48749998211860657 0.9874999523162842
v 0.195250004529953 -0.48749998211860657 0.9874999523162842
v -0.0 -0.48749998211860657 0.9874999523162842
v 0.2402462363243103 -0.4775286018848419 0.9874999523162842
v -0.0 -0.48749998211860657 0.9874999523162842
v 0.8499999642372131 -0.44999998807907104 1.0
v -0.17749999463558197 0.47701629996299744 0.9874999523162842
v -0.4437499940395355 0.49138250946998596 0.9874999523162842
v -0.23208124935626984 0.48825177550315857 0.9874999523162842
v -0.48368749022483826 0.47946691513061523 0.9874999523162842
v -0.4132484197616577 -0.555303692817688 0.0
v -0.0 -0.513843297958374 0.949999988079071
v -0.0 -0.5695793032646179 0.0
v -0.40400367975234985 -0.5183826684951782 0.949999988079071
v -0.40270861983299255 -0.48749998211860657 0.9874999523162842
v -0.0 -0.48749998211860657 0.9874999523162842
v -0.4404207468032837 -0.5 0.949999988079071
v -0.44187435507774353 -0.48749998211860657 0.9874999523162842
v -0.47760009765625 -0.49912282824516296 0.9874999523162842
v -0.44187435507774353 -0.48749998211860657 0.9874999523162842
v 0.21080061793327332 -0.5431336760520935 0.0
v 0.19800002872943878 -0.5136966109275818 0.949999988079071
v 0.195250004529953 -0.48749998211860657 0.9874999523162842
v 0.24362997710704803 -0.5 0.0
v 0.2402462363243103 -0.4775286018848419 0.9874999523162842
v 0.2436300665140152 -0.5 0.949999988079071
v 0.24362997710704803 -0.5 0.0
v 0.29849904775619507 -0.48749998211860657 0.9874999523162842
v 0.3027033507823944 -0.5196048617362976 0.949999988079071
v 0.29103904962539673 -0.5328490138053894 0.0
v 0.24362997710704803 -0.5 0.0
v 0.5416219830513 -0.523773193359375 0.0
v 0.5416219830513 -0.5 0.949999988079071
v 0.5340994000434875 -0.48074302077293396 0.9874999523162842
v 0.6007543206214905 -0.550803005695343 0.0
v 0.6007543802261353 -0.5062398910522461 0.949999988079071
v 0.8999999761581421 -0.5 0.949999988079071
v 0.8999999761581421 -0.5 0.0
v 0.887499988079071 -0.48749998211860657 0.9874999523162842
v 0.5924105048179626 -0.48749998211860657 0.9874999523162842
v 1.0 -0.3999999761581421 0.949999988079071
v 1.0 -0.3999999761581421 0.0
v 1.0 0.3999999761581421 0.949999988079071
v 1.0 0.3999999761581421 0.0
v 0.9874999523162842 -0.38749998807907104 0.9874999523162842
v 0.9874999523162842 0.38749998807907104 0.9874999523162842
v 0.8999999761581421 0.5 0.949999988079071
v 0.8999999761581421 0.5414535999298096 0.0
v 0.887499988079071 0.48749998211860657 0.9874999523162842
v 0.42807596921920776 0.5883338451385498 0.0
v -0.0 0.5128101110458374 0.949999988079071
v -0.0 0.5894179940223694 0.0
v 0.42807596921920776 0.5163354277610779 0.949999988079071
v 0.4221304953098297 0.48749998211860657 0.9874999523162842
v -0.0 0.4902658760547638 0.9874999523162842
v 0.4583547115325928 0.5 0.949999988079071
v 0.45883750915527344 0.4802015721797943 0.9874999523162842
v -0.17999999225139618 0.5315207242965698 0.0
v -0.17749999463558197 0.47701629996299744 0.9874999523162842
v -0.17999999225139618 0.49187159538269043 0.949999988079071
v 0.4583547115325928 0.5 0.949999988079071
v 0.4881249964237213 0.48749998211860657 0.9874999523162842
v 0.4845027029514313 0.5102293491363525 0.949999988079071
v 0.887499988079071 0.48749998211860657 0.9874999523162842
v 0.8999999761581421 0.5 0.949999988079071
v 0.4996005594730377 0.5424522757530212 0.0
v 0.8999999761581421 0.5414535999298096 0.0
v 0.46529996395111084 0.509039044380188 0.0
v -0.23208124935626984 0.48825177550315857 0.9874999523162842
v -0.17999999225139618 0.49187159538269043 0.949999988079071
v -0.21581169962882996 0.5130392909049988 0.949999988079071
v -0.4437499940395355 0.49138250946998596 0.9874999523162842
v -0.44999998807907104 0.517716646194458 0.949999988079071
v -0.46827346086502075 0.6012375354766846 0.0
v -0.21549338102340698 0.600084125995636 0.0
v -0.48368749022483826 0.47946691513061523 0.9874999523162842
v -0.44999998807907104 0.517716646194458 0.949999988079071
v -0.49049997329711914 0.5 0.949999988079071
v -0.4965805411338806 0.5209341049194336 0.0
v -0.5247748494148254 0.4971939027309418 0.9874999523162842
v -0.49049997329711914 0.5 0.949999988079071
v -0.5273550152778625 0.5201181173324585 0.949999988079071
v -0.887499988079071 0.48749998211860657 0.9874999523162842
v -0.8999999761581421 0.5 0.949999988079071
v -0.5354200601577759 0.571946918964386 0.0
v -0.8999999761581421 0.5614126324653625 0.0
v -1.0 0.3999999761581421 0.949999988079071
v -1.0 0.3999999761581421 0.0
v -1.0 0.31599998474121094 0.0
v -1.0 0.31599998474121094 0.949999988079071
v -0.9874999523162842 0.38749998807907104 0.9874999523162842
v -1.0413180589675903 0.28191059827804565 0.0
v -1.0177175998687744 0.2776256799697876 0.949999988079071
v -0.9874999523162842 0.3061249852180481 0.9874999523162842
v -0.9874999523162842 0.2541031241416931 0.9874999523162842
v -1.035054087638855 -0.023562602698802948 0.0
v -1.011497139930725 -0.02698991633951664 0.949999988079071
v -0.9874999523162842 -0.008954143151640892 0.9874999523162842
v -1.0 -0.051249369978904724 0.0
v -0.9874999523162842 -0.049647822976112366 0.9874999523162842
v -1.0 -0.051249388605356216 0.949999988079071
v -1.0 -0.051249369978904724 0.0
v -0.9874999523162842 -0.09034150093793869 0.9874999523162842
v -1.0114936828613281 -0.09325576573610306 0.949999988079071
v -0.9874999523162842 -0.38749998807907104 0.9874999523162842
v -1.0 -0.3999999761581421 0.949999988079071
v -0.887499988079071 -0.48749998211860657 0.9874999523162842
v -0.8999999761581421 -0.5 0.949999988079071
v -1.007347822189331 -0.40944594144821167 0.0
v -0.8999999761581421 -0.5 0.0
v -1.0283511877059937 -0.09325574338436127 0.0
v -1.0 -0.051249369978904724 0.0
v -0.7717828154563904 -0.5 0.0
v -0.7605000138282776 -0.5 0.949999988079071
v -0.7499374747276306 -0.48749998211860657 0.9874999523162842
v -0.743770956993103 -0.5663934350013733 0.0
v -0.7300800085067749 -0.5185413360595703 0.949999988079071
v -0.7199400067329407 -0.49912282824516296 0.9874999523162842
v -0.4508025646209717 -0.5720087289810181 0.0
v -0.4685569405555725 -0.521367609500885 0.949999988079071
v -0.4404207468032837 -0.5 0.949999988079071
v -0.4685569405555725 -0.521367609500885 0.949999988079071
v -0.4404207766056061 -0.5324732065200806 0.0
v -0.44999998807907104 0.517716646194458 0.949999988079071
v -0.4965805411338806 0.5209341049194336 0.0
v -0.46827346086502075 0.6012375354766846 0.0
v -0.49049997329711914 0.5 0.949999988079071
v -0.4965805411338806 0.5209341049194336 0.0
v 0.4583547115325928 0.5 0.949999988079071
v 0.46529996395111084 0.509039044380188 0.0
v -0.17999999225139618 0.5315207242965698 0.0
v -0.17999999225139618 0.49187159538269043 0.949999988079071
v -0.17999999225139618 0.5315207242965698 0.0
v -0.4685569405555725 -0.521367609500885 0.949999988079071
v -0.4404207766056061 -0.5324732065200806 0.0
v -0.4508025646209717 -0.5720087289810181 0.0
v -0.4404207468032837 -0.5 0.949999988079071
v -0.4404207766056061 -0.5324732065200806 0.0
vn -0.19759157299995422 0.025258561596274376 0.9799588918685913
vn -0.030372729524970055 -0.19288137555122375 0.9807519912719727
vn -0.16134588420391083 -0.054705407470464706 0.9853805899620056
vn -0.0 -0.1066322773694992 0.99429851770401
vn -0.00321018323302269 0.14694741368293762 0.9891391396522522
vn -0.023493237793445587 0.22280412912368774 0.9745800495147705
vn 0.12099111825227737 -0.04102284833788872 0.9918055534362793
vn 0.03954346477985382 0.19508607685565948 0.979988694190979
vn 0.16134588420391083 0.054705407470464706 0.9853805899620056
vn 0.023106737062335014 -0.2221774011850357 0.9747323393821716
vn 0.006498847156763077 -0.5680593252182007 0.8229619860649109
vn 0.0018095244886353612 -0.6246901750564575 0.7808706164360046
vn -0.026969725266098976 -0.6785343289375305 0.7340735197067261
vn 0.4772195816040039 0.18075750768184662 0.8599931597709656
vn 0.7028056979179382 -0.27716460824012756 0.6551671028137207
vn -0.012467609718441963 0.5042076110839844 0.8634925484657288
vn 0.06709903478622437 0.570232629776001 0.8187383413314819
vn -0.12129809707403183 0.644241213798523 0.7551423907279968
vn 0.27735790610313416 0.6739110946655273 0.6847747564315796
vn 0.027838800102472305 -0.36005282402038574 0.9325165152549744
vn 0.18778648972511292 -0.5958012342453003 0.7808695435523987
vn -0.04821506515145302 -0.6997131109237671 0.7127951383590698
vn -0.006328763905912638 -0.5639121532440186 0.8258104920387268
vn 0.051998965442180634 -0.6282468438148499 0.7762744426727295
vn -0.00021296738123055547 0.5300280451774597 0.8479800820350647
vn -0.03507431223988533 0.541423499584198 0.840018093585968
vn 0.17753346264362335 0.6420167684555054 0.7458527684211731
vn -0.19781866669654846 0.5801270604133606 0.7901395559310913
vn -0.7028056979179382 0.27716460824012756 0.6551671028137207
vn -0.7019269466400146 0.08501333743333817 0.7071571946144104
vn -0.6359634399414062 -0.003350308397784829 0.7717118263244629
vn -0.6144149303436279 0.0 0.7889831066131592
vn -0.7289730310440063 -0.09054841101169586 0.6785274147987366
vn -0.7048287391662598 0.04912519082427025 0.707674503326416
vn -0.5429900884628296 -0.16039936244487762 0.8242777585983276
vn -0.27716463804244995 -0.7028056979179382 0.6551671028137207
vn -0.2154582291841507 -0.7784020304679871 0.5896338224411011
vn 0.18940924108028412 -0.6283676028251648 0.7545052766799927
vn -0.08633700013160706 -0.7506644129753113 0.6550182104110718
vn 0.08901163190603256 -0.5784806609153748 0.8108249306678772
vn -0.35967808961868286 -0.928295373916626 -0.09433608502149582
vn -0.17908555269241333 -0.9146302342414856 0.3624637722969055
vn -0.30097725987434387 -0.9074724316596985 0.2930978536605835
vn 0.06709903478622437 0.570232629776001 0.8187383413314819
vn -0.012467609718441963 0.5042076110839844 0.8634925484657288
vn 0.0416446253657341 0.6614454388618469 0.7488361597061157
vn 0.051320213824510574 -0.5281739830970764 0.8475838899612427
vn -0.006328763905912638 -0.5639121532440186 0.8258104920387268
vn -0.10210776329040527 -0.6462507247924805 0.7562631964683533
vn 0.04867683723568916 -0.6667800545692444 0.7436630725860596
vn -0.0 -0.459597647190094 0.8881272673606873
vn 0.06734216213226318 -0.8136220574378967 0.5774807929992676
vn 0.007438266649842262 -0.6501731872558594 0.7597496509552002
vn 0.003515624674037099 -0.4725818634033203 0.8812797665596008
vn -0.00021296738123055547 0.5300280451774597 0.8479800820350647
vn -0.04577479511499405 0.5468785762786865 0.8359596729278564
vn 0.16903382539749146 0.6825479865074158 0.7110245227813721
vn -0.03507431223988533 0.541423499584198 0.840018093585968
vn -0.2919554114341736 -0.9554880261421204 0.04248109087347984
vn 0.014513654634356499 -0.9429872632026672 0.3325121998786926
vn 0.04504342004656792 -0.9972700476646423 0.05850932002067566
vn -0.18505963683128357 -0.9195806980133057 0.34658971428871155
vn 0.0018095244886353612 -0.6246901750564575 0.7808706164360046
vn 0.006498847156763077 -0.5680593252182007 0.8229619860649109
vn -0.02269657514989376 -0.9709539413452148 0.23818743228912354
vn -0.026969725266098976 -0.6785343289375305 0.7340735197067261
vn 0.18940924108028412 -0.6283676028251648 0.7545052766799927
vn -0.03907844051718712 -0.7955837249755859 0.6045820713043213
vn 0.3339184522628784 -0.941619873046875 0.0430176705121994
vn 0.27409613132476807 -0.9094895720481873 0.312569797039032
vn 0.04867683723568916 -0.6667800545692444 0.7436630725860596
vn 0.5693895220756531 -0.8219218254089355 0.015498625114560127
vn 0.051998965442180634 -0.6282468438148499 0.7762744426727295
vn -0.13649721443653107 -0.943789005279541 0.3010495603084564
vn 0.21039749681949615 -0.9775412678718567 0.01208063866943121
vn -0.10210776329040527 -0.6462507247924805 0.7562631964683533
vn -0.062387432903051376 -0.9463000297546387 0.3172129988670349
vn -0.29277950525283813 -0.9561216831207275 0.010555646382272243
vn -0.15651670098304749 -0.9876753091812134 0.0
vn -0.10191959887742996 -0.994572103023529 0.02094457484781742
vn -0.09770729392766953 -0.9640918970108032 0.24694114923477173
vn -0.006328763905912638 -0.5639121532440186 0.8258104920387268
vn -0.0851246789097786 -0.9959254264831543 0.029770735651254654
vn -0.03242287412285805 -0.9642527103424072 0.26299333572387695
vn 0.3973930776119232 -0.8905734419822693 0.22126366198062897
vn 0.550240695476532 -0.8350061774253845 0.0
vn 0.18778648972511292 -0.5958012342453003 0.7808695435523987
vn -0.04821506515145302 -0.6997131109237671 0.7127951383590698
vn 0.8778242468833923 -0.4504408538341522 0.16287273168563843
vn 0.9675382375717163 -0.25272470712661743 0.0
vn 0.9214745759963989 0.31108686327934265 0.23261432349681854
vn 0.891193151473999 0.45353683829307556 0.00889322254806757
vn 0.7028056979179382 -0.27716460824012756 0.6551671028137207
vn 0.4772195816040039 0.18075750768184662 0.8599931597709656
vn 0.40874239802360535 0.8989667296409607 0.15744370222091675
vn 0.46065568923950195 0.886735200881958 0.03869304433465004
vn 0.27735790610313416 0.6739110946655273 0.6847747564315796
vn 0.38368386030197144 0.9211638569831848 0.06514504551887512
vn -0.07739333063364029 0.9522166848182678 0.29545512795448303
vn -0.15325984358787537 0.9849885702133179 0.07942933589220047
vn 0.2213064283132553 0.8987728357315063 0.37845855951309204
vn 0.0416446253657341 0.6614454388618469 0.7488361597061157
vn -0.012467609718441963 0.5042076110839844 0.8634925484657288
vn 0.18354199826717377 0.937964141368866 0.2941693365573883
vn 0.06709903478622437 0.570232629776001 0.8187383413314819
vn -0.21141226589679718 0.9755980968475342 0.059271808713674545
vn -0.00021296738123055547 0.5300280451774597 0.8479800820350647
vn 0.18623721599578857 0.931570827960968 0.31223633885383606
vn 0.0030245822854340076 0.9460932016372681 0.32388049364089966
vn -0.12129809707403183 0.644241213798523 0.7551423907279968
vn -0.23722365498542786 0.9381919503211975 0.252032995223999
vn 0.27735790610313416 0.6739110946655273 0.6847747564315796
vn 0.40874239802360535 0.8989667296409607 0.15744370222091675
vn -0.23972472548484802 0.9702948927879333 0.03255733102560043
vn 0.46065568923950195 0.886735200881958 0.03869304433465004
vn -0.5417871475219727 0.8404574990272522 0.009898310527205467
vn 0.16903382539749146 0.6825479865074158 0.7110245227813721
vn 0.32934513688087463 0.9025759100914001 0.2772877514362335
vn 0.17034295201301575 0.9188798666000366 0.3558693528175354
vn -0.04577479511499405 0.5468785762786865 0.8359596729278564
vn -0.1988721340894699 0.9066904187202454 0.3719709515571594
vn 0.012218599207699299 0.9959373474121094 0.08921603113412857
vn 0.516360342502594 0.8535214066505432 0.06980852037668228
vn -0.03507431223988533 0.541423499584198 0.840018093585968
vn -0.35432928800582886 0.8708941340446472 0.3405793607234955
vn 0.11670932173728943 0.9418479204177856 0.31512129306793213
vn -0.7319359183311462 0.6803022027015686 0.038192473351955414
vn 0.17753346264362335 0.6420167684555054 0.7458527684211731
vn 0.2537001073360443 0.9279460310935974 0.2730429470539093
vn 0.16463355720043182 0.9408126473426819 0.2962557375431061
vn -0.19781866669654846 0.5801270604133606 0.7901395559310913
vn -0.3834584653377533 0.89072185754776 0.2440781146287918
vn 0.323839396238327 0.9449651837348938 0.046571239829063416
vn -0.578842282295227 0.8144471049308777 0.040218643844127655
vn -0.9300958514213562 0.3385438323020935 0.14251220226287842
vn -0.9617903828620911 0.2737868130207062 0.0
vn -0.9597644209861755 0.28080612421035767 0.0
vn -0.9415665864944458 0.2813439965248108 0.18519724905490875
vn -0.7028056979179382 0.27716460824012756 0.6551671028137207
vn -0.9083641767501831 0.41781100630760193 0.017561931163072586
vn -0.9436283707618713 0.13326223194599152 0.3029963970184326
vn -0.7019269466400146 0.08501333743333817 0.7071571946144104
vn -0.6359634399414062 -0.003350308397784829 0.7717118263244629
vn -0.9534838795661926 -0.30059802532196045 0.02256881818175316
vn -0.9121689796447754 -0.25834041833877563 0.31813204288482666
vn -0.6144149303436279 0.0 0.7889831066131592
vn -0.7823008894920349 -0.6228674054145813 0.006438127718865871
vn -0.7289730310440063 -0.09054841101169586 0.6785274147987366
vn -0.9767932891845703 0.039137102663517 0.21057789027690887
vn -0.963494598865509 -0.26767849922180176 0.005135264713317156
vn -0.7048287391662598 0.04912519082427025 0.707674503326416
vn -0.9672368168830872 0.06095387786626816 0.2464500069618225
vn -0.5429900884628296 -0.16039936244487762 0.8242777585983276
vn -0.8550597429275513 -0.447999507188797 0.2610926330089569
vn -0.27716463804244995 -0.7028056979179382 0.6551671028137207
vn -0.36276015639305115 -0.9216745495796204 0.13755406439304352
vn -0.9048485159873962 -0.4256077706813812 0.01034971047192812
vn -0.34324613213539124 -0.9392454624176025 0.0
vn -0.9650547504425049 0.2617718279361725 0.01203876081854105
vn -0.9971463084220886 0.07549309730529785 0.0
vn -0.3598490357398987 -0.9330007433891296 0.004273797385394573
vn -0.3557015657424927 -0.9125074744224548 0.20200641453266144
vn -0.2576848268508911 -0.8477977514266968 0.46350574493408203
vn -0.5456147193908691 -0.8369911909103394 0.04183454066514969
vn -0.2367718368768692 -0.9345592856407166 0.2655898928642273
vn -0.15288765728473663 -0.8361373543739319 0.5267824530601501
vn -0.014965237118303776 -0.9985452890396118 0.051800187677145004
vn 0.2369503676891327 -0.9099449515342712 0.34037429094314575
vn 0.12224623560905457 -0.9546294808387756 0.2715480625629425
vn 0.39848828315734863 -0.8629858493804932 0.3105843961238861
vn 0.831059992313385 -0.5553123354911804 0.031105132773518562
vn -0.5336269736289978 0.7828306555747986 0.3200288712978363
vn -0.7319359183311462 0.6803022027015686 0.038192473351955414
vn -0.9420639872550964 0.3320789933204651 0.04731612280011177
vn 0.5380386710166931 0.8098709583282471 0.2337161749601364
vn 0.7956100702285767 0.6057527661323547 0.008255966007709503
vn 0.642333447933197 0.746116042137146 0.1752673089504242
vn 0.9051679968833923 0.42492035031318665 0.010660531930625439
vn 0.19066296517848969 0.9800584316253662 0.055974964052438736
vn 0.41813337802886963 0.8737409710884094 0.2484775185585022
vn 0.4693242609500885 0.8822578191757202 0.036821842193603516
vn 0.7528313994407654 -0.6234650015830994 0.21103675663471222
vn 0.831059992313385 -0.5553123354911804 0.031105132773518562
vn 0.966725766658783 -0.25385603308677673 0.031599100679159164
vn -0.33397001028060913 -0.9261378049850464 0.17530737817287445
vn -0.6430665254592896 -0.7653633952140808 0.026161935180425644
vt 0.5358110070228577 0.010380268096923828
vt 0.7403585910797119 0.03562498092651367
vt 0.7147902250289917 0.010380268096923828
vt 0.7403587102890015 0.2502061128616333
vt 0.5102426409721375 0.2502061128616333
vt 0.5102425813674927 0.03562510013580322
vt 0.7147903442382812 0.49003177881240845
vt 0.5102427005767822 0.46478700637817383
vt 0.535811185836792 0.4900318384170532
vt 0.7403587102890015 0.4647868871688843
vt 0.7499467134475708 0.2502061128616333
vt 0.7499467134475708 0.1485428810119629
vt 0.7499467134475708 0.13865560293197632
vt 0.5262230038642883 0.4994986653327942
vt 0.7243784666061401 0.49949848651885986
vt 0.500654399394989 0.2502061128616333
vt 0.5006544589996338 0.36603879928588867
vt 0.5006544589996338 0.37343233823776245
vt 0.5006545186042786 0.47425377368927
vt 0.7403587102890015 0.4647868871688843
vt 0.7499468326568604 0.47425371408462524
vt 0.7499468326568604 0.3997589349746704
vt 0.7499468326568604 0.3850383758544922
vt 0.7499467134475708 0.3108557462692261
vt 0.500654399394989 0.20539653301239014
vt 0.500654399394989 0.12809991836547852
vt 0.500654399394989 0.11892521381378174
vt 0.500654399394989 0.026158273220062256
vt 0.526222825050354 0.0009135007858276367
vt 0.5470291972160339 0.0009135007858276367
vt 0.5603303909301758 0.0009134411811828613
vt 0.6275900602340698 0.0009134411811828613
vt 0.6379947662353516 0.0009134411811828613
vt 0.6483994722366333 0.0009134411811828613
vt 0.7243783473968506 0.0009134411811828613
vt 0.7499467134475708 0.02615821361541748
vt 0.7499467134475708 0.06088566780090332
vt 0.7499467134475708 0.13062500953674316
vt 0.7499467134475708 0.0684584379196167
vt 0.7499467134475708 0.13865560293197632
vt 0.7403585910797119 0.03562498092651367
vt 0.7499467134475708 0.0684584379196167
vt 0.7499467134475708 0.06088566780090332
vt 0.5006544589996338 0.36603879928588867
vt 0.500654399394989 0.2502061128616333
vt 0.5006544589996338 0.35677218437194824
vt 0.7499467134475708 0.3108557462692261
vt 0.7499468326568604 0.3850383758544922
vt 0.7499467134475708 0.3255615234375
vt 0.7499467134475708 0.29949647188186646
vt 0.7499467134475708 0.2502061128616333
vt 0.7499467134475708 0.3108557462692261
vt 0.7499467134475708 0.2502061128616333
vt 0.7403587102890015 0.4647868871688843
vt 0.500654399394989 0.20539653301239014
vt 0.500654399394989 0.1381821632385254
vt 0.500654399394989 0.19161760807037354
vt 0.500654399394989 0.12809991836547852
vt 0.35032519698143005 0.49887537956237793
vt 0.5564690232276917 0.0222703218460083
vt 0.5565287470817566 0.49913913011550903
vt 0.3537033796310425 0.02346181869506836
vt 0.3514145016670227 0.0035418272018432617
vt 0.556797206401825 0.0028011202812194824
vt 0.3351988196372986 0.020604610443115234
vt 0.331559419631958 0.0018702149391174316
vt 0.3142071068286896 0.001735985279083252
vt 0.331559419631958 0.0018702149391174316
vt 0.66142338514328 0.49900323152542114
vt 0.6576579809188843 0.021918773651123047
vt 0.657357931137085 0.0028011202812194824
vt 0.6805326342582703 0.49872714281082153
vt 0.6805326342582703 0.0028011202812194824
vt 0.6805326342582703 0.020604610443115234
vt 0.6805326342582703 0.49872714281082153
vt 0.710534930229187 0.0028011202812194824
vt 0.7101424932479858 0.023992538452148438
vt 0.7058165669441223 0.4987245202064514
vt 0.6805326342582703 0.49872714281082153
vt 0.8318775296211243 0.49872714281082153
vt 0.8318775296211243 0.020604610443115234
vt 0.8318775296211243 0.0028011202812194824
vt 0.8622581362724304 0.4987848401069641
vt 0.8614402413368225 0.020802736282348633
vt 1.0138914585113525 0.020604610443115234
vt 1.0138914585113525 0.49872714281082153
vt 1.0138914585113525 0.0028011202812194824
vt 0.861909806728363 0.0028011202812194824
vt 1.081151008605957 0.020604610443115234
vt 1.081151008605957 0.49872714281082153
vt 1.4670296907424927 0.020604610443115234
vt 1.4670296907424927 0.49872714281082153
vt 1.081151008605957 0.0028011202812194824
vt 1.4670296907424927 0.0028011202812194824
vt 1.5370184183120728 0.020604610443115234
vt 1.5370184183120728 0.49872714281082153
vt 1.5370184183120728 0.0028011202812194824
vt -1.1368718147277832 0.49872714281082153
vt -0.9225256443023682 0.020604610443115234
vt -0.9225256443023682 0.49872714281082153
vt -1.1368718147277832 0.020604610443115234
vt -1.1368716955184937 0.0028011202812194824
vt -0.9225256443023682 0.0028011202812194824
vt -1.1524806022644043 0.020733773708343506
vt -1.1555105447769165 0.0028011202812194824
vt -0.8270198106765747 0.49872714281082153
vt -0.8270198106765747 0.0028011202812194824
vt -0.8270198106765747 0.020604610443115234
vt -1.1524806022644043 0.020733773708343506
vt -1.1703819036483765 0.0028011202812194824
vt -1.1655054092407227 0.020686745643615723
vt -1.373173475265503 0.0028011202812194824
vt -1.373173475265503 0.020604610443115234
vt -1.1716114282608032 0.4990084767341614
vt -1.373173475265503 0.49872714281082153
vt -1.155510663986206 0.49872714281082153
vt -0.7976517677307129 0.0028011202812194824
vt -0.8270198106765747 0.020604610443115234
vt -0.8077585101127625 0.021503210067749023
vt -0.6837610006332397 0.0028011202812194824
vt -0.6837610602378845 0.020604610443115234
vt -0.6748198866844177 0.49878114461898804
vt -0.8068077564239502 0.49869489669799805
vt -0.6622722148895264 0.0028011202812194824
vt -0.6837610602378845 0.020604610443115234
vt -0.6622722148895264 0.020604610443115234
vt -0.659988522529602 0.49868160486221313
vt -0.6427174210548401 0.0028011202812194824
vt -0.6622722148895264 0.020604610443115234
vt -0.6427173614501953 0.020604610443115234
vt -0.4449964165687561 0.0028011202812194824
vt -0.4449964165687561 0.020604610443115234
vt -0.6396613121032715 0.4988256096839905
vt -0.4449964165687561 0.49872714281082153
vt -0.37819910049438477 0.020604610443115234
vt -0.37819910049438477 0.49872714281082153
vt -0.33568209409713745 0.49872714281082153
vt -0.33568209409713745 0.020604610443115234
vt -0.37819910049438477 0.0028011202812194824
vt -0.31691214442253113 0.49866610765457153
vt -0.315773069858551 0.020881295204162598
vt -0.33568209409713745 0.0028011202812194824
vt -0.30850157141685486 0.0028011202812194824
vt -0.16495876014232635 0.49878013134002686
vt -0.16252204775810242 0.020877063274383545
vt -0.1710587441921234 0.0028011202812194824
vt -0.1497970074415207 0.49872714281082153
vt -0.1497970074415207 0.0028011202812194824
vt -0.14979702234268188 0.020604610443115234
vt -0.1497970074415207 0.49872714281082153
vt -0.12853527069091797 0.0028011202812194824
vt -0.12853528559207916 0.020604610443115234
vt 0.026724860072135925 0.0028011202812194824
vt 0.026724860072135925 0.020604610443115234
vt 0.103960782289505 0.0028011202812194824
vt 0.103960782289505 0.020604610443115234
vt 0.029360037297010422 0.49877434968948364
vt 0.103960782289505 0.49872714281082153
vt -0.12853527069091797 0.49872714281082153
vt -0.1497970074415207 0.49872714281082153
vt 0.1703949123620987 0.4987999200820923
vt 0.17415043711662292 0.020604610443115234
vt 0.17415043711662292 0.0028011202812194824
vt 0.18449537456035614 0.49868857860565186
vt 0.18945631384849548 0.020604610443115234
vt 0.18945631384849548 0.0028011202812194824
vt 0.3277788460254669 0.49875903129577637
vt 0.32179591059684753 0.020174026489257812
vt 0.3351988196372986 0.020604610443115234
vt 0.32179591059684753 0.020174026489257812
vt 0.3351988196372986 0.49872714281082153
vt -0.6837610602378845 0.020604610443115234
vt -0.659988522529602 0.49868160486221313
vt -0.6748198866844177 0.49878114461898804
vt -0.6622722148895264 0.020604610443115234
vt -0.659988522529602 0.49868160486221313
vt -1.1524806022644043 0.020733773708343506
vt -1.155510663986206 0.49872714281082153
vt -0.8270198106765747 0.49872714281082153
vt -0.8270198106765747 0.020604610443115234
vt -0.8270198106765747 0.49872714281082153
vt 0.32179591059684753 0.020174026489257812
vt 0.3351988196372986 0.49872714281082153
vt 0.3277788460254669 0.49875903129577637
vt 0.3351988196372986 0.020604610443115234
vt 0.3351988196372986 0.49872714281082153

g bg_mdl_bt_2x1_100a
s 1
usemtl bg_mdl_bt_2x1_100a_0
f 3/3/3 2/2/2 1/1/1 
f 2/2/2 4/4/4 1/1/1 
f 4/4/4 5/5/5 1/1/1 
f 5/5/5 6/6/6 1/1/1 
f 5/5/5 4/4/4 7/7/7 
f 8/8/8 5/5/5 7/7/7 
f 9/9/9 8/8/8 7/7/7 
f 4/4/4 10/10/10 7/7/7 
f 11/11/11 4/4/4 2/2/2 
f 12/12/12 11/11/11 2/2/2 
f 13/13/13 12/12/12 2/2/2 
f 9/9/9 7/7/7 14/14/14 
f 9/9/9 14/14/14 8/8/8 
f 15/15/15 14/14/14 7/7/7 
f 16/16/16 5/5/5 8/8/8 
f 17/17/17 16/16/16 8/8/8 
f 18/18/18 17/17/17 8/8/8 
f 19/19/19 18/18/18 8/8/8 
f 19/19/19 8/8/8 14/14/14 
f 4/4/4 11/11/11 20/20/20 
f 10/10/10 21/21/21 7/7/7 
f 15/15/15 7/7/7 21/21/21 
f 21/21/21 20/20/20 22/22/22 
f 22/22/22 20/20/20 23/23/23 
f 23/23/23 20/20/20 24/24/24 
f 5/5/5 16/16/16 25/25/25 
f 6/6/6 5/5/5 25/25/25 
f 26/26/26 6/6/6 25/25/25 
f 27/27/27 6/6/6 26/26/26 
f 28/28/28 6/6/6 27/27/27 
f 6/6/6 28/28/28 1/1/1 
f 29/29/29 1/1/1 28/28/28 
f 29/29/29 30/30/30 1/1/1 
f 30/30/30 31/31/31 1/1/1 
f 31/31/31 32/32/32 1/1/1 
f 32/32/32 33/33/33 1/1/1 
f 33/33/33 34/34/34 1/1/1 
f 34/34/34 35/35/35 1/1/1 
f 35/35/35 3/3/3 1/1/1 
f 3/3/3 35/35/35 2/2/2 
f 36/36/36 2/2/2 35/35/35 
f 36/36/36 37/37/37 2/2/2 
f 39/39/39 38/38/38 2/2/2 
f 38/38/38 40/40/40 2/2/2 
f 43/43/43 42/42/42 41/41/41 
f 46/46/46 45/45/45 44/44/44 
f 49/49/49 48/48/48 47/47/47 
f 51/51/51 50/50/50 47/47/47 
f 54/54/54 53/53/53 52/52/52 
f 57/57/57 56/56/56 55/55/55 
f 56/56/56 58/58/58 55/55/55 

usemtl bg_mdl_bt_2x1_100a_1
f 61/61/61 60/60/60 59/59/59 
f 62/62/62 59/59/59 60/60/60 
f 62/62/62 60/60/60 63/63/63 
f 64/64/64 63/63/63 60/60/60 
f 62/62/62 65/65/65 59/59/59 
f 63/63/63 66/66/66 62/62/62 
f 66/66/66 67/67/67 65/65/65 
f 65/65/65 62/62/62 68/68/68 
f 61/61/61 69/69/69 60/60/60 
f 70/70/70 60/60/60 69/69/69 
f 70/70/70 71/71/71 60/60/60 
f 64/64/64 60/60/60 71/71/71 
f 69/69/69 72/72/72 70/70/70 
f 71/71/71 70/70/70 73/73/73 
f 74/74/74 73/73/73 70/70/70 
f 74/74/74 70/70/70 75/75/75 
f 73/73/73 74/74/74 76/76/76 
f 77/77/77 76/76/76 74/74/74 
f 77/77/77 74/74/74 78/78/78 
f 79/79/79 78/78/78 74/74/74 
f 78/78/78 80/80/80 77/77/77 
f 81/81/81 77/77/77 80/80/80 
f 81/81/81 82/82/82 77/77/77 
f 76/76/76 77/77/77 82/82/82 
f 80/80/80 83/83/83 81/81/81 
f 84/84/84 81/81/81 83/83/83 
f 84/84/84 83/83/83 85/85/85 
f 86/86/86 85/85/85 83/83/83 
f 85/85/85 87/87/87 84/84/84 
f 88/88/88 84/84/84 87/87/87 
f 84/84/84 88/88/88 81/81/81 
f 82/82/82 81/81/81 88/88/88 
f 85/85/85 86/86/86 89/89/89 
f 90/90/90 89/89/89 86/86/86 
f 89/89/89 90/90/90 91/91/91 
f 92/92/92 91/91/91 90/90/90 
f 89/89/89 91/91/91 93/93/93 
f 87/87/87 85/85/85 93/93/93 
f 89/89/89 93/93/93 85/85/85 
f 94/94/94 93/93/93 91/91/91 
f 91/91/91 92/92/92 95/95/95 
f 96/96/96 95/95/95 92/92/92 
f 94/94/94 91/91/91 97/97/97 
f 95/95/95 97/97/97 91/91/91 
f 100/100/100 99/99/99 98/98/98 
f 101/101/101 98/98/98 99/99/99 
f 101/101/101 99/99/99 102/102/102 
f 103/103/103 102/102/102 99/99/99 
f 101/101/101 104/104/104 98/98/98 
f 102/102/102 105/105/105 101/101/101 
f 104/104/104 101/101/101 105/105/105 
f 100/100/100 106/106/106 99/99/99 
f 103/103/103 99/99/99 107/107/107 
f 108/108/108 107/107/107 99/99/99 
f 105/105/105 110/110/110 109/109/109 
f 111/111/111 109/109/109 110/110/110 
f 110/110/110 112/112/112 111/111/111 
f 113/113/113 111/111/111 112/112/112 
f 111/111/111 113/113/113 114/114/114 
f 115/115/115 114/114/114 113/113/113 
f 109/109/109 111/111/111 116/116/116 
f 114/114/114 116/116/116 111/111/111 
f 107/107/107 118/118/118 117/117/117 
f 119/119/119 117/117/117 118/118/118 
f 117/117/117 119/119/119 120/120/120 
f 121/121/121 120/120/120 119/119/119 
f 121/121/121 119/119/119 122/122/122 
f 123/123/123 122/122/122 119/119/119 
f 119/119/119 118/118/118 123/123/123 
f 120/120/120 125/125/125 124/124/124 
f 126/126/126 124/124/124 125/125/125 
f 126/126/126 125/125/125 127/127/127 
f 124/124/124 129/129/129 128/128/128 
f 130/130/130 128/128/128 129/129/129 
f 128/128/128 130/130/130 131/131/131 
f 132/132/132 131/131/131 130/130/130 
f 130/130/130 133/133/133 132/132/132 
f 130/130/130 129/129/129 133/133/133 
f 134/134/134 132/132/132 133/133/133 
f 132/132/132 134/134/134 135/135/135 
f 136/136/136 135/135/135 134/134/134 
f 136/136/136 137/137/137 135/135/135 
f 138/138/138 135/135/135 137/137/137 
f 131/131/131 132/132/132 139/139/139 
f 135/135/135 139/139/139 132/132/132 
f 135/135/135 138/138/138 139/139/139 
f 137/137/137 140/140/140 138/138/138 
f 141/141/141 138/138/138 140/140/140 
f 142/142/142 139/139/139 138/138/138 
f 138/138/138 141/141/141 142/142/142 
f 143/143/143 142/142/142 141/141/141 
f 140/140/140 144/144/144 141/141/141 
f 145/145/145 141/141/141 144/144/144 
f 141/141/141 145/145/145 143/143/143 
f 146/146/146 143/143/143 145/145/145 
f 144/144/144 147/147/147 145/145/145 
f 146/146/146 145/145/145 148/148/148 
f 149/149/149 148/148/148 145/145/145 
f 149/149/149 145/145/145 150/150/150 
f 148/148/148 149/149/149 151/151/151 
f 152/152/152 151/151/151 149/149/149 
f 151/151/151 152/152/152 153/153/153 
f 154/154/154 153/153/153 152/152/152 
f 153/153/153 154/154/154 155/155/155 
f 156/156/156 155/155/155 154/154/154 
f 154/154/154 157/157/157 156/156/156 
f 154/154/154 152/152/152 157/157/157 
f 158/158/158 156/156/156 157/157/157 
f 159/159/159 157/157/157 152/152/152 
f 152/152/152 149/149/149 159/159/159 
f 160/160/160 159/159/159 149/149/149 
f 158/158/158 161/161/161 156/156/156 
f 162/162/162 156/156/156 161/161/161 
f 156/156/156 162/162/162 155/155/155 
f 163/163/163 155/155/155 162/162/162 
f 161/161/161 164/164/164 162/162/162 
f 165/165/165 162/162/162 164/164/164 
f 162/162/162 165/165/165 163/163/163 
f 166/166/166 163/163/163 165/165/165 
f 164/164/164 167/167/167 165/165/165 
f 168/168/168 165/165/165 167/167/167 
f 165/165/165 168/168/168 166/166/166 
f 67/67/67 166/166/166 168/168/168 
f 170/170/170 169/169/169 67/67/67 
f 169/169/169 170/170/170 171/171/171 
f 174/174/174 173/173/173 172/172/172 
f 176/176/176 133/133/133 175/175/175 
f 178/178/178 98/98/98 177/177/177 
f 118/118/118 99/99/99 179/179/179 
f 181/181/181 123/123/123 180/180/180 
f 184/184/184 183/183/183 182/182/182 
f 186/186/186 59/59/59 185/185/185 

