v 2.036923885345459 -6.0 0.4999980926513672
v 3.0 -5.0 0.4999980926513672
v 3.0 -6.0 0.4999980926513672
v 1.9931445121765137 -5.5 0.4999980926513672
v 2.036923885345459 -5.0 0.4999980926513672
v 4.0 -5.0 0.4999980926513672
v 4.0 -6.0 0.4999980926513672
v 5.0 -5.0 0.4999980926513672
v 5.0 -6.0 0.4999980926513672
v 6.0 -5.0 0.4999980926513672
v 6.0 -6.0 0.4999980926513672
v 3.0 -4.0 0.4999980926513672
v 1.952907681465149 -4.5 0.4999980926513672
v 2.036923885345459 -4.0 0.4999980926513672
v 4.0 -4.0 0.4999980926513672
v 5.0 -4.0 0.4999980926513672
v 6.0 -4.0 0.4999980926513672
v 3.0 -3.0 0.4999980926513672
v 2.036923885345459 -3.5 0.4999980926513672
v 2.036923885345459 -2.9813573360443115 0.4999980926513672
v 4.0 -3.0 0.4999980926513672
v 5.0 -3.0 0.4999980926513672
v 6.0 -3.0 0.4999980926513672
v 3.0 -2.0 0.4999980926513672
v 2.0 -2.0 0.4999980926513672
v 4.0 -2.0 0.4999980926513672
v 5.0 -2.0 0.4999980926513672
v 6.0 -2.0 0.4999980926513672
v 0.5 -2.9879443645477295 0.4999980926513672
v 1.0 -2.0 0.4999980926513672
v 1.0 -2.9331250190734863 0.4999980926513672
v 0.06458496302366257 -2.9085044860839844 0.4999980926513672
v 0.01494628842920065 -2.5 0.4999980926513672
v 0.06458496302366257 -1.940371036529541 0.4999980926513672
v 1.5 -2.899238109588623 0.4999980926513672
v 1.0 -1.0 0.4999980926513672
v -0.0 -1.0 0.4999980926513672
v -0.5 -1.882698893547058 0.4999980926513672
v -1.0 -1.940371036529541 0.4999980926513672
v -1.0 -1.0 0.4999980926513672
v -1.5 -1.940371036529541 0.4999980926513672
v -1.9124997854232788 -1.8794432878494263 0.4999980926513672
v -1.9599168300628662 -1.8739843368530273 0.4999980926513672
v -1.9682468175888062 -1.8390722274780273 0.4999980926513672
v -2.029853343963623 -1.0 0.4999980926513672
v -1.0 0.0 0.4999980926513672
v -1.974407434463501 -0.09999999403953552 0.4999980926513672
v -0.0 0.0 0.4999980926513672
v 1.0 0.0 0.4999980926513672
v 2.0 0.0 0.4999980926513672
v 2.0 -1.0 0.4999980926513672
v 3.0 -1.0 0.4999980926513672
v 4.0 -1.0 0.4999980926513672
v 5.0 -1.0 0.4999980926513672
v 6.0 -1.0 0.4999980926513672
v 3.0 0.0 0.4999980926513672
v 1.0 1.0 0.4999980926513672
v 2.0 1.0 0.4999980926513672
v 2.0 2.0 0.4999980926513672
v 1.0 2.0 0.4999980926513672
v -0.0 1.0 0.4999980926513672
v -1.0 1.0 0.4999980926513672
v -2.0861618518829346 0.03934570401906967 0.4999980926513672
v -1.999999761581421 1.0 0.4999980926513672
v -3.0 0.03934570401906967 0.4999980926513672
v -3.0 1.0 0.4999980926513672
v -4.0 -0.027421874925494194 0.4999980926513672
v -4.0 1.0 0.4999980926513672
v -5.0 0.03934570401906967 0.4999980926513672
v -5.0 1.0 0.4999980926513672
v -6.0 0.03934570401906967 0.4999980926513672
v -6.0 1.0 0.4999980926513672
v -5.0 2.0 0.4999980926513672
v -6.0 2.0 0.4999980926513672
v -4.0 2.0 0.4999980926513672
v -3.0 2.0 0.4999980926513672
v -1.999999761581421 2.0 0.4999980926513672
v -1.0 2.0 0.4999980926513672
v -0.0 2.0 0.4999980926513672
v 7.0 -6.0 0.4999980926513672
v 7.0 -5.0 0.4999980926513672
v 7.0 -4.0 0.4999980926513672
v 6.0 -7.0 0.4999980926513672
v 5.0 -7.0 0.4999980926513672
v 4.0 -7.0 0.4999980926513672
v 3.0 -7.0 0.4999980926513672
v 2.036923885345459 -7.0 0.4999980926513672
v 2.069096565246582 -6.5 0.4999980926513672
v 7.0 -7.0 0.4999980926513672
v 6.999999046325684 -3.0 0.4999980926513672
v 6.999999046325684 -2.0 0.4999980926513672
v 6.999999046325684 -1.0 0.4999980926513672
v 1.9562206268310547 -5.5 0.0
v 2.0 -5.0 0.43249833583831787
v 1.9562206268310547 -5.5 0.43249833583831787
v 2.0 -5.0 0.0
v -5.0 0.0 0.0
v -6.0 0.0 0.43249833583831787
v -5.0 0.0 0.43249833583831787
v -6.0 0.0 0.0
v -4.0 -0.06676757335662842 0.0
v -5.0 0.0 0.43249833583831787
v -4.0 -0.06676757335662842 0.43249833583831787
v -5.0 0.0 0.0
v -3.0 0.0 0.0
v -4.0 -0.06676757335662842 0.43249833583831787
v -3.0 0.0 0.43249833583831787
v -4.0 -0.06676757335662842 0.0
v -2.0861620903015137 0.0 0.0
v -3.0 0.0 0.43249833583831787
v -2.0861618518829346 0.0 0.43249833583831787
v -3.0 0.0 0.0
v -2.0061604976654053 -0.09999999403953552 0.0
v -2.0861618518829346 0.0 0.43249833583831787
v -2.0061604976654053 -0.09999999403953552 0.43249833583831787
v -2.0861620903015137 0.0 0.0
v -2.0 -1.8390722274780273 0.0
v -2.0616061687469482 -1.0 0.43249833583831787
v -1.999999761581421 -1.8390722274780273 0.43249833583831787
v -2.0616064071655273 -1.0 0.0
v -1.9124999046325684 -1.9390722513198853 0.0
v -1.9776170253753662 -1.9085497856140137 0.43249833583831787
v -1.9124997854232788 -1.9390722513198853 0.43249833583831787
v -1.9776171445846558 -1.9085497856140137 0.0
v -0.5 -1.942327857017517 0.0
v -1.0 -2.0 0.43249833583831787
v -0.5 -1.942327857017517 0.43249833583831787
v -1.0 -2.0 0.0
v -0.049638669937849045 -2.5 0.0
v -0.0 -2.0 0.43249833583831787
v -0.049638669937849045 -2.5 0.43249833583831787
v -0.0 -2.0 0.0
v 0.5 -3.054819345474243 0.0
v -0.0 -2.975379467010498 0.43249833583831787
v 0.5 -3.054819345474243 0.43249833583831787
v -0.0 -2.975379467010498 0.0
v 1.5 -2.966113328933716 0.0
v 1.0 -3.0 0.43249833583831787
v 1.5 -2.966113328933716 0.43249833583831787
v 1.0 -3.0 0.0
v 0.5 -3.054819345474243 0.43249833583831787
v 0.5 -3.054819345474243 0.0
v 2.0 -3.5 0.0
v 2.0 -3.048232316970825 0.43249833583831787
v 2.0 -3.5 0.43249833583831787
v 2.0 -3.048232316970825 0.0
v 2.0 -4.0 0.0
v 2.0 -4.0 0.43249833583831787
v 1.91598379611969 -4.5 0.0
v 2.0 -4.0 0.43249833583831787
v 1.91598379611969 -4.5 0.43249833583831787
v 2.0 -4.0 0.0
v 2.0 -6.0 0.43249833583831787
v 2.069096565246582 -6.5 0.4999980926513672
v 2.032172918319702 -6.5 0.43249833583831787
v 2.036923885345459 -6.0 0.4999980926513672
v 1.9562206268310547 -5.5 0.43249833583831787
v 1.9931445121765137 -5.5 0.4999980926513672
v 2.0 -5.0 0.0
v 1.91598379611969 -4.5 0.43249833583831787
v 2.0 -5.0 0.43249833583831787
v 1.91598379611969 -4.5 0.0
v 2.0 -6.0 0.0
v 1.9562206268310547 -5.5 0.43249833583831787
v 2.0 -6.0 0.43249833583831787
v 1.9562206268310547 -5.5 0.0
v 2.032172918319702 -6.5 0.43249833583831787
v 2.032172918319702 -6.5 0.0
v 2.0 -7.0 0.0
v 2.032172918319702 -6.5 0.43249833583831787
v 2.0 -7.0 0.43249833583831787
v 2.032172918319702 -6.5 0.0
v -1.0 -2.0 0.0
v -1.5 -2.0 0.43249833583831787
v -1.0 -2.0 0.43249833583831787
v -1.5 -2.0 0.0
v -0.0 -2.0 0.0
v -0.5 -1.942327857017517 0.43249833583831787
v -0.0 -2.0 0.43249833583831787
v -0.5 -1.942327857017517 0.0
v -0.0 -2.975379467010498 0.0
v -0.049638669937849045 -2.5 0.43249833583831787
v -0.0 -2.975379467010498 0.43249833583831787
v -0.049638669937849045 -2.5 0.0
v 2.0 -3.048232316970825 0.0
v 1.5 -2.966113328933716 0.43249833583831787
v 2.0 -3.048232316970825 0.43249833583831787
v 1.5 -2.966113328933716 0.0
v -1.9776171445846558 -1.9085497856140137 0.0
v -1.999999761581421 -1.8390722274780273 0.43249833583831787
v -1.9776170253753662 -1.9085497856140137 0.43249833583831787
v -2.0 -1.8390722274780273 0.0
v -1.5 -2.0 0.0
v -1.9124997854232788 -1.9390722513198853 0.43249833583831787
v -1.5 -2.0 0.43249833583831787
v -1.9124999046325684 -1.9390722513198853 0.0
v -2.0616064071655273 -1.0 0.0
v -2.0061604976654053 -0.09999999403953552 0.43249833583831787
v -2.0616061687469482 -1.0 0.43249833583831787
v -2.0061604976654053 -0.09999999403953552 0.0
v 1.9931445121765137 -5.5 0.4999980926513672
v 2.0 -5.0 0.43249833583831787
v 2.036923885345459 -5.0 0.4999980926513672
v 1.9562206268310547 -5.5 0.43249833583831787
v -5.0 0.03934570401906967 0.4999980926513672
v -6.0 0.0 0.43249833583831787
v -6.0 0.03934570401906967 0.4999980926513672
v -5.0 0.0 0.43249833583831787
v -4.0 -0.027421874925494194 0.4999980926513672
v -5.0 0.0 0.43249833583831787
v -5.0 0.03934570401906967 0.4999980926513672
v -4.0 -0.06676757335662842 0.43249833583831787
v -3.0 0.03934570401906967 0.4999980926513672
v -4.0 -0.06676757335662842 0.43249833583831787
v -4.0 -0.027421874925494194 0.4999980926513672
v -3.0 0.0 0.43249833583831787
v -2.0861618518829346 0.03934570401906967 0.4999980926513672
v -3.0 0.0 0.43249833583831787
v -3.0 0.03934570401906967 0.4999980926513672
v -2.0861618518829346 0.0 0.43249833583831787
v -1.974407434463501 -0.09999999403953552 0.4999980926513672
v -2.0861618518829346 0.0 0.43249833583831787
v -2.0861618518829346 0.03934570401906967 0.4999980926513672
v -2.0061604976654053 -0.09999999403953552 0.43249833583831787
v -1.9682468175888062 -1.8390722274780273 0.4999980926513672
v -2.0616061687469482 -1.0 0.43249833583831787
v -2.029853343963623 -1.0 0.4999980926513672
v -1.999999761581421 -1.8390722274780273 0.43249833583831787
v -1.9124997854232788 -1.8794432878494263 0.4999980926513672
v -1.9776170253753662 -1.9085497856140137 0.43249833583831787
v -1.9599168300628662 -1.8739843368530273 0.4999980926513672
v -1.9776170253753662 -1.9085497856140137 0.43249833583831787
v -1.9124997854232788 -1.8794432878494263 0.4999980926513672
v -1.9124997854232788 -1.9390722513198853 0.43249833583831787
v -0.5 -1.882698893547058 0.4999980926513672
v -1.0 -2.0 0.43249833583831787
v -1.0 -1.940371036529541 0.4999980926513672
v -0.5 -1.942327857017517 0.43249833583831787
v 0.01494628842920065 -2.5 0.4999980926513672
v -0.0 -2.0 0.43249833583831787
v 0.06458496302366257 -1.940371036529541 0.4999980926513672
v -0.049638669937849045 -2.5 0.43249833583831787
v 0.5 -2.9879443645477295 0.4999980926513672
v -0.0 -2.975379467010498 0.43249833583831787
v 0.06458496302366257 -2.9085044860839844 0.4999980926513672
v -0.0 -2.975379467010498 0.43249833583831787
v 0.5 -2.9879443645477295 0.4999980926513672
v 0.5 -3.054819345474243 0.43249833583831787
v 1.5 -2.899238109588623 0.4999980926513672
v 1.0 -3.0 0.43249833583831787
v 1.0 -2.9331250190734863 0.4999980926513672
v 1.5 -2.966113328933716 0.43249833583831787
v 0.5 -3.054819345474243 0.43249833583831787
v 0.5 -2.9879443645477295 0.4999980926513672
v 2.036923885345459 -3.5 0.4999980926513672
v 2.0 -3.048232316970825 0.43249833583831787
v 2.036923885345459 -2.9813573360443115 0.4999980926513672
v 2.0 -3.5 0.43249833583831787
v 2.036923885345459 -4.0 0.4999980926513672
v 2.0 -4.0 0.43249833583831787
v 1.952907681465149 -4.5 0.4999980926513672
v 2.0 -4.0 0.43249833583831787
v 2.036923885345459 -4.0 0.4999980926513672
v 1.91598379611969 -4.5 0.43249833583831787
v 2.036923885345459 -5.0 0.4999980926513672
v 1.91598379611969 -4.5 0.43249833583831787
v 1.952907681465149 -4.5 0.4999980926513672
v 2.0 -5.0 0.43249833583831787
v 2.036923885345459 -7.0 0.4999980926513672
v 2.032172918319702 -6.5 0.43249833583831787
v 2.069096565246582 -6.5 0.4999980926513672
v 2.0 -7.0 0.43249833583831787
v -1.0 -1.940371036529541 0.4999980926513672
v -1.5 -2.0 0.43249833583831787
v -1.5 -1.940371036529541 0.4999980926513672
v -1.0 -2.0 0.43249833583831787
v 0.06458496302366257 -1.940371036529541 0.4999980926513672
v -0.5 -1.942327857017517 0.43249833583831787
v -0.5 -1.882698893547058 0.4999980926513672
v -0.5 -1.942327857017517 0.43249833583831787
v 0.06458496302366257 -1.940371036529541 0.4999980926513672
v -0.0 -2.0 0.43249833583831787
v 0.06458496302366257 -2.9085044860839844 0.4999980926513672
v -0.049638669937849045 -2.5 0.43249833583831787
v 0.01494628842920065 -2.5 0.4999980926513672
v -0.049638669937849045 -2.5 0.43249833583831787
v 0.06458496302366257 -2.9085044860839844 0.4999980926513672
v -0.0 -2.975379467010498 0.43249833583831787
v 2.036923885345459 -2.9813573360443115 0.4999980926513672
v 1.5 -2.966113328933716 0.43249833583831787
v 1.5 -2.899238109588623 0.4999980926513672
v 2.0 -3.048232316970825 0.43249833583831787
v -1.9599168300628662 -1.8739843368530273 0.4999980926513672
v -1.999999761581421 -1.8390722274780273 0.43249833583831787
v -1.9682468175888062 -1.8390722274780273 0.4999980926513672
v -1.999999761581421 -1.8390722274780273 0.43249833583831787
v -1.9599168300628662 -1.8739843368530273 0.4999980926513672
v -1.9776170253753662 -1.9085497856140137 0.43249833583831787
v -1.5 -1.940371036529541 0.4999980926513672
v -1.9124997854232788 -1.9390722513198853 0.43249833583831787
v -1.9124997854232788 -1.8794432878494263 0.4999980926513672
v -1.5 -2.0 0.43249833583831787
v -2.029853343963623 -1.0 0.4999980926513672
v -2.0061604976654053 -0.09999999403953552 0.43249833583831787
v -1.974407434463501 -0.09999999403953552 0.4999980926513672
v -2.0616061687469482 -1.0 0.43249833583831787
vn -0.0 0.0 1.0
vn -0.0 0.0 1.0
vn -0.0 0.0 1.0
vn -0.0 0.0 1.0
vn -0.0 0.0 1.0
vn -0.0 0.0 1.0
vn -0.0 0.0 1.0
vn -0.0 0.0 1.0
vn -0.0 0.0 1.0
vn -0.0 0.0 1.0
vn -0.0 0.0 1.0
vn -0.0 0.0 1.0
vn -0.0 0.0 1.0
vn -0.0 0.0 1.0
vn -0.0 0.0 1.0
vn -0.0 0.0 1.0
vn -0.0 0.0 1.0
vn -0.0 0.0 1.0
vn -0.0 0.0 1.0
vn -0.0 0.0 1.0
vn -0.0 0.0 1.0
vn -0.0 0.0 1.0
vn -0.0 0.0 1.0
vn -0.0 0.0 1.0
vn -0.0 0.0 1.0
vn -0.0 0.0 1.0
vn -0.0 0.0 1.0
vn -0.0 0.0 1.0
vn -0.0 0.0 1.0
vn -0.0 0.0 1.0
vn -0.0 0.0 1.0
vn -0.0 0.0 1.0
vn -0.0 0.0 1.0
vn -0.0 0.0 1.0
vn -0.0 0.0 1.0
vn -0.0 0.0 1.0
vn -0.0 0.0 1.0
vn -0.0 0.0 1.0
vn -0.0 0.0 1.0
vn -0.0 0.0 1.0
vn -0.0 0.0 1.0
vn -0.0 0.0 1.0
vn -0.0 0.0 1.0
vn -0.0 0.0 1.0
vn -0.0 0.0 1.0
vn -0.0 0.0 1.0
vn -0.0 0.0 1.0
vn -0.0 0.0 1.0
vn -0.0 0.0 1.0
vn -0.0 0.0 1.0
vn -0.0 0.0 1.0
vn -0.0 0.0 1.0
vn -0.0 0.0 1.0
vn -0.0 0.0 1.0
vn -0.0 0.0 1.0
vn -0.0 0.0 1.0
vn -0.0 0.0 1.0
vn -0.0 0.0 1.0
vn -0.0 0.0 1.0
vn -0.0 0.0 1.0
vn -0.0 0.0 1.0
vn -0.0 0.0 1.0
vn -0.0 0.0 1.0
vn -0.0 0.0 1.0
vn -0.0 0.0 1.0
vn -0.0 0.0 1.0
vn -0.0 0.0 1.0
vn -0.0 0.0 1.0
vn -0.0 0.0 1.0
vn -0.0 0.0 1.0
vn -0.0 0.0 1.0
vn -0.0 0.0 1.0
vn -0.0 0.0 1.0
vn -0.0 0.0 1.0
vn -0.0 0.0 1.0
vn -0.0 0.0 1.0
vn -0.0 0.0 1.0
vn -0.0 0.0 1.0
vn -0.0 0.0 1.0
vn -0.0 0.0 1.0
vn -0.0 0.0 1.0
vn -0.0 0.0 1.0
vn -0.0 0.0 1.0
vn -0.0 0.0 1.0
vn -0.0 0.0 1.0
vn -0.0 0.0 1.0
vn -0.0 0.0 1.0
vn -0.0 0.0 1.0
vn -0.0 0.0 1.0
vn -0.0 0.0 1.0
vn -0.0 0.0 1.0
vn -0.0 0.0 1.0
vn -0.9961887001991272 0.08722488582134247 0.0
vn -0.9961887001991272 0.08722488582134247 0.0
vn -0.9961887001991272 0.08722487837076187 0.0
vn -0.9961887001991272 0.08722487837076187 0.0
vn -0.0 -1.0 0.0
vn -0.0 -1.0 0.0
vn -0.0 -1.0 0.0
vn -0.0 -1.0 0.0
vn -0.06661925464868546 -0.9977784752845764 0.0
vn -0.06661925464868546 -0.9977784752845764 0.0
vn -0.06661925464868546 -0.9977784752845764 0.0
vn -0.06661925464868546 -0.9977784752845764 0.0
vn 0.06661925464868546 -0.9977784752845764 0.0
vn 0.06661925464868546 -0.9977784752845764 0.0
vn 0.06661925464868546 -0.9977784752845764 0.0
vn 0.06661925464868546 -0.9977784752845764 0.0
vn -0.0 -1.0 0.0
vn -0.0 -1.0 0.0
vn -0.0 -1.0 0.0
vn -0.0 -1.0 0.0
vn -0.7808629870414734 -0.6247023344039917 2.7549293690753984e-07
vn -0.7808629870414734 -0.6247023344039917 2.7549293690753984e-07
vn -0.7808629870414734 -0.6247023344039917 2.7549293690753984e-07
vn -0.7808629870414734 -0.6247023344039917 2.7549293690753984e-07
vn -0.9973154664039612 -0.0732249990105629 3.518586026984849e-07
vn -0.9973154664039612 -0.0732249990105629 3.518586026984849e-07
vn -0.9973154664039612 -0.0732249915599823 3.518586026984849e-07
vn -0.9973154664039612 -0.0732249915599823 3.518586026984849e-07
vn -0.42441996932029724 -0.9054654836654663 1.4973777240356867e-07
vn -0.42441996932029724 -0.9054654836654663 1.497378008252781e-07
vn -0.42441996932029724 -0.9054654836654663 1.497378008252781e-07
vn -0.42441996932029724 -0.9054654836654663 1.497378008252781e-07
vn 0.11458452045917511 -0.993413507938385 0.0
vn 0.1145845279097557 -0.993413507938385 0.0
vn 0.1145845279097557 -0.993413507938385 0.0
vn 0.1145845279097557 -0.993413507938385 0.0
vn -0.9951080679893494 0.0987916961312294 0.0
vn -0.9951080679893494 0.0987916961312294 0.0
vn -0.9951080679893494 0.0987916961312294 0.0
vn -0.9951080679893494 0.0987916961312294 0.0
vn -0.15691132843494415 -0.9876126646995544 0.0
vn -0.15691131353378296 -0.9876126646995544 0.0
vn -0.15691131353378296 -0.9876126646995544 0.0
vn -0.15691131353378296 -0.9876126646995544 0.0
vn 0.06761833280324936 -0.9977113008499146 0.0
vn 0.06761833280324936 -0.9977113008499146 0.0
vn 0.06761833280324936 -0.9977113008499146 0.0
vn 0.06761833280324936 -0.9977113008499146 0.0
vn 0.10898560285568237 -0.9940434098243713 0.0
vn 0.10898560285568237 -0.9940434098243713 0.0
vn -1.0 0.0 0.0
vn -1.0 0.0 0.0
vn -1.0 0.0 0.0
vn -1.0 0.0 0.0
vn -1.0 0.0 0.0
vn -1.0 0.0 0.0
vn -0.9861747026443481 0.16570912301540375 0.0
vn -0.9861747026443481 0.16570913791656494 0.0
vn -0.9861747026443481 0.16570915281772614 0.0
vn -0.9861747026443481 0.16570915281772614 0.0
vn -0.8759223222732544 -0.0563618429005146 0.4791487157344818
vn -0.8759223222732544 -0.056361835449934006 0.47914865612983704
vn -0.8759223222732544 -0.056361835449934006 0.47914865612983704
vn -0.8759223222732544 -0.056361835449934006 0.47914865612983704
vn -0.8747398257255554 -0.07659099996089935 0.4785017967224121
vn -0.8747398257255554 -0.07659099251031876 0.4785017967224121
vn -0.9861747026443481 -0.16570912301540375 0.0
vn -0.9861747026443481 -0.16570913791656494 0.0
vn -0.9861747026443481 -0.16570915281772614 0.0
vn -0.9861747026443481 -0.16570915281772614 0.0
vn -0.9961887001991272 -0.08722488582134247 0.0
vn -0.9961887001991272 -0.08722488582134247 0.0
vn -0.9961887001991272 -0.08722487837076187 0.0
vn -0.9961887001991272 -0.08722487837076187 0.0
vn -0.9979362487792969 -0.06421291828155518 0.0
vn -0.9979362487792969 -0.06421291828155518 0.0
vn -0.9979362487792969 0.06421291828155518 0.0
vn -0.9979362487792969 0.06421291083097458 0.0
vn -0.9979362487792969 0.06421291828155518 0.0
vn -0.9979362487792969 0.06421291828155518 0.0
vn -0.0 -1.0 0.0
vn -0.0 -1.0 0.0
vn -0.0 -1.0 0.0
vn -0.0 -1.0 0.0
vn -0.11458452045917511 -0.993413507938385 0.0
vn -0.1145845279097557 -0.993413507938385 0.0
vn -0.1145845279097557 -0.993413507938385 0.0
vn -0.1145845279097557 -0.993413507938385 0.0
vn -0.9945924878120422 -0.10385436564683914 0.0
vn -0.9945924878120422 -0.10385436564683914 0.0
vn -0.9945924878120422 -0.10385437309741974 0.0
vn -0.9945924878120422 -0.10385437309741974 0.0
vn -0.1620670109987259 -0.9867798089981079 0.0
vn -0.1620670109987259 -0.9867798089981079 0.0
vn -0.16206704080104828 -0.9867798089981079 0.0
vn -0.16206704080104828 -0.9867798089981079 0.0
vn -0.9518258571624756 -0.3066392242908478 3.358095739258715e-07
vn -0.9518258571624756 -0.3066391944885254 3.358095739258715e-07
vn -0.9518258571624756 -0.3066392242908478 3.358095739258715e-07
vn -0.9518258571624756 -0.3066392242908478 3.358095739258715e-07
vn -0.14611834287643433 -0.989267110824585 0.0
vn -0.14611835777759552 -0.989267110824585 0.0
vn -0.14611835777759552 -0.989267110824585 0.0
vn -0.14611831307411194 -0.989267110824585 0.0
vn -0.9981076717376709 0.06148992478847504 3.5213804494560463e-07
vn -0.9981076717376709 0.06148992478847504 3.5213804494560463e-07
vn -0.9981076717376709 0.06148993596434593 3.5213804494560463e-07
vn -0.9981076717376709 0.06148993596434593 3.5213804494560463e-07
vn -0.874739944934845 0.07659099996089935 0.4785018265247345
vn -0.874739944934845 0.07659099996089935 0.4785018265247345
vn -0.8747398257255554 0.07659099251031876 0.4785017967224121
vn -0.8747398257255554 0.07659099251031876 0.4785017967224121
vn -0.0 -0.8639411926269531 0.5035927295684814
vn -0.0 -0.8639411926269531 0.5035927295684814
vn -0.0 -0.8639411926269531 0.5035927295684814
vn -0.0 -0.8639411926269531 0.5035927295684814
vn -0.05758753791451454 -0.8625074625015259 0.5027569532394409
vn -0.057587530463933945 -0.8625074625015259 0.5027569532394409
vn -0.057587530463933945 -0.8625074625015259 0.5027569532394409
vn -0.057587530463933945 -0.8625074625015259 0.5027569532394409
vn 0.057587530463933945 -0.8625074625015259 0.5027569532394409
vn 0.057587530463933945 -0.8625074625015259 0.5027569532394409
vn 0.05758753791451454 -0.8625074625015259 0.5027569532394409
vn 0.05758753791451454 -0.8625074625015259 0.5027569532394409
vn -0.0 -0.8639412522315979 0.5035926699638367
vn -0.0 -0.8639411926269531 0.5035927295684814
vn -0.0 -0.8639411926269531 0.5035927295684814
vn -0.0 -0.8639411926269531 0.5035927295684814
vn -0.732893705368042 -0.5877765417098999 0.34261590242385864
vn -0.732893705368042 -0.5877765417098999 0.34261590242385864
vn -0.7328936457633972 -0.5877765417098999 0.34261593222618103
vn -0.732976496219635 -0.5863924026489258 0.3448036015033722
vn -0.9028884172439575 -0.06629196554422379 0.42473286390304565
vn -0.9028884172439575 -0.06629195809364319 0.4247328042984009
vn -0.9028884172439575 -0.06629196554422379 0.4247328042984009
vn -0.9028884172439575 -0.06629196554422379 0.4247328042984009
vn -0.10069040209054947 -0.8746014833450317 0.4742717146873474
vn -0.10069040209054947 -0.8746014833450317 0.4742717146873474
vn -0.10069040209054947 -0.8746014833450317 0.4742717146873474
vn -0.3314351439476013 -0.7070899605751038 0.6246395111083984
vn -0.3314351439476013 -0.7070899605751038 0.6246395111083984
vn -0.3314351439476013 -0.7070899605751038 0.6246395111083984
vn 0.08612358570098877 -0.7466657757759094 0.6596004962921143
vn 0.08612360060214996 -0.7466657757759094 0.659600555896759
vn 0.08612360060214996 -0.7466657757759094 0.659600555896759
vn 0.08612360060214996 -0.7466657757759094 0.659600555896759
vn -0.7496238350868225 0.06649108231067657 0.6585156917572021
vn -0.7496238350868225 0.06649108231067657 0.6585157513618469
vn -0.7496238350868225 0.06649108231067657 0.6585157513618469
vn -0.720683217048645 0.07154751569032669 0.6895626783370972
vn -0.1179838702082634 -0.646678626537323 0.7535824775695801
vn -0.1179838702082634 -0.646678626537323 0.7535824775695801
vn -0.1179838702082634 -0.646678626537323 0.7535824775695801
vn -0.11215371638536453 -0.7059047222137451 0.6993712782859802
vn -0.11215370893478394 -0.7059047222137451 0.6993712782859802
vn -0.11215371638536453 -0.7059046626091003 0.699371337890625
vn 0.048089638352394104 -0.7095646262168884 0.7029973864555359
vn 0.048089638352394104 -0.7095646262168884 0.7029973864555359
vn 0.04808963090181351 -0.7095646262168884 0.7029973864555359
vn 0.04808963090181351 -0.7095646262168884 0.7029973864555359
vn 0.07765068113803864 -0.7082416415214539 0.7016866207122803
vn 0.07765068113803864 -0.7082416415214539 0.7016866207122803
vn -0.8773168325424194 0.0 0.4799114763736725
vn -0.8773168325424194 0.0 0.4799114763736725
vn -0.8773168325424194 0.0 0.4799114763736725
vn -0.8773168325424194 0.0 0.47991153597831726
vn -0.8773168325424194 0.0 0.4799114763736725
vn -0.8773168325424194 0.0 0.4799114763736725
vn -0.8679366707801819 0.1458413153886795 0.47478029131889343
vn -0.8679366111755371 0.1458413302898407 0.47478029131889343
vn -0.8679366707801819 0.1458413302898407 0.47478029131889343
vn -0.8679366707801819 0.1458413302898407 0.47478029131889343
vn -0.8679366707801819 -0.1458413302898407 0.47478029131889343
vn -0.8679366111755371 -0.1458413302898407 0.47478029131889343
vn -0.8679366707801819 -0.1458413302898407 0.47478029131889343
vn -0.8679366707801819 -0.1458413302898407 0.47478029131889343
vn -0.8759223222732544 0.056361835449934006 0.47914865612983704
vn -0.8759223222732544 0.056361835449934006 0.47914865612983704
vn -0.8759223222732544 0.0563618429005146 0.47914865612983704
vn -0.8759223222732544 0.0563618429005146 0.47914865612983704
vn -0.0 -0.7494503259658813 0.662060558795929
vn -0.0 -0.7494503855705261 0.6620604395866394
vn -0.0 -0.7494503855705261 0.6620604395866394
vn -0.0 -0.7494503855705261 0.6620604395866394
vn -0.076332688331604 -0.7472637891769409 0.6601288318634033
vn -0.07633268088102341 -0.7472637891769409 0.6601287722587585
vn -0.07633268088102341 -0.7472637891769409 0.6601287722587585
vn -0.08154317736625671 -0.706954836845398 0.7025421857833862
vn -0.08154316991567612 -0.7069547772407532 0.702542245388031
vn -0.08154317736625671 -0.706954836845398 0.7025421857833862
vn -0.7197661399841309 -0.08746103197336197 0.6886851787567139
vn -0.7197661399841309 -0.08746103197336197 0.6886851787567139
vn -0.7197661995887756 -0.08746102452278137 0.6886851787567139
vn -0.6843736171722412 -0.07146161794662476 0.7256211638450623
vn -0.6843736171722412 -0.07146161794662476 0.7256211638450623
vn -0.6843736171722412 -0.07146161049604416 0.7256211638450623
vn -0.10801352560520172 -0.7062304019927979 0.6996939778327942
vn -0.10801352560520172 -0.7062303423881531 0.6996940970420837
vn -0.10801351070404053 -0.7062304019927979 0.6996940970420837
vn -0.11086452752351761 -0.6750224232673645 0.7294201254844666
vn -0.8844981789588928 -0.21104249358177185 0.4160817563533783
vn -0.8844981789588928 -0.21104249358177185 0.4160817563533783
vn -0.8844981789588928 -0.21104249358177185 0.4160817563533783
vn -0.881721556186676 -0.2840545177459717 0.3766697645187378
vn -0.881721556186676 -0.2840545177459717 0.3766697645187378
vn -0.881721556186676 -0.2840545177459717 0.3766697645187378
vn -0.11002450436353683 -0.7449004054069519 0.6580410599708557
vn -0.11002449691295624 -0.7449004054069519 0.6580410003662109
vn -0.11002450436353683 -0.7449004054069519 0.6580410003662109
vn -0.11002450436353683 -0.7449004054069519 0.6580410003662109
vn -0.9034761786460876 0.05566001683473587 0.42500925064086914
vn -0.9034761786460876 0.05566002056002617 0.4250093400478363
vn -0.9034761786460876 0.05566002056002617 0.4250093400478363
vn -0.9034761786460876 0.05566002056002617 0.4250093400478363
vt 1.030375361442566 0.9884201530367136
vt 0.775314450263977 0.7506058365106583
vt 1.030375599861145 0.7506058365106583
vt 0.9028450846672058 0.9992306469939649
vt 0.775314450263977 0.9884201530367136
vt 0.775314450263977 0.5036740303039551
vt 1.030375599861145 0.5036740303039551
vt 0.775314450263977 0.2567424774169922
vt 1.030375599861145 0.2567424774169922
vt 0.775314450263977 0.009810209274291992
vt 1.030375599861145 0.009810209274291992
vt 0.5202531814575195 0.7506058365106583
vt 0.6477837562561035 1.0091666225343943
vt 0.5202531814575195 0.9884201530367136
vt 0.5202531814575195 0.5036740303039551
vt 0.5202531814575195 0.2567424774169922
vt 0.5202531814575195 0.009810209274291992
vt 0.2651918828487396 0.7506058365106583
vt 0.3927224576473236 0.9884201530367136
vt 0.2604369819164276 0.9884201530367136
vt 0.2651918828487396 0.5036740303039551
vt 0.2651918828487396 0.2567424774169922
vt 0.2651918828487396 0.009810209274291992
vt 0.010130616836249828 0.7506058365106583
vt 0.010130616836249828 0.9975378750823438
vt 0.010130616836249828 0.5036740303039551
vt 0.010130616836249828 0.2567424774169922
vt 0.010130616836249828 0.009810209274291992
vt 0.2621168792247772 1.3679356575012207
vt 0.010130616836249828 1.244469791650772
vt 0.248134583234787 1.244469791650772
vt 0.24185487627983093 1.475453495979309
vt 0.1376611888408661 1.4877108335494995
vt -0.005078461952507496 1.475453495979309
vt 0.23949143290519714 1.1210038885474205
vt -0.24493065476417542 1.2444696724414825
vt -0.24493065476417542 1.4914015531539917
vt -0.0197884701192379 1.6148675680160522
vt -0.005078461952507496 1.7383334636688232
vt -0.24493065476417542 1.7383334636688232
vt -0.005078461952507496 1.8617993593215942
vt -0.02061876282095909 1.9636588096618652
vt -0.022011127322912216 1.9753678441047668
vt -0.030915822833776474 1.977424681186676
vt -0.24493065476417542 1.9926373958587646
vt -0.49999192357063293 1.7383334636688232
vt -0.474485844373703 1.978945791721344
vt -0.4999917447566986 1.4914015531539917
vt -0.4999917447566986 1.2444696724414825
vt -0.4999917447566986 0.9975376366637647
vt -0.24493059515953064 0.9975376366637647
vt -0.24493059515953064 0.7506058365106583
vt -0.24493059515953064 0.503673791885376
vt -0.24493059515953064 0.256742000579834
vt -0.24493059515953064 0.009810209274291992
vt -0.4999917447566986 0.7506058365106583
vt -0.7550529837608337 1.2444696724414825
vt -0.7550529837608337 0.9975376366637647
vt -1.010114312171936 0.9975376366637647
vt -1.010114312171936 1.2444696724414825
vt -0.7550529837608337 1.4914015531539917
vt -0.7550531625747681 1.7383333444595337
vt -0.5100273489952087 2.006541609764099
vt -0.7550531625747681 1.98526531457901
vt -0.5100273489952087 2.232197403907776
vt -0.7550531625747681 2.232197403907776
vt -0.4929976761341095 2.479129195213318
vt -0.7550531625747681 2.479129195213318
vt -0.5100273489952087 2.726061224937439
vt -0.7550531625747681 2.726061224937439
vt -0.5100273489952087 2.9729931354522705
vt -0.7550531625747681 2.972993016242981
vt -1.0101144313812256 2.726061224937439
vt -1.0101144313812256 2.972993016242981
vt -1.0101144313812256 2.479129195213318
vt -1.0101144313812256 2.2321972846984863
vt -1.0101144313812256 1.98526531457901
vt -1.0101144313812256 1.7383333444595337
vt -1.010114312171936 1.4914015531539917
vt 1.030375599861145 -0.23712158203125
vt 0.775314450263977 -0.23712158203125
vt 0.5202531814575195 -0.23712158203125
vt 1.285436987876892 0.009810209274291992
vt 1.285436987876892 0.2567424774169922
vt 1.285436987876892 0.5036740303039551
vt 1.285436749458313 0.7506058365106583
vt 1.285436749458313 0.9884201530367136
vt 1.157906174659729 0.9804758075624704
vt 1.285436987876892 -0.23712158203125
vt 0.2651918828487396 -0.23712158203125
vt 0.010130736045539379 -0.23712158203125
vt -0.2449304759502411 -0.2371218204498291
vt 0.37549999356269836 0.3895779848098755
vt 0.25099998712539673 0.28188586235046387
vt 0.37549999356269836 0.28188586235046387
vt 0.25099998712539673 0.3895779848098755
vt 0.25099998712539673 0.3895779848098755
vt 0.0020000000949949026 0.28188586235046387
vt 0.25099998712539673 0.28188586235046387
vt 0.0020000000949949026 0.3895779848098755
vt 0.5 0.3895779848098755
vt 0.25099998712539673 0.28188586235046387
vt 0.5 0.28188586235046387
vt 0.25099998712539673 0.3895779848098755
vt 0.7489999532699585 0.3895779848098755
vt 0.5 0.28188586235046387
vt 0.7489999532699585 0.28188586235046387
vt 0.5 0.3895779848098755
vt 0.9979999661445618 0.3895779848098755
vt 0.7489999532699585 0.28188586235046387
vt 0.9979999661445618 0.28188586235046387
vt 0.7489999532699585 0.3895779848098755
vt 0.026899999007582664 0.3895779848098755
vt 0.0020000000949949026 0.28188586235046387
vt 0.026899999007582664 0.28188586235046387
vt 0.0020000000949949026 0.3895779848098755
vt 0.47509998083114624 0.3895779848098755
vt 0.25099998712539673 0.28188586235046387
vt 0.47509998083114624 0.28188586235046387
vt 0.25099998712539673 0.3895779848098755
vt 0.5217875242233276 0.3895779848098755
vt 0.5 0.28188586235046387
vt 0.5217875242233276 0.28188586235046387
vt 0.5 0.3895779848098755
vt 0.8734999895095825 0.3895779848098755
vt 0.7489999532699585 0.28188586235046387
vt 0.8734999895095825 0.28188586235046387
vt 0.7489999532699585 0.3895779848098755
vt 0.1264999955892563 0.3895779848098755
vt 0.0020000000949949026 0.28188586235046387
vt 0.1264999955892563 0.28188586235046387
vt 0.0020000000949949026 0.3895779848098755
vt 0.37549999356269836 0.3895779848098755
vt 0.25099998712539673 0.28188586235046387
vt 0.37549999356269836 0.28188586235046387
vt 0.25099998712539673 0.3895779848098755
vt 0.6244999766349792 0.3895779848098755
vt 0.5 0.28188586235046387
vt 0.6244999766349792 0.28188586235046387
vt 0.5 0.3895779848098755
vt 0.37549999356269836 0.28188586235046387
vt 0.37549999356269836 0.3895779848098755
vt 0.8734999895095825 0.3895779848098755
vt 0.7489999532699585 0.28188586235046387
vt 0.8734999895095825 0.28188586235046387
vt 0.7489999532699585 0.3895779848098755
vt 0.9979999661445618 0.3895779848098755
vt 0.9979999661445618 0.28188586235046387
vt 0.1264999955892563 0.3895779848098755
vt 0.0020000000949949026 0.28188586235046387
vt 0.1264999955892563 0.28188586235046387
vt 0.0020000000949949026 0.3895779848098755
vt 0.5 0.2818858027458191
vt 0.6244999170303345 0.23193645477294922
vt 0.6244999170303345 0.2818857431411743
vt 0.5 0.23193657398223877
vt 0.37549999356269836 0.28188586235046387
vt 0.37549999356269836 0.23193657398223877
vt 0.25099998712539673 0.3895779848098755
vt 0.1264999955892563 0.28188586235046387
vt 0.25099998712539673 0.28188586235046387
vt 0.1264999955892563 0.3895779848098755
vt 0.5 0.3895779848098755
vt 0.37549999356269836 0.28188586235046387
vt 0.5 0.28188586235046387
vt 0.37549999356269836 0.3895779848098755
vt 0.6244999170303345 0.2818857431411743
vt 0.6244999766349792 0.38957786560058594
vt 0.7489999532699585 0.38957786560058594
vt 0.6244999170303345 0.2818857431411743
vt 0.7489998936653137 0.2818857431411743
vt 0.6244999766349792 0.38957786560058594
vt 0.7489999532699585 0.3895779848098755
vt 0.6244999766349792 0.28188586235046387
vt 0.7489999532699585 0.28188586235046387
vt 0.6244999766349792 0.3895779848098755
vt 0.9979999661445618 0.3895779848098755
vt 0.8734999895095825 0.28188586235046387
vt 0.9979999661445618 0.28188586235046387
vt 0.8734999895095825 0.3895779848098755
vt 0.25099998712539673 0.3895779848098755
vt 0.1264999955892563 0.28188586235046387
vt 0.25099998712539673 0.28188586235046387
vt 0.1264999955892563 0.3895779848098755
vt 0.7489999532699585 0.3895779848098755
vt 0.6244999766349792 0.28188586235046387
vt 0.7489999532699585 0.28188586235046387
vt 0.6244999766349792 0.3895779848098755
vt 0.5 0.3895779848098755
vt 0.47509998083114624 0.28188586235046387
vt 0.5 0.28188586235046387
vt 0.47509998083114624 0.3895779848098755
vt 0.6244999766349792 0.3895779848098755
vt 0.5217875242233276 0.28188586235046387
vt 0.6244999766349792 0.28188586235046387
vt 0.5217875242233276 0.3895779848098755
vt 0.25099998712539673 0.3895779848098755
vt 0.026899999007582664 0.28188586235046387
vt 0.25099998712539673 0.28188586235046387
vt 0.026899999007582664 0.3895779848098755
vt 0.37549999356269836 0.23193657398223877
vt 0.25099998712539673 0.28188586235046387
vt 0.25099998712539673 0.23193657398223877
vt 0.37549999356269836 0.28188586235046387
vt 0.25099998712539673 0.23193657398223877
vt 0.0020000000949949026 0.28188586235046387
vt 0.0020000000949949026 0.23193657398223877
vt 0.25099998712539673 0.28188586235046387
vt 0.5 0.23193657398223877
vt 0.25099998712539673 0.28188586235046387
vt 0.25099998712539673 0.23193657398223877
vt 0.5 0.28188586235046387
vt 0.7489999532699585 0.23193657398223877
vt 0.5 0.28188586235046387
vt 0.5 0.23193657398223877
vt 0.7489999532699585 0.28188586235046387
vt 0.9979999661445618 0.23193657398223877
vt 0.7489999532699585 0.28188586235046387
vt 0.7489999532699585 0.23193657398223877
vt 0.9979999661445618 0.28188586235046387
vt 0.026899999007582664 0.23193657398223877
vt 0.0020000000949949026 0.28188586235046387
vt 0.0020000000949949026 0.23193657398223877
vt 0.026899999007582664 0.28188586235046387
vt 0.47509998083114624 0.23193657398223877
vt 0.25099998712539673 0.28188586235046387
vt 0.25099998712539673 0.23193657398223877
vt 0.47509998083114624 0.28188586235046387
vt 0.5217875242233276 0.23193657398223877
vt 0.5 0.28188586235046387
vt 0.5 0.23193657398223877
vt 0.5 0.28188586235046387
vt 0.5217875242233276 0.23193657398223877
vt 0.5217875242233276 0.28188586235046387
vt 0.8734999895095825 0.23193657398223877
vt 0.7489999532699585 0.28188586235046387
vt 0.7489999532699585 0.23193657398223877
vt 0.8734999895095825 0.28188586235046387
vt 0.1264999955892563 0.23193657398223877
vt 0.0020000000949949026 0.28188586235046387
vt 0.0020000000949949026 0.23193657398223877
vt 0.1264999955892563 0.28188586235046387
vt 0.37549999356269836 0.23193657398223877
vt 0.25099998712539673 0.28188586235046387
vt 0.25099998712539673 0.23193657398223877
vt 0.25099998712539673 0.28188586235046387
vt 0.37549999356269836 0.23193657398223877
vt 0.37549999356269836 0.28188586235046387
vt 0.6244999766349792 0.23193657398223877
vt 0.5 0.28188586235046387
vt 0.5 0.23193657398223877
vt 0.6244999766349792 0.28188586235046387
vt 0.37549999356269836 0.28188586235046387
vt 0.37549999356269836 0.23193657398223877
vt 0.8734999895095825 0.23193657398223877
vt 0.7489999532699585 0.28188586235046387
vt 0.7489999532699585 0.23193657398223877
vt 0.8734999895095825 0.28188586235046387
vt 0.9979999661445618 0.23193657398223877
vt 0.9979999661445618 0.28188586235046387
vt 0.1264999955892563 0.23193657398223877
vt 0.0020000000949949026 0.28188586235046387
vt 0.0020000000949949026 0.23193657398223877
vt 0.1264999955892563 0.28188586235046387
vt 0.25099998712539673 0.23193657398223877
vt 0.1264999955892563 0.28188586235046387
vt 0.1264999955892563 0.23193657398223877
vt 0.25099998712539673 0.28188586235046387
vt 0.7489998936653137 0.23193645477294922
vt 0.6244999170303345 0.2818857431411743
vt 0.6244999170303345 0.23193645477294922
vt 0.7489998936653137 0.2818857431411743
vt 0.7489999532699585 0.23193657398223877
vt 0.6244999766349792 0.28188586235046387
vt 0.6244999766349792 0.23193657398223877
vt 0.7489999532699585 0.28188586235046387
vt 0.9979999661445618 0.23193657398223877
vt 0.8734999895095825 0.28188586235046387
vt 0.8734999895095825 0.23193657398223877
vt 0.8734999895095825 0.28188586235046387
vt 0.9979999661445618 0.23193657398223877
vt 0.9979999661445618 0.28188586235046387
vt 0.25099998712539673 0.23193657398223877
vt 0.1264999955892563 0.28188586235046387
vt 0.1264999955892563 0.23193657398223877
vt 0.1264999955892563 0.28188586235046387
vt 0.25099998712539673 0.23193657398223877
vt 0.25099998712539673 0.28188586235046387
vt 0.7489999532699585 0.23193657398223877
vt 0.6244999766349792 0.28188586235046387
vt 0.6244999766349792 0.23193657398223877
vt 0.7489999532699585 0.28188586235046387
vt 0.5 0.23193657398223877
vt 0.47509998083114624 0.28188586235046387
vt 0.47509998083114624 0.23193657398223877
vt 0.47509998083114624 0.28188586235046387
vt 0.5 0.23193657398223877
vt 0.5 0.28188586235046387
vt 0.6244999766349792 0.23193657398223877
vt 0.5217875242233276 0.28188586235046387
vt 0.5217875242233276 0.23193657398223877
vt 0.6244999766349792 0.28188586235046387
vt 0.25099998712539673 0.23193657398223877
vt 0.026899999007582664 0.28188586235046387
vt 0.026899999007582664 0.23193657398223877
vt 0.25099998712539673 0.28188586235046387

g bg_mdl_ground005_2_yama
s 1
usemtl bg_mdl_ground005_2_yama_0
f 3/3/3 2/2/2 1/1/1 
f 2/2/2 4/4/4 1/1/1 
f 5/5/5 4/4/4 2/2/2 
f 2/2/2 3/3/3 6/6/6 
f 7/7/7 6/6/6 3/3/3 
f 6/6/6 7/7/7 8/8/8 
f 9/9/9 8/8/8 7/7/7 
f 8/8/8 9/9/9 10/10/10 
f 11/11/11 10/10/10 9/9/9 
f 2/2/2 12/12/12 5/5/5 
f 12/12/12 13/13/13 5/5/5 
f 14/14/14 13/13/13 12/12/12 
f 12/12/12 2/2/2 15/15/15 
f 6/6/6 15/15/15 2/2/2 
f 15/15/15 6/6/6 16/16/16 
f 8/8/8 16/16/16 6/6/6 
f 16/16/16 8/8/8 17/17/17 
f 10/10/10 17/17/17 8/8/8 
f 12/12/12 18/18/18 14/14/14 
f 18/18/18 19/19/19 14/14/14 
f 20/20/20 19/19/19 18/18/18 
f 18/18/18 12/12/12 21/21/21 
f 15/15/15 21/21/21 12/12/12 
f 21/21/21 15/15/15 22/22/22 
f 16/16/16 22/22/22 15/15/15 
f 22/22/22 16/16/16 23/23/23 
f 17/17/17 23/23/23 16/16/16 
f 18/18/18 24/24/24 20/20/20 
f 25/25/25 20/20/20 24/24/24 
f 24/24/24 18/18/18 26/26/26 
f 21/21/21 26/26/26 18/18/18 
f 26/26/26 21/21/21 27/27/27 
f 22/22/22 27/27/27 21/21/21 
f 27/27/27 22/22/22 28/28/28 
f 23/23/23 28/28/28 22/22/22 

usemtl bg_mdl_ground005_2_yama_1
f 31/31/31 30/30/30 29/29/29 
f 29/29/29 30/30/30 32/32/32 
f 30/30/30 33/33/33 32/32/32 
f 34/34/34 33/33/33 30/30/30 
f 25/25/25 30/30/30 31/31/31 
f 35/35/35 25/25/25 31/31/31 
f 20/20/20 25/25/25 35/35/35 
f 30/30/30 36/36/36 34/34/34 
f 37/37/37 34/34/34 36/36/36 
f 34/34/34 37/37/37 38/38/38 
f 38/38/38 37/37/37 39/39/39 
f 37/37/37 40/40/40 39/39/39 
f 39/39/39 40/40/40 41/41/41 
f 41/41/41 40/40/40 42/42/42 
f 42/42/42 40/40/40 43/43/43 
f 40/40/40 44/44/44 43/43/43 
f 45/45/45 44/44/44 40/40/40 
f 40/40/40 46/46/46 45/45/45 
f 47/47/47 45/45/45 46/46/46 
f 46/46/46 40/40/40 48/48/48 
f 37/37/37 48/48/48 40/40/40 
f 48/48/48 37/37/37 49/49/49 
f 36/36/36 49/49/49 37/37/37 
f 49/49/49 36/36/36 50/50/50 
f 51/51/51 50/50/50 36/36/36 
f 36/36/36 30/30/30 51/51/51 
f 25/25/25 51/51/51 30/30/30 
f 51/51/51 25/25/25 52/52/52 
f 24/24/24 52/52/52 25/25/25 
f 52/52/52 24/24/24 53/53/53 
f 26/26/26 53/53/53 24/24/24 
f 53/53/53 26/26/26 54/54/54 
f 27/27/27 54/54/54 26/26/26 
f 54/54/54 27/27/27 55/55/55 
f 28/28/28 55/55/55 27/27/27 
f 50/50/50 51/51/51 56/56/56 
f 52/52/52 56/56/56 51/51/51 
f 49/49/49 57/57/57 48/48/48 
f 57/57/57 49/49/49 58/58/58 
f 50/50/50 58/58/58 49/49/49 
f 58/58/58 59/59/59 57/57/57 
f 60/60/60 57/57/57 59/59/59 
f 57/57/57 60/60/60 61/61/61 
f 61/61/61 48/48/48 57/57/57 
f 48/48/48 61/61/61 46/46/46 
f 62/62/62 46/46/46 61/61/61 
f 46/46/46 62/62/62 63/63/63 
f 64/64/64 63/63/63 62/62/62 
f 63/63/63 64/64/64 65/65/65 
f 66/66/66 65/65/65 64/64/64 
f 65/65/65 66/66/66 67/67/67 
f 68/68/68 67/67/67 66/66/66 
f 67/67/67 68/68/68 69/69/69 
f 70/70/70 69/69/69 68/68/68 
f 69/69/69 70/70/70 71/71/71 
f 72/72/72 71/71/71 70/70/70 
f 70/70/70 73/73/73 72/72/72 
f 74/74/74 72/72/72 73/73/73 
f 73/73/73 70/70/70 75/75/75 
f 68/68/68 75/75/75 70/70/70 
f 75/75/75 68/68/68 76/76/76 
f 66/66/66 76/76/76 68/68/68 
f 76/76/76 66/66/66 77/77/77 
f 64/64/64 77/77/77 66/66/66 
f 77/77/77 64/64/64 78/78/78 
f 62/62/62 78/78/78 64/64/64 
f 78/78/78 62/62/62 79/79/79 
f 61/61/61 79/79/79 62/62/62 
f 79/79/79 61/61/61 60/60/60 
f 11/11/11 80/80/80 10/10/10 
f 81/81/81 10/10/10 80/80/80 
f 10/10/10 81/81/81 17/17/17 
f 82/82/82 17/17/17 81/81/81 
f 11/11/11 83/83/83 80/80/80 
f 83/83/83 11/11/11 84/84/84 
f 9/9/9 84/84/84 11/11/11 
f 84/84/84 9/9/9 85/85/85 
f 7/7/7 85/85/85 9/9/9 
f 85/85/85 7/7/7 86/86/86 
f 3/3/3 86/86/86 7/7/7 
f 87/87/87 86/86/86 3/3/3 
f 88/88/88 87/87/87 3/3/3 
f 1/1/1 88/88/88 3/3/3 
f 89/89/89 80/80/80 83/83/83 
f 17/17/17 82/82/82 23/23/23 
f 90/90/90 23/23/23 82/82/82 
f 23/23/23 90/90/90 28/28/28 
f 91/91/91 28/28/28 90/90/90 
f 28/28/28 91/91/91 55/55/55 
f 92/92/92 55/55/55 91/91/91 
f 63/63/63 47/47/47 46/46/46 

usemtl bg_mdl_ground005_2_yama_2
f 95/95/95 94/94/94 93/93/93 
f 96/96/96 93/93/93 94/94/94 
f 99/99/99 98/98/98 97/97/97 
f 100/100/100 97/97/97 98/98/98 
f 103/103/103 102/102/102 101/101/101 
f 104/104/104 101/101/101 102/102/102 
f 107/107/107 106/106/106 105/105/105 
f 108/108/108 105/105/105 106/106/106 
f 111/111/111 110/110/110 109/109/109 
f 112/112/112 109/109/109 110/110/110 
f 115/115/115 114/114/114 113/113/113 
f 116/116/116 113/113/113 114/114/114 
f 119/119/119 118/118/118 117/117/117 
f 120/120/120 117/117/117 118/118/118 
f 123/123/123 122/122/122 121/121/121 
f 124/124/124 121/121/121 122/122/122 
f 127/127/127 126/126/126 125/125/125 
f 128/128/128 125/125/125 126/126/126 
f 131/131/131 130/130/130 129/129/129 
f 132/132/132 129/129/129 130/130/130 
f 135/135/135 134/134/134 133/133/133 
f 136/136/136 133/133/133 134/134/134 
f 139/139/139 138/138/138 137/137/137 
f 140/140/140 137/137/137 138/138/138 
f 138/138/138 141/141/141 140/140/140 
f 142/142/142 140/140/140 141/141/141 
f 145/145/145 144/144/144 143/143/143 
f 146/146/146 143/143/143 144/144/144 
f 143/143/143 147/147/147 145/145/145 
f 148/148/148 145/145/145 147/147/147 
f 151/151/151 150/150/150 149/149/149 
f 152/152/152 149/149/149 150/150/150 
f 155/155/155 154/154/154 153/153/153 
f 156/156/156 153/153/153 154/154/154 
f 153/153/153 156/156/156 157/157/157 
f 158/158/158 157/157/157 156/156/156 
f 161/161/161 160/160/160 159/159/159 
f 162/162/162 159/159/159 160/160/160 
f 165/165/165 164/164/164 163/163/163 
f 166/166/166 163/163/163 164/164/164 
f 165/165/165 163/163/163 167/167/167 
f 168/168/168 167/167/167 163/163/163 
f 171/171/171 170/170/170 169/169/169 
f 172/172/172 169/169/169 170/170/170 
f 175/175/175 174/174/174 173/173/173 
f 176/176/176 173/173/173 174/174/174 
f 179/179/179 178/178/178 177/177/177 
f 180/180/180 177/177/177 178/178/178 
f 183/183/183 182/182/182 181/181/181 
f 184/184/184 181/181/181 182/182/182 
f 187/187/187 186/186/186 185/185/185 
f 188/188/188 185/185/185 186/186/186 
f 191/191/191 190/190/190 189/189/189 
f 192/192/192 189/189/189 190/190/190 
f 195/195/195 194/194/194 193/193/193 
f 196/196/196 193/193/193 194/194/194 
f 199/199/199 198/198/198 197/197/197 
f 200/200/200 197/197/197 198/198/198 
f 203/203/203 202/202/202 201/201/201 
f 204/204/204 201/201/201 202/202/202 
f 207/207/207 206/206/206 205/205/205 
f 208/208/208 205/205/205 206/206/206 
f 211/211/211 210/210/210 209/209/209 
f 212/212/212 209/209/209 210/210/210 
f 215/215/215 214/214/214 213/213/213 
f 216/216/216 213/213/213 214/214/214 
f 219/219/219 218/218/218 217/217/217 
f 220/220/220 217/217/217 218/218/218 
f 223/223/223 222/222/222 221/221/221 
f 224/224/224 221/221/221 222/222/222 
f 227/227/227 226/226/226 225/225/225 
f 228/228/228 225/225/225 226/226/226 
f 231/231/231 230/230/230 229/229/229 
f 234/234/234 233/233/233 232/232/232 
f 237/237/237 236/236/236 235/235/235 
f 238/238/238 235/235/235 236/236/236 
f 241/241/241 240/240/240 239/239/239 
f 242/242/242 239/239/239 240/240/240 
f 245/245/245 244/244/244 243/243/243 
f 248/248/248 247/247/247 246/246/246 
f 251/251/251 250/250/250 249/249/249 
f 252/252/252 249/249/249 250/250/250 
f 250/250/250 251/251/251 253/253/253 
f 254/254/254 253/253/253 251/251/251 
f 257/257/257 256/256/256 255/255/255 
f 258/258/258 255/255/255 256/256/256 
f 255/255/255 258/258/258 259/259/259 
f 260/260/260 259/259/259 258/258/258 
f 263/263/263 262/262/262 261/261/261 
f 264/264/264 261/261/261 262/262/262 
f 267/267/267 266/266/266 265/265/265 
f 268/268/268 265/265/265 266/266/266 
f 271/271/271 270/270/270 269/269/269 
f 272/272/272 269/269/269 270/270/270 
f 275/275/275 274/274/274 273/273/273 
f 276/276/276 273/273/273 274/274/274 
f 279/279/279 278/278/278 277/277/277 
f 282/282/282 281/281/281 280/280/280 
f 285/285/285 284/284/284 283/283/283 
f 288/288/288 287/287/287 286/286/286 
f 291/291/291 290/290/290 289/289/289 
f 292/292/292 289/289/289 290/290/290 
f 295/295/295 294/294/294 293/293/293 
f 298/298/298 297/297/297 296/296/296 
f 301/301/301 300/300/300 299/299/299 
f 302/302/302 299/299/299 300/300/300 
f 305/305/305 304/304/304 303/303/303 
f 306/306/306 303/303/303 304/304/304 

