v -0.19567717611789703 0.22847533226013184 -0.6468166708946228
v 0.005427550990134478 -0.10824279487133026 0.06114261597394943
v -0.2137661725282669 0.2360278218984604 0.06268619745969772
v 0.02343658357858658 -0.11586059629917145 -0.6384677886962891
v 0.0715884417295456 0.1900048851966858 -0.685980498790741
v -0.262001633644104 -0.0698266550898552 -0.09277079999446869
v -0.2561868131160736 -0.05238159000873566 -0.6943289041519165
v 0.0657736212015152 0.17255859076976776 -0.084421806037426
v -0.03460479527711868 -0.10002563148736954 -0.4662849009037018
v 0.25723907351493835 -0.06803161650896072 0.06460391730070114
v -0.039367981255054474 -0.1079864501953125 0.05849933624267578
v 0.262001633644104 -0.060068968683481216 -0.4601806104183197
v 0.07954192906618118 0.05856567248702049 -0.5233063697814941
v 0.15656767785549164 -0.2360278218984604 -0.08956263959407806
v 0.14628753066062927 -0.22705870866775513 -0.5294111371040344
v 0.08982329815626144 0.04959655553102493 -0.0834580585360527
vn 0.843463659286499 0.5369542241096497 0.01578861102461815
vn 0.843463659286499 0.5369542241096497 0.015788609161973
vn 0.843463659286499 0.5369542241096497 0.015788609161973
vn 0.8433911800384521 0.5370658040046692 0.01586225815117359
vn -0.5947753190994263 0.8037002086639404 0.017557892948389053
vn -0.5947753190994263 0.8037002086639404 0.017557892948389053
vn -0.5947753190994263 0.8037002086639404 0.017557892948389053
vn -0.5947734117507935 0.8037015795707703 0.017559565603733063
vn -0.1337670385837555 0.9909164309501648 0.01381776574999094
vn -0.1337670385837555 0.9909164309501648 0.01381776388734579
vn -0.1337670385837555 0.9909164309501648 0.01381776574999094
vn -0.13377340137958527 0.9909155964851379 0.01382130105048418
vn -0.9735203981399536 -0.2278822660446167 0.018106313422322273
vn -0.9735203981399536 -0.2278822660446167 0.018106311559677124
vn -0.9735203981399536 -0.2278822660446167 0.018106311559677124
vn -0.9735211730003357 -0.2278783768415451 0.018109120428562164
vt 0.18027886748313904 0.004044830799102783
vt 0.24723240733146667 0.27520567178726196
vt 0.18027886748313904 0.27520567178726196
vt 0.24723240733146667 0.004044830799102783
vt 0.1792319267988205 0.004044830799102783
vt 0.12464652210474014 0.2510836720466614
vt 0.12464652210474014 0.004044830799102783
vt 0.1792319267988205 0.2510836720466614
vt 0.18027886748313904 0.004044830799102783
vt 0.24723240733146667 0.27520567178726196
vt 0.18027886748313904 0.27520567178726196
vt 0.24723240733146667 0.004044830799102783
vt 0.1792319267988205 0.004044830799102783
vt 0.12464652210474014 0.2510836720466614
vt 0.12464652210474014 0.004044830799102783
vt 0.1792319267988205 0.2510836720466614

g d026_leaf11
s 1
usemtl d026_leaf11
f 3/3/3 2/2/2 1/1/1 
f 4/4/4 1/1/1 2/2/2 
f 7/7/7 6/6/6 5/5/5 
f 8/8/8 5/5/5 6/6/6 
f 11/11/11 10/10/10 9/9/9 
f 12/12/12 9/9/9 10/10/10 
f 15/15/15 14/14/14 13/13/13 
f 16/16/16 13/13/13 14/14/14 


