v 0.02784627676010132 -0.02954457700252533 0.020591676235198975
v 0.02375280298292637 0.02355540543794632 -0.3328245282173157
v -0.020591676235198975 -0.4541979432106018 -0.420688658952713
v 0.42445990443229675 -0.5170199871063232 0.7433196902275085
v 0.29216277599334717 0.8259262442588806 -0.06203803792595863
v -0.9021042585372925 -0.040586698800325394 0.9612137079238892
v 0.03817790374159813 0.9870114326477051 0.15604807436466217
v -0.9899711608886719 0.13899452984333038 -1.0
v -0.0 -1.0 -0.03238658607006073
v 1.0 -0.01973344013094902 -0.03170536085963249
v 0.0202215276658535 -0.025156715884804726 0.02561374381184578
v 0.0174492746591568 0.02811788208782673 -0.21386125683784485
v -0.02964629791676998 -0.21096771955490112 -0.12925955653190613
v 0.21028652787208557 0.0 0.9776397943496704
v 0.5724543333053589 0.8110348582267761 -0.035236772149801254
v -0.9094238877296448 -0.022675784304738045 0.9159945249557495
v 0.015254360623657703 0.9673756957054138 0.25288626551628113
v -0.9923685193061829 0.12311148643493652 -1.0
v -0.0 -1.0 0.0
v 1.0 0.0 -0.026718931272625923
v -0.0 -0.0184631310403347 0.03016657568514347
v 0.009426719509065151 0.03182462230324745 0.0
v -0.03237903118133545 0.0 0.0
v 0.33944201469421387 0.13926829397678375 0.9302598834037781
v -0.15408463776111603 0.8523061871528625 0.0378500297665596
v -0.8259262442588806 0.06060495972633362 0.9516189694404602
v -0.037696294486522675 0.9610397219657898 -0.27382776141166687
v -0.8982478380203247 -0.4307522773742676 -1.0
v 0.4071636199951172 -1.0 -0.0332588329911232
v 1.0 -0.02784627676010132 0.02954457700252533
v 0.0202215276658535 0.025156715884804726 0.02561374381184578
v -0.03170536085963249 0.022097675129771233 -0.23131300508975983
v -0.026934253051877022 -0.11218352615833282 0.40045344829559326
v 0.12049291282892227 0.5724542737007141 0.8110348582267761
v -0.4008769094944 0.916131854057312 0.0
v -0.816618800163269 0.0 0.816618800163269
v -0.025267399847507477 0.9654090404510498 -0.25951293110847473
v -0.9673758149147034 -0.25288572907447815 -1.0
v 0.2513097822666168 -1.0 -0.021985607221722603
v 1.0 -0.011224855668842793 0.009260505437850952
v -0.0 0.009426719509065151 0.03182462230324745
v -0.03675016015768051 0.017533471807837486 -0.2508375346660614
v -0.016554981470108032 -0.3714284598827362 0.6699907779693604
v 0.4128304421901703 0.7789466977119446 0.4720306396484375
v -0.6743164658546448 0.48253607749938965 0.22297567129135132
v -0.6438775062561035 0.15037661790847778 0.7828199863433838
v -0.20338870584964752 0.7987872958183289 -0.5661906003952026
v -0.8614816069602966 -0.4903480112552643 -1.0
v 0.34730637073516846 -1.0 -0.04684218391776085
v 1.0 -0.047669656574726105 0.0
v 0.048900678753852844 0.0174492746591568 0.012161614373326302
v -0.008928077295422554 0.01264172326773405 -0.8275810480117798
v -0.0128682442009449 -0.8462343215942383 0.0
v 0.767397940158844 0.5774831175804138 0.2785922586917877
v -0.3940088152885437 0.283040851354599 0.23928259313106537
v -0.28406330943107605 0.13248838484287262 0.9614355564117432
v -0.0 1.0 0.0
v -0.8024573922157288 -0.4779476523399353 -1.0
v 0.6569578051567078 -1.0 -0.04025837406516075
v 1.0 -0.040974318981170654 0.03380380943417549
v 0.055347174406051636 0.009426719509065151 0.0
v -0.0 0.0 -1.0
v -0.006454293616116047 -0.9376252889633179 -0.20041701197624207
v 0.8275810480117798 -0.18865087628364563 0.5286969542503357
v 0.3940088152885437 0.283040851354599 -0.23943887650966644
v -0.5174890160560608 -0.15496064722537994 0.901945948600769
v 0.3063253164291382 0.7119225859642029 0.6319264769554138
v -0.7988544702529907 0.5660368800163269 -1.0
v -0.7696214914321899 -1.0 -0.03843073919415474
v 1.0 -0.031818147748708725 -0.03864479809999466
v 0.03049299120903015 -0.03675016015768051 0.011627376079559326
v 0.02954457700252533 0.01601160690188408 -0.4869443476200104
v -0.016554981470108032 -0.3714284896850586 -0.6699908375740051
v 0.250837504863739 -0.715916633605957 0.6515703201293945
v 0.7415816187858582 0.6582133173942566 -0.044072214514017105
v -0.6608663201332092 0.0 0.6608663201332092
v 0.1471715122461319 0.5164182186126709 0.8435951471328735
v -0.4775659739971161 0.875295877456665 -1.0
v -0.8855857253074646 -1.0 -0.021985607221722603
v 1.0 -0.011224855668842793 -0.04487783461809158
v -0.0 -0.04566141590476036 0.006570136174559593
v 0.04566141590476036 0.0 -0.14293190836906433
v -0.0 -0.29363709688186646 -0.9559169411659241
v 0.4593399167060852 -0.8882606029510498 0.0
v 0.7682041525840759 0.0 -0.4673222005367279
v -0.0 0.0 0.0
v 0.4514724612236023 0.6041294932365417 0.656658411026001
v -0.8026230931282043 0.477614164352417 -1.0
v -0.2561110854148865 -1.0 0.011224855668842793
v 1.0 0.010821912437677383 -0.042535990476608276
v -0.021150635555386543 -0.04034305363893509 0.012161614373326302
v 0.03675016015768051 0.017533471807837486 0.2508375346660614
v -0.016554981470108032 0.3714284598827362 -0.6699907779693604
v -0.339438796043396 -0.539677083492279 0.7704090476036072
v 0.517020046710968 0.7433196306228638 0.10613926500082016
v -0.7853185534477234 0.08672833442687988 0.8981804251670837
v -0.06056516245007515 0.9111483693122864 0.40760326385498047
v -0.9517739415168762 0.3004622161388397 -1.0
v -0.27280160784721375 -1.0 0.04025837406516075
v 1.0 0.031818147748708725 -0.008595649152994156
v -0.040974318981170654 0.0 0.023560235276818275
v -0.0 0.027410050854086876 0.3412402868270874
v -0.022097675129771233 0.23131300508975983 -0.5601309537887573
v -0.21965391933918 -0.4007899761199951 0.8894490003585815
v 0.258806049823761 0.9419568181037903 0.026946987956762314
v -0.9689089059829712 0.015227259136736393 0.9915326237678528
v 0.0016061147907748818 0.9999986886978149 0.0
v -0.818938672542572 0.5727983713150024 -1.0
v -0.40054959058761597 -1.0 0.010821912437677383
v 1.0 0.011224855668842793 -0.009260505437850952
v -0.01142632681876421 0.0 0.03182462230324745
v -0.008595649152994156 0.026934253051877022 0.33944201469421387
v -0.023148562759160995 0.4998319447040558 0.15408462285995483
v -0.48216885328292847 0.2921627461910248 0.8259262442588806
v -0.2702314853668213 0.9021042585372925 -0.03769727423787117
v -0.7853185534477234 -0.08719601482152939 0.8982475399971008
v 0.0618254579603672 0.9112601280212402 -0.4071640074253082
v -0.8437280058860779 -0.5261299014091492 -1.0
v 0.5430822372436523 -1.0 0.0202215276658535
v 1.0 0.01973344013094902 0.03170536085963249
v -0.0104189682751894 0.026249971240758896 0.026934253051877022
v -0.03321315720677376 0.023148562759160995 0.12049292027950287
v -0.02811788208782673 0.21386125683784485 0.258806049823761
v -0.10591647773981094 0.2530561089515686 0.9616362452507019
v -0.12925955653190613 0.9689089059829712 -0.012892927043139935
v -0.9871447682380676 -0.005936858244240284 0.9923621416091919
v 0.09484566003084183 0.6880269050598145 -0.7194604277610779
v -0.724016010761261 -0.6763251423835754 -1.0
v 0.7868043184280396 -1.0 0.03843073919415474
v 1.0 0.03581160679459572 0.02954457700252533
v -0.044545650482177734 0.025156715884804726 0.011627376079559326
v -0.02375280298292637 0.016554981470108032 0.5771148204803467
v -0.017533471807837486 0.6370183229446411 0.3265613615512848
v -0.6736086010932922 0.17210984230041504 0.7187694907188416
v -0.0 0.7266389727592468 0.0
v -0.5174890160560608 -0.15473195910453796 0.9018594622612
v 0.08632136136293411 0.973403811454773 -0.2122115045785904
v -1.0 0.0 -1.0
v 0.6321828365325928 -1.0 0.051558785140514374
v 1.0 0.054397378116846085 0.009260505437850952
v -0.055347174406051636 0.0 0.006570136174559593
v -0.0184631310403347 0.0 0.9135564565658569
v -0.0 0.8010328412055969 0.5986204147338867
v -0.615705132484436 0.7403498888015747 0.2697948217391968
v -0.7682041525840759 0.0 -0.4670580327510834
v -0.0 -0.19833388924598694 0.9459925889968872
v -0.0 1.0 0.0
v -0.961498498916626 0.2407049834728241 -1.0
v -0.21193237602710724 -1.0 0.051558785140514374
v 1.0 0.048900678753852844 -0.01744927652180195
v -0.04684218391776085 -0.026249971240758896 0.0059909033589065075
v 0.025156715884804726 0.011627376079559326 0.6855374574661255
v -0.005875060334801674 0.615705132484436 -0.7403498291969299
v -0.5589779615402222 -0.67431640625 0.4825361371040344
v 0.8571901917457581 0.25922197103500366 0.2860804498195648
v -0.4720306098461151 0.20133346319198608 0.583479106426239
v -0.15037901699543 0.7828206419944763 0.6038030385971069
v -0.3140712380409241 0.9267376065254211 -1.0
v -0.8899456262588501 -1.0 0.040974318981170654
v 1.0 0.0223795548081398 -0.04328247532248497
v -0.01142632681876421 -0.04566141590476036 0.0
v 0.02375280298292637 0.016554981470108032 0.5771147608757019
v -0.017533471807837486 0.6370183825492859 -0.3265613615512848
v -0.6736086010932922 -0.17210982739925385 0.7187694907188416
v 0.5986204147338867 0.0 0.45147281885147095
v -0.0 0.35732489824295044 0.8026233911514282
v -0.19835184514522552 0.9460781216621399 0.25611060857772827
v -0.8614935874938965 0.4903135597705841 -1.0
v -0.34695661067962646 -1.0 -0.04684218391776085
v 1.0 -0.031818147748708725 0.03864479809999466
v 0.03238658607006073 0.0393274649977684 0.0
v -0.04034305363893509 0.012161614373326302 -0.27154794335365295
v -0.0062225982546806335 -0.28694307804107666 0.9248610138893127
v 0.29363709688186646 0.9559169411659241 0.0
v -0.7415815591812134 0.6582133173942566 0.044501978904008865
v -0.4652574956417084 0.07619258016347885 0.4775758385658264
v -0.10553120821714401 0.25810909271240234 -0.9603346586227417
v -0.023171085864305496 -0.9867722392082214 -1.0
v 0.7505037784576416 -1.0 0.0
v 1.0 0.0 0.04566141590476036
v -0.0 0.046456869691610336 0.0
v -0.03864479809999466 0.01829543337225914 0.12966132164001465
v -0.012161614373326302 0.27154794335365295 0.8412064909934998
v -0.44500449299812317 0.8571901917457581 0.25922197103500366
v -0.888260543346405 0.0 -0.40473705530166626
v -0.24959132075309753 -0.20592457056045532 0.314008891582489
v 0.29307618737220764 0.09002668410539627 -0.9518412351608276
v -0.47757580876350403 -0.8752806186676025 -1.0
v 0.9603345990180969 -1.0 0.01142632681876421
v 1.0 0.0104189682751894 -0.03864479809999466
v 0.02784627676010132 -0.02954457700252533 -0.020591676235198975
v 0.027438538148999214 -0.019123828038573265 -0.42445987462997437
v 0.020591676235198975 -0.45419788360595703 -0.420688658952713
v 0.3328245282173157 -0.40341803431510925 -0.8523389101028442
v 0.2921627461910248 -0.8259262442588806 -0.06203823909163475
v 0.9021042585372925 -0.04058661684393883 0.9612137079238892
v 0.03817807137966156 0.9870114326477051 -0.15604795515537262
v -0.9899711608886719 -0.13899438083171844 1.0
v -0.0 1.0 -0.03238658607006073
v -1.0 -0.01973344013094902 -0.03170536085963249
v 0.0202215276658535 -0.025156715884804726 -0.02561374381184578
v 0.0174492746591568 -0.02811788208782673 -0.21386125683784485
v 0.02964629791676998 -0.21096771955490112 -0.12925955653190613
v 0.21028652787208557 0.0 -0.9776397943496704
v 0.5724542737007141 -0.8110348582267761 -0.03523695468902588
v 0.9094238877296448 -0.0226758923381567 0.9159945249557495
v 0.015255395323038101 0.9673756957054138 -0.25288620591163635
v -0.9923685193061829 -0.12311160564422607 1.0
v -0.0 1.0 0.0
v -1.0 0.0 -0.026718931272625923
v -0.0 -0.0184631310403347 -0.03016657568514347
v 0.009426719509065151 -0.03182462230324745 0.0
v 0.03237903118133545 0.0 0.0
v 0.33944201469421387 0.13926829397678375 -0.9302598834037781
v -0.15408462285995483 -0.8523061871528625 0.03784988075494766
v 0.8259262442588806 0.06060488894581795 0.9516189694404602
v -0.03769665211439133 0.9610397815704346 0.27382758259773254
v -0.8982478380203247 0.43075209856033325 1.0
v -0.4071635901927948 1.0 -0.0332588329911232
v -1.0 -0.02784627676010132 0.02954457700252533
v 0.0202215276658535 0.025156715884804726 -0.02561374381184578
v -0.03170536085963249 -0.022097675129771233 -0.23131303489208221
v 0.026934253051877022 -0.11218352615833282 0.40045347809791565
v 0.12049292027950287 0.5724542737007141 -0.8110348582267761
v -0.4008769094944 -0.916131854057312 0.0
v 0.816618800163269 0.0 0.816618800163269
v -0.025268059223890305 0.9654090404510498 0.2595127820968628
v -0.9673758149147034 0.25288569927215576 1.0
v -0.2513097822666168 1.0 -0.021985607221722603
v -1.0 -0.011224855668842793 0.009260505437850952
v -0.0 0.009426719509065151 -0.03182462230324745
v -0.03675016015768051 -0.017533471807837486 -0.2508375346660614
v 0.016554981470108032 -0.3714284598827362 0.6699907779693604
v 0.4128304719924927 0.7789467573165894 -0.4720306396484375
v -0.67431640625 -0.48253607749938965 0.22297537326812744
v 0.6438775062561035 0.15037699043750763 0.7828201055526733
v -0.20338857173919678 0.7987872362136841 0.5661908388137817
v -0.861481785774231 0.4903477728366852 1.0
v -0.34730634093284607 1.0 -0.04684218391776085
v -1.0 -0.047669656574726105 0.0
v 0.048900678753852844 0.0174492746591568 -0.012161614373326302
v -0.008928077295422554 -0.01264172326773405 -0.8275810480117798
v 0.0128682442009449 -0.8462343215942383 0.0
v 0.767397940158844 0.5774831175804138 -0.27859222888946533
v -0.3940087854862213 -0.2830408215522766 0.23928256332874298
v 0.28406330943107605 0.13248836994171143 0.9614355564117432
v -0.0 1.0 0.0
v -0.802457332611084 0.4779476523399353 1.0
v -0.6569571495056152 1.0 -0.04025837406516075
v -1.0 -0.040974318981170654 0.03380380943417549
v 0.055347174406051636 0.009426719509065151 0.0
v -0.0 0.0 -1.0
v 0.006454293616116047 -0.9376252889633179 -0.20041701197624207
v 0.8275810480117798 -0.18865087628364563 -0.5286969542503357
v 0.39400869607925415 -0.2830408215522766 -0.23943880200386047
v 0.5174890160560608 -0.1549605280160904 0.901945948600769
v 0.3063255250453949 0.7119226455688477 -0.6319262981414795
v -0.7988544702529907 -0.5660369396209717 1.0
v 0.7696214318275452 1.0 -0.03843073919415474
v -1.0 -0.031818147748708725 -0.03864479809999466
v 0.03049299120903015 -0.03675016015768051 -0.011627376079559326
v 0.02954457700252533 -0.01601160690188408 -0.486944317817688
v 0.016554981470108032 -0.3714284896850586 -0.6699908375740051
v 0.2508375346660614 -0.715916633605957 -0.6515703201293945
v 0.7415814995765686 -0.6582133173942566 -0.04407292976975441
v 0.6608662605285645 0.0 0.6608663201332092
v 0.1471722424030304 0.5164183378219604 -0.8435949087142944
v -0.4775660037994385 -0.8752957582473755 1.0
v 0.8855857253074646 1.0 -0.021985607221722603
v -1.0 -0.011224855668842793 -0.04487783461809158
v -0.0 -0.04566141590476036 -0.006570136174559593
v 0.04566141590476036 0.0 -0.14293190836906433
v -0.0 -0.29363709688186646 -0.9559169411659241
v 0.4593399167060852 -0.8882606029510498 0.0
v 0.7682041525840759 0.0 -0.4673233926296234
v -0.0 0.0 0.0
v 0.45147281885147095 0.6041300296783447 -0.6566576957702637
v -0.8026231527328491 -0.4776139557361603 1.0
v 0.25611117482185364 1.0 0.011224855668842793
v -1.0 0.010821912437677383 -0.042535990476608276
v -0.021150635555386543 -0.04034305363893509 -0.012161614373326302
v 0.03675016015768051 -0.017533471807837486 0.250837504863739
v 0.016554981470108032 0.3714284896850586 -0.6699908375740051
v -0.3394388258457184 -0.539677083492279 -0.7704090476036072
v 0.5170199871063232 -0.7433196902275085 0.10613881051540375
v 0.7853185534477234 0.08672814071178436 0.8981803059577942
v -0.060566019266843796 0.9111484885215759 -0.4076029360294342
v -0.9517739415168762 -0.300462543964386 1.0
v 0.2728017568588257 1.0 0.04025837406516075
v -1.0 0.031818147748708725 -0.008595649152994156
v -0.040974318981170654 0.0 -0.023560235276818275
v -0.0 -0.027410050854086876 0.3412402868270874
v 0.022097675129771233 0.23131300508975983 -0.5601310729980469
v -0.21965391933918 -0.4007899761199951 -0.8894490003585815
v 0.258806049823761 -0.9419568181037903 0.02694692462682724
v 0.9689089059829712 0.015226318500936031 0.9915325045585632
v 0.0016062147915363312 0.9999986886978149 0.0
v -0.8189387321472168 -0.5727983117103577 1.0
v 0.40054967999458313 1.0 0.010821912437677383
v -1.0 0.011224855668842793 -0.009260505437850952
v -0.01142632681876421 0.0 -0.03182462230324745
v -0.008595649152994156 -0.026934253051877022 0.33944201469421387
v 0.023148562759160995 0.49983206391334534 0.15408463776111603
v -0.482168972492218 0.2921627461910248 -0.8259262442588806
v -0.2702314853668213 -0.9021042585372925 -0.037696029990911484
v 0.7853185534477234 -0.08719702810049057 0.8982477188110352
v 0.061826441437006 0.9112602472305298 0.4071636497974396
v -0.8437281250953674 0.526129424571991 1.0
v -0.543082058429718 1.0 0.0202215276658535
v -1.0 0.01973344013094902 0.03170536085963249
v -0.0104189682751894 0.026249971240758896 -0.026934253051877022
v -0.03321315720677376 -0.023148562759160995 0.12049292027950287
v 0.02811788208782673 0.21386125683784485 0.258806049823761
v -0.10591647773981094 0.2530561089515686 -0.9616362452507019
v -0.12925955653190613 -0.9689089059829712 -0.012892162427306175
v 0.9871447682380676 -0.005936712492257357 0.9923621416091919
v 0.09484561532735825 0.6880269050598145 0.7194604277610779
v -0.7240158915519714 0.6763253808021545 1.0
v -0.7868043184280396 1.0 0.03843073919415474
v -1.0 0.03581160679459572 0.02954457700252533
v -0.044545650482177734 0.025156715884804726 -0.011627376079559326
v -0.02375280298292637 -0.016554981470108032 0.5771148204803467
v 0.017533471807837486 0.6370183229446411 0.3265613615512848
v -0.6736086010932922 0.17210984230041504 -0.7187694907188416
v -0.0 -0.7266389727592468 0.0
v 0.5174890756607056 -0.15473096072673798 0.9018591642379761
v 0.08632096648216248 0.9734036922454834 0.21221205592155457
v -1.0 0.0 1.0
v -0.6321825981140137 1.0 0.051558785140514374
v -1.0 0.054397378116846085 0.009260505437850952
v -0.055347174406051636 0.0 -0.006570136174559593
v -0.0184631310403347 0.0 0.9135564565658569
v -0.0 0.8010328412055969 0.5986204147338867
v -0.615705132484436 0.7403498291969299 -0.269794762134552
v -0.7682041525840759 0.0 -0.46706029772758484
v -0.0 -0.19833382964134216 0.945992112159729
v -0.0 1.0 0.0
v -0.9614983797073364 -0.24070538580417633 1.0
v 0.21193192899227142 1.0 0.051558785140514374
v -1.0 0.048900678753852844 -0.01744927652180195
v -0.04684218391776085 -0.026249971240758896 -0.0059909033589065075
v 0.025156715884804726 -0.011627376079559326 0.6855373978614807
v 0.005875060334801674 0.6157050728797913 -0.7403498888015747
v -0.5589778423309326 -0.6743164658546448 -0.4825361669063568
v 0.8571901917457581 -0.25922200083732605 0.2860797345638275
v 0.4720306098461151 0.2013329416513443 0.5834789276123047
v -0.1503797471523285 0.7828207015991211 -0.6038026213645935
v -0.3140714168548584 -0.9267372488975525 1.0
v 0.8899455666542053 1.0 0.040974318981170654
v -1.0 0.0223795548081398 -0.04328247532248497
v -0.01142632681876421 -0.04566141590476036 0.0
v 0.02375280298292637 -0.016554981470108032 0.5771148204803467
v 0.017533471807837486 0.6370183229446411 -0.3265613615512848
v -0.673608660697937 -0.17210982739925385 -0.7187694907188416
v 0.46894919872283936 -0.6685993671417236 -0.13199034333229065
v 0.698258638381958 -0.09785979241132736 0.9327618479728699
v 0.056825440376996994 0.9816901087760925 -0.18181125819683075
v -0.41025984287261963 0.8660333156585693 1.0
v -0.8901587724685669 1.0 -0.021150639280676842
v -1.0 -0.021985607221722603 0.042535990476608276
v 0.0223795548081398 0.04328247532248497 0.0
v -0.03864479809999466 -0.01829543337225914 -0.12966132164001465
v 0.01264172326773405 -0.136835977435112 0.8745350241661072
v 0.1411658376455307 0.9598354697227478 -0.24246220290660858
v -0.989732563495636 0.0 0.16044855117797852
v 0.6608662605285645 0.0 0.6608662009239197
v -0.0 0.46447595953941345 0.8855857253074646
v -0.239792600274086 0.970824122428894 1.0
v -1.0 1.0 0.0104189682751894
v -1.0 0.021150639280676842 0.04034305363893509
v -0.031818147748708725 0.03864479809999466 -0.0059909033589065075
v -0.0393274649977684 0.0 0.4593399465084076
v 0.0062225982546806335 0.28694307804107666 0.9248610138893127
v -0.29363709688186646 0.9559169411659241 0.0
v -0.8745350241661072 -0.4652574956417084 -0.07619182765483856
v 0.24246220290660858 -0.10553158074617386 0.2581091821193695
v 0.1604485660791397 0.02317112497985363 0.9867722392082214
v -0.6674712896347046 -0.743330180644989 1.0
v 0.6566572785377502 1.0 0.052463605999946594
v -1.0 0.055347174406051636 -0.009426719509065151
v -0.1429821103811264 0.5681008100509644 0.17096400260925293
v -0.5598320364952087 0.2374478131532669 0.5161321759223938
v -0.16550059616565704 0.6038857698440552 0.19962173700332642
v -0.646247148513794 0.19654101133346558 0.6452954411506653
v -0.1952955275774002 0.6910616159439087 0.233811154961586
v -0.5231553316116333 0.3445194661617279 0.5599766373634338
v -0.3814111053943634 0.603945255279541 0.4129026532173157
v -0.6910616159439087 0.3471173644065857 0.6011022925376892
v -0.3130180537700653 0.6910616159439087 0.4410479962825775
v -0.52874356508255 0.3929874300956726 0.48294126987457275
v -0.35603126883506775 0.4633176028728485 0.3155912756919861
v -0.42341816425323486 0.273558646440506 0.4188385307788849
v -0.3263092339038849 0.3955497145652771 0.2735617756843567
v -0.4632907807826996 0.14046166837215424 0.4606509804725647
v -0.0976438820362091 0.5477912425994873 0.13868378102779388
v -0.6910616159439087 0.07980681955814362 0.5915336608886719
v -0.036750487983226776 0.6910616159439087 0.013120121322572231
v -0.6910616159439087 0.1251780390739441 0.4389738440513611
v -0.07980681955814362 0.7905893921852112 0.10589665174484253
v -0.8488773703575134 0.1709640771150589 0.8160971999168396
v -0.27356207370758057 0.8683245182037354 0.2735254466533661
v -0.7839021682739258 0.2734520137310028 0.785358190536499
v -0.27341392636299133 0.7389458417892456 0.3098216950893402
v -0.84881991147995 0.3760959208011627 0.8160138726234436
v -0.38613957166671753 0.7358583807945251 0.41926342248916626
v -0.7381899356842041 0.4410479962825775 0.7824311256408691
v -0.3929874300956726 0.8991818428039551 0.3812023103237152
v -0.9188054203987122 0.31559133529663086 0.9304923415184021
v -0.273558646440506 0.9632844924926758 0.376466304063797
v -0.9865735173225403 0.2735617756843567 0.9922509789466858
v -0.140461727976799 0.9214721322059631 0.15409351885318756
v -0.8343318104743958 0.13868378102779388 0.8534318804740906
v -0.013120121322572231 0.7521785497665405 0.16587543487548828
v -0.9699310064315796 0.22081215679645538 0.9865871071815491
v -0.4936358332633972 0.5197780728340149 0.4671415090560913
v -0.6401426196098328 0.5056818127632141 0.635243833065033
v -0.5391668081283569 0.6910616159439087 0.4495317339897156
v -0.8000890016555786 0.5182284116744995 0.8100705742835999
vn 0.3394388258457184 -0.539677083492279 0.7704090476036072
vn 0.40341803431510925 0.8523389101028442 -0.06056547537446022
vn -0.7853185534477234 -0.08672717958688736 0.8981801867485046
vn 0.10613994300365448 0.8436941504478455 0.5262266397476196
vn -0.9517738223075867 0.3004627227783203 -1.0
vn -0.2728019058704376 -1.0 -0.04025837406516075
vn 1.0 -0.031818147748708725 -0.008595649152994156
vn 0.040974318981170654 0.0 0.023560235276818275
vn -0.0 0.027410050854086876 -0.3412402868270874
vn -0.022097675129771233 -0.23131300508975983 -0.5601310133934021
vn 0.2196539044380188 -0.4007899761199951 0.8894490003585815
vn 0.258806049823761 0.9419568181037903 -0.02694571204483509
vn -0.9689089059829712 -0.015226929448544979 0.9915326237678528
vn -0.001605109078809619 0.9999986886978149 0.0
vn -0.8189387321472168 0.5727981925010681 -1.0
vn -0.4005495309829712 -1.0 -0.010821912437677383
vn 1.0 -0.011224855668842793 -0.009260505437850952
vn 0.01142632681876421 0.0 0.03182462230324745
vn 0.03380380943417549 0.023560235276818275 0.0
vn -0.027410050854086876 0.0 -0.4008769094944
vn -0.0 -0.2513098120689392 0.967906653881073
vn 0.12111499905586243 0.9926384687423706 0.0
vn -1.0 0.0 1.0
vn -0.02389015443623066 0.9899360537528992 -0.13948510587215424
vn -0.9869940876960754 -0.15623725950717926 -1.0
vn 0.3012445271015167 -1.0 -0.03049299120903015
vn 1.0 -0.03581160679459572 0.022973179817199707
vn 0.02879127487540245 0.02375280298292637 0.02355540543794632
vn -0.027438538148999214 0.019123828038573265 -0.42445990443229675
vn -0.020591676235198975 -0.3394388258457184 0.539677083492279
vn 0.2196539044380188 0.40078991651535034 0.8894490003585815
vn -0.5601310133934021 0.7954542636871338 0.06801366806030273
vn -0.9094238877296448 0.022054892033338547 0.9159790873527527
vn -0.03512405976653099 0.8189341425895691 -0.572811484336853
vn -0.9161319732666016 -0.4008769094944 -1.0
vn 0.5771774649620056 -1.0 -0.021150635555386543
vn 1.0 -0.010821912437677383 0.01813812367618084
vn -0.0 0.0184631310403347 0.03016657568514347
vn -0.008928077295422554 0.02964629791676998 -0.21096771955490112
vn -0.03127848729491234 -0.1018461212515831 0.12317685782909393
vn -0.0 0.12111500650644302 0.9926384687423706
vn -0.7159165740013123 0.6515703201293945 0.09484498202800751
vn -0.6427700519561768 0.13559025526046753 0.7240158915519714
vn -0.20127202570438385 0.5834631323814392 -0.7868039011955261
vn -0.6827468276023865 -0.6958007216453552 -1.0
vn 0.603804349899292 -1.0 -0.044545650482177734
vn 1.0 -0.04096592962741852 0.02375280298292637
vn 0.044545650482177734 0.016682760789990425 0.017533471807837486
vn -0.008595649152994156 0.01829543337225914 -0.6736086010932922
vn -0.01862228661775589 -0.6870194673538208 0.0
vn 0.774269700050354 0.364296019077301 0.5174890756607056
vn -0.18865087628364563 0.5286969542503357 0.08632199466228485
vn -0.5328109860420227 0.0 1.0
vn -0.306125283241272 0.7117806077003479 -0.632183313369751
vn -0.8578100800514221 -0.4548688232898712 -1.0
vn 0.2410152703523636 -1.0 -0.055347174406051636
vn 1.0 -0.052463605999946594 0.0184631310403347
vn 0.047669656574726105 0.026718931272625923 0.0
vn -0.03321315720677376 0.005875060334801674 -0.615705132484436
vn -0.0 -0.640204906463623 0.7682041525840759
vn 0.978721022605896 0.20519569516181946 0.0
vn -0.0 0.0 0.0
vn -0.28406327962875366 -0.1325959712266922 0.9614986181259155
vn 0.08651041239500046 0.9734480977058411 0.21193134784698486
vn -0.8579322099685669 0.4545561671257019 -1.0
vn -0.40308877825737 -1.0 -0.04684218391776085
vn 1.0 -0.044545650482177734 -0.025156715884804726
vn 0.04025837406516075 -0.03321315720677376 0.005875060334801674
vn 0.03170536085963249 0.011346728540956974 -0.5589778423309326
vn -0.0059909033589065075 -0.44500449299812317 -0.8571901917457581
vn 0.41283053159713745 -0.7789467573165894 0.4720306098461151
vn 0.590175449848175 0.6438775062561035 -0.15037976205348969
vn -0.6427699327468872 -0.13543739914894104 0.7239884734153748
vn 0.09435375779867172 0.6879662275314331 0.7195830941200256
vn -0.667471170425415 0.7433302998542786 -1.0
vn -0.750503659248352 -1.0 -0.021150635555386543
vn 1.0 -0.010821912437677383 -0.042535990476608276
vn -0.0 -0.04328247532248497 0.0128682442009449
vn 0.042535990476608276 0.0062225982546806335 -0.28694310784339905
vn -0.006454293616116047 -0.1411658227443695 -0.9598354697227478
vn -0.0 -0.970824122428894 0.2397926300764084
vn 0.989732563495636 0.0 -0.16085685789585114
vn -0.0 -0.29350706934928894 0.09015906602144241
vn 0.4051055908203125 0.20948943495750427 0.8899458050727844
vn -0.38945627212524414 0.7936837077140808 -1.0
vn -1.0 -1.0 -0.047669656574726105
vn 1.0 -0.052463605999946594 -0.0184631310403347
vn 0.055347174406051636 -0.009426719509065151 0.0
vn 0.04487783461809158 0.006454293616116047 0.1411658227443695
vn -0.01264172326773405 0.1368359923362732 -0.8745350241661072
vn -0.27154791355133057 -0.8412064909934998 0.46758243441581726
vn 0.715916633605957 0.6515703201293945 0.09435519576072693
vn -0.6427700519561768 0.13543599843978882 0.7239882349967957
vn -0.09385020285844803 0.8343807458877563 0.5431397557258606
vn -0.8436939716339111 0.5262269973754883 -1.0
vn -0.4309874475002289 -1.0 0.02879127487540245
vn 1.0 0.03843073919415474 -0.01628008857369423
vn -0.03049299120903015 -0.016682760789990425 0.02561374381184578
vn 0.008429435081779957 0.023148562759160995 0.49983200430870056
vn -0.026934253051877022 0.33944201469421387 -0.13926829397678375
vn -0.5068987607955933 0.0 0.8620056509971619
vn -0.0 0.9399760961532593 -0.001307571423240006
vn -0.7954542636871338 0.06814251095056534 0.8249488472938538
vn -0.04218502715229988 0.9147642850875854 0.4017793536186218
vn -0.9654621481895447 0.25914615392684937 -1.0
vn -0.1289621889591217 -1.0 0.0223795548081398
vn 1.0 0.010217497125267982 -0.03321315720677376
vn -0.0104189682751894 -0.026249971240758896 0.026934253051877022
vn 0.01813812367618084 0.02964629791676998 0.10591646283864975
vn -0.03127848729491234 0.10184609889984131 -0.12317684292793274
vn -0.10049794614315033 0.0 0.9949373006820679
vn -0.13926829397678375 0.9302598834037781 -0.023891009390354156
vn -0.8523061871528625 -0.0378507636487484 0.9869940876960754
vn 0.06060713902115822 0.9516192078590393 -0.301243394613266
vn -0.9610397815704346 -0.2738274037837982 -1.0
vn 0.4307529926300049 -1.0 0.02879127487540245
vn 1.0 0.0332588329911232 0.027438538148999214
vn -0.02784627676010132 0.02954457700252533 0.020591676235198975
vn -0.025156715884804726 0.02561374381184578 0.2196539044380188
vn -0.022097675129771233 0.23131303489208221 0.5601310729980469
vn -0.11218352615833282 0.40045347809791565 0.9094238877296448
vn -0.5724542737007141 0.8110348582267761 -0.035124771296978
vn -0.9419568181037903 -0.0252675898373127 0.9654090404510498
vn 0.015260335989296436 0.9673758149147034 -0.25288572907447815
vn -0.9915000796318054 -0.12946613132953644 -1.0
vn 0.12321537733078003 -1.0 0.0202215276658535
vn 1.0 0.02879127487540245 0.03379688784480095
vn -0.03049299120903015 0.03675016015768051 0.011627376079559326
vn -0.03170536085963249 0.011346728540956974 0.5589779615402222
vn -0.01601160690188408 0.4869442880153656 0.5901753306388855
vn -0.6855375170707703 0.5290565490722656 0.5001373291015625
vn -0.4689491391181946 0.6685994863510132 -0.13194040954113007
vn -0.698258638381958 -0.09743376076221466 0.9326764941215515
vn 0.05654167756438255 0.9816586375236511 -0.18206967413425446
vn -1.0 0.0 -1.0
vn 0.40337005257606506 -1.0 0.051558785140514374
vn 1.0 0.052463605999946594 0.0
vn -0.04684218391776085 0.026249971240758896 0.0059909033589065075
vn -0.01813812367618084 0.0062225982546806335 0.8744398355484009
vn -0.006454293616116047 0.9376252889633179 0.20041701197624207
vn -0.9587724804878235 0.0 0.28417474031448364
vn -0.4067118167877197 0.0 -0.35725119709968567
vn -0.0 -0.45131638646125793 0.6039206981658936
vn 0.32393205165863037 0.5499335527420044 -0.7698318958282471
vn -0.38923612236976624 -0.7939470410346985 -1.0
vn 0.25644057989120483 -1.0 0.05631135776638985
vn 1.0 0.054397378116846085 -0.009260505437850952
vn -0.051558785140514374 -0.008928077295422554 0.01264172326773405
vn 0.01813812367618084 0.0062225982546806335 0.8744398355484009
vn -0.012161614373326302 0.774269700050354 -0.364296019077301
vn -0.767397940158844 -0.5774831175804138 0.27859222888946533
vn 0.5290566682815552 0.5001375079154968 0.20355224609375
vn -0.26979485154151917 0.3241925835609436 0.5500738024711609
vn -0.2231171727180481 0.6827967762947083 0.6957063674926758
vn -0.4103679060935974 0.8658846020698547 -1.0
vn -0.7867763638496399 -1.0 0.03581160679459572
vn 1.0 0.021985607221722603 -0.042535990476608276
vn -0.03238658607006073 -0.0393274649977684 0.0
vn 0.03380380943417549 0.0 0.640204906463623
vn -0.0 0.29363709688186646 -0.9559169411659241
vn -0.14293192327022552 -0.9897324442863464 0.0
vn 0.46894916892051697 0.6685994267463684 0.1319907009601593
vn -0.6982586979866028 0.0978604257106781 0.9327619671821594
vn -0.05682564154267311 0.9816901087760925 0.18181109428405762
vn -0.6041299700737 0.6566576957702637 -1.0
vn -0.4776133596897125 -1.0 0.055347174406051636
vn 1.0 -0.04096592962741852 -0.02375280298292637
vn 0.044545650482177734 -0.016682760789990425 0.017533471807837486
vn 0.008595649152994156 0.01829543337225914 -0.673608660697937
vn -0.0059909033589065075 -0.44500449299812317 0.8571901917457581
vn 0.4593399465084076 0.888260543346405 0.0
vn -0.841206431388855 0.46758246421813965 0.14725805819034576
vn -0.24959132075309753 0.2059260606765747 0.31400927901268005
vn -0.29307833313941956 0.09002736210823059 -0.9518404603004456
vn -0.6675003170967102 -0.743278443813324 -1.0
vn 0.8752806186676025 -1.0 -0.011224855668842793
vn 1.0 -0.01142632681876421 0.04566141590476036
vn -0.0 0.0393274649977684 0.01862228661775589
vn -0.04328247532248497 0.0128682442009449 0.0
vn -0.006570136174559593 0.0 0.970824122428894
vn -0.0 1.0 0.0
vn -0.7415816187858582 0.6582133173942566 -0.04450298845767975
vn -0.46758249402046204 -0.14725996553897858 0.5164331793785095
vn 0.2857850193977356 0.41025957465171814 -0.8660334944725037
vn -0.20929880440235138 -0.8901582956314087 -1.0
vn 0.9268189668655396 -1.0 0.0223795548081398
vn 1.0 0.010821912437677383 0.042535990476608276
vn -0.011224855668842793 0.04487783461809158 0.006454293616116047
vn -0.04566141590476036 0.0 0.14293192327022552
vn -0.01829543337225914 0.12966132164001465 -0.7415814995765686
vn 0.339438796043396 -0.539677083492279 -0.7704090476036072
vn 0.517020046710968 -0.7433196306228638 -0.10613981634378433
vn 0.7853185534477234 -0.08672739565372467 0.8981801867485046
vn 0.060565654188394547 0.9111484885215759 -0.40760308504104614
vn -0.9517739415168762 -0.30046260356903076 1.0
vn 0.2728019654750824 1.0 -0.04025837406516075
vn -1.0 -0.031818147748708725 -0.008595649152994156
vn 0.040974318981170654 0.0 -0.023560235276818275
vn -0.0 -0.027410050854086876 -0.3412402868270874
vn 0.022097675129771233 -0.23131300508975983 -0.5601310133934021
vn 0.2196539044380188 -0.4007899761199951 -0.8894490003585815
vn 0.258806049823761 -0.9419568181037903 -0.026946071535348892
vn 0.9689089059829712 -0.015226269140839577 0.9915325045585632
vn -0.0016053671715781093 0.9999986886978149 0.0
vn -0.8189387917518616 -0.5727981328964233 1.0
vn 0.4005495607852936 1.0 -0.010821912437677383
vn -1.0 -0.011224855668842793 -0.009260505437850952
vn 0.01142632681876421 0.0 -0.03182462230324745
vn 0.03380380943417549 -0.023560235276818275 0.0
vn 0.027410050854086876 0.0 -0.4008769094944
vn -0.0 -0.2513098120689392 -0.967906653881073
vn 0.12111499905586243 -0.9926384687423706 0.0
vn 1.0 0.0 1.0
vn -0.023889899253845215 0.9899360537528992 0.139485165476799
vn -0.9869940876960754 0.15623728930950165 1.0
vn -0.3012445569038391 1.0 -0.03049299120903015
vn -1.0 -0.03581160679459572 0.022973179817199707
vn 0.02879127487540245 0.02375280298292637 -0.02355540543794632
vn -0.027438538148999214 -0.019123828038573265 -0.42445990443229675
vn 0.020591676235198975 -0.3394388258457184 0.5396769046783447
vn 0.2196539044380188 0.40078991651535034 -0.8894490003585815
vn -0.5601310729980469 -0.7954542636871338 0.06801244616508484
vn 0.9094238877296448 0.02205309271812439 0.9159790873527527
vn -0.03512424975633621 0.8189341425895691 0.572811484336853
vn -0.916131854057312 0.4008769392967224 1.0
vn -0.5771774053573608 1.0 -0.021150635555386543
vn -1.0 -0.010821912437677383 0.01813812367618084
vn -0.0 0.0184631310403347 -0.03016657568514347
vn -0.008928077295422554 -0.02964629791676998 -0.21096771955490112
vn 0.03127848729491234 -0.1018461138010025 0.12317685037851334
vn -0.0 0.12111499905586243 -0.9926384687423706
vn -0.7159165740013123 -0.6515703201293945 0.09484486281871796
vn 0.6427700519561768 0.1355908364057541 0.7240158915519714
vn -0.20127223432064056 0.5834632515907288 0.786803662776947
vn -0.6827467679977417 0.6958009004592896 1.0
vn -0.6038041114807129 1.0 -0.044545650482177734
vn -1.0 -0.04096592962741852 0.02375280298292637
vn 0.044545650482177734 0.016682760789990425 -0.017533471807837486
vn -0.008595649152994156 -0.01829543337225914 -0.6736086010932922
vn 0.01862228661775589 -0.6870194673538208 0.0
vn 0.774269700050354 0.3642960488796234 -0.5174890160560608
vn -0.18865087628364563 -0.5286969542503357 0.08632218092679977
vn 0.5328109860420227 0.0 1.0
vn -0.3061251938343048 0.7117804884910583 0.6321834921836853
vn -0.8578100204467773 0.4548690617084503 1.0
vn -0.24101530015468597 1.0 -0.055347174406051636
vn -1.0 -0.052463605999946594 0.0184631310403347
vn 0.047669656574726105 0.026718931272625923 0.0
vn -0.03321315720677376 -0.005875060334801674 -0.6157050728797913
vn -0.0 -0.640204906463623 0.7682041525840759
vn 0.978721022605896 0.20519569516181946 0.0
vn -0.0 0.0 0.0
vn 0.28406327962875366 -0.13259591162204742 0.9614986181259155
vn 0.08651041984558105 0.9734480977058411 -0.21193133294582367
vn -0.8579322099685669 -0.4545561671257019 1.0
vn 0.4030889868736267 1.0 -0.04684218391776085
vn -1.0 -0.044545650482177734 -0.025156715884804726
vn 0.04025837406516075 -0.03321315720677376 -0.005875060334801674
vn 0.03170536085963249 -0.011346728540956974 -0.5589779615402222
vn 0.0059909033589065075 -0.4450044333934784 -0.8571901917457581
vn 0.41283050179481506 -0.7789466977119446 -0.4720306098461151
vn 0.5901753902435303 -0.6438776254653931 -0.1503802388906479
vn 0.6427699327468872 -0.13543696701526642 0.7239882946014404
vn 0.09435354918241501 0.6879662275314331 -0.7195831537246704
vn -0.6674713492393494 -0.7433301210403442 1.0
vn 0.750503659248352 1.0 -0.021150635555386543
vn -1.0 -0.010821912437677383 -0.042535990476608276
vn -0.0 -0.04328247532248497 -0.0128682442009449
vn 0.042535990476608276 -0.0062225982546806335 -0.28694310784339905
vn 0.006454293616116047 -0.1411658227443695 -0.9598354697227478
vn -0.0 -0.970824122428894 -0.2397926151752472
vn 0.989732563495636 0.0 -0.16085438430309296
vn -0.0 -0.2935054302215576 0.09015858173370361
vn 0.4051056206226349 0.20948943495750427 -0.8899458050727844
vn -0.38945725560188293 -0.7936825156211853 1.0
vn 1.0 1.0 -0.047669656574726105
vn -1.0 -0.052463605999946594 -0.0184631310403347
vn 0.055347174406051636 -0.009426719509065151 0.0
vn 0.04487783461809158 -0.006454293616116047 0.1411658227443695
vn 0.01264172326773405 0.1368359923362732 -0.8745350241661072
vn -0.27154794335365295 -0.8412064909934998 -0.46758243441581726
vn 0.715916633605957 -0.6515703201293945 0.09435179084539413
vn 0.6427699327468872 0.13543583452701569 0.7239880561828613
vn -0.09385176748037338 0.8343809247016907 -0.5431392192840576
vn -0.8436939716339111 -0.5262271165847778 1.0
vn 0.4309876263141632 1.0 0.02879127487540245
vn -1.0 0.03843073919415474 -0.01628008857369423
vn -0.03049299120903015 -0.016682760789990425 -0.02561374381184578
vn 0.008429435081779957 -0.023148562759160995 0.49983206391334534
vn 0.026934253051877022 0.33944204449653625 -0.13926829397678375
vn -0.5068987607955933 0.0 -0.8620056509971619
vn -0.0 -0.9399760961532593 -0.0013076624600216746
vn 0.7954542636871338 0.06814192980527878 0.824948787689209
vn -0.042186375707387924 0.914764404296875 -0.40177905559539795
vn -0.9654621481895447 -0.25914615392684937 1.0
vn 0.12896238267421722 1.0 0.0223795548081398
vn -1.0 0.010217497125267982 -0.03321315720677376
vn -0.0104189682751894 -0.026249971240758896 -0.026934253051877022
vn 0.01813812367618084 -0.02964629791676998 0.10591646283864975
vn 0.03127848729491234 0.1018461212515831 -0.12317685037851334
vn -0.10049794614315033 0.0 -0.9949373006820679
vn -0.13926829397678375 -0.9302598834037781 -0.023890506476163864
vn 0.8523061871528625 -0.037851110100746155 0.9869940876960754
vn 0.06060584634542465 0.9516190886497498 0.3012441098690033
vn -0.9610397219657898 0.27382782101631165 1.0
vn -0.43075236678123474 1.0 0.02879127487540245
vn -1.0 0.0332588329911232 0.027438538148999214
vn -0.02784627676010132 0.02954457700252533 -0.020591676235198975
vn -0.025156715884804726 -0.02561374381184578 0.21965394914150238
vn 0.022097675129771233 0.23131300508975983 0.5601310133934021
vn -0.11218352615833282 0.40045344829559326 -0.9094238877296448
vn -0.5724542737007141 -0.8110348582267761 -0.03512490913271904
vn 0.9419568181037903 -0.025266867130994797 0.9654090404510498
vn 0.015260343439877033 0.9673758149147034 0.25288569927215576
vn -0.9915000796318054 0.12946628034114838 1.0
vn -0.12321537733078003 1.0 0.0202215276658535
vn -1.0 0.02879127487540245 0.03379688784480095
vn -0.03049299120903015 0.03675016015768051 -0.011627376079559326
vn -0.03170536085963249 -0.011346728540956974 0.5589779615402222
vn 0.01601160690188408 0.4869442880153656 0.5901753306388855
vn -0.6855374574661255 0.5290566682815552 -0.5001375079154968
vn -0.4689491093158722 -0.6685996055603027 -0.13194072246551514
vn 0.6982587575912476 -0.09743282943964005 0.9326764941215515
vn 0.05654088407754898 0.9816585183143616 0.18207038938999176
vn -1.0 0.0 1.0
vn -0.4033712148666382 1.0 0.051558785140514374
vn -1.0 0.052463605999946594 0.0
vn -0.04684218391776085 0.026249971240758896 -0.0059909033589065075
vn -0.01813812367618084 -0.0062225982546806335 0.8744397163391113
vn 0.006454293616116047 0.9376252889633179 0.20041701197624207
vn -0.9587724804878235 0.0 -0.28417474031448364
vn -0.4067118167877197 0.0 -0.3572511076927185
vn -0.0 -0.4513173997402191 0.6039220094680786
vn 0.3239322304725647 0.5499336123466492 0.7698317766189575
vn -0.3892380893230438 0.7939448952674866 1.0
vn -0.2564421594142914 1.0 0.05631135776638985
vn -1.0 0.054397378116846085 -0.009260505437850952
vn -0.051558785140514374 -0.008928077295422554 -0.01264172326773405
vn 0.01813812367618084 -0.0062225982546806335 0.8744397163391113
vn 0.012161614373326302 0.774269700050354 -0.364296019077301
vn -0.767397940158844 -0.5774831175804138 -0.2785922586917877
vn 0.5290566682815552 -0.5001375079154968 0.20355191826820374
vn 0.26979485154151917 0.3241927921772003 0.5500739216804504
vn -0.22311794757843018 0.6827970147132874 -0.6957058310508728
vn -0.4103676974773407 -0.8658849000930786 1.0
vn 0.786776602268219 1.0 0.03581160679459572
vn -1.0 0.021985607221722603 -0.042535990476608276
vn -0.03238658607006073 -0.0393274649977684 0.0
vn 0.03380380943417549 0.0 0.640204906463623
vn -0.0 0.29363709688186646 -0.9559169411659241
vn -0.14293192327022552 -0.9897324442863464 0.0
vn 0.46894919872283936 -0.6685993671417236 0.13199017941951752
vn 0.698258638381958 0.09785930812358856 0.9327616095542908
vn -0.056825850158929825 0.9816902279853821 -0.1818109154701233
vn -0.861493706703186 -0.49031326174736023 1.0
vn 0.34695667028427124 1.0 -0.04684218391776085
vn -1.0 -0.031818147748708725 0.03864479809999466
vn 0.03238658607006073 0.0393274649977684 0.0
vn -0.04034305363893509 -0.012161614373326302 -0.27154794335365295
vn 0.0062225982546806335 -0.28694307804107666 0.9248610138893127
vn 0.29363709688186646 0.9559169411659241 0.0
vn -0.7415816187858582 -0.6582133173942566 0.0445038378238678
vn 0.4652574956417084 0.0761929452419281 0.47757577896118164
vn -0.10553169995546341 0.2581091821193695 0.9603346586227417
vn -0.023171115666627884 0.9867722392082214 1.0
vn -0.7505037784576416 1.0 0.0
vn -1.0 0.0 0.04566141590476036
vn -0.0 0.046456869691610336 0.0
vn -0.03864479809999466 -0.01829543337225914 0.12966132164001465
vn 0.012161614373326302 0.27154794335365295 0.8412064909934998
vn -0.44500449299812317 0.8571901917457581 -0.2592219412326813
vn -0.888260543346405 0.0 -0.404738187789917
vn 0.24959132075309753 -0.205925852060318 0.3140091896057129
vn 0.29307934641838074 0.09002766758203506 0.9518401026725769
vn -0.47757574915885925 0.8752806186676025 1.0
vn -0.9603346586227417 1.0 0.01142632681876421
vn -1.0 0.0104189682751894 -0.03864479809999466
vn -0.047669656574726105 -0.026718931272625923 0.0
vn 0.0184631310403347 0.0 0.9135564565658569
vn -0.0 0.978721022605896 -0.20519566535949707
vn -0.566025972366333 0.17273275554180145 0.5332457423210144
vn -0.23736079037189484 0.5551531314849854 0.27356207370758057
vn -0.600957989692688 0.23589903116226196 0.5982208847999573
vn -0.23445823788642883 0.643937349319458 0.27341392636299133
vn -0.6910616159439087 0.273414671421051 0.6910616159439087
vn -0.3743414282798767 0.5333032608032227 0.3760959208011627
vn -0.6045031547546387 0.38613957166671753 0.6462647318840027
vn -0.3502671420574188 0.6453167796134949 0.3515337109565735
vn -0.5996918082237244 0.4278043806552887 0.5606241822242737
vn -0.3812023103237152 0.5062723159790039 0.3484659790992737
vn -0.45163077116012573 0.27355772256851196 0.44790488481521606
vn -0.376466304063797 0.4122224450111389 0.42191797494888306
vn -0.38987216353416443 0.22664645314216614 0.4234062433242798
vn -0.15409351885318756 0.4829016923904419 0.10476094484329224
vn -0.528691291809082 0.11920438706874847 0.5605631470680237
vn -0.06889118254184723 0.6401069164276123 0.06531393527984619
vn -0.6299444437026978 0.028736377134919167 0.5719742774963379
vn -0.17064672708511353 0.41219210624694824 0.22081215679645538
vn -0.782494068145752 0.11920441687107086 0.8215598464012146
vn -0.2030651569366455 0.8590229749679565 0.20265616476535797
vn -0.8288456201553345 0.13405342400074005 0.7777050137519836
vn -0.12754158675670624 0.7357965111732483 0.1606541872024536
vn -0.8271019458770752 0.30968937277793884 0.8659997582435608
vn -0.39575377106666565 0.8390307426452637 0.4040406048297882
vn -0.735729992389679 0.3471173644065857 0.7810207605361938
vn -0.4278043806552887 0.8214989304542542 0.4493653476238251
vn -0.8758508563041687 0.3484661281108856 0.8907569646835327
vn -0.27355772256851196 0.9342182874679565 0.4066251814365387
vn -0.9699007272720337 0.42191797494888306 0.943101704120636
vn -0.22664645314216614 0.958716869354248 0.2315213829278946
vn -0.8992214798927307 0.10476097464561462 0.8892712593078613
vn -0.0544404536485672 0.8001490235328674 0.0533892922103405
vn -0.8758946657180786 0.19863609969615936 0.8907899260520935
vn -0.1658753752708435 0.506228506565094 0.19863609969615936
vn -0.5915894508361816 0.49251511693000793 0.5820341110229492
vn -0.5337731838226318 0.6300012469291687 0.45238685607910156
vn -0.7380438446998596 0.4671415090560913 0.7905336618423462
vn -0.47798311710357666 0.7419804334640503 0.5056818127632141
vt 0.5886356234550476 0.8212859183549881
vt 0.5969488024711609 0.8463523238897324
vt 0.6183863282203674 0.856140986084938
vt 0.6166175007820129 0.8233607560396194
vt 0.648718535900116 0.8662866652011871
vt 0.6483097672462463 0.8295547068119049
vt 0.683101236820221 0.8732545226812363
vt 0.6830143332481384 0.8342335969209671
vt 0.719215452671051 0.8755881488323212
vt 0.7191788554191589 0.8361092209815979
vt 0.5797068476676941 0.7849687188863754
vt 0.6111540198326111 0.7855009734630585
vt 0.6452751755714417 0.7884286344051361
vt 0.6815525889396667 0.791165828704834
vt 0.7191054224967957 0.7926218211650848
vt 0.5731950402259827 0.7430600821971893
vt 0.6063075661659241 0.7431395351886749
vt 0.6421944499015808 0.7440911531448364
vt 0.6801117062568665 0.7454492747783661
vt 0.7190672755241394 0.7462094724178314
vt 0.5708902478218079 0.698325127363205
vt 0.6045207381248474 0.698325127363205
vt 0.6409489512443542 0.698325127363205
vt 0.6794646382331848 0.698325127363205
vt 0.7190681099891663 0.698325127363205
vt 0.7554749846458435 0.8343656063079834
vt 0.7553429007530212 0.8732634782791138
vt 0.7897030711174011 0.8662313520908356
vt 0.7901729941368103 0.829410046339035
vt 0.8199949860572815 0.8560834527015686
vt 0.8217495083808899 0.8232774585485458
vt 0.8414072394371033 0.8462945073843002
vt 0.8496941924095154 0.8212178200483322
vt 0.827064573764801 0.7854415029287338
vt 0.8585560917854309 0.7848835736513138
vt 0.8317931294441223 0.7431219816207886
vt 0.864916980266571 0.74299356341362
vt 0.8336153626441956 0.698325127363205
vt 0.8672457337379456 0.698325127363205
vt 0.7927708029747009 0.7882843911647797
vt 0.7959205508232117 0.7440699338912964
vt 0.7971872687339783 0.698325127363205
vt 0.7565287947654724 0.7912848889827728
vt 0.7580103278160095 0.7454534769058228
vt 0.7586714625358582 0.698325127363205
vt 0.8867014050483704 0.7896949052810669
vt 0.8734578490257263 0.8287625014781952
vt 0.8950186371803284 0.8415376991033554
vt 0.8703557848930359 0.8784242868423462
vt 0.8540195822715759 0.8606431484222412
vt 0.8386408686637878 0.9064454361796379
vt 0.8268557190895081 0.8831143826246262
vt 0.7941195368766785 0.8980205729603767
vt 0.7575252652168274 0.9073295891284943
vt 0.7192137837409973 0.9103648513555527
vt 0.8016847968101501 0.9260691031813622
vt 0.7612447142601013 0.9377558752894402
vt 0.7192111611366272 0.9414817616343498
vt 0.8522786498069763 0.9286944568157196
vt 0.8111159205436707 0.9519640244543552
vt 0.7661216855049133 0.9659685678780079
vt 0.7192121148109436 0.9705481640994549
vt 0.8221197724342346 0.9771642424166203
vt 0.8675714135169983 0.9503652453422546
vt 0.8879510760307312 0.8964809849858284
vt 0.9068977236747742 0.9143498167395592
vt 0.7719627022743225 0.9938369933515787
vt 0.7192152142524719 0.9995145387947559
vt 0.6722999215126038 0.9659804366528988
vt 0.6771748661994934 0.9377662390470505
vt 0.6272959113121033 0.9519908428192139
vt 0.6367232203483582 0.9260958656668663
vt 0.5861151814460754 0.9287356734275818
vt 0.5997470021247864 0.9064850434660912
vt 0.550414502620697 0.8965348973870277
vt 0.5680034756660461 0.8784745931625366
vt 0.5215505957603455 0.8555480092763901
vt 0.5432973504066467 0.8415954560041428
vt 0.5843372941017151 0.8606954514980316
vt 0.5648579001426697 0.8288235515356064
vt 0.5515500903129578 0.7897576838731766
vt 0.5429717898368835 0.745348185300827
vt 0.5400957465171814 0.698325127363205
vt 0.5254603028297424 0.7978530079126358
vt 0.514544665813446 0.7492797672748566
vt 0.5109673142433167 0.698325127363205
vt 0.5000938773155212 0.8074126243591309
vt 0.486858069896698 0.7541819512844086
vt 0.48240387439727783 0.698325127363205
vt 0.45877352356910706 0.7594422101974487
vt 0.47438979148864746 0.8174124360084534
vt 0.499042809009552 0.8696855008602142
vt 0.5314775109291077 0.9144140034914017
vt 0.4533156752586365 0.698325127363205
vt 0.5708314776420593 0.9504128247499466
vt 0.6163001656532288 0.9771945849061012
vt 0.6664655804634094 0.9938507564365864
vt 0.486858069896698 0.6424683034420013
vt 0.514544665813446 0.6473705172538757
vt 0.5254603028297424 0.5987974107265472
vt 0.5515500903129578 0.6068926751613617
vt 0.5648579001426697 0.5678268074989319
vt 0.5886356234550476 0.5753643214702606
vt 0.5969489216804504 0.5502979457378387
vt 0.6183863282203674 0.5405092537403107
vt 0.6166175007820129 0.5732895135879517
vt 0.648718535900116 0.5303636789321899
vt 0.6483097672462463 0.567095547914505
vt 0.683101236820221 0.5233957171440125
vt 0.6830143332481384 0.5624167025089264
vt 0.719215452671051 0.5210622549057007
vt 0.7191788554191589 0.5605410635471344
vt 0.5797068476676941 0.6116815507411957
vt 0.6111540198326111 0.6111492812633514
vt 0.6452751755714417 0.6082216799259186
vt 0.6815525889396667 0.6054844856262207
vt 0.7191054224967957 0.6040284633636475
vt 0.5731950402259827 0.653590202331543
vt 0.6063075661659241 0.6535106897354126
vt 0.6421944499015808 0.6525590419769287
vt 0.6801117062568665 0.6512010097503662
vt 0.7190672755241394 0.6504408717155457
vt 0.7554749846458435 0.5622847080230713
vt 0.7553429007530212 0.5233868956565857
vt 0.7897030711174011 0.530418872833252
vt 0.7901729941368103 0.5672402381896973
vt 0.8199949860572815 0.5405668318271637
vt 0.8217495083808899 0.57337287068367
vt 0.8414073586463928 0.5503558218479156
vt 0.8496941924095154 0.5754324793815613
vt 0.827064573764801 0.6112087965011597
vt 0.8585560917854309 0.6117667853832245
vt 0.8317931294441223 0.6535283327102661
vt 0.864916980266571 0.6536566615104675
vt 0.7927708029747009 0.6083659529685974
vt 0.7959205508232117 0.6525804400444031
vt 0.7565287947654724 0.6053653359413147
vt 0.7580103278160095 0.6511967778205872
vt 0.8867014050483704 0.6069554686546326
vt 0.8734578490257263 0.5678877830505371
vt 0.8950188755989075 0.5551126301288605
vt 0.8703557848930359 0.5182260274887085
vt 0.8540195822715759 0.5360070765018463
vt 0.8386408686637878 0.49020493030548096
vt 0.8268557190895081 0.5135359168052673
vt 0.794119656085968 0.4986298084259033
vt 0.7575253844261169 0.4893207550048828
vt 0.7192137837409973 0.48628538846969604
vt 0.8016847968101501 0.4705813527107239
vt 0.7612448334693909 0.45889437198638916
vt 0.7192111611366272 0.4551684856414795
vt 0.8522786498069763 0.46795594692230225
vt 0.8111159205436707 0.4446863532066345
vt 0.7661218047142029 0.43068182468414307
vt 0.7192121148109436 0.4261021614074707
vt 0.8221197724342346 0.4194861054420471
vt 0.8675715327262878 0.44628506898880005
vt 0.8879510760307312 0.5001694560050964
vt 0.9068977236747742 0.48230046033859253
vt 0.7719628214836121 0.40281325578689575
vt 0.7192152142524719 0.39713579416275024
vt 0.6722999215126038 0.43066996335983276
vt 0.6771748661994934 0.458884060382843
vt 0.6272959113121033 0.4446595311164856
vt 0.6367232203483582 0.4705544114112854
vt 0.5861151814460754 0.4679147005081177
vt 0.5997470021247864 0.4901652932167053
vt 0.550414502620697 0.5001153945922852
vt 0.5680034756660461 0.5181756913661957
vt 0.5215505957603455 0.5411023199558258
vt 0.5432973504066467 0.5550548136234283
vt 0.5843372941017151 0.5359548032283783
vt 0.5000938773155212 0.5892377197742462
vt 0.499042809009552 0.5269647836685181
vt 0.5314775109291077 0.482236385345459
vt 0.47438979148864746 0.5792378783226013
vt 0.45877352356910706 0.637208104133606
vt 0.6115288138389587 0.5134920477867126
vt 0.6442894339561462 0.498596727848053
vt 0.680900514125824 0.48931246995925903
vt 0.6115288138389587 0.8831582069396973
vt 0.6442894339561462 0.8980535119771957
vt 0.680900514125824 0.9073377773165703
vt 0.9167714715003967 0.8554856777191162
vt 0.9392892718315125 0.8696086406707764
vt 0.9127951264381409 0.7977972328662872
vt 0.9381685853004456 0.8073525875806808
vt 0.96388179063797 0.817334309220314
vt 0.8951852917671204 0.7453073859214783
vt 0.9236366152763367 0.7492440938949585
vt 0.9513352513313293 0.7541429102420807
vt 0.9794264435768127 0.759385496377945
vt 0.8980403542518616 0.698325127363205
vt 0.9271685481071472 0.698325127363205
vt 0.9557321667671204 0.698325127363205
vt 0.9848203063011169 0.698325127363205
vt 0.8951852917671204 0.6513428688049316
vt 0.9127951264381409 0.5988530218601227
vt 0.9167714715003967 0.5411646962165833
vt 0.9392892718315125 0.5270416736602783
vt 0.9381685853004456 0.5892977118492126
vt 0.96388179063797 0.5793159902095795
vt 0.9236366152763367 0.647406280040741
vt 0.9513352513313293 0.6425074636936188
vt 0.9794264435768127 0.6372648775577545
vt 0.5429717898368835 0.6513021290302277
vt 0.5708315968513489 0.4462375044822693
vt 0.6163001656532288 0.41945570707321167
vt 0.666465699672699 0.4027995467185974
vt 0.5 0.5
vt 0.0 1.0
vt 1.401298464324817e-45 1.0
vt 0.0 1.0
vt 0.5 0.5
vt 0.0 1.0
vt 1.401298464324817e-45 1.0
vt 0.0 1.0
vt 0.6000000238418579 0.5999999940395355
vt 0.0 1.0
vt 1.401298464324817e-45 1.0
vt 0.0 1.0
vt 0.6000000238418579 0.5999999940395355
vt 0.0 1.0
vt 1.401298464324817e-45 1.0
vt 0.0 1.0
vt 0.6000000238418579 0.5999999940395355
vt 0.0 1.0
vt 1.401298464324817e-45 1.0
vt 0.0 1.0
vt 0.5 0.5
vt 0.0 1.0
vt 1.401298464324817e-45 1.0
vt 0.0 1.0
vt 0.6000000238418579 0.5999999940395355
vt 0.0 1.0
vt 1.401298464324817e-45 1.0
vt 0.0 1.0
vt 0.5 0.5
vt 0.0 1.0
vt 1.401298464324817e-45 1.0
vt 0.0 1.0
vt 0.6000000238418579 0.5999999940395355
vt 0.0 1.0
vt 1.401298464324817e-45 1.0
vt 0.0 1.0
vt 0.5 0.5
vt 0.0 1.0
vt 1.401298464324817e-45 1.0
vt 0.0 1.0
vt 0.75 0.75
vt 0.0 1.0
vt 0.0 1.0
vt 0.0 1.0
vt 0.75 0.75
vt 0.0 1.0
vt 0.0 1.0
vt 0.0 1.0
vt 0.75 0.75
vt 0.0 1.0
vt 0.0 1.0
vt 0.0 1.0
vt 0.75 0.75
vt 0.0 1.0
vt 0.0 1.0
vt 0.0 1.0
vt 0.75 0.75
vt 0.0 1.0
vt 0.0 1.0
vt 0.0 1.0
vt 0.8999999761581421 0.8999999985098839
vt 0.0 1.0
vt 0.0 1.0
vt 0.0 1.0
vt 0.8999999761581421 0.8999999985098839
vt 0.0 1.0
vt 0.0 1.0
vt 0.0 1.0
vt 0.8999999761581421 0.8999999985098839
vt 0.0 1.0
vt 0.0 1.0
vt 0.0 1.0
vt 0.8999999761581421 0.8999999985098839
vt 0.0 1.0
vt 0.0 1.0
vt 0.0 1.0
vt 0.8999999761581421 0.8999999985098839
vt 0.0 1.0
vt 0.0 1.0
vt 0.0 1.0
vt 1.0 1.0
vt 0.0 1.0
vt 0.0 1.0
vt 0.0 1.0
vt 1.0 1.0
vt 0.0 1.0
vt 0.0 1.0
vt 0.0 1.0
vt 1.0 1.0
vt 0.0 1.0
vt 0.0 1.0
vt 0.0 1.0
vt 1.0 1.0
vt 0.0 1.0
vt 0.0 1.0
vt 0.0 1.0
vt 1.0 1.0
vt 0.0 1.0
vt 0.0 1.0
vt 0.0 1.0
vt 0.5 0.5
vt 0.0 1.0
vt 1.401298464324817e-45 1.0
vt 0.0 1.0
vt 0.6000000238418579 0.5999999940395355
vt 0.0 1.0
vt 1.401298464324817e-45 1.0
vt 0.0 1.0
vt 0.6000000238418579 0.5999999940395355
vt 0.0 1.0
vt 1.401298464324817e-45 1.0
vt 0.0 1.0
vt 0.5 0.5
vt 0.0 1.0
vt 1.401298464324817e-45 1.0
vt 0.0 1.0
vt 0.6000000238418579 0.5999999940395355
vt 0.0 1.0
vt 1.401298464324817e-45 1.0
vt 0.0 1.0
vt 0.5 0.5
vt 0.0 1.0
vt 1.401298464324817e-45 1.0
vt 0.0 1.0
vt 0.6000000238418579 0.5999999940395355
vt 0.0 1.0
vt 1.401298464324817e-45 1.0
vt 0.0 1.0
vt 0.5 0.5
vt 0.0 1.0
vt 1.401298464324817e-45 1.0
vt 0.0 1.0
vt 0.75 0.75
vt 0.0 1.0
vt 0.0 1.0
vt 0.0 1.0
vt 0.75 0.75
vt 0.0 1.0
vt 0.0 1.0
vt 0.0 1.0
vt 0.8999999761581421 0.8999999985098839
vt 0.0 1.0
vt 0.0 1.0
vt 0.0 1.0
vt 0.8999999761581421 0.8999999985098839
vt 0.0 1.0
vt 0.0 1.0
vt 0.0 1.0
vt 1.0 1.0
vt 0.0 1.0
vt 0.0 1.0
vt 0.0 1.0
vt 1.0 1.0
vt 0.0 1.0
vt 0.0 1.0
vt 0.0 1.0
vt 0.75 0.75
vt 0.0 1.0
vt 0.0 1.0
vt 0.0 1.0
vt 0.8999999761581421 0.8999999985098839
vt 0.0 1.0
vt 0.0 1.0
vt 0.0 1.0
vt 1.0 1.0
vt 0.0 1.0
vt 0.0 1.0
vt 0.0 1.0
vt 0.75 0.75
vt 0.0 1.0
vt 0.0 1.0
vt 0.0 1.0
vt 0.8999999761581421 0.8999999985098839
vt 0.0 1.0
vt 0.0 1.0
vt 0.0 1.0
vt 1.0 1.0
vt 0.0 1.0
vt 0.0 1.0
vt 0.0 1.0
vt 0.75 0.75
vt 0.0 1.0
vt 0.0 1.0
vt 0.0 1.0
vt 0.5 0.5
vt 0.0 1.0
vt 1.401298464324817e-45 1.0
vt 0.0 1.0
vt 0.5 0.5
vt 0.0 1.0
vt 1.401298464324817e-45 1.0
vt 0.0 1.0
vt 0.6000000238418579 0.5999999940395355
vt 0.0 1.0
vt 1.401298464324817e-45 1.0
vt 0.0 1.0
vt 0.6000000238418579 0.5999999940395355
vt 0.0 1.0
vt 1.401298464324817e-45 1.0
vt 0.0 1.0
vt 0.75 0.75
vt 0.0 1.0
vt 1.401298464324817e-45 1.0
vt 0.0 1.0
vt 0.75 0.75
vt 0.0 1.0
vt 1.401298464324817e-45 1.0
vt 0.0 1.0
vt 0.75 0.75

g eff_mdl_othi_suiteki_01
s 1
usemtl eff_mdl_othi_suiteki_01
f 3/3/3 2/2/2 1/1/1 
f 4/4/4 3/3/3 1/1/1 
f 3/3/3 5/5/5 2/2/2 
f 5/5/5 6/6/6 2/2/2 
f 5/5/5 7/7/7 6/6/6 
f 7/7/7 8/8/8 6/6/6 
f 7/7/7 9/9/9 8/8/8 
f 9/9/9 10/10/10 8/8/8 
f 1/1/1 2/2/2 11/11/11 
f 2/2/2 12/12/12 11/11/11 
f 2/2/2 6/6/6 12/12/12 
f 6/6/6 13/13/13 12/12/12 
f 6/6/6 8/8/8 13/13/13 
f 8/8/8 14/14/14 13/13/13 
f 8/8/8 10/10/10 14/14/14 
f 10/10/10 15/15/15 14/14/14 
f 11/11/11 12/12/12 16/16/16 
f 12/12/12 17/17/17 16/16/16 
f 12/12/12 13/13/13 17/17/17 
f 13/13/13 18/18/18 17/17/17 
f 13/13/13 14/14/14 18/18/18 
f 14/14/14 19/19/19 18/18/18 
f 14/14/14 15/15/15 19/19/19 
f 15/15/15 20/20/20 19/19/19 
f 16/16/16 17/17/17 21/21/21 
f 17/17/17 22/22/22 21/21/21 
f 17/17/17 18/18/18 22/22/22 
f 18/18/18 23/23/23 22/22/22 
f 18/18/18 19/19/19 23/23/23 
f 19/19/19 24/24/24 23/23/23 
f 19/19/19 20/20/20 24/24/24 
f 20/20/20 25/25/25 24/24/24 
f 15/15/15 10/10/10 26/26/26 
f 26/26/26 10/10/10 27/27/27 
f 26/26/26 27/27/27 28/28/28 
f 29/29/29 26/26/26 28/28/28 
f 29/29/29 28/28/28 30/30/30 
f 31/31/31 29/29/29 30/30/30 
f 31/31/31 30/30/30 32/32/32 
f 33/33/33 31/31/31 32/32/32 
f 34/34/34 31/31/31 33/33/33 
f 35/35/35 34/34/34 33/33/33 
f 36/36/36 34/34/34 35/35/35 
f 37/37/37 36/36/36 35/35/35 
f 38/38/38 36/36/36 37/37/37 
f 39/39/39 38/38/38 37/37/37 
f 40/40/40 29/29/29 31/31/31 
f 34/34/34 40/40/40 31/31/31 
f 41/41/41 40/40/40 34/34/34 
f 36/36/36 41/41/41 34/34/34 
f 42/42/42 41/41/41 36/36/36 
f 38/38/38 42/42/42 36/36/36 
f 40/40/40 43/43/43 29/29/29 
f 43/43/43 26/26/26 29/29/29 
f 44/44/44 43/43/43 40/40/40 
f 41/41/41 44/44/44 40/40/40 
f 45/45/45 44/44/44 41/41/41 
f 42/42/42 45/45/45 41/41/41 
f 43/43/43 15/15/15 26/26/26 
f 20/20/20 15/15/15 43/43/43 
f 44/44/44 20/20/20 43/43/43 
f 25/25/25 20/20/20 44/44/44 
f 45/45/45 25/25/25 44/44/44 
f 35/35/35 46/46/46 37/37/37 
f 47/47/47 46/46/46 35/35/35 
f 47/47/47 48/48/48 46/46/46 
f 49/49/49 48/48/48 47/47/47 
f 50/50/50 49/49/49 47/47/47 
f 51/51/51 49/49/49 50/50/50 
f 52/52/52 51/51/51 50/50/50 
f 52/52/52 50/50/50 32/32/32 
f 30/30/30 52/52/52 32/32/32 
f 53/53/53 52/52/52 30/30/30 
f 28/28/28 53/53/53 30/30/30 
f 54/54/54 53/53/53 28/28/28 
f 27/27/27 54/54/54 28/28/28 
f 55/55/55 54/54/54 27/27/27 
f 9/9/9 55/55/55 27/27/27 
f 10/10/10 9/9/9 27/27/27 
f 56/56/56 51/51/51 52/52/52 
f 53/53/53 56/56/56 52/52/52 
f 57/57/57 56/56/56 53/53/53 
f 54/54/54 57/57/57 53/53/53 
f 58/58/58 57/57/57 54/54/54 
f 55/55/55 58/58/58 54/54/54 
f 51/51/51 59/59/59 49/49/49 
f 60/60/60 59/59/59 51/51/51 
f 56/56/56 60/60/60 51/51/51 
f 61/61/61 60/60/60 56/56/56 
f 57/57/57 61/61/61 56/56/56 
f 62/62/62 61/61/61 57/57/57 
f 58/58/58 62/62/62 57/57/57 
f 60/60/60 63/63/63 59/59/59 
f 63/63/63 64/64/64 59/59/59 
f 59/59/59 64/64/64 65/65/65 
f 59/59/59 65/65/65 49/49/49 
f 64/64/64 66/66/66 65/65/65 
f 67/67/67 63/63/63 60/60/60 
f 61/61/61 67/67/67 60/60/60 
f 68/68/68 67/67/67 61/61/61 
f 62/62/62 68/68/68 61/61/61 
f 69/69/69 62/62/62 58/58/58 
f 70/70/70 69/69/69 58/58/58 
f 71/71/71 69/69/69 70/70/70 
f 72/72/72 71/71/71 70/70/70 
f 73/73/73 71/71/71 72/72/72 
f 74/74/74 73/73/73 72/72/72 
f 75/75/75 73/73/73 74/74/74 
f 76/76/76 75/75/75 74/74/74 
f 77/77/77 75/75/75 76/76/76 
f 78/78/78 77/77/77 76/76/76 
f 78/78/78 76/76/76 79/79/79 
f 80/80/80 78/78/78 79/79/79 
f 80/80/80 79/79/79 4/4/4 
f 1/1/1 80/80/80 4/4/4 
f 81/81/81 80/80/80 1/1/1 
f 11/11/11 81/81/81 1/1/1 
f 82/82/82 81/81/81 11/11/11 
f 16/16/16 82/82/82 11/11/11 
f 83/83/83 82/82/82 16/16/16 
f 21/21/21 83/83/83 16/16/16 
f 84/84/84 78/78/78 80/80/80 
f 81/81/81 84/84/84 80/80/80 
f 85/85/85 84/84/84 81/81/81 
f 82/82/82 85/85/85 81/81/81 
f 86/86/86 85/85/85 82/82/82 
f 83/83/83 86/86/86 82/82/82 
f 87/87/87 77/77/77 78/78/78 
f 84/84/84 87/87/87 78/78/78 
f 88/88/88 87/87/87 84/84/84 
f 85/85/85 88/88/88 84/84/84 
f 89/89/89 88/88/88 85/85/85 
f 86/86/86 89/89/89 85/85/85 
f 88/88/88 90/90/90 87/87/87 
f 90/90/90 91/91/91 87/87/87 
f 87/87/87 91/91/91 77/77/77 
f 91/91/91 92/92/92 77/77/77 
f 77/77/77 92/92/92 75/75/75 
f 92/92/92 93/93/93 75/75/75 
f 94/94/94 90/90/90 88/88/88 
f 89/89/89 94/94/94 88/88/88 
f 75/75/75 93/93/93 73/73/73 
f 93/93/93 95/95/95 73/73/73 
f 73/73/73 95/95/95 71/71/71 
f 95/95/95 96/96/96 71/71/71 
f 71/71/71 96/96/96 69/69/69 
f 96/96/96 97/97/97 69/69/69 
f 69/69/69 97/97/97 62/62/62 
f 97/97/97 68/68/68 62/62/62 
f 94/94/94 89/89/89 98/98/98 
f 98/98/98 89/89/89 99/99/99 
f 98/98/98 99/99/99 100/100/100 
f 100/100/100 99/99/99 101/101/101 
f 100/100/100 101/101/101 102/102/102 
f 102/102/102 101/101/101 103/103/103 
f 102/102/102 103/103/103 104/104/104 
f 105/105/105 104/104/104 103/103/103 
f 106/106/106 105/105/105 103/103/103 
f 107/107/107 105/105/105 106/106/106 
f 108/108/108 107/107/107 106/106/106 
f 109/109/109 107/107/107 108/108/108 
f 110/110/110 109/109/109 108/108/108 
f 111/111/111 109/109/109 110/110/110 
f 112/112/112 111/111/111 110/110/110 
f 106/106/106 103/103/103 113/113/113 
f 101/101/101 113/113/113 103/103/103 
f 114/114/114 106/106/106 113/113/113 
f 108/108/108 106/106/106 114/114/114 
f 115/115/115 108/108/108 114/114/114 
f 110/110/110 108/108/108 115/115/115 
f 116/116/116 110/110/110 115/115/115 
f 112/112/112 110/110/110 116/116/116 
f 117/117/117 112/112/112 116/116/116 
f 114/114/114 113/113/113 118/118/118 
f 119/119/119 114/114/114 118/118/118 
f 115/115/115 114/114/114 119/119/119 
f 120/120/120 115/115/115 119/119/119 
f 116/116/116 115/115/115 120/120/120 
f 121/121/121 116/116/116 120/120/120 
f 117/117/117 116/116/116 121/121/121 
f 122/122/122 117/117/117 121/121/121 
f 119/119/119 118/118/118 21/21/21 
f 22/22/22 119/119/119 21/21/21 
f 120/120/120 119/119/119 22/22/22 
f 23/23/23 120/120/120 22/22/22 
f 121/121/121 120/120/120 23/23/23 
f 24/24/24 121/121/121 23/23/23 
f 122/122/122 121/121/121 24/24/24 
f 25/25/25 122/122/122 24/24/24 
f 112/112/112 117/117/117 123/123/123 
f 112/112/112 123/123/123 124/124/124 
f 124/124/124 123/123/123 125/125/125 
f 123/123/123 126/126/126 125/125/125 
f 125/125/125 126/126/126 127/127/127 
f 126/126/126 128/128/128 127/127/127 
f 127/127/127 128/128/128 129/129/129 
f 128/128/128 130/130/130 129/129/129 
f 128/128/128 131/131/131 130/130/130 
f 131/131/131 132/132/132 130/130/130 
f 131/131/131 133/133/133 132/132/132 
f 133/133/133 134/134/134 132/132/132 
f 133/133/133 38/38/38 134/134/134 
f 38/38/38 39/39/39 134/134/134 
f 135/135/135 131/131/131 128/128/128 
f 126/126/126 135/135/135 128/128/128 
f 136/136/136 133/133/133 131/131/131 
f 135/135/135 136/136/136 131/131/131 
f 42/42/42 38/38/38 133/133/133 
f 136/136/136 42/42/42 133/133/133 
f 137/137/137 135/135/135 126/126/126 
f 123/123/123 137/137/137 126/126/126 
f 138/138/138 136/136/136 135/135/135 
f 137/137/137 138/138/138 135/135/135 
f 45/45/45 42/42/42 136/136/136 
f 138/138/138 45/45/45 136/136/136 
f 117/117/117 137/137/137 123/123/123 
f 122/122/122 138/138/138 137/137/137 
f 117/117/117 122/122/122 137/137/137 
f 25/25/25 45/45/45 138/138/138 
f 122/122/122 25/25/25 138/138/138 
f 139/139/139 132/132/132 134/134/134 
f 139/139/139 140/140/140 132/132/132 
f 141/141/141 140/140/140 139/139/139 
f 141/141/141 142/142/142 140/140/140 
f 142/142/142 143/143/143 140/140/140 
f 142/142/142 144/144/144 143/143/143 
f 144/144/144 145/145/145 143/143/143 
f 143/143/143 145/145/145 129/129/129 
f 145/145/145 127/127/127 129/129/129 
f 145/145/145 146/146/146 127/127/127 
f 146/146/146 125/125/125 127/127/127 
f 146/146/146 147/147/147 125/125/125 
f 147/147/147 124/124/124 125/125/125 
f 147/147/147 148/148/148 124/124/124 
f 148/148/148 111/111/111 124/124/124 
f 111/111/111 112/112/112 124/124/124 
f 149/149/149 146/146/146 145/145/145 
f 144/144/144 149/149/149 145/145/145 
f 150/150/150 147/147/147 146/146/146 
f 149/149/149 150/150/150 146/146/146 
f 151/151/151 148/148/148 147/147/147 
f 150/150/150 151/151/151 147/147/147 
f 152/152/152 144/144/144 142/142/142 
f 153/153/153 149/149/149 144/144/144 
f 152/152/152 153/153/153 144/144/144 
f 154/154/154 150/150/150 149/149/149 
f 153/153/153 154/154/154 149/149/149 
f 155/155/155 151/151/151 150/150/150 
f 154/154/154 155/155/155 150/150/150 
f 156/156/156 153/153/153 152/152/152 
f 157/157/157 156/156/156 152/152/152 
f 157/157/157 152/152/152 158/158/158 
f 158/158/158 152/152/152 142/142/142 
f 159/159/159 157/157/157 158/158/158 
f 160/160/160 154/154/154 153/153/153 
f 156/156/156 160/160/160 153/153/153 
f 161/161/161 155/155/155 154/154/154 
f 160/160/160 161/161/161 154/154/154 
f 155/155/155 162/162/162 151/151/151 
f 162/162/162 163/163/163 151/151/151 
f 162/162/162 164/164/164 163/163/163 
f 164/164/164 165/165/165 163/163/163 
f 164/164/164 166/166/166 165/165/165 
f 166/166/166 167/167/167 165/165/165 
f 166/166/166 168/168/168 167/167/167 
f 168/168/168 169/169/169 167/167/167 
f 168/168/168 170/170/170 169/169/169 
f 170/170/170 171/171/171 169/169/169 
f 169/169/169 171/171/171 172/172/172 
f 171/171/171 102/102/102 172/172/172 
f 172/172/172 102/102/102 104/104/104 
f 171/171/171 100/100/100 102/102/102 
f 173/173/173 100/100/100 171/171/171 
f 170/170/170 173/173/173 171/171/171 
f 173/173/173 98/98/98 100/100/100 
f 174/174/174 170/170/170 168/168/168 
f 175/175/175 174/174/174 168/168/168 
f 175/175/175 168/168/168 166/166/166 
f 176/176/176 173/173/173 170/170/170 
f 174/174/174 176/176/176 170/170/170 
f 177/177/177 98/98/98 173/173/173 
f 176/176/176 177/177/177 173/173/173 
f 177/177/177 94/94/94 98/98/98 
f 172/172/172 104/104/104 105/105/105 
f 178/178/178 172/172/172 105/105/105 
f 169/169/169 172/172/172 178/178/178 
f 167/167/167 169/169/169 178/178/178 
f 178/178/178 105/105/105 107/107/107 
f 179/179/179 178/178/178 107/107/107 
f 167/167/167 178/178/178 179/179/179 
f 165/165/165 167/167/167 179/179/179 
f 179/179/179 107/107/107 109/109/109 
f 180/180/180 179/179/179 109/109/109 
f 165/165/165 179/179/179 180/180/180 
f 163/163/163 165/165/165 180/180/180 
f 180/180/180 109/109/109 111/111/111 
f 148/148/148 180/180/180 111/111/111 
f 163/163/163 180/180/180 148/148/148 
f 151/151/151 163/163/163 148/148/148 
f 181/181/181 175/175/175 166/166/166 
f 181/181/181 166/166/166 164/164/164 
f 182/182/182 181/181/181 164/164/164 
f 182/182/182 164/164/164 162/162/162 
f 183/183/183 182/182/182 162/162/162 
f 183/183/183 162/162/162 155/155/155 
f 161/161/161 183/183/183 155/155/155 
f 79/79/79 184/184/184 3/3/3 
f 4/4/4 79/79/79 3/3/3 
f 79/79/79 76/76/76 184/184/184 
f 76/76/76 74/74/74 184/184/184 
f 3/3/3 184/184/184 5/5/5 
f 184/184/184 185/185/185 5/5/5 
f 184/184/184 74/74/74 185/185/185 
f 74/74/74 72/72/72 185/185/185 
f 5/5/5 185/185/185 7/7/7 
f 185/185/185 186/186/186 7/7/7 
f 185/185/185 72/72/72 186/186/186 
f 72/72/72 70/70/70 186/186/186 
f 7/7/7 186/186/186 9/9/9 
f 186/186/186 55/55/55 9/9/9 
f 186/186/186 70/70/70 55/55/55 
f 70/70/70 58/58/58 55/55/55 
f 50/50/50 47/47/47 33/33/33 
f 32/32/32 50/50/50 33/33/33 
f 33/33/33 47/47/47 35/35/35 
f 65/65/65 187/187/187 48/48/48 
f 49/49/49 65/65/65 48/48/48 
f 65/65/65 66/66/66 187/187/187 
f 66/66/66 188/188/188 187/187/187 
f 48/48/48 187/187/187 189/189/189 
f 48/48/48 189/189/189 46/46/46 
f 187/187/187 190/190/190 189/189/189 
f 187/187/187 188/188/188 190/190/190 
f 188/188/188 191/191/191 190/190/190 
f 46/46/46 189/189/189 192/192/192 
f 46/46/46 192/192/192 37/37/37 
f 189/189/189 193/193/193 192/192/192 
f 189/189/189 190/190/190 193/193/193 
f 190/190/190 194/194/194 193/193/193 
f 190/190/190 191/191/191 194/194/194 
f 191/191/191 195/195/195 194/194/194 
f 37/37/37 192/192/192 39/39/39 
f 192/192/192 196/196/196 39/39/39 
f 192/192/192 193/193/193 196/196/196 
f 193/193/193 197/197/197 196/196/196 
f 193/193/193 194/194/194 197/197/197 
f 194/194/194 198/198/198 197/197/197 
f 194/194/194 195/195/195 198/198/198 
f 195/195/195 199/199/199 198/198/198 
f 196/196/196 200/200/200 39/39/39 
f 200/200/200 134/134/134 39/39/39 
f 200/200/200 139/139/139 134/134/134 
f 201/201/201 139/139/139 200/200/200 
f 201/201/201 141/141/141 139/139/139 
f 202/202/202 141/141/141 201/201/201 
f 202/202/202 158/158/158 141/141/141 
f 158/158/158 142/142/142 141/141/141 
f 159/159/159 158/158/158 202/202/202 
f 203/203/203 159/159/159 202/202/202 
f 204/204/204 202/202/202 201/201/201 
f 203/203/203 202/202/202 204/204/204 
f 205/205/205 203/203/203 204/204/204 
f 206/206/206 201/201/201 200/200/200 
f 204/204/204 201/201/201 206/206/206 
f 207/207/207 204/204/204 206/206/206 
f 205/205/205 204/204/204 207/207/207 
f 208/208/208 205/205/205 207/207/207 
f 206/206/206 200/200/200 196/196/196 
f 197/197/197 206/206/206 196/196/196 
f 207/207/207 206/206/206 197/197/197 
f 198/198/198 207/207/207 197/197/197 
f 208/208/208 207/207/207 198/198/198 
f 199/199/199 208/208/208 198/198/198 
f 209/209/209 118/118/118 113/113/113 
f 101/101/101 209/209/209 113/113/113 
f 209/209/209 83/83/83 118/118/118 
f 83/83/83 21/21/21 118/118/118 
f 99/99/99 209/209/209 101/101/101 
f 86/86/86 83/83/83 209/209/209 
f 99/99/99 86/86/86 209/209/209 
f 89/89/89 86/86/86 99/99/99 
f 143/143/143 129/129/129 130/130/130 
f 140/140/140 143/143/143 130/130/130 
f 140/140/140 130/130/130 132/132/132 
f 212/212/212 211/211/211 210/210/210 
f 213/213/213 212/212/212 210/210/210 
f 214/214/214 212/212/212 213/213/213 
f 215/215/215 214/214/214 213/213/213 
f 216/216/216 214/214/214 215/215/215 
f 217/217/217 216/216/216 215/215/215 
f 218/218/218 216/216/216 217/217/217 
f 219/219/219 218/218/218 217/217/217 
f 213/213/213 210/210/210 220/220/220 
f 221/221/221 213/213/213 220/220/220 
f 215/215/215 213/213/213 221/221/221 
f 222/222/222 215/215/215 221/221/221 
f 217/217/217 215/215/215 222/222/222 
f 223/223/223 217/217/217 222/222/222 
f 219/219/219 217/217/217 223/223/223 
f 224/224/224 219/219/219 223/223/223 
f 221/221/221 220/220/220 225/225/225 
f 226/226/226 221/221/221 225/225/225 
f 222/222/222 221/221/221 226/226/226 
f 227/227/227 222/222/222 226/226/226 
f 223/223/223 222/222/222 227/227/227 
f 228/228/228 223/223/223 227/227/227 
f 224/224/224 223/223/223 228/228/228 
f 229/229/229 224/224/224 228/228/228 
f 226/226/226 225/225/225 230/230/230 
f 231/231/231 226/226/226 230/230/230 
f 227/227/227 226/226/226 231/231/231 
f 232/232/232 227/227/227 231/231/231 
f 228/228/228 227/227/227 232/232/232 
f 233/233/233 228/228/228 232/232/232 
f 229/229/229 228/228/228 233/233/233 
f 234/234/234 229/229/229 233/233/233 
f 219/219/219 224/224/224 235/235/235 
f 219/219/219 235/235/235 236/236/236 
f 236/236/236 235/235/235 237/237/237 
f 235/235/235 238/238/238 237/237/237 
f 237/237/237 238/238/238 239/239/239 
f 238/238/238 240/240/240 239/239/239 
f 239/239/239 240/240/240 241/241/241 
f 240/240/240 242/242/242 241/241/241 
f 240/240/240 243/243/243 242/242/242 
f 243/243/243 244/244/244 242/242/242 
f 243/243/243 245/245/245 244/244/244 
f 245/245/245 246/246/246 244/244/244 
f 245/245/245 247/247/247 246/246/246 
f 247/247/247 248/248/248 246/246/246 
f 249/249/249 243/243/243 240/240/240 
f 238/238/238 249/249/249 240/240/240 
f 250/250/250 245/245/245 243/243/243 
f 249/249/249 250/250/250 243/243/243 
f 251/251/251 247/247/247 245/245/245 
f 250/250/250 251/251/251 245/245/245 
f 252/252/252 249/249/249 238/238/238 
f 235/235/235 252/252/252 238/238/238 
f 253/253/253 250/250/250 249/249/249 
f 252/252/252 253/253/253 249/249/249 
f 254/254/254 251/251/251 250/250/250 
f 253/253/253 254/254/254 250/250/250 
f 224/224/224 252/252/252 235/235/235 
f 229/229/229 253/253/253 252/252/252 
f 224/224/224 229/229/229 252/252/252 
f 234/234/234 254/254/254 253/253/253 
f 229/229/229 234/234/234 253/253/253 
f 255/255/255 244/244/244 246/246/246 
f 255/255/255 256/256/256 244/244/244 
f 257/257/257 256/256/256 255/255/255 
f 257/257/257 258/258/258 256/256/256 
f 258/258/258 259/259/259 256/256/256 
f 258/258/258 260/260/260 259/259/259 
f 260/260/260 261/261/261 259/259/259 
f 259/259/259 261/261/261 241/241/241 
f 261/261/261 239/239/239 241/241/241 
f 261/261/261 262/262/262 239/239/239 
f 262/262/262 237/237/237 239/239/239 
f 262/262/262 263/263/263 237/237/237 
f 263/263/263 236/236/236 237/237/237 
f 263/263/263 264/264/264 236/236/236 
f 264/264/264 218/218/218 236/236/236 
f 218/218/218 219/219/219 236/236/236 
f 265/265/265 262/262/262 261/261/261 
f 260/260/260 265/265/265 261/261/261 
f 266/266/266 263/263/263 262/262/262 
f 265/265/265 266/266/266 262/262/262 
f 267/267/267 264/264/264 263/263/263 
f 266/266/266 267/267/267 263/263/263 
f 268/268/268 260/260/260 258/258/258 
f 269/269/269 265/265/265 260/260/260 
f 268/268/268 269/269/269 260/260/260 
f 270/270/270 266/266/266 265/265/265 
f 269/269/269 270/270/270 265/265/265 
f 271/271/271 267/267/267 266/266/266 
f 270/270/270 271/271/271 266/266/266 
f 272/272/272 269/269/269 268/268/268 
f 273/273/273 272/272/272 268/268/268 
f 273/273/273 268/268/268 274/274/274 
f 274/274/274 268/268/268 258/258/258 
f 275/275/275 273/273/273 274/274/274 
f 276/276/276 270/270/270 269/269/269 
f 272/272/272 276/276/276 269/269/269 
f 277/277/277 271/271/271 270/270/270 
f 276/276/276 277/277/277 270/270/270 
f 271/271/271 278/278/278 267/267/267 
f 278/278/278 279/279/279 267/267/267 
f 278/278/278 280/280/280 279/279/279 
f 280/280/280 281/281/281 279/279/279 
f 280/280/280 282/282/282 281/281/281 
f 282/282/282 283/283/283 281/281/281 
f 282/282/282 284/284/284 283/283/283 
f 284/284/284 285/285/285 283/283/283 
f 284/284/284 286/286/286 285/285/285 
f 286/286/286 287/287/287 285/285/285 
f 285/285/285 287/287/287 288/288/288 
f 287/287/287 289/289/289 288/288/288 
f 288/288/288 289/289/289 211/211/211 
f 289/289/289 210/210/210 211/211/211 
f 289/289/289 290/290/290 210/210/210 
f 290/290/290 220/220/220 210/210/210 
f 290/290/290 291/291/291 220/220/220 
f 291/291/291 225/225/225 220/220/220 
f 291/291/291 292/292/292 225/225/225 
f 292/292/292 230/230/230 225/225/225 
f 293/293/293 290/290/290 289/289/289 
f 287/287/287 293/293/293 289/289/289 
f 294/294/294 291/291/291 290/290/290 
f 293/293/293 294/294/294 290/290/290 
f 295/295/295 292/292/292 291/291/291 
f 294/294/294 295/295/295 291/291/291 
f 296/296/296 293/293/293 287/287/287 
f 286/286/286 296/296/296 287/287/287 
f 297/297/297 294/294/294 293/293/293 
f 296/296/296 297/297/297 293/293/293 
f 298/298/298 295/295/295 294/294/294 
f 297/297/297 298/298/298 294/294/294 
f 299/299/299 297/297/297 296/296/296 
f 300/300/300 299/299/299 296/296/296 
f 300/300/300 296/296/296 286/286/286 
f 301/301/301 300/300/300 286/286/286 
f 301/301/301 286/286/286 284/284/284 
f 302/302/302 301/301/301 284/284/284 
f 303/303/303 298/298/298 297/297/297 
f 299/299/299 303/303/303 297/297/297 
f 302/302/302 284/284/284 282/282/282 
f 304/304/304 302/302/302 282/282/282 
f 304/304/304 282/282/282 280/280/280 
f 305/305/305 304/304/304 280/280/280 
f 305/305/305 280/280/280 278/278/278 
f 306/306/306 305/305/305 278/278/278 
f 306/306/306 278/278/278 271/271/271 
f 277/277/277 306/306/306 271/271/271 
f 298/298/298 303/303/303 307/307/307 
f 298/298/298 307/307/307 308/308/308 
f 308/308/308 307/307/307 309/309/309 
f 308/308/308 309/309/309 310/310/310 
f 310/310/310 309/309/309 311/311/311 
f 310/310/310 311/311/311 312/312/312 
f 312/312/312 311/311/311 313/313/313 
f 313/313/313 314/314/314 312/312/312 
f 314/314/314 315/315/315 312/312/312 
f 314/314/314 316/316/316 315/315/315 
f 316/316/316 317/317/317 315/315/315 
f 316/316/316 318/318/318 317/317/317 
f 318/318/318 319/319/319 317/317/317 
f 318/318/318 320/320/320 319/319/319 
f 320/320/320 321/321/321 319/319/319 
f 312/312/312 315/315/315 322/322/322 
f 322/322/322 310/310/310 312/312/312 
f 315/315/315 323/323/323 322/322/322 
f 315/315/315 317/317/317 323/323/323 
f 317/317/317 324/324/324 323/323/323 
f 317/317/317 319/319/319 324/324/324 
f 319/319/319 325/325/325 324/324/324 
f 319/319/319 321/321/321 325/325/325 
f 321/321/321 326/326/326 325/325/325 
f 322/322/322 323/323/323 327/327/327 
f 323/323/323 328/328/328 327/327/327 
f 323/323/323 324/324/324 328/328/328 
f 324/324/324 329/329/329 328/328/328 
f 324/324/324 325/325/325 329/329/329 
f 325/325/325 330/330/330 329/329/329 
f 325/325/325 326/326/326 330/330/330 
f 326/326/326 331/331/331 330/330/330 
f 327/327/327 328/328/328 230/230/230 
f 328/328/328 231/231/231 230/230/230 
f 328/328/328 329/329/329 231/231/231 
f 329/329/329 232/232/232 231/231/231 
f 329/329/329 330/330/330 232/232/232 
f 330/330/330 233/233/233 232/232/232 
f 330/330/330 331/331/331 233/233/233 
f 331/331/331 234/234/234 233/233/233 
f 326/326/326 321/321/321 332/332/332 
f 332/332/332 321/321/321 333/333/333 
f 332/332/332 333/333/333 334/334/334 
f 335/335/335 332/332/332 334/334/334 
f 335/335/335 334/334/334 336/336/336 
f 337/337/337 335/335/335 336/336/336 
f 337/337/337 336/336/336 338/338/338 
f 339/339/339 337/337/337 338/338/338 
f 340/340/340 337/337/337 339/339/339 
f 341/341/341 340/340/340 339/339/339 
f 342/342/342 340/340/340 341/341/341 
f 343/343/343 342/342/342 341/341/341 
f 247/247/247 342/342/342 343/343/343 
f 248/248/248 247/247/247 343/343/343 
f 344/344/344 335/335/335 337/337/337 
f 340/340/340 344/344/344 337/337/337 
f 345/345/345 344/344/344 340/340/340 
f 342/342/342 345/345/345 340/340/340 
f 251/251/251 345/345/345 342/342/342 
f 247/247/247 251/251/251 342/342/342 
f 344/344/344 346/346/346 335/335/335 
f 346/346/346 332/332/332 335/335/335 
f 347/347/347 346/346/346 344/344/344 
f 345/345/345 347/347/347 344/344/344 
f 254/254/254 347/347/347 345/345/345 
f 251/251/251 254/254/254 345/345/345 
f 346/346/346 326/326/326 332/332/332 
f 331/331/331 326/326/326 346/346/346 
f 347/347/347 331/331/331 346/346/346 
f 234/234/234 331/331/331 347/347/347 
f 254/254/254 234/234/234 347/347/347 
f 341/341/341 348/348/348 343/343/343 
f 349/349/349 348/348/348 341/341/341 
f 349/349/349 350/350/350 348/348/348 
f 351/351/351 350/350/350 349/349/349 
f 352/352/352 351/351/351 349/349/349 
f 353/353/353 351/351/351 352/352/352 
f 354/354/354 353/353/353 352/352/352 
f 354/354/354 352/352/352 338/338/338 
f 336/336/336 354/354/354 338/338/338 
f 355/355/355 354/354/354 336/336/336 
f 334/334/334 355/355/355 336/336/336 
f 356/356/356 355/355/355 334/334/334 
f 333/333/333 356/356/356 334/334/334 
f 357/357/357 356/356/356 333/333/333 
f 320/320/320 357/357/357 333/333/333 
f 321/321/321 320/320/320 333/333/333 
f 358/358/358 353/353/353 354/354/354 
f 355/355/355 358/358/358 354/354/354 
f 359/359/359 358/358/358 355/355/355 
f 356/356/356 359/359/359 355/355/355 
f 360/360/360 359/359/359 356/356/356 
f 357/357/357 360/360/360 356/356/356 
f 353/353/353 361/361/361 351/351/351 
f 362/362/362 361/361/361 353/353/353 
f 358/358/358 362/362/362 353/353/353 
f 363/363/363 362/362/362 358/358/358 
f 359/359/359 363/363/363 358/358/358 
f 364/364/364 363/363/363 359/359/359 
f 360/360/360 364/364/364 359/359/359 
f 362/362/362 365/365/365 361/361/361 
f 365/365/365 366/366/366 361/361/361 
f 361/361/361 366/366/366 367/367/367 
f 361/361/361 367/367/367 351/351/351 
f 366/366/366 368/368/368 367/367/367 
f 369/369/369 365/365/365 362/362/362 
f 363/363/363 369/369/369 362/362/362 
f 370/370/370 369/369/369 363/363/363 
f 364/364/364 370/370/370 363/363/363 
f 371/371/371 364/364/364 360/360/360 
f 372/372/372 371/371/371 360/360/360 
f 373/373/373 371/371/371 372/372/372 
f 374/374/374 373/373/373 372/372/372 
f 375/375/375 373/373/373 374/374/374 
f 376/376/376 375/375/375 374/374/374 
f 377/377/377 375/375/375 376/376/376 
f 378/378/378 377/377/377 376/376/376 
f 379/379/379 377/377/377 378/378/378 
f 380/380/380 379/379/379 378/378/378 
f 380/380/380 378/378/378 381/381/381 
f 311/311/311 380/380/380 381/381/381 
f 311/311/311 381/381/381 313/313/313 
f 309/309/309 380/380/380 311/311/311 
f 382/382/382 379/379/379 380/380/380 
f 309/309/309 382/382/382 380/380/380 
f 307/307/307 382/382/382 309/309/309 
f 379/379/379 383/383/383 377/377/377 
f 383/383/383 384/384/384 377/377/377 
f 377/377/377 384/384/384 375/375/375 
f 385/385/385 383/383/383 379/379/379 
f 382/382/382 385/385/385 379/379/379 
f 386/386/386 385/385/385 382/382/382 
f 307/307/307 386/386/386 382/382/382 
f 303/303/303 386/386/386 307/307/307 
f 313/313/313 381/381/381 314/314/314 
f 381/381/381 387/387/387 314/314/314 
f 381/381/381 378/378/378 387/387/387 
f 378/378/378 376/376/376 387/387/387 
f 314/314/314 387/387/387 316/316/316 
f 387/387/387 388/388/388 316/316/316 
f 387/387/387 376/376/376 388/388/388 
f 376/376/376 374/374/374 388/388/388 
f 316/316/316 388/388/388 318/318/318 
f 388/388/388 389/389/389 318/318/318 
f 388/388/388 374/374/374 389/389/389 
f 374/374/374 372/372/372 389/389/389 
f 318/318/318 389/389/389 320/320/320 
f 389/389/389 357/357/357 320/320/320 
f 389/389/389 372/372/372 357/357/357 
f 372/372/372 360/360/360 357/357/357 
f 288/288/288 211/211/211 212/212/212 
f 390/390/390 288/288/288 212/212/212 
f 285/285/285 288/288/288 390/390/390 
f 283/283/283 285/285/285 390/390/390 
f 390/390/390 212/212/212 214/214/214 
f 391/391/391 390/390/390 214/214/214 
f 283/283/283 390/390/390 391/391/391 
f 281/281/281 283/283/283 391/391/391 
f 391/391/391 214/214/214 216/216/216 
f 392/392/392 391/391/391 216/216/216 
f 281/281/281 391/391/391 392/392/392 
f 279/279/279 281/281/281 392/392/392 
f 392/392/392 216/216/216 218/218/218 
f 264/264/264 392/392/392 218/218/218 
f 279/279/279 392/392/392 264/264/264 
f 267/267/267 279/279/279 264/264/264 
f 259/259/259 241/241/241 242/242/242 
f 256/256/256 259/259/259 242/242/242 
f 256/256/256 242/242/242 244/244/244 
f 274/274/274 258/258/258 257/257/257 
f 393/393/393 274/274/274 257/257/257 
f 275/275/275 274/274/274 393/393/393 
f 394/394/394 275/275/275 393/393/393 
f 393/393/393 257/257/257 395/395/395 
f 395/395/395 257/257/257 255/255/255 
f 396/396/396 393/393/393 395/395/395 
f 394/394/394 393/393/393 396/396/396 
f 397/397/397 394/394/394 396/396/396 
f 395/395/395 255/255/255 398/398/398 
f 398/398/398 255/255/255 246/246/246 
f 399/399/399 395/395/395 398/398/398 
f 396/396/396 395/395/395 399/399/399 
f 400/400/400 396/396/396 399/399/399 
f 397/397/397 396/396/396 400/400/400 
f 401/401/401 397/397/397 400/400/400 
f 398/398/398 246/246/246 248/248/248 
f 402/402/402 398/398/398 248/248/248 
f 399/399/399 398/398/398 402/402/402 
f 403/403/403 399/399/399 402/402/402 
f 400/400/400 399/399/399 403/403/403 
f 404/404/404 400/400/400 403/403/403 
f 401/401/401 400/400/400 404/404/404 
f 405/405/405 401/401/401 404/404/404 
f 406/406/406 402/402/402 248/248/248 
f 343/343/343 406/406/406 248/248/248 
f 348/348/348 406/406/406 343/343/343 
f 348/348/348 407/407/407 406/406/406 
f 350/350/350 407/407/407 348/348/348 
f 350/350/350 408/408/408 407/407/407 
f 367/367/367 408/408/408 350/350/350 
f 351/351/351 367/367/367 350/350/350 
f 367/367/367 368/368/368 408/408/408 
f 368/368/368 409/409/409 408/408/408 
f 408/408/408 410/410/410 407/407/407 
f 408/408/408 409/409/409 410/410/410 
f 409/409/409 411/411/411 410/410/410 
f 407/407/407 412/412/412 406/406/406 
f 407/407/407 410/410/410 412/412/412 
f 410/410/410 413/413/413 412/412/412 
f 410/410/410 411/411/411 413/413/413 
f 411/411/411 414/414/414 413/413/413 
f 406/406/406 412/412/412 402/402/402 
f 412/412/412 403/403/403 402/402/402 
f 412/412/412 413/413/413 403/403/403 
f 413/413/413 404/404/404 403/403/403 
f 413/413/413 414/414/414 404/404/404 
f 414/414/414 405/405/405 404/404/404 
f 415/415/415 310/310/310 322/322/322 
f 327/327/327 415/415/415 322/322/322 
f 292/292/292 415/415/415 327/327/327 
f 230/230/230 292/292/292 327/327/327 
f 415/415/415 308/308/308 310/310/310 
f 295/295/295 308/308/308 415/415/415 
f 292/292/292 295/295/295 415/415/415 
f 295/295/295 298/298/298 308/308/308 
f 384/384/384 416/416/416 375/375/375 
f 375/375/375 416/416/416 373/373/373 
f 416/416/416 417/417/417 373/373/373 
f 373/373/373 417/417/417 371/371/371 
f 417/417/417 418/418/418 371/371/371 
f 371/371/371 418/418/418 364/364/364 
f 418/418/418 370/370/370 364/364/364 
f 352/352/352 349/349/349 339/339/339 
f 338/338/338 352/352/352 339/339/339 
f 339/339/339 349/349/349 341/341/341 

