v -0.32170969247817993 -0.1857391893863678 0.03598947823047638
v 0.3217097818851471 -0.18573911488056183 0.03598947823047638
v 3.0621649216300284e-08 -0.371478408575058 0.03598947823047638
v 3.0621649216300284e-08 0.371478408575058 0.03598947823047638
v 0.32170969247817993 0.1857391893863678 0.03598947823047638
v -0.32170969247817993 0.1857391893863678 0.03598947823047638
v -0.5642303824424744 0.007039136253297329 0.027587899938225746
v -0.5006205439567566 0.22546662390232086 0.027587899938225746
v -0.45468148589134216 0.0710839182138443 0.027587899938225746
v -0.7313061356544495 0.15002141892910004 0.027587899938225746
v -0.6904916167259216 0.18487988412380219 0.027587899938225746
v -0.6565849781036377 0.00819135271012783 0.027587899938225746
v -0.6985400915145874 0.03294803947210312 0.027587899938225746
v -0.36702409386634827 0.003876379458233714 0.027587899938225746
v -0.4490697681903839 0.021595735102891922 0.027587899938225746
v -0.3832949697971344 0.14826048910617828 0.027587899938225746
v -0.35200411081314087 0.13703179359436035 0.027587899938225746
v -0.33361950516700745 0.06955750286579132 0.027587899938225746
v -0.3638521134853363 0.18051576614379883 0.027587899938225746
v -0.3039330542087555 0.17547579109668732 0.027587899938225746
v -0.32088106870651245 0.14437995851039886 0.027587899938225746
v -0.5118034482002258 0.24629876017570496 0.027587899938225746
v -0.4706270396709442 0.2717165946960449 0.027587899938225746
v -0.46920278668403625 0.3200853168964386 0.027587899938225746
v -0.4455701410770416 0.32081669569015503 0.027587899938225746
v -0.338257372379303 0.22484727203845978 0.027587899938225746
v -0.28547731041908264 0.20570115745067596 0.027587899938225746
v -0.3200449049472809 0.2578129172325134 0.027587899938225746
v -0.18686915934085846 0.31591400504112244 0.027587899938225746
v -0.2946750819683075 0.2363286167383194 0.027587899938225746
v -0.2270483523607254 0.25414419174194336 0.027587899938225746
v -0.28890126943588257 0.35822367668151855 0.027587899938225746
v -0.2882114052772522 0.4851182699203491 0.027587899938225746
v -0.49557551741600037 0.5583189129829407 0.027587899938225746
v -0.5053566098213196 0.5055431723594666 0.027587899938225746
v -0.3353864848613739 0.5645235776901245 0.027587899938225746
v -0.3778039813041687 0.5884793996810913 0.027587899938225746
v -0.2432374209165573 0.3781079053878784 0.027587899938225746
v -0.5209660530090332 0.3225763142108917 0.027587899938225746
v -0.4794731140136719 0.35955408215522766 0.027587899938225746
v -0.5153573751449585 0.3603000044822693 0.027587899938225746
v -0.5005577206611633 0.37646451592445374 0.027587899938225746
v -0.8579044342041016 0.4953112006187439 0.027587899938225746
v -0.5398423075675964 0.2898815870285034 0.027587899938225746
v -0.5511195659637451 0.23545873165130615 0.027587899938225746
v -0.5697076916694641 0.2661624550819397 0.027587899938225746
v -0.5763067007064819 0.24526332318782806 0.027587899938225746
v -0.7132983207702637 0.3677329123020172 0.027587899938225746
v -0.8431877493858337 0.3919256031513214 0.027587899938225746
v -0.6415554881095886 0.2770770490169525 0.027587899938225746
v -0.7914600968360901 0.2347060590982437 0.027587899938225746
v -0.7910075783729553 0.3315160274505615 0.027587899938225746
v -0.69155353307724 0.2193126231431961 0.027587899938225746
v -0.600551426410675 0.2767486572265625 0.027587899938225746
v -0.6751153469085693 0.43386778235435486 0.027587899938225746
v -0.7610114812850952 0.5342589616775513 0.027587899938225746
v -0.5607334971427917 0.4170646667480469 0.027587899938225746
v -0.5989915132522583 0.5680713653564453 0.027587899938225746
v -0.5357071161270142 0.48924654722213745 0.027587899938225746
v -0.6826052665710449 0.5192745327949524 0.027587899938225746
v -0.5399470925331116 0.38171830773353577 0.027587899938225746
v -0.27601906657218933 0.4921574592590332 0.027587899938225746
v -0.055050380527973175 0.5462833642959595 0.027587899938225746
v -0.16578026115894318 0.4293076992034912 0.027587899938225746
v -0.2357306182384491 0.7083405256271362 0.027587899938225746
v -0.18513503670692444 0.6904231309890747 0.027587899938225746
v -0.3211984932422638 0.5727149844169617 0.027587899938225746
v -0.32073619961738586 0.6214275360107422 0.027587899938225746
v -0.180154949426651 0.31979039311408997 0.027587899938225746
v -0.20583243668079376 0.399703711271286 0.027587899938225746
v -0.06325013935565948 0.40607351064682007 0.027587899938225746
v -0.05732906237244606 0.37336039543151855 0.027587899938225746
v -0.10657120496034622 0.32370176911354065 0.027587899938225746
v -0.02559482306241989 0.4053630828857422 0.027587899938225746
v -0.0 0.3509516417980194 0.027587899938225746
v -0.03540381044149399 0.3500811755657196 0.027587899938225746
v -0.04260067269206047 0.5663841962814331 0.027587899938225746
v 1.5310824608150142e-08 0.5434331893920898 0.027587899938225746
v -0.01887628622353077 0.6124580502510071 0.027587899938225746
v -0.07164648920297623 0.5950130224227905 0.027587899938225746
v -0.05435030907392502 0.6264625191688538 0.027587899938225746
v -0.07574904710054398 0.6217278838157654 0.027587899938225746
v -0.0 0.9906226396560669 0.027587899938225746
v -0.03818299621343613 0.801600992679596 0.027587899938225746
v -0.08217622339725494 0.9261847734451294 0.027587899938225746
v -0.08082190155982971 0.6941417455673218 0.027587899938225746
v -0.1924685835838318 0.8027775883674622 0.027587899938225746
v -0.10840240865945816 0.8507907390594482 0.027587899938225746
v -0.15584643185138702 0.7085593342781067 0.027587899938225746
v -0.060604289174079895 0.6584671139717102 0.027587899938225746
v 0.042600687593221664 0.5663841366767883 0.027587899938225746
v 2.2966236912225213e-08 0.5434331893920898 0.027587899938225746
v 0.055050380527973175 0.5462833642959595 0.027587899938225746
v 0.02559479884803295 0.4053630828857422 0.027587899938225746
v 0.035403814166784286 0.35008111596107483 0.027587899938225746
v 0.06325013190507889 0.40607351064682007 0.027587899938225746
v 0.18015502393245697 0.31979045271873474 0.027587899938225746
v 0.057329051196575165 0.3733604848384857 0.027587899938225746
v 0.10657120496034622 0.32370176911354065 0.027587899938225746
v 0.16578026115894318 0.4293076992034912 0.027587899938225746
v 0.27601906657218933 0.4921574592590332 0.027587899938225746
v 0.23573067784309387 0.7083405256271362 0.027587899938225746
v 0.18513503670692444 0.6904231309890747 0.027587899938225746
v 0.32119858264923096 0.5727149844169617 0.027587899938225746
v 0.32073619961738586 0.6214274764060974 0.027587899938225746
v 0.205832377076149 0.399703711271286 0.027587899938225746
v 0.018876317888498306 0.6124580502510071 0.027587899938225746
v 0.07164648920297623 0.595012903213501 0.027587899938225746
v 0.0543503575026989 0.6264625787734985 0.027587899938225746
v 0.07574904710054398 0.6217278838157654 0.027587899938225746
v 0.03818299621343613 0.801600992679596 0.027587899938225746
v 0.08217625319957733 0.9261848330497742 0.027587899938225746
v 0.08082190155982971 0.6941418051719666 0.027587899938225746
v 0.1924685835838318 0.8027775883674622 0.027587899938225746
v 0.1558464765548706 0.7085593342781067 0.027587899938225746
v 0.10840236395597458 0.8507906794548035 0.027587899938225746
v 0.0606042742729187 0.6584671139717102 0.027587899938225746
v 0.28821131587028503 0.4851182699203491 0.027587899938225746
v 0.4455701410770416 0.3208167552947998 0.027587899938225746
v 0.28890126943588257 0.3582237660884857 0.027587899938225746
v 0.49557551741600037 0.5583189129829407 0.027587899938225746
v 0.5053565502166748 0.5055431723594666 0.027587899938225746
v 0.3353864550590515 0.5645235776901245 0.027587899938225746
v 0.3778039813041687 0.5884793996810913 0.027587899938225746
v 0.18686914443969727 0.31591400504112244 0.027587899938225746
v 0.24323737621307373 0.3781079351902008 0.027587899938225746
v 0.3200449049472809 0.2578129470348358 0.027587899938225746
v 0.2946750819683075 0.2363286167383194 0.027587899938225746
v 0.2270483672618866 0.25414422154426575 0.027587899938225746
v 0.3382573127746582 0.22484727203845978 0.027587899938225746
v 0.3039330542087555 0.1754758208990097 0.027587899938225746
v 0.28547731041908264 0.20570114254951477 0.027587899938225746
v 0.46920275688171387 0.3200853168964386 0.027587899938225746
v 0.4706270098686218 0.2717165946960449 0.027587899938225746
v 0.5118034482002258 0.24629878997802734 0.027587899938225746
v 0.5006204843521118 0.22546669840812683 0.027587899938225746
v 0.3638521730899811 0.1805158406496048 0.027587899938225746
v 0.32088106870651245 0.14437995851039886 0.027587899938225746
v 0.3832949697971344 0.14826051890850067 0.027587899938225746
v 0.36702409386634827 0.003876409726217389 0.027587899938225746
v 0.35200411081314087 0.13703179359436035 0.027587899938225746
v 0.33361950516700745 0.06955750286579132 0.027587899938225746
v 0.4546814560890198 0.0710839331150055 0.027587899938225746
v 0.5642304420471191 0.007039166986942291 0.027587899938225746
v 0.7313061356544495 0.15002146363258362 0.027587899938225746
v 0.6904915571212769 0.18487994372844696 0.027587899938225746
v 0.6565849184989929 0.00819135271012783 0.027587899938225746
v 0.6985400915145874 0.032948099076747894 0.027587899938225746
v 0.4490697681903839 0.02159576676785946 0.027587899938225746
v 0.539842426776886 0.2898816168308258 0.027587899938225746
v 0.5511195063591003 0.23545873165130615 0.027587899938225746
v 0.5697076916694641 0.2661625146865845 0.027587899938225746
v 0.5763067007064819 0.24526333808898926 0.027587899938225746
v 0.857904314994812 0.49531134963035583 0.027587899938225746
v 0.5209660530090332 0.3225764036178589 0.027587899938225746
v 0.4794730544090271 0.35955408215522766 0.027587899938225746
v 0.5153573751449585 0.36030009388923645 0.027587899938225746
v 0.5005576610565186 0.37646451592445374 0.027587899938225746
v 0.6751152873039246 0.4338679015636444 0.027587899938225746
v 0.7610114216804504 0.534259021282196 0.027587899938225746
v 0.5607334971427917 0.41706472635269165 0.027587899938225746
v 0.5989915132522583 0.5680713653564453 0.027587899938225746
v 0.6826052069664001 0.5192745923995972 0.027587899938225746
v 0.5357071161270142 0.48924654722213745 0.027587899938225746
v 0.5399470925331116 0.38171830773353577 0.027587899938225746
v 0.7132982611656189 0.3677330017089844 0.027587899938225746
v 0.843187689781189 0.3919256031513214 0.027587899938225746
v 0.6415553689002991 0.2770770788192749 0.027587899938225746
v 0.7914600968360901 0.23470614850521088 0.027587899938225746
v 0.69155353307724 0.2193126231431961 0.027587899938225746
v 0.7910075187683105 0.3315161168575287 0.027587899938225746
v 0.600551426410675 0.2767486572265625 0.027587899938225746
v 0.5642304420471191 -0.00703924335539341 0.027587899938225746
v 0.500620424747467 -0.22546669840812683 0.027587899938225746
v 0.4546814560890198 -0.07108399271965027 0.027587899938225746
v 0.7313061356544495 -0.15002155303955078 0.027587899938225746
v 0.6904914975166321 -0.18488001823425293 0.027587899938225746
v 0.6565849781036377 -0.008191459812223911 0.027587899938225746
v 0.6985400915145874 -0.03294815868139267 0.027587899938225746
v 0.36702409386634827 -0.0038764558266848326 0.027587899938225746
v 0.4490697681903839 -0.02159581147134304 0.027587899938225746
v 0.3832949697971344 -0.14826056361198425 0.027587899938225746
v 0.35200411081314087 -0.13703185319900513 0.027587899938225746
v 0.33361950516700745 -0.0695575624704361 0.027587899938225746
v 0.3638521134853363 -0.1805158406496048 0.027587899938225746
v 0.3039329946041107 -0.1754758358001709 0.027587899938225746
v 0.32088106870651245 -0.14438000321388245 0.027587899938225746
v 0.5118034482002258 -0.24629883468151093 0.027587899938225746
v 0.4706270098686218 -0.2717166543006897 0.027587899938225746
v 0.5398423075675964 -0.2898816764354706 0.027587899938225746
v 0.5511195063591003 -0.23545880615711212 0.027587899938225746
v 0.5697076320648193 -0.26616257429122925 0.027587899938225746
v 0.5763067007064819 -0.24526341259479523 0.027587899938225746
v 0.857904314994812 -0.49531134963035583 0.027587899938225746
v 0.7132982611656189 -0.36773306131362915 0.027587899938225746
v 0.8431876301765442 -0.39192575216293335 0.027587899938225746
v 0.6415553689002991 -0.2770771384239197 0.027587899938225746
v 0.7914600968360901 -0.23470620810985565 0.027587899938225746
v 0.7910075187683105 -0.3315161466598511 0.027587899938225746
v 0.6915534734725952 -0.21931272745132446 0.027587899938225746
v 0.6005513668060303 -0.27674877643585205 0.027587899938225746
v 0.4692027270793915 -0.32008540630340576 0.027587899938225746
v 0.47062698006629944 -0.2717166543006897 0.027587899938225746
v 0.44557011127471924 -0.3208167552947998 0.027587899938225746
v 0.3382573127746582 -0.22484734654426575 0.027587899938225746
v 0.28547725081443787 -0.20570118725299835 0.027587899938225746
v 0.3200448453426361 -0.2578129768371582 0.027587899938225746
v 0.18686909973621368 -0.31591400504112244 0.027587899938225746
v 0.2946750819683075 -0.23632864654064178 0.027587899938225746
v 0.22704829275608063 -0.25414425134658813 0.027587899938225746
v 0.2889012098312378 -0.3582237660884857 0.027587899938225746
v 0.28821131587028503 -0.4851182699203491 0.027587899938225746
v 0.4955753982067108 -0.5583189725875854 0.027587899938225746
v 0.50535649061203 -0.5055432915687561 0.027587899938225746
v 0.33538639545440674 -0.5645235776901245 0.027587899938225746
v 0.37780386209487915 -0.5884794592857361 0.027587899938225746
v 0.24323733150959015 -0.3781079649925232 0.027587899938225746
v 0.5209659934043884 -0.3225764036178589 0.027587899938225746
v 0.4794730544090271 -0.3595542311668396 0.027587899938225746
v 0.515357255935669 -0.36030009388923645 0.027587899938225746
v 0.5005576610565186 -0.3764646053314209 0.027587899938225746
v 0.6751152873039246 -0.4338679015636444 0.027587899938225746
v 0.7610114216804504 -0.5342592000961304 0.027587899938225746
v 0.5607334971427917 -0.4170647859573364 0.027587899938225746
v 0.5989915132522583 -0.5680714845657349 0.027587899938225746
v 0.5357070565223694 -0.489246666431427 0.027587899938225746
v 0.6826052069664001 -0.5192746520042419 0.027587899938225746
v 0.5399470925331116 -0.3817184269428253 0.027587899938225746
v 0.27601906657218933 -0.4921574592590332 0.027587899938225746
v 0.0550503209233284 -0.5462834239006042 0.027587899938225746
v 0.1657802015542984 -0.4293076992034912 0.027587899938225746
v 0.23573054373264313 -0.7083405256271362 0.027587899938225746
v 0.18513494729995728 -0.6904232501983643 0.027587899938225746
v 0.3211984634399414 -0.5727149844169617 0.027587899938225746
v 0.3207360506057739 -0.6214275360107422 0.027587899938225746
v 0.180154949426651 -0.31979045271873474 0.027587899938225746
v 0.2058323621749878 -0.3997037708759308 0.027587899938225746
v 0.06325006484985352 -0.40607351064682007 0.027587899938225746
v 0.057328999042510986 -0.3733604848384857 0.027587899938225746
v 0.10657116770744324 -0.32370176911354065 0.027587899938225746
v 0.025594767183065414 -0.4053630828857422 0.027587899938225746
v -3.0621649216300284e-08 -0.3509516417980194 0.027587899938225746
v 0.0354037769138813 -0.35008111596107483 0.027587899938225746
v 0.04260063171386719 -0.5663841962814331 0.027587899938225746
v -4.5932473824450426e-08 -0.5434331893920898 0.027587899938225746
v 0.01887626387178898 -0.6124580502510071 0.027587899938225746
v 0.07164642959833145 -0.5950130224227905 0.027587899938225746
v 0.05435030907392502 -0.6264625191688538 0.027587899938225746
v 0.07574896514415741 -0.6217279434204102 0.027587899938225746
v -9.95203635056896e-08 -0.9906226396560669 0.027587899938225746
v 0.03818287327885628 -0.801600992679596 0.027587899938225746
v 0.0821761041879654 -0.9261848330497742 0.027587899938225746
v 0.08082178235054016 -0.6941418051719666 0.027587899938225746
v 0.19246847927570343 -0.8027775883674622 0.027587899938225746
v 0.1084023267030716 -0.8507907390594482 0.027587899938225746
v 0.15584634244441986 -0.7085593342781067 0.027587899938225746
v 0.06060419976711273 -0.6584671139717102 0.027587899938225746
v -0.042600736021995544 -0.5663841366767883 0.027587899938225746
v -5.35878861285255e-08 -0.5434331893920898 0.027587899938225746
v -0.05505041033029556 -0.5462833642959595 0.027587899938225746
v -0.025594867765903473 -0.4053630828857422 0.027587899938225746
v -0.03540384769439697 -0.35008111596107483 0.027587899938225746
v -0.06325015425682068 -0.4060734510421753 0.027587899938225746
v -0.18015502393245697 -0.31979039311408997 0.027587899938225746
v -0.05732908099889755 -0.37336039543151855 0.027587899938225746
v -0.10657120496034622 -0.32370176911354065 0.027587899938225746
v -0.16578027606010437 -0.4293076992034912 0.027587899938225746
v -0.27601921558380127 -0.4921574592590332 0.027587899938225746
v -0.23573069274425507 -0.7083403468132019 0.027587899938225746
v -0.1851351261138916 -0.6904231905937195 0.027587899938225746
v -0.32119858264923096 -0.5727149844169617 0.027587899938225746
v -0.32073622941970825 -0.6214274764060974 0.027587899938225746
v -0.20583243668079376 -0.39970365166664124 0.027587899938225746
v -0.018876386806368828 -0.6124580502510071 0.027587899938225746
v -0.071646548807621 -0.5950130224227905 0.027587899938225746
v -0.05435043200850487 -0.6264625787734985 0.027587899938225746
v -0.07574914395809174 -0.6217278838157654 0.027587899938225746
v -0.038183119148015976 -0.801600992679596 0.027587899938225746
v -0.08217629045248032 -0.9261847734451294 0.027587899938225746
v -0.08082195371389389 -0.6941418051719666 0.027587899938225746
v -0.19246861338615417 -0.8027775883674622 0.027587899938225746
v -0.1558464765548706 -0.7085592746734619 0.027587899938225746
v -0.10840247571468353 -0.8507906794548035 0.027587899938225746
v -0.06060435250401497 -0.6584671139717102 0.027587899938225746
v -0.28821131587028503 -0.4851182699203491 0.027587899938225746
v -0.4455701410770416 -0.3208167552947998 0.027587899938225746
v -0.28890126943588257 -0.3582237660884857 0.027587899938225746
v -0.49557551741600037 -0.5583189129829407 0.027587899938225746
v -0.5053565502166748 -0.5055431723594666 0.027587899938225746
v -0.3353864550590515 -0.5645235776901245 0.027587899938225746
v -0.3778039813041687 -0.5884793996810913 0.027587899938225746
v -0.18686914443969727 -0.31591400504112244 0.027587899938225746
v -0.24323737621307373 -0.3781079351902008 0.027587899938225746
v -0.3200449049472809 -0.2578129470348358 0.027587899938225746
v -0.2946750819683075 -0.2363286167383194 0.027587899938225746
v -0.2270483672618866 -0.25414422154426575 0.027587899938225746
v -0.3382573127746582 -0.22484727203845978 0.027587899938225746
v -0.3039330542087555 -0.1754758208990097 0.027587899938225746
v -0.28547731041908264 -0.20570114254951477 0.027587899938225746
v -0.46920275688171387 -0.3200853168964386 0.027587899938225746
v -0.4706270098686218 -0.2717165946960449 0.027587899938225746
v -0.5118034482002258 -0.24629878997802734 0.027587899938225746
v -0.5006204843521118 -0.22546669840812683 0.027587899938225746
v -0.3638521730899811 -0.1805158406496048 0.027587899938225746
v -0.32088106870651245 -0.14437995851039886 0.027587899938225746
v -0.3832949697971344 -0.14826051890850067 0.027587899938225746
v -0.36702409386634827 -0.003876409726217389 0.027587899938225746
v -0.35200411081314087 -0.13703179359436035 0.027587899938225746
v -0.33361950516700745 -0.06955750286579132 0.027587899938225746
v -0.4546814560890198 -0.0710839331150055 0.027587899938225746
v -0.5642304420471191 -0.007039166986942291 0.027587899938225746
v -0.7313061356544495 -0.15002146363258362 0.027587899938225746
v -0.6904915571212769 -0.18487994372844696 0.027587899938225746
v -0.6565849184989929 -0.00819135271012783 0.027587899938225746
v -0.6985400915145874 -0.032948099076747894 0.027587899938225746
v -0.4490697681903839 -0.02159576676785946 0.027587899938225746
v -0.539842426776886 -0.2898816168308258 0.027587899938225746
v -0.5511195063591003 -0.23545873165130615 0.027587899938225746
v -0.5697076916694641 -0.2661625146865845 0.027587899938225746
v -0.5763067007064819 -0.24526333808898926 0.027587899938225746
v -0.857904314994812 -0.49531134963035583 0.027587899938225746
v -0.5209660530090332 -0.3225764036178589 0.027587899938225746
v -0.4794730544090271 -0.35955408215522766 0.027587899938225746
v -0.5153573751449585 -0.36030009388923645 0.027587899938225746
v -0.5005576610565186 -0.37646451592445374 0.027587899938225746
v -0.6751152873039246 -0.4338679015636444 0.027587899938225746
v -0.7610114216804504 -0.534259021282196 0.027587899938225746
v -0.5607334971427917 -0.41706472635269165 0.027587899938225746
v -0.5989915132522583 -0.5680713653564453 0.027587899938225746
v -0.6826052069664001 -0.5192745923995972 0.027587899938225746
v -0.5357071161270142 -0.48924654722213745 0.027587899938225746
v -0.5399470925331116 -0.38171830773353577 0.027587899938225746
v -0.7132982611656189 -0.3677330017089844 0.027587899938225746
v -0.843187689781189 -0.3919256031513214 0.027587899938225746
v -0.6415553689002991 -0.2770770788192749 0.027587899938225746
v -0.7914600968360901 -0.23470614850521088 0.027587899938225746
v -0.69155353307724 -0.2193126231431961 0.027587899938225746
v -0.7910075187683105 -0.3315161168575287 0.027587899938225746
v -0.600551426410675 -0.2767486572265625 0.027587899938225746
vn -0.0 0.0 1.0
vn -0.0 0.0 1.0
vn -0.0 0.0 1.0
vn -0.0 0.0 1.0
vn -0.0 0.0 1.0
vn -0.0 0.0 1.0
vn -0.0 0.0 1.0
vn -0.0 0.0 1.0
vn -0.0 0.0 1.0
vn -0.0 0.0 1.0
vn -0.0 0.0 1.0
vn -0.0 0.0 1.0
vn -0.0 0.0 1.0
vn -0.0 0.0 1.0
vn -0.0 0.0 1.0
vn -0.0 0.0 1.0
vn -0.0 0.0 1.0
vn -0.0 0.0 1.0
vn -0.0 0.0 1.0
vn -0.0 0.0 1.0
vn -0.0 0.0 1.0
vn -0.0 0.0 1.0
vn -0.0 0.0 1.0
vn -0.0 0.0 1.0
vn -0.0 0.0 1.0
vn -0.0 0.0 1.0
vn -0.0 0.0 1.0
vn -0.0 0.0 1.0
vn -0.0 0.0 1.0
vn -0.0 0.0 1.0
vn -0.0 0.0 1.0
vn -0.0 0.0 1.0
vn -0.0 0.0 1.0
vn -0.0 0.0 1.0
vn -0.0 0.0 1.0
vn -0.0 0.0 1.0
vn -0.0 0.0 1.0
vn -0.0 0.0 1.0
vn -0.0 0.0 1.0
vn -0.0 0.0 1.0
vn -0.0 0.0 1.0
vn -0.0 0.0 1.0
vn -0.0 0.0 1.0
vn -0.0 0.0 1.0
vn -0.0 0.0 1.0
vn -0.0 0.0 1.0
vn -0.0 0.0 1.0
vn -0.0 0.0 1.0
vn -0.0 0.0 1.0
vn -0.0 0.0 1.0
vn -0.0 0.0 1.0
vn -0.0 0.0 1.0
vn -0.0 0.0 1.0
vn -0.0 0.0 1.0
vn -0.0 0.0 1.0
vn -0.0 0.0 1.0
vn -0.0 0.0 1.0
vn -0.0 0.0 1.0
vn -0.0 0.0 1.0
vn -0.0 0.0 1.0
vn -0.0 0.0 1.0
vn -0.0 0.0 1.0
vn -0.0 0.0 1.0
vn -0.0 0.0 1.0
vn -0.0 0.0 1.0
vn -0.0 0.0 1.0
vn -0.0 0.0 1.0
vn -0.0 0.0 1.0
vn -0.0 0.0 1.0
vn -0.0 0.0 1.0
vn -0.0 0.0 1.0
vn -0.0 0.0 1.0
vn -0.0 0.0 1.0
vn -0.0 0.0 1.0
vn -0.0 0.0 1.0
vn -0.0 0.0 1.0
vn -0.0 0.0 1.0
vn -0.0 0.0 1.0
vn -0.0 0.0 1.0
vn -0.0 0.0 1.0
vn -0.0 0.0 1.0
vn -0.0 0.0 1.0
vn -0.0 0.0 1.0
vn -0.0 0.0 1.0
vn -0.0 0.0 1.0
vn -0.0 0.0 1.0
vn -0.0 0.0 1.0
vn -0.0 0.0 1.0
vn -0.0 0.0 1.0
vn -0.0 0.0 1.0
vn -0.0 0.0 1.0
vn -0.0 0.0 1.0
vn -0.0 0.0 1.0
vn -0.0 0.0 1.0
vn -0.0 0.0 1.0
vn -0.0 0.0 1.0
vn -0.0 0.0 1.0
vn -0.0 0.0 1.0
vn -0.0 0.0 1.0
vn -0.0 0.0 1.0
vn -0.0 0.0 1.0
vn -0.0 0.0 1.0
vn -0.0 0.0 1.0
vn -0.0 0.0 1.0
vn -0.0 0.0 1.0
vn -0.0 0.0 1.0
vn -0.0 0.0 1.0
vn -0.0 0.0 1.0
vn -0.0 0.0 1.0
vn -0.0 0.0 1.0
vn -0.0 0.0 1.0
vn -0.0 0.0 1.0
vn -0.0 0.0 1.0
vn -0.0 0.0 1.0
vn -0.0 0.0 1.0
vn -0.0 0.0 1.0
vn -0.0 0.0 1.0
vn -0.0 0.0 1.0
vn -0.0 0.0 1.0
vn -0.0 0.0 1.0
vn -0.0 0.0 1.0
vn -0.0 0.0 1.0
vn -0.0 0.0 1.0
vn -0.0 0.0 1.0
vn -0.0 0.0 1.0
vn -0.0 0.0 1.0
vn -0.0 0.0 1.0
vn -0.0 0.0 1.0
vn -0.0 0.0 1.0
vn -0.0 0.0 1.0
vn -0.0 0.0 1.0
vn -0.0 0.0 1.0
vn -0.0 0.0 1.0
vn -0.0 0.0 1.0
vn -0.0 0.0 1.0
vn -0.0 0.0 1.0
vn -0.0 0.0 1.0
vn -0.0 0.0 1.0
vn -0.0 0.0 1.0
vn -0.0 0.0 1.0
vn -0.0 0.0 1.0
vn -0.0 0.0 1.0
vn -0.0 0.0 1.0
vn -0.0 0.0 1.0
vn -0.0 0.0 1.0
vn -0.0 0.0 1.0
vn -0.0 0.0 1.0
vn -0.0 0.0 1.0
vn -0.0 0.0 1.0
vn -0.0 0.0 1.0
vn -0.0 0.0 1.0
vn -0.0 0.0 1.0
vn -0.0 0.0 1.0
vn -0.0 0.0 1.0
vn -0.0 0.0 1.0
vn -0.0 0.0 1.0
vn -0.0 0.0 1.0
vn -0.0 0.0 1.0
vn -0.0 0.0 1.0
vn -0.0 0.0 1.0
vn -0.0 0.0 1.0
vn -0.0 0.0 1.0
vn -0.0 0.0 1.0
vn -0.0 0.0 1.0
vn -0.0 0.0 1.0
vn -0.0 0.0 1.0
vn -0.0 0.0 1.0
vn -0.0 0.0 1.0
vn -0.0 0.0 1.0
vn -0.0 0.0 1.0
vn -0.0 0.0 1.0
vn -0.0 0.0 1.0
vn -0.0 0.0 1.0
vn -0.0 0.0 1.0
vn -0.0 0.0 1.0
vn -0.0 0.0 1.0
vn -0.0 0.0 1.0
vn -0.0 0.0 1.0
vn -0.0 0.0 1.0
vn -0.0 0.0 1.0
vn -0.0 0.0 1.0
vn -0.0 0.0 1.0
vn -0.0 0.0 1.0
vn -0.0 0.0 1.0
vn -0.0 0.0 1.0
vn -0.0 0.0 1.0
vn -0.0 0.0 1.0
vn -0.0 0.0 1.0
vn -0.0 0.0 1.0
vn -0.0 0.0 1.0
vn -0.0 0.0 1.0
vn -0.0 0.0 1.0
vn -0.0 0.0 1.0
vn -0.0 0.0 1.0
vn -0.0 0.0 1.0
vn -0.0 0.0 1.0
vn -0.0 0.0 1.0
vn -0.0 0.0 1.0
vn -0.0 0.0 1.0
vn -0.0 0.0 1.0
vn -0.0 0.0 1.0
vn -0.0 0.0 1.0
vn -0.0 0.0 1.0
vn -0.0 0.0 1.0
vn -0.0 0.0 1.0
vn -0.0 0.0 1.0
vn -0.0 0.0 1.0
vn -0.0 0.0 1.0
vn -0.0 0.0 1.0
vn -0.0 0.0 1.0
vn -0.0 0.0 1.0
vn -0.0 0.0 1.0
vn -0.0 0.0 1.0
vn -0.0 0.0 1.0
vn -0.0 0.0 1.0
vn -0.0 0.0 1.0
vn -0.0 0.0 1.0
vn -0.0 0.0 1.0
vn -0.0 0.0 1.0
vn -0.0 0.0 1.0
vn -0.0 0.0 1.0
vn -0.0 0.0 1.0
vn -0.0 0.0 1.0
vn -0.0 0.0 1.0
vn -0.0 0.0 1.0
vn -0.0 0.0 1.0
vn -0.0 0.0 1.0
vn -0.0 0.0 1.0
vn -0.0 0.0 1.0
vn -0.0 0.0 1.0
vn -0.0 0.0 1.0
vn -0.0 0.0 1.0
vn -0.0 0.0 1.0
vn -0.0 0.0 1.0
vn -0.0 0.0 1.0
vn -0.0 0.0 1.0
vn -0.0 0.0 1.0
vn -0.0 0.0 1.0
vn -0.0 0.0 1.0
vn -0.0 0.0 1.0
vn -0.0 0.0 1.0
vn -0.0 0.0 1.0
vn -0.0 0.0 1.0
vn -0.0 0.0 1.0
vn -0.0 0.0 1.0
vn -0.0 0.0 1.0
vn -0.0 0.0 1.0
vn -0.0 0.0 1.0
vn -0.0 0.0 1.0
vn -0.0 0.0 1.0
vn -0.0 0.0 1.0
vn -0.0 0.0 1.0
vn -0.0 0.0 1.0
vn -0.0 0.0 1.0
vn -0.0 0.0 1.0
vn -0.0 0.0 1.0
vn -0.0 0.0 1.0
vn -0.0 0.0 1.0
vn -0.0 0.0 1.0
vn -0.0 0.0 1.0
vn -0.0 0.0 1.0
vn -0.0 0.0 1.0
vn -0.0 0.0 1.0
vn -0.0 0.0 1.0
vn -0.0 0.0 1.0
vn -0.0 0.0 1.0
vn -0.0 0.0 1.0
vn -0.0 0.0 1.0
vn -0.0 0.0 1.0
vn -0.0 0.0 1.0
vn -0.0 0.0 1.0
vn -0.0 0.0 1.0
vn -0.0 0.0 1.0
vn -0.0 0.0 1.0
vn -0.0 0.0 1.0
vn -0.0 0.0 1.0
vn -0.0 0.0 1.0
vn -0.0 0.0 1.0
vn -0.0 0.0 1.0
vn -0.0 0.0 1.0
vn -0.0 0.0 1.0
vn -0.0 0.0 1.0
vn -0.0 0.0 1.0
vn -0.0 0.0 1.0
vn -0.0 0.0 1.0
vn -0.0 0.0 1.0
vn -0.0 0.0 1.0
vn -0.0 0.0 1.0
vn -0.0 0.0 1.0
vn -0.0 0.0 1.0
vn -0.0 0.0 1.0
vn -0.0 0.0 1.0
vn -0.0 0.0 1.0
vn -0.0 0.0 1.0
vn -0.0 0.0 1.0
vn -0.0 0.0 1.0
vn -0.0 0.0 1.0
vn -0.0 0.0 1.0
vn -0.0 0.0 1.0
vn -0.0 0.0 1.0
vn -0.0 0.0 1.0
vn -0.0 0.0 1.0
vn -0.0 0.0 1.0
vn -0.0 0.0 1.0
vn -0.0 0.0 1.0
vn -0.0 0.0 1.0
vn -0.0 0.0 1.0
vn -0.0 0.0 1.0
vn -0.0 0.0 1.0
vn -0.0 0.0 1.0
vn -0.0 0.0 1.0
vn -0.0 0.0 1.0
vn -0.0 0.0 1.0
vn -0.0 0.0 1.0
vn -0.0 0.0 1.0
vn -0.0 0.0 1.0
vn -0.0 0.0 1.0
vn -0.0 0.0 1.0
vn -0.0 0.0 1.0
vn -0.0 0.0 1.0
vn -0.0 0.0 1.0
vn -0.0 0.0 1.0
vn -0.0 0.0 1.0
vn -0.0 0.0 1.0
vn -0.0 0.0 1.0
vn -0.0 0.0 1.0
vn -0.0 0.0 1.0
vn -0.0 0.0 1.0
vn -0.0 0.0 1.0
vn -0.0 0.0 1.0
vn -0.0 0.0 1.0
vn -0.0 0.0 1.0
vn -0.0 0.0 1.0
vn -0.0 0.0 1.0
vn -0.0 0.0 1.0
vn -0.0 0.0 1.0
vn -0.0 0.0 1.0
vn -0.0 0.0 1.0
vn -0.0 0.0 1.0
vt 0.14226263761520386 0.26960229873657227
vt 0.00491730123758316 0.348898708820343
vt 0.05069900304079056 0.26960229873657227
vt 0.14226263761520386 0.42819517850875854
vt 0.05069911479949951 0.42819517850875854
vt 0.1880444586277008 0.348898708820343
vt 0.9432411789894104 0.8271002173423767
vt 0.928597092628479 0.7694080024957657
vt 0.9602455496788025 0.7983181774616241
vt 0.884751558303833 0.8165813833475113
vt 0.8895992040634155 0.8033714890480042
vt 0.9214457273483276 0.8388959914445877
vt 0.9082663655281067 0.8387753218412399
vt 0.9898759722709656 0.8020712584257126
vt 0.9682549834251404 0.8087752759456635
vt 0.9665316343307495 0.7715488225221634
vt 0.975382387638092 0.7700028419494629
vt 0.9888178110122681 0.7828593552112579
vt 0.9667237997055054 0.7617174386978149
vt 0.9814451932907104 0.7550349831581116
vt 0.9816807508468628 0.7642785012722015
vt 0.9231586456298828 0.7661574929952621
vt 0.9293681979179382 0.7550349831581116
vt 0.9231586456298828 0.7439124286174774
vt 0.928597092628479 0.7406620383262634
vt 0.9667237997055054 0.7483524978160858
vt 0.9816807508468628 0.7457915544509888
vt 0.9665316343307495 0.7385210990905762
vt 0.9898759722709656 0.7079987823963165
vt 0.975382387638092 0.7400670945644379
vt 0.9888178110122681 0.7272105813026428
vt 0.9602455496788025 0.7117517590522766
vt 0.9432411789894104 0.6829698383808136
vt 0.884751558303833 0.6934886574745178
vt 0.8895992040634155 0.7066985666751862
vt 0.9214458465576172 0.6711740493774414
vt 0.9082664251327515 0.6712947189807892
vt 0.9682549834251404 0.7012946605682373
vt 0.9106931090354919 0.7501066476106644
vt 0.915412962436676 0.7363288998603821
vt 0.9069040417671204 0.7408448159694672
vt 0.9081850647926331 0.7352578043937683
vt 0.8083785772323608 0.7550349235534668
vt 0.9106931090354919 0.7599634230136871
vt 0.915412962436676 0.7737410217523575
vt 0.9069040417671204 0.7692251354455948
vt 0.9081850647926331 0.7748121321201324
vt 0.8595194220542908 0.7650040984153748
vt 0.8258123993873596 0.7764901518821716
vt 0.8885930776596069 0.7761365920305252
vt 0.8592009544372559 0.8052862286567688
vt 0.8462107181549072 0.7833374291658401
vt 0.884692370891571 0.7957246005535126
vt 0.898245096206665 0.7708580046892166
vt 0.8595194816589355 0.745065838098526
vt 0.8258124589920044 0.7335797846317291
vt 0.8885930776596069 0.7339333593845367
vt 0.8592010140419006 0.7047837674617767
vt 0.884692370891571 0.7143454551696777
vt 0.846210777759552 0.7267324030399323
vt 0.898245096206665 0.739211916923523
vt 0.9139806628227234 0.31008249521255493
vt 0.8562885522842407 0.324726402759552
vt 0.8851987719535828 0.2930780053138733
vt 0.9034618735313416 0.368571937084198
vt 0.8902519345283508 0.3637242913246155
vt 0.925776481628418 0.3318778872489929
vt 0.9256559014320374 0.3450571894645691
vt 0.8889517188072205 0.2634475827217102
vt 0.8956557512283325 0.2850685715675354
vt 0.8584294319152832 0.28679198026657104
vt 0.8568835258483887 0.27794116735458374
vt 0.869739830493927 0.2645058035850525
vt 0.8485981225967407 0.28659969568252563
vt 0.8419155478477478 0.2718784213066101
vt 0.851158857345581 0.2716429829597473
vt 0.8530380725860596 0.33016496896743774
vt 0.8419155478477478 0.32395535707473755
vt 0.8468440175056458 0.3426303267478943
vt 0.8606215119361877 0.33791059255599976
vt 0.8561056852340698 0.34641939401626587
vt 0.8616926074028015 0.3451383709907532
vt 0.8419153094291687 0.44494491815567017
vt 0.8518844842910767 0.39380401372909546
vt 0.863370418548584 0.4275110363960266
vt 0.8630171418190002 0.3647304177284241
vt 0.8921666145324707 0.3941224217414856
vt 0.8702179789543152 0.40711265802383423
vt 0.8826051950454712 0.36863118410110474
vt 0.8577386140823364 0.3550785183906555
vt 0.830793023109436 0.33016496896743774
vt 0.8419155478477478 0.32395535707473755
vt 0.827542781829834 0.324726402759552
vt 0.8352329730987549 0.28659969568252563
vt 0.8326719999313354 0.2716429829597473
vt 0.8254016637802124 0.28679198026657104
vt 0.794879138469696 0.2634475827217102
vt 0.8269475698471069 0.27794116735458374
vt 0.8140910267829895 0.2645058035850525
vt 0.7986322045326233 0.2930780053138733
vt 0.7698501944541931 0.31008249521255493
vt 0.7803691029548645 0.368571937084198
vt 0.7935789227485657 0.3637242913246155
vt 0.7580544352531433 0.3318778872489929
vt 0.7581751942634583 0.3450571894645691
vt 0.788175106048584 0.2850685715675354
vt 0.8369870781898499 0.3426303267478943
vt 0.8232094049453735 0.33791059255599976
vt 0.8277251720428467 0.34641939401626587
vt 0.8221384882926941 0.3451383709907532
vt 0.8319461345672607 0.39380401372909546
vt 0.8204602003097534 0.4275110363960266
vt 0.8208139538764954 0.3647304177284241
vt 0.7916643023490906 0.3941224217414856
vt 0.8012259006500244 0.36863118410110474
vt 0.8136128187179565 0.40711265802383423
vt 0.8260924816131592 0.3550785183906555
vt 0.9139806628227234 0.31008249521255493
vt 0.8562885522842407 0.324726402759552
vt 0.8851987719535828 0.2930780053138733
vt 0.9034618735313416 0.368571937084198
vt 0.8902519345283508 0.3637242913246155
vt 0.925776481628418 0.3318778872489929
vt 0.9256559014320374 0.3450571894645691
vt 0.8889517188072205 0.2634475827217102
vt 0.8956557512283325 0.2850685715675354
vt 0.8584294319152832 0.28679198026657104
vt 0.8568835258483887 0.27794116735458374
vt 0.869739830493927 0.2645058035850525
vt 0.8485981225967407 0.28659969568252563
vt 0.8419155478477478 0.2718784213066101
vt 0.851158857345581 0.2716429829597473
vt 0.8530380725860596 0.33016496896743774
vt 0.8419155478477478 0.32395535707473755
vt 0.830793023109436 0.33016496896743774
vt 0.827542781829834 0.324726402759552
vt 0.8352329730987549 0.28659969568252563
vt 0.8326719999313354 0.2716429829597473
vt 0.8254016637802124 0.28679198026657104
vt 0.794879138469696 0.2634475827217102
vt 0.8269475698471069 0.27794116735458374
vt 0.8140910267829895 0.2645058035850525
vt 0.7986322045326233 0.2930780053138733
vt 0.7698501944541931 0.31008249521255493
vt 0.7803691029548645 0.368571937084198
vt 0.7935789227485657 0.3637242913246155
vt 0.7580544352531433 0.3318778872489929
vt 0.7581751942634583 0.3450571894645691
vt 0.788175106048584 0.2850685715675354
vt 0.8369870781898499 0.3426303267478943
vt 0.8232094049453735 0.33791059255599976
vt 0.8277251720428467 0.34641939401626587
vt 0.8221384882926941 0.3451383709907532
vt 0.8419153094291687 0.44494491815567017
vt 0.8468440175056458 0.3426303267478943
vt 0.8606215119361877 0.33791059255599976
vt 0.8561056852340698 0.34641939401626587
vt 0.8616926074028015 0.3451383709907532
vt 0.8518844842910767 0.39380401372909546
vt 0.863370418548584 0.4275110363960266
vt 0.8630171418190002 0.3647304177284241
vt 0.8921666145324707 0.3941224217414856
vt 0.8702179789543152 0.40711265802383423
vt 0.8826051950454712 0.36863118410110474
vt 0.8577386140823364 0.3550785183906555
vt 0.8319461345672607 0.39380401372909546
vt 0.8204602003097534 0.4275110363960266
vt 0.8208139538764954 0.3647304177284241
vt 0.7916643023490906 0.3941224217414856
vt 0.8012259006500244 0.36863118410110474
vt 0.8136128187179565 0.40711265802383423
vt 0.8260924816131592 0.3550785183906555
vt 0.7765173316001892 0.9440259858965874
vt 0.8342095613479614 0.9293819218873978
vt 0.8052994012832642 0.9610303267836571
vt 0.7870362997055054 0.8855364844202995
vt 0.8002460598945618 0.8903841003775597
vt 0.7647215723991394 0.9222306981682777
vt 0.7648423314094543 0.9090512543916702
vt 0.8015462756156921 0.9906609086319804
vt 0.7948422431945801 0.9690399188548326
vt 0.8320687413215637 0.9673165380954742
vt 0.833614706993103 0.9761672094464302
vt 0.8207581639289856 0.9896026067435741
vt 0.841900110244751 0.9675087258219719
vt 0.8485824465751648 0.9822300206869841
vt 0.8393391370773315 0.982465535402298
vt 0.8374601602554321 0.9239435344934464
vt 0.8485824465751648 0.9301531091332436
vt 0.8436540961265564 0.9114780351519585
vt 0.8298765420913696 0.916197881102562
vt 0.8343923091888428 0.9076890125870705
vt 0.8288053870201111 0.9089699536561966
vt 0.8485825061798096 0.8091635853052139
vt 0.8386134505271912 0.8603043854236603
vt 0.8271273970603943 0.8265973776578903
vt 0.8274808526039124 0.8893779814243317
vt 0.7983313202857971 0.8599859923124313
vt 0.820280134677887 0.8469957709312439
vt 0.807892918586731 0.8854772597551346
vt 0.832759439945221 0.8990300074219704
vt 0.8597050905227661 0.9239435344934464
vt 0.8485824465751648 0.9301531091332436
vt 0.8629553914070129 0.9293819218873978
vt 0.8552650213241577 0.9675087258219719
vt 0.8578259944915771 0.982465535402298
vt 0.8650964498519897 0.9673165380954742
vt 0.8956188559532166 0.9906609086319804
vt 0.8635504245758057 0.9761672094464302
vt 0.8764069676399231 0.9896026067435741
vt 0.8918657898902893 0.9610303267836571
vt 0.9206477403640747 0.9440259858965874
vt 0.9101288914680481 0.8855364844202995
vt 0.8969190716743469 0.8903841003775597
vt 0.9324436783790588 0.9222307577729225
vt 0.9323228597640991 0.9090512543916702
vt 0.9023227691650391 0.9690399188548326
vt 0.8535109162330627 0.9114780351519585
vt 0.8672886490821838 0.916197881102562
vt 0.8627728819847107 0.9076890125870705
vt 0.8683596253395081 0.9089699536561966
vt 0.8585516810417175 0.8603043854236603
vt 0.8700377345085144 0.8265974372625351
vt 0.869684100151062 0.8893779814243317
vt 0.8988338112831116 0.8599859923124313
vt 0.8892720937728882 0.8854772597551346
vt 0.8768852949142456 0.8469957709312439
vt 0.8644055128097534 0.8990300074219704
vt 0.7765173316001892 0.9440259858965874
vt 0.8342095613479614 0.9293819218873978
vt 0.8052994012832642 0.9610303267836571
vt 0.7870362997055054 0.8855364844202995
vt 0.8002460598945618 0.8903841003775597
vt 0.7647215723991394 0.9222306981682777
vt 0.7648423314094543 0.9090512543916702
vt 0.8015462756156921 0.9906609086319804
vt 0.7948422431945801 0.9690399188548326
vt 0.8320687413215637 0.9673165380954742
vt 0.833614706993103 0.9761672094464302
vt 0.8207581639289856 0.9896026067435741
vt 0.841900110244751 0.9675087258219719
vt 0.8485824465751648 0.9822300206869841
vt 0.8393391370773315 0.982465535402298
vt 0.8374601602554321 0.9239435344934464
vt 0.8485824465751648 0.9301531091332436
vt 0.8436540961265564 0.9114780351519585
vt 0.8298765420913696 0.916197881102562
vt 0.8343923091888428 0.9076890125870705
vt 0.8288053870201111 0.9089699536561966
vt 0.8485825061798096 0.8091635853052139
vt 0.8386134505271912 0.8603043854236603
vt 0.8271273970603943 0.8265973776578903
vt 0.8274808526039124 0.8893779814243317
vt 0.7983313202857971 0.8599859923124313
vt 0.820280134677887 0.8469957709312439
vt 0.807892918586731 0.8854772597551346
vt 0.832759439945221 0.8990300074219704
vt 0.8597050905227661 0.9239435344934464
vt 0.8485824465751648 0.9301531091332436
vt 0.8629553914070129 0.9293819218873978
vt 0.8552650213241577 0.9675087258219719
vt 0.8578259944915771 0.982465535402298
vt 0.8650964498519897 0.9673165380954742
vt 0.8956188559532166 0.9906609086319804
vt 0.8635504245758057 0.9761672094464302
vt 0.8764069676399231 0.9896026067435741
vt 0.8918657898902893 0.9610303267836571
vt 0.9206477403640747 0.9440259858965874
vt 0.9101288914680481 0.8855364844202995
vt 0.8969190716743469 0.8903841003775597
vt 0.9324436783790588 0.9222307577729225
vt 0.9323228597640991 0.9090512543916702
vt 0.9023227691650391 0.9690399188548326
vt 0.8535109162330627 0.9114780351519585
vt 0.8672886490821838 0.916197881102562
vt 0.8627728819847107 0.9076890125870705
vt 0.8683596253395081 0.9089699536561966
vt 0.8585516810417175 0.8603043854236603
vt 0.8700377345085144 0.8265974372625351
vt 0.869684100151062 0.8893779814243317
vt 0.8988338112831116 0.8599859923124313
vt 0.8892720937728882 0.8854772597551346
vt 0.8768852949142456 0.8469957709312439
vt 0.8644055128097534 0.8990300074219704
vt 0.9432411789894104 0.8271002173423767
vt 0.928597092628479 0.7694080024957657
vt 0.9602455496788025 0.7983181774616241
vt 0.884751558303833 0.8165813833475113
vt 0.8895992040634155 0.8033714890480042
vt 0.9214457273483276 0.8388959914445877
vt 0.9082663655281067 0.8387753218412399
vt 0.9898759722709656 0.8020712584257126
vt 0.9682549834251404 0.8087752759456635
vt 0.9665316343307495 0.7715488225221634
vt 0.975382387638092 0.7700028419494629
vt 0.9888178110122681 0.7828593552112579
vt 0.9667237997055054 0.7617174386978149
vt 0.9814451932907104 0.7550349831581116
vt 0.9816807508468628 0.7642785012722015
vt 0.9231586456298828 0.7661574929952621
vt 0.9293681979179382 0.7550349831581116
vt 0.9231586456298828 0.7439124286174774
vt 0.928597092628479 0.7406620383262634
vt 0.9667237997055054 0.7483524978160858
vt 0.9816807508468628 0.7457915544509888
vt 0.9665316343307495 0.7385210990905762
vt 0.9898759722709656 0.7079987823963165
vt 0.975382387638092 0.7400670945644379
vt 0.9888178110122681 0.7272105813026428
vt 0.9602455496788025 0.7117517590522766
vt 0.9432411789894104 0.6829698383808136
vt 0.884751558303833 0.6934886574745178
vt 0.8895992040634155 0.7066985666751862
vt 0.9214458465576172 0.6711740493774414
vt 0.9082664251327515 0.6712947189807892
vt 0.9682549834251404 0.7012946605682373
vt 0.9106931090354919 0.7501066476106644
vt 0.915412962436676 0.7363288998603821
vt 0.9069040417671204 0.7408448159694672
vt 0.9081850647926331 0.7352578043937683
vt 0.8083785772323608 0.7550349235534668
vt 0.9106931090354919 0.7599634230136871
vt 0.915412962436676 0.7737410217523575
vt 0.9069040417671204 0.7692251354455948
vt 0.9081850647926331 0.7748121321201324
vt 0.8595194220542908 0.7650040984153748
vt 0.8258123993873596 0.7764901518821716
vt 0.8885930776596069 0.7761365920305252
vt 0.8592009544372559 0.8052862286567688
vt 0.8462107181549072 0.7833374291658401
vt 0.884692370891571 0.7957246005535126
vt 0.898245096206665 0.7708580046892166
vt 0.8595194816589355 0.745065838098526
vt 0.8258124589920044 0.7335797846317291
vt 0.8885930776596069 0.7339333593845367
vt 0.8592010140419006 0.7047837674617767
vt 0.884692370891571 0.7143454551696777
vt 0.846210777759552 0.7267324030399323
vt 0.898245096206665 0.739211916923523

g bg_mdl_map_snowcrystal00
s 1
usemtl bg_mdl_map_snowcrystal00
f 3/3/3 2/2/2 1/1/1 
f 2/2/2 4/4/4 1/1/1 
f 5/5/5 4/4/4 2/2/2 
f 1/1/1 4/4/4 6/6/6 
f 9/9/9 8/8/8 7/7/7 
f 8/8/8 10/10/10 7/7/7 
f 11/11/11 10/10/10 8/8/8 
f 7/7/7 10/10/10 12/12/12 
f 10/10/10 13/13/13 12/12/12 
f 9/9/9 14/14/14 8/8/8 
f 15/15/15 14/14/14 9/9/9 
f 14/14/14 16/16/16 8/8/8 
f 17/17/17 16/16/16 14/14/14 
f 18/18/18 17/17/17 14/14/14 
f 16/16/16 19/19/19 8/8/8 
f 19/19/19 20/20/20 8/8/8 
f 21/21/21 20/20/20 19/19/19 
f 8/8/8 20/20/20 22/22/22 
f 20/20/20 23/23/23 22/22/22 
f 23/23/23 20/20/20 24/24/24 
f 20/20/20 25/25/25 24/24/24 
f 26/26/26 25/25/25 20/20/20 
f 27/27/27 26/26/26 20/20/20 
f 28/28/28 25/25/25 26/26/26 
f 29/29/29 25/25/25 28/28/28 
f 30/30/30 29/29/29 28/28/28 
f 31/31/31 29/29/29 30/30/30 
f 32/32/32 25/25/25 29/29/29 
f 32/32/32 33/33/33 25/25/25 
f 25/25/25 33/33/33 34/34/34 
f 35/35/35 25/25/25 34/34/34 
f 34/34/34 33/33/33 36/36/36 
f 37/37/37 34/34/34 36/36/36 
f 38/38/38 32/32/32 29/29/29 
f 24/24/24 39/39/39 23/23/23 
f 40/40/40 39/39/39 24/24/24 
f 41/41/41 39/39/39 40/40/40 
f 40/40/40 42/42/42 41/41/41 
f 23/23/23 39/39/39 43/43/43 
f 23/23/23 43/43/43 44/44/44 
f 22/22/22 23/23/23 44/44/44 
f 45/45/45 22/22/22 44/44/44 
f 46/46/46 45/45/45 44/44/44 
f 47/47/47 45/45/45 46/46/46 
f 43/43/43 48/48/48 44/44/44 
f 49/49/49 48/48/48 43/43/43 
f 44/44/44 48/48/48 50/50/50 
f 51/51/51 50/50/50 48/48/48 
f 52/52/52 51/51/51 48/48/48 
f 53/53/53 50/50/50 51/51/51 
f 54/54/54 44/44/44 50/50/50 
f 56/56/56 43/43/43 55/55/55 
f 43/43/43 39/39/39 55/55/55 
f 39/39/39 57/57/57 55/55/55 
f 58/58/58 55/55/55 57/57/57 
f 59/59/59 58/58/58 57/57/57 
f 60/60/60 55/55/55 58/58/58 
f 61/61/61 57/57/57 39/39/39 
f 64/64/64 63/63/63 62/62/62 
f 63/63/63 65/65/65 62/62/62 
f 66/66/66 65/65/65 63/63/63 
f 62/62/62 65/65/65 67/67/67 
f 65/65/65 68/68/68 67/67/67 
f 64/64/64 69/69/69 63/63/63 
f 70/70/70 69/69/69 64/64/64 
f 69/69/69 71/71/71 63/63/63 
f 72/72/72 71/71/71 69/69/69 
f 73/73/73 72/72/72 69/69/69 
f 71/71/71 74/74/74 63/63/63 
f 74/74/74 75/75/75 63/63/63 
f 76/76/76 75/75/75 74/74/74 
f 63/63/63 75/75/75 77/77/77 
f 75/75/75 78/78/78 77/77/77 
f 77/77/77 78/78/78 79/79/79 
f 80/80/80 77/77/77 79/79/79 
f 81/81/81 80/80/80 79/79/79 
f 82/82/82 80/80/80 81/81/81 
f 78/78/78 83/83/83 79/79/79 
f 83/83/83 84/84/84 79/79/79 
f 85/85/85 84/84/84 83/83/83 
f 79/79/79 84/84/84 86/86/86 
f 87/87/87 86/86/86 84/84/84 
f 88/88/88 87/87/87 84/84/84 
f 89/89/89 86/86/86 87/87/87 
f 90/90/90 79/79/79 86/86/86 
f 92/92/92 75/75/75 91/91/91 
f 75/75/75 93/93/93 91/91/91 
f 94/94/94 93/93/93 75/75/75 
f 95/95/95 94/94/94 75/75/75 
f 96/96/96 93/93/93 94/94/94 
f 97/97/97 93/93/93 96/96/96 
f 98/98/98 97/97/97 96/96/96 
f 99/99/99 97/97/97 98/98/98 
f 100/100/100 93/93/93 97/97/97 
f 100/100/100 101/101/101 93/93/93 
f 93/93/93 101/101/101 102/102/102 
f 103/103/103 93/93/93 102/102/102 
f 102/102/102 101/101/101 104/104/104 
f 105/105/105 102/102/102 104/104/104 
f 106/106/106 100/100/100 97/97/97 
f 91/91/91 107/107/107 92/92/92 
f 108/108/108 107/107/107 91/91/91 
f 109/109/109 107/107/107 108/108/108 
f 108/108/108 110/110/110 109/109/109 
f 92/92/92 107/107/107 83/83/83 
f 83/83/83 107/107/107 111/111/111 
f 112/112/112 83/83/83 111/111/111 
f 107/107/107 113/113/113 111/111/111 
f 114/114/114 111/111/111 113/113/113 
f 115/115/115 114/114/114 113/113/113 
f 116/116/116 111/111/111 114/114/114 
f 117/117/117 113/113/113 107/107/107 
f 120/120/120 119/119/119 118/118/118 
f 119/119/119 121/121/121 118/118/118 
f 122/122/122 121/121/121 119/119/119 
f 118/118/118 121/121/121 123/123/123 
f 121/121/121 124/124/124 123/123/123 
f 120/120/120 125/125/125 119/119/119 
f 126/126/126 125/125/125 120/120/120 
f 125/125/125 127/127/127 119/119/119 
f 128/128/128 127/127/127 125/125/125 
f 129/129/129 128/128/128 125/125/125 
f 127/127/127 130/130/130 119/119/119 
f 130/130/130 131/131/131 119/119/119 
f 132/132/132 131/131/131 130/130/130 
f 119/119/119 131/131/131 133/133/133 
f 131/131/131 134/134/134 133/133/133 
f 134/134/134 131/131/131 135/135/135 
f 131/131/131 136/136/136 135/135/135 
f 137/137/137 136/136/136 131/131/131 
f 138/138/138 137/137/137 131/131/131 
f 139/139/139 136/136/136 137/137/137 
f 140/140/140 136/136/136 139/139/139 
f 141/141/141 140/140/140 139/139/139 
f 142/142/142 140/140/140 141/141/141 
f 143/143/143 136/136/136 140/140/140 
f 143/143/143 144/144/144 136/136/136 
f 136/136/136 144/144/144 145/145/145 
f 146/146/146 136/136/136 145/145/145 
f 145/145/145 144/144/144 147/147/147 
f 148/148/148 145/145/145 147/147/147 
f 149/149/149 143/143/143 140/140/140 
f 135/135/135 150/150/150 134/134/134 
f 151/151/151 150/150/150 135/135/135 
f 152/152/152 150/150/150 151/151/151 
f 151/151/151 153/153/153 152/152/152 
f 134/134/134 150/150/150 154/154/154 
f 134/134/134 154/154/154 155/155/155 
f 133/133/133 134/134/134 155/155/155 
f 156/156/156 133/133/133 155/155/155 
f 157/157/157 156/156/156 155/155/155 
f 158/158/158 156/156/156 157/157/157 
f 154/154/154 159/159/159 155/155/155 
f 160/160/160 159/159/159 154/154/154 
f 155/155/155 159/159/159 161/161/161 
f 162/162/162 161/161/161 159/159/159 
f 163/163/163 162/162/162 159/159/159 
f 164/164/164 161/161/161 162/162/162 
f 165/165/165 155/155/155 161/161/161 
f 167/167/167 154/154/154 166/166/166 
f 154/154/154 150/150/150 166/166/166 
f 150/150/150 168/168/168 166/166/166 
f 169/169/169 166/166/166 168/168/168 
f 170/170/170 169/169/169 168/168/168 
f 171/171/171 166/166/166 169/169/169 
f 172/172/172 168/168/168 150/150/150 
f 175/175/175 174/174/174 173/173/173 
f 174/174/174 176/176/176 173/173/173 
f 177/177/177 176/176/176 174/174/174 
f 173/173/173 176/176/176 178/178/178 
f 176/176/176 179/179/179 178/178/178 
f 175/175/175 180/180/180 174/174/174 
f 181/181/181 180/180/180 175/175/175 
f 180/180/180 182/182/182 174/174/174 
f 183/183/183 182/182/182 180/180/180 
f 184/184/184 183/183/183 180/180/180 
f 182/182/182 185/185/185 174/174/174 
f 185/185/185 186/186/186 174/174/174 
f 187/187/187 186/186/186 185/185/185 
f 174/174/174 186/186/186 188/188/188 
f 186/186/186 189/189/189 188/188/188 
f 188/188/188 189/189/189 190/190/190 
f 191/191/191 188/188/188 190/190/190 
f 192/192/192 191/191/191 190/190/190 
f 193/193/193 191/191/191 192/192/192 
f 189/189/189 194/194/194 190/190/190 
f 194/194/194 195/195/195 190/190/190 
f 196/196/196 195/195/195 194/194/194 
f 190/190/190 195/195/195 197/197/197 
f 198/198/198 197/197/197 195/195/195 
f 199/199/199 198/198/198 195/195/195 
f 200/200/200 197/197/197 198/198/198 
f 201/201/201 190/190/190 197/197/197 
f 203/203/203 186/186/186 202/202/202 
f 186/186/186 204/204/204 202/202/202 
f 205/205/205 204/204/204 186/186/186 
f 206/206/206 205/205/205 186/186/186 
f 207/207/207 204/204/204 205/205/205 
f 208/208/208 204/204/204 207/207/207 
f 209/209/209 208/208/208 207/207/207 
f 210/210/210 208/208/208 209/209/209 
f 211/211/211 204/204/204 208/208/208 
f 211/211/211 212/212/212 204/204/204 
f 204/204/204 212/212/212 213/213/213 
f 214/214/214 204/204/204 213/213/213 
f 213/213/213 212/212/212 215/215/215 
f 216/216/216 213/213/213 215/215/215 
f 217/217/217 211/211/211 208/208/208 
f 202/202/202 218/218/218 203/203/203 
f 219/219/219 218/218/218 202/202/202 
f 220/220/220 218/218/218 219/219/219 
f 219/219/219 221/221/221 220/220/220 
f 203/203/203 218/218/218 194/194/194 
f 194/194/194 218/218/218 222/222/222 
f 223/223/223 194/194/194 222/222/222 
f 218/218/218 224/224/224 222/222/222 
f 225/225/225 222/222/222 224/224/224 
f 226/226/226 225/225/225 224/224/224 
f 227/227/227 222/222/222 225/225/225 
f 228/228/228 224/224/224 218/218/218 
f 231/231/231 230/230/230 229/229/229 
f 230/230/230 232/232/232 229/229/229 
f 233/233/233 232/232/232 230/230/230 
f 229/229/229 232/232/232 234/234/234 
f 232/232/232 235/235/235 234/234/234 
f 231/231/231 236/236/236 230/230/230 
f 237/237/237 236/236/236 231/231/231 
f 236/236/236 238/238/238 230/230/230 
f 239/239/239 238/238/238 236/236/236 
f 240/240/240 239/239/239 236/236/236 
f 238/238/238 241/241/241 230/230/230 
f 241/241/241 242/242/242 230/230/230 
f 243/243/243 242/242/242 241/241/241 
f 230/230/230 242/242/242 244/244/244 
f 242/242/242 245/245/245 244/244/244 
f 244/244/244 245/245/245 246/246/246 
f 247/247/247 244/244/244 246/246/246 
f 248/248/248 247/247/247 246/246/246 
f 249/249/249 247/247/247 248/248/248 
f 245/245/245 250/250/250 246/246/246 
f 250/250/250 251/251/251 246/246/246 
f 252/252/252 251/251/251 250/250/250 
f 246/246/246 251/251/251 253/253/253 
f 254/254/254 253/253/253 251/251/251 
f 255/255/255 254/254/254 251/251/251 
f 256/256/256 253/253/253 254/254/254 
f 257/257/257 246/246/246 253/253/253 
f 259/259/259 242/242/242 258/258/258 
f 242/242/242 260/260/260 258/258/258 
f 261/261/261 260/260/260 242/242/242 
f 262/262/262 261/261/261 242/242/242 
f 263/263/263 260/260/260 261/261/261 
f 264/264/264 260/260/260 263/263/263 
f 265/265/265 264/264/264 263/263/263 
f 266/266/266 264/264/264 265/265/265 
f 267/267/267 260/260/260 264/264/264 
f 267/267/267 268/268/268 260/260/260 
f 260/260/260 268/268/268 269/269/269 
f 270/270/270 260/260/260 269/269/269 
f 269/269/269 268/268/268 271/271/271 
f 272/272/272 269/269/269 271/271/271 
f 273/273/273 267/267/267 264/264/264 
f 258/258/258 274/274/274 259/259/259 
f 275/275/275 274/274/274 258/258/258 
f 276/276/276 274/274/274 275/275/275 
f 275/275/275 277/277/277 276/276/276 
f 259/259/259 274/274/274 250/250/250 
f 250/250/250 274/274/274 278/278/278 
f 279/279/279 250/250/250 278/278/278 
f 274/274/274 280/280/280 278/278/278 
f 281/281/281 278/278/278 280/280/280 
f 282/282/282 281/281/281 280/280/280 
f 283/283/283 278/278/278 281/281/281 
f 284/284/284 280/280/280 274/274/274 
f 287/287/287 286/286/286 285/285/285 
f 286/286/286 288/288/288 285/285/285 
f 289/289/289 288/288/288 286/286/286 
f 285/285/285 288/288/288 290/290/290 
f 288/288/288 291/291/291 290/290/290 
f 287/287/287 292/292/292 286/286/286 
f 293/293/293 292/292/292 287/287/287 
f 292/292/292 294/294/294 286/286/286 
f 295/295/295 294/294/294 292/292/292 
f 296/296/296 295/295/295 292/292/292 
f 294/294/294 297/297/297 286/286/286 
f 297/297/297 298/298/298 286/286/286 
f 299/299/299 298/298/298 297/297/297 
f 286/286/286 298/298/298 300/300/300 
f 298/298/298 301/301/301 300/300/300 
f 301/301/301 298/298/298 302/302/302 
f 298/298/298 303/303/303 302/302/302 
f 304/304/304 303/303/303 298/298/298 
f 305/305/305 304/304/304 298/298/298 
f 306/306/306 303/303/303 304/304/304 
f 307/307/307 303/303/303 306/306/306 
f 308/308/308 307/307/307 306/306/306 
f 309/309/309 307/307/307 308/308/308 
f 310/310/310 303/303/303 307/307/307 
f 310/310/310 311/311/311 303/303/303 
f 303/303/303 311/311/311 312/312/312 
f 313/313/313 303/303/303 312/312/312 
f 312/312/312 311/311/311 314/314/314 
f 315/315/315 312/312/312 314/314/314 
f 316/316/316 310/310/310 307/307/307 
f 302/302/302 317/317/317 301/301/301 
f 318/318/318 317/317/317 302/302/302 
f 319/319/319 317/317/317 318/318/318 
f 318/318/318 320/320/320 319/319/319 
f 301/301/301 317/317/317 321/321/321 
f 301/301/301 321/321/321 322/322/322 
f 300/300/300 301/301/301 322/322/322 
f 323/323/323 300/300/300 322/322/322 
f 324/324/324 323/323/323 322/322/322 
f 325/325/325 323/323/323 324/324/324 
f 321/321/321 326/326/326 322/322/322 
f 327/327/327 326/326/326 321/321/321 
f 322/322/322 326/326/326 328/328/328 
f 329/329/329 328/328/328 326/326/326 
f 330/330/330 329/329/329 326/326/326 
f 331/331/331 328/328/328 329/329/329 
f 332/332/332 322/322/322 328/328/328 
f 334/334/334 321/321/321 333/333/333 
f 321/321/321 317/317/317 333/333/333 
f 317/317/317 335/335/335 333/333/333 
f 336/336/336 333/333/333 335/335/335 
f 337/337/337 336/336/336 335/335/335 
f 338/338/338 333/333/333 336/336/336 
f 339/339/339 335/335/335 317/317/317 

