v 3.44789796713485e-08 0.17751097679138184 0.7811034917831421
v 0.25123411417007446 1.5258788721439487e-07 1.0
v -1.5258788721439487e-07 1.0 1.358242684545985e-06
v -1.0 1.3582409792434191e-06 -2.829679317528644e-07
v -1.3582421161117963e-06 -2.829693528383359e-07 -2.853463456631289e-07
v 2.8296909704295103e-07 -2.853460046026157e-07 0.0017503085546195507
vn -1.0 1.3582416613644455e-06 -2.8296827281337755e-07
vn -1.3582425708591472e-06 -2.8296909704295103e-07 -2.8534651619338547e-07
vn 2.829692391514982e-07 -2.8534620355458173e-07 0.0017503570998087525
vn 2.8534680041047977e-07 0.0017517565283924341 -0.9999984502792358
vn -0.0017503771232441068 -0.9999984502792358 -1.0
vn 0.9999984502792358 -1.0 0.38455620408058167
vt 0.3844847083091736 0.5235486626625061
vt 0.5039929747581482 0.5380078554153442
vt 0.5040610432624817 0.5764384567737579
vt 0.949999988079071 0.949999988079071
vt 0.0 1.0
vt 1.401298464324817e-45 1.0

g bg_mdl_top_anniv_balloon013
s 1
usemtl bg_mdl_top_anniv_balloon013
f 3/3/3 2/2/2 1/1/1 
f 4/4/4 1/1/1 2/2/2 
f 2/2/2 3/3/3 5/5/5 
f 6/6/6 5/5/5 3/3/3 

