v 0.020286738872528076 0.03513764217495918 -0.000571336830034852
v -0.020618511363863945 0.044089388102293015 0.05762689560651779
v -0.020286722108721733 0.03513764962553978 -0.000571336830034852
v 0.030291544273495674 0.04408937692642212 0.05762689560651779
v -0.020286722108721733 0.03513764962553978 -0.000571336830034852
v -0.0460735447704792 -4.177468149180186e-09 0.057626884430646896
v -0.04057346284389496 6.409743402713275e-09 -0.0005713440477848053
v -0.020618511363863945 0.044089388102293015 0.05762689560651779
v -0.04057346284389496 6.409743402713275e-09 -0.0005713440477848053
v -0.020618541166186333 -0.04408939182758331 0.0576268769800663
v -0.02028673328459263 -0.03513764217495918 -0.0005713513819500804
v -0.0460735447704792 -4.177468149180186e-09 0.057626884430646896
v -0.02028673328459263 -0.03513764217495918 -0.0005713513819500804
v 0.030291518196463585 -0.04408939182758331 0.0576268769800663
v 0.02028672955930233 -0.03513764217495918 -0.0005713513819500804
v -0.020618541166186333 -0.04408939182758331 0.0576268769800663
v 0.02028672955930233 -0.03513764217495918 -0.0005713513819500804
v 0.05574654042720795 -1.2656932391053033e-08 0.057626884430646896
v 0.04057346284389496 3.6382763468623125e-10 -0.0005713440477848053
v 0.030291518196463585 -0.04408939182758331 0.0576268769800663
v 0.04057346284389496 3.6382763468623125e-10 -0.0005713440477848053
v 0.030291544273495674 0.04408937692642212 0.05762689560651779
v 0.020286738872528076 0.03513764217495918 -0.000571336830034852
v 0.05574654042720795 -1.2656932391053033e-08 0.057626884430646896
v -0.020286722108721733 0.03513764962553978 -0.000571336830034852
v -0.0 4.8229731319793245e-09 -0.023340873420238495
v 0.020286738872528076 0.03513764217495918 -0.000571336830034852
v -0.04057346284389496 6.409743402713275e-09 -0.0005713440477848053
v -0.0 4.8229731319793245e-09 -0.023340873420238495
v -0.020286722108721733 0.03513764962553978 -0.000571336830034852
v -0.02028673328459263 -0.03513764217495918 -0.0005713513819500804
v -0.0 4.8229731319793245e-09 -0.023340873420238495
v -0.04057346284389496 6.409743402713275e-09 -0.0005713440477848053
v 0.02028672955930233 -0.03513764217495918 -0.0005713513819500804
v -0.0 4.8229731319793245e-09 -0.023340873420238495
v -0.02028673328459263 -0.03513764217495918 -0.0005713513819500804
v 0.04057346284389496 3.6382763468623125e-10 -0.0005713440477848053
v -0.0 4.8229731319793245e-09 -0.023340873420238495
v 0.02028672955930233 -0.03513764217495918 -0.0005713513819500804
v 0.020286738872528076 0.03513764217495918 -0.000571336830034852
v -0.0 4.8229731319793245e-09 -0.023340873420238495
v 0.04057346284389496 3.6382763468623125e-10 -0.0005713440477848053
v -0.00954645499587059 -0.03759381175041199 0.16313663125038147
v 0.024364711716771126 -0.02951912023127079 0.26864632964134216
v 0.033863142132759094 -0.03759381175041199 0.1631365865468979
v -0.009721016511321068 -0.02951912023127079 0.26864635944366455
v -0.020618541166186333 -0.04408939182758331 0.0576268769800663
v 0.030291518196463585 -0.04408939182758331 0.0576268769800663
v -0.03125123307108879 -1.3946894306116064e-08 0.16313663125038147
v -0.009721016511321068 -0.02951912023127079 0.26864635944366455
v -0.00954645499587059 -0.03759381175041199 0.16313663125038147
v -0.02676386386156082 -2.3862206433022948e-08 0.26864635944366455
v -0.009546433575451374 0.0375937819480896 0.16313663125038147
v -0.02676386386156082 -2.3862206433022948e-08 0.26864635944366455
v -0.03125123307108879 -1.3946894306116064e-08 0.16313663125038147
v -0.009721001610159874 0.02951907180249691 0.26864635944366455
v 0.03386316075921059 0.0375937782227993 0.16313663125038147
v -0.009721001610159874 0.02951907180249691 0.26864635944366455
v -0.009546433575451374 0.0375937819480896 0.16313663125038147
v 0.02436472289264202 0.029519064351916313 0.26864635944366455
v 0.030291544273495674 0.04408937692642212 0.05762689560651779
v -0.020618511363863945 0.044089388102293015 0.05762689560651779
v 0.05556793510913849 -2.0958404789439555e-08 0.16313663125038147
v 0.02436472289264202 0.029519064351916313 0.26864635944366455
v 0.03386316075921059 0.0375937782227993 0.16313663125038147
v 0.04140757396817207 -2.917042785099966e-08 0.26864635944366455
v 0.033863142132759094 -0.03759381175041199 0.1631365865468979
v 0.04140757396817207 -2.917042785099966e-08 0.26864635944366455
v 0.05556793510913849 -2.0958404789439555e-08 0.16313663125038147
v 0.024364711716771126 -0.02951912023127079 0.26864632964134216
v 0.08091957867145538 0.14015677571296692 0.3963383734226227
v 0.12264418601989746 0.07080861181020737 0.337703138589859
v 0.1401568204164505 0.08091951906681061 0.3963383734226227
v -0.08091957867145538 0.14015677571296692 0.3963383734226227
v -0.0 0.14161725342273712 0.337703138589859
v -0.0 0.16183903813362122 0.3963383734226227
v -0.16183915734291077 -4.2655624810095105e-08 0.3963383436203003
v -0.12264418601989746 0.07080861181020737 0.337703138589859
v -0.1401568204164505 0.08091951906681061 0.3963383734226227
v -0.08091957867145538 -0.1401568502187729 0.3963383436203003
v -0.12264418601989746 -0.07080867886543274 0.33770307898521423
v -0.1401568204164505 -0.08091960102319717 0.3963383436203003
v 0.08091957867145538 -0.1401568502187729 0.3963383436203003
v -0.0 -0.1416173130273819 0.33770307898521423
v -0.0 -0.16183920204639435 0.3963383138179779
v 0.16183915734291077 -4.2655624810095105e-08 0.3963383436203003
v 0.12264418601989746 -0.07080867886543274 0.33770307898521423
v 0.1401568204164505 -0.08091960102319717 0.3963383436203003
v 0.12264418601989746 0.07080861181020737 0.337703138589859
v -0.0 0.14161725342273712 0.337703138589859
v -0.0 -3.421801153535853e-08 0.3555043339729309
v -0.0 0.14161725342273712 0.337703138589859
v -0.12264418601989746 0.07080861181020737 0.337703138589859
v -0.0 -3.421801153535853e-08 0.3555043339729309
v -0.12264418601989746 0.07080861181020737 0.337703138589859
v -0.12264418601989746 -0.07080867886543274 0.33770307898521423
v -0.0 -3.421801153535853e-08 0.3555043339729309
v -0.12264418601989746 -0.07080867886543274 0.33770307898521423
v -0.0 -0.1416173130273819 0.33770307898521423
v -0.0 -3.421801153535853e-08 0.3555043339729309
v -0.0 -0.1416173130273819 0.33770307898521423
v 0.12264418601989746 -0.07080867886543274 0.33770307898521423
v -0.0 -3.421801153535853e-08 0.3555043339729309
v 0.12264418601989746 -0.07080867886543274 0.33770307898521423
v 0.12264418601989746 0.07080861181020737 0.337703138589859
v -0.0 -3.421801153535853e-08 0.3555043339729309
v -0.0 0.0526728630065918 0.4725285470485687
v 0.1109580397605896 0.06406161189079285 0.44102001190185547
v 0.04561608284711838 0.02633639983832836 0.4725285470485687
v -0.0 0.12812328338623047 0.44102001190185547
v -0.04561608284711838 0.02633639983832836 0.4725285470485687
v -0.0 0.12812328338623047 0.44102001190185547
v -0.0 0.0526728630065918 0.4725285470485687
v -0.1109580397605896 0.06406161189079285 0.44102001190185547
v -0.04561608284711838 -0.026336517184972763 0.4725285470485687
v -0.1109580397605896 0.06406161189079285 0.44102001190185547
v -0.04561608284711838 0.02633639983832836 0.4725285470485687
v -0.1109580397605896 -0.0640617161989212 0.4410199522972107
v -0.0 -0.05267298221588135 0.4725285470485687
v -0.1109580397605896 -0.0640617161989212 0.4410199522972107
v -0.04561608284711838 -0.026336517184972763 0.4725285470485687
v -0.0 -0.12812337279319763 0.4410199522972107
v 0.04561608284711838 -0.026336517184972763 0.4725285470485687
v -0.0 -0.12812337279319763 0.4410199522972107
v -0.0 -0.05267298221588135 0.4725285470485687
v 0.1109580397605896 -0.0640617161989212 0.4410199522972107
v 0.04561608284711838 0.02633639983832836 0.4725285470485687
v 0.1109580397605896 -0.0640617161989212 0.4410199522972107
v 0.04561608284711838 -0.026336517184972763 0.4725285470485687
v 0.1109580397605896 0.06406161189079285 0.44102001190185547
v -0.1109580397605896 0.06406161189079285 0.44102001190185547
v -0.1109580397605896 -0.0640617161989212 0.4410199522972107
v -0.16183915734291077 -4.2655624810095105e-08 0.3963383436203003
v -0.0 0.12812328338623047 0.44102001190185547
v -0.1109580397605896 0.06406161189079285 0.44102001190185547
v -0.08091957867145538 0.14015677571296692 0.3963383734226227
v 0.1109580397605896 0.06406161189079285 0.44102001190185547
v -0.0 0.12812328338623047 0.44102001190185547
v 0.08091957867145538 0.14015677571296692 0.3963383734226227
v 0.1109580397605896 -0.0640617161989212 0.4410199522972107
v 0.1109580397605896 0.06406161189079285 0.44102001190185547
v 0.16183915734291077 -4.2655624810095105e-08 0.3963383436203003
v -0.0 -0.12812337279319763 0.4410199522972107
v 0.1109580397605896 -0.0640617161989212 0.4410199522972107
v 0.08091957867145538 -0.1401568502187729 0.3963383436203003
v -0.1109580397605896 -0.0640617161989212 0.4410199522972107
v -0.0 -0.12812337279319763 0.4410199522972107
v -0.08091957867145538 -0.1401568502187729 0.3963383436203003
v -0.1109580397605896 0.06406161189079285 0.44102001190185547
v -0.16183915734291077 -4.2655624810095105e-08 0.3963383436203003
v -0.1401568204164505 0.08091951906681061 0.3963383734226227
v -0.1109580397605896 -0.0640617161989212 0.4410199522972107
v -0.1401568204164505 -0.08091960102319717 0.3963383436203003
v -0.16183915734291077 -4.2655624810095105e-08 0.3963383436203003
v -0.1109580397605896 -0.0640617161989212 0.4410199522972107
v -0.08091957867145538 -0.1401568502187729 0.3963383436203003
v -0.1401568204164505 -0.08091960102319717 0.3963383436203003
v -0.0 -0.12812337279319763 0.4410199522972107
v -0.0 -0.16183920204639435 0.3963383138179779
v -0.08091957867145538 -0.1401568502187729 0.3963383436203003
v -0.0 -0.12812337279319763 0.4410199522972107
v 0.08091957867145538 -0.1401568502187729 0.3963383436203003
v -0.0 -0.16183920204639435 0.3963383138179779
v 0.1109580397605896 -0.0640617161989212 0.4410199522972107
v 0.1401568204164505 -0.08091960102319717 0.3963383436203003
v 0.08091957867145538 -0.1401568502187729 0.3963383436203003
v 0.1109580397605896 -0.0640617161989212 0.4410199522972107
v 0.16183915734291077 -4.2655624810095105e-08 0.3963383436203003
v 0.1401568204164505 -0.08091960102319717 0.3963383436203003
v 0.1109580397605896 0.06406161189079285 0.44102001190185547
v 0.1401568204164505 0.08091951906681061 0.3963383734226227
v 0.16183915734291077 -4.2655624810095105e-08 0.3963383436203003
v 0.1109580397605896 0.06406161189079285 0.44102001190185547
v 0.08091957867145538 0.14015677571296692 0.3963383734226227
v 0.1401568204164505 0.08091951906681061 0.3963383734226227
v -0.0 0.12812328338623047 0.44102001190185547
v -0.0 0.16183903813362122 0.3963383734226227
v 0.08091957867145538 0.14015677571296692 0.3963383734226227
v -0.0 0.12812328338623047 0.44102001190185547
v -0.08091957867145538 0.14015677571296692 0.3963383734226227
v -0.0 0.16183903813362122 0.3963383734226227
v -0.1109580397605896 0.06406161189079285 0.44102001190185547
v -0.1401568204164505 0.08091951906681061 0.3963383734226227
v -0.08091957867145538 0.14015677571296692 0.3963383734226227
v 0.08091957867145538 -0.1401568502187729 0.3963383436203003
v 0.1401568204164505 -0.08091960102319717 0.3963383436203003
v 0.12264418601989746 -0.07080867886543274 0.33770307898521423
v 0.08091957867145538 -0.1401568502187729 0.3963383436203003
v 0.12264418601989746 -0.07080867886543274 0.33770307898521423
v -0.0 -0.1416173130273819 0.33770307898521423
v 0.16183915734291077 -4.2655624810095105e-08 0.3963383436203003
v 0.1401568204164505 0.08091951906681061 0.3963383734226227
v 0.12264418601989746 0.07080861181020737 0.337703138589859
v 0.16183915734291077 -4.2655624810095105e-08 0.3963383436203003
v 0.12264418601989746 0.07080861181020737 0.337703138589859
v 0.12264418601989746 -0.07080867886543274 0.33770307898521423
v 0.08091957867145538 0.14015677571296692 0.3963383734226227
v -0.0 0.16183903813362122 0.3963383734226227
v -0.0 0.14161725342273712 0.337703138589859
v 0.08091957867145538 0.14015677571296692 0.3963383734226227
v -0.0 0.14161725342273712 0.337703138589859
v 0.12264418601989746 0.07080861181020737 0.337703138589859
v -0.08091957867145538 0.14015677571296692 0.3963383734226227
v -0.1401568204164505 0.08091951906681061 0.3963383734226227
v -0.12264418601989746 0.07080861181020737 0.337703138589859
v -0.08091957867145538 0.14015677571296692 0.3963383734226227
v -0.12264418601989746 0.07080861181020737 0.337703138589859
v -0.0 0.14161725342273712 0.337703138589859
v -0.16183915734291077 -4.2655624810095105e-08 0.3963383436203003
v -0.1401568204164505 -0.08091960102319717 0.3963383436203003
v -0.12264418601989746 -0.07080867886543274 0.33770307898521423
v -0.16183915734291077 -4.2655624810095105e-08 0.3963383436203003
v -0.12264418601989746 -0.07080867886543274 0.33770307898521423
v -0.12264418601989746 0.07080861181020737 0.337703138589859
v -0.08091957867145538 -0.1401568502187729 0.3963383436203003
v -0.0 -0.16183920204639435 0.3963383138179779
v -0.0 -0.1416173130273819 0.33770307898521423
v -0.08091957867145538 -0.1401568502187729 0.3963383436203003
v -0.0 -0.1416173130273819 0.33770307898521423
v -0.12264418601989746 -0.07080867886543274 0.33770307898521423
v -0.0 -6.452476242202465e-08 0.502174437046051
v -0.04561608284711838 -0.026336517184972763 0.4725285470485687
v -0.04561608284711838 0.02633639983832836 0.4725285470485687
v -0.0 -6.452476242202465e-08 0.502174437046051
v -0.04561608284711838 0.02633639983832836 0.4725285470485687
v -0.0 0.0526728630065918 0.4725285470485687
v -0.0 -6.452476242202465e-08 0.502174437046051
v -0.0 0.0526728630065918 0.4725285470485687
v 0.04561608284711838 0.02633639983832836 0.4725285470485687
v -0.0 -6.452476242202465e-08 0.502174437046051
v 0.04561608284711838 0.02633639983832836 0.4725285470485687
v 0.04561608284711838 -0.026336517184972763 0.4725285470485687
v -0.0 -6.452476242202465e-08 0.502174437046051
v 0.04561608284711838 -0.026336517184972763 0.4725285470485687
v -0.0 -0.05267298221588135 0.4725285470485687
v -0.0 -6.452476242202465e-08 0.502174437046051
v -0.0 -0.05267298221588135 0.4725285470485687
v -0.04561608284711838 -0.026336517184972763 0.4725285470485687
v 0.020504144951701164 -0.03551425784826279 0.37415611743927
v -0.009721016511321068 -0.02951912023127079 0.26864635944366455
v -0.02050415240228176 -0.03551425784826279 0.37415611743927
v 0.024364711716771126 -0.02951912023127079 0.26864632964134216
v -0.0460735447704792 -4.177468149180186e-09 0.057626884430646896
v -0.00954645499587059 -0.03759381175041199 0.16313663125038147
v -0.020618541166186333 -0.04408939182758331 0.0576268769800663
v -0.03125123307108879 -1.3946894306116064e-08 0.16313663125038147
v -0.02050415240228176 -0.03551425784826279 0.37415611743927
v -0.02676386386156082 -2.3862206433022948e-08 0.26864635944366455
v -0.04100829362869263 -3.1961345570152844e-08 0.37415611743927
v -0.009721016511321068 -0.02951912023127079 0.26864635944366455
v -0.020618511363863945 0.044089388102293015 0.05762689560651779
v -0.03125123307108879 -1.3946894306116064e-08 0.16313663125038147
v -0.0460735447704792 -4.177468149180186e-09 0.057626884430646896
v -0.009546433575451374 0.0375937819480896 0.16313663125038147
v -0.04100829362869263 -3.1961345570152844e-08 0.37415611743927
v -0.009721001610159874 0.02951907180249691 0.26864635944366455
v -0.020504141226410866 0.03551418334245682 0.37415611743927
v -0.02676386386156082 -2.3862206433022948e-08 0.26864635944366455
v -0.020504141226410866 0.03551418334245682 0.37415611743927
v 0.02436472289264202 0.029519064351916313 0.26864635944366455
v 0.02050415799021721 0.03551417589187622 0.37415611743927
v -0.009721001610159874 0.02951907180249691 0.26864635944366455
v 0.05574654042720795 -1.2656932391053033e-08 0.057626884430646896
v 0.03386316075921059 0.0375937782227993 0.16313663125038147
v 0.030291544273495674 0.04408937692642212 0.05762689560651779
v 0.05556793510913849 -2.0958404789439555e-08 0.16313663125038147
v 0.02050415799021721 0.03551417589187622 0.37415611743927
v 0.04140757396817207 -2.917042785099966e-08 0.26864635944366455
v 0.04100829362869263 -3.807205573025385e-08 0.37415611743927
v 0.02436472289264202 0.029519064351916313 0.26864635944366455
v 0.030291518196463585 -0.04408939182758331 0.0576268769800663
v 0.05556793510913849 -2.0958404789439555e-08 0.16313663125038147
v 0.05574654042720795 -1.2656932391053033e-08 0.057626884430646896
v 0.033863142132759094 -0.03759381175041199 0.1631365865468979
v 0.04100829362869263 -3.807205573025385e-08 0.37415611743927
v 0.024364711716771126 -0.02951912023127079 0.26864632964134216
v 0.020504144951701164 -0.03551425784826279 0.37415611743927
v 0.04140757396817207 -2.917042785099966e-08 0.26864635944366455
vn 1.0415626405801959e-07 0.9883763194084167 -0.1520267277956009
vn 1.0415627116344695e-07 0.9883763194084167 -0.15202675759792328
vn 1.0415626405801959e-07 0.9883763194084167 -0.1520267277956009
vn 1.6601751440248336e-07 0.9883764386177063 -0.1520267128944397
vn -0.8631391525268555 0.4983339309692383 -0.08157176524400711
vn -0.8631391525268555 0.4983339309692383 -0.08157176524400711
vn -0.8631391525268555 0.49833396077156067 -0.08157176524400711
vn -0.8631391525268555 0.4983338713645935 -0.08157183229923248
vn -0.8631393313407898 -0.49833372235298157 -0.08157213777303696
vn -0.8631393313407898 -0.49833372235298157 -0.08157213777303696
vn -0.8631393313407898 -0.4983336627483368 -0.08157213777303696
vn -0.8631394505500793 -0.49833351373672485 -0.08157197386026382
vn -0.0 -0.9883763194084167 -0.15202689170837402
vn -0.0 -0.9883763194084167 -0.15202689170837402
vn -0.0 -0.9883763194084167 -0.15202689170837402
vn -0.0 -0.9883763194084167 -0.15202689170837402
vn 0.8447605967521667 -0.48772290349006653 -0.22024080157279968
vn 0.8447605967521667 -0.48772284388542175 -0.22024080157279968
vn 0.8447605967521667 -0.48772284388542175 -0.22024080157279968
vn 0.8447605967521667 -0.48772281408309937 -0.22024080157279968
vn 0.8447605967521667 0.48772263526916504 -0.22024089097976685
vn 0.8447605967521667 0.48772263526916504 -0.22024089097976685
vn 0.8447605967521667 0.48772263526916504 -0.22024089097976685
vn 0.8447608351707458 0.4877224266529083 -0.22024066746234894
vn -0.0 0.5438136458396912 -0.8392059803009033
vn -0.0 0.5438136458396912 -0.8392059803009033
vn -0.0 0.5438137054443359 -0.8392059803009033
vn -0.4709562659263611 0.2719070613384247 -0.8392059803009033
vn -0.4709562361240387 0.2719070613384247 -0.8392060399055481
vn -0.4709562659263611 0.2719070613384247 -0.8392059803009033
vn -0.470956414937973 -0.2719065845012665 -0.8392061591148376
vn -0.47095635533332825 -0.2719065845012665 -0.8392061591148376
vn -0.47095635533332825 -0.2719065845012665 -0.8392061591148376
vn -0.0 -0.5438134670257568 -0.8392061591148376
vn -0.0 -0.5438134670257568 -0.8392061591148376
vn -0.0 -0.5438134670257568 -0.8392061591148376
vn 0.47095632553100586 -0.27190667390823364 -0.8392061591148376
vn 0.47095635533332825 -0.27190667390823364 -0.8392061591148376
vn 0.47095635533332825 -0.27190667390823364 -0.8392061591148376
vn 0.47095635533332825 0.27190691232681274 -0.8392060399055481
vn 0.47095629572868347 0.27190688252449036 -0.8392060399055481
vn 0.47095635533332825 0.27190691232681274 -0.8392060399055481
vn -0.0 -0.9970843195915222 0.07630716264247894
vn -0.0 -0.9970843195915222 0.07630716264247894
vn -0.0 -0.9970843195915222 0.07630716264247894
vn -0.0 -0.9970843195915222 0.07630716264247894
vn -0.0 -0.998110294342041 0.061447449028491974
vn -0.0 -0.998110294342041 0.061447449028491974
vn -0.8654387593269348 -0.4996609389781952 0.03680737689137459
vn -0.8654387593269348 -0.4996609687805176 0.036807380616664886
vn -0.8654387593269348 -0.4996609687805176 0.03680737316608429
vn -0.86543869972229 -0.49966099858283997 0.03680739551782608
vn -0.8654385209083557 0.4996614158153534 0.036807477474212646
vn -0.8654384016990662 0.499661386013031 0.036807477474212646
vn -0.8654385209083557 0.4996613562107086 0.036807477474212646
vn -0.8654385209083557 0.49966129660606384 0.03680744394659996
vn -0.0 0.9970843195915222 0.07630737870931625
vn -0.0 0.9970843195915222 0.07630737870931625
vn -0.0 0.9970843195915222 0.07630737870931625
vn 1.876098849606933e-07 0.9970843195915222 0.07630740851163864
vn 1.6765250165917678e-07 0.998110294342041 0.061447661370038986
vn 1.676525158700315e-07 0.998110294342041 0.061447665095329285
vn 0.8602346181869507 0.49665626883506775 0.1154514029622078
vn 0.8602346181869507 0.49665626883506775 0.1154514029622078
vn 0.8602346181869507 0.49665626883506775 0.1154514029622078
vn 0.8602345585823059 0.49665647745132446 0.11545135080814362
vn 0.860234260559082 -0.49665671586990356 0.11545120924711227
vn 0.860234260559082 -0.49665677547454834 0.11545120924711227
vn 0.860234260559082 -0.49665677547454834 0.11545122414827347
vn 0.860234260559082 -0.49665671586990356 0.11545120924711227
vn 0.6708625555038452 0.6708625555038452 -0.31604892015457153
vn 0.6708625555038452 0.6708625555038452 -0.31604892015457153
vn 0.6708625555038452 0.6708625555038452 -0.31604892015457153
vn -0.2455521821975708 0.9164155721664429 -0.3160482347011566
vn -0.2455521821975708 0.9164155721664429 -0.3160482347011566
vn -0.2455521523952484 0.9164155721664429 -0.3160482347011566
vn -0.9164151549339294 0.24555277824401855 -0.3160490095615387
vn -0.9164151549339294 0.24555276334285736 -0.3160489499568939
vn -0.9164151549339294 0.24555277824401855 -0.3160489499568939
vn -0.6708625555038452 -0.6708624958992004 -0.31604892015457153
vn -0.6708625555038452 -0.6708624958992004 -0.31604892015457153
vn -0.6708625555038452 -0.6708624958992004 -0.31604892015457153
vn 0.24555283784866333 -0.9164149761199951 -0.3160494267940521
vn 0.24555283784866333 -0.9164149761199951 -0.3160494267940521
vn 0.24555283784866333 -0.9164149761199951 -0.3160494267940521
vn 0.9164151549339294 -0.24555273354053497 -0.3160489499568939
vn 0.916415274143219 -0.24555270373821259 -0.3160490095615387
vn 0.916415274143219 -0.24555270373821259 -0.3160490095615387
vn -0.07182008028030396 -0.12439604848623276 -0.9896300435066223
vn -0.07182007282972336 -0.12439603358507156 -0.9896300435066223
vn -0.07182007282972336 -0.12439603358507156 -0.9896300435066223
vn 0.07182007282972336 -0.12439603358507156 -0.9896300435066223
vn 0.07182008028030396 -0.12439604848623276 -0.9896300435066223
vn 0.07182007282972336 -0.12439603358507156 -0.9896300435066223
vn 0.14364027976989746 2.3592480147272e-07 -0.9896300435066223
vn 0.14364027976989746 2.3592480147272e-07 -0.9896300435066223
vn 0.14364027976989746 2.3592478726186528e-07 -0.9896300435066223
vn 0.0718202069401741 0.12439627200365067 -0.9896299242973328
vn 0.0718202069401741 0.12439627200365067 -0.9896299242973328
vn 0.0718202069401741 0.12439627200365067 -0.9896299242973328
vn -0.0718202069401741 0.12439627200365067 -0.9896299242973328
vn -0.0718202069401741 0.12439627200365067 -0.9896299242973328
vn -0.0718202069401741 0.12439627200365067 -0.9896299242973328
vn -0.14364027976989746 2.3592480147272e-07 -0.9896300435066223
vn -0.14364027976989746 2.3592480147272e-07 -0.9896300435066223
vn -0.14364027976989746 2.3592478726186528e-07 -0.9896300435066223
vn 0.21717430651187897 0.37615686655044556 0.9007449746131897
vn 0.21717429161071777 0.37615683674812317 0.9007449746131897
vn 0.21717429161071777 0.37615683674812317 0.9007449746131897
vn 0.21717430651187897 0.37615683674812317 0.9007449746131897
vn -0.21717427670955658 0.37615683674812317 0.9007449746131897
vn -0.21717427670955658 0.37615683674812317 0.9007449746131897
vn -0.217174232006073 0.37615683674812317 0.9007449746131897
vn -0.21717433631420135 0.37615683674812317 0.9007449746131897
vn -0.4343486428260803 0.0 0.9007448554039001
vn -0.43434855341911316 0.0 0.9007448554039001
vn -0.43434858322143555 0.0 0.9007448554039001
vn -0.4343488812446594 -2.4047423607953533e-07 0.9007447361946106
vn -0.2171745002269745 -0.3761572241783142 0.9007446765899658
vn -0.21717451512813568 -0.3761572241783142 0.9007446765899658
vn -0.2171744853258133 -0.3761572241783142 0.9007446765899658
vn -0.2171744853258133 -0.3761571943759918 0.9007446765899658
vn 0.21717451512813568 -0.3761572241783142 0.9007446765899658
vn 0.21717451512813568 -0.3761572241783142 0.9007446765899658
vn 0.2171745002269745 -0.3761572241783142 0.9007446765899658
vn 0.2171744853258133 -0.3761571943759918 0.9007446765899658
vn 0.4343489706516266 0.0 0.9007446765899658
vn 0.434349000453949 0.0 0.9007446765899658
vn 0.4343489706516266 0.0 0.9007446765899658
vn 0.4343487322330475 -2.404742929229542e-07 0.9007448554039001
vn -0.6598471403121948 -2.121131643662011e-07 0.75139981508255
vn -0.6598471403121948 -2.121131643662011e-07 0.75139981508255
vn -0.6598471403121948 -2.121131643662011e-07 0.75139981508255
vn -0.3299236595630646 0.5714443922042847 0.7513998746871948
vn -0.3299236595630646 0.5714443325996399 0.75139981508255
vn -0.3299236595630646 0.5714443325996399 0.75139981508255
vn 0.3299236595630646 0.5714443325996399 0.75139981508255
vn 0.3299236595630646 0.5714443922042847 0.7513998746871948
vn 0.3299236595630646 0.5714443325996399 0.75139981508255
vn 0.6598471403121948 -2.121131643662011e-07 0.75139981508255
vn 0.6598471403121948 -2.121131643662011e-07 0.75139981508255
vn 0.6598471403121948 -2.121131643662011e-07 0.75139981508255
vn 0.3299236595630646 -0.5714445114135742 0.7513997554779053
vn 0.3299236595630646 -0.5714445114135742 0.7513997554779053
vn 0.3299236297607422 -0.5714445114135742 0.7513997554779053
vn -0.3299236595630646 -0.5714445114135742 0.7513997554779053
vn -0.3299236595630646 -0.5714445114135742 0.7513997554779053
vn -0.3299236297607422 -0.5714445114135742 0.7513997554779053
vn -0.7805862426757812 0.20915715396404266 0.5890148282051086
vn -0.7805862426757812 0.20915716886520386 0.5890147686004639
vn -0.7805862426757812 0.20915715396404266 0.5890147686004639
vn -0.780586302280426 -0.20915746688842773 0.5890147089958191
vn -0.7805862426757812 -0.20915745198726654 0.5890147089958191
vn -0.7805862426757812 -0.20915748178958893 0.5890147089958191
vn -0.5714289546012878 -0.5714288949966431 0.5890144109725952
vn -0.5714288949966431 -0.5714288949966431 0.5890144109725952
vn -0.5714288949966431 -0.5714288949966431 0.5890144109725952
vn -0.20915736258029938 -0.7805866599082947 0.5890141129493713
vn -0.20915736258029938 -0.7805866599082947 0.5890141725540161
vn -0.20915737748146057 -0.7805866599082947 0.5890141725540161
vn 0.20915736258029938 -0.7805866599082947 0.5890141129493713
vn 0.20915737748146057 -0.7805866599082947 0.5890141725540161
vn 0.20915736258029938 -0.7805866599082947 0.5890141725540161
vn 0.5714289546012878 -0.5714288949966431 0.5890144109725952
vn 0.5714288949966431 -0.5714288949966431 0.5890144109725952
vn 0.5714288949966431 -0.5714288949966431 0.5890144109725952
vn 0.780586302280426 -0.20915746688842773 0.5890147089958191
vn 0.7805862426757812 -0.20915748178958893 0.5890147089958191
vn 0.7805862426757812 -0.20915745198726654 0.5890147089958191
vn 0.7805862426757812 0.20915715396404266 0.5890148282051086
vn 0.7805862426757812 0.20915715396404266 0.5890147686004639
vn 0.7805862426757812 0.20915716886520386 0.5890147686004639
vn 0.5714287161827087 0.5714287161827087 0.5890147686004639
vn 0.5714287757873535 0.5714287757873535 0.5890148282051086
vn 0.5714287757873535 0.5714287757873535 0.5890148282051086
vn 0.2091570496559143 0.780586838722229 0.5890138745307922
vn 0.2091570645570755 0.7805869579315186 0.5890138745307922
vn 0.2091570496559143 0.780586838722229 0.5890138745307922
vn -0.2091570496559143 0.780586838722229 0.5890138745307922
vn -0.2091570496559143 0.780586838722229 0.5890138745307922
vn -0.2091570645570755 0.7805869579315186 0.5890138745307922
vn -0.5714287161827087 0.5714287161827087 0.5890147686004639
vn -0.5714287757873535 0.5714287757873535 0.5890148282051086
vn -0.5714287757873535 0.5714287757873535 0.5890148282051086
vn 0.6708625555038452 -0.6708624958992004 -0.31604892015457153
vn 0.6708625555038452 -0.6708624958992004 -0.31604892015457153
vn 0.6708625555038452 -0.6708624958992004 -0.31604892015457153
vn 0.4156818687915802 -0.7199821472167969 -0.555728554725647
vn 0.4156818389892578 -0.7199821472167969 -0.555728554725647
vn 0.41568177938461304 -0.7199821472167969 -0.555728554725647
vn 0.9164151549339294 0.24555276334285736 -0.3160490095615387
vn 0.9164151549339294 0.24555276334285736 -0.3160489499568939
vn 0.9164151549339294 0.24555276334285736 -0.3160489499568939
vn 0.8313637971878052 1.3422753397662746e-07 -0.5557286143302917
vn 0.8313637971878052 1.3422751976577274e-07 -0.555728554725647
vn 0.8313637971878052 1.3422751976577274e-07 -0.555728554725647
vn 0.2455521821975708 0.9164155721664429 -0.3160482347011566
vn 0.2455521523952484 0.9164155721664429 -0.3160482347011566
vn 0.2455521821975708 0.9164155721664429 -0.3160482347011566
vn 0.4156818687915802 0.7199821472167969 -0.5557284951210022
vn 0.4156818985939026 0.7199822068214417 -0.5557284951210022
vn 0.4156818985939026 0.7199822068214417 -0.5557284951210022
vn -0.6708625555038452 0.6708625555038452 -0.31604892015457153
vn -0.6708625555038452 0.6708625555038452 -0.31604892015457153
vn -0.6708625555038452 0.6708625555038452 -0.31604892015457153
vn -0.4156818687915802 0.7199821472167969 -0.5557284951210022
vn -0.4156818985939026 0.7199822068214417 -0.5557284951210022
vn -0.4156818985939026 0.7199822068214417 -0.5557284951210022
vn -0.916415274143219 -0.24555270373821259 -0.3160490095615387
vn -0.916415274143219 -0.24555270373821259 -0.3160490095615387
vn -0.916415274143219 -0.24555270373821259 -0.3160490095615387
vn -0.8313637971878052 1.3422753397662746e-07 -0.5557286143302917
vn -0.8313637971878052 1.3422751976577274e-07 -0.555728554725647
vn -0.8313637971878052 1.3422751976577274e-07 -0.555728554725647
vn -0.24555283784866333 -0.9164149761199951 -0.3160494267940521
vn -0.24555283784866333 -0.9164149761199951 -0.3160494267940521
vn -0.24555283784866333 -0.9164149761199951 -0.3160494267940521
vn -0.4156818687915802 -0.7199821472167969 -0.5557284951210022
vn -0.4156818389892578 -0.7199822068214417 -0.555728554725647
vn -0.4156818687915802 -0.7199822068214417 -0.555728554725647
vn -0.5449292659759521 0.0 0.8384819626808167
vn -0.5449292659759521 0.0 0.8384819626808167
vn -0.5449292659759521 0.0 0.8384819626808167
vn -0.2724646329879761 0.47192254662513733 0.8384820818901062
vn -0.2724646329879761 0.47192251682281494 0.8384819626808167
vn -0.2724646329879761 0.47192254662513733 0.8384820818901062
vn 0.2724646329879761 0.47192254662513733 0.8384820818901062
vn 0.2724646329879761 0.47192254662513733 0.8384820818901062
vn 0.2724646329879761 0.47192251682281494 0.8384819626808167
vn 0.5449292659759521 0.0 0.8384819626808167
vn 0.5449292659759521 0.0 0.8384819626808167
vn 0.5449292659759521 0.0 0.8384819626808167
vn 0.27246469259262085 -0.4719225764274597 0.8384819626808167
vn 0.27246469259262085 -0.4719225764274597 0.8384819626808167
vn 0.27246466279029846 -0.4719225764274597 0.8384819626808167
vn -0.27246469259262085 -0.4719225764274597 0.8384819626808167
vn -0.27246466279029846 -0.4719225764274597 0.8384819626808167
vn -0.27246469259262085 -0.4719225764274597 0.8384819626808167
vn -0.0 -0.9983896017074585 -0.05672917515039444
vn -0.0 -0.9983896017074585 -0.05672917515039444
vn -0.0 -0.9983896017074585 -0.05672917142510414
vn -0.0 -0.9983896017074585 -0.056729160249233246
vn -0.859686553478241 -0.4963400065898895 0.12077118456363678
vn -0.859686553478241 -0.49633994698524475 0.12077116966247559
vn -0.859686553478241 -0.4963400065898895 0.12077118456363678
vn -0.859686553478241 -0.49633994698524475 0.12077119946479797
vn -0.8601661920547485 -0.4966171085834503 -0.11612749099731445
vn -0.8601661920547485 -0.4966171085834503 -0.11612749099731445
vn -0.8601661920547485 -0.49661707878112793 -0.11612749099731445
vn -0.8601662516593933 -0.4966169595718384 -0.11612744629383087
vn -0.8596863746643066 0.4963403642177582 0.12077126652002335
vn -0.8596863746643066 0.4963403642177582 0.12077127397060394
vn -0.8596863746643066 0.49634039402008057 0.12077127397060394
vn -0.8596863746643066 0.49634039402008057 0.12077127397060394
vn -0.860166072845459 0.4966173470020294 -0.11612735688686371
vn -0.860166072845459 0.4966173470020294 -0.11612735688686371
vn -0.860166072845459 0.4966173470020294 -0.11612735688686371
vn -0.860166072845459 0.49661725759506226 -0.1161273866891861
vn 1.5614378412465157e-07 0.9983896017074585 -0.05672897398471832
vn 1.561437983355063e-07 0.9983896017074585 -0.056728970259428024
vn 1.5614378412465157e-07 0.9983896017074585 -0.056728970259428024
vn 1.8785550537359086e-07 0.9983896017074585 -0.05672895535826683
vn 0.8660247325897217 0.499999076128006 0.001466063316911459
vn 0.8660247325897217 0.499999076128006 0.001466063316911459
vn 0.8660247325897217 0.499999076128006 0.001466063316911459
vn 0.8660246133804321 0.49999913573265076 0.0014660194283351302
vn 0.8660207986831665 0.49999722838401794 0.0032773204147815704
vn 0.8660208582878113 0.49999719858169556 0.003277320647612214
vn 0.8660208582878113 0.49999716877937317 0.003277320647612214
vn 0.8660208582878113 0.49999716877937317 0.003277338808402419
vn 0.8660244345664978 -0.4999995827674866 0.0014659403823316097
vn 0.8660244345664978 -0.4999995827674866 0.001465940149500966
vn 0.8660244345664978 -0.4999995827674866 0.0014659403823316097
vn 0.866024374961853 -0.49999961256980896 0.0014659521402791142
vn 0.866020679473877 -0.4999973177909851 0.0032772154081612825
vn 0.866020679473877 -0.4999973177909851 0.00327721587382257
vn 0.866020679473877 -0.49999740719795227 0.00327721587382257
vn 0.866020679473877 -0.49999746680259705 0.003277235897257924
vt 0.8164937496185303 0.9597234465181828
vt 0.8575964570045471 0.9195457175374031
vt 0.8575964570045471 0.9597234465181828
vt 0.8164937496185303 0.9195457175374031
vt 0.8575964570045471 0.9597234465181828
vt 0.8951930999755859 0.9195457175374031
vt 0.8951930999755859 0.9597234465181828
vt 0.8575964570045471 0.9195457175374031
vt 0.6509719491004944 0.9597234465181828
vt 0.6874350309371948 0.9195457175374031
vt 0.6874350309371948 0.9597234465181828
vt 0.6509719491004944 0.9195457175374031
vt 0.6874350309371948 0.9597234465181828
vt 0.7299753427505493 0.9195457175374031
vt 0.7299753427505493 0.9597234465181828
vt 0.6874350309371948 0.9195457175374031
vt 0.7299753427505493 0.9597234465181828
vt 0.7745547294616699 0.9195457175374031
vt 0.7745547294616699 0.9597234465181828
vt 0.7299753427505493 0.9195457175374031
vt 0.7745547294616699 0.9597234465181828
vt 0.8164937496185303 0.9195457175374031
vt 0.8164937496185303 0.9597234465181828
vt 0.7745547294616699 0.9195457175374031
vt 0.8575964570045471 0.9597234465181828
vt 0.7745547294616699 1.0009737722575665
vt 0.8164937496185303 0.9597234465181828
vt 0.8951930999755859 0.9597234465181828
vt 0.7745547294616699 1.0009737722575665
vt 0.8575964570045471 0.9597234465181828
vt 0.6874350309371948 0.9597234465181828
vt 0.7745547294616699 1.0009737722575665
vt 0.6509719491004944 0.9597234465181828
vt 0.7299753427505493 0.9597234465181828
vt 0.7745547294616699 1.0009737722575665
vt 0.6874350309371948 0.9597234465181828
vt 0.7745547294616699 0.9597234465181828
vt 0.7745547294616699 1.0009737722575665
vt 0.7299753427505493 0.9597234465181828
vt 0.8164937496185303 0.9597234465181828
vt 0.7745547294616699 1.0009737722575665
vt 0.7745547294616699 0.9597234465181828
vt 0.6874350309371948 0.8922783508896828
vt 0.7299753427505493 0.8647263199090958
vt 0.7299753427505493 0.8921360224485397
vt 0.6874350309371948 0.8650109767913818
vt 0.6874350309371948 0.9195457175374031
vt 0.7299753427505493 0.9195457175374031
vt 0.6509719491004944 0.8921360149979591
vt 0.6874350309371948 0.8650109767913818
vt 0.6874350309371948 0.8922783508896828
vt 0.6509719491004944 0.8647263199090958
vt 0.8575964570045471 0.8921360149979591
vt 0.8951930999755859 0.8647263199090958
vt 0.8951930999755859 0.8921360149979591
vt 0.8575964570045471 0.8647263199090958
vt 0.8164937496185303 0.8921360149979591
vt 0.8575964570045471 0.8647263199090958
vt 0.8575964570045471 0.8921360149979591
vt 0.8164937496185303 0.8647263199090958
vt 0.8164937496185303 0.9195457175374031
vt 0.8575964570045471 0.9195457175374031
vt 0.7745547294616699 0.8921360149979591
vt 0.8164937496185303 0.8647263199090958
vt 0.8164937496185303 0.8921360149979591
vt 0.7745547294616699 0.8647263199090958
vt 0.7299753427505493 0.8921360224485397
vt 0.7745547294616699 0.8647263199090958
vt 0.7745547294616699 0.8921360149979591
vt 0.7299753427505493 0.8647263199090958
vt 0.7961174249649048 0.527667909860611
vt 0.7155224084854126 0.5571499764919281
vt 0.7394858002662659 0.5162622034549713
vt 0.8910847306251526 0.47365498542785645
vt 0.876319408416748 0.5581933856010437
vt 0.8528912663459778 0.5169965326786041
vt 0.8917917609214783 0.36440443992614746
vt 0.9576215147972107 0.4194607734680176
vt 0.9102299213409424 0.41915178298950195
vt 0.7975315451622009 0.3091667890548706
vt 0.8781266212463379 0.27968478202819824
vt 0.8541631698608398 0.3205726146697998
vt 0.7025643587112427 0.3631798028945923
vt 0.7173296213150024 0.2786414623260498
vt 0.7407578229904175 0.319838285446167
vt 0.7018572092056274 0.47243034839630127
vt 0.6360275149345398 0.41737401485443115
vt 0.6834190487861633 0.4176830053329468
vt 0.6988067626953125 0.6946870982646942
vt 0.7495449185371399 0.607291042804718
vt 0.7978503704071045 0.6914240717887878
vt 0.7495449185371399 0.607291042804718
vt 0.8506012558937073 0.6075334548950195
vt 0.7978503704071045 0.6914240717887878
vt 0.8506012558937073 0.6075334548950195
vt 0.9009194374084473 0.6951721012592316
vt 0.7978503704071045 0.6914240717887878
vt 0.9009194374084473 0.6951721012592316
vt 0.8501812219619751 0.7825681865215302
vt 0.7978503704071045 0.6914240717887878
vt 0.8501812219619751 0.7825681865215302
vt 0.7491248846054077 0.7823256850242615
vt 0.7978503704071045 0.6914240717887878
vt 0.7491248846054077 0.7823256850242615
vt 0.6988067626953125 0.6946870982646942
vt 0.7978503704071045 0.6914240717887878
vt 0.8126670122146606 0.4458765983581543
vt 0.7568483948707581 0.4866410493850708
vt 0.7809655070304871 0.44586706161499023
vt 0.8359199166297913 0.4871494770050049
vt 0.8285261392593384 0.4184269905090332
vt 0.8359199166297913 0.4871494770050049
vt 0.8126670122146606 0.4458765983581543
vt 0.8758959770202637 0.4189258813858032
vt 0.8126834630966187 0.3909677267074585
vt 0.8758959770202637 0.4189258813858032
vt 0.8285261392593384 0.4184269905090332
vt 0.8368005752563477 0.35019373893737793
vt 0.7809820175170898 0.39095818996429443
vt 0.8368005752563477 0.35019373893737793
vt 0.8126834630966187 0.3909677267074585
vt 0.7577291131019592 0.34968531131744385
vt 0.7651228904724121 0.4184077978134155
vt 0.7577291131019592 0.34968531131744385
vt 0.7809820175170898 0.39095818996429443
vt 0.717752993106842 0.4179089069366455
vt 0.7809655070304871 0.44586706161499023
vt 0.717752993106842 0.4179089069366455
vt 0.7651228904724121 0.4184077978134155
vt 0.7568483948707581 0.4866410493850708
vt 0.8758959770202637 0.4189258813858032
vt 0.8368005752563477 0.35019373893737793
vt 0.8917917609214783 0.36440443992614746
vt 0.8359199166297913 0.4871494770050049
vt 0.8758959770202637 0.4189258813858032
vt 0.8910847306251526 0.47365498542785645
vt 0.7568483948707581 0.4866410493850708
vt 0.8359199166297913 0.4871494770050049
vt 0.7961174249649048 0.527667909860611
vt 0.717752993106842 0.4179089069366455
vt 0.7568483948707581 0.4866410493850708
vt 0.7018572092056274 0.47243034839630127
vt 0.7577291131019592 0.34968531131744385
vt 0.717752993106842 0.4179089069366455
vt 0.7025643587112427 0.3631798028945923
vt 0.8368005752563477 0.35019373893737793
vt 0.7577291131019592 0.34968531131744385
vt 0.7975315451622009 0.3091667890548706
vt 0.8758959770202637 0.4189258813858032
vt 0.8917917609214783 0.36440443992614746
vt 0.9102299213409424 0.41915178298950195
vt 0.8368005752563477 0.35019373893737793
vt 0.8541631698608398 0.3205726146697998
vt 0.8917917609214783 0.36440443992614746
vt 0.8368005752563477 0.35019373893737793
vt 0.7975315451622009 0.3091667890548706
vt 0.8541631698608398 0.3205726146697998
vt 0.7577291131019592 0.34968531131744385
vt 0.7407578229904175 0.319838285446167
vt 0.7975315451622009 0.3091667890548706
vt 0.7577291131019592 0.34968531131744385
vt 0.7025643587112427 0.3631798028945923
vt 0.7407578229904175 0.319838285446167
vt 0.717752993106842 0.4179089069366455
vt 0.6834190487861633 0.4176830053329468
vt 0.7025643587112427 0.3631798028945923
vt 0.717752993106842 0.4179089069366455
vt 0.7018572092056274 0.47243034839630127
vt 0.6834190487861633 0.4176830053329468
vt 0.7568483948707581 0.4866410493850708
vt 0.7394858002662659 0.5162622034549713
vt 0.7018572092056274 0.47243034839630127
vt 0.7568483948707581 0.4866410493850708
vt 0.7961174249649048 0.527667909860611
vt 0.7394858002662659 0.5162622034549713
vt 0.8359199166297913 0.4871494770050049
vt 0.8528912663459778 0.5169965326786041
vt 0.7961174249649048 0.527667909860611
vt 0.8359199166297913 0.4871494770050049
vt 0.8910847306251526 0.47365498542785645
vt 0.8528912663459778 0.5169965326786041
vt 0.8758959770202637 0.4189258813858032
vt 0.9102299213409424 0.41915178298950195
vt 0.8910847306251526 0.47365498542785645
vt 0.7025643587112427 0.3631798028945923
vt 0.6834190487861633 0.4176830053329468
vt 0.6360275149345398 0.41737401485443115
vt 0.7025643587112427 0.3631798028945923
vt 0.6360275149345398 0.41737401485443115
vt 0.7173296213150024 0.2786414623260498
vt 0.7018572092056274 0.47243034839630127
vt 0.7394858002662659 0.5162622034549713
vt 0.7155224084854126 0.5571499764919281
vt 0.7018572092056274 0.47243034839630127
vt 0.7155224084854126 0.5571499764919281
vt 0.6360275149345398 0.41737401485443115
vt 0.7961174249649048 0.527667909860611
vt 0.8528912663459778 0.5169965326786041
vt 0.876319408416748 0.5581933856010437
vt 0.7961174249649048 0.527667909860611
vt 0.876319408416748 0.5581933856010437
vt 0.7155224084854126 0.5571499764919281
vt 0.8910847306251526 0.47365498542785645
vt 0.9102299213409424 0.41915178298950195
vt 0.9576215147972107 0.4194607734680176
vt 0.8910847306251526 0.47365498542785645
vt 0.9576215147972107 0.4194607734680176
vt 0.876319408416748 0.5581933856010437
vt 0.8917917609214783 0.36440443992614746
vt 0.8541631698608398 0.3205726146697998
vt 0.8781266212463379 0.27968478202819824
vt 0.8917917609214783 0.36440443992614746
vt 0.8781266212463379 0.27968478202819824
vt 0.9576215147972107 0.4194607734680176
vt 0.7975315451622009 0.3091667890548706
vt 0.7407578229904175 0.319838285446167
vt 0.7173296213150024 0.2786414623260498
vt 0.7975315451622009 0.3091667890548706
vt 0.7173296213150024 0.2786414623260498
vt 0.8781266212463379 0.27968478202819824
vt 0.7968245148658752 0.41841745376586914
vt 0.8126834630966187 0.3909677267074585
vt 0.8285261392593384 0.4184269905090332
vt 0.7968245148658752 0.41841745376586914
vt 0.8285261392593384 0.4184269905090332
vt 0.8126670122146606 0.4458765983581543
vt 0.7968245148658752 0.41841745376586914
vt 0.8126670122146606 0.4458765983581543
vt 0.7809655070304871 0.44586706161499023
vt 0.7968245148658752 0.41841745376586914
vt 0.7809655070304871 0.44586706161499023
vt 0.7651228904724121 0.4184077978134155
vt 0.7968245148658752 0.41841745376586914
vt 0.7651228904724121 0.4184077978134155
vt 0.7809820175170898 0.39095818996429443
vt 0.7968245148658752 0.41841745376586914
vt 0.7809820175170898 0.39095818996429443
vt 0.8126834630966187 0.3909677267074585
vt 0.7299753427505493 0.8373166173696518
vt 0.6874350309371948 0.8650109767913818
vt 0.6874350309371948 0.8377436101436615
vt 0.7299753427505493 0.8647263199090958
vt 0.6509719491004944 0.9195457175374031
vt 0.6874350309371948 0.8922783508896828
vt 0.6874350309371948 0.9195457175374031
vt 0.6509719491004944 0.8921360149979591
vt 0.6874350309371948 0.8377436101436615
vt 0.6509719491004944 0.8647263199090958
vt 0.6509719491004944 0.8373166173696518
vt 0.6874350309371948 0.8650109767913818
vt 0.8575964570045471 0.9195457175374031
vt 0.8951930999755859 0.8921360149979591
vt 0.8951930999755859 0.9195457175374031
vt 0.8575964570045471 0.8921360149979591
vt 0.8951930999755859 0.8373166173696518
vt 0.8575964570045471 0.8647263199090958
vt 0.8575964570045471 0.8373166173696518
vt 0.8951930999755859 0.8647263199090958
vt 0.8575964570045471 0.8373166173696518
vt 0.8164937496185303 0.8647263199090958
vt 0.8164937496185303 0.8373166173696518
vt 0.8575964570045471 0.8647263199090958
vt 0.7745547294616699 0.9195457175374031
vt 0.8164937496185303 0.8921360149979591
vt 0.8164937496185303 0.9195457175374031
vt 0.7745547294616699 0.8921360149979591
vt 0.8164937496185303 0.8373166173696518
vt 0.7745547294616699 0.8647263199090958
vt 0.7745547294616699 0.8373166173696518
vt 0.8164937496185303 0.8647263199090958
vt 0.7299753427505493 0.9195457175374031
vt 0.7745547294616699 0.8921360149979591
vt 0.7745547294616699 0.9195457175374031
vt 0.7299753427505493 0.8921360224485397
vt 0.7745547294616699 0.8373166173696518
vt 0.7299753427505493 0.8647263199090958
vt 0.7299753427505493 0.8373166173696518
vt 0.7745547294616699 0.8647263199090958

g bg_mdl_map_kinoko01
s 1
usemtl bg_mdl_map_kinoko01
f 3/3/3 2/2/2 1/1/1 
f 4/4/4 1/1/1 2/2/2 
f 7/7/7 6/6/6 5/5/5 
f 8/8/8 5/5/5 6/6/6 
f 11/11/11 10/10/10 9/9/9 
f 12/12/12 9/9/9 10/10/10 
f 15/15/15 14/14/14 13/13/13 
f 16/16/16 13/13/13 14/14/14 
f 19/19/19 18/18/18 17/17/17 
f 20/20/20 17/17/17 18/18/18 
f 23/23/23 22/22/22 21/21/21 
f 24/24/24 21/21/21 22/22/22 
f 27/27/27 26/26/26 25/25/25 
f 30/30/30 29/29/29 28/28/28 
f 33/33/33 32/32/32 31/31/31 
f 36/36/36 35/35/35 34/34/34 
f 39/39/39 38/38/38 37/37/37 
f 42/42/42 41/41/41 40/40/40 
f 45/45/45 44/44/44 43/43/43 
f 46/46/46 43/43/43 44/44/44 
f 43/43/43 47/47/47 45/45/45 
f 48/48/48 45/45/45 47/47/47 
f 51/51/51 50/50/50 49/49/49 
f 52/52/52 49/49/49 50/50/50 
f 55/55/55 54/54/54 53/53/53 
f 56/56/56 53/53/53 54/54/54 
f 59/59/59 58/58/58 57/57/57 
f 60/60/60 57/57/57 58/58/58 
f 57/57/57 61/61/61 59/59/59 
f 62/62/62 59/59/59 61/61/61 
f 65/65/65 64/64/64 63/63/63 
f 66/66/66 63/63/63 64/64/64 
f 69/69/69 68/68/68 67/67/67 
f 70/70/70 67/67/67 68/68/68 
f 73/73/73 72/72/72 71/71/71 
f 76/76/76 75/75/75 74/74/74 
f 79/79/79 78/78/78 77/77/77 
f 82/82/82 81/81/81 80/80/80 
f 85/85/85 84/84/84 83/83/83 
f 88/88/88 87/87/87 86/86/86 
f 91/91/91 90/90/90 89/89/89 
f 94/94/94 93/93/93 92/92/92 
f 97/97/97 96/96/96 95/95/95 
f 100/100/100 99/99/99 98/98/98 
f 103/103/103 102/102/102 101/101/101 
f 106/106/106 105/105/105 104/104/104 
f 109/109/109 108/108/108 107/107/107 
f 110/110/110 107/107/107 108/108/108 
f 113/113/113 112/112/112 111/111/111 
f 114/114/114 111/111/111 112/112/112 
f 117/117/117 116/116/116 115/115/115 
f 118/118/118 115/115/115 116/116/116 
f 121/121/121 120/120/120 119/119/119 
f 122/122/122 119/119/119 120/120/120 
f 125/125/125 124/124/124 123/123/123 
f 126/126/126 123/123/123 124/124/124 
f 129/129/129 128/128/128 127/127/127 
f 130/130/130 127/127/127 128/128/128 
f 133/133/133 132/132/132 131/131/131 
f 136/136/136 135/135/135 134/134/134 
f 139/139/139 138/138/138 137/137/137 
f 142/142/142 141/141/141 140/140/140 
f 145/145/145 144/144/144 143/143/143 
f 148/148/148 147/147/147 146/146/146 
f 151/151/151 150/150/150 149/149/149 
f 154/154/154 153/153/153 152/152/152 
f 157/157/157 156/156/156 155/155/155 
f 160/160/160 159/159/159 158/158/158 
f 163/163/163 162/162/162 161/161/161 
f 166/166/166 165/165/165 164/164/164 
f 169/169/169 168/168/168 167/167/167 
f 172/172/172 171/171/171 170/170/170 
f 175/175/175 174/174/174 173/173/173 
f 178/178/178 177/177/177 176/176/176 
f 181/181/181 180/180/180 179/179/179 
f 184/184/184 183/183/183 182/182/182 
f 187/187/187 186/186/186 185/185/185 
f 190/190/190 189/189/189 188/188/188 
f 193/193/193 192/192/192 191/191/191 
f 196/196/196 195/195/195 194/194/194 
f 199/199/199 198/198/198 197/197/197 
f 202/202/202 201/201/201 200/200/200 
f 205/205/205 204/204/204 203/203/203 
f 208/208/208 207/207/207 206/206/206 
f 211/211/211 210/210/210 209/209/209 
f 214/214/214 213/213/213 212/212/212 
f 217/217/217 216/216/216 215/215/215 
f 220/220/220 219/219/219 218/218/218 
f 223/223/223 222/222/222 221/221/221 
f 226/226/226 225/225/225 224/224/224 
f 229/229/229 228/228/228 227/227/227 
f 232/232/232 231/231/231 230/230/230 
f 235/235/235 234/234/234 233/233/233 
f 238/238/238 237/237/237 236/236/236 
f 241/241/241 240/240/240 239/239/239 
f 242/242/242 239/239/239 240/240/240 
f 245/245/245 244/244/244 243/243/243 
f 246/246/246 243/243/243 244/244/244 
f 249/249/249 248/248/248 247/247/247 
f 250/250/250 247/247/247 248/248/248 
f 253/253/253 252/252/252 251/251/251 
f 254/254/254 251/251/251 252/252/252 
f 257/257/257 256/256/256 255/255/255 
f 258/258/258 255/255/255 256/256/256 
f 261/261/261 260/260/260 259/259/259 
f 262/262/262 259/259/259 260/260/260 
f 265/265/265 264/264/264 263/263/263 
f 266/266/266 263/263/263 264/264/264 
f 269/269/269 268/268/268 267/267/267 
f 270/270/270 267/267/267 268/268/268 
f 273/273/273 272/272/272 271/271/271 
f 274/274/274 271/271/271 272/272/272 
f 277/277/277 276/276/276 275/275/275 
f 278/278/278 275/275/275 276/276/276 

