v 1.3340035676956177 -1.5258788721439487e-07 0.594250500202179
v 0.4353051781654358 -0.041221313178539276 0.555010974407196
v 0.4353051781654358 0.0 0.5921386480331421
v 1.3213765621185303 -0.04122146591544151 0.555010974407196
v 1.3213763236999512 0.04122116044163704 0.555010974407196
v 0.4353051781654358 0.041221313178539276 0.555010974407196
v 1.3911190032958984 -1.5258788721439487e-07 0.5372021198272705
v 1.3602553606033325 -0.04122146591544151 0.5124296545982361
v 1.3602547645568848 0.04122116044163704 0.5124296545982361
v 1.4153341054916382 -1.5258788721439487e-07 0.483671098947525
v 1.3769521713256836 -0.04122146591544151 0.4757389724254608
v 1.3769521713256836 0.04122116044163704 0.4757389724254608
v 1.4172115325927734 -3.0517577442878974e-07 0.0005676269647665322
v 1.3759902715682983 -0.04122161865234375 0.0005676269647665322
v 1.3759902715682983 0.0412210077047348 0.0005676269647665322
v 1.3087490797042847 -1.5258788721439487e-07 0.5157708525657654
v 0.4353051781654358 0.041221313178539276 0.555010974407196
v 0.4353051781654358 0.0 0.5178827047348022
v 1.3213763236999512 0.04122116044163704 0.555010974407196
v 1.3213765621185303 -0.04122146591544151 0.555010974407196
v 0.4353051781654358 -0.041221313178539276 0.555010974407196
v 1.3602547645568848 0.04122116044163704 0.5124296545982361
v 1.3293911218643188 -1.5258788721439487e-07 0.4876573085784912
v 1.3602553606033325 -0.04122146591544151 0.5124296545982361
v 1.3769521713256836 0.04122116044163704 0.4757389724254608
v 1.338570237159729 -1.5258788721439487e-07 0.4678068459033966
v 1.3769521713256836 -0.04122146591544151 0.4757389724254608
v 1.3759902715682983 0.0412210077047348 0.0005676269647665322
v 1.3347690105438232 -3.0517577442878974e-07 0.0005676269647665322
v 1.3759902715682983 -0.04122161865234375 0.0005676269647665322
v 0.4353051781654358 0.0 0.5921386480331421
v -0.45761838555336 -0.04122116044163704 0.555010974407196
v -0.45761838555336 1.5258788721439487e-07 0.5931945443153381
v 0.4353051781654358 -0.041221313178539276 0.555010974407196
v -0.45761838555336 0.04122146591544151 0.555010974407196
v 0.4353051781654358 0.041221313178539276 0.555010974407196
v -0.45761838555336 1.5258788721439487e-07 0.5168267488479614
v 0.4353051781654358 0.041221313178539276 0.555010974407196
v -0.45761838555336 0.04122146591544151 0.555010974407196
v 0.4353051781654358 0.0 0.5178827047348022
v 0.4353051781654358 -0.041221313178539276 0.555010974407196
v -0.45761838555336 -0.04122116044163704 0.555010974407196
v -1.3911187648773193 3.0517577442878974e-07 0.5372021198272705
v -1.3213763236999512 -0.0412210077047348 0.555010974407196
v -1.3602551221847534 -0.0412210077047348 0.5124296545982361
v -1.334003210067749 3.0517577442878974e-07 0.594250500202179
v -1.3213763236999512 0.04122161865234375 0.555010974407196
v -1.3602545261383057 0.04122161865234375 0.5124296545982361
v -1.415333867073059 3.0517577442878974e-07 0.483671098947525
v -1.3769525289535522 -0.0412210077047348 0.4757389724254608
v -1.3769519329071045 0.04122161865234375 0.4757389724254608
v -1.4172112941741943 1.5258788721439487e-07 0.0005676269647665322
v -1.375990629196167 -0.04122116044163704 0.0005676269647665322
v -1.375990629196167 0.04122146591544151 0.0005676269647665322
v -1.3087493181228638 3.0517577442878974e-07 0.5157708525657654
v -1.3602545261383057 0.04122161865234375 0.5124296545982361
v -1.3293908834457397 3.0517577442878974e-07 0.4876573085784912
v -1.3213763236999512 0.04122161865234375 0.555010974407196
v -1.3602551221847534 -0.0412210077047348 0.5124296545982361
v -1.3213763236999512 -0.0412210077047348 0.555010974407196
v -1.3769519329071045 0.04122161865234375 0.4757389724254608
v -1.3385698795318604 3.0517577442878974e-07 0.4678068459033966
v -1.3769525289535522 -0.0412210077047348 0.4757389724254608
v -1.375990629196167 0.04122146591544151 0.0005676269647665322
v -1.3347686529159546 1.5258788721439487e-07 0.0005676269647665322
v -1.375990629196167 -0.04122116044163704 0.0005676269647665322
v 1.1411563158035278 -0.036268919706344604 0.0
v 1.1774251461029053 0.0 0.5500121712684631
v 1.1774251461029053 0.0 0.0
v 1.1411563158035278 -0.036268919706344604 0.5500121712684631
v 1.1048873662948608 0.0 0.0
v 1.1048873662948608 0.0 0.5500121712684631
v 1.1774251461029053 0.0 0.0
v 1.1411563158035278 0.036268919706344604 0.5500121712684631
v 1.1411563158035278 0.036268919706344604 0.0
v 1.1774251461029053 0.0 0.5500121712684631
v 1.1048873662948608 0.0 0.5500121712684631
v 1.1048873662948608 0.0 0.0
v 0.7559038996696472 -0.036268919706344604 0.14142821729183197
v 0.7921728491783142 7.629394360719743e-08 0.5567407011985779
v 0.7921728491783142 0.0 0.14142821729183197
v 0.7559038996696472 -0.036268845200538635 0.5567407011985779
v 0.719635009765625 -1.5258788721439487e-07 0.14142821729183197
v 0.719635009765625 -7.629394360719743e-08 0.5567407011985779
v 0.7921728491783142 0.0 0.14142821729183197
v 0.7559038996696472 0.03626899793744087 0.5567407011985779
v 0.7559038996696472 0.036268919706344604 0.14142821729183197
v 0.7921728491783142 7.629394360719743e-08 0.5567407011985779
v 0.719635009765625 -7.629394360719743e-08 0.5567407011985779
v 0.719635009765625 -1.5258788721439487e-07 0.14142821729183197
v 0.37263792753219604 -0.036268919706344604 0.14142821729183197
v 0.40890684723854065 7.629394360719743e-08 0.5567407011985779
v 0.40890684723854065 0.0 0.14142821729183197
v 0.37263792753219604 -0.036268845200538635 0.5567407011985779
v 0.33636900782585144 0.0 0.14142821729183197
v 0.33636900782585144 7.629394360719743e-08 0.5567407011985779
v 0.40890684723854065 0.0 0.14142821729183197
v 0.37263792753219604 0.03626899793744087 0.5567407011985779
v 0.37263792753219604 0.036268919706344604 0.14142821729183197
v 0.40890684723854065 7.629394360719743e-08 0.5567407011985779
v 0.33636900782585144 7.629394360719743e-08 0.5567407011985779
v 0.33636900782585144 0.0 0.14142821729183197
v -0.012283935211598873 -0.03626907244324684 0.14142821729183197
v 0.023985594511032104 -7.629394360719743e-08 0.5567407011985779
v 0.023985594511032104 -1.5258788721439487e-07 0.14142821729183197
v -0.012283935211598873 -0.03626899793744087 0.5567407011985779
v -0.048552244901657104 -1.5258788721439487e-07 0.14142821729183197
v -0.048552244901657104 -7.629394360719743e-08 0.5567407011985779
v 0.023985594511032104 -1.5258788721439487e-07 0.14142821729183197
v -0.012283935211598873 0.036268845200538635 0.5567407011985779
v -0.012283935211598873 0.03626876696944237 0.14142821729183197
v 0.023985594511032104 -7.629394360719743e-08 0.5567407011985779
v -0.048552244901657104 -7.629394360719743e-08 0.5567407011985779
v -0.048552244901657104 -1.5258788721439487e-07 0.14142821729183197
v -1.1186895370483398 -0.036268919706344604 0.0005676269647665322
v -1.082419991493225 0.0 0.5567407011985779
v -1.082419991493225 0.0 0.0005676269647665322
v -1.1186895370483398 -0.036268919706344604 0.5567407011985779
v -1.154957890510559 0.0 0.0005676269647665322
v -1.154957890510559 0.0 0.5567407011985779
v -1.082419991493225 0.0 0.0005676269647665322
v -1.1186895370483398 0.036268919706344604 0.5567407011985779
v -1.1186895370483398 0.036268919706344604 0.0005676269647665322
v -1.082419991493225 0.0 0.5567407011985779
v -1.154957890510559 0.0 0.5567407011985779
v -1.154957890510559 0.0 0.0005676269647665322
v -1.1144793033599854 0.0 0.1799832135438919
v 1.1394925117492676 -0.041221313178539276 0.1407434046268463
v -1.1144793033599854 -0.041221313178539276 0.1407434046268463
v 1.1394925117492676 0.0 0.17787139117717743
v -1.1144793033599854 0.041221313178539276 0.1407434046268463
v 1.1394925117492676 0.041221313178539276 0.1407434046268463
v -1.1144793033599854 0.0 0.10150359570980072
v 1.1394925117492676 0.041221313178539276 0.1407434046268463
v -1.1144793033599854 0.041221313178539276 0.1407434046268463
v 1.1394925117492676 0.0 0.10361511260271072
v -1.1144793033599854 -0.041221313178539276 0.1407434046268463
v 1.1394925117492676 -0.041221313178539276 0.1407434046268463
v -0.4030401408672333 -0.036268919706344604 0.14142821729183197
v -0.3667718470096588 2.288818308215923e-07 0.5567407011985779
v -0.3667718470096588 0.0 0.14142821729183197
v -0.4030401408672333 -0.0362686924636364 0.5567407011985779
v -0.439309686422348 -1.5258788721439487e-07 0.14142821729183197
v -0.439309686422348 7.629394360719743e-08 0.5567407011985779
v -0.3667718470096588 0.0 0.14142821729183197
v -0.4030401408672333 0.03626915067434311 0.5567407011985779
v -0.4030401408672333 0.036268919706344604 0.14142821729183197
v -0.3667718470096588 2.288818308215923e-07 0.5567407011985779
v -0.439309686422348 7.629394360719743e-08 0.5567407011985779
v -0.439309686422348 -1.5258788721439487e-07 0.14142821729183197
v -0.7825115919113159 -0.036268919706344604 0.14142821729183197
v -0.7462432980537415 2.288818308215923e-07 0.5567407011985779
v -0.7462432980537415 0.0 0.14142821729183197
v -0.7825115919113159 -0.0362686924636364 0.5567407011985779
v -0.8187811374664307 0.0 0.14142821729183197
v -0.8187811374664307 2.288818308215923e-07 0.5567407011985779
v -0.7462432980537415 0.0 0.14142821729183197
v -0.7825115919113159 0.03626915067434311 0.5567407011985779
v -0.7825115919113159 0.036268919706344604 0.14142821729183197
v -0.7462432980537415 2.288818308215923e-07 0.5567407011985779
v -0.8187811374664307 2.288818308215923e-07 0.5567407011985779
v -0.8187811374664307 0.0 0.14142821729183197
v -0.45761838555336 1.5258788721439487e-07 0.5931945443153381
v -1.3213763236999512 -0.0412210077047348 0.555010974407196
v -1.334003210067749 3.0517577442878974e-07 0.594250500202179
v -0.45761838555336 -0.04122116044163704 0.555010974407196
v -1.3213763236999512 0.04122161865234375 0.555010974407196
v -0.45761838555336 0.04122146591544151 0.555010974407196
v -1.3087493181228638 3.0517577442878974e-07 0.5157708525657654
v -0.45761838555336 0.04122146591544151 0.555010974407196
v -1.3213763236999512 0.04122161865234375 0.555010974407196
v -0.45761838555336 1.5258788721439487e-07 0.5168267488479614
v -0.45761838555336 -0.04122116044163704 0.555010974407196
v -1.3213763236999512 -0.0412210077047348 0.555010974407196
vn 0.37156951427459717 0.00024491074145771563 0.9284051060676575
vn -0.0003109177341684699 -1.0 -0.00013431307161226869
vn -0.0005879337550140917 0.0002778678899630904 0.9999997615814209
vn 0.07959585636854172 -0.9841386675834656 0.15854178369045258
vn 0.07944653183221817 0.9840556383132935 0.15913093090057373
vn -0.00032787927193567157 0.9999998807907104 0.00042940123239532113
vn 0.8254724740982056 2.6082354906975525e-06 0.5644423961639404
vn 0.05265948176383972 -0.9979426264762878 0.036569636315107346
vn 0.0526527538895607 0.9979432225227356 0.036563675850629807
vn 0.9772144556045532 1.0068795290862909e-06 0.21225444972515106
vn 0.09513883292675018 -0.9952002763748169 0.022912021726369858
vn 0.09514085203409195 0.9952000379562378 0.02291422337293625
vn 0.9999988079071045 -1.608446495993121e-07 -0.0015654262388125062
vn -0.002276340499520302 -0.9999934434890747 0.002833959646522999
vn -0.0022765006870031357 0.9999934434890747 0.0028333119116723537
vn -0.45635128021240234 -0.00035480340011417866 -0.8897997140884399
vn -0.00032787927193567157 0.9999998807907104 0.00042940123239532113
vn -3.755247962544672e-05 -0.0002855566854123026 -1.0
vn 0.07944653183221817 0.9840556383132935 0.15913093090057373
vn 0.07959585636854172 -0.9841386675834656 0.15854178369045258
vn -0.0003109177341684699 -1.0 -0.00013431307161226869
vn 0.0526527538895607 0.9979432225227356 0.036563675850629807
vn -0.8652454018592834 -2.158856887035654e-06 -0.5013484358787537
vn 0.05265948176383972 -0.9979426264762878 0.036569636315107346
vn 0.09514085203409195 0.9952000379562378 0.02291422337293625
vn -0.9766270518302917 1.361953252398962e-07 -0.21494100987911224
vn 0.09513883292675018 -0.9952002763748169 0.022912021726369858
vn -0.0022765006870031357 0.9999934434890747 0.0028333119116723537
vn -0.9999669790267944 -1.0771878322657358e-07 0.008135327138006687
vn -0.002276340499520302 -0.9999934434890747 0.002833959646522999
vn -0.0005879337550140917 0.0002778678899630904 0.9999997615814209
vn 0.0006269535515457392 -0.9999997615814209 0.00028655960340984166
vn 0.0006160330958664417 1.0347347512151828e-07 0.9999998807907104
vn -0.0003109177341684699 -1.0 -0.00013431307161226869
vn 0.0006273023318499327 0.9999997615814209 0.00028650372405536473
vn -0.00032787927193567157 0.9999998807907104 0.00042940123239532113
vn 0.0006441121804527938 0.0 -0.9999998807907104
vn -0.00032787927193567157 0.9999998807907104 0.00042940123239532113
vn 0.0006273023318499327 0.9999997615814209 0.00028650372405536473
vn -3.755247962544672e-05 -0.0002855566854123026 -1.0
vn -0.0003109177341684699 -1.0 -0.00013431307161226869
vn 0.0006269535515457392 -0.9999997615814209 0.00028655960340984166
vn -0.8254727721214294 2.266170895381947e-06 0.564441978931427
vn -0.07976415008306503 -0.9840646386146545 0.15891636908054352
vn -0.052657075226306915 -0.9979428648948669 0.03656819090247154
vn -0.3715825080871582 0.0 0.9283998608589172
vn -0.07976394146680832 0.984064519405365 0.1589174121618271
vn -0.0526510514318943 0.9979433417320251 0.03656332567334175
vn -0.9772140979766846 3.5751418181462213e-06 0.21225570142269135
vn -0.09514808654785156 -0.9951993823051453 0.022916074842214584
vn -0.09514070302248001 0.9952000379562378 0.022913938388228416
vn -0.9999988079071045 1.608435127309349e-07 -0.001564837177284062
vn 0.0022691430058330297 -0.9999934434890747 0.002833921927958727
vn 0.0022689406760036945 0.9999934434890747 0.002833865350112319
vn 0.45572763681411743 -1.2770146895491052e-06 -0.8901193141937256
vn -0.0526510514318943 0.9979433417320251 0.03656332567334175
vn 0.8652482032775879 -3.589738753362326e-06 -0.5013437867164612
vn -0.07976394146680832 0.984064519405365 0.1589174121618271
vn -0.052657075226306915 -0.9979428648948669 0.03656819090247154
vn -0.07976415008306503 -0.9840646386146545 0.15891636908054352
vn -0.09514070302248001 0.9952000379562378 0.022913938388228416
vn 0.9766269326210022 -3.922437826986425e-06 -0.21494147181510925
vn -0.09514808654785156 -0.9951993823051453 0.022916074842214584
vn 0.0022689406760036945 0.9999934434890747 0.002833865350112319
vn 0.9999669790267944 -1.6157937920979748e-07 0.008135328069329262
vn 0.0022691430058330297 -0.9999934434890747 0.002833921927958727
vn -0.0 -1.0 0.0
vn 1.0 0.0 0.0
vn 1.0 0.0 0.0
vn -0.0 -1.0 0.0
vn -1.0 0.0 0.0
vn -1.0 0.0 0.0
vn 1.0 0.0 0.0
vn -0.0 1.0 0.0
vn -0.0 1.0 0.0
vn 1.0 0.0 0.0
vn -1.0 0.0 0.0
vn -1.0 0.0 0.0
vn 1.126922370531247e-06 -1.0 1.8370246834820136e-07
vn 1.0 0.0 0.0
vn 1.0 0.0 0.0
vn 1.2342484296823386e-06 -1.0 1.8370248255905608e-07
vn -1.0 -2.0693810256489087e-06 0.0
vn -1.0 -2.092858267133124e-06 0.0
vn 1.0 0.0 0.0
vn -9.122724691223993e-07 1.0 -1.8370248255905608e-07
vn -1.0296604386894614e-06 1.0 -1.837025109807655e-07
vn 1.0 0.0 0.0
vn -1.0 -2.092858267133124e-06 0.0
vn -1.0 -2.0693810256489087e-06 0.0
vn 1.0732606625651897e-07 -1.0 1.837025109807655e-07
vn 1.0 0.0 0.0
vn 1.0 0.0 0.0
vn 2.1465216093474737e-07 -1.0 1.8370248255905608e-07
vn -1.0 1.1068002692127266e-07 0.0
vn -1.0 -1.0732608757280104e-07 0.0
vn 1.0 0.0 0.0
vn 1.0732606625651897e-07 1.0 -1.837025109807655e-07
vn 2.1800609317779163e-07 1.0 -1.8370248255905608e-07
vn 1.0 0.0 0.0
vn -1.0 -1.0732608757280104e-07 0.0
vn -1.0 1.1068002692127266e-07 0.0
vn -8.532423635188024e-06 -1.0 1.837025109807655e-07
vn 1.0 1.609904813903995e-07 0.0
vn 1.0 -1.7440633826026897e-07 0.0
vn -8.317769243149087e-06 -1.0 1.837025109807655e-07
vn -1.0 0.0 0.0
vn -1.0 0.0 0.0
vn 1.0 -1.7440633826026897e-07 0.0
vn -8.532423635188024e-06 1.0 -1.837025109807655e-07
vn -8.327831892529503e-06 1.0 -1.837025109807655e-07
vn 1.0 1.609904813903995e-07 0.0
vn -1.0 0.0 0.0
vn -1.0 0.0 0.0
vn -8.049451935221441e-06 -1.0 0.0
vn 1.0 -3.7564421973002027e-07 0.0
vn 1.0 3.957680121402518e-07 0.0
vn -8.854395673552062e-06 -1.0 0.0
vn -1.0 -4.5613174393110967e-07 0.0
vn -1.0 4.829630597669166e-07 0.0
vn 1.0 3.957680121402518e-07 0.0
vn -8.049451935221441e-06 1.0 0.0
vn -8.837627319735475e-06 1.0 0.0
vn 1.0 -3.7564421973002027e-07 0.0
vn -1.0 4.829630597669166e-07 0.0
vn -1.0 -4.5613174393110967e-07 0.0
vn 0.00047589922905899584 0.0002161496231565252 0.9999998807907104
vn 0.0005116305546835065 -0.9999998807907104 -0.00021919824939686805
vn 0.00048445476568304 -0.9999998807907104 -0.000216259402805008
vn 0.00047589652240276337 0.00022179586812853813 0.9999998807907104
vn 0.0004845248186029494 0.9999998807907104 0.0002162800810765475
vn 0.0005115548265166581 0.9999998807907104 0.00022322282893583179
vn 0.0004758304567076266 -0.00021614965226035565 -0.9999998807907104
vn 0.0005115548265166581 0.9999998807907104 0.00022322282893583179
vn 0.0004845248186029494 0.9999998807907104 0.0002162800810765475
vn 0.00047582777915522456 -0.00022184777481015772 -0.9999998807907104
vn 0.00048445476568304 -0.9999998807907104 -0.000216259402805008
vn 0.0005116305546835065 -0.9999998807907104 -0.00021919824939686805
vn 9.44468683883315e-06 -1.0 5.511075187314418e-07
vn 1.0 3.219755058125884e-07 0.0
vn 1.0 -3.253293812122138e-07 0.0
vn 9.498345207248349e-06 -1.0 5.511075187314418e-07
vn -1.0 -2.320945895917248e-06 0.0
vn -1.0 -1.8245585806653253e-06 0.0
vn 1.0 -3.253293812122138e-07 0.0
vn 7.351845852099359e-06 1.0 -5.511075187314418e-07
vn 7.412211743940134e-06 1.0 -5.51107461888023e-07
vn 1.0 3.219755058125884e-07 0.0
vn -1.0 -1.8245585806653253e-06 0.0
vn -1.0 -2.320945895917248e-06 0.0
vn 8.371435797016602e-06 -1.0 5.51107461888023e-07
vn 1.0 3.219755058125884e-07 0.0
vn 1.0 -3.253293812122138e-07 0.0
vn 8.53242090670392e-06 -1.0 5.51107461888023e-07
vn -1.0 -1.4757461030967534e-07 0.0
vn -1.0 1.609904813903995e-07 0.0
vn 1.0 -3.253293812122138e-07 0.0
vn 8.371435797016602e-06 1.0 -5.51107461888023e-07
vn 8.505589903506916e-06 1.0 -5.51107461888023e-07
vn 1.0 3.219755058125884e-07 0.0
vn -1.0 1.609904813903995e-07 0.0
vn -1.0 -1.4757461030967534e-07 0.0
vn 0.0006160330958664417 1.0347347512151828e-07 0.9999998807907104
vn -0.07976415008306503 -0.9840646386146545 0.15891636908054352
vn -0.3715825080871582 0.0 0.9283998608589172
vn 0.0006269535515457392 -0.9999997615814209 0.00028655960340984166
vn -0.07976394146680832 0.984064519405365 0.1589174121618271
vn 0.0006273023318499327 0.9999997615814209 0.00028650372405536473
vn 0.45572763681411743 -1.2770146895491052e-06 -0.8901193141937256
vn 0.0006273023318499327 0.9999997615814209 0.00028650372405536473
vn -0.07976394146680832 0.984064519405365 0.1589174121618271
vn 0.0006441121804527938 0.0 -0.9999998807907104
vn 0.0006269535515457392 -0.9999997615814209 0.00028655960340984166
vn -0.07976415008306503 -0.9840646386146545 0.15891636908054352
vt 0.6390624642372131 0.9725435227155685
vt 0.8057980537414551 0.9874812234193087
vt 0.8057980537414551 0.9725435227155685
vt 0.6390624046325684 0.9874812234193087
vt 0.6390624046325684 0.9556960053741932
vt 0.8057980537414551 0.9556960053741932
vt 0.6341149210929871 0.9725435227155685
vt 0.6341148018836975 0.9874812234193087
vt 0.6341148018836975 0.9556960053741932
vt 0.629851758480072 0.9725435227155685
vt 0.6298516392707825 0.9874812234193087
vt 0.6298516392707825 0.9556960053741932
vt 0.5166845321655273 0.9725435227155685
vt 0.5166844129562378 0.9874812234193087
vt 0.5166844129562378 0.9556960053741932
vt 0.6390624046325684 0.9725435227155685
vt 0.8057980537414551 0.9874812234193087
vt 0.8057980537414551 0.9725435227155685
vt 0.6390624046325684 0.9874812234193087
vt 0.6390624046325684 0.9556960053741932
vt 0.8057980537414551 0.9556960053741932
vt 0.6341148018836975 0.9874812234193087
vt 0.6341148018836975 0.9725435227155685
vt 0.6341148018836975 0.9556960053741932
vt 0.6298516392707825 0.9874812234193087
vt 0.6298516392707825 0.9725435227155685
vt 0.6298516392707825 0.9556960053741932
vt 0.5166844129562378 0.9874812234193087
vt 0.5166844129562378 0.9725435227155685
vt 0.5166844129562378 0.9556960053741932
vt 0.8057980537414551 0.9725435227155685
vt 0.6390178799629211 0.9874812234193087
vt 0.6390178799629211 0.9725435227155685
vt 0.8057980537414551 0.9874812234193087
vt 0.6390023827552795 0.9556960053741932
vt 0.8057980537414551 0.9556960053741932
vt 0.6389676928520203 0.9725435227155685
vt 0.8057980537414551 0.9874812234193087
vt 0.6389676928520203 0.9874812234193087
vt 0.8057980537414551 0.9725435227155685
vt 0.8057980537414551 0.9556960053741932
vt 0.6389676928520203 0.9556960053741932
vt 0.6341149210929871 0.9725435227155685
vt 0.6390624046325684 0.9874812234193087
vt 0.6341148018836975 0.9874812234193087
vt 0.6390624642372131 0.9725435227155685
vt 0.6390624046325684 0.9556960053741932
vt 0.6341148018836975 0.9556960053741932
vt 0.629851758480072 0.9725435227155685
vt 0.6298516392707825 0.9874812234193087
vt 0.6298516392707825 0.9556960053741932
vt 0.5166845321655273 0.9725435227155685
vt 0.5166844129562378 0.9874812234193087
vt 0.5166844129562378 0.9556960053741932
vt 0.6390624046325684 0.9725435227155685
vt 0.6341148018836975 0.9874812234193087
vt 0.6341148018836975 0.9725435227155685
vt 0.6390624046325684 0.9874812234193087
vt 0.6341148018836975 0.9556960053741932
vt 0.6390624046325684 0.9556960053741932
vt 0.6298516392707825 0.9874812234193087
vt 0.6298516392707825 0.9725435227155685
vt 0.6298516392707825 0.9556960053741932
vt 0.5166844129562378 0.9874812234193087
vt 0.5166844129562378 0.9725435227155685
vt 0.5166844129562378 0.9556960053741932
vt 0.7638738751411438 0.9725435227155685
vt 0.5161146521568298 0.9556960053741932
vt 0.7638738751411438 0.9556960053741932
vt 0.5161146521568298 0.9725435227155685
vt 0.7638738751411438 0.9874812234193087
vt 0.5161146521568298 0.9874812234193087
vt 0.7638738751411438 0.9874812234193087
vt 0.5161146521568298 0.9725435227155685
vt 0.7638738751411438 0.9725435227155685
vt 0.5161146521568298 0.9874812234193087
vt 0.5161146521568298 0.9556960053741932
vt 0.7638738751411438 0.9556960053741932
vt 0.7638738751411438 0.9725435227155685
vt 0.5161146521568298 0.9556960053741932
vt 0.7638738751411438 0.9556960053741932
vt 0.5161146521568298 0.9725435227155685
vt 0.7638738751411438 0.9874812234193087
vt 0.5161146521568298 0.9874812234193087
vt 0.7638738751411438 0.9874812234193087
vt 0.5161146521568298 0.9725435227155685
vt 0.7638738751411438 0.9725435227155685
vt 0.5161146521568298 0.9874812234193087
vt 0.5161146521568298 0.9556960053741932
vt 0.7638738751411438 0.9556960053741932
vt 0.7638738751411438 0.9725435227155685
vt 0.5161146521568298 0.9556960053741932
vt 0.7638738751411438 0.9556960053741932
vt 0.5161146521568298 0.9725435227155685
vt 0.7638738751411438 0.9874812234193087
vt 0.5161146521568298 0.9874812234193087
vt 0.7638738751411438 0.9874812234193087
vt 0.5161146521568298 0.9725435227155685
vt 0.7638738751411438 0.9725435227155685
vt 0.5161146521568298 0.9874812234193087
vt 0.5161146521568298 0.9556960053741932
vt 0.7638738751411438 0.9556960053741932
vt 0.7638738751411438 0.9725435227155685
vt 0.5161146521568298 0.9556960053741932
vt 0.7638738751411438 0.9556960053741932
vt 0.5161146521568298 0.9725435227155685
vt 0.7638738751411438 0.9874812234193087
vt 0.5161146521568298 0.9874812234193087
vt 0.7638738751411438 0.9874812234193087
vt 0.5161146521568298 0.9725435227155685
vt 0.7638738751411438 0.9725435227155685
vt 0.5161146521568298 0.9874812234193087
vt 0.5161146521568298 0.9556960053741932
vt 0.7638738751411438 0.9556960053741932
vt 0.7638738751411438 0.9725435227155685
vt 0.5161146521568298 0.9556960053741932
vt 0.7638738751411438 0.9556960053741932
vt 0.5161146521568298 0.9725435227155685
vt 0.7638738751411438 0.9874812234193087
vt 0.5161146521568298 0.9874812234193087
vt 0.7638738751411438 0.9874812234193087
vt 0.5161146521568298 0.9725435227155685
vt 0.7638738751411438 0.9725435227155685
vt 0.5161146521568298 0.9874812234193087
vt 0.5161146521568298 0.9556960053741932
vt 0.7638738751411438 0.9556960053741932
vt 0.5991437435150146 0.9725435227155685
vt 0.6816027760505676 0.9874812234193087
vt 0.5991436839103699 0.9874812234193087
vt 0.6816028952598572 0.9725435227155685
vt 0.5991436839103699 0.9556960053741932
vt 0.6816027760505676 0.9556960053741932
vt 0.5991436839103699 0.9725435227155685
vt 0.6816027760505676 0.9874812234193087
vt 0.5991436839103699 0.9874812234193087
vt 0.6816027760505676 0.9725435227155685
vt 0.5991436839103699 0.9556960053741932
vt 0.6816027760505676 0.9556960053741932
vt 0.7638738751411438 0.9725435227155685
vt 0.5161146521568298 0.9556960053741932
vt 0.7638738751411438 0.9556960053741932
vt 0.5161146521568298 0.9725435227155685
vt 0.7638738751411438 0.9874812234193087
vt 0.5161146521568298 0.9874812234193087
vt 0.7638738751411438 0.9874812234193087
vt 0.5161146521568298 0.9725435227155685
vt 0.7638738751411438 0.9725435227155685
vt 0.5161146521568298 0.9874812234193087
vt 0.5161146521568298 0.9556960053741932
vt 0.7638738751411438 0.9556960053741932
vt 0.7638738751411438 0.9725435227155685
vt 0.5161146521568298 0.9556960053741932
vt 0.7638738751411438 0.9556960053741932
vt 0.5161146521568298 0.9725435227155685
vt 0.7638738751411438 0.9874812234193087
vt 0.5161146521568298 0.9874812234193087
vt 0.7638738751411438 0.9874812234193087
vt 0.5161146521568298 0.9725435227155685
vt 0.7638738751411438 0.9725435227155685
vt 0.5161146521568298 0.9874812234193087
vt 0.5161146521568298 0.9556960053741932
vt 0.7638738751411438 0.9556960053741932
vt 0.8057980537414551 0.9725435227155685
vt 0.6302908062934875 0.9874812234193087
vt 0.6302908062934875 0.9725435227155685
vt 0.8057980537414551 0.9874812234193087
vt 0.6302908062934875 0.9556960053741932
vt 0.8057980537414551 0.9556960053741932
vt 0.6302908062934875 0.9725435227155685
vt 0.8057980537414551 0.9874812234193087
vt 0.6302908062934875 0.9874812234193087
vt 0.8057980537414551 0.9725435227155685
vt 0.8057980537414551 0.9556960053741932
vt 0.6302908062934875 0.9556960053741932

g bg_mdl_map_tesuri02
s 1
usemtl bg_mdl_map_tesuri02
f 3/3/3 2/2/2 1/1/1 
f 4/4/4 1/1/1 2/2/2 
f 1/1/1 5/5/5 3/3/3 
f 6/6/6 3/3/3 5/5/5 
f 1/1/1 4/4/4 7/7/7 
f 1/1/1 7/7/7 5/5/5 
f 8/8/8 7/7/7 4/4/4 
f 9/9/9 5/5/5 7/7/7 
f 7/7/7 8/8/8 10/10/10 
f 7/7/7 10/10/10 9/9/9 
f 11/11/11 10/10/10 8/8/8 
f 12/12/12 9/9/9 10/10/10 
f 10/10/10 11/11/11 13/13/13 
f 10/10/10 13/13/13 12/12/12 
f 14/14/14 13/13/13 11/11/11 
f 15/15/15 12/12/12 13/13/13 
f 18/18/18 17/17/17 16/16/16 
f 19/19/19 16/16/16 17/17/17 
f 16/16/16 20/20/20 18/18/18 
f 21/21/21 18/18/18 20/20/20 
f 19/19/19 22/22/22 16/16/16 
f 23/23/23 16/16/16 22/22/22 
f 20/20/20 16/16/16 24/24/24 
f 23/23/23 24/24/24 16/16/16 
f 22/22/22 25/25/25 23/23/23 
f 26/26/26 23/23/23 25/25/25 
f 24/24/24 23/23/23 27/27/27 
f 26/26/26 27/27/27 23/23/23 
f 25/25/25 28/28/28 26/26/26 
f 29/29/29 26/26/26 28/28/28 
f 27/27/27 26/26/26 30/30/30 
f 29/29/29 30/30/30 26/26/26 
f 33/33/33 32/32/32 31/31/31 
f 34/34/34 31/31/31 32/32/32 
f 33/33/33 31/31/31 35/35/35 
f 36/36/36 35/35/35 31/31/31 
f 39/39/39 38/38/38 37/37/37 
f 40/40/40 37/37/37 38/38/38 
f 40/40/40 41/41/41 37/37/37 
f 42/42/42 37/37/37 41/41/41 
f 45/45/45 44/44/44 43/43/43 
f 46/46/46 43/43/43 44/44/44 
f 46/46/46 47/47/47 43/43/43 
f 48/48/48 43/43/43 47/47/47 
f 43/43/43 49/49/49 45/45/45 
f 43/43/43 48/48/48 49/49/49 
f 50/50/50 45/45/45 49/49/49 
f 51/51/51 49/49/49 48/48/48 
f 49/49/49 52/52/52 50/50/50 
f 49/49/49 51/51/51 52/52/52 
f 53/53/53 50/50/50 52/52/52 
f 54/54/54 52/52/52 51/51/51 
f 57/57/57 56/56/56 55/55/55 
f 58/58/58 55/55/55 56/56/56 
f 57/57/57 55/55/55 59/59/59 
f 60/60/60 59/59/59 55/55/55 
f 56/56/56 57/57/57 61/61/61 
f 62/62/62 61/61/61 57/57/57 
f 62/62/62 57/57/57 63/63/63 
f 59/59/59 63/63/63 57/57/57 
f 61/61/61 62/62/62 64/64/64 
f 65/65/65 64/64/64 62/62/62 
f 65/65/65 62/62/62 66/66/66 
f 63/63/63 66/66/66 62/62/62 
f 69/69/69 68/68/68 67/67/67 
f 70/70/70 67/67/67 68/68/68 
f 67/67/67 70/70/70 71/71/71 
f 72/72/72 71/71/71 70/70/70 
f 75/75/75 74/74/74 73/73/73 
f 76/76/76 73/73/73 74/74/74 
f 74/74/74 75/75/75 77/77/77 
f 78/78/78 77/77/77 75/75/75 
f 81/81/81 80/80/80 79/79/79 
f 82/82/82 79/79/79 80/80/80 
f 79/79/79 82/82/82 83/83/83 
f 84/84/84 83/83/83 82/82/82 
f 87/87/87 86/86/86 85/85/85 
f 88/88/88 85/85/85 86/86/86 
f 86/86/86 87/87/87 89/89/89 
f 90/90/90 89/89/89 87/87/87 
f 93/93/93 92/92/92 91/91/91 
f 94/94/94 91/91/91 92/92/92 
f 91/91/91 94/94/94 95/95/95 
f 96/96/96 95/95/95 94/94/94 
f 99/99/99 98/98/98 97/97/97 
f 100/100/100 97/97/97 98/98/98 
f 98/98/98 99/99/99 101/101/101 
f 102/102/102 101/101/101 99/99/99 
f 105/105/105 104/104/104 103/103/103 
f 106/106/106 103/103/103 104/104/104 
f 103/103/103 106/106/106 107/107/107 
f 108/108/108 107/107/107 106/106/106 
f 111/111/111 110/110/110 109/109/109 
f 112/112/112 109/109/109 110/110/110 
f 110/110/110 111/111/111 113/113/113 
f 114/114/114 113/113/113 111/111/111 
f 117/117/117 116/116/116 115/115/115 
f 118/118/118 115/115/115 116/116/116 
f 115/115/115 118/118/118 119/119/119 
f 120/120/120 119/119/119 118/118/118 
f 123/123/123 122/122/122 121/121/121 
f 124/124/124 121/121/121 122/122/122 
f 122/122/122 123/123/123 125/125/125 
f 126/126/126 125/125/125 123/123/123 
f 129/129/129 128/128/128 127/127/127 
f 130/130/130 127/127/127 128/128/128 
f 127/127/127 130/130/130 131/131/131 
f 132/132/132 131/131/131 130/130/130 
f 135/135/135 134/134/134 133/133/133 
f 136/136/136 133/133/133 134/134/134 
f 133/133/133 136/136/136 137/137/137 
f 138/138/138 137/137/137 136/136/136 
f 141/141/141 140/140/140 139/139/139 
f 142/142/142 139/139/139 140/140/140 
f 139/139/139 142/142/142 143/143/143 
f 144/144/144 143/143/143 142/142/142 
f 147/147/147 146/146/146 145/145/145 
f 148/148/148 145/145/145 146/146/146 
f 146/146/146 147/147/147 149/149/149 
f 150/150/150 149/149/149 147/147/147 
f 153/153/153 152/152/152 151/151/151 
f 154/154/154 151/151/151 152/152/152 
f 151/151/151 154/154/154 155/155/155 
f 156/156/156 155/155/155 154/154/154 
f 159/159/159 158/158/158 157/157/157 
f 160/160/160 157/157/157 158/158/158 
f 158/158/158 159/159/159 161/161/161 
f 162/162/162 161/161/161 159/159/159 
f 165/165/165 164/164/164 163/163/163 
f 166/166/166 163/163/163 164/164/164 
f 165/165/165 163/163/163 167/167/167 
f 168/168/168 167/167/167 163/163/163 
f 171/171/171 170/170/170 169/169/169 
f 172/172/172 169/169/169 170/170/170 
f 172/172/172 173/173/173 169/169/169 
f 174/174/174 169/169/169 173/173/173 

