v -0.4614013433456421 -1.384639859199524 0.25
v -0.4771197438240051 -1.248616337776184 0.25
v -0.37928953766822815 -1.4499999284744263 0.25
v 0.49999967217445374 -0.5 0.25
v 0.2657003700733185 -1.4499999284744263 0.25
v 0.49999967217445374 -1.4499999284744263 0.25
v -0.40000030398368835 -0.5 0.25
v -0.46464505791664124 -0.5646447539329529 0.25
v 1.4999996423721313 -0.5 0.25
v 0.49999967217445374 -1.4499999284744263 0.25
v 0.49999967217445374 -0.5 0.25
v 1.500000238418579 -1.450000524520874 0.25
v -1.3924185037612915 -0.37928953766822815 0.25
v -1.412777066230774 -0.12869201600551605 0.25
v -0.5000002980232239 0.5 0.25
v -0.9139117002487183 -0.4128503203392029 0.25
v -1.038981556892395 -0.4774908423423767 0.25
v -1.3217074871063232 -0.44999998807907104 0.25
v -1.3924185037612915 -0.01238403283059597 0.25
v -1.403597116470337 0.5 0.25
v -0.5000002980232239 -0.3999999761581421 0.25
v -0.5646450519561768 -0.46464475989341736 0.25
v -0.40000030398368835 -0.5 0.25
v 0.49999967217445374 0.5 0.25
v 0.49999967217445374 -0.5 0.25
v -0.5000002980232239 0.5 0.25
v -0.5000002980232239 -0.3999999761581421 0.25
v 1.4999996423721313 0.5 0.25
v 0.49999967217445374 0.5 0.25
v 1.4999996423721313 -0.5 0.25
v 0.49999967217445374 1.5 0.25
v -0.5000002980232239 1.5 0.25
v 1.4999996423721313 1.5 0.25
v -1.403597116470337 0.5 0.25
v -0.5000002980232239 1.5 0.25
v -0.5000002980232239 0.5 0.25
v -1.3875372409820557 0.6049999594688416 0.25
v -1.426198124885559 0.8096850514411926 0.25
v -1.450000286102295 1.5 0.25
v -0.5073605179786682 -0.5071630477905273 0.25
v -0.5646450519561768 -0.46464475989341736 0.25
v -0.5000002980232239 -0.3999999761581421 0.25
v -0.40000030398368835 -0.5 0.25
v -0.46464505791664124 -0.5646447539329529 0.25
v 0.32902219891548157 -1.5 0.17708556354045868
v 0.49999967217445374 -1.5441747903823853 0.0
v 0.32902219891548157 -1.5441747903823853 0.0
v 0.49999967217445374 -1.5 0.17708556354045868
v 1.500000238418579 -1.5000005960464478 0.17708556354045868
v 1.500000238418579 -1.5366551876068115 0.0
v 0.49999967217445374 -1.4499999284744263 0.25
v 1.500000238418579 -1.450000524520874 0.25
v 0.2704995572566986 -1.4774858951568604 0.17708556354045868
v 0.2704995572566986 -1.5216606855392456 0.0
v 0.2657003700733185 -1.4499999284744263 0.25
v 0.2657003700733185 -1.4499999284744263 0.25
v 0.20680205523967743 -1.5 0.17708556354045868
v -0.37928953766822815 -1.4499999284744263 0.25
v -0.40000030398368835 -1.5 0.17708556354045868
v 0.20680205523967743 -1.5441747903823853 0.0
v 0.2704995572566986 -1.5216606855392456 0.0
v 0.2704995572566986 -1.4774858951568604 0.17708556354045868
v -0.40000030398368835 -1.5441747903823853 0.0
v 0.2657003700733185 -1.4499999284744263 0.25
v -0.5000002980232239 -1.399999976158142 0.17708556354045868
v -0.5473434329032898 -1.239996314048767 0.0
v -0.5240444540977478 -1.2320001125335693 0.17708556354045868
v -0.5363330245018005 -1.4164665937423706 0.0
v -0.5330072045326233 -0.6380767822265625 0.0
v -0.5000002980232239 -0.5999999642372131 0.17708556354045868
v -0.4771197438240051 -1.248616337776184 0.25
v -0.46464505791664124 -0.5646447539329529 0.25
v -0.4614013433456421 -1.384639859199524 0.25
v -0.9434792995452881 -0.481292724609375 0.17708556354045868
v -0.6330071687698364 -0.5380767583847046 0.0
v -0.953963577747345 -0.5043218731880188 0.0
v -0.600000262260437 -0.5 0.17708556354045868
v -1.0433193445205688 -0.5146422982215881 0.17708556354045868
v -1.0553182363510132 -0.5329192876815796 0.0
v -0.9434792995452881 -0.481292724609375 0.17708556354045868
v -1.3424184322357178 -0.5 0.17708556354045868
v -1.3875619173049927 -0.5 0.0
v -1.3424184322357178 -0.5 0.17708556354045868
v -1.0433193445205688 -0.5146422982215881 0.17708556354045868
v -1.038981556892395 -0.4774908423423767 0.25
v -0.9434792995452881 -0.481292724609375 0.17708556354045868
v -1.0433193445205688 -0.5146422982215881 0.17708556354045868
v -1.3217074871063232 -0.44999998807907104 0.25
v -1.3424184322357178 -0.5 0.17708556354045868
v -0.9434792995452881 -0.481292724609375 0.17708556354045868
v -0.9139117002487183 -0.4128503203392029 0.25
v -1.462777018547058 -0.14349974691867828 0.17708556354045868
v -1.487561821937561 -0.3999999761581421 0.0
v -1.507920503616333 -0.14349974691867828 0.0
v -1.4424183368682861 -0.3999999761581421 0.17708556354045868
v -1.4424183368682861 -0.024452514946460724 0.17708556354045868
v -1.487561821937561 -0.024452514946460724 0.0
v -1.3924185037612915 -0.37928953766822815 0.25
v -1.412777066230774 -0.12869201600551605 0.25
v -1.3924185037612915 -0.01238403283059597 0.25
v -1.4535971879959106 0.5 0.17708556354045868
v -1.403597116470337 0.5 0.25
v -1.4987406730651855 0.5 0.0
v -1.4375371932983398 0.6049999594688416 0.17708556354045868
v -1.4826806783676147 0.6049999594688416 0.0
v -1.4761978387832642 0.8096850514411926 0.17708556354045868
v -1.5213412046432495 0.8096850514411926 0.0
v -1.3875372409820557 0.6049999594688416 0.25
v -1.426198124885559 0.8096850514411926 0.25
v -1.500000238418579 1.5 0.17708556354045868
v -1.450000286102295 1.5 0.25
v -1.545143723487854 1.5 0.0
v -0.40000030398368835 -1.5 0.17708556354045868
v -0.5363330245018005 -1.4164665937423706 0.0
v -0.5000002980232239 -1.399999976158142 0.17708556354045868
v -0.40000030398368835 -1.5441747903823853 0.0
v -0.4614013433456421 -1.384639859199524 0.25
v -0.37928953766822815 -1.4499999284744263 0.25
v -0.5000002980232239 -0.5999999642372131 0.17708556354045868
v -0.6330071687698364 -0.5380767583847046 0.0
v -0.600000262260437 -0.5 0.17708556354045868
v -0.5330072045326233 -0.6380767822265625 0.0
v -0.5073605179786682 -0.5071630477905273 0.25
v -0.46464505791664124 -0.5646447539329529 0.25
v -0.5646450519561768 -0.46464475989341736 0.25
v -0.600000262260437 -0.5 0.17708556354045868
v -0.600000262260437 -0.5 0.17708556354045868
v -0.9139117002487183 -0.4128503203392029 0.25
v -1.3424184322357178 -0.5 0.17708556354045868
v -1.487561821937561 -0.3999999761581421 0.0
v -1.4424183368682861 -0.3999999761581421 0.17708556354045868
v -1.3875619173049927 -0.5 0.0
v -1.3924185037612915 -0.37928953766822815 0.25
v -1.3217074871063232 -0.44999998807907104 0.25
v -0.9139117002487183 -0.4128503203392029 0.25
v -0.600000262260437 -0.5 0.17708556354045868
v -0.9434792995452881 -0.481292724609375 0.17708556354045868
vn -0.0 0.0 1.0
vn -0.0 0.0 1.0
vn -0.0 0.0 1.0
vn -0.0 0.0 1.0
vn -0.0 0.0 1.0
vn -0.0 0.0 1.0
vn -0.0 0.0 1.0
vn -0.0 0.0 1.0
vn -0.0 0.0 1.0
vn -0.0 0.0 1.0
vn -0.0 0.0 1.0
vn -0.0 0.0 1.0
vn -0.0 0.0 1.0
vn -0.0 0.0 1.0
vn -0.0 0.0 1.0
vn -0.0 0.0 1.0
vn -0.0 0.0 1.0
vn -0.0 0.0 1.0
vn -0.0 0.0 1.0
vn -0.0 0.0 1.0
vn -0.0 0.0 1.0
vn -0.0 0.0 1.0
vn -0.0 0.0 1.0
vn -0.0 0.0 1.0
vn -0.0 0.0 1.0
vn -0.0 0.0 1.0
vn -0.0 0.0 1.0
vn -0.0 0.0 1.0
vn -0.0 0.0 1.0
vn -0.0 0.0 1.0
vn -0.0 0.0 1.0
vn -0.0 0.0 1.0
vn -0.0 0.0 1.0
vn -0.0 0.0 1.0
vn -0.0 0.0 1.0
vn -0.0 0.0 1.0
vn -0.0 0.0 1.0
vn -0.0 0.0 1.0
vn -0.0 0.0 1.0
vn -0.0 0.0 1.0
vn -0.0 0.0 1.0
vn -0.0 0.0 1.0
vn -0.0 0.0 1.0
vn -0.0 0.0 1.0
vn -0.11826739460229874 -0.9219938516616821 0.36870065331459045
vn 0.0018409524345770478 -0.9726576209068298 0.2322363704442978
vn -0.2364751398563385 -0.9427477121353149 0.23517273366451263
vn -0.0 -0.9119532108306885 0.41029420495033264
vn 0.0018737626960501075 -0.9160364866256714 0.40109044313430786
vn 0.007363240700215101 -0.9792160391807556 0.20268641412258148
vn -0.0 -0.8247207999229431 0.5655401349067688
vn -0.0 -0.8247207999229431 0.5655401349067688
vn -0.3471515476703644 -0.9023801684379578 0.2553347051143646
vn -0.3497004508972168 -0.9090057611465454 0.22675566375255585
vn -0.11612356454133987 -0.8633005023002625 0.49114924669265747
vn -0.007603502366691828 -0.8852309584617615 0.46508949995040894
vn 0.1643020361661911 -0.9129346013069153 0.3735710680484772
vn -0.0 -0.8247207999229431 0.5655401349067688
vn -0.0 -0.9349161386489868 0.35486865043640137
vn 0.10945574939250946 -0.9644371867179871 0.24058327078819275
vn 0.32439708709716797 -0.9177958369255066 0.22894835472106934
vn 0.31876444816589355 -0.9018597602844238 0.29161301255226135
vn -0.0 -0.9702668786048889 0.24203750491142273
vn 0.10565371066331863 -0.8578535318374634 0.5029162168502808
vn -0.9539623856544495 -0.1098923534154892 0.27906885743141174
vn -0.9857498407363892 -0.05940283462405205 0.15738043189048767
vn -0.939284086227417 -0.04593818634748459 0.3400517404079437
vn -0.9766435027122498 -0.06093529611825943 0.20604446530342102
vn -0.9878494143486023 0.030528489500284195 0.1523861438035965
vn -0.9207313060760498 0.02898450754582882 0.38911914825439453
vn -0.8651820421218872 -0.01657114177942276 0.5011839866638184
vn -0.9027898907661438 0.016465606167912483 0.4297667145729065
vn -0.856682538986206 -0.11093340814113617 0.5037744641304016
vn 0.1145823672413826 -0.9673819541931152 0.2259269654750824
vn -0.07844948768615723 -0.9810705184936523 0.17704877257347107
vn 0.16368570923805237 -0.9805499911308289 0.108299121260643
vn -0.09177270531654358 -0.930444061756134 0.35475581884384155
vn 0.21082474291324615 -0.9604344367980957 0.18198536336421967
vn 0.04175037518143654 -0.9965630173683167 0.07154713571071625
vn 0.1731310933828354 -0.9392628073692322 0.2963290810585022
vn -0.07367783039808273 -0.9951262474060059 0.06553864479064941
vn -0.0985679104924202 -0.994813084602356 0.025127364322543144
vn -0.06458337604999542 -0.9679503440856934 0.2426956444978714
vn 0.12094762921333313 -0.9457560181617737 0.3015248477458954
vn 0.20036211609840393 -0.8510041832923889 0.4854346513748169
vn 0.1390165388584137 -0.9180614948272705 0.3712647259235382
vn 0.028966641053557396 -0.9158046841621399 0.4005780816078186
vn -0.06325594335794449 -0.8543190956115723 0.5158852934837341
vn -0.04579683393239975 -0.9354925751686096 0.35036587715148926
vn 0.24746745824813843 -0.8530305624008179 0.45945480465888977
vn 0.17762766778469086 -0.7524384260177612 0.6342593431472778
vn -0.9106621146202087 0.0035773057024925947 0.41313648223876953
vn -0.966156005859375 -0.07668496668338776 0.2462967336177826
vn -0.9655871391296387 0.08396897464990616 0.24615171551704407
vn -0.9053588509559631 -0.07185942679643631 0.4185231029987335
vn -0.9092886447906494 0.09760294109582901 0.4045587480068207
vn -0.9681991338729858 0.04088304564356804 0.24681760370731354
vn -0.8154564499855042 -0.0654868334531784 0.5751019716262817
vn -0.8285639882087708 0.07380373030900955 0.5550087690353394
vn -0.8274404406547546 0.03651928901672363 0.5603646039962769
vn -0.8990218043327332 0.04655879735946655 0.4354216456413269
vn -0.8235291838645935 0.053718313574790955 0.5647247433662415
vn -0.9649762511253357 0.09114208817481995 0.24599598348140717
vn -0.9107534885406494 -0.011900804005563259 0.4127787947654724
vn -0.9664936065673828 -0.07201165705919266 0.24638278782367706
vn -0.9184380173683167 -0.11715276539325714 0.37781843543052673
vn -0.9657081961631775 -0.08247330039739609 0.2461826205253601
vn -0.8242872357368469 0.03240995854139328 0.5652434825897217
vn -0.8212730884552002 -0.09135237336158752 0.5631742477416992
vn -0.9104408621788025 -0.031392473727464676 0.4124462306499481
vn -0.8243875503540039 -0.028425034135580063 0.5653116703033447
vn -0.9684688448905945 -0.033393409103155136 0.24688635766506195
vn -0.6359041929244995 -0.6805455684661865 0.3639829456806183
vn -0.6823964715003967 -0.7051127552986145 0.19274605810642242
vn -0.6654545068740845 -0.6654545068740845 0.3381427526473999
vn -0.6725899577140808 -0.7180123329162598 0.17911145091056824
vn -0.5687518119812012 -0.6339512467384338 0.5240488052368164
vn -0.5069858431816101 -0.6369256973266602 0.5807676911354065
vn -0.654658317565918 -0.6111782789230347 0.4448411464691162
vn -0.6802361011505127 -0.6802361011505127 0.2730526626110077
vn -0.5827929377555847 -0.6409052610397339 0.49959275126457214
vn -0.6802361011505127 -0.6802361011505127 0.2730526626110077
vn -0.5705931186676025 -0.5708158016204834 0.5904175043106079
vn -0.6642205715179443 -0.49359169602394104 0.5614075660705566
vn -0.31809988617897034 -0.7833191752433777 0.5340632200241089
vn -0.39622047543525696 -0.7304491996765137 0.5562853217124939
vn -0.1859845519065857 -0.8402235507965088 0.5093467831611633
vn -0.08464676886796951 -0.8008785247802734 0.5928140878677368
vn -0.6540854573249817 -0.6540859937667847 0.37992581725120544
vn -0.695891797542572 -0.6958907246589661 0.17739978432655334
vn -0.6540866494178772 -0.6540855169296265 0.37992456555366516
vn -0.695891797542572 -0.6958907246589661 0.17739978432655334
vn -0.5831644535064697 -0.5831664800643921 0.5655405521392822
vn -0.5831618309020996 -0.5831668376922607 0.5655429363250732
vn 0.07490609586238861 -0.802867591381073 0.5914326906204224
vn -0.2264377772808075 -0.7713498473167419 0.5947648882865906
vn 0.21651993691921234 -0.7951748967170715 0.5664060711860657
vt 0.7646098732948303 0.2101864218711853
vt 0.7586778998374939 0.17752045392990112
vt 0.7860144376754761 0.2263684868812561
vt 0.9999285936355591 0.0032390952110290527
vt 0.9429308176040649 0.2258334755897522
vt 0.9999285936355591 0.22565382719039917
vt 0.775729238986969 0.0032390952110290527
vt 0.7595484852790833 0.01914083957672119
vt 0.999782919883728 0.25026577711105347
vt 0.7505925893783569 0.4999105930328369
vt 0.7505925893783569 0.25026577711105347
vt 0.999782919883728 0.4999106526374817
vt 0.7582674026489258 0.21669036149978638
vt 0.7510725855827332 0.1578892469406128
vt 0.9999285936355591 0.0032390952110290527
vt 0.8963422775268555 0.22643977403640747
vt 0.8647654056549072 0.24937522411346436
vt 0.775855302810669 0.2492365837097168
vt 0.7556064128875732 0.12927895784378052
vt 0.7510725855827332 0.0032390952110290527
vt 0.9999285936355591 0.22462713718414307
vt 0.9838197827339172 0.2405288815498352
vt 0.025590604171156883 0.74979168176651
vt 0.24986189603805542 0.5005336403846741
vt 0.24986189603805542 0.74979168176651
vt 0.0006715706549584866 0.5005336403846741
vt 0.0006715706549584866 0.7219216823577881
vt 0.49982601404190063 0.4998735189437866
vt 0.25063565373420715 0.4998735189437866
vt 0.49982601404190063 0.74979168176651
vt 0.24984537065029144 0.2498440146446228
vt 0.0006550403195433319 0.2498440146446228
vt 0.49960875511169434 0.2496020793914795
vt 0.7763116359710693 0.24922579526901245
vt 0.9999285936355591 0.0032390952110290527
vt 0.9999285936355591 0.24922579526901245
vt 0.7781453728675842 0.2227659821510315
vt 0.761679470539093 0.1714954376220703
vt 0.7510725855827332 0.0032390952110290527
vt 0.7777373790740967 0.03536289930343628
vt 0.7670952081680298 0.022200167179107666
vt 0.7832040190696716 0.006298422813415527
vt 0.807802677154541 0.031217455863952637
vt 0.7916938662528992 0.047119200229644775
vt 1.369626760482788 0.7847197353839874
vt 1.4545505046844482 0.8739015609025955
vt 1.369626760482788 0.8739015609025955
vt 1.4545505046844482 0.7847197353839874
vt 1.9037253856658936 0.7847197353839874
vt 1.9037253856658936 0.8739015609025955
vt 1.4545505046844482 0.7504852265119553
vt 1.9037253856658936 0.7504852265119553
vt 1.3437883853912354 0.7847197353839874
vt 1.3437883853912354 0.8739015609025955
vt 1.343945026397705 0.7504852265119553
vt 1.343945026397705 0.7504852265119553
vt 1.3231592178344727 0.7847197353839874
vt 1.0796866416931152 0.7504852265119553
vt 1.0796866416931152 0.7847197353839874
vt 1.3231592178344727 0.8739015609025955
vt 1.3437883853912354 0.8739015609025955
vt 1.3437883853912354 0.7847197353839874
vt 1.0796866416931152 0.8739015609025955
vt 1.343945026397705 0.7504852265119553
vt 0.9958861470222473 0.7847197353839874
vt 0.9338733553886414 0.8739015609025955
vt 0.9338733553886414 0.7847197353839874
vt 0.9958861470222473 0.8739015609025955
vt 0.6999455094337463 0.8739015609025955
vt 0.6999455094337463 0.7847197353839874
vt 0.9412313103675842 0.7504852265119553
vt 0.6999455094337463 0.7504852265119553
vt 0.9958861470222473 0.7504852265119553
vt 0.5004154443740845 0.7847197353839874
vt 0.641945481300354 0.8739015609025955
vt 0.5004154443740845 0.8739015609025955
vt 0.641945481300354 0.7847197353839874
vt 0.46611714363098145 0.7847197353839874
vt 0.46611714363098145 0.8739015609025955
vt 0.5004154443740845 0.7847197353839874
vt 0.30049896240234375 0.7847197353839874
vt 0.30049896240234375 0.8739015609025955
vt 0.30049896240234375 0.7847197353839874
vt 0.46611714363098145 0.7847197353839874
vt 0.4712032079696655 0.7504852265119553
vt 0.5004154443740845 0.7847197353839874
vt 0.46611714363098145 0.7847197353839874
vt 0.30049896240234375 0.7504852265119553
vt 0.30049896240234375 0.7847197353839874
vt 0.5004154443740845 0.7847197353839874
vt 0.5055015087127686 0.7504852265119553
vt 0.11115969717502594 0.7847197353839874
vt 0.22680160403251648 0.8739015609025955
vt 0.11115969717502594 0.8739015609025955
vt 0.22680160403251648 0.7847197353839874
vt 0.06146179139614105 0.7847197353839874
vt 0.06146179139614105 0.8739015609025955
vt 0.22680160403251648 0.7504852265119553
vt 0.11115969717502594 0.7504852265119553
vt 0.06146179139614105 0.7504852265119553
vt -0.15268412232398987 0.7847197353839874
vt -0.15268412232398987 0.7504852265119553
vt -0.15268412232398987 0.8739015609025955
vt -0.1924038827419281 0.7847197353839874
vt -0.19131362438201904 0.8739015609025955
vt -0.2891610562801361 0.7877716273069382
vt -0.2901090979576111 0.8766610473394394
vt -0.19131362438201904 0.7504852265119553
vt -0.29188424348831177 0.7568456530570984
vt -0.5784271955490112 0.7847197353839874
vt -0.5784271955490112 0.7504852265119553
vt -0.5784271955490112 0.8739015609025955
vt 1.0796866416931152 0.7847197353839874
vt 0.9958861470222473 0.8739015609025955
vt 0.9958861470222473 0.7847197353839874
vt 1.0796866416931152 0.8739015609025955
vt 0.9958861470222473 0.7504852265119553
vt 1.0796866416931152 0.7504852265119553
vt 0.6999455094337463 0.7847197353839874
vt 0.641945481300354 0.8739015609025955
vt 0.641945481300354 0.7847197353839874
vt 0.6999455094337463 0.8739015609025955
vt 0.6724892258644104 0.7504852265119553
vt 0.6999455094337463 0.7504852265119553
vt 0.641945481300354 0.7504852265119553
vt 0.641945481300354 0.7847197353839874
vt 0.641945481300354 0.7847197353839874
vt 0.5055015087127686 0.7504852265119553
vt 0.30049896240234375 0.7847197353839874
vt 0.22680160403251648 0.8739015609025955
vt 0.22680160403251648 0.7847197353839874
vt 0.30049896240234375 0.8739015609025955
vt 0.22680160403251648 0.7504852265119553
vt 0.30049896240234375 0.7504852265119553
vt 0.5055015087127686 0.7504852265119553
vt 0.641945481300354 0.7847197353839874
vt 0.5004154443740845 0.7847197353839874

g bg_mdl_map_ground00_mura00
s 1
usemtl bg_mdl_map_ground00_mura00_0
f 3/3/3 2/2/2 1/1/1 
f 4/4/4 2/2/2 3/3/3 
f 5/5/5 4/4/4 3/3/3 
f 6/6/6 4/4/4 5/5/5 
f 4/4/4 7/7/7 2/2/2 
f 8/8/8 2/2/2 7/7/7 
f 11/11/11 10/10/10 9/9/9 
f 12/12/12 9/9/9 10/10/10 
f 15/15/15 14/14/14 13/13/13 
f 16/16/16 15/15/15 13/13/13 
f 17/17/17 16/16/16 13/13/13 
f 18/18/18 17/17/17 13/13/13 
f 19/19/19 14/14/14 15/15/15 
f 20/20/20 19/19/19 15/15/15 
f 15/15/15 16/16/16 21/21/21 
f 22/22/22 21/21/21 16/16/16 
f 25/25/25 24/24/24 23/23/23 
f 24/24/24 26/26/26 23/23/23 
f 23/23/23 26/26/26 27/27/27 
f 29/29/29 25/25/25 28/28/28 
f 30/30/30 28/28/28 25/25/25 
f 29/29/29 31/31/31 26/26/26 
f 32/32/32 26/26/26 31/31/31 
f 31/31/31 29/29/29 33/33/33 
f 28/28/28 33/33/33 29/29/29 
f 36/36/36 35/35/35 34/34/34 
f 37/37/37 34/34/34 35/35/35 
f 38/38/38 37/37/37 35/35/35 
f 39/39/39 38/38/38 35/35/35 
f 42/42/42 41/41/41 40/40/40 
f 43/43/43 42/42/42 40/40/40 
f 44/44/44 43/43/43 40/40/40 

usemtl bg_mdl_map_ground00_mura00_1
f 47/47/47 46/46/46 45/45/45 
f 48/48/48 45/45/45 46/46/46 
f 48/48/48 46/46/46 49/49/49 
f 50/50/50 49/49/49 46/46/46 
f 48/48/48 49/49/49 51/51/51 
f 48/48/48 51/51/51 45/45/45 
f 52/52/52 51/51/51 49/49/49 
f 45/45/45 53/53/53 47/47/47 
f 54/54/54 47/47/47 53/53/53 
f 45/45/45 55/55/55 53/53/53 
f 56/56/56 45/45/45 51/51/51 
f 56/56/56 58/58/58 57/57/57 
f 59/59/59 57/57/57 58/58/58 
f 57/57/57 59/59/59 60/60/60 
f 60/60/60 61/61/61 57/57/57 
f 62/62/62 57/57/57 61/61/61 
f 63/63/63 60/60/60 59/59/59 
f 62/62/62 64/64/64 57/57/57 
f 67/67/67 66/66/66 65/65/65 
f 68/68/68 65/65/65 66/66/66 
f 66/66/66 67/67/67 69/69/69 
f 70/70/70 69/69/69 67/67/67 
f 67/67/67 71/71/71 70/70/70 
f 72/72/72 70/70/70 71/71/71 
f 65/65/65 73/73/73 67/67/67 
f 71/71/71 67/67/67 73/73/73 
f 76/76/76 75/75/75 74/74/74 
f 77/77/77 74/74/74 75/75/75 
f 79/79/79 76/76/76 78/78/78 
f 80/80/80 78/78/78 76/76/76 
f 82/82/82 79/79/79 81/81/81 
f 84/84/84 83/83/83 79/79/79 
f 86/86/86 85/85/85 84/84/84 
f 85/85/85 88/88/88 87/87/87 
f 89/89/89 87/87/87 88/88/88 
f 91/91/91 85/85/85 90/90/90 
f 94/94/94 93/93/93 92/92/92 
f 95/95/95 92/92/92 93/93/93 
f 92/92/92 96/96/96 94/94/94 
f 97/97/97 94/94/94 96/96/96 
f 95/95/95 98/98/98 92/92/92 
f 99/99/99 92/92/92 98/98/98 
f 92/92/92 99/99/99 96/96/96 
f 100/100/100 96/96/96 99/99/99 
f 96/96/96 100/100/100 101/101/101 
f 96/96/96 101/101/101 97/97/97 
f 102/102/102 101/101/101 100/100/100 
f 103/103/103 97/97/97 101/101/101 
f 101/101/101 104/104/104 103/103/103 
f 105/105/105 103/103/103 104/104/104 
f 104/104/104 106/106/106 105/105/105 
f 107/107/107 105/105/105 106/106/106 
f 102/102/102 108/108/108 101/101/101 
f 104/104/104 101/101/101 108/108/108 
f 108/108/108 109/109/109 104/104/104 
f 106/106/106 104/104/104 109/109/109 
f 106/106/106 109/109/109 110/110/110 
f 106/106/106 110/110/110 107/107/107 
f 111/111/111 110/110/110 109/109/109 
f 112/112/112 107/107/107 110/110/110 
f 115/115/115 114/114/114 113/113/113 
f 116/116/116 113/113/113 114/114/114 
f 115/115/115 113/113/113 117/117/117 
f 118/118/118 117/117/117 113/113/113 
f 121/121/121 120/120/120 119/119/119 
f 122/122/122 119/119/119 120/120/120 
f 119/119/119 123/123/123 121/121/121 
f 124/124/124 123/123/123 119/119/119 
f 126/126/126 123/123/123 125/125/125 
f 125/125/125 128/128/128 127/127/127 
f 131/131/131 130/130/130 129/129/129 
f 132/132/132 129/129/129 130/130/130 
f 131/131/131 129/129/129 133/133/133 
f 134/134/134 133/133/133 129/129/129 
f 137/137/137 136/136/136 135/135/135 

