v 1.563987135887146 3.375488404344651e-07 4.149190425872803
v 0.05549285188317299 -0.03441595658659935 4.2086992263793945
v 1.564625859260559 -0.03441610187292099 4.208798408508301
v 0.07328712195158005 4.3390673454268835e-07 4.151806831359863
v -0.011760218068957329 -0.03441595658659935 4.176239967346191
v 0.0283189844340086 4.3390673454268835e-07 4.132113933563232
v -0.05194289609789848 -0.03441595658659935 4.106048107147217
v 0.005130859557539225 4.3390673454268835e-07 4.088842868804932
v -0.059611253440380096 -0.03441585972905159 4.036745071411133
v -5.404091893979057e-07 4.3390673454268835e-07 4.036745071411133
v -0.05961112305521965 -0.03441585972905159 2.6911635398864746
v -4.079171276316629e-07 4.3390673454268835e-07 2.6911633014678955
v -0.059611253440380096 -0.03441585972905159 4.036745071411133
v 1.563987135887146 0.06883292645215988 4.149190425872803
v 0.07328712195158005 4.3390673454268835e-07 4.151806831359863
v 1.563987135887146 3.375488404344651e-07 4.149190425872803
v 0.07328704744577408 0.06883292645215988 4.151806831359863
v 0.0283189844340086 4.3390673454268835e-07 4.132113933563232
v 0.0283189844340086 0.06883292645215988 4.132113933563232
v 0.005130859557539225 4.3390673454268835e-07 4.088842868804932
v 0.005130859557539225 0.06883292645215988 4.088842868804932
v -5.404091893979057e-07 4.3390673454268835e-07 4.036745071411133
v -5.464315790959517e-07 0.06883292645215988 4.036745071411133
v -4.079171276316629e-07 4.3390673454268835e-07 2.6911633014678955
v -4.139395173297089e-07 0.06883292645215988 2.6911633014678955
v 1.564625859260559 0.10324927419424057 4.208798408508301
v 0.07328704744577408 0.06883292645215988 4.151806831359863
v 1.563987135887146 0.06883292645215988 4.149190425872803
v 0.05549285188317299 0.10324922204017639 4.2086992263793945
v 0.0283189844340086 0.06883292645215988 4.132113933563232
v -0.0117604099214077 0.10324922204017639 4.176239967346191
v 0.005130859557539225 0.06883292645215988 4.088842868804932
v -0.051942963153123856 0.10324922204017639 4.106048107147217
v -5.464315790959517e-07 0.06883292645215988 4.036745071411133
v -0.059611257165670395 0.10324922204017639 4.036745071411133
v -4.139395173297089e-07 0.06883292645215988 2.6911633014678955
v -0.05961112678050995 0.10324922204017639 2.6911633014678955
v -5.464315790959517e-07 0.06883292645215988 4.036745071411133
v 1.565264105796814 0.06883297115564346 4.268405437469482
v 0.05549285188317299 0.10324922204017639 4.2086992263793945
v 1.564625859260559 0.10324927419424057 4.208798408508301
v 0.03769887983798981 0.06883292645215988 4.2655930519104
v -0.0117604099214077 0.10324922204017639 4.176239967346191
v -0.051839765161275864 0.06883292645215988 4.22036600112915
v -0.051942963153123856 0.10324922204017639 4.106048107147217
v -0.1090167909860611 0.06883292645215988 4.123252868652344
v -0.059611257165670395 0.10324922204017639 4.036745071411133
v -0.11922194063663483 0.06883292645215988 4.036745071411133
v -0.05961112678050995 0.10324922204017639 2.6911633014678955
v -0.11922182142734528 0.06883292645215988 2.6911633014678955
v -0.059611257165670395 0.10324922204017639 4.036745071411133
v 1.565264105796814 3.375488404344651e-07 4.268405437469482
v 0.03769887983798981 0.06883292645215988 4.2655930519104
v 1.565264105796814 0.06883297115564346 4.268405437469482
v 0.03769887983798981 4.3390673454268835e-07 4.2655930519104
v -0.051839765161275864 0.06883292645215988 4.22036600112915
v -0.051839765161275864 4.3390673454268835e-07 4.22036600112915
v -0.1090167909860611 0.06883292645215988 4.123252868652344
v -0.1090167909860611 4.3390673454268835e-07 4.123252868652344
v -0.11922194063663483 0.06883292645215988 4.036745071411133
v -0.11922194063663483 4.3390673454268835e-07 4.036745071411133
v -0.11922194063663483 4.3390673454268835e-07 4.036745071411133
v -0.11922182142734528 0.06883292645215988 2.6911633014678955
v -0.11922182142734528 4.3390673454268835e-07 2.6911633014678955
v 1.564625859260559 -0.03441610187292099 4.208798408508301
v 0.03769887983798981 4.3390673454268835e-07 4.2655930519104
v 1.565264105796814 3.375488404344651e-07 4.268405437469482
v 0.05549285188317299 -0.03441595658659935 4.2086992263793945
v -0.051839765161275864 4.3390673454268835e-07 4.22036600112915
v -0.011760218068957329 -0.03441595658659935 4.176239967346191
v -0.1090167909860611 4.3390673454268835e-07 4.123252868652344
v -0.05194289609789848 -0.03441595658659935 4.106048107147217
v -0.11922194063663483 4.3390673454268835e-07 4.036745071411133
v -0.059611253440380096 -0.03441585972905159 4.036745071411133
v -0.11922182142734528 4.3390673454268835e-07 2.6911633014678955
v -0.05961112305521965 -0.03441585972905159 2.6911635398864746
v -0.11922194063663483 4.3390673454268835e-07 4.036745071411133
v -0.0596109963953495 -0.03441581130027771 1.345582127571106
v -4.079171276316629e-07 4.3390673454268835e-07 2.6911633014678955
v -2.8144742714175663e-07 4.3390673454268835e-07 1.3455816507339478
v -0.05961112305521965 -0.03441585972905159 2.6911635398864746
v -2.8144742714175663e-07 4.3390673454268835e-07 1.3455816507339478
v -4.139395173297089e-07 0.06883292645215988 2.6911633014678955
v -2.8144742714175663e-07 0.06883292645215988 1.3455816507339478
v -4.079171276316629e-07 4.3390673454268835e-07 2.6911633014678955
v -2.8144742714175663e-07 0.06883292645215988 1.3455816507339478
v -0.05961112678050995 0.10324922204017639 2.6911633014678955
v -0.0596110001206398 0.10324917733669281 1.3455816507339478
v -4.139395173297089e-07 0.06883292645215988 2.6911633014678955
v -0.0596110001206398 0.10324917733669281 1.3455816507339478
v -0.11922182142734528 0.06883292645215988 2.6911633014678955
v -0.11922169476747513 0.06883292645215988 1.3455816507339478
v -0.05961112678050995 0.10324922204017639 2.6911633014678955
v -0.11922169476747513 0.06883292645215988 1.3455816507339478
v -0.11922182142734528 4.3390673454268835e-07 2.6911633014678955
v -0.11922169476747513 4.3390673454268835e-07 1.3455816507339478
v -0.11922182142734528 0.06883292645215988 2.6911633014678955
v -0.11922169476747513 4.3390673454268835e-07 1.3455816507339478
v -0.05961112305521965 -0.03441585972905159 2.6911635398864746
v -0.0596109963953495 -0.03441581130027771 1.345582127571106
v -0.11922182142734528 4.3390673454268835e-07 2.6911633014678955
v -2.8144742714175663e-07 4.3390673454268835e-07 1.3455816507339478
v -0.05961086228489876 -0.03441581130027771 5.876603950127901e-07
v -0.0596109963953495 -0.03441581130027771 1.345582127571106
v -1.4895535116465908e-07 4.3390673454268835e-07 2.0222884700160648e-07
v -2.8144742714175663e-07 0.06883292645215988 1.3455816507339478
v -1.4895535116465908e-07 4.3390673454268835e-07 2.0222884700160648e-07
v -2.8144742714175663e-07 4.3390673454268835e-07 1.3455816507339478
v -1.4895535116465908e-07 0.06883292645215988 2.0222884700160648e-07
v -0.0596110001206398 0.10324917733669281 1.3455816507339478
v -1.4895535116465908e-07 0.06883292645215988 2.0222884700160648e-07
v -2.8144742714175663e-07 0.06883292645215988 1.3455816507339478
v -0.059610869735479355 0.10324917733669281 2.0222884700160648e-07
v -0.11922169476747513 0.06883292645215988 1.3455816507339478
v -0.059610869735479355 0.10324917733669281 2.0222884700160648e-07
v -0.0596110001206398 0.10324917733669281 1.3455816507339478
v -0.11922156810760498 0.06883292645215988 2.0222884700160648e-07
v -0.11922169476747513 4.3390673454268835e-07 1.3455816507339478
v -0.11922156810760498 0.06883292645215988 2.0222884700160648e-07
v -0.11922169476747513 0.06883292645215988 1.3455816507339478
v -0.11922156810760498 4.3390673454268835e-07 2.0222884700160648e-07
v -0.0596109963953495 -0.03441581130027771 1.345582127571106
v -0.11922156810760498 4.3390673454268835e-07 2.0222884700160648e-07
v -0.11922169476747513 4.3390673454268835e-07 1.3455816507339478
v -0.05961086228489876 -0.03441581130027771 5.876603950127901e-07
v 1.564625859260559 0.10324927419424057 4.208798408508301
v 1.563987135887146 3.375488404344651e-07 4.149190425872803
v 1.564625859260559 -0.03441610187292099 4.208798408508301
v 1.563987135887146 0.06883292645215988 4.149190425872803
v 1.565264105796814 0.06883297115564346 4.268405437469482
v 1.565264105796814 3.375488404344651e-07 4.268405437469482
v 2.195789337158203 -0.05961282551288605 3.760953664779663
v 0.46842160820961 -0.0354381687939167 3.760953187942505
v 0.4684220254421234 -0.05961282551288605 3.760953187942505
v 2.195789098739624 -0.03543778508901596 3.760953664779663
v 2.195789337158203 -0.05961282551288605 4.704746723175049
v 2.195789098739624 -0.03543778508901596 3.760953664779663
v 2.195789337158203 -0.05961282551288605 3.760953664779663
v 2.195789337158203 -0.03543778508901596 4.704746723175049
v 0.4684220254421234 -0.05961282551288605 4.704745769500732
v 2.195789337158203 -0.03543778508901596 4.704746723175049
v 2.195789337158203 -0.05961282551288605 4.704746723175049
v 0.46842160820961 -0.0354381687939167 4.704746246337891
v 0.4684220254421234 -0.05961282551288605 3.760953187942505
v 0.46842160820961 -0.0354381687939167 4.704746246337891
v 0.4684220254421234 -0.05961282551288605 4.704745769500732
v 0.46842160820961 -0.0354381687939167 3.760953187942505
v 2.195789337158203 -0.05961282551288605 3.760953664779663
v 0.4684220254421234 -0.05961282551288605 4.704745769500732
v 2.195789337158203 -0.05961282551288605 4.704746723175049
v 0.4684220254421234 -0.05961282551288605 3.760953187942505
v 2.195789098739624 -0.03543778508901596 3.760953664779663
v 0.46842160820961 -0.0354381687939167 4.704746246337891
v 0.46842160820961 -0.0354381687939167 3.760953187942505
v 2.195789337158203 -0.03543778508901596 4.704746723175049
vn -8.364106179215014e-05 -0.8652848601341248 -0.5012804269790649
vn 0.11466224491596222 -0.865870475769043 -0.48695051670074463
vn 8.121887367451563e-05 -0.8660132884979248 -0.5000211000442505
vn 0.10136296600103378 -0.8625708222389221 -0.49567848443984985
vn 0.3357774615287781 -0.8680681586265564 -0.36566537618637085
vn 0.3338911831378937 -0.8679295182228088 -0.367715984582901
vn 0.47899025678634644 -0.8644722700119019 -0.15249983966350555
vn 0.47656121850013733 -0.8667842745780945 -0.14688241481781006
vn 0.5009634494781494 -0.8650880455970764 -0.02566009759902954
vn 0.49984076619148254 -0.865749180316925 -0.02524946816265583
vn 0.5000002980232239 -0.8660252690315247 0.0
vn 0.5000002384185791 -0.8660252690315247 0.0
vn 0.5009634494781494 -0.8650880455970764 -0.02566009759902954
vn -0.004443170037120581 0.0 -0.9999901056289673
vn 0.2027498185634613 2.1304715858150303e-07 -0.9792305827140808
vn -0.004443170502781868 0.0 -0.9999901056289673
vn 0.2027503103017807 0.0 -0.9792304635047913
vn 0.6785721778869629 1.349463332189771e-07 -0.7345337867736816
vn 0.6785722374916077 0.0 -0.7345336675643921
vn 0.956785261631012 0.0 -0.29079514741897583
vn 0.956785261631012 0.0 -0.29079514741897583
vn 0.9987953901290894 0.0 -0.04906967282295227
vn 0.9987953901290894 0.0 -0.04906969517469406
vn 1.0 0.0 0.0
vn 1.0 0.0 0.0
vn -0.002055595861747861 0.8652876615524292 -0.5012714862823486
vn 0.096336729824543 0.8650503754615784 -0.49234849214553833
vn -0.0022214639466255903 0.8660226464271545 -0.4999997913837433
vn 0.1134871318936348 0.8632476925849915 -0.491857647895813
vn 0.34201672673225403 0.8683930039405823 -0.3590516746044159
vn 0.3400852084159851 0.8675388693809509 -0.36293038725852966
vn 0.48010748624801636 0.8641136288642883 -0.15101131796836853
vn 0.47497496008872986 0.8666736483573914 -0.1525634080171585
vn 0.5011704564094543 0.8649285435676575 -0.026959970593452454
vn 0.49982112646102905 0.8657149076461792 -0.02676531858742237
vn 0.5000002980232239 0.8660252690315247 0.0
vn 0.5000002980232239 0.8660252690315247 0.0
vn 0.5011704564094543 0.8649285435676575 -0.026959970593452454
vn -0.0002384248946327716 0.8653210997581482 0.5012179017066956
vn -0.10718882083892822 0.8655143976211548 0.4892803728580475
vn -8.142463775584474e-05 0.8660144209861755 0.5000190734863281
vn -0.11914156377315521 0.8643375635147095 0.4885958433151245
vn -0.34314534068107605 0.8672240376472473 0.36079585552215576
vn -0.34127748012542725 0.8668326139450073 0.3634982407093048
vn -0.4757562577724457 0.8650474548339844 0.1592136174440384
vn -0.4739622473716736 0.8664144277572632 0.15711690485477448
vn -0.5006490349769592 0.8651431798934937 0.029627807438373566
vn -0.4997977912425995 0.8656741976737976 0.028468772768974304
vn -0.5000003576278687 0.8660252690315247 0.0
vn -0.5000003576278687 0.8660252690315247 0.0
vn -0.5006490349769592 0.8651431798934937 0.029627807438373566
vn -0.004496155306696892 0.0 0.9999898672103882
vn -0.23392514884471893 0.0 0.9722546339035034
vn -0.004496155772358179 0.0 0.9999898672103882
vn -0.2339250147342682 0.0 0.9722546339035034
vn -0.6839784383773804 0.0 0.7295022010803223
vn -0.6839784383773804 0.0 0.729502260684967
vn -0.9477232098579407 0.0 0.3190935254096985
vn -0.9477232098579407 0.0 0.3190935254096985
vn -0.998276948928833 0.0 0.05867866426706314
vn -0.998276948928833 0.0 0.05867864564061165
vn -0.998276948928833 0.0 0.05867864564061165
vn -1.0 0.0 0.0
vn -1.0 0.0 0.0
vn -0.0021034383680671453 -0.8653173446655273 0.5012198090553284
vn -0.11962001770734787 -0.8660016655921936 0.485522598028183
vn -0.0022485351655632257 -0.8660009503364563 0.5000373125076294
vn -0.10970226675271988 -0.8640421628952026 0.49132105708122253
vn -0.33843517303466797 -0.8672305941581726 0.3652021288871765
vn -0.3389809727668762 -0.8668861985206604 0.36551356315612793
vn -0.4762671887874603 -0.8651321530342102 0.1572127789258957
vn -0.4738786518573761 -0.8664247393608093 0.15731239318847656
vn -0.5005744099617004 -0.8652513027191162 0.02766685001552105
vn -0.49979814887046814 -0.8656747341156006 0.02844443917274475
vn -0.5000003576278687 -0.8660252690315247 0.0
vn -0.5000002980232239 -0.8660252690315247 0.0
vn -0.5005744099617004 -0.8652513027191162 0.02766685001552105
vn 0.4999997913837433 -0.8660255074501038 0.0
vn 0.5000002384185791 -0.8660252690315247 0.0
vn 0.4999997913837433 -0.8660255074501038 0.0
vn 0.5000002980232239 -0.8660252690315247 0.0
vn 1.0 0.0 0.0
vn 1.0 0.0 0.0
vn 1.0 0.0 0.0
vn 1.0 0.0 0.0
vn 0.4999997615814209 0.8660256266593933 0.0
vn 0.5000002980232239 0.8660252690315247 0.0
vn 0.4999997615814209 0.8660256266593933 0.0
vn 0.5000002980232239 0.8660252690315247 0.0
vn -0.49999985098838806 0.8660255074501038 0.0
vn -0.5000003576278687 0.8660252690315247 0.0
vn -0.4999997913837433 0.8660255074501038 0.0
vn -0.5000003576278687 0.8660252690315247 0.0
vn -1.0 0.0 0.0
vn -1.0 0.0 0.0
vn -1.0 0.0 0.0
vn -1.0 0.0 0.0
vn -0.4999997913837433 -0.8660255074501038 0.0
vn -0.5000002980232239 -0.8660252690315247 0.0
vn -0.4999997913837433 -0.8660255074501038 0.0
vn -0.5000003576278687 -0.8660252690315247 0.0
vn 0.4999997913837433 -0.8660255074501038 0.0
vn 0.4999997317790985 -0.8660255074501038 0.0
vn 0.4999997913837433 -0.8660255074501038 0.0
vn 0.4999997317790985 -0.8660255074501038 0.0
vn 1.0 0.0 0.0
vn 1.0 0.0 0.0
vn 1.0 0.0 0.0
vn 1.0 0.0 0.0
vn 0.4999997615814209 0.8660256266593933 0.0
vn 0.4999997019767761 0.8660256266593933 0.0
vn 0.4999997615814209 0.8660256266593933 0.0
vn 0.4999997019767761 0.8660256266593933 0.0
vn -0.4999997913837433 0.8660255074501038 0.0
vn -0.4999997913837433 0.8660255074501038 0.0
vn -0.49999985098838806 0.8660255074501038 0.0
vn -0.4999997913837433 0.8660255074501038 0.0
vn -1.0 0.0 0.0
vn -1.0 0.0 0.0
vn -1.0 0.0 0.0
vn -1.0 0.0 0.0
vn -0.4999997913837433 -0.8660255074501038 0.0
vn -0.4999997317790985 -0.8660255074501038 0.0
vn -0.4999997913837433 -0.8660255074501038 0.0
vn -0.4999997615814209 -0.8660256266593933 0.0
vn 0.9999426603317261 0.0 -0.010713763535022736
vn 0.9999426603317261 0.0 -0.010713761672377586
vn 0.9999426603317261 0.0 -0.010713761672377586
vn 0.9999426603317261 0.0 -0.010713763535022736
vn 0.9999426603317261 0.0 -0.010707402601838112
vn 0.9999426603317261 0.0 -0.010707402601838112
vn 2.2313231795578758e-07 0.0 -1.0
vn 2.2313230374493287e-07 0.0 -1.0
vn 2.2313230374493287e-07 0.0 -1.0
vn 2.2313230374493287e-07 0.0 -1.0
vn 1.0 1.594336936250329e-05 0.0
vn 1.0 1.5943367543513887e-05 0.0
vn 1.0 1.594336936250329e-05 0.0
vn 1.0 0.0 -4.083856595116231e-07
vn -2.2313231795578758e-07 -7.971684681251645e-06 1.0
vn -2.2313231795578758e-07 -7.971685590746347e-06 1.0
vn -2.2313230374493287e-07 -7.971684681251645e-06 1.0
vn -2.231304705446746e-07 -7.9718156484887e-06 1.0
vn -1.0 -1.5943624021019787e-05 0.0
vn -1.0 -1.5943624021019787e-05 0.0
vn -1.0 -1.5943624021019787e-05 0.0
vn -1.0 -1.5943624021019787e-05 0.0
vn -0.0 -1.0 0.0
vn -0.0 -1.0 0.0
vn -0.0 -1.0 0.0
vn -0.0 -1.0 0.0
vn -2.2313228953407815e-07 1.0 0.0
vn -2.2313228953407815e-07 1.0 0.0
vn -2.2313228953407815e-07 1.0 0.0
vn -2.2313226111236872e-07 1.0 0.0
vt 0.22991155087947845 0.4411623477935791
vt 0.21071241796016693 0.5196647942066193
vt 0.21071241796016693 0.4411623477935791
vt 0.22991155087947845 0.5196647942066193
vt 0.21071241796016693 0.5559068024158478
vt 0.22991155087947845 0.5559068024158478
vt 0.21071241796016693 0.5959519445896149
vt 0.22991155087947845 0.5959519445896149
vt 0.21071241796016693 0.6313434541225433
vt 0.22991155087947845 0.6313434541225433
vt 0.20936912298202515 0.9965811772271991
vt 0.22943982481956482 0.9965811772271991
vt 0.20936912298202515 0.6313434839248657
vt 0.24911066889762878 0.4411623477935791
vt 0.22991155087947845 0.5196647942066193
vt 0.22991155087947845 0.4411623477935791
vt 0.24911066889762878 0.5196647942066193
vt 0.22991155087947845 0.5559068024158478
vt 0.24911066889762878 0.5559068024158478
vt 0.22991155087947845 0.5959519445896149
vt 0.24911066889762878 0.5959519445896149
vt 0.22991155087947845 0.6313434541225433
vt 0.24911066889762878 0.6313434541225433
vt 0.22943982481956482 0.9965811772271991
vt 0.2487596571445465 0.9965811772271991
vt 0.21051296591758728 0.4411623477935791
vt 0.19131380319595337 0.5196647942066193
vt 0.19131380319595337 0.4411623477935791
vt 0.21051296591758728 0.5196647942066193
vt 0.19131380319595337 0.5559068024158478
vt 0.21051296591758728 0.5559068024158478
vt 0.19131380319595337 0.5959519445896149
vt 0.21051296591758728 0.5959519445896149
vt 0.19131380319595337 0.6313434541225433
vt 0.21051296591758728 0.6313434541225433
vt 0.1896575391292572 0.9965811772271991
vt 0.20972825586795807 0.9965811772271991
vt 0.1896575391292572 0.6313434839248657
vt 0.2289685606956482 0.4411623477935791
vt 0.20976942777633667 0.5196647942066193
vt 0.20976942777633667 0.4411623477935791
vt 0.2289685606956482 0.5196647942066193
vt 0.20976942777633667 0.5559068024158478
vt 0.2289685606956482 0.5559068024158478
vt 0.20976942777633667 0.5959519445896149
vt 0.2289685606956482 0.5959519445896149
vt 0.20976942777633667 0.6313434541225433
vt 0.2289685606956482 0.6313434541225433
vt 0.2097417712211609 0.9965811772271991
vt 0.22981247305870056 0.9965811772271991
vt 0.2097417712211609 0.6313434839248657
vt 0.24816769361495972 0.4411623477935791
vt 0.2289685606956482 0.5196647942066193
vt 0.2289685606956482 0.4411623477935791
vt 0.24816769361495972 0.5196647942066193
vt 0.2289685606956482 0.5559068024158478
vt 0.24816769361495972 0.5559068024158478
vt 0.2289685606956482 0.5959519445896149
vt 0.24816769361495972 0.5959519445896149
vt 0.2289685606956482 0.6313434541225433
vt 0.24816769361495972 0.6313434541225433
vt 0.24988317489624023 0.6313434839248657
vt 0.22981247305870056 0.9965811772271991
vt 0.24988317489624023 0.9965811772271991
vt 0.21066637337207794 0.4411623477935791
vt 0.19146728515625 0.5196647942066193
vt 0.19146728515625 0.4411623477935791
vt 0.21066637337207794 0.5196647942066193
vt 0.19146728515625 0.5559068024158478
vt 0.21066637337207794 0.5559068024158478
vt 0.19146728515625 0.5959519445896149
vt 0.21066637337207794 0.5959519445896149
vt 0.19146728515625 0.6313434541225433
vt 0.21066637337207794 0.6313434541225433
vt 0.1903565675020218 0.9965811772271991
vt 0.2104272097349167 0.9965811772271991
vt 0.1903565675020218 0.6313434839248657
vt 0.20936912298202515 0.9965811772271991
vt 0.22943982481956482 0.6325113773345947
vt 0.22943982481956482 0.9965811772271991
vt 0.20936912298202515 0.6325113773345947
vt 0.22943982481956482 0.9965811772271991
vt 0.2487596571445465 0.6325113773345947
vt 0.2487596571445465 0.9965811772271991
vt 0.22943982481956482 0.6325113773345947
vt 0.1896575391292572 0.9965811772271991
vt 0.20972825586795807 0.6325113773345947
vt 0.20972825586795807 0.9965811772271991
vt 0.1896575391292572 0.6325113773345947
vt 0.2097417712211609 0.9965811772271991
vt 0.22981247305870056 0.6325113773345947
vt 0.22981247305870056 0.9965811772271991
vt 0.2097417712211609 0.6325113773345947
vt 0.22981247305870056 0.9965811772271991
vt 0.24988317489624023 0.6325113773345947
vt 0.24988317489624023 0.9965811772271991
vt 0.22981247305870056 0.6325113773345947
vt 0.1903565675020218 0.9965811772271991
vt 0.2104272097349167 0.6325113773345947
vt 0.2104272097349167 0.9965811772271991
vt 0.1903565675020218 0.6325113773345947
vt 0.22943982481956482 0.6358078718185425
vt 0.20936912298202515 0.9965811772271991
vt 0.20936912298202515 0.6358078718185425
vt 0.22943982481956482 0.9965811772271991
vt 0.2487596571445465 0.6358078718185425
vt 0.22943982481956482 0.9965811772271991
vt 0.22943982481956482 0.6358078718185425
vt 0.2487596571445465 0.9965811772271991
vt 0.20972825586795807 0.6358078718185425
vt 0.1896575391292572 0.9965811772271991
vt 0.1896575391292572 0.6358078718185425
vt 0.20972825586795807 0.9965811772271991
vt 0.22981247305870056 0.6358078718185425
vt 0.2097417712211609 0.9965811772271991
vt 0.2097417712211609 0.6358078718185425
vt 0.22981247305870056 0.9965811772271991
vt 0.24988317489624023 0.6358078718185425
vt 0.22981247305870056 0.9965811772271991
vt 0.22981247305870056 0.6358078718185425
vt 0.24988317489624023 0.9965811772271991
vt 0.2104272097349167 0.6358078718185425
vt 0.1903565675020218 0.9965811772271991
vt 0.1903565675020218 0.6358078718185425
vt 0.2104272097349167 0.9965811772271991
vt 0.24875955283641815 0.6760091483592987
vt 0.20753519237041473 0.6998101770877838
vt 0.19379369914531708 0.6760091483592987
vt 0.23501811921596527 0.6998101770877838
vt 0.23501811921596527 0.6522082984447479
vt 0.20753519237041473 0.6522082984447479
vt 0.9355663061141968 0.6243608295917511
vt 0.5001285672187805 0.6203156411647797
vt 0.5001285672187805 0.6243607401847839
vt 0.9355663061141968 0.6203156411647797
vt 0.9355348348617554 0.6203362047672272
vt 0.9274725914001465 0.40863901376724243
vt 0.9355348348617554 0.40863901376724243
vt 0.9274725914001465 0.6203362047672272
vt 0.9355663061141968 0.6243608295917511
vt 0.5001285672187805 0.6203156411647797
vt 0.5001285672187805 0.6243607401847839
vt 0.9355663061141968 0.6203156411647797
vt 0.9355348348617554 0.6203362047672272
vt 0.9274725914001465 0.40863901376724243
vt 0.9355348348617554 0.40863901376724243
vt 0.9274725914001465 0.6203362047672272
vt 0.9367878437042236 0.6224287748336792
vt 0.49989575147628784 0.40853065252304077
vt 0.9367878437042236 0.40853065252304077
vt 0.49989575147628784 0.6224287748336792
vt 0.9367878437042236 0.6224287748336792
vt 0.49989575147628784 0.40853065252304077
vt 0.49989575147628784 0.6224287748336792
vt 0.9367878437042236 0.40853065252304077

g bg_mdl_map_sign02
s 1
usemtl bg_mdl_map_sign02_0
f 3/3/3 2/2/2 1/1/1 
f 4/4/4 1/1/1 2/2/2 
f 2/2/2 5/5/5 4/4/4 
f 6/6/6 4/4/4 5/5/5 
f 5/5/5 7/7/7 6/6/6 
f 8/8/8 6/6/6 7/7/7 
f 7/7/7 9/9/9 8/8/8 
f 10/10/10 8/8/8 9/9/9 
f 12/12/12 10/10/10 11/11/11 
f 13/13/13 11/11/11 10/10/10 
f 16/16/16 15/15/15 14/14/14 
f 17/17/17 14/14/14 15/15/15 
f 15/15/15 18/18/18 17/17/17 
f 19/19/19 17/17/17 18/18/18 
f 18/18/18 20/20/20 19/19/19 
f 21/21/21 19/19/19 20/20/20 
f 20/20/20 22/22/22 21/21/21 
f 23/23/23 21/21/21 22/22/22 
f 22/22/22 24/24/24 23/23/23 
f 25/25/25 23/23/23 24/24/24 
f 28/28/28 27/27/27 26/26/26 
f 29/29/29 26/26/26 27/27/27 
f 27/27/27 30/30/30 29/29/29 
f 31/31/31 29/29/29 30/30/30 
f 30/30/30 32/32/32 31/31/31 
f 33/33/33 31/31/31 32/32/32 
f 32/32/32 34/34/34 33/33/33 
f 35/35/35 33/33/33 34/34/34 
f 37/37/37 35/35/35 36/36/36 
f 38/38/38 36/36/36 35/35/35 
f 41/41/41 40/40/40 39/39/39 
f 42/42/42 39/39/39 40/40/40 
f 40/40/40 43/43/43 42/42/42 
f 44/44/44 42/42/42 43/43/43 
f 43/43/43 45/45/45 44/44/44 
f 46/46/46 44/44/44 45/45/45 
f 45/45/45 47/47/47 46/46/46 
f 48/48/48 46/46/46 47/47/47 
f 50/50/50 48/48/48 49/49/49 
f 51/51/51 49/49/49 48/48/48 
f 54/54/54 53/53/53 52/52/52 
f 55/55/55 52/52/52 53/53/53 
f 53/53/53 56/56/56 55/55/55 
f 57/57/57 55/55/55 56/56/56 
f 56/56/56 58/58/58 57/57/57 
f 59/59/59 57/57/57 58/58/58 
f 58/58/58 60/60/60 59/59/59 
f 61/61/61 59/59/59 60/60/60 
f 60/60/60 63/63/63 62/62/62 
f 64/64/64 62/62/62 63/63/63 
f 67/67/67 66/66/66 65/65/65 
f 68/68/68 65/65/65 66/66/66 
f 66/66/66 69/69/69 68/68/68 
f 70/70/70 68/68/68 69/69/69 
f 69/69/69 71/71/71 70/70/70 
f 72/72/72 70/70/70 71/71/71 
f 71/71/71 73/73/73 72/72/72 
f 74/74/74 72/72/72 73/73/73 
f 76/76/76 74/74/74 75/75/75 
f 77/77/77 75/75/75 74/74/74 
f 80/80/80 79/79/79 78/78/78 
f 81/81/81 78/78/78 79/79/79 
f 84/84/84 83/83/83 82/82/82 
f 85/85/85 82/82/82 83/83/83 
f 88/88/88 87/87/87 86/86/86 
f 89/89/89 86/86/86 87/87/87 
f 92/92/92 91/91/91 90/90/90 
f 93/93/93 90/90/90 91/91/91 
f 96/96/96 95/95/95 94/94/94 
f 97/97/97 94/94/94 95/95/95 
f 100/100/100 99/99/99 98/98/98 
f 101/101/101 98/98/98 99/99/99 
f 104/104/104 103/103/103 102/102/102 
f 105/105/105 102/102/102 103/103/103 
f 108/108/108 107/107/107 106/106/106 
f 109/109/109 106/106/106 107/107/107 
f 112/112/112 111/111/111 110/110/110 
f 113/113/113 110/110/110 111/111/111 
f 116/116/116 115/115/115 114/114/114 
f 117/117/117 114/114/114 115/115/115 
f 120/120/120 119/119/119 118/118/118 
f 121/121/121 118/118/118 119/119/119 
f 124/124/124 123/123/123 122/122/122 
f 125/125/125 122/122/122 123/123/123 
f 128/128/128 127/127/127 126/126/126 
f 129/129/129 126/126/126 127/127/127 
f 126/126/126 130/130/130 128/128/128 
f 131/131/131 128/128/128 130/130/130 

usemtl bg_mdl_map_sign02_1
f 134/134/134 133/133/133 132/132/132 
f 135/135/135 132/132/132 133/133/133 
f 138/138/138 137/137/137 136/136/136 
f 139/139/139 136/136/136 137/137/137 
f 142/142/142 141/141/141 140/140/140 
f 143/143/143 140/140/140 141/141/141 
f 146/146/146 145/145/145 144/144/144 
f 147/147/147 144/144/144 145/145/145 
f 150/150/150 149/149/149 148/148/148 
f 151/151/151 148/148/148 149/149/149 
f 154/154/154 153/153/153 152/152/152 
f 155/155/155 152/152/152 153/153/153 

