v 0.03000633604824543 -0.008976378478109837 -0.5637683272361755
v 0.0004107117420062423 -2.811544072756078e-05 -0.44405806064605713
v 0.016980154439806938 -0.008996501564979553 -0.4418575167655945
v 0.012475220486521721 4.615735451807268e-05 -0.5687358975410461
v 0.03708425536751747 -0.0065131355077028275 -0.6190767288208008
v 0.02037273347377777 7.654179353266954e-05 -0.6194894313812256
v 0.006295062135905027 -0.010722710750997066 -0.27370259165763855
v 0.02294474095106125 -0.005306042265146971 0.05978906527161598
v 0.028612932190299034 -0.004833204671740532 -0.27121639251708984
v -0.002373957075178623 -0.013365160673856735 0.05978906527161598
v -0.02798275090754032 -7.471229037037119e-05 0.059788987040519714
v 0.006295062135905027 -0.010722710750997066 -0.27370259165763855
v -0.01135806180536747 -6.232448504306376e-05 -0.2770287096500397
v -0.002373957075178623 -0.013365160673856735 0.05978906527161598
v 0.028612932190299034 -0.004833204671740532 -0.27121639251708984
v 0.016980154439806938 -0.008996501564979553 -0.4418575167655945
v 0.006295062135905027 -0.010722710750997066 -0.27370259165763855
v 0.03779258579015732 -0.004452620632946491 -0.4395849406719208
v 0.03708425536751747 -0.0065131355077028275 -0.6190767288208008
v 0.048655327409505844 -0.005014197900891304 -0.562229573726654
v 0.05434124171733856 -0.003959390334784985 -0.613598108291626
v 0.03000633604824543 -0.008976378478109837 -0.5637683272361755
v 0.03779258579015732 -0.004452620632946491 -0.4395849406719208
v 0.016980154439806938 -0.008996501564979553 -0.4418575167655945
v 0.016980154439806938 -0.008996501564979553 -0.4418575167655945
v -0.01135806180536747 -6.232448504306376e-05 -0.2770287096500397
v 0.006295062135905027 -0.010722710750997066 -0.27370259165763855
v 0.0004107117420062423 -2.811544072756078e-05 -0.44405806064605713
v -0.02798275090754032 -7.471229037037119e-05 0.059788987040519714
v 0.006295058410614729 0.010998506098985672 -0.27370259165763855
v -0.0023739608004689217 0.012073381803929806 0.05978906527161598
v -0.01135806180536747 -6.232448504306376e-05 -0.2770287096500397
v 0.022762266919016838 0.004760796204209328 0.05978906527161598
v 0.006295058410614729 0.010998506098985672 -0.27370259165763855
v 0.02865169197320938 0.004973198287189007 -0.2712070345878601
v -0.0023739608004689217 0.012073381803929806 0.05978906527161598
v 0.02865169197320938 0.004973198287189007 -0.2712070345878601
v 0.01698015257716179 0.009163904935121536 -0.4418575167655945
v 0.037812624126672745 0.004557319916784763 -0.4395797550678253
v 0.006295058410614729 0.010998506098985672 -0.27370259165763855
v 0.03000633232295513 0.009207992814481258 -0.5637683272361755
v 0.037812624126672745 0.004557319916784763 -0.4395797550678253
v 0.01698015257716179 0.009163904935121536 -0.4418575167655945
v 0.048695631325244904 0.005146748386323452 -0.5622202157974243
v 0.03708425536751747 0.006814602296799421 -0.6190767288208008
v 0.05438873544335365 0.004139298107475042 -0.6135771870613098
v -0.01135806180536747 -6.232448504306376e-05 -0.2770287096500397
v 0.01698015257716179 0.009163904935121536 -0.4418575167655945
v 0.006295058410614729 0.010998506098985672 -0.27370259165763855
v 0.0004107117420062423 -2.811544072756078e-05 -0.44405806064605713
v 0.03708425536751747 0.006814602296799421 -0.6190767288208008
v 0.012475220486521721 4.615735451807268e-05 -0.5687358975410461
v 0.02037273347377777 7.654179353266954e-05 -0.6194894313812256
v 0.03000633232295513 0.009207992814481258 -0.5637683272361755
v 0.0004107117420062423 -2.811544072756078e-05 -0.44405806064605713
v 0.01698015257716179 0.009163904935121536 -0.4418575167655945
v 0.03708425536751747 0.006814602296799421 -0.6190767288208008
v 0.05434124171733856 -0.003959390334784985 -0.613598108291626
v 0.05438873544335365 0.004139298107475042 -0.6135771870613098
v 0.03708425536751747 -0.0065131355077028275 -0.6190767288208008
v 0.02037273347377777 7.654179353266954e-05 -0.6194894313812256
v -0.002373957075178623 -0.013365160673856735 0.05978906527161598
v 0.022762266919016838 0.004760796204209328 0.05978906527161598
v 0.02294474095106125 -0.005306042265146971 0.05978906527161598
v -0.0023739608004689217 0.012073381803929806 0.05978906527161598
v -0.02798275090754032 -7.471229037037119e-05 0.059788987040519714
v 0.02865169197320938 0.004973198287189007 -0.2712070345878601
v 0.03779258579015732 -0.004452620632946491 -0.4395849406719208
v 0.028612932190299034 -0.004833204671740532 -0.27121639251708984
v 0.037812624126672745 0.004557319916784763 -0.4395797550678253
v 0.022762266919016838 0.004760796204209328 0.05978906527161598
v 0.028612932190299034 -0.004833204671740532 -0.27121639251708984
v 0.02294474095106125 -0.005306042265146971 0.05978906527161598
v 0.02865169197320938 0.004973198287189007 -0.2712070345878601
v 0.05434124171733856 -0.003959390334784985 -0.613598108291626
v 0.048695631325244904 0.005146748386323452 -0.5622202157974243
v 0.05438873544335365 0.004139298107475042 -0.6135771870613098
v 0.048655327409505844 -0.005014197900891304 -0.562229573726654
v 0.037812624126672745 0.004557319916784763 -0.4395797550678253
v 0.03779258579015732 -0.004452620632946491 -0.4395849406719208
vn -0.442599892616272 -0.8941773772239685 -0.06746887415647507
vn -0.4700585603713989 -0.8816441893577576 -0.04181581735610962
vn -0.4728248119354248 -0.8801550269126892 -0.04199739545583725
vn -0.4331812262535095 -0.8987398743629456 -0.067975714802742
vn -0.38209354877471924 -0.9217142462730408 -0.06668852269649506
vn -0.36500072479248047 -0.92923903465271 -0.05735228955745697
vn 0.255918025970459 -0.9666874408721924 0.0046106306836009026
vn 0.30121275782585144 -0.9535568952560425 0.00044980290113016963
vn 0.25302648544311523 -0.9674481153488159 0.0046628862619400024
vn 0.3033119738101959 -0.9528912901878357 0.00033418938983231783
vn -0.4627256989479065 -0.8862922191619873 -0.01926281861960888
vn -0.5107342004776001 -0.8591235876083374 -0.03251533955335617
vn -0.5105770230293274 -0.8591756820678711 -0.033591266721487045
vn -0.46055662631988525 -0.8874269127845764 -0.01900363899767399
vn 0.25302648544311523 -0.9674481153488159 0.0046628862619400024
vn 0.2134680300951004 -0.9768218398094177 0.0158277228474617
vn 0.255918025970459 -0.9666874408721924 0.0046106306836009026
vn 0.21139585971832275 -0.9772738814353943 0.015737539157271385
vn 0.16241885721683502 -0.9866967797279358 -0.0070428065955638885
vn 0.20153148472309113 -0.979473888874054 0.004011132754385471
vn 0.1476208120584488 -0.9890360236167908 -0.003969031851738691
vn 0.20782257616519928 -0.978160560131073 0.003437664359807968
vn 0.21139585971832275 -0.9772738814353943 0.015737539157271385
vn 0.2134680300951004 -0.9768218398094177 0.0158277228474617
vn -0.4728248119354248 -0.8801550269126892 -0.04199739545583725
vn -0.5105770230293274 -0.8591756820678711 -0.033591266721487045
vn -0.5107342004776001 -0.8591235876083374 -0.03251533955335617
vn -0.4700585603713989 -0.8816441893577576 -0.04181581735610962
vn -0.43270155787467957 0.9014198780059814 -0.014544418081641197
vn -0.5235434770584106 0.8513463139533997 -0.03334062919020653
vn -0.42855146527290344 0.9034080505371094 -0.014051842503249645
vn -0.5243467092514038 0.8508033752441406 -0.03455616533756256
vn 0.2784769535064697 0.9604336619377136 0.004213507287204266
vn 0.2601335942745209 0.9655565023422241 0.005587283056229353
vn 0.2578841745853424 0.966158926486969 0.005715074483305216
vn 0.2793352007865906 0.960184633731842 0.004166469909250736
vn 0.2578841745853424 0.966158926486969 0.005715074483305216
vn 0.2161536067724228 0.9762253761291504 0.016174839809536934
vn 0.21406136453151703 0.9766879677772522 0.016070136800408363
vn 0.2601335942745209 0.9655565023422241 0.005587283056229353
vn 0.21214167773723602 0.9772277474403381 0.004667800851166248
vn 0.21406136453151703 0.9766879677772522 0.016070136800408363
vn 0.2161536067724228 0.9762253761291504 0.016174839809536934
vn 0.20608490705490112 0.9785200953483582 0.005245357286185026
vn 0.16799864172935486 0.985772430896759 -0.00539200846105814
vn 0.15352049469947815 0.9881425499916077 -0.002365715801715851
vn -0.5243467092514038 0.8508033752441406 -0.03455616533756256
vn -0.4821294844150543 0.8750715851783752 -0.042435478419065475
vn -0.5235434770584106 0.8513463139533997 -0.03334062919020653
vn -0.4789770841598511 0.8768144845962524 -0.04215657338500023
vn -0.38893070816993713 0.9188575744628906 -0.06658550351858139
vn -0.439079225063324 0.8959097266197205 -0.06749273836612701
vn -0.3721126914024353 0.9264142513275146 -0.05734802410006523
vn -0.4485434591770172 0.8912442922592163 -0.06702476739883423
vn -0.4789770841598511 0.8768144845962524 -0.04215657338500023
vn -0.4821294844150543 0.8750715851783752 -0.042435478419065475
vn 0.17806018888950348 0.00010314433166058734 -0.9840196371078491
vn 0.30282679200172424 0.00041387035162188113 -0.9530454874038696
vn 0.3029794991016388 0.0006831432692706585 -0.9529968500137329
vn 0.1778537929058075 0.0 -0.9840569496154785
vn 0.024686453863978386 0.0 -0.9996953010559082
vn -1.3817132185067749e-06 0.0 1.0
vn -0.0 0.0 1.0
vn -0.0 0.0 1.0
vn -1.3910407687944826e-06 0.0 1.0
vn -2.979208602482686e-06 0.0 1.0
vn 0.9993405938148499 -0.003954713232815266 0.03609346225857735
vn 0.9974512457847595 -0.0022914777509868145 0.07131358981132507
vn 0.9993411898612976 -0.0037705295253545046 0.03609709069132805
vn 0.9974517226219177 -0.0023054478224366903 0.0713065043091774
vn 0.9996960163116455 0.017704322934150696 0.01715691201388836
vn 0.9993411898612976 -0.0037705295253545046 0.03609709069132805
vn 0.9996888637542725 0.018120575696229935 0.017144721001386642
vn 0.9993405938148499 -0.003954713232815266 0.03609346225857735
vn 0.9938865303993225 -0.005859465338289738 0.11025092750787735
vn 0.9950666427612305 -0.004141182638704777 0.09912218898534775
vn 0.993880033493042 -0.00611308915540576 0.11029516160488129
vn 0.9950690269470215 -0.003996970597654581 0.09910435974597931
vn 0.9974517226219177 -0.0023054478224366903 0.0713065043091774
vn 0.9974512457847595 -0.0022914777509868145 0.07131358981132507
vt 0.24461333453655243 0.43444037437438965
vt 0.4774969220161438 0.09672015905380249
vt 0.5259897708892822 0.14521318674087524
vt 0.18998004496097565 0.3883213996887207
vt 0.08371364325284958 0.5900420844554901
vt 0.06272109597921371 0.5233810842037201
vt 0.8847432136535645 0.06575196981430054
vt 0.013568935915827751 0.8380052298307419
vt 0.8251007199287415 0.015035271644592285
vt 0.0836138054728508 0.9049774259328842
vt 0.15742063522338867 0.9815697353333235
vt 0.8847432136535645 0.06575196981430054
vt 0.9511069655418396 0.10952192544937134
vt 0.0836138054728508 0.9049774259328842
vt 0.33639609813690186 0.8553395867347717
vt 0.8911123871803284 0.3807697296142578
vt 0.37010660767555237 0.8996142745018005
vt 0.851629912853241 0.3485026955604553
vt 0.08371364325284958 0.5900420844554901
vt 0.28217995166778564 0.481528639793396
vt 0.13628634810447693 0.6232616901397705
vt 0.24461333453655243 0.43444037437438965
vt 0.5620883703231812 0.17887812852859497
vt 0.5259897708892822 0.14521318674087524
vt 0.8911123871803284 0.3807697296142578
vt 0.42593029141426086 0.9301839992403984
vt 0.37010660767555237 0.8996142745018005
vt 0.9346699118614197 0.4243272542953491
vt 0.15742063522338867 0.9815697353333235
vt 0.8847432136535645 0.06575196981430054
vt 0.0836138054728508 0.9049774259328842
vt 0.9511069655418396 0.10952192544937134
vt 0.013568935915827751 0.8380052298307419
vt 0.8847432136535645 0.06575196981430054
vt 0.8251007199287415 0.015035271644592285
vt 0.0836138054728508 0.9049774259328842
vt 0.33628857135772705 0.8552564829587936
vt 0.8911123871803284 0.3807697296142578
vt 0.8515764474868774 0.3484492301940918
vt 0.37010660767555237 0.8996142745018005
vt 0.24461333453655243 0.43444037437438965
vt 0.5621504783630371 0.1789402961730957
vt 0.5259897708892822 0.14521318674087524
vt 0.28232693672180176 0.48162412643432617
vt 0.08371364325284958 0.5900420844554901
vt 0.13647820055484772 0.6233486235141754
vt 0.42593029141426086 0.9301839992403984
vt 0.8911123871803284 0.3807697296142578
vt 0.37010660767555237 0.8996142745018005
vt 0.9346699118614197 0.4243272542953491
vt 0.08371364325284958 0.5900420844554901
vt 0.18998004496097565 0.3883213996887207
vt 0.06272109597921371 0.5233810842037201
vt 0.24461333453655243 0.43444037437438965
vt 0.4774969220161438 0.09672015905380249
vt 0.5259897708892822 0.14521318674087524
vt 0.8518272638320923 0.8329116404056549
vt 0.8828805685043335 0.6329002678394318
vt 0.9463902711868286 0.6880870461463928
vt 0.7463607788085938 0.739971935749054
vt 0.67378830909729 0.9274531453847885
vt 0.22554393112659454 0.27879470586776733
vt 0.08112233877182007 0.30792778730392456
vt 0.11170870065689087 0.3416944146156311
vt 0.14518311619758606 0.196557879447937
vt 0.41271883249282837 0.031102478504180908
vt 0.3251800239086151 0.8470418751239777
vt 0.8515764474868774 0.3484492301940918
vt 0.33628857135772705 0.8552564829587936
vt 0.8408300280570984 0.3405851125717163
vt 0.013568935915827751 0.8380052298307419
vt 0.8135777711868286 0.004899919033050537
vt 0.0029150964692234993 0.8261399567127228
vt 0.8251007199287415 0.015035271644592285
vt 0.14776857197284698 0.633579283952713
vt 0.28232693672180176 0.48162412643432617
vt 0.13647820055484772 0.6233486235141754
vt 0.2945866584777832 0.49284040927886963
vt 0.5621504783630371 0.1789402961730957
vt 0.5739026665687561 0.18963360786437988

g wpn_com_saya_00
s 1
usemtl wpn_com_saya_00
f 3/3/3 2/2/2 1/1/1 
f 4/4/4 1/1/1 2/2/2 
f 1/1/1 4/4/4 5/5/5 
f 6/6/6 5/5/5 4/4/4 
f 9/9/9 8/8/8 7/7/7 
f 10/10/10 7/7/7 8/8/8 
f 13/13/13 12/12/12 11/11/11 
f 14/14/14 11/11/11 12/12/12 
f 17/17/17 16/16/16 15/15/15 
f 18/18/18 15/15/15 16/16/16 
f 21/21/21 20/20/20 19/19/19 
f 22/22/22 19/19/19 20/20/20 
f 20/20/20 23/23/23 22/22/22 
f 24/24/24 22/22/22 23/23/23 
f 27/27/27 26/26/26 25/25/25 
f 28/28/28 25/25/25 26/26/26 
f 31/31/31 30/30/30 29/29/29 
f 32/32/32 29/29/29 30/30/30 
f 35/35/35 34/34/34 33/33/33 
f 36/36/36 33/33/33 34/34/34 
f 39/39/39 38/38/38 37/37/37 
f 40/40/40 37/37/37 38/38/38 
f 43/43/43 42/42/42 41/41/41 
f 44/44/44 41/41/41 42/42/42 
f 41/41/41 44/44/44 45/45/45 
f 46/46/46 45/45/45 44/44/44 
f 49/49/49 48/48/48 47/47/47 
f 50/50/50 47/47/47 48/48/48 
f 53/53/53 52/52/52 51/51/51 
f 54/54/54 51/51/51 52/52/52 
f 52/52/52 55/55/55 54/54/54 
f 56/56/56 54/54/54 55/55/55 
f 59/59/59 58/58/58 57/57/57 
f 60/60/60 57/57/57 58/58/58 
f 60/60/60 61/61/61 57/57/57 
f 64/64/64 63/63/63 62/62/62 
f 65/65/65 62/62/62 63/63/63 
f 66/66/66 62/62/62 65/65/65 
f 69/69/69 68/68/68 67/67/67 
f 70/70/70 67/67/67 68/68/68 
f 73/73/73 72/72/72 71/71/71 
f 74/74/74 71/71/71 72/72/72 
f 77/77/77 76/76/76 75/75/75 
f 78/78/78 75/75/75 76/76/76 
f 76/76/76 79/79/79 78/78/78 
f 80/80/80 78/78/78 79/79/79 

