v 1.0 -1.5 2.4103446006774902
v -0.0 -1.437011957168579 2.433832883834839
v -0.0 -1.5 2.4103446006774902
v 0.9454516172409058 -1.437011957168579 2.433832883834839
v 1.0 -0.5 2.910344123840332
v 0.9454516172409058 -1.437011957168579 2.433832883834839
v 1.0 -1.5 2.4103446006774902
v 0.9454516172409058 -1.437011957168579 2.433832883834839
v 1.0 -0.5 2.910344123840332
v 0.9454516172409058 -0.5 2.8888440132141113
v 1.0 0.5 2.910344123840332
v 0.9454516172409058 -0.5 2.8888440132141113
v 1.0 -0.5 2.910344123840332
v 0.9454516172409058 0.5 2.8888440132141113
v 1.0 1.5 2.4103446006774902
v 0.9454516172409058 0.5 2.8888440132141113
v 1.0 0.5 2.910344123840332
v 0.9454516172409058 0.5 2.8888440132141113
v 1.0 1.5 2.4103446006774902
v 0.9454516172409058 1.437011957168579 2.433832883834839
v -0.0 1.5 2.4103446006774902
v 0.9454516172409058 1.437011957168579 2.433832883834839
v 1.0 1.5 2.4103446006774902
v -0.0 1.437011957168579 2.433832883834839
v -0.0 -1.5 2.501030445098877
v -1.0292577743530273 -0.5 3.001030206680298
v -0.0 -0.5 3.001030206680298
v -1.0292577743530273 -1.5 2.501030445098877
v 1.0 -1.5000001192092896 2.4717772006988525
v 0.9659286141395569 -0.5 3.001030206680298
v 1.0 -0.5000001192092896 2.9717772006988525
v 0.9659286141395569 -1.5 2.501030445098877
v -0.0 -0.5 3.001030206680298
v -1.0292577743530273 0.5 3.001030206680298
v -0.0 0.5 3.001030206680298
v -1.0292577743530273 -0.5 3.001030206680298
v 1.0 -0.5000001192092896 2.9717772006988525
v 0.9659286141395569 0.5 3.001030206680298
v 1.0 0.5 2.9717772006988525
v 0.9659286141395569 -0.5 3.001030206680298
v -0.0 0.5 3.001030206680298
v -1.0292577743530273 1.5 2.501030445098877
v -0.0 1.5 2.501030445098877
v -1.0292577743530273 0.5 3.001030206680298
v 1.0 0.5 2.9717772006988525
v 0.9659286141395569 1.5 2.501030445098877
v 1.0 1.5 2.4717772006988525
v 0.9659286141395569 0.5 3.001030206680298
v 1.0 -1.5000001192092896 2.4717772006988525
v -0.0 -1.5 2.4103446006774902
v -0.0 -1.5 2.501030445098877
v 1.0 -1.5 2.4103446006774902
v 1.0 -1.5000001192092896 2.4717772006988525
v 1.0 -0.5 2.910344123840332
v 1.0 -1.5 2.4103446006774902
v 1.0 -0.5000001192092896 2.9717772006988525
v 1.0 -0.5 2.910344123840332
v 1.0 0.5 2.9717772006988525
v 1.0 0.5 2.910344123840332
v 1.0 -0.5000001192092896 2.9717772006988525
v 1.0 1.5 2.4717772006988525
v 1.0 0.5 2.910344123840332
v 1.0 0.5 2.9717772006988525
v 1.0 1.5 2.4103446006774902
v -0.0 1.5 2.4103446006774902
v 1.0 1.5 2.4717772006988525
v -0.0 1.5 2.501030445098877
v 0.9659286141395569 1.5 2.501030445098877
v 1.0 1.5 2.4717772006988525
v 1.0 1.5 2.4103446006774902
v -0.0 -1.437011957168579 2.433832883834839
v -1.0548434257507324 -1.5 2.4103446006774902
v -0.0 -1.5 2.4103446006774902
v -1.0002950429916382 -1.437011957168579 2.433832883834839
v -1.0002950429916382 -1.437011957168579 2.433832883834839
v -1.0548434257507324 -0.5 2.910344123840332
v -1.0548434257507324 -1.5 2.4103446006774902
v -1.0548434257507324 -0.5 2.910344123840332
v -1.0002950429916382 -1.437011957168579 2.433832883834839
v -1.0002950429916382 -0.5 2.8888440132141113
v -1.0002950429916382 -0.5 2.8888440132141113
v -1.0548434257507324 0.5 2.910344123840332
v -1.0548434257507324 -0.5 2.910344123840332
v -1.0002950429916382 0.5 2.8888440132141113
v -1.0002950429916382 0.5 2.8888440132141113
v -1.0548434257507324 1.5 2.4103446006774902
v -1.0548434257507324 0.5 2.910344123840332
v -1.0548434257507324 1.5 2.4103446006774902
v -1.0002950429916382 0.5 2.8888440132141113
v -1.0002950429916382 1.437011957168579 2.433832883834839
v -1.0002950429916382 1.437011957168579 2.433832883834839
v -0.0 1.5 2.4103446006774902
v -1.0548434257507324 1.5 2.4103446006774902
v -0.0 1.437011957168579 2.433832883834839
v -1.0548430681228638 -1.5000001192092896 2.4717772006988525
v -0.0 -1.5 2.4103446006774902
v -1.0548434257507324 -1.5 2.4103446006774902
v -0.0 -1.5 2.501030445098877
v -1.0292577743530273 1.5 2.501030445098877
v -1.0548430681228638 1.5 2.4717772006988525
v -0.0 1.5 2.501030445098877
v -1.0548430681228638 -1.5000001192092896 2.4717772006988525
v -1.0548434257507324 -0.5 2.910344123840332
v -1.0548430681228638 -0.5000001192092896 2.9717772006988525
v -1.0548434257507324 -1.5 2.4103446006774902
v -1.0548430681228638 -0.5000001192092896 2.9717772006988525
v -1.0548434257507324 0.5 2.910344123840332
v -1.0548430681228638 0.5 2.9717772006988525
v -1.0548434257507324 -0.5 2.910344123840332
v -1.0548434257507324 0.5 2.910344123840332
v -1.0548430681228638 1.5 2.4717772006988525
v -1.0548430681228638 0.5 2.9717772006988525
v -1.0548434257507324 1.5 2.4103446006774902
v 0.9659286141395569 -1.5 2.501030445098877
v -0.0 -0.5 3.001030206680298
v 0.9659286141395569 -0.5 3.001030206680298
v -0.0 -1.5 2.501030445098877
v 0.9659286141395569 -0.5 3.001030206680298
v -0.0 0.5 3.001030206680298
v 0.9659286141395569 0.5 3.001030206680298
v -0.0 -0.5 3.001030206680298
v 0.9659286141395569 0.5 3.001030206680298
v -0.0 1.5 2.501030445098877
v 0.9659286141395569 1.5 2.501030445098877
v -0.0 0.5 3.001030206680298
v -1.0292577743530273 -1.5 2.501030445098877
v -1.0548430681228638 -0.5000001192092896 2.9717772006988525
v -1.0292577743530273 -0.5 3.001030206680298
v -1.0548430681228638 -1.5000001192092896 2.4717772006988525
v -1.0292577743530273 -0.5 3.001030206680298
v -1.0548430681228638 0.5 2.9717772006988525
v -1.0292577743530273 0.5 3.001030206680298
v -1.0548430681228638 -0.5000001192092896 2.9717772006988525
v -1.0292577743530273 0.5 3.001030206680298
v -1.0548430681228638 1.5 2.4717772006988525
v -1.0292577743530273 1.5 2.501030445098877
v -1.0548430681228638 0.5 2.9717772006988525
v -1.0548430681228638 1.5 2.4717772006988525
v -0.0 1.5 2.4103446006774902
v -0.0 1.5 2.501030445098877
v -1.0548434257507324 1.5 2.4103446006774902
v 1.0 -1.5000001192092896 2.4717772006988525
v -0.0 -1.5 2.501030445098877
v 0.9659286141395569 -1.5 2.501030445098877
v -0.0 -1.5 2.501030445098877
v -1.0548430681228638 -1.5000001192092896 2.4717772006988525
v -1.0292577743530273 -1.5 2.501030445098877
vn -0.0 0.34939903020858765 -0.936974048614502
vn -0.0 0.34939903020858765 -0.936974048614502
vn -0.0 0.34939903020858765 -0.936974048614502
vn -0.0 0.34939900040626526 -0.936974048614502
vn 0.13015207648277283 0.4434094727039337 -0.8868193030357361
vn 0.13015210628509521 0.4434095025062561 -0.8868193030357361
vn 0.13015209138393402 0.4434095323085785 -0.8868193030357361
vn 0.3341745436191559 0.41170719265937805 -0.8478352427482605
vn 0.3341745436191559 0.41170722246170044 -0.8478352427482605
vn 0.3341745138168335 0.4117071330547333 -0.8478352427482605
vn 0.3666943609714508 0.0 -0.9303414821624756
vn 0.3666943609714508 0.0 -0.9303414821624756
vn 0.3666943609714508 0.0 -0.9303414821624756
vn 0.3666943609714508 0.0 -0.9303414821624756
vn 0.33248263597488403 -0.42177122831344604 -0.8435426950454712
vn 0.33248263597488403 -0.42177122831344604 -0.8435426950454712
vn 0.33248260617256165 -0.42177122831344604 -0.8435426950454712
vn 0.11626704037189484 -0.43385693430900574 -0.8934484720230103
vn 0.11626705527305603 -0.43385687470436096 -0.8934484720230103
vn 0.11626704782247543 -0.43385690450668335 -0.893448531627655
vn -0.0 -0.34939903020858765 -0.936974048614502
vn -0.0 -0.34939903020858765 -0.936974048614502
vn -0.0 -0.34939903020858765 -0.936974048614502
vn -0.0 -0.34939903020858765 -0.936974048614502
vn -0.0 -0.4472135901451111 0.8944271802902222
vn -0.0 -0.4472135901451111 0.8944271802902222
vn -0.0 -0.4472135901451111 0.8944271802902222
vn -0.0 -0.4472135901451111 0.8944271802902222
vn 0.6090683341026306 -0.3546930253505707 0.7093860507011414
vn 0.6090683341026306 -0.3546930253505707 0.7093860507011414
vn 0.6090683341026306 -0.3546930253505707 0.7093860507011414
vn 0.6090683341026306 -0.3546930253505707 0.7093860507011414
vn -0.0 0.0 1.0
vn -0.0 0.0 1.0
vn -0.0 0.0 1.0
vn -0.0 0.0 1.0
vn 0.6514229774475098 0.0 0.7587147951126099
vn 0.6514229774475098 0.0 0.7587147951126099
vn 0.6514229774475098 0.0 0.7587147951126099
vn 0.6514229774475098 0.0 0.7587147951126099
vn -0.0 0.4472135901451111 0.8944271802902222
vn -0.0 0.4472135901451111 0.8944271802902222
vn -0.0 0.4472135901451111 0.8944271802902222
vn -0.0 0.4472135901451111 0.8944271802902222
vn 0.6090694069862366 0.354692667722702 0.709385335445404
vn 0.6090694069862366 0.354692667722702 0.709385335445404
vn 0.6090694069862366 0.354692667722702 0.709385335445404
vn 0.6090694069862366 0.354692667722702 0.709385335445404
vn -1.5258788721439487e-07 -1.0 0.0
vn -1.5258790142524958e-07 -1.0 0.0
vn -1.525879156361043e-07 -1.0 0.0
vn -0.0 -1.0 -2.48382389145263e-06
vn 1.0 0.0 0.0
vn 1.0 0.0 0.0
vn 1.0 0.0 0.0
vn 1.0 0.0 0.0
vn 1.0 0.0 0.0
vn 1.0 0.0 0.0
vn 1.0 0.0 0.0
vn 1.0 0.0 0.0
vn 1.0 0.0 0.0
vn 1.0 0.0 0.0
vn 1.0 0.0 0.0
vn 1.0 0.0 0.0
vn -0.0 1.0 0.0
vn -0.0 1.0 0.0
vn -0.0 1.0 0.0
vn -0.0 1.0 0.0
vn -0.0 1.0 0.0
vn -0.0 1.0 0.0
vn -0.0 0.34939903020858765 -0.936974048614502
vn -0.0 0.34939906001091003 -0.936974048614502
vn -0.0 0.34939906001091003 -0.9369739890098572
vn -0.0 0.34939906001091003 -0.936974048614502
vn -0.13015210628509521 0.4434095025062561 -0.8868193030357361
vn -0.13015207648277283 0.4434094727039337 -0.8868193030357361
vn -0.13015209138393402 0.4434095323085785 -0.8868193030357361
vn -0.3341745436191559 0.41170722246170044 -0.8478352427482605
vn -0.3341745436191559 0.41170719265937805 -0.8478352427482605
vn -0.3341745138168335 0.4117071330547333 -0.8478352427482605
vn -0.3666943609714508 0.0 -0.9303414821624756
vn -0.3666943609714508 0.0 -0.9303414821624756
vn -0.3666943609714508 0.0 -0.9303414821624756
vn -0.3666943609714508 0.0 -0.9303414821624756
vn -0.33248263597488403 -0.42177122831344604 -0.8435426950454712
vn -0.33248263597488403 -0.42177122831344604 -0.8435426950454712
vn -0.33248260617256165 -0.42177122831344604 -0.8435426950454712
vn -0.11626705527305603 -0.43385687470436096 -0.8934484720230103
vn -0.11626704037189484 -0.43385693430900574 -0.8934484720230103
vn -0.11626704782247543 -0.43385690450668335 -0.893448531627655
vn -0.0 -0.34939906001091003 -0.936974048614502
vn -0.0 -0.34939906001091003 -0.936974048614502
vn -0.0 -0.34939906001091003 -0.936974048614502
vn -0.0 -0.34939906001091003 -0.936974048614502
vn -0.0 -1.0 -2.48382389145263e-06
vn -0.0 -1.0 -2.4838241188263055e-06
vn -0.0 -1.0 -2.4838241188263055e-06
vn 1.4465460651535977e-07 -1.0 0.0
vn -0.0 1.0 0.0
vn -0.0 1.0 0.0
vn -0.0 1.0 0.0
vn -1.0 -2.4838147965056123e-06 4.967629593011225e-06
vn -1.0 -2.4838150238792878e-06 4.9676300477585755e-06
vn -1.0 -2.4838147965056123e-06 4.967629593011225e-06
vn -1.0 -2.4838204808474984e-06 4.9676427806844e-06
vn -1.0 0.0 4.967635959474137e-06
vn -1.0 0.0 4.967635504726786e-06
vn -1.0 0.0 4.967635049979435e-06
vn -1.0 0.0 4.967636414221488e-06
vn -1.0 2.483818207110744e-06 4.967636414221488e-06
vn -1.0 2.483818207110744e-06 4.967636414221488e-06
vn -1.0 2.483818207110744e-06 4.967636414221488e-06
vn -1.0 2.483823436705279e-06 4.967648237652611e-06
vn -0.0 -0.4472135901451111 0.8944271802902222
vn -0.0 -0.4472135901451111 0.8944271802902222
vn -0.0 -0.4472135901451111 0.8944271802902222
vn -0.0 -0.4472135901451111 0.8944271802902222
vn -0.0 0.0 1.0
vn -0.0 0.0 1.0
vn -0.0 0.0 1.0
vn -0.0 0.0 1.0
vn -0.0 0.4472135901451111 0.8944271802902222
vn -0.0 0.4472135901451111 0.8944271802902222
vn -0.0 0.4472135901451111 0.8944271802902222
vn -0.0 0.4472135901451111 0.8944271802902222
vn -0.7149801254272461 -0.3126670718193054 0.6253341436386108
vn -0.7149801254272461 -0.31266704201698303 0.6253340840339661
vn -0.7149801254272461 -0.3126670718193054 0.6253341436386108
vn -0.7149801254272461 -0.3126670718193054 0.6253341436386108
vn -0.7527201771736145 0.0 0.658340573310852
vn -0.7527201175689697 0.0 0.6583406329154968
vn -0.7527201175689697 0.0 0.6583406329154968
vn -0.7527201175689697 0.0 0.6583406329154968
vn -0.714980959892273 0.312666654586792 0.625333309173584
vn -0.714980959892273 0.312666654586792 0.625333309173584
vn -0.714980959892273 0.312666654586792 0.625333309173584
vn -0.714980959892273 0.312666654586792 0.625333309173584
vn -0.0 1.0 0.0
vn -0.0 1.0 0.0
vn -0.0 1.0 0.0
vn -0.0 1.0 0.0
vn -0.0 -1.0 5.216103545535589e-06
vn -0.0 -1.0 5.216103545535589e-06
vn -0.0 -1.0 5.216103545535589e-06
vn -0.0 -1.0 5.216103090788238e-06
vn -0.0 -1.0 5.216103545535589e-06
vn -0.0 -1.0 5.216103090788238e-06
vt 0.2328343540430069 0.10362088680267334
vt 0.12635807693004608 0.12258636951446533
vt 0.12644712626934052 0.10362088680267334
vt 0.2269771248102188 0.12258636951446533
vt 0.13697673380374908 0.10407423973083496
vt 0.020410211756825447 0.12226736545562744
vt 0.017322422936558723 0.10407423973083496
vt 0.020410211756825447 0.12226736545562744
vt 0.13697673380374908 0.10407423973083496
vt 0.13431991636753082 0.12226736545562744
vt 0.24461205303668976 0.10407423973083496
vt 0.13431991636753082 0.12226736545562744
vt 0.13697673380374908 0.10407423973083496
vt 0.24695388972759247 0.12226736545562744
vt 0.36435168981552124 0.10407423973083496
vt 0.24695388972759247 0.12226736545562744
vt 0.24461205303668976 0.10407423973083496
vt 0.24695388972759247 0.12226736545562744
vt 0.36435168981552124 0.10407423973083496
vt 0.3610636591911316 0.12226736545562744
vt 0.12548775970935822 0.10318207740783691
vt 0.024654852226376534 0.12223899364471436
vt 0.019119450822472572 0.10318207740783691
vt 0.12525536119937897 0.12223899364471436
vt -0.29895588755607605 1.0154782123863697
vt 0.8177108764648438 1.983031153678894
vt 0.8177108764648438 1.0154782123863697
vt -0.29895588755607605 1.983031153678894
vt -0.308976411819458 2.007723093032837
vt 0.8177108764648438 1.9739159941673279
vt 0.8177108764648438 2.007723093032837
vt -0.29895588755607605 1.9739159941673279
vt 1.2322404384613037 1.0154782123863697
vt 2.2301788330078125 1.983031153678894
vt 2.2301788330078125 1.0154782123863697
vt 1.2322404384613037 1.983031153678894
vt 1.2322404384613037 2.007723093032837
vt 2.2301788330078125 1.9739159941673279
vt 2.2301788330078125 2.007723093032837
vt 1.2322405576705933 1.9739159941673279
vt 2.4048476219177246 1.0154782123863697
vt 3.4936256408691406 1.983031153678894
vt 3.4936256408691406 1.0154782123863697
vt 2.4048476219177246 1.983031153678894
vt 2.4048476219177246 2.007723093032837
vt 3.4936258792877197 1.9739159941673279
vt 3.506467342376709 2.007723093032837
vt 2.4048476219177246 1.9739159941673279
vt -0.22258150577545166 1.9721020460128784
vt -0.3358675241470337 1.0154782123863697
vt -0.18481957912445068 1.0154782123863697
vt -0.3358675241470337 1.9721020460128784
vt 0.7295907735824585 1.0202902555465698
vt 0.8160320520401001 1.9707324504852295
vt 0.8160321712493896 1.0202902555465698
vt 0.729590654373169 1.9707324504852295
vt 1.815007209777832 1.8575352430343628
vt 1.725573182106018 1.0147908553481102
vt 1.815007209777832 1.0147908553481102
vt 1.7255733013153076 1.8575352430343628
vt 3.324552059173584 1.0160932093858719
vt 3.3985471725463867 1.9784663319587708
vt 3.324552059173584 1.9784663319587708
vt 3.3985471725463867 1.0160932093858719
vt -0.18404054641723633 1.0154782142490149
vt -0.2972455322742462 1.972367525100708
vt -0.3349803686141968 1.0154782142490149
vt -0.3349795937538147 1.9444615244865417
vt -0.2972455322742462 1.972367525100708
vt -0.18404054641723633 1.972367525100708
vt 0.12635807693004608 0.12258636951446533
vt 0.2328343540430069 0.10362088680267334
vt 0.12644712626934052 0.10362088680267334
vt 0.2269771248102188 0.12258636951446533
vt 0.020410211756825447 0.12226736545562744
vt 0.13697673380374908 0.10407423973083496
vt 0.017322422936558723 0.10407423973083496
vt 0.13697673380374908 0.10407423973083496
vt 0.020410211756825447 0.12226736545562744
vt 0.13431991636753082 0.12226736545562744
vt 0.13431991636753082 0.12226736545562744
vt 0.24461205303668976 0.10407423973083496
vt 0.13697673380374908 0.10407423973083496
vt 0.24695388972759247 0.12226736545562744
vt 0.24695388972759247 0.12226736545562744
vt 0.36435168981552124 0.10407423973083496
vt 0.24461205303668976 0.10407423973083496
vt 0.36435168981552124 0.10407423973083496
vt 0.24695388972759247 0.12226736545562744
vt 0.3610636591911316 0.12226736545562744
vt 0.024654852226376534 0.12223899364471436
vt 0.12548775970935822 0.10318207740783691
vt 0.019119450822472572 0.10318207740783691
vt 0.12525536119937897 0.12223899364471436
vt -0.22258150577545166 1.9721020460128784
vt -0.3358675241470337 1.0154782123863697
vt -0.3358675241470337 1.9721020460128784
vt -0.18481957912445068 1.0154782123863697
vt -0.3349803686141968 1.9444615244865417
vt -0.2972455322742462 1.972367525100708
vt -0.3349803686141968 1.0154782142490149
vt 0.7295907735824585 1.0202902555465698
vt 0.8160320520401001 1.9707324504852295
vt 0.729590654373169 1.9707324504852295
vt 0.8160321712493896 1.0202902555465698
vt 1.7255733013153076 1.8575352430343628
vt 1.815007209777832 1.0147908553481102
vt 1.725573182106018 1.0147908553481102
vt 1.815007209777832 1.8575352430343628
vt 3.3985471725463867 1.9784663319587708
vt 3.324552059173584 1.0160932093858719
vt 3.324552059173584 1.9784663319587708
vt 3.3985471725463867 1.0160932093858719
vt -0.29895588755607605 1.9739159941673279
vt 0.8177108764648438 1.0154782123863697
vt 0.8177108764648438 1.9739159941673279
vt -0.29895588755607605 1.0154782123863697
vt 1.2322405576705933 1.9739159941673279
vt 2.2301788330078125 1.0154782123863697
vt 2.2301788330078125 1.9739159941673279
vt 1.2322404384613037 1.0154782123863697
vt 2.4048476219177246 1.9739159941673279
vt 3.4936256408691406 1.0154782123863697
vt 3.4936258792877197 1.9739159941673279
vt 2.4048476219177246 1.0154782123863697
vt -0.29895588755607605 1.983031153678894
vt 0.8177108764648438 2.0070825815200806
vt 0.8177108764648438 1.983031153678894
vt -0.29895588755607605 2.0070825815200806
vt 1.2322404384613037 1.983031153678894
vt 2.2301788330078125 2.0070825815200806
vt 2.2301788330078125 1.983031153678894
vt 1.2322404384613037 2.0070825815200806
vt 2.4048476219177246 1.983031153678894
vt 3.4936256408691406 2.0070825815200806
vt 3.4936256408691406 1.983031153678894
vt 2.4048476219177246 2.0070825815200806
vt -0.2972455322742462 1.972367525100708
vt -0.18404054641723633 1.0154782142490149
vt -0.3349803686141968 1.0154782142490149
vt -0.18404054641723633 1.972367525100708
vt -0.22258150577545166 1.9721020460128784
vt -0.18481957912445068 1.0154782123863697
vt -0.18481957912445068 1.9431650042533875
vt -0.18481957912445068 1.0154782123863697
vt -0.22258150577545166 1.9721020460128784
vt -0.18481957912445068 1.9431650042533875

g bg_mdl_map_woodroof00_both
s 1
usemtl bg_mdl_map_woodroof00_both
f 3/3/3 2/2/2 1/1/1 
f 4/4/4 1/1/1 2/2/2 
f 7/7/7 6/6/6 5/5/5 
f 10/10/10 9/9/9 8/8/8 
f 13/13/13 12/12/12 11/11/11 
f 14/14/14 11/11/11 12/12/12 
f 17/17/17 16/16/16 15/15/15 
f 20/20/20 19/19/19 18/18/18 
f 23/23/23 22/22/22 21/21/21 
f 24/24/24 21/21/21 22/22/22 
f 27/27/27 26/26/26 25/25/25 
f 28/28/28 25/25/25 26/26/26 
f 31/31/31 30/30/30 29/29/29 
f 32/32/32 29/29/29 30/30/30 
f 35/35/35 34/34/34 33/33/33 
f 36/36/36 33/33/33 34/34/34 
f 39/39/39 38/38/38 37/37/37 
f 40/40/40 37/37/37 38/38/38 
f 43/43/43 42/42/42 41/41/41 
f 44/44/44 41/41/41 42/42/42 
f 47/47/47 46/46/46 45/45/45 
f 48/48/48 45/45/45 46/46/46 
f 51/51/51 50/50/50 49/49/49 
f 52/52/52 49/49/49 50/50/50 
f 55/55/55 54/54/54 53/53/53 
f 56/56/56 53/53/53 54/54/54 
f 59/59/59 58/58/58 57/57/57 
f 60/60/60 57/57/57 58/58/58 
f 63/63/63 62/62/62 61/61/61 
f 64/64/64 61/61/61 62/62/62 
f 67/67/67 66/66/66 65/65/65 
f 68/68/68 66/66/66 67/67/67 
f 70/70/70 65/65/65 69/69/69 
f 73/73/73 72/72/72 71/71/71 
f 74/74/74 71/71/71 72/72/72 
f 77/77/77 76/76/76 75/75/75 
f 80/80/80 79/79/79 78/78/78 
f 83/83/83 82/82/82 81/81/81 
f 84/84/84 81/81/81 82/82/82 
f 87/87/87 86/86/86 85/85/85 
f 90/90/90 89/89/89 88/88/88 
f 93/93/93 92/92/92 91/91/91 
f 94/94/94 91/91/91 92/92/92 
f 97/97/97 96/96/96 95/95/95 
f 98/98/98 95/95/95 96/96/96 
f 101/101/101 100/100/100 99/99/99 
f 104/104/104 103/103/103 102/102/102 
f 105/105/105 102/102/102 103/103/103 
f 108/108/108 107/107/107 106/106/106 
f 109/109/109 106/106/106 107/107/107 
f 112/112/112 111/111/111 110/110/110 
f 113/113/113 110/110/110 111/111/111 
f 116/116/116 115/115/115 114/114/114 
f 117/117/117 114/114/114 115/115/115 
f 120/120/120 119/119/119 118/118/118 
f 121/121/121 118/118/118 119/119/119 
f 124/124/124 123/123/123 122/122/122 
f 125/125/125 122/122/122 123/123/123 
f 128/128/128 127/127/127 126/126/126 
f 129/129/129 126/126/126 127/127/127 
f 132/132/132 131/131/131 130/130/130 
f 133/133/133 130/130/130 131/131/131 
f 136/136/136 135/135/135 134/134/134 
f 137/137/137 134/134/134 135/135/135 
f 140/140/140 139/139/139 138/138/138 
f 141/141/141 138/138/138 139/139/139 
f 144/144/144 143/143/143 142/142/142 
f 147/147/147 146/146/146 145/145/145 

