v 0.6374123096466064 0.0 0.0
v 0.45753225684165955 -0.04447830095887184 0.3460744023323059
v 0.39206525683403015 0.20318591594696045 0.34586918354034424
v 0.5520153045654297 0.318706214427948 -1.3535021102631427e-15
v 0.21155565977096558 0.38336944580078125 0.346957802772522
v 0.318706214427948 0.5520153045654297 -2.3443345704233847e-15
v 0.5520148873329163 -0.3187064826488495 1.3535036984499188e-15
v 0.3912218511104584 -0.2920284569263458 0.34857478737831116
v 0.3187057375907898 -0.5520153641700745 2.3443347821816216e-15
v 0.21107108891010284 -0.47193029522895813 0.3534272313117981
v -3.433227391269611e-07 -0.6374122500419617 2.7070042205262854e-15
v -0.03486743941903114 -0.5364696979522705 0.3590810000896454
v -0.3187063932418823 -0.5520151257514954 2.344334358665148e-15
v -0.2806533873081207 -0.46964994072914124 0.36335256695747375
v -0.5520152449607849 -0.3187059760093689 1.3535014749884323e-15
v -0.46062323451042175 -0.2897421717643738 0.3644581139087677
v -0.6374122500419617 1.1444091541079615e-07 -4.840500496663083e-22
v -0.5272019505500793 -0.04439643770456314 0.3620128929615021
v -0.5520152449607849 0.318706214427948 -1.3535020043840243e-15
v -0.46254539489746094 0.20110511779785156 0.3573130667209625
v -0.31870612502098083 0.5520152449607849 -2.344334358665148e-15
v -0.28292930126190186 0.3812776803970337 0.3524434566497803
v -1.1444091541079615e-07 0.6374122500419617 -2.7070042205262854e-15
v -0.03587673231959343 0.44814130663871765 0.3489723205566406
v 0.318706214427948 0.5520153045654297 -2.3443345704233847e-15
v 0.21155565977096558 0.38336944580078125 0.346957802772522
v -0.041952017694711685 0.31620314717292786 0.7619539499282837
v 0.15085509419441223 0.2645406424999237 0.7619540095329285
v -0.23475906252861023 0.26454055309295654 0.7619540095329285
v -0.37590357661247253 0.12339606881141663 0.7619538903236389
v -0.4275660514831543 -0.06941085308790207 0.7619539499282837
v -0.3759036064147949 -0.26221784949302673 0.7619540095329285
v -0.2347591370344162 -0.4033624231815338 0.761954128742218
v -0.04195217043161392 -0.45502492785453796 0.7619539499282837
v 0.15085475146770477 -0.40336257219314575 0.761954128742218
v 0.2919995188713074 -0.262218177318573 0.7619539499282837
v 0.3436621129512787 -0.06941093504428864 0.7619539499282837
v 0.29199957847595215 0.12339603155851364 0.7619539499282837
v 0.15085509419441223 0.2645406424999237 0.7619540095329285
v 0.2919360399246216 0.11104137450456619 1.1429309844970703
v 0.33832257986068726 -0.06207592040300369 1.1429308652877808
v 0.1652054488658905 0.2377719134092331 1.1429309844970703
v 0.16520527005195618 -0.36192381381988525 1.1429308652877808
v -0.007911911234259605 -0.40831029415130615 1.1429308652877808
v 0.2919358015060425 -0.23519332706928253 1.1429311037063599
v 0.3171335458755493 0.12540802359580994 1.5239078998565674
v 0.35975250601768494 -0.033647917211055756 1.5239078998565674
v 0.20069652795791626 0.24184493720531464 1.5239078998565674
v 0.2006964385509491 -0.3091408610343933 1.5239078998565674
v 0.0416405089199543 -0.351759672164917 1.5239078998565674
v -0.18102900683879852 -0.3619236350059509 1.1429308652877808
v -0.30775946378707886 -0.23519301414489746 1.1429309844970703
v -0.3541460335254669 -0.062075842171907425 1.1429308652877808
v -0.30775946378707886 0.11104137450456619 1.1429311037063599
v -0.18102890253067017 0.23777182400226593 1.1429309844970703
v -0.007911758497357368 0.28415846824645996 1.1429308652877808
v 0.1652054488658905 0.2377719134092331 1.1429309844970703
v 0.04164066165685654 0.2844637930393219 1.5239078998565674
v 0.20069652795791626 0.24184493720531464 1.5239078998565674
v -0.11741523444652557 0.24184493720531464 1.5239078998565674
v -0.23385222256183624 0.12540797889232635 1.5239077806472778
v -0.2764711081981659 -0.033647842705249786 1.5239078998565674
v -0.23385226726531982 -0.19270367920398712 1.5239077806472778
v -0.11741533130407333 -0.309140682220459 1.523908019065857
v 0.08173404633998871 0.3334825038909912 1.9048850536346436
v 0.24351538717746735 0.29013344645500183 1.904885172843933
v -0.08004722744226456 0.29013335704803467 1.904885172843933
v -0.1984793096780777 0.17170128226280212 1.9048850536346436
v -0.24182845652103424 0.009920120239257812 1.904885172843933
v -0.1984793245792389 -0.15186114609241486 1.9048854112625122
v -0.08004730194807053 -0.270293265581131 1.904885172843933
v 0.08173385262489319 -0.3136424422264099 1.9048850536346436
v 0.2435152381658554 -0.2702934145927429 1.9048850536346436
v 0.36194732785224915 -0.15186141431331635 1.9048850536346436
v 0.31713348627090454 -0.1927039921283722 1.5239078998565674
v 0.4052964746952057 0.009920043870806694 1.9048850536346436
v 0.3619474768638611 0.17170128226280212 1.904885172843933
v 0.24351538717746735 0.29013344645500183 1.904885172843933
v 0.41577476263046265 0.2605612874031067 2.2858619689941406
v 0.46698248386383057 0.06945056468248367 2.2858617305755615
v 0.2758718729019165 0.40046408772468567 2.2858619689941406
v 0.2758716642856598 -0.2615630626678467 2.2858617305755615
v 0.4157746136188507 -0.12166041880846024 2.2858622074127197
v 0.4700433909893036 0.302263468503952 2.6701080799102783
v 0.536080002784729 0.06043971702456474 2.679027557373047
v 0.29358145594596863 0.47911566495895386 2.667062997817993
v 0.4732643663883209 -0.18170100450515747 2.6898863315582275
v 0.29663100838661194 -0.3589636981487274 2.6981911659240723
v 0.08476097136735916 -0.31277090311050415 2.2858617305755615
v -0.1063496395945549 -0.26156288385391235 2.2858617305755615
v -0.24625229835510254 -0.12166009843349457 2.2858619689941406
v -0.29746025800704956 0.06945060938596725 2.2858617305755615
v -0.24625229835510254 0.2605612874031067 2.2858622074127197
v -0.10634955763816833 0.4004639983177185 2.2858619689941406
v 0.0847611203789711 0.4516719579696655 2.2858617305755615
v 0.2758718729019165 0.40046408772468567 2.2858619689941406
v 0.05329166352748871 0.5445595979690552 2.6710166931152344
v 0.29358145594596863 0.47911566495895386 2.667062997817993
v -0.1872980147600174 0.48126861453056335 2.679401159286499
v -0.3642864525318146 0.30497345328330994 2.687864303588867
v -0.4305216073989868 0.06209644302725792 2.693600654602051
v -0.36754363775253296 -0.18143415451049805 2.697197437286377
v -0.19071629643440247 -0.359283983707428 2.700080156326294
v 0.05298713594675064 -0.4239887595176697 2.7012901306152344
v -0.0 0.605211615562439 3.0478157997131348
v 0.3026055693626404 0.5241284966468811 3.0478157997131348
v -0.3026057481765747 0.5241285562515259 3.0478157997131348
v -0.5241284966468811 0.3026057481765747 3.0478155612945557
v -0.6052113771438599 1.5258788721439487e-07 3.0478157997131348
v -0.5241284966468811 -0.302605539560318 3.0478155612945557
v -0.30260589718818665 -0.5241283774375916 3.047816038131714
v -3.0517577442878974e-07 -0.6052113771438599 3.0478157997131348
v 0.30260536074638367 -0.5241286158561707 3.0478157997131348
v 0.524128258228302 -0.3026060461997986 3.0478157997131348
v 0.6052113771438599 3.814697180359872e-08 3.0478157997131348
v 0.5241284966468811 0.3026058077812195 3.0478157997131348
v 0.3026055693626404 0.5241284966468811 3.0478157997131348
vn 0.8867186903953552 0.01448541134595871 0.46208247542381287
vn 0.9290961027145386 -0.005895777139812708 0.3697913587093353
vn 0.7944654226303101 0.4553517699241638 0.40184512734413147
vn 0.7500403523445129 0.4402469992637634 0.4935809075832367
vn 0.45273464918136597 0.791214108467102 0.4111100137233734
vn 0.43547147512435913 0.7492586374282837 0.49897509813308716
vn 0.8023356795310974 -0.4386496841907501 0.4047764539718628
vn 0.8168010711669922 -0.4784521162509918 0.32236558198928833
vn 0.48985642194747925 -0.8055867552757263 0.3332725763320923
vn 0.4748026728630066 -0.8367711901664734 0.27272024750709534
vn 0.014127090573310852 -0.9621435403823853 0.2721768021583557
vn -0.0067502581514418125 -0.9719550609588623 0.23506973683834076
vn -0.4822496473789215 -0.8420892953872681 0.24149708449840546
vn -0.4900656044483185 -0.8434492349624634 0.22006620466709137
vn -0.8426329493522644 -0.477213591337204 0.2494732290506363
vn -0.8412926197052002 -0.4883693754673004 0.2317803055047989
vn -0.9558875560760498 0.0170825757086277 0.29323554039001465
vn -0.963753879070282 -0.005983243230730295 0.266726016998291
vn -0.7974746823310852 0.4849604070186615 0.3589533269405365
vn -0.825255811214447 0.46853339672088623 0.31532415747642517
vn -0.43502163887023926 0.7927534580230713 0.4269637167453766
vn -0.4712161421775818 0.8036815524101257 0.3633885681629181
vn 0.012283590622246265 0.8787901997566223 0.47705018520355225
vn -0.006421224679797888 0.9176241755485535 0.39739754796028137
vn 0.43547147512435913 0.7492586374282837 0.49897509813308716
vn 0.45273464918136597 0.791214108467102 0.4111100137233734
vn -0.008483720012009144 0.9797859787940979 0.19986887276172638
vn 0.488418310880661 0.8539109826087952 0.17967642843723297
vn -0.4968114197254181 0.8407600522041321 0.21517618000507355
vn -0.8490637540817261 0.47956860065460205 0.2215958833694458
vn -0.9763344526290894 -0.006700978148728609 0.21616233885288239
vn -0.8473348021507263 -0.4915474057197571 0.20100966095924377
vn -0.4948090612888336 -0.8499351143836975 0.18103647232055664
vn -0.00838726107031107 -0.9868223667144775 0.1615898460149765
vn 0.48534834384918213 -0.8618824481964111 0.14695453643798828
vn 0.8527618646621704 -0.5032581686973572 0.13974438607692719
vn 0.9896782636642456 -0.006379034835845232 0.1431650072336197
vn 0.856037437915802 0.492057740688324 0.1583634316921234
vn 0.488418310880661 0.8539109826087952 0.17967642843723297
vn 0.8667662739753723 0.49780523777008057 -0.030104270204901695
vn 0.9997734427452087 -0.004639587830752134 -0.02077312022447586
vn 0.499422162771225 0.8663316369056702 -0.006858089007437229
vn 0.4946780800819397 -0.8658061623573303 0.07532082498073578
vn -0.0022246434818953276 -0.9908996820449829 0.13458408415317535
vn 0.8631231784820557 -0.5046667456626892 0.01815693825483322
vn 0.8618601560592651 0.49299317598342896 -0.11897383630275726
vn 0.9961776733398438 -0.0037145414389669895 -0.08727172017097473
vn 0.49957728385925293 0.8590966463088989 -0.11124476045370102
vn 0.4998302459716797 -0.8645164370536804 0.05273505672812462
vn 0.0028523665387183428 -0.9923844337463379 0.12314654141664505
vn -0.49152272939682007 -0.8519628643989563 0.18045683205127716
vn -0.8469577431678772 -0.49173837900161743 0.2021285891532898
vn -0.9808565378189087 -0.003785177133977413 0.19469504058361053
vn -0.8572166562080383 0.4896968901157379 0.1593003273010254
vn -0.501096248626709 0.8591467142105103 0.1037759855389595
vn -0.0030896977987140417 0.9990894794464111 0.04255131632089615
vn 0.499422162771225 0.8663316369056702 -0.006858089007437229
vn 0.0016747558256611228 0.9978531002998352 -0.06546996533870697
vn 0.49957728385925293 0.8590966463088989 -0.11124476045370102
vn -0.4998326897621155 0.8660957217216492 0.006750911008566618
vn -0.8634985089302063 0.49712055921554565 0.08509749919176102
vn -0.9890944361686707 -0.002541569760069251 0.1472601443529129
vn -0.8505346179008484 -0.49517714977264404 0.17717337608337402
vn -0.489535391330719 -0.8555851578712463 0.16831240057945251
vn 0.00730605935677886 0.9762372970581055 -0.21658103168010712
vn 0.4945780336856842 0.8395473957061768 -0.22483940422534943
vn -0.48861342668533325 0.8552442789077759 -0.17266745865345
vn -0.8611222505569458 0.4978371262550354 -0.10308598726987839
vn -0.9996360540390015 -0.0035705044865608215 -0.026739679276943207
vn -0.8620233535766602 -0.5057277679443359 0.033989276736974716
vn -0.4914768636226654 -0.8686834573745728 0.06196345388889313
vn 0.008196760900318623 -0.9986922144889832 0.05046489089727402
vn 0.5044946074485779 -0.863407552242279 0.003541955491527915
vn 0.8643574714660645 -0.4985637366771698 -0.06573060154914856
vn 0.8647687435150146 -0.5015756487846375 -0.024430785328149796
vn 0.9903201460838318 -0.004464460536837578 -0.13872985541820526
vn 0.8529501557350159 0.483583003282547 -0.1965283751487732
vn 0.4945780336856842 0.8395473957061768 -0.22483940422534943
vn 0.8443496823310852 0.4955536127090454 -0.20371630787849426
vn 0.9856128096580505 0.013502384535968304 -0.1684788465499878
vn 0.486152708530426 0.840749204158783 -0.23831993341445923
vn 0.5069096684455872 -0.8526372909545898 -0.12669746577739716
vn 0.8651847243309021 -0.4812822937965393 -0.1407928764820099
vn 0.8533162474632263 0.5001328587532043 -0.1473720818758011
vn 0.9842752814292908 0.011631017550826073 -0.1762581616640091
vn 0.4942416250705719 0.8554476499557495 -0.15470783412456512
vn 0.8473069071769714 -0.4763565957546234 -0.23485201597213745
vn 0.482695072889328 -0.8205295205116272 -0.30616477131843567
vn 0.00673171179369092 -0.991209864616394 -0.13212768733501434
vn -0.49410057067871094 -0.8548038601875305 -0.15866619348526
vn -0.8532389998435974 -0.48292461037635803 -0.19689340889453888
vn -0.9722626209259033 0.013533317483961582 -0.23349995911121368
vn -0.8290989995002747 0.4947828948497772 -0.2603551745414734
vn -0.4712083637714386 0.8391959071159363 -0.2715010941028595
vn 0.007197523023933172 0.9646942615509033 -0.26327377557754517
vn 0.486152708530426 0.840749204158783 -0.23831993341445923
vn 0.005841074977070093 0.9808531403541565 -0.19466133415699005
vn 0.4942416250705719 0.8554476499557495 -0.15470783412456512
vn -0.47555726766586304 0.8412241339683533 -0.25726884603500366
vn -0.8136616945266724 0.48154640197753906 -0.32568031549453735
vn -0.9250891804695129 0.011671730317175388 -0.3795706033706665
vn -0.7945639491081238 -0.4500066637992859 -0.4076300263404846
vn -0.45572981238365173 -0.7928927540779114 -0.40451380610466003
vn 0.006476662587374449 -0.9296808838844299 -0.3683091700077057
vn -0.021358851343393326 0.9865190386772156 -0.16224658489227295
vn 0.4917883276939392 0.8631948828697205 -0.11418838053941727
vn -0.5099467039108276 0.8215953707695007 -0.2548239529132843
vn -0.8226496577262878 0.439353883266449 -0.36085405945777893
vn -0.8955590128898621 -0.021518222987651825 -0.4444221556186676
vn -0.7512267827987671 -0.44335615634918213 -0.4889719486236572
vn -0.4378163814544678 -0.7500715255737305 -0.4956909418106079
vn -0.016946999356150627 -0.8854039311408997 -0.4645134210586548
vn 0.4345836937427521 -0.810806393623352 -0.39208418130874634
vn 0.8122761249542236 -0.5066690444946289 -0.28895303606987
vn 0.9817419648170471 -0.02505853772163391 -0.18855974078178406
vn 0.8648354411125183 0.48642146587371826 -0.12431351840496063
vn 0.4917883276939392 0.8631948828697205 -0.11418838053941727
vt 0.75 1.0
vt 0.75 0.875
vt 0.8333333134651184 0.875
vt 0.8333333134651184 1.0
vt 0.9166666865348816 0.875
vt 0.9166666865348816 1.0
vt 0.6666665077209473 1.0
vt 0.6666665077209473 0.875
vt 0.5833332538604736 1.0
vt 0.5833332538604736 0.875
vt 0.49999991059303284 1.0
vt 0.49999991059303284 0.875
vt 0.41666659712791443 1.0
vt 0.41666659712791443 0.875
vt 0.3333333432674408 1.0
vt 0.3333333432674408 0.875
vt 0.2499999850988388 1.0
vt 0.2499999850988388 0.875
vt 0.1666666716337204 1.0
vt 0.1666666716337204 0.875
vt 0.08333335071802139 1.0
vt 0.08333335071802139 0.875
vt 3.794549385816026e-08 1.0
vt 3.794549385816026e-08 0.875
vt -0.08333331346511841 1.0
vt -0.08333331346511841 0.875
vt 3.794549385816026e-08 0.75
vt -0.08333331346511841 0.75
vt 0.08333335071802139 0.75
vt 0.1666666716337204 0.75
vt 0.2499999850988388 0.75
vt 0.3333333432674408 0.75
vt 0.41666659712791443 0.75
vt 0.49999991059303284 0.75
vt 0.5833332538604736 0.75
vt 0.6666665077209473 0.75
vt 0.75 0.75
vt 0.8333333134651184 0.75
vt 0.9166666865348816 0.75
vt 0.8333333134651184 0.6250000298023224
vt 0.75 0.6250000298023224
vt 0.9166666865348816 0.6250000298023224
vt 0.5833332538604736 0.6250000298023224
vt 0.49999991059303284 0.6250000298023224
vt 0.6666665077209473 0.6250000298023224
vt 0.8333333134651184 0.5
vt 0.75 0.5
vt 0.9166666865348816 0.5
vt 0.5833332538604736 0.5
vt 0.49999991059303284 0.5
vt 0.41666659712791443 0.6250000298023224
vt 0.3333333432674408 0.6250000298023224
vt 0.2499999850988388 0.6250000298023224
vt 0.1666666716337204 0.6250000298023224
vt 0.08333335071802139 0.6250000298023224
vt 3.794549385816026e-08 0.6250000298023224
vt -0.08333331346511841 0.6250000298023224
vt 3.794549385816026e-08 0.5
vt -0.08333331346511841 0.5
vt 0.08333335071802139 0.5
vt 0.1666666716337204 0.5
vt 0.2499999850988388 0.5
vt 0.3333333432674408 0.5
vt 0.41666659712791443 0.5
vt 3.794549385816026e-08 0.375
vt -0.08333331346511841 0.375
vt 0.08333335071802139 0.375
vt 0.1666666716337204 0.375
vt 0.2499999850988388 0.375
vt 0.3333333432674408 0.375
vt 0.41666659712791443 0.375
vt 0.49999991059303284 0.375
vt 0.5833332538604736 0.375
vt 0.6666665077209473 0.375
vt 0.6666665077209473 0.5
vt 0.75 0.375
vt 0.8333333134651184 0.375
vt 0.9166666865348816 0.375
vt 0.8333333134651184 0.2500000596046448
vt 0.75 0.2500000596046448
vt 0.9166666865348816 0.2500000596046448
vt 0.5833332538604736 0.2500000596046448
vt 0.6666665077209473 0.2500000596046448
vt 0.8333333134651184 0.125
vt 0.75 0.125
vt 0.9166666865348816 0.125
vt 0.6666665077209473 0.125
vt 0.5833332538604736 0.125
vt 0.49999991059303284 0.2500000596046448
vt 0.41666659712791443 0.2500000596046448
vt 0.3333333432674408 0.2500000596046448
vt 0.2499999850988388 0.2500000596046448
vt 0.1666666716337204 0.2500000596046448
vt 0.08333335071802139 0.2500000596046448
vt 3.794549385816026e-08 0.2500000596046448
vt -0.08333331346511841 0.2500000596046448
vt 3.794549385816026e-08 0.125
vt -0.08333331346511841 0.125
vt 0.08333335071802139 0.125
vt 0.1666666716337204 0.125
vt 0.2499999850988388 0.125
vt 0.3333333432674408 0.125
vt 0.41666659712791443 0.125
vt 0.49999991059303284 0.125
vt 3.794549385816026e-08 0.0
vt -0.08333331346511841 0.0
vt 0.08333335071802139 0.0
vt 0.1666666716337204 0.0
vt 0.2499999850988388 0.0
vt 0.3333333432674408 0.0
vt 0.41666659712791443 0.0
vt 0.49999991059303284 0.0
vt 0.5833332538604736 0.0
vt 0.6666665077209473 0.0
vt 0.75 0.0
vt 0.8333333134651184 0.0
vt 0.9166666865348816 0.0

g eff_mdl_wind15
s 1
usemtl eff_mdl_wind15
f 3/3/3 2/2/2 1/1/1 
f 4/4/4 3/3/3 1/1/1 
f 5/5/5 3/3/3 4/4/4 
f 6/6/6 5/5/5 4/4/4 
f 1/1/1 2/2/2 7/7/7 
f 2/2/2 8/8/8 7/7/7 
f 7/7/7 8/8/8 9/9/9 
f 8/8/8 10/10/10 9/9/9 
f 9/9/9 10/10/10 11/11/11 
f 10/10/10 12/12/12 11/11/11 
f 11/11/11 12/12/12 13/13/13 
f 12/12/12 14/14/14 13/13/13 
f 13/13/13 14/14/14 15/15/15 
f 14/14/14 16/16/16 15/15/15 
f 15/15/15 16/16/16 17/17/17 
f 16/16/16 18/18/18 17/17/17 
f 17/17/17 18/18/18 19/19/19 
f 18/18/18 20/20/20 19/19/19 
f 19/19/19 20/20/20 21/21/21 
f 20/20/20 22/22/22 21/21/21 
f 21/21/21 22/22/22 23/23/23 
f 22/22/22 24/24/24 23/23/23 
f 23/23/23 24/24/24 25/25/25 
f 24/24/24 26/26/26 25/25/25 
f 24/24/24 27/27/27 26/26/26 
f 27/27/27 28/28/28 26/26/26 
f 29/29/29 27/27/27 24/24/24 
f 22/22/22 29/29/29 24/24/24 
f 30/30/30 29/29/29 22/22/22 
f 20/20/20 30/30/30 22/22/22 
f 31/31/31 30/30/30 20/20/20 
f 18/18/18 31/31/31 20/20/20 
f 32/32/32 31/31/31 18/18/18 
f 16/16/16 32/32/32 18/18/18 
f 33/33/33 32/32/32 16/16/16 
f 14/14/14 33/33/33 16/16/16 
f 34/34/34 33/33/33 14/14/14 
f 12/12/12 34/34/34 14/14/14 
f 35/35/35 34/34/34 12/12/12 
f 10/10/10 35/35/35 12/12/12 
f 36/36/36 35/35/35 10/10/10 
f 8/8/8 36/36/36 10/10/10 
f 37/37/37 36/36/36 8/8/8 
f 2/2/2 37/37/37 8/8/8 
f 38/38/38 37/37/37 2/2/2 
f 3/3/3 38/38/38 2/2/2 
f 39/39/39 38/38/38 3/3/3 
f 5/5/5 39/39/39 3/3/3 
f 38/38/38 40/40/40 37/37/37 
f 40/40/40 41/41/41 37/37/37 
f 37/37/37 41/41/41 36/36/36 
f 42/42/42 40/40/40 38/38/38 
f 39/39/39 42/42/42 38/38/38 
f 35/35/35 43/43/43 34/34/34 
f 43/43/43 44/44/44 34/34/34 
f 45/45/45 43/43/43 35/35/35 
f 36/36/36 45/45/45 35/35/35 
f 41/41/41 45/45/45 36/36/36 
f 40/40/40 46/46/46 41/41/41 
f 46/46/46 47/47/47 41/41/41 
f 41/41/41 47/47/47 45/45/45 
f 48/48/48 46/46/46 40/40/40 
f 42/42/42 48/48/48 40/40/40 
f 43/43/43 49/49/49 44/44/44 
f 49/49/49 50/50/50 44/44/44 
f 44/44/44 50/50/50 51/51/51 
f 44/44/44 51/51/51 33/33/33 
f 33/33/33 51/51/51 32/32/32 
f 51/51/51 52/52/52 32/32/32 
f 32/32/32 52/52/52 31/31/31 
f 52/52/52 53/53/53 31/31/31 
f 31/31/31 53/53/53 30/30/30 
f 53/53/53 54/54/54 30/30/30 
f 30/30/30 54/54/54 29/29/29 
f 54/54/54 55/55/55 29/29/29 
f 29/29/29 55/55/55 27/27/27 
f 55/55/55 56/56/56 27/27/27 
f 27/27/27 56/56/56 28/28/28 
f 56/56/56 57/57/57 28/28/28 
f 56/56/56 58/58/58 57/57/57 
f 58/58/58 59/59/59 57/57/57 
f 60/60/60 58/58/58 56/56/56 
f 55/55/55 60/60/60 56/56/56 
f 61/61/61 60/60/60 55/55/55 
f 54/54/54 61/61/61 55/55/55 
f 62/62/62 61/61/61 54/54/54 
f 53/53/53 62/62/62 54/54/54 
f 63/63/63 62/62/62 53/53/53 
f 52/52/52 63/63/63 53/53/53 
f 64/64/64 63/63/63 52/52/52 
f 51/51/51 64/64/64 52/52/52 
f 50/50/50 64/64/64 51/51/51 
f 58/58/58 65/65/65 59/59/59 
f 65/65/65 66/66/66 59/59/59 
f 67/67/67 65/65/65 58/58/58 
f 60/60/60 67/67/67 58/58/58 
f 68/68/68 67/67/67 60/60/60 
f 61/61/61 68/68/68 60/60/60 
f 69/69/69 68/68/68 61/61/61 
f 62/62/62 69/69/69 61/61/61 
f 70/70/70 69/69/69 62/62/62 
f 63/63/63 70/70/70 62/62/62 
f 71/71/71 70/70/70 63/63/63 
f 64/64/64 71/71/71 63/63/63 
f 72/72/72 71/71/71 64/64/64 
f 50/50/50 72/72/72 64/64/64 
f 73/73/73 72/72/72 50/50/50 
f 49/49/49 73/73/73 50/50/50 
f 74/74/74 73/73/73 49/49/49 
f 75/75/75 74/74/74 49/49/49 
f 75/75/75 49/49/49 43/43/43 
f 45/45/45 75/75/75 43/43/43 
f 47/47/47 75/75/75 45/45/45 
f 76/76/76 74/74/74 75/75/75 
f 47/47/47 76/76/76 75/75/75 
f 77/77/77 76/76/76 47/47/47 
f 46/46/46 77/77/77 47/47/47 
f 78/78/78 77/77/77 46/46/46 
f 48/48/48 78/78/78 46/46/46 
f 77/77/77 79/79/79 76/76/76 
f 79/79/79 80/80/80 76/76/76 
f 76/76/76 80/80/80 74/74/74 
f 81/81/81 79/79/79 77/77/77 
f 78/78/78 81/81/81 77/77/77 
f 73/73/73 82/82/82 72/72/72 
f 83/83/83 82/82/82 73/73/73 
f 80/80/80 83/83/83 74/74/74 
f 74/74/74 83/83/83 73/73/73 
f 79/79/79 84/84/84 80/80/80 
f 84/84/84 85/85/85 80/80/80 
f 80/80/80 85/85/85 83/83/83 
f 86/86/86 84/84/84 79/79/79 
f 81/81/81 86/86/86 79/79/79 
f 83/83/83 87/87/87 82/82/82 
f 85/85/85 87/87/87 83/83/83 
f 87/87/87 88/88/88 82/82/82 
f 82/82/82 88/88/88 89/89/89 
f 82/82/82 89/89/89 72/72/72 
f 72/72/72 89/89/89 71/71/71 
f 89/89/89 90/90/90 71/71/71 
f 71/71/71 90/90/90 70/70/70 
f 90/90/90 91/91/91 70/70/70 
f 70/70/70 91/91/91 69/69/69 
f 91/91/91 92/92/92 69/69/69 
f 69/69/69 92/92/92 68/68/68 
f 92/92/92 93/93/93 68/68/68 
f 68/68/68 93/93/93 67/67/67 
f 93/93/93 94/94/94 67/67/67 
f 67/67/67 94/94/94 65/65/65 
f 94/94/94 95/95/95 65/65/65 
f 65/65/65 95/95/95 66/66/66 
f 95/95/95 96/96/96 66/66/66 
f 95/95/95 97/97/97 96/96/96 
f 97/97/97 98/98/98 96/96/96 
f 99/99/99 97/97/97 95/95/95 
f 94/94/94 99/99/99 95/95/95 
f 100/100/100 99/99/99 94/94/94 
f 93/93/93 100/100/100 94/94/94 
f 101/101/101 100/100/100 93/93/93 
f 92/92/92 101/101/101 93/93/93 
f 102/102/102 101/101/101 92/92/92 
f 91/91/91 102/102/102 92/92/92 
f 103/103/103 102/102/102 91/91/91 
f 90/90/90 103/103/103 91/91/91 
f 104/104/104 103/103/103 90/90/90 
f 89/89/89 104/104/104 90/90/90 
f 88/88/88 104/104/104 89/89/89 
f 97/97/97 105/105/105 98/98/98 
f 105/105/105 106/106/106 98/98/98 
f 107/107/107 105/105/105 97/97/97 
f 99/99/99 107/107/107 97/97/97 
f 108/108/108 107/107/107 99/99/99 
f 100/100/100 108/108/108 99/99/99 
f 109/109/109 108/108/108 100/100/100 
f 101/101/101 109/109/109 100/100/100 
f 110/110/110 109/109/109 101/101/101 
f 102/102/102 110/110/110 101/101/101 
f 111/111/111 110/110/110 102/102/102 
f 103/103/103 111/111/111 102/102/102 
f 112/112/112 111/111/111 103/103/103 
f 104/104/104 112/112/112 103/103/103 
f 113/113/113 112/112/112 104/104/104 
f 88/88/88 113/113/113 104/104/104 
f 114/114/114 113/113/113 88/88/88 
f 87/87/87 114/114/114 88/88/88 
f 115/115/115 114/114/114 87/87/87 
f 85/85/85 115/115/115 87/87/87 
f 116/116/116 115/115/115 85/85/85 
f 84/84/84 116/116/116 85/85/85 
f 117/117/117 116/116/116 84/84/84 
f 86/86/86 117/117/117 84/84/84 
f 34/34/34 44/44/44 33/33/33 


