v -1.0877425626887316e-09 0.09859610348939896 0.0
v -0.04929805546998978 0.0853867307305336 0.0
v -0.0426933653652668 0.0853867307305336 -0.024649037048220634
v -0.0853867381811142 0.04929805174469948 -9.53674295089968e-09
v -0.07394707947969437 0.04929805174469948 -0.04269339144229889
v -0.07394710183143616 0.04929805174469948 0.042693350464105606
v -0.042693380266427994 0.0853867307305336 0.024649018421769142
v -1.0877425626887316e-09 0.09859610348939896 0.0
v -0.042693398892879486 0.04929805546998978 0.07394706457853317
v -0.024649042636156082 0.0853867307305336 0.0426933616399765
v -1.0877425626887316e-09 0.09859610348939896 0.0
v -2.7225610210734885e-08 0.04929804801940918 0.0853867381811142
v -1.6478123754382068e-08 0.0853867307305336 0.04929805174469948
v -1.0877425626887316e-09 0.09859610348939896 0.0
v -0.09859610348939896 -3.880834320568738e-09 -1.2015814121468793e-08
v -0.085386723279953 -4.76837147544984e-09 -0.049298085272312164
v -0.08538675308227539 -4.76837147544984e-09 0.049298036843538284
v -0.04929808899760246 0.0 0.0853867158293724
v -3.186850960901211e-08 0.0 0.09859610348939896
v -0.0853867307305336 -0.04929806664586067 -9.53674295089968e-09
v -0.07394707202911377 -0.04929807037115097 -0.04269339144229889
v -0.07394710183143616 -0.04929806664586067 0.0426933579146862
v -0.042693398892879486 -0.04929806664586067 0.07394706457853317
v -2.7225610210734885e-08 -0.04929806664586067 0.0853867307305336
v -0.04929807037115097 -0.0853867307305336 0.0
v -0.042693376541137695 -0.0853867307305336 -0.024649042636156082
v -0.04269338399171829 -0.0853867307305336 0.02464902773499489
v -0.02464904449880123 -0.0853867307305336 0.0426933653652668
v -1.6478127307095747e-08 -0.0853867307305336 0.04929806664586067
v -1.0877425626887316e-09 -0.09859610348939896 0.0
v -1.0877425626887316e-09 -0.09859610348939896 0.0
v -1.0877425626887316e-09 -0.09859610348939896 0.0
v -1.0877425626887316e-09 -0.09859610348939896 0.0
v -1.0877425626887316e-09 0.09859610348939896 0.0
v 0.024649037048220634 0.0853867307305336 -0.0426933653652668
v 0.042693376541137695 0.0853867307305336 -0.024649009108543396
v 0.04269338399171829 0.04929805174469948 -0.07394707947969437
v 0.07394710183143616 0.04929805174469948 -0.042693350464105606
v 2.0924435517599704e-08 0.04929805174469948 -0.0853867307305336
v 1.4635241463167858e-08 0.0853867307305336 -0.04929805546998978
v -1.0877425626887316e-09 0.09859610348939896 0.0
v -0.04269334301352501 0.04929805174469948 -0.07394708693027496
v -0.024649007245898247 0.0853867307305336 -0.0426933653652668
v -1.0877425626887316e-09 0.09859610348939896 0.0
v -0.07394707947969437 0.04929805174469948 -0.04269339144229889
v -0.0426933653652668 0.0853867307305336 -0.024649037048220634
v -1.0877425626887316e-09 0.09859610348939896 0.0
v 0.04929807037115097 0.0 -0.0853867307305336
v 0.08538676053285599 -4.76837147544984e-09 -0.04929802939295769
v 3.035822970787194e-08 0.0 -0.09859610348939896
v -0.04929801821708679 0.0 -0.08538675308227539
v -0.085386723279953 -4.76837147544984e-09 -0.049298085272312164
v 0.042693380266427994 -0.04929806664586067 -0.07394706457853317
v 0.07394709438085556 -0.04929806664586067 -0.04269333928823471
v 2.4069032988904837e-08 -0.04929806664586067 -0.0853867307305336
v -0.04269334301352501 -0.04929806664586067 -0.07394709438085556
v -0.07394707202911377 -0.04929807037115097 -0.04269339144229889
v 0.024649042636156082 -0.0853867307305336 -0.0426933690905571
v 0.042693380266427994 -0.0853867307305336 -0.024649014696478844
v 1.4635241463167858e-08 -0.0853867307305336 -0.04929806664586067
v -0.024649014696478844 -0.0853867307305336 -0.042693380266427994
v -0.042693376541137695 -0.0853867307305336 -0.024649042636156082
v -1.0877425626887316e-09 -0.09859610348939896 0.0
v -1.0877425626887316e-09 -0.09859610348939896 0.0
v -1.0877425626887316e-09 -0.09859610348939896 0.0
v -1.0877425626887316e-09 -0.09859610348939896 0.0
v -1.0877425626887316e-09 0.09859610348939896 0.0
v 0.024649018421769142 0.0853867307305336 0.042693380266427994
v -1.6478123754382068e-08 0.0853867307305336 0.04929805174469948
v 0.04269334673881531 0.04929805174469948 0.07394710928201675
v -2.7225610210734885e-08 0.04929804801940918 0.0853867381811142
v 0.07394705712795258 0.04929805174469948 0.042693398892879486
v 0.042693350464105606 0.0853867307305336 0.02464904822409153
v -1.0877425626887316e-09 0.09859610348939896 0.0
v 0.0853867307305336 0.04929805174469948 4.291534239087014e-08
v 0.04929804801940918 0.0853867307305336 2.8610228852699038e-08
v -1.0877425626887316e-09 0.09859610348939896 0.0
v 0.07394710183143616 0.04929805174469948 -0.042693350464105606
v 0.042693376541137695 0.0853867307305336 -0.024649009108543396
v -1.0877425626887316e-09 0.09859610348939896 0.0
v 0.049298033118247986 0.0 0.08538675308227539
v -3.186850960901211e-08 0.0 0.09859610348939896
v 0.0853867158293724 -4.76837147544984e-09 0.049298085272312164
v 0.09859610348939896 -3.880836541014787e-09 4.689614740982506e-08
v 0.08538676053285599 -4.76837147544984e-09 -0.04929802939295769
v 0.04269334301352501 -0.04929806664586067 0.07394709438085556
v -2.7225610210734885e-08 -0.04929806664586067 0.0853867307305336
v 0.07394705712795258 -0.04929806664586067 0.04269339516758919
v 0.0853867307305336 -0.04929806664586067 4.291534239087014e-08
v 0.07394709438085556 -0.04929806664586067 -0.04269333928823471
v 0.024649018421769142 -0.0853867307305336 0.04269338399171829
v -1.6478127307095747e-08 -0.0853867307305336 0.04929806664586067
v 0.0426933616399765 -0.0853867307305336 0.02464904822409153
v 0.049298062920570374 -0.0853867307305336 2.8610228852699038e-08
v 0.042693380266427994 -0.0853867307305336 -0.024649014696478844
v -1.0877425626887316e-09 -0.09859610348939896 0.0
v -1.0877425626887316e-09 -0.09859610348939896 0.0
v -1.0877425626887316e-09 -0.09859610348939896 0.0
v -1.0877425626887316e-09 -0.09859610348939896 0.0
v -0.0048851678147912025 0.13995425403118134 0.028895515948534012
v -0.0489824041724205 0.11715936660766602 0.07498157024383545
v -0.06708329170942307 0.11715936660766602 0.04491516575217247
v -0.09233566373586655 0.05488264560699463 0.08389493823051453
v -0.04602788761258125 0.05488262698054314 0.12327113747596741
v -0.06023194268345833 -0.030188964679837227 0.1200733557343483
v 0.007565636653453112 -0.030188964679837227 0.13823968172073364
v -0.005173566285520792 -0.11526058614253998 0.10516399145126343
v 0.05461824685335159 -0.11526058614253998 0.09421712905168533
v 0.02977156825363636 -0.17753730714321136 0.036421313881874084
v -0.0048851678147912025 0.13605518639087677 0.028895515948534012
v -0.05073807016015053 0.11788889020681381 -0.02088257111608982
v -0.020671647042036057 0.11788889020681381 -0.03898347169160843
v -0.062428176403045654 0.06825761497020721 -0.0794592872262001
v -0.10180436819791794 0.06825762242078781 -0.03315150365233421
v -0.10986314713954926 0.00046005158219486475 -0.06515303999185562
v -0.1280294507741928 0.0004600527754519135 0.0026445507537573576
v -0.11275127530097961 -0.0673375353217125 -0.021351205185055733
v -0.10180436819791794 -0.0673375278711319 0.03844061866402626
v -0.05923200026154518 -0.11696876585483551 0.01081718411296606
v -0.0048851678147912025 0.1940591186285019 0.028895515948534012
v 0.045126114040613174 0.17126424610614777 -0.022638235241174698
v 0.035486310720443726 0.15824677050113678 0.007428167853504419
v 0.07318536937236786 0.09597006440162659 -0.04955181106925011
v 0.05461828410625458 0.10898751020431519 -0.0889279916882515
v 0.04762258753180504 0.01089846808463335 -0.11478425562381744
v 0.007565722335129976 0.02391592040657997 -0.1329505741596222
v -0.013976726680994034 -0.07417315989732742 -0.12892888486385345
v -0.04602784663438797 -0.061155710369348526 -0.11798202246427536
v -0.047498200088739395 -0.12994112074375153 -0.07818640768527985
v 0.054680366069078445 -0.09083955734968185 1.668930060816365e-08
v -9.495032315953722e-09 -0.09083953499794006 0.05468034744262695
v 3.744219156942563e-09 -0.06518009305000305 0.0
v 2.547272259789679e-08 -0.06518009305000305 1.192092824453539e-08
v 0.054680366069078445 -0.09083955734968185 1.668930060816365e-08
v 3.744219156942563e-09 -0.06518009305000305 0.0
v 3.925983449448722e-08 -0.06518009305000305 -1.192092824453539e-08
v 3.099696144204245e-08 -0.09083953499794006 -0.05468036234378815
v 1.593598319971079e-08 -0.06518009305000305 -2.384185648907078e-08
v -0.05468033626675606 -0.09083952754735947 -2.6226043559063328e-08
v -9.495032315953722e-09 -0.09083953499794006 0.05468034744262695
v 0.04461097717285156 -0.12832073867321014 1.4305114426349519e-08
v -1.7643051464233395e-08 -0.12832072377204895 0.04461097717285156
v -9.495032315953722e-09 -0.09083953499794006 0.05468034744262695
v 0.054680366069078445 -0.09083955734968185 1.668930060816365e-08
v -9.495032315953722e-09 -0.09083953499794006 0.05468034744262695
v 1.559943463291802e-08 -0.12832072377204895 -0.04461098089814186
v 3.099696144204245e-08 -0.09083953499794006 -0.05468036234378815
v -0.04461097717285156 -0.12832070887088776 -2.145767119543507e-08
v -0.05468033626675606 -0.09083952754735947 -2.6226043559063328e-08
v -1.7643051464233395e-08 -0.12832072377204895 0.04461097717285156
v -9.495032315953722e-09 -0.09083953499794006 0.05468034744262695
v 0.02334798499941826 -0.13916011154651642 1.4305114426349519e-08
v -1.860737874892493e-08 -0.13916011154651642 0.02334798499941826
v -1.7643051464233395e-08 -0.12832072377204895 0.04461097717285156
v 0.04461097717285156 -0.12832073867321014 1.4305114426349519e-08
v 1.1358783247317206e-08 -0.13916011154651642 -0.023347992449998856
v 1.559943463291802e-08 -0.12832072377204895 -0.04461098089814186
v -0.023347990587353706 -0.13916009664535522 -1.907348590179936e-08
v -0.04461097717285156 -0.12832070887088776 -2.145767119543507e-08
v -1.860737874892493e-08 -0.13916011154651642 0.02334798499941826
v -1.7643051464233395e-08 -0.12832072377204895 0.04461097717285156
v -1.860737874892493e-08 -0.13916011154651642 0.02334798499941826
v 0.038584887981414795 -0.16200944781303406 1.192092824453539e-08
v -2.381033503695562e-08 -0.16200943291187286 0.03858489543199539
v -1.860737874892493e-08 -0.13916011154651642 0.02334798499941826
v 0.02334798499941826 -0.13916011154651642 1.4305114426349519e-08
v 3.3917785247084e-10 -0.16200943291187286 -0.03858489915728569
v 1.1358783247317206e-08 -0.13916011154651642 -0.023347992449998856
v -0.03858490660786629 -0.16200943291187286 -1.4305114426349519e-08
v -0.023347990587353706 -0.13916009664535522 -1.907348590179936e-08
v -2.381033503695562e-08 -0.16200943291187286 0.03858489543199539
v -1.860737874892493e-08 -0.13916011154651642 0.02334798499941826
v 0.015666412189602852 -0.18760748207569122 1.192092824453539e-08
v -3.1363647678972484e-08 -0.18760748207569122 0.015666432678699493
v -2.381033503695562e-08 -0.16200943291187286 0.03858489543199539
v 0.038584887981414795 -0.16200944781303406 1.192092824453539e-08
v -6.785711548218387e-09 -0.18760748207569122 -0.015666432678699493
v 3.3917785247084e-10 -0.16200943291187286 -0.03858489915728569
v -0.015666451305150986 -0.18760748207569122 -1.192092824453539e-08
v -0.03858490660786629 -0.16200943291187286 -1.4305114426349519e-08
v -3.1363647678972484e-08 -0.18760748207569122 0.015666432678699493
v -2.381033503695562e-08 -0.16200943291187286 0.03858489543199539
v 0.0225355364382267 -0.2032335251569748 1.192092824453539e-08
v -3.556494831968848e-08 -0.2032335102558136 0.02253555692732334
v -3.1363647678972484e-08 -0.18760748207569122 0.015666432678699493
v 0.015666412189602852 -0.18760748207569122 1.192092824453539e-08
v -1.3368151030590525e-08 -0.2032335251569748 -0.02253555692732334
v -6.785711548218387e-09 -0.18760748207569122 -0.015666432678699493
v -0.02253558114171028 -0.2032335102558136 -1.192092824453539e-08
v -0.015666451305150986 -0.18760748207569122 -1.192092824453539e-08
v -3.556494831968848e-08 -0.2032335102558136 0.02253555692732334
v -3.1363647678972484e-08 -0.18760748207569122 0.015666432678699493
v -6.960284792967286e-08 -0.3268011808395386 -4.76837147544984e-09
v -5.3783317355282634e-08 -0.3268011808395386 0.0
v -3.556494831968848e-08 -0.2032335102558136 0.02253555692732334
v -7.37065732892006e-08 -0.3268011808395386 1.192092824453539e-08
v 0.0225355364382267 -0.2032335251569748 1.192092824453539e-08
v -6.006610675513002e-08 -0.3268011808395386 1.668930060816365e-08
v -1.3368151030590525e-08 -0.2032335251569748 -0.02253555692732334
v -0.02253558114171028 -0.2032335102558136 -1.192092824453539e-08
v 0.0225355364382267 -0.2032335251569748 1.192092824453539e-08
v -6.960284792967286e-08 -0.3268011808395386 -4.76837147544984e-09
v -3.556494831968848e-08 -0.2032335102558136 0.02253555692732334
v -1.3368151030590525e-08 -0.2032335251569748 -0.02253555692732334
v -7.37065732892006e-08 -0.3268011808395386 1.192092824453539e-08
v -0.02253558114171028 -0.2032335102558136 -1.192092824453539e-08
v -6.006610675513002e-08 -0.3268011808395386 1.668930060816365e-08
v -3.556494831968848e-08 -0.2032335102558136 0.02253555692732334
v -5.3783317355282634e-08 -0.3268011808395386 0.0
v 3.099696144204245e-08 -0.09083953499794006 -0.05468036234378815
v 0.054680366069078445 -0.09083955734968185 1.668930060816365e-08
v 2.547272259789679e-08 -0.06518009305000305 1.192092824453539e-08
v -0.05468033626675606 -0.09083952754735947 -2.6226043559063328e-08
v 3.925983449448722e-08 -0.06518009305000305 -1.192092824453539e-08
v -9.495032315953722e-09 -0.09083953499794006 0.05468034744262695
v -0.05468033626675606 -0.09083952754735947 -2.6226043559063328e-08
v 1.593598319971079e-08 -0.06518009305000305 -2.384185648907078e-08
vn -0.0 1.0 0.0
vn -0.5308997631072998 0.8474346399307251 0.0
vn -0.45977258682250977 0.8474345207214355 -0.2654500901699066
vn -0.8759832382202148 0.4823416471481323 -1.5695208332999755e-07
vn -0.7586235404014587 0.4823416769504547 -0.4379919171333313
vn -0.7586238384246826 0.48234161734580994 0.4379914104938507
vn -0.4597727954387665 0.8474346399307251 0.26544976234436035
vn -0.0 1.0 0.0
vn -0.4379919171333313 0.4823416769504547 0.7586235404014587
vn -0.26544997096061707 0.8474346399307251 0.45977264642715454
vn -0.0 1.0 0.0
vn -3.819167488927633e-07 0.4823415279388428 0.8759832382202148
vn -2.1812884654082154e-07 0.8474346399307251 0.5308997631072998
vn -0.0 1.0 0.0
vn -1.0 0.0 -2.145866488945103e-07
vn -0.8660252690315247 0.0 -0.5000002980232239
vn -0.8660255074501038 0.0 0.4999997317790985
vn -0.5000002384185791 0.0 0.8660252690315247
vn -4.000319790975482e-07 0.0 1.0
vn -0.8759832382202148 -0.4823415279388428 -1.5695206911914283e-07
vn -0.7586235404014587 -0.4823416769504547 -0.43799176812171936
vn -0.7586238384246826 -0.4823416769504547 0.4379914402961731
vn -0.437991738319397 -0.48234155774116516 0.7586236596107483
vn -2.9428514380924753e-07 -0.4823415279388428 0.8759832382202148
vn -0.5308998227119446 -0.8474345207214355 0.0
vn -0.45977261662483215 -0.8474346399307251 -0.26545006036758423
vn -0.4597727060317993 -0.8474346399307251 0.2654498815536499
vn -0.2654499411582947 -0.8474346399307251 0.45977261662483215
vn -1.9022866126761073e-07 -0.8474346399307251 0.5308998227119446
vn -0.0 -1.0 0.0
vn -0.0 -1.0 0.0
vn -0.0 -1.0 0.0
vn -0.0 -1.0 0.0
vn -0.0 1.0 0.0
vn 0.26545006036758423 0.8474345207214355 -0.4597727060317993
vn 0.45977285504341125 0.8474345207214355 -0.2654496133327484
vn 0.43799176812171936 0.4823417067527771 -0.7586235404014587
vn 0.7586238384246826 0.4823417067527771 -0.43799132108688354
vn -0.0 0.4823416471481323 -0.8759832382202148
vn -0.0 0.8474345207214355 -0.5308998823165894
vn -0.0 1.0 0.0
vn -0.43799135088920593 0.4823416769504547 -0.7586238384246826
vn -0.26544976234436035 0.8474346399307251 -0.4597727954387665
vn -0.0 1.0 0.0
vn -0.7586235404014587 0.4823416769504547 -0.4379919171333313
vn -0.45977258682250977 0.8474345207214355 -0.2654500901699066
vn -0.0 1.0 0.0
vn 0.5000001192092896 0.0 -0.8660253286361694
vn 0.8660256266593933 0.0 -0.49999961256980896
vn 2.2253432518937188e-07 0.0 -1.0
vn -0.49999964237213135 0.0 -0.8660256266593933
vn -0.8660252690315247 0.0 -0.5000002980232239
vn 0.43799176812171936 -0.4823417663574219 -0.758623480796814
vn 0.7586238980293274 -0.4823417067527771 -0.43799126148223877
vn 2.223487740593555e-07 -0.4823416769504547 -0.8759832382202148
vn -0.437991201877594 -0.48234161734580994 -0.7586238980293274
vn -0.7586235404014587 -0.4823416769504547 -0.43799176812171936
vn 0.2654500901699066 -0.8474345207214355 -0.45977264642715454
vn 0.4597727954387665 -0.8474346399307251 -0.2654496431350708
vn 1.116007979362621e-07 -0.8474345207214355 -0.5308998227119446
vn -0.2654496729373932 -0.8474346399307251 -0.4597727656364441
vn -0.45977261662483215 -0.8474346399307251 -0.26545006036758423
vn -0.0 -1.0 0.0
vn -0.0 -1.0 0.0
vn -0.0 -1.0 0.0
vn -0.0 -1.0 0.0
vn -0.0 1.0 0.0
vn 0.26544973254203796 0.8474346399307251 0.4597727954387665
vn -2.1812884654082154e-07 0.8474346399307251 0.5308997631072998
vn 0.43799135088920593 0.48234161734580994 0.7586238980293274
vn -3.819167488927633e-07 0.4823415279388428 0.8759832382202148
vn 0.758623480796814 0.4823416769504547 0.4379918575286865
vn 0.45977264642715454 0.8474345207214355 0.26544997096061707
vn -0.0 1.0 0.0
vn 0.8759832382202148 0.4823416769504547 4.7608807562937727e-07
vn 0.5308997631072998 0.8474346399307251 2.8914757876918884e-07
vn -0.0 1.0 0.0
vn 0.7586238384246826 0.4823417067527771 -0.43799132108688354
vn 0.45977285504341125 0.8474345207214355 -0.2654496133327484
vn -0.0 1.0 0.0
vn 0.49999964237213135 0.0 0.8660256266593933
vn -4.000319790975482e-07 0.0 1.0
vn 0.8660252690315247 0.0 0.5000002384185791
vn 1.0 0.0 5.165976517673698e-07
vn 0.8660256266593933 0.0 -0.49999961256980896
vn 0.43799129128456116 -0.48234161734580994 0.7586238980293274
vn -2.9428514380924753e-07 -0.4823415279388428 0.8759832382202148
vn 0.758623480796814 -0.4823416769504547 0.4379919171333313
vn 0.8759832382202148 -0.4823416471481323 3.963040171583998e-07
vn 0.7586238980293274 -0.4823417067527771 -0.43799126148223877
vn 0.26544979214668274 -0.8474346399307251 0.4597727656364441
vn -1.9022866126761073e-07 -0.8474346399307251 0.5308998227119446
vn 0.45977261662483215 -0.8474346399307251 0.26545006036758423
vn 0.5308997631072998 -0.8474346399307251 2.447608551392477e-07
vn 0.4597727954387665 -0.8474346399307251 -0.2654496431350708
vn -0.0 -1.0 0.0
vn -0.0 -1.0 0.0
vn -0.0 -1.0 0.0
vn -0.0 -1.0 0.0
vn -0.29754000902175903 0.937754213809967 0.17912809550762177
vn -0.5524024367332458 0.7249789237976074 0.41140860319137573
vn -0.5309603214263916 0.7847943305969238 0.3196542263031006
vn -0.6407293081283569 0.35164517164230347 0.6825040578842163
vn -0.5525748133659363 0.21167559921741486 0.8061355948448181
vn -0.3464938998222351 -0.09187430888414383 0.9335422515869141
vn -0.16997981071472168 -0.2279074341058731 0.958730936050415
vn 0.06529851257801056 -0.4866405129432678 0.8711584806442261
vn 0.147279754281044 -0.5754833221435547 0.8044424057006836
vn 0.12831881642341614 -0.701644241809845 0.7008777856826782
vn -0.1363069862127304 0.9644469618797302 -0.22641216218471527
vn -0.3218838572502136 0.8461316227912903 -0.4247966408729553
vn -0.24942199885845184 0.8752960562705994 -0.414301335811615
vn -0.5936192274093628 0.5825794339179993 -0.5551732182502747
vn -0.744523286819458 0.4629019796848297 -0.481047660112381
vn -0.92094886302948 0.15142682194709778 -0.3590586185455322
vn -0.9881056547164917 -0.044972680509090424 -0.14705361425876617
vn -0.9238728880882263 -0.38087019324302673 0.03737301006913185
vn -0.8427119255065918 -0.5157832503318787 0.15428678691387177
vn -0.7152913808822632 -0.6864460706710815 0.1309581696987152
vn 0.7136593461036682 0.5298427939414978 0.4582107365131378
vn 0.8871334791183472 0.3493468761444092 0.30158087611198425
vn 0.800952136516571 0.41146039962768555 0.4349437355995178
vn 0.9314448237419128 0.2577632665634155 -0.25684332847595215
vn 0.8698183298110962 0.2144421488046646 -0.44433167576789856
vn 0.5074878334999084 0.052241548895835876 -0.8600738048553467
vn 0.3423458933830261 0.026430709287524223 -0.9392021298408508
vn -0.286862850189209 -0.1946396827697754 -0.9379898905754089
vn -0.39384496212005615 -0.21900111436843872 -0.8927064538002014
vn -0.4453064501285553 -0.4412340521812439 -0.7791114449501038
vn 0.42481452226638794 0.9052804112434387 0.0
vn 1.8479022401152179e-07 0.9052805304527283 0.42481425404548645
vn -0.7687299251556396 -0.635216474533081 0.07452721893787384
vn 0.06345411390066147 -0.6755149364471436 0.734610915184021
vn 0.42481452226638794 0.9052804112434387 0.0
vn -0.7687299251556396 -0.635216474533081 0.07452721893787384
vn 0.7184059023857117 -0.6925830245018005 -0.06497416645288467
vn 2.587063079317886e-07 0.9052805304527283 -0.42481422424316406
vn -0.07847018539905548 -0.6287369728088379 -0.773648738861084
vn -0.42481404542922974 0.905280590057373 0.0
vn 1.8479022401152179e-07 0.9052805304527283 0.42481425404548645
vn 0.9657559394836426 -0.25945210456848145 5.192799221731548e-07
vn -4.7207259967763093e-07 -0.25945162773132324 0.9657559990882874
vn -4.4829863554696203e-07 -0.25945162773132324 0.9657559990882874
vn 0.9657559394836426 -0.25945207476615906 3.7358211102400674e-07
vn -4.4829863554696203e-07 -0.25945162773132324 0.9657559990882874
vn 2.8324356549092045e-07 -0.25945180654525757 -0.9657559990882874
vn 3.43695631954688e-07 -0.2594517767429352 -0.9657559990882874
vn -0.9657561182975769 -0.25945138931274414 -4.2486541929065424e-07
vn -0.9657561182975769 -0.25945135951042175 -2.9886570018788916e-07
vn -4.7207259967763093e-07 -0.25945162773132324 0.9657559990882874
vn -4.4829863554696203e-07 -0.25945162773132324 0.9657559990882874
vn 0.45416808128356934 -0.8909159302711487 6.394341198756592e-07
vn -5.667714617629827e-07 -0.8909157514572144 0.4541686773300171
vn -3.3126602261290827e-07 -0.8909156918525696 0.45416882634162903
vn 0.45416828989982605 -0.8909159302711487 2.1164220243008458e-07
vn -0.0 -0.8909158706665039 -0.454168438911438
vn -2.0244036136318755e-07 -0.8909158706665039 -0.4541684687137604
vn -0.4541685879230499 -0.8909157514572144 -5.958361271041213e-07
vn -0.4541687071323395 -0.8909156918525696 0.0
vn -5.667714617629827e-07 -0.8909157514572144 0.4541686773300171
vn -3.3126602261290827e-07 -0.8909156918525696 0.45416882634162903
vn -5.667714617629827e-07 -0.8909157514572144 0.4541686773300171
vn 0.8319827318191528 0.5548015832901001 2.656125275279919e-07
vn -1.1620544881907335e-07 0.554801881313324 0.8319824934005737
vn -4.7136180114648596e-07 0.5548017621040344 0.8319825530052185
vn 0.8319828510284424 0.5548014044761658 7.954235456963943e-07
vn 2.9881408636356355e-07 0.5548019409179688 -0.8319824934005737
vn 7.659631364731467e-07 0.5548017621040344 -0.8319825530052185
vn -0.8319824934005737 0.554801881313324 -2.656124991062825e-07
vn -0.8319826126098633 0.5548017024993896 -8.052437010519498e-07
vn -1.1620544881907335e-07 0.554801881313324 0.8319824934005737
vn -4.7136180114648596e-07 0.5548017621040344 0.8319825530052185
vn 0.7450247406959534 -0.6670369505882263 7.569892090941721e-07
vn -7.750128361294628e-07 -0.6670364141464233 0.7450250387191772
vn -5.163516902939591e-07 -0.6670364141464233 0.7450251579284668
vn 0.7450248003005981 -0.6670368313789368 2.0654060506331007e-07
vn 4.6861242708473583e-07 -0.6670366525650024 -0.7450249195098877
vn -0.0 -0.6670364141464233 -0.7450250387191772
vn -0.7450251579284668 -0.6670364141464233 -6.128009886197106e-07
vn -0.7450252175331116 -0.667036235332489 -3.098109289112472e-07
vn -7.750128361294628e-07 -0.6670364141464233 0.7450250387191772
vn -5.163516902939591e-07 -0.6670364141464233 0.7450251579284668
vn 0.9154518246650696 0.4024275541305542 1.8906351328951132e-07
vn -2.048188179060162e-07 0.40242812037467957 0.9154515862464905
vn -6.08453603945236e-07 0.40242791175842285 0.91545170545578
vn 0.9154518842697144 0.4024273157119751 8.040281613830302e-07
vn 5.356799874789431e-07 0.4024277329444885 -0.9154518246650696
vn 1.0321981562810834e-06 0.4024275541305542 -0.9154518246650696
vn -0.9154515266418457 0.4024282395839691 -7.562538826277887e-07
vn -0.9154515862464905 0.40242815017700195 -8.148930419338285e-07
vn -2.048188179060162e-07 0.40242812037467957 0.9154515862464905
vn -6.08453603945236e-07 0.40242791175842285 0.91545170545578
vn -0.4687229096889496 0.255623459815979 -0.8455504775047302
vn 0.8431609869003296 0.25182873010635376 -0.4750385880470276
vn -6.371199674504169e-07 -0.1794150024652481 0.9837734699249268
vn -0.8582340478897095 0.24446484446525574 0.4512995183467865
vn 0.9837733507156372 -0.17941536009311676 -6.17568293819204e-05
vn 0.4572228491306305 0.25969091057777405 0.8505926728248596
vn -0.00010591142199700698 -0.17941510677337646 -0.9837734699249268
vn -0.9837734699249268 -0.17941471934318542 4.3910455133300275e-05
vn 0.9837733507156372 -0.17941536009311676 -6.17568293819204e-05
vn -0.4687229096889496 0.255623459815979 -0.8455504775047302
vn -6.371199674504169e-07 -0.1794150024652481 0.9837734699249268
vn -0.00010591142199700698 -0.17941510677337646 -0.9837734699249268
vn -0.8582340478897095 0.24446484446525574 0.4512995183467865
vn -0.9837734699249268 -0.17941471934318542 4.3910455133300275e-05
vn 0.4572228491306305 0.25969091057777405 0.8505926728248596
vn -6.371199674504169e-07 -0.1794150024652481 0.9837734699249268
vn 0.8431609869003296 0.25182873010635376 -0.4750385880470276
vn 2.587063079317886e-07 0.9052805304527283 -0.42481422424316406
vn 0.42481452226638794 0.9052804112434387 0.0
vn 0.06345411390066147 -0.6755149364471436 0.734610915184021
vn -0.42481404542922974 0.905280590057373 0.0
vn 0.7184059023857117 -0.6925830245018005 -0.06497416645288467
vn 1.8479022401152179e-07 0.9052805304527283 0.42481425404548645
vn -0.42481404542922974 0.905280590057373 0.0
vn -0.07847018539905548 -0.6287369728088379 -0.773648738861084
vt 0.0004842641646973789 0.0
vt 0.15481829643249512 0.1666666865348816
vt 0.0004842641646973789 0.1666666865348816
vt 0.15481829643249512 0.3333333730697632
vt 0.0004842641646973789 0.3333333730697632
vt 0.3091523051261902 0.3333333730697632
vt 0.3091523051261902 0.1666666865348816
vt 0.15481829643249512 0.0
vt 0.46348634362220764 0.3333333730697632
vt 0.46348634362220764 0.1666666865348816
vt 0.3091523051261902 0.0
vt 0.6178203225135803 0.3333333730697632
vt 0.6178203225135803 0.1666666865348816
vt 0.46348634362220764 0.0
vt 0.15481829643249512 0.5
vt 0.0004842641646973789 0.5
vt 0.3091523051261902 0.5
vt 0.46348634362220764 0.5
vt 0.6178203225135803 0.5
vt 0.15481829643249512 0.6666666865348816
vt 0.0004842641646973789 0.6666666865348816
vt 0.3091523051261902 0.6666666865348816
vt 0.46348634362220764 0.6666666865348816
vt 0.6178203225135803 0.6666666865348816
vt 0.15481829643249512 0.8333333134651184
vt 0.0004842641646973789 0.8333333134651184
vt 0.3091523051261902 0.8333333134651184
vt 0.46348634362220764 0.8333333134651184
vt 0.6178203225135803 0.8333333134651184
vt 0.0004842641646973789 0.9999999403953552
vt 0.15481829643249512 0.9999999403953552
vt 0.3091523051261902 0.9999999403953552
vt 0.46348634362220764 0.9999999403953552
vt 0.0004842641646973789 0.0
vt 0.15481829643249512 0.1666666865348816
vt 0.0004842641646973789 0.1666666865348816
vt 0.15481829643249512 0.3333333730697632
vt 0.0004842641646973789 0.3333333730697632
vt 0.3091523051261902 0.3333333730697632
vt 0.3091523051261902 0.1666666865348816
vt 0.15481829643249512 0.0
vt 0.46348634362220764 0.3333333730697632
vt 0.46348634362220764 0.1666666865348816
vt 0.3091523051261902 0.0
vt 0.6178203225135803 0.3333333730697632
vt 0.6178203225135803 0.1666666865348816
vt 0.46348634362220764 0.0
vt 0.15481829643249512 0.5
vt 0.0004842641646973789 0.5
vt 0.3091523051261902 0.5
vt 0.46348634362220764 0.5
vt 0.6178203225135803 0.5
vt 0.15481829643249512 0.6666666865348816
vt 0.0004842641646973789 0.6666666865348816
vt 0.3091523051261902 0.6666666865348816
vt 0.46348634362220764 0.6666666865348816
vt 0.6178203225135803 0.6666666865348816
vt 0.15481829643249512 0.8333333134651184
vt 0.0004842641646973789 0.8333333134651184
vt 0.3091523051261902 0.8333333134651184
vt 0.46348634362220764 0.8333333134651184
vt 0.6178203225135803 0.8333333134651184
vt 0.0004842641646973789 0.9999999403953552
vt 0.15481829643249512 0.9999999403953552
vt 0.3091523051261902 0.9999999403953552
vt 0.46348634362220764 0.9999999403953552
vt 0.0004842641646973789 0.0
vt 0.15481829643249512 0.1666666865348816
vt 0.0004842641646973789 0.1666666865348816
vt 0.15481829643249512 0.3333333730697632
vt 0.0004842641646973789 0.3333333730697632
vt 0.3091523051261902 0.3333333730697632
vt 0.3091523051261902 0.1666666865348816
vt 0.15481829643249512 0.0
vt 0.46348634362220764 0.3333333730697632
vt 0.46348634362220764 0.1666666865348816
vt 0.3091523051261902 0.0
vt 0.6178203225135803 0.3333333730697632
vt 0.6178203225135803 0.1666666865348816
vt 0.46348634362220764 0.0
vt 0.15481829643249512 0.5
vt 0.0004842641646973789 0.5
vt 0.3091523051261902 0.5
vt 0.46348634362220764 0.5
vt 0.6178203225135803 0.5
vt 0.15481829643249512 0.6666666865348816
vt 0.0004842641646973789 0.6666666865348816
vt 0.3091523051261902 0.6666666865348816
vt 0.46348634362220764 0.6666666865348816
vt 0.6178203225135803 0.6666666865348816
vt 0.15481829643249512 0.8333333134651184
vt 0.0004842641646973789 0.8333333134651184
vt 0.3091523051261902 0.8333333134651184
vt 0.46348634362220764 0.8333333134651184
vt 0.6178203225135803 0.8333333134651184
vt 0.0004842641646973789 0.9999999403953552
vt 0.15481829643249512 0.9999999403953552
vt 0.3091523051261902 0.9999999403953552
vt 0.46348634362220764 0.9999999403953552
vt 0.46348634362220764 0.0
vt 0.6178203225135803 0.1666666865348816
vt 0.46348634362220764 0.1666666865348816
vt 0.46348634362220764 0.3333333730697632
vt 0.6178203225135803 0.3333333730697632
vt 0.46348634362220764 0.5
vt 0.6178203225135803 0.5
vt 0.46348634362220764 0.6666666865348816
vt 0.6178203225135803 0.6666666865348816
vt 0.6178203225135803 0.8333333134651184
vt 0.0004842641646973789 0.0
vt 0.15481829643249512 0.1666666865348816
vt 0.0004842641646973789 0.1666666865348816
vt 0.0004842641646973789 0.3333333730697632
vt 0.15481829643249512 0.3333333730697632
vt 0.0004842641646973789 0.5
vt 0.15481829643249512 0.5
vt 0.0004842641646973789 0.6666666865348816
vt 0.15481829643249512 0.6666666865348816
vt 0.15481829643249512 0.8333333134651184
vt 0.15481829643249512 0.0
vt 0.3091523051261902 0.1666666865348816
vt 0.15481829643249512 0.1666666865348816
vt 0.15481829643249512 0.3333333730697632
vt 0.3091523051261902 0.3333333730697632
vt 0.15481829643249512 0.5
vt 0.3091523051261902 0.5
vt 0.15481829643249512 0.6666666865348816
vt 0.3091523051261902 0.6666666865348816
vt 0.3091523051261902 0.8333333134651184
vt 0.6562483906745911 0.7474237978458405
vt 0.6562483906745911 0.994847827591002
vt 0.630071759223938 0.4999997615814209
vt 0.630071759223938 0.4999997615814209
vt 0.6562483906745911 0.7474237978458405
vt 0.630071759223938 0.4999997615814209
vt 0.630071759223938 0.4999997615814209
vt 0.6562483310699463 0.4999997615814209
vt 0.630071759223938 0.4999997615814209
vt 0.6562483310699463 0.25257575511932373
vt 0.6562483906745911 0.0051517486572265625
vt 0.7406275868415833 0.7474237978458405
vt 0.7406275868415833 0.9948478383012116
vt 0.6562483906745911 0.994847827591002
vt 0.6562483906745911 0.7474237978458405
vt 0.6562483906745911 0.994847827591002
vt 0.740627646446228 0.4999998211860657
vt 0.6562483310699463 0.4999997615814209
vt 0.740627646446228 0.25257575511932373
vt 0.6562483310699463 0.25257575511932373
vt 0.740627646446228 0.0051517486572265625
vt 0.6562483906745911 0.0051517486572265625
vt 0.7650297284126282 0.7474238276481628
vt 0.7650297284126282 0.9948478415608406
vt 0.7406275868415833 0.9948478383012116
vt 0.7406275868415833 0.7474237978458405
vt 0.765029788017273 0.4999998211860657
vt 0.740627646446228 0.4999998211860657
vt 0.7650297284126282 0.2525758743286133
vt 0.740627646446228 0.25257575511932373
vt 0.765029788017273 0.0051517486572265625
vt 0.740627646446228 0.0051517486572265625
vt 0.765029788017273 0.0051517486572265625
vt 0.816469132900238 0.7474237680435181
vt 0.816469132900238 0.9948478480800986
vt 0.7650297284126282 0.9948478415608406
vt 0.7650297284126282 0.7474238276481628
vt 0.816469132900238 0.4999997615814209
vt 0.765029788017273 0.4999998211860657
vt 0.816469132900238 0.25257575511932373
vt 0.7650297284126282 0.2525758743286133
vt 0.8164691925048828 0.0051517486572265625
vt 0.765029788017273 0.0051517486572265625
vt 0.8740965127944946 0.7474237978458405
vt 0.8740965127944946 0.9948480320163071
vt 0.816469132900238 0.9948478480800986
vt 0.816469132900238 0.7474237680435181
vt 0.8740965127944946 0.4999997615814209
vt 0.816469132900238 0.4999997615814209
vt 0.8740965127944946 0.25257593393325806
vt 0.816469132900238 0.25257575511932373
vt 0.8740965127944946 0.005151987075805664
vt 0.8164691925048828 0.0051517486572265625
vt 0.8881745338439941 0.7474237680435181
vt 0.8881745338439941 0.9948479775339365
vt 0.8740965127944946 0.9948480320163071
vt 0.8740965127944946 0.7474237978458405
vt 0.8881745338439941 0.4999997019767761
vt 0.8740965127944946 0.4999997615814209
vt 0.8881745338439941 0.25257593393325806
vt 0.8740965127944946 0.25257593393325806
vt 0.8881745338439941 0.005151987075805664
vt 0.8740965127944946 0.005151987075805664
vt 0.9995004534721375 0.4999998211860657
vt 0.9995004534721375 0.4999998211860657
vt 0.8881745338439941 0.005151987075805664
vt 0.9995004534721375 0.4999998211860657
vt 0.8881745338439941 0.7474237680435181
vt 0.9995004534721375 0.4999998211860657
vt 0.8881745338439941 0.4999997019767761
vt 0.8881745338439941 0.25257593393325806
vt 0.8881745338439941 0.7474237680435181
vt 0.9995004534721375 0.4999998211860657
vt 0.8881745338439941 0.9948479775339365
vt 0.8881745338439941 0.4999997019767761
vt 0.9995004534721375 0.4999998211860657
vt 0.8881745338439941 0.25257593393325806
vt 0.9995004534721375 0.4999998211860657
vt 0.8881745338439941 0.005151987075805664
vt 0.9995004534721375 0.4999998211860657
vt 0.6562483310699463 0.4999997615814209
vt 0.6562483906745911 0.7474237978458405
vt 0.630071759223938 0.4999997615814209
vt 0.6562483310699463 0.25257575511932373
vt 0.630071759223938 0.4999997615814209
vt 0.6562483906745911 0.0051517486572265625
vt 0.6562483310699463 0.25257575511932373
vt 0.630071759223938 0.4999997615814209

g eff_mdl_wpn_enhougu00
s 1
usemtl eff_mdl_wpn_enhougu00
f 3/3/3 2/2/2 1/1/1 
f 2/2/2 3/3/3 4/4/4 
f 5/5/5 4/4/4 3/3/3 
f 4/4/4 6/6/6 2/2/2 
f 7/7/7 2/2/2 6/6/6 
f 2/2/2 7/7/7 8/8/8 
f 6/6/6 9/9/9 7/7/7 
f 10/10/10 7/7/7 9/9/9 
f 7/7/7 10/10/10 11/11/11 
f 9/9/9 12/12/12 10/10/10 
f 13/13/13 10/10/10 12/12/12 
f 10/10/10 13/13/13 14/14/14 
f 4/4/4 5/5/5 15/15/15 
f 16/16/16 15/15/15 5/5/5 
f 6/6/6 4/4/4 17/17/17 
f 15/15/15 17/17/17 4/4/4 
f 9/9/9 6/6/6 18/18/18 
f 17/17/17 18/18/18 6/6/6 
f 12/12/12 9/9/9 19/19/19 
f 18/18/18 19/19/19 9/9/9 
f 15/15/15 16/16/16 20/20/20 
f 21/21/21 20/20/20 16/16/16 
f 17/17/17 15/15/15 22/22/22 
f 20/20/20 22/22/22 15/15/15 
f 18/18/18 17/17/17 23/23/23 
f 22/22/22 23/23/23 17/17/17 
f 19/19/19 18/18/18 24/24/24 
f 23/23/23 24/24/24 18/18/18 
f 20/20/20 21/21/21 25/25/25 
f 26/26/26 25/25/25 21/21/21 
f 22/22/22 20/20/20 27/27/27 
f 25/25/25 27/27/27 20/20/20 
f 23/23/23 22/22/22 28/28/28 
f 27/27/27 28/28/28 22/22/22 
f 24/24/24 23/23/23 29/29/29 
f 28/28/28 29/29/29 23/23/23 
f 25/25/25 26/26/26 30/30/30 
f 27/27/27 25/25/25 31/31/31 
f 28/28/28 27/27/27 32/32/32 
f 29/29/29 28/28/28 33/33/33 
f 36/36/36 35/35/35 34/34/34 
f 35/35/35 36/36/36 37/37/37 
f 38/38/38 37/37/37 36/36/36 
f 37/37/37 39/39/39 35/35/35 
f 40/40/40 35/35/35 39/39/39 
f 35/35/35 40/40/40 41/41/41 
f 39/39/39 42/42/42 40/40/40 
f 43/43/43 40/40/40 42/42/42 
f 40/40/40 43/43/43 44/44/44 
f 42/42/42 45/45/45 43/43/43 
f 46/46/46 43/43/43 45/45/45 
f 43/43/43 46/46/46 47/47/47 
f 37/37/37 38/38/38 48/48/48 
f 49/49/49 48/48/48 38/38/38 
f 39/39/39 37/37/37 50/50/50 
f 48/48/48 50/50/50 37/37/37 
f 42/42/42 39/39/39 51/51/51 
f 50/50/50 51/51/51 39/39/39 
f 45/45/45 42/42/42 52/52/52 
f 51/51/51 52/52/52 42/42/42 
f 48/48/48 49/49/49 53/53/53 
f 54/54/54 53/53/53 49/49/49 
f 50/50/50 48/48/48 55/55/55 
f 53/53/53 55/55/55 48/48/48 
f 51/51/51 50/50/50 56/56/56 
f 55/55/55 56/56/56 50/50/50 
f 52/52/52 51/51/51 57/57/57 
f 56/56/56 57/57/57 51/51/51 
f 53/53/53 54/54/54 58/58/58 
f 59/59/59 58/58/58 54/54/54 
f 55/55/55 53/53/53 60/60/60 
f 58/58/58 60/60/60 53/53/53 
f 56/56/56 55/55/55 61/61/61 
f 60/60/60 61/61/61 55/55/55 
f 57/57/57 56/56/56 62/62/62 
f 61/61/61 62/62/62 56/56/56 
f 58/58/58 59/59/59 63/63/63 
f 60/60/60 58/58/58 64/64/64 
f 61/61/61 60/60/60 65/65/65 
f 62/62/62 61/61/61 66/66/66 
f 69/69/69 68/68/68 67/67/67 
f 68/68/68 69/69/69 70/70/70 
f 71/71/71 70/70/70 69/69/69 
f 70/70/70 72/72/72 68/68/68 
f 73/73/73 68/68/68 72/72/72 
f 68/68/68 73/73/73 74/74/74 
f 72/72/72 75/75/75 73/73/73 
f 76/76/76 73/73/73 75/75/75 
f 73/73/73 76/76/76 77/77/77 
f 75/75/75 78/78/78 76/76/76 
f 79/79/79 76/76/76 78/78/78 
f 76/76/76 79/79/79 80/80/80 
f 70/70/70 71/71/71 81/81/81 
f 82/82/82 81/81/81 71/71/71 
f 72/72/72 70/70/70 83/83/83 
f 81/81/81 83/83/83 70/70/70 
f 75/75/75 72/72/72 84/84/84 
f 83/83/83 84/84/84 72/72/72 
f 78/78/78 75/75/75 85/85/85 
f 84/84/84 85/85/85 75/75/75 
f 81/81/81 82/82/82 86/86/86 
f 87/87/87 86/86/86 82/82/82 
f 83/83/83 81/81/81 88/88/88 
f 86/86/86 88/88/88 81/81/81 
f 84/84/84 83/83/83 89/89/89 
f 88/88/88 89/89/89 83/83/83 
f 85/85/85 84/84/84 90/90/90 
f 89/89/89 90/90/90 84/84/84 
f 86/86/86 87/87/87 91/91/91 
f 92/92/92 91/91/91 87/87/87 
f 88/88/88 86/86/86 93/93/93 
f 91/91/91 93/93/93 86/86/86 
f 89/89/89 88/88/88 94/94/94 
f 93/93/93 94/94/94 88/88/88 
f 90/90/90 89/89/89 95/95/95 
f 94/94/94 95/95/95 89/89/89 
f 91/91/91 92/92/92 96/96/96 
f 93/93/93 91/91/91 97/97/97 
f 94/94/94 93/93/93 98/98/98 
f 95/95/95 94/94/94 99/99/99 
f 102/102/102 101/101/101 100/100/100 
f 102/102/102 103/103/103 101/101/101 
f 104/104/104 101/101/101 103/103/103 
f 103/103/103 105/105/105 104/104/104 
f 106/106/106 104/104/104 105/105/105 
f 105/105/105 107/107/107 106/106/106 
f 108/108/108 106/106/106 107/107/107 
f 109/109/109 108/108/108 107/107/107 
f 112/112/112 111/111/111 110/110/110 
f 112/112/112 113/113/113 111/111/111 
f 114/114/114 111/111/111 113/113/113 
f 113/113/113 115/115/115 114/114/114 
f 116/116/116 114/114/114 115/115/115 
f 115/115/115 117/117/117 116/116/116 
f 118/118/118 116/116/116 117/117/117 
f 119/119/119 118/118/118 117/117/117 
f 122/122/122 121/121/121 120/120/120 
f 122/122/122 123/123/123 121/121/121 
f 124/124/124 121/121/121 123/123/123 
f 123/123/123 125/125/125 124/124/124 
f 126/126/126 124/124/124 125/125/125 
f 125/125/125 127/127/127 126/126/126 
f 128/128/128 126/126/126 127/127/127 
f 129/129/129 128/128/128 127/127/127 
f 132/132/132 131/131/131 130/130/130 
f 135/135/135 134/134/134 133/133/133 
f 133/133/133 137/137/137 136/136/136 
f 136/136/136 139/139/139 138/138/138 
f 138/138/138 140/140/140 135/135/135 
f 143/143/143 142/142/142 141/141/141 
f 145/145/145 141/141/141 144/144/144 
f 144/144/144 141/141/141 146/146/146 
f 144/144/144 146/146/146 147/147/147 
f 147/147/147 146/146/146 148/148/148 
f 147/147/147 148/148/148 149/149/149 
f 149/149/149 148/148/148 150/150/150 
f 149/149/149 150/150/150 151/151/151 
f 154/154/154 153/153/153 152/152/152 
f 154/154/154 152/152/152 155/155/155 
f 155/155/155 152/152/152 156/156/156 
f 155/155/155 156/156/156 157/157/157 
f 157/157/157 156/156/156 158/158/158 
f 157/157/157 158/158/158 159/159/159 
f 159/159/159 158/158/158 160/160/160 
f 159/159/159 162/162/162 161/161/161 
f 165/165/165 164/164/164 163/163/163 
f 165/165/165 163/163/163 166/166/166 
f 166/166/166 163/163/163 167/167/167 
f 166/166/166 167/167/167 168/168/168 
f 168/168/168 167/167/167 169/169/169 
f 168/168/168 169/169/169 170/170/170 
f 170/170/170 169/169/169 171/171/171 
f 170/170/170 171/171/171 172/172/172 
f 175/175/175 174/174/174 173/173/173 
f 175/175/175 173/173/173 176/176/176 
f 176/176/176 173/173/173 177/177/177 
f 176/176/176 177/177/177 178/178/178 
f 178/178/178 177/177/177 179/179/179 
f 178/178/178 179/179/179 180/180/180 
f 180/180/180 179/179/179 181/181/181 
f 180/180/180 181/181/181 182/182/182 
f 185/185/185 184/184/184 183/183/183 
f 185/185/185 183/183/183 186/186/186 
f 186/186/186 183/183/183 187/187/187 
f 186/186/186 187/187/187 188/188/188 
f 188/188/188 187/187/187 189/189/189 
f 188/188/188 189/189/189 190/190/190 
f 190/190/190 189/189/189 191/191/191 
f 190/190/190 191/191/191 192/192/192 
f 195/195/195 194/194/194 193/193/193 
f 197/197/197 193/193/193 196/196/196 
f 199/199/199 196/196/196 198/198/198 
f 200/200/200 198/198/198 194/194/194 
f 203/203/203 202/202/202 201/201/201 
f 201/201/201 205/205/205 204/204/204 
f 204/204/204 207/207/207 206/206/206 
f 206/206/206 209/209/209 208/208/208 
f 212/212/212 211/211/211 210/210/210 
f 214/214/214 210/210/210 213/213/213 
f 217/217/217 216/216/216 215/215/215 

