v 0.04330136254429817 -2.1385862827301025 0.4220273792743683
v -0.043301165103912354 -2.1385862827301025 0.4220273792743683
v -0.04330110922455788 -3.2457964420318604 0.5043817162513733
v 0.04330141842365265 -3.2457964420318604 0.5043817162513733
v -0.0433010458946228 -4.447926044464111 0.7795877456665039
v 0.04330148175358772 -4.447926044464111 0.7795877456665039
v -0.04330100119113922 -5.449934482574463 1.3219372034072876
v 0.0433015301823616 -5.449934482574463 1.3219372034072876
v -0.043300967663526535 -6.302071571350098 2.1177749633789062
v 0.04330156370997429 -6.302071571350098 2.1177749633789062
v -0.043300941586494446 -7.066648960113525 3.0634634494781494
v 0.04330158606171608 -7.066648960113525 3.0634634494781494
v -0.043300922960042953 -7.706170558929443 4.093230724334717
v 0.04330160468816757 -7.706170558929443 4.093230724334717
v -0.04330090433359146 -8.166009902954102 5.12019157409668
v 0.043301623314619064 -8.166009902954102 5.12019157409668
v -0.043300893157720566 -8.449881553649902 6.17438268661499
v 0.04330163449048996 -8.449881553649902 6.17438268661499
v -0.04330088943243027 -8.61097240447998 7.25458288192749
v 0.04330163821578026 -8.61097240447998 7.25458288192749
v -0.04330088570713997 -8.710681915283203 8.357390403747559
v 0.04330164194107056 -8.710681915283203 8.357390403747559
v -0.04330088198184967 -8.80654239654541 9.453103065490723
v 0.043301649391651154 -8.80654239654541 9.453103065490723
v -0.04350137710571289 -8.90777587890625 10.252259254455566
v 0.04309617355465889 -8.907611846923828 10.251955032348633
vn -0.0 -0.07417517155408859 -0.9972453117370605
vn -0.0 -0.07417517155408859 -0.9972453117370605
vn -0.0 -0.14909067749977112 -0.9888234734535217
vn -0.0 -0.14909067749977112 -0.9888234734535217
vn -0.0 -0.3528187870979309 -0.9356917142868042
vn -0.0 -0.3528188467025757 -0.9356917142868042
vn -0.0 -0.5840258598327637 -0.8117351531982422
vn -0.0 -0.5840258598327637 -0.8117350339889526
vn -0.0 -0.7318788766860962 -0.6814348697662354
vn -0.0 -0.7318788766860962 -0.6814348697662354
vn -0.0 -0.8151437044143677 -0.5792587995529175
vn -0.0 -0.8151437044143677 -0.5792587399482727
vn -0.0 -0.8830991387367249 -0.4691864252090454
vn -0.0 -0.8830991387367249 -0.4691864252090454
vn -0.0 -0.9420797824859619 -0.33538874983787537
vn -0.0 -0.9420799016952515 -0.335388720035553
vn -0.0 -0.9789509177207947 -0.20409557223320007
vn -0.0 -0.9789509177207947 -0.20409557223320007
vn -0.0 -0.9929155111312866 -0.11882255226373672
vn -0.0 -0.9929155111312866 -0.11882255226373672
vn -0.0 -0.996067225933075 -0.08860031515359879
vn -0.0 -0.996067225933075 -0.08860031515359879
vn 0.00035836888127960265 -0.9943238496780396 -0.10639572888612747
vn 0.00035831143031828105 -0.9943242073059082 -0.10639265179634094
vn 0.0007165471324697137 -0.9920814037322998 -0.12559457123279572
vn 0.0007165471324697137 -0.9920814037322998 -0.12559457123279572

g Shape001
s 1
usemtl Shape001
f 3//3 2//2 1//1 
f 4//4 3//3 1//1 
f 5//5 3//3 4//4 
f 6//6 5//5 4//4 
f 7//7 5//5 6//6 
f 8//8 7//7 6//6 
f 9//9 7//7 8//8 
f 10//10 9//9 8//8 
f 11//11 9//9 10//10 
f 12//12 11//11 10//10 
f 13//13 11//11 12//12 
f 14//14 13//13 12//12 
f 15//15 13//13 14//14 
f 16//16 15//15 14//14 
f 17//17 15//15 16//16 
f 18//18 17//17 16//16 
f 19//19 17//17 18//18 
f 20//20 19//19 18//18 
f 21//21 19//19 20//20 
f 22//22 21//21 20//20 
f 23//23 21//21 22//22 
f 24//24 23//23 22//22 
f 25//25 23//23 24//24 
f 26//26 25//25 24//24 

