v -0.9999993443489075 -1.9999994039535522 0.0
v -1.9999994039535522 -1.9999994039535522 0.35249996185302734
v -0.9999993443489075 -1.9999994039535522 0.35249996185302734
v -1.9999994039535522 -1.9999994039535522 0.0
v 6.103515488575795e-07 -1.9999994039535522 0.0
v 3.0517577442878974e-07 -1.9999994039535522 0.35249996185302734
v 1.0000005960464478 -1.9999994039535522 0.0
v 3.0517577442878974e-07 -1.9999994039535522 0.35249996185302734
v 1.0000005960464478 -1.9999994039535522 0.35249996185302734
v 6.103515488575795e-07 -1.9999994039535522 0.0
v 1.0000005960464478 -0.9999993443489075 0.0
v 1.0000005960464478 -1.9999994039535522 0.35249996185302734
v 1.0000005960464478 -0.9999993443489075 0.35249996185302734
v 1.0000005960464478 -1.9999994039535522 0.0
v 1.0000005960464478 6.103515488575795e-07 0.0
v 1.0000005960464478 -0.9999993443489075 0.35249996185302734
v 1.0000005960464478 6.103515488575795e-07 0.35249996185302734
v 1.0000005960464478 -0.9999993443489075 0.0
v 6.103515488575795e-07 6.103515488575795e-07 0.0
v 1.0000005960464478 6.103515488575795e-07 0.35249996185302734
v 3.0517577442878974e-07 9.155273232863692e-07 0.35249996185302734
v 1.0000005960464478 6.103515488575795e-07 0.0
v 6.103515488575795e-07 1.0000005960464478 0.0
v 3.0517577442878974e-07 9.155273232863692e-07 0.35249996185302734
v 6.103515488575795e-07 1.0000005960464478 0.35249996185302734
v 6.103515488575795e-07 6.103515488575795e-07 0.0
v -0.9999993443489075 1.0000005960464478 0.0
v 6.103515488575795e-07 1.0000005960464478 0.35249996185302734
v -0.9999993443489075 1.0000005960464478 0.35249996185302734
v 6.103515488575795e-07 1.0000005960464478 0.0
v -1.9999994039535522 1.0000005960464478 0.0
v -0.9999993443489075 1.0000005960464478 0.35249996185302734
v -1.9999994039535522 1.0000005960464478 0.35249996185302734
v -0.9999993443489075 1.0000005960464478 0.0
v -1.9999994039535522 6.103515488575795e-07 0.0
v -1.9999994039535522 1.0000005960464478 0.35249996185302734
v -1.9999994039535522 9.155273232863692e-07 0.35249996185302734
v -1.9999994039535522 1.0000005960464478 0.0
v -1.9999994039535522 -0.9999993443489075 0.0
v -1.9999994039535522 9.155273232863692e-07 0.35249996185302734
v -1.9999994039535522 -0.9999993443489075 0.35249996185302734
v -1.9999994039535522 6.103515488575795e-07 0.0
v -1.9999994039535522 -1.9999994039535522 0.0
v -1.9999994039535522 -0.9999993443489075 0.35249996185302734
v -1.9999994039535522 -1.9999994039535522 0.35249996185302734
v -1.9999994039535522 -0.9999993443489075 0.0
v -2.014364242553711 -2.0096969604492188 0.5210790634155273
v -0.9999995231628418 -1.7823342084884644 0.5210790634155273
v -0.9999992251396179 -2.0096967220306396 0.5210790634155273
v -1.7823344469070435 -1.7823340892791748 0.5210790634155273
v -0.0 -1.7823342084884644 0.5210790634155273
v -0.0 -2.0096967220306396 0.5210790634155273
v -0.0 -2.0096967220306396 0.5210790634155273
v 0.7823351621627808 -1.7823342084884644 0.5210790634155273
v 1.0173150300979614 -2.0096967220306396 0.5210790634155273
v -0.0 -1.7823342084884644 0.5210790634155273
v 1.0173150300979614 -2.0096967220306396 0.5210790634155273
v 0.7823355197906494 -0.9999992251396179 0.5210790634155273
v 1.0173150300979614 -0.9999993443489075 0.5210790634155273
v 0.7823351621627808 -1.7823342084884644 0.5210790634155273
v 1.0173150300979614 -0.9999993443489075 0.5210790634155273
v 0.7823351621627808 -0.2176641821861267 0.5210790634155273
v 1.0173147916793823 0.009976196102797985 0.5210790634155273
v 0.7823355197906494 -0.9999992251396179 0.5210790634155273
v 1.0173147916793823 0.009976196102797985 0.5210790634155273
v -0.21766509115695953 -0.21766386926174164 0.5210790634155273
v 0.01616210862994194 0.009976806119084358 0.5210790634155273
v 0.7823351621627808 -0.2176641821861267 0.5210790634155273
v 0.01616210862994194 0.009976806119084358 0.5210790634155273
v -0.21766448020935059 0.7823358178138733 0.5210790634155273
v 0.016162719577550888 1.0077935457229614 0.5210790634155273
v -0.21766509115695953 -0.21766386926174164 0.5210790634155273
v 0.016162719577550888 1.0077935457229614 0.5210790634155273
v -0.9999995231628418 0.7823355197906494 0.5210790634155273
v -0.9999993443489075 1.0077935457229614 0.5210790634155273
v -0.21766448020935059 0.7823358178138733 0.5210790634155273
v -0.9999993443489075 1.0077935457229614 0.5210790634155273
v -1.782334566116333 0.7823358178138733 0.5210790634155273
v -2.01436448097229 1.0077935457229614 0.5210790634155273
v -0.9999995231628418 0.7823355197906494 0.5210790634155273
v -2.01436448097229 1.0077935457229614 0.5210790634155273
v -1.7823342084884644 1.220703097715159e-06 0.5210790634155273
v -2.01436448097229 1.220703097715159e-06 0.5210790634155273
v -1.782334566116333 0.7823358178138733 0.5210790634155273
v -1.7823342084884644 -0.9999992251396179 0.5210790634155273
v -2.01436448097229 -0.9999995231628418 0.5210790634155273
v -2.01436448097229 -0.9999995231628418 0.5210790634155273
v -1.7823344469070435 -1.7823340892791748 0.5210790634155273
v -2.014364242553711 -2.0096969604492188 0.5210790634155273
v -1.7823342084884644 -0.9999992251396179 0.5210790634155273
v -0.9999992251396179 -2.0096967220306396 0.5210790634155273
v -2.014364242553711 -2.0096969604492188 0.35249996185302734
v -2.014364242553711 -2.0096969604492188 0.5210790634155273
v -0.9999992251396179 -2.0096967220306396 0.35249996185302734
v -0.0 -2.0096967220306396 0.5210790634155273
v 3.0517577442878974e-07 -2.0096967220306396 0.35249996185302734
v 1.0173150300979614 -2.0096967220306396 0.5210790634155273
v 3.0517577442878974e-07 -2.0096967220306396 0.35249996185302734
v -0.0 -2.0096967220306396 0.5210790634155273
v 1.0173150300979614 -2.0096967220306396 0.35249996185302734
v 1.0173150300979614 -0.9999993443489075 0.5210790634155273
v 1.0173150300979614 -2.0096967220306396 0.35249996185302734
v 1.0173150300979614 -2.0096967220306396 0.5210790634155273
v 1.0173150300979614 -0.9999993443489075 0.35249996185302734
v 1.0173147916793823 0.009976196102797985 0.5210790634155273
v 1.0173150300979614 -0.9999993443489075 0.35249996185302734
v 1.0173150300979614 -0.9999993443489075 0.5210790634155273
v 1.0173147916793823 0.009976196102797985 0.35249996185302734
v 0.01616210862994194 0.009976806119084358 0.5210790634155273
v 1.0173147916793823 0.009976196102797985 0.35249996185302734
v 1.0173147916793823 0.009976196102797985 0.5210790634155273
v 0.016162414103746414 0.009976501576602459 0.35249996185302734
v 0.016162719577550888 1.0077935457229614 0.5210790634155273
v 0.016162414103746414 0.009976501576602459 0.35249996185302734
v 0.01616210862994194 0.009976806119084358 0.5210790634155273
v 0.016162719577550888 1.0077935457229614 0.35249996185302734
v -0.9999993443489075 1.0077935457229614 0.5210790634155273
v 0.016162719577550888 1.0077935457229614 0.35249996185302734
v 0.016162719577550888 1.0077935457229614 0.5210790634155273
v -0.9999993443489075 1.0077935457229614 0.35249996185302734
v -2.01436448097229 1.0077935457229614 0.5210790634155273
v -0.9999993443489075 1.0077935457229614 0.35249996185302734
v -0.9999993443489075 1.0077935457229614 0.5210790634155273
v -2.01436448097229 1.0077935457229614 0.35249996185302734
v -2.01436448097229 1.220703097715159e-06 0.5210790634155273
v -2.01436448097229 1.0077935457229614 0.35249996185302734
v -2.01436448097229 1.0077935457229614 0.5210790634155273
v -2.01436448097229 9.155273232863692e-07 0.35249996185302734
v -2.01436448097229 -0.9999995231628418 0.5210790634155273
v -2.01436448097229 9.155273232863692e-07 0.35249996185302734
v -2.01436448097229 1.220703097715159e-06 0.5210790634155273
v -2.01436448097229 -0.9999995231628418 0.35249996185302734
v -2.014364242553711 -2.0096969604492188 0.5210790634155273
v -2.014364242553711 -2.0096969604492188 0.35249996185302734
v -1.7823344469070435 -1.7823340892791748 0.5210790634155273
v -0.9999997019767761 -1.7823342084884644 0.49504145979881287
v -0.9999995231628418 -1.7823342084884644 0.5210790634155273
v -1.782334566116333 -1.7823339700698853 0.49504145979881287
v -3.0517577442878974e-07 -1.7823342084884644 0.49504145979881287
v -0.0 -1.7823342084884644 0.5210790634155273
v -0.0 -1.7823342084884644 0.5210790634155273
v 0.7823351621627808 -1.7823342084884644 0.49504145979881287
v 0.7823351621627808 -1.7823342084884644 0.5210790634155273
v -3.0517577442878974e-07 -1.7823342084884644 0.49504145979881287
v 0.7823351621627808 -1.7823342084884644 0.5210790634155273
v 0.7823355197906494 -0.9999990463256836 0.49504145979881287
v 0.7823355197906494 -0.9999992251396179 0.5210790634155273
v 0.7823351621627808 -1.7823342084884644 0.49504145979881287
v 0.7823355197906494 -0.9999992251396179 0.5210790634155273
v 0.7823348641395569 -0.2176641821861267 0.49504145979881287
v 0.7823351621627808 -0.2176641821861267 0.5210790634155273
v 0.7823355197906494 -0.9999990463256836 0.49504145979881287
v 0.7823351621627808 -0.2176641821861267 0.5210790634155273
v -0.2176654040813446 -0.21766357123851776 0.49504145979881287
v -0.21766509115695953 -0.21766386926174164 0.5210790634155273
v 0.7823348641395569 -0.2176641821861267 0.49504145979881287
v -0.21766509115695953 -0.21766386926174164 0.5210790634155273
v -0.21766448020935059 0.7823361158370972 0.49504145979881287
v -0.21766448020935059 0.7823358178138733 0.5210790634155273
v -0.2176654040813446 -0.21766357123851776 0.49504145979881287
v -0.21766448020935059 0.7823358178138733 0.5210790634155273
v -0.9999997019767761 0.7823355197906494 0.49504145979881287
v -0.9999995231628418 0.7823355197906494 0.5210790634155273
v -0.21766448020935059 0.7823361158370972 0.49504145979881287
v -0.9999995231628418 0.7823355197906494 0.5210790634155273
v -1.782334566116333 0.7823358178138733 0.49504145979881287
v -1.782334566116333 0.7823358178138733 0.5210790634155273
v -0.9999997019767761 0.7823355197906494 0.49504145979881287
v -1.782334566116333 0.7823358178138733 0.5210790634155273
v -1.7823342084884644 1.5258788153005298e-06 0.49504145979881287
v -1.7823342084884644 1.220703097715159e-06 0.5210790634155273
v -1.782334566116333 0.7823358178138733 0.49504145979881287
v -1.7823342084884644 -0.9999990463256836 0.49504145979881287
v -1.7823342084884644 -0.9999992251396179 0.5210790634155273
v -1.7823342084884644 -0.9999992251396179 0.5210790634155273
v -1.782334566116333 -1.7823339700698853 0.49504145979881287
v -1.7823344469070435 -1.7823340892791748 0.5210790634155273
v -1.7823342084884644 -0.9999990463256836 0.49504145979881287
v -1.7823342084884644 -1.7823342084884644 0.4999999403953552
v -0.9999993443489075 -0.9999993443489075 0.4999999403953552
v -0.9999993443489075 -1.7823342084884644 0.4999999403953552
v -1.7823342084884644 -0.9999993443489075 0.4999999403953552
v 6.103515488575795e-07 -0.9999993443489075 0.4999999403953552
v 3.0517577442878974e-07 -1.7823342084884644 0.4999999403953552
v 0.7823355197906494 -0.9999993443489075 0.4999999403953552
v 0.7823355197906494 -1.7823342084884644 0.4999999403953552
v -0.9999993443489075 6.103515488575795e-07 0.4999999403953552
v -1.7823342084884644 9.155273232863692e-07 0.4999999403953552
v -0.21766479313373566 -0.2176641821861267 0.4999999403953552
v 0.7823355197906494 -0.2176641821861267 0.4999999403953552
v -0.9999993443489075 0.7823355197906494 0.4999999403953552
v -1.7823344469070435 0.7823355197906494 0.4999999403953552
v -0.21766448020935059 0.7823355197906494 0.4999999403953552
vn -0.0 -1.0 0.0
vn -0.0 -1.0 0.0
vn -0.0 -1.0 0.0
vn -0.0 -1.0 0.0
vn -0.0 -1.0 0.0
vn -0.0 -1.0 0.0
vn -0.0 -1.0 0.0
vn -0.0 -1.0 0.0
vn -0.0 -1.0 0.0
vn -0.0 -1.0 0.0
vn 1.0 0.0 0.0
vn 1.0 0.0 0.0
vn 1.0 0.0 0.0
vn 1.0 0.0 0.0
vn 1.0 0.0 0.0
vn 1.0 0.0 0.0
vn 1.0 0.0 0.0
vn 1.0 0.0 0.0
vn 3.0517568916366145e-07 1.0 -8.657468697492732e-07
vn 3.0517568916366145e-07 1.0 -8.657467560624355e-07
vn 3.0517568916366145e-07 1.0 -8.657467560624355e-07
vn -0.0 1.0 0.0
vn 1.0 -3.0517588811562746e-07 0.0
vn 1.0 -3.0517588811562746e-07 0.0
vn 1.0 -3.0517588811562746e-07 0.0
vn 1.0 0.0 8.657471539663675e-07
vn -0.0 1.0 0.0
vn -0.0 1.0 0.0
vn -0.0 1.0 0.0
vn -0.0 1.0 0.0
vn -0.0 1.0 0.0
vn -0.0 1.0 0.0
vn -0.0 1.0 0.0
vn -0.0 1.0 0.0
vn -1.0 0.0 0.0
vn -1.0 0.0 0.0
vn -1.0 0.0 0.0
vn -1.0 0.0 0.0
vn -1.0 0.0 0.0
vn -1.0 0.0 0.0
vn -1.0 0.0 0.0
vn -1.0 0.0 0.0
vn -1.0 0.0 0.0
vn -1.0 0.0 0.0
vn -1.0 0.0 0.0
vn -1.0 0.0 0.0
vn -0.0 0.0 1.0
vn -0.0 0.0 1.0
vn -0.0 0.0 1.0
vn -0.0 0.0 1.0
vn -0.0 0.0 1.0
vn -0.0 0.0 1.0
vn -0.0 0.0 1.0
vn -0.0 0.0 1.0
vn -0.0 0.0 1.0
vn -0.0 0.0 1.0
vn -0.0 0.0 1.0
vn -0.0 0.0 1.0
vn -0.0 0.0 1.0
vn -0.0 0.0 1.0
vn -0.0 0.0 1.0
vn -0.0 0.0 1.0
vn -0.0 0.0 1.0
vn -0.0 0.0 1.0
vn -0.0 0.0 1.0
vn -0.0 0.0 1.0
vn -0.0 0.0 1.0
vn -0.0 0.0 1.0
vn -0.0 0.0 1.0
vn -0.0 0.0 1.0
vn -0.0 0.0 1.0
vn -0.0 0.0 1.0
vn -0.0 0.0 1.0
vn -0.0 0.0 1.0
vn -0.0 0.0 1.0
vn -0.0 0.0 1.0
vn -0.0 0.0 1.0
vn -0.0 0.0 1.0
vn -0.0 0.0 1.0
vn -0.0 0.0 1.0
vn -0.0 0.0 1.0
vn -0.0 0.0 1.0
vn -0.0 0.0 1.0
vn -0.0 0.0 1.0
vn -0.0 0.0 1.0
vn -0.0 0.0 1.0
vn -0.0 0.0 1.0
vn -0.0 0.0 1.0
vn -0.0 0.0 1.0
vn -0.0 0.0 1.0
vn 1.5042698464640125e-07 -1.0 0.0
vn 1.5042699885725597e-07 -1.0 0.0
vn 1.5042699885725597e-07 -1.0 0.0
vn 1.5042699885725597e-07 -1.0 0.0
vn 1.525880151120873e-07 -1.0 0.0
vn 1.5258795826866844e-07 -1.0 0.0
vn -0.0 -1.0 0.0
vn -0.0 -1.0 0.0
vn -0.0 -1.0 0.0
vn -0.0 -1.0 0.0
vn 1.0 0.0 0.0
vn 1.0 0.0 0.0
vn 1.0 0.0 0.0
vn 1.0 0.0 0.0
vn 1.0 3.0216153845685767e-07 0.0
vn 1.0 3.0216153845685767e-07 0.0
vn 1.0 3.0216153845685767e-07 0.0
vn 1.0 3.0216153845685767e-07 0.0
vn 6.096488505136222e-07 1.0 0.0
vn 6.096488505136222e-07 1.0 0.0
vn 6.096488505136222e-07 1.0 0.0
vn 3.0482448210022994e-07 1.0 -1.8102817875842447e-06
vn 1.0 -6.116869712968764e-07 1.8102833791999728e-06
vn 1.0 -6.116869712968764e-07 1.8102833791999728e-06
vn 1.0 -6.116869712968764e-07 1.8102833791999728e-06
vn 1.0 -3.0584340038330993e-07 0.0
vn -0.0 1.0 0.0
vn -0.0 1.0 0.0
vn -0.0 1.0 0.0
vn -0.0 1.0 0.0
vn -0.0 1.0 0.0
vn -0.0 1.0 0.0
vn -0.0 1.0 0.0
vn -0.0 1.0 0.0
vn -1.0 0.0 0.0
vn -1.0 0.0 0.0
vn -1.0 0.0 0.0
vn -1.0 0.0 0.0
vn -1.0 -1.5258777352755715e-07 0.0
vn -1.0 -1.5258777352755715e-07 0.0
vn -1.0 -1.5258777352755715e-07 0.0
vn -1.0 -1.525878161601213e-07 0.0
vn -1.0 -1.5112239282188966e-07 0.0
vn -1.0 -1.5112239282188966e-07 0.0
vn 1.950416503859742e-07 1.0 0.0
vn 1.950416361751195e-07 1.0 0.0
vn 1.950416503859742e-07 1.0 0.0
vn 3.900833007719484e-07 1.0 5.8602877288649324e-06
vn -0.0 1.0 0.0
vn -0.0 1.0 0.0
vn -0.0 1.0 0.0
vn -0.0 1.0 0.0
vn -0.0 1.0 0.0
vn -0.0 1.0 0.0
vn -1.0 3.90083272350239e-07 0.0
vn -1.0 3.900832155068201e-07 0.0
vn -1.0 3.900833007719484e-07 0.0
vn -1.0 3.900831018199824e-07 0.0
vn -1.0 -3.90083272350239e-07 1.1720582733687479e-05
vn -1.0 -3.90083272350239e-07 1.1720581824192777e-05
vn -1.0 -3.90083272350239e-07 1.1720580914698076e-05
vn -1.0 -7.801666015438968e-07 0.0
vn -3.0517568916366145e-07 -1.0 -1.172057818621397e-05
vn -3.05175660741952e-07 -1.0 -1.1720577276719268e-05
vn -3.05175660741952e-07 -1.0 -1.172057818621397e-05
vn -6.10351321483904e-07 -1.0 0.0
vn -1.0 6.103517762312549e-07 0.0
vn -1.0 6.103517762312549e-07 0.0
vn -1.0 6.103517762312549e-07 0.0
vn -1.0 9.155277211903012e-07 1.1720591828634497e-05
vn 3.90083272350239e-07 -1.0 0.0
vn 3.900832155068201e-07 -1.0 0.0
vn 3.900833007719484e-07 -1.0 0.0
vn 7.801662036399648e-07 -1.0 -1.1720580914698076e-05
vn -3.90083272350239e-07 -1.0 0.0
vn -3.90083272350239e-07 -1.0 0.0
vn -3.90083272350239e-07 -1.0 0.0
vn -3.900833007719484e-07 -1.0 0.0
vn 1.0 3.9008344288049557e-07 0.0
vn 1.0 3.9008344288049557e-07 0.0
vn 1.0 3.9008344288049557e-07 0.0
vn 1.0 3.9008361341075215e-07 0.0
vn 1.0 0.0 0.0
vn 1.0 0.0 0.0
vn 1.0 -1.950416503859742e-07 -5.86029182159109e-06
vn 1.0 -1.950416361751195e-07 -5.86029182159109e-06
vn 1.0 -1.950416503859742e-07 -5.86029182159109e-06
vn 1.0 -3.900833007719484e-07 0.0
vn -0.0 0.0 1.0
vn -0.0 0.0 1.0
vn -0.0 0.0 1.0
vn -0.0 0.0 1.0
vn -0.0 0.0 1.0
vn -0.0 0.0 1.0
vn -0.0 0.0 1.0
vn -0.0 0.0 1.0
vn -0.0 0.0 1.0
vn -0.0 0.0 1.0
vn -0.0 0.0 1.0
vn -0.0 0.0 1.0
vn -0.0 0.0 1.0
vn -0.0 0.0 1.0
vn -0.0 0.0 1.0
vt 0.4862014055252075 0.8292084485292435
vt 0.0017970320768654346 0.426757276058197
vt 0.4862014055252075 0.426757276058197
vt 0.0017970320768654346 0.8292084485292435
vt 0.9935732483863831 0.8292084485292435
vt 0.9935732483863831 0.426757276058197
vt 0.4862014055252075 0.8292084485292435
vt 0.0017970320768654346 0.426757276058197
vt 0.4862014055252075 0.426757276058197
vt 0.0017970320768654346 0.8292084485292435
vt 0.9935732483863831 0.8292084485292435
vt 0.4862014055252075 0.426757276058197
vt 0.9935732483863831 0.426757276058197
vt 0.4862014055252075 0.8292084485292435
vt 0.4862014055252075 0.8292084485292435
vt 0.0017970320768654346 0.426757276058197
vt 0.4862014055252075 0.426757276058197
vt 0.0017970320768654346 0.8292084485292435
vt 0.9935732483863831 0.8292084485292435
vt 0.4862014055252075 0.426757276058197
vt 0.9935732483863831 0.426757276058197
vt 0.4862014055252075 0.8292084485292435
vt 0.4862014055252075 0.8292084485292435
vt 0.0017970320768654346 0.426757276058197
vt 0.4862014055252075 0.426757276058197
vt 0.0017970320768654346 0.8292084485292435
vt 0.9935732483863831 0.8292084485292435
vt 0.4862014055252075 0.426757276058197
vt 0.9935732483863831 0.426757276058197
vt 0.4862014055252075 0.8292084485292435
vt 0.4862014055252075 0.8292084485292435
vt 0.0017970320768654346 0.426757276058197
vt 0.4862014055252075 0.426757276058197
vt 0.0017970320768654346 0.8292084485292435
vt 0.9935732483863831 0.8292084485292435
vt 0.4862014055252075 0.426757276058197
vt 0.9935732483863831 0.426757276058197
vt 0.4862014055252075 0.8292084485292435
vt 0.4862014055252075 0.8292084485292435
vt 0.0017970320768654346 0.426757276058197
vt 0.4862014055252075 0.426757276058197
vt 0.0017970320768654346 0.8292084485292435
vt 0.9935732483863831 0.8292084485292435
vt 0.4862014055252075 0.426757276058197
vt 0.9935732483863831 0.426757276058197
vt 0.4862014055252075 0.8292084485292435
vt 0.0017970320768654346 0.33544260263442993
vt 0.4862014055252075 0.21484321355819702
vt 0.4862014055252075 0.33544260263442993
vt 0.09254569560289383 0.21484321355819702
vt 0.9935732483863831 0.21484321355819702
vt 0.9935732483863831 0.33544260263442993
vt 0.0017970320768654346 0.33544260263442993
vt 0.38250863552093506 0.21484321355819702
vt 0.4862014055252075 0.33544260263442993
vt 0.0017970320768654346 0.21484321355819702
vt 0.4862014055252075 0.33544260263442993
vt 0.9935732483863831 0.21484321355819702
vt 0.9935732483863831 0.33544260263442993
vt 0.5995947122573853 0.21484321355819702
vt 0.0017970320768654346 0.33544260263442993
vt 0.38250863552093506 0.21484321355819702
vt 0.4862014055252075 0.33544260263442993
vt 0.0017970320768654346 0.21484321355819702
vt 0.4862014055252075 0.33544260263442993
vt 0.9935732483863831 0.21484321355819702
vt 0.8917948007583618 0.33544260263442993
vt 0.5995947122573853 0.21484321355819702
vt 0.09260912239551544 0.33544260263442993
vt 0.38250863552093506 0.21484321355819702
vt 0.4862014055252075 0.33544260263442993
vt 0.0017970320768654346 0.21484321355819702
vt 0.4862014055252075 0.33544260263442993
vt 0.9935732483863831 0.21484321355819702
vt 0.9935732483863831 0.33544260263442993
vt 0.5995947122573853 0.21484321355819702
vt 0.0017970320768654346 0.33544260263442993
vt 0.38250863552093506 0.21484321355819702
vt 0.4862014055252075 0.33544260263442993
vt 0.0017970320768654346 0.21484321355819702
vt 0.0017970320768654346 0.33544260263442993
vt 0.4862014055252075 0.21484321355819702
vt 0.4862014055252075 0.33544260263442993
vt 0.09254569560289383 0.21484321355819702
vt 0.9935732483863831 0.21484321355819702
vt 0.9935732483863831 0.33544260263442993
vt 0.0017970320768654346 0.33544260263442993
vt 0.38250863552093506 0.21484321355819702
vt 0.4862014055252075 0.33544260263442993
vt 0.0017970320768654346 0.21484321355819702
vt 0.4862014055252075 0.33544260263442993
vt 0.0017970320768654346 0.42483389377593994
vt 0.0017970320768654346 0.33544260263442993
vt 0.4862014055252075 0.42483389377593994
vt 0.9935732483863831 0.33544260263442993
vt 0.9935732483863831 0.42483389377593994
vt 0.4862014055252075 0.33544260263442993
vt 0.0017970320768654346 0.42483389377593994
vt 0.0017970320768654346 0.33544260263442993
vt 0.4862014055252075 0.42483389377593994
vt 0.9935732483863831 0.33544260263442993
vt 0.4862014055252075 0.42483389377593994
vt 0.4862014055252075 0.33544260263442993
vt 0.9935732483863831 0.42483389377593994
vt 0.4862014055252075 0.33544260263442993
vt 0.0017970320768654346 0.42483389377593994
vt 0.0017970320768654346 0.33544260263442993
vt 0.4862014055252075 0.42483389377593994
vt 0.9935732483863831 0.33544260263442993
vt 0.4862014055252075 0.42483389377593994
vt 0.4862014055252075 0.33544260263442993
vt 0.9935732483863831 0.42483389377593994
vt 0.4862014055252075 0.33544260263442993
vt 0.0017970320768654346 0.42483389377593994
vt 0.0017970320768654346 0.33544260263442993
vt 0.4862014055252075 0.42483389377593994
vt 0.9935732483863831 0.33544260263442993
vt 0.4862014055252075 0.42483389377593994
vt 0.4862014055252075 0.33544260263442993
vt 0.9935732483863831 0.42483389377593994
vt 0.4862014055252075 0.33544260263442993
vt 0.0017970320768654346 0.42483389377593994
vt 0.0017970320768654346 0.33544260263442993
vt 0.4862014055252075 0.42483389377593994
vt 0.9935732483863831 0.33544260263442993
vt 0.4862014055252075 0.42483389377593994
vt 0.4862014055252075 0.33544260263442993
vt 0.9935732483863831 0.42483389377593994
vt 0.4862014055252075 0.33544260263442993
vt 0.0017970320768654346 0.42483389377593994
vt 0.0017970320768654346 0.33544260263442993
vt 0.4862014055252075 0.42483389377593994
vt 0.9935732483863831 0.33544260263442993
vt 0.9935732483863831 0.42483389377593994
vt 0.09254569560289383 0.21484321355819702
vt 0.4862014055252075 0.14761865139007568
vt 0.4862014055252075 0.21484321355819702
vt 0.09254569560289383 0.14761865139007568
vt 0.9935732483863831 0.14761865139007568
vt 0.9935732483863831 0.21484321355819702
vt 0.0017970320768654346 0.21484321355819702
vt 0.38250863552093506 0.14761865139007568
vt 0.38250863552093506 0.21484321355819702
vt 0.0017970320768654346 0.14761865139007568
vt 0.5995947122573853 0.21484321355819702
vt 0.9935732483863831 0.14761865139007568
vt 0.9935732483863831 0.21484321355819702
vt 0.5995947122573853 0.14761865139007568
vt 0.0017970320768654346 0.21484321355819702
vt 0.38250863552093506 0.14761865139007568
vt 0.38250863552093506 0.21484321355819702
vt 0.0017970320768654346 0.14761865139007568
vt 0.5995947122573853 0.21484321355819702
vt 0.9935732483863831 0.14761865139007568
vt 0.9935732483863831 0.21484321355819702
vt 0.5995947122573853 0.14761865139007568
vt 0.0017970320768654346 0.21484321355819702
vt 0.38250863552093506 0.14761865139007568
vt 0.38250863552093506 0.21484321355819702
vt 0.0017970320768654346 0.14761865139007568
vt 0.5995947122573853 0.21484321355819702
vt 0.9935732483863831 0.14761865139007568
vt 0.9935732483863831 0.21484321355819702
vt 0.5995947122573853 0.14761865139007568
vt 0.0017970320768654346 0.21484321355819702
vt 0.38250863552093506 0.14761865139007568
vt 0.38250863552093506 0.21484321355819702
vt 0.0017970320768654346 0.14761865139007568
vt 0.09254569560289383 0.21484321355819702
vt 0.4862014055252075 0.14761865139007568
vt 0.4862014055252075 0.21484321355819702
vt 0.09254569560289383 0.14761865139007568
vt 0.9935732483863831 0.14761865139007568
vt 0.9935732483863831 0.21484321355819702
vt 0.0017970320768654346 0.21484321355819702
vt 0.38250863552093506 0.14761865139007568
vt 0.38250863552093506 0.21484321355819702
vt 0.0017970320768654346 0.14761865139007568
vt 0.0020001120865345 0.997999986866489
vt 0.4863247871398926 0.5583539307117462
vt 0.4863247871398926 0.997999986866489
vt 0.0020001120865345 0.5583539307117462
vt 1.1054006814956665 0.5583539307117462
vt 1.1054004430770874 0.997999986866489
vt 1.589725136756897 0.5583539307117462
vt 1.589725136756897 0.997999986866489
vt 0.4863247871398926 -0.0036126375198364258
vt 0.0020001120865345 -0.0036127567291259766
vt 0.9706493020057678 0.11870777606964111
vt 1.589725136756897 0.11870777606964111
vt 0.4863247871398926 -0.44325852394104004
vt 0.0020000175572931767 -0.44325852394104004
vt 0.9706495404243469 -0.44325852394104004

g bg_mdl_map_ground09_5
s 1
usemtl bg_mdl_map_ground09_5_0
f 3/3/3 2/2/2 1/1/1 
f 4/4/4 1/1/1 2/2/2 
f 1/1/1 5/5/5 3/3/3 
f 6/6/6 3/3/3 5/5/5 
f 9/9/9 8/8/8 7/7/7 
f 10/10/10 7/7/7 8/8/8 
f 13/13/13 12/12/12 11/11/11 
f 14/14/14 11/11/11 12/12/12 
f 17/17/17 16/16/16 15/15/15 
f 18/18/18 15/15/15 16/16/16 
f 21/21/21 20/20/20 19/19/19 
f 22/22/22 19/19/19 20/20/20 
f 25/25/25 24/24/24 23/23/23 
f 26/26/26 23/23/23 24/24/24 
f 29/29/29 28/28/28 27/27/27 
f 30/30/30 27/27/27 28/28/28 
f 33/33/33 32/32/32 31/31/31 
f 34/34/34 31/31/31 32/32/32 
f 37/37/37 36/36/36 35/35/35 
f 38/38/38 35/35/35 36/36/36 
f 41/41/41 40/40/40 39/39/39 
f 42/42/42 39/39/39 40/40/40 
f 45/45/45 44/44/44 43/43/43 
f 46/46/46 43/43/43 44/44/44 
f 49/49/49 48/48/48 47/47/47 
f 50/50/50 47/47/47 48/48/48 
f 48/48/48 49/49/49 51/51/51 
f 52/52/52 51/51/51 49/49/49 
f 55/55/55 54/54/54 53/53/53 
f 56/56/56 53/53/53 54/54/54 
f 59/59/59 58/58/58 57/57/57 
f 60/60/60 57/57/57 58/58/58 
f 63/63/63 62/62/62 61/61/61 
f 64/64/64 61/61/61 62/62/62 
f 67/67/67 66/66/66 65/65/65 
f 68/68/68 65/65/65 66/66/66 
f 71/71/71 70/70/70 69/69/69 
f 72/72/72 69/69/69 70/70/70 
f 75/75/75 74/74/74 73/73/73 
f 76/76/76 73/73/73 74/74/74 
f 79/79/79 78/78/78 77/77/77 
f 80/80/80 77/77/77 78/78/78 
f 83/83/83 82/82/82 81/81/81 
f 84/84/84 81/81/81 82/82/82 
f 82/82/82 83/83/83 85/85/85 
f 86/86/86 85/85/85 83/83/83 
f 89/89/89 88/88/88 87/87/87 
f 90/90/90 87/87/87 88/88/88 
f 93/93/93 92/92/92 91/91/91 
f 94/94/94 91/91/91 92/92/92 
f 91/91/91 94/94/94 95/95/95 
f 96/96/96 95/95/95 94/94/94 
f 99/99/99 98/98/98 97/97/97 
f 100/100/100 97/97/97 98/98/98 
f 103/103/103 102/102/102 101/101/101 
f 104/104/104 101/101/101 102/102/102 
f 107/107/107 106/106/106 105/105/105 
f 108/108/108 105/105/105 106/106/106 
f 111/111/111 110/110/110 109/109/109 
f 112/112/112 109/109/109 110/110/110 
f 115/115/115 114/114/114 113/113/113 
f 116/116/116 113/113/113 114/114/114 
f 119/119/119 118/118/118 117/117/117 
f 120/120/120 117/117/117 118/118/118 
f 123/123/123 122/122/122 121/121/121 
f 124/124/124 121/121/121 122/122/122 
f 127/127/127 126/126/126 125/125/125 
f 128/128/128 125/125/125 126/126/126 
f 131/131/131 130/130/130 129/129/129 
f 132/132/132 129/129/129 130/130/130 
f 129/129/129 132/132/132 133/133/133 
f 134/134/134 133/133/133 132/132/132 
f 137/137/137 136/136/136 135/135/135 
f 138/138/138 135/135/135 136/136/136 
f 136/136/136 137/137/137 139/139/139 
f 140/140/140 139/139/139 137/137/137 
f 143/143/143 142/142/142 141/141/141 
f 144/144/144 141/141/141 142/142/142 
f 147/147/147 146/146/146 145/145/145 
f 148/148/148 145/145/145 146/146/146 
f 151/151/151 150/150/150 149/149/149 
f 152/152/152 149/149/149 150/150/150 
f 155/155/155 154/154/154 153/153/153 
f 156/156/156 153/153/153 154/154/154 
f 159/159/159 158/158/158 157/157/157 
f 160/160/160 157/157/157 158/158/158 
f 163/163/163 162/162/162 161/161/161 
f 164/164/164 161/161/161 162/162/162 
f 167/167/167 166/166/166 165/165/165 
f 168/168/168 165/165/165 166/166/166 
f 171/171/171 170/170/170 169/169/169 
f 172/172/172 169/169/169 170/170/170 
f 170/170/170 171/171/171 173/173/173 
f 174/174/174 173/173/173 171/171/171 
f 177/177/177 176/176/176 175/175/175 
f 178/178/178 175/175/175 176/176/176 

usemtl bg_mdl_map_ground09_5_1
f 181/181/181 180/180/180 179/179/179 
f 182/182/182 179/179/179 180/180/180 
f 180/180/180 181/181/181 183/183/183 
f 184/184/184 183/183/183 181/181/181 
f 183/183/183 184/184/184 185/185/185 
f 186/186/186 185/185/185 184/184/184 
f 180/180/180 187/187/187 182/182/182 
f 188/188/188 182/182/182 187/187/187 
f 183/183/183 189/189/189 180/180/180 
f 187/187/187 180/180/180 189/189/189 
f 185/185/185 190/190/190 183/183/183 
f 189/189/189 183/183/183 190/190/190 
f 187/187/187 191/191/191 188/188/188 
f 192/192/192 188/188/188 191/191/191 
f 189/189/189 193/193/193 187/187/187 
f 191/191/191 187/187/187 193/193/193 

