v -0.0 0.0 0.0
v 0.06600326299667358 1.6666665077209473 0.10874152928590775
v 0.06600326299667358 1.6666665077209473 1.8912584781646729
v -0.0 -3.1368515242803327e-16 2.0
v 0.17374733090400696 3.3333330154418945 0.2174830585718155
v 0.17374733090400696 3.3333330154418945 1.7825170755386353
v 0.30391350388526917 5.0 0.3262246549129486
v 0.30391350388526917 5.0 1.6737754344940186
vn -0.9992167949676514 0.039570946246385574 0.0
vn -0.9987099170684814 0.050779297947883606 0.0
vn -0.9987099170684814 0.050779297947883606 0.0
vn -0.9992167949676514 0.039570946246385574 0.0
vn -0.997515082359314 0.07045403122901917 0.0
vn -0.997515082359314 0.07045403867959976 0.0
vn -0.9969640374183655 0.07786258310079575 0.0
vn -0.9969640374183655 0.07786258310079575 0.0
vt 0.3396052122116089 1.0
vt 0.3396052122116089 0.6494515538215637
vt 0.6603947877883911 0.6494516134262085
vt 0.6603947877883911 1.0
vt 0.3396052122116089 0.3463245630264282
vt 0.6603947877883911 0.3463245630264282
vt 0.3396052122116089 0.0
vt 0.6603947877883911 0.0

g bg_mdl_doukutu_map_taki_01
s 1
usemtl bg_mdl_doukutu_map_taki_01
f 3/3/3 2/2/2 1/1/1 
f 4/4/4 3/3/3 1/1/1 
f 5/5/5 2/2/2 3/3/3 
f 6/6/6 5/5/5 3/3/3 
f 7/7/7 5/5/5 6/6/6 
f 8/8/8 7/7/7 6/6/6 

