v 0.01933959871530533 0.9631578326225281 0.8686505556106567
v -0.01914672739803791 0.9934177398681641 0.9126230478286743
v 0.01933959871530533 0.9934177994728088 0.9126230478286743
v -0.01914672739803791 0.9631577730178833 0.8686505556106567
v -0.01914672739803791 1.029463291168213 0.9354251623153687
v 0.01933959871530533 1.029463291168213 0.9354251623153687
v -0.01914672739803791 0.9954433441162109 0.8914397954940796
v 9.643554221838713e-05 0.9887601733207703 0.858670711517334
v 9.643554221838713e-05 1.0018986463546753 0.8861132860183716
v -0.01914672739803791 0.9816322326660156 0.8630431890487671
v 0.01933959871530533 0.9816322326660156 0.8630431890487671
v 0.01933959871530533 0.9816322326660156 0.4816073775291443
v 9.643554221838713e-05 0.9887601733207703 0.4816073775291443
v 0.01933959871530533 0.9954433441162109 0.8914397954940796
v 0.01933959871530533 1.017286777496338 0.9110574126243591
v 9.643554221838713e-05 1.0220316648483276 0.9047566652297974
v 0.01933959871530533 1.0420933961868286 0.9197530746459961
v 9.643554221838713e-05 1.0473928451538086 0.9137094616889954
v 0.01933959871530533 1.048902153968811 0.9298245310783386
v 9.643554221838713e-05 1.0574780702590942 0.928156316280365
v 0.01933959871530533 1.040306568145752 0.9748130440711975
v 9.643554221838713e-05 1.0471198558807373 0.9789652824401855
v 0.01933959871530533 1.0222383737564087 0.996692419052124
v 9.643554221838713e-05 1.0276087522506714 1.0020407438278198
v 0.01933959871530533 0.9917997717857361 1.0058364868164062
v 9.643554221838713e-05 0.9962995648384094 1.0121722221374512
v 0.01933959871530533 0.8341901898384094 1.0058364868164062
v 9.643554221838713e-05 0.8341901898384094 1.0121722221374512
v -0.01914672739803791 1.0222383737564087 0.996692419052124
v -0.01914672739803791 1.040306568145752 0.9748130440711975
v -0.01914672739803791 0.8341901898384094 1.0058364868164062
v -0.01914672739803791 0.9917996525764465 1.0058364868164062
v -0.01914672739803791 1.048902153968811 0.9298245310783386
v -0.01914672739803791 1.042093276977539 0.9197530746459961
v -0.01914672739803791 1.017286777496338 0.9110574126243591
v 0.01933959871530533 0.9954433441162109 0.8914397954940796
v 0.01933959871530533 0.9631578326225281 0.8686505556106567
v 0.01933959871530533 0.9934177994728088 0.9126230478286743
v 0.01933959871530533 0.9816322326660156 0.8630431890487671
v 0.01933959871530533 0.9816322326660156 0.4816073775291443
v 0.01933959871530533 0.9631578326225281 0.4816073179244995
v 0.01933959871530533 1.017286777496338 0.9110574126243591
v 0.01933959871530533 1.0420933961868286 0.9197530746459961
v 0.01933959871530533 1.029463291168213 0.9354251623153687
v 0.01933959871530533 1.048902153968811 0.9298245310783386
v 0.01933959871530533 1.023965835571289 0.9635951519012451
v 0.01933959871530533 1.040306568145752 0.9748130440711975
v 0.01933959871530533 1.01108980178833 0.9797524213790894
v 0.01933959871530533 1.0222383737564087 0.996692419052124
v 0.01933959871530533 0.9889177680015564 0.9857527017593384
v 0.01933959871530533 0.9917997717857361 1.0058364868164062
v 0.01933959871530533 0.8341901898384094 0.9857527017593384
v 0.01933959871530533 0.8341901898384094 1.0058364868164062
v 0.01933959871530533 0.8341901898384094 0.9857527017593384
v 9.643554221838713e-05 0.8341901898384094 1.0121722221374512
v 0.01933959871530533 0.8341901898384094 1.0058364868164062
v -0.01914672739803791 0.8341901898384094 0.9857527017593384
v -0.01914672739803791 0.8341901898384094 1.0058364868164062
v -0.01914672739803791 0.8341901898384094 1.0058364868164062
v -0.01914672739803791 0.9889176487922668 0.9857527017593384
v -0.01914672739803791 0.9917996525764465 1.0058364868164062
v -0.01914672739803791 0.8341901898384094 0.9857527017593384
v -0.01914672739803791 1.0222383737564087 0.996692419052124
v -0.01914672739803791 1.01108980178833 0.9797524213790894
v -0.01914672739803791 1.040306568145752 0.9748130440711975
v -0.01914672739803791 1.023965835571289 0.9635951519012451
v -0.01914672739803791 1.048902153968811 0.9298245310783386
v -0.01914672739803791 1.029463291168213 0.9354251623153687
v -0.01914672739803791 1.042093276977539 0.9197530746459961
v -0.01914672739803791 0.9934177398681641 0.9126230478286743
v -0.01914672739803791 1.017286777496338 0.9110574126243591
v -0.01914672739803791 0.9954433441162109 0.8914397954940796
v -0.01914672739803791 0.9631577730178833 0.8686505556106567
v -0.01914672739803791 0.9816322326660156 0.8630431890487671
v -0.01914672739803791 0.9631578326225281 0.4816073179244995
v -0.01914672739803791 0.9816322326660156 0.4816073775291443
v 0.01933959871530533 1.023965835571289 0.9635951519012451
v -0.01914672739803791 1.01108980178833 0.9797524213790894
v 0.01933959871530533 1.01108980178833 0.9797524213790894
v -0.01914672739803791 1.023965835571289 0.9635951519012451
v 0.01933959871530533 1.029463291168213 0.9354251623153687
v -0.01914672739803791 1.029463291168213 0.9354251623153687
v -0.01914672739803791 0.9889176487922668 0.9857527017593384
v 0.01933959871530533 0.9889177680015564 0.9857527017593384
v -0.01914672739803791 0.8341901898384094 0.9857527017593384
v 0.01933959871530533 0.8341901898384094 0.9857527017593384
v -0.01914672739803791 0.9816322326660156 0.4816073775291443
v 0.5848583579063416 0.9587070345878601 0.5863639116287231
v 0.03982177749276161 0.9754390716552734 0.5348681211471558
v 0.5848583579063416 0.9754390716552734 0.5348681211471558
v 0.03982177749276161 0.9587070345878601 0.5863639116287231
v 0.5848583579063416 0.9149020910263062 0.6181900501251221
v 0.03982177749276161 0.9149020910263062 0.6181900501251221
v 0.5848583579063416 0.8607562184333801 0.6181900501251221
v 0.03982177749276161 0.8607562184333801 0.6181900501251221
v 0.5848583579063416 0.8169512748718262 0.5863639116287231
v 0.03982177749276161 0.8169512748718262 0.5863639116287231
v 0.5848583579063416 0.8002192974090576 0.5348681211471558
v 0.03982177749276161 0.8002192974090576 0.5348681211471558
v 0.5848583579063416 0.816951334476471 0.483372300863266
v 0.03982177749276161 0.816951334476471 0.483372300863266
v 0.5848583579063416 0.8607562780380249 0.45154616236686707
v 0.03982177749276161 0.8607562780380249 0.45154616236686707
v 0.03982177749276161 0.9587070941925049 0.4833723306655884
v 0.5848583579063416 0.9587070941925049 0.4833723306655884
v 0.5848583579063416 0.9754390716552734 0.5348681211471558
v 0.5848583579063416 0.9587070941925049 0.4833723306655884
v 0.5848583579063416 0.8607562780380249 0.45154616236686707
v 0.5848583579063416 0.9102648496627808 0.3004874885082245
v 0.5848583579063416 0.8607562184333801 0.3004874885082245
v 0.5848583579063416 0.9587070941925049 1.1444091541079615e-07
v 0.5848583579063416 0.9102648496627808 1.1444091541079615e-07
v 0.5848583579063416 0.9587070345878601 0.5863639116287231
v 0.5848583579063416 0.9149020910263062 0.6181900501251221
v 0.5848583579063416 0.8607562184333801 0.6181900501251221
v 0.5848583579063416 0.8169512748718262 0.5863639116287231
v 0.5848583579063416 0.8002192974090576 0.5348681211471558
v 0.5848583579063416 0.816951334476471 0.483372300863266
v 0.5848583579063416 0.8607562184333801 0.3004874885082245
v 0.03982177749276161 0.8607562780380249 0.45154616236686707
v 0.5848583579063416 0.8607562780380249 0.45154616236686707
v 0.03982177749276161 0.8607562780380249 0.3004875183105469
v 0.5848583579063416 0.9587070941925049 1.1444091541079615e-07
v 0.03982177749276161 0.9587070941925049 0.4833723306655884
v 0.03982177749276161 0.9587070941925049 7.629394360719743e-08
v 0.5848583579063416 0.9587070941925049 0.4833723306655884
v 0.0398266576230526 0.9102648496627808 0.3004874885082245
v 0.5848583579063416 0.9102648496627808 1.1444091541079615e-07
v 0.0398266576230526 0.9102648496627808 3.814697180359872e-08
v 0.5848583579063416 0.9102648496627808 0.3004874885082245
v 0.03982177749276161 0.9754390716552734 0.5348681211471558
v 0.03982177749276161 0.9587070345878601 0.5863639116287231
v 0.03982177749276161 0.9587070941925049 0.4833723306655884
v 0.03717712312936783 0.9195179343223572 0.8677946925163269
v 0.06949035823345184 0.9085102677345276 0.4483259618282318
v 0.06949035823345184 0.9085102677345276 0.8620260953903198
v 0.03717712312936783 0.9195178151130676 0.4483259618282318
v 0.03717712312936783 0.8960291147232056 0.9222549796104431
v 0.06949035823345184 0.8852918744087219 0.9164864420890808
v 0.11450988799333572 0.8635812401771545 0.8957870006561279
v 0.11450988799333572 0.8706813454627991 0.4483259618282318
v 0.06949035823345184 0.8265440464019775 0.9414059519767761
v 0.11587096750736237 -0.03660934418439865 0.9025282859802246
v 0.07085143774747849 -0.03660934418439865 0.9414060115814209
v 0.03717712312936783 0.8365971446037292 0.9471744298934937
v 0.03717712312936783 -0.03660934418439865 0.947174608707428
v 0.11587096750736237 -0.03660934418439865 0.4483259618282318
v 0.07085143774747849 -0.9817283153533936 0.4483259618282318
v 0.037178345024585724 -0.9927360415458679 0.8677948713302612
v 0.07085143774747849 -0.9817283153533936 0.8620262742042542
v 0.037178345024585724 -0.9927366375923157 0.4483259618282318
v 0.037178345024585724 -0.969247579574585 0.9222550988197327
v 0.07085143774747849 -0.9585099816322327 0.9164864420890808
v 0.11587218940258026 -0.9367988109588623 0.8957871794700623
v 0.11587218940258026 -0.9438993334770203 0.4483259618282318
v 0.07085143774747849 -0.8997623920440674 0.9414059519767761
v 0.11587096750736237 -0.03660934418439865 0.9025282859802246
v 0.07085143774747849 -0.03660934418439865 0.9414060115814209
v 0.03717712312936783 -0.03660934418439865 0.947174608707428
v 0.037178345024585724 -0.9098154902458191 0.9471744298934937
v 0.11587096750736237 -0.03660934418439865 0.4483259618282318
v -0.041673582047224045 -0.047043610364198685 3.814697180359872e-08
v -0.041673582047224045 0.9600192308425903 0.5000002384185791
v -0.041673582047224045 -0.047043610364198685 0.5000000596046448
v -0.041673582047224045 0.9633908867835999 1.7645959360379493e-07
v 0.041865233331918716 0.8544924259185791 1.000000238418579
v 0.041865233331918716 0.9229626059532166 0.9775845408439636
v 0.041865233331918716 0.9633908867835999 1.7645959360379493e-07
v 0.041865233331918716 0.9566476345062256 0.9315464496612549
v 0.041865233331918716 0.9633907675743103 0.8910694718360901
v 0.041865233331918716 -0.047043610364198685 3.814697180359872e-08
v 0.041865233331918716 -0.047043610364198685 1.0000001192092896
v -0.041673582047224045 0.9633907675743103 0.8910694718360901
v -0.041673582047224045 0.9600192308425903 0.5000002384185791
v -0.041673582047224045 0.9633908867835999 1.7645959360379493e-07
v -0.041673582047224045 0.9566476345062256 0.9315464496612549
v -0.041673582047224045 -1.054106593132019 0.5000001192092896
v -0.041673582047224045 -0.047043610364198685 3.814697180359872e-08
v -0.041673582047224045 -0.047043610364198685 0.5000000596046448
v -0.041673582047224045 -1.0574778318405151 1.1830670665347043e-08
v 0.041865233331918716 -0.9485795497894287 1.0
v 0.041865233331918716 -1.0574778318405151 1.1830670665347043e-08
v 0.041865233331918716 -1.0170496702194214 0.977584183216095
v 0.041865233331918716 -1.0507349967956543 0.9315463304519653
v 0.041865233331918716 -1.0574781894683838 0.8910691738128662
v 0.041865233331918716 -0.047043610364198685 3.814697180359872e-08
v 0.041865233331918716 -0.047043610364198685 1.0000001192092896
v -0.041673582047224045 -1.0574781894683838 0.8910691738128662
v -0.041673582047224045 -1.054106593132019 0.5000001192092896
v -0.041673582047224045 -1.0507349967956543 0.9315463304519653
v -0.041673582047224045 -1.0574778318405151 1.1830670665347043e-08
v -0.039628904312849045 0.9737374186515808 0.5348681211471558
v -0.039628904312849045 0.9570054411888123 0.4833723306655884
v -0.039628904312849045 0.9570053815841675 0.5863639116287231
v 0.5846630930900574 -0.06481003016233444 0.27670007944107056
v 0.5846630930900574 0.9086907505989075 0.300356924533844
v 0.5846630930900574 0.9086907505989075 0.27670007944107056
v 0.5846630930900574 -0.06481003016233444 0.300356924533844
v 0.5846630930900574 -0.06481003016233444 0.27670007944107056
v 0.5848583579063416 -1.0472773313522339 0.3003748953342438
v 0.5846630930900574 -0.06481003016233444 0.300356924533844
v 0.5848583579063416 -1.0465412139892578 0.2764112949371338
v 0.5679699778556824 0.9086907505989075 0.300356924533844
v 0.5846630930900574 -0.06481003016233444 0.300356924533844
v 0.5679699778556824 -0.06481003016233444 0.300356924533844
v 0.5846630930900574 0.9086907505989075 0.300356924533844
v 0.5679699778556824 -0.06481003016233444 0.300356924533844
v 0.5848583579063416 -1.0472773313522339 0.3003748953342438
v 0.5684893727302551 -1.0302540063858032 0.3003748953342438
v 0.5846630930900574 -0.06481003016233444 0.300356924533844
v 0.5848583579063416 -1.0465412139892578 0.2764112949371338
v -0.030016174539923668 -1.0473994016647339 0.30039289593696594
v 0.5848583579063416 -1.0472773313522339 0.3003748953342438
v -0.030016174539923668 -1.0466632843017578 0.276122510433197
v 0.5684893727302551 -1.0302540063858032 0.3003748953342438
v -0.030016174539923668 -1.0473994016647339 0.30039289593696594
v -0.030016174539923668 -1.0307062864303589 0.30039289593696594
v 0.5848583579063416 -1.0472773313522339 0.3003748953342438
v 0.579148530960083 -1.0427073240280151 1.1444091541079615e-07
v 0.579148530960083 -0.9942649602890015 0.18930716812610626
v 0.579148530960083 -0.9942649602890015 1.1444091541079615e-07
v 0.579148530960083 -1.0427073240280151 0.2947407364845276
v 0.579148530960083 -0.9942649602890015 0.2947407364845276
v 0.039628904312849045 -1.0427073240280151 7.629394360719743e-08
v 0.579148530960083 -1.0427073240280151 0.2947407364845276
v 0.579148530960083 -1.0427073240280151 1.1444091541079615e-07
v 0.039628904312849045 -1.0427073240280151 0.2947407364845276
v -0.041673582047224045 0.9229626059532166 0.9775845408439636
v 0.041865233331918716 0.9566476345062256 0.9315464496612549
v 0.041865233331918716 0.9229626059532166 0.9775845408439636
v -0.041673582047224045 0.9566476345062256 0.9315464496612549
v -0.041673582047224045 0.9633907675743103 0.8910694718360901
v 0.041865233331918716 0.9633907675743103 0.8910694718360901
v 0.041865233331918716 0.8544924259185791 1.000000238418579
v -0.041673582047224045 0.8544924259185791 1.000000238418579
v 0.041865233331918716 -0.047043610364198685 1.0000001192092896
v -0.041673582047224045 -0.047043610364198685 1.0000001192092896
v 0.041865233331918716 0.9633907675743103 0.8910694718360901
v -0.041673582047224045 0.9633908867835999 1.7645959360379493e-07
v 0.041865233331918716 0.9633908867835999 1.7645959360379493e-07
v -0.041673582047224045 0.9633907675743103 0.8910694718360901
v -0.041673582047224045 -1.0170496702194214 0.977584183216095
v 0.041865233331918716 -1.0507349967956543 0.9315463304519653
v -0.041673582047224045 -1.0507349967956543 0.9315463304519653
v 0.041865233331918716 -1.0170496702194214 0.977584183216095
v -0.041673582047224045 -1.0574781894683838 0.8910691738128662
v 0.041865233331918716 -1.0574781894683838 0.8910691738128662
v 0.041865233331918716 -0.9485795497894287 1.0
v -0.041673582047224045 -0.9485795497894287 1.0
v 0.041865233331918716 -0.047043610364198685 1.0000001192092896
v -0.041673582047224045 -0.047043610364198685 1.0000001192092896
v 0.041865233331918716 -1.0574781894683838 0.8910691738128662
v -0.041673582047224045 -1.0574778318405151 1.1830670665347043e-08
v -0.041673582047224045 -1.0574781894683838 0.8910691738128662
v 0.041865233331918716 -1.0574778318405151 1.1830670665347043e-08
v -0.041673582047224045 -0.047043610364198685 0.5000000596046448
v -0.041673582047224045 0.8544924259185791 1.000000238418579
v -0.041673582047224045 -0.047043610364198685 1.0000001192092896
v -0.041673582047224045 0.9600192308425903 0.5000002384185791
v -0.041673582047224045 0.9229626059532166 0.9775845408439636
v -0.041673582047224045 0.9566476345062256 0.9315464496612549
v -0.041673582047224045 -1.054106593132019 0.5000001192092896
v -0.041673582047224045 -1.0170496702194214 0.977584183216095
v -0.041673582047224045 -1.0507349967956543 0.9315463304519653
v -0.041673582047224045 -0.9485795497894287 1.0
v -0.041673582047224045 -0.047043610364198685 0.5000000596046448
v -0.041673582047224045 -0.047043610364198685 1.0000001192092896
v 0.5706518292427063 -0.08792434632778168 0.30060920119285583
v 0.5706518292427063 0.8607606291770935 0.4335508942604065
v 0.5706518292427063 0.8607606291770935 0.30060917139053345
v 0.5706518292427063 -0.08792434632778168 0.4335508942604065
v 0.5428796410560608 -0.08792434632778168 0.45321303606033325
v 0.5428796410560608 0.8607606291770935 0.45321303606033325
v 0.03028777986764908 0.8607606291770935 0.45321303606033325
v 0.03028777986764908 -0.08792434632778168 0.45321303606033325
v 0.5428796410560608 -1.0366092920303345 0.45321303606033325
v 0.5706518292427063 -0.08792434632778168 0.4335508942604065
v 0.5706518292427063 -1.0366092920303345 0.4335508942604065
v 0.5428796410560608 -0.08792434632778168 0.45321303606033325
v 0.5706518292427063 -0.08792434632778168 0.30060920119285583
v 0.5706167221069336 -1.0366092920303345 0.30061987042427063
v 0.03028777986764908 -1.0366092920303345 0.45321303606033325
v 0.03028777986764908 -0.08792434632778168 0.45321303606033325
v 0.5428796410560608 -1.0366092920303345 0.45321303606033325
v 0.03028777986764908 -1.0366092920303345 0.3006305694580078
v 0.03028777986764908 -1.0366092920303345 0.45321303606033325
v 0.5706167221069336 -1.0366092920303345 0.30061987042427063
v 0.5706518292427063 -1.0366092920303345 0.4335508942604065
vn 1.633051056160184e-06 -0.8237894177436829 0.5668959021568298
vn 1.374363932882261e-06 -0.6932952404022217 0.7206537127494812
vn 1.1215829545108136e-06 -0.6932950615882874 0.7206538319587708
vn 1.6330513972206973e-06 -0.8237894177436829 0.5668959617614746
vn 4.952802896696085e-07 -0.5346046686172485 0.8451023101806641
vn -0.0 -0.5346049666404724 0.845102071762085
vn -0.3999802768230438 0.7317803502082825 -0.5518273115158081
vn 0.0007156525971367955 0.9791474938392639 -0.20314960181713104
vn 0.0009051590459421277 0.8031021952629089 -0.5958406925201416
vn -0.38269612193107605 0.8966935873031616 -0.22245052456855774
vn 0.38087859749794006 0.8978412747383118 -0.22093579173088074
vn 0.3473525941371918 0.9377346038818359 0.0
vn -0.0 1.0 0.0
vn 0.3985355794429779 0.7313172817230225 -0.553483784198761
vn 0.3813018500804901 0.47816964983940125 -0.7911781072616577
vn -1.4419413219002308e-07 0.5116481781005859 -0.8591950535774231
vn 0.3852141797542572 0.5599431395530701 -0.7335350513458252
vn -5.109436642669607e-07 0.6109985113143921 -0.7916316390037537
vn 0.4101896286010742 0.8923316597938538 -0.188384547829628
vn -0.0 0.9786537289619446 -0.205516055226326
vn 0.38428860902786255 0.8362047672271729 0.39125919342041016
vn -0.0 0.8988879919052124 0.4381783902645111
vn 0.36157530546188354 0.501076877117157 0.7862476110458374
vn -0.0 0.561792254447937 0.8272784352302551
vn 0.3319784104824066 0.12749595940113068 0.9346309304237366
vn -2.95838646025004e-07 0.17145270109176636 0.9851924180984497
vn 0.31273242831230164 0.0 0.949841320514679
vn -0.0 0.0 1.0
vn -0.36157527565956116 0.5010765194892883 0.7862478494644165
vn -0.3842885494232178 0.8362047672271729 0.39125925302505493
vn -0.31273242831230164 0.0 0.949841320514679
vn -0.3319786787033081 0.12749551236629486 0.9346309304237366
vn -0.41019076108932495 0.8923308849334717 -0.18838585913181305
vn -0.38521575927734375 0.5599403381347656 -0.7335363626480103
vn -0.3813018202781677 0.4781700074672699 -0.7911778688430786
vn 1.0 0.0 0.0
vn 1.0 0.0 0.0
vn 1.0 0.0 0.0
vn 1.0 0.0 0.0
vn 1.0 0.0 0.0
vn 1.0 0.0 0.0
vn 1.0 0.0 0.0
vn 1.0 0.0 0.0
vn 1.0 0.0 0.0
vn 1.0 0.0 0.0
vn 1.0 0.0 0.0
vn 1.0 0.0 0.0
vn 1.0 0.0 0.0
vn 1.0 0.0 0.0
vn 1.0 0.0 0.0
vn 1.0 0.0 0.0
vn 1.0 0.0 0.0
vn 1.0 0.0 0.0
vn -0.0 -1.0 0.0
vn -0.0 -1.0 0.0
vn -0.0 -1.0 0.0
vn -0.0 -1.0 0.0
vn -0.0 -1.0 0.0
vn -1.0 0.0 0.0
vn -1.0 0.0 0.0
vn -1.0 0.0 0.0
vn -1.0 0.0 0.0
vn -1.0 0.0 0.0
vn -1.0 0.0 0.0
vn -1.0 0.0 0.0
vn -1.0 0.0 0.0
vn -1.0 0.0 0.0
vn -1.0 0.0 0.0
vn -1.0 0.0 0.0
vn -1.0 0.0 0.0
vn -1.0 0.0 0.0
vn -1.0 0.0 0.0
vn -1.0 0.0 0.0
vn -1.0 0.0 0.0
vn -1.0 0.0 0.0
vn -1.0 0.0 0.0
vn -0.0 -0.9077969193458557 -0.4194100797176361
vn -0.0 -0.5489561557769775 -0.8358511328697205
vn 1.7914388195094944e-07 -0.5489563941955566 -0.8358510136604309
vn -0.0 -0.9077969193458557 -0.41941016912460327
vn -0.0 -0.9814845323562622 -0.1915413737297058
vn -0.0 -0.9814845323562622 -0.1915413737297058
vn -0.0 -0.13176175951957703 -0.9912814497947693
vn 2.612010803204612e-07 -0.13176235556602478 -0.9912813305854797
vn -0.0 0.0 -1.0
vn -0.0 0.0 -1.0
vn -0.34735265374183655 0.9377346038818359 0.0
vn 0.6437168717384338 0.6191113591194153 0.44981080293655396
vn -0.0 1.0 6.682956836812082e-07
vn 0.6437166929244995 0.7652639150619507 4.661005164052767e-07
vn -0.0 0.8090168833732605 0.5877853035926819
vn 0.6437166333198547 0.23647946119308472 0.7278092503547668
vn -0.0 0.3090171217918396 0.9510564804077148
vn 0.6437168717384338 -0.23647968471050262 0.7278090119361877
vn -0.0 -0.30901721119880676 0.9510564804077148
vn 0.6437166929244995 -0.6191117167472839 0.4498106837272644
vn -0.0 -0.8090173602104187 0.5877848267555237
vn 0.6437167525291443 -0.7652637958526611 -3.816585660842975e-07
vn -0.0 -1.0 -5.386263524087553e-07
vn 0.6437167525291443 -0.6191113591194153 -0.4498108923435211
vn -0.0 -0.8090168237686157 -0.5877854228019714
vn 0.9333456158638 -0.21100251376628876 -0.29042014479637146
vn -0.0 -0.5877851247787476 -0.8090171217918396
vn -0.0 0.9510567784309387 -0.30901628732681274
vn 0.910366415977478 0.3935502767562866 -0.12787188589572906
vn 0.6437166929244995 0.7652639150619507 4.661005164052767e-07
vn 0.910366415977478 0.3935502767562866 -0.12787188589572906
vn 0.9333456158638 -0.21100251376628876 -0.29042014479637146
vn 0.9486833214759827 -0.31622767448425293 0.0
vn 1.0 0.0 0.0
vn 1.0 0.0 0.0
vn 0.7071067690849304 -0.7071068286895752 0.0
vn 0.6437168717384338 0.6191113591194153 0.44981080293655396
vn 0.6437166333198547 0.23647946119308472 0.7278092503547668
vn 0.6437168717384338 -0.23647968471050262 0.7278090119361877
vn 0.6437166929244995 -0.6191117167472839 0.4498106837272644
vn 0.6437167525291443 -0.7652637958526611 -3.816585660842975e-07
vn 0.6437167525291443 -0.6191113591194153 -0.4498108923435211
vn -0.0 -1.0 5.050616778135009e-07
vn -0.0 -1.0 5.050616778135009e-07
vn -0.0 -1.0 5.050616778135009e-07
vn -1.399794911094432e-07 -1.0 0.0
vn -0.0 1.0 0.0
vn -0.0 1.0 0.0
vn -0.0 1.0 0.0
vn -0.0 1.0 0.0
vn -0.0 -1.0 0.0
vn 0.7071067690849304 -0.7071068286895752 0.0
vn -0.0 -1.0 0.0
vn 0.9486833214759827 -0.31622767448425293 0.0
vn -1.0 0.0 0.0
vn -1.0 0.0 0.0
vn -1.0 0.0 0.0
vn 0.34779807925224304 0.9158697724342346 0.2005467563867569
vn 0.49462324380874634 0.8690891861915588 0.005629933439195156
vn 0.5041328072547913 0.8519027233123779 0.14181651175022125
vn 0.32245513796806335 0.9465848207473755 -3.4433406881362316e-07
vn 0.3415103256702423 0.6774190068244934 0.6515169143676758
vn 0.43778881430625916 0.6256018280982971 0.6457269787788391
vn 0.8447443842887878 0.37914201617240906 0.3777012825012207
vn 0.9044795036315918 0.4264632761478424 0.0067630731500685215
vn 0.44657352566719055 0.13505735993385315 0.8844950795173645
vn 0.9093133211135864 0.0006966573419049382 0.41611164808273315
vn 0.4269835352897644 0.0002693997521419078 0.9042593836784363
vn 0.23753049969673157 0.22102047502994537 0.9459012746810913
vn 0.1688457578420639 0.0 0.9856424927711487
vn 0.9999997615814209 0.0007507536793127656 0.0
vn 0.4892382323741913 -0.8721320033073425 0.0056378841400146484
vn 0.33532917499542236 -0.9203776121139526 0.20114517211914062
vn 0.4982362687587738 -0.8552237153053284 0.14266382157802582
vn 0.31073346734046936 -0.950497031211853 1.3830282341587008e-06
vn 0.3302254378795624 -0.6790597438812256 0.6556136012077332
vn 0.4309549331665039 -0.6276668310165405 0.6483147740364075
vn 0.8450399041175842 -0.37857475876808167 0.37760916352272034
vn 0.9047952890396118 -0.4257930517196655 0.006756686605513096
vn 0.44269225001335144 -0.13625389337539673 0.886260986328125
vn 0.9093133211135864 0.0006966573419049382 0.41611164808273315
vn 0.4269835352897644 0.0002693997521419078 0.9042593836784363
vn 0.1688457578420639 0.0 0.9856424927711487
vn 0.22994157671928406 -0.22178375720977783 0.9475963711738586
vn 0.9999997615814209 0.0007507536793127656 0.0
vn -1.0 0.0 0.0
vn -1.0 0.0 0.0
vn -1.0 0.0 0.0
vn -1.0 0.0 0.0
vn 1.0 0.0 0.0
vn 1.0 0.0 0.0
vn 1.0 0.0 0.0
vn 1.0 0.0 0.0
vn 1.0 0.0 0.0
vn 1.0 0.0 0.0
vn 1.0 0.0 0.0
vn -1.0 0.0 0.0
vn -1.0 0.0 0.0
vn -1.0 0.0 0.0
vn -1.0 0.0 0.0
vn -1.0 0.0 0.0
vn -1.0 0.0 0.0
vn -1.0 0.0 0.0
vn -1.0 0.0 0.0
vn 1.0 0.0 0.0
vn 1.0 0.0 0.0
vn 1.0 0.0 0.0
vn 1.0 0.0 0.0
vn 1.0 0.0 0.0
vn 1.0 0.0 0.0
vn 1.0 0.0 0.0
vn -1.0 0.0 0.0
vn -1.0 0.0 0.0
vn -1.0 0.0 0.0
vn -1.0 0.0 0.0
vn 1.0 0.0 0.0
vn 1.0 0.0 0.0
vn 1.0 0.0 0.0
vn 1.0 9.940936433849856e-05 0.0
vn 1.0 0.0 0.0
vn 1.0 0.0 0.0
vn 1.0 9.939957089954987e-05 0.0
vn 1.0 9.940936433849856e-05 0.0
vn 0.7002212405204773 -0.7135892510414124 -0.021919207647442818
vn 1.0 9.939957089954987e-05 0.0
vn 0.7138894200325012 -0.6999285817146301 -0.021492699161171913
vn -0.0 0.0 1.0
vn -0.0 0.0 1.0
vn -0.0 0.0 1.0
vn -0.0 0.0 1.0
vn 1.938559944392182e-05 1.8640505004441366e-05 1.0
vn 1.938559944392182e-05 1.864050682343077e-05 1.0
vn 1.9385597624932416e-05 1.864050682343077e-05 1.0
vn -0.0 1.830727342166938e-05 1.0
vn 0.7138894200325012 -0.6999285817146301 -0.021492699161171913
vn 0.00021229992853477597 -0.9995400905609131 -0.030324164777994156
vn 0.7002212405204773 -0.7135892510414124 -0.021919207647442818
vn 0.00021267557167448103 -0.9995404481887817 -0.030314551666378975
vn 3.0052015063120052e-05 0.0 1.0
vn 3.0052011425141245e-05 0.0 1.0
vn 3.0052015063120052e-05 0.0 1.0
vn 2.9246395570226014e-05 2.8122300136601552e-05 1.0
vn 1.0 0.0 0.0
vn 1.0 0.0 0.0
vn 1.0 0.0 0.0
vn 1.0 0.0 0.0
vn 1.0 0.0 0.0
vn -0.0 -1.0 0.0
vn -0.0 -1.0 0.0
vn -0.0 -1.0 0.0
vn -0.0 -1.0 0.0
vn -0.0 0.5873285531997681 0.8093486428260803
vn -0.0 0.9216930866241455 0.3879200220108032
vn -0.0 0.5873284935951233 0.8093487024307251
vn -0.0 0.9216930866241455 0.3879200220108032
vn -0.0 0.996595561504364 0.08244460821151733
vn -0.0 0.996595561504364 0.08244463801383972
vn -0.0 0.15753242373466492 0.9875138401985168
vn -0.0 0.1575324386358261 0.9875138401985168
vn -0.0 -1.69253269177716e-07 1.0
vn -0.0 -1.6925325496686128e-07 1.0
vn -0.0 0.996595561504364 0.08244463801383972
vn -0.0 1.0 0.0
vn -0.0 1.0 0.0
vn -0.0 0.996595561504364 0.08244460821151733
vn -0.0 -0.5873262286186218 0.8093503713607788
vn -0.0 -0.9216920733451843 0.3879224359989166
vn -0.0 -0.9216920733451843 0.3879224359989166
vn -0.0 -0.587326169013977 0.8093503713607788
vn -0.0 -0.9965956807136536 0.08244411647319794
vn -0.0 -0.9965956807136536 0.08244411647319794
vn -0.0 -0.1575327217578888 0.9875138401985168
vn -0.0 -0.1575326919555664 0.9875138401985168
vn -0.0 -1.69253269177716e-07 1.0
vn -0.0 -1.6925325496686128e-07 1.0
vn -0.0 -0.9965956807136536 0.08244411647319794
vn -0.0 -1.0 -3.424827070830361e-07
vn -0.0 -0.9965956807136536 0.08244411647319794
vn -0.0 -1.0 -3.424827070830361e-07
vn -1.0 0.0 0.0
vn -1.0 0.0 0.0
vn -1.0 0.0 0.0
vn -1.0 0.0 0.0
vn -1.0 0.0 0.0
vn -1.0 0.0 0.0
vn -1.0 0.0 0.0
vn -1.0 0.0 0.0
vn -1.0 0.0 0.0
vn -1.0 0.0 0.0
vn -1.0 0.0 0.0
vn -1.0 0.0 0.0
vn 1.0 -1.639447532397753e-06 -1.169925781141501e-05
vn 0.8882073760032654 0.0 0.459442675113678
vn 1.0 0.0 0.0
vn 0.8882073760032654 0.0 0.45944279432296753
vn 0.3031821846961975 0.0 0.9529326558113098
vn 0.3031822144985199 0.0 0.9529325366020203
vn -0.0 0.0 1.0
vn -0.0 0.0 1.0
vn 0.30318206548690796 0.0 0.9529326558113098
vn 0.8882073760032654 0.0 0.45944279432296753
vn 0.8882625102996826 -1.8981747416546568e-05 0.4593361020088196
vn 0.3031821846961975 0.0 0.9529326558113098
vn 1.0 -1.639447532397753e-06 -1.169925781141501e-05
vn 1.0 -3.6996512790210545e-05 -0.00026401071227155626
vn -0.0 0.0 1.0
vn -0.0 0.0 1.0
vn -0.0 -1.0 0.0
vn -0.0 -1.0 0.0
vn -0.0 -1.0 0.0
vn -0.0 -1.0 0.0
vn -0.0 -1.0 0.0
vt 0.554741382598877 0.8845902755856514
vt 0.5240840315818787 0.8616896569728851
vt 0.5240840315818787 0.8845902755856514
vt 0.554741382598877 0.8616896569728851
vt 0.49712076783180237 0.8616896569728851
vt 0.49712076783180237 0.8845902755856514
vt 0.533318281173706 0.8491312265396118
vt 0.554741382598877 0.8358342349529266
vt 0.533318281173706 0.8358342349529266
vt 0.554741382598877 0.8491312265396118
vt 0.554741382598877 0.8225370049476624
vt 0.797044038772583 0.8225370049476624
vt 0.797044038772583 0.8358342349529266
vt 0.533318281173706 0.8225370049476624
vt 0.5148497819900513 0.8225370049476624
vt 0.5163277387619019 0.8358342349529266
vt 0.499336838722229 0.8225370049476624
vt 0.5008143186569214 0.8358342349529266
vt 0.49342718720436096 0.8225370049476624
vt 0.49416568875312805 0.8358342349529266
vt 0.4668329060077667 0.8225370049476624
vt 0.46535539627075195 0.8358342349529266
vt 0.44910335540771484 0.8225370049476624
vt 0.44910335540771484 0.8358342349529266
vt 0.4298963248729706 0.8225370049476624
vt 0.43137386441230774 0.8358342349529266
vt 0.3323844075202942 0.8225370049476624
vt 0.3323844075202942 0.8358342349529266
vt 0.44910335540771484 0.8491312265396118
vt 0.4668329060077667 0.8491312265396118
vt 0.3323844075202942 0.8491312265396118
vt 0.4298963248729706 0.8491312265396118
vt 0.49342718720436096 0.8491312265396118
vt 0.499336838722229 0.8491312265396118
vt 0.5148497819900513 0.8491312265396118
vt 0.533318281173706 0.8491312265396118
vt 0.554741382598877 0.8616896569728851
vt 0.5240840315818787 0.8616896569728851
vt 0.554741382598877 0.8491312265396118
vt 0.797044038772583 0.8491312265396118
vt 0.797044038772583 0.8616896569728851
vt 0.5148497819900513 0.8491312265396118
vt 0.49712076783180237 0.8491312265396118
vt 0.49416568875312805 0.8616896569728851
vt 0.49712076783180237 0.8491312265396118
vt 0.4668329060077667 0.8616896569728851
vt 0.4720040559768677 0.8491312265396118
vt 0.44910335540771484 0.8616896569728851
vt 0.4527970254421234 0.8491312265396118
vt 0.4298963248729706 0.8616896569728851
vt 0.4284188449382782 0.8491312265396118
vt 0.3323844075202942 0.8616896569728851
vt 0.3323844075202942 0.8491312265396118
vt 0.33760425448417664 0.7833728492259979
vt 0.3531176447868347 0.7944537699222565
vt 0.3501626253128052 0.7833728492259979
vt 0.33760425448417664 0.8062735497951508
vt 0.34942367672920227 0.8062735497951508
vt 0.3323844075202942 0.8491312265396118
vt 0.4284188449382782 0.8616896569728851
vt 0.4298963248729706 0.8491312265396118
vt 0.3323844075202942 0.8616896569728851
vt 0.44910335540771484 0.8491312265396118
vt 0.4527970254421234 0.8616896569728851
vt 0.4668329060077667 0.8491312265396118
vt 0.4720040559768677 0.8616896569728851
vt 0.49342718720436096 0.8491312265396118
vt 0.49712076783180237 0.8616896569728851
vt 0.499336838722229 0.8491312265396118
vt 0.5240840315818787 0.8616896569728851
vt 0.5148497819900513 0.8491312265396118
vt 0.533318281173706 0.8491312265396118
vt 0.554741382598877 0.8616896569728851
vt 0.554741382598877 0.8491312265396118
vt 0.797044038772583 0.8616896569728851
vt 0.797044038772583 0.8491312265396118
vt 0.4720040559768677 0.8845902755856514
vt 0.4527970254421234 0.8616896569728851
vt 0.4527970254421234 0.8845902755856514
vt 0.4720040559768677 0.8616896569728851
vt 0.49712076783180237 0.8845902755856514
vt 0.49712076783180237 0.8616896569728851
vt 0.4284188449382782 0.8616896569728851
vt 0.4284188449382782 0.8845902755856514
vt 0.3323844075202942 0.8616896569728851
vt 0.3323844075202942 0.8845902755856514
vt 0.797044038772583 0.8491312265396118
vt 0.8061841726303101 0.02541571855545044
vt 0.7840399742126465 0.2500206232070923
vt 0.7840399742126465 0.02541571855545044
vt 0.8061841726303101 0.2500206232070923
vt 0.8283283710479736 0.02541571855545044
vt 0.8283283710479736 0.2500206232070923
vt 0.8504725098609924 0.02541571855545044
vt 0.8504725098609924 0.2500206232070923
vt 0.8731439709663391 0.02541571855545044
vt 0.8731439709663391 0.2500206232070923
vt 0.8952880501747131 0.02541571855545044
vt 0.8952880501747131 0.2500206232070923
vt 0.9179595112800598 0.02541571855545044
vt 0.9179595112800598 0.2500206232070923
vt 0.9395763874053955 0.02541571855545044
vt 0.9395763874053955 0.2500206232070923
vt 0.7613686323165894 0.2500206232070923
vt 0.7613686323165894 0.02541571855545044
vt 0.35904574394226074 0.6997425854206085
vt 0.3814265727996826 0.7057472765445709
vt 0.39507338404655457 0.7477796375751495
vt 0.459486722946167 0.7264904677867889
vt 0.459486722946167 0.7477796375751495
vt 0.5872213840484619 0.7057472765445709
vt 0.5877673625946045 0.7264905273914337
vt 0.33775657415390015 0.706838995218277
vt 0.32410964369773865 0.7259446084499359
vt 0.32410964369773865 0.7483254969120026
vt 0.33775657415390015 0.7674311101436615
vt 0.3595915734767914 0.7745274603366852
vt 0.3814265727996826 0.7674311101436615
vt 0.9194591641426086 0.24961507320404053
vt 0.8572438359260559 0.025010347366333008
vt 0.8572445511817932 0.24961531162261963
vt 0.9194584488868713 0.025010108947753906
vt 0.5620712041854858 0.02541571855545044
vt 0.7613686323165894 0.2500206232070923
vt 0.5620712041854858 0.2500206232070923
vt 0.7613686323165894 0.02541571855545044
vt 0.7069635987281799 0.2500206232070923
vt 0.5830617547035217 0.02541571855545044
vt 0.5830617547035217 0.2500206232070923
vt 0.7069635987281799 0.02541571855545044
vt 0.37035953998565674 0.7602966725826263
vt 0.3474327623844147 0.7602966725826263
vt 0.39164865016937256 0.7488332688808441
vt 0.93370521068573 0.3035634160041809
vt 0.9241926074028015 0.49063825607299805
vt 0.9199745059013367 0.3096047639846802
vt 0.93370521068573 0.49063825607299805
vt 0.9169255495071411 0.2777283191680908
vt 0.907848060131073 0.28587889671325684
vt 0.8936124444007874 0.3009052276611328
vt 0.8994157910346985 0.49063825607299805
vt 0.8814858794212341 0.27427953481674194
vt 0.5166347026824951 0.2990599274635315
vt 0.5166347026824951 0.27427953481674194
vt 0.8876851797103882 0.26210248470306396
vt 0.516507089138031 0.26210248470306396
vt 0.5171655416488647 0.49063825607299805
vt 0.9241926074028015 0.49063825607299805
vt 0.93370521068573 0.3035634160041809
vt 0.9205018877983093 0.3096047639846802
vt 0.93370521068573 0.49063825607299805
vt 0.9169255495071411 0.2777283191680908
vt 0.907848060131073 0.28587889671325684
vt 0.89413982629776 0.3009052276611328
vt 0.8994157910346985 0.49063825607299805
vt 0.8814858794212341 0.27427953481674194
vt 0.5166347026824951 0.2990599274635315
vt 0.5166347026824951 0.27427953481674194
vt 0.516507089138031 0.26210248470306396
vt 0.8876851797103882 0.26210248470306396
vt 0.5171655416488647 0.49063825607299805
vt 0.41747602820396423 0.5630452334880829
vt 0.8326791524887085 0.6985386610031128
vt 0.41747602820396423 0.6986788809299469
vt 0.8326791524887085 0.5630452334880829
vt 0.7897085547447205 0.5358336865901947
vt 0.8173887133598328 0.5450604259967804
vt 0.8339976072311401 0.9486640207469463
vt 0.8313606381416321 0.563777506351471
vt 0.8339976072311401 0.5811764895915985
vt 0.4277574419975281 0.9486640207469463
vt 0.4071946442127228 0.5358336865901947
vt 0.8339976072311401 0.5811764895915985
vt 2.4614152908325195 0.7309220731258392
vt 0.8339976072311401 0.9486640207469463
vt 0.8313606381416321 0.563777506351471
vt 0.8326791524887085 0.6985093057155609
vt 0.41747602820396423 0.5630452334880829
vt 0.41747602820396423 0.6986788809299469
vt 0.8326791524887085 0.5630452334880829
vt 0.7897085547447205 0.5358336865901947
vt 0.8339976072311401 0.9486640207469463
vt 0.8173887133598328 0.5450604259967804
vt 0.8313606381416321 0.563777506351471
vt 0.8339976072311401 0.5811764895915985
vt 0.4277574419975281 0.9486640207469463
vt 0.4071946442127228 0.5358336865901947
vt 0.8339976072311401 0.5811764895915985
vt 0.832668125629425 0.7420792579650879
vt 0.8313606381416321 0.563777506351471
vt 0.8339976072311401 0.9486640207469463
vt 0.37035953998565674 0.7602966725826263
vt 0.39164865016937256 0.7488332688808441
vt 0.3474327623844147 0.7602966725826263
vt 0.38187628984451294 0.7909329831600189
vt 0.7978329658508301 0.8029421865940094
vt 0.7978329658508301 0.7909329831600189
vt 0.38187628984451294 0.8029421865940094
vt 0.38187628984451294 0.7909329831600189
vt 0.7978329658508301 0.8029421865940094
vt 0.38187628984451294 0.8029421865940094
vt 0.7978329658508301 0.7909329831600189
vt 0.7978329658508301 0.80949267745018
vt 0.3824220597743988 0.8029421865940094
vt 0.3824220597743988 0.80949267745018
vt 0.7978329658508301 0.8029421865940094
vt 0.3824220597743988 0.80949267745018
vt 0.7978329658508301 0.8029421865940094
vt 0.7978329658508301 0.80949267745018
vt 0.3824220597743988 0.8029421865940094
vt 0.38187628984451294 0.7909329831600189
vt 0.7978329658508301 0.8029421865940094
vt 0.38187628984451294 0.8029421865940094
vt 0.7978329658508301 0.7909329831600189
vt 0.3824220597743988 0.80949267745018
vt 0.7978329658508301 0.8029421865940094
vt 0.7978329658508301 0.80949267745018
vt 0.3824220597743988 0.8029421865940094
vt 0.5872213840484619 0.7057472765445709
vt 0.5069505572319031 0.7264904975891113
vt 0.5877673625946045 0.7264905273914337
vt 0.4575706720352173 0.7057472765445709
vt 0.459486722946167 0.7264904677867889
vt 0.5620712041854858 0.2500206232070923
vt 0.6876285672187805 0.02541571855545044
vt 0.5620712041854858 0.02541571855545044
vt 0.6876285672187805 0.2500206232070923
vt 0.8194977045059204 0.5358336865901947
vt 0.8440144658088684 0.5015629529953003
vt 0.8194977045059204 0.5015629529953003
vt 0.8440144658088684 0.5358336865901947
vt 0.8603590130805969 0.5358336865901947
vt 0.8603590130805969 0.5015629529953003
vt 0.7897085547447205 0.5015629529953003
vt 0.7897085547447205 0.5358336865901947
vt 0.4071946442127228 0.5015629529953003
vt 0.4071946442127228 0.5358336865901947
vt 0.94287109375 0.9931640625
vt 0.97705078125 0.62548828125
vt 0.94287109375 0.62548828125
vt 0.97705078125 0.9931640625
vt 0.8194977045059204 0.5358336865901947
vt 0.8440144658088684 0.5015629529953003
vt 0.8440144658088684 0.5358336865901947
vt 0.8194977045059204 0.5015629529953003
vt 0.8603590130805969 0.5358336865901947
vt 0.8603590130805969 0.5015629529953003
vt 0.7897085547447205 0.5015629529953003
vt 0.7897085547447205 0.5358336865901947
vt 0.4071946442127228 0.5015629529953003
vt 0.4071946442127228 0.5358336865901947
vt 0.94287109375 0.9931640625
vt 0.97705078125 0.62548828125
vt 0.97705078125 0.9931640625
vt 0.94287109375 0.62548828125
vt 0.41747602820396423 0.6986788809299469
vt 0.7897085547447205 0.5358336865901947
vt 0.41747602820396423 0.5358336865901947
vt 0.8326791524887085 0.6985386610031128
vt 0.8173887133598328 0.5450604259967804
vt 0.8326791524887085 0.563777506351471
vt 0.8326791524887085 0.6985093057155609
vt 0.8173887133598328 0.5450604259967804
vt 0.8326791524887085 0.563777506351471
vt 0.7897085547447205 0.5358336865901947
vt 0.41747602820396423 0.6986788809299469
vt 0.41747602820396423 0.5358336865901947
vt 0.2846512794494629 0.6038418710231781
vt 0.3389570713043213 0.9940007952973247
vt 0.2846512794494629 0.9940007952973247
vt 0.3389570713043213 0.6038418710231781
vt 0.35319268703460693 0.6038418710231781
vt 0.35319268703460693 0.9940007952973247
vt 0.5498539209365845 0.9940007952973247
vt 0.5498539209365845 0.6038418710231781
vt 0.35319268703460693 0.9940007962286472
vt 0.3389570713043213 0.6038418710231781
vt 0.3389570713043213 0.9940007952973247
vt 0.35319268703460693 0.6038418710231781
vt 0.2846512794494629 0.6038418710231781
vt 0.2846512794494629 0.9940007952973247
vt 0.5498539209365845 0.9940007962286472
vt 0.5498539209365845 0.6038418710231781
vt 0.33531415462493896 0.9764911159873009
vt 0.28851544857025146 0.6053647994995117
vt 0.33531421422958374 0.6053647994995117
vt 0.28851214051246643 0.9980436800979078
vt 0.32928359508514404 0.9980709427036345

g demo_chair
s 1
usemtl demo_chair_0
f 3/3/3 2/2/2 1/1/1 
f 4/4/4 1/1/1 2/2/2 
f 2/2/2 3/3/3 5/5/5 
f 6/6/6 5/5/5 3/3/3 
f 9/9/9 8/8/8 7/7/7 
f 10/10/10 7/7/7 8/8/8 
f 8/8/8 9/9/9 11/11/11 
f 11/11/11 12/12/12 8/8/8 
f 13/13/13 8/8/8 12/12/12 
f 8/8/8 13/13/13 10/10/10 
f 14/14/14 11/11/11 9/9/9 
f 14/14/14 9/9/9 15/15/15 
f 16/16/16 15/15/15 9/9/9 
f 15/15/15 16/16/16 17/17/17 
f 18/18/18 17/17/17 16/16/16 
f 17/17/17 18/18/18 19/19/19 
f 20/20/20 19/19/19 18/18/18 
f 19/19/19 20/20/20 21/21/21 
f 22/22/22 21/21/21 20/20/20 
f 21/21/21 22/22/22 23/23/23 
f 24/24/24 23/23/23 22/22/22 
f 23/23/23 24/24/24 25/25/25 
f 26/26/26 25/25/25 24/24/24 
f 25/25/25 26/26/26 27/27/27 
f 28/28/28 27/27/27 26/26/26 
f 24/24/24 22/22/22 29/29/29 
f 30/30/30 29/29/29 22/22/22 
f 22/22/22 20/20/20 30/30/30 
f 28/28/28 26/26/26 31/31/31 
f 32/32/32 31/31/31 26/26/26 
f 29/29/29 32/32/32 24/24/24 
f 26/26/26 24/24/24 32/32/32 
f 33/33/33 30/30/30 20/20/20 
f 20/20/20 18/18/18 33/33/33 
f 34/34/34 33/33/33 18/18/18 
f 35/35/35 34/34/34 16/16/16 
f 16/16/16 9/9/9 35/35/35 
f 7/7/7 35/35/35 9/9/9 
f 18/18/18 16/16/16 34/34/34 
f 38/38/38 37/37/37 36/36/36 
f 39/39/39 36/36/36 37/37/37 
f 39/39/39 37/37/37 40/40/40 
f 41/41/41 40/40/40 37/37/37 
f 36/36/36 42/42/42 38/38/38 
f 42/42/42 43/43/43 38/38/38 
f 44/44/44 38/38/38 43/43/43 
f 43/43/43 45/45/45 44/44/44 
f 44/44/44 45/45/45 46/46/46 
f 47/47/47 46/46/46 45/45/45 
f 46/46/46 47/47/47 48/48/48 
f 49/49/49 48/48/48 47/47/47 
f 48/48/48 49/49/49 50/50/50 
f 51/51/51 50/50/50 49/49/49 
f 50/50/50 51/51/51 52/52/52 
f 53/53/53 52/52/52 51/51/51 
f 56/56/56 55/55/55 54/54/54 
f 55/55/55 57/57/57 54/54/54 
f 55/55/55 58/58/58 57/57/57 
f 61/61/61 60/60/60 59/59/59 
f 62/62/62 59/59/59 60/60/60 
f 61/61/61 63/63/63 60/60/60 
f 64/64/64 60/60/60 63/63/63 
f 63/63/63 65/65/65 64/64/64 
f 66/66/66 64/64/64 65/65/65 
f 65/65/65 67/67/67 66/66/66 
f 68/68/68 66/66/66 67/67/67 
f 67/67/67 69/69/69 68/68/68 
f 68/68/68 69/69/69 70/70/70 
f 71/71/71 70/70/70 69/69/69 
f 71/71/71 72/72/72 70/70/70 
f 70/70/70 72/72/72 73/73/73 
f 74/74/74 73/73/73 72/72/72 
f 73/73/73 74/74/74 75/75/75 
f 76/76/76 75/75/75 74/74/74 
f 79/79/79 78/78/78 77/77/77 
f 80/80/80 77/77/77 78/78/78 
f 77/77/77 80/80/80 81/81/81 
f 82/82/82 81/81/81 80/80/80 
f 78/78/78 79/79/79 83/83/83 
f 84/84/84 83/83/83 79/79/79 
f 83/83/83 84/84/84 85/85/85 
f 86/86/86 85/85/85 84/84/84 
f 87/87/87 10/10/10 13/13/13 
f 90/90/90 89/89/89 88/88/88 
f 91/91/91 88/88/88 89/89/89 
f 88/88/88 91/91/91 92/92/92 
f 93/93/93 92/92/92 91/91/91 
f 92/92/92 93/93/93 94/94/94 
f 95/95/95 94/94/94 93/93/93 
f 94/94/94 95/95/95 96/96/96 
f 97/97/97 96/96/96 95/95/95 
f 96/96/96 97/97/97 98/98/98 
f 99/99/99 98/98/98 97/97/97 
f 98/98/98 99/99/99 100/100/100 
f 101/101/101 100/100/100 99/99/99 
f 100/100/100 101/101/101 102/102/102 
f 103/103/103 102/102/102 101/101/101 
f 89/89/89 90/90/90 104/104/104 
f 105/105/105 104/104/104 90/90/90 
f 108/108/108 107/107/107 106/106/106 
f 109/109/109 107/107/107 108/108/108 
f 110/110/110 109/109/109 108/108/108 
f 107/107/107 109/109/109 111/111/111 
f 112/112/112 111/111/111 109/109/109 
f 113/113/113 108/108/108 106/106/106 
f 114/114/114 108/108/108 113/113/113 
f 115/115/115 108/108/108 114/114/114 
f 116/116/116 108/108/108 115/115/115 
f 116/116/116 117/117/117 108/108/108 
f 118/118/118 108/108/108 117/117/117 
f 121/121/121 120/120/120 119/119/119 
f 122/122/122 119/119/119 120/120/120 
f 125/125/125 124/124/124 123/123/123 
f 126/126/126 123/123/123 124/124/124 
f 129/129/129 128/128/128 127/127/127 
f 130/130/130 127/127/127 128/128/128 
f 133/133/133 132/132/132 131/131/131 
f 136/136/136 135/135/135 134/134/134 
f 137/137/137 134/134/134 135/135/135 
f 134/134/134 138/138/138 136/136/136 
f 139/139/139 136/136/136 138/138/138 
f 136/136/136 140/140/140 135/135/135 
f 139/139/139 140/140/140 136/136/136 
f 141/141/141 135/135/135 140/140/140 
f 142/142/142 140/140/140 139/139/139 
f 139/139/139 138/138/138 142/142/142 
f 140/140/140 142/142/142 143/143/143 
f 141/141/141 140/140/140 143/143/143 
f 144/144/144 143/143/143 142/142/142 
f 142/142/142 145/145/145 144/144/144 
f 145/145/145 142/142/142 138/138/138 
f 146/146/146 144/144/144 145/145/145 
f 147/147/147 141/141/141 143/143/143 
f 150/150/150 149/149/149 148/148/148 
f 151/151/151 148/148/148 149/149/149 
f 149/149/149 150/150/150 152/152/152 
f 153/153/153 152/152/152 150/150/150 
f 150/150/150 148/148/148 154/154/154 
f 154/154/154 153/153/153 150/150/150 
f 155/155/155 154/154/154 148/148/148 
f 154/154/154 156/156/156 153/153/153 
f 154/154/154 157/157/157 156/156/156 
f 155/155/155 157/157/157 154/154/154 
f 158/158/158 156/156/156 157/157/157 
f 158/158/158 159/159/159 156/156/156 
f 160/160/160 156/156/156 159/159/159 
f 152/152/152 153/153/153 160/160/160 
f 156/156/156 160/160/160 153/153/153 
f 161/161/161 157/157/157 155/155/155 
f 164/164/164 163/163/163 162/162/162 
f 165/165/165 162/162/162 163/163/163 
f 168/168/168 167/167/167 166/166/166 
f 168/168/168 169/169/169 167/167/167 
f 168/168/168 170/170/170 169/169/169 
f 168/168/168 166/166/166 171/171/171 
f 172/172/172 171/171/171 166/166/166 
f 175/175/175 174/174/174 173/173/173 
f 176/176/176 173/173/173 174/174/174 
f 179/179/179 178/178/178 177/177/177 
f 180/180/180 177/177/177 178/178/178 
f 183/183/183 182/182/182 181/181/181 
f 184/184/184 182/182/182 183/183/183 
f 185/185/185 182/182/182 184/184/184 
f 182/182/182 186/186/186 181/181/181 
f 187/187/187 181/181/181 186/186/186 
f 190/190/190 189/189/189 188/188/188 
f 191/191/191 188/188/188 189/189/189 
f 194/194/194 193/193/193 192/192/192 
f 197/197/197 196/196/196 195/195/195 
f 198/198/198 195/195/195 196/196/196 
f 201/201/201 200/200/200 199/199/199 
f 202/202/202 199/199/199 200/200/200 
f 205/205/205 204/204/204 203/203/203 
f 206/206/206 203/203/203 204/204/204 
f 209/209/209 208/208/208 207/207/207 
f 210/210/210 207/207/207 208/208/208 
f 213/213/213 212/212/212 211/211/211 
f 214/214/214 211/211/211 212/212/212 
f 217/217/217 216/216/216 215/215/215 
f 218/218/218 215/215/215 216/216/216 
f 221/221/221 220/220/220 219/219/219 
f 219/219/219 220/220/220 222/222/222 
f 222/222/222 220/220/220 223/223/223 
f 226/226/226 225/225/225 224/224/224 
f 227/227/227 224/224/224 225/225/225 
f 230/230/230 229/229/229 228/228/228 
f 231/231/231 228/228/228 229/229/229 
f 231/231/231 229/229/229 232/232/232 
f 233/233/233 232/232/232 229/229/229 
f 230/230/230 228/228/228 234/234/234 
f 235/235/235 234/234/234 228/228/228 
f 234/234/234 235/235/235 236/236/236 
f 237/237/237 236/236/236 235/235/235 
f 240/240/240 239/239/239 238/238/238 
f 241/241/241 238/238/238 239/239/239 
f 244/244/244 243/243/243 242/242/242 
f 245/245/245 242/242/242 243/243/243 
f 244/244/244 246/246/246 243/243/243 
f 247/247/247 243/243/243 246/246/246 
f 245/245/245 248/248/248 242/242/242 
f 249/249/249 242/242/242 248/248/248 
f 248/248/248 250/250/250 249/249/249 
f 251/251/251 249/249/249 250/250/250 
f 254/254/254 253/253/253 252/252/252 
f 255/255/255 252/252/252 253/253/253 
f 258/258/258 257/257/257 256/256/256 
f 259/259/259 256/256/256 257/257/257 
f 260/260/260 259/259/259 257/257/257 
f 261/261/261 259/259/259 260/260/260 
f 264/264/264 263/263/263 262/262/262 
f 263/263/263 265/265/265 262/262/262 
f 265/265/265 266/266/266 262/262/262 
f 267/267/267 266/266/266 265/265/265 

usemtl demo_chair_1
f 270/270/270 269/269/269 268/268/268 
f 271/271/271 268/268/268 269/269/269 
f 271/271/271 269/269/269 272/272/272 
f 273/273/273 272/272/272 269/269/269 
f 273/273/273 274/274/274 272/272/272 
f 275/275/275 272/272/272 274/274/274 
f 278/278/278 277/277/277 276/276/276 
f 279/279/279 276/276/276 277/277/277 
f 277/277/277 278/278/278 280/280/280 
f 281/281/281 280/280/280 278/278/278 
f 276/276/276 279/279/279 282/282/282 
f 283/283/283 282/282/282 279/279/279 
f 286/286/286 285/285/285 284/284/284 
f 287/287/287 284/284/284 285/285/285 
f 287/287/287 288/288/288 284/284/284 

