v 0.198736771941185 0.0711628645658493 0.22148673236370087
v 0.1999066323041916 0.05340215191245079 0.24236081540584564
v 0.22922348976135254 0.1347200721502304 0.25871649384498596
v 0.23047535121440887 0.1277753710746765 0.2877699136734009
v 0.17517010867595673 0.04734819009900093 0.26049381494522095
v 0.208152174949646 0.1307307332754135 0.30933427810668945
v 0.19429071247577667 0.01319081149995327 0.15102489292621613
v 0.17800351977348328 -0.02959742210805416 0.12388700991868973
v 0.1477358639240265 -0.045603442937135696 0.1275322437286377
v 0.20389237999916077 0.14252813160419464 0.23448120057582855
v 0.17106322944164276 0.08743276447057724 0.2043657898902893
v 0.14461271464824677 0.05256842076778412 0.26615920662879944
v 0.1776253879070282 0.1387951672077179 0.31327348947525024
v 0.16312046349048615 0.06030111759901047 0.15050145983695984
v 0.16697841882705688 0.07225971668958664 0.12660937011241913
v 0.11492323875427246 -0.034429870545864105 0.15362831950187683
v 0.17267762124538422 0.15397974848747253 0.24592748284339905
v 0.1424761861562729 0.09220314025878906 0.21738387644290924
v 0.15574225783348083 0.15026994049549103 0.265506386756897
v 0.12656283378601074 0.0813366174697876 0.23147130012512207
v 0.1296408474445343 0.06202010437846184 0.16061356663703918
v 0.15559670329093933 0.145546093583107 0.29109928011894226
v 0.1255439668893814 0.06713119894266129 0.25036680698394775
v 0.1776253879070282 0.1387951672077179 0.31327348947525024
v 0.14461271464824677 0.05256842076778412 0.26615920662879944
v 0.10238713771104813 -0.0027674990706145763 0.16433772444725037
v 0.11492323875427246 -0.034429870545864105 0.15362831950187683
v 0.10448452830314636 0.020475629717111588 0.1592087745666504
v 0.11637977510690689 0.06480740755796432 0.13455700874328613
v 0.13873587548732758 0.07772158086299896 0.11905349791049957
v 0.20198427140712738 0.22851474583148956 0.27965113520622253
v 0.19997866451740265 0.22263236343860626 0.2582174837589264
v 0.2510806918144226 0.2958088517189026 0.24336065351963043
v 0.26497408747673035 0.2962571382522583 0.2567159831523895
v 0.33588728308677673 0.37790247797966003 0.15155795216560364
v 0.24998392164707184 0.29164305329322815 0.22832198441028595
v 0.25914761424064636 0.2872505187988281 0.21652638912200928
v 0.27595531940460205 0.2755632698535919 0.21286489069461823
v 0.29180708527565 0.2757309079170227 0.22750617563724518
v 0.2937936782836914 0.27943211793899536 0.24495528638362885
v 0.28216853737831116 0.28844499588012695 0.25618255138397217
v 0.26497408747673035 0.2962571382522583 0.2567159831523895
v 0.25995519757270813 0.1991356611251831 0.2568894624710083
v 0.23677611351013184 0.19925923645496368 0.23570668697357178
v 0.24668559432029724 0.21758048236370087 0.2979139983654022
v 0.26321133971214294 0.20452392101287842 0.28180861473083496
v 0.21256780624389648 0.21618925034999847 0.2415035218000412
v 0.22207586467266083 0.22893483936786652 0.2987409234046936
v 0.18615785241127014 0.05921398103237152 0.10013393312692642
v 0.2340545356273651 -0.0024790246970951557 0.10794462263584137
v 0.19224590063095093 0.06104382872581482 0.107371486723423
v 0.22763130068778992 -0.0007752513629384339 0.10124693810939789
v 0.224761500954628 0.07833705097436905 0.07688730210065842
v 0.25223755836486816 0.0037247538566589355 0.07723487913608551
v 0.22280476987361908 0.07710880786180496 0.06886859983205795
v 0.15267328917980194 0.11986301094293594 0.09552425146102905
v 0.1526421159505844 0.11307121068239212 0.09072263538837433
v 0.12276365607976913 0.16029269993305206 0.05968140810728073
v 0.09704086929559708 0.13835470378398895 0.08185234665870667
v 0.10147660970687866 0.10767818987369537 0.10176649689674377
v 0.058775644749403 0.0918443575501442 0.12025125324726105
v 0.08407147228717804 0.15694454312324524 0.06325142085552216
v 0.07186487317085266 0.15181340277194977 0.06325141340494156
v 0.05432724207639694 0.1639077365398407 0.042896151542663574
v 0.01730443350970745 0.1421295404434204 0.06804382801055908
v 0.008750108070671558 0.15894876420497894 0.035796988755464554
v 0.044254668056964874 0.1704769879579544 0.022274192422628403
v 0.07114601135253906 0.17816539108753204 0.019175559282302856
v 0.24487556517124176 -0.0009703533141873777 0.06892464309930801
v 0.2131362110376358 -0.01293583121150732 0.10651743412017822
v 0.21490876376628876 -0.014836711809039116 0.1138177290558815
v 0.2380225658416748 -0.030519112944602966 0.0634876936674118
v 0.1939362734556198 -0.03439728915691376 0.10394566506147385
v 0.1901809722185135 -0.07420538365840912 0.057115644216537476
v 0.18589907884597778 -0.0519428588449955 0.09125380963087082
v 0.18821661174297333 -0.05474581569433212 0.09663151204586029
v 0.1934559941291809 -0.0844438225030899 0.058661241084337234
v -0.03488091751933098 0.14096699655056 0.05755780264735222
v 0.19429071247577667 0.01319081149995327 0.15102489292621613
v 0.16697841882705688 0.07225971668958664 0.12660937011241913
v 0.16741223633289337 -0.11382096260786057 0.05845899507403374
v 0.19739003479480743 -0.03706180676817894 0.11250930279493332
v 0.17800351977348328 -0.02959742210805416 0.12388700991868973
v 0.24583639204502106 -0.049299973994493484 0.023179301992058754
v 0.2607209384441376 -0.004134748596698046 0.046075060963630676
v 0.15926769375801086 -0.07770195603370667 0.10636501014232635
v 0.1519595831632614 -0.052803199738264084 0.13087616860866547
v 0.254056841135025 0.03165214881300926 0.0559014230966568
v 0.23649388551712036 0.09273242950439453 0.040045518428087234
v 0.20044225454330444 0.14556588232517242 0.02538532204926014
v 0.2570876479148865 0.09726925939321518 0.027117986232042313
v 0.1961597055196762 0.12884384393692017 0.05344893038272858
v 0.18637725710868835 0.16840937733650208 0.02335312031209469
v 0.15384802222251892 0.1755143702030182 0.026319272816181183
v 0.1032198891043663 0.17993848025798798 0.027759427204728127
v 0.07623714953660965 0.17090091109275818 0.04289615899324417
v 0.3037400245666504 0.014244448393583298 0.03939424082636833
v 0.26535072922706604 0.008769317530095577 0.06318821758031845
v 0.2383972704410553 0.16236115992069244 2.833645567079657e-07
v 0.1599792242050171 0.19809630513191223 3.257422918068187e-07
v 0.09704290330410004 0.2041417956352234 3.299508932741446e-07
v 0.18637727200984955 0.16840943694114685 -0.023352546617388725
v 0.20044225454330444 0.1455659419298172 -0.025384804233908653
v 0.1961597055196762 0.1288440078496933 -0.05344845727086067
v 0.12276367098093033 0.160292848944664 -0.059680864214897156
v 0.15384802222251892 0.17551444470882416 -0.026318682357668877
v 0.1032198965549469 0.17993855476379395 -0.027758833020925522
v 0.07623715698719025 0.17090103030204773 -0.042895592749118805
v 0.07114601135253906 0.17816545069217682 -0.019174974411725998
v 0.08407147973775864 0.15694472193717957 -0.06325089186429977
v 0.09704087674617767 0.13835492730140686 -0.08185185492038727
v 0.15267330408096313 0.11986327171325684 -0.09552379697561264
v 0.1526421159505844 0.11307144910097122 -0.09072219580411911
v 0.18615785241127014 0.05921424552798271 -0.10013363510370255
v 0.19224590063095093 0.0610441155731678 -0.10737119615077972
v 0.2340545654296875 -0.0024787411093711853 -0.10794446617364883
v 0.22763130068778992 -0.0007749843643978238 -0.10124679654836655
v 0.224761500954628 0.07833725214004517 -0.07688695937395096
v 0.25223758816719055 0.0037249529268592596 -0.07723471522331238
v 0.22280478477478027 0.07710897922515869 -0.06886826455593109
v 0.10147661715745926 0.10767846554517746 -0.10176607966423035
v 0.058775655925273895 0.09184467047452927 -0.12025090306997299
v 0.07186488062143326 0.1518135666847229 -0.06325089931488037
v 0.05432724952697754 0.16390785574913025 -0.04289560765028
v 0.04425467550754547 0.17047704756259918 -0.022273629903793335
v 0.017304440960288048 0.14212971925735474 -0.06804334372282028
v 0.008750111795961857 0.1589488536119461 -0.03579646348953247
v 0.213136225938797 -0.012935550883412361 -0.10651732981204987
v 0.21490876376628876 -0.014836413785815239 -0.11381762474775314
v 0.24487556517124176 -0.0009701747912913561 -0.06892450898885727
v 0.2380225956439972 -0.030518949031829834 -0.06348763406276703
v 0.193936288356781 -0.03439701348543167 -0.10394561290740967
v 0.1901809722185135 -0.07420522719621658 -0.05711570754647255
v 0.18589907884597778 -0.0519426129758358 -0.09125380963087082
v 0.18821661174297333 -0.05474555864930153 -0.09663151204586029
v 0.1934559941291809 -0.08444366604089737 -0.0586613304913044
v -0.03488091006875038 0.14096716046333313 -0.057557325810194016
v -0.02440709061920643 0.13493791222572327 -0.06322109699249268
v -0.014725503511726856 0.11269697546958923 -0.08678635209798813
v 0.025044454261660576 0.12084872275590897 -0.08425381779670715
v 0.0368470624089241 0.091633640229702 -0.12543942034244537
v 0.06510293483734131 0.013801277615129948 -0.18091948330402374
v -0.0019456091104075313 0.07346957921981812 -0.1258668303489685
v 0.050118569284677505 0.08198527246713638 -0.11103721708059311
v 0.0689588263630867 0.014316420070827007 -0.12422177195549011
v 0.024735083803534508 0.0023641246370971203 -0.13841365277767181
v 0.16741225123405457 -0.11382081359624863 -0.058459166437387466
v 0.15926769375801086 -0.07770167291164398 -0.10636507719755173
v 0.17800353467464447 -0.029597099870443344 -0.12388695776462555
v 0.1519595980644226 -0.052802860736846924 -0.13087616860866547
v 0.10448454320430756 0.020476046949625015 -0.15920861065387726
v 0.10238716006278992 -0.002767068101093173 -0.16433760523796082
v 0.11637978255748749 0.06480776518583298 -0.13455671072006226
v 0.13873589038848877 0.07772190123796463 -0.11905316263437271
v 0.16697843372821808 0.0722600519657135 -0.12660904228687286
v 0.19429072737693787 0.013191210106015205 -0.1510247141122818
v 0.19739004969596863 -0.03706151247024536 -0.11250926554203033
v 0.16312047839164734 0.060301512479782104 -0.15050117671489716
v 0.08718175441026688 -0.055225566029548645 0.08265482634305954
v 0.0689588114619255 0.014316092245280743 0.12422193586826324
v 0.09707451611757278 -0.1263367384672165 0.14891812205314636
v 0.1091034859418869 -0.18661464750766754 0.08003361523151398
v 0.08160366863012314 -0.06120823696255684 0.18543142080307007
v 0.06510291248559952 0.013800800777971745 0.1809196174144745
v 0.05011855438351631 0.0819849818944931 0.11103754490613937
v 0.03684704750776291 0.09163331985473633 0.12543977797031403
v 0.02504444494843483 0.12084849178791046 0.08425424993038177
v 0.09830442070960999 -0.09330238401889801 -6.16140241049834e-08
v 0.11543817073106766 -0.22085078060626984 -2.2853375014619814e-07
v 0.16741223633289337 -0.11382096260786057 0.05845899507403374
v 0.1570308655500412 -0.09791534394025803 0.05604244023561478
v 0.15281668305397034 -0.07327938824892044 0.10273117572069168
v 0.15926769375801086 -0.07770195603370667 0.10636501014232635
v 0.1519595831632614 -0.052803199738264084 0.13087616860866547
v 0.1477358639240265 -0.045603442937135696 0.1275322437286377
v 0.17800351977348328 -0.02959742210805416 0.12388700991868973
v 0.15892276167869568 -0.1134021133184433 -8.446581034604606e-08
v 0.17188186943531036 -0.13642337918281555 -1.1400511112924505e-07
v 0.1477358639240265 -0.045603442937135696 0.1275322437286377
v 0.15281668305397034 -0.07327938824892044 0.10273117572069168
v 0.09707451611757278 -0.1263367384672165 0.14891812205314636
v 0.08160366863012314 -0.06120823696255684 0.18543142080307007
v 0.1091034859418869 -0.18661464750766754 0.08003361523151398
v 0.1570308655500412 -0.09791534394025803 0.05604244023561478
v 0.11492323875427246 -0.034429870545864105 0.15362831950187683
v 0.10238713771104813 -0.0027674990706145763 0.16433772444725037
v 0.06510291248559952 0.013800800777971745 0.1809196174144745
v 0.10448452830314636 0.020475629717111588 0.1592087745666504
v 0.03684704750776291 0.09163331985473633 0.12543977797031403
v 0.02504444494843483 0.12084849178791046 0.08425424993038177
v -0.014725514687597752 0.11269673705101013 0.08678677678108215
v -0.024407098069787025 0.13493774831295013 0.06322155892848969
v -0.001945624127984047 0.07346924394369125 0.12586712837219238
v 0.05011855438351631 0.0819849818944931 0.11103754490613937
v 0.0689588114619255 0.014316092245280743 0.12422193586826324
v 0.024735067039728165 0.0023637572303414345 0.13841377198696136
v 0.08718175441026688 -0.055225566029548645 0.08265482634305954
v 0.03867986053228378 -0.06572836637496948 0.09706402570009232
v 0.11637977510690689 0.06480740755796432 0.13455700874328613
v 0.13873587548732758 0.07772158086299896 0.11905349791049957
v 0.16312046349048615 0.06030111759901047 0.15050145983695984
v 0.09830442070960999 -0.09330238401889801 -6.16140241049834e-08
v 0.04601910337805748 -0.10436699539422989 -7.92991627918127e-08
v -0.04593731835484505 0.14762544631958008 0.03796562924981117
v -0.032090652734041214 0.15449795126914978 0.02683957666158676
v 0.0017327573150396347 0.1667208969593048 0.01640414446592331
v 0.03004080057144165 0.18535590171813965 3.0122205885163567e-07
v -0.008510774001479149 0.18168751895427704 2.940940362350375e-07
v -0.0034537811297923326 0.16800090670585632 2.763745214906521e-07
v -0.03077203966677189 0.1522139310836792 2.53959740348364e-07
v 0.0017327592941001058 0.1667209416627884 -0.016403593122959137
v -0.032090649008750916 0.15449801087379456 -0.02683906815946102
v -0.04593731462955475 0.14762553572654724 -0.037965141236782074
v 0.19873681664466858 0.07116344571113586 -0.221486434340477
v 0.22922353446483612 0.13472072780132294 -0.25871601700782776
v 0.19990666210651398 0.053402796387672424 -0.24236054718494415
v 0.23047538101673126 0.1277761310338974 -0.28776946663856506
v 0.1751701384782791 0.04734887555241585 -0.26049354672431946
v 0.20815221965312958 0.13073155283927917 -0.30933383107185364
v 0.19429072737693787 0.013191210106015205 -0.1510247141122818
v 0.17800353467464447 -0.029597099870443344 -0.12388695776462555
v 0.14773589372634888 -0.04560311138629913 -0.1275322437286377
v 0.20389240980148315 0.1425287425518036 -0.23448072373867035
v 0.17106324434280396 0.08743330836296082 -0.20436543226242065
v 0.14461275935173035 0.05256912112236023 -0.26615896821022034
v 0.17762541770935059 0.13879598677158356 -0.31327301263809204
v 0.16312047839164734 0.060301512479782104 -0.15050117671489716
v 0.16697843372821808 0.0722600519657135 -0.12660904228687286
v 0.11492324620485306 -0.03442947193980217 -0.15362827479839325
v 0.1726776510477066 0.15398038923740387 -0.24592693150043488
v 0.14247621595859528 0.09220371395349503 -0.21738353371620178
v 0.15574228763580322 0.15027065575122833 -0.265505850315094
v 0.12656286358833313 0.08133722841739655 -0.231470987200737
v 0.1296408772468567 0.06202052906155586 -0.1606132835149765
v 0.1555967479944229 0.14554686844348907 -0.29109880328178406
v 0.1255439966917038 0.06713185459375381 -0.2503665089607239
v 0.17762541770935059 0.13879598677158356 -0.31327301263809204
v 0.14461275935173035 0.05256912112236023 -0.26615896821022034
v 0.10238716006278992 -0.002767068101093173 -0.16433760523796082
v 0.11492324620485306 -0.03442947193980217 -0.15362827479839325
v 0.10448454320430756 0.020476046949625015 -0.15920861065387726
v 0.11637978255748749 0.06480776518583298 -0.13455671072006226
v 0.13873589038848877 0.07772190123796463 -0.11905316263437271
v 0.20198428630828857 0.22851546108722687 -0.27965039014816284
v 0.19997870922088623 0.22263303399085999 -0.2582167685031891
v 0.251080721616745 0.29580947756767273 -0.2433597445487976
v 0.26497411727905273 0.2962578237056732 -0.2567150890827179
v 0.3358873426914215 0.3779028654098511 -0.1515568047761917
v 0.24998395144939423 0.2916436493396759 -0.2283211052417755
v 0.25914764404296875 0.2872510850429535 -0.21652550995349884
v 0.27595531940460205 0.2755638360977173 -0.21286402642726898
v 0.2918071448802948 0.27573150396347046 -0.22750531136989594
v 0.2937937080860138 0.2794327735900879 -0.2449544072151184
v 0.28216856718063354 0.28844568133354187 -0.2561816871166229
v 0.26497411727905273 0.2962578237056732 -0.2567150890827179
v 0.2599552273750305 0.19913633167743683 -0.25688880681991577
v 0.23677615821361542 0.19925986230373383 -0.23570601642131805
v 0.24668563902378082 0.21758127212524414 -0.2979132831096649
v 0.26321136951446533 0.20452465116977692 -0.28180792927742004
v 0.21256782114505768 0.21618987619876862 -0.2415028065443039
v 0.22207589447498322 0.2289355993270874 -0.2987402081489563
v 0.23649388551712036 0.09273253381252289 -0.04004513472318649
v 0.2570876479148865 0.09726933389902115 -0.027117589488625526
v 0.2540568709373474 0.0316522940993309 -0.05590119585394859
v 0.26072096824645996 -0.004134626127779484 -0.04607493430376053
v 0.24583639204502106 -0.04929991438984871 -0.023179294541478157
v 0.3037400245666504 0.014244554564356804 -0.039394062012434006
v 0.2653507590293884 0.00876948144286871 -0.06318805366754532
v 0.2201434224843979 -0.08383236080408096 -4.188263957871641e-08
v 0.2828971743583679 0.10418374836444855 2.0941573097843502e-07
v 0.22168970108032227 0.15212459862232208 2.688904032766004e-07
v 0.328438937664032 0.019652212038636208 1.0082895585128426e-07
v 0.25638285279273987 0.09421267360448837 1.9470657264264446e-07
v 0.19570237398147583 -0.0974150225520134 -6.122355955540115e-08
v 0.19789370894432068 -0.10438418388366699 -7.026913095842247e-08
v 0.17188186943531036 -0.13642337918281555 -1.1400511112924505e-07
v 0.08718176931142807 -0.055225346237421036 -0.08265484869480133
v 0.09707453846931458 -0.12633633613586426 -0.14891834557056427
v 0.0689588263630867 0.014316420070827007 -0.12422177195549011
v 0.1091034933924675 -0.18661445379257202 -0.08003396540880203
v 0.08160369098186493 -0.06120774522423744 -0.18543148040771484
v 0.06510293483734131 0.013801277615129948 -0.18091948330402374
v 0.050118569284677505 0.08198527246713638 -0.11103721708059311
v 0.0368470624089241 0.091633640229702 -0.12543942034244537
v 0.025044454261660576 0.12084872275590897 -0.08425381779670715
v 0.09830442070960999 -0.09330238401889801 -6.16140241049834e-08
v 0.11543817073106766 -0.22085078060626984 -2.2853375014619814e-07
v 0.16741225123405457 -0.11382081359624863 -0.058459166437387466
v 0.15281669795513153 -0.07327912002801895 -0.10273123532533646
v 0.1570308655500412 -0.09791518747806549 -0.05604257434606552
v 0.15926769375801086 -0.07770167291164398 -0.10636507719755173
v 0.1519595980644226 -0.052802860736846924 -0.13087616860866547
v 0.14773589372634888 -0.04560311138629913 -0.1275322437286377
v 0.17800353467464447 -0.029597099870443344 -0.12388695776462555
v 0.15892276167869568 -0.1134021133184433 -8.446581034604606e-08
v 0.17188186943531036 -0.13642337918281555 -1.1400511112924505e-07
v 0.14773589372634888 -0.04560311138629913 -0.1275322437286377
v 0.09707453846931458 -0.12633633613586426 -0.14891834557056427
v 0.15281669795513153 -0.07327912002801895 -0.10273123532533646
v 0.08160369098186493 -0.06120774522423744 -0.18543148040771484
v 0.1091034933924675 -0.18661445379257202 -0.08003396540880203
v 0.1570308655500412 -0.09791518747806549 -0.05604257434606552
v 0.11492324620485306 -0.03442947193980217 -0.15362827479839325
v 0.10238716006278992 -0.002767068101093173 -0.16433760523796082
v 0.06510293483734131 0.013801277615129948 -0.18091948330402374
v 0.11543817073106766 -0.22085078060626984 -2.2853375014619814e-07
v 0.15892276167869568 -0.1134021133184433 -8.446581034604606e-08
v 0.08718176931142807 -0.055225346237421036 -0.08265484869480133
v 0.0689588263630867 0.014316420070827007 -0.12422177195549011
v 0.024735083803534508 0.0023641246370971203 -0.13841365277767181
v 0.03867987170815468 -0.06572811305522919 -0.0970640704035759
v 0.09830442070960999 -0.09330238401889801 -6.16140241049834e-08
v 0.04601910337805748 -0.10436699539422989 -7.92991627918127e-08
v 0.24583639204502106 -0.049299973994493484 0.023179301992058754
v 0.2694164514541626 -0.006608499214053154 6.273378261312246e-08
v 0.24830575287342072 -0.04985992982983589 4.526977015473221e-09
v 0.2607209384441376 -0.004134748596698046 0.046075060963630676
v 0.27157753705978394 0.02574118785560131 1.0545692674668317e-07
v 0.254056841135025 0.03165214881300926 0.0559014230966568
v 0.2201434224843979 -0.08383236080408096 -4.188263957871641e-08
v 0.24583639204502106 -0.04929991438984871 -0.023179294541478157
v 0.26072096824645996 -0.004134626127779484 -0.04607493430376053
v 0.2540568709373474 0.0316522940993309 -0.05590119585394859
v 0.328438937664032 0.019652212038636208 1.0082895585128426e-07
v 0.27157753705978394 0.02574118785560131 1.0545692674668317e-07
v 0.3037400245666504 0.014244448393583298 0.03939424082636833
v 0.26535072922706604 0.008769317530095577 0.06318821758031845
v 0.254056841135025 0.03165214881300926 0.0559014230966568
v 0.25638285279273987 0.09421267360448837 1.9470657264264446e-07
v 0.2570876479148865 0.09726925939321518 0.027117986232042313
v 0.2828971743583679 0.10418374836444855 2.0941573097843502e-07
v 0.23649388551712036 0.09273242950439453 0.040045518428087234
v 0.2383972704410553 0.16236115992069244 2.833645567079657e-07
v 0.22168970108032227 0.15212459862232208 2.688904032766004e-07
v 0.20044225454330444 0.14556588232517242 0.02538532204926014
v 0.15892276167869568 -0.1134021133184433 -8.446581034604606e-08
v 0.11543817073106766 -0.22085078060626984 -2.2853375014619814e-07
v 0.17188186943531036 -0.13642337918281555 -1.1400511112924505e-07
v 0.19789370894432068 -0.10438418388366699 -7.026913095842247e-08
v 0.19570237398147583 -0.0974150225520134 -6.122355955540115e-08
v 0.2201434224843979 -0.08383236080408096 -4.188263957871641e-08
v 0.03867986053228378 -0.06572836637496948 0.09706402570009232
v 0.04601910337805748 -0.10436699539422989 -7.92991627918127e-08
v -0.008032947778701782 0.03149282559752464 9.636350739583577e-08
v 0.024735067039728165 0.0023637572303414345 0.13841377198696136
v -0.001945624127984047 0.07346924394369125 0.12586712837219238
v -0.014725514687597752 0.11269673705101013 0.08678677678108215
v -0.024407098069787025 0.13493774831295013 0.06322155892848969
v -0.03488091751933098 0.14096699655056 0.05755780264735222
v -0.04593731835484505 0.14762544631958008 0.03796562924981117
v -0.032090652734041214 0.15449795126914978 0.02683957666158676
v -0.03077203966677189 0.1522139310836792 2.53959740348364e-07
v 0.328438937664032 0.019652212038636208 1.0082895585128426e-07
v 0.3037400245666504 0.014244554564356804 -0.039394062012434006
v 0.27157753705978394 0.02574118785560131 1.0545692674668317e-07
v 0.2653507590293884 0.00876948144286871 -0.06318805366754532
v 0.2540568709373474 0.0316522940993309 -0.05590119585394859
v 0.25638285279273987 0.09421267360448837 1.9470657264264446e-07
v 0.2828971743583679 0.10418374836444855 2.0941573097843502e-07
v 0.2570876479148865 0.09726933389902115 -0.027117589488625526
v 0.23649388551712036 0.09273253381252289 -0.04004513472318649
v 0.2383972704410553 0.16236115992069244 2.833645567079657e-07
v 0.20044225454330444 0.1455659419298172 -0.025384804233908653
v 0.22168970108032227 0.15212459862232208 2.688904032766004e-07
v 0.03867987170815468 -0.06572811305522919 -0.0970640704035759
v -0.008032947778701782 0.03149282559752464 9.636350739583577e-08
v 0.04601910337805748 -0.10436699539422989 -7.92991627918127e-08
v 0.024735083803534508 0.0023641246370971203 -0.13841365277767181
v -0.0019456091104075313 0.07346957921981812 -0.1258668303489685
v -0.014725503511726856 0.11269697546958923 -0.08678635209798813
v -0.02440709061920643 0.13493791222572327 -0.06322109699249268
v -0.03488091006875038 0.14096716046333313 -0.057557325810194016
v -0.04593731462955475 0.14762553572654724 -0.037965141236782074
v -0.032090649008750916 0.15449801087379456 -0.02683906815946102
v -0.03077203966677189 0.1522139310836792 2.53959740348364e-07
v 0.22207586467266083 0.22893483936786652 0.2987409234046936
v 0.22207589447498322 0.2289355993270874 -0.2987402081489563
vn 0.8973345160484314 0.089508056640625 -0.4321793019771576
vn 0.8178151249885559 -0.5186346769332886 0.24939221143722534
vn 0.8565173745155334 -0.298994243144989 -0.4206903874874115
vn 0.8185965418815613 -0.43146538734436035 0.3791270852088928
vn 0.27443334460258484 -0.6965613961219788 0.6629392504692078
vn 0.3344232439994812 -0.31169334053993225 0.8893864750862122
vn 0.9510049223899841 -0.01675906777381897 0.3087213635444641
vn 0.43071994185447693 -0.6193225383758545 0.6564449071884155
vn 0.2578495740890503 -0.43484705686569214 0.8627986907958984
vn 0.27085694670677185 0.12996749579906464 -0.9538055062294006
vn 0.2508850693702698 0.6673976182937622 -0.7011683583259583
vn -0.38440442085266113 -0.5135760307312012 0.767119824886322
vn -0.3274347186088562 -0.022195030003786087 0.9446130394935608
vn 0.5053673386573792 0.8628688454627991 0.007821287959814072
vn 0.42166709899902344 0.6836795210838318 0.5956334471702576
vn 0.4289083778858185 -0.32909101247787476 0.8412708640098572
vn -0.522776186466217 0.43059873580932617 -0.7357240319252014
vn -0.5162158608436584 0.6939670443534851 -0.5019271373748779
vn -0.8589069247245789 0.47796082496643066 -0.18393605947494507
vn -0.9033433198928833 0.4241522252559662 -0.06376182287931442
vn -0.523217499256134 0.8520507216453552 0.01590719260275364
vn -0.833776593208313 0.2840840220451355 0.47340548038482666
vn -0.8997182846069336 -0.044389836490154266 0.4342079758644104
vn -0.3274347186088562 -0.022195030003786087 0.9446130394935608
vn -0.38440442085266113 -0.5135760307312012 0.767119824886322
vn -0.16332246363162994 -0.10011930018663406 0.9814794659614563
vn 0.4289083778858185 -0.32909101247787476 0.8412708640098572
vn -0.46888476610183716 0.5231348276138306 0.7116720080375671
vn -0.201272651553154 0.7043823003768921 0.6806870698928833
vn -0.008483478799462318 0.7098844647407532 0.7042670845985413
vn -0.7538723945617676 0.5719645023345947 0.32331547141075134
vn -0.8152004480361938 0.4630580246448517 -0.34788715839385986
vn -0.6612063050270081 0.7208715677261353 0.2077268362045288
vn -0.10831794887781143 0.7001614570617676 0.7057202458381653
vn 0.4545734226703644 0.6637830138206482 -0.5939319133758545
vn -0.8063388466835022 0.45392900705337524 -0.37916505336761475
vn -0.5821030139923096 0.007001277059316635 -0.8130849599838257
vn 0.12782123684883118 -0.4535825252532959 -0.8820003271102905
vn 0.8026577234268188 -0.5097934007644653 -0.30959853529930115
vn 0.919781506061554 -0.11128303408622742 0.3763216435909271
vn 0.5210044980049133 0.36120370030403137 0.7733603715896606
vn -0.10831794887781143 0.7001614570617676 0.7057202458381653
vn 0.8297353982925415 -0.4345814883708954 -0.35025453567504883
vn 0.23606276512145996 -0.23611140251159668 -0.9426164627075195
vn 0.42619261145591736 0.11561953276395798 0.8972135186195374
vn 0.8716470003128052 -0.24151255190372467 0.42650121450424194
vn -0.5132107138633728 0.1655184030532837 -0.8421511054039001
vn -0.23018859326839447 0.45176881551742554 0.8619269728660583
vn 0.8228160738945007 0.5492351651191711 0.14599494636058807
vn 0.9769142270088196 -0.21033011376857758 -0.037416134029626846
vn 0.8257569670677185 0.5622320175170898 -0.04495026916265488
vn 0.9675402641296387 -0.21495109796524048 0.13289807736873627
vn 0.7985983490943909 0.4549337327480316 0.3940507173538208
vn 0.9761741161346436 -0.21315492689609528 0.040607795119285583
vn 0.8955186605453491 0.4243945777416229 0.13392373919487
vn 0.6350311636924744 0.687073290348053 0.35308030247688293
vn 0.7982152104377747 0.5951754450798035 0.09283656626939774
vn 0.13925327360630035 0.7674586772918701 0.6257920265197754
vn -0.025649679824709892 0.6529048681259155 0.7570055723190308
vn 0.07485789060592651 0.56605464220047 0.8209619522094727
vn 0.08793086558580399 0.664020836353302 0.7425257563591003
vn -0.1406300663948059 0.7213935256004333 0.6780962347984314
vn -0.17612166702747345 0.7266563773155212 0.6640418171882629
vn -0.190423846244812 0.8564903736114502 0.4797531068325043
vn -0.1275331974029541 0.7357925772666931 0.6650899052619934
vn -0.16599318385124207 0.8722348809242249 0.4600571393966675
vn -0.1408749669790268 0.8548548817634583 0.49937689304351807
vn -0.20124635100364685 0.81919926404953 0.5370404720306396
vn 0.887079119682312 -0.3081474006175995 0.34370896220207214
vn 0.6891358494758606 -0.7234213948249817 0.04187170788645744
vn 0.6757966876029968 -0.689804196357727 0.25974807143211365
vn 0.7008582949638367 -0.5080244541168213 0.5007084012031555
vn 0.8489528298377991 -0.5282126665115356 -0.01644720323383808
vn 0.9486244320869446 -0.22314274311065674 0.22431893646717072
vn 0.9784466624259949 -0.1926642507314682 0.07431383430957794
vn 0.912482738494873 -0.3304539620876312 0.2411959022283554
vn 0.9443878531455994 -0.21810828149318695 0.246089905500412
vn -0.6463559865951538 0.2840212285518646 0.708206057548523
vn 0.9510049223899841 -0.01675906777381897 0.3087213635444641
vn 0.42166709899902344 0.6836795210838318 0.5956334471702576
vn -0.09646903723478317 -0.8940492272377014 0.4374583661556244
vn 0.6496935486793518 -0.6930460929870605 0.31238648295402527
vn 0.43071994185447693 -0.6193225383758545 0.6564449071884155
vn 0.7661123871803284 -0.5807244181632996 0.27537423372268677
vn 0.9057701230049133 -0.18237535655498505 0.38251757621765137
vn -0.016328852623701096 -0.7566850781440735 0.653575599193573
vn -0.24348992109298706 -0.3600471019744873 0.9005991220474243
vn 0.5392052531242371 0.16696986556053162 0.8254566788673401
vn 0.6136736273765564 0.440456360578537 0.6552884578704834
vn 0.6308600902557373 0.458645224571228 0.6258275508880615
vn 0.6563946604728699 -0.3142985701560974 0.685829758644104
vn 0.5635375380516052 0.583754301071167 0.5845137238502502
vn 0.3761977553367615 0.6500843167304993 0.6602012515068054
vn 0.16462582349777222 0.7783768773078918 0.6058282256126404
vn -0.019961504265666008 0.8271551728248596 0.5616191029548645
vn -0.1641910821199417 0.8635262250900269 0.4768267869949341
vn 0.6736948490142822 -0.5182145833969116 0.5268669724464417
vn -0.23179219663143158 -0.5923659205436707 0.7716054320335388
vn 0.9928520321846008 0.11935102194547653 1.3942724308435572e-07
vn 0.22756905853748322 0.9737619757652283 1.2641778539546067e-06
vn -0.10243520140647888 0.9947397112846375 1.2377279290376464e-06
vn 0.376197874546051 0.650085985660553 -0.6601994037628174
vn 0.6308601498603821 0.4586469531059265 -0.6258261799812317
vn 0.5635378360748291 0.5837558507919312 -0.5845120549201965
vn 0.13925325870513916 0.767460286617279 -0.625789999961853
vn 0.164625883102417 0.7783785462379456 -0.6058260798454285
vn -0.019961480051279068 0.8271567225456238 -0.5616167783737183
vn -0.1641910821199417 0.8635275363922119 -0.47682443261146545
vn -0.20124627649784088 0.8192006349563599 -0.5370383262634277
vn -0.14063002169132233 0.7213953733444214 -0.6780943870544434
vn -0.025649571791291237 0.652906596660614 -0.7570039629936218
vn 0.6350310444831848 0.6870743036270142 -0.3530784547328949
vn 0.7982152104377747 0.5951756834983826 -0.0928351879119873
vn 0.8228161334991455 0.5492354035377502 -0.14599333703517914
vn 0.8257569670677185 0.5622320175170898 0.044951703399419785
vn 0.97691410779953 -0.21033023297786713 0.03741587698459625
vn 0.9675402641296387 -0.2149503529071808 -0.1328989863395691
vn 0.7985984086990356 0.4549347162246704 -0.3940494656562805
vn 0.9761742353439331 -0.21315470337867737 -0.04060766100883484
vn 0.8955186605453491 0.4243949055671692 -0.1339225322008133
vn 0.07485804706811905 0.5660567879676819 -0.8209604024887085
vn 0.08793101459741592 0.6640228629112244 -0.7425239682197571
vn -0.17612165212631226 0.7266581654548645 -0.6640399694442749
vn -0.19042377173900604 0.8564916849136353 -0.4797506630420685
vn -0.1408749222755432 0.8548561930656433 -0.49937474727630615
vn -0.12753312289714813 0.7357942461967468 -0.6650880575180054
vn -0.1659931242465973 0.8722361326217651 -0.46005478501319885
vn 0.6891358494758606 -0.7234212756156921 -0.041873347014188766
vn 0.6757968664169312 -0.6898033618927002 -0.25975000858306885
vn 0.887079119682312 -0.30814677476882935 -0.3437095582485199
vn 0.7008582353591919 -0.508023202419281 -0.5007096529006958
vn 0.8489528298377991 -0.5282126665115356 0.016445934772491455
vn 0.9486244320869446 -0.22314222157001495 -0.2243194729089737
vn 0.9784466624259949 -0.19266408681869507 -0.07431429624557495
vn 0.9124828577041626 -0.3304532766342163 -0.2411966472864151
vn 0.9443879127502441 -0.21810752153396606 -0.24609029293060303
vn -0.6463558673858643 0.2840231955051422 -0.7082054615020752
vn -0.5732533931732178 0.15466029942035675 -0.8046494126319885
vn -0.7356870174407959 0.308999240398407 -0.6027304530143738
vn -0.11053764820098877 0.6233381628990173 -0.774100124835968
vn -0.8039349913597107 0.2522183954715729 -0.5385855436325073
vn -0.5284119844436646 0.15603424608707428 -0.8345262408256531
vn -0.5794419646263123 0.17803418636322021 -0.7953307032585144
vn -0.7654592394828796 -0.19549618661403656 -0.6130689382553101
vn -0.6751412749290466 -0.3032606244087219 -0.6724709868431091
vn -0.38626646995544434 -0.26662930846214294 -0.8830101490020752
vn -0.09646901488304138 -0.8940480351448059 -0.437460720539093
vn -0.016328850761055946 -0.7566832304000854 -0.6535776853561401
vn 0.43072012066841125 -0.6193207502365112 -0.6564463973045349
vn -0.2434898167848587 -0.3600448668003082 -0.900600016117096
vn -0.4688847064971924 0.5231366157531738 -0.7116706371307373
vn -0.16332226991653442 -0.10011668503284454 -0.9814797043800354
vn -0.20127272605895996 0.7043841481208801 -0.6806852221488953
vn -0.008483437821269035 0.709886372089386 -0.7042651176452637
vn 0.42166733741760254 0.6836811304092407 -0.59563148021698
vn 0.9510049223899841 -0.01675809733569622 -0.30872124433517456
vn 0.6496937274932861 -0.6930452585220337 -0.3123880922794342
vn 0.5053673982620239 0.8628688454627991 -0.007819055579602718
vn -0.6132248044013977 -0.6754351854324341 0.4095637798309326
vn -0.6751413345336914 -0.3032623529434204 0.6724701523780823
vn -0.2595788538455963 -0.6683118343353271 0.6971213221549988
vn -0.17381317913532257 -0.873621940612793 0.45450359582901
vn -0.3530065715312958 -0.3090592920780182 0.8831017017364502
vn -0.5284119844436646 0.15603211522102356 0.8345266580581665
vn -0.7654592394828796 -0.1954978108406067 0.6130684018135071
vn -0.8039351105690002 0.25221705436706543 0.5385860800743103
vn -0.11053772270679474 0.6233362555503845 0.7741016149520874
vn -0.6985213160514832 -0.7155892252922058 -9.78430421127996e-07
vn -0.08173959702253342 -0.99665367603302 -1.2415821402100846e-06
vn -0.09646903723478317 -0.8940492272377014 0.4374583661556244
vn 0.04143233597278595 -0.9159942269325256 0.39904627203941345
vn 0.07880958169698715 -0.7602254152297974 0.6448614001274109
vn -0.016328852623701096 -0.7566850781440735 0.653575599193573
vn -0.24348992109298706 -0.3600471019744873 0.9005991220474243
vn 0.2578495740890503 -0.43484705686569214 0.8627986907958984
vn 0.43071994185447693 -0.6193225383758545 0.6564449071884155
vn 0.05909924581646919 -0.9982520937919617 -1.3039639270573389e-06
vn -0.0485600121319294 -0.9988202452659607 -1.293777586397482e-06
vn 0.2578495740890503 -0.43484705686569214 0.8627986907958984
vn 0.07880958169698715 -0.7602254152297974 0.6448614001274109
vn -0.2595788538455963 -0.6683118343353271 0.6971213221549988
vn -0.3530065715312958 -0.3090592920780182 0.8831017017364502
vn -0.17381317913532257 -0.873621940612793 0.45450359582901
vn 0.04143233597278595 -0.9159942269325256 0.39904627203941345
vn 0.4289083778858185 -0.32909101247787476 0.8412708640098572
vn -0.16332246363162994 -0.10011930018663406 0.9814794659614563
vn -0.5284119844436646 0.15603211522102356 0.8345266580581665
vn -0.46888476610183716 0.5231348276138306 0.7116720080375671
vn -0.8039351105690002 0.25221705436706543 0.5385860800743103
vn -0.11053772270679474 0.6233362555503845 0.7741016149520874
vn -0.7356870174407959 0.3089978098869324 0.6027311682701111
vn -0.5732535719871521 0.15465830266475677 0.8046496510505676
vn -0.5794421434402466 0.1780320256948471 0.7953310012817383
vn -0.7654592394828796 -0.1954978108406067 0.6130684018135071
vn -0.6751413345336914 -0.3032623529434204 0.6724701523780823
vn -0.38626644015312195 -0.2666316330432892 0.8830094933509827
vn -0.6132248044013977 -0.6754351854324341 0.4095637798309326
vn -0.3685780167579651 -0.7135811448097229 0.5957787036895752
vn -0.201272651553154 0.7043823003768921 0.6806870698928833
vn -0.008483478799462318 0.7098844647407532 0.7042670845985413
vn 0.5053673386573792 0.8628688454627991 0.007821287959814072
vn -0.6985213160514832 -0.7155892252922058 -9.78430421127996e-07
vn -0.39792749285697937 -0.9174169301986694 -1.2582072486111429e-06
vn -0.9062708616256714 0.42253053188323975 0.011878731660544872
vn -0.6625294089317322 0.7465527057647705 -0.0609416589140892
vn -0.35960137844085693 0.8256099224090576 0.4348048269748688
vn -0.1695558726787567 0.9855205416679382 1.1256582865826203e-06
vn -0.789675772190094 0.6135244965553284 7.071126901792013e-07
vn -0.9349324107170105 0.35482606291770935 3.6910799394718197e-07
vn -0.8947070837020874 0.4466532766819 4.898499241789978e-07
vn -0.35960128903388977 0.8256110548973083 -0.4348026514053345
vn -0.6625294089317322 0.7465524673461914 0.06094342842698097
vn -0.9062709808349609 0.4225304126739502 -0.011877712793648243
vn 0.8973345160484314 0.08950703591108322 0.43217962980270386
vn 0.8565173745155334 -0.2989954650402069 0.4206894636154175
vn 0.8178152441978455 -0.5186339616775513 -0.24939341843128204
vn 0.8185965418815613 -0.4314643442630768 -0.3791281282901764
vn 0.274433434009552 -0.6965597867965698 -0.6629409790039062
vn 0.3344234526157379 -0.3116909861564636 -0.8893873691558838
vn 0.9510049223899841 -0.01675809733569622 -0.30872124433517456
vn 0.43072012066841125 -0.6193207502365112 -0.6564463973045349
vn 0.2578498125076294 -0.4348449409008026 -0.8627997040748596
vn 0.27085718512535095 0.12996476888656616 0.9538058638572693
vn 0.2508849799633026 0.6673958897590637 0.7011701464653015
vn -0.38440442085266113 -0.5135741233825684 -0.7671212553977966
vn -0.3274346590042114 -0.02219250611960888 -0.9446131587028503
vn 0.5053673982620239 0.8628688454627991 -0.007819055579602718
vn 0.42166733741760254 0.6836811304092407 -0.59563148021698
vn 0.4289087653160095 -0.32908859848976135 -0.841271698474884
vn -0.5227758884429932 0.4305966794490814 0.7357254028320312
vn -0.516215980052948 0.6939655542373657 0.5019290447235107
vn -0.8589068055152893 0.47796040773391724 0.18393726646900177
vn -0.9033433198928833 0.4241520166397095 0.0637628361582756
vn -0.523217499256134 0.8520507216453552 -0.015904903411865234
vn -0.8337765336036682 0.28408533334732056 -0.4734049439430237
vn -0.899718165397644 -0.044388722628355026 -0.43420812487602234
vn -0.3274346590042114 -0.02219250611960888 -0.9446131587028503
vn -0.38440442085266113 -0.5135741233825684 -0.7671212553977966
vn -0.16332226991653442 -0.10011668503284454 -0.9814797043800354
vn 0.4289087653160095 -0.32908859848976135 -0.841271698474884
vn -0.4688847064971924 0.5231366157531738 -0.7116706371307373
vn -0.20127272605895996 0.7043841481208801 -0.6806852221488953
vn -0.008483437821269035 0.709886372089386 -0.7042651176452637
vn -0.7538723349571228 0.5719655156135559 -0.3233141303062439
vn -0.8152005076408386 0.46305719017982483 0.34788817167282104
vn -0.6612061858177185 0.720872163772583 -0.20772507786750793
vn -0.1083177849650383 0.7001632452011108 -0.7057185173034668
vn 0.45458802580833435 0.6637588739395142 0.5939477682113647
vn -0.806338906288147 0.4539281129837036 0.3791661262512207
vn -0.5821031928062439 0.006999187637120485 0.8130847811698914
vn 0.12782104313373566 -0.45358484983444214 0.8819991946220398
vn 0.8026576638221741 -0.5097942352294922 0.30959734320640564
vn 0.9197816252708435 -0.11128202825784683 -0.3763218820095062
vn 0.5210045576095581 0.36120569705963135 -0.7733593583106995
vn -0.1083177849650383 0.7001632452011108 -0.7057185173034668
vn 0.8297352194786072 -0.4345824420452118 0.35025355219841003
vn 0.23606254160404205 -0.23611395061016083 0.9426158666610718
vn 0.4261927306652069 0.11562186479568481 -0.8972130417823792
vn 0.8716470003128052 -0.24151144921779633 -0.4265015125274658
vn -0.5132107734680176 0.1655162125825882 0.8421515226364136
vn -0.23018844425678253 0.451771080493927 -0.8619258403778076
vn 0.6136736869812012 0.44045814871788025 -0.6552871465682983
vn 0.6563947796821594 -0.31429654359817505 -0.6858305931091309
vn 0.5392053127288818 0.1669720560312271 -0.8254562020301819
vn 0.9057701230049133 -0.18237429857254028 -0.3825179636478424
vn 0.7661123871803284 -0.5807237029075623 -0.2753756642341614
vn 0.6736949682235718 -0.5182130336761475 -0.5268683433532715
vn -0.231792151927948 -0.5923640131950378 -0.771606981754303
vn 0.6007286310195923 -0.7994530200958252 -1.016480496218719e-06
vn 0.998522937297821 -0.054331641644239426 0.0
vn 0.9583755135536194 -0.2855108082294464 -2.1355806723022397e-07
vn 0.9481413960456848 -0.3178488314151764 -3.4364518342044903e-07
vn 0.9420414566993713 -0.33549633622169495 -4.5882555355092336e-07
vn 0.973125696182251 -0.23027443885803223 -2.365041069651852e-07
vn 0.9623128175735474 -0.27194470167160034 -3.154951855321997e-07
vn -0.0485600121319294 -0.9988202452659607 -1.293777586397482e-06
vn -0.6132248640060425 -0.6754340529441833 -0.4095657169818878
vn -0.2595786452293396 -0.6683100461959839 -0.697123110294342
vn -0.6751412749290466 -0.3032606244087219 -0.6724709868431091
vn -0.17381294071674347 -0.873620867729187 -0.45450595021247864
vn -0.35300660133361816 -0.3090570569038391 -0.8831024765968323
vn -0.5284119844436646 0.15603424608707428 -0.8345262408256531
vn -0.7654592394828796 -0.19549618661403656 -0.6130689382553101
vn -0.8039349913597107 0.2522183954715729 -0.5385855436325073
vn -0.11053764820098877 0.6233381628990173 -0.774100124835968
vn -0.6985213160514832 -0.7155892252922058 -9.78430421127996e-07
vn -0.08173959702253342 -0.99665367603302 -1.2415821402100846e-06
vn -0.09646901488304138 -0.8940480351448059 -0.437460720539093
vn 0.07880964130163193 -0.7602238059043884 -0.6448634266853333
vn 0.041432034224271774 -0.9159932136535645 -0.399048775434494
vn -0.016328850761055946 -0.7566832304000854 -0.6535776853561401
vn -0.2434898167848587 -0.3600448668003082 -0.900600016117096
vn 0.2578498125076294 -0.4348449409008026 -0.8627997040748596
vn 0.43072012066841125 -0.6193207502365112 -0.6564463973045349
vn 0.05909924581646919 -0.9982520937919617 -1.3039639270573389e-06
vn -0.0485600121319294 -0.9988202452659607 -1.293777586397482e-06
vn 0.2578498125076294 -0.4348449409008026 -0.8627997040748596
vn -0.2595786452293396 -0.6683100461959839 -0.697123110294342
vn 0.07880964130163193 -0.7602238059043884 -0.6448634266853333
vn -0.35300660133361816 -0.3090570569038391 -0.8831024765968323
vn -0.17381294071674347 -0.873620867729187 -0.45450595021247864
vn 0.041432034224271774 -0.9159932136535645 -0.399048775434494
vn 0.4289087653160095 -0.32908859848976135 -0.841271698474884
vn -0.16332226991653442 -0.10011668503284454 -0.9814797043800354
vn -0.5284119844436646 0.15603424608707428 -0.8345262408256531
vn -0.08173959702253342 -0.99665367603302 -1.2415821402100846e-06
vn 0.05909924581646919 -0.9982520937919617 -1.3039639270573389e-06
vn -0.6132248640060425 -0.6754340529441833 -0.4095657169818878
vn -0.6751412749290466 -0.3032606244087219 -0.6724709868431091
vn -0.38626646995544434 -0.26662930846214294 -0.8830101490020752
vn -0.3685780465602875 -0.713579535484314 -0.5957805514335632
vn -0.6985213160514832 -0.7155892252922058 -9.78430421127996e-07
vn -0.39792749285697937 -0.9174169301986694 -1.2582072486111429e-06
vn 0.7661123871803284 -0.5807244181632996 0.27537423372268677
vn 0.9698202610015869 -0.2438206970691681 -2.619759413846623e-07
vn 0.8417210578918457 -0.5399126410484314 -6.038440005795565e-07
vn 0.9057701230049133 -0.18237535655498505 0.38251757621765137
vn 0.5390380024909973 -0.8422814607620239 -1.0820274383149808e-06
vn 0.5392052531242371 0.16696986556053162 0.8254566788673401
vn 0.6007286310195923 -0.7994530200958252 -1.016480496218719e-06
vn 0.7661123871803284 -0.5807237029075623 -0.2753756642341614
vn 0.9057701230049133 -0.18237429857254028 -0.3825179636478424
vn 0.5392053127288818 0.1669720560312271 -0.8254562020301819
vn 0.9481413960456848 -0.3178488314151764 -3.4364518342044903e-07
vn 0.5390380024909973 -0.8422814607620239 -1.0820274383149808e-06
vn 0.6736948490142822 -0.5182145833969116 0.5268669724464417
vn -0.23179219663143158 -0.5923659205436707 0.7716054320335388
vn 0.5392052531242371 0.16696986556053162 0.8254566788673401
vn 0.9420414566993713 -0.33549633622169495 -4.5882555355092336e-07
vn 0.6563946604728699 -0.3142985701560974 0.685829758644104
vn 0.998522937297821 -0.054331641644239426 0.0
vn 0.6136736273765564 0.440456360578537 0.6552884578704834
vn 0.9928520321846008 0.11935102194547653 1.3942724308435572e-07
vn 0.9583755135536194 -0.2855108082294464 -2.1355806723022397e-07
vn 0.6308600902557373 0.458645224571228 0.6258275508880615
vn 0.05909924581646919 -0.9982520937919617 -1.3039639270573389e-06
vn -0.08173959702253342 -0.99665367603302 -1.2415821402100846e-06
vn -0.0485600121319294 -0.9988202452659607 -1.293777586397482e-06
vn 0.9623128175735474 -0.27194470167160034 -3.154951855321997e-07
vn 0.973125696182251 -0.23027443885803223 -2.365041069651852e-07
vn 0.6007286310195923 -0.7994530200958252 -1.016480496218719e-06
vn -0.3685780167579651 -0.7135811448097229 0.5957787036895752
vn -0.39792749285697937 -0.9174169301986694 -1.2582072486111429e-06
vn -0.9539699554443359 -0.2999023199081421 -4.327476972321165e-07
vn -0.38626644015312195 -0.2666316330432892 0.8830094933509827
vn -0.5794421434402466 0.1780320256948471 0.7953310012817383
vn -0.7356870174407959 0.3089978098869324 0.6027311682701111
vn -0.5732535719871521 0.15465830266475677 0.8046496510505676
vn -0.6463559865951538 0.2840212285518646 0.708206057548523
vn -0.9062708616256714 0.42253053188323975 0.011878731660544872
vn -0.6625294089317322 0.7465527057647705 -0.0609416589140892
vn -0.8947070837020874 0.4466532766819 4.898499241789978e-07
vn 0.9481413960456848 -0.3178488314151764 -3.4364518342044903e-07
vn 0.6736949682235718 -0.5182130336761475 -0.5268683433532715
vn 0.5390380024909973 -0.8422814607620239 -1.0820274383149808e-06
vn -0.231792151927948 -0.5923640131950378 -0.771606981754303
vn 0.5392053127288818 0.1669720560312271 -0.8254562020301819
vn 0.9420414566993713 -0.33549633622169495 -4.5882555355092336e-07
vn 0.998522937297821 -0.054331641644239426 0.0
vn 0.6563947796821594 -0.31429654359817505 -0.6858305931091309
vn 0.6136736869812012 0.44045814871788025 -0.6552871465682983
vn 0.9928520321846008 0.11935102194547653 1.3942724308435572e-07
vn 0.6308601498603821 0.4586469531059265 -0.6258261799812317
vn 0.9583755135536194 -0.2855108082294464 -2.1355806723022397e-07
vn -0.3685780465602875 -0.713579535484314 -0.5957805514335632
vn -0.9539699554443359 -0.2999023199081421 -4.327476972321165e-07
vn -0.39792749285697937 -0.9174169301986694 -1.2582072486111429e-06
vn -0.38626646995544434 -0.26662930846214294 -0.8830101490020752
vn -0.5794419646263123 0.17803418636322021 -0.7953307032585144
vn -0.7356870174407959 0.308999240398407 -0.6027304530143738
vn -0.5732533931732178 0.15466029942035675 -0.8046494126319885
vn -0.6463558673858643 0.2840231955051422 -0.7082054615020752
vn -0.9062709808349609 0.4225304126739502 -0.011877712793648243
vn -0.6625294089317322 0.7465524673461914 0.06094342842698097
vn -0.8947070837020874 0.4466532766819 4.898499241789978e-07
vn -0.23018859326839447 0.45176881551742554 0.8619269728660583
vn -0.23018844425678253 0.451771080493927 -0.8619258403778076
vt 0.8507569432258606 0.12767159938812256
vt 0.8477051854133606 0.08950906991958618
vt 0.7676920890808105 0.11975544691085815
vt 0.7680481672286987 0.08507609367370605
vt 0.8484426736831665 0.05206185579299927
vt 0.7686610817909241 0.05233967304229736
vt 0.9313257336616516 0.12738090753555298
vt 0.9758837819099426 0.10335040092468262
vt 0.9895803928375244 0.06533527374267578
vt 0.7779676914215088 0.16740131378173828
vt 0.8641095757484436 0.17376142740249634
vt 0.8509973883628845 0.014964818954467773
vt 0.769280731678009 0.019938409328460693
vt 0.9164491891860962 0.17676597833633423
vt 0.9452774524688721 0.1680639386177063
vt 0.9741588830947876 0.014964818954467773
vt 0.7787521481513977 0.21783757209777832
vt 0.8596529364585876 0.22451049089431763
vt 0.7840962409973145 0.2507249712944031
vt 0.862025797367096 0.25712692737579346
vt 0.9216116070747375 0.21393215656280518
vt 0.7790486812591553 0.28061360120773315
vt 0.8582078218460083 0.2867662310600281
vt 0.7692164182662964 0.3081984519958496
vt 0.8509132266044617 0.3131406307220459
vt 0.9553712010383606 0.285783588886261
vt 0.9739079475402832 0.3135947585105896
vt 0.9458081722259521 0.25890684127807617
vt 0.9445092082023621 0.22342580556869507
vt 0.9461020827293396 0.19798237085342407
vt 0.7003552317619324 0.25699180364608765
vt 0.7054088711738586 0.23224234580993652
vt 0.6292443871498108 0.2265615463256836
vt 0.6204043626785278 0.24138665199279785
vt 0.5039722323417664 0.1640779972076416
vt 0.6331169605255127 0.20966875553131104
vt 0.6307420134544373 0.19239234924316406
vt 0.6332264542579651 0.1687532663345337
vt 0.6282573342323303 0.1442197561264038
vt 0.627537727355957 0.12428224086761475
vt 0.6245611906051636 0.10488319396972656
vt 0.6204043626785278 0.08626937866210938
vt 0.7009003758430481 0.1334916353225708
vt 0.7072514295578003 0.1704951524734497
vt 0.6951759457588196 0.07588750123977661
vt 0.6989579200744629 0.10419505834579468
vt 0.7040047645568848 0.20662564039230347
vt 0.6907749772071838 0.04857969284057617
vt 0.5480057597160339 0.6069515645503998
vt 0.5904730558395386 0.5105521976947784
vt 0.564742386341095 0.6076463460922241
vt 0.5794305205345154 0.5065304636955261
vt 0.4951653480529785 0.5876504778862
vt 0.531234085559845 0.5048518180847168
vt 0.48335838317871094 0.5836317539215088
vt 0.5221540927886963 0.6909149289131165
vt 0.5153946876525879 0.6857697665691376
vt 0.4575352072715759 0.7425205409526825
vt 0.5043273568153381 0.7744884043931961
vt 0.5564799308776855 0.7577914744615555
vt 0.5951685309410095 0.815533235669136
vt 0.4667586386203766 0.7896631062030792
vt 0.4720763862133026 0.8104825764894485
vt 0.4424583911895752 0.8347152918577194
vt 0.48508667945861816 0.8879902958869934
vt 0.431631863117218 0.8981028497219086
vt 0.409324049949646 0.8486383706331253
vt 0.4028589129447937 0.81086266040802
vt 0.522601306438446 0.48827916383743286
vt 0.5992963910102844 0.4856942892074585
vt 0.6095439791679382 0.4922584891319275
vt 0.534963846206665 0.44722211360931396
vt 0.6196898818016052 0.4494766592979431
vt 0.59134441614151 0.36888086795806885
vt 0.6200910210609436 0.41743308305740356
vt 0.6333560347557068 0.4171021580696106
vt 0.5988274812698364 0.3590465784072876
vt 0.4697266221046448 0.9685234427452087
vt 0.6530624032020569 0.5511643886566162
vt 0.5924263000488281 0.6511965394020081
vt 0.6324169635772705 0.31391441822052
vt 0.6319437623023987 0.45688366889953613
vt 0.6601099967956543 0.46327775716781616
vt 0.4936242699623108 0.4001973271369934
vt 0.4885598123073578 0.46797335147857666
vt 0.6807079315185547 0.38386285305023193
vt 0.7058135271072388 0.4342825412750244
vt 0.4823864996433258 0.515703409910202
vt 0.44057366251945496 0.5722438395023346
vt 0.4119427502155304 0.6518174707889557
vt 0.4135397672653198 0.5652880370616913
vt 0.44920751452445984 0.649453729391098
vt 0.401237815618515 0.6828519105911255
vt 0.40960749983787537 0.7192784547805786
vt 0.4136827886104584 0.7720706611871719
vt 0.4369718134403229 0.8001501709222794
vt 0.42879587411880493 0.4385491609573364
vt 0.48148036003112793 0.465984582901001
vt 0.37285998463630676 0.6349058449268341
vt 0.37285998463630676 0.7180991470813751
vt 0.37285998463630676 0.7779935300350189
vt 0.34448209404945374 0.6828519105911255
vt 0.33377721905708313 0.6518174707889557
vt 0.2965123951435089 0.649453729391098
vt 0.2881847321987152 0.7425205409526825
vt 0.3361124098300934 0.7192784547805786
vt 0.3320371210575104 0.7720706611871719
vt 0.30874815583229065 0.8001501709222794
vt 0.34286102652549744 0.81086266040802
vt 0.27896133065223694 0.7896631062030792
vt 0.241392582654953 0.7744884043931961
vt 0.22356584668159485 0.6909149289131165
vt 0.23032525181770325 0.6857697665691376
vt 0.1977141797542572 0.6069515645503998
vt 0.18097755312919617 0.6076463460922241
vt 0.15524688363075256 0.5105521976947784
vt 0.16628941893577576 0.5065304636955261
vt 0.2505545914173126 0.5876504778862
vt 0.21448585391044617 0.5048518180847168
vt 0.2623615562915802 0.5836317539215088
vt 0.1892400085926056 0.7577914744615555
vt 0.15055140852928162 0.815533235669136
vt 0.27364352345466614 0.8104825764894485
vt 0.30326154828071594 0.8347152918577194
vt 0.33639588952064514 0.8486383706331253
vt 0.260633260011673 0.8879902958869934
vt 0.3140880763530731 0.8981028497219086
vt 0.1464235484600067 0.4856942892074585
vt 0.1361759603023529 0.4922584891319275
vt 0.2231186330318451 0.48827916383743286
vt 0.2107560932636261 0.44722211360931396
vt 0.1260300576686859 0.4494766592979431
vt 0.15437552332878113 0.36888086795806885
vt 0.12562891840934753 0.41743308305740356
vt 0.11236390471458435 0.4171021580696106
vt 0.1468924582004547 0.3590465784072876
vt 0.27599331736564636 0.9685234427452087
vt 0.26141050457954407 0.953424870967865
vt 0.21153756976127625 0.9389781653881073
vt 0.22219941020011902 0.8759851232171059
vt 0.14095094799995422 0.8416764289140701
vt 0.01699623465538025 0.7938608974218369
vt 0.13195690512657166 0.9389781653881073
vt 0.131460040807724 0.8586994856595993
vt 0.011484296061098576 0.8504374176263809
vt 0.02803310938179493 0.9389781653881073
vt 0.11330297589302063 0.31391441822052
vt 0.06501200795173645 0.38386285305023193
vt 0.08560994267463684 0.46327775716781616
vt 0.03990641236305237 0.4342825412750244
vt 0.05247947573661804 0.7338553667068481
vt 0.014371545054018497 0.7251034677028656
vt 0.1245088279247284 0.7257799506187439
vt 0.15635576844215393 0.6979742348194122
vt 0.153293639421463 0.6511965394020081
vt 0.09265753626823425 0.5511643886566162
vt 0.11377617716789246 0.45688366889953613
vt 0.11468860507011414 0.6452597379684448
vt 0.2643190920352936 0.15440434217453003
vt 0.2978456914424896 0.20460063219070435
vt 0.3130318522453308 0.07647275924682617
vt 0.257832407951355 0.03476059436798096
vt 0.3487640917301178 0.1386563777923584
vt 0.34571823477745056 0.20523488521575928
vt 0.2911792993545532 0.26397985219955444
vt 0.30635619163513184 0.27228254079818726
vt 0.2705592215061188 0.3080254793167114
vt 0.19100739061832428 0.13923317193984985
vt 0.19152936339378357 0.015622973442077637
vt 0.40452688932418823 0.03478646278381348
vt 0.4018110930919647 0.050489604473114014
vt 0.4423460364341736 0.06727975606918335
vt 0.4463919401168823 0.06083887815475464
vt 0.46821901202201843 0.08376884460449219
vt 0.4641124904155731 0.08631443977355957
vt 0.4957979917526245 0.09822964668273926
vt 0.3494706451892853 0.043782949447631836
vt 0.3501865565776825 0.02167224884033203
vt 0.7638586759567261 0.6122131645679474
vt 0.7923244833946228 0.5719309747219086
vt 0.9047089219093323 0.643884003162384
vt 0.823479413986206 0.7336893677711487
vt 0.9593715667724609 0.5402996242046356
vt 0.8198069930076599 0.5025951862335205
vt 0.7705270648002625 0.681737869977951
vt 0.7313483953475952 0.7251034677028656
vt 0.7287237048149109 0.7938608974218369
vt 0.6932404637336731 0.7338553667068481
vt 0.6047689914703369 0.8416764289140701
vt 0.5235205292701721 0.8759851232171059
vt 0.5341823697090149 0.9389781653881073
vt 0.4843094050884247 0.953424870967865
vt 0.6137630343437195 0.9389781653881073
vt 0.6142598986625671 0.8586994856595993
vt 0.7342356443405151 0.8504374176263809
vt 0.7176868319511414 0.9389781653881073
vt 0.8452059030532837 0.8504958748817444
vt 0.8266898393630981 0.9389781653881073
vt 0.6212111115455627 0.7257799506187439
vt 0.5893641710281372 0.6979742348194122
vt 0.631031334400177 0.6452597379684448
vt 0.9709028601646423 0.846990779042244
vt 0.9709028601646423 0.9389781653881073
vt 0.4374936521053314 0.983879804611206
vt 0.4185522198677063 0.9651525095105171
vt 0.4030667245388031 0.904975101351738
vt 0.37285998463630676 0.8650541305541992
vt 0.37285998463630676 0.9141461998224258
vt 0.37285998463630676 0.9180720821022987
vt 0.37285998463630676 0.9633980616927147
vt 0.34265318512916565 0.904975101351738
vt 0.32716768980026245 0.9651525095105171
vt 0.30822625756263733 0.983879804611206
vt 0.8507569432258606 0.12767159938812256
vt 0.7676920890808105 0.11975544691085815
vt 0.8477051854133606 0.08950906991958618
vt 0.7680481672286987 0.08507609367370605
vt 0.8484426736831665 0.05206185579299927
vt 0.7686610817909241 0.05233967304229736
vt 0.9313257336616516 0.12738090753555298
vt 0.9758837819099426 0.10335040092468262
vt 0.9895803928375244 0.06533527374267578
vt 0.7779676914215088 0.16740131378173828
vt 0.8641095757484436 0.17376142740249634
vt 0.8509973883628845 0.014964818954467773
vt 0.769280731678009 0.019938409328460693
vt 0.9164491891860962 0.17676597833633423
vt 0.9452774524688721 0.1680639386177063
vt 0.9741588830947876 0.014964818954467773
vt 0.7787521481513977 0.21783757209777832
vt 0.8596529364585876 0.22451049089431763
vt 0.7840962409973145 0.2507249712944031
vt 0.862025797367096 0.25712692737579346
vt 0.9216116070747375 0.21393215656280518
vt 0.7790486812591553 0.28061360120773315
vt 0.8582078218460083 0.2867662310600281
vt 0.7692164182662964 0.3081984519958496
vt 0.8509132266044617 0.3131406307220459
vt 0.9553712010383606 0.285783588886261
vt 0.9739079475402832 0.3135947585105896
vt 0.9458081722259521 0.25890684127807617
vt 0.9445092082023621 0.22342580556869507
vt 0.9461020827293396 0.19798237085342407
vt 0.7003552317619324 0.25699180364608765
vt 0.7054088711738586 0.23224234580993652
vt 0.6292443871498108 0.2265615463256836
vt 0.6204043626785278 0.24138665199279785
vt 0.5039722323417664 0.1640779972076416
vt 0.6331169605255127 0.20966875553131104
vt 0.6307420134544373 0.19239234924316406
vt 0.6332264542579651 0.1687532663345337
vt 0.6282573342323303 0.1442197561264038
vt 0.627537727355957 0.12428224086761475
vt 0.6245611906051636 0.10488319396972656
vt 0.6204043626785278 0.08626937866210938
vt 0.7009003758430481 0.1334916353225708
vt 0.7072514295578003 0.1704951524734497
vt 0.6951759457588196 0.07588750123977661
vt 0.6989579200744629 0.10419505834579468
vt 0.7040047645568848 0.20662564039230347
vt 0.6907749772071838 0.04857969284057617
vt 0.3051462471485138 0.5722438395023346
vt 0.3321801722049713 0.5652880370616913
vt 0.2633334696292877 0.515703409910202
vt 0.25716009736061096 0.46797335147857666
vt 0.25209566950798035 0.4001973271369934
vt 0.3169240653514862 0.4385491609573364
vt 0.2642395794391632 0.465984582901001
vt 0.24729950726032257 0.3410986661911011
vt 0.37285998463630676 0.5597928762435913
vt 0.37285998463630676 0.6244320571422577
vt 0.37285998463630676 0.4215143322944641
vt 0.37285998463630676 0.540167510509491
vt 0.22244657576084137 0.31164872646331787
vt 0.21763385832309723 0.30313289165496826
vt 0.1813913732767105 0.25006455183029175
vt 0.2643190920352936 0.15440434217453003
vt 0.3130318522453308 0.07647275924682617
vt 0.2978456914424896 0.20460063219070435
vt 0.257832407951355 0.03476059436798096
vt 0.3487640917301178 0.1386563777923584
vt 0.34571823477745056 0.20523488521575928
vt 0.2911792993545532 0.26397985219955444
vt 0.30635619163513184 0.27228254079818726
vt 0.2705592215061188 0.3080254793167114
vt 0.19100739061832428 0.13923317193984985
vt 0.19152936339378357 0.015622973442077637
vt 0.40452688932418823 0.03478646278381348
vt 0.4423460364341736 0.06727975606918335
vt 0.4018110930919647 0.050489604473114014
vt 0.4463919401168823 0.06083887815475464
vt 0.46821901202201843 0.08376884460449219
vt 0.4641124904155731 0.08631443977355957
vt 0.4957979917526245 0.09822964668273926
vt 0.3494706451892853 0.043782949447631836
vt 0.3501865565776825 0.02167224884033203
vt 0.7638586759567261 0.6122131645679474
vt 0.9047089219093323 0.643884003162384
vt 0.7923244833946228 0.5719309747219086
vt 0.823479413986206 0.7336893677711487
vt 0.9593715667724609 0.5402996242046356
vt 0.8198069930076599 0.5025951862335205
vt 0.7705270648002625 0.681737869977951
vt 0.7313483953475952 0.7251034677028656
vt 0.7287237048149109 0.7938608974218369
vt 0.989244282245636 0.4270874857902527
vt 0.834070086479187 0.41438013315200806
vt 0.8452059030532837 0.8504958748817444
vt 0.7342356443405151 0.8504374176263809
vt 0.7176868319511414 0.9389781653881073
vt 0.8266898393630981 0.9389781653881073
vt 0.9709028601646423 0.846990779042244
vt 0.9709028601646423 0.9389781653881073
vt 0.4071516990661621 0.2841346263885498
vt 0.3785189986228943 0.3375418782234192
vt 0.3785189986228943 0.2841995358467102
vt 0.4345998466014862 0.33806759119033813
vt 0.3785189986228943 0.3754173517227173
vt 0.44962310791015625 0.38017183542251587
vt 0.3785189986228943 0.24139326810836792
vt 0.34988629817962646 0.2841346263885498
vt 0.32243812084198 0.33806759119033813
vt 0.3074148893356323 0.38017183542251587
vt 0.9871811270713806 0.7159433662891388
vt 0.9871811270713806 0.7869215309619904
vt 0.9359180331230164 0.7455269694328308
vt 0.9035754799842834 0.792290136218071
vt 0.9202417731285095 0.8207737505435944
vt 0.9857509732246399 0.6774557530879974
vt 0.9516240954399109 0.6679778099060059
vt 0.9857509732246399 0.6336020529270172
vt 0.935178279876709 0.7014352381229401
vt 0.9849734306335449 0.5587823987007141
vt 0.9849734306335449 0.5936955213546753
vt 0.9523594379425049 0.6186918020248413
vt 0.834070086479187 0.41438013315200806
vt 0.989244282245636 0.4270874857902527
vt 0.5633285641670227 0.25006455183029175
vt 0.527086079120636 0.30313289165496826
vt 0.5222733616828918 0.31164872646331787
vt 0.49742043018341064 0.3410986661911011
vt 0.10349242389202118 0.08741956949234009
vt 0.012498827651143074 0.06854736804962158
vt 0.012498827651143074 0.1888846755027771
vt 0.14407478272914886 0.1473281979560852
vt 0.13329949975013733 0.21480494737625122
vt 0.09305012226104736 0.25482261180877686
vt 0.07038681954145432 0.2764492630958557
vt 0.06512963026762009 0.2875826954841614
vt 0.048338260501623154 0.3013116121292114
vt 0.037835221737623215 0.3031444549560547
vt 0.012498827651143074 0.3075658679008484
vt 0.9871811270713806 0.7159433662891388
vt 0.9359180331230164 0.7455269694328308
vt 0.9871811270713806 0.7869215309619904
vt 0.9035754799842834 0.792290136218071
vt 0.9202417731285095 0.8207737505435944
vt 0.9857509732246399 0.6774557530879974
vt 0.9857509732246399 0.6336020529270172
vt 0.9516240954399109 0.6679778099060059
vt 0.935178279876709 0.7014352381229401
vt 0.9849734306335449 0.5587823987007141
vt 0.9523594379425049 0.6186918020248413
vt 0.9849734306335449 0.5936955213546753
vt 0.10349242389202118 0.08741956949234009
vt 0.012498827651143074 0.1888846755027771
vt 0.012498827651143074 0.06854736804962158
vt 0.14407478272914886 0.1473281979560852
vt 0.13329949975013733 0.21480494737625122
vt 0.09305012226104736 0.25482261180877686
vt 0.07038681954145432 0.2764492630958557
vt 0.06512963026762009 0.2875826954841614
vt 0.048338260501623154 0.3013116121292114
vt 0.037835221737623215 0.3031444549560547
vt 0.012498827651143074 0.3075658679008484
vt 0.6907700300216675 0.27957481145858765
vt 0.6907700300216675 0.27957481145858765

g MM_leordas_hat_00
s 1
usemtl MM_leordas_hat_00
f 3/3/3 2/2/2 1/1/1 
f 2/2/2 3/3/3 4/4/4 
f 4/4/4 5/5/5 2/2/2 
f 5/5/5 4/4/4 6/6/6 
f 2/2/2 7/7/7 1/1/1 
f 7/7/7 2/2/2 8/8/8 
f 8/8/8 2/2/2 5/5/5 
f 5/5/5 9/9/9 8/8/8 
f 1/1/1 10/10/10 3/3/3 
f 10/10/10 1/1/1 11/11/11 
f 5/5/5 6/6/6 12/12/12 
f 13/13/13 12/12/12 6/6/6 
f 14/14/14 1/1/1 7/7/7 
f 1/1/1 14/14/14 11/11/11 
f 7/7/7 15/15/15 14/14/14 
f 5/5/5 16/16/16 9/9/9 
f 16/16/16 5/5/5 12/12/12 
f 11/11/11 17/17/17 10/10/10 
f 17/17/17 11/11/11 18/18/18 
f 14/14/14 18/18/18 11/11/11 
f 18/18/18 19/19/19 17/17/17 
f 19/19/19 18/18/18 20/20/20 
f 21/21/21 20/20/20 18/18/18 
f 18/18/18 14/14/14 21/21/21 
f 20/20/20 22/22/22 19/19/19 
f 22/22/22 20/20/20 23/23/23 
f 22/22/22 23/23/23 24/24/24 
f 25/25/25 24/24/24 23/23/23 
f 26/26/26 25/25/25 23/23/23 
f 25/25/25 26/26/26 27/27/27 
f 23/23/23 28/28/28 26/26/26 
f 28/28/28 23/23/23 20/20/20 
f 20/20/20 21/21/21 28/28/28 
f 29/29/29 28/28/28 21/21/21 
f 29/29/29 21/21/21 30/30/30 
f 14/14/14 30/30/30 21/21/21 
f 31/31/31 19/19/19 22/22/22 
f 24/24/24 31/31/31 22/22/22 
f 19/19/19 31/31/31 32/32/32 
f 33/33/33 32/32/32 31/31/31 
f 33/33/33 31/31/31 34/34/34 
f 35/35/35 33/33/33 34/34/34 
f 35/35/35 36/36/36 33/33/33 
f 32/32/32 33/33/33 36/36/36 
f 35/35/35 37/37/37 36/36/36 
f 35/35/35 38/38/38 37/37/37 
f 35/35/35 39/39/39 38/38/38 
f 35/35/35 40/40/40 39/39/39 
f 35/35/35 41/41/41 40/40/40 
f 35/35/35 42/42/42 41/41/41 
f 43/43/43 38/38/38 39/39/39 
f 40/40/40 43/43/43 39/39/39 
f 38/38/38 43/43/43 44/44/44 
f 41/41/41 45/45/45 40/40/40 
f 42/42/42 45/45/45 41/41/41 
f 46/46/46 40/40/40 45/45/45 
f 43/43/43 40/40/40 46/46/46 
f 47/47/47 38/38/38 44/44/44 
f 38/38/38 47/47/47 37/37/37 
f 36/36/36 47/47/47 32/32/32 
f 47/47/47 36/36/36 37/37/37 
f 45/45/45 42/42/42 48/48/48 
f 48/48/48 13/13/13 45/45/45 
f 6/6/6 45/45/45 13/13/13 
f 45/45/45 6/6/6 46/46/46 
f 3/3/3 44/44/44 43/43/43 
f 44/44/44 3/3/3 10/10/10 
f 10/10/10 47/47/47 44/44/44 
f 4/4/4 46/46/46 6/6/6 
f 3/3/3 43/43/43 4/4/4 
f 46/46/46 4/4/4 43/43/43 
f 47/47/47 10/10/10 17/17/17 
f 17/17/17 32/32/32 47/47/47 
f 32/32/32 17/17/17 19/19/19 
f 51/51/51 50/50/50 49/49/49 
f 52/52/52 49/49/49 50/50/50 
f 53/53/53 49/49/49 52/52/52 
f 53/53/53 52/52/52 54/54/54 
f 53/53/53 54/54/54 55/55/55 
f 51/51/51 49/49/49 56/56/56 
f 53/53/53 57/57/57 49/49/49 
f 57/57/57 56/56/56 49/49/49 
f 57/57/57 58/58/58 56/56/56 
f 58/58/58 59/59/59 56/56/56 
f 60/60/60 56/56/56 59/59/59 
f 60/60/60 59/59/59 61/61/61 
f 58/58/58 62/62/62 59/59/59 
f 63/63/63 59/59/59 62/62/62 
f 63/63/63 62/62/62 64/64/64 
f 64/64/64 65/65/65 63/63/63 
f 63/63/63 65/65/65 59/59/59 
f 65/65/65 64/64/64 66/66/66 
f 64/64/64 67/67/67 66/66/66 
f 68/68/68 67/67/67 64/64/64 
f 69/69/69 55/55/55 54/54/54 
f 69/69/69 54/54/54 70/70/70 
f 52/52/52 70/70/70 54/54/54 
f 70/70/70 52/52/52 50/50/50 
f 71/71/71 70/70/70 50/50/50 
f 72/72/72 69/69/69 70/70/70 
f 70/70/70 73/73/73 72/72/72 
f 72/72/72 73/73/73 74/74/74 
f 75/75/75 74/74/74 73/73/73 
f 76/76/76 74/74/74 75/75/75 
f 73/73/73 76/76/76 75/75/75 
f 74/74/74 76/76/76 77/77/77 
f 78/78/78 65/65/65 66/66/66 
f 79/79/79 71/71/71 50/50/50 
f 51/51/51 79/79/79 50/50/50 
f 79/79/79 51/51/51 80/80/80 
f 56/56/56 80/80/80 51/51/51 
f 77/77/77 76/76/76 81/81/81 
f 71/71/71 79/79/79 82/82/82 
f 76/76/76 73/73/73 82/82/82 
f 83/83/83 82/82/82 79/79/79 
f 82/82/82 83/83/83 76/76/76 
f 74/74/74 84/84/84 72/72/72 
f 85/85/85 72/72/72 84/84/84 
f 85/85/85 69/69/69 72/72/72 
f 76/76/76 83/83/83 86/86/86 
f 81/81/81 76/76/76 86/86/86 
f 86/86/86 83/83/83 87/87/87 
f 88/88/88 69/69/69 85/85/85 
f 55/55/55 69/69/69 88/88/88 
f 88/88/88 89/89/89 55/55/55 
f 90/90/90 55/55/55 89/89/89 
f 89/89/89 91/91/91 90/90/90 
f 92/92/92 55/55/55 90/90/90 
f 55/55/55 92/92/92 53/53/53 
f 53/53/53 92/92/92 57/57/57 
f 92/92/92 58/58/58 57/57/57 
f 93/93/93 58/58/58 92/92/92 
f 90/90/90 93/93/93 92/92/92 
f 94/94/94 58/58/58 93/93/93 
f 94/94/94 95/95/95 58/58/58 
f 96/96/96 58/58/58 95/95/95 
f 95/95/95 68/68/68 96/96/96 
f 58/58/58 96/96/96 62/62/62 
f 64/64/64 96/96/96 68/68/68 
f 96/96/96 64/64/64 62/62/62 
f 89/89/89 88/88/88 97/97/97 
f 97/97/97 88/88/88 98/98/98 
f 99/99/99 93/93/93 90/90/90 
f 93/93/93 99/99/99 100/100/100 
f 100/100/100 94/94/94 93/93/93 
f 95/95/95 94/94/94 101/101/101 
f 100/100/100 101/101/101 94/94/94 
f 68/68/68 95/95/95 101/101/101 
f 99/99/99 102/102/102 100/100/100 
f 102/102/102 99/99/99 103/103/103 
f 102/102/102 103/103/103 104/104/104 
f 105/105/105 102/102/102 104/104/104 
f 105/105/105 106/106/106 102/102/102 
f 106/106/106 100/100/100 102/102/102 
f 101/101/101 100/100/100 106/106/106 
f 107/107/107 106/106/106 105/105/105 
f 106/106/106 107/107/107 101/101/101 
f 105/105/105 108/108/108 107/107/107 
f 109/109/109 107/107/107 108/108/108 
f 107/107/107 109/109/109 101/101/101 
f 108/108/108 105/105/105 110/110/110 
f 110/110/110 105/105/105 111/111/111 
f 111/111/111 105/105/105 112/112/112 
f 105/105/105 113/113/113 112/112/112 
f 105/105/105 104/104/104 113/113/113 
f 112/112/112 113/113/113 114/114/114 
f 114/114/114 115/115/115 112/112/112 
f 116/116/116 115/115/115 114/114/114 
f 114/114/114 117/117/117 116/116/116 
f 114/114/114 118/118/118 117/117/117 
f 113/113/113 118/118/118 114/114/114 
f 104/104/104 118/118/118 113/113/113 
f 117/117/117 118/118/118 119/119/119 
f 119/119/119 118/118/118 120/120/120 
f 112/112/112 121/121/121 111/111/111 
f 111/111/111 121/121/121 122/122/122 
f 111/111/111 123/123/123 110/110/110 
f 110/110/110 123/123/123 124/124/124 
f 125/125/125 109/109/109 124/124/124 
f 126/126/126 124/124/124 123/123/123 
f 126/126/126 123/123/123 111/111/111 
f 125/125/125 124/124/124 127/127/127 
f 124/124/124 126/126/126 127/127/127 
f 117/117/117 128/128/128 116/116/116 
f 128/128/128 117/117/117 119/119/119 
f 128/128/128 129/129/129 116/116/116 
f 120/120/120 130/130/130 119/119/119 
f 119/119/119 130/130/130 128/128/128 
f 130/130/130 131/131/131 128/128/128 
f 132/132/132 128/128/128 131/131/131 
f 132/132/132 131/131/131 133/133/133 
f 133/133/133 134/134/134 132/132/132 
f 133/133/133 135/135/135 134/134/134 
f 135/135/135 132/132/132 134/134/134 
f 135/135/135 133/133/133 136/136/136 
f 126/126/126 137/137/137 127/127/127 
f 126/126/126 138/138/138 137/137/137 
f 138/138/138 126/126/126 139/139/139 
f 140/140/140 139/139/139 126/126/126 
f 111/111/111 140/140/140 126/126/126 
f 111/111/111 122/122/122 140/140/140 
f 141/141/141 140/140/140 122/122/122 
f 142/142/142 141/141/141 122/122/122 
f 140/140/140 143/143/143 139/139/139 
f 143/143/143 140/140/140 144/144/144 
f 143/143/143 144/144/144 145/145/145 
f 145/145/145 146/146/146 143/143/143 
f 135/135/135 136/136/136 147/147/147 
f 135/135/135 147/147/147 148/148/148 
f 149/149/149 135/135/135 148/148/148 
f 149/149/149 148/148/148 150/150/150 
f 122/122/122 151/151/151 142/142/142 
f 152/152/152 142/142/142 151/151/151 
f 153/153/153 151/151/151 122/122/122 
f 122/122/122 121/121/121 153/153/153 
f 121/121/121 154/154/154 153/153/153 
f 154/154/154 121/121/121 112/112/112 
f 154/154/154 112/112/112 155/155/155 
f 155/155/155 112/112/112 115/115/115 
f 115/115/115 156/156/156 155/155/155 
f 156/156/156 115/115/115 116/116/116 
f 129/129/129 156/156/156 116/116/116 
f 157/157/157 149/149/149 156/156/156 
f 156/156/156 129/129/129 157/157/157 
f 149/149/149 157/157/157 135/135/135 
f 154/154/154 155/155/155 158/158/158 
f 128/128/128 157/157/157 129/129/129 
f 157/157/157 128/128/128 132/132/132 
f 132/132/132 135/135/135 157/157/157 
f 161/161/161 160/160/160 159/159/159 
f 161/161/161 159/159/159 162/162/162 
f 160/160/160 161/161/161 163/163/163 
f 164/164/164 160/160/160 163/163/163 
f 160/160/160 164/164/164 165/165/165 
f 164/164/164 166/166/166 165/165/165 
f 167/167/167 165/165/165 166/166/166 
f 168/168/168 162/162/162 159/159/159 
f 162/162/162 168/168/168 169/169/169 
f 172/172/172 171/171/171 170/170/170 
f 173/173/173 172/172/172 170/170/170 
f 173/173/173 174/174/174 172/172/172 
f 175/175/175 172/172/172 174/174/174 
f 175/175/175 174/174/174 176/176/176 
f 177/177/177 170/170/170 171/171/171 
f 170/170/170 177/177/177 178/178/178 
f 181/181/181 180/180/180 179/179/179 
f 181/181/181 179/179/179 182/182/182 
f 180/180/180 181/181/181 183/183/183 
f 183/183/183 184/184/184 180/180/180 
f 179/179/179 185/185/185 182/182/182 
f 186/186/186 182/182/182 185/185/185 
f 182/182/182 186/186/186 187/187/187 
f 187/187/187 186/186/186 188/188/188 
f 188/188/188 61/61/61 187/187/187 
f 189/189/189 187/187/187 61/61/61 
f 190/190/190 189/189/189 61/61/61 
f 61/61/61 59/59/59 190/190/190 
f 190/190/190 59/59/59 65/65/65 
f 191/191/191 190/190/190 65/65/65 
f 65/65/65 192/192/192 191/191/191 
f 192/192/192 65/65/65 78/78/78 
f 193/193/193 190/190/190 191/191/191 
f 190/190/190 193/193/193 194/194/194 
f 194/194/194 193/193/193 195/195/195 
f 196/196/196 195/195/195 193/193/193 
f 195/195/195 196/196/196 197/197/197 
f 198/198/198 197/197/197 196/196/196 
f 188/188/188 199/199/199 61/61/61 
f 60/60/60 61/61/61 199/199/199 
f 200/200/200 60/60/60 199/199/199 
f 60/60/60 200/200/200 56/56/56 
f 56/56/56 200/200/200 80/80/80 
f 80/80/80 200/200/200 201/201/201 
f 202/202/202 197/197/197 198/198/198 
f 198/198/198 203/203/203 202/202/202 
f 66/66/66 204/204/204 78/78/78 
f 204/204/204 66/66/66 205/205/205 
f 66/66/66 206/206/206 205/205/205 
f 207/207/207 206/206/206 66/66/66 
f 66/66/66 67/67/67 207/207/207 
f 68/68/68 207/207/207 67/67/67 
f 68/68/68 101/101/101 207/207/207 
f 207/207/207 208/208/208 206/206/206 
f 209/209/209 206/206/206 208/208/208 
f 209/209/209 210/210/210 206/206/206 
f 210/210/210 205/205/205 206/206/206 
f 210/210/210 209/209/209 211/211/211 
f 211/211/211 209/209/209 208/208/208 
f 208/208/208 207/207/207 211/211/211 
f 211/211/211 207/207/207 127/127/127 
f 211/211/211 127/127/127 212/212/212 
f 212/212/212 210/210/210 211/211/211 
f 125/125/125 127/127/127 207/207/207 
f 207/207/207 109/109/109 125/125/125 
f 101/101/101 109/109/109 207/207/207 
f 127/127/127 213/213/213 212/212/212 
f 213/213/213 127/127/127 137/137/137 
f 108/108/108 124/124/124 109/109/109 
f 124/124/124 108/108/108 110/110/110 
f 216/216/216 215/215/215 214/214/214 
f 215/215/215 216/216/216 217/217/217 
f 218/218/218 217/217/217 216/216/216 
f 217/217/217 218/218/218 219/219/219 
f 220/220/220 216/216/216 214/214/214 
f 216/216/216 220/220/220 221/221/221 
f 216/216/216 221/221/221 218/218/218 
f 222/222/222 218/218/218 221/221/221 
f 223/223/223 214/214/214 215/215/215 
f 214/214/214 223/223/223 224/224/224 
f 219/219/219 218/218/218 225/225/225 
f 225/225/225 226/226/226 219/219/219 
f 214/214/214 227/227/227 220/220/220 
f 227/227/227 214/214/214 224/224/224 
f 228/228/228 220/220/220 227/227/227 
f 229/229/229 218/218/218 222/222/222 
f 218/218/218 229/229/229 225/225/225 
f 230/230/230 224/224/224 223/223/223 
f 224/224/224 230/230/230 231/231/231 
f 231/231/231 227/227/227 224/224/224 
f 232/232/232 231/231/231 230/230/230 
f 231/231/231 232/232/232 233/233/233 
f 233/233/233 234/234/234 231/231/231 
f 227/227/227 231/231/231 234/234/234 
f 235/235/235 233/233/233 232/232/232 
f 233/233/233 235/235/235 236/236/236 
f 236/236/236 235/235/235 237/237/237 
f 237/237/237 238/238/238 236/236/236 
f 238/238/238 239/239/239 236/236/236 
f 239/239/239 238/238/238 240/240/240 
f 241/241/241 236/236/236 239/239/239 
f 236/236/236 241/241/241 233/233/233 
f 234/234/234 233/233/233 241/241/241 
f 241/241/241 242/242/242 234/234/234 
f 234/234/234 242/242/242 243/243/243 
f 243/243/243 227/227/227 234/234/234 
f 232/232/232 244/244/244 235/235/235 
f 244/244/244 237/237/237 235/235/235 
f 244/244/244 232/232/232 245/245/245 
f 245/245/245 246/246/246 244/244/244 
f 244/244/244 246/246/246 247/247/247 
f 246/246/246 248/248/248 247/247/247 
f 249/249/249 248/248/248 246/246/246 
f 246/246/246 245/245/245 249/249/249 
f 250/250/250 248/248/248 249/249/249 
f 251/251/251 248/248/248 250/250/250 
f 252/252/252 248/248/248 251/251/251 
f 253/253/253 248/248/248 252/252/252 
f 254/254/254 248/248/248 253/253/253 
f 255/255/255 248/248/248 254/254/254 
f 251/251/251 256/256/256 252/252/252 
f 256/256/256 253/253/253 252/252/252 
f 256/256/256 251/251/251 257/257/257 
f 258/258/258 254/254/254 253/253/253 
f 258/258/258 255/255/255 254/254/254 
f 253/253/253 259/259/259 258/258/258 
f 253/253/253 256/256/256 259/259/259 
f 251/251/251 260/260/260 257/257/257 
f 260/260/260 251/251/251 250/250/250 
f 260/260/260 249/249/249 245/245/245 
f 249/249/249 260/260/260 250/250/250 
f 255/255/255 258/258/258 261/261/261 
f 226/226/226 261/261/261 258/258/258 
f 258/258/258 219/219/219 226/226/226 
f 219/219/219 258/258/258 259/259/259 
f 257/257/257 215/215/215 256/256/256 
f 215/215/215 257/257/257 223/223/223 
f 260/260/260 223/223/223 257/257/257 
f 259/259/259 217/217/217 219/219/219 
f 256/256/256 215/215/215 217/217/217 
f 217/217/217 259/259/259 256/256/256 
f 223/223/223 260/260/260 230/230/230 
f 245/245/245 230/230/230 260/260/260 
f 230/230/230 245/245/245 232/232/232 
f 104/104/104 120/120/120 118/118/118 
f 120/120/120 104/104/104 103/103/103 
f 120/120/120 103/103/103 262/262/262 
f 263/263/263 262/262/262 103/103/103 
f 262/262/262 264/264/264 120/120/120 
f 130/130/130 120/120/120 264/264/264 
f 130/130/130 264/264/264 265/265/265 
f 130/130/130 265/265/265 131/131/131 
f 131/131/131 265/265/265 266/266/266 
f 266/266/266 133/133/133 131/131/131 
f 264/264/264 262/262/262 267/267/267 
f 264/264/264 267/267/267 268/268/268 
f 133/133/133 266/266/266 269/269/269 
f 270/270/270 263/263/263 103/103/103 
f 270/270/270 103/103/103 271/271/271 
f 90/90/90 270/270/270 271/271/271 
f 91/91/91 270/270/270 90/90/90 
f 267/267/267 262/262/262 272/272/272 
f 272/272/272 262/262/262 273/273/273 
f 89/89/89 272/272/272 273/273/273 
f 89/89/89 97/97/97 272/272/272 
f 269/269/269 274/274/274 133/133/133 
f 274/274/274 136/136/136 133/133/133 
f 136/136/136 274/274/274 275/275/275 
f 275/275/275 276/276/276 136/136/136 
f 147/147/147 136/136/136 276/276/276 
f 279/279/279 278/278/278 277/277/277 
f 277/277/277 278/278/278 280/280/280 
f 278/278/278 279/279/279 281/281/281 
f 279/279/279 282/282/282 281/281/281 
f 282/282/282 279/279/279 283/283/283 
f 284/284/284 282/282/282 283/283/283 
f 283/283/283 285/285/285 284/284/284 
f 280/280/280 286/286/286 277/277/277 
f 286/286/286 280/280/280 287/287/287 
f 290/290/290 289/289/289 288/288/288 
f 289/289/289 291/291/291 288/288/288 
f 292/292/292 291/291/291 289/289/289 
f 289/289/289 293/293/293 292/292/292 
f 292/292/292 293/293/293 294/294/294 
f 288/288/288 295/295/295 290/290/290 
f 295/295/295 288/288/288 296/296/296 
f 299/299/299 298/298/298 297/297/297 
f 297/297/297 298/298/298 300/300/300 
f 298/298/298 299/299/299 301/301/301 
f 302/302/302 301/301/301 299/299/299 
f 303/303/303 297/297/297 300/300/300 
f 300/300/300 304/304/304 303/303/303 
f 304/304/304 300/300/300 305/305/305 
f 302/302/302 306/306/306 301/301/301 
f 306/306/306 302/302/302 307/307/307 
f 310/310/310 309/309/309 308/308/308 
f 308/308/308 311/311/311 310/310/310 
f 308/308/308 312/312/312 311/311/311 
f 313/313/313 311/311/311 312/312/312 
f 316/316/316 315/315/315 314/314/314 
f 314/314/314 315/315/315 317/317/317 
f 317/317/317 315/315/315 318/318/318 
f 318/318/318 319/319/319 317/317/317 
f 320/320/320 316/316/316 314/314/314 
f 315/315/315 316/316/316 321/321/321 
f 316/316/316 320/320/320 321/321/321 
f 315/315/315 321/321/321 322/322/322 
f 315/315/315 322/322/322 318/318/318 
f 323/323/323 318/318/318 322/322/322 
f 326/326/326 325/325/325 324/324/324 
f 325/325/325 326/326/326 327/327/327 
f 328/328/328 325/325/325 327/327/327 
f 331/331/331 330/330/330 329/329/329 
f 332/332/332 329/329/329 330/330/330 
f 335/335/335 334/334/334 333/333/333 
f 184/184/184 337/337/337 336/336/336 
f 337/337/337 184/184/184 183/183/183 
f 77/77/77 81/81/81 338/338/338 
f 338/338/338 339/339/339 77/77/77 
f 340/340/340 77/77/77 339/339/339 
f 77/77/77 340/340/340 74/74/74 
f 340/340/340 341/341/341 74/74/74 
f 84/84/84 74/74/74 341/341/341 
f 344/344/344 343/343/343 342/342/342 
f 344/344/344 342/342/342 345/345/345 
f 344/344/344 345/345/345 346/346/346 
f 344/344/344 346/346/346 347/347/347 
f 344/344/344 347/347/347 348/348/348 
f 344/344/344 348/348/348 349/349/349 
f 344/344/344 349/349/349 350/350/350 
f 350/350/350 351/351/351 344/344/344 
f 352/352/352 344/344/344 351/351/351 
f 355/355/355 354/354/354 353/353/353 
f 354/354/354 355/355/355 356/356/356 
f 355/355/355 357/357/357 356/356/356 
f 360/360/360 359/359/359 358/358/358 
f 358/358/358 361/361/361 360/360/360 
f 364/364/364 363/363/363 362/362/362 
f 367/367/367 366/366/366 365/365/365 
f 365/365/365 366/366/366 368/368/368 
f 368/368/368 366/366/366 369/369/369 
f 369/369/369 366/366/366 370/370/370 
f 370/370/370 366/366/366 371/371/371 
f 371/371/371 366/366/366 372/372/372 
f 372/372/372 366/366/366 373/373/373 
f 374/374/374 373/373/373 366/366/366 
f 366/366/366 375/375/375 374/374/374 
f 70/70/70 82/82/82 73/73/73 
f 82/82/82 70/70/70 71/71/71 
f 376/376/376 34/34/34 31/31/31 
f 31/31/31 24/24/24 376/376/376 
f 247/247/247 377/377/377 244/244/244 
f 237/237/237 244/244/244 377/377/377 

