v 0.5 -0.14347685873508453 0.2000000774860382
v 0.75 2.005598306655884 0.2000000774860382
v 0.75 -0.14347685873508453 0.2000000774860382
v 0.5 2.005598306655884 0.2000000774860382
v 0.5237500071525574 -0.14347685873508453 0.10000007599592209
v 0.75 -0.14347685873508453 0.2000000774860382
v 0.7262499928474426 -0.14347685873508453 0.10000007599592209
v 0.5 -0.14347685873508453 0.2000000774860382
v 0.7262499928474426 -0.14347685873508453 0.10000007599592209
v 0.75 2.005598306655884 0.2000000774860382
v 0.7262499928474426 2.005598306655884 0.10000007599592209
v 0.75 -0.14347685873508453 0.2000000774860382
v 0.7262499928474426 2.005598306655884 0.10000007599592209
v 0.5 2.005598306655884 0.2000000774860382
v 0.5237500071525574 2.005598306655884 0.10000007599592209
v 0.75 2.005598306655884 0.2000000774860382
v 0.5237500071525574 2.005598306655884 0.10000007599592209
v 0.5 -0.14347685873508453 0.2000000774860382
v 0.5237500071525574 -0.14347685873508453 0.10000007599592209
v 0.5 2.005598306655884 0.2000000774860382
v 0.24999983608722687 -0.044384460896253586 0.20000022649765015
v 0.49999985098838806 2.044384479522705 0.20000022649765015
v 0.49999985098838806 -0.044384460896253586 0.20000022649765015
v 0.24999983608722687 2.044384479522705 0.20000022649765015
v 0.27374982833862305 -0.044384460896253586 0.10000022500753403
v 0.49999985098838806 -0.044384460896253586 0.20000022649765015
v 0.4762498438358307 -0.044384460896253586 0.10000022500753403
v 0.24999983608722687 -0.044384460896253586 0.20000022649765015
v 0.4762498438358307 -0.044384460896253586 0.10000022500753403
v 0.49999985098838806 2.044384479522705 0.20000022649765015
v 0.4762498438358307 2.044384479522705 0.10000022500753403
v 0.49999985098838806 -0.044384460896253586 0.20000022649765015
v 0.4762498438358307 2.044384479522705 0.10000022500753403
v 0.24999983608722687 2.044384479522705 0.20000022649765015
v 0.27374982833862305 2.044384479522705 0.10000022500753403
v 0.49999985098838806 2.044384479522705 0.20000022649765015
v 0.27374982833862305 2.044384479522705 0.10000022500753403
v 0.24999983608722687 -0.044384460896253586 0.20000022649765015
v 0.27374982833862305 -0.044384460896253586 0.10000022500753403
v 0.24999983608722687 2.044384479522705 0.20000022649765015
v -1.5258788721439487e-07 0.0 0.2000001072883606
v 0.24999983608722687 2.0 0.2000001072883606
v 0.24999983608722687 0.0 0.2000001072883606
v -1.5258788721439487e-07 2.0 0.2000001072883606
v 0.02374984696507454 0.0 0.10000011324882507
v 0.24999983608722687 0.0 0.2000001072883606
v 0.2262498438358307 0.0 0.10000011324882507
v -1.5258788721439487e-07 0.0 0.2000001072883606
v 0.2262498438358307 0.0 0.10000011324882507
v 0.24999983608722687 2.0 0.2000001072883606
v 0.2262498438358307 2.0 0.10000011324882507
v 0.24999983608722687 0.0 0.2000001072883606
v 0.2262498438358307 2.0 0.10000011324882507
v -1.5258788721439487e-07 2.0 0.2000001072883606
v 0.02374984696507454 2.0 0.10000011324882507
v 0.24999983608722687 2.0 0.2000001072883606
v 0.02374984696507454 2.0 0.10000011324882507
v -1.5258788721439487e-07 0.0 0.2000001072883606
v 0.02374984696507454 0.0 0.10000011324882507
v -1.5258788721439487e-07 2.0 0.2000001072883606
v -0.0 0.0 0.09999999403953552
v 2.0 0.19999969005584717 0.09999999403953552
v 2.0 0.0 0.09999999403953552
v -0.0 0.19999969005584717 0.09999999403953552
v 2.0 0.19999969005584717 0.0
v 2.0 0.0 0.09999999403953552
v 2.0 0.19999969005584717 0.09999999403953552
v 2.0 0.0 0.0
v 0.039076536893844604 0.208485409617424 0.2199999988079071
v 0.3985430896282196 0.25836730003356934 0.2199999988079071
v 0.3985430896282196 0.208485409617424 0.2199999988079071
v 0.039076536893844604 0.25836730003356934 0.2199999988079071
v -0.0 0.0 0.0
v -0.0 0.19999969005584717 0.09999999403953552
v -0.0 0.0 0.09999999403953552
v -0.0 0.19999969005584717 0.0
v 1.2499996423721313 2.2040889263153076 0.2000000774860382
v 1.0 0.05501373112201691 0.2000000774860382
v 0.9999997019767761 2.2040889263153076 0.2000000774860382
v 1.25 0.05501373112201691 0.2000000774860382
v 1.2262496948242188 2.2040889263153076 0.10000007599592209
v 0.9999997019767761 2.2040889263153076 0.2000000774860382
v 1.0237497091293335 2.2040889263153076 0.10000007599592209
v 1.2499996423721313 2.2040889263153076 0.2000000774860382
v 1.0237497091293335 2.2040889263153076 0.10000007599592209
v 1.0 0.05501373112201691 0.2000000774860382
v 1.0237499475479126 0.05501373112201691 0.10000007599592209
v 0.9999997019767761 2.2040889263153076 0.2000000774860382
v 1.0237499475479126 0.05501373112201691 0.10000007599592209
v 1.25 0.05501373112201691 0.2000000774860382
v 1.2262499332427979 0.05501373112201691 0.10000007599592209
v 1.0 0.05501373112201691 0.2000000774860382
v 1.2262499332427979 0.05501373112201691 0.10000007599592209
v 1.2499996423721313 2.2040889263153076 0.2000000774860382
v 1.2262496948242188 2.2040889263153076 0.10000007599592209
v 1.25 0.05501373112201691 0.2000000774860382
v 1.499999761581421 2.02917742729187 0.20000022649765015
v 1.2500001192092896 -0.05959136784076691 0.20000022649765015
v 1.249999761581421 2.02917742729187 0.20000022649765015
v 1.5000001192092896 -0.05959136784076691 0.20000022649765015
v 1.4762498140335083 2.02917742729187 0.10000022500753403
v 1.249999761581421 2.02917742729187 0.20000022649765015
v 1.273749828338623 2.02917742729187 0.10000022500753403
v 1.499999761581421 2.02917742729187 0.20000022649765015
v 1.273749828338623 2.02917742729187 0.10000022500753403
v 1.2500001192092896 -0.05959136784076691 0.20000022649765015
v 1.2737500667572021 -0.05959136784076691 0.10000022500753403
v 1.249999761581421 2.02917742729187 0.20000022649765015
v 1.2737500667572021 -0.05959136784076691 0.10000022500753403
v 1.5000001192092896 -0.05959136784076691 0.20000022649765015
v 1.476250171661377 -0.05959136784076691 0.10000022500753403
v 1.2500001192092896 -0.05959136784076691 0.20000022649765015
v 1.476250171661377 -0.05959136784076691 0.10000022500753403
v 1.499999761581421 2.02917742729187 0.20000022649765015
v 1.4762498140335083 2.02917742729187 0.10000022500753403
v 1.5000001192092896 -0.05959136784076691 0.20000022649765015
v 1.0 1.9132037162780762 0.2000001072883606
v 0.7500002980232239 -0.08679626137018204 0.2000001072883606
v 0.75 1.9132037162780762 0.2000001072883606
v 1.000000238418579 -0.08679626137018204 0.2000001072883606
v 0.9762499928474426 1.9132037162780762 0.10000011324882507
v 0.75 1.9132037162780762 0.2000001072883606
v 0.7737500071525574 1.9132037162780762 0.10000011324882507
v 1.0 1.9132037162780762 0.2000001072883606
v 0.7737500071525574 1.9132037162780762 0.10000011324882507
v 0.7500002980232239 -0.08679626137018204 0.2000001072883606
v 0.7737503051757812 -0.08679626137018204 0.10000011324882507
v 0.75 1.9132037162780762 0.2000001072883606
v 0.7737503051757812 -0.08679626137018204 0.10000011324882507
v 1.000000238418579 -0.08679626137018204 0.2000001072883606
v 0.9762502908706665 -0.08679626137018204 0.10000011324882507
v 0.7500002980232239 -0.08679626137018204 0.2000001072883606
v 0.9762502908706665 -0.08679626137018204 0.10000011324882507
v 1.0 1.9132037162780762 0.2000001072883606
v 0.9762499928474426 1.9132037162780762 0.10000011324882507
v 1.000000238418579 -0.08679626137018204 0.2000001072883606
v 1.75 3.0517577442878974e-07 0.2000000774860382
v 2.0 2.149075508117676 0.2000000774860382
v 2.0 3.0517577442878974e-07 0.2000000774860382
v 1.75 2.149075508117676 0.2000000774860382
v 1.7737499475479126 3.0517577442878974e-07 0.10000007599592209
v 2.0 3.0517577442878974e-07 0.2000000774860382
v 1.9762499332427979 3.0517577442878974e-07 0.10000007599592209
v 1.75 3.0517577442878974e-07 0.2000000774860382
v 1.9762499332427979 3.0517577442878974e-07 0.10000007599592209
v 2.0 2.149075508117676 0.2000000774860382
v 1.9762499332427979 2.149075508117676 0.10000007599592209
v 2.0 3.0517577442878974e-07 0.2000000774860382
v 1.9762499332427979 2.149075508117676 0.10000007599592209
v 1.75 2.149075508117676 0.2000000774860382
v 1.7737499475479126 2.149075508117676 0.10000007599592209
v 2.0 2.149075508117676 0.2000000774860382
v 1.7737499475479126 2.149075508117676 0.10000007599592209
v 1.75 3.0517577442878974e-07 0.2000000774860382
v 1.7737499475479126 3.0517577442878974e-07 0.10000007599592209
v 1.75 2.149075508117676 0.2000000774860382
v 1.499999761581421 -0.17385710775852203 0.20000022649765015
v 1.749999761581421 1.9149117469787598 0.20000022649765015
v 1.749999761581421 -0.17385710775852203 0.20000022649765015
v 1.499999761581421 1.9149117469787598 0.20000022649765015
v 1.523749828338623 -0.17385710775852203 0.10000022500753403
v 1.749999761581421 -0.17385710775852203 0.20000022649765015
v 1.7262498140335083 -0.17385710775852203 0.10000022500753403
v 1.499999761581421 -0.17385710775852203 0.20000022649765015
v 1.7262498140335083 -0.17385710775852203 0.10000022500753403
v 1.749999761581421 1.9149117469787598 0.20000022649765015
v 1.7262498140335083 1.9149117469787598 0.10000022500753403
v 1.749999761581421 -0.17385710775852203 0.20000022649765015
v 1.7262498140335083 1.9149117469787598 0.10000022500753403
v 1.499999761581421 1.9149117469787598 0.20000022649765015
v 1.523749828338623 1.9149117469787598 0.10000022500753403
v 1.749999761581421 1.9149117469787598 0.20000022649765015
v 1.523749828338623 1.9149117469787598 0.10000022500753403
v 1.499999761581421 -0.17385710775852203 0.20000022649765015
v 1.523749828338623 -0.17385710775852203 0.10000022500753403
v 1.499999761581421 1.9149117469787598 0.20000022649765015
v 0.3395805358886719 0.37126249074935913 0.2199999988079071
v 0.6990470886230469 0.42114439606666565 0.2199999988079071
v 0.6990470886230469 0.37126249074935913 0.2199999988079071
v 0.3395805358886719 0.42114439606666565 0.2199999988079071
v 0.7159899473190308 0.16184234619140625 0.2199999988079071
v 1.0754565000534058 0.21172423660755157 0.2199999988079071
v 1.0754565000534058 0.16184234619140625 0.2199999988079071
v 0.7159899473190308 0.21172423660755157 0.2199999988079071
v 1.2453362941741943 0.2236093133687973 0.2199999988079071
v 1.6048028469085693 0.2734912037849426 0.2199999988079071
v 1.6048028469085693 0.2236093133687973 0.2199999988079071
v 1.2453362941741943 0.2734912037849426 0.2199999988079071
v 1.6167749166488647 0.13473907113075256 0.2199999988079071
v 1.9762412309646606 0.1846209615468979 0.2199999988079071
v 1.9762412309646606 0.13473907113075256 0.2199999988079071
v 1.6167749166488647 0.1846209615468979 0.2199999988079071
v 0.03356719762086868 1.7326723337173462 0.2199999988079071
v 0.3930334448814392 1.782554268836975 0.2199999988079071
v 0.3930334448814392 1.7326723337173462 0.2199999988079071
v 0.03356719762086868 1.782554268836975 0.2199999988079071
v 1.5909589529037476 1.7597707509994507 0.2199999988079071
v 1.950425386428833 1.8096526861190796 0.2199999988079071
v 1.950425386428833 1.7597707509994507 0.2199999988079071
v 1.5909589529037476 1.8096526861190796 0.2199999988079071
v 1.3826847076416016 1.6580297946929932 0.2199999988079071
v 1.742151141166687 1.7079116106033325 0.2199999988079071
v 1.742151141166687 1.6580297946929932 0.2199999988079071
v 1.3826847076416016 1.7079116106033325 0.2199999988079071
v 0.8653199672698975 1.7805224657058716 0.2199999988079071
v 1.224786400794983 1.830404281616211 0.2199999988079071
v 1.224786400794983 1.7805224657058716 0.2199999988079071
v 0.8653199672698975 1.830404281616211 0.2199999988079071
v 0.2764660716056824 1.8064095973968506 0.2199999988079071
v 0.635932445526123 1.85629141330719 0.2199999988079071
v 0.635932445526123 1.8064095973968506 0.2199999988079071
v 0.2764660716056824 1.85629141330719 0.2199999988079071
v -0.0 1.7999999523162842 0.09999974071979523
v 2.0 1.9999996423721313 0.09999974071979523
v 2.0 1.7999999523162842 0.09999974071979523
v -0.0 1.9999996423721313 0.09999974071979523
v 2.0 1.9999996423721313 -2.5749204723979346e-07
v 2.0 1.7999999523162842 0.09999974071979523
v 2.0 1.9999996423721313 0.09999974071979523
v 2.0 1.7999999523162842 -2.5749204723979346e-07
v -0.0 1.7999999523162842 -2.5749204723979346e-07
v -0.0 1.9999996423721313 0.09999974071979523
v -0.0 1.7999999523162842 0.09999974071979523
v -0.0 1.9999996423721313 -2.5749204723979346e-07
v -0.0 0.0 0.09999999403953552
v 2.0 0.0 0.0
v -0.0 0.0 0.0
v 2.0 0.0 0.09999999403953552
v -0.0 0.19999969005584717 0.0
v 2.0 0.19999969005584717 0.09999999403953552
v -0.0 0.19999969005584717 0.09999999403953552
v 2.0 0.19999969005584717 0.0
v -0.0 1.7999999523162842 0.09999974071979523
v 2.0 1.7999999523162842 -2.5749204723979346e-07
v -0.0 1.7999999523162842 -2.5749204723979346e-07
v 2.0 1.7999999523162842 0.09999974071979523
v -0.0 1.9999996423721313 -2.5749204723979346e-07
v 2.0 1.9999996423721313 0.09999974071979523
v -0.0 1.9999996423721313 0.09999974071979523
v 2.0 1.9999996423721313 -2.5749204723979346e-07
vn -0.0 0.0 1.0
vn -0.0 0.0 1.0
vn -0.0 0.0 1.0
vn -0.0 0.0 1.0
vn -0.0 -1.0 0.0
vn -0.0 -1.0 0.0
vn -0.0 -1.0 0.0
vn -0.0 -1.0 0.0
vn 0.9729365110397339 0.0 -0.23107242584228516
vn 0.9729365110397339 0.0 -0.23107242584228516
vn 0.9729365110397339 0.0 -0.23107244074344635
vn 0.9729365110397339 0.0 -0.23107244074344635
vn -0.0 1.0 0.0
vn -0.0 1.0 0.0
vn -0.0 1.0 0.0
vn -0.0 1.0 0.0
vn -0.9729365110397339 0.0 -0.23107242584228516
vn -0.9729365110397339 0.0 -0.23107242584228516
vn -0.9729365110397339 0.0 -0.23107244074344635
vn -0.9729365110397339 0.0 -0.23107244074344635
vn -0.0 0.0 1.0
vn -0.0 0.0 1.0
vn -0.0 0.0 1.0
vn -0.0 0.0 1.0
vn -0.0 -1.0 0.0
vn -0.0 -1.0 0.0
vn -0.0 -1.0 0.0
vn -0.0 -1.0 0.0
vn 0.9729365110397339 0.0 -0.23107241094112396
vn 0.9729365110397339 0.0 -0.23107241094112396
vn 0.9729365110397339 0.0 -0.23107242584228516
vn 0.9729365110397339 0.0 -0.23107242584228516
vn -0.0 1.0 0.0
vn -0.0 1.0 0.0
vn -0.0 1.0 0.0
vn -0.0 1.0 0.0
vn -0.9729365110397339 0.0 -0.23107241094112396
vn -0.9729365110397339 0.0 -0.23107241094112396
vn -0.9729365110397339 0.0 -0.23107242584228516
vn -0.9729365110397339 0.0 -0.23107242584228516
vn -0.0 0.0 1.0
vn -0.0 0.0 1.0
vn -0.0 0.0 1.0
vn -0.0 0.0 1.0
vn -0.0 -1.0 0.0
vn -0.0 -1.0 0.0
vn -0.0 -1.0 0.0
vn -0.0 -1.0 0.0
vn 0.9729365110397339 0.0 -0.23107242584228516
vn 0.9729365110397339 0.0 -0.23107242584228516
vn 0.9729365110397339 0.0 -0.23107242584228516
vn 0.9729365110397339 0.0 -0.23107242584228516
vn -0.0 1.0 0.0
vn -0.0 1.0 0.0
vn -0.0 1.0 0.0
vn -0.0 1.0 0.0
vn -0.9729365110397339 0.0 -0.23107242584228516
vn -0.9729365110397339 0.0 -0.23107242584228516
vn -0.9729365110397339 0.0 -0.23107242584228516
vn -0.9729365110397339 0.0 -0.23107242584228516
vn -0.0 0.0 1.0
vn -0.0 0.0 1.0
vn -0.0 0.0 1.0
vn -0.0 0.0 1.0
vn 1.0 0.0 0.0
vn 1.0 0.0 0.0
vn 1.0 0.0 0.0
vn 1.0 0.0 0.0
vn -0.0 0.0 1.0
vn -0.0 0.0 1.0
vn -0.0 0.0 1.0
vn -0.0 0.0 1.0
vn -1.0 0.0 0.0
vn -1.0 0.0 0.0
vn -1.0 0.0 0.0
vn -1.0 0.0 0.0
vn -0.0 0.0 1.0
vn -0.0 0.0 1.0
vn -0.0 0.0 1.0
vn -0.0 0.0 1.0
vn -0.0 1.0 0.0
vn -0.0 1.0 0.0
vn -0.0 1.0 0.0
vn -0.0 1.0 0.0
vn -0.9729365110397339 -1.3816021748880303e-07 -0.23107242584228516
vn -0.9729365110397339 -1.3816021748880303e-07 -0.23107242584228516
vn -0.9729365110397339 -1.3816021748880303e-07 -0.23107244074344635
vn -0.9729365110397339 -1.3816021748880303e-07 -0.23107244074344635
vn -0.0 -1.0 0.0
vn -0.0 -1.0 0.0
vn -0.0 -1.0 0.0
vn -0.0 -1.0 0.0
vn 0.9729365110397339 1.3816021748880303e-07 -0.23107242584228516
vn 0.9729365110397339 1.3816021748880303e-07 -0.23107242584228516
vn 0.9729365110397339 1.3816021748880303e-07 -0.23107244074344635
vn 0.9729365110397339 1.3816021748880303e-07 -0.23107244074344635
vn -0.0 0.0 1.0
vn -0.0 0.0 1.0
vn -0.0 0.0 1.0
vn -0.0 0.0 1.0
vn -0.0 1.0 0.0
vn -0.0 1.0 0.0
vn -0.0 1.0 0.0
vn -0.0 1.0 0.0
vn -0.9729365110397339 -1.4214910493137722e-07 -0.23107241094112396
vn -0.9729365110397339 -1.4214910493137722e-07 -0.23107241094112396
vn -0.9729365110397339 -1.4214910493137722e-07 -0.23107242584228516
vn -0.9729365110397339 -1.4214910493137722e-07 -0.23107242584228516
vn -0.0 -1.0 0.0
vn -0.0 -1.0 0.0
vn -0.0 -1.0 0.0
vn -0.0 -1.0 0.0
vn 0.9729365110397339 1.4214910493137722e-07 -0.23107241094112396
vn 0.9729365110397339 1.4214910493137722e-07 -0.23107241094112396
vn 0.9729365110397339 1.4214910493137722e-07 -0.23107242584228516
vn 0.9729365110397339 1.4214910493137722e-07 -0.23107242584228516
vn -0.0 0.0 1.0
vn -0.0 0.0 1.0
vn -0.0 0.0 1.0
vn -0.0 0.0 1.0
vn -0.0 1.0 0.0
vn -0.0 1.0 0.0
vn -0.0 1.0 0.0
vn -0.0 1.0 0.0
vn -0.9729365110397339 -1.484583265209949e-07 -0.23107242584228516
vn -0.9729365110397339 -1.484583265209949e-07 -0.23107242584228516
vn -0.9729365110397339 -1.484583407318496e-07 -0.23107242584228516
vn -0.9729365110397339 -1.484583407318496e-07 -0.23107242584228516
vn -0.0 -1.0 0.0
vn -0.0 -1.0 0.0
vn -0.0 -1.0 0.0
vn -0.0 -1.0 0.0
vn 0.9729365110397339 1.484583265209949e-07 -0.23107242584228516
vn 0.9729365110397339 1.484583265209949e-07 -0.23107242584228516
vn 0.9729365110397339 1.484583407318496e-07 -0.23107242584228516
vn 0.9729365110397339 1.484583407318496e-07 -0.23107242584228516
vn -0.0 0.0 1.0
vn -0.0 0.0 1.0
vn -0.0 0.0 1.0
vn -0.0 0.0 1.0
vn -0.0 -1.0 0.0
vn -0.0 -1.0 0.0
vn -0.0 -1.0 0.0
vn -0.0 -1.0 0.0
vn 0.9729365110397339 0.0 -0.23107242584228516
vn 0.9729365110397339 0.0 -0.23107242584228516
vn 0.9729365110397339 0.0 -0.23107244074344635
vn 0.9729365110397339 0.0 -0.23107244074344635
vn -0.0 1.0 0.0
vn -0.0 1.0 0.0
vn -0.0 1.0 0.0
vn -0.0 1.0 0.0
vn -0.9729365110397339 0.0 -0.23107242584228516
vn -0.9729365110397339 0.0 -0.23107242584228516
vn -0.9729365110397339 0.0 -0.23107244074344635
vn -0.9729365110397339 0.0 -0.23107244074344635
vn -0.0 0.0 1.0
vn -0.0 0.0 1.0
vn -0.0 0.0 1.0
vn -0.0 0.0 1.0
vn -0.0 -1.0 0.0
vn -0.0 -1.0 0.0
vn -0.0 -1.0 0.0
vn -0.0 -1.0 0.0
vn 0.9729365110397339 0.0 -0.23107241094112396
vn 0.9729365110397339 0.0 -0.23107241094112396
vn 0.9729365110397339 0.0 -0.23107242584228516
vn 0.9729365110397339 0.0 -0.23107242584228516
vn -0.0 1.0 0.0
vn -0.0 1.0 0.0
vn -0.0 1.0 0.0
vn -0.0 1.0 0.0
vn -0.9729365110397339 0.0 -0.23107241094112396
vn -0.9729365110397339 0.0 -0.23107241094112396
vn -0.9729365110397339 0.0 -0.23107242584228516
vn -0.9729365110397339 0.0 -0.23107242584228516
vn -0.0 0.0 1.0
vn -0.0 0.0 1.0
vn -0.0 0.0 1.0
vn -0.0 0.0 1.0
vn -0.0 0.0 1.0
vn -0.0 0.0 1.0
vn -0.0 0.0 1.0
vn -0.0 0.0 1.0
vn -0.0 0.0 1.0
vn -0.0 0.0 1.0
vn -0.0 0.0 1.0
vn -0.0 0.0 1.0
vn -0.0 0.0 1.0
vn -0.0 0.0 1.0
vn -0.0 0.0 1.0
vn -0.0 0.0 1.0
vn -0.0 0.0 1.0
vn -0.0 0.0 1.0
vn -0.0 0.0 1.0
vn -0.0 0.0 1.0
vn -0.0 0.0 1.0
vn -0.0 0.0 1.0
vn -0.0 0.0 1.0
vn -0.0 0.0 1.0
vn -0.0 0.0 1.0
vn -0.0 0.0 1.0
vn -0.0 0.0 1.0
vn -0.0 0.0 1.0
vn -0.0 0.0 1.0
vn -0.0 0.0 1.0
vn -0.0 0.0 1.0
vn -0.0 0.0 1.0
vn -0.0 0.0 1.0
vn -0.0 0.0 1.0
vn -0.0 0.0 1.0
vn -0.0 0.0 1.0
vn -0.0 0.0 1.0
vn -0.0 0.0 1.0
vn -0.0 0.0 1.0
vn -0.0 0.0 1.0
vn 1.0 0.0 0.0
vn 1.0 0.0 0.0
vn 1.0 0.0 0.0
vn 1.0 0.0 0.0
vn -1.0 0.0 0.0
vn -1.0 0.0 0.0
vn -1.0 0.0 0.0
vn -1.0 0.0 0.0
vn -0.0 -1.0 0.0
vn -0.0 -1.0 0.0
vn -0.0 -1.0 0.0
vn -0.0 -1.0 0.0
vn -0.0 1.0 0.0
vn -0.0 1.0 0.0
vn -0.0 1.0 0.0
vn -0.0 1.0 0.0
vn -0.0 -1.0 0.0
vn -0.0 -1.0 0.0
vn -0.0 -1.0 0.0
vn -0.0 -1.0 0.0
vn -0.0 1.0 0.0
vn -0.0 1.0 0.0
vn -0.0 1.0 0.0
vn -0.0 1.0 0.0
vt 0.02997174859046936 0.9141177833080292
vt 0.09247186779975891 0.37684905529022217
vt 0.09247171878814697 0.9141177833080292
vt 0.02997186779975891 0.37684905529022217
vt 0.03597515821456909 0.3496016263961792
vt 0.09253764152526855 0.37460166215896606
vt 0.0866001546382904 0.3496016263961792
vt 0.030037671327590942 0.37460166215896606
vt 0.0035287681967020035 0.37614065408706665
vt 0.028528742492198944 0.9140956774353981
vt 0.003528738394379616 0.9140956774353981
vt 0.028528742492198944 0.37614065408706665
vt 0.03590920567512512 0.3496135473251343
vt 0.09247174859046936 0.37461352348327637
vt 0.08653423190116882 0.3496135473251343
vt 0.02997174859046936 0.37461352348327637
vt 0.0036388281732797623 0.37614065408706665
vt 0.02863883227109909 0.9140956774353981
vt 0.0036387983709573746 0.9140956774353981
vt 0.02863883227109909 0.37614065408706665
vt 0.10273705422878265 0.9141177833080292
vt 0.1652371734380722 0.391925573348999
vt 0.16523705422878265 0.9141177833080292
vt 0.1027371734380722 0.391925573348999
vt 0.0359092652797699 0.34961944818496704
vt 0.09247174859046936 0.37461942434310913
vt 0.08653423190116882 0.34961944818496704
vt 0.02997174859046936 0.37461942434310913
vt 0.0034260693937540054 0.37614065408706665
vt 0.02842601388692856 0.9140956774353981
vt 0.0034260395914316177 0.9140956774353981
vt 0.028426043689250946 0.37614065408706665
vt 0.03597518801689148 0.34960758686065674
vt 0.09253767132759094 0.37460756301879883
vt 0.08660021424293518 0.34960758686065674
vt 0.030037671327590942 0.37460756301879883
vt 0.0035324636846780777 0.37614065408706665
vt 0.02853240817785263 0.9140956774353981
vt 0.00353243388235569 0.9140956774353981
vt 0.02853243798017502 0.37614065408706665
vt 0.17550235986709595 0.9141177833080292
vt 0.2380024790763855 0.41411781311035156
vt 0.23800235986709595 0.9141177833080292
vt 0.1755024790763855 0.41411781311035156
vt 0.03590923547744751 0.3499300479888916
vt 0.09247174859046936 0.37493008375167847
vt 0.08653423190116882 0.3499300479888916
vt 0.02997174859046936 0.37493008375167847
vt 0.0036003533750772476 0.37614065408706665
vt 0.028600357472896576 0.9140956774353981
vt 0.0036003533750772476 0.9140956774353981
vt 0.028600387275218964 0.37614065408706665
vt 0.0359092652797699 0.34960758686065674
vt 0.09247174859046936 0.3746076226234436
vt 0.0865342915058136 0.34960758686065674
vt 0.02997174859046936 0.3746076226234436
vt 0.0034940186887979507 0.37614065408706665
vt 0.02849399298429489 0.9140956774353981
vt 0.003493988886475563 0.9140956774353981
vt 0.02849399298429489 0.37614065408706665
vt 0.0 0.9743829406797886
vt 0.4999999701976776 0.9243831038475037
vt 0.5 0.9743830598890781
vt 0.0 0.9243829846382141
vt 0.7794681191444397 0.9740778598934412
vt 0.7544680237770081 0.9240779057145119
vt 0.7544680237770081 0.9740778598934412
vt 0.7794681191444397 0.9240779057145119
vt 0.105575330555439 0.38430988788604736
vt 0.24743866920471191 0.3646239638328552
vt 0.24743866920471191 0.38430988788604736
vt 0.105575330555439 0.3646239638328552
vt 0.7797096371650696 0.9742056522518396
vt 0.7547096610069275 0.9242056980729103
vt 0.7547096610069275 0.9742056522518396
vt 0.7797096371650696 0.9242056980729103
vt 0.02997174859046936 0.9141177833080292
vt 0.09247186779975891 0.37684905529022217
vt 0.09247171878814697 0.9141177833080292
vt 0.02997186779975891 0.37684905529022217
vt 0.03597515821456909 0.3496016263961792
vt 0.09253764152526855 0.37460166215896606
vt 0.0866001546382904 0.3496016263961792
vt 0.030037671327590942 0.37460166215896606
vt 0.0035287681967020035 0.37614065408706665
vt 0.028528742492198944 0.9140956774353981
vt 0.003528738394379616 0.9140956774353981
vt 0.028528742492198944 0.37614065408706665
vt 0.03590920567512512 0.3496135473251343
vt 0.09247174859046936 0.37461352348327637
vt 0.08653423190116882 0.3496135473251343
vt 0.02997174859046936 0.37461352348327637
vt 0.0036388281732797623 0.37614065408706665
vt 0.02863883227109909 0.9140956774353981
vt 0.0036387983709573746 0.9140956774353981
vt 0.02863883227109909 0.37614065408706665
vt 0.10273705422878265 0.9141177833080292
vt 0.1652371734380722 0.391925573348999
vt 0.16523705422878265 0.9141177833080292
vt 0.1027371734380722 0.391925573348999
vt 0.0359092652797699 0.34961944818496704
vt 0.09247174859046936 0.37461942434310913
vt 0.08653423190116882 0.34961944818496704
vt 0.02997174859046936 0.37461942434310913
vt 0.0034260693937540054 0.37614065408706665
vt 0.02842601388692856 0.9140956774353981
vt 0.0034260395914316177 0.9140956774353981
vt 0.028426043689250946 0.37614065408706665
vt 0.03597518801689148 0.34960758686065674
vt 0.09253767132759094 0.37460756301879883
vt 0.08660021424293518 0.34960758686065674
vt 0.030037671327590942 0.37460756301879883
vt 0.0035324636846780777 0.37614065408706665
vt 0.02853240817785263 0.9140956774353981
vt 0.00353243388235569 0.9140956774353981
vt 0.02853243798017502 0.37614065408706665
vt 0.17550235986709595 0.9141177833080292
vt 0.2380024790763855 0.41411781311035156
vt 0.23800235986709595 0.9141177833080292
vt 0.1755024790763855 0.41411781311035156
vt 0.03590923547744751 0.3499300479888916
vt 0.09247174859046936 0.37493008375167847
vt 0.08653423190116882 0.3499300479888916
vt 0.02997174859046936 0.37493008375167847
vt 0.0036003533750772476 0.37614065408706665
vt 0.028600357472896576 0.9140956774353981
vt 0.0036003533750772476 0.9140956774353981
vt 0.028600387275218964 0.37614065408706665
vt 0.0359092652797699 0.34960758686065674
vt 0.09247174859046936 0.3746076226234436
vt 0.0865342915058136 0.34960758686065674
vt 0.02997174859046936 0.3746076226234436
vt 0.0034940186887979507 0.37614065408706665
vt 0.02849399298429489 0.9140956774353981
vt 0.003493988886475563 0.9140956774353981
vt 0.02849399298429489 0.37614065408706665
vt 0.02997174859046936 0.9141177833080292
vt 0.09247186779975891 0.37684905529022217
vt 0.09247171878814697 0.9141177833080292
vt 0.02997186779975891 0.37684905529022217
vt 0.03597515821456909 0.3496016263961792
vt 0.09253764152526855 0.37460166215896606
vt 0.0866001546382904 0.3496016263961792
vt 0.030037671327590942 0.37460166215896606
vt 0.0035287681967020035 0.37614065408706665
vt 0.028528742492198944 0.9140956774353981
vt 0.003528738394379616 0.9140956774353981
vt 0.028528742492198944 0.37614065408706665
vt 0.03590920567512512 0.3496135473251343
vt 0.09247174859046936 0.37461352348327637
vt 0.08653423190116882 0.3496135473251343
vt 0.02997174859046936 0.37461352348327637
vt 0.0036388281732797623 0.37614065408706665
vt 0.02863883227109909 0.9140956774353981
vt 0.0036387983709573746 0.9140956774353981
vt 0.02863883227109909 0.37614065408706665
vt 0.10273705422878265 0.9141177833080292
vt 0.1652371734380722 0.391925573348999
vt 0.16523705422878265 0.9141177833080292
vt 0.1027371734380722 0.391925573348999
vt 0.0359092652797699 0.34961944818496704
vt 0.09247174859046936 0.37461942434310913
vt 0.08653423190116882 0.34961944818496704
vt 0.02997174859046936 0.37461942434310913
vt 0.0034260693937540054 0.37614065408706665
vt 0.02842601388692856 0.9140956774353981
vt 0.0034260395914316177 0.9140956774353981
vt 0.028426043689250946 0.37614065408706665
vt 0.03597518801689148 0.34960758686065674
vt 0.09253767132759094 0.37460756301879883
vt 0.08660021424293518 0.34960758686065674
vt 0.030037671327590942 0.37460756301879883
vt 0.0035324636846780777 0.37614065408706665
vt 0.02853240817785263 0.9140956774353981
vt 0.00353243388235569 0.9140956774353981
vt 0.02853243798017502 0.37614065408706665
vt 0.105575330555439 0.38430988788604736
vt 0.24743866920471191 0.3646239638328552
vt 0.24743866920471191 0.38430988788604736
vt 0.105575330555439 0.3646239638328552
vt 0.105575330555439 0.38430988788604736
vt 0.24743866920471191 0.3646239638328552
vt 0.24743866920471191 0.38430988788604736
vt 0.105575330555439 0.3646239638328552
vt 0.105575330555439 0.38430988788604736
vt 0.24743866920471191 0.3646239638328552
vt 0.24743866920471191 0.38430988788604736
vt 0.105575330555439 0.3646239638328552
vt 0.105575330555439 0.38430988788604736
vt 0.24743866920471191 0.3646239638328552
vt 0.24743866920471191 0.38430988788604736
vt 0.105575330555439 0.3646239638328552
vt 0.105575330555439 0.38430988788604736
vt 0.24743866920471191 0.3646239638328552
vt 0.24743866920471191 0.38430988788604736
vt 0.105575330555439 0.3646239638328552
vt 0.105575330555439 0.38430988788604736
vt 0.24743866920471191 0.3646239638328552
vt 0.24743866920471191 0.38430988788604736
vt 0.105575330555439 0.3646239638328552
vt 0.105575330555439 0.38430988788604736
vt 0.24743866920471191 0.3646239638328552
vt 0.24743866920471191 0.38430988788604736
vt 0.105575330555439 0.3646239638328552
vt 0.105575330555439 0.38430988788604736
vt 0.24743866920471191 0.3646239638328552
vt 0.24743866920471191 0.38430988788604736
vt 0.105575330555439 0.3646239638328552
vt 0.105575330555439 0.38430988788604736
vt 0.24743866920471191 0.3646239638328552
vt 0.24743866920471191 0.38430988788604736
vt 0.105575330555439 0.3646239638328552
vt 0.0 0.9743829406797886
vt 0.4999999701976776 0.9243831038475037
vt 0.5 0.9743830598890781
vt 0.0 0.9243829846382141
vt 0.7794681191444397 0.9740778598934412
vt 0.7544680237770081 0.9240779057145119
vt 0.7544680237770081 0.9740778598934412
vt 0.7794681191444397 0.9240779057145119
vt 0.7797096371650696 0.9742056522518396
vt 0.7547096610069275 0.9242056980729103
vt 0.7547096610069275 0.9742056522518396
vt 0.7797096371650696 0.9242056980729103
vt -0.00039079395355656743 0.9745976980775595
vt 0.49960920214653015 0.999597704038024
vt -0.00039079395355656743 0.999597704038024
vt 0.49960920214653015 0.9745976999402046
vt 0.7496092915534973 0.9997720643877983
vt 0.24960926175117493 0.974772060289979
vt 0.7496092915534973 0.9747720584273338
vt 0.24960926175117493 0.9997720643877983
vt -0.00039079395355656743 0.9745976980775595
vt 0.49960920214653015 0.999597704038024
vt -0.00039079395355656743 0.999597704038024
vt 0.49960920214653015 0.9745976999402046
vt 0.7496092915534973 0.9997720643877983
vt 0.24960926175117493 0.974772060289979
vt 0.7496092915534973 0.9747720584273338
vt 0.24960926175117493 0.9997720643877983

g bg_mdl_wada_kaidou_hasi002
s 1
usemtl bg_mdl_wada_kaidou_hasi002
f 3/3/3 2/2/2 1/1/1 
f 4/4/4 1/1/1 2/2/2 
f 7/7/7 6/6/6 5/5/5 
f 8/8/8 5/5/5 6/6/6 
f 11/11/11 10/10/10 9/9/9 
f 12/12/12 9/9/9 10/10/10 
f 15/15/15 14/14/14 13/13/13 
f 16/16/16 13/13/13 14/14/14 
f 19/19/19 18/18/18 17/17/17 
f 20/20/20 17/17/17 18/18/18 
f 23/23/23 22/22/22 21/21/21 
f 24/24/24 21/21/21 22/22/22 
f 27/27/27 26/26/26 25/25/25 
f 28/28/28 25/25/25 26/26/26 
f 31/31/31 30/30/30 29/29/29 
f 32/32/32 29/29/29 30/30/30 
f 35/35/35 34/34/34 33/33/33 
f 36/36/36 33/33/33 34/34/34 
f 39/39/39 38/38/38 37/37/37 
f 40/40/40 37/37/37 38/38/38 
f 43/43/43 42/42/42 41/41/41 
f 44/44/44 41/41/41 42/42/42 
f 47/47/47 46/46/46 45/45/45 
f 48/48/48 45/45/45 46/46/46 
f 51/51/51 50/50/50 49/49/49 
f 52/52/52 49/49/49 50/50/50 
f 55/55/55 54/54/54 53/53/53 
f 56/56/56 53/53/53 54/54/54 
f 59/59/59 58/58/58 57/57/57 
f 60/60/60 57/57/57 58/58/58 
f 63/63/63 62/62/62 61/61/61 
f 64/64/64 61/61/61 62/62/62 
f 67/67/67 66/66/66 65/65/65 
f 68/68/68 65/65/65 66/66/66 
f 71/71/71 70/70/70 69/69/69 
f 72/72/72 69/69/69 70/70/70 
f 75/75/75 74/74/74 73/73/73 
f 76/76/76 73/73/73 74/74/74 
f 79/79/79 78/78/78 77/77/77 
f 80/80/80 77/77/77 78/78/78 
f 83/83/83 82/82/82 81/81/81 
f 84/84/84 81/81/81 82/82/82 
f 87/87/87 86/86/86 85/85/85 
f 88/88/88 85/85/85 86/86/86 
f 91/91/91 90/90/90 89/89/89 
f 92/92/92 89/89/89 90/90/90 
f 95/95/95 94/94/94 93/93/93 
f 96/96/96 93/93/93 94/94/94 
f 99/99/99 98/98/98 97/97/97 
f 100/100/100 97/97/97 98/98/98 
f 103/103/103 102/102/102 101/101/101 
f 104/104/104 101/101/101 102/102/102 
f 107/107/107 106/106/106 105/105/105 
f 108/108/108 105/105/105 106/106/106 
f 111/111/111 110/110/110 109/109/109 
f 112/112/112 109/109/109 110/110/110 
f 115/115/115 114/114/114 113/113/113 
f 116/116/116 113/113/113 114/114/114 
f 119/119/119 118/118/118 117/117/117 
f 120/120/120 117/117/117 118/118/118 
f 123/123/123 122/122/122 121/121/121 
f 124/124/124 121/121/121 122/122/122 
f 127/127/127 126/126/126 125/125/125 
f 128/128/128 125/125/125 126/126/126 
f 131/131/131 130/130/130 129/129/129 
f 132/132/132 129/129/129 130/130/130 
f 135/135/135 134/134/134 133/133/133 
f 136/136/136 133/133/133 134/134/134 
f 139/139/139 138/138/138 137/137/137 
f 140/140/140 137/137/137 138/138/138 
f 143/143/143 142/142/142 141/141/141 
f 144/144/144 141/141/141 142/142/142 
f 147/147/147 146/146/146 145/145/145 
f 148/148/148 145/145/145 146/146/146 
f 151/151/151 150/150/150 149/149/149 
f 152/152/152 149/149/149 150/150/150 
f 155/155/155 154/154/154 153/153/153 
f 156/156/156 153/153/153 154/154/154 
f 159/159/159 158/158/158 157/157/157 
f 160/160/160 157/157/157 158/158/158 
f 163/163/163 162/162/162 161/161/161 
f 164/164/164 161/161/161 162/162/162 
f 167/167/167 166/166/166 165/165/165 
f 168/168/168 165/165/165 166/166/166 
f 171/171/171 170/170/170 169/169/169 
f 172/172/172 169/169/169 170/170/170 
f 175/175/175 174/174/174 173/173/173 
f 176/176/176 173/173/173 174/174/174 
f 179/179/179 178/178/178 177/177/177 
f 180/180/180 177/177/177 178/178/178 
f 183/183/183 182/182/182 181/181/181 
f 184/184/184 181/181/181 182/182/182 
f 187/187/187 186/186/186 185/185/185 
f 188/188/188 185/185/185 186/186/186 
f 191/191/191 190/190/190 189/189/189 
f 192/192/192 189/189/189 190/190/190 
f 195/195/195 194/194/194 193/193/193 
f 196/196/196 193/193/193 194/194/194 
f 199/199/199 198/198/198 197/197/197 
f 200/200/200 197/197/197 198/198/198 
f 203/203/203 202/202/202 201/201/201 
f 204/204/204 201/201/201 202/202/202 
f 207/207/207 206/206/206 205/205/205 
f 208/208/208 205/205/205 206/206/206 
f 211/211/211 210/210/210 209/209/209 
f 212/212/212 209/209/209 210/210/210 
f 215/215/215 214/214/214 213/213/213 
f 216/216/216 213/213/213 214/214/214 
f 219/219/219 218/218/218 217/217/217 
f 220/220/220 217/217/217 218/218/218 
f 223/223/223 222/222/222 221/221/221 
f 224/224/224 221/221/221 222/222/222 
f 227/227/227 226/226/226 225/225/225 
f 228/228/228 225/225/225 226/226/226 
f 231/231/231 230/230/230 229/229/229 
f 232/232/232 229/229/229 230/230/230 
f 235/235/235 234/234/234 233/233/233 
f 236/236/236 233/233/233 234/234/234 
f 239/239/239 238/238/238 237/237/237 
f 240/240/240 237/237/237 238/238/238 

