v 0.009999999776482582 -0.009999999776482582 0.0
v -0.009999999776482582 -0.009999999776482582 0.8499999642372131
v 0.009999999776482582 -0.009999999776482582 0.8499999642372131
v -0.009999999776482582 -0.009999999776482582 0.0
v 0.009999999776482582 0.009999999776482582 0.0
v 0.009999999776482582 -0.009999999776482582 0.8499999642372131
v 0.009999999776482582 0.009999999776482582 0.8499999642372131
v 0.009999999776482582 -0.009999999776482582 0.0
v -0.009999999776482582 0.009999999776482582 0.0
v 0.009999999776482582 0.009999999776482582 0.8499999642372131
v -0.009999999776482582 0.009999999776482582 0.8499999642372131
v 0.009999999776482582 0.009999999776482582 0.0
v -0.009999999776482582 -0.009999999776482582 0.0
v -0.009999999776482582 0.009999999776482582 0.8499999642372131
v -0.009999999776482582 -0.009999999776482582 0.8499999642372131
v -0.009999999776482582 0.009999999776482582 0.0
v 0.6214553117752075 0.0 1.4023019075393677
v 2.38418573772492e-09 3.6358834165639564e-08 1.7591968774795532
v 0.5741498470306396 0.23782065510749817 1.4023019075393677
v 0.5741498470306396 0.23782065510749817 1.4023019075393677
v 2.38418573772492e-09 3.6358834165639564e-08 1.7591968774795532
v 0.43943527340888977 0.43943527340888977 1.4023019075393677
v 0.43943527340888977 0.43943527340888977 1.4023019075393677
v 2.38418573772492e-09 3.6358834165639564e-08 1.7591968774795532
v 0.23782065510749817 0.5741498470306396 1.4023019075393677
v 0.23782065510749817 0.5741498470306396 1.4023019075393677
v 2.38418573772492e-09 3.6358834165639564e-08 1.7591968774795532
v -2.716467584207294e-08 0.6214553117752075 1.4023019075393677
v -2.716467584207294e-08 0.6214553117752075 1.4023019075393677
v 2.38418573772492e-09 3.6358834165639564e-08 1.7591968774795532
v -0.23782071471214294 0.5741498470306396 1.4023019075393677
v -0.23782071471214294 0.5741498470306396 1.4023019075393677
v 2.38418573772492e-09 3.6358834165639564e-08 1.7591968774795532
v -0.43943527340888977 0.43943527340888977 1.4023019075393677
v -0.43943527340888977 0.43943527340888977 1.4023019075393677
v 2.38418573772492e-09 3.6358834165639564e-08 1.7591968774795532
v -0.5741498470306396 0.23782069981098175 1.4023019075393677
v -0.5741498470306396 0.23782069981098175 1.4023019075393677
v 2.38418573772492e-09 3.6358834165639564e-08 1.7591968774795532
v -0.6214553117752075 9.383715138255866e-08 1.4023019075393677
v -0.6214553117752075 9.383715138255866e-08 1.4023019075393677
v 2.38418573772492e-09 3.6358834165639564e-08 1.7591968774795532
v -0.5741499066352844 -0.23782052099704742 1.4023019075393677
v -0.5741499066352844 -0.23782052099704742 1.4023019075393677
v 2.38418573772492e-09 3.6358834165639564e-08 1.7591968774795532
v -0.4394354224205017 -0.4394351541996002 1.4023019075393677
v -0.4394354224205017 -0.4394351541996002 1.4023019075393677
v 2.38418573772492e-09 3.6358834165639564e-08 1.7591968774795532
v -0.23782075941562653 -0.5741498470306396 1.4023019075393677
v -0.23782075941562653 -0.5741498470306396 1.4023019075393677
v 2.38418573772492e-09 3.6358834165639564e-08 1.7591968774795532
v 7.410780877847856e-09 -0.6214553117752075 1.4023019075393677
v 7.410780877847856e-09 -0.6214553117752075 1.4023019075393677
v 2.38418573772492e-09 3.6358834165639564e-08 1.7591968774795532
v 0.23782077431678772 -0.5741497874259949 1.4023019075393677
v 0.23782077431678772 -0.5741497874259949 1.4023019075393677
v 2.38418573772492e-09 3.6358834165639564e-08 1.7591968774795532
v 0.4394354224205017 -0.4394351541996002 1.4023019075393677
v 0.4394354224205017 -0.4394351541996002 1.4023019075393677
v 2.38418573772492e-09 3.6358834165639564e-08 1.7591968774795532
v 0.574150025844574 -0.23782038688659668 1.4023019075393677
v 0.574150025844574 -0.23782038688659668 1.4023019075393677
v 2.38418573772492e-09 3.6358834165639564e-08 1.7591968774795532
v 0.6214553117752075 0.0 1.4023019075393677
v 0.5741498470306396 0.23782065510749817 1.4023019075393677
v 1.19209286886246e-09 4.5299529460862686e-08 1.7045648097991943
v 0.6214553117752075 0.0 1.4023019075393677
v 0.6214553117752075 0.0 1.4023019075393677
v 1.19209286886246e-09 4.5299529460862686e-08 1.7045648097991943
v 0.574150025844574 -0.23782038688659668 1.4023019075393677
v 0.574150025844574 -0.23782038688659668 1.4023019075393677
v 1.19209286886246e-09 4.5299529460862686e-08 1.7045648097991943
v 0.4394354224205017 -0.4394351541996002 1.4023019075393677
v 0.4394354224205017 -0.4394351541996002 1.4023019075393677
v 1.19209286886246e-09 4.5299529460862686e-08 1.7045648097991943
v 0.23782077431678772 -0.5741497874259949 1.4023019075393677
v 0.23782077431678772 -0.5741497874259949 1.4023019075393677
v 1.19209286886246e-09 4.5299529460862686e-08 1.7045648097991943
v 7.410780877847856e-09 -0.6214553117752075 1.4023019075393677
v 7.410780877847856e-09 -0.6214553117752075 1.4023019075393677
v 1.19209286886246e-09 4.5299529460862686e-08 1.7045648097991943
v -0.23782075941562653 -0.5741498470306396 1.4023019075393677
v -0.23782075941562653 -0.5741498470306396 1.4023019075393677
v 1.19209286886246e-09 4.5299529460862686e-08 1.7045648097991943
v -0.4394354224205017 -0.4394351541996002 1.4023019075393677
v -0.4394354224205017 -0.4394351541996002 1.4023019075393677
v 1.19209286886246e-09 4.5299529460862686e-08 1.7045648097991943
v -0.5741499066352844 -0.23782052099704742 1.4023019075393677
v -0.5741499066352844 -0.23782052099704742 1.4023019075393677
v 1.19209286886246e-09 4.5299529460862686e-08 1.7045648097991943
v -0.6214553117752075 9.383715138255866e-08 1.4023019075393677
v -0.6214553117752075 9.383715138255866e-08 1.4023019075393677
v 1.19209286886246e-09 4.5299529460862686e-08 1.7045648097991943
v -0.5741498470306396 0.23782069981098175 1.4023019075393677
v -0.5741498470306396 0.23782069981098175 1.4023019075393677
v 1.19209286886246e-09 4.5299529460862686e-08 1.7045648097991943
v -0.43943527340888977 0.43943527340888977 1.4023019075393677
v -0.43943527340888977 0.43943527340888977 1.4023019075393677
v 1.19209286886246e-09 4.5299529460862686e-08 1.7045648097991943
v -0.23782071471214294 0.5741498470306396 1.4023019075393677
v -0.23782071471214294 0.5741498470306396 1.4023019075393677
v 1.19209286886246e-09 4.5299529460862686e-08 1.7045648097991943
v -2.716467584207294e-08 0.6214553117752075 1.4023019075393677
v -2.716467584207294e-08 0.6214553117752075 1.4023019075393677
v 1.19209286886246e-09 4.5299529460862686e-08 1.7045648097991943
v 0.23782065510749817 0.5741498470306396 1.4023019075393677
v 0.23782065510749817 0.5741498470306396 1.4023019075393677
v 1.19209286886246e-09 4.5299529460862686e-08 1.7045648097991943
v 0.43943527340888977 0.43943527340888977 1.4023019075393677
v 0.43943527340888977 0.43943527340888977 1.4023019075393677
v 1.19209286886246e-09 4.5299529460862686e-08 1.7045648097991943
v 0.5741498470306396 0.23782065510749817 1.4023019075393677
v 0.061510808765888214 0.0 1.722449779510498
v 0.036052387207746506 0.03605237230658531 1.7834736108779907
v 0.043494708836078644 0.043494708836078644 1.722449779510498
v 0.05098576471209526 0.0 1.7834736108779907
v 6.920633399687404e-09 0.050985753536224365 1.7834736108779907
v -2.6887230220040692e-09 0.061510808765888214 1.722449779510498
v -0.036052364856004715 0.03605237230658531 1.7834736108779907
v -0.043494708836078644 0.043494708836078644 1.722449779510498
v -0.05098574981093407 -4.457315849748511e-09 1.7834736108779907
v -0.061510808765888214 -5.3774460440081384e-09 1.722449779510498
v -0.061510808765888214 -5.3774460440081384e-09 1.722449779510498
v -0.03605235740542412 -0.03605237230658531 1.7834736108779907
v -0.04349470138549805 -0.04349471628665924 1.722449779510498
v -0.05098574981093407 -4.457315849748511e-09 1.7834736108779907
v 9.757290087009096e-09 -0.050985753536224365 1.7834736108779907
v 7.335090312921011e-10 -0.061510808765888214 1.722449779510498
v 0.03605237975716591 -0.03605237230658531 1.7834736108779907
v 0.043494705110788345 -0.04349471628665924 1.722449779510498
v 0.05098576471209526 0.0 1.7834736108779907
v 0.061510808765888214 0.0 1.722449779510498
v -0.05098574981093407 -4.457315849748511e-09 1.7834736108779907
v 0.03605237975716591 -0.03605237230658531 1.7834736108779907
v -0.03605235740542412 -0.03605237230658531 1.7834736108779907
v 0.05098576471209526 0.0 1.7834736108779907
v 9.757290087009096e-09 -0.050985753536224365 1.7834736108779907
v 0.036052387207746506 0.03605237230658531 1.7834736108779907
v -0.05098574981093407 -4.457315849748511e-09 1.7834736108779907
v -0.036052364856004715 0.03605237230658531 1.7834736108779907
v 0.05098576471209526 0.0 1.7834736108779907
v 6.920633399687404e-09 0.050985753536224365 1.7834736108779907
v 0.009999999776482582 -0.009999999776482582 1.6999999284744263
v -0.009999999776482582 -0.009999999776482582 0.8499999642372131
v -0.009999999776482582 -0.009999999776482582 1.6999999284744263
v 0.009999999776482582 -0.009999999776482582 0.8499999642372131
v 0.009999999776482582 0.009999999776482582 1.6999999284744263
v 0.009999999776482582 -0.009999999776482582 0.8499999642372131
v 0.009999999776482582 -0.009999999776482582 1.6999999284744263
v 0.009999999776482582 0.009999999776482582 0.8499999642372131
v -0.009999999776482582 0.009999999776482582 1.6999999284744263
v 0.009999999776482582 0.009999999776482582 0.8499999642372131
v 0.009999999776482582 0.009999999776482582 1.6999999284744263
v -0.009999999776482582 0.009999999776482582 0.8499999642372131
v -0.009999999776482582 -0.009999999776482582 1.6999999284744263
v -0.009999999776482582 0.009999999776482582 0.8499999642372131
v -0.009999999776482582 0.009999999776482582 1.6999999284744263
v -0.009999999776482582 -0.009999999776482582 0.8499999642372131
vn -0.0 -1.0 0.0
vn -0.0 -1.0 0.0
vn -0.0 -1.0 0.0
vn -0.0 -1.0 0.0
vn 1.0 0.0 0.0
vn 1.0 0.0 0.0
vn 1.0 0.0 0.0
vn 1.0 0.0 0.0
vn -0.0 1.0 0.0
vn -0.0 1.0 0.0
vn -0.0 1.0 0.0
vn -0.0 1.0 0.0
vn -1.0 0.0 0.0
vn -1.0 0.0 0.0
vn -1.0 0.0 0.0
vn -1.0 0.0 0.0
vn 0.49800771474838257 1.229310697681285e-07 0.8671725988388062
vn -1.396699076394725e-07 -1.222111762899658e-07 1.0
vn 0.46009916067123413 0.1905793398618698 0.8671725988388062
vn 0.46009916067123413 0.1905793398618698 0.8671725988388062
vn -1.396699076394725e-07 -1.222111762899658e-07 1.0
vn 0.35214468836784363 0.35214468836784363 0.8671725988388062
vn 0.35214468836784363 0.35214468836784363 0.8671725988388062
vn -1.396699076394725e-07 -1.222111762899658e-07 1.0
vn 0.19057931005954742 0.46009916067123413 0.8671725988388062
vn 0.19057931005954742 0.46009916067123413 0.8671725988388062
vn -1.396699076394725e-07 -1.222111762899658e-07 1.0
vn -0.0 0.49800771474838257 0.8671725988388062
vn -0.0 0.49800771474838257 0.8671725988388062
vn -1.396699076394725e-07 -1.222111762899658e-07 1.0
vn -0.190579354763031 0.46009916067123413 0.8671725988388062
vn -0.190579354763031 0.46009916067123413 0.8671725988388062
vn -1.396699076394725e-07 -1.222111762899658e-07 1.0
vn -0.35214465856552124 0.35214465856552124 0.8671725988388062
vn -0.35214465856552124 0.35214465856552124 0.8671725988388062
vn -1.396699076394725e-07 -1.222111762899658e-07 1.0
vn -0.46009916067123413 0.190579354763031 0.8671725988388062
vn -0.46009916067123413 0.190579354763031 0.8671725988388062
vn -1.396699076394725e-07 -1.222111762899658e-07 1.0
vn -0.49800771474838257 0.0 0.8671725988388062
vn -0.49800771474838257 0.0 0.8671725988388062
vn -1.396699076394725e-07 -1.222111762899658e-07 1.0
vn -0.46009916067123413 -0.19057917594909668 0.8671725988388062
vn -0.46009916067123413 -0.19057917594909668 0.8671725988388062
vn -1.396699076394725e-07 -1.222111762899658e-07 1.0
vn -0.352144718170166 -0.3521445393562317 0.8671726584434509
vn -0.352144718170166 -0.3521445393562317 0.8671726584434509
vn -1.396699076394725e-07 -1.222111762899658e-07 1.0
vn -0.190579354763031 -0.4600990414619446 0.8671726584434509
vn -0.190579354763031 -0.4600990414619446 0.8671726584434509
vn -1.396699076394725e-07 -1.222111762899658e-07 1.0
vn -0.0 -0.49800771474838257 0.8671725988388062
vn -0.0 -0.49800771474838257 0.8671725988388062
vn -1.396699076394725e-07 -1.222111762899658e-07 1.0
vn 0.1905793845653534 -0.46009907126426697 0.8671726584434509
vn 0.1905793845653534 -0.46009907126426697 0.8671726584434509
vn -1.396699076394725e-07 -1.222111762899658e-07 1.0
vn 0.35214468836784363 -0.3521445393562317 0.8671725988388062
vn 0.35214468836784363 -0.3521445393562317 0.8671725988388062
vn -1.396699076394725e-07 -1.222111762899658e-07 1.0
vn 0.4600991904735565 -0.1905791312456131 0.8671726584434509
vn 0.4600991904735565 -0.1905791312456131 0.8671726584434509
vn -1.396699076394725e-07 -1.222111762899658e-07 1.0
vn 0.49800771474838257 1.229310697681285e-07 0.8671725988388062
vn -0.4357416033744812 -0.08667442947626114 -0.8958888649940491
vn -0.4357416033744812 -0.08667442947626114 -0.8958888649940491
vn -0.4357415437698364 -0.08667442947626114 -0.8958888649940491
vn -0.4357416033744812 0.08667416870594025 -0.8958888649940491
vn -0.4357415437698364 0.08667416125535965 -0.8958888649940491
vn -0.4357415437698364 0.08667416125535965 -0.8958888649940491
vn -0.3694038987159729 0.24682766199111938 -0.8958888649940491
vn -0.3694038987159729 0.24682769179344177 -0.8958888649940491
vn -0.3694038689136505 0.24682766199111938 -0.8958888649940491
vn -0.2468278408050537 0.36940377950668335 -0.8958888649940491
vn -0.24682782590389252 0.3694038391113281 -0.8958888649940491
vn -0.2468278408050537 0.36940377950668335 -0.8958888649940491
vn -0.08667442947626114 0.43574151396751404 -0.8958888649940491
vn -0.08667442947626114 0.4357415437698364 -0.8958888649940491
vn -0.08667442947626114 0.43574151396751404 -0.8958888649940491
vn 0.08667437732219696 0.43574151396751404 -0.8958888649940491
vn 0.08667438477277756 0.43574151396751404 -0.8958888649940491
vn 0.08667439222335815 0.4357415437698364 -0.8958888649940491
vn 0.2468278408050537 0.36940377950668335 -0.8958888649940491
vn 0.2468278408050537 0.36940377950668335 -0.8958888649940491
vn 0.2468278706073761 0.36940377950668335 -0.8958888649940491
vn 0.3694039583206177 0.24682769179344177 -0.8958888649940491
vn 0.3694039583206177 0.24682769179344177 -0.8958888649940491
vn 0.3694039583206177 0.24682769179344177 -0.8958888649940491
vn 0.4357415437698364 0.0866742953658104 -0.8958888649940491
vn 0.4357416033744812 0.0866742953658104 -0.8958888649940491
vn 0.4357416033744812 0.0866742953658104 -0.8958888649940491
vn 0.4357416033744812 -0.08667445927858353 -0.8958888649940491
vn 0.4357416033744812 -0.08667445927858353 -0.8958888649940491
vn 0.4357416033744812 -0.08667444437742233 -0.8958888649940491
vn 0.3694038987159729 -0.2468278408050537 -0.8958888649940491
vn 0.3694038689136505 -0.2468278408050537 -0.8958888649940491
vn 0.3694038689136505 -0.2468278408050537 -0.8958888649940491
vn 0.2468278408050537 -0.36940380930900574 -0.8958888649940491
vn 0.2468278408050537 -0.3694038391113281 -0.8958888649940491
vn 0.2468278408050537 -0.3694038689136505 -0.8958888649940491
vn 0.08667442202568054 -0.4357416033744812 -0.8958888649940491
vn 0.08667442947626114 -0.4357416331768036 -0.8958888649940491
vn 0.08667441457509995 -0.4357416033744812 -0.8958888649940491
vn -0.08667442947626114 -0.4357416033744812 -0.8958888649940491
vn -0.08667442947626114 -0.4357416331768036 -0.8958888649940491
vn -0.08667442947626114 -0.4357416033744812 -0.8958888649940491
vn -0.24682782590389252 -0.3694038987159729 -0.8958888649940491
vn -0.24682782590389252 -0.3694039285182953 -0.8958888649940491
vn -0.24682782590389252 -0.3694038987159729 -0.8958888649940491
vn -0.3694038987159729 -0.24682782590389252 -0.8958888649940491
vn -0.3694039285182953 -0.24682781100273132 -0.8958888053894043
vn -0.3694038987159729 -0.24682782590389252 -0.8958888649940491
vn 0.9854501485824585 0.0 0.1699647605419159
vn 0.6968185901641846 0.6968184113502502 0.16996484994888306
vn 0.696818470954895 0.696818470954895 0.1699647754430771
vn 0.9854501485824585 0.0 0.1699647754430771
vn -0.0 0.9854501485824585 0.16996492445468903
vn -0.0 0.9854501485824585 0.16996493935585022
vn -0.696818470954895 0.6968185305595398 0.16996504366397858
vn -0.6968185305595398 0.696818470954895 0.16996504366397858
vn -0.985450029373169 -1.3773977514119906e-07 0.169964998960495
vn -0.985450029373169 -1.3895903805405396e-07 0.1699650138616562
vn -0.985450029373169 -1.3895903805405396e-07 0.1699650138616562
vn -0.696818470954895 -0.6968185305595398 0.16996504366397858
vn -0.696818470954895 -0.6968185305595398 0.1699650138616562
vn -0.985450029373169 -1.3773977514119906e-07 0.169964998960495
vn -0.0 -0.985450029373169 0.16996492445468903
vn -0.0 -0.9854501485824585 0.16996493935585022
vn 0.696818470954895 -0.696818470954895 0.16996482014656067
vn 0.696818470954895 -0.6968185305595398 0.16996483504772186
vn 0.9854501485824585 0.0 0.1699647754430771
vn 0.9854501485824585 0.0 0.1699647605419159
vn -0.0 0.0 1.0
vn -0.0 0.0 1.0
vn -0.0 0.0 1.0
vn -0.0 0.0 1.0
vn -0.0 0.0 1.0
vn -0.0 0.0 1.0
vn -0.0 0.0 1.0
vn -0.0 0.0 1.0
vn -0.0 0.0 1.0
vn -0.0 0.0 1.0
vn -0.0 -1.0 0.0
vn -0.0 -1.0 0.0
vn -0.0 -1.0 0.0
vn -0.0 -1.0 0.0
vn 1.0 0.0 0.0
vn 1.0 0.0 0.0
vn 1.0 0.0 0.0
vn 1.0 0.0 0.0
vn -0.0 1.0 0.0
vn -0.0 1.0 0.0
vn -0.0 1.0 0.0
vn -0.0 1.0 0.0
vn -1.0 0.0 0.0
vn -1.0 0.0 0.0
vn -1.0 0.0 0.0
vn -1.0 0.0 0.0
vt 0.4873713254928589 0.998264342546463
vt 0.49479979276657104 0.7857643067836761
vt 0.4873713254928589 0.7857643067836761
vt 0.49479979276657104 0.998264342546463
vt 0.49479562044143677 0.998264342546463
vt 0.4873671531677246 0.7857643067836761
vt 0.49479562044143677 0.7857643067836761
vt 0.4873671531677246 0.998264342546463
vt 0.5022282600402832 0.998264342546463
vt 0.49479562044143677 0.7857643067836761
vt 0.5022282600402832 0.7857643067836761
vt 0.49479562044143677 0.998264342546463
vt 0.49479979276657104 0.998264342546463
vt 0.5022282600402832 0.7857643067836761
vt 0.49479979276657104 0.7857643067836761
vt 0.5022282600402832 0.998264342546463
vt 0.5698633790016174 0.8784235343337059
vt 0.5336763858795166 0.7261864840984344
vt 0.5067629814147949 0.8784235343337059
vt 0.5067629814147949 0.8784235343337059
vt 0.5336763858795166 0.7261864840984344
vt 0.5698633790016174 0.8784235343337059
vt 0.5698633790016174 0.8784235343337059
vt 0.5336763858795166 0.7261864840984344
vt 0.5068035125732422 0.8784235343337059
vt 0.5068035125732422 0.8784235343337059
vt 0.5336763858795166 0.7261864840984344
vt 0.5698633790016174 0.8784235343337059
vt 0.5698633790016174 0.8784235343337059
vt 0.5336763858795166 0.7261864840984344
vt 0.5068029165267944 0.8784235343337059
vt 0.5068029165267944 0.8784235343337059
vt 0.5336763858795166 0.7261864840984344
vt 0.5698633790016174 0.8784235343337059
vt 0.5698633790016174 0.8784235343337059
vt 0.5336763858795166 0.7261864840984344
vt 0.5067596435546875 0.8784235343337059
vt 0.5067596435546875 0.8784235343337059
vt 0.5336763858795166 0.7261864840984344
vt 0.5698633790016174 0.8784235343337059
vt 0.5698633790016174 0.8784235343337059
vt 0.5336763858795166 0.7261864840984344
vt 0.5067473649978638 0.8784235343337059
vt 0.5067473649978638 0.8784235343337059
vt 0.5336763858795166 0.7261864840984344
vt 0.5698633790016174 0.8784235343337059
vt 0.5698633790016174 0.8784235343337059
vt 0.5336763858795166 0.7261864840984344
vt 0.5067393779754639 0.8784235343337059
vt 0.5067393779754639 0.8784235343337059
vt 0.5336763858795166 0.7261864840984344
vt 0.5698633790016174 0.8784235343337059
vt 0.5698633790016174 0.8784235343337059
vt 0.5336763858795166 0.7261864840984344
vt 0.5067400336265564 0.8784235343337059
vt 0.5067400336265564 0.8784235343337059
vt 0.5336763858795166 0.7261864840984344
vt 0.5698633790016174 0.8784235343337059
vt 0.5698633790016174 0.8784235343337059
vt 0.5336763858795166 0.7261864840984344
vt 0.5067507028579712 0.8784235343337059
vt 0.5067507028579712 0.8784235343337059
vt 0.5336763858795166 0.7261864840984344
vt 0.5698633790016174 0.8784235343337059
vt 0.5424656867980957 0.7261235415935516
vt 0.5758013725280762 0.8782227858901024
vt 0.6023439168930054 0.7261235415935516
vt 0.6023439168930054 0.7261235415935516
vt 0.5758013725280762 0.8782227858901024
vt 0.5424656867980957 0.7261235415935516
vt 0.5424656867980957 0.7261235415935516
vt 0.5758013725280762 0.8782227858901024
vt 0.6023439168930054 0.7261235415935516
vt 0.6023439168930054 0.7261235415935516
vt 0.5758013725280762 0.8782227858901024
vt 0.5424656867980957 0.7261235415935516
vt 0.5424656867980957 0.7261235415935516
vt 0.5758013725280762 0.8782227858901024
vt 0.6023439168930054 0.7261235415935516
vt 0.6023439168930054 0.7261235415935516
vt 0.5758013725280762 0.8782227858901024
vt 0.5424656867980957 0.7261235415935516
vt 0.5424656867980957 0.7261235415935516
vt 0.5758013725280762 0.8782227858901024
vt 0.6023439168930054 0.7261235415935516
vt 0.6023439168930054 0.7261235415935516
vt 0.5758013725280762 0.8782227858901024
vt 0.5424656867980957 0.7261235415935516
vt 0.5424656867980957 0.7261235415935516
vt 0.5758013725280762 0.8782227858901024
vt 0.6023439168930054 0.7261235415935516
vt 0.6023439168930054 0.7261235415935516
vt 0.5758013725280762 0.8782227858901024
vt 0.5424656867980957 0.7261235415935516
vt 0.5424656867980957 0.7261235415935516
vt 0.5758013725280762 0.8782227858901024
vt 0.6023439168930054 0.7261235415935516
vt 0.6023439168930054 0.7261235415935516
vt 0.5758013725280762 0.8782227858901024
vt 0.5424656867980957 0.7261235415935516
vt 0.5424656867980957 0.7261235415935516
vt 0.5758013725280762 0.8782227858901024
vt 0.6023439168930054 0.7261235415935516
vt 0.6023439168930054 0.7261235415935516
vt 0.5758013725280762 0.8782227858901024
vt 0.5424656867980957 0.7261235415935516
vt 0.5424656867980957 0.7261235415935516
vt 0.5758013725280762 0.8782227858901024
vt 0.6023439168930054 0.7261235415935516
vt 0.6023439168930054 0.7261235415935516
vt 0.5758013725280762 0.8782227858901024
vt 0.5424656867980957 0.7261235415935516
vt 0.5617464780807495 0.9964996092021465
vt 0.5432031750679016 0.9875062219798565
vt 0.5544052720069885 0.9762330763041973
vt 0.546936571598053 0.996507715433836
vt 0.5341901183128357 0.9837728254497051
vt 0.534182071685791 0.9689628593623638
vt 0.525177001953125 0.9875062219798565
vt 0.5144864916801453 0.9768751375377178
vt 0.5214436650276184 0.996507715433836
vt 0.5066336393356323 0.9964997284114361
vt 0.5066336393356323 0.9964997284114361
vt 0.525177001953125 0.9874946586787701
vt 0.5144864916801453 0.9768751375377178
vt 0.5214436650276184 0.996507715433836
vt 0.5341901183128357 0.9837612621486187
vt 0.5341821312904358 0.9689512960612774
vt 0.5432032346725464 0.9874946586787701
vt 0.5544052720069885 0.9762330763041973
vt 0.546936571598053 0.996507715433836
vt 0.5617464780807495 0.9964996092021465
vt 0.5214436650276184 0.996507715433836
vt 0.5432032346725464 0.9874946586787701
vt 0.525177001953125 0.9874946586787701
vt 0.546936571598053 0.996507715433836
vt 0.5341901183128357 0.9837612621486187
vt 0.5432031750679016 0.9875062219798565
vt 0.5214436650276184 0.996507715433836
vt 0.525177001953125 0.9875062219798565
vt 0.546936571598053 0.996507715433836
vt 0.5341901183128357 0.9837728254497051
vt 0.4873713254928589 0.998264342546463
vt 0.49479979276657104 0.7857643067836761
vt 0.49479979276657104 0.998264342546463
vt 0.4873713254928589 0.7857643067836761
vt 0.49479562044143677 0.998264342546463
vt 0.4873671531677246 0.7857643067836761
vt 0.4873671531677246 0.998264342546463
vt 0.49479562044143677 0.7857643067836761
vt 0.5022282600402832 0.998264342546463
vt 0.49479562044143677 0.7857643067836761
vt 0.49479562044143677 0.998264342546463
vt 0.5022282600402832 0.7857643067836761
vt 0.49479979276657104 0.998264342546463
vt 0.5022282600402832 0.7857643067836761
vt 0.5022282600402832 0.998264342546463
vt 0.49479979276657104 0.7857643067836761

g bg_mdl_wada_kaidou_kasa_001
s 1
usemtl bg_mdl_wada_kaidou_kasa_001
f 3/3/3 2/2/2 1/1/1 
f 4/4/4 1/1/1 2/2/2 
f 7/7/7 6/6/6 5/5/5 
f 8/8/8 5/5/5 6/6/6 
f 11/11/11 10/10/10 9/9/9 
f 12/12/12 9/9/9 10/10/10 
f 15/15/15 14/14/14 13/13/13 
f 16/16/16 13/13/13 14/14/14 
f 19/19/19 18/18/18 17/17/17 
f 22/22/22 21/21/21 20/20/20 
f 25/25/25 24/24/24 23/23/23 
f 28/28/28 27/27/27 26/26/26 
f 31/31/31 30/30/30 29/29/29 
f 34/34/34 33/33/33 32/32/32 
f 37/37/37 36/36/36 35/35/35 
f 40/40/40 39/39/39 38/38/38 
f 43/43/43 42/42/42 41/41/41 
f 46/46/46 45/45/45 44/44/44 
f 49/49/49 48/48/48 47/47/47 
f 52/52/52 51/51/51 50/50/50 
f 55/55/55 54/54/54 53/53/53 
f 58/58/58 57/57/57 56/56/56 
f 61/61/61 60/60/60 59/59/59 
f 64/64/64 63/63/63 62/62/62 
f 67/67/67 66/66/66 65/65/65 
f 70/70/70 69/69/69 68/68/68 
f 73/73/73 72/72/72 71/71/71 
f 76/76/76 75/75/75 74/74/74 
f 79/79/79 78/78/78 77/77/77 
f 82/82/82 81/81/81 80/80/80 
f 85/85/85 84/84/84 83/83/83 
f 88/88/88 87/87/87 86/86/86 
f 91/91/91 90/90/90 89/89/89 
f 94/94/94 93/93/93 92/92/92 
f 97/97/97 96/96/96 95/95/95 
f 100/100/100 99/99/99 98/98/98 
f 103/103/103 102/102/102 101/101/101 
f 106/106/106 105/105/105 104/104/104 
f 109/109/109 108/108/108 107/107/107 
f 112/112/112 111/111/111 110/110/110 
f 115/115/115 114/114/114 113/113/113 
f 116/116/116 113/113/113 114/114/114 
f 114/114/114 115/115/115 117/117/117 
f 118/118/118 117/117/117 115/115/115 
f 117/117/117 118/118/118 119/119/119 
f 120/120/120 119/119/119 118/118/118 
f 119/119/119 120/120/120 121/121/121 
f 122/122/122 121/121/121 120/120/120 
f 125/125/125 124/124/124 123/123/123 
f 126/126/126 123/123/123 124/124/124 
f 124/124/124 125/125/125 127/127/127 
f 128/128/128 127/127/127 125/125/125 
f 127/127/127 128/128/128 129/129/129 
f 130/130/130 129/129/129 128/128/128 
f 129/129/129 130/130/130 131/131/131 
f 132/132/132 131/131/131 130/130/130 
f 135/135/135 134/134/134 133/133/133 
f 136/136/136 133/133/133 134/134/134 
f 137/137/137 134/134/134 135/135/135 
f 140/140/140 139/139/139 138/138/138 
f 141/141/141 138/138/138 139/139/139 
f 142/142/142 140/140/140 138/138/138 
f 145/145/145 144/144/144 143/143/143 
f 146/146/146 143/143/143 144/144/144 
f 149/149/149 148/148/148 147/147/147 
f 150/150/150 147/147/147 148/148/148 
f 153/153/153 152/152/152 151/151/151 
f 154/154/154 151/151/151 152/152/152 
f 157/157/157 156/156/156 155/155/155 
f 158/158/158 155/155/155 156/156/156 

