v -0.1254883110523224 0.08489080518484116 0.23236070573329926
v 0.2403646558523178 0.08489080518484116 0.22983218729496002
v 0.05743807181715965 -0.09649132192134857 0.32888323068618774
v -0.1254883110523224 -0.2778736352920532 0.23236076533794403
v 0.2403646558523178 -0.2778736352920532 0.2298322170972824
v -0.10791756212711334 0.07586228102445602 0.1124054491519928
v -0.07779531180858612 0.19907651841640472 0.5048359036445618
v 0.060438551008701324 0.07586228102445602 0.18521945178508759
v -0.24615155160427094 0.19907648861408234 0.432021826505661
v 0.054044418036937714 -0.14681729674339294 0.2284480482339859
v 0.054044418036937714 -0.05856240540742874 0.611709475517273
v 0.054044418036937714 0.02331201173365116 0.2691049575805664
v 0.054044418036937714 -0.2286917120218277 0.5710524916648865
v -0.12323162704706192 -0.03799166902899742 0.12179908156394958
v 0.017247270792722702 -0.43051883578300476 0.38347193598747253
v 0.08493690192699432 -0.10144537687301636 0.0980127677321434
v -0.1909213662147522 -0.36706504225730896 0.40725818276405334
v -0.25084641575813293 -0.1000484824180603 0.2602617144584656
v -0.01153612695634365 0.15934960544109344 0.2609125077724457
v -0.01153612695634365 -0.07887579500675201 0.3316080868244171
v -0.25084641575813293 0.13817687332630157 0.18956610560417175
v 0.06972461193799973 0.153824120759964 0.2860541343688965
v 0.33375564217567444 -0.07042661309242249 0.21855169534683228
v 0.13241399824619293 -0.07593456655740738 0.364086776971817
v 0.27106621861457825 0.15933214128017426 0.14051909744739532
v -0.026033619418740273 0.14031119644641876 0.30095916986465454
v 0.13979893922805786 -0.03812840208411217 0.3681255877017975
v -0.036943402141332626 -0.03235907852649689 0.34853625297546387
v 0.15070857107639313 0.13454197347164154 0.3205484449863434
v -0.04958353936672211 -0.2232731729745865 0.3119186758995056
v 0.0665614977478981 -0.07395772635936737 0.3738977611064911
v 0.08726052194833755 -0.209434375166893 0.3445329964160919
v -0.07028274983167648 -0.08779655396938324 0.34128323197364807
v -0.2895149290561676 0.05427420511841774 0.11443637311458588
v -0.05686157941818237 0.3250940144062042 0.034536782652139664
v -0.03320550546050072 0.10113386809825897 0.18452981114387512
v -0.009549366310238838 -0.16756221652030945 0.17773084342479706
v 0.2231038212776184 0.10325755178928375 0.09783109277486801
v -0.22972767055034637 0.06349055469036102 0.11745215952396393
v 0.1276455968618393 0.1192527487874031 0.17249616980552673
v -0.02782161720097065 -0.10178778320550919 0.2039383053779602
v -0.16375109553337097 -0.2852329909801483 0.042370788753032684
v 0.19362254440784454 -0.2294706553220749 0.0974147617816925
v 0.21927905082702637 -0.10499139875173569 0.03846820071339607
v 0.2472733110189438 0.22288452088832855 0.4045262336730957
v 0.09311824291944504 0.0729319229722023 0.01967696100473404
v 0.3734340965747833 0.04496104642748833 0.42331716418266296
v -0.020280377939343452 -0.16285108029842377 0.12704813480377197
v -0.02475527860224247 0.19678333401679993 0.059979647397994995
v 0.17217965424060822 0.026167551055550575 0.1329364776611328
v 0.3339031934738159 -0.17295001447200775 0.04926358908414841
v 0.32942819595336914 0.18668416142463684 -0.017804989591240883
v 0.07518098503351212 -0.04513955116271973 0.07970018684864044
v 0.4042377769947052 -0.04794802516698837 0.4457583427429199
v 0.2429225891828537 0.09427353739738464 0.060908980667591095
v 0.2364959418773651 -0.18736112117767334 0.4645492136478424
v 0.09804964810609818 -0.21436707675457 0.3255341649055481
v 0.2088860124349594 -0.0828637182712555 0.291503369808197
v 0.2034054398536682 -0.20217911899089813 0.26034054160118103
v 0.10353006422519684 -0.09505166858434677 0.3566969335079193
v -0.3027917146682739 -0.1975174844264984 0.15046292543411255
v 0.040408533066511154 -0.14048221707344055 0.20977376401424408
v -0.10001915693283081 -0.34263014793395996 0.17563475668430328
v -0.16236400604248047 0.004630515351891518 0.18460187315940857
v 0.172922283411026 -0.35155028104782104 0.03200927749276161
v -0.20688417553901672 -0.020349066704511642 0.13927531242370605
v 0.15529398620128632 -0.007605710998177528 0.1554851531982422
v -0.1892559975385666 -0.3642936646938324 0.015799174085259438
vn -0.24503715336322784 0.2511869966983795 0.936409056186676
vn 0.257386177778244 0.2501290738582611 0.9333744049072266
vn 0.005618838593363762 2.7914884981328214e-07 0.9999842643737793
vn -0.2450370490550995 -0.25118666887283325 0.9364091753959656
vn 0.25738611817359924 -0.2501288056373596 0.9333744645118713
vn -0.13241349160671234 -0.9427266716957092 0.30615854263305664
vn -0.13241341710090637 -0.9427266716957092 0.30615854263305664
vn -0.13241353631019592 -0.9427266716957092 0.30615854263305664
vn -0.13241340219974518 -0.942726731300354 0.30615851283073425
vn 1.0 0.0 0.0
vn 1.0 0.0 0.0
vn 1.0 0.0 0.0
vn 1.0 0.0 0.0
vn -0.2687796652317047 -0.5990197658538818 -0.7542763948440552
vn -0.26877957582473755 -0.5990197658538818 -0.7542763948440552
vn -0.2687797248363495 -0.5990197658538818 -0.7542763352394104
vn -0.26877957582473755 -0.5990197062492371 -0.7542764544487
vn -0.29695600271224976 0.27166298031806946 0.915432333946228
vn -0.29695597290992737 0.2716629207134247 0.915432333946228
vn -0.2969559133052826 0.2716628611087799 0.9154323935508728
vn -0.2969561219215393 0.2716630697250366 0.915432333946228
vn 0.5300262570381165 0.39878207445144653 0.7483615875244141
vn 0.5300262570381165 0.39878207445144653 0.7483615875244141
vn 0.5300264358520508 0.39878225326538086 0.7483614087104797
vn 0.5300261974334717 0.3987818658351898 0.7483617067337036
vn -0.0973530262708664 0.2700884938240051 0.9579010605812073
vn -0.0973530188202858 0.2700884938240051 0.9579010605812073
vn -0.09735316783189774 0.2700883746147156 0.9579010605812073
vn -0.09735287725925446 0.27008864283561707 0.9579010605812073
vn -0.20250581204891205 -0.23689590394496918 0.9501956105232239
vn -0.20250581204891205 -0.23689590394496918 0.9501956105232239
vn -0.20250506699085236 -0.23689648509025574 0.9501957297325134
vn -0.20250658690929413 -0.23689530789852142 0.9501956105232239
vn -0.29652613401412964 0.2387256622314453 0.9247065782546997
vn -0.02429054118692875 0.5545248985290527 0.8318125009536743
vn 0.0037873603869229555 0.27878570556640625 0.9603459239006042
vn 0.03299683332443237 -0.02237841486930847 0.9992049336433411
vn 0.3040364980697632 0.29436832666397095 0.9060403108596802
vn -0.40084221959114075 -0.010306540876626968 0.9160891175270081
vn 0.09924783557653427 0.07137400656938553 0.9924997687339783
vn -0.11042221635580063 -0.22197483479976654 0.9687796831130981
vn -0.30417540669441223 -0.49268975853919983 0.8153123259544373
vn 0.18579143285751343 -0.41919058561325073 0.8886849284172058
vn 0.7386665344238281 0.47305330634117126 -0.4802004098892212
vn 0.7386664748191833 0.47305336594581604 -0.48020046949386597
vn 0.7386665344238281 0.4730532765388489 -0.4802003800868988
vn 0.7386664152145386 0.4730534553527832 -0.4802004396915436
vn -3.8152644265210256e-05 -0.031098295003175735 0.9995162487030029
vn -0.004448168911039829 0.38882261514663696 0.9213018417358398
vn 0.21588671207427979 0.1806635558605194 0.9595591425895691
vn 0.41683995723724365 -0.04298495501279831 0.9079629778862
vn 0.4109170138835907 0.37697938084602356 0.8300805687904358
vn 0.5282204747200012 -0.7002791166305542 -0.48020029067993164
vn 0.5282204747200012 -0.7002789974212646 -0.4802003502845764
vn 0.5282204151153564 -0.7002791166305542 -0.48020029067993164
vn 0.528220534324646 -0.7002789974212646 -0.4802003800868988
vn 0.5308904647827148 -0.2368958592414856 0.81365567445755
vn 0.5308904647827148 -0.2368958592414856 0.8136557936668396
vn 0.530890941619873 -0.236896350979805 0.8136553168296814
vn 0.5308899879455566 -0.2368953675031662 0.8136561512947083
vn -0.1612561047077179 -0.05439657345414162 0.9854122996330261
vn -0.1612561047077179 -0.05439657345414162 0.9854122996330261
vn -0.1612560749053955 -0.05439675599336624 0.9854122996330261
vn -0.1612561196088791 -0.05439639836549759 0.9854122996330261
vn -0.030152035877108574 -0.33910083770751953 0.9402666687965393
vn -0.030152035877108574 -0.3391008973121643 0.9402666687965393
vn -0.030151724815368652 -0.33910053968429565 0.9402667880058289
vn -0.030152348801493645 -0.3391011357307434 0.9402665495872498
vt 0.0020909500308334827 -0.0003972053527832031
vt 0.3866754174232483 -0.0003972053527832031
vt 0.19438306987285614 0.17732959985733032
vt 0.0020909500308334827 0.3550567030906677
vt 0.3866754174232483 0.3550567030906677
vt 0.5170444846153259 0.8336120694875717
vt 0.6620118618011475 0.5429275929927826
vt 0.6620118618011475 0.8336120694875717
vt 0.5170444846153259 0.5429275929927826
vt 0.5170444846153259 0.8336120694875717
vt 0.6620118618011475 0.5429275929927826
vt 0.6620118618011475 0.8336120694875717
vt 0.5170444846153259 0.5429275929927826
vt 0.5170444846153259 0.8336120694875717
vt 0.6620118618011475 0.5429275929927826
vt 0.6620118618011475 0.8336120694875717
vt 0.5170444846153259 0.5429275929927826
vt 0.5225641131401062 0.21692311763763428
vt 0.7194871306419373 0.020000040531158447
vt 0.7194871306419373 0.21692311763763428
vt 0.5225641131401062 0.020000040531158447
vt 0.5225641131401062 0.21692311763763428
vt 0.7194871306419373 0.020000040531158447
vt 0.7194871306419373 0.21692311763763428
vt 0.5225641131401062 0.020000040531158447
vt 0.5216981768608093 0.9795925077050924
vt 0.6536365151405334 0.8476540446281433
vt 0.6536365151405334 0.9795925077050924
vt 0.5216981768608093 0.8476540446281433
vt 0.5216981768608093 0.9795925077050924
vt 0.6536365151405334 0.8476540446281433
vt 0.6536365151405334 0.9795925077050924
vt 0.5216981768608093 0.8476540446281433
vt 0.0020909500308334827 -0.0003972053527832031
vt 0.3866754174232483 -0.0003972053527832031
vt 0.19438306987285614 0.17732959985733032
vt 0.0020909500308334827 0.3550567030906677
vt 0.3866754174232483 0.3550567030906677
vt 0.0020909500308334827 -0.0003972053527832031
vt 0.3866754174232483 -0.0003972053527832031
vt 0.19438306987285614 0.17732959985733032
vt 0.0020909500308334827 0.3550567030906677
vt 0.3866754174232483 0.3550567030906677
vt 0.5170444846153259 0.8336120694875717
vt 0.6620118618011475 0.5429275929927826
vt 0.6620118618011475 0.8336120694875717
vt 0.5170444846153259 0.5429275929927826
vt 0.0020909500308334827 -0.0003972053527832031
vt 0.3866754174232483 -0.0003972053527832031
vt 0.19438306987285614 0.17732959985733032
vt 0.0020909500308334827 0.3550567030906677
vt 0.3866754174232483 0.3550567030906677
vt 0.5170444846153259 0.8336120694875717
vt 0.6620118618011475 0.5429275929927826
vt 0.6620118618011475 0.8336120694875717
vt 0.5170444846153259 0.5429275929927826
vt 0.5216981768608093 0.9795925077050924
vt 0.6536365151405334 0.8476540446281433
vt 0.6536365151405334 0.9795925077050924
vt 0.5216981768608093 0.8476540446281433
vt 0.38359367847442627 0.4095369577407837
vt 0.5805166959762573 0.21261388063430786
vt 0.5805166959762573 0.4095369577407837
vt 0.38359367847442627 0.21261388063430786
vt 0.0020909500308334827 0.3550567030906677
vt 0.3866754174232483 -0.0003972053527832031
vt 0.3866754174232483 0.3550567030906677
vt 0.0020909500308334827 -0.0003972053527832031

g bg_mdl_map_flower02
s 1
usemtl bg_mdl_map_flower02
f 3/3/3 2/2/2 1/1/1 
f 4/4/4 3/3/3 1/1/1 
f 5/5/5 3/3/3 4/4/4 
f 5/5/5 2/2/2 3/3/3 
f 8/8/8 7/7/7 6/6/6 
f 9/9/9 6/6/6 7/7/7 
f 12/12/12 11/11/11 10/10/10 
f 13/13/13 10/10/10 11/11/11 
f 16/16/16 15/15/15 14/14/14 
f 17/17/17 14/14/14 15/15/15 
f 20/20/20 19/19/19 18/18/18 
f 21/21/21 18/18/18 19/19/19 
f 24/24/24 23/23/23 22/22/22 
f 25/25/25 22/22/22 23/23/23 
f 28/28/28 27/27/27 26/26/26 
f 29/29/29 26/26/26 27/27/27 
f 32/32/32 31/31/31 30/30/30 
f 33/33/33 30/30/30 31/31/31 
f 36/36/36 35/35/35 34/34/34 
f 37/37/37 36/36/36 34/34/34 
f 38/38/38 36/36/36 37/37/37 
f 38/38/38 35/35/35 36/36/36 
f 41/41/41 40/40/40 39/39/39 
f 42/42/42 41/41/41 39/39/39 
f 43/43/43 41/41/41 42/42/42 
f 43/43/43 40/40/40 41/41/41 
f 46/46/46 45/45/45 44/44/44 
f 47/47/47 44/44/44 45/45/45 
f 50/50/50 49/49/49 48/48/48 
f 51/51/51 50/50/50 48/48/48 
f 52/52/52 50/50/50 51/51/51 
f 52/52/52 49/49/49 50/50/50 
f 55/55/55 54/54/54 53/53/53 
f 56/56/56 53/53/53 54/54/54 
f 59/59/59 58/58/58 57/57/57 
f 60/60/60 57/57/57 58/58/58 
f 63/63/63 62/62/62 61/61/61 
f 64/64/64 61/61/61 62/62/62 
f 67/67/67 66/66/66 65/65/65 
f 68/68/68 65/65/65 66/66/66 

