v -4.0 -6.0 -4.76837147544984e-09
v -5.0 -5.0 -4.76837147544984e-09
v -4.0 -5.0 -4.76837147544984e-09
v -5.0 -6.0 -4.76837147544984e-09
v -5.0 -4.0 -4.76837147544984e-09
v -4.0 -4.0 -4.76837147544984e-09
v -5.0 -3.0 -4.76837147544984e-09
v -4.0 -3.0 -4.76837147544984e-09
v -5.0 -2.0 -4.76837147544984e-09
v -4.0 -2.0 -4.76837147544984e-09
v -5.0 -1.0 -4.76837147544984e-09
v -4.0 -1.0 -4.76837147544984e-09
v -5.0 3.814697180359872e-08 -4.76837147544984e-09
v -4.0 3.814697180359872e-08 -4.76837147544984e-09
v -5.0 1.0 -4.76837147544984e-09
v -4.0 1.0 -4.76837147544984e-09
v -5.0 2.0 -4.76837147544984e-09
v -4.0 2.0 -4.76837147544984e-09
v -5.0 3.0 -4.76837147544984e-09
v -4.0 3.0 -4.76837147544984e-09
v -5.0 4.0 -4.76837147544984e-09
v -4.0 4.0 -4.76837147544984e-09
v -5.0 5.0 -4.76837147544984e-09
v -4.0 5.0 -4.76837147544984e-09
v -5.0 6.0 -4.76837147544984e-09
v -4.0 6.0 -4.76837147544984e-09
v -5.0 7.0 -4.76837147544984e-09
v -4.0 7.0 -4.76837147544984e-09
v -5.0 8.0 -4.76837147544984e-09
v -4.0 8.0 -4.76837147544984e-09
v -6.0 1.0 -4.76837147544984e-09
v -6.0 3.814697180359872e-08 -4.76837147544984e-09
v -6.0 -1.0 -4.76837147544984e-09
v -6.0 -2.0 -4.76837147544984e-09
v -6.0 -3.0 -4.76837147544984e-09
v -6.0 -4.0 -4.76837147544984e-09
v -6.0 -5.0 -4.76837147544984e-09
v -6.0 -6.0 -4.76837147544984e-09
v -6.0 2.0 -4.76837147544984e-09
v -6.0 3.0 -4.76837147544984e-09
v -6.0 4.0 -4.76837147544984e-09
v -6.0 5.0 -4.76837147544984e-09
v -6.0 6.0 -4.76837147544984e-09
v -6.0 7.0 -4.76837147544984e-09
v -6.0 8.0 -4.76837147544984e-09
v -3.0 -6.0 -4.76837147544984e-09
v -4.0 -5.0 -4.76837147544984e-09
v -3.0 -5.0 -4.76837147544984e-09
v -4.0 -6.0 -4.76837147544984e-09
v -2.0 -6.0 -4.76837147544984e-09
v -3.0 -5.0 -4.76837147544984e-09
v -2.0 -5.0 -4.76837147544984e-09
v -3.0 -6.0 -4.76837147544984e-09
v -1.0 -6.0 -4.76837147544984e-09
v -2.0 -5.0 -4.76837147544984e-09
v -1.0 -5.0 -4.76837147544984e-09
v -2.0 -6.0 -4.76837147544984e-09
v -0.0 -6.0 -4.76837147544984e-09
v -1.0 -5.0 -4.76837147544984e-09
v -0.0 -5.0 -4.76837147544984e-09
v -1.0 -6.0 -4.76837147544984e-09
v 1.0 -6.0 -4.76837147544984e-09
v -0.0 -5.0 -4.76837147544984e-09
v 1.0 -5.0 -4.76837147544984e-09
v -0.0 -6.0 -4.76837147544984e-09
v 2.0 -6.0 -4.76837147544984e-09
v 1.0 -5.0 -4.76837147544984e-09
v 2.0 -5.0 -4.76837147544984e-09
v 1.0 -6.0 -4.76837147544984e-09
v 3.0 -6.0 -4.76837147544984e-09
v 2.0 -5.0 -4.76837147544984e-09
v 3.0 -5.0 -4.76837147544984e-09
v 2.0 -6.0 -4.76837147544984e-09
v 4.0 -6.0 -4.76837147544984e-09
v 4.0 -5.0 -4.76837147544984e-09
v 2.0 -4.0 -4.76837147544984e-09
v 3.0 -4.0 -4.76837147544984e-09
v 4.0 -4.0 -4.76837147544984e-09
v 2.0 -3.0 -4.76837147544984e-09
v 3.0 -3.0 -4.76837147544984e-09
v 4.0 -3.0 -4.76837147544984e-09
v 2.0 -2.0 -4.76837147544984e-09
v 3.0 -2.0 -4.76837147544984e-09
v 4.0 -2.0 -4.76837147544984e-09
v 2.0 -1.0 -4.76837147544984e-09
v 3.0 -1.0 -4.76837147544984e-09
v 4.0 -1.0 -4.76837147544984e-09
v 2.0 3.814697180359872e-08 -4.76837147544984e-09
v 3.0 3.814697180359872e-08 -4.76837147544984e-09
v 4.0 3.814697180359872e-08 -4.76837147544984e-09
v 2.0 1.0 -4.76837147544984e-09
v 3.0 1.0 -4.76837147544984e-09
v 4.0 1.0 -4.76837147544984e-09
v 2.0 2.0 -4.76837147544984e-09
v 3.0 2.0 -4.76837147544984e-09
v 4.0 2.0 -4.76837147544984e-09
v 2.0 3.0 -4.76837147544984e-09
v 3.0 3.0 -4.76837147544984e-09
v 4.0 3.0 -4.76837147544984e-09
v 2.0 4.0 -4.76837147544984e-09
v 3.0 4.0 -4.76837147544984e-09
v 4.0 4.0 -4.76837147544984e-09
v 2.0 5.0 -4.76837147544984e-09
v 3.0 5.0 -4.76837147544984e-09
v 4.0 5.0 -4.76837147544984e-09
v 2.0 6.0 -4.76837147544984e-09
v 3.0 6.0 -4.76837147544984e-09
v 4.0 6.0 -4.76837147544984e-09
v 2.0 7.0 -4.76837147544984e-09
v 3.0 7.0 -4.76837147544984e-09
v 4.0 7.0 -4.76837147544984e-09
v 2.0 8.0 -4.76837147544984e-09
v 3.0 8.0 -4.76837147544984e-09
v 4.0 8.0 -4.76837147544984e-09
v 5.0 -6.0 -4.76837147544984e-09
v 4.0 -5.0 -4.76837147544984e-09
v 5.0 -5.0 -4.76837147544984e-09
v 4.0 -6.0 -4.76837147544984e-09
v 4.0 -4.0 -4.76837147544984e-09
v 5.0 -4.0 -4.76837147544984e-09
v 4.0 -3.0 -4.76837147544984e-09
v 5.0 -3.0 -4.76837147544984e-09
v 4.0 -2.0 -4.76837147544984e-09
v 5.0 -2.0 -4.76837147544984e-09
v 4.0 -1.0 -4.76837147544984e-09
v 5.0 -1.0 -4.76837147544984e-09
v 4.0 3.814697180359872e-08 -4.76837147544984e-09
v 5.0 3.814697180359872e-08 -4.76837147544984e-09
v 4.0 1.0 -4.76837147544984e-09
v 5.0 1.0 -4.76837147544984e-09
v 4.0 2.0 -4.76837147544984e-09
v 5.0 2.0 -4.76837147544984e-09
v 4.0 3.0 -4.76837147544984e-09
v 5.0 3.0 -4.76837147544984e-09
v 4.0 4.0 -4.76837147544984e-09
v 5.0 4.0 -4.76837147544984e-09
v 4.0 5.0 -4.76837147544984e-09
v 5.0 5.0 -4.76837147544984e-09
v 4.0 6.0 -4.76837147544984e-09
v 5.0 6.0 -4.76837147544984e-09
v 4.0 7.0 -4.76837147544984e-09
v 5.0 7.0 -4.76837147544984e-09
v 4.0 8.0 -4.76837147544984e-09
v 5.0 8.0 -4.76837147544984e-09
v -3.0 -5.0 -4.76837147544984e-09
v -4.0 -4.0 -4.76837147544984e-09
v -3.0 -4.0 -4.76837147544984e-09
v -4.0 -5.0 -4.76837147544984e-09
v -2.0 -5.0 -4.76837147544984e-09
v -3.0 -4.0 -4.76837147544984e-09
v -2.0 -4.0 -4.76837147544984e-09
v -3.0 -5.0 -4.76837147544984e-09
v -1.0 -5.0 -4.76837147544984e-09
v -2.0 -4.0 -4.76837147544984e-09
v -1.0 -4.0 -4.76837147544984e-09
v -2.0 -5.0 -4.76837147544984e-09
v -0.0 -5.0 -4.76837147544984e-09
v -1.0 -4.0 -4.76837147544984e-09
v -0.0 -4.0 -4.76837147544984e-09
v -1.0 -5.0 -4.76837147544984e-09
v 1.0 -5.0 -4.76837147544984e-09
v -0.0 -4.0 -4.76837147544984e-09
v 1.0 -4.0 -4.76837147544984e-09
v -0.0 -5.0 -4.76837147544984e-09
v 2.0 -5.0 -4.76837147544984e-09
v 1.0 -4.0 -4.76837147544984e-09
v 2.0 -4.0 -4.76837147544984e-09
v 1.0 -5.0 -4.76837147544984e-09
v -3.0 -4.0 -4.76837147544984e-09
v -4.0 -3.0 -4.76837147544984e-09
v -3.0 -3.0 -4.76837147544984e-09
v -4.0 -4.0 -4.76837147544984e-09
v -2.0 -4.0 -4.76837147544984e-09
v -3.0 -3.0 -4.76837147544984e-09
v -2.0 -3.0 -4.76837147544984e-09
v -3.0 -4.0 -4.76837147544984e-09
v -1.0 -4.0 -4.76837147544984e-09
v -2.0 -3.0 -4.76837147544984e-09
v -1.0 -3.0 -4.76837147544984e-09
v -2.0 -4.0 -4.76837147544984e-09
v -0.0 -4.0 -4.76837147544984e-09
v -1.0 -3.0 -4.76837147544984e-09
v -0.0 -3.0 -4.76837147544984e-09
v -1.0 -4.0 -4.76837147544984e-09
v 1.0 -4.0 -4.76837147544984e-09
v -0.0 -3.0 -4.76837147544984e-09
v 1.0 -3.0 -4.76837147544984e-09
v -0.0 -4.0 -4.76837147544984e-09
v 2.0 -4.0 -4.76837147544984e-09
v 1.0 -3.0 -4.76837147544984e-09
v 2.0 -3.0 -4.76837147544984e-09
v 1.0 -4.0 -4.76837147544984e-09
v 6.0 -4.0 -4.76837147544984e-09
v 5.0 -3.0 -4.76837147544984e-09
v 6.0 -3.0 -4.76837147544984e-09
v 5.0 -4.0 -4.76837147544984e-09
v 5.0 -2.0 -4.76837147544984e-09
v 6.0 -2.0 -4.76837147544984e-09
v 5.0 -1.0 -4.76837147544984e-09
v 6.0 -1.0 -4.76837147544984e-09
v 5.0 3.814697180359872e-08 -4.76837147544984e-09
v 6.0 3.814697180359872e-08 -4.76837147544984e-09
v 5.0 1.0 -4.76837147544984e-09
v 6.0 1.0 -4.76837147544984e-09
v 5.0 2.0 -4.76837147544984e-09
v 6.0 2.0 -4.76837147544984e-09
v 5.0 3.0 -4.76837147544984e-09
v 6.0 3.0 -4.76837147544984e-09
v 5.0 4.0 -4.76837147544984e-09
v 6.0 4.0 -4.76837147544984e-09
v 5.0 5.0 -4.76837147544984e-09
v 6.0 5.0 -4.76837147544984e-09
v -3.0 -3.0 -4.76837147544984e-09
v -4.0 -2.0 -4.76837147544984e-09
v -3.0 -2.0 -4.76837147544984e-09
v -4.0 -3.0 -4.76837147544984e-09
v -2.0 -3.0 -4.76837147544984e-09
v -3.0 -2.0 -4.76837147544984e-09
v -2.0 -2.0 -4.76837147544984e-09
v -3.0 -3.0 -4.76837147544984e-09
v -1.0 -3.0 -4.76837147544984e-09
v -2.0 -2.0 -4.76837147544984e-09
v -1.0 -2.0 -4.76837147544984e-09
v -2.0 -3.0 -4.76837147544984e-09
v -0.0 -3.0 -4.76837147544984e-09
v -1.0 -2.0 -4.76837147544984e-09
v -0.0 -2.0 -4.76837147544984e-09
v -1.0 -3.0 -4.76837147544984e-09
v 1.0 -3.0 -4.76837147544984e-09
v -0.0 -2.0 -4.76837147544984e-09
v 1.0 -2.0 -4.76837147544984e-09
v -0.0 -3.0 -4.76837147544984e-09
v 2.0 -3.0 -4.76837147544984e-09
v 1.0 -2.0 -4.76837147544984e-09
v 2.0 -2.0 -4.76837147544984e-09
v 1.0 -3.0 -4.76837147544984e-09
v -3.0 -2.0 -4.76837147544984e-09
v -4.0 -1.0 -4.76837147544984e-09
v -3.0 -1.0 -4.76837147544984e-09
v -4.0 -2.0 -4.76837147544984e-09
v -2.0 -2.0 -4.76837147544984e-09
v -3.0 -1.0 -4.76837147544984e-09
v -2.0 -1.0 -4.76837147544984e-09
v -3.0 -2.0 -4.76837147544984e-09
v -1.0 -2.0 -4.76837147544984e-09
v -2.0 -1.0 -4.76837147544984e-09
v -1.0 -1.0 -4.76837147544984e-09
v -2.0 -2.0 -4.76837147544984e-09
v -0.0 -2.0 -4.76837147544984e-09
v -1.0 -1.0 -4.76837147544984e-09
v -0.0 -1.0 -4.76837147544984e-09
v -1.0 -2.0 -4.76837147544984e-09
v 1.0 -2.0 -4.76837147544984e-09
v -0.0 -1.0 -4.76837147544984e-09
v 1.0 -1.0 -4.76837147544984e-09
v -0.0 -2.0 -4.76837147544984e-09
v 2.0 -2.0 -4.76837147544984e-09
v 1.0 -1.0 -4.76837147544984e-09
v 2.0 -1.0 -4.76837147544984e-09
v 1.0 -2.0 -4.76837147544984e-09
v -3.0 -1.0 -4.76837147544984e-09
v -4.0 3.814697180359872e-08 -4.76837147544984e-09
v -3.0 3.814697180359872e-08 -4.76837147544984e-09
v -4.0 -1.0 -4.76837147544984e-09
v -2.0 -1.0 -4.76837147544984e-09
v -3.0 3.814697180359872e-08 -4.76837147544984e-09
v -2.0 3.814697180359872e-08 -4.76837147544984e-09
v -3.0 -1.0 -4.76837147544984e-09
v -1.0 -1.0 -4.76837147544984e-09
v -2.0 3.814697180359872e-08 -4.76837147544984e-09
v -1.0 3.814697180359872e-08 -4.76837147544984e-09
v -2.0 -1.0 -4.76837147544984e-09
v -0.0 -1.0 -4.76837147544984e-09
v -1.0 3.814697180359872e-08 -4.76837147544984e-09
v -0.0 3.814697180359872e-08 -4.76837147544984e-09
v -1.0 -1.0 -4.76837147544984e-09
v 1.0 -1.0 -4.76837147544984e-09
v -0.0 3.814697180359872e-08 -4.76837147544984e-09
v 1.0 3.814697180359872e-08 -4.76837147544984e-09
v -0.0 -1.0 -4.76837147544984e-09
v 2.0 -1.0 -4.76837147544984e-09
v 1.0 3.814697180359872e-08 -4.76837147544984e-09
v 2.0 3.814697180359872e-08 -4.76837147544984e-09
v 1.0 -1.0 -4.76837147544984e-09
v -3.0 3.814697180359872e-08 -4.76837147544984e-09
v -4.0 1.0 -4.76837147544984e-09
v -3.0 1.0 -4.76837147544984e-09
v -4.0 3.814697180359872e-08 -4.76837147544984e-09
v -2.0 3.814697180359872e-08 -4.76837147544984e-09
v -3.0 1.0 -4.76837147544984e-09
v -2.0 1.0 -4.76837147544984e-09
v -3.0 3.814697180359872e-08 -4.76837147544984e-09
v -1.0 3.814697180359872e-08 -4.76837147544984e-09
v -2.0 1.0 -4.76837147544984e-09
v -1.0 1.0 -4.76837147544984e-09
v -2.0 3.814697180359872e-08 -4.76837147544984e-09
v -0.0 3.814697180359872e-08 -4.76837147544984e-09
v -1.0 1.0 -4.76837147544984e-09
v -0.0 1.0 -4.76837147544984e-09
v -1.0 3.814697180359872e-08 -4.76837147544984e-09
v 1.0 3.814697180359872e-08 -4.76837147544984e-09
v -0.0 1.0 -4.76837147544984e-09
v 1.0 1.0 -4.76837147544984e-09
v -0.0 3.814697180359872e-08 -4.76837147544984e-09
v 2.0 3.814697180359872e-08 -4.76837147544984e-09
v 1.0 1.0 -4.76837147544984e-09
v 2.0 1.0 -4.76837147544984e-09
v 1.0 3.814697180359872e-08 -4.76837147544984e-09
v -3.0 1.0 -4.76837147544984e-09
v -4.0 2.0 -4.76837147544984e-09
v -3.0 2.0 -4.76837147544984e-09
v -4.0 1.0 -4.76837147544984e-09
v -2.0 1.0 -4.76837147544984e-09
v -3.0 2.0 -4.76837147544984e-09
v -2.0 2.0 -4.76837147544984e-09
v -3.0 1.0 -4.76837147544984e-09
v -1.0 1.0 -4.76837147544984e-09
v -2.0 2.0 -4.76837147544984e-09
v -1.0 2.0 -4.76837147544984e-09
v -2.0 1.0 -4.76837147544984e-09
v -0.0 1.0 -4.76837147544984e-09
v -1.0 2.0 -4.76837147544984e-09
v -0.0 2.0 -4.76837147544984e-09
v -1.0 1.0 -4.76837147544984e-09
v 1.0 1.0 -4.76837147544984e-09
v -0.0 2.0 -4.76837147544984e-09
v 1.0 2.0 -4.76837147544984e-09
v -0.0 1.0 -4.76837147544984e-09
v 2.0 1.0 -4.76837147544984e-09
v 1.0 2.0 -4.76837147544984e-09
v 2.0 2.0 -4.76837147544984e-09
v 1.0 1.0 -4.76837147544984e-09
v -3.0 2.0 -4.76837147544984e-09
v -4.0 3.0 -4.76837147544984e-09
v -3.0 3.0 -4.76837147544984e-09
v -4.0 2.0 -4.76837147544984e-09
v -2.0 2.0 -4.76837147544984e-09
v -3.0 3.0 -4.76837147544984e-09
v -2.0 3.0 -4.76837147544984e-09
v -3.0 2.0 -4.76837147544984e-09
v -1.0 2.0 -4.76837147544984e-09
v -2.0 3.0 -4.76837147544984e-09
v -1.0 3.0 -4.76837147544984e-09
v -2.0 2.0 -4.76837147544984e-09
v -0.0 2.0 -4.76837147544984e-09
v -1.0 3.0 -4.76837147544984e-09
v -0.0 3.0 -4.76837147544984e-09
v -1.0 2.0 -4.76837147544984e-09
v 1.0 2.0 -4.76837147544984e-09
v -0.0 3.0 -4.76837147544984e-09
v 1.0 3.0 -4.76837147544984e-09
v -0.0 2.0 -4.76837147544984e-09
v 2.0 2.0 -4.76837147544984e-09
v 1.0 3.0 -4.76837147544984e-09
v 2.0 3.0 -4.76837147544984e-09
v 1.0 2.0 -4.76837147544984e-09
v -3.0 3.0 -4.76837147544984e-09
v -4.0 4.0 -4.76837147544984e-09
v -3.0 4.0 -4.76837147544984e-09
v -4.0 3.0 -4.76837147544984e-09
v -2.0 3.0 -4.76837147544984e-09
v -3.0 4.0 -4.76837147544984e-09
v -2.0 4.0 -4.76837147544984e-09
v -3.0 3.0 -4.76837147544984e-09
v -1.0 3.0 -4.76837147544984e-09
v -2.0 4.0 -4.76837147544984e-09
v -1.0 4.0 -4.76837147544984e-09
v -2.0 3.0 -4.76837147544984e-09
v -0.0 3.0 -4.76837147544984e-09
v -1.0 4.0 -4.76837147544984e-09
v -0.0 4.0 -4.76837147544984e-09
v -1.0 3.0 -4.76837147544984e-09
v 1.0 3.0 -4.76837147544984e-09
v -0.0 4.0 -4.76837147544984e-09
v 1.0 4.0 -4.76837147544984e-09
v -0.0 3.0 -4.76837147544984e-09
v 2.0 3.0 -4.76837147544984e-09
v 1.0 4.0 -4.76837147544984e-09
v 2.0 4.0 -4.76837147544984e-09
v 1.0 3.0 -4.76837147544984e-09
v -3.0 4.0 -4.76837147544984e-09
v -4.0 5.0 -4.76837147544984e-09
v -3.0 5.0 -4.76837147544984e-09
v -4.0 4.0 -4.76837147544984e-09
v -2.0 4.0 -4.76837147544984e-09
v -3.0 5.0 -4.76837147544984e-09
v -2.0 5.0 -4.76837147544984e-09
v -3.0 4.0 -4.76837147544984e-09
v -1.0 4.0 -4.76837147544984e-09
v -2.0 5.0 -4.76837147544984e-09
v -1.0 5.0 -4.76837147544984e-09
v -2.0 4.0 -4.76837147544984e-09
v -0.0 4.0 -4.76837147544984e-09
v -1.0 5.0 -4.76837147544984e-09
v -0.0 5.0 -4.76837147544984e-09
v -1.0 4.0 -4.76837147544984e-09
v 1.0 4.0 -4.76837147544984e-09
v -0.0 5.0 -4.76837147544984e-09
v 1.0 5.0 -4.76837147544984e-09
v -0.0 4.0 -4.76837147544984e-09
v 2.0 4.0 -4.76837147544984e-09
v 1.0 5.0 -4.76837147544984e-09
v 2.0 5.0 -4.76837147544984e-09
v 1.0 4.0 -4.76837147544984e-09
v -3.0 5.0 -4.76837147544984e-09
v -4.0 6.0 -4.76837147544984e-09
v -3.0 6.0 -4.76837147544984e-09
v -4.0 5.0 -4.76837147544984e-09
v -2.0 5.0 -4.76837147544984e-09
v -3.0 6.0 -4.76837147544984e-09
v -2.0 6.0 -4.76837147544984e-09
v -3.0 5.0 -4.76837147544984e-09
v -1.0 5.0 -4.76837147544984e-09
v -2.0 6.0 -4.76837147544984e-09
v -1.0 6.0 -4.76837147544984e-09
v -2.0 5.0 -4.76837147544984e-09
v -0.0 5.0 -4.76837147544984e-09
v -1.0 6.0 -4.76837147544984e-09
v -0.0 6.0 -4.76837147544984e-09
v -1.0 5.0 -4.76837147544984e-09
v 1.0 5.0 -4.76837147544984e-09
v -0.0 6.0 -4.76837147544984e-09
v 1.0 6.0 -4.76837147544984e-09
v -0.0 5.0 -4.76837147544984e-09
v 2.0 5.0 -4.76837147544984e-09
v 1.0 6.0 -4.76837147544984e-09
v 2.0 6.0 -4.76837147544984e-09
v 1.0 5.0 -4.76837147544984e-09
v -3.0 6.0 -4.76837147544984e-09
v -4.0 7.0 -4.76837147544984e-09
v -3.0 7.0 -4.76837147544984e-09
v -4.0 6.0 -4.76837147544984e-09
v -2.0 6.0 -4.76837147544984e-09
v -3.0 7.0 -4.76837147544984e-09
v -2.0 7.0 -4.76837147544984e-09
v -3.0 6.0 -4.76837147544984e-09
v -1.0 6.0 -4.76837147544984e-09
v -2.0 7.0 -4.76837147544984e-09
v -1.0 7.0 -4.76837147544984e-09
v -2.0 6.0 -4.76837147544984e-09
v -0.0 6.0 -4.76837147544984e-09
v -1.0 7.0 -4.76837147544984e-09
v -0.0 7.0 -4.76837147544984e-09
v -1.0 6.0 -4.76837147544984e-09
v 1.0 6.0 -4.76837147544984e-09
v -0.0 7.0 -4.76837147544984e-09
v 1.0 7.0 -4.76837147544984e-09
v -0.0 6.0 -4.76837147544984e-09
v 2.0 6.0 -4.76837147544984e-09
v 1.0 7.0 -4.76837147544984e-09
v 2.0 7.0 -4.76837147544984e-09
v 1.0 6.0 -4.76837147544984e-09
v -3.0 7.0 -4.76837147544984e-09
v -4.0 8.0 -4.76837147544984e-09
v -3.0 8.0 -4.76837147544984e-09
v -4.0 7.0 -4.76837147544984e-09
v -2.0 7.0 -4.76837147544984e-09
v -3.0 8.0 -4.76837147544984e-09
v -2.0 8.0 -4.76837147544984e-09
v -3.0 7.0 -4.76837147544984e-09
v -1.0 7.0 -4.76837147544984e-09
v -2.0 8.0 -4.76837147544984e-09
v -1.0 8.0 -4.76837147544984e-09
v -2.0 7.0 -4.76837147544984e-09
v -0.0 7.0 -4.76837147544984e-09
v -1.0 8.0 -4.76837147544984e-09
v -0.0 8.0 -4.76837147544984e-09
v -1.0 7.0 -4.76837147544984e-09
v 1.0 7.0 -4.76837147544984e-09
v -0.0 8.0 -4.76837147544984e-09
v 1.0 8.0 -4.76837147544984e-09
v -0.0 7.0 -4.76837147544984e-09
v 2.0 7.0 -4.76837147544984e-09
v 1.0 8.0 -4.76837147544984e-09
v 2.0 8.0 -4.76837147544984e-09
v 1.0 7.0 -4.76837147544984e-09
vn -0.0 0.0 1.0
vn -0.0 0.0 1.0
vn -0.0 0.0 1.0
vn -0.0 0.0 1.0
vn -0.0 0.0 1.0
vn -0.0 0.0 1.0
vn -0.0 0.0 1.0
vn -0.0 0.0 1.0
vn -0.0 0.0 1.0
vn -0.0 0.0 1.0
vn -0.0 0.0 1.0
vn -0.0 0.0 1.0
vn -0.0 0.0 1.0
vn -0.0 0.0 1.0
vn -0.0 0.0 1.0
vn -0.0 0.0 1.0
vn -0.0 0.0 1.0
vn -0.0 0.0 1.0
vn -0.0 0.0 1.0
vn -0.0 0.0 1.0
vn -0.0 0.0 1.0
vn -0.0 0.0 1.0
vn -0.0 0.0 1.0
vn -0.0 0.0 1.0
vn -0.0 0.0 1.0
vn -0.0 0.0 1.0
vn -0.0 0.0 1.0
vn -0.0 0.0 1.0
vn -0.0 0.0 1.0
vn -0.0 0.0 1.0
vn -0.0 0.0 1.0
vn -0.0 0.0 1.0
vn -0.0 0.0 1.0
vn -0.0 0.0 1.0
vn -0.0 0.0 1.0
vn -0.0 0.0 1.0
vn -0.0 0.0 1.0
vn -0.0 0.0 1.0
vn -0.0 0.0 1.0
vn -0.0 0.0 1.0
vn -0.0 0.0 1.0
vn -0.0 0.0 1.0
vn -0.0 0.0 1.0
vn -0.0 0.0 1.0
vn -0.0 0.0 1.0
vn -0.0 0.0 1.0
vn -0.0 0.0 1.0
vn -0.0 0.0 1.0
vn -0.0 0.0 1.0
vn -0.0 0.0 1.0
vn -0.0 0.0 1.0
vn -0.0 0.0 1.0
vn -0.0 0.0 1.0
vn -0.0 0.0 1.0
vn -0.0 0.0 1.0
vn -0.0 0.0 1.0
vn -0.0 0.0 1.0
vn -0.0 0.0 1.0
vn -0.0 0.0 1.0
vn -0.0 0.0 1.0
vn -0.0 0.0 1.0
vn -0.0 0.0 1.0
vn -0.0 0.0 1.0
vn -0.0 0.0 1.0
vn -0.0 0.0 1.0
vn -0.0 0.0 1.0
vn -0.0 0.0 1.0
vn -0.0 0.0 1.0
vn -0.0 0.0 1.0
vn -0.0 0.0 1.0
vn -0.0 0.0 1.0
vn -0.0 0.0 1.0
vn -0.0 0.0 1.0
vn -0.0 0.0 1.0
vn -0.0 0.0 1.0
vn -0.0 0.0 1.0
vn -0.0 0.0 1.0
vn -0.0 0.0 1.0
vn -0.0 0.0 1.0
vn -0.0 0.0 1.0
vn -0.0 0.0 1.0
vn -0.0 0.0 1.0
vn -0.0 0.0 1.0
vn -0.0 0.0 1.0
vn -0.0 0.0 1.0
vn -0.0 0.0 1.0
vn -0.0 0.0 1.0
vn -0.0 0.0 1.0
vn -0.0 0.0 1.0
vn -0.0 0.0 1.0
vn -0.0 0.0 1.0
vn -0.0 0.0 1.0
vn -0.0 0.0 1.0
vn -0.0 0.0 1.0
vn -0.0 0.0 1.0
vn -0.0 0.0 1.0
vn -0.0 0.0 1.0
vn -0.0 0.0 1.0
vn -0.0 0.0 1.0
vn -0.0 0.0 1.0
vn -0.0 0.0 1.0
vn -0.0 0.0 1.0
vn -0.0 0.0 1.0
vn -0.0 0.0 1.0
vn -0.0 0.0 1.0
vn -0.0 0.0 1.0
vn -0.0 0.0 1.0
vn -0.0 0.0 1.0
vn -0.0 0.0 1.0
vn -0.0 0.0 1.0
vn -0.0 0.0 1.0
vn -0.0 0.0 1.0
vn -0.0 0.0 1.0
vn -0.0 0.0 1.0
vn -0.0 0.0 1.0
vn -0.0 0.0 1.0
vn -0.0 0.0 1.0
vn -0.0 0.0 1.0
vn -0.0 0.0 1.0
vn -0.0 0.0 1.0
vn -0.0 0.0 1.0
vn -0.0 0.0 1.0
vn -0.0 0.0 1.0
vn -0.0 0.0 1.0
vn -0.0 0.0 1.0
vn -0.0 0.0 1.0
vn -0.0 0.0 1.0
vn -0.0 0.0 1.0
vn -0.0 0.0 1.0
vn -0.0 0.0 1.0
vn -0.0 0.0 1.0
vn -0.0 0.0 1.0
vn -0.0 0.0 1.0
vn -0.0 0.0 1.0
vn -0.0 0.0 1.0
vn -0.0 0.0 1.0
vn -0.0 0.0 1.0
vn -0.0 0.0 1.0
vn -0.0 0.0 1.0
vn -0.0 0.0 1.0
vn -0.0 0.0 1.0
vn -0.0 0.0 1.0
vn -0.0 0.0 1.0
vn -0.0 0.0 1.0
vn -0.0 0.0 1.0
vn -0.0 0.0 1.0
vn -0.0 0.0 1.0
vn -0.0 0.0 1.0
vn -0.0 0.0 1.0
vn -0.0 0.0 1.0
vn -0.0 0.0 1.0
vn -0.0 0.0 1.0
vn -0.0 0.0 1.0
vn -0.0 0.0 1.0
vn -0.0 0.0 1.0
vn -0.0 0.0 1.0
vn -0.0 0.0 1.0
vn -0.0 0.0 1.0
vn -0.0 0.0 1.0
vn -0.0 0.0 1.0
vn -0.0 0.0 1.0
vn -0.0 0.0 1.0
vn -0.0 0.0 1.0
vn -0.0 0.0 1.0
vn -0.0 0.0 1.0
vn -0.0 0.0 1.0
vn -0.0 0.0 1.0
vn -0.0 0.0 1.0
vn -0.0 0.0 1.0
vn -0.0 0.0 1.0
vn -0.0 0.0 1.0
vn -0.0 0.0 1.0
vn -0.0 0.0 1.0
vn -0.0 0.0 1.0
vn -0.0 0.0 1.0
vn -0.0 0.0 1.0
vn -0.0 0.0 1.0
vn -0.0 0.0 1.0
vn -0.0 0.0 1.0
vn -0.0 0.0 1.0
vn -0.0 0.0 1.0
vn -0.0 0.0 1.0
vn -0.0 0.0 1.0
vn -0.0 0.0 1.0
vn -0.0 0.0 1.0
vn -0.0 0.0 1.0
vn -0.0 0.0 1.0
vn -0.0 0.0 1.0
vn -0.0 0.0 1.0
vn -0.0 0.0 1.0
vn -0.0 0.0 1.0
vn -0.0 0.0 1.0
vn -0.0 0.0 1.0
vn -0.0 0.0 1.0
vn -0.0 0.0 1.0
vn -0.0 0.0 1.0
vn -0.0 0.0 1.0
vn -0.0 0.0 1.0
vn -0.0 0.0 1.0
vn -0.0 0.0 1.0
vn -0.0 0.0 1.0
vn -0.0 0.0 1.0
vn -0.0 0.0 1.0
vn -0.0 0.0 1.0
vn -0.0 0.0 1.0
vn -0.0 0.0 1.0
vn -0.0 0.0 1.0
vn -0.0 0.0 1.0
vn -0.0 0.0 1.0
vn -0.0 0.0 1.0
vn -0.0 0.0 1.0
vn -0.0 0.0 1.0
vn -0.0 0.0 1.0
vn -0.0 0.0 1.0
vn -0.0 0.0 1.0
vn -0.0 0.0 1.0
vn -0.0 0.0 1.0
vn -0.0 0.0 1.0
vn -0.0 0.0 1.0
vn -0.0 0.0 1.0
vn -0.0 0.0 1.0
vn -0.0 0.0 1.0
vn -0.0 0.0 1.0
vn -0.0 0.0 1.0
vn -0.0 0.0 1.0
vn -0.0 0.0 1.0
vn -0.0 0.0 1.0
vn -0.0 0.0 1.0
vn -0.0 0.0 1.0
vn -0.0 0.0 1.0
vn -0.0 0.0 1.0
vn -0.0 0.0 1.0
vn -0.0 0.0 1.0
vn -0.0 0.0 1.0
vn -0.0 0.0 1.0
vn -0.0 0.0 1.0
vn -0.0 0.0 1.0
vn -0.0 0.0 1.0
vn -0.0 0.0 1.0
vn -0.0 0.0 1.0
vn -0.0 0.0 1.0
vn -0.0 0.0 1.0
vn -0.0 0.0 1.0
vn -0.0 0.0 1.0
vn -0.0 0.0 1.0
vn -0.0 0.0 1.0
vn -0.0 0.0 1.0
vn -0.0 0.0 1.0
vn -0.0 0.0 1.0
vn -0.0 0.0 1.0
vn -0.0 0.0 1.0
vn -0.0 0.0 1.0
vn -0.0 0.0 1.0
vn -0.0 0.0 1.0
vn -0.0 0.0 1.0
vn -0.0 0.0 1.0
vn -0.0 0.0 1.0
vn -0.0 0.0 1.0
vn -0.0 0.0 1.0
vn -0.0 0.0 1.0
vn -0.0 0.0 1.0
vn -0.0 0.0 1.0
vn -0.0 0.0 1.0
vn -0.0 0.0 1.0
vn -0.0 0.0 1.0
vn -0.0 0.0 1.0
vn -0.0 0.0 1.0
vn -0.0 0.0 1.0
vn -0.0 0.0 1.0
vn -0.0 0.0 1.0
vn -0.0 0.0 1.0
vn -0.0 0.0 1.0
vn -0.0 0.0 1.0
vn -0.0 0.0 1.0
vn -0.0 0.0 1.0
vn -0.0 0.0 1.0
vn -0.0 0.0 1.0
vn -0.0 0.0 1.0
vn -0.0 0.0 1.0
vn -0.0 0.0 1.0
vn -0.0 0.0 1.0
vn -0.0 0.0 1.0
vn -0.0 0.0 1.0
vn -0.0 0.0 1.0
vn -0.0 0.0 1.0
vn -0.0 0.0 1.0
vn -0.0 0.0 1.0
vn -0.0 0.0 1.0
vn -0.0 0.0 1.0
vn -0.0 0.0 1.0
vn -0.0 0.0 1.0
vn -0.0 0.0 1.0
vn -0.0 0.0 1.0
vn -0.0 0.0 1.0
vn -0.0 0.0 1.0
vn -0.0 0.0 1.0
vn -0.0 0.0 1.0
vn -0.0 0.0 1.0
vn -0.0 0.0 1.0
vn -0.0 0.0 1.0
vn -0.0 0.0 1.0
vn -0.0 0.0 1.0
vn -0.0 0.0 1.0
vn -0.0 0.0 1.0
vn -0.0 0.0 1.0
vn -0.0 0.0 1.0
vn -0.0 0.0 1.0
vn -0.0 0.0 1.0
vn -0.0 0.0 1.0
vn -0.0 0.0 1.0
vn -0.0 0.0 1.0
vn -0.0 0.0 1.0
vn -0.0 0.0 1.0
vn -0.0 0.0 1.0
vn -0.0 0.0 1.0
vn -0.0 0.0 1.0
vn -0.0 0.0 1.0
vn -0.0 0.0 1.0
vn -0.0 0.0 1.0
vn -0.0 0.0 1.0
vn -0.0 0.0 1.0
vn -0.0 0.0 1.0
vn -0.0 0.0 1.0
vn -0.0 0.0 1.0
vn -0.0 0.0 1.0
vn -0.0 0.0 1.0
vn -0.0 0.0 1.0
vn -0.0 0.0 1.0
vn -0.0 0.0 1.0
vn -0.0 0.0 1.0
vn -0.0 0.0 1.0
vn -0.0 0.0 1.0
vn -0.0 0.0 1.0
vn -0.0 0.0 1.0
vn -0.0 0.0 1.0
vn -0.0 0.0 1.0
vn -0.0 0.0 1.0
vn -0.0 0.0 1.0
vn -0.0 0.0 1.0
vn -0.0 0.0 1.0
vn -0.0 0.0 1.0
vn -0.0 0.0 1.0
vn -0.0 0.0 1.0
vn -0.0 0.0 1.0
vn -0.0 0.0 1.0
vn -0.0 0.0 1.0
vn -0.0 0.0 1.0
vn -0.0 0.0 1.0
vn -0.0 0.0 1.0
vn -0.0 0.0 1.0
vn -0.0 0.0 1.0
vn -0.0 0.0 1.0
vn -0.0 0.0 1.0
vn -0.0 0.0 1.0
vn -0.0 0.0 1.0
vn -0.0 0.0 1.0
vn -0.0 0.0 1.0
vn -0.0 0.0 1.0
vn -0.0 0.0 1.0
vn -0.0 0.0 1.0
vn -0.0 0.0 1.0
vn -0.0 0.0 1.0
vn -0.0 0.0 1.0
vn -0.0 0.0 1.0
vn -0.0 0.0 1.0
vn -0.0 0.0 1.0
vn -0.0 0.0 1.0
vn -0.0 0.0 1.0
vn -0.0 0.0 1.0
vn -0.0 0.0 1.0
vn -0.0 0.0 1.0
vn -0.0 0.0 1.0
vn -0.0 0.0 1.0
vn -0.0 0.0 1.0
vn -0.0 0.0 1.0
vn -0.0 0.0 1.0
vn -0.0 0.0 1.0
vn -0.0 0.0 1.0
vn -0.0 0.0 1.0
vn -0.0 0.0 1.0
vn -0.0 0.0 1.0
vn -0.0 0.0 1.0
vn -0.0 0.0 1.0
vn -0.0 0.0 1.0
vn -0.0 0.0 1.0
vn -0.0 0.0 1.0
vn -0.0 0.0 1.0
vn -0.0 0.0 1.0
vn -0.0 0.0 1.0
vn -0.0 0.0 1.0
vn -0.0 0.0 1.0
vn -0.0 0.0 1.0
vn -0.0 0.0 1.0
vn -0.0 0.0 1.0
vn -0.0 0.0 1.0
vn -0.0 0.0 1.0
vn -0.0 0.0 1.0
vn -0.0 0.0 1.0
vn -0.0 0.0 1.0
vn -0.0 0.0 1.0
vn -0.0 0.0 1.0
vn -0.0 0.0 1.0
vn -0.0 0.0 1.0
vn -0.0 0.0 1.0
vn -0.0 0.0 1.0
vn -0.0 0.0 1.0
vn -0.0 0.0 1.0
vn -0.0 0.0 1.0
vn -0.0 0.0 1.0
vn -0.0 0.0 1.0
vn -0.0 0.0 1.0
vn -0.0 0.0 1.0
vn -0.0 0.0 1.0
vn -0.0 0.0 1.0
vn -0.0 0.0 1.0
vn -0.0 0.0 1.0
vn -0.0 0.0 1.0
vn -0.0 0.0 1.0
vn -0.0 0.0 1.0
vn -0.0 0.0 1.0
vn -0.0 0.0 1.0
vn -0.0 0.0 1.0
vn -0.0 0.0 1.0
vn -0.0 0.0 1.0
vn -0.0 0.0 1.0
vn -0.0 0.0 1.0
vn -0.0 0.0 1.0
vn -0.0 0.0 1.0
vn -0.0 0.0 1.0
vn -0.0 0.0 1.0
vn -0.0 0.0 1.0
vn -0.0 0.0 1.0
vn -0.0 0.0 1.0
vn -0.0 0.0 1.0
vn -0.0 0.0 1.0
vn -0.0 0.0 1.0
vn -0.0 0.0 1.0
vn -0.0 0.0 1.0
vn -0.0 0.0 1.0
vn -0.0 0.0 1.0
vn -0.0 0.0 1.0
vn -0.0 0.0 1.0
vn -0.0 0.0 1.0
vn -0.0 0.0 1.0
vn -0.0 0.0 1.0
vn -0.0 0.0 1.0
vn -0.0 0.0 1.0
vn -0.0 0.0 1.0
vn -0.0 0.0 1.0
vn -0.0 0.0 1.0
vn -0.0 0.0 1.0
vn -0.0 0.0 1.0
vn -0.0 0.0 1.0
vn -0.0 0.0 1.0
vn -0.0 0.0 1.0
vn -0.0 0.0 1.0
vn -0.0 0.0 1.0
vn -0.0 0.0 1.0
vn -0.0 0.0 1.0
vn -0.0 0.0 1.0
vn -0.0 0.0 1.0
vn -0.0 0.0 1.0
vn -0.0 0.0 1.0
vn -0.0 0.0 1.0
vn -0.0 0.0 1.0
vn -0.0 0.0 1.0
vn -0.0 0.0 1.0
vn -0.0 0.0 1.0
vn -0.0 0.0 1.0
vn -0.0 0.0 1.0
vn -0.0 0.0 1.0
vn -0.0 0.0 1.0
vn -0.0 0.0 1.0
vn -0.0 0.0 1.0
vn -0.0 0.0 1.0
vn -0.0 0.0 1.0
vt 0.9898073673248291 2.337071418762207
vt 0.7503194808959961 2.0975899696350098
vt 0.9898073673248291 2.0975899696350098
vt 0.7503194808959961 2.337071418762207
vt 0.7503194808959961 1.8581194281578064
vt 0.9898073673248291 1.8581194281578064
vt 0.7503194808959961 1.6186593174934387
vt 0.9898073673248291 1.6186593174934387
vt 0.7503194808959961 1.3792079985141754
vt 0.9898073673248291 1.3792079985141754
vt 0.7503194808959961 1.1397638022899628
vt 0.9898073673248291 1.1397638022899628
vt 0.7503194808959961 0.9003245010972023
vt 0.9898073673248291 0.9003245010972023
vt 0.7503194808959961 0.6608880162239075
vt 0.9898073673248291 0.6608880162239075
vt 0.7503194808959961 0.4214521050453186
vt 0.9898073673248291 0.4214521050453186
vt 0.7503194808959961 0.18201321363449097
vt 0.9898073673248291 0.18201321363449097
vt 0.7503194808959961 -0.05743110179901123
vt 0.9898073673248291 -0.05743110179901123
vt 0.7503194808959961 -0.2968822717666626
vt 0.9898073673248291 -0.2968822717666626
vt 0.7503194808959961 -0.5363402366638184
vt 0.9898073673248291 -0.5363402366638184
vt 0.7503194808959961 -0.7758094072341919
vt 0.9898073673248291 -0.7758094072341919
vt 0.7503194808959961 -1.0152900218963623
vt 0.9898073673248291 -1.0152900218963623
vt 0.5108320713043213 0.6608880162239075
vt 0.5108320713043213 0.9003245010972023
vt 0.5108320713043213 1.1397638022899628
vt 0.5108320713043213 1.3792079985141754
vt 0.5108320713043213 1.6186593174934387
vt 0.5108320713043213 1.8581194281578064
vt 0.5108320713043213 2.0975899696350098
vt 0.5108320713043213 2.337071418762207
vt 0.5108320713043213 0.4214521050453186
vt 0.5108320713043213 0.18201321363449097
vt 0.5108320713043213 -0.05743110179901123
vt 0.5108320713043213 -0.2968822717666626
vt 0.5108320713043213 -0.5363402366638184
vt 0.5108320713043213 -0.7758094072341919
vt 0.5108320713043213 -1.0152900218963623
vt 0.050887852907180786 0.942086897790432
vt 0.4338189661502838 0.5617594420909882
vt 0.050887852907180786 0.5617594420909882
vt 0.4338189661502838 0.942086897790432
vt 0.04352733492851257 0.9411257393658161
vt 0.45764970779418945 0.5506968796253204
vt 0.45764976739883423 0.941125676035881
vt 0.043527305126190186 0.5506969690322876
vt 0.05537402629852295 0.5388501584529877
vt 0.44580286741256714 0.9529725611209869
vt 0.05537407472729683 0.9529725797474384
vt 0.44580280780792236 0.5388501584529877
vt 0.4576495885848999 0.5506968796253204
vt 0.04352716729044914 0.9411256909370422
vt 0.043527163565158844 0.5506969094276428
vt 0.4576495587825775 0.9411256611347198
vt 0.05537402629852295 0.5388501584529877
vt 0.44580286741256714 0.9529725611209869
vt 0.05537407472729683 0.9529725797474384
vt 0.44580280780792236 0.5388501584529877
vt 0.05537402629852295 0.5388501584529877
vt 0.44580286741256714 0.9529725611209869
vt 0.05537407472729683 0.9529725797474384
vt 0.44580280780792236 0.5388501584529877
vt 0.7489020824432373 2.341275691986084
vt 0.509225606918335 2.1016016006469727
vt 0.7489020824432373 2.1016016006469727
vt 0.509225606918335 2.341275691986084
vt 0.988579511642456 2.341275691986084
vt 0.988579511642456 2.1016016006469727
vt 0.509225606918335 1.8619299530982971
vt 0.7489020824432373 1.8619299530982971
vt 0.988579511642456 1.8619299530982971
vt 0.509225606918335 1.6222595572471619
vt 0.7489020824432373 1.6222595572471619
vt 0.988579511642456 1.6222595572471619
vt 0.509225606918335 1.3825904726982117
vt 0.7489020824432373 1.3825904726982117
vt 0.988579511642456 1.3825904726982117
vt 0.509225606918335 1.1429219394922256
vt 0.7489020824432373 1.1429219394922256
vt 0.988579511642456 1.1429219394922256
vt 0.509225606918335 0.9032537490129471
vt 0.7489020824432373 0.9032537490129471
vt 0.988579511642456 0.9032537490129471
vt 0.509225606918335 0.6635857224464417
vt 0.7489020824432373 0.6635857224464417
vt 0.988579511642456 0.6635857224464417
vt 0.509225606918335 0.4239181876182556
vt 0.7489020824432373 0.4239181876182556
vt 0.988579511642456 0.4239181876182556
vt 0.509225606918335 0.1842517852783203
vt 0.7489020824432373 0.1842517852783203
vt 0.988579511642456 0.1842517852783203
vt 0.509225606918335 -0.055413246154785156
vt 0.7489020824432373 -0.055413246154785156
vt 0.988579511642456 -0.055413246154785156
vt 0.509225606918335 -0.29507899284362793
vt 0.7489020824432373 -0.29507899284362793
vt 0.988579511642456 -0.29507899284362793
vt 0.509225606918335 -0.5347468852996826
vt 0.7489020824432373 -0.5347468852996826
vt 0.988579511642456 -0.5347468852996826
vt 0.509225606918335 -0.7744174003601074
vt 0.7489020824432373 -0.7744174003601074
vt 0.988579511642456 -0.7744174003601074
vt 0.509225606918335 -1.0140902996063232
vt 0.7489020824432373 -1.0140902996063232
vt 0.988579511642456 -1.0140902996063232
vt 0.47719594836235046 3.100025177001953
vt 0.10777159035205841 2.682415246963501
vt 0.47719594836235046 2.682415246963501
vt 0.10777159035205841 3.100025177001953
vt 0.10777159035205841 2.264805316925049
vt 0.47719594836235046 2.264805316925049
vt 0.10777159035205841 1.8471948504447937
vt 0.47719594836235046 1.8471948504447937
vt 0.10777159035205841 1.4295853972434998
vt 0.47719594836235046 1.4295853972434998
vt 0.10777159035205841 1.0119758881628513
vt 0.47719594836235046 1.0119758881628513
vt 0.10777159035205841 0.594365656375885
vt 0.47719594836235046 0.594365656375885
vt 0.10777159035205841 0.17675602436065674
vt 0.47719594836235046 0.17675602436065674
vt 0.10777159035205841 -0.24085330963134766
vt 0.47719594836235046 -0.24085330963134766
vt 0.10777159035205841 -0.6584639549255371
vt 0.47719594836235046 -0.6584639549255371
vt 0.10777159035205841 -1.0760736465454102
vt 0.47719594836235046 -1.0760736465454102
vt 0.10777159035205841 -1.4936838150024414
vt 0.47719594836235046 -1.4936838150024414
vt 0.10777159035205841 -1.9112927913665771
vt 0.47719594836235046 -1.9112927913665771
vt 0.10777159035205841 -2.3289031982421875
vt 0.47719594836235046 -2.3289031982421875
vt 0.10777159035205841 -2.7465128898620605
vt 0.47719594836235046 -2.7465128898620605
vt 0.4336426258087158 0.947458166629076
vt 0.053314775228500366 0.5645270943641663
vt 0.053314805030822754 0.9474581815302372
vt 0.43364259600639343 0.5645270347595215
vt 0.05537402629852295 0.5388501584529877
vt 0.44580286741256714 0.9529725611209869
vt 0.05537407472729683 0.9529725797474384
vt 0.44580280780792236 0.5388501584529877
vt 0.4576495885848999 0.5506968796253204
vt 0.04352716729044914 0.9411256909370422
vt 0.043527163565158844 0.5506969094276428
vt 0.4576495587825775 0.9411256611347198
vt 0.05537402629852295 0.5388501584529877
vt 0.44580286741256714 0.9529725611209869
vt 0.05537407472729683 0.9529725797474384
vt 0.44580280780792236 0.5388501584529877
vt 0.4576496481895447 0.55069699883461
vt 0.04352722689509392 0.9411258101463318
vt 0.04352722316980362 0.5506970286369324
vt 0.4576496183872223 0.9411257803440094
vt 0.055374082177877426 0.5388501286506653
vt 0.44580280780792236 0.9529725909233093
vt 0.055374037474393845 0.9529725313186646
vt 0.44580283761024475 0.5388501882553101
vt 0.06275524944067001 0.9326717704534531
vt 0.44568637013435364 0.5523436665534973
vt 0.06275524944067001 0.5523436665534973
vt 0.44568637013435364 0.9326717704534531
vt 0.05537402629852295 0.5388501584529877
vt 0.44580286741256714 0.9529725611209869
vt 0.05537407472729683 0.9529725797474384
vt 0.44580280780792236 0.5388501584529877
vt 0.05537402629852295 0.5388501584529877
vt 0.44580286741256714 0.9529725611209869
vt 0.05537407472729683 0.9529725797474384
vt 0.44580280780792236 0.5388501584529877
vt 0.05537402629852295 0.5388501584529877
vt 0.44580286741256714 0.9529725611209869
vt 0.05537407472729683 0.9529725797474384
vt 0.44580280780792236 0.5388501584529877
vt 0.05537402629852295 0.5388501584529877
vt 0.44580286741256714 0.9529725611209869
vt 0.05537407472729683 0.9529725797474384
vt 0.44580280780792236 0.5388501584529877
vt 0.05537402629852295 0.5388501584529877
vt 0.44580286741256714 0.9529725611209869
vt 0.05537407472729683 0.9529725797474384
vt 0.44580280780792236 0.5388501584529877
vt 0.4477224349975586 2.2615015506744385
vt 0.04168123006820679 1.9134657979011536
vt 0.4477224349975586 1.9134657979011536
vt 0.04168123006820679 2.2615015506744385
vt 0.04168123006820679 1.565430760383606
vt 0.4477224349975586 1.565430760383606
vt 0.04168123006820679 1.21739561855793
vt 0.4477224349975586 1.21739561855793
vt 0.04168123006820679 0.8693598955869675
vt 0.4477224349975586 0.8693598955869675
vt 0.04168123006820679 0.5213247537612915
vt 0.4477224349975586 0.5213247537612915
vt 0.04168123006820679 0.17328959703445435
vt 0.4477224349975586 0.17328959703445435
vt 0.04168123006820679 -0.17474627494812012
vt 0.4477224349975586 -0.17474627494812012
vt 0.04168123006820679 -0.5227818489074707
vt 0.4477224349975586 -0.5227818489074707
vt 0.04168123006820679 -0.8708171844482422
vt 0.4477224349975586 -0.8708171844482422
vt 0.06275524944067001 0.925998643040657
vt 0.44568637013435364 0.5456711649894714
vt 0.06275524944067001 0.5456711649894714
vt 0.44568637013435364 0.925998643040657
vt 0.4489684998989105 0.9782970100641251
vt 0.058539703488349915 0.5641745924949646
vt 0.4489684998989105 0.5641745924949646
vt 0.05853971838951111 0.9782970100641251
vt 0.05537402629852295 0.5388501584529877
vt 0.44580286741256714 0.9529725611209869
vt 0.05537407472729683 0.9529725797474384
vt 0.44580280780792236 0.5388501584529877
vt 0.4458027780056 0.9529726207256317
vt 0.05537399277091026 0.5388501882553101
vt 0.4458027780056 0.5388501882553101
vt 0.05537400767207146 0.9529725611209869
vt 0.05537402629852295 0.5388501584529877
vt 0.44580286741256714 0.9529725611209869
vt 0.05537407472729683 0.9529725797474384
vt 0.44580280780792236 0.5388501584529877
vt 0.4544840455055237 0.5285380780696869
vt 0.040361568331718445 0.9189668074250221
vt 0.040361642837524414 0.5285380184650421
vt 0.4544839859008789 0.9189668670296669
vt 0.4432595372200012 0.9355907663702965
vt 0.06293237209320068 0.5526596903800964
vt 0.06293240189552307 0.9355907887220383
vt 0.44325950741767883 0.5526596307754517
vt 0.05537402629852295 0.5388501584529877
vt 0.44580286741256714 0.9529725611209869
vt 0.05537407472729683 0.9529725797474384
vt 0.44580280780792236 0.5388501584529877
vt 0.4576496481895447 0.55069699883461
vt 0.04352722689509392 0.9411258101463318
vt 0.04352722316980362 0.5506970286369324
vt 0.4576496183872223 0.9411257803440094
vt 0.05537402629852295 0.5388501584529877
vt 0.44580286741256714 0.9529725611209869
vt 0.05537407472729683 0.9529725797474384
vt 0.44580280780792236 0.5388501584529877
vt 0.05537402629852295 0.5388501584529877
vt 0.44580286741256714 0.9529725611209869
vt 0.05537407472729683 0.9529725797474384
vt 0.44580280780792236 0.5388501584529877
vt 0.05537402629852295 0.5388501584529877
vt 0.44580286741256714 0.9529725611209869
vt 0.05537407472729683 0.9529725797474384
vt 0.44580280780792236 0.5388501584529877
vt 0.06275524944067001 0.9383592344820499
vt 0.44568637013435364 0.5580310821533203
vt 0.06275524944067001 0.5580310821533203
vt 0.44568637013435364 0.9383592344820499
vt 0.05537402629852295 0.5388501584529877
vt 0.44580286741256714 0.9529725611209869
vt 0.05537407472729683 0.9529725797474384
vt 0.44580280780792236 0.5388501584529877
vt 0.05537402629852295 0.5388501584529877
vt 0.44580286741256714 0.9529725611209869
vt 0.05537407472729683 0.9529725797474384
vt 0.44580280780792236 0.5388501584529877
vt 0.05537402629852295 0.5388501584529877
vt 0.44580286741256714 0.9529725611209869
vt 0.05537407472729683 0.9529725797474384
vt 0.44580280780792236 0.5388501584529877
vt 0.4458027780056 0.9529726207256317
vt 0.05537399277091026 0.5388501882553101
vt 0.4458027780056 0.5388501882553101
vt 0.05537400767207146 0.9529725611209869
vt 0.4458027780056 0.9529725611209869
vt 0.05537399277091026 0.5388501286506653
vt 0.4458027780056 0.5388501286506653
vt 0.05537400767207146 0.9529725015163422
vt 0.053597986698150635 0.5589554905891418
vt 0.433925062417984 0.9418866634368896
vt 0.4339250922203064 0.5589555203914642
vt 0.053597964346408844 0.9418866336345673
vt 0.4489684998989105 0.9782970100641251
vt 0.058539703488349915 0.5641745924949646
vt 0.4489684998989105 0.5641745924949646
vt 0.05853971838951111 0.9782970100641251
vt 0.4576495885848999 0.5506968796253204
vt 0.04352716729044914 0.9411256909370422
vt 0.043527163565158844 0.5506969094276428
vt 0.4576495587825775 0.9411256611347198
vt 0.05537402629852295 0.5388501584529877
vt 0.44580286741256714 0.9529725611209869
vt 0.05537407472729683 0.9529725797474384
vt 0.44580280780792236 0.5388501584529877
vt 0.05537402629852295 0.5388501584529877
vt 0.44580286741256714 0.9529725611209869
vt 0.05537407472729683 0.9529725797474384
vt 0.44580280780792236 0.5388501584529877
vt 0.4544840455055237 0.5285380780696869
vt 0.040361568331718445 0.9189668074250221
vt 0.040361642837524414 0.5285380184650421
vt 0.4544839859008789 0.9189668670296669
vt 0.07462263852357864 0.9289441406726837
vt 0.45755377411842346 0.5486166775226593
vt 0.07462263852357864 0.5486166775226593
vt 0.45755377411842346 0.9289441406726837
vt 0.05537402629852295 0.5388501584529877
vt 0.44580286741256714 0.9529725611209869
vt 0.05537407472729683 0.9529725797474384
vt 0.44580280780792236 0.5388501584529877
vt 0.05537402629852295 0.5388501584529877
vt 0.44580286741256714 0.9529725611209869
vt 0.05537407472729683 0.9529725797474384
vt 0.44580280780792236 0.5388501584529877
vt 0.0435272753238678 0.9411258287727833
vt 0.4576496481895447 0.5506969690322876
vt 0.45764970779418945 0.9411257654428482
vt 0.04352724552154541 0.5506970584392548
vt 0.05537402629852295 0.5388501584529877
vt 0.44580286741256714 0.9529725611209869
vt 0.05537407472729683 0.9529725797474384
vt 0.44580280780792236 0.5388501584529877
vt 0.4560668170452118 0.5491141080856323
vt 0.041944388300180435 0.9395429119467735
vt 0.04194438457489014 0.5491141378879547
vt 0.4560667872428894 0.9395428821444511
vt 0.04732758551836014 0.9153141155838966
vt 0.4302586019039154 0.5349859595298767
vt 0.04732758551836014 0.5349859595298767
vt 0.4302586019039154 0.9153141155838966
vt 0.05537402629852295 0.5388501584529877
vt 0.44580286741256714 0.9529725611209869
vt 0.05537407472729683 0.9529725797474384
vt 0.44580280780792236 0.5388501584529877
vt 0.049700185656547546 0.9205496907234192
vt 0.46382254362106323 0.530120849609375
vt 0.463822603225708 0.9205496311187744
vt 0.04970015585422516 0.5301209390163422
vt 0.05537402629852295 0.5388501584529877
vt 0.44580286741256714 0.9529725611209869
vt 0.05537407472729683 0.9529725797474384
vt 0.44580280780792236 0.5388501584529877
vt 0.4576495885848999 0.5506968796253204
vt 0.04352716729044914 0.9411256909370422
vt 0.043527163565158844 0.5506969094276428
vt 0.4576495587825775 0.9411256611347198
vt 0.05537402629852295 0.5388501584529877
vt 0.44580286741256714 0.9529725611209869
vt 0.05537407472729683 0.9529725797474384
vt 0.44580280780792236 0.5388501584529877
vt 0.04732758551836014 0.9086409881711006
vt 0.4302586019039154 0.5283134877681732
vt 0.04732758551836014 0.5283134877681732
vt 0.4302586019039154 0.9086409881711006
vt 0.05537402629852295 0.5388501584529877
vt 0.44580286741256714 0.9529725611209869
vt 0.05537407472729683 0.9529725797474384
vt 0.44580280780792236 0.5388501584529877
vt 0.4576495885848999 0.5506968796253204
vt 0.04352716729044914 0.9411256909370422
vt 0.043527163565158844 0.5506969094276428
vt 0.4576495587825775 0.9411256611347198
vt 0.05537402629852295 0.5388501584529877
vt 0.44580286741256714 0.9529725611209869
vt 0.05537407472729683 0.9529725797474384
vt 0.44580280780792236 0.5388501584529877
vt 0.05537402629852295 0.5388501584529877
vt 0.44580286741256714 0.9529725611209869
vt 0.05537407472729683 0.9529725797474384
vt 0.44580280780792236 0.5388501584529877
vt 0.4560668170452118 0.5491141080856323
vt 0.041944388300180435 0.9395429119467735
vt 0.04194438457489014 0.5491141378879547
vt 0.4560667872428894 0.9395428821444511
vt 0.06154051423072815 0.5316604375839233
vt 0.4418686330318451 0.9145914912223816
vt 0.4418686628341675 0.5316604673862457
vt 0.06154049187898636 0.9145914614200592
vt 0.05537402629852295 0.5388501584529877
vt 0.44580286741256714 0.9529725611209869
vt 0.05537407472729683 0.9529725797474384
vt 0.44580280780792236 0.5388501584529877
vt 0.45764967799186707 0.5506969392299652
vt 0.043527256697416306 0.941125750541687
vt 0.04352725297212601 0.5506969690322876
vt 0.4576496481895447 0.9411257207393646
vt 0.45764967799186707 0.5506969392299652
vt 0.043527256697416306 0.941125750541687
vt 0.04352725297212601 0.5506969690322876
vt 0.4576496481895447 0.9411257207393646
vt 0.04352721571922302 0.9411258287727833
vt 0.4576495885848999 0.5506969690322876
vt 0.4576496481895447 0.9411257654428482
vt 0.043527185916900635 0.5506970584392548
vt 0.05537402629852295 0.5388501584529877
vt 0.44580286741256714 0.9529725611209869
vt 0.05537407472729683 0.9529725797474384
vt 0.44580280780792236 0.5388501584529877
vt 0.04732758551836014 0.9210005700588226
vt 0.4302586019039154 0.5406737625598907
vt 0.04732758551836014 0.5406737625598907
vt 0.4302586019039154 0.9210005700588226
vt 0.44580286741256714 0.9529725909233093
vt 0.055374082177877426 0.5388501286506653
vt 0.44580286741256714 0.5388501584529877
vt 0.05537409707903862 0.9529725313186646
vt 0.05537402629852295 0.5388501584529877
vt 0.44580286741256714 0.9529725611209869
vt 0.05537407472729683 0.9529725797474384
vt 0.44580280780792236 0.5388501584529877
vt 0.061053041368722916 0.889448270201683
vt 0.446186900138855 0.5263494551181793
vt 0.446186900138855 0.8894482031464577
vt 0.061053041368722916 0.5263495147228241
vt 0.05537402629852295 0.5388501584529877
vt 0.44580286741256714 0.9529725611209869
vt 0.05537407472729683 0.9529725797474384
vt 0.44580280780792236 0.5388501584529877
vt 0.45764967799186707 0.55069699883461
vt 0.043527256697416306 0.9411258101463318
vt 0.04352725297212601 0.5506970286369324
vt 0.4576496481895447 0.9411257803440094
vt 0.0709553062915802 0.5435278415679932
vt 0.45128339529037476 0.926459014415741
vt 0.45128342509269714 0.5435278415679932
vt 0.07095528393983841 0.9264589846134186
vt 0.05537402629852295 0.5388501584529877
vt 0.44580286741256714 0.9529725611209869
vt 0.05537407472729683 0.9529725797474384
vt 0.44580280780792236 0.5388501584529877
vt 0.05537402629852295 0.5388501584529877
vt 0.44580286741256714 0.9529725611209869
vt 0.05537407472729683 0.9529725797474384
vt 0.44580280780792236 0.5388501584529877
vt 0.4576495885848999 0.5506969094276428
vt 0.04352724552154541 0.9411258287727833
vt 0.04352712631225586 0.5506970286369324
vt 0.4576496481895447 0.9411256946623325
vt 0.05537402629852295 0.5388501584529877
vt 0.44580286741256714 0.9529725611209869
vt 0.05537407472729683 0.9529725797474384
vt 0.44580280780792236 0.5388501584529877
vt 0.05537402629852295 0.5388501584529877
vt 0.44580286741256714 0.9529725611209869
vt 0.05537407472729683 0.9529725797474384
vt 0.44580280780792236 0.5388501584529877
vt 0.05919497460126877 0.9115858003497124
vt 0.4421261250972748 0.5312583446502686
vt 0.05919497460126877 0.5312583446502686
vt 0.4421261250972748 0.9115858003497124
vt 0.44580286741256714 0.9292067289352417
vt 0.05537405237555504 0.51508429646492
vt 0.44580286741256714 0.51508429646492
vt 0.05537405237555504 0.9292067289352417
vt 0.05537402629852295 0.5388501584529877
vt 0.44580286741256714 0.9529725611209869
vt 0.05537407472729683 0.9529725797474384
vt 0.44580280780792236 0.5388501584529877
vt 0.05537402629852295 0.5388501584529877
vt 0.44580286741256714 0.9529725611209869
vt 0.05537407472729683 0.9529725797474384
vt 0.44580280780792236 0.5388501584529877
vt 0.05813148617744446 0.9260820597410202
vt 0.44326528906822205 0.5629832446575165
vt 0.4432653486728668 0.9260820001363754
vt 0.05813146382570267 0.5629832744598389
vt 0.05537402629852295 0.5388501584529877
vt 0.44580286741256714 0.9529725611209869
vt 0.05537407472729683 0.9529725797474384
vt 0.44580280780792236 0.5388501584529877

g bg_mdl_map_zimen
s 1
usemtl bg_mdl_map_zimen
f 3/3/3 2/2/2 1/1/1 
f 4/4/4 1/1/1 2/2/2 
f 2/2/2 3/3/3 5/5/5 
f 6/6/6 5/5/5 3/3/3 
f 5/5/5 6/6/6 7/7/7 
f 8/8/8 7/7/7 6/6/6 
f 7/7/7 8/8/8 9/9/9 
f 10/10/10 9/9/9 8/8/8 
f 9/9/9 10/10/10 11/11/11 
f 12/12/12 11/11/11 10/10/10 
f 11/11/11 12/12/12 13/13/13 
f 14/14/14 13/13/13 12/12/12 
f 13/13/13 14/14/14 15/15/15 
f 16/16/16 15/15/15 14/14/14 
f 15/15/15 16/16/16 17/17/17 
f 18/18/18 17/17/17 16/16/16 
f 17/17/17 18/18/18 19/19/19 
f 20/20/20 19/19/19 18/18/18 
f 19/19/19 20/20/20 21/21/21 
f 22/22/22 21/21/21 20/20/20 
f 21/21/21 22/22/22 23/23/23 
f 24/24/24 23/23/23 22/22/22 
f 23/23/23 24/24/24 25/25/25 
f 26/26/26 25/25/25 24/24/24 
f 25/25/25 26/26/26 27/27/27 
f 28/28/28 27/27/27 26/26/26 
f 27/27/27 28/28/28 29/29/29 
f 30/30/30 29/29/29 28/28/28 
f 15/15/15 17/17/17 31/31/31 
f 31/31/31 32/32/32 15/15/15 
f 13/13/13 15/15/15 32/32/32 
f 32/32/32 33/33/33 13/13/13 
f 11/11/11 13/13/13 33/33/33 
f 33/33/33 34/34/34 11/11/11 
f 9/9/9 11/11/11 34/34/34 
f 34/34/34 35/35/35 9/9/9 
f 7/7/7 9/9/9 35/35/35 
f 35/35/35 36/36/36 7/7/7 
f 5/5/5 7/7/7 36/36/36 
f 36/36/36 37/37/37 5/5/5 
f 2/2/2 5/5/5 37/37/37 
f 37/37/37 38/38/38 2/2/2 
f 4/4/4 2/2/2 38/38/38 
f 39/39/39 31/31/31 17/17/17 
f 17/17/17 19/19/19 39/39/39 
f 40/40/40 39/39/39 19/19/19 
f 19/19/19 21/21/21 40/40/40 
f 41/41/41 40/40/40 21/21/21 
f 21/21/21 23/23/23 41/41/41 
f 42/42/42 41/41/41 23/23/23 
f 23/23/23 25/25/25 42/42/42 
f 43/43/43 42/42/42 25/25/25 
f 25/25/25 27/27/27 43/43/43 
f 44/44/44 43/43/43 27/27/27 
f 27/27/27 29/29/29 44/44/44 
f 45/45/45 44/44/44 29/29/29 
f 48/48/48 47/47/47 46/46/46 
f 49/49/49 46/46/46 47/47/47 
f 52/52/52 51/51/51 50/50/50 
f 53/53/53 50/50/50 51/51/51 
f 56/56/56 55/55/55 54/54/54 
f 57/57/57 54/54/54 55/55/55 
f 60/60/60 59/59/59 58/58/58 
f 61/61/61 58/58/58 59/59/59 
f 64/64/64 63/63/63 62/62/62 
f 65/65/65 62/62/62 63/63/63 
f 68/68/68 67/67/67 66/66/66 
f 69/69/69 66/66/66 67/67/67 
f 72/72/72 71/71/71 70/70/70 
f 73/73/73 70/70/70 71/71/71 
f 70/70/70 74/74/74 72/72/72 
f 75/75/75 72/72/72 74/74/74 
f 71/71/71 72/72/72 76/76/76 
f 77/77/77 76/76/76 72/72/72 
f 72/72/72 75/75/75 77/77/77 
f 78/78/78 77/77/77 75/75/75 
f 76/76/76 77/77/77 79/79/79 
f 80/80/80 79/79/79 77/77/77 
f 77/77/77 78/78/78 80/80/80 
f 81/81/81 80/80/80 78/78/78 
f 79/79/79 80/80/80 82/82/82 
f 83/83/83 82/82/82 80/80/80 
f 80/80/80 81/81/81 83/83/83 
f 84/84/84 83/83/83 81/81/81 
f 82/82/82 83/83/83 85/85/85 
f 86/86/86 85/85/85 83/83/83 
f 83/83/83 84/84/84 86/86/86 
f 87/87/87 86/86/86 84/84/84 
f 85/85/85 86/86/86 88/88/88 
f 89/89/89 88/88/88 86/86/86 
f 86/86/86 87/87/87 89/89/89 
f 90/90/90 89/89/89 87/87/87 
f 88/88/88 89/89/89 91/91/91 
f 92/92/92 91/91/91 89/89/89 
f 89/89/89 90/90/90 92/92/92 
f 93/93/93 92/92/92 90/90/90 
f 91/91/91 92/92/92 94/94/94 
f 95/95/95 94/94/94 92/92/92 
f 92/92/92 93/93/93 95/95/95 
f 96/96/96 95/95/95 93/93/93 
f 94/94/94 95/95/95 97/97/97 
f 98/98/98 97/97/97 95/95/95 
f 95/95/95 96/96/96 98/98/98 
f 99/99/99 98/98/98 96/96/96 
f 97/97/97 98/98/98 100/100/100 
f 101/101/101 100/100/100 98/98/98 
f 98/98/98 99/99/99 101/101/101 
f 102/102/102 101/101/101 99/99/99 
f 100/100/100 101/101/101 103/103/103 
f 104/104/104 103/103/103 101/101/101 
f 101/101/101 102/102/102 104/104/104 
f 105/105/105 104/104/104 102/102/102 
f 103/103/103 104/104/104 106/106/106 
f 107/107/107 106/106/106 104/104/104 
f 104/104/104 105/105/105 107/107/107 
f 108/108/108 107/107/107 105/105/105 
f 106/106/106 107/107/107 109/109/109 
f 110/110/110 109/109/109 107/107/107 
f 107/107/107 108/108/108 110/110/110 
f 111/111/111 110/110/110 108/108/108 
f 109/109/109 110/110/110 112/112/112 
f 113/113/113 112/112/112 110/110/110 
f 110/110/110 111/111/111 113/113/113 
f 114/114/114 113/113/113 111/111/111 
f 117/117/117 116/116/116 115/115/115 
f 118/118/118 115/115/115 116/116/116 
f 116/116/116 117/117/117 119/119/119 
f 120/120/120 119/119/119 117/117/117 
f 119/119/119 120/120/120 121/121/121 
f 122/122/122 121/121/121 120/120/120 
f 121/121/121 122/122/122 123/123/123 
f 124/124/124 123/123/123 122/122/122 
f 123/123/123 124/124/124 125/125/125 
f 126/126/126 125/125/125 124/124/124 
f 125/125/125 126/126/126 127/127/127 
f 128/128/128 127/127/127 126/126/126 
f 127/127/127 128/128/128 129/129/129 
f 130/130/130 129/129/129 128/128/128 
f 129/129/129 130/130/130 131/131/131 
f 132/132/132 131/131/131 130/130/130 
f 131/131/131 132/132/132 133/133/133 
f 134/134/134 133/133/133 132/132/132 
f 133/133/133 134/134/134 135/135/135 
f 136/136/136 135/135/135 134/134/134 
f 135/135/135 136/136/136 137/137/137 
f 138/138/138 137/137/137 136/136/136 
f 137/137/137 138/138/138 139/139/139 
f 140/140/140 139/139/139 138/138/138 
f 139/139/139 140/140/140 141/141/141 
f 142/142/142 141/141/141 140/140/140 
f 141/141/141 142/142/142 143/143/143 
f 144/144/144 143/143/143 142/142/142 
f 147/147/147 146/146/146 145/145/145 
f 148/148/148 145/145/145 146/146/146 
f 151/151/151 150/150/150 149/149/149 
f 152/152/152 149/149/149 150/150/150 
f 155/155/155 154/154/154 153/153/153 
f 156/156/156 153/153/153 154/154/154 
f 159/159/159 158/158/158 157/157/157 
f 160/160/160 157/157/157 158/158/158 
f 163/163/163 162/162/162 161/161/161 
f 164/164/164 161/161/161 162/162/162 
f 167/167/167 166/166/166 165/165/165 
f 168/168/168 165/165/165 166/166/166 
f 171/171/171 170/170/170 169/169/169 
f 172/172/172 169/169/169 170/170/170 
f 175/175/175 174/174/174 173/173/173 
f 176/176/176 173/173/173 174/174/174 
f 179/179/179 178/178/178 177/177/177 
f 180/180/180 177/177/177 178/178/178 
f 183/183/183 182/182/182 181/181/181 
f 184/184/184 181/181/181 182/182/182 
f 187/187/187 186/186/186 185/185/185 
f 188/188/188 185/185/185 186/186/186 
f 191/191/191 190/190/190 189/189/189 
f 192/192/192 189/189/189 190/190/190 
f 195/195/195 194/194/194 193/193/193 
f 196/196/196 193/193/193 194/194/194 
f 194/194/194 195/195/195 197/197/197 
f 198/198/198 197/197/197 195/195/195 
f 197/197/197 198/198/198 199/199/199 
f 200/200/200 199/199/199 198/198/198 
f 199/199/199 200/200/200 201/201/201 
f 202/202/202 201/201/201 200/200/200 
f 201/201/201 202/202/202 203/203/203 
f 204/204/204 203/203/203 202/202/202 
f 203/203/203 204/204/204 205/205/205 
f 206/206/206 205/205/205 204/204/204 
f 205/205/205 206/206/206 207/207/207 
f 208/208/208 207/207/207 206/206/206 
f 207/207/207 208/208/208 209/209/209 
f 210/210/210 209/209/209 208/208/208 
f 209/209/209 210/210/210 211/211/211 
f 212/212/212 211/211/211 210/210/210 
f 215/215/215 214/214/214 213/213/213 
f 216/216/216 213/213/213 214/214/214 
f 219/219/219 218/218/218 217/217/217 
f 220/220/220 217/217/217 218/218/218 
f 223/223/223 222/222/222 221/221/221 
f 224/224/224 221/221/221 222/222/222 
f 227/227/227 226/226/226 225/225/225 
f 228/228/228 225/225/225 226/226/226 
f 231/231/231 230/230/230 229/229/229 
f 232/232/232 229/229/229 230/230/230 
f 235/235/235 234/234/234 233/233/233 
f 236/236/236 233/233/233 234/234/234 
f 239/239/239 238/238/238 237/237/237 
f 240/240/240 237/237/237 238/238/238 
f 243/243/243 242/242/242 241/241/241 
f 244/244/244 241/241/241 242/242/242 
f 247/247/247 246/246/246 245/245/245 
f 248/248/248 245/245/245 246/246/246 
f 251/251/251 250/250/250 249/249/249 
f 252/252/252 249/249/249 250/250/250 
f 255/255/255 254/254/254 253/253/253 
f 256/256/256 253/253/253 254/254/254 
f 259/259/259 258/258/258 257/257/257 
f 260/260/260 257/257/257 258/258/258 
f 263/263/263 262/262/262 261/261/261 
f 264/264/264 261/261/261 262/262/262 
f 267/267/267 266/266/266 265/265/265 
f 268/268/268 265/265/265 266/266/266 
f 271/271/271 270/270/270 269/269/269 
f 272/272/272 269/269/269 270/270/270 
f 275/275/275 274/274/274 273/273/273 
f 276/276/276 273/273/273 274/274/274 
f 279/279/279 278/278/278 277/277/277 
f 280/280/280 277/277/277 278/278/278 
f 283/283/283 282/282/282 281/281/281 
f 284/284/284 281/281/281 282/282/282 
f 287/287/287 286/286/286 285/285/285 
f 288/288/288 285/285/285 286/286/286 
f 291/291/291 290/290/290 289/289/289 
f 292/292/292 289/289/289 290/290/290 
f 295/295/295 294/294/294 293/293/293 
f 296/296/296 293/293/293 294/294/294 
f 299/299/299 298/298/298 297/297/297 
f 300/300/300 297/297/297 298/298/298 
f 303/303/303 302/302/302 301/301/301 
f 304/304/304 301/301/301 302/302/302 
f 307/307/307 306/306/306 305/305/305 
f 308/308/308 305/305/305 306/306/306 
f 311/311/311 310/310/310 309/309/309 
f 312/312/312 309/309/309 310/310/310 
f 315/315/315 314/314/314 313/313/313 
f 316/316/316 313/313/313 314/314/314 
f 319/319/319 318/318/318 317/317/317 
f 320/320/320 317/317/317 318/318/318 
f 323/323/323 322/322/322 321/321/321 
f 324/324/324 321/321/321 322/322/322 
f 327/327/327 326/326/326 325/325/325 
f 328/328/328 325/325/325 326/326/326 
f 331/331/331 330/330/330 329/329/329 
f 332/332/332 329/329/329 330/330/330 
f 335/335/335 334/334/334 333/333/333 
f 336/336/336 333/333/333 334/334/334 
f 339/339/339 338/338/338 337/337/337 
f 340/340/340 337/337/337 338/338/338 
f 343/343/343 342/342/342 341/341/341 
f 344/344/344 341/341/341 342/342/342 
f 347/347/347 346/346/346 345/345/345 
f 348/348/348 345/345/345 346/346/346 
f 351/351/351 350/350/350 349/349/349 
f 352/352/352 349/349/349 350/350/350 
f 355/355/355 354/354/354 353/353/353 
f 356/356/356 353/353/353 354/354/354 
f 359/359/359 358/358/358 357/357/357 
f 360/360/360 357/357/357 358/358/358 
f 363/363/363 362/362/362 361/361/361 
f 364/364/364 361/361/361 362/362/362 
f 367/367/367 366/366/366 365/365/365 
f 368/368/368 365/365/365 366/366/366 
f 371/371/371 370/370/370 369/369/369 
f 372/372/372 369/369/369 370/370/370 
f 375/375/375 374/374/374 373/373/373 
f 376/376/376 373/373/373 374/374/374 
f 379/379/379 378/378/378 377/377/377 
f 380/380/380 377/377/377 378/378/378 
f 383/383/383 382/382/382 381/381/381 
f 384/384/384 381/381/381 382/382/382 
f 387/387/387 386/386/386 385/385/385 
f 388/388/388 385/385/385 386/386/386 
f 391/391/391 390/390/390 389/389/389 
f 392/392/392 389/389/389 390/390/390 
f 395/395/395 394/394/394 393/393/393 
f 396/396/396 393/393/393 394/394/394 
f 399/399/399 398/398/398 397/397/397 
f 400/400/400 397/397/397 398/398/398 
f 403/403/403 402/402/402 401/401/401 
f 404/404/404 401/401/401 402/402/402 
f 407/407/407 406/406/406 405/405/405 
f 408/408/408 405/405/405 406/406/406 
f 411/411/411 410/410/410 409/409/409 
f 412/412/412 409/409/409 410/410/410 
f 415/415/415 414/414/414 413/413/413 
f 416/416/416 413/413/413 414/414/414 
f 419/419/419 418/418/418 417/417/417 
f 420/420/420 417/417/417 418/418/418 
f 423/423/423 422/422/422 421/421/421 
f 424/424/424 421/421/421 422/422/422 
f 427/427/427 426/426/426 425/425/425 
f 428/428/428 425/425/425 426/426/426 
f 431/431/431 430/430/430 429/429/429 
f 432/432/432 429/429/429 430/430/430 
f 435/435/435 434/434/434 433/433/433 
f 436/436/436 433/433/433 434/434/434 
f 439/439/439 438/438/438 437/437/437 
f 440/440/440 437/437/437 438/438/438 
f 443/443/443 442/442/442 441/441/441 
f 444/444/444 441/441/441 442/442/442 
f 447/447/447 446/446/446 445/445/445 
f 448/448/448 445/445/445 446/446/446 
f 451/451/451 450/450/450 449/449/449 
f 452/452/452 449/449/449 450/450/450 
f 455/455/455 454/454/454 453/453/453 
f 456/456/456 453/453/453 454/454/454 
f 459/459/459 458/458/458 457/457/457 
f 460/460/460 457/457/457 458/458/458 
f 463/463/463 462/462/462 461/461/461 
f 464/464/464 461/461/461 462/462/462 
f 467/467/467 466/466/466 465/465/465 
f 468/468/468 465/465/465 466/466/466 
f 471/471/471 470/470/470 469/469/469 
f 472/472/472 469/469/469 470/470/470 
f 475/475/475 474/474/474 473/473/473 
f 476/476/476 473/473/473 474/474/474 

