v -0.0 -0.09029655158519745 0.6722946166992188
v -0.0 -0.05132798105478287 0.7165951132774353
v -0.0 -0.05414118990302086 0.7258971929550171
v -0.0 -0.08160741627216339 0.6728278994560242
v -0.0 0.008010528981685638 0.7080754637718201
v -0.0 0.006065343506634235 0.7007673978805542
v -0.0 -0.0504901148378849 0.6213446855545044
v -0.0 -0.05063988268375397 0.6325464248657227
v -0.0 -0.07591750472784042 0.38015016913414
v -0.0 0.03953240066766739 0.32920026779174805
v -0.0 0.0649598240852356 0.38015016913414
v -0.0 -0.0504901260137558 0.32920026779174805
v -0.0 -0.054141201078891754 0.43375280499458313
v -0.0 0.043183501809835434 0.43375277519226074
v 0.09755279123783112 -0.015450811013579369 0.699999988079071
v 0.04999999701976776 -0.04999995976686478 0.0
v 0.04999999701976776 -0.04999995976686478 0.699999988079071
v 0.09755279123783112 -0.015450811944901943 0.0
v 0.0024472044315189123 -0.015450814738869667 0.0
v 0.0024472044315189123 -0.015450814738869667 0.699999988079071
v 0.020610732957720757 0.04045089706778526 0.0
v 0.020610732957720757 0.040450893342494965 0.699999988079071
v 0.07938926666975021 0.040450893342494965 0.0
v 0.07938926666975021 0.040450893342494965 0.699999988079071
v 0.09755279123783112 -0.015450811944901943 0.0
v 0.09755279123783112 -0.015450811013579369 0.699999988079071
v 0.07938926666975021 0.040450893342494965 0.699999988079071
v 0.0024472044315189123 -0.015450814738869667 0.699999988079071
v 0.020610732957720757 0.040450893342494965 0.699999988079071
v 0.09755279123783112 -0.015450811013579369 0.699999988079071
v 0.04999999701976776 -0.04999995976686478 0.699999988079071
v 0.25 -0.030928829684853554 0.6499999761581421
v 0.21907112002372742 1.5459232116654675e-08 0.0
v 0.21907112002372742 1.5459232116654675e-08 0.6499999761581421
v 0.25 -0.030928829684853554 0.0
v 0.2809287905693054 3.063673759129415e-08 0.6499999165534973
v 0.25 -0.030928829684853554 0.0
v 0.25 -0.030928829684853554 0.6499999761581421
v 0.2809287905693054 3.063673759129415e-08 0.0
v 0.24999992549419403 0.030928870663046837 0.6499999761581421
v 0.2809287905693054 3.063673759129415e-08 0.0
v 0.2809287905693054 3.063673759129415e-08 0.6499999165534973
v 0.24999992549419403 0.030928870663046837 0.0
v 0.21907112002372742 1.5459232116654675e-08 0.6499999761581421
v 0.24999992549419403 0.030928870663046837 0.0
v 0.24999992549419403 0.030928870663046837 0.6499999761581421
v 0.21907112002372742 1.5459232116654675e-08 0.0
v -0.0 -0.05414118990302086 0.7258971929550171
v 0.09781248867511749 0.008010524325072765 0.7080754637718201
v 0.09781249612569809 -0.054141197353601456 0.7258971929550171
v -0.0 0.008010528981685638 0.7080754637718201
v 0.09781248867511749 -0.09029655158519745 0.6722946166992188
v -0.0 -0.09029655158519745 0.6722946166992188
v 0.09781248867511749 -0.0504901260137558 0.6213446855545044
v -0.0 -0.0504901148378849 0.6213446855545044
v 0.28092899918556213 0.00801052339375019 0.7080754637718201
v 0.28092899918556213 -0.054141197353601456 0.7258971929550171
v 0.7807347774505615 0.008010518737137318 0.7080754637718201
v 0.7807347774505615 -0.054141197353601456 0.7258971929550171
v 0.7807347774505615 -0.09029655158519745 0.6722946166992188
v 0.28092899918556213 -0.09029655158519745 0.6722946166992188
v 0.7807347774505615 -0.0504901297390461 0.6213446855545044
v 0.28092896938323975 -0.0504901297390461 0.6213446855545044
v 0.09781248867511749 0.008010524325072765 0.7080754637718201
v -0.0 0.006065343506634235 0.7007673978805542
v 0.09781248867511749 0.00606533931568265 0.7007673978805542
v -0.0 0.008010528981685638 0.7080754637718201
v 0.28092899918556213 0.00801052339375019 0.7080754637718201
v 0.28092899918556213 0.006065337918698788 0.7007673978805542
v 0.7807347774505615 0.008010518737137318 0.7080754637718201
v 0.7807347774505615 0.006065335124731064 0.7007673978805542
v 0.09781249612569809 -0.05132798105478287 0.7165951132774353
v -0.0 -0.08160741627216339 0.6728278994560242
v 0.09781248867511749 -0.08160741627216339 0.6728278994560242
v -0.0 -0.05132798105478287 0.7165951132774353
v -0.0 -0.05063988268375397 0.6325464248657227
v 0.09781248867511749 -0.05063988268375397 0.6325464248657227
v 0.28092899918556213 -0.05132798105478287 0.7165951132774353
v 0.28092899918556213 -0.08160741627216339 0.6728278994560242
v 0.28092896938323975 -0.050639886409044266 0.6325464248657227
v 0.09781248867511749 -0.05063988268375397 0.6325464248657227
v -0.0 -0.0504901148378849 0.6213446855545044
v 0.09781248867511749 -0.0504901260137558 0.6213446855545044
v -0.0 -0.05063988268375397 0.6325464248657227
v 0.28092896938323975 -0.050639886409044266 0.6325464248657227
v 0.28092896938323975 -0.0504901297390461 0.6213446855545044
v 0.09781249612569809 -0.0504901297390461 0.32920026779174805
v -0.0 -0.07591750472784042 0.38015016913414
v 0.09781248867511749 -0.07591751217842102 0.38015016913414
v -0.0 -0.0504901260137558 0.32920026779174805
v -0.0 -0.054141201078891754 0.43375280499458313
v 0.09781248867511749 -0.05414120480418205 0.43375280499458313
v 0.28092896938323975 -0.0504901260137558 0.32920026779174805
v 0.28092896938323975 -0.07591751217842102 0.38015016913414
v 0.7807347774505615 -0.0504901297390461 0.32920026779174805
v 0.7807347774505615 -0.07591751217842102 0.38015016913414
v 0.28092896938323975 -0.05414120480418205 0.43375280499458313
v 0.7807347774505615 -0.05414120480418205 0.43375280499458313
v 0.09781249612569809 0.06495983153581619 0.3801501393318176
v -0.0 0.03953240066766739 0.32920026779174805
v 0.09781248867511749 0.03953240439295769 0.32920026779174805
v -0.0 0.0649598240852356 0.38015016913414
v 0.09781249612569809 0.043183501809835434 0.43375274538993835
v -0.0 0.043183501809835434 0.43375277519226074
v 0.28092896938323975 0.06495983153581619 0.3801501393318176
v 0.28092896938323975 0.03953240439295769 0.32920026779174805
v 0.7807347774505615 0.06495983153581619 0.3801501393318176
v 0.7807347774505615 0.039532408118247986 0.32920026779174805
v 0.7807347774505615 0.04318350553512573 0.4337526857852936
v 0.28092896938323975 0.043183501809835434 0.4337526857852936
v 0.09781248867511749 -0.05414120480418205 0.43375280499458313
v -0.0 0.043183501809835434 0.43375277519226074
v 0.09781249612569809 0.043183501809835434 0.43375274538993835
v -0.0 -0.054141201078891754 0.43375280499458313
v 0.28092896938323975 -0.05414120480418205 0.43375280499458313
v 0.28092896938323975 0.043183501809835434 0.4337526857852936
v 0.7807347774505615 -0.05414120480418205 0.43375280499458313
v 0.7807347774505615 0.04318350553512573 0.4337526857852936
v 0.5 -0.030928829684853554 0.6499999761581421
v 0.4690711200237274 1.5459232116654675e-08 0.0
v 0.4690711200237274 1.5459232116654675e-08 0.6499999761581421
v 0.5 -0.030928829684853554 0.0
v 0.5309287905693054 3.063673759129415e-08 0.6499999165534973
v 0.5 -0.030928829684853554 0.0
v 0.5 -0.030928829684853554 0.6499999761581421
v 0.5309287905693054 3.063673759129415e-08 0.0
v 0.49999991059303284 0.030928870663046837 0.6499999761581421
v 0.5309287905693054 3.063673759129415e-08 0.0
v 0.5309287905693054 3.063673759129415e-08 0.6499999165534973
v 0.49999991059303284 0.030928870663046837 0.0
v 0.4690711200237274 1.5459232116654675e-08 0.6499999761581421
v 0.49999991059303284 0.030928870663046837 0.0
v 0.49999991059303284 0.030928870663046837 0.6499999761581421
v 0.4690711200237274 1.5459232116654675e-08 0.0
v 0.7499984502792358 -0.030928829684853554 0.6499999761581421
v 0.7190696001052856 1.5459232116654675e-08 0.0
v 0.7190696001052856 1.5459232116654675e-08 0.6499999761581421
v 0.7499984502792358 -0.030928829684853554 0.0
v 0.7809272408485413 3.063673759129415e-08 0.6499999165534973
v 0.7499984502792358 -0.030928829684853554 0.0
v 0.7499984502792358 -0.030928829684853554 0.6499999761581421
v 0.7809272408485413 3.063673759129415e-08 0.0
v 0.7499983906745911 0.030928870663046837 0.6499999761581421
v 0.7809272408485413 3.063673759129415e-08 0.0
v 0.7809272408485413 3.063673759129415e-08 0.6499999165534973
v 0.7499983906745911 0.030928870663046837 0.0
v 0.7190696001052856 1.5459232116654675e-08 0.6499999761581421
v 0.7499983906745911 0.030928870663046837 0.0
v 0.7499983906745911 0.030928870663046837 0.6499999761581421
v 0.7190696001052856 1.5459232116654675e-08 0.0
v 1.000000238418579 -0.030928829684853554 0.6499999761581421
v 0.9690713882446289 1.5459232116654675e-08 0.0
v 0.9690713882446289 1.5459232116654675e-08 0.6499999761581421
v 1.000000238418579 -0.030928829684853554 0.0
v 1.0309290885925293 3.063673759129415e-08 0.6499999165534973
v 1.000000238418579 -0.030928829684853554 0.0
v 1.000000238418579 -0.030928829684853554 0.6499999761581421
v 1.0309290885925293 3.063673759129415e-08 0.0
v 1.000000238418579 0.030928870663046837 0.6499999761581421
v 1.0309290885925293 3.063673759129415e-08 0.0
v 1.0309290885925293 3.063673759129415e-08 0.6499999165534973
v 1.000000238418579 0.030928870663046837 0.0
v 0.9690713882446289 1.5459232116654675e-08 0.6499999761581421
v 1.000000238418579 0.030928870663046837 0.0
v 1.000000238418579 0.030928870663046837 0.6499999761581421
v 0.9690713882446289 1.5459232116654675e-08 0.0
v -0.0 0.03813832998275757 0.7427651286125183
v -0.0 0.07084345817565918 0.6936583518981934
v -0.0 0.08055684715509415 0.6939684748649597
v -0.0 0.03640454262495041 0.734234094619751
v -0.0 0.04725625738501549 0.6385470628738403
v -0.0 0.040700722485780716 0.6423174142837524
v -0.0 -0.021378187462687492 0.7175018787384033
v -0.0 -0.010519356466829777 0.7147473096847534
v 0.21900023519992828 0.07084346562623978 0.6936584115028381
v -0.0 0.03640454262495041 0.734234094619751
v 0.21900026500225067 0.036404550075531006 0.7342341542243958
v -0.0 0.07084345817565918 0.6936583518981934
v -0.0 -0.010519356466829777 0.7147473096847534
v 0.21900026500225067 -0.010519351810216904 0.7147473692893982
v 0.09781249612569809 0.08055684715509415 0.6939684748649597
v -0.0 0.04725625738501549 0.6385470628738403
v 0.09781248867511749 0.04725625738501549 0.6385470628738403
v -0.0 0.08055684715509415 0.6939684748649597
v 0.09781248867511749 0.03813832998275757 0.7427651286125183
v -0.0 0.03813832998275757 0.7427651286125183
v 0.09781248867511749 -0.021378187462687492 0.7175018787384033
v -0.0 -0.021378187462687492 0.7175018787384033
v 0.28092899918556213 0.08055684715509415 0.6939684748649597
v 0.28092896938323975 0.04725625738501549 0.6385470628738403
v 0.7807347774505615 0.08055684715509415 0.6939684748649597
v 0.7807347774505615 0.04725625738501549 0.6385470628738403
v 0.7807347774505615 0.03813832998275757 0.7427651286125183
v 0.28092899918556213 0.03813832998275757 0.7427651286125183
v 0.7807347774505615 -0.021378187462687492 0.7175018787384033
v 0.28092899918556213 -0.021378187462687492 0.7175018787384033
v 0.7807347774505615 -0.054141197353601456 0.7258971929550171
v 1.2805407047271729 0.008010518737137318 0.7080754637718201
v 1.2805407047271729 -0.054141197353601456 0.7258971929550171
v 0.7807347774505615 0.008010518737137318 0.7080754637718201
v 1.2805407047271729 -0.09029655158519745 0.6722946166992188
v 0.7807347774505615 -0.09029655158519745 0.6722946166992188
v 1.2805407047271729 -0.0504901297390461 0.6213446855545044
v 0.7807347774505615 -0.0504901297390461 0.6213446855545044
v 1.2805407047271729 0.008010518737137318 0.7080754637718201
v 0.7807347774505615 0.006065335124731064 0.7007673978805542
v 1.2805407047271729 0.006065335124731064 0.7007673978805542
v 0.7807347774505615 0.008010518737137318 0.7080754637718201
v 1.2805407047271729 -0.0504901297390461 0.32920026779174805
v 0.7807347774505615 -0.07591751217842102 0.38015016913414
v 1.2805407047271729 -0.07591751217842102 0.38015016913414
v 0.7807347774505615 -0.0504901297390461 0.32920026779174805
v 0.7807347774505615 -0.05414120480418205 0.43375280499458313
v 1.2805407047271729 -0.05414120480418205 0.43375280499458313
v 1.2805407047271729 0.06495983153581619 0.3801501393318176
v 0.7807347774505615 0.039532408118247986 0.32920026779174805
v 1.2805407047271729 0.039532408118247986 0.32920026779174805
v 0.7807347774505615 0.06495983153581619 0.3801501393318176
v 1.2805407047271729 0.04318350553512573 0.4337526857852936
v 0.7807347774505615 0.04318350553512573 0.4337526857852936
v 1.2805407047271729 -0.05414120480418205 0.43375280499458313
v 0.7807347774505615 0.04318350553512573 0.4337526857852936
v 1.2805407047271729 0.04318350553512573 0.4337526857852936
v 0.7807347774505615 -0.05414120480418205 0.43375280499458313
v 1.2805407047271729 0.08055684715509415 0.6939684748649597
v 0.7807347774505615 0.04725625738501549 0.6385470628738403
v 1.2805407047271729 0.04725625738501549 0.6385470628738403
v 0.7807347774505615 0.08055684715509415 0.6939684748649597
v 1.2805407047271729 0.03813832998275757 0.7427651286125183
v 0.7807347774505615 0.03813832998275757 0.7427651286125183
v 1.2805407047271729 -0.021378187462687492 0.7175018787384033
v 0.7807347774505615 -0.021378187462687492 0.7175018787384033
v 1.2805407047271729 0.008010518737137318 0.7080754637718201
v 1.7190709114074707 0.0060653374530375 0.7007673978805542
v 1.7190709114074707 0.008010519668459892 0.7080754637718201
v 1.2805407047271729 0.006065335124731064 0.7007673978805542
v 1.2805407047271729 -0.0504901297390461 0.6213446855545044
v 1.7190709114074707 -0.09029655158519745 0.6722946166992188
v 1.7190709114074707 -0.0504901297390461 0.6213446855545044
v 1.2805407047271729 -0.09029655158519745 0.6722946166992188
v 1.7190709114074707 -0.054141197353601456 0.7258971929550171
v 1.2805407047271729 -0.054141197353601456 0.7258971929550171
v 1.2805407047271729 0.008010518737137318 0.7080754637718201
v 1.7190709114074707 0.008010519668459892 0.7080754637718201
v 1.2805407047271729 -0.0504901297390461 0.32920026779174805
v 1.7190709114074707 -0.07591751217842102 0.3801501393318176
v 1.7190709114074707 -0.0504901297390461 0.32920026779174805
v 1.2805407047271729 -0.07591751217842102 0.38015016913414
v 1.7190709114074707 -0.05414120480418205 0.43375280499458313
v 1.2805407047271729 -0.05414120480418205 0.43375280499458313
v 1.2805407047271729 0.06495983153581619 0.3801501393318176
v 1.7190709114074707 0.03953240439295769 0.32920026779174805
v 1.7190709114074707 0.06495983153581619 0.3801501393318176
v 1.2805407047271729 0.039532408118247986 0.32920026779174805
v 1.2805407047271729 0.04318350553512573 0.4337526857852936
v 1.7190709114074707 0.04318350553512573 0.4337526857852936
v 1.2805407047271729 -0.05414120480418205 0.43375280499458313
v 1.7190709114074707 0.04318350553512573 0.4337526857852936
v 1.7190709114074707 -0.05414120480418205 0.43375280499458313
v 1.2805407047271729 0.04318350553512573 0.4337526857852936
v 1.2805407047271729 0.08055684715509415 0.6939684748649597
v 1.7190709114074707 0.04725625738501549 0.6385470628738403
v 1.7190709114074707 0.08055684715509415 0.6939684748649597
v 1.2805407047271729 0.04725625738501549 0.6385470628738403
v 1.2805407047271729 0.03813832998275757 0.7427651286125183
v 1.7190709114074707 0.03813832998275757 0.7427651286125183
v 1.2805407047271729 -0.021378187462687492 0.7175018787384033
v 1.7190709114074707 -0.021378187462687492 0.7175018787384033
v 1.2499996423721313 -0.030928829684853554 0.6499999761581421
v 1.2190707921981812 1.5459232116654675e-08 0.0
v 1.2190707921981812 1.5459232116654675e-08 0.6499999761581421
v 1.2499996423721313 -0.030928829684853554 0.0
v 1.2809284925460815 3.063673759129415e-08 0.6499999165534973
v 1.2499996423721313 -0.030928829684853554 0.0
v 1.2499996423721313 -0.030928829684853554 0.6499999761581421
v 1.2809284925460815 3.063673759129415e-08 0.0
v 1.2499996423721313 0.030928870663046837 0.6499999761581421
v 1.2809284925460815 3.063673759129415e-08 0.0
v 1.2809284925460815 3.063673759129415e-08 0.6499999165534973
v 1.2499996423721313 0.030928870663046837 0.0
v 1.2190707921981812 1.5459232116654675e-08 0.6499999761581421
v 1.2499996423721313 0.030928870663046837 0.0
v 1.2499996423721313 0.030928870663046837 0.6499999761581421
v 1.2190707921981812 1.5459232116654675e-08 0.0
v 1.4999996423721313 -0.030928829684853554 0.6499999761581421
v 1.4690706729888916 1.5459232116654675e-08 0.0
v 1.4690706729888916 1.5459232116654675e-08 0.6499999761581421
v 1.4999996423721313 -0.030928829684853554 0.0
v 1.5309284925460815 3.063673759129415e-08 0.6499999165534973
v 1.4999996423721313 -0.030928829684853554 0.0
v 1.4999996423721313 -0.030928829684853554 0.6499999761581421
v 1.5309284925460815 3.063673759129415e-08 0.0
v 1.4999996423721313 0.030928870663046837 0.6499999761581421
v 1.5309284925460815 3.063673759129415e-08 0.0
v 1.5309284925460815 3.063673759129415e-08 0.6499999165534973
v 1.4999996423721313 0.030928870663046837 0.0
v 1.4690706729888916 1.5459232116654675e-08 0.6499999761581421
v 1.4999996423721313 0.030928870663046837 0.0
v 1.4999996423721313 0.030928870663046837 0.6499999761581421
v 1.4690706729888916 1.5459232116654675e-08 0.0
v -0.0 0.07084345817565918 0.6936583518981934
v 0.21900026500225067 0.04070074111223221 0.6423174738883972
v -0.0 0.040700722485780716 0.6423174142837524
v 0.21900023519992828 0.07084346562623978 0.6936584115028381
v 2.0 -0.09029655158519745 0.6722946166992188
v 2.0 -0.05132798105478287 0.7165951132774353
v 2.0 -0.08160741627216339 0.6728278994560242
v 2.0 -0.05414118990302086 0.7258971929550171
v 2.0 0.008010529913008213 0.7080754637718201
v 2.0 0.006065344903618097 0.7007673978805542
v 2.0 -0.0504901148378849 0.6213446855545044
v 2.0 -0.05063988268375397 0.6325464248657227
v 2.0 -0.07591750472784042 0.38015016913414
v 2.0 0.03953240439295769 0.32920026779174805
v 2.0 -0.0504901260137558 0.32920026779174805
v 2.0 0.0649598240852356 0.38015016913414
v 2.0 -0.054141201078891754 0.43375280499458313
v 2.0 0.043183501809835434 0.43375277519226074
v 1.9024471044540405 -0.015450811013579369 0.699999988079071
v 1.9499999284744263 -0.04999995976686478 0.0
v 1.9024471044540405 -0.015450811944901943 0.0
v 1.9499999284744263 -0.04999995976686478 0.699999988079071
v 1.997552752494812 -0.015450814738869667 0.0
v 1.997552752494812 -0.015450814738869667 0.699999988079071
v 1.9793893098831177 0.04045089706778526 0.0
v 1.9793893098831177 0.040450893342494965 0.699999988079071
v 1.9206106662750244 0.040450893342494965 0.0
v 1.9206106662750244 0.040450893342494965 0.699999988079071
v 1.9024471044540405 -0.015450811944901943 0.0
v 1.9024471044540405 -0.015450811013579369 0.699999988079071
v 1.997552752494812 -0.015450814738869667 0.699999988079071
v 1.9206106662750244 0.040450893342494965 0.699999988079071
v 1.9793893098831177 0.040450893342494965 0.699999988079071
v 1.9024471044540405 -0.015450811013579369 0.699999988079071
v 1.9499999284744263 -0.04999995976686478 0.699999988079071
v 2.0 -0.05414118990302086 0.7258971929550171
v 1.902187466621399 0.00801052525639534 0.7080754637718201
v 2.0 0.008010529913008213 0.7080754637718201
v 1.902187466621399 -0.054141197353601456 0.7258971929550171
v 1.902187466621399 -0.09029655158519745 0.6722946166992188
v 2.0 -0.09029655158519745 0.6722946166992188
v 1.902187466621399 -0.0504901260137558 0.6213446855545044
v 2.0 -0.0504901148378849 0.6213446855545044
v 1.7190709114074707 0.008010519668459892 0.7080754637718201
v 1.7190709114074707 -0.054141197353601456 0.7258971929550171
v 1.7190709114074707 -0.0504901297390461 0.6213446855545044
v 1.7190709114074707 -0.09029655158519745 0.6722946166992188
v 1.902187466621399 0.00801052525639534 0.7080754637718201
v 2.0 0.006065344903618097 0.7007673978805542
v 2.0 0.008010529913008213 0.7080754637718201
v 1.902187466621399 0.006065339781343937 0.7007673978805542
v 1.7190709114074707 0.008010519668459892 0.7080754637718201
v 1.7190709114074707 0.0060653374530375 0.7007673978805542
v 1.902187466621399 -0.05132798105478287 0.7165951132774353
v 2.0 -0.08160741627216339 0.6728278994560242
v 2.0 -0.05132798105478287 0.7165951132774353
v 1.902187466621399 -0.08160741627216339 0.6728278994560242
v 2.0 -0.05063988268375397 0.6325464248657227
v 1.902187466621399 -0.05063988268375397 0.6325464248657227
v 1.7190710306167603 -0.05132798105478287 0.7165951132774353
v 1.7190710306167603 -0.08160741627216339 0.6728278994560242
v 1.7190710306167603 -0.050639886409044266 0.6325464248657227
v 1.902187466621399 -0.05063988268375397 0.6325464248657227
v 2.0 -0.0504901148378849 0.6213446855545044
v 2.0 -0.05063988268375397 0.6325464248657227
v 1.902187466621399 -0.0504901260137558 0.6213446855545044
v 1.7190710306167603 -0.050639886409044266 0.6325464248657227
v 1.7190709114074707 -0.0504901297390461 0.6213446855545044
v 1.902187466621399 -0.0504901297390461 0.32920026779174805
v 2.0 -0.07591750472784042 0.38015016913414
v 2.0 -0.0504901260137558 0.32920026779174805
v 1.902187466621399 -0.07591751217842102 0.38015016913414
v 2.0 -0.054141201078891754 0.43375280499458313
v 1.902187466621399 -0.05414120480418205 0.43375280499458313
v 1.7190709114074707 -0.0504901297390461 0.32920026779174805
v 1.7190709114074707 -0.07591751217842102 0.3801501393318176
v 1.7190709114074707 -0.05414120480418205 0.43375280499458313
v 1.902187466621399 0.06495983153581619 0.3801501393318176
v 2.0 0.03953240439295769 0.32920026779174805
v 2.0 0.0649598240852356 0.38015016913414
v 1.902187466621399 0.03953240439295769 0.32920026779174805
v 1.902187466621399 0.043183501809835434 0.43375274538993835
v 2.0 0.043183501809835434 0.43375277519226074
v 1.7190709114074707 0.06495983153581619 0.3801501393318176
v 1.7190709114074707 0.03953240439295769 0.32920026779174805
v 1.7190709114074707 0.04318350553512573 0.4337526857852936
v 1.902187466621399 -0.05414120480418205 0.43375280499458313
v 2.0 0.043183501809835434 0.43375277519226074
v 2.0 -0.054141201078891754 0.43375280499458313
v 1.902187466621399 0.043183501809835434 0.43375274538993835
v 1.7190709114074707 -0.05414120480418205 0.43375280499458313
v 1.7190709114074707 0.04318350553512573 0.4337526857852936
v 2.0 0.03813832998275757 0.7427651286125183
v 2.0 0.07084360718727112 0.6936585903167725
v 2.0 0.03640454262495041 0.734234094619751
v 2.0 0.08055684715509415 0.6939684748649597
v 2.0 0.04725625738501549 0.6385470628738403
v 2.0 0.040700722485780716 0.6423174142837524
v 2.0 -0.021378187462687492 0.7175018787384033
v 2.0 -0.010519356466829777 0.7147473096847534
v 2.0 0.03640454262495041 0.734234094619751
v 1.7809996604919434 0.07084361463785172 0.6936585903167725
v 1.7809996604919434 0.036404550075531006 0.7342341542243958
v 2.0 0.07084360718727112 0.6936585903167725
v 2.0 -0.010519356466829777 0.7147473096847534
v 1.7809996604919434 -0.010519351810216904 0.7147473692893982
v 1.902187466621399 0.08055684715509415 0.6939684748649597
v 2.0 0.04725625738501549 0.6385470628738403
v 2.0 0.08055684715509415 0.6939684748649597
v 1.902187466621399 0.04725625738501549 0.6385470628738403
v 1.902187466621399 0.03813832998275757 0.7427651286125183
v 2.0 0.03813832998275757 0.7427651286125183
v 1.902187466621399 -0.021378187462687492 0.7175018787384033
v 2.0 -0.021378187462687492 0.7175018787384033
v 1.7190709114074707 0.08055684715509415 0.6939684748649597
v 1.7190709114074707 0.04725625738501549 0.6385470628738403
v 1.7190709114074707 -0.021378187462687492 0.7175018787384033
v 1.7190709114074707 0.03813832998275757 0.7427651286125183
v 1.7500008344650269 -0.030927151441574097 0.6500003933906555
v 1.719071865081787 1.693926037660276e-06 3.8146970382513246e-07
v 1.719071865081787 1.693926037660276e-06 0.6500003933906555
v 1.7500008344650269 -0.030927151441574097 3.8146970382513246e-07
v 1.7809295654296875 1.7091034578697872e-06 0.650000274181366
v 1.7500008344650269 -0.030927151441574097 3.8146970382513246e-07
v 1.7500008344650269 -0.030927151441574097 0.6500003933906555
v 1.7809295654296875 1.7091034578697872e-06 3.8146970382513246e-07
v 1.7500008344650269 0.030930548906326294 0.6500003933906555
v 1.7809295654296875 1.7091034578697872e-06 3.8146970382513246e-07
v 1.7809295654296875 1.7091034578697872e-06 0.650000274181366
v 1.7500008344650269 0.030930548906326294 3.8146970382513246e-07
v 1.719071865081787 1.693926037660276e-06 0.6500003933906555
v 1.7500008344650269 0.030930548906326294 3.8146970382513246e-07
v 1.7500008344650269 0.030930548906326294 0.6500003933906555
v 1.719071865081787 1.693926037660276e-06 3.8146970382513246e-07
v 1.7809996604919434 0.07084361463785172 0.6936585903167725
v 2.0 0.040700722485780716 0.6423174142837524
v 1.7809996604919434 0.04070074111223221 0.6423174738883972
v 2.0 0.07084360718727112 0.6936585903167725
vn -1.0 0.0 0.0
vn -1.0 0.0 0.0
vn -1.0 0.0 0.0
vn -1.0 0.0 0.0
vn -1.0 0.0 0.0
vn -1.0 0.0 0.0
vn -1.0 0.0 0.0
vn -1.0 0.0 0.0
vn -1.0 0.0 0.0
vn -1.0 0.0 0.0
vn -1.0 0.0 0.0
vn -1.0 0.0 0.0
vn -1.0 0.0 0.0
vn -1.0 0.0 0.0
vn 0.9510564804077148 -0.3090170919895172 0.0
vn -0.0 -1.0 0.0
vn -0.0 -1.0 0.0
vn 0.9510565400123596 -0.3090170919895172 0.0
vn -0.9510564804077148 -0.3090171813964844 0.0
vn -0.9510564804077148 -0.3090171217918396 0.0
vn -0.5877854824066162 0.8090168237686157 0.0
vn -0.587785542011261 0.8090168237686157 0.0
vn 0.5877854824066162 0.8090168237686157 0.0
vn 0.587785542011261 0.8090168237686157 0.0
vn 0.9510565400123596 -0.3090170919895172 0.0
vn 0.9510564804077148 -0.3090170919895172 0.0
vn -0.0 0.0 1.0
vn -0.0 0.0 1.0
vn -0.0 0.0 1.0
vn -0.0 0.0 1.0
vn -0.0 0.0 1.0
vn -0.7071064114570618 -0.7071070671081543 0.0
vn -0.7071064114570618 -0.7071070671081543 0.0
vn -0.707106351852417 -0.7071071863174438 0.0
vn -0.707106351852417 -0.7071071863174438 0.0
vn 0.707107424736023 -0.7071060538291931 0.0
vn 0.707107424736023 -0.7071060538291931 0.0
vn 0.707107424736023 -0.7071060538291931 0.0
vn 0.707107424736023 -0.7071060538291931 0.0
vn 0.707106351852417 0.7071071863174438 0.0
vn 0.707106351852417 0.7071071863174438 0.0
vn 0.7071062922477722 0.7071072459220886 0.0
vn 0.7071062326431274 0.7071072459220886 0.0
vn -0.707107424736023 0.7071061134338379 0.0
vn -0.707107424736023 0.7071061134338379 0.0
vn -0.707107424736023 0.7071061134338379 0.0
vn -0.707107424736023 0.7071061134338379 0.0
vn -0.0 -0.3420203924179077 0.9396925568580627
vn -0.0 0.8699465990066528 0.49314597249031067
vn -0.0 -0.3420203924179077 0.9396925568580627
vn -0.0 0.8699467182159424 0.4931458532810211
vn -0.0 -0.9993908405303955 -0.03489970788359642
vn -0.0 -0.9993908405303955 -0.03489964082837105
vn -0.0 0.331880122423172 -0.9433215856552124
vn -1.0924924254140933e-07 0.3318811357021332 -0.943321168422699
vn -0.0 0.8699465990066528 0.4931459426879883
vn -0.0 -0.3420203626155853 0.9396925568580627
vn -0.0 0.8699467778205872 0.493145614862442
vn -0.0 -0.3420203924179077 0.9396925568580627
vn -0.0 -0.9993908405303955 -0.03489960730075836
vn -0.0 -0.9993908405303955 -0.03489971160888672
vn -0.0 -0.7880110144615173 -0.6156611442565918
vn -0.0 -0.427592396736145 -0.9039716124534607
vn -0.0 0.8699465990066528 0.49314597249031067
vn -0.0 0.966354250907898 -0.25721490383148193
vn -0.0 0.966354250907898 -0.25721487402915955
vn -0.0 0.8699467182159424 0.4931458532810211
vn -0.0 0.8699465990066528 0.4931459426879883
vn -0.0 0.966354250907898 -0.2572149336338043
vn -0.0 0.8699467778205872 0.493145614862442
vn -0.0 0.966354250907898 -0.25721466541290283
vn -0.0 0.8223764896392822 -0.5689436197280884
vn -0.0 0.9996851682662964 0.025092849507927895
vn -0.0 0.9996851682662964 0.025092849507927895
vn -0.0 0.8223764896392822 -0.5689436197280884
vn -0.0 0.9446105360984802 0.32819339632987976
vn -0.0 0.9446107149124146 0.32819291949272156
vn -0.0 0.8223764896392822 -0.5689436793327332
vn -0.0 0.9996851682662964 0.02509271912276745
vn -0.0 0.944610595703125 0.3281930685043335
vn -0.0 0.9446107149124146 0.32819291949272156
vn -1.0924924254140933e-07 0.3318811357021332 -0.943321168422699
vn -0.0 0.331880122423172 -0.9433215856552124
vn -0.0 0.9446105360984802 0.32819339632987976
vn -0.0 0.944610595703125 0.3281930685043335
vn -0.0 -0.427592396736145 -0.9039716124534607
vn -0.0 -0.8947610855102539 -0.44654515385627747
vn -0.0 -0.9992586970329285 -0.038497500121593475
vn -0.0 -0.9992586970329285 -0.038497503846883774
vn -0.0 -0.8947610855102539 -0.4465450942516327
vn -0.0 -0.9264652132987976 0.37638047337532043
vn -0.0 -0.9264652132987976 0.37638047337532043
vn -0.0 -0.8947610855102539 -0.446545273065567
vn -0.0 -0.9992586970329285 -0.03849750757217407
vn -0.0 -0.8947610855102539 -0.44654515385627747
vn -0.0 -0.9992586970329285 -0.03849749639630318
vn -0.0 -0.9264650940895081 0.37638047337532043
vn -0.0 -0.9264650940895081 0.3763805031776428
vn -0.0 0.9992586970329285 -0.03849770501255989
vn -1.52002925801753e-07 0.8947607278823853 -0.44654589891433716
vn -0.0 0.8947606086730957 -0.4465460479259491
vn -0.0 0.9992586970329285 -0.03849747031927109
vn -0.0 0.9264650344848633 0.3763810992240906
vn 1.4678900583930954e-07 0.9264650344848633 0.3763810992240906
vn -0.0 0.9992586970329285 -0.038497570902109146
vn -0.0 0.8947607278823853 -0.4465460479259491
vn -0.0 0.9992586970329285 -0.03849748894572258
vn -0.0 0.8947607278823853 -0.4465460181236267
vn -0.0 0.9264649152755737 0.3763812780380249
vn -0.0 0.9264649152755737 0.3763812780380249
vn -0.0 6.862342729618831e-07 1.0
vn 1.943798935144514e-07 5.873097848052566e-07 1.0
vn 2.2739463645393698e-07 8.448608355138276e-07 1.0
vn -0.0 3.91955694567514e-07 1.0
vn -0.0 1.1149173815283575e-06 1.0
vn 1.041604349438785e-07 1.1758669415939949e-06 1.0
vn -0.0 1.1758669415939949e-06 1.0
vn -0.0 1.1758670552808326e-06 1.0
vn -0.7071064114570618 -0.7071070671081543 0.0
vn -0.7071064114570618 -0.7071070671081543 0.0
vn -0.707106351852417 -0.7071071863174438 0.0
vn -0.707106351852417 -0.7071071863174438 0.0
vn 0.707107424736023 -0.7071060538291931 0.0
vn 0.707107424736023 -0.7071060538291931 0.0
vn 0.707107424736023 -0.7071060538291931 0.0
vn 0.707107424736023 -0.7071060538291931 0.0
vn 0.707106351852417 0.7071071863174438 0.0
vn 0.707106351852417 0.7071071863174438 0.0
vn 0.7071062922477722 0.7071072459220886 0.0
vn 0.7071062326431274 0.7071072459220886 0.0
vn -0.707107424736023 0.7071061134338379 0.0
vn -0.707107424736023 0.7071061134338379 0.0
vn -0.707107424736023 0.7071061134338379 0.0
vn -0.707107424736023 0.7071061134338379 0.0
vn -0.7071064114570618 -0.7071070671081543 0.0
vn -0.7071064114570618 -0.7071070671081543 0.0
vn -0.707106351852417 -0.7071071863174438 0.0
vn -0.707106351852417 -0.7071071863174438 0.0
vn 0.707107424736023 -0.7071060538291931 0.0
vn 0.707107424736023 -0.7071060538291931 0.0
vn 0.707107424736023 -0.7071060538291931 0.0
vn 0.707107424736023 -0.7071060538291931 0.0
vn 0.707106351852417 0.7071071863174438 0.0
vn 0.707106351852417 0.7071071863174438 0.0
vn 0.7071062922477722 0.7071072459220886 0.0
vn 0.7071062326431274 0.7071072459220886 0.0
vn -0.707107424736023 0.7071061134338379 0.0
vn -0.707107424736023 0.7071061134338379 0.0
vn -0.707107424736023 0.7071061134338379 0.0
vn -0.707107424736023 0.7071061134338379 0.0
vn -0.7071064114570618 -0.7071070671081543 0.0
vn -0.7071064114570618 -0.7071070671081543 0.0
vn -0.707106351852417 -0.7071071863174438 0.0
vn -0.707106351852417 -0.7071071863174438 0.0
vn 0.707107424736023 -0.7071060538291931 0.0
vn 0.707107424736023 -0.7071060538291931 0.0
vn 0.707107424736023 -0.7071060538291931 0.0
vn 0.707107424736023 -0.7071060538291931 0.0
vn 0.707106351852417 0.7071071863174438 0.0
vn 0.707106351852417 0.7071071863174438 0.0
vn 0.7071062922477722 0.7071072459220886 0.0
vn 0.7071062326431274 0.7071072459220886 0.0
vn -0.707107424736023 0.7071061134338379 0.0
vn -0.707107424736023 0.7071061134338379 0.0
vn -0.707107424736023 0.7071061134338379 0.0
vn -0.707107424736023 0.7071061134338379 0.0
vn -1.0 0.0 0.0
vn -1.0 0.0 0.0
vn -1.0 0.0 0.0
vn -1.0 0.0 0.0
vn -1.0 0.0 0.0
vn -1.0 0.0 0.0
vn -1.0 0.0 0.0
vn -1.0 0.0 0.0
vn -0.0 -0.9962661862373352 -0.08633507043123245
vn 3.401562764793198e-07 -0.23450152575969696 -0.972115695476532
vn 3.5328972103343403e-07 -0.23450151085853577 -0.972115695476532
vn -0.0 -0.9962661862373352 -0.08633469045162201
vn 3.0624400437773147e-07 0.383527547121048 -0.9235294461250305
vn 3.133827419787849e-07 0.3835274875164032 -0.9235295057296753
vn -0.0 0.99619460105896 0.08715710043907166
vn -0.0 0.85716712474823 -0.5150383114814758
vn -0.0 0.85716712474823 -0.5150383114814758
vn -0.0 0.99619460105896 0.08715710043907166
vn -0.0 0.2249499410390854 0.9743703603744507
vn -0.0 0.22494997084140778 0.9743703603744507
vn -0.0 -0.39073050022125244 0.9205051064491272
vn -0.0 -0.39073047041893005 0.9205051064491272
vn -0.0 0.99619460105896 0.087157242000103
vn -0.0 0.85716712474823 -0.5150383114814758
vn -0.0 0.99619460105896 0.08715714514255524
vn -0.0 0.85716712474823 -0.515038251876831
vn -0.0 0.2249499410390854 0.9743703603744507
vn -0.0 0.22494980692863464 0.9743703603744507
vn -0.0 -0.39073044061660767 0.9205051064491272
vn -0.0 -0.39073050022125244 0.9205051064491272
vn -0.0 -0.3420203924179077 0.9396925568580627
vn -0.0 0.8699464201927185 0.49314630031585693
vn -0.0 -0.3420203924179077 0.9396925568580627
vn -0.0 0.8699467778205872 0.493145614862442
vn -0.0 -0.9993908405303955 -0.03489949554204941
vn -0.0 -0.9993908405303955 -0.03489960730075836
vn -0.0 -0.7880110144615173 -0.6156611442565918
vn -0.0 -0.7880110144615173 -0.6156611442565918
vn -0.0 0.8699464201927185 0.49314630031585693
vn -0.0 0.966354250907898 -0.25721466541290283
vn -0.0 0.966354250907898 -0.25721463561058044
vn -0.0 0.8699467778205872 0.493145614862442
vn -0.0 -0.8947610855102539 -0.4465451240539551
vn -0.0 -0.9992586970329285 -0.03849749639630318
vn -0.0 -0.9992586970329285 -0.03849741443991661
vn -0.0 -0.8947610855102539 -0.44654515385627747
vn -0.0 -0.9264650940895081 0.3763805031776428
vn -0.0 -0.9264650940895081 0.37638047337532043
vn -0.0 0.9992586970329285 -0.0384976752102375
vn -0.0 0.8947607278823853 -0.4465460181236267
vn -0.0 0.8947607278823853 -0.4465460479259491
vn -0.0 0.9992586970329285 -0.03849748894572258
vn -0.0 0.9264649152755737 0.3763812780380249
vn -0.0 0.9264649152755737 0.3763812780380249
vn -0.0 1.1758670552808326e-06 1.0
vn -0.0 1.1758670552808326e-06 1.0
vn -0.0 1.1758670552808326e-06 1.0
vn -0.0 1.1758669415939949e-06 1.0
vn -0.0 0.99619460105896 0.08715709298849106
vn -0.0 0.85716712474823 -0.515038251876831
vn -0.0 0.85716712474823 -0.5150383114814758
vn -0.0 0.99619460105896 0.08715714514255524
vn -0.0 0.22494997084140778 0.9743703603744507
vn -0.0 0.2249499410390854 0.9743703603744507
vn -0.0 -0.39073044061660767 0.9205051064491272
vn -0.0 -0.39073044061660767 0.9205051064491272
vn -0.0 0.8699464201927185 0.49314630031585693
vn -0.0 0.9663543701171875 -0.2572145462036133
vn -0.0 0.8699465394020081 0.493146151304245
vn -0.0 0.966354250907898 -0.25721463561058044
vn -0.0 -0.7880110144615173 -0.6156611442565918
vn -0.0 -0.9993908405303955 -0.03489965945482254
vn -0.0 -0.4275977313518524 -0.9039691686630249
vn -0.0 -0.9993908405303955 -0.03489949554204941
vn -0.0 -0.3420203924179077 0.9396925568580627
vn -0.0 -0.3420203924179077 0.9396925568580627
vn -0.0 0.8699464201927185 0.49314630031585693
vn -0.0 0.8699465394020081 0.493146151304245
vn -0.0 -0.8947610855102539 -0.4465451240539551
vn -0.0 -0.9992586970329285 -0.03849784657359123
vn -0.0 -0.8947609663009644 -0.44654542207717896
vn -0.0 -0.9992586970329285 -0.03849741443991661
vn -0.0 -0.9264653325080872 0.37638023495674133
vn -0.0 -0.9264650940895081 0.37638047337532043
vn -0.0 0.9992586970329285 -0.0384976752102375
vn -0.0 0.8947606086730957 -0.4465460479259491
vn -0.0 0.9992586970329285 -0.038497570902109146
vn -0.0 0.8947607278823853 -0.4465460479259491
vn -0.0 0.9264649152755737 0.3763812780380249
vn -0.0 0.9264649152755737 0.3763812780380249
vn -0.0 1.1758670552808326e-06 1.0
vn -1.0416030704618606e-07 1.1758670552808326e-06 1.0
vn -0.0 1.1149173815283575e-06 1.0
vn -0.0 1.1758670552808326e-06 1.0
vn -0.0 0.99619460105896 0.08715709298849106
vn -0.0 0.85716712474823 -0.5150383710861206
vn -0.0 0.99619460105896 0.08715718984603882
vn -0.0 0.85716712474823 -0.5150383114814758
vn -0.0 0.22494997084140778 0.9743703603744507
vn -0.0 0.2249499261379242 0.9743703603744507
vn -0.0 -0.39073044061660767 0.9205051064491272
vn -0.0 -0.39073050022125244 0.9205051064491272
vn -0.7071064114570618 -0.7071070671081543 0.0
vn -0.7071064114570618 -0.7071070671081543 0.0
vn -0.707106351852417 -0.7071071863174438 0.0
vn -0.707106351852417 -0.7071071863174438 0.0
vn 0.707107424736023 -0.7071060538291931 0.0
vn 0.707107424736023 -0.7071060538291931 0.0
vn 0.707107424736023 -0.7071060538291931 0.0
vn 0.707107424736023 -0.7071060538291931 0.0
vn 0.707106351852417 0.7071071863174438 0.0
vn 0.707106351852417 0.7071071863174438 0.0
vn 0.7071062922477722 0.7071072459220886 0.0
vn 0.7071062326431274 0.7071072459220886 0.0
vn -0.707107424736023 0.7071061134338379 0.0
vn -0.707107424736023 0.7071061134338379 0.0
vn -0.707107424736023 0.7071061134338379 0.0
vn -0.707107424736023 0.7071061134338379 0.0
vn -0.7071055173873901 -0.7071080207824707 0.0
vn -0.7071055173873901 -0.7071080207824707 0.0
vn -0.7071055173873901 -0.7071080207824707 0.0
vn -0.7071055173873901 -0.7071080207824707 0.0
vn 0.707107424736023 -0.7071060538291931 0.0
vn 0.707107424736023 -0.7071060538291931 0.0
vn 0.707107424736023 -0.7071060538291931 0.0
vn 0.707107424736023 -0.7071060538291931 0.0
vn 0.7071071863174438 0.707106351852417 0.0
vn 0.7071070671081543 0.7071064114570618 0.0
vn 0.7071072459220886 0.7071062922477722 0.0
vn 0.7071071863174438 0.707106351852417 0.0
vn -0.7071056365966797 0.7071078419685364 0.0
vn -0.7071056365966797 0.7071078419685364 0.0
vn -0.7071056365966797 0.7071079015731812 0.0
vn -0.7071056365966797 0.7071079015731812 0.0
vn -0.0 -0.9962661862373352 -0.08633469045162201
vn -1.4808595949489245e-07 -0.8623583316802979 0.506298303604126
vn -1.012753614304529e-07 -0.8623582720756531 0.5062984824180603
vn -0.0 -0.9962661862373352 -0.08633507043123245
vn 1.0 0.0 0.0
vn 1.0 0.0 0.0
vn 1.0 0.0 0.0
vn 1.0 0.0 0.0
vn 1.0 0.0 0.0
vn 1.0 0.0 0.0
vn 1.0 0.0 0.0
vn 1.0 0.0 0.0
vn 1.0 0.0 0.0
vn 1.0 0.0 0.0
vn 1.0 0.0 0.0
vn 1.0 0.0 0.0
vn 1.0 0.0 0.0
vn 1.0 0.0 0.0
vn -0.9510562419891357 -0.30901771783828735 0.0
vn -0.0 -1.0 0.0
vn -0.9510563611984253 -0.30901768803596497 0.0
vn -0.0 -1.0 0.0
vn 0.9510562419891357 -0.30901777744293213 0.0
vn 0.9510562419891357 -0.30901771783828735 0.0
vn 0.5877859592437744 0.8090164065361023 0.0
vn 0.5877859592437744 0.8090164065361023 0.0
vn -0.5877860188484192 0.8090164065361023 0.0
vn -0.5877860188484192 0.8090164065361023 0.0
vn -0.9510563611984253 -0.30901768803596497 0.0
vn -0.9510562419891357 -0.30901771783828735 0.0
vn -0.0 0.0 1.0
vn -0.0 0.0 1.0
vn -0.0 0.0 1.0
vn -0.0 0.0 1.0
vn -0.0 0.0 1.0
vn -0.0 -0.3420202434062958 0.9396925568580627
vn -0.0 0.8699465394020081 0.4931460916996002
vn -0.0 0.8699467182159424 0.4931458532810211
vn -0.0 -0.3420203626155853 0.9396925568580627
vn -0.0 -0.9993908405303955 -0.03489964082837105
vn -0.0 -0.9993908405303955 -0.03489966318011284
vn -0.0 0.33188095688819885 -0.9433212876319885
vn 1.0924922833055462e-07 0.3318812847137451 -0.943321168422699
vn -0.0 0.8699465394020081 0.493146151304245
vn -0.0 -0.3420203924179077 0.9396925568580627
vn -0.0 -0.4275977313518524 -0.9039691686630249
vn -0.0 -0.9993908405303955 -0.03489965945482254
vn -0.0 0.8699465394020081 0.4931460916996002
vn -0.0 0.966354250907898 -0.2572149634361267
vn -0.0 0.8699467182159424 0.4931458532810211
vn -0.0 0.966354250907898 -0.2572149634361267
vn -0.0 0.8699465394020081 0.493146151304245
vn -0.0 0.9663543701171875 -0.2572145462036133
vn -0.0 0.8223764896392822 -0.5689436197280884
vn -0.0 0.9996851682662964 0.025092849507927895
vn -0.0 0.8223764896392822 -0.5689436197280884
vn -0.0 0.9996851682662964 0.025092795491218567
vn -0.0 0.9446105360984802 0.3281933069229126
vn -0.0 0.9446107149124146 0.32819294929504395
vn -0.0 0.8223764896392822 -0.5689436197280884
vn -0.0 0.9996851682662964 0.02509296126663685
vn -0.0 0.9446112513542175 0.3281913697719574
vn -0.0 0.9446107149124146 0.32819294929504395
vn 1.0924922833055462e-07 0.3318812847137451 -0.943321168422699
vn -0.0 0.9446105360984802 0.3281933069229126
vn -0.0 0.33188095688819885 -0.9433212876319885
vn -0.0 0.9446112513542175 0.3281913697719574
vn -0.0 -0.4275977313518524 -0.9039691686630249
vn -0.0 -0.8947610855102539 -0.4465451240539551
vn -0.0 -0.9992586970329285 -0.038497503846883774
vn -0.0 -0.8947610855102539 -0.4465450942516327
vn -0.0 -0.9992586970329285 -0.03849751502275467
vn -0.0 -0.9264650940895081 0.37638044357299805
vn -0.0 -0.9264652132987976 0.37638044357299805
vn -0.0 -0.8947609663009644 -0.44654542207717896
vn -0.0 -0.9992586970329285 -0.03849784657359123
vn -0.0 -0.9264653325080872 0.37638023495674133
vn -0.0 0.9992586970329285 -0.03849773108959198
vn 1.4468301401393546e-07 0.8947607278823853 -0.4465458393096924
vn -0.0 0.9992586970329285 -0.038497429341077805
vn -0.0 0.8947606086730957 -0.4465460479259491
vn -0.0 0.9264650344848633 0.3763810992240906
vn -1.4678900583930954e-07 0.9264650344848633 0.3763810992240906
vn -0.0 0.9992586970329285 -0.038497570902109146
vn -0.0 0.8947606086730957 -0.4465460479259491
vn -0.0 0.9264649152755737 0.3763812780380249
vn -0.0 6.862342729618831e-07 1.0
vn -1.9437986509274197e-07 5.873097848052566e-07 1.0
vn -0.0 3.91955694567514e-07 1.0
vn -2.2739460803222755e-07 8.448608923572465e-07 1.0
vn -0.0 1.1149173815283575e-06 1.0
vn -1.0416030704618606e-07 1.1758670552808326e-06 1.0
vn 1.0 0.0 0.0
vn 1.0 0.0 0.0
vn 1.0 0.0 0.0
vn 1.0 0.0 0.0
vn 1.0 0.0 0.0
vn 1.0 0.0 0.0
vn 1.0 0.0 0.0
vn 1.0 0.0 0.0
vn -2.3051897812820243e-07 -0.23449918627738953 -0.972116231918335
vn -0.0 -0.9962660670280457 -0.08633659780025482
vn -3.532898631419812e-07 -0.2344997227191925 -0.9721161723136902
vn -0.0 -0.9962659478187561 -0.0863371342420578
vn -3.0624400437773147e-07 0.3835274875164032 -0.9235294461250305
vn -3.1338277040049434e-07 0.3835274875164032 -0.9235295057296753
vn -0.0 0.99619460105896 0.08715712279081345
vn -0.0 0.85716712474823 -0.5150383710861206
vn -0.0 0.99619460105896 0.08715706318616867
vn -0.0 0.85716712474823 -0.5150383114814758
vn -0.0 0.224949911236763 0.9743703603744507
vn -0.0 0.2249498963356018 0.9743703603744507
vn -0.0 -0.3907304108142853 0.920505166053772
vn -0.0 -0.39073044061660767 0.9205051064491272
vn -0.0 0.99619460105896 0.08715718984603882
vn -0.0 0.85716712474823 -0.5150383710861206
vn -0.0 -0.39073050022125244 0.9205051064491272
vn -0.0 0.2249499261379242 0.9743703603744507
vn -0.7071055173873901 -0.7071080207824707 0.0
vn -0.7071055173873901 -0.7071080207824707 0.0
vn -0.7071055173873901 -0.7071080207824707 0.0
vn -0.7071055173873901 -0.7071080207824707 0.0
vn 0.7071091532707214 -0.7071043252944946 0.0
vn 0.707109272480011 -0.7071043252944946 0.0
vn 0.7071091532707214 -0.7071043252944946 0.0
vn 0.7071092128753662 -0.7071043252944946 0.0
vn 0.7071089148521423 0.7071045637130737 0.0
vn 0.7071089148521423 0.7071045637130737 0.0
vn 0.7071089744567871 0.7071045637130737 0.0
vn 0.7071089148521423 0.7071045637130737 0.0
vn -0.7071056365966797 0.7071078419685364 0.0
vn -0.7071056365966797 0.7071078419685364 0.0
vn -0.7071056365966797 0.7071079015731812 0.0
vn -0.7071056365966797 0.7071079015731812 0.0
vn -0.0 -0.9962660670280457 -0.08633659780025482
vn -0.0 -0.8623581528663635 0.5062986612319946
vn 1.0127558880412835e-07 -0.8623579740524292 0.5062990784645081
vn -0.0 -0.9962659478187561 -0.0863371342420578
vt 0.2666884958744049 0.5584200024604797
vt 0.262807160615921 0.5445939302444458
vt 0.2666884660720825 0.5450194478034973
vt 0.2628071904182434 0.5582078099250793
vt 0.2666884958744049 0.5294814109802246
vt 0.262807160615921 0.5294814109802246
vt 0.2666884660720825 0.5711576342582703
vt 0.262807160615921 0.5706409811973572
vt 0.2720649540424347 0.6375428438186646
vt 0.2593274712562561 0.6086804270744324
vt 0.2720649540424347 0.6023234724998474
vt 0.2593275010585785 0.6311860084533691
vt 0.28546562790870667 0.6320987343788147
vt 0.28546562790870667 0.6077675819396973
vt 0.2810887098312378 0.6863824129104614
vt 0.45608872175216675 0.6982706189155579
vt 0.2810887098312378 0.6982706189155579
vt 0.45608872175216675 0.6863824129104614
vt 0.45608872175216675 0.7101587653160095
vt 0.2810887098312378 0.7101587653160095
vt 0.45608869194984436 0.724134236574173
vt 0.2810887098312378 0.724134236574173
vt 0.45608869194984436 0.7388288676738739
vt 0.2810887098312378 0.7388288676738739
vt 0.45608869194984436 0.752804309129715
vt 0.2810887098312378 0.752804309129715
vt 0.26711320877075195 0.7290346920490265
vt 0.2810887098312378 0.7101587653160095
vt 0.2810887098312378 0.724134236574173
vt 0.25847601890563965 0.7171464562416077
vt 0.2671133279800415 0.705258309841156
vt 0.2937026023864746 0.6734461784362793
vt 0.45620256662368774 0.6811783909797668
vt 0.2937026023864746 0.6811783909797668
vt 0.45620256662368774 0.6734461784362793
vt 0.2937026023864746 0.6657139658927917
vt 0.45620256662368774 0.6734461784362793
vt 0.2937026023864746 0.6734461784362793
vt 0.45620256662368774 0.6657139658927917
vt 0.2937026023864746 0.6735714375972748
vt 0.45620256662368774 0.6657139658927917
vt 0.2937026023864746 0.6657139658927917
vt 0.45620256662368774 0.6735714375972748
vt 0.2937026023864746 0.6813036501407623
vt 0.45620256662368774 0.6735714375972748
vt 0.2937026023864746 0.6735714375972748
vt 0.45620256662368774 0.6813036501407623
vt 0.2666884660720825 0.5450194478034973
vt 0.2911416292190552 0.5294814109802246
vt 0.2911415696144104 0.5450194478034973
vt 0.2666884958744049 0.5294814109802246
vt 0.2911416292190552 0.5584200024604797
vt 0.2666884958744049 0.5584200024604797
vt 0.2911415696144104 0.5711576342582703
vt 0.2666884660720825 0.5711576342582703
vt 0.3369207978248596 0.5294815003871918
vt 0.33692073822021484 0.5450194776058197
vt 0.4618721306324005 0.5294816493988037
vt 0.4618721008300781 0.5450195074081421
vt 0.4618721604347229 0.5584200322628021
vt 0.33692073822021484 0.5584200024604797
vt 0.46187207102775574 0.5711577236652374
vt 0.33692070841789246 0.5711576640605927
vt 0.4921571612358093 0.5775662660598755
vt 0.5166102647781372 0.5718876123428345
vt 0.4921571612358093 0.5718876123428345
vt 0.5166102647781372 0.5775662660598755
vt 0.44637805223464966 0.5775662660598755
vt 0.44637805223464966 0.5718876123428345
vt 0.3214266002178192 0.5775662660598755
vt 0.3214266002178192 0.5718876123428345
vt 0.2911469340324402 0.5781404972076416
vt 0.2666938006877899 0.5890823006629944
vt 0.2911469340324402 0.5890823006629944
vt 0.2666938304901123 0.5781404972076416
vt 0.2666938006877899 0.599152684211731
vt 0.2911469340324402 0.599152684211731
vt 0.33692604303359985 0.5781404972076416
vt 0.33692604303359985 0.5890823006629944
vt 0.33692604303359985 0.599152684211731
vt 0.2910633385181427 0.5717313289642334
vt 0.2666102647781372 0.5774099826812744
vt 0.2910633683204651 0.5774099826812744
vt 0.2666102349758148 0.5717313289642334
vt 0.33684247732162476 0.5717312395572662
vt 0.33684250712394714 0.5774098932743073
vt 0.30991876125335693 0.6582368910312653
vt 0.28546562790870667 0.6454994082450867
vt 0.30991873145103455 0.6454994082450867
vt 0.28546562790870667 0.6582368612289429
vt 0.28546562790870667 0.6320987343788147
vt 0.30991873145103455 0.6320987343788147
vt 0.3556978106498718 0.6582369208335876
vt 0.3556978106498718 0.6454994082450867
vt 0.48064911365509033 0.6582368910312653
vt 0.48064908385276794 0.6454994082450867
vt 0.3556978106498718 0.6320987343788147
vt 0.48064908385276794 0.6320987343788147
vt 0.30991870164871216 0.6455431580543518
vt 0.28546565771102905 0.658280611038208
vt 0.30991876125335693 0.658280611038208
vt 0.2854655981063843 0.6455431580543518
vt 0.30991870164871216 0.6321425437927246
vt 0.2854655981063843 0.6321425437927246
vt 0.3556978106498718 0.6455431580543518
vt 0.3556978106498718 0.6582805514335632
vt 0.4806492328643799 0.645543098449707
vt 0.48064911365509033 0.6582805216312408
vt 0.48064911365509033 0.6321425437927246
vt 0.35569778084754944 0.632142573595047
vt 0.30991873145103455 0.6320987343788147
vt 0.28546562790870667 0.6077675819396973
vt 0.30991876125335693 0.6077675819396973
vt 0.28546562790870667 0.6320987343788147
vt 0.3556978106498718 0.6320987343788147
vt 0.3556978106498718 0.6077675819396973
vt 0.48064908385276794 0.6320987343788147
vt 0.4806491434574127 0.6077675819396973
vt 0.2937026023864746 0.6734461784362793
vt 0.45620256662368774 0.6811783909797668
vt 0.2937026023864746 0.6811783909797668
vt 0.45620256662368774 0.6734461784362793
vt 0.2937026023864746 0.6657139658927917
vt 0.45620256662368774 0.6734461784362793
vt 0.2937026023864746 0.6734461784362793
vt 0.45620256662368774 0.6657139658927917
vt 0.2937026023864746 0.6735714375972748
vt 0.45620256662368774 0.6657139658927917
vt 0.2937026023864746 0.6657139658927917
vt 0.45620256662368774 0.6735714375972748
vt 0.2937026023864746 0.6813036501407623
vt 0.45620256662368774 0.6735714375972748
vt 0.2937026023864746 0.6735714375972748
vt 0.45620256662368774 0.6813036501407623
vt 0.2937026023864746 0.6734461784362793
vt 0.45620256662368774 0.6811783909797668
vt 0.2937026023864746 0.6811783909797668
vt 0.45620256662368774 0.6734461784362793
vt 0.2937026023864746 0.6657139658927917
vt 0.45620256662368774 0.6734461784362793
vt 0.2937026023864746 0.6734461784362793
vt 0.45620256662368774 0.6657139658927917
vt 0.2937026023864746 0.6735714375972748
vt 0.45620256662368774 0.6657139658927917
vt 0.2937026023864746 0.6657139658927917
vt 0.45620256662368774 0.6735714375972748
vt 0.2937026023864746 0.6813036501407623
vt 0.45620256662368774 0.6735714375972748
vt 0.2937026023864746 0.6735714375972748
vt 0.45620256662368774 0.6813036501407623
vt 0.2937026023864746 0.6734461784362793
vt 0.45620256662368774 0.6811783909797668
vt 0.2937026023864746 0.6811783909797668
vt 0.45620256662368774 0.6734461784362793
vt 0.2937026023864746 0.6657139658927917
vt 0.45620256662368774 0.6734461784362793
vt 0.2937026023864746 0.6734461784362793
vt 0.45620256662368774 0.6657139658927917
vt 0.2937026023864746 0.6735714375972748
vt 0.45620256662368774 0.6657139658927917
vt 0.2937026023864746 0.6657139658927917
vt 0.45620256662368774 0.6735714375972748
vt 0.2937026023864746 0.6813036501407623
vt 0.45620256662368774 0.6735714375972748
vt 0.2937026023864746 0.6735714375972748
vt 0.45620256662368774 0.6813036501407623
vt 0.2666884958744049 0.5584200024604797
vt 0.262807160615921 0.5445939302444458
vt 0.2666884660720825 0.5450194478034973
vt 0.2628071904182434 0.5582078099250793
vt 0.2666884958744049 0.5294814109802246
vt 0.262807160615921 0.5294814109802246
vt 0.2666884660720825 0.5711576342582703
vt 0.262807160615921 0.5706409811973572
vt 0.3214438855648041 0.5781404972076416
vt 0.2666938006877899 0.5890823006629944
vt 0.3214438855648041 0.5890823006629944
vt 0.2666938304901123 0.5781404972076416
vt 0.2666938006877899 0.599152684211731
vt 0.3214438855648041 0.599152684211731
vt 0.2911415696144104 0.5450194478034973
vt 0.2666884958744049 0.5294814109802246
vt 0.2911416292190552 0.5294814109802246
vt 0.2666884660720825 0.5450194478034973
vt 0.2911416292190552 0.5584200024604797
vt 0.2666884958744049 0.5584200024604797
vt 0.2911415696144104 0.5711576342582703
vt 0.2666884660720825 0.5711576342582703
vt 0.33692073822021484 0.5450194776058197
vt 0.33692076802253723 0.5294815003871918
vt 0.4618721008300781 0.5450195074081421
vt 0.4618721306324005 0.5294816493988037
vt 0.4618721604347229 0.5584200322628021
vt 0.33692073822021484 0.5584200024604797
vt 0.46187207102775574 0.5711577236652374
vt 0.33692073822021484 0.5711576640605927
vt 0.33692073822021484 0.5450194776058197
vt 0.4618721306324005 0.5294816493988037
vt 0.4618721008300781 0.5450195074081421
vt 0.3369207978248596 0.5294815003871918
vt 0.4618721604347229 0.5584200322628021
vt 0.33692073822021484 0.5584200024604797
vt 0.46187207102775574 0.5711577236652374
vt 0.33692070841789246 0.5711576640605927
vt 0.3214266002178192 0.5775662660598755
vt 0.44637805223464966 0.5718876123428345
vt 0.3214266002178192 0.5718876123428345
vt 0.44637805223464966 0.5775662660598755
vt 0.48064911365509033 0.6582368910312653
vt 0.3556978106498718 0.6454994082450867
vt 0.48064908385276794 0.6454994082450867
vt 0.3556978106498718 0.6582369208335876
vt 0.3556978106498718 0.6320987343788147
vt 0.48064908385276794 0.6320987343788147
vt 0.4806492328643799 0.645543098449707
vt 0.3556978106498718 0.6582805514335632
vt 0.48064911365509033 0.6582805216312408
vt 0.3556978106498718 0.6455431580543518
vt 0.48064911365509033 0.6321425437927246
vt 0.35569778084754944 0.632142573595047
vt 0.48064908385276794 0.6320987343788147
vt 0.3556978106498718 0.6077675819396973
vt 0.4806491434574127 0.6077675819396973
vt 0.3556978106498718 0.6320987343788147
vt 0.4618721008300781 0.5450195074081421
vt 0.33692076802253723 0.5294815003871918
vt 0.4618721306324005 0.5294816493988037
vt 0.33692073822021484 0.5450194776058197
vt 0.4618721604347229 0.5584200322628021
vt 0.33692073822021484 0.5584200024604797
vt 0.46187207102775574 0.5711577236652374
vt 0.33692073822021484 0.5711576640605927
vt 0.44637805223464966 0.5775662660598755
vt 0.3367454707622528 0.5718876123428345
vt 0.3367454707622528 0.5775662660598755
vt 0.44637805223464966 0.5718876123428345
vt 0.33692070841789246 0.5711576640605927
vt 0.4465532898902893 0.5584200322628021
vt 0.44655320048332214 0.571157693862915
vt 0.33692073822021484 0.5584200024604797
vt 0.44655323028564453 0.5450195074081421
vt 0.33692073822021484 0.5450194776058197
vt 0.3369207978248596 0.5294815003871918
vt 0.4465532600879669 0.5294816493988037
vt 0.3556978106498718 0.6582369208335876
vt 0.46533021330833435 0.6454994082450867
vt 0.46533024311065674 0.6582368910312653
vt 0.3556978106498718 0.6454994082450867
vt 0.46533021330833435 0.6320987343788147
vt 0.3556978106498718 0.6320987343788147
vt 0.3556978106498718 0.6455431580543518
vt 0.46533024311065674 0.6582805216312408
vt 0.4653303623199463 0.645543098449707
vt 0.3556978106498718 0.6582805514335632
vt 0.35569778084754944 0.632142573595047
vt 0.46533024311065674 0.632142573595047
vt 0.3556978106498718 0.6320987343788147
vt 0.4653302729129791 0.6077675819396973
vt 0.46533021330833435 0.6320987343788147
vt 0.3556978106498718 0.6077675819396973
vt 0.33692073822021484 0.5450194776058197
vt 0.4465532600879669 0.5294816493988037
vt 0.44655323028564453 0.5450195074081421
vt 0.33692076802253723 0.5294815003871918
vt 0.33692073822021484 0.5584200024604797
vt 0.4465532898902893 0.5584200322628021
vt 0.33692073822021484 0.5711576640605927
vt 0.44655320048332214 0.571157693862915
vt 0.2937026023864746 0.6734461784362793
vt 0.45620256662368774 0.6811783909797668
vt 0.2937026023864746 0.6811783909797668
vt 0.45620256662368774 0.6734461784362793
vt 0.2937026023864746 0.6657139658927917
vt 0.45620256662368774 0.6734461784362793
vt 0.2937026023864746 0.6734461784362793
vt 0.45620256662368774 0.6657139658927917
vt 0.2937026023864746 0.6735714375972748
vt 0.45620256662368774 0.6657139658927917
vt 0.2937026023864746 0.6657139658927917
vt 0.45620256662368774 0.6735714375972748
vt 0.2937026023864746 0.6813036501407623
vt 0.45620256662368774 0.6735714375972748
vt 0.2937026023864746 0.6735714375972748
vt 0.45620256662368774 0.6813036501407623
vt 0.2937026023864746 0.6734461784362793
vt 0.45620256662368774 0.6811783909797668
vt 0.2937026023864746 0.6811783909797668
vt 0.45620256662368774 0.6734461784362793
vt 0.2937026023864746 0.6657139658927917
vt 0.45620256662368774 0.6734461784362793
vt 0.2937026023864746 0.6734461784362793
vt 0.45620256662368774 0.6657139658927917
vt 0.2937026023864746 0.6735714375972748
vt 0.45620256662368774 0.6657139658927917
vt 0.2937026023864746 0.6657139658927917
vt 0.45620256662368774 0.6735714375972748
vt 0.2937026023864746 0.6813036501407623
vt 0.45620256662368774 0.6735714375972748
vt 0.2937026023864746 0.6735714375972748
vt 0.45620256662368774 0.6813036501407623
vt 0.2666938006877899 0.5890823006629944
vt 0.3214438855648041 0.599152684211731
vt 0.2666938006877899 0.599152684211731
vt 0.3214438855648041 0.5890823006629944
vt 0.2666884958744049 0.5584200024604797
vt 0.262807160615921 0.5445939302444458
vt 0.2628071904182434 0.5582078099250793
vt 0.2666884660720825 0.5450194478034973
vt 0.2666884958744049 0.5294814109802246
vt 0.262807160615921 0.5294814109802246
vt 0.2666884660720825 0.5711576342582703
vt 0.262807160615921 0.5706409811973572
vt 0.2720649540424347 0.6375428438186646
vt 0.2593274712562561 0.6086804270744324
vt 0.2593275010585785 0.6311860084533691
vt 0.2720649540424347 0.6023234724998474
vt 0.28546562790870667 0.6320987343788147
vt 0.28546562790870667 0.6077675819396973
vt 0.2810887098312378 0.6863824129104614
vt 0.45608872175216675 0.6982706189155579
vt 0.45608872175216675 0.6863824129104614
vt 0.2810887098312378 0.6982706189155579
vt 0.45608872175216675 0.7101587653160095
vt 0.2810887098312378 0.7101587653160095
vt 0.45608869194984436 0.724134236574173
vt 0.2810887098312378 0.724134236574173
vt 0.45608869194984436 0.7388288676738739
vt 0.2810887098312378 0.7388288676738739
vt 0.45608869194984436 0.752804309129715
vt 0.2810887098312378 0.752804309129715
vt 0.2810887098312378 0.7101587653160095
vt 0.26711320877075195 0.7290346920490265
vt 0.2810887098312378 0.724134236574173
vt 0.25847601890563965 0.7171464562416077
vt 0.2671133279800415 0.705258309841156
vt 0.2666884660720825 0.5450194478034973
vt 0.2911416292190552 0.5294814109802246
vt 0.2666884958744049 0.5294814109802246
vt 0.2911415696144104 0.5450194478034973
vt 0.2911416292190552 0.5584200024604797
vt 0.2666884958744049 0.5584200024604797
vt 0.2911415696144104 0.5711576342582703
vt 0.2666884660720825 0.5711576342582703
vt 0.3369207978248596 0.5294815003871918
vt 0.33692073822021484 0.5450194776058197
vt 0.33692070841789246 0.5711576640605927
vt 0.33692073822021484 0.5584200024604797
vt 0.4921571612358093 0.5775662660598755
vt 0.5166102647781372 0.5718876123428345
vt 0.5166102647781372 0.5775662660598755
vt 0.4921571612358093 0.5718876123428345
vt 0.44637805223464966 0.5775662660598755
vt 0.44637805223464966 0.5718876123428345
vt 0.2911469340324402 0.5781404972076416
vt 0.2666938006877899 0.5890823006629944
vt 0.2666938304901123 0.5781404972076416
vt 0.2911469340324402 0.5890823006629944
vt 0.2666938006877899 0.599152684211731
vt 0.2911469340324402 0.599152684211731
vt 0.33692604303359985 0.5781404972076416
vt 0.33692604303359985 0.5890823006629944
vt 0.33692604303359985 0.599152684211731
vt 0.2910633385181427 0.5717313289642334
vt 0.2666102647781372 0.5774099826812744
vt 0.2666102349758148 0.5717313289642334
vt 0.2910633683204651 0.5774099826812744
vt 0.33684247732162476 0.5717312395572662
vt 0.33684250712394714 0.5774098932743073
vt 0.30991876125335693 0.6582368910312653
vt 0.28546562790870667 0.6454994082450867
vt 0.28546562790870667 0.6582368612289429
vt 0.30991873145103455 0.6454994082450867
vt 0.28546562790870667 0.6320987343788147
vt 0.30991873145103455 0.6320987343788147
vt 0.3556978106498718 0.6582369208335876
vt 0.3556978106498718 0.6454994082450867
vt 0.3556978106498718 0.6320987343788147
vt 0.30991870164871216 0.6455431580543518
vt 0.28546565771102905 0.658280611038208
vt 0.2854655981063843 0.6455431580543518
vt 0.30991876125335693 0.658280611038208
vt 0.30991870164871216 0.6321425437927246
vt 0.2854655981063843 0.6321425437927246
vt 0.3556978106498718 0.6455431580543518
vt 0.3556978106498718 0.6582805514335632
vt 0.35569778084754944 0.632142573595047
vt 0.30991873145103455 0.6320987343788147
vt 0.28546562790870667 0.6077675819396973
vt 0.28546562790870667 0.6320987343788147
vt 0.30991876125335693 0.6077675819396973
vt 0.3556978106498718 0.6320987343788147
vt 0.3556978106498718 0.6077675819396973
vt 0.2666884958744049 0.5584200024604797
vt 0.262807160615921 0.5445939302444458
vt 0.2628071904182434 0.5582078099250793
vt 0.2666884660720825 0.5450194478034973
vt 0.2666884958744049 0.5294814109802246
vt 0.262807160615921 0.5294814109802246
vt 0.2666884660720825 0.5711576342582703
vt 0.262807160615921 0.5706409811973572
vt 0.2666938006877899 0.5890823006629944
vt 0.3214438855648041 0.5781404972076416
vt 0.3214438855648041 0.5890823006629944
vt 0.2666938304901123 0.5781404972076416
vt 0.2666938006877899 0.599152684211731
vt 0.3214438855648041 0.599152684211731
vt 0.2911415696144104 0.5450194478034973
vt 0.2666884958744049 0.5294814109802246
vt 0.2666884660720825 0.5450194478034973
vt 0.2911416292190552 0.5294814109802246
vt 0.2911416292190552 0.5584200024604797
vt 0.2666884958744049 0.5584200024604797
vt 0.2911415696144104 0.5711576342582703
vt 0.2666884660720825 0.5711576342582703
vt 0.33692073822021484 0.5450194776058197
vt 0.33692076802253723 0.5294815003871918
vt 0.33692073822021484 0.5711576640605927
vt 0.33692073822021484 0.5584200024604797
vt 0.2937026023864746 0.6734461784362793
vt 0.45620256662368774 0.6811783909797668
vt 0.2937026023864746 0.6811783909797668
vt 0.45620256662368774 0.6734461784362793
vt 0.2937026023864746 0.6657139658927917
vt 0.45620256662368774 0.6734461784362793
vt 0.2937026023864746 0.6734461784362793
vt 0.45620256662368774 0.6657139658927917
vt 0.2937026023864746 0.6735714375972748
vt 0.45620256662368774 0.6657139658927917
vt 0.2937026023864746 0.6657139658927917
vt 0.45620256662368774 0.6735714375972748
vt 0.2937026023864746 0.6813036501407623
vt 0.45620256662368774 0.6735714375972748
vt 0.2937026023864746 0.6735714375972748
vt 0.45620256662368774 0.6813036501407623
vt 0.3214438855648041 0.5890823006629944
vt 0.2666938006877899 0.599152684211731
vt 0.3214438855648041 0.599152684211731
vt 0.2666938006877899 0.5890823006629944

g bg_mdl_wada_kaidou_tesuri_200
s 1
usemtl bg_mdl_wada_kaidou_tesuri_200
f 3/3/3 2/2/2 1/1/1 
f 4/4/4 1/1/1 2/2/2 
f 3/3/3 5/5/5 2/2/2 
f 6/6/6 2/2/2 5/5/5 
f 1/1/1 4/4/4 7/7/7 
f 8/8/8 7/7/7 4/4/4 
f 11/11/11 10/10/10 9/9/9 
f 12/12/12 9/9/9 10/10/10 
f 9/9/9 13/13/13 11/11/11 
f 14/14/14 11/11/11 13/13/13 
f 17/17/17 16/16/16 15/15/15 
f 18/18/18 15/15/15 16/16/16 
f 16/16/16 17/17/17 19/19/19 
f 20/20/20 19/19/19 17/17/17 
f 19/19/19 20/20/20 21/21/21 
f 22/22/22 21/21/21 20/20/20 
f 21/21/21 22/22/22 23/23/23 
f 24/24/24 23/23/23 22/22/22 
f 23/23/23 24/24/24 25/25/25 
f 26/26/26 25/25/25 24/24/24 
f 29/29/29 28/28/28 27/27/27 
f 28/28/28 30/30/30 27/27/27 
f 31/31/31 30/30/30 28/28/28 
f 34/34/34 33/33/33 32/32/32 
f 35/35/35 32/32/32 33/33/33 
f 38/38/38 37/37/37 36/36/36 
f 39/39/39 36/36/36 37/37/37 
f 42/42/42 41/41/41 40/40/40 
f 43/43/43 40/40/40 41/41/41 
f 46/46/46 45/45/45 44/44/44 
f 47/47/47 44/44/44 45/45/45 
f 50/50/50 49/49/49 48/48/48 
f 51/51/51 48/48/48 49/49/49 
f 50/50/50 48/48/48 52/52/52 
f 53/53/53 52/52/52 48/48/48 
f 52/52/52 53/53/53 54/54/54 
f 55/55/55 54/54/54 53/53/53 
f 49/49/49 50/50/50 56/56/56 
f 57/57/57 56/56/56 50/50/50 
f 56/56/56 57/57/57 58/58/58 
f 59/59/59 58/58/58 57/57/57 
f 59/59/59 57/57/57 60/60/60 
f 61/61/61 60/60/60 57/57/57 
f 57/57/57 50/50/50 61/61/61 
f 52/52/52 61/61/61 50/50/50 
f 60/60/60 61/61/61 62/62/62 
f 63/63/63 62/62/62 61/61/61 
f 61/61/61 52/52/52 63/63/63 
f 54/54/54 63/63/63 52/52/52 
f 66/66/66 65/65/65 64/64/64 
f 67/67/67 64/64/64 65/65/65 
f 64/64/64 68/68/68 66/66/66 
f 69/69/69 66/66/66 68/68/68 
f 68/68/68 70/70/70 69/69/69 
f 71/71/71 69/69/69 70/70/70 
f 74/74/74 73/73/73 72/72/72 
f 75/75/75 72/72/72 73/73/73 
f 73/73/73 74/74/74 76/76/76 
f 77/77/77 76/76/76 74/74/74 
f 72/72/72 78/78/78 74/74/74 
f 79/79/79 74/74/74 78/78/78 
f 74/74/74 79/79/79 77/77/77 
f 80/80/80 77/77/77 79/79/79 
f 83/83/83 82/82/82 81/81/81 
f 84/84/84 81/81/81 82/82/82 
f 81/81/81 85/85/85 83/83/83 
f 86/86/86 83/83/83 85/85/85 
f 89/89/89 88/88/88 87/87/87 
f 90/90/90 87/87/87 88/88/88 
f 88/88/88 89/89/89 91/91/91 
f 92/92/92 91/91/91 89/89/89 
f 87/87/87 93/93/93 89/89/89 
f 94/94/94 89/89/89 93/93/93 
f 89/89/89 94/94/94 92/92/92 
f 93/93/93 95/95/95 94/94/94 
f 96/96/96 94/94/94 95/95/95 
f 94/94/94 96/96/96 97/97/97 
f 97/97/97 92/92/92 94/94/94 
f 98/98/98 97/97/97 96/96/96 
f 101/101/101 100/100/100 99/99/99 
f 102/102/102 99/99/99 100/100/100 
f 99/99/99 102/102/102 103/103/103 
f 104/104/104 103/103/103 102/102/102 
f 99/99/99 105/105/105 101/101/101 
f 106/106/106 101/101/101 105/105/105 
f 105/105/105 107/107/107 106/106/106 
f 108/108/108 106/106/106 107/107/107 
f 107/107/107 105/105/105 109/109/109 
f 110/110/110 109/109/109 105/105/105 
f 105/105/105 99/99/99 110/110/110 
f 103/103/103 110/110/110 99/99/99 
f 113/113/113 112/112/112 111/111/111 
f 114/114/114 111/111/111 112/112/112 
f 111/111/111 115/115/115 113/113/113 
f 116/116/116 113/113/113 115/115/115 
f 115/115/115 117/117/117 116/116/116 
f 118/118/118 116/116/116 117/117/117 
f 121/121/121 120/120/120 119/119/119 
f 122/122/122 119/119/119 120/120/120 
f 125/125/125 124/124/124 123/123/123 
f 126/126/126 123/123/123 124/124/124 
f 129/129/129 128/128/128 127/127/127 
f 130/130/130 127/127/127 128/128/128 
f 133/133/133 132/132/132 131/131/131 
f 134/134/134 131/131/131 132/132/132 
f 137/137/137 136/136/136 135/135/135 
f 138/138/138 135/135/135 136/136/136 
f 141/141/141 140/140/140 139/139/139 
f 142/142/142 139/139/139 140/140/140 
f 145/145/145 144/144/144 143/143/143 
f 146/146/146 143/143/143 144/144/144 
f 149/149/149 148/148/148 147/147/147 
f 150/150/150 147/147/147 148/148/148 
f 153/153/153 152/152/152 151/151/151 
f 154/154/154 151/151/151 152/152/152 
f 157/157/157 156/156/156 155/155/155 
f 158/158/158 155/155/155 156/156/156 
f 161/161/161 160/160/160 159/159/159 
f 162/162/162 159/159/159 160/160/160 
f 165/165/165 164/164/164 163/163/163 
f 166/166/166 163/163/163 164/164/164 
f 169/169/169 168/168/168 167/167/167 
f 170/170/170 167/167/167 168/168/168 
f 169/169/169 171/171/171 168/168/168 
f 172/172/172 168/168/168 171/171/171 
f 167/167/167 170/170/170 173/173/173 
f 174/174/174 173/173/173 170/170/170 
f 177/177/177 176/176/176 175/175/175 
f 178/178/178 175/175/175 176/176/176 
f 176/176/176 177/177/177 179/179/179 
f 180/180/180 179/179/179 177/177/177 
f 183/183/183 182/182/182 181/181/181 
f 184/184/184 181/181/181 182/182/182 
f 181/181/181 184/184/184 185/185/185 
f 186/186/186 185/185/185 184/184/184 
f 185/185/185 186/186/186 187/187/187 
f 188/188/188 187/187/187 186/186/186 
f 181/181/181 189/189/189 183/183/183 
f 190/190/190 183/183/183 189/189/189 
f 189/189/189 191/191/191 190/190/190 
f 192/192/192 190/190/190 191/191/191 
f 191/191/191 189/189/189 193/193/193 
f 194/194/194 193/193/193 189/189/189 
f 189/189/189 181/181/181 194/194/194 
f 185/185/185 194/194/194 181/181/181 
f 193/193/193 194/194/194 195/195/195 
f 196/196/196 195/195/195 194/194/194 
f 194/194/194 185/185/185 196/196/196 
f 187/187/187 196/196/196 185/185/185 
f 199/199/199 198/198/198 197/197/197 
f 200/200/200 197/197/197 198/198/198 
f 199/199/199 197/197/197 201/201/201 
f 202/202/202 201/201/201 197/197/197 
f 201/201/201 202/202/202 203/203/203 
f 204/204/204 203/203/203 202/202/202 
f 207/207/207 206/206/206 205/205/205 
f 208/208/208 205/205/205 206/206/206 
f 211/211/211 210/210/210 209/209/209 
f 212/212/212 209/209/209 210/210/210 
f 210/210/210 211/211/211 213/213/213 
f 214/214/214 213/213/213 211/211/211 
f 217/217/217 216/216/216 215/215/215 
f 218/218/218 215/215/215 216/216/216 
f 215/215/215 218/218/218 219/219/219 
f 220/220/220 219/219/219 218/218/218 
f 223/223/223 222/222/222 221/221/221 
f 224/224/224 221/221/221 222/222/222 
f 227/227/227 226/226/226 225/225/225 
f 228/228/228 225/225/225 226/226/226 
f 225/225/225 228/228/228 229/229/229 
f 230/230/230 229/229/229 228/228/228 
f 229/229/229 230/230/230 231/231/231 
f 232/232/232 231/231/231 230/230/230 
f 235/235/235 234/234/234 233/233/233 
f 236/236/236 233/233/233 234/234/234 
f 239/239/239 238/238/238 237/237/237 
f 240/240/240 237/237/237 238/238/238 
f 238/238/238 241/241/241 240/240/240 
f 242/242/242 240/240/240 241/241/241 
f 242/242/242 241/241/241 243/243/243 
f 244/244/244 243/243/243 241/241/241 
f 247/247/247 246/246/246 245/245/245 
f 248/248/248 245/245/245 246/246/246 
f 246/246/246 249/249/249 248/248/248 
f 250/250/250 248/248/248 249/249/249 
f 253/253/253 252/252/252 251/251/251 
f 254/254/254 251/251/251 252/252/252 
f 251/251/251 255/255/255 253/253/253 
f 256/256/256 253/253/253 255/255/255 
f 259/259/259 258/258/258 257/257/257 
f 260/260/260 257/257/257 258/258/258 
f 263/263/263 262/262/262 261/261/261 
f 264/264/264 261/261/261 262/262/262 
f 261/261/261 265/265/265 263/263/263 
f 266/266/266 263/263/263 265/265/265 
f 265/265/265 267/267/267 266/266/266 
f 268/268/268 266/266/266 267/267/267 
f 271/271/271 270/270/270 269/269/269 
f 272/272/272 269/269/269 270/270/270 
f 275/275/275 274/274/274 273/273/273 
f 276/276/276 273/273/273 274/274/274 
f 279/279/279 278/278/278 277/277/277 
f 280/280/280 277/277/277 278/278/278 
f 283/283/283 282/282/282 281/281/281 
f 284/284/284 281/281/281 282/282/282 
f 287/287/287 286/286/286 285/285/285 
f 288/288/288 285/285/285 286/286/286 
f 291/291/291 290/290/290 289/289/289 
f 292/292/292 289/289/289 290/290/290 
f 295/295/295 294/294/294 293/293/293 
f 296/296/296 293/293/293 294/294/294 
f 299/299/299 298/298/298 297/297/297 
f 300/300/300 297/297/297 298/298/298 
f 303/303/303 302/302/302 301/301/301 
f 304/304/304 301/301/301 302/302/302 
f 307/307/307 306/306/306 305/305/305 
f 308/308/308 305/305/305 306/306/306 
f 308/308/308 306/306/306 309/309/309 
f 310/310/310 309/309/309 306/306/306 
f 305/305/305 311/311/311 307/307/307 
f 312/312/312 307/307/307 311/311/311 
f 315/315/315 314/314/314 313/313/313 
f 316/316/316 313/313/313 314/314/314 
f 313/313/313 316/316/316 317/317/317 
f 318/318/318 317/317/317 316/316/316 
f 321/321/321 320/320/320 319/319/319 
f 322/322/322 319/319/319 320/320/320 
f 320/320/320 323/323/323 322/322/322 
f 324/324/324 322/322/322 323/323/323 
f 323/323/323 325/325/325 324/324/324 
f 326/326/326 324/324/324 325/325/325 
f 325/325/325 327/327/327 326/326/326 
f 328/328/328 326/326/326 327/327/327 
f 327/327/327 329/329/329 328/328/328 
f 330/330/330 328/328/328 329/329/329 
f 333/333/333 332/332/332 331/331/331 
f 332/332/332 334/334/334 331/331/331 
f 334/334/334 335/335/335 331/331/331 
f 338/338/338 337/337/337 336/336/336 
f 339/339/339 336/336/336 337/337/337 
f 339/339/339 340/340/340 336/336/336 
f 341/341/341 336/336/336 340/340/340 
f 340/340/340 342/342/342 341/341/341 
f 343/343/343 341/341/341 342/342/342 
f 337/337/337 344/344/344 339/339/339 
f 345/345/345 339/339/339 344/344/344 
f 342/342/342 340/340/340 346/346/346 
f 347/347/347 346/346/346 340/340/340 
f 340/340/340 339/339/339 347/347/347 
f 345/345/345 347/347/347 339/339/339 
f 350/350/350 349/349/349 348/348/348 
f 351/351/351 348/348/348 349/349/349 
f 348/348/348 351/351/351 352/352/352 
f 353/353/353 352/352/352 351/351/351 
f 356/356/356 355/355/355 354/354/354 
f 357/357/357 354/354/354 355/355/355 
f 355/355/355 358/358/358 357/357/357 
f 359/359/359 357/357/357 358/358/358 
f 354/354/354 357/357/357 360/360/360 
f 361/361/361 360/360/360 357/357/357 
f 357/357/357 359/359/359 361/361/361 
f 362/362/362 361/361/361 359/359/359 
f 365/365/365 364/364/364 363/363/363 
f 366/366/366 363/363/363 364/364/364 
f 363/363/363 366/366/366 367/367/367 
f 368/368/368 367/367/367 366/366/366 
f 371/371/371 370/370/370 369/369/369 
f 372/372/372 369/369/369 370/370/370 
f 370/370/370 373/373/373 372/372/372 
f 374/374/374 372/372/372 373/373/373 
f 369/369/369 372/372/372 375/375/375 
f 376/376/376 375/375/375 372/372/372 
f 372/372/372 374/374/374 376/376/376 
f 377/377/377 376/376/376 374/374/374 
f 380/380/380 379/379/379 378/378/378 
f 381/381/381 378/378/378 379/379/379 
f 378/378/378 382/382/382 380/380/380 
f 383/383/383 380/380/380 382/382/382 
f 378/378/378 381/381/381 384/384/384 
f 385/385/385 384/384/384 381/381/381 
f 382/382/382 378/378/378 386/386/386 
f 384/384/384 386/386/386 378/378/378 
f 389/389/389 388/388/388 387/387/387 
f 390/390/390 387/387/387 388/388/388 
f 387/387/387 390/390/390 391/391/391 
f 392/392/392 391/391/391 390/390/390 
f 395/395/395 394/394/394 393/393/393 
f 396/396/396 393/393/393 394/394/394 
f 396/396/396 394/394/394 397/397/397 
f 398/398/398 397/397/397 394/394/394 
f 393/393/393 399/399/399 395/395/395 
f 400/400/400 395/395/395 399/399/399 
f 403/403/403 402/402/402 401/401/401 
f 404/404/404 401/401/401 402/402/402 
f 401/401/401 405/405/405 403/403/403 
f 406/406/406 403/403/403 405/405/405 
f 409/409/409 408/408/408 407/407/407 
f 410/410/410 407/407/407 408/408/408 
f 407/407/407 411/411/411 409/409/409 
f 412/412/412 409/409/409 411/411/411 
f 411/411/411 413/413/413 412/412/412 
f 414/414/414 412/412/412 413/413/413 
f 407/407/407 410/410/410 415/415/415 
f 416/416/416 415/415/415 410/410/410 
f 413/413/413 411/411/411 417/417/417 
f 418/418/418 417/417/417 411/411/411 
f 411/411/411 407/407/407 418/418/418 
f 415/415/415 418/418/418 407/407/407 
f 421/421/421 420/420/420 419/419/419 
f 422/422/422 419/419/419 420/420/420 
f 425/425/425 424/424/424 423/423/423 
f 426/426/426 423/423/423 424/424/424 
f 429/429/429 428/428/428 427/427/427 
f 430/430/430 427/427/427 428/428/428 
f 433/433/433 432/432/432 431/431/431 
f 434/434/434 431/431/431 432/432/432 
f 437/437/437 436/436/436 435/435/435 
f 438/438/438 435/435/435 436/436/436 

