v -7.0 -6.0 -3.814697180359872e-08
v -8.0 -7.0 -3.814697180359872e-08
v -8.0 -6.0 -3.814697180359872e-08
v -7.0 -7.0 -3.814697180359872e-08
v -7.0 -5.0 -3.814697180359872e-08
v -8.0 -5.0 -3.814697180359872e-08
v -7.0 -4.0 -3.814697180359872e-08
v -8.0 -4.0 -3.814697180359872e-08
v -7.0 -3.0 -3.814697180359872e-08
v -8.0 -3.0 -3.814697180359872e-08
v -7.0 -2.0 -3.814697180359872e-08
v -8.0 -2.0 -3.814697180359872e-08
v -7.0 -1.0 -3.814697180359872e-08
v -8.0 -1.0 -3.814697180359872e-08
v -7.0 0.0 -3.814697180359872e-08
v -8.0 0.0 -3.814697180359872e-08
v -7.0 1.0 -3.814697180359872e-08
v -8.0 1.0 -3.814697180359872e-08
v -7.0 2.0 -3.814697180359872e-08
v -8.0 2.0 -3.814697180359872e-08
v -7.0 3.0 -3.814697180359872e-08
v -8.0 3.0 -3.814697180359872e-08
v -7.0 4.0 -3.814697180359872e-08
v -8.0 4.0 -3.814697180359872e-08
v -7.0 5.0 -3.814697180359872e-08
v -8.0 5.0 -3.814697180359872e-08
v -7.0 6.0 -3.814697180359872e-08
v -8.0 6.0 -3.814697180359872e-08
v -7.0 7.0 -3.814697180359872e-08
v -8.0 7.0 -3.814697180359872e-08
v -8.0 8.0 -3.814697180359872e-08
v -7.0 8.0 -3.814697180359872e-08
v -6.0 1.0 -3.814697180359872e-08
v -6.0 0.0 -3.814697180359872e-08
v -5.0 1.0 -3.814697180359872e-08
v -5.0 0.0 -3.814697180359872e-08
v -6.0 -1.0 -3.814697180359872e-08
v -5.0 -1.0 -3.814697180359872e-08
v -6.0 -2.0 -3.814697180359872e-08
v -5.0 -2.0 -3.814697180359872e-08
v -6.0 -3.0 -3.814697180359872e-08
v -5.0 -3.0 -3.814697180359872e-08
v -6.0 -4.0 -3.814697180359872e-08
v -5.0 -4.0 -3.814697180359872e-08
v -6.0 -5.0 -3.814697180359872e-08
v -5.0 -5.0 -3.814697180359872e-08
v -6.0 -6.0 -3.814697180359872e-08
v -5.0 -6.0 -3.814697180359872e-08
v -6.0 -7.0 -3.814697180359872e-08
v -5.0 -7.0 -3.814697180359872e-08
v -4.0 -6.0 -3.814697180359872e-08
v -4.0 -7.0 -3.814697180359872e-08
v -3.0 -6.0 -3.814697180359872e-08
v -3.0 -7.0 -3.814697180359872e-08
v -4.0 -5.0 -3.814697180359872e-08
v -3.0 -5.0 -3.814697180359872e-08
v -4.0 -4.0 -3.814697180359872e-08
v -3.0 -4.0 -3.814697180359872e-08
v -4.0 -3.0 -3.814697180359872e-08
v -3.0 -3.0 -3.814697180359872e-08
v -4.0 -2.0 -3.814697180359872e-08
v -3.0 -2.0 -3.814697180359872e-08
v -4.0 -1.0 -3.814697180359872e-08
v -3.0 -1.0 -3.814697180359872e-08
v -4.0 0.0 -3.814697180359872e-08
v -3.0 0.0 -3.814697180359872e-08
v -4.0 1.0 -3.814697180359872e-08
v -3.0 1.0 -3.814697180359872e-08
v -4.0 2.0 -3.814697180359872e-08
v -5.0 2.0 -3.814697180359872e-08
v -6.0 2.0 -3.814697180359872e-08
v -3.0 2.0 -3.814697180359872e-08
v -5.0 3.0 -3.814697180359872e-08
v -6.0 3.0 -3.814697180359872e-08
v -4.0 3.0 -3.814697180359872e-08
v -3.0 3.0 -3.814697180359872e-08
v -5.0 4.0 -3.814697180359872e-08
v -6.0 4.0 -3.814697180359872e-08
v -4.0 4.0 -3.814697180359872e-08
v -3.0 4.0 -3.814697180359872e-08
v -5.0 5.0 -3.814697180359872e-08
v -6.0 5.0 -3.814697180359872e-08
v -4.0 5.0 -3.814697180359872e-08
v -3.0 5.0 -3.814697180359872e-08
v -5.0 6.0 -3.814697180359872e-08
v -6.0 6.0 -3.814697180359872e-08
v -4.0 6.0 -3.814697180359872e-08
v -3.0 6.0 -3.814697180359872e-08
v -5.0 7.0 -3.814697180359872e-08
v -6.0 7.0 -3.814697180359872e-08
v -4.0 7.0 -3.814697180359872e-08
v -3.0 7.0 -3.814697180359872e-08
v -5.0 8.0 -3.814697180359872e-08
v -6.0 8.0 -3.814697180359872e-08
v -4.0 8.0 -3.814697180359872e-08
v -3.0 8.0 -3.814697180359872e-08
v 6.0 -6.0 -3.814697180359872e-08
v 5.0 -7.0 -3.814697180359872e-08
v 5.0 -6.0 0.04288814589381218
v 6.0 -7.0 -3.814697180359872e-08
v 7.0 -6.0 -3.814697180359872e-08
v 7.0 -7.0 -3.814697180359872e-08
v 6.0 -5.0 -3.814697180359872e-08
v 5.0 -4.950786113739014 0.08173336088657379
v 7.0 -5.0 -3.814697180359872e-08
v 6.0 -4.0 -3.814697180359872e-08
v 5.0 -4.0 0.08173336088657379
v 7.0 -4.0 -3.814697180359872e-08
v 6.0 -3.0 0.08173336088657379
v 5.0 -3.0 0.14644894003868103
v 4.0 -4.0 0.4620019495487213
v 4.0 -3.0 0.5
v 3.0 -4.0 0.5
v 3.0 -3.0 0.5
v 2.0 -4.0 0.43050047755241394
v 2.0 -3.0 0.43050047755241394
v 1.0 -4.0 0.09165526926517487
v 1.0 -3.0 0.0
v 7.0 -3.0 0.08173336088657379
v 2.0 -2.0 0.43050047755241394
v 1.0 -2.0 -3.814697180359872e-08
v 3.0 -2.0 0.5
v 4.0 -2.0 0.5
v 5.0 -2.0 0.5
v 6.0 -2.0 0.5
v 7.0 -2.0 0.5
v 2.0 -1.0 0.43050047755241394
v 1.0 -1.0 -3.814697180359872e-08
v 3.0 -1.0 0.5
v 4.0 -1.0 0.5
v 5.0 -1.0 0.5
v 6.0 -1.0 0.5
v 7.0 -1.0 0.5
v 2.0 0.0 0.43050047755241394
v 1.0 0.0 -3.814697180359872e-08
v 3.0 0.0 0.5
v 4.0 0.0 0.5
v 5.0 0.0 0.5
v 6.0 0.0 0.5
v 7.0 0.0 0.5
v 2.0 1.0 0.43050047755241394
v 1.0 1.0 -3.814697180359872e-08
v 3.0 1.0 0.5
v 4.0 1.0 0.5
v 5.0 1.0 0.5
v 6.0 1.0 0.5
v 7.0 1.0 0.5
v 2.0 2.0 0.43050047755241394
v 1.0 2.0 -3.814697180359872e-08
v 3.0 2.0 0.5
v 4.0 2.0 0.5
v 5.0 2.0 0.5
v 6.0 2.0 0.5
v 7.0 2.0 0.5
v 2.0 3.0 0.43050047755241394
v 1.0 3.0 -3.814697180359872e-08
v 3.0 3.0 0.5
v 4.0 3.0 0.5
v 5.0 3.0 0.5
v 6.0 3.0 0.5
v 7.0 3.0 0.5
v 2.0 4.0 0.43050047755241394
v 1.0 4.0 -3.814697180359872e-08
v 3.0 4.0 0.5
v 4.0 4.0 0.5
v 5.0 4.0 0.5
v 6.0 4.0 0.5
v 7.0 4.0 0.5
v 6.0 5.0 0.5
v 5.0 5.0 0.5
v 7.0 5.0 0.5
v 6.0 6.0 0.5
v 5.0 6.0 0.5
v 7.0 6.0 0.5
v 6.0 7.0 0.5
v 5.0 7.0 0.5
v 7.0 7.0 0.5
v 6.0 8.0 0.5
v 5.0 8.0 0.5
v 7.0 8.0 0.5
v -2.586916446685791 -7.0 -0.10176639258861542
v -3.0 -6.0 -3.814697180359872e-08
v -2.586916446685791 -6.0 -0.10176639258861542
v -3.0 -7.0 -3.814697180359872e-08
v -3.0 -5.0 -3.814697180359872e-08
v -2.586916446685791 -5.0 -0.10176639258861542
v -2.5386931896209717 -4.338251113891602 -0.10176639258861542
v -3.0 -4.0 -3.814697180359872e-08
v -2.0 -4.0 -3.814697180359872e-08
v -2.173832893371582 -7.0 -0.20353275537490845
v -2.1138505935668945 -6.0 -0.20353275537490845
v -2.173832893371582 -5.0 -0.20353275537490845
v -2.0773863792419434 -4.676502704620361 -0.20353275537490845
v -1.7425727844238281 -4.477978229522705 -0.20353275537490845
v -1.5 -3.0 -0.20353275537490845
v -2.0 -3.0 -0.059802282601594925
v -1.5 -4.0 -0.20353275537490845
v -1.41258704662323 -2.0 -0.20353275537490845
v -2.0 -2.0 -0.059802282601594925
v -1.41258704662323 -1.0 -0.20353275537490845
v -2.0 -1.0 -0.059802282601594925
v -1.5 0.0 -0.20353275537490845
v -2.0 0.0 -3.814697180359872e-08
v 1.0 -6.0 -3.814697180359872e-08
v -0.0 -7.0 -0.0622827522456646
v -0.0 -6.0 -0.0622827522456646
v 1.0 -7.0 -3.814697180359872e-08
v 1.0 -5.0 0.09165526926517487
v -0.0 -5.0 -0.0622827522456646
v 1.0 -4.0 0.09165526926517487
v -0.0 -4.0 -0.0622827522456646
v 1.0 -3.0 0.0
v -0.0 -3.0 -0.0622827522456646
v 1.0 -2.0 -3.814697180359872e-08
v -0.0 -2.0 -0.0622827522456646
v 1.0 -1.0 -3.814697180359872e-08
v -0.0 -1.0 -0.0622827522456646
v 1.0 0.0 -3.814697180359872e-08
v -0.0 0.0 -3.814697180359872e-08
v 1.0 1.0 -3.814697180359872e-08
v -0.0 1.0 -3.814697180359872e-08
v 1.0 2.0 -3.814697180359872e-08
v -0.0 2.0 -3.814697180359872e-08
v 1.0 3.0 -3.814697180359872e-08
v -0.0 3.0 -3.814697180359872e-08
v 1.0 4.0 -3.814697180359872e-08
v -0.0 4.0 -3.814697180359872e-08
v 1.0 5.0 -3.814697180359872e-08
v -0.0 5.0 -3.814697180359872e-08
v 1.0 6.0 -3.814697180359872e-08
v -0.0 6.0 -3.814697180359872e-08
v 1.0 7.0 -3.814697180359872e-08
v -0.0 7.0 -3.814697180359872e-08
v 1.0 8.0 -3.814697180359872e-08
v -0.0 8.0 -3.814697180359872e-08
v -2.0 -3.0 -0.059802282601594925
v -3.0 -4.0 -3.814697180359872e-08
v -3.0 -3.0 -3.814697180359872e-08
v -2.0 -4.0 -3.814697180359872e-08
v -2.0 -2.0 -0.059802282601594925
v -3.0 -2.0 -3.814697180359872e-08
v -2.0 -1.0 -0.059802282601594925
v -3.0 -1.0 -3.814697180359872e-08
v -2.0 0.0 -3.814697180359872e-08
v -3.0 0.0 -3.814697180359872e-08
v -1.5 -4.0 -0.20353275537490845
v -1.7425727844238281 -4.477978229522705 -0.20353275537490845
v -2.0 3.0 -3.814697180359872e-08
v -3.0 2.0 -3.814697180359872e-08
v -3.0 3.0 -3.814697180359872e-08
v -2.259758949279785 2.0 -3.814697180359872e-08
v -2.0 4.0 -3.814697180359872e-08
v -3.0 4.0 -3.814697180359872e-08
v -2.0 5.0 -3.814697180359872e-08
v -3.0 5.0 -3.814697180359872e-08
v -2.0 6.0 -3.814697180359872e-08
v -3.0 6.0 -3.814697180359872e-08
v -2.0 7.0 -3.814697180359872e-08
v -3.0 7.0 -3.814697180359872e-08
v -2.0 8.0 -3.814697180359872e-08
v -3.0 8.0 -3.814697180359872e-08
v -1.5 3.0 -0.20353275537490845
v -2.259758949279785 2.0 -3.814697180359872e-08
v -2.0 3.0 -3.814697180359872e-08
v -1.7597588300704956 2.0 -0.20353275537490845
v -1.5 4.0 -0.20353275537490845
v -2.0 4.0 -3.814697180359872e-08
v -1.5790263414382935 5.0 -0.20353275537490845
v -2.0 5.0 -3.814697180359872e-08
v -1.5 6.0 -0.20353275537490845
v -2.0 6.0 -3.814697180359872e-08
v -1.5 7.0 -0.20353275537490845
v -2.0 7.0 -3.814697180359872e-08
v -2.0 8.0 -3.814697180359872e-08
v -1.5 8.0 -0.20353275537490845
v -0.458656907081604 -6.0 -0.20353275537490845
v -0.0 -7.0 -0.0622827522456646
v -0.5 -7.0 -0.20353348553180695
v -0.0 -6.0 -0.0622827522456646
v -0.5 -5.0 -0.20353275537490845
v -0.0 -5.0 -0.0622827522456646
v -0.43568480014801025 -4.0 -0.20353275537490845
v -0.0 -4.0 -0.0622827522456646
v -0.5 -3.0 -0.20353275537490845
v -0.0 -3.0 -0.0622827522456646
v -0.41258710622787476 -2.0 -0.20353275537490845
v -0.0 -2.0 -0.0622827522456646
v -0.41258710622787476 -1.0 -0.20353275537490845
v -0.0 -1.0 -0.0622827522456646
v -0.5 0.0 -0.20353275537490845
v -0.0 0.0 -3.814697180359872e-08
v -0.44494330883026123 3.0 -0.20353275537490845
v -0.0 2.0 -3.814697180359872e-08
v -0.5 2.0 -0.20353275537490845
v -0.0 3.0 -3.814697180359872e-08
v -0.5 4.0 -0.20353275537490845
v -0.0 4.0 -3.814697180359872e-08
v -0.4742353856563568 5.0 -0.20353275537490845
v -0.0 5.0 -3.814697180359872e-08
v -0.5 6.0 -0.20353275537490845
v -0.0 6.0 -3.814697180359872e-08
v -0.4364141821861267 7.0 -0.20353275537490845
v -0.0 7.0 -3.814697180359872e-08
v -0.5 8.0 -0.20353275537490845
v -0.0 8.0 -3.814697180359872e-08
v 2.0 -6.0 0.07696285098791122
v 1.0 -7.0 -3.814697180359872e-08
v 1.0 -6.0 -3.814697180359872e-08
v 2.0 -7.0 -3.814697180359872e-08
v 3.0 -6.0 0.07696285098791122
v 3.0 -7.0 -3.814697180359872e-08
v 4.0 -6.0 0.08245113492012024
v 4.0 -7.0 -3.814697180359872e-08
v 2.0 -5.0 0.43050047755241394
v 1.0 -5.0 0.09165526926517487
v 3.0 -5.0 0.5
v 4.0 -5.0 0.4620019495487213
v 4.5392913818359375 -5.539291858673096 0.19044756889343262
v 2.0 5.0 0.43050047755241394
v 1.0 5.0 -3.814697180359872e-08
v 3.0 5.0 0.5
v 4.0 5.0 0.5
v 2.0 6.0 0.43050047755241394
v 1.0 6.0 -3.814697180359872e-08
v 3.0 6.0 0.5
v 4.0 6.0 0.5
v 2.0 7.0 0.43050047755241394
v 1.0 7.0 -3.814697180359872e-08
v 3.0 7.0 0.5
v 4.0 7.0 0.5
v 2.0 8.0 0.43050047755241394
v 1.0 8.0 -3.814697180359872e-08
v 3.0 8.0 0.5
v 4.0 8.0 0.5
v -8.0 -6.0 -1.9999996423721313
v -8.0 -7.0 -3.814697180359872e-08
v -8.0 -7.0 -1.9999996423721313
v -8.0 -6.0 -3.814697180359872e-08
v -8.0 -5.0 -1.9999996423721313
v -8.0 -5.0 -3.814697180359872e-08
v -8.0 -4.0 -1.9999996423721313
v -8.0 -4.0 -3.814697180359872e-08
v -8.0 -3.0 -1.9999996423721313
v -8.0 -3.0 -3.814697180359872e-08
v -8.0 -2.0 -1.9999996423721313
v -8.0 -2.0 -3.814697180359872e-08
v -8.0 -1.0 -1.9999996423721313
v -8.0 -1.0 -3.814697180359872e-08
v -8.0 0.0 -1.9999996423721313
v -8.0 0.0 -3.814697180359872e-08
v -8.0 1.0 -1.9999996423721313
v -8.0 1.0 -3.814697180359872e-08
v -8.0 2.0 -1.9999996423721313
v -8.0 2.0 -3.814697180359872e-08
v -8.0 3.0 -1.9999996423721313
v -8.0 3.0 -3.814697180359872e-08
v -8.0 4.0 -1.9999996423721313
v -8.0 4.0 -3.814697180359872e-08
v -8.0 5.0 -1.9999996423721313
v -8.0 5.0 -3.814697180359872e-08
v -8.0 6.0 -1.9999996423721313
v -8.0 6.0 -3.814697180359872e-08
v -8.0 7.0 -1.9999996423721313
v -8.0 7.0 -3.814697180359872e-08
v -8.0 8.0 -1.9999996423721313
v -8.0 8.0 -3.814697180359872e-08
v -8.0 -7.0 -1.9999996423721313
v -7.0 -7.0 -3.814697180359872e-08
v -7.0 -7.0 -1.9999996423721313
v -8.0 -7.0 -3.814697180359872e-08
v -6.0 -7.0 -3.814697180359872e-08
v -6.0 -7.0 -1.9999996423721313
v -5.0 -7.0 -3.814697180359872e-08
v -5.0 -7.0 -1.9999996423721313
v -4.0 -7.0 -3.814697180359872e-08
v -4.0 -7.0 -1.9999996423721313
v -3.0 -7.0 -3.814697180359872e-08
v -3.0 -7.0 -1.9999996423721313
v -2.586916446685791 -7.0 -0.10176639258861542
v -2.586916446685791 -7.0 -1.9999996423721313
v -2.173832893371582 -7.0 -0.20353275537490845
v -2.173832893371582 -7.0 -1.9999996423721313
v -0.5 -7.0 -0.20353348553180695
v -0.49999967217445374 -7.0 -1.9999996423721313
v -0.0 -7.0 -0.0622827522456646
v -0.0 -7.0 -1.9999996423721313
v 1.0 -7.0 -3.814697180359872e-08
v 0.9999998807907104 -7.0 -1.9999996423721313
v 2.0 -7.0 -3.814697180359872e-08
v 2.0 -7.0 -1.9999996423721313
v 3.0 -7.0 -3.814697180359872e-08
v 3.0 -7.0 -1.9999996423721313
v 4.0 -7.0 -3.814697180359872e-08
v 4.0 -7.0 -1.9999996423721313
v 5.0 -7.0 -3.814697180359872e-08
v 5.0 -7.0 -1.9999996423721313
v 6.0 -7.0 -3.814697180359872e-08
v 6.0 -7.0 -1.9999996423721313
v 7.0 -7.0 -3.814697180359872e-08
v 7.0 -7.0 -1.9999996423721313
v 7.0 -7.0 -1.9999996423721313
v 7.0 -6.0 -3.814697180359872e-08
v 7.0 -6.0 -1.9999996423721313
v 7.0 -7.0 -3.814697180359872e-08
v 7.0 -5.0 -3.814697180359872e-08
v 7.0 -5.0 -1.9999996423721313
v 7.0 -4.0 -3.814697180359872e-08
v 7.0 -4.0 -1.9999996423721313
v 7.0 -3.0 0.08173336088657379
v 7.0 -3.0 -1.9999996423721313
v 7.0 -2.0 0.5
v 7.0 -2.0 -1.9999996423721313
v 7.0 -1.0 0.5
v 7.0 -1.0 -1.9999996423721313
v 7.0 0.0 0.5
v 7.0 0.0 -1.9999996423721313
v 7.0 1.0 0.5
v 7.0 1.0 -1.9999996423721313
v 7.0 2.0 0.5
v 7.0 2.0 -1.9999996423721313
v 7.0 3.0 0.5
v 7.0 3.0 -1.9999996423721313
v 7.0 4.0 0.5
v 7.0 4.0 -1.9999996423721313
v 7.0 5.0 0.5
v 7.0 5.0 -1.9999996423721313
v 7.0 6.0 0.5
v 7.0 6.0 -1.9999996423721313
v 7.0 7.0 0.5
v 7.0 7.0 -1.9999996423721313
v 7.0 8.0 0.5
v 7.0 8.0 -1.9999996423721313
v -7.0 8.0 -1.9999996423721313
v -8.0 8.0 -3.814697180359872e-08
v -8.0 8.0 -1.9999996423721313
v -7.0 8.0 -3.814697180359872e-08
v -6.0 8.0 -1.9999996423721313
v -6.0 8.0 -3.814697180359872e-08
v -5.0 8.0 -1.9999996423721313
v -5.0 8.0 -3.814697180359872e-08
v -4.0 8.0 -1.9999996423721313
v -4.0 8.0 -3.814697180359872e-08
v -3.0 8.0 -1.9999996423721313
v -3.0 8.0 -3.814697180359872e-08
v -2.0 8.0 -1.9999996423721313
v -2.0 8.0 -3.814697180359872e-08
v -1.5 8.0 -1.9999996423721313
v -1.5 8.0 -0.20353275537490845
v -0.49999967217445374 8.0 -1.9999996423721313
v -0.5 8.0 -0.20353275537490845
v -0.0 8.0 -1.9999996423721313
v -0.0 8.0 -3.814697180359872e-08
v 0.9999998807907104 8.0 -1.9999996423721313
v 1.0 8.0 -3.814697180359872e-08
v 2.0 8.0 -1.9999996423721313
v 2.0 8.0 0.43050047755241394
v 3.0 8.0 -1.9999996423721313
v 3.0 8.0 0.5
v 4.0 8.0 -1.9999996423721313
v 4.0 8.0 0.5
v 5.0 8.0 -1.9999996423721313
v 5.0 8.0 0.5
v 6.0 8.0 -1.9999996423721313
v 6.0 8.0 0.5
v 7.0 8.0 -1.9999996423721313
v 7.0 8.0 0.5
vn -0.0 0.0 1.0
vn -0.0 0.0 1.0
vn -0.0 0.0 1.0
vn -0.0 0.0 1.0
vn -0.0 0.0 1.0
vn -0.0 0.0 1.0
vn -0.0 0.0 1.0
vn -0.0 0.0 1.0
vn -0.0 0.0 1.0
vn -0.0 0.0 1.0
vn -0.0 0.0 1.0
vn -0.0 0.0 1.0
vn -0.0 0.0 1.0
vn -0.0 0.0 1.0
vn -0.0 0.0 1.0
vn -0.0 0.0 1.0
vn -0.0 0.0 1.0
vn -0.0 0.0 1.0
vn -0.0 0.0 1.0
vn -0.0 0.0 1.0
vn -0.0 0.0 1.0
vn -0.0 0.0 1.0
vn -0.0 0.0 1.0
vn -0.0 0.0 1.0
vn -0.0 0.0 1.0
vn -0.0 0.0 1.0
vn -0.0 0.0 1.0
vn -0.0 0.0 1.0
vn -0.0 0.0 1.0
vn -0.0 0.0 1.0
vn -0.0 0.0 1.0
vn -0.0 0.0 1.0
vn -0.0 0.0 1.0
vn -0.0 0.0 1.0
vn -0.0 0.0 1.0
vn -0.0 0.0 1.0
vn -0.0 0.0 1.0
vn -0.0 0.0 1.0
vn -0.0 0.0 1.0
vn -0.0 0.0 1.0
vn -0.0 0.0 1.0
vn -0.0 0.0 1.0
vn -0.0 0.0 1.0
vn -0.0 0.0 1.0
vn -0.0 0.0 1.0
vn -0.0 0.0 1.0
vn -0.0 0.0 1.0
vn -0.0 0.0 1.0
vn -0.0 0.0 1.0
vn -0.0 0.0 1.0
vn -0.0 0.0 1.0
vn -0.0 0.0 1.0
vn 0.12048051506280899 0.0 0.9927156567573547
vn 0.12048051506280899 0.0 0.9927156567573547
vn -0.0 0.0 1.0
vn 0.1180863305926323 -0.002656692173331976 0.992999792098999
vn -0.0 0.0 1.0
vn 0.040099769830703735 -0.02253785915672779 0.9989414811134338
vn -0.0 0.0 1.0
vn 0.02986111305654049 0.0 0.9995539784431458
vn -0.0 0.0 1.0
vn 0.02986111305654049 0.0 0.9995539784431458
vn -0.0 0.0 1.0
vn 0.022396862506866455 -0.007468046620488167 0.9997212290763855
vn -0.0 0.0 1.0
vn -0.0 0.0 1.0
vn -0.0 0.0 1.0
vn -0.0 0.0 1.0
vn -0.0 0.0 1.0
vn -0.0 0.0 1.0
vn -0.0 0.0 1.0
vn -0.0 0.0 1.0
vn -0.0 0.0 1.0
vn -0.0 0.0 1.0
vn -0.0 0.0 1.0
vn -0.0 0.0 1.0
vn -0.0 0.0 1.0
vn -0.0 0.0 1.0
vn -0.0 0.0 1.0
vn -0.0 0.0 1.0
vn -0.0 0.0 1.0
vn -0.0 0.0 1.0
vn -0.0 0.0 1.0
vn -0.0 0.0 1.0
vn -0.0 0.0 1.0
vn -0.0 0.0 1.0
vn -0.0 0.0 1.0
vn -0.0 0.0 1.0
vn -0.0 0.0 1.0
vn -0.0 0.0 1.0
vn -0.0 0.0 1.0
vn -0.0 0.0 1.0
vn -0.0 0.0 1.0
vn -0.0 0.0 1.0
vn -0.0 0.0 1.0
vn -0.0 0.0 1.0
vn 0.016072368249297142 -0.005358351860195398 0.9998564720153809
vn 0.010715443640947342 -0.032140955328941345 0.9994258880615234
vn 0.07057163864374161 -0.06994060426950455 0.9950518012046814
vn -0.0 0.0 1.0
vn -0.0 0.0 1.0
vn -0.0 0.0 1.0
vn 0.035687703639268875 -0.004902507644146681 0.9993509650230408
vn 0.21177978813648224 -0.027837514877319336 0.9769207835197449
vn -0.0 0.0 1.0
vn 0.04068823531270027 -0.04068823903799057 0.9983431100845337
vn 0.21784567832946777 -0.033598482608795166 0.9754047989845276
vn -0.0 -0.040764763951301575 0.9991687536239624
vn 0.033478010445833206 -0.23368225991725922 0.9717365503311157
vn 0.1909542679786682 -0.19979628920555115 0.9610503911972046
vn 0.19664491713047028 -0.021732456982135773 0.9802338480949402
vn 0.13119985163211823 -0.05660901963710785 0.989738404750824
vn -0.020451337099075317 -0.004753106739372015 0.9997795224189758
vn -0.03468700498342514 0.0 0.9993982315063477
vn -0.1967533826828003 0.0 0.9804530143737793
vn -0.2256343513727188 0.010298460721969604 0.9741576313972473
vn -0.2482936680316925 0.03374212607741356 0.968096911907196
vn -0.24201369285583496 0.032515496015548706 0.9697278141975403
vn -0.0 -0.2365882247686386 0.9716100096702576
vn -0.23571491241455078 0.0 0.971822202205658
vn -0.23222188651561737 0.0 0.9726628065109253
vn -0.03468700498342514 0.0 0.9993982315063477
vn -0.0 0.0 1.0
vn 0.042785439640283585 -0.12701474130153656 0.9909776449203491
vn 0.007319790311157703 -0.18959632515907288 0.9818347692489624
vn -0.0 -0.196784108877182 0.9804468154907227
vn -0.23571491241455078 0.0 0.971822202205658
vn -0.23222188651561737 0.0 0.9726628065109253
vn -0.03468700498342514 0.0 0.9993982315063477
vn -0.0 0.0 1.0
vn -0.0 0.0 1.0
vn -0.0 0.0 1.0
vn -0.0 0.0 1.0
vn -0.23571491241455078 0.0 0.971822202205658
vn -0.20949481427669525 -0.007931569591164589 0.9777776002883911
vn -0.03468700498342514 0.0 0.9993982315063477
vn -0.0 0.0 1.0
vn -0.0 0.0 1.0
vn -0.0 0.0 1.0
vn -0.0 0.0 1.0
vn -0.23571491241455078 0.0 0.971822202205658
vn -0.20186351239681244 0.0 0.9794137477874756
vn -0.03468700498342514 0.0 0.9993982315063477
vn -0.0 0.0 1.0
vn -0.0 0.0 1.0
vn -0.0 0.0 1.0
vn -0.0 0.0 1.0
vn -0.23571491241455078 0.0 0.971822202205658
vn -0.20186351239681244 0.0 0.9794137477874756
vn -0.03468700498342514 0.0 0.9993982315063477
vn -0.0 0.0 1.0
vn -0.0 0.0 1.0
vn -0.0 0.0 1.0
vn -0.0 0.0 1.0
vn -0.23571491241455078 0.0 0.971822202205658
vn -0.20186351239681244 0.0 0.9794137477874756
vn -0.03468700498342514 0.0 0.9993982315063477
vn -0.0 0.0 1.0
vn -0.0 0.0 1.0
vn -0.0 0.0 1.0
vn -0.0 0.0 1.0
vn -0.23571491241455078 0.0 0.971822202205658
vn -0.20186351239681244 0.0 0.9794137477874756
vn -0.03468700498342514 0.0 0.9993982315063477
vn -0.0 0.0 1.0
vn -0.0 0.0 1.0
vn -0.0 0.0 1.0
vn -0.0 0.0 1.0
vn -0.0 0.0 1.0
vn -0.0 0.0 1.0
vn -0.0 0.0 1.0
vn -0.0 0.0 1.0
vn -0.0 0.0 1.0
vn -0.0 0.0 1.0
vn -0.0 0.0 1.0
vn -0.0 0.0 1.0
vn -0.0 0.0 1.0
vn -0.0 0.0 1.0
vn -0.0 0.0 1.0
vn -0.0 0.0 1.0
vn 0.23920580744743347 0.0 0.9709689021110535
vn 0.12048051506280899 0.0 0.9927156567573547
vn 0.226631298661232 -0.002346535213291645 0.97397780418396
vn 0.12048051506280899 0.0 0.9927156567573547
vn 0.1180863305926323 -0.002656692173331976 0.992999792098999
vn 0.23200583457946777 -0.010559901595115662 0.9726570844650269
vn 0.10983405262231827 -0.1503816843032837 0.9825078845024109
vn 0.040099769830703735 -0.02253785915672779 0.9989414811134338
vn 0.16846449673175812 -0.11053324490785599 0.9794906973838806
vn 0.23105555772781372 -0.0035667126066982746 0.9729340076446533
vn 0.214065819978714 -0.00444620568305254 0.9768090844154358
vn 0.23908965289592743 -0.031160153448581696 0.9704974293708801
vn 0.15285980701446533 -0.17020556330680847 0.9734804034233093
vn 0.25426703691482544 -0.2597515881061554 0.9315993785858154
vn 0.29194051027297974 0.006811168044805527 0.9564123153686523
vn 0.15855838358402252 0.018089037388563156 0.9871838688850403
vn 0.37583765387535095 -0.07930807769298553 0.9232855439186096
vn 0.2434973418712616 -0.0036300404462963343 0.9698947668075562
vn 0.14928990602493286 0.0 0.9887934327125549
vn 0.23766043782234192 0.010098408907651901 0.9712958335876465
vn 0.16100206971168518 -0.0157088041305542 0.9868291020393372
vn 0.3302353322505951 -0.029516998678445816 0.9434370398521423
vn 0.20514443516731262 -0.043173301964998245 0.9777790307998657
vn -0.10040750354528427 -0.07648646086454391 0.9920021295547485
vn -0.17124947905540466 0.004043319262564182 0.9852193593978882
vn -0.18894611299037933 -0.013553429394960403 0.9818939566612244
vn -0.050303857773542404 -0.019221073016524315 0.9985489249229431
vn -0.2269485890865326 -0.03345465287566185 0.9733319878578186
vn -0.21494902670383453 0.003182973712682724 0.976620078086853
vn -0.2482936680316925 0.03374212607741356 0.968096911907196
vn -0.21715988218784332 0.007908722385764122 0.9761040806770325
vn -0.24201369285583496 0.032515496015548706 0.9697278141975403
vn -0.1714736670255661 0.004413731396198273 0.9851787686347961
vn -0.23222188651561737 0.0 0.9726628065109253
vn -0.19477085769176483 0.0 0.9808487892150879
vn -0.23222188651561737 0.0 0.9726628065109253
vn -0.19206109642982483 -0.017401671037077904 0.981228768825531
vn -0.20949481427669525 -0.007931569591164589 0.9777776002883911
vn -0.1263367384672165 -0.04051056504249573 0.9911598563194275
vn -0.20186351239681244 0.0 0.9794137477874756
vn -0.0 0.0 1.0
vn -0.20186351239681244 0.0 0.9794137477874756
vn -0.13177256286144257 0.005003812722861767 0.9912673830986023
vn -0.20186351239681244 0.0 0.9794137477874756
vn -0.2095940262079239 -0.004011210054159164 0.9777801632881165
vn -0.20186351239681244 0.0 0.9794137477874756
vn -0.19348904490470886 0.0017245856579393148 0.9811009168624878
vn -0.20186351239681244 0.0 0.9794137477874756
vn -0.19986377656459808 -0.0017756978049874306 0.9798220992088318
vn -0.20186351239681244 0.0 0.9794137477874756
vn -0.19557034969329834 0.004366546403616667 0.980679988861084
vn -0.20186354219913483 0.0 0.9794137477874756
vn -0.21262510120868683 -0.0047106253914535046 0.97712242603302
vn -0.20186351239681244 0.0 0.9794137477874756
vn -0.19208984076976776 0.0 0.9813773036003113
vn 0.15855838358402252 0.018089037388563156 0.9871838688850403
vn 0.040099769830703735 -0.02253785915672779 0.9989414811134338
vn 0.02986111305654049 0.0 0.9995539784431458
vn 0.16846449673175812 -0.11053324490785599 0.9794906973838806
vn 0.14928990602493286 0.0 0.9887934327125549
vn 0.02986111305654049 0.0 0.9995539784431458
vn 0.16100206971168518 -0.0157088041305542 0.9868291020393372
vn 0.022396862506866455 -0.007468046620488167 0.9997212290763855
vn 0.20514443516731262 -0.043173301964998245 0.9777790307998657
vn -0.0 0.0 1.0
vn 0.37583765387535095 -0.07930807769298553 0.9232855439186096
vn 0.25426703691482544 -0.2597515881061554 0.9315993785858154
vn 0.2067384421825409 -0.028656186535954475 0.9779765009880066
vn -0.0 0.0 1.0
vn -0.0 0.0 1.0
vn 0.16169492900371552 -0.042001694440841675 0.9859465956687927
vn 0.1964285969734192 0.005483788438141346 0.9805027842521667
vn -0.0 0.0 1.0
vn 0.21836036443710327 -0.0060380809009075165 0.975849449634552
vn -0.0 0.0 1.0
vn 0.19208984076976776 0.0 0.9813773036003113
vn -0.0 0.0 1.0
vn 0.19208982586860657 0.0 0.9813773036003113
vn -0.0 0.0 1.0
vn 0.19208984076976776 0.0 0.9813773036003113
vn -0.0 0.0 1.0
vn 0.37664592266082764 -0.044847164303064346 0.9252711534500122
vn 0.16169492900371552 -0.042001694440841675 0.9859465956687927
vn 0.2067384421825409 -0.028656186535954475 0.9779765009880066
vn 0.3752300441265106 -0.09746935218572617 0.9217929244041443
vn 0.3769853413105011 0.014538059011101723 0.9261050820350647
vn 0.1964285969734192 0.005483788438141346 0.9805027842521667
vn 0.42632177472114563 -0.01257085520774126 0.904484212398529
vn 0.21836036443710327 -0.0060380809009075165 0.975849449634552
vn 0.3851357400417328 -0.004738170187920332 0.9228478074073792
vn 0.19208984076976776 0.0 0.9813773036003113
vn 0.3770252466201782 0.0 0.9262030720710754
vn 0.19208982586860657 0.0 0.9813773036003113
vn 0.19208984076976776 0.0 0.9813773036003113
vn 0.37702521681785583 0.0 0.9262029528617859
vn -0.29093387722969055 -0.004384119529277086 0.9567331075668335
vn -0.17124947905540466 0.004043319262564182 0.9852193593978882
vn -0.2718442976474762 0.011238165199756622 0.9622756242752075
vn -0.18894611299037933 -0.013553429394960403 0.9818939566612244
vn -0.27511066198349 0.0069187781773507595 0.9613876342773438
vn -0.21494902670383453 0.003182973712682724 0.976620078086853
vn -0.3029240369796753 -0.007286157459020615 0.9529868960380554
vn -0.21715988218784332 0.007908722385764122 0.9761040806770325
vn -0.27696695923805237 0.009027035906910896 0.9608370661735535
vn -0.1714736670255661 0.004413731396198273 0.9851787686347961
vn -0.3159783184528351 0.0036436833906918764 0.9487593770027161
vn -0.19477085769176483 0.0 0.9808487892150879
vn -0.3238624930381775 -0.014514160342514515 0.9459928870201111
vn -0.19206109642982483 -0.017401671037077904 0.981228768825531
vn -0.3625648021697998 -0.049831561744213104 0.9306253790855408
vn -0.1263367384672165 -0.04051056504249573 0.9911598563194275
vn -0.40994054079055786 -0.00821252353489399 0.9120752811431885
vn -0.13177256286144257 0.005003812722861767 0.9912673830986023
vn -0.376943975687027 0.02075328677892685 0.9260034561157227
vn -0.2095940262079239 -0.004011210054159164 0.9777801632881165
vn -0.3827116787433624 0.001580980489961803 0.9238665103912354
vn -0.19348904490470886 0.0017245856579393148 0.9811009168624878
vn -0.3916751444339752 -0.0035569388419389725 0.9200966954231262
vn -0.19986377656459808 -0.0017756978049874306 0.9798220992088318
vn -0.3796895742416382 0.010281972587108612 0.9250568747520447
vn -0.19557034969329834 0.004366546403616667 0.980679988861084
vn -0.4156130254268646 -0.009703313931822777 0.9094897508621216
vn -0.21262510120868683 -0.0047106253914535046 0.97712242603302
vn -0.39029011130332947 -0.007760775275528431 0.9206592440605164
vn -0.19208984076976776 0.0 0.9813773036003113
vn -0.03602556884288788 -0.20568038523197174 0.9779559373855591
vn -0.050303857773542404 -0.019221073016524315 0.9985489249229431
vn -0.10040750354528427 -0.07648646086454391 0.9920021295547485
vn -0.0 -0.0767359584569931 0.997051477432251
vn 0.0021736733615398407 -0.23144525289535522 0.9728454351425171
vn -0.0013650809414684772 -0.0780981257557869 0.9969447255134583
vn 0.0282133836299181 -0.21019980311393738 0.9772512912750244
vn 0.009854055009782314 -0.07234323769807816 0.9973311424255371
vn -0.16546626389026642 -0.1380489617586136 0.9765057563781738
vn -0.2269485890865326 -0.03345465287566185 0.9733319878578186
vn -0.007719723973423243 -0.18993812799453735 0.9817657470703125
vn 0.1644265204668045 -0.15519045293331146 0.9741045832633972
vn 0.1976834237575531 -0.19359463453292847 0.9609591364860535
vn -0.23571491241455078 0.0 0.971822202205658
vn -0.20186351239681244 0.0 0.9794137477874756
vn -0.03468700498342514 0.0 0.9993982315063477
vn -0.0 0.0 1.0
vn -0.23571491241455078 0.0 0.971822202205658
vn -0.20186351239681244 0.0 0.9794137477874756
vn -0.03468700498342514 0.0 0.9993982315063477
vn -0.0 0.0 1.0
vn -0.23571492731571198 0.0 0.971822202205658
vn -0.20186354219913483 0.0 0.9794137477874756
vn -0.03468700498342514 0.0 0.9993982315063477
vn -0.0 0.0 1.0
vn -0.23571492731571198 0.0 0.971822202205658
vn -0.20186351239681244 0.0 0.9794137477874756
vn -0.03468701243400574 0.0 0.9993982315063477
vn -0.0 0.0 1.0
vn -1.0 0.0 0.0
vn -1.0 0.0 0.0
vn -1.0 0.0 0.0
vn -1.0 0.0 0.0
vn -1.0 0.0 0.0
vn -1.0 0.0 0.0
vn -1.0 0.0 0.0
vn -1.0 0.0 0.0
vn -1.0 0.0 0.0
vn -1.0 0.0 0.0
vn -1.0 0.0 0.0
vn -1.0 0.0 0.0
vn -1.0 0.0 0.0
vn -1.0 0.0 0.0
vn -1.0 0.0 0.0
vn -1.0 0.0 0.0
vn -1.0 0.0 0.0
vn -1.0 0.0 0.0
vn -1.0 0.0 0.0
vn -1.0 0.0 0.0
vn -1.0 0.0 0.0
vn -1.0 0.0 0.0
vn -1.0 0.0 0.0
vn -1.0 0.0 0.0
vn -1.0 0.0 0.0
vn -1.0 0.0 0.0
vn -1.0 0.0 0.0
vn -1.0 0.0 0.0
vn -1.0 0.0 0.0
vn -1.0 0.0 0.0
vn -1.0 0.0 0.0
vn -1.0 0.0 0.0
vn -0.0 -1.0 0.0
vn -0.0 -1.0 0.0
vn -0.0 -1.0 0.0
vn -0.0 -1.0 0.0
vn -0.0 -1.0 0.0
vn -0.0 -1.0 0.0
vn -0.0 -1.0 0.0
vn -0.0 -1.0 0.0
vn -0.0 -1.0 0.0
vn -0.0 -1.0 0.0
vn -0.0 -1.0 0.0
vn -0.0 -1.0 0.0
vn -0.0 -1.0 0.0
vn -0.0 -1.0 0.0
vn -0.0 -1.0 0.0
vn -0.0 -1.0 0.0
vn -0.0 -1.0 0.0
vn -0.0 -1.0 0.0
vn -0.0 -1.0 0.0
vn -0.0 -1.0 0.0
vn -0.0 -1.0 0.0
vn -0.0 -1.0 0.0
vn -0.0 -1.0 0.0
vn -0.0 -1.0 0.0
vn -0.0 -1.0 0.0
vn -0.0 -1.0 0.0
vn -0.0 -1.0 0.0
vn -0.0 -1.0 0.0
vn -0.0 -1.0 0.0
vn -0.0 -1.0 0.0
vn -0.0 -1.0 0.0
vn -0.0 -1.0 0.0
vn -0.0 -1.0 0.0
vn -0.0 -1.0 0.0
vn 1.0 0.0 0.0
vn 1.0 0.0 0.0
vn 1.0 0.0 0.0
vn 1.0 0.0 0.0
vn 1.0 0.0 0.0
vn 1.0 0.0 0.0
vn 1.0 0.0 0.0
vn 1.0 0.0 0.0
vn 1.0 0.0 0.0
vn 1.0 0.0 0.0
vn 1.0 0.0 0.0
vn 1.0 0.0 0.0
vn 1.0 0.0 0.0
vn 1.0 0.0 0.0
vn 1.0 0.0 0.0
vn 1.0 0.0 0.0
vn 1.0 0.0 0.0
vn 1.0 0.0 0.0
vn 1.0 0.0 0.0
vn 1.0 0.0 0.0
vn 1.0 0.0 0.0
vn 1.0 0.0 0.0
vn 1.0 0.0 0.0
vn 1.0 0.0 0.0
vn 1.0 0.0 0.0
vn 1.0 0.0 0.0
vn 1.0 0.0 0.0
vn 1.0 0.0 0.0
vn 1.0 0.0 0.0
vn 1.0 0.0 0.0
vn 1.0 0.0 0.0
vn 1.0 0.0 0.0
vn -0.0 1.0 0.0
vn -0.0 1.0 0.0
vn -0.0 1.0 0.0
vn -0.0 1.0 0.0
vn -0.0 1.0 0.0
vn -0.0 1.0 0.0
vn -0.0 1.0 0.0
vn -0.0 1.0 0.0
vn -0.0 1.0 0.0
vn -0.0 1.0 0.0
vn -0.0 1.0 0.0
vn -0.0 1.0 0.0
vn -0.0 1.0 0.0
vn -0.0 1.0 0.0
vn -0.0 1.0 0.0
vn -0.0 1.0 0.0
vn -0.0 1.0 0.0
vn -0.0 1.0 0.0
vn -0.0 1.0 0.0
vn -0.0 1.0 0.0
vn -0.0 1.0 0.0
vn -0.0 1.0 0.0
vn -0.0 1.0 0.0
vn -0.0 1.0 0.0
vn -0.0 1.0 0.0
vn -0.0 1.0 0.0
vn -0.0 1.0 0.0
vn -0.0 1.0 0.0
vn -0.0 1.0 0.0
vn -0.0 1.0 0.0
vn -0.0 1.0 0.0
vn -0.0 1.0 0.0
vn -0.0 1.0 0.0
vn -0.0 1.0 0.0
vt 0.001435175072401762 0.49689537286758423
vt -0.2374347299337387 0.7450271546840668
vt -0.2374347299337387 0.49689537286758423
vt 0.001435175072401762 0.7450271546840668
vt 0.001435175072401762 0.24876362085342407
vt -0.2374347299337387 0.24876362085342407
vt 0.001435175072401762 0.0006318092346191406
vt -0.2374347299337387 0.0006318092346191406
vt 0.001435175072401762 -0.24749982357025146
vt -0.2374347299337387 -0.24749982357025146
vt 0.001435175072401762 -0.49563169479370117
vt -0.2374347299337387 -0.49563169479370117
vt 0.001435175072401762 -0.7437633275985718
vt -0.2374347299337387 -0.7437633275985718
vt 0.001435175072401762 -0.9918950796127319
vt -0.2374347299337387 -0.9918950796127319
vt 0.001435175072401762 -1.2400269508361816
vt -0.2374347299337387 -1.2400269508361816
vt 0.001435175072401762 -1.488158941268921
vt -0.2374347299337387 -1.488158941268921
vt 0.001435175072401762 -1.7362909317016602
vt -0.2374347299337387 -1.7362909317016602
vt 0.001435175072401762 -1.9844224452972412
vt -0.2374347299337387 -1.9844224452972412
vt 0.001435175072401762 -2.2325544357299805
vt -0.2374347299337387 -2.2325544357299805
vt 0.001435175072401762 -2.4806864261627197
vt -0.2374347299337387 -2.4806864261627197
vt 0.001435175072401762 -2.728817939758301
vt -0.2374347299337387 -2.728817939758301
vt -0.2374347299337387 -2.987342596054077
vt 0.001435175072401762 -2.987342596054077
vt 0.24902237951755524 -1.2400269508361816
vt 0.24902237951755524 -0.9918950796127319
vt 0.49886342883110046 -1.2400269508361816
vt 0.49886342883110046 -0.9918950796127319
vt 0.24902237951755524 -0.7437633275985718
vt 0.49886342883110046 -0.7437633275985718
vt 0.24902237951755524 -0.49563169479370117
vt 0.49886342883110046 -0.49563169479370117
vt 0.24902237951755524 -0.24749982357025146
vt 0.49886342883110046 -0.24749982357025146
vt 0.24902237951755524 0.0006318092346191406
vt 0.49886342883110046 0.0006318092346191406
vt 0.24902237951755524 0.24876362085342407
vt 0.49886342883110046 0.24876362085342407
vt 0.24902237951755524 0.49689537286758423
vt 0.49886342883110046 0.49689537286758423
vt 0.24902237951755524 0.7450271546840668
vt 0.49886342883110046 0.7450271546840668
vt 0.7487045526504517 0.49689537286758423
vt 0.7487045526504517 0.7450271546840668
vt 0.9985455274581909 0.49689537286758423
vt 0.9985455274581909 0.7450271546840668
vt 0.7487045526504517 0.24876362085342407
vt 0.9985455274581909 0.24876362085342407
vt 0.7487045526504517 0.0006318092346191406
vt 0.9985455274581909 0.0006318092346191406
vt 0.7487045526504517 -0.24749982357025146
vt 0.9985455274581909 -0.24749982357025146
vt 0.7487045526504517 -0.49563169479370117
vt 0.9985455274581909 -0.49563169479370117
vt 0.7487045526504517 -0.7437633275985718
vt 0.9985455274581909 -0.7437633275985718
vt 0.7487045526504517 -0.9918950796127319
vt 0.9985455274581909 -0.9918950796127319
vt 0.7487045526504517 -1.2400269508361816
vt 0.9985455274581909 -1.2400269508361816
vt 0.7487045526504517 -1.488158941268921
vt 0.49886342883110046 -1.488158941268921
vt 0.24902237951755524 -1.488158941268921
vt 0.9985455274581909 -1.488158941268921
vt 0.49886342883110046 -1.7362909317016602
vt 0.24902237951755524 -1.7362909317016602
vt 0.7487045526504517 -1.7362909317016602
vt 0.9985455274581909 -1.7362909317016602
vt 0.49886342883110046 -1.9844224452972412
vt 0.24902237951755524 -1.9844224452972412
vt 0.7487045526504517 -1.9844224452972412
vt 0.9985455274581909 -1.9844224452972412
vt 0.49886342883110046 -2.2325544357299805
vt 0.24902237951755524 -2.2325544357299805
vt 0.7487045526504517 -2.2325544357299805
vt 0.9985455274581909 -2.2325544357299805
vt 0.49886342883110046 -2.4806864261627197
vt 0.24902237951755524 -2.4806864261627197
vt 0.7487045526504517 -2.4806864261627197
vt 0.9985455274581909 -2.4806864261627197
vt 0.49886342883110046 -2.728817939758301
vt 0.24902237951755524 -2.728817939758301
vt 0.7487045526504517 -2.728817939758301
vt 0.9985455274581909 -2.728817939758301
vt 0.49886342883110046 -2.987342596054077
vt 0.24902237951755524 -2.987342596054077
vt 0.7487045526504517 -2.987342596054077
vt 0.9985455274581909 -2.987342596054077
vt 1.2513753175735474 0.49689537286758423
vt 1.001534342765808 0.7450271546840668
vt 1.001534342765808 0.49689537286758423
vt 1.2513753175735474 0.7450271546840668
vt 1.5012162923812866 0.49689537286758423
vt 1.5012162923812866 0.7450271546840668
vt 1.2513753175735474 0.24876362085342407
vt 1.001534342765808 0.24876362085342407
vt 1.5012162923812866 0.24876362085342407
vt 1.2513753175735474 0.0006318092346191406
vt 1.001534342765808 0.0006318092346191406
vt 1.5012162923812866 0.0006318092346191406
vt 1.2513753175735474 -0.24749982357025146
vt 1.001534342765808 -0.24749982357025146
vt 0.751693069934845 0.0006318092346191406
vt 0.751693069934845 -0.24749982357025146
vt 0.5018518567085266 0.0006318092346191406
vt 0.5018518567085266 -0.24749982357025146
vt 0.25201094150543213 0.0006318092346191406
vt 0.25201094150543213 -0.24749982357025146
vt 0.0021697264164686203 0.0006318092346191406
vt 0.0021697264164686203 -0.24749982357025146
vt 1.5012162923812866 -0.24749982357025146
vt 0.25201094150543213 -0.49563169479370117
vt 0.0021697264164686203 -0.49563169479370117
vt 0.5018518567085266 -0.49563169479370117
vt 0.751693069934845 -0.49563169479370117
vt 1.001534342765808 -0.49563169479370117
vt 1.2513753175735474 -0.49563169479370117
vt 1.5012162923812866 -0.49563169479370117
vt 0.25201094150543213 -0.7437633275985718
vt 0.0021697264164686203 -0.7437633275985718
vt 0.5018518567085266 -0.7437633275985718
vt 0.751693069934845 -0.7437633275985718
vt 1.001534342765808 -0.7437633275985718
vt 1.2513753175735474 -0.7437633275985718
vt 1.5012162923812866 -0.7437633275985718
vt 0.25201094150543213 -0.9918950796127319
vt 0.0021697264164686203 -0.9918950796127319
vt 0.5018518567085266 -0.9918950796127319
vt 0.751693069934845 -0.9918950796127319
vt 1.001534342765808 -0.9918950796127319
vt 1.2513753175735474 -0.9918950796127319
vt 1.5012162923812866 -0.9918950796127319
vt 0.25201094150543213 -1.2400269508361816
vt 0.0021697264164686203 -1.2400269508361816
vt 0.5018518567085266 -1.2400269508361816
vt 0.751693069934845 -1.2400269508361816
vt 1.001534342765808 -1.2400269508361816
vt 1.2513753175735474 -1.2400269508361816
vt 1.5012162923812866 -1.2400269508361816
vt 0.25201094150543213 -1.488158941268921
vt 0.0021697264164686203 -1.488158941268921
vt 0.5018518567085266 -1.488158941268921
vt 0.751693069934845 -1.488158941268921
vt 1.001534342765808 -1.488158941268921
vt 1.2513753175735474 -1.488158941268921
vt 1.5012162923812866 -1.488158941268921
vt 0.25201094150543213 -1.7362909317016602
vt 0.0021697264164686203 -1.7362909317016602
vt 0.5018518567085266 -1.7362909317016602
vt 0.751693069934845 -1.7362909317016602
vt 1.001534342765808 -1.7362909317016602
vt 1.2513753175735474 -1.7362909317016602
vt 1.5012162923812866 -1.7362909317016602
vt 0.25201094150543213 -1.9844224452972412
vt 0.0021697264164686203 -1.9844224452972412
vt 0.5018518567085266 -1.9844224452972412
vt 0.751693069934845 -1.9844224452972412
vt 1.001534342765808 -1.9844224452972412
vt 1.2513753175735474 -1.9844224452972412
vt 1.5012162923812866 -1.9844224452972412
vt 1.2513753175735474 -2.2325544357299805
vt 1.001534342765808 -2.2325544357299805
vt 1.5012162923812866 -2.2325544357299805
vt 1.2513753175735474 -2.4806864261627197
vt 1.001534342765808 -2.4806864261627197
vt 1.5012162923812866 -2.4806864261627197
vt 1.2513753175735474 -2.728817939758301
vt 1.001534342765808 -2.728817939758301
vt 1.5012162923812866 -2.728817939758301
vt 1.2513753175735474 -2.987342596054077
vt 1.001534342765808 -2.987342596054077
vt 1.5012162923812866 -2.987342596054077
vt 0.1110362783074379 0.7321299612522125
vt 0.005626404657959938 0.4906086325645447
vt 0.11103630065917969 0.4906086325645447
vt 0.005626404657959938 0.7321299612522125
vt 0.005626449827104807 0.24908721446990967
vt 0.11103632301092148 0.24908721446990967
vt 0.12261467427015305 0.0892447829246521
vt 0.005580284632742405 0.000665128231048584
vt 0.25322407484054565 0.000665128231048584
vt 0.216446191072464 0.7321299910545349
vt 0.216446191072464 0.4906086325645447
vt 0.21644623577594757 0.24908721446990967
vt 0.23964905738830566 0.17095577716827393
vt 0.32105955481529236 0.12248224020004272
vt 0.38226860761642456 -0.24839520454406738
vt 0.2539099156856537 -0.24839544296264648
vt 0.38226890563964844 0.000665128231048584
vt 0.38226860761642456 -0.49708282947540283
vt 0.2539099156856537 -0.49708282947540283
vt 0.38226860761642456 -0.7462177276611328
vt 0.2539099156856537 -0.7462177276611328
vt 0.38226860761642456 -0.9953527450561523
vt 0.2539099156856537 -0.9953527450561523
vt 1.000278353691101 0.5006539225578308
vt 0.7504371404647827 0.7487857341766357
vt 0.7504371404647827 0.5006539225578308
vt 1.000278353691101 0.7487857341766357
vt 1.000278353691101 0.25252217054367065
vt 0.7504371404647827 0.25252217054367065
vt 1.000278353691101 0.004390418529510498
vt 0.7504371404647827 0.004390418529510498
vt 1.000278353691101 -0.24374127388000488
vt 0.7504371404647827 -0.24374127388000488
vt 1.000278353691101 -0.4918731451034546
vt 0.7504371404647827 -0.4918731451034546
vt 1.000278353691101 -0.7400047779083252
vt 0.7504371404647827 -0.7400047779083252
vt 1.000278353691101 -0.9881366491317749
vt 0.7504371404647827 -0.9881366491317749
vt 1.000278353691101 -1.2362682819366455
vt 0.7504371404647827 -1.2362682819366455
vt 1.000278353691101 -1.4844002723693848
vt 0.7504371404647827 -1.4844002723693848
vt 1.000278353691101 -1.732532262802124
vt 0.7504371404647827 -1.732532262802124
vt 1.000278353691101 -1.980663776397705
vt 0.7504371404647827 -1.980663776397705
vt 1.000278353691101 -2.2287957668304443
vt 0.7504371404647827 -2.2287957668304443
vt 1.000278353691101 -2.4769277572631836
vt 0.7504371404647827 -2.4769277572631836
vt 1.000278353691101 -2.7250592708587646
vt 0.7504371404647827 -2.7250592708587646
vt 1.000278353691101 -2.983583688735962
vt 0.7504371404647827 -2.983583688735962
vt 0.25211000442504883 -0.24749982357025146
vt 0.0022690370678901672 0.000665128231048584
vt 0.0022690370678901672 -0.24749982357025146
vt 0.25211000442504883 0.000665128231048584
vt 0.25211000442504883 -0.49708282947540283
vt 0.0022690370678901672 -0.49708282947540283
vt 0.25211000442504883 -0.7462177276611328
vt 0.0022690370678901672 -0.7462177276611328
vt 0.25211000442504883 -0.9953527450561523
vt 0.0022690370678901672 -0.9953527450561523
vt 0.3862166702747345 0.000665128231048584
vt 0.32105955481529236 0.12248224020004272
vt 0.25211000442504883 -1.7427587509155273
vt 0.0022690370678901672 -1.4936232566833496
vt 0.0022690370678901672 -1.7427587509155273
vt 0.25211000442504883 -1.4936232566833496
vt 0.25211000442504883 -1.9918935298919678
vt 0.0022690370678901672 -1.9918935298919678
vt 0.25211000442504883 -2.2410287857055664
vt 0.0022690370678901672 -2.2410287857055664
vt 0.25211000442504883 -2.490164279937744
vt 0.0022690370678901672 -2.490164279937744
vt 0.25211000442504883 -2.7392992973327637
vt 0.0022690370678901672 -2.7392992973327637
vt 0.25211000442504883 -2.9988694190979004
vt 0.0022690370678901672 -2.9988694190979004
vt 0.3822682499885559 -1.7427587509155273
vt 0.2539099156856537 -1.4936232566833496
vt 0.25390973687171936 -1.7427587509155273
vt 0.38226860761642456 -1.4936232566833496
vt 0.3822682499885559 -1.9918935298919678
vt 0.25390973687171936 -1.9918935298919678
vt 0.38226842880249023 -2.2410287857055664
vt 0.25390973687171936 -2.2410287857055664
vt 0.38226842880249023 -2.490164279937744
vt 0.25390973687171936 -2.490164279937744
vt 0.38226842880249023 -2.7392992973327637
vt 0.25390973687171936 -2.7392992973327637
vt 0.25390973687171936 -2.9988694190979004
vt 0.38226860761642456 -2.9988694190979004
vt 0.609148383140564 0.49851173162460327
vt 0.7535598874092102 0.7465685904026031
vt 0.609148383140564 0.7465684711933136
vt 0.7535600066184998 0.49851173162460327
vt 0.609148383140564 0.2504549026489258
vt 0.7535600066184998 0.2504549026489258
vt 0.609148383140564 0.002398073673248291
vt 0.7535600066184998 0.002398073673248291
vt 0.6091481447219849 -0.2456587553024292
vt 0.7535598874092102 -0.2456587553024292
vt 0.6091481447219849 -0.4937155246734619
vt 0.7535598874092102 -0.4937155246734619
vt 0.6091481447219849 -0.7417721748352051
vt 0.7535598874092102 -0.7417721748352051
vt 0.6091481447219849 -0.9898290634155273
vt 0.7535598874092102 -0.9898290634155273
vt 0.6091481447219849 -1.733999490737915
vt 0.7535598874092102 -1.485943078994751
vt 0.609148383140564 -1.485943078994751
vt 0.7535597085952759 -1.7339997291564941
vt 0.6091481447219849 -1.9820563793182373
vt 0.7535597085952759 -1.9820566177368164
vt 0.6091481447219849 -2.2301135063171387
vt 0.7535597085952759 -2.2301137447357178
vt 0.6091481447219849 -2.47817063331604
vt 0.7535598874092102 -2.4781711101531982
vt 0.6091481447219849 -2.726227283477783
vt 0.7535598874092102 -2.726227283477783
vt 0.6091481447219849 -2.9846737384796143
vt 0.7535598874092102 -2.9846742153167725
vt 0.25201094150543213 0.49689537286758423
vt 0.0021697264164686203 0.7450271546840668
vt 0.0021697264164686203 0.49689537286758423
vt 0.25201094150543213 0.7450271546840668
vt 0.5018518567085266 0.49689537286758423
vt 0.5018518567085266 0.7450271546840668
vt 0.751693069934845 0.49689537286758423
vt 0.751693069934845 0.7450271546840668
vt 0.25201094150543213 0.24876362085342407
vt 0.0021697264164686203 0.24876362085342407
vt 0.5018518567085266 0.24876362085342407
vt 0.751693069934845 0.24876362085342407
vt 0.8864303827285767 0.3825790286064148
vt 0.25201094150543213 -2.2325544357299805
vt 0.0021697264164686203 -2.2325544357299805
vt 0.5018518567085266 -2.2325544357299805
vt 0.751693069934845 -2.2325544357299805
vt 0.25201094150543213 -2.4806864261627197
vt 0.0021697264164686203 -2.4806864261627197
vt 0.5018518567085266 -2.4806864261627197
vt 0.751693069934845 -2.4806864261627197
vt 0.25201094150543213 -2.728817939758301
vt 0.0021697264164686203 -2.728817939758301
vt 0.5018518567085266 -2.728817939758301
vt 0.751693069934845 -2.728817939758301
vt 0.25201094150543213 -2.987342596054077
vt 0.0021697264164686203 -2.987342596054077
vt 0.5018518567085266 -2.987342596054077
vt 0.751693069934845 -2.987342596054077
vt 3.099999189376831 0.9999999403953552
vt 3.4999990463256836 0.20000004768371582
vt 3.4999990463256836 0.9999999403953552
vt 3.099999189376831 0.20000004768371582
vt 2.6999990940093994 0.9999999403953552
vt 2.6999990940093994 0.20000004768371582
vt 2.299999237060547 0.9999999403953552
vt 2.299999237060547 0.20000004768371582
vt 1.8999992609024048 0.9999999403953552
vt 1.8999992609024048 0.20000004768371582
vt 1.4999992847442627 0.9999999403953552
vt 1.4999992847442627 0.20000004768371582
vt 1.099999189376831 0.9999999403953552
vt 1.099999189376831 0.20000004768371582
vt 0.6999992728233337 0.9999999403953552
vt 0.6999992728233337 0.20000004768371582
vt 0.29999929666519165 0.9999999403953552
vt 0.29999929666519165 0.20000004768371582
vt -0.10000061988830566 0.9999999403953552
vt -0.10000061988830566 0.20000004768371582
vt -0.5000005960464478 0.9999999403953552
vt -0.5000005960464478 0.20000004768371582
vt -0.9000005722045898 0.9999999403953552
vt -0.9000005722045898 0.20000004768371582
vt -1.3000006675720215 0.9999999403953552
vt -1.3000006675720215 0.20000004768371582
vt -1.700000524520874 0.9999999403953552
vt -1.700000524520874 0.20000004768371582
vt -2.1000003814697266 0.9999999403953552
vt -2.1000003814697266 0.20000004768371582
vt -2.5000007152557373 0.9999999403953552
vt -2.5000007152557373 0.20000004768371582
vt -2.500000476837158 0.9999999403953552
vt -2.1000003814697266 0.20000004768371582
vt -2.1000003814697266 0.9999999403953552
vt -2.500000476837158 0.20000004768371582
vt -1.700000524520874 0.20000004768371582
vt -1.700000524520874 0.9999999403953552
vt -1.300000548362732 0.20000004768371582
vt -1.300000548362732 0.9999999403953552
vt -0.9000006914138794 0.20000004768371582
vt -0.9000006914138794 0.9999999403953552
vt -0.5000007152557373 0.20000004768371582
vt -0.5000007152557373 0.9999999403953552
vt -0.33476734161376953 0.24070662260055542
vt -0.33476734161376953 0.9999999403953552
vt -0.1695338487625122 0.28141313791275024
vt -0.1695338487625122 0.9999999403953552
vt 0.4999992847442627 0.2814134359359741
vt 0.49999940395355225 0.9999999403953552
vt 0.6999992728233337 0.2249131202697754
vt 0.6999992728233337 0.9999999403953552
vt 1.099999189376831 0.20000004768371582
vt 1.099999189376831 0.9999999403953552
vt 1.4999992847442627 0.20000004768371582
vt 1.4999992847442627 0.9999999403953552
vt 1.8999991416931152 0.20000004768371582
vt 1.8999991416931152 0.9999999403953552
vt 2.299999237060547 0.20000004768371582
vt 2.299999237060547 0.9999999403953552
vt 2.6999990940093994 0.20000004768371582
vt 2.6999990940093994 0.9999999403953552
vt 3.099999189376831 0.20000004768371582
vt 3.099999189376831 0.9999999403953552
vt 3.4999990463256836 0.20000004768371582
vt 3.4999990463256836 0.9999999403953552
vt -2.500000476837158 0.9999999403953552
vt -2.1000006198883057 0.20000004768371582
vt -2.1000006198883057 0.9999999403953552
vt -2.500000476837158 0.20000004768371582
vt -1.700000524520874 0.20000004768371582
vt -1.700000524520874 0.9999999403953552
vt -1.3000006675720215 0.20000004768371582
vt -1.3000006675720215 0.9999999403953552
vt -0.9000006914138794 0.16730666160583496
vt -0.9000006914138794 0.9999999403953552
vt -0.5000005960464478 5.960464477539063e-08
vt -0.5000005960464478 0.9999999403953552
vt -0.10000067949295044 5.960464477539063e-08
vt -0.10000067949295044 0.9999999403953552
vt 0.29999929666519165 5.960464477539063e-08
vt 0.29999929666519165 0.9999999403953552
vt 0.6999992728233337 5.960464477539063e-08
vt 0.6999992728233337 0.9999999403953552
vt 1.099999189376831 5.960464477539063e-08
vt 1.099999189376831 0.9999999403953552
vt 1.4999991655349731 5.960464477539063e-08
vt 1.4999991655349731 0.9999999403953552
vt 1.8999991416931152 5.960464477539063e-08
vt 1.8999991416931152 0.9999999403953552
vt 2.299999237060547 5.960464477539063e-08
vt 2.299999237060547 0.9999999403953552
vt 2.6999990940093994 5.960464477539063e-08
vt 2.6999990940093994 0.9999999403953552
vt 3.099998950958252 5.960464477539063e-08
vt 3.099998950958252 0.9999999403953552
vt 3.4999992847442627 5.960464477539063e-08
vt 3.4999992847442627 0.9999999403953552
vt 3.099998950958252 0.9999999403953552
vt 3.4999990463256836 0.20000004768371582
vt 3.4999990463256836 0.9999999403953552
vt 3.099998950958252 0.20000004768371582
vt 2.6999990940093994 0.9999999403953552
vt 2.6999990940093994 0.20000004768371582
vt 2.299999237060547 0.9999999403953552
vt 2.299999237060547 0.20000004768371582
vt 1.8999992609024048 0.9999999403953552
vt 1.8999992609024048 0.20000004768371582
vt 1.4999992847442627 0.9999999403953552
vt 1.4999992847442627 0.20000004768371582
vt 1.099999189376831 0.9999999403953552
vt 1.099999189376831 0.20000004768371582
vt 0.8999992609024048 0.9999999403953552
vt 0.8999992609024048 0.28141313791275024
vt 0.49999916553497314 0.9999999403953552
vt 0.4999992847442627 0.28141313791275024
vt 0.29999929666519165 0.9999999403953552
vt 0.29999929666519165 0.20000004768371582
vt -0.10000061988830566 0.9999999403953552
vt -0.10000061988830566 0.20000004768371582
vt -0.5000007152557373 0.9999999403953552
vt -0.5000007152557373 0.02779984474182129
vt -0.9000005722045898 0.9999999403953552
vt -0.9000005722045898 5.960464477539063e-08
vt -1.3000006675720215 0.9999999403953552
vt -1.3000006675720215 5.960464477539063e-08
vt -1.7000007629394531 0.9999999403953552
vt -1.7000007629394531 5.960464477539063e-08
vt -2.1000006198883057 0.9999999403953552
vt -2.1000006198883057 5.960464477539063e-08
vt -2.500000476837158 0.9999999403953552
vt -2.500000476837158 5.960464477539063e-08

g bg_mdl_map_kawabe00_both
s 1
usemtl bg_mdl_map_kawabe00_both_0
f 3/3/3 2/2/2 1/1/1 
f 4/4/4 1/1/1 2/2/2 
f 1/1/1 5/5/5 3/3/3 
f 6/6/6 3/3/3 5/5/5 
f 5/5/5 7/7/7 6/6/6 
f 8/8/8 6/6/6 7/7/7 
f 7/7/7 9/9/9 8/8/8 
f 10/10/10 8/8/8 9/9/9 
f 9/9/9 11/11/11 10/10/10 
f 12/12/12 10/10/10 11/11/11 
f 11/11/11 13/13/13 12/12/12 
f 14/14/14 12/12/12 13/13/13 
f 13/13/13 15/15/15 14/14/14 
f 16/16/16 14/14/14 15/15/15 
f 15/15/15 17/17/17 16/16/16 
f 18/18/18 16/16/16 17/17/17 
f 17/17/17 19/19/19 18/18/18 
f 20/20/20 18/18/18 19/19/19 
f 19/19/19 21/21/21 20/20/20 
f 22/22/22 20/20/20 21/21/21 
f 21/21/21 23/23/23 22/22/22 
f 24/24/24 22/22/22 23/23/23 
f 23/23/23 25/25/25 24/24/24 
f 26/26/26 24/24/24 25/25/25 
f 25/25/25 27/27/27 26/26/26 
f 28/28/28 26/26/26 27/27/27 
f 27/27/27 29/29/29 28/28/28 
f 30/30/30 28/28/28 29/29/29 
f 30/30/30 29/29/29 31/31/31 
f 32/32/32 31/31/31 29/29/29 
f 17/17/17 33/33/33 19/19/19 
f 33/33/33 17/17/17 34/34/34 
f 33/33/33 34/34/34 35/35/35 
f 36/36/36 35/35/35 34/34/34 
f 34/34/34 37/37/37 36/36/36 
f 38/38/38 36/36/36 37/37/37 
f 37/37/37 39/39/39 38/38/38 
f 40/40/40 38/38/38 39/39/39 
f 39/39/39 41/41/41 40/40/40 
f 42/42/42 40/40/40 41/41/41 
f 41/41/41 43/43/43 42/42/42 
f 44/44/44 42/42/42 43/43/43 
f 43/43/43 45/45/45 44/44/44 
f 46/46/46 44/44/44 45/45/45 
f 45/45/45 47/47/47 46/46/46 
f 48/48/48 46/46/46 47/47/47 
f 47/47/47 49/49/49 48/48/48 
f 50/50/50 48/48/48 49/49/49 
f 48/48/48 50/50/50 51/51/51 
f 52/52/52 51/51/51 50/50/50 
f 51/51/51 52/52/52 53/53/53 
f 54/54/54 53/53/53 52/52/52 
f 46/46/46 48/48/48 55/55/55 
f 51/51/51 55/55/55 48/48/48 
f 55/55/55 51/51/51 56/56/56 
f 53/53/53 56/56/56 51/51/51 
f 44/44/44 46/46/46 57/57/57 
f 55/55/55 57/57/57 46/46/46 
f 57/57/57 55/55/55 58/58/58 
f 56/56/56 58/58/58 55/55/55 
f 57/57/57 59/59/59 44/44/44 
f 42/42/42 44/44/44 59/59/59 
f 59/59/59 57/57/57 60/60/60 
f 58/58/58 60/60/60 57/57/57 
f 59/59/59 61/61/61 42/42/42 
f 40/40/40 42/42/42 61/61/61 
f 61/61/61 59/59/59 62/62/62 
f 60/60/60 62/62/62 59/59/59 
f 61/61/61 63/63/63 40/40/40 
f 38/38/38 40/40/40 63/63/63 
f 63/63/63 61/61/61 64/64/64 
f 62/62/62 64/64/64 61/61/61 
f 63/63/63 65/65/65 38/38/38 
f 36/36/36 38/38/38 65/65/65 
f 65/65/65 63/63/63 66/66/66 
f 64/64/64 66/66/66 63/63/63 
f 65/65/65 67/67/67 36/36/36 
f 35/35/35 36/36/36 67/67/67 
f 67/67/67 65/65/65 68/68/68 
f 66/66/66 68/68/68 65/65/65 
f 67/67/67 69/69/69 35/35/35 
f 70/70/70 35/35/35 69/69/69 
f 35/35/35 70/70/70 33/33/33 
f 71/71/71 33/33/33 70/70/70 
f 69/69/69 67/67/67 72/72/72 
f 68/68/68 72/72/72 67/67/67 
f 70/70/70 73/73/73 71/71/71 
f 74/74/74 71/71/71 73/73/73 
f 73/73/73 70/70/70 75/75/75 
f 69/69/69 75/75/75 70/70/70 
f 75/75/75 69/69/69 76/76/76 
f 72/72/72 76/76/76 69/69/69 
f 73/73/73 77/77/77 74/74/74 
f 78/78/78 74/74/74 77/77/77 
f 77/77/77 73/73/73 79/79/79 
f 75/75/75 79/79/79 73/73/73 
f 79/79/79 75/75/75 80/80/80 
f 76/76/76 80/80/80 75/75/75 
f 77/77/77 81/81/81 78/78/78 
f 82/82/82 78/78/78 81/81/81 
f 81/81/81 77/77/77 83/83/83 
f 79/79/79 83/83/83 77/77/77 
f 83/83/83 79/79/79 84/84/84 
f 80/80/80 84/84/84 79/79/79 
f 81/81/81 85/85/85 82/82/82 
f 86/86/86 82/82/82 85/85/85 
f 85/85/85 81/81/81 87/87/87 
f 83/83/83 87/87/87 81/81/81 
f 87/87/87 83/83/83 88/88/88 
f 84/84/84 88/88/88 83/83/83 
f 85/85/85 89/89/89 86/86/86 
f 90/90/90 86/86/86 89/89/89 
f 89/89/89 85/85/85 91/91/91 
f 87/87/87 91/91/91 85/85/85 
f 91/91/91 87/87/87 92/92/92 
f 88/88/88 92/92/92 87/87/87 
f 89/89/89 93/93/93 90/90/90 
f 94/94/94 90/90/90 93/93/93 
f 93/93/93 89/89/89 95/95/95 
f 91/91/91 95/95/95 89/89/89 
f 95/95/95 91/91/91 96/96/96 
f 92/92/92 96/96/96 91/91/91 
f 86/86/86 27/27/27 82/82/82 
f 25/25/25 82/82/82 27/27/27 
f 27/27/27 86/86/86 29/29/29 
f 90/90/90 29/29/29 86/86/86 
f 29/29/29 90/90/90 32/32/32 
f 94/94/94 32/32/32 90/90/90 
f 23/23/23 78/78/78 25/25/25 
f 78/78/78 23/23/23 74/74/74 
f 21/21/21 74/74/74 23/23/23 
f 74/74/74 21/21/21 71/71/71 
f 19/19/19 71/71/71 21/21/21 
f 71/71/71 19/19/19 33/33/33 
f 82/82/82 25/25/25 78/78/78 
f 99/99/99 98/98/98 97/97/97 
f 100/100/100 97/97/97 98/98/98 
f 97/97/97 100/100/100 101/101/101 
f 102/102/102 101/101/101 100/100/100 
f 97/97/97 103/103/103 99/99/99 
f 104/104/104 99/99/99 103/103/103 
f 103/103/103 97/97/97 105/105/105 
f 101/101/101 105/105/105 97/97/97 
f 103/103/103 106/106/106 104/104/104 
f 107/107/107 104/104/104 106/106/106 
f 106/106/106 103/103/103 108/108/108 
f 105/105/105 108/108/108 103/103/103 
f 106/106/106 109/109/109 107/107/107 
f 110/110/110 107/107/107 109/109/109 
f 107/107/107 110/110/110 111/111/111 
f 112/112/112 111/111/111 110/110/110 
f 111/111/111 112/112/112 113/113/113 
f 114/114/114 113/113/113 112/112/112 
f 113/113/113 114/114/114 115/115/115 
f 116/116/116 115/115/115 114/114/114 
f 115/115/115 116/116/116 117/117/117 
f 118/118/118 117/117/117 116/116/116 
f 109/109/109 106/106/106 119/119/119 
f 108/108/108 119/119/119 106/106/106 
f 116/116/116 120/120/120 118/118/118 
f 121/121/121 118/118/118 120/120/120 
f 120/120/120 116/116/116 122/122/122 
f 114/114/114 122/122/122 116/116/116 
f 122/122/122 114/114/114 123/123/123 
f 112/112/112 123/123/123 114/114/114 
f 123/123/123 112/112/112 124/124/124 
f 110/110/110 124/124/124 112/112/112 
f 124/124/124 110/110/110 125/125/125 
f 109/109/109 125/125/125 110/110/110 
f 125/125/125 109/109/109 126/126/126 
f 119/119/119 126/126/126 109/109/109 
f 120/120/120 127/127/127 121/121/121 
f 128/128/128 121/121/121 127/127/127 
f 127/127/127 120/120/120 129/129/129 
f 122/122/122 129/129/129 120/120/120 
f 129/129/129 122/122/122 130/130/130 
f 123/123/123 130/130/130 122/122/122 
f 130/130/130 123/123/123 131/131/131 
f 124/124/124 131/131/131 123/123/123 
f 131/131/131 124/124/124 132/132/132 
f 125/125/125 132/132/132 124/124/124 
f 132/132/132 125/125/125 133/133/133 
f 126/126/126 133/133/133 125/125/125 
f 127/127/127 134/134/134 128/128/128 
f 135/135/135 128/128/128 134/134/134 
f 134/134/134 127/127/127 136/136/136 
f 129/129/129 136/136/136 127/127/127 
f 136/136/136 129/129/129 137/137/137 
f 130/130/130 137/137/137 129/129/129 
f 137/137/137 130/130/130 138/138/138 
f 131/131/131 138/138/138 130/130/130 
f 138/138/138 131/131/131 139/139/139 
f 132/132/132 139/139/139 131/131/131 
f 139/139/139 132/132/132 140/140/140 
f 133/133/133 140/140/140 132/132/132 
f 134/134/134 141/141/141 135/135/135 
f 142/142/142 135/135/135 141/141/141 
f 141/141/141 134/134/134 143/143/143 
f 136/136/136 143/143/143 134/134/134 
f 143/143/143 136/136/136 144/144/144 
f 137/137/137 144/144/144 136/136/136 
f 144/144/144 137/137/137 145/145/145 
f 138/138/138 145/145/145 137/137/137 
f 145/145/145 138/138/138 146/146/146 
f 139/139/139 146/146/146 138/138/138 
f 146/146/146 139/139/139 147/147/147 
f 140/140/140 147/147/147 139/139/139 
f 141/141/141 148/148/148 142/142/142 
f 149/149/149 142/142/142 148/148/148 
f 148/148/148 141/141/141 150/150/150 
f 143/143/143 150/150/150 141/141/141 
f 150/150/150 143/143/143 151/151/151 
f 144/144/144 151/151/151 143/143/143 
f 151/151/151 144/144/144 152/152/152 
f 145/145/145 152/152/152 144/144/144 
f 152/152/152 145/145/145 153/153/153 
f 146/146/146 153/153/153 145/145/145 
f 153/153/153 146/146/146 154/154/154 
f 147/147/147 154/154/154 146/146/146 
f 148/148/148 155/155/155 149/149/149 
f 156/156/156 149/149/149 155/155/155 
f 155/155/155 148/148/148 157/157/157 
f 150/150/150 157/157/157 148/148/148 
f 157/157/157 150/150/150 158/158/158 
f 151/151/151 158/158/158 150/150/150 
f 158/158/158 151/151/151 159/159/159 
f 152/152/152 159/159/159 151/151/151 
f 159/159/159 152/152/152 160/160/160 
f 153/153/153 160/160/160 152/152/152 
f 160/160/160 153/153/153 161/161/161 
f 154/154/154 161/161/161 153/153/153 
f 155/155/155 162/162/162 156/156/156 
f 163/163/163 156/156/156 162/162/162 
f 162/162/162 155/155/155 164/164/164 
f 157/157/157 164/164/164 155/155/155 
f 164/164/164 157/157/157 165/165/165 
f 158/158/158 165/165/165 157/157/157 
f 165/165/165 158/158/158 166/166/166 
f 159/159/159 166/166/166 158/158/158 
f 166/166/166 159/159/159 167/167/167 
f 160/160/160 167/167/167 159/159/159 
f 167/167/167 160/160/160 168/168/168 
f 161/161/161 168/168/168 160/160/160 
f 167/167/167 169/169/169 166/166/166 
f 170/170/170 166/166/166 169/169/169 
f 169/169/169 167/167/167 171/171/171 
f 168/168/168 171/171/171 167/167/167 
f 169/169/169 172/172/172 170/170/170 
f 173/173/173 170/170/170 172/172/172 
f 172/172/172 169/169/169 174/174/174 
f 171/171/171 174/174/174 169/169/169 
f 172/172/172 175/175/175 173/173/173 
f 176/176/176 173/173/173 175/175/175 
f 175/175/175 172/172/172 177/177/177 
f 174/174/174 177/177/177 172/172/172 
f 175/175/175 178/178/178 176/176/176 
f 179/179/179 176/176/176 178/178/178 
f 178/178/178 175/175/175 180/180/180 
f 177/177/177 180/180/180 175/175/175 
f 4/4/4 49/49/49 1/1/1 
f 47/47/47 1/1/1 49/49/49 
f 1/1/1 47/47/47 5/5/5 
f 45/45/45 5/5/5 47/47/47 
f 5/5/5 45/45/45 7/7/7 
f 43/43/43 7/7/7 45/45/45 
f 7/7/7 43/43/43 9/9/9 
f 41/41/41 9/9/9 43/43/43 
f 9/9/9 41/41/41 11/11/11 
f 39/39/39 11/11/11 41/41/41 
f 11/11/11 39/39/39 13/13/13 
f 37/37/37 13/13/13 39/39/39 
f 13/13/13 37/37/37 15/15/15 
f 34/34/34 15/15/15 37/37/37 
f 15/15/15 34/34/34 17/17/17 

usemtl bg_mdl_map_kawabe00_both_1
f 183/183/183 182/182/182 181/181/181 
f 184/184/184 181/181/181 182/182/182 
f 182/182/182 183/183/183 185/185/185 
f 186/186/186 185/185/185 183/183/183 
f 186/186/186 187/187/187 185/185/185 
f 188/188/188 185/185/185 187/187/187 
f 187/187/187 189/189/189 188/188/188 
f 181/181/181 190/190/190 183/183/183 
f 191/191/191 183/183/183 190/190/190 
f 183/183/183 191/191/191 186/186/186 
f 192/192/192 186/186/186 191/191/191 
f 192/192/192 193/193/193 186/186/186 
f 187/187/187 186/186/186 193/193/193 
f 187/187/187 193/193/193 189/189/189 
f 194/194/194 189/189/189 193/193/193 
f 196/196/196 189/189/189 195/195/195 
f 197/197/197 195/195/195 189/189/189 
f 195/195/195 198/198/198 196/196/196 
f 199/199/199 196/196/196 198/198/198 
f 198/198/198 200/200/200 199/199/199 
f 201/201/201 199/199/199 200/200/200 
f 200/200/200 202/202/202 201/201/201 
f 203/203/203 201/201/201 202/202/202 
f 206/206/206 205/205/205 204/204/204 
f 207/207/207 204/204/204 205/205/205 
f 204/204/204 208/208/208 206/206/206 
f 209/209/209 206/206/206 208/208/208 
f 208/208/208 210/210/210 209/209/209 
f 211/211/211 209/209/209 210/210/210 
f 210/210/210 212/212/212 211/211/211 
f 213/213/213 211/211/211 212/212/212 
f 212/212/212 214/214/214 213/213/213 
f 215/215/215 213/213/213 214/214/214 
f 214/214/214 216/216/216 215/215/215 
f 217/217/217 215/215/215 216/216/216 
f 216/216/216 218/218/218 217/217/217 
f 219/219/219 217/217/217 218/218/218 
f 218/218/218 220/220/220 219/219/219 
f 221/221/221 219/219/219 220/220/220 
f 220/220/220 222/222/222 221/221/221 
f 223/223/223 221/221/221 222/222/222 
f 222/222/222 224/224/224 223/223/223 
f 225/225/225 223/223/223 224/224/224 
f 224/224/224 226/226/226 225/225/225 
f 227/227/227 225/225/225 226/226/226 
f 226/226/226 228/228/228 227/227/227 
f 229/229/229 227/227/227 228/228/228 
f 228/228/228 230/230/230 229/229/229 
f 231/231/231 229/229/229 230/230/230 
f 230/230/230 232/232/232 231/231/231 
f 233/233/233 231/231/231 232/232/232 
f 232/232/232 234/234/234 233/233/233 
f 235/235/235 233/233/233 234/234/234 
f 238/238/238 237/237/237 236/236/236 
f 239/239/239 236/236/236 237/237/237 
f 236/236/236 240/240/240 238/238/238 
f 241/241/241 238/238/238 240/240/240 
f 240/240/240 242/242/242 241/241/241 
f 243/243/243 241/241/241 242/242/242 
f 242/242/242 244/244/244 243/243/243 
f 245/245/245 243/243/243 244/244/244 
f 239/239/239 247/247/247 246/246/246 
f 250/250/250 249/249/249 248/248/248 
f 251/251/251 248/248/248 249/249/249 
f 248/248/248 252/252/252 250/250/250 
f 253/253/253 250/250/250 252/252/252 
f 252/252/252 254/254/254 253/253/253 
f 255/255/255 253/253/253 254/254/254 
f 254/254/254 256/256/256 255/255/255 
f 257/257/257 255/255/255 256/256/256 
f 256/256/256 258/258/258 257/257/257 
f 259/259/259 257/257/257 258/258/258 
f 258/258/258 260/260/260 259/259/259 
f 261/261/261 259/259/259 260/260/260 
f 264/264/264 263/263/263 262/262/262 
f 265/265/265 262/262/262 263/263/263 
f 262/262/262 266/266/266 264/264/264 
f 267/267/267 264/264/264 266/266/266 
f 266/266/266 268/268/268 267/267/267 
f 269/269/269 267/267/267 268/268/268 
f 268/268/268 270/270/270 269/269/269 
f 271/271/271 269/269/269 270/270/270 
f 270/270/270 272/272/272 271/271/271 
f 273/273/273 271/271/271 272/272/272 
f 273/273/273 272/272/272 274/274/274 
f 275/275/275 274/274/274 272/272/272 
f 278/278/278 277/277/277 276/276/276 
f 279/279/279 276/276/276 277/277/277 
f 276/276/276 279/279/279 280/280/280 
f 281/281/281 280/280/280 279/279/279 
f 280/280/280 281/281/281 282/282/282 
f 283/283/283 282/282/282 281/281/281 
f 282/282/282 283/283/283 284/284/284 
f 285/285/285 284/284/284 283/283/283 
f 284/284/284 285/285/285 286/286/286 
f 287/287/287 286/286/286 285/285/285 
f 286/286/286 287/287/287 288/288/288 
f 289/289/289 288/288/288 287/287/287 
f 288/288/288 289/289/289 290/290/290 
f 291/291/291 290/290/290 289/289/289 
f 294/294/294 293/293/293 292/292/292 
f 295/295/295 292/292/292 293/293/293 
f 292/292/292 295/295/295 296/296/296 
f 297/297/297 296/296/296 295/295/295 
f 296/296/296 297/297/297 298/298/298 
f 299/299/299 298/298/298 297/297/297 
f 298/298/298 299/299/299 300/300/300 
f 301/301/301 300/300/300 299/299/299 
f 300/300/300 301/301/301 302/302/302 
f 303/303/303 302/302/302 301/301/301 
f 302/302/302 303/303/303 304/304/304 
f 305/305/305 304/304/304 303/303/303 

usemtl bg_mdl_map_kawabe00_both_2
f 308/308/308 307/307/307 306/306/306 
f 309/309/309 306/306/306 307/307/307 
f 306/306/306 309/309/309 310/310/310 
f 311/311/311 310/310/310 309/309/309 
f 310/310/310 311/311/311 312/312/312 
f 313/313/313 312/312/312 311/311/311 
f 312/312/312 313/313/313 99/99/99 
f 98/98/98 99/99/99 313/313/313 
f 306/306/306 314/314/314 308/308/308 
f 315/315/315 308/308/308 314/314/314 
f 314/314/314 306/306/306 316/316/316 
f 310/310/310 316/316/316 306/306/306 
f 316/316/316 310/310/310 317/317/317 
f 312/312/312 317/317/317 310/310/310 
f 314/314/314 115/115/115 315/315/315 
f 117/117/117 315/315/315 115/115/115 
f 115/115/115 314/314/314 113/113/113 
f 316/316/316 113/113/113 314/314/314 
f 113/113/113 316/316/316 111/111/111 
f 317/317/317 111/111/111 316/316/316 
f 111/111/111 317/317/317 107/107/107 
f 104/104/104 107/107/107 317/317/317 
f 317/317/317 318/318/318 104/104/104 
f 312/312/312 318/318/318 317/317/317 
f 99/99/99 318/318/318 312/312/312 
f 99/99/99 104/104/104 318/318/318 
f 320/320/320 163/163/163 319/319/319 
f 162/162/162 319/319/319 163/163/163 
f 319/319/319 162/162/162 321/321/321 
f 164/164/164 321/321/321 162/162/162 
f 321/321/321 164/164/164 322/322/322 
f 165/165/165 322/322/322 164/164/164 
f 322/322/322 165/165/165 170/170/170 
f 166/166/166 170/170/170 165/165/165 
f 319/319/319 323/323/323 320/320/320 
f 324/324/324 320/320/320 323/323/323 
f 323/323/323 319/319/319 325/325/325 
f 321/321/321 325/325/325 319/319/319 
f 325/325/325 321/321/321 326/326/326 
f 322/322/322 326/326/326 321/321/321 
f 326/326/326 322/322/322 173/173/173 
f 170/170/170 173/173/173 322/322/322 
f 323/323/323 327/327/327 324/324/324 
f 328/328/328 324/324/324 327/327/327 
f 327/327/327 323/323/323 329/329/329 
f 325/325/325 329/329/329 323/323/323 
f 329/329/329 325/325/325 330/330/330 
f 326/326/326 330/330/330 325/325/325 
f 330/330/330 326/326/326 176/176/176 
f 173/173/173 176/176/176 326/326/326 
f 327/327/327 331/331/331 328/328/328 
f 332/332/332 328/328/328 331/331/331 
f 331/331/331 327/327/327 333/333/333 
f 329/329/329 333/333/333 327/327/327 
f 333/333/333 329/329/329 334/334/334 
f 330/330/330 334/334/334 329/329/329 
f 334/334/334 330/330/330 179/179/179 
f 176/176/176 179/179/179 330/330/330 
f 337/337/337 336/336/336 335/335/335 
f 338/338/338 335/335/335 336/336/336 
f 335/335/335 338/338/338 339/339/339 
f 340/340/340 339/339/339 338/338/338 
f 339/339/339 340/340/340 341/341/341 
f 342/342/342 341/341/341 340/340/340 
f 341/341/341 342/342/342 343/343/343 
f 344/344/344 343/343/343 342/342/342 
f 343/343/343 344/344/344 345/345/345 
f 346/346/346 345/345/345 344/344/344 
f 345/345/345 346/346/346 347/347/347 
f 348/348/348 347/347/347 346/346/346 
f 347/347/347 348/348/348 349/349/349 
f 350/350/350 349/349/349 348/348/348 
f 349/349/349 350/350/350 351/351/351 
f 352/352/352 351/351/351 350/350/350 
f 351/351/351 352/352/352 353/353/353 
f 354/354/354 353/353/353 352/352/352 
f 353/353/353 354/354/354 355/355/355 
f 356/356/356 355/355/355 354/354/354 
f 355/355/355 356/356/356 357/357/357 
f 358/358/358 357/357/357 356/356/356 
f 357/357/357 358/358/358 359/359/359 
f 360/360/360 359/359/359 358/358/358 
f 359/359/359 360/360/360 361/361/361 
f 362/362/362 361/361/361 360/360/360 
f 361/361/361 362/362/362 363/363/363 
f 364/364/364 363/363/363 362/362/362 
f 363/363/363 364/364/364 365/365/365 
f 366/366/366 365/365/365 364/364/364 
f 369/369/369 368/368/368 367/367/367 
f 370/370/370 367/367/367 368/368/368 
f 368/368/368 369/369/369 371/371/371 
f 372/372/372 371/371/371 369/369/369 
f 371/371/371 372/372/372 373/373/373 
f 374/374/374 373/373/373 372/372/372 
f 373/373/373 374/374/374 375/375/375 
f 376/376/376 375/375/375 374/374/374 
f 375/375/375 376/376/376 377/377/377 
f 378/378/378 377/377/377 376/376/376 
f 377/377/377 378/378/378 379/379/379 
f 380/380/380 379/379/379 378/378/378 
f 379/379/379 380/380/380 381/381/381 
f 382/382/382 381/381/381 380/380/380 
f 381/381/381 382/382/382 383/383/383 
f 384/384/384 383/383/383 382/382/382 
f 383/383/383 384/384/384 385/385/385 
f 386/386/386 385/385/385 384/384/384 
f 385/385/385 386/386/386 387/387/387 
f 388/388/388 387/387/387 386/386/386 
f 387/387/387 388/388/388 389/389/389 
f 390/390/390 389/389/389 388/388/388 
f 389/389/389 390/390/390 391/391/391 
f 392/392/392 391/391/391 390/390/390 
f 391/391/391 392/392/392 393/393/393 
f 394/394/394 393/393/393 392/392/392 
f 393/393/393 394/394/394 395/395/395 
f 396/396/396 395/395/395 394/394/394 
f 395/395/395 396/396/396 397/397/397 
f 398/398/398 397/397/397 396/396/396 
f 397/397/397 398/398/398 399/399/399 
f 400/400/400 399/399/399 398/398/398 
f 403/403/403 402/402/402 401/401/401 
f 404/404/404 401/401/401 402/402/402 
f 402/402/402 403/403/403 405/405/405 
f 406/406/406 405/405/405 403/403/403 
f 405/405/405 406/406/406 407/407/407 
f 408/408/408 407/407/407 406/406/406 
f 407/407/407 408/408/408 409/409/409 
f 410/410/410 409/409/409 408/408/408 
f 409/409/409 410/410/410 411/411/411 
f 412/412/412 411/411/411 410/410/410 
f 411/411/411 412/412/412 413/413/413 
f 414/414/414 413/413/413 412/412/412 
f 413/413/413 414/414/414 415/415/415 
f 416/416/416 415/415/415 414/414/414 
f 415/415/415 416/416/416 417/417/417 
f 418/418/418 417/417/417 416/416/416 
f 417/417/417 418/418/418 419/419/419 
f 420/420/420 419/419/419 418/418/418 
f 419/419/419 420/420/420 421/421/421 
f 422/422/422 421/421/421 420/420/420 
f 421/421/421 422/422/422 423/423/423 
f 424/424/424 423/423/423 422/422/422 
f 423/423/423 424/424/424 425/425/425 
f 426/426/426 425/425/425 424/424/424 
f 425/425/425 426/426/426 427/427/427 
f 428/428/428 427/427/427 426/426/426 
f 427/427/427 428/428/428 429/429/429 
f 430/430/430 429/429/429 428/428/428 
f 429/429/429 430/430/430 431/431/431 
f 432/432/432 431/431/431 430/430/430 
f 435/435/435 434/434/434 433/433/433 
f 436/436/436 433/433/433 434/434/434 
f 433/433/433 436/436/436 437/437/437 
f 438/438/438 437/437/437 436/436/436 
f 437/437/437 438/438/438 439/439/439 
f 440/440/440 439/439/439 438/438/438 
f 439/439/439 440/440/440 441/441/441 
f 442/442/442 441/441/441 440/440/440 
f 441/441/441 442/442/442 443/443/443 
f 444/444/444 443/443/443 442/442/442 
f 443/443/443 444/444/444 445/445/445 
f 446/446/446 445/445/445 444/444/444 
f 445/445/445 446/446/446 447/447/447 
f 448/448/448 447/447/447 446/446/446 
f 447/447/447 448/448/448 449/449/449 
f 450/450/450 449/449/449 448/448/448 
f 449/449/449 450/450/450 451/451/451 
f 452/452/452 451/451/451 450/450/450 
f 451/451/451 452/452/452 453/453/453 
f 454/454/454 453/453/453 452/452/452 
f 453/453/453 454/454/454 455/455/455 
f 456/456/456 455/455/455 454/454/454 
f 455/455/455 456/456/456 457/457/457 
f 458/458/458 457/457/457 456/456/456 
f 457/457/457 458/458/458 459/459/459 
f 460/460/460 459/459/459 458/458/458 
f 459/459/459 460/460/460 461/461/461 
f 462/462/462 461/461/461 460/460/460 
f 461/461/461 462/462/462 463/463/463 
f 464/464/464 463/463/463 462/462/462 
f 463/463/463 464/464/464 465/465/465 
f 466/466/466 465/465/465 464/464/464 

