v 5.0 4.0 0.500000536441803
v 4.0 5.0 0.5000006556510925
v 5.0 5.0 0.500000536441803
v 4.0 4.0 0.5000006556510925
v 5.0 10.0 0.500000536441803
v 3.9999992847442627 11.0 0.49999967217445374
v 5.0 11.000000953674316 0.49999961256980896
v 4.0 10.0 0.5000006556510925
v 5.0 3.0 0.5000005960464478
v 6.000000476837158 2.0 0.500000536441803
v 5.0 2.0 0.5000005960464478
v 6.0 3.0 0.500000536441803
v 5.0 4.0 0.500000536441803
v 6.0 4.0 0.500000536441803
v 5.0 5.0 0.500000536441803
v 6.0 5.0 0.5000002384185791
v 5.0 6.0 0.5000005960464478
v 6.0 6.0 0.5000004172325134
v 5.0 7.0 0.5000005960464478
v 6.0 7.0 0.5000004172325134
v 5.0 8.0 0.5000005960464478
v 6.0 8.0 0.5000004172325134
v 5.0 9.0 0.5000005960464478
v 6.0 9.0 0.5000005960464478
v 5.0 10.0 0.500000536441803
v 6.0 10.0 0.5000005960464478
v 5.0 11.000000953674316 0.49999961256980896
v 5.999999046325684 11.0 0.5000000596046448
v 4.0 6.0 0.5000005960464478
v 4.0 5.0 0.5000006556510925
v 4.0 7.0 0.5000005960464478
v 4.0 8.0 0.5000005960464478
v 4.0 9.0 0.5000005960464478
v 4.0 10.0 0.5000006556510925
v 3.0 6.0 0.5000006556510925
v 3.000000476837158 5.000000476837158 0.5000004172325134
v 4.0 4.0 0.5000006556510925
v 3.000000238418579 4.0 0.5000006556510925
v 4.0 3.0 0.5000005960464478
v 4.0 2.0 0.5000005960464478
v 3.000000238418579 3.0 0.5000006556510925
v 3.000000476837158 2.0 0.5000006556510925
v 3.0 8.0 0.5000011324882507
v 3.0 7.0 0.5000006556510925
v 4.0 1.0 0.5000006556510925
v 5.0 1.0 0.5000007748603821
v 6.0 1.0 0.5000007152557373
v 3.0 1.0 0.5000007152557373
v 3.0 9.0 0.5000008344650269
v 3.0 10.0 0.5000007748603821
v 2.9999992847442627 11.0 0.49999985098838806
v 3.9999992847442627 11.0 0.49999967217445374
v 7.0 3.0 -5.841586059318615e-08
v 8.0 2.0 -5.126461388726966e-08
v 7.0 2.0 -5.841586059318615e-08
v 8.0 3.000000238418579 -5.126461388726966e-08
v 7.000000476837158 3.9999992847442627 -2.390162876508839e-07
v 8.0 3.000000238418579 -5.126461388726966e-08
v 7.0 3.0 -5.841586059318615e-08
v 8.0 3.999999523162842 8.343098656382608e-09
v 9.0 3.000000238418579 8.463262446412045e-08
v 9.0 2.0 2.2768384155824606e-07
v 8.0 2.0 -5.126461388726966e-08
v 9.0 4.0 3.85639054911735e-07
v 6.000000953674316 3.9999992847442627 -3.8266279034360196e-07
v 6.0 3.0 -6.556709308824793e-08
v 7.0 2.0 -5.841586059318615e-08
v 7.999999046325684 1.0000011920928955 2.3801658244337887e-07
v 6.999999046325684 1.0000005960464478 2.245075307882871e-07
v 6.0 2.0 -6.556709308824793e-08
v 8.999999046325684 1.0000011920928955 2.992093470766122e-07
v 6.0 1.0000005960464478 3.3972753499256214e-08
v 2.000000238418579 2.0 6.556707177196586e-08
v 1.000000238418579 2.999999523162842 6.556710729910264e-08
v 2.0 3.0 6.556707177196586e-08
v 1.000000238418579 2.0 6.556710729910264e-08
v 1.0 3.999999523162842 1.0907749725674876e-07
v 1.9999991655349731 4.000000476837158 4.5418806848829263e-07
v 2.000000238418579 1.0 1.5696218724770006e-07
v 1.000000238418579 1.0 1.8160011450163438e-07
v 3.0517577442878974e-07 2.999999523162842 6.556714282623943e-08
v 3.0517577442878974e-07 2.0 6.556714282623943e-08
v 3.000000238418579 2.0 6.556709308824793e-08
v 3.0 3.0 6.556709308824793e-08
v 3.0517577442878974e-07 3.999999523162842 3.2783571413119716e-08
v 2.999998092651367 4.0 6.812820743107295e-07
v 3.0517577442878974e-07 1.0 1.6809106284654263e-07
v 3.0 1.0 3.045817607016943e-07
v 4.999999523162842 0.0 0.5000008344650269
v 6.0 1.0 0.5000007152557373
v 6.0 0.0 0.5000008344650269
v 5.0 1.0 0.5000007748603821
v 3.999999523162842 0.0 0.5000008344650269
v 4.0 1.0 0.5000006556510925
v 3.0 0.0 0.5000007748603821
v 3.0 1.0 0.5000007152557373
v 6.0 6.0 0.5000004172325134
v 7.0 5.000000476837158 0.5000002980232239
v 6.0 5.0 0.5000002384185791
v 7.0 6.0 0.5000004172325134
v 6.0 7.0 0.5000004172325134
v 7.0 7.0 0.5000004172325134
v 6.0 8.0 0.5000004172325134
v 7.0 8.0 0.5000003576278687
v 2.000000476837158 6.0 0.5000007748603821
v 3.000000476837158 5.000000476837158 0.5000004172325134
v 2.000000476837158 5.000000476837158 0.500000536441803
v 3.0 6.0 0.5000006556510925
v 2.000000476837158 7.0 0.5000007748603821
v 3.0 7.0 0.5000006556510925
v 2.000000238418579 8.0 0.5000013113021851
v 3.0 8.0 0.5000011324882507
v 9.0 4.0 3.85639054911735e-07
v 10.0 3.0 2.1735097277542081e-07
v 9.0 3.000000238418579 8.463262446412045e-08
v 10.0 4.0 4.5199823262009886e-07
v 9.0 3.000000238418579 8.463262446412045e-08
v 9.999998092651367 2.0000011920928955 5.034533501202532e-07
v 9.0 2.0 2.2768384155824606e-07
v 10.0 3.0 2.1735097277542081e-07
v 10.999998092651367 2.0000011920928955 5.64646086331777e-07
v 11.0 3.0 2.2132334720481595e-07
v 10.0 4.0 4.5199823262009886e-07
v 11.0 4.0 4.921313916383951e-07
v 6.999999046325684 11.0 0.4999997615814209
v 7.999999046325684 10.000000953674316 0.5000001788139343
v 7.0 10.0 0.5000004768371582
v 7.999999046325684 11.000000953674316 0.49999961256980896
v 7.0 10.0 0.5000004768371582
v 7.999998569488525 9.000001907348633 0.5000003576278687
v 6.999999046325684 9.000000953674316 0.5000007748603821
v 7.999999046325684 10.000000953674316 0.5000001788139343
v 6.0 10.0 0.5000005960464478
v 5.999999046325684 11.0 0.5000000596046448
v 6.999999046325684 11.0 0.4999997615814209
v 6.0 9.0 0.5000005960464478
v 2.0 10.0 0.5000007152557373
v 0.9831883311271667 11.00242805480957 0.5000000596046448
v 1.9999996423721313 11.0 0.5
v 0.9999997019767761 10.0 0.500001072883606
v 2.0 9.0 0.5000010132789612
v 0.9999997019767761 9.0 0.5000012516975403
v 3.0 10.0 0.5000007748603821
v 2.9999992847442627 11.0 0.49999985098838806
v 3.0 9.0 0.5000008344650269
v 6.0 5.000000953674316 -4.4584470515474095e-07
v 6.0 3.999999523162842 -2.000000476837158
v 6.000000953674316 3.9999992847442627 -3.8266279034360196e-07
v 6.0 5.0 -2.000000238418579
v 9.0 2.0 -2.0000009536743164
v 9.0 3.000000238418579 -0.42567238211631775
v 9.0 3.000000238418579 -2.0000009536743164
v 9.0 2.0 -0.4256717562675476
v 9.0 3.000000238418579 -2.0000009536743164
v 9.0 4.0 -0.42567184567451477
v 9.0 4.0 -2.0000009536743164
v 9.0 3.000000238418579 -0.42567238211631775
v 8.999999046325684 1.0000011920928955 -2.0000007152557373
v 9.0 2.0 -0.4256717562675476
v 9.0 2.0 -2.0000009536743164
v 8.999999046325684 1.0000011920928955 -0.42567184567451477
v 2.9999992847442627 1.0 -2.0
v 2.000000238418579 1.0 -0.4256713390350342
v 3.0 1.0 -0.4256709814071655
v 1.9999996423721313 1.0 -1.9999996423721313
v -0.0 1.0 -1.9999995231628418
v 1.000000238418579 0.9999993443489075 -0.4256713390350342
v 1.0 0.9999993443489075 -1.9999994039535522
v 3.0517577442878974e-07 1.0 -0.42567136883735657
v 8.999999046325684 1.0000011920928955 -2.0000007152557373
v 7.999998569488525 1.0000017881393433 -0.4256715774536133
v 8.999999046325684 1.0000011920928955 -0.42567184567451477
v 7.999997615814209 1.0000017881393433 -2.000000238418579
v 6.999998569488525 1.0000011920928955 -2.0
v 7.999998569488525 1.0000017881393433 -0.4256715774536133
v 7.999997615814209 1.0000017881393433 -2.000000238418579
v 6.999998569488525 1.0000011920928955 -0.42567145824432373
v 5.999998569488525 1.0000011920928955 -2.000000238418579
v 6.999998569488525 1.0000011920928955 -0.42567145824432373
v 6.999998569488525 1.0000011920928955 -2.0
v 5.999999046325684 1.0000011920928955 -0.4256710708141327
v 5.999999046325684 1.0000011920928955 -0.4256710708141327
v 4.999998569488525 1.0000011920928955 -2.0
v 4.999999046325684 1.0000011920928955 -0.4256700873374939
v 5.999998569488525 1.0000011920928955 -2.000000238418579
v 4.999998569488525 1.0000011920928955 -2.0
v 3.999999523162842 1.0000005960464478 -0.4256698787212372
v 4.999999046325684 1.0000011920928955 -0.4256700873374939
v 3.9999992847442627 1.0000005960464478 -1.9999995231628418
v 3.9999992847442627 1.0000005960464478 -1.9999995231628418
v 3.0 1.0 -0.4256709814071655
v 3.999999523162842 1.0000005960464478 -0.4256698787212372
v 2.9999992847442627 1.0 -2.0
v 2.9999992847442627 9.0 -2.0
v 2.0 9.0 0.07432916760444641
v 3.0 9.0 0.07432924956083298
v 1.9999995231628418 9.0 -1.999999761581421
v 1.0 9.0 -1.9999991655349731
v 2.0 9.0 0.07432916760444641
v 1.9999995231628418 9.0 -1.999999761581421
v 0.9999997019767761 9.0 0.07432954758405685
v 6.999998092651367 9.000001907348633 -2.0000007152557373
v 7.999998569488525 9.000001907348633 0.07432843744754791
v 7.999998092651367 9.000001907348633 -2.0000011920928955
v 6.999998569488525 9.000001907348633 0.07432897388935089
v 6.0 9.0 -2.000000238418579
v 6.999998569488525 9.000001907348633 0.07432897388935089
v 6.999998092651367 9.000001907348633 -2.0000007152557373
v 5.999999046325684 9.000000953674316 0.0743291974067688
v 7.999998092651367 9.000001907348633 -2.0000011920928955
v 7.999998569488525 10.000001907348633 0.07432840019464493
v 7.999998569488525 10.000001907348633 -2.0000014305114746
v 7.999998569488525 9.000001907348633 0.07432843744754791
v 7.999998569488525 10.000001907348633 -2.0000014305114746
v 7.999998569488525 11.000000953674316 0.07432806491851807
v 7.999998569488525 11.0 -2.0000016689300537
v 7.999998569488525 10.000001907348633 0.07432840019464493
v 6.000000953674316 5.999998569488525 -2.000000476837158
v 6.000000476837158 7.0 -8.547327183805464e-07
v 6.000000953674316 6.999999046325684 -2.000000476837158
v 6.000000476837158 6.0 -8.547327183805464e-07
v 6.000000953674316 6.999999046325684 -2.000000476837158
v 6.000000476837158 8.0 -3.532589403221209e-07
v 6.000000476837158 7.999999046325684 -2.000000476837158
v 6.000000476837158 7.0 -8.547327183805464e-07
v 6.0 5.0 -2.000000238418579
v 6.000000476837158 6.0 -8.547327183805464e-07
v 6.000000953674316 5.999998569488525 -2.000000476837158
v 6.0 5.000000953674316 -4.4584470515474095e-07
v 6.0 9.0 -3.361722349382035e-07
v 6.000000476837158 7.999999046325684 -2.000000476837158
v 6.000000476837158 8.0 -3.532589403221209e-07
v 6.0 9.0 -2.000000238418579
v 1.9999996423721313 1.0 -1.9999996423721313
v 1.000000238418579 0.9999993443489075 -0.4256713390350342
v 2.000000238418579 1.0 -0.4256713390350342
v 1.0 0.9999993443489075 -1.9999994039535522
v 9.0 4.0 -2.0000009536743164
v 8.0 4.0 -0.42567160725593567
v 7.999998569488525 4.0 -2.000000476837158
v 9.0 4.0 -0.42567184567451477
v 7.0 3.9999992847442627 -2.000000238418579
v 8.0 4.0 -0.42567160725593567
v 7.0 3.9999992847442627 -0.42567190527915955
v 7.999998569488525 4.0 -2.000000476837158
v 6.0 3.999999523162842 -2.000000476837158
v 7.0 3.9999992847442627 -0.42567190527915955
v 6.000000953674316 3.9999992847442627 -0.4256715178489685
v 7.0 3.9999992847442627 -2.000000238418579
v 2.999997854232788 4.000000476837158 -2.000000238418579
v 1.9999979734420776 4.000000953674316 -0.42567092180252075
v 1.999996542930603 4.000000953674316 -2.0
v 2.999997138977051 4.000000953674316 -0.42567089200019836
v 0.9999978542327881 4.000000476837158 -1.9999996423721313
v 1.9999979734420776 4.000000953674316 -0.42567092180252075
v 0.9999984502792358 4.000000476837158 -0.425671249628067
v 1.999996542930603 4.000000953674316 -2.0
v -2.136230477844947e-06 4.000000476837158 -2.0
v 0.9999984502792358 4.000000476837158 -0.425671249628067
v -9.155273232863692e-07 4.000000476837158 -0.42567095160484314
v 0.9999978542327881 4.000000476837158 -1.9999996423721313
v 7.999998569488525 11.000000953674316 0.07432806491851807
v 6.999998569488525 11.0 -2.0000011920928955
v 7.999998569488525 11.0 -2.0000016689300537
v 6.999998569488525 11.000000953674316 0.07432883977890015
v 6.999998569488525 11.0 -2.0000011920928955
v 5.999998569488525 11.000000953674316 0.07432930171489716
v 5.999998569488525 11.0 -2.0000009536743164
v 6.999998569488525 11.000000953674316 0.07432883977890015
v 5.999998569488525 11.0 -2.0000009536743164
v 4.999999046325684 11.000000953674316 0.07432769238948822
v 4.999998569488525 11.0 -2.0000016689300537
v 5.999998569488525 11.000000953674316 0.07432930171489716
v 4.999999046325684 11.000000953674316 0.07432769238948822
v 3.9999988079071045 11.0 -2.0000016689300537
v 4.999998569488525 11.0 -2.0000016689300537
v 3.9999988079071045 11.000000953674316 0.0743282288312912
v 3.9999988079071045 11.0 -2.0000016689300537
v 2.9999988079071045 11.000000953674316 0.07432869076728821
v 2.9999988079071045 11.0 -2.0000014305114746
v 3.9999988079071045 11.000000953674316 0.0743282288312912
v 2.9999988079071045 11.0 -2.0000014305114746
v 1.9999994039535522 11.0 0.07432864606380463
v 1.9999990463256836 11.0 -2.0000009536743164
v 2.9999988079071045 11.000000953674316 0.07432869076728821
v 1.9999990463256836 11.0 -2.0000009536743164
v 0.9831881523132324 11.002429008483887 0.07432754337787628
v 0.9831875562667847 11.00242805480957 -2.0000016689300537
v 1.9999994039535522 11.0 0.07432864606380463
v 6.0 1.0000005960464478 3.3972753499256214e-08
v 4.999999046325684 1.0000011920928955 -0.4256700873374939
v 4.999999046325684 1.0000011920928955 1.1761934359810766e-07
v 5.999999046325684 1.0000011920928955 -0.4256710708141327
v 4.999999046325684 1.0000011920928955 1.1761934359810766e-07
v 3.999999523162842 1.0000005960464478 -0.4256698787212372
v 3.999999523162842 1.0000005960464478 3.2107115544022236e-07
v 4.999999046325684 1.0000011920928955 -0.4256700873374939
v 3.999999523162842 1.0000005960464478 3.2107115544022236e-07
v 3.0 1.0 -0.4256709814071655
v 3.0 1.0 3.045817607016943e-07
v 3.999999523162842 1.0000005960464478 -0.4256698787212372
v 6.0 3.0 0.500000536441803
v 6.0 2.0 -6.556709308824793e-08
v 6.000000476837158 2.0 0.500000536441803
v 6.0 3.0 -6.556709308824793e-08
v 6.0 1.0 0.5000007152557373
v 6.0 1.0000005960464478 3.3972753499256214e-08
v 6.0 4.0 0.500000536441803
v 6.0 3.0 -6.556709308824793e-08
v 6.0 3.0 0.500000536441803
v 6.000000953674316 3.9999992847442627 -3.8266279034360196e-07
v 6.0 5.0 0.5000002384185791
v 6.0 5.000000953674316 -4.4584470515474095e-07
v 6.0 9.0 0.5000005960464478
v 6.000000476837158 8.0 -3.532589403221209e-07
v 6.0 8.0 0.5000004172325134
v 6.0 9.0 -3.361722349382035e-07
v 9.0 2.0 -0.4256717562675476
v 8.999999046325684 1.0000011920928955 2.992093470766122e-07
v 9.0 2.0 2.2768384155824606e-07
v 8.999999046325684 1.0000011920928955 -0.42567184567451477
v 2.000000238418579 1.0 -0.4256713390350342
v 1.000000238418579 1.0 1.8160011450163438e-07
v 2.000000238418579 1.0 1.5696218724770006e-07
v 1.000000238418579 0.9999993443489075 -0.4256713390350342
v 3.0 1.0 3.045817607016943e-07
v 3.0 1.0 -0.4256709814071655
v 1.000000238418579 0.9999993443489075 -0.4256713390350342
v 3.0517577442878974e-07 1.0 1.6809106284654263e-07
v 1.000000238418579 1.0 1.8160011450163438e-07
v 3.0517577442878974e-07 1.0 -0.42567136883735657
v 7.999998569488525 1.0000017881393433 -0.4256715774536133
v 6.999999046325684 1.0000005960464478 2.245075307882871e-07
v 7.999999046325684 1.0000011920928955 2.3801658244337887e-07
v 6.999998569488525 1.0000011920928955 -0.42567145824432373
v 8.999999046325684 1.0000011920928955 2.992093470766122e-07
v 8.999999046325684 1.0000011920928955 -0.42567184567451477
v 6.999998569488525 1.0000011920928955 -0.42567145824432373
v 6.0 1.0000005960464478 3.3972753499256214e-08
v 6.999999046325684 1.0000005960464478 2.245075307882871e-07
v 5.999999046325684 1.0000011920928955 -0.4256710708141327
v 6.0 0.0 0.5000008344650269
v 6.0 1.0000005960464478 3.3972753499256214e-08
v 5.999998569488525 1.220703097715159e-06 3.159026960020128e-07
v 6.0 1.0 0.5000007152557373
v 2.999999523162842 0.0 3.7074292436045653e-07
v 3.999999523162842 0.0 0.5000008344650269
v 3.9999992847442627 6.103515488575795e-07 4.0332545836463396e-07
v 3.0 0.0 0.5000007748603821
v 3.9999992847442627 6.103515488575795e-07 4.0332545836463396e-07
v 4.999999523162842 0.0 0.5000008344650269
v 4.999999046325684 1.220703097715159e-06 3.5961406297246867e-07
v 3.999999523162842 0.0 0.5000008344650269
v 4.999999046325684 1.220703097715159e-06 3.5961406297246867e-07
v 6.0 0.0 0.5000008344650269
v 5.999998569488525 1.220703097715159e-06 3.159026960020128e-07
v 4.999999523162842 0.0 0.5000008344650269
v 7.0 6.0 0.5000004172325134
v 6.999999046325684 5.000000953674316 -3.0001331197127e-07
v 7.0 5.000000476837158 0.5000002980232239
v 7.0 6.0 8.145637764300773e-08
v 7.0 7.0 0.5000004172325134
v 7.0 7.0 8.145637764300773e-08
v 7.0 8.0 0.5000003576278687
v 7.0 7.0 8.145637764300773e-08
v 7.0 7.0 0.5000004172325134
v 7.0 8.0 -1.5696218724770006e-07
v 7.0 8.0 -1.5696218724770006e-07
v 6.0 8.0 0.5000004172325134
v 6.000000476837158 8.0 -3.532589403221209e-07
v 7.0 8.0 0.5000003576278687
v 6.0 5.000000953674316 -4.4584470515474095e-07
v 7.0 5.000000476837158 0.5000002980232239
v 6.999999046325684 5.000000953674316 -3.0001331197127e-07
v 6.0 5.0 0.5000002384185791
v 2.000000476837158 5.000001430511475 -2.3404430748996674e-07
v 3.000000476837158 5.000000476837158 0.5000004172325134
v 3.000000476837158 5.000001907348633 -3.063659050894785e-07
v 2.000000476837158 5.000000476837158 0.500000536441803
v 11.0 4.0 -0.4256714880466461
v 11.0 3.0 2.2132334720481595e-07
v 11.0 4.0 4.921313916383951e-07
v 11.0 3.0 -0.42567160725593567
v 11.0 3.0 -0.42567160725593567
v 10.999998092651367 2.0000011920928955 5.64646086331777e-07
v 11.0 3.0 2.2132334720481595e-07
v 10.999998092651367 2.0000011920928955 -0.4256713390350342
v 9.999998092651367 2.0000011920928955 -0.4256711006164551
v 9.0 2.0 2.2768384155824606e-07
v 9.999998092651367 2.0000011920928955 5.034533501202532e-07
v 9.0 2.0 -0.4256717562675476
v 10.999998092651367 2.0000011920928955 5.64646086331777e-07
v 10.999998092651367 2.0000011920928955 -0.4256713390350342
v 2.0 9.0 0.07432916760444641
v 0.9999997019767761 9.0 0.5000012516975403
v 2.0 9.0 0.5000010132789612
v 0.9999997019767761 9.0 0.07432954758405685
v 3.0 9.0 0.5000008344650269
v 3.0 9.0 0.07432924956083298
v 7.999998569488525 9.000001907348633 0.07432843744754791
v 6.999999046325684 9.000000953674316 0.5000007748603821
v 7.999998569488525 9.000001907348633 0.5000003576278687
v 6.999998569488525 9.000001907348633 0.07432897388935089
v 6.999998569488525 9.000001907348633 0.07432897388935089
v 6.0 9.0 0.5000005960464478
v 6.999999046325684 9.000000953674316 0.5000007748603821
v 5.999999046325684 9.000000953674316 0.0743291974067688
v 7.999998569488525 10.000001907348633 0.07432840019464493
v 7.999998569488525 9.000001907348633 0.5000003576278687
v 7.999999046325684 10.000000953674316 0.5000001788139343
v 7.999998569488525 9.000001907348633 0.07432843744754791
v 7.999998569488525 11.000000953674316 0.07432806491851807
v 7.999999046325684 11.000000953674316 0.49999961256980896
v 9.0 4.0 3.85639054911735e-07
v 9.999998092651367 4.000000476837158 -0.4256711006164551
v 10.0 4.0 4.5199823262009886e-07
v 9.0 4.0 -0.42567184567451477
v 11.0 4.0 4.921313916383951e-07
v 11.0 4.0 -0.4256714880466461
v 8.0 3.999999523162842 8.343098656382608e-09
v 9.0 4.0 -0.42567184567451477
v 9.0 4.0 3.85639054911735e-07
v 8.0 4.0 -0.42567160725593567
v 7.000000476837158 3.9999992847442627 -2.390162876508839e-07
v 7.0 3.9999992847442627 -0.42567190527915955
v 6.000000953674316 3.9999992847442627 -3.8266279034360196e-07
v 7.0 3.9999992847442627 -0.42567190527915955
v 7.000000476837158 3.9999992847442627 -2.390162876508839e-07
v 6.000000953674316 3.9999992847442627 -0.4256715178489685
v 1.9999991655349731 4.000000476837158 4.5418806848829263e-07
v 2.999997138977051 4.000000953674316 -0.42567089200019836
v 2.999998092651367 4.0 6.812820743107295e-07
v 1.9999979734420776 4.000000953674316 -0.42567092180252075
v 1.0 3.999999523162842 1.0907749725674876e-07
v 0.9999984502792358 4.000000476837158 -0.425671249628067
v 3.0517577442878974e-07 3.999999523162842 3.2783571413119716e-08
v 0.9999984502792358 4.000000476837158 -0.425671249628067
v 1.0 3.999999523162842 1.0907749725674876e-07
v -9.155273232863692e-07 4.000000476837158 -0.42567095160484314
v 3.0 8.0 1.1062621751989354e-06
v 2.000000238418579 8.0 0.5000013113021851
v 2.000000476837158 8.0 8.773803301664884e-07
v 3.0 8.0 0.5000011324882507
v 7.999999046325684 11.000000953674316 0.49999961256980896
v 6.999998569488525 11.000000953674316 0.07432883977890015
v 7.999998569488525 11.000000953674316 0.07432806491851807
v 6.999999046325684 11.0 0.4999997615814209
v 6.999999046325684 11.0 0.4999997615814209
v 5.999998569488525 11.000000953674316 0.07432930171489716
v 6.999998569488525 11.000000953674316 0.07432883977890015
v 5.999999046325684 11.0 0.5000000596046448
v 5.999999046325684 11.0 0.5000000596046448
v 4.999999046325684 11.000000953674316 0.07432769238948822
v 5.999998569488525 11.000000953674316 0.07432930171489716
v 5.0 11.000000953674316 0.49999961256980896
v 5.0 11.000000953674316 0.49999961256980896
v 3.9999988079071045 11.000000953674316 0.0743282288312912
v 4.999999046325684 11.000000953674316 0.07432769238948822
v 3.9999992847442627 11.0 0.49999967217445374
v 3.9999992847442627 11.0 0.49999967217445374
v 2.9999988079071045 11.000000953674316 0.07432869076728821
v 3.9999988079071045 11.000000953674316 0.0743282288312912
v 2.9999992847442627 11.0 0.49999985098838806
v 2.9999992847442627 11.0 0.49999985098838806
v 1.9999994039535522 11.0 0.07432864606380463
v 2.9999988079071045 11.000000953674316 0.07432869076728821
v 1.9999996423721313 11.0 0.5
v 1.9999996423721313 11.0 0.5
v 0.9831881523132324 11.002429008483887 0.07432754337787628
v 1.9999994039535522 11.0 0.07432864606380463
v 0.9831883311271667 11.00242805480957 0.5000000596046448
vn -0.0 0.0 1.0
vn -0.0 0.0 1.0
vn 1.4305113893442467e-07 0.0 1.0
vn -0.0 0.0 1.0
vn -0.0 4.911418614028662e-07 1.0
vn 1.1444060987741977e-07 9.536740321891557e-07 1.0
vn -0.0 8.487692184644402e-07 1.0
vn -0.0 4.625320570994518e-07 1.0
vn -0.0 0.0 1.0
vn -0.0 0.0 1.0
vn -0.0 0.0 1.0
vn -0.0 0.0 1.0
vn -0.0 0.0 1.0
vn -0.0 0.0 1.0
vn 1.4305113893442467e-07 0.0 1.0
vn 1.653035610615916e-07 0.0 1.0
vn -0.0 0.0 1.0
vn -0.0 0.0 1.0
vn -0.0 0.0 1.0
vn 1.0013581430712293e-07 0.0 1.0
vn -0.0 0.0 1.0
vn 1.1444091541079615e-07 0.0 1.0
vn -0.0 0.0 1.0
vn -0.0 0.0 1.0
vn -0.0 4.911418614028662e-07 1.0
vn -0.0 3.5762769812208717e-07 1.0
vn -0.0 8.487692184644402e-07 1.0
vn -1.2397779869388614e-07 5.817412898068142e-07 1.0
vn -0.0 0.0 1.0
vn -0.0 0.0 1.0
vn -0.0 0.0 1.0
vn 2.288818308215923e-07 0.0 1.0
vn 1.0013580009626821e-07 0.0 1.0
vn -0.0 4.625320570994518e-07 1.0
vn -0.0 0.0 1.0
vn -0.0 -1.01725412093856e-07 1.0
vn -0.0 0.0 1.0
vn -0.0 0.0 1.0
vn -0.0 0.0 1.0
vn -0.0 0.0 1.0
vn -0.0 0.0 1.0
vn -0.0 0.0 1.0
vn 3.3696494483592687e-07 -1.4623003607994178e-07 1.0
vn -0.0 -2.5749204723979346e-07 1.0
vn -0.0 1.0967255548166577e-07 1.0
vn -0.0 1.23977656585339e-07 1.0
vn -0.0 1.23977656585339e-07 1.0
vn -0.0 0.0 1.0
vn 2.2888185924330173e-07 1.3987224178890756e-07 1.0
vn -0.0 4.577637469083129e-07 1.0
vn 1.4305118156698882e-07 9.250642278857413e-07 1.0
vn 1.1444060987741977e-07 9.536740321891557e-07 1.0
vn -0.0 1.0736218314377766e-07 1.0
vn -1.1583039594142974e-07 1.1742132954850604e-07 1.0
vn -0.0 1.4225652478216944e-07 1.0
vn -1.1943167521621945e-07 0.0 1.0
vn -1.3545098909162334e-07 1.2054847786657774e-07 1.0
vn -1.1943167521621945e-07 0.0 1.0
vn -0.0 1.0736218314377766e-07 1.0
vn -2.5197800823661964e-07 -1.1995743420811777e-07 1.0
vn -1.8236407584026892e-07 0.0 1.0
vn -2.540470802614436e-07 0.0 1.0
vn -1.1583039594142974e-07 1.1742132954850604e-07 1.0
vn -2.3841734275720228e-07 -2.8441672839107923e-07 1.0
vn -0.0 2.4884829485927185e-07 1.0
vn -0.0 1.5854787704938644e-07 1.0
vn -0.0 1.4225652478216944e-07 1.0
vn -0.0 2.8769210302925785e-07 1.0
vn -0.0 2.370776144289266e-07 1.0
vn -0.0 0.0 1.0
vn -1.7007070596264384e-07 1.804035889563238e-07 1.0
vn -1.905348767650139e-07 0.0 1.0
vn -0.0 0.0 1.0
vn -0.0 0.0 1.0
vn -0.0 -1.5117164764433255e-07 1.0
vn -0.0 0.0 1.0
vn -1.2442467323126039e-07 -1.2978814822872664e-07 1.0
vn -2.2932900378691556e-07 -4.453945336990728e-07 1.0
vn -0.0 0.0 1.0
vn -0.0 1.1265573363061776e-07 1.0
vn -0.0 0.0 1.0
vn -0.0 0.0 1.0
vn -0.0 1.1950733380672318e-07 1.0
vn -0.0 -2.5108380441452027e-07 1.0
vn -0.0 0.0 1.0
vn -2.2709447478064249e-07 -6.157153507047042e-07 1.0
vn -0.0 1.025239200203032e-07 1.0
vn -0.0 1.6520489509730396e-07 1.0
vn -0.0 0.0 1.0
vn -0.0 1.23977656585339e-07 1.0
vn -0.0 1.1444091541079615e-07 1.0
vn -0.0 1.23977656585339e-07 1.0
vn -0.0 1.3351443328701862e-07 1.0
vn -0.0 1.0967255548166577e-07 1.0
vn -0.0 0.0 1.0
vn -0.0 0.0 1.0
vn -0.0 0.0 1.0
vn -0.0 -1.5258795826866844e-07 1.0
vn 1.653035610615916e-07 0.0 1.0
vn -0.0 0.0 1.0
vn 1.0013581430712293e-07 0.0 1.0
vn -0.0 0.0 1.0
vn 1.1444091541079615e-07 0.0 1.0
vn -0.0 0.0 1.0
vn 1.0490420265796274e-07 -1.0490421686881746e-07 1.0
vn -0.0 -1.01725412093856e-07 1.0
vn -0.0 -2.2888198714099417e-07 1.0
vn -0.0 0.0 1.0
vn 1.1444097225421501e-07 -2.861023347122682e-07 1.0
vn -0.0 -2.5749204723979346e-07 1.0
vn 1.5258795826866844e-07 -5.340576194612368e-07 1.0
vn 3.3696494483592687e-07 -1.4623003607994178e-07 1.0
vn -2.3841734275720228e-07 -2.8441672839107923e-07 1.0
vn -0.0 0.0 1.0
vn -1.8236407584026892e-07 0.0 1.0
vn -0.0 -2.4368745243918966e-07 1.0
vn -1.8236407584026892e-07 0.0 1.0
vn -1.3271855436869373e-07 2.5033986617017945e-07 1.0
vn -2.540470802614436e-07 0.0 1.0
vn -0.0 0.0 1.0
vn -0.0 3.1471302008867497e-07 1.0
vn -0.0 0.0 1.0
vn -0.0 -2.4368745243918966e-07 1.0
vn -0.0 -2.708080444335792e-07 1.0
vn 2.670285539352335e-07 6.866459330012731e-07 1.0
vn 2.6702861077865236e-07 4.00543541445586e-07 1.0
vn 2.5272359494010743e-07 4.7206904696395213e-07 1.0
vn 1.5258719088251382e-07 5.722045557376987e-07 1.0
vn 2.5272359494010743e-07 4.7206904696395213e-07 1.0
vn 3.814697322468419e-07 2.2888178818902816e-07 1.0
vn 2.0980790793601045e-07 2.2888170292389987e-07 1.0
vn 2.6702861077865236e-07 4.00543541445586e-07 1.0
vn -0.0 3.5762769812208717e-07 1.0
vn -1.2397779869388614e-07 5.817412898068142e-07 1.0
vn 2.670285539352335e-07 6.866459330012731e-07 1.0
vn -0.0 0.0 1.0
vn 1.6183794571134058e-07 5.246583896223456e-07 1.0
vn 2.2910349173344002e-07 8.793185202193854e-07 1.0
vn -0.0 7.724400461484038e-07 1.0
vn 3.435255848671659e-07 6.335138209578872e-07 1.0
vn 2.479553415923874e-07 2.670288381523278e-07 1.0
vn 2.288818166107376e-07 1.5258788721439487e-07 1.0
vn -0.0 4.577637469083129e-07 1.0
vn 1.4305118156698882e-07 9.250642278857413e-07 1.0
vn 2.2888185924330173e-07 1.3987224178890756e-07 1.0
vn 1.0 4.902457249045256e-07 -1.4339767062665487e-07
vn 1.0 3.603116169870191e-07 -1.8015607849974913e-07
vn 1.0 1.2010279704099958e-07 1.1839439366667648e-06
vn 1.0 -5.202742840992869e-07 1.07549283256958e-07
vn 1.0 -6.103523446654435e-07 0.0
vn 1.0 0.0 0.0
vn 1.0 0.0 0.0
vn 1.0 -4.801966611012176e-07 0.0
vn 1.0 0.0 0.0
vn 1.0 0.0 0.0
vn 1.0 0.0 0.0
vn 1.0 0.0 0.0
vn 1.0 -1.0008195658883778e-06 -1.3966884182536887e-07
vn 1.0 -4.801966611012176e-07 0.0
vn 1.0 -6.103523446654435e-07 0.0
vn 1.0 -6.103523446654435e-07 -1.938450111538259e-07
vn 3.051757175853709e-07 -1.0 0.0
vn 1.9168096798694023e-07 -1.0 0.0
vn 3.051758312722086e-07 -1.0 0.0
vn 3.0517585969391803e-07 -1.0 0.0
vn -6.103516625444172e-07 -1.0 0.0
vn 1.1349481354727686e-07 -1.0 6.250891146919457e-07
vn -0.0 -1.0 0.0
vn -6.103516625444172e-07 -1.0 0.0
vn -6.103509804233909e-07 -1.0 0.0
vn 1.134949414449693e-07 -1.0 -6.250887736314326e-07
vn -6.103511509536474e-07 -1.0 0.0
vn -0.0 -1.0 0.0
vn 3.051760018024652e-07 -1.0 0.0
vn 1.134949414449693e-07 -1.0 -6.250887736314326e-07
vn -0.0 -1.0 0.0
vn 3.0517560389853315e-07 -1.0 -7.169279570007348e-07
vn -0.0 -1.0 0.0
vn 3.0517560389853315e-07 -1.0 -7.169279570007348e-07
vn 3.051760018024652e-07 -1.0 0.0
vn -0.0 -1.0 -7.169284685915045e-07
vn -0.0 -1.0 -7.169284685915045e-07
vn 3.051759165373369e-07 -1.0 0.0
vn 1.9168092535437609e-07 -1.0 0.0
vn -0.0 -1.0 0.0
vn 3.051759165373369e-07 -1.0 0.0
vn 6.103518330746738e-07 -1.0 0.0
vn 1.9168092535437609e-07 -1.0 0.0
vn 6.103517762312549e-07 -1.0 0.0
vn 6.103517762312549e-07 -1.0 0.0
vn 3.051758312722086e-07 -1.0 0.0
vn 6.103518330746738e-07 -1.0 0.0
vn 3.051757175853709e-07 -1.0 0.0
vn -0.0 -1.0 0.0
vn -1.1349466433330235e-07 -1.0 0.0
vn -0.0 -1.0 0.0
vn -0.0 -1.0 0.0
vn -0.0 -1.0 0.0
vn -1.1349466433330235e-07 -1.0 0.0
vn -0.0 -1.0 0.0
vn -0.0 -1.0 7.169277296270593e-07
vn 1.220704689330887e-06 -1.0 0.0
vn 8.373410196327313e-07 -1.0 -1.8367776988270634e-07
vn 6.103515488575795e-07 -1.0 0.0
vn 8.111198894766858e-07 -1.0 -7.037197633508185e-07
vn 1.4819642046859371e-06 -1.0 1.6829166327170242e-07
vn 8.111198894766858e-07 -1.0 -7.037197633508185e-07
vn 1.220704689330887e-06 -1.0 0.0
vn 6.103516625444172e-07 -1.0 -1.1396157333365409e-06
vn 1.0 -4.358049636721262e-07 0.0
vn 1.0 -1.5713141010564868e-07 -6.776127179364266e-07
vn 1.0 -3.051757175853709e-07 0.0
vn 1.0 0.0 -1.4712018980844732e-07
vn 1.0 -3.051757175853709e-07 0.0
vn 1.0 0.0 -7.169277296270593e-07
vn 1.0 0.0 0.0
vn 1.0 -1.5713141010564868e-07 -6.776127179364266e-07
vn 1.0 -6.103526288825378e-07 3.051762291761406e-07
vn 1.0 0.0 3.051758312722086e-07
vn 1.0 2.150978133386161e-07 1.9762681802149018e-07
vn 1.0 -3.952539486817841e-07 1.976270311843109e-07
vn 1.0 2.150978133386161e-07 1.9762681802149018e-07
vn 1.0 3.235543317714473e-07 3.584958676583483e-07
vn 1.0 6.103514351707418e-07 0.0
vn 1.0 0.0 3.051758312722086e-07
vn 1.0 -5.202742840992869e-07 1.07549283256958e-07
vn 1.0 -3.952539486817841e-07 1.976270311843109e-07
vn 1.0 -6.103526288825378e-07 3.051762291761406e-07
vn 1.0 4.902457249045256e-07 -1.4339767062665487e-07
vn 1.0 6.103512646404852e-07 0.0
vn 1.0 6.103514351707418e-07 0.0
vn 1.0 3.235543317714473e-07 3.584958676583483e-07
vn 1.0 6.103512646404852e-07 0.0
vn 3.0517585969391803e-07 -1.0 0.0
vn 1.1349481354727686e-07 -1.0 6.250891146919457e-07
vn 1.9168096798694023e-07 -1.0 0.0
vn -0.0 -1.0 0.0
vn -0.0 1.0 0.0
vn -2.484284493675659e-07 1.0 3.1254464261110115e-07
vn -3.051762291761406e-07 1.0 0.0
vn -2.791138626889733e-07 1.0 0.0
vn -1.5258814300977974e-07 1.0 0.0
vn -2.484284493675659e-07 1.0 3.1254464261110115e-07
vn -2.7768999188992893e-07 1.0 0.0
vn -3.051762291761406e-07 1.0 0.0
vn 1.9523338323779171e-07 1.0 0.0
vn -2.7768999188992893e-07 1.0 0.0
vn -0.0 1.0 0.0
vn -1.5258814300977974e-07 1.0 0.0
vn 5.004088166060683e-07 1.0 0.0
vn -1.8185041028573323e-07 1.0 7.318454890992143e-07
vn -0.0 1.0 0.0
vn 3.051759165373369e-07 1.0 6.200056077432237e-07
vn -3.0517597338075575e-07 1.0 0.0
vn -1.8185041028573323e-07 1.0 7.318454890992143e-07
vn -3.0517577442878974e-07 1.0 1.0753926744655473e-06
vn -0.0 1.0 0.0
vn -0.0 1.0 0.0
vn -3.0517577442878974e-07 1.0 1.0753926744655473e-06
vn -0.0 1.0 1.0753921060313587e-06
vn -3.0517597338075575e-07 1.0 0.0
vn -0.0 1.0 -2.942403511951852e-07
vn -0.0 1.0 -5.884807023903704e-07
vn -0.0 1.0 -5.884807023903704e-07
vn -2.2698915813634812e-07 1.0 9.559402087688795e-07
vn -0.0 1.0 -5.884807023903704e-07
vn -0.0 1.0 1.139618916567997e-06
vn -0.0 1.0 -5.884807023903704e-07
vn -2.2698915813634812e-07 1.0 9.559402087688795e-07
vn -0.0 1.0 -5.884807023903704e-07
vn 2.269889591843821e-07 1.0 -1.1056367554829194e-07
vn -0.0 1.0 -5.88480872920627e-07
vn -0.0 1.0 1.139618916567997e-06
vn 2.269889591843821e-07 1.0 -1.1056367554829194e-07
vn -0.0 1.0 -5.884807023903704e-07
vn -0.0 1.0 -5.88480872920627e-07
vn -2.269889591843821e-07 1.0 9.55938389779476e-07
vn -0.0 1.0 -5.884807023903704e-07
vn -6.103521172917681e-07 1.0 1.1396172112654313e-06
vn -1.7454665623972687e-07 1.0 -3.7838634625586565e-07
vn -2.269889591843821e-07 1.0 9.55938389779476e-07
vn -1.7454665623972687e-07 1.0 -3.7838634625586565e-07
vn 0.0011942199198529124 0.9999992847442627 0.0
vn 0.001194089651107788 0.9999992847442627 -2.091662025804908e-07
vn -6.103521172917681e-07 1.0 1.1396172112654313e-06
vn 0.001194089651107788 0.9999992847442627 -2.091662025804908e-07
vn 0.0023884070105850697 0.9999971389770508 9.858107432592078e-07
vn 0.0023878286592662334 0.9999971389770508 -5.891818091185996e-07
vn 0.0011942199198529124 0.9999992847442627 0.0
vn -0.0 -1.0 -1.250180048373295e-06
vn 1.9168092535437609e-07 -1.0 0.0
vn -0.0 -1.0 0.0
vn -0.0 -1.0 -7.169284685915045e-07
vn -0.0 -1.0 0.0
vn 6.103518330746738e-07 -1.0 0.0
vn 6.103517762312549e-07 -1.0 0.0
vn 1.9168092535437609e-07 -1.0 0.0
vn 6.103517762312549e-07 -1.0 0.0
vn 3.051758312722086e-07 -1.0 0.0
vn 3.0517588811562746e-07 -1.0 0.0
vn 6.103518330746738e-07 -1.0 0.0
vn 1.0 0.0 -1.801557658609454e-07
vn 1.0 0.0 -8.603901164860872e-07
vn 1.0 0.0 -1.2207015060994308e-06
vn 1.0 -1.8015610692145856e-07 3.603117306738568e-07
vn 1.0 0.0 -1.8015572322838125e-07
vn 1.0 -1.801560642888944e-07 -3.6031175909556623e-07
vn 1.0 -4.3019480244765873e-07 2.0810909973079106e-06
vn 1.0 -1.8015610692145856e-07 3.603117306738568e-07
vn 1.0 0.0 -1.801557658609454e-07
vn 1.0 1.2010279704099958e-07 1.1839439366667648e-06
vn 1.0 8.603904007031815e-07 7.206230634437816e-07
vn 1.0 4.902457249045256e-07 -1.4339767062665487e-07
vn 1.0 4.301953140384285e-07 3.6031187278240395e-07
vn 1.0 3.235543317714473e-07 3.584958676583483e-07
vn 1.0 0.0 1.2207013924125931e-06
vn 1.0 6.103512646404852e-07 0.0
vn 1.0 -4.801966611012176e-07 0.0
vn 1.0 -6.103524583522812e-07 0.0
vn 1.0 -6.103522878220247e-07 0.0
vn 1.0 -6.103523446654435e-07 -1.938450111538259e-07
vn 1.9168096798694023e-07 -1.0 0.0
vn 2.2698947077515186e-07 -1.0 1.2501782293838914e-06
vn -0.0 -1.0 0.0
vn 1.1349481354727686e-07 -1.0 6.250891146919457e-07
vn 3.0517588811562746e-07 -1.0 0.0
vn 3.051758312722086e-07 -1.0 0.0
vn 1.1349481354727686e-07 -1.0 6.250891146919457e-07
vn -4.5397896997201315e-07 -1.0 3.6735505659635237e-07
vn 2.2698947077515186e-07 -1.0 1.2501782293838914e-06
vn -6.103516625444172e-07 -1.0 0.0
vn 1.134949414449693e-07 -1.0 -6.250887736314326e-07
vn 3.0517617233272176e-07 -1.0 -1.4338554592541186e-06
vn 3.0517551863340486e-07 -1.0 -1.4338553455672809e-06
vn 3.0517560389853315e-07 -1.0 -7.169279570007348e-07
vn -4.5397868575491884e-07 -1.0 -3.6735494290951465e-07
vn -6.103511509536474e-07 -1.0 0.0
vn 3.0517560389853315e-07 -1.0 -7.169279570007348e-07
vn -0.0 -1.0 -1.250180048373295e-06
vn 3.0517617233272176e-07 -1.0 -1.4338554592541186e-06
vn -0.0 -1.0 -7.169284685915045e-07
vn 1.0 -8.603916512583965e-07 -1.7207817109010648e-06
vn 1.0 -1.801560642888944e-07 -3.6031175909556623e-07
vn 1.0 -1.2207044619572116e-06 -2.4414066501776688e-06
vn 1.0 0.0 -1.8015572322838125e-07
vn 1.8015609271060384e-07 -1.0 -3.6031187278240395e-07
vn 2.150978133386161e-07 -1.0 -1.040546408148657e-06
vn 3.952539486817841e-07 -1.0 -1.4008579682922573e-06
vn -0.0 -1.0 0.0
vn 3.952539486817841e-07 -1.0 -1.4008579682922573e-06
vn 2.1509772807348781e-07 -1.0 -2.2612484826822765e-06
vn 3.0517585969391803e-07 -1.0 -2.4414039216935635e-06
vn 2.150978133386161e-07 -1.0 -1.040546408148657e-06
vn 3.0517585969391803e-07 -1.0 -2.4414039216935635e-06
vn -0.0 -1.0 -2.441403694319888e-06
vn -0.0 -1.0 -2.441403694319888e-06
vn 2.1509772807348781e-07 -1.0 -2.2612484826822765e-06
vn 1.0 -2.1509794123630854e-07 -1.8015597902376612e-07
vn 1.0 -1.801561495540227e-07 -8.603900027992495e-07
vn 1.0 0.0 -1.2207016197862686e-06
vn 1.0 -3.051762291761406e-07 0.0
vn 1.0 0.0 0.0
vn 1.0 0.0 0.0
vn 1.0 0.0 0.0
vn 1.0 0.0 0.0
vn 1.0 0.0 0.0
vn 1.0 0.0 0.0
vn -0.0 1.0 0.0
vn -0.0 1.0 0.0
vn -0.0 1.0 0.0
vn -0.0 1.0 0.0
vn 2.150979128145991e-07 -1.0 -1.6508964790773462e-06
vn -0.0 -1.0 -1.4008573998580687e-06
vn -0.0 -1.0 -1.2207015060994308e-06
vn 3.051758312722086e-07 -1.0 -1.8310520317754708e-06
vn -0.0 -1.0 -2.011207698160433e-06
vn 2.1509758596494066e-07 -1.0 -2.2612468910665484e-06
vn 3.051755470551143e-07 -1.0 -2.441402557451511e-06
vn -0.0 -1.0 -1.8310518044017954e-06
vn 1.0 0.0 0.0
vn 1.0 -6.103523446654435e-07 0.0
vn 1.0 0.0 0.0
vn 1.0 -6.103522878220247e-07 0.0
vn 1.0 -6.103522878220247e-07 0.0
vn 1.0 -1.2207045756440493e-06 0.0
vn 1.0 -6.103523446654435e-07 0.0
vn 1.0 -1.2207049167045625e-06 0.0
vn 6.103530267864699e-07 -1.0 0.0
vn 1.220705144078238e-06 -1.0 0.0
vn 6.103516625444172e-07 -1.0 0.0
vn 1.2207052577650757e-06 -1.0 0.0
vn -0.0 -1.0 0.0
vn -0.0 -1.0 0.0
vn -1.1349466433330235e-07 -1.0 0.0
vn -1.5637219519248902e-07 -1.0 1.066500317392638e-06
vn -3.051756323202426e-07 -1.0 0.0
vn -0.0 -1.0 7.169277296270593e-07
vn -0.0 -1.0 0.0
vn -0.0 -1.0 0.0
vn 8.373410196327313e-07 -1.0 -1.8367776988270634e-07
vn 9.937139111571014e-07 -1.0 -1.2501783430707292e-06
vn 1.220703893523023e-06 -1.0 0.0
vn 8.111198894766858e-07 -1.0 -7.037197633508185e-07
vn 8.111198894766858e-07 -1.0 -7.037197633508185e-07
vn 7.667243835385307e-07 -1.0 -2.50035759563616e-06
vn 9.937139111571014e-07 -1.0 -1.2501783430707292e-06
vn 6.103516625444172e-07 -1.0 -1.1396157333365409e-06
vn 1.0 -1.5713141010564868e-07 -6.776127179364266e-07
vn 1.0 -1.563729199460795e-07 -3.673554829219938e-07
vn 1.0 -3.0517716709255183e-07 -1.433856141375145e-06
vn 1.0 0.0 -1.4712018980844732e-07
vn 1.0 0.0 -7.169277296270593e-07
vn 1.0 0.0 -1.4338558003146318e-06
vn -3.7957758536322217e-07 1.0 1.836777414609969e-07
vn -0.0 1.0 1.0664999763321248e-06
vn -0.0 1.0 1.4338554592541186e-06
vn -2.791138626889733e-07 1.0 0.0
vn 4.539785720680811e-07 1.0 3.673546302707109e-07
vn 6.103508667365531e-07 1.0 0.0
vn -1.9168118114976096e-07 1.0 6.250888873182703e-07
vn -2.791138626889733e-07 1.0 0.0
vn -3.7957758536322217e-07 1.0 1.836777414609969e-07
vn -2.484284493675659e-07 1.0 3.1254464261110115e-07
vn -2.660829920841934e-07 1.0 0.0
vn -2.7768999188992893e-07 1.0 0.0
vn -0.0 1.0 0.0
vn -2.7768999188992893e-07 1.0 0.0
vn -2.660829920841934e-07 1.0 0.0
vn -0.0 1.0 0.0
vn -3.05175063886054e-07 1.0 1.4338570508698467e-06
vn 3.051759165373369e-07 1.0 6.200056077432237e-07
vn 3.0517580285049917e-07 1.0 1.4338550045067677e-06
vn -1.8185041028573323e-07 1.0 7.318454890992143e-07
vn -3.4427031891937077e-07 1.0 2.0589466203091433e-06
vn -3.0517577442878974e-07 1.0 1.0753926744655473e-06
vn -0.0 1.0 2.150786031052121e-06
vn -3.0517577442878974e-07 1.0 1.0753926744655473e-06
vn -3.4427031891937077e-07 1.0 2.0589466203091433e-06
vn -0.0 1.0 1.0753921060313587e-06
vn -0.0 1.0 0.0
vn -0.0 1.0 0.0
vn -0.0 1.0 0.0
vn -0.0 1.0 0.0
vn -3.1274478828891006e-07 1.0 7.347109658439877e-07
vn -2.2698915813634812e-07 1.0 9.559402087688795e-07
vn -0.0 1.0 -2.942403511951852e-07
vn -6.103511509536474e-07 1.0 2.8677161481027724e-06
vn -6.103511509536474e-07 1.0 2.8677161481027724e-06
vn -0.0 1.0 1.139618916567997e-06
vn -2.2698915813634812e-07 1.0 9.559402087688795e-07
vn 1.5637147043889854e-07 1.0 2.500360551493941e-06
vn 1.5637147043889854e-07 1.0 2.500360551493941e-06
vn 2.269889591843821e-07 1.0 -1.1056367554829194e-07
vn -0.0 1.0 1.139618916567997e-06
vn 4.539805047443224e-07 1.0 3.673536639325903e-07
vn 4.539805047443224e-07 1.0 3.673536639325903e-07
vn -2.269889591843821e-07 1.0 9.55938389779476e-07
vn 2.269889591843821e-07 1.0 -1.1056367554829194e-07
vn -6.103510372668097e-07 1.0 2.867713419618667e-06
vn -6.103510372668097e-07 1.0 2.867713419618667e-06
vn -6.103521172917681e-07 1.0 1.1396172112654313e-06
vn -2.269889591843821e-07 1.0 9.55938389779476e-07
vn -4.5397868575491884e-07 1.0 2.500359641999239e-06
vn -4.5397868575491884e-07 1.0 2.500359641999239e-06
vn 0.0011942199198529124 0.9999992847442627 0.0
vn -6.103521172917681e-07 1.0 1.1396172112654313e-06
vn 0.0011943639256060123 0.9999992847442627 3.6115244483880815e-07
vn 0.0011943639256060123 0.9999992847442627 3.6115244483880815e-07
vn 0.0023884070105850697 0.9999971389770508 9.858107432592078e-07
vn 0.0011942199198529124 0.9999992847442627 0.0
vn 0.002387828892096877 0.9999971389770508 2.8668409868259914e-06
vt 0.4996771812438965 1.0013133808970451
vt -0.0020676255226135254 0.4995683431625366
vt 0.4996771812438965 0.4995683431625366
vt -0.0020676255226135254 1.0013133808970451
vt 0.4996771812438965 1.0013133808970451
vt -0.0020676255226135254 0.4995683431625366
vt 0.4996771812438965 0.4995683431625366
vt -0.0020676255226135254 1.0013133808970451
vt 0.5 -1.5
vt 0.0 -1.0
vt 0.0 -1.5
vt 0.5 -1.0
vt 1.0 -1.5
vt 1.0 -1.0
vt 1.5 -1.5
vt 1.5 -1.0
vt 2.0 -1.5
vt 2.0 -1.0
vt 2.5 -1.5
vt 2.5 -1.0
vt 3.0 -1.5
vt 3.0 -1.0
vt 3.5 -1.5
vt 3.5 -1.0
vt 4.0 -1.5
vt 4.0 -1.0
vt 4.500000476837158 -1.5
vt 4.500000476837158 -1.0
vt 2.0 -2.0
vt 1.5 -2.0
vt 2.5 -2.0
vt 3.0 -2.0
vt 3.5 -2.0
vt 4.0 -2.0
vt 2.0 -2.5
vt 1.5 -2.5
vt 1.0 -2.0
vt 1.0 -2.5
vt 0.5 -2.0
vt 0.0 -2.0
vt 0.5 -2.5
vt 0.0 -2.5
vt 3.0 -2.5
vt 2.5 -2.5
vt -0.5006705522537231 -2.0
vt -0.5006705522537231 -1.5
vt -0.5006705522537231 -1.0
vt -0.5006705522537231 -2.5
vt 3.5 -2.5
vt 4.0 -2.5
vt 4.500000476837158 -2.5
vt 4.500000476837158 -2.0
vt 1.0 0.5
vt 0.5 5.960464477539063e-08
vt 0.9999999403953552 0.0
vt 0.5 0.5
vt 0.003000000026077032 0.5
vt 0.5 0.0
vt 0.5 0.5
vt 0.003000000026077032 0.0
vt 0.5 -0.4530940055847168
vt 1.0 -0.4530940055847168
vt 1.0 0.0
vt 0.003000000026077032 -0.4530940055847168
vt 0.003000000026077032 0.996999999973923
vt 0.5 0.996999999973923
vt 1.0 0.5
vt 1.496999979019165 0.0
vt 1.496999979019165 0.5
vt 1.0 0.996999999973923
vt 1.496999979019165 -0.4530940055847168
vt 1.496999979019165 0.996999999973923
vt 0.9999999403953552 0.0
vt 0.5 0.5
vt 0.5 5.960464477539063e-08
vt 1.0 0.5
vt 0.003000000026077032 0.5
vt 0.003000000026077032 0.0
vt 1.496999979019165 0.0
vt 1.496999979019165 0.5
vt 0.5 0.996999999973923
vt 1.0 0.996999999973923
vt 1.0 -0.4530940055847168
vt 0.5 -0.4530940055847168
vt 0.003000000026077032 0.996999999973923
vt 0.003000000026077032 -0.4530940055847168
vt 1.496999979019165 0.996999999973923
vt 1.496999979019165 -0.4530940055847168
vt -0.5006705522537231 -1.5
vt 0.0 -1.0
vt -0.5006705522537231 -1.0
vt 0.0 -1.5
vt -0.5006705522537231 -2.0
vt 0.0 -2.0
vt -0.5006705522537231 -2.5
vt 0.0 -2.5
vt 2.0 -2.0
vt 1.5 -1.5
vt 1.5 -2.0
vt 2.0 -1.5
vt 2.5 -2.0
vt 2.5 -1.5
vt 3.0 -2.0
vt 3.0 -1.5
vt 2.0 -2.0
vt 1.5 -1.5
vt 1.5 -2.0
vt 2.0 -1.5
vt 2.5 -2.0
vt 2.5 -1.5
vt 3.0 -2.0
vt 3.0 -1.5
vt 1.0 0.5
vt 0.5 5.960464477539063e-08
vt 0.9999999403953552 0.0
vt 0.5 0.5
vt 1.0 0.5
vt 1.496999979019165 0.0
vt 1.496999979019165 0.5
vt 1.0 0.0
vt 1.496999979019165 -0.4530940055847168
vt 1.0 -0.4530940055847168
vt 0.5 0.0
vt 0.5 -0.4530940055847168
vt 1.0 0.5
vt 0.5 5.960464477539063e-08
vt 0.9999999403953552 0.0
vt 0.5 0.5
vt 1.0 0.5
vt 1.496999979019165 0.0
vt 1.496999979019165 0.5
vt 1.0 0.0
vt 1.0 0.996999999973923
vt 0.5 0.996999999973923
vt 0.5 0.5
vt 1.496999979019165 0.996999999973923
vt 0.9999999403953552 0.0
vt 0.5 0.5
vt 0.5 5.960464477539063e-08
vt 1.0 0.5
vt 1.496999979019165 0.0
vt 1.496999979019165 0.5
vt 1.0 -0.4530940055847168
vt 0.5 -0.4530940055847168
vt 1.496999979019165 -0.4530940055847168
vt 0.4992820918560028 0.09706085920333862
vt 0.001702002133242786 1.0011049188906327
vt 0.001702002133242786 0.09706085920333862
vt 0.4992820918560028 1.0011049188906327
vt 0.001702002133242786 1.0007931656436995
vt 0.4992820918560028 0.09706085920333862
vt 0.4992820918560028 1.0007931656436995
vt 0.001702002133242786 0.09706085920333862
vt 0.001702002133242786 1.0007931656436995
vt 0.4992820918560028 0.09706085920333862
vt 0.4992820918560028 1.0007931656436995
vt 0.001702002133242786 0.09706085920333862
vt 0.001702002133242786 1.0007931656436995
vt 0.4992820918560028 0.09706085920333862
vt 0.4992820918560028 1.0007931656436995
vt 0.001702002133242786 0.09706085920333862
vt 0.4992820918560028 1.0015056352131069
vt 0.001702002133242786 0.09706085920333862
vt 0.4992820918560028 0.09706085920333862
vt 0.001702002133242786 1.001505796564743
vt 0.001702002133242786 1.0007931656436995
vt 0.4992820918560028 0.09706085920333862
vt 0.4992820918560028 1.0007931656436995
vt 0.001702002133242786 0.09706085920333862
vt 0.4992820918560028 1.0015056352131069
vt 0.001702002133242786 0.09706085920333862
vt 0.4992820918560028 0.09706085920333862
vt 0.001702002133242786 1.001505796564743
vt 0.001702002133242786 1.0007931656436995
vt 0.4992820918560028 0.09706085920333862
vt 0.4992820918560028 1.0007931656436995
vt 0.001702002133242786 0.09706085920333862
vt 0.001702002133242786 1.0007931656436995
vt 0.4992820918560028 0.09706085920333862
vt 0.4992820918560028 1.0007931656436995
vt 0.001702002133242786 0.09706085920333862
vt 0.4992820918560028 0.09706085920333862
vt 0.001702002133242786 1.001505796564743
vt 0.0017021222738549113 0.09706085920333862
vt 0.4992820918560028 1.0015056352131069
vt 0.4992820918560028 1.0007931656436995
vt 0.001702002133242786 0.09706085920333862
vt 0.4992820918560028 0.09706085920333862
vt 0.001702002133242786 1.0007931656436995
vt 0.4992820918560028 1.0007931656436995
vt 0.001702002133242786 0.09706085920333862
vt 0.4992820918560028 0.09706085920333862
vt 0.001702002133242786 1.0007931656436995
vt 0.4992820918560028 1.0015056352131069
vt 0.001702002133242786 0.09706085920333862
vt 0.4992820918560028 0.09706085920333862
vt 0.001702002133242786 1.001505796564743
vt 0.001702002133242786 1.0007931656436995
vt 0.4992820918560028 0.09706085920333862
vt 0.4992820918560028 1.0007931656436995
vt 0.001702002133242786 0.09706085920333862
vt 0.001702002133242786 1.0007931656436995
vt 0.4992820918560028 0.09706085920333862
vt 0.4992820918560028 1.0007931656436995
vt 0.001702002133242786 0.09706085920333862
vt 0.001702002133242786 1.0007931656436995
vt 0.4992820918560028 0.09706085920333862
vt 0.4992820918560028 1.0007931656436995
vt 0.001702002133242786 0.09706085920333862
vt 0.001702002133242786 1.0007931656436995
vt 0.4992820918560028 0.09706085920333862
vt 0.4992820918560028 1.0007931656436995
vt 0.001702002133242786 0.09706085920333862
vt 0.001702002133242786 1.0007931656436995
vt 0.4992820918560028 0.09706085920333862
vt 0.4992820918560028 1.0007931656436995
vt 0.001702002133242786 0.09706085920333862
vt 0.001702002133242786 1.0007931656436995
vt 0.4992820918560028 0.09706085920333862
vt 0.4992820918560028 1.0007931656436995
vt 0.001702002133242786 0.09706085920333862
vt 0.001702002133242786 1.0007931656436995
vt 0.4992820918560028 0.09706085920333862
vt 0.4992820918560028 1.0007931656436995
vt 0.001702002133242786 0.09706085920333862
vt 0.001702002133242786 1.0007931656436995
vt 0.4992820918560028 0.09706085920333862
vt 0.4992820918560028 1.0007931656436995
vt 0.001702002133242786 0.09706085920333862
vt 0.4992820918560028 0.09706085920333862
vt 0.001702002133242786 1.0011049188906327
vt 0.001702002133242786 0.09706085920333862
vt 0.4992820918560028 1.0011049188906327
vt 0.4992820918560028 1.0015056352131069
vt 0.001702002133242786 0.09706085920333862
vt 0.4992820918560028 0.09706085920333862
vt 0.001702002133242786 1.001505796564743
vt 0.4992820918560028 1.0015056352131069
vt 0.001702002133242786 0.09706085920333862
vt 0.001702002133242786 1.001505796564743
vt 0.4992820918560028 0.09706085920333862
vt 0.001702002133242786 1.0007931656436995
vt 0.4992820918560028 0.09706085920333862
vt 0.001702002133242786 0.09706085920333862
vt 0.4992820918560028 1.0007931656436995
vt 0.001702002133242786 1.0007931656436995
vt 0.4992820918560028 0.09706085920333862
vt 0.001702002133242786 0.09706085920333862
vt 0.4992820918560028 1.0007931656436995
vt 0.4992820918560028 1.0015056352131069
vt 0.001702002133242786 0.09706085920333862
vt 0.001702002133242786 1.001505796564743
vt 0.4992820918560028 0.09706085920333862
vt 0.001702002133242786 1.0007931656436995
vt 0.4992820918560028 0.09706085920333862
vt 0.001702002133242786 0.09706085920333862
vt 0.4992820918560028 1.0007931656436995
vt 0.001702002133242786 1.0007931656436995
vt 0.4992820918560028 0.09706085920333862
vt 0.001702002133242786 0.09706085920333862
vt 0.4992820918560028 1.0007931656436995
vt 0.4992820918560028 0.09706085920333862
vt 0.001702002133242786 1.001505796564743
vt 0.4992820918560028 1.0015056352131069
vt 0.0017021222738549113 0.09706085920333862
vt 0.4992820918560028 1.0007931656436995
vt 0.001702002133242786 0.09706085920333862
vt 0.001702002133242786 1.0007931656436995
vt 0.4992820918560028 0.09706085920333862
vt 0.4992820918560028 1.0007931656436995
vt 0.001702002133242786 0.09706085920333862
vt 0.001702002133242786 1.0007931656436995
vt 0.4992820918560028 0.09706085920333862
vt 0.4992820918560028 0.09706085920333862
vt 0.001702002133242786 1.001505796564743
vt 0.4992820918560028 1.0015056352131069
vt 0.0017021222738549113 0.09706085920333862
vt 0.4992820918560028 1.0007931656436995
vt 0.001702002133242786 0.09706085920333862
vt 0.001702002133242786 1.0007931656436995
vt 0.4992820918560028 0.09706085920333862
vt 0.4992820918560028 1.0007931656436995
vt 0.001702002133242786 0.09706085920333862
vt 0.001702002133242786 1.0007931656436995
vt 0.4992820918560028 0.09706085920333862
vt 0.4992820918560028 1.0007931656436995
vt 0.001702002133242786 0.09706085920333862
vt 0.001702002133242786 1.0007931656436995
vt 0.4992820918560028 0.09706085920333862
vt 0.9980385303497314 0.3252701759338379
vt 0.5043802261352539 0.9920265674591064
vt 0.5043801069259644 0.3252706527709961
vt 0.9980385303497314 0.9920258522033691
vt 0.9980385303497314 0.32747578620910645
vt 0.5043801069259644 0.993293046951294
vt 0.5043801069259644 0.32747578620910645
vt 0.9980385303497314 0.9932928085327148
vt 0.9980385303497314 0.32747578620910645
vt 0.5043801069259644 0.9932925701141357
vt 0.5043801069259644 0.32747578620910645
vt 0.9980385303497314 0.993293046951294
vt 1.0020709037780762 0.016359329223632812
vt 0.5058760046958923 0.41710424423217773
vt 0.5058760046958923 0.016359329223632812
vt 1.0020709037780762 0.41710424423217773
vt 0.008352292701601982 0.016359329223632812
vt 0.008352292701601982 0.41710424423217773
vt 0.5058760046958923 0.016359329223632812
vt 0.008352292701601982 0.41710424423217773
vt 0.008352292701601982 0.016359329223632812
vt 0.5058760046958923 0.41710424423217773
vt 1.0020709037780762 0.016359329223632812
vt 1.0020709037780762 0.41710424423217773
vt 1.0020709037780762 0.016359329223632812
vt 0.5058760046958923 0.41710424423217773
vt 0.5058760046958923 0.016359329223632812
vt 1.0020709037780762 0.41710424423217773
vt 1.0020709037780762 0.41710424423217773
vt 0.5058760046958923 0.016359329223632812
vt 1.0020709037780762 0.016359329223632812
vt 0.5058760046958923 0.41710424423217773
vt 0.5058758854866028 0.41710400581359863
vt 0.008352292701601982 0.016359329223632812
vt 0.5058758854866028 0.016359329223632812
vt 0.008352292701601982 0.41710400581359863
vt 1.0005879402160645 0.016359329223632812
vt 1.0005879402160645 0.41710424423217773
vt 1.002070665359497 0.41710424423217773
vt 0.5058756470680237 0.016359329223632812
vt 1.002070665359497 0.016359567642211914
vt 0.5058756470680237 0.41710424423217773
vt 0.5058758854866028 0.41710400581359863
vt 0.008352292701601982 0.016359329223632812
vt 0.5058758854866028 0.016359329223632812
vt 0.008352292701601982 0.41710400581359863
vt 1.0005879402160645 0.016359329223632812
vt 1.0005879402160645 0.41710424423217773
vt 1.002070665359497 0.41710424423217773
vt 0.5058756470680237 0.016359329223632812
vt 1.002070665359497 0.016359567642211914
vt 0.5058756470680237 0.41710424423217773
vt 0.008352292701601982 0.016359329223632812
vt 0.5058760046958923 0.41710424423217773
vt 0.008352292701601982 0.41710424423217773
vt 0.5058760046958923 0.016359329223632812
vt 0.5058761239051819 0.41710424423217773
vt 1.0020709037780762 0.016359567642211914
vt 1.0020709037780762 0.41710424423217773
vt 0.5058761239051819 0.016359567642211914
vt 0.5058761239051819 0.41710424423217773
vt 1.0020709037780762 0.016359567642211914
vt 1.0020709037780762 0.41710424423217773
vt 0.5058761239051819 0.016359567642211914
vt 0.5058761239051819 0.41710424423217773
vt 1.0020709037780762 0.016359567642211914
vt 1.0020709037780762 0.41710424423217773
vt 0.5058761239051819 0.016359567642211914
vt 0.5058760046958923 0.016359329223632812
vt 0.008352292701601982 0.41710424423217773
vt 0.008352292701601982 0.016359329223632812
vt 0.5058760046958923 0.41710424423217773
vt 1.0020709037780762 0.016359329223632812
vt 1.0020709037780762 0.41710424423217773
vt 0.5058760046958923 0.016359329223632812
vt 0.008352292701601982 0.41710424423217773
vt 0.008352292701601982 0.016359329223632812
vt 0.5058760046958923 0.41710424423217773
vt 0.5058761239051819 0.41710424423217773
vt 1.0020709037780762 0.016359567642211914
vt 1.0020709037780762 0.41710424423217773
vt 0.5058761239051819 0.016359567642211914
vt 0.5058761239051819 0.41710424423217773
vt 1.0020709037780762 0.016359567642211914
vt 1.0020709037780762 0.41710424423217773
vt 0.5058761239051819 0.016359567642211914
vt 0.5058761239051819 0.41710424423217773
vt 1.0020709037780762 0.016359567642211914
vt 1.0020709037780762 0.41710424423217773
vt 0.5058761239051819 0.016359567642211914
vt 0.5058760046958923 0.41710424423217773
vt 0.008352292701601982 0.016359329223632812
vt 0.5058760046958923 0.016359329223632812
vt 0.008352292701601982 0.41710424423217773
vt 1.0020709037780762 0.41710424423217773
vt 0.5058760046958923 0.016359329223632812
vt 1.0020709037780762 0.016359329223632812
vt 0.5058760046958923 0.41710424423217773
vt 0.5058758854866028 0.41710400581359863
vt 0.008352292701601982 0.016359329223632812
vt 0.5058758854866028 0.016359329223632812
vt 0.008352292701601982 0.41710400581359863
vt 1.0005879402160645 0.016359329223632812
vt 1.0005879402160645 0.41710424423217773
vt 0.5058758854866028 0.41710400581359863
vt 0.008352292701601982 0.016359329223632812
vt 0.5058758854866028 0.016359329223632812
vt 0.008352292701601982 0.41710400581359863
vt 1.0005879402160645 0.016359329223632812
vt 1.0005879402160645 0.41710424423217773
vt 0.5058758854866028 0.41710400581359863
vt 0.008352292701601982 0.016359329223632812
vt 0.5058758854866028 0.016359329223632812
vt 0.008352292701601982 0.41710400581359863
vt 1.002070665359497 0.41710424423217773
vt 0.5058756470680237 0.016359329223632812
vt 1.002070665359497 0.016359567642211914
vt 0.5058756470680237 0.41710424423217773
vt 0.5058760046958923 0.41710424423217773
vt 0.008352292701601982 0.016359329223632812
vt 0.5058760046958923 0.016359329223632812
vt 0.008352292701601982 0.41710424423217773
vt 1.0020709037780762 0.41710424423217773
vt 1.0020709037780762 0.016359329223632812
vt 0.008352292701601982 0.016359329223632812
vt 0.5058758854866028 0.41710400581359863
vt 0.5058758854866028 0.016359329223632812
vt 0.008352292701601982 0.41710400581359863
vt 1.0005879402160645 0.016359329223632812
vt 1.0005879402160645 0.41710424423217773
vt 0.5058756470680237 0.016359329223632812
vt 1.002070665359497 0.41710424423217773
vt 1.002070665359497 0.016359567642211914
vt 0.5058756470680237 0.41710424423217773
vt 0.008352292701601982 0.016359329223632812
vt 0.008352292701601982 0.41710400581359863
vt 0.5058756470680237 0.016359329223632812
vt 1.002070665359497 0.41710424423217773
vt 1.002070665359497 0.016359567642211914
vt 0.5058756470680237 0.41710424423217773
vt 0.5058756470680237 0.016359329223632812
vt 1.002070665359497 0.41710424423217773
vt 1.002070665359497 0.016359567642211914
vt 0.5058756470680237 0.41710424423217773
vt 0.008352292701601982 0.016359329223632812
vt 0.008352292701601982 0.41710400581359863
vt 0.5058756470680237 0.016359329223632812
vt 1.002070665359497 0.41710424423217773
vt 1.002070665359497 0.016359567642211914
vt 0.5058756470680237 0.41710424423217773
vt 0.5058761239051819 0.41710424423217773
vt 1.0020709037780762 0.016359567642211914
vt 1.0020709037780762 0.41710424423217773
vt 0.5058761239051819 0.016359567642211914
vt 0.9980385303497314 0.3252701759338379
vt 0.5043802261352539 0.9920265674591064
vt 0.9980385303497314 0.9920258522033691
vt 0.5043801069259644 0.3252706527709961
vt 0.9980385303497314 0.32747578620910645
vt 0.5043801069259644 0.993293046951294
vt 0.9980385303497314 0.9932928085327148
vt 0.5043801069259644 0.32747578620910645
vt 0.9980385303497314 0.32747578620910645
vt 0.5043801069259644 0.9932925701141357
vt 0.9980385303497314 0.993293046951294
vt 0.5043801069259644 0.32747578620910645
vt 0.9980385303497314 0.3252701759338379
vt 0.5043802261352539 0.9920265674591064
vt 0.9980385303497314 0.9920258522033691
vt 0.5043801069259644 0.3252706527709961
vt 0.9980385303497314 0.32747578620910645
vt 0.5043801069259644 0.993293046951294
vt 0.9980385303497314 0.9932928085327148
vt 0.5043801069259644 0.32747578620910645
vt 0.9980385303497314 0.32747578620910645
vt 0.5043801069259644 0.9932925701141357
vt 0.9980385303497314 0.993293046951294
vt 0.5043801069259644 0.32747578620910645
vt 0.9980385303497314 0.32747578620910645
vt 0.5043801069259644 0.9932925701141357
vt 0.9980385303497314 0.993293046951294
vt 0.5043801069259644 0.32747578620910645

g bg_mdl_map_ground03_iseki01
s 1
usemtl bg_mdl_map_ground03_iseki01_0
f 3/3/3 2/2/2 1/1/1 
f 4/4/4 1/1/1 2/2/2 
f 7/7/7 6/6/6 5/5/5 
f 8/8/8 5/5/5 6/6/6 
f 11/11/11 10/10/10 9/9/9 
f 12/12/12 9/9/9 10/10/10 
f 9/9/9 12/12/12 13/13/13 
f 14/14/14 13/13/13 12/12/12 
f 13/13/13 14/14/14 15/15/15 
f 16/16/16 15/15/15 14/14/14 
f 15/15/15 16/16/16 17/17/17 
f 18/18/18 17/17/17 16/16/16 
f 17/17/17 18/18/18 19/19/19 
f 20/20/20 19/19/19 18/18/18 
f 19/19/19 20/20/20 21/21/21 
f 22/22/22 21/21/21 20/20/20 
f 21/21/21 22/22/22 23/23/23 
f 24/24/24 23/23/23 22/22/22 
f 23/23/23 24/24/24 25/25/25 
f 26/26/26 25/25/25 24/24/24 
f 25/25/25 26/26/26 27/27/27 
f 28/28/28 27/27/27 26/26/26 
f 17/17/17 29/29/29 15/15/15 
f 30/30/30 15/15/15 29/29/29 
f 29/29/29 17/17/17 31/31/31 
f 19/19/19 31/31/31 17/17/17 
f 31/31/31 19/19/19 32/32/32 
f 21/21/21 32/32/32 19/19/19 
f 32/32/32 21/21/21 33/33/33 
f 23/23/23 33/33/33 21/21/21 
f 33/33/33 23/23/23 34/34/34 
f 25/25/25 34/34/34 23/23/23 
f 29/29/29 35/35/35 30/30/30 
f 36/36/36 30/30/30 35/35/35 
f 30/30/30 36/36/36 37/37/37 
f 38/38/38 37/37/37 36/36/36 
f 37/37/37 38/38/38 39/39/39 
f 39/39/39 9/9/9 37/37/37 
f 9/9/9 39/39/39 11/11/11 
f 40/40/40 11/11/11 39/39/39 
f 13/13/13 37/37/37 9/9/9 
f 39/39/39 41/41/41 40/40/40 
f 41/41/41 39/39/39 38/38/38 
f 42/42/42 40/40/40 41/41/41 
f 32/32/32 43/43/43 31/31/31 
f 44/44/44 31/31/31 43/43/43 
f 35/35/35 29/29/29 44/44/44 
f 31/31/31 44/44/44 29/29/29 
f 40/40/40 45/45/45 11/11/11 
f 46/46/46 11/11/11 45/45/45 
f 11/11/11 46/46/46 10/10/10 
f 47/47/47 10/10/10 46/46/46 
f 45/45/45 40/40/40 48/48/48 
f 42/42/42 48/48/48 40/40/40 
f 43/43/43 32/32/32 49/49/49 
f 33/33/33 49/49/49 32/32/32 
f 49/49/49 33/33/33 50/50/50 
f 34/34/34 50/50/50 33/33/33 
f 50/50/50 34/34/34 51/51/51 
f 52/52/52 51/51/51 34/34/34 
f 55/55/55 54/54/54 53/53/53 
f 56/56/56 53/53/53 54/54/54 
f 59/59/59 58/58/58 57/57/57 
f 60/60/60 57/57/57 58/58/58 
f 58/58/58 61/61/61 60/60/60 
f 61/61/61 58/58/58 62/62/62 
f 63/63/63 62/62/62 58/58/58 
f 64/64/64 60/60/60 61/61/61 
f 57/57/57 65/65/65 59/59/59 
f 66/66/66 59/59/59 65/65/65 
f 59/59/59 66/66/66 67/67/67 
f 63/63/63 67/67/67 68/68/68 
f 69/69/69 68/68/68 67/67/67 
f 70/70/70 67/67/67 66/66/66 
f 67/67/67 70/70/70 69/69/69 
f 68/68/68 71/71/71 63/63/63 
f 62/62/62 63/63/63 71/71/71 
f 72/72/72 69/69/69 70/70/70 
f 75/75/75 74/74/74 73/73/73 
f 76/76/76 73/73/73 74/74/74 
f 74/74/74 75/75/75 77/77/77 
f 78/78/78 77/77/77 75/75/75 
f 73/73/73 76/76/76 79/79/79 
f 80/80/80 79/79/79 76/76/76 
f 74/74/74 81/81/81 76/76/76 
f 82/82/82 76/76/76 81/81/81 
f 76/76/76 82/82/82 80/80/80 
f 73/73/73 83/83/83 75/75/75 
f 84/84/84 75/75/75 83/83/83 
f 75/75/75 84/84/84 78/78/78 
f 77/77/77 85/85/85 74/74/74 
f 81/81/81 74/74/74 85/85/85 
f 86/86/86 78/78/78 84/84/84 
f 87/87/87 80/80/80 82/82/82 
f 79/79/79 88/88/88 73/73/73 
f 83/83/83 73/73/73 88/88/88 
f 91/91/91 90/90/90 89/89/89 
f 92/92/92 89/89/89 90/90/90 
f 89/89/89 92/92/92 93/93/93 
f 94/94/94 93/93/93 92/92/92 
f 93/93/93 94/94/94 95/95/95 
f 96/96/96 95/95/95 94/94/94 
f 99/99/99 98/98/98 97/97/97 
f 100/100/100 97/97/97 98/98/98 
f 97/97/97 100/100/100 101/101/101 
f 102/102/102 101/101/101 100/100/100 
f 101/101/101 102/102/102 103/103/103 
f 104/104/104 103/103/103 102/102/102 
f 107/107/107 106/106/106 105/105/105 
f 108/108/108 105/105/105 106/106/106 
f 105/105/105 108/108/108 109/109/109 
f 110/110/110 109/109/109 108/108/108 
f 109/109/109 110/110/110 111/111/111 
f 112/112/112 111/111/111 110/110/110 
f 115/115/115 114/114/114 113/113/113 
f 116/116/116 113/113/113 114/114/114 
f 119/119/119 118/118/118 117/117/117 
f 120/120/120 117/117/117 118/118/118 
f 118/118/118 121/121/121 120/120/120 
f 122/122/122 120/120/120 121/121/121 
f 120/120/120 122/122/122 123/123/123 
f 124/124/124 123/123/123 122/122/122 
f 127/127/127 126/126/126 125/125/125 
f 128/128/128 125/125/125 126/126/126 
f 131/131/131 130/130/130 129/129/129 
f 132/132/132 129/129/129 130/130/130 
f 129/129/129 133/133/133 131/131/131 
f 133/133/133 129/129/129 134/134/134 
f 135/135/135 134/134/134 129/129/129 
f 136/136/136 131/131/131 133/133/133 
f 139/139/139 138/138/138 137/137/137 
f 140/140/140 137/137/137 138/138/138 
f 137/137/137 140/140/140 141/141/141 
f 142/142/142 141/141/141 140/140/140 
f 137/137/137 143/143/143 139/139/139 
f 144/144/144 139/139/139 143/143/143 
f 141/141/141 145/145/145 137/137/137 
f 143/143/143 137/137/137 145/145/145 

usemtl bg_mdl_map_ground03_iseki01_1
f 148/148/148 147/147/147 146/146/146 
f 149/149/149 146/146/146 147/147/147 
f 152/152/152 151/151/151 150/150/150 
f 153/153/153 150/150/150 151/151/151 
f 156/156/156 155/155/155 154/154/154 
f 157/157/157 154/154/154 155/155/155 
f 160/160/160 159/159/159 158/158/158 
f 161/161/161 158/158/158 159/159/159 
f 164/164/164 163/163/163 162/162/162 
f 165/165/165 162/162/162 163/163/163 
f 168/168/168 167/167/167 166/166/166 
f 169/169/169 166/166/166 167/167/167 
f 172/172/172 171/171/171 170/170/170 
f 173/173/173 170/170/170 171/171/171 
f 176/176/176 175/175/175 174/174/174 
f 177/177/177 174/174/174 175/175/175 
f 180/180/180 179/179/179 178/178/178 
f 181/181/181 178/178/178 179/179/179 
f 184/184/184 183/183/183 182/182/182 
f 185/185/185 182/182/182 183/183/183 
f 188/188/188 187/187/187 186/186/186 
f 189/189/189 186/186/186 187/187/187 
f 192/192/192 191/191/191 190/190/190 
f 193/193/193 190/190/190 191/191/191 
f 196/196/196 195/195/195 194/194/194 
f 197/197/197 194/194/194 195/195/195 
f 200/200/200 199/199/199 198/198/198 
f 201/201/201 198/198/198 199/199/199 
f 204/204/204 203/203/203 202/202/202 
f 205/205/205 202/202/202 203/203/203 
f 208/208/208 207/207/207 206/206/206 
f 209/209/209 206/206/206 207/207/207 
f 212/212/212 211/211/211 210/210/210 
f 213/213/213 210/210/210 211/211/211 
f 216/216/216 215/215/215 214/214/214 
f 217/217/217 214/214/214 215/215/215 
f 220/220/220 219/219/219 218/218/218 
f 221/221/221 218/218/218 219/219/219 
f 224/224/224 223/223/223 222/222/222 
f 225/225/225 222/222/222 223/223/223 
f 228/228/228 227/227/227 226/226/226 
f 229/229/229 226/226/226 227/227/227 
f 232/232/232 231/231/231 230/230/230 
f 233/233/233 230/230/230 231/231/231 
f 236/236/236 235/235/235 234/234/234 
f 237/237/237 234/234/234 235/235/235 
f 240/240/240 239/239/239 238/238/238 
f 241/241/241 238/238/238 239/239/239 
f 244/244/244 243/243/243 242/242/242 
f 245/245/245 242/242/242 243/243/243 
f 248/248/248 247/247/247 246/246/246 
f 249/249/249 246/246/246 247/247/247 
f 252/252/252 251/251/251 250/250/250 
f 253/253/253 250/250/250 251/251/251 
f 256/256/256 255/255/255 254/254/254 
f 257/257/257 254/254/254 255/255/255 
f 260/260/260 259/259/259 258/258/258 
f 261/261/261 258/258/258 259/259/259 
f 264/264/264 263/263/263 262/262/262 
f 265/265/265 262/262/262 263/263/263 
f 268/268/268 267/267/267 266/266/266 
f 269/269/269 266/266/266 267/267/267 
f 272/272/272 271/271/271 270/270/270 
f 273/273/273 270/270/270 271/271/271 
f 276/276/276 275/275/275 274/274/274 
f 277/277/277 274/274/274 275/275/275 
f 280/280/280 279/279/279 278/278/278 
f 281/281/281 278/278/278 279/279/279 
f 284/284/284 283/283/283 282/282/282 
f 285/285/285 282/282/282 283/283/283 
f 288/288/288 287/287/287 286/286/286 
f 289/289/289 286/286/286 287/287/287 

usemtl bg_mdl_map_ground03_iseki01_2
f 292/292/292 291/291/291 290/290/290 
f 293/293/293 290/290/290 291/291/291 
f 296/296/296 295/295/295 294/294/294 
f 297/297/297 294/294/294 295/295/295 
f 300/300/300 299/299/299 298/298/298 
f 301/301/301 298/298/298 299/299/299 
f 304/304/304 303/303/303 302/302/302 
f 305/305/305 302/302/302 303/303/303 
f 304/304/304 306/306/306 303/303/303 
f 307/307/307 303/303/303 306/306/306 
f 310/310/310 309/309/309 308/308/308 
f 311/311/311 308/308/308 309/309/309 
f 308/308/308 311/311/311 312/312/312 
f 313/313/313 312/312/312 311/311/311 
f 316/316/316 315/315/315 314/314/314 
f 317/317/317 314/314/314 315/315/315 
f 320/320/320 319/319/319 318/318/318 
f 321/321/321 318/318/318 319/319/319 
f 324/324/324 323/323/323 322/322/322 
f 325/325/325 322/322/322 323/323/323 
f 324/324/324 322/322/322 326/326/326 
f 327/327/327 326/326/326 322/322/322 
f 330/330/330 329/329/329 328/328/328 
f 331/331/331 328/328/328 329/329/329 
f 334/334/334 333/333/333 332/332/332 
f 335/335/335 332/332/332 333/333/333 
f 334/334/334 332/332/332 336/336/336 
f 337/337/337 336/336/336 332/332/332 
f 340/340/340 339/339/339 338/338/338 
f 341/341/341 338/338/338 339/339/339 
f 344/344/344 343/343/343 342/342/342 
f 345/345/345 342/342/342 343/343/343 
f 348/348/348 347/347/347 346/346/346 
f 349/349/349 346/346/346 347/347/347 
f 352/352/352 351/351/351 350/350/350 
f 353/353/353 350/350/350 351/351/351 
f 356/356/356 355/355/355 354/354/354 
f 357/357/357 354/354/354 355/355/355 
f 360/360/360 359/359/359 358/358/358 
f 361/361/361 358/358/358 359/359/359 
f 358/358/358 361/361/361 362/362/362 
f 363/363/363 362/362/362 361/361/361 
f 366/366/366 365/365/365 364/364/364 
f 367/367/367 364/364/364 365/365/365 
f 370/370/370 369/369/369 368/368/368 
f 371/371/371 368/368/368 369/369/369 
f 374/374/374 373/373/373 372/372/372 
f 375/375/375 372/372/372 373/373/373 
f 378/378/378 377/377/377 376/376/376 
f 379/379/379 376/376/376 377/377/377 
f 382/382/382 381/381/381 380/380/380 
f 383/383/383 380/380/380 381/381/381 
f 386/386/386 385/385/385 384/384/384 
f 387/387/387 384/384/384 385/385/385 
f 390/390/390 389/389/389 388/388/388 
f 391/391/391 388/388/388 389/389/389 
f 390/390/390 388/388/388 392/392/392 
f 393/393/393 392/392/392 388/388/388 
f 396/396/396 395/395/395 394/394/394 
f 397/397/397 394/394/394 395/395/395 
f 396/396/396 394/394/394 398/398/398 
f 399/399/399 398/398/398 394/394/394 
f 402/402/402 401/401/401 400/400/400 
f 403/403/403 400/400/400 401/401/401 
f 406/406/406 405/405/405 404/404/404 
f 407/407/407 404/404/404 405/405/405 
f 410/410/410 409/409/409 408/408/408 
f 411/411/411 408/408/408 409/409/409 
f 408/408/408 412/412/412 410/410/410 
f 413/413/413 410/410/410 412/412/412 
f 416/416/416 415/415/415 414/414/414 
f 417/417/417 414/414/414 415/415/415 
f 416/416/416 418/418/418 415/415/415 
f 419/419/419 415/415/415 418/418/418 
f 422/422/422 421/421/421 420/420/420 
f 423/423/423 420/420/420 421/421/421 
f 420/420/420 423/423/423 424/424/424 
f 425/425/425 424/424/424 423/423/423 
f 428/428/428 427/427/427 426/426/426 
f 429/429/429 426/426/426 427/427/427 
f 432/432/432 431/431/431 430/430/430 
f 433/433/433 430/430/430 431/431/431 
f 430/430/430 433/433/433 434/434/434 
f 435/435/435 434/434/434 433/433/433 
f 438/438/438 437/437/437 436/436/436 
f 439/439/439 436/436/436 437/437/437 
f 442/442/442 441/441/441 440/440/440 
f 443/443/443 440/440/440 441/441/441 
f 446/446/446 445/445/445 444/444/444 
f 447/447/447 444/444/444 445/445/445 
f 450/450/450 449/449/449 448/448/448 
f 451/451/451 448/448/448 449/449/449 
f 454/454/454 453/453/453 452/452/452 
f 455/455/455 452/452/452 453/453/453 
f 458/458/458 457/457/457 456/456/456 
f 459/459/459 456/456/456 457/457/457 
f 462/462/462 461/461/461 460/460/460 
f 463/463/463 460/460/460 461/461/461 
f 466/466/466 465/465/465 464/464/464 
f 467/467/467 464/464/464 465/465/465 
f 470/470/470 469/469/469 468/468/468 
f 471/471/471 468/468/468 469/469/469 

