v -0.26238733530044556 2.770280122756958 0.0
v -0.12161686271429062 2.8168675899505615 0.9892707467079163
v -0.3171681761741638 2.737194538116455 0.0
v -0.07832097262144089 2.841609239578247 0.9892707467079163
v -0.2924061417579651 2.677891492843628 0.0
v -0.10124175995588303 2.771066188812256 0.9892707467079163
v -0.2293013483285904 2.7086446285247803 0.0
v -0.10124175995588303 2.771066188812256 0.9892707467079163
v -0.05452660098671913 2.7950685024261475 0.9892707467079163
v -0.2924061417579651 2.677891492843628 0.0
v -0.07832097262144089 2.841609239578247 0.9892707467079163
v -0.26238733530044556 2.770280122756958 0.0
v 0.1057453602552414 2.912938117980957 1.9785414934158325
v 0.12024815380573273 2.881492853164673 1.9785414934158325
v 0.07393438369035721 2.896541118621826 1.9785414934158325
v 0.08992268145084381 2.864240884780884 1.9785414934158325
v -2.2952628135681152 1.7751734256744385 0.0
v -2.3352997303009033 1.8354461193084717 1.4917211532592773
v -2.3774218559265137 1.8101333379745483 1.4917211532592773
v -2.2416558265686035 1.8088302612304688 0.0
v -2.271674871444702 1.7164418697357178 0.0
v -2.358220100402832 1.7649034261703491 1.4917211532592773
v -2.2073962688446045 1.7466237545013428 0.0
v -2.358220100402832 1.7649034261703491 1.4917211532592773
v -2.3103315830230713 1.7883343696594238 1.4917211532592773
v -2.271674871444702 1.7164418697357178 0.0
v -2.2416558265686035 1.8088302612304688 0.0
v -2.3103315830230713 1.7883343696594238 1.4917211532592773
v -2.3352997303009033 1.8354461193084717 1.4917211532592773
v -2.2073962688446045 1.7466237545013428 0.0
v -2.428943634033203 1.862061858177185 2.9834423065185547
v -2.413266658782959 1.8300448656082153 2.9834423065185547
v -2.459580898284912 1.845093011856079 2.9834423065185547
v -2.44476580619812 1.8133645057678223 2.9834423065185547
v -2.344802141189575 1.38420569896698 0.0
v -2.3466835021972656 1.419541597366333 1.4275966882705688
v -2.38377046585083 1.386684536933899 1.4275966882705688
v -2.2962303161621094 1.4254074096679688 0.0
v -2.2962303161621094 1.3330187797546387 0.0
v -2.3466835021972656 1.3489990234375 1.4275966882705688
v -2.2476587295532227 1.38420569896698 0.0
v -2.3466835021972656 1.3489990234375 1.4275966882705688
v -2.3095970153808594 1.386684536933899 1.4275966882705688
v -2.2962303161621094 1.3330187797546387 0.0
v -2.2962303161621094 1.4254074096679688 0.0
v -2.3095970153808594 1.386684536933899 1.4275966882705688
v -2.3466835021972656 1.419541597366333 1.4275966882705688
v -2.2476587295532227 1.38420569896698 0.0
v -2.397136926651001 1.413676142692566 2.8551933765411377
v -2.371535539627075 1.3891631364822388 2.8551933765411377
v -2.39713716506958 1.3649789094924927 2.8551933765411377
v -2.422738790512085 1.3891631364822388 2.8551933765411377
v -0.27866479754447937 1.5284141302108765 0.0
v -0.1293058693408966 1.530015230178833 0.9892707467079163
v -0.31889376044273376 1.5057166814804077 0.0
v -0.09282980114221573 1.549033284187317 0.9892708659172058
v -0.30061402916908264 1.460861325263977 0.0
v -0.11203447729349136 1.4899276494979858 0.9892707467079163
v -0.25464722514152527 1.4848415851593018 0.0
v -0.11203447729349136 1.4899276494979858 0.9892707467079163
v -0.07309282571077347 1.5117508172988892 0.9892707467079163
v -0.30061402916908264 1.460861325263977 0.0
v -0.25464722514152527 1.4848415851593018 0.0
v -0.09282980114221573 1.549033284187317 0.9892708659172058
v -0.27866479754447937 1.5284141302108765 0.0
v -0.07309282571077347 1.5117508172988892 0.9892707467079163
v 0.09297528862953186 1.5441644191741943 1.9452389478683472
v 0.07715260237455368 1.4954673051834106 1.9452389478683472
v 0.06092602014541626 1.5298110246658325 1.9452389478683472
v 0.10723980516195297 1.5147628784179688 1.9452389478683472
v 0.07393438369035721 2.896541118621826 1.9785414934158325
v -0.07832097262144089 2.841609239578247 0.9892707467079163
v 0.1057453602552414 2.912938117980957 1.9785414934158325
v -0.12161686271429062 2.8168675899505615 0.9892707467079163
v 0.08992268145084381 2.864240884780884 1.9785414934158325
v -0.10124175995588303 2.771066188812256 0.9892707467079163
v -0.05452660098671913 2.7950685024261475 0.9892707467079163
v 0.08992268145084381 2.864240884780884 1.9785414934158325
v 0.12024815380573273 2.881492853164673 1.9785414934158325
v -0.10124175995588303 2.771066188812256 0.9892707467079163
v 0.1057453602552414 2.912938117980957 1.9785414934158325
v -0.07832097262144089 2.841609239578247 0.9892707467079163
v -2.459580898284912 1.845093011856079 2.9834423065185547
v -2.3352997303009033 1.8354461193084717 1.4917211532592773
v -2.428943634033203 1.862061858177185 2.9834423065185547
v -2.3774218559265137 1.8101333379745483 1.4917211532592773
v -2.44476580619812 1.8133645057678223 2.9834423065185547
v -2.358220100402832 1.7649034261703491 1.4917211532592773
v -2.413266658782959 1.8300448656082153 2.9834423065185547
v -2.358220100402832 1.7649034261703491 1.4917211532592773
v -2.44476580619812 1.8133645057678223 2.9834423065185547
v -2.3103315830230713 1.7883343696594238 1.4917211532592773
v -2.428943634033203 1.862061858177185 2.9834423065185547
v -2.3103315830230713 1.7883343696594238 1.4917211532592773
v -2.413266658782959 1.8300448656082153 2.9834423065185547
v -2.3352997303009033 1.8354461193084717 1.4917211532592773
v -2.422738790512085 1.3891631364822388 2.8551933765411377
v -2.3466835021972656 1.419541597366333 1.4275966882705688
v -2.397136926651001 1.413676142692566 2.8551933765411377
v -2.38377046585083 1.386684536933899 1.4275966882705688
v -2.39713716506958 1.3649789094924927 2.8551933765411377
v -2.3466835021972656 1.3489990234375 1.4275966882705688
v -2.371535539627075 1.3891631364822388 2.8551933765411377
v -2.3466835021972656 1.3489990234375 1.4275966882705688
v -2.39713716506958 1.3649789094924927 2.8551933765411377
v -2.3095970153808594 1.386684536933899 1.4275966882705688
v -2.397136926651001 1.413676142692566 2.8551933765411377
v -2.3095970153808594 1.386684536933899 1.4275966882705688
v -2.371535539627075 1.3891631364822388 2.8551933765411377
v -2.3466835021972656 1.419541597366333 1.4275966882705688
v 0.06092602014541626 1.5298110246658325 1.9452389478683472
v -0.09282980114221573 1.549033284187317 0.9892708659172058
v 0.09297528862953186 1.5441644191741943 1.9452389478683472
v -0.1293058693408966 1.530015230178833 0.9892707467079163
v 0.07715260237455368 1.4954673051834106 1.9452389478683472
v -0.11203447729349136 1.4899276494979858 0.9892707467079163
v -0.07309282571077347 1.5117508172988892 0.9892707467079163
v 0.07715260237455368 1.4954673051834106 1.9452389478683472
v 0.10723980516195297 1.5147628784179688 1.9452389478683472
v -0.11203447729349136 1.4899276494979858 0.9892707467079163
v 0.09297528862953186 1.5441644191741943 1.9452389478683472
v -0.07309282571077347 1.5117508172988892 0.9892707467079163
v 0.10723980516195297 1.5147628784179688 1.9452389478683472
v -0.09282980114221573 1.549033284187317 0.9892708659172058
v -0.27866479754447937 1.3643815517425537 0.0
v -0.1293058544397354 1.3374613523483276 0.9892707467079163
v -0.31889382004737854 1.3416839838027954 0.0
v -0.09282980859279633 1.3564794063568115 0.9892708659172058
v -0.30061399936676025 1.2968286275863647 0.0
v -0.11203446239233017 1.2973735332489014 0.9892707467079163
v -0.25464725494384766 1.3208088874816895 0.0
v -0.11203446239233017 1.2973735332489014 0.9892707467079163
v -0.07309281826019287 1.3191967010498047 0.9892707467079163
v -0.30061399936676025 1.2968286275863647 0.0
v -0.25464725494384766 1.3208088874816895 0.0
v -0.09282980859279633 1.3564794063568115 0.9892708659172058
v -0.27866479754447937 1.3643815517425537 0.0
v -0.07309281826019287 1.3191967010498047 0.9892707467079163
v 0.09297529608011246 1.3474431037902832 1.9285873174667358
v 0.07715260237455368 1.29874587059021 1.9285873174667358
v 0.060926031321287155 1.3330897092819214 1.9285873174667358
v 0.10723981261253357 1.3180413246154785 1.9285873174667358
v 0.060926031321287155 1.3330897092819214 1.9285873174667358
v -0.09282980859279633 1.3564794063568115 0.9892708659172058
v 0.09297529608011246 1.3474431037902832 1.9285873174667358
v -0.1293058544397354 1.3374613523483276 0.9892707467079163
v 0.07715260237455368 1.29874587059021 1.9285873174667358
v -0.11203446239233017 1.2973735332489014 0.9892707467079163
v -0.07309281826019287 1.3191967010498047 0.9892707467079163
v 0.07715260237455368 1.29874587059021 1.9285873174667358
v 0.10723981261253357 1.3180413246154785 1.9285873174667358
v -0.11203446239233017 1.2973735332489014 0.9892707467079163
v 0.09297529608011246 1.3474431037902832 1.9285873174667358
v -0.07309281826019287 1.3191967010498047 0.9892707467079163
v 0.10723981261253357 1.3180413246154785 1.9285873174667358
v -0.09282980859279633 1.3564794063568115 0.9892708659172058
v -2.2952628135681152 0.8725218176841736 0.0
v -2.335299491882324 0.932794451713562 1.4917211532592773
v -2.3774218559265137 0.9074814915657043 1.4917211532592773
v -2.2416555881500244 0.9061785936355591 0.0
v -2.271674871444702 0.8137900829315186 0.0
v -2.358220100402832 0.8622515797615051 1.4917211532592773
v -2.2073960304260254 0.8439721465110779 0.0
v -2.358220100402832 0.8622515797615051 1.4917211532592773
v -2.310331344604492 0.8856825232505798 1.491721272468567
v -2.271674871444702 0.8137900829315186 0.0
v -2.2416555881500244 0.9061785936355591 0.0
v -2.310331344604492 0.8856825232505798 1.491721272468567
v -2.335299491882324 0.932794451713562 1.4917211532592773
v -2.2073960304260254 0.8439721465110779 0.0
v -2.428943634033203 0.9594098925590515 2.895116090774536
v -2.413266658782959 0.9273931384086609 2.895116090774536
v -2.459580659866333 0.9424415230751038 2.895116090774536
v -2.444765567779541 0.9107130169868469 2.895116090774536
v -2.459580659866333 0.9424415230751038 2.895116090774536
v -2.335299491882324 0.932794451713562 1.4917211532592773
v -2.428943634033203 0.9594098925590515 2.895116090774536
v -2.3774218559265137 0.9074814915657043 1.4917211532592773
v -2.444765567779541 0.9107130169868469 2.895116090774536
v -2.358220100402832 0.8622515797615051 1.4917211532592773
v -2.413266658782959 0.9273931384086609 2.895116090774536
v -2.358220100402832 0.8622515797615051 1.4917211532592773
v -2.444765567779541 0.9107130169868469 2.895116090774536
v -2.310331344604492 0.8856825232505798 1.491721272468567
v -2.428943634033203 0.9594098925590515 2.895116090774536
v -2.310331344604492 0.8856825232505798 1.491721272468567
v -2.413266658782959 0.9273931384086609 2.895116090774536
v -2.335299491882324 0.932794451713562 1.4917211532592773
v -0.2623874247074127 0.021428527310490608 0.0
v -0.1216169148683548 -0.05991149693727493 0.9892707467079163
v -0.3171682059764862 -0.011656799353659153 0.0
v -0.07832096517086029 -0.03516998142004013 0.9892706871032715
v -0.29240623116493225 -0.07095977663993835 0.0
v -0.10124177485704422 -0.105712890625 0.9892707467079163
v -0.22930140793323517 -0.040206603705883026 0.0
v -0.10124177485704422 -0.105712890625 0.9892707467079163
v -0.05452661216259003 -0.08171020448207855 0.9892706871032715
v -0.29240623116493225 -0.07095977663993835 0.0
v -0.07832096517086029 -0.03516998142004013 0.9892706871032715
v -0.2623874247074127 0.021428527310490608 0.0
v 0.1057453602552414 -0.09176848828792572 1.978541374206543
v 0.12024816870689392 -0.12321411073207855 1.9785414934158325
v 0.0739343985915184 -0.10816558450460434 1.978541374206543
v 0.0899227038025856 -0.14046630263328552 1.9785414934158325
v 0.0739343985915184 -0.10816558450460434 1.978541374206543
v -0.07832096517086029 -0.03516998142004013 0.9892706871032715
v 0.1057453602552414 -0.09176848828792572 1.978541374206543
v -0.1216169148683548 -0.05991149693727493 0.9892707467079163
v 0.0899227038025856 -0.14046630263328552 1.9785414934158325
v -0.10124177485704422 -0.105712890625 0.9892707467079163
v -0.05452661216259003 -0.08171020448207855 0.9892706871032715
v 0.0899227038025856 -0.14046630263328552 1.9785414934158325
v 0.12024816870689392 -0.12321411073207855 1.9785414934158325
v -0.10124177485704422 -0.105712890625 0.9892707467079163
v 0.1057453602552414 -0.09176848828792572 1.978541374206543
v -0.07832096517086029 -0.03516998142004013 0.9892706871032715
v -2.4482741355895996 1.832724928855896 2.8606512546539307
v -1.834144949913025 2.057631492614746 2.2089009284973145
v -1.8342593908309937 2.03110933303833 2.2125372886657715
v -2.4482741355895996 1.8542242050170898 2.8569304943084717
v -0.5267886519432068 2.031635284423828 1.6138368844985962
v -1.1684175729751587 2.271897792816162 1.8572436571121216
v -0.5172359943389893 2.5521271228790283 1.719566822052002
v -1.1684178113937378 1.873207688331604 1.7539716958999634
v -1.1684176921844482 2.3058745861053467 1.8541659116744995
v -0.5169950723648071 2.5979220867156982 1.7174733877182007
v -1.8342593908309937 2.03110933303833 2.2125372886657715
v -1.834144949913025 2.057631492614746 2.2089009284973145
v -0.5191134810447693 1.5161317586898804 1.766982078552246
v -1.1684176921844482 1.4745173454284668 1.8629273176193237
v -1.775475263595581 1.5866520404815674 2.0994839668273926
v -0.5191135406494141 1.4702188968658447 1.769081711769104
v -1.1684176921844482 1.4405399560928345 1.866005539894104
v -1.8350560665130615 1.40774405002594 2.1984593868255615
v -1.8350563049316406 1.434221625328064 2.1948983669281006
v -0.19824746251106262 2.7118582725524902 1.727966070175171
v -0.19750666618347168 2.7663698196411133 1.726717233657837
v 0.11143909394741058 2.8778135776519775 1.827571988105774
v 0.11143968999385834 2.9429876804351807 1.827571988105774
v -0.2037108689546585 1.4830803871154785 1.7564709186553955
v -0.20370988547801971 1.5379528999328613 1.755202293395996
v 0.11143865436315536 1.4952733516693115 1.8275718688964844
v 0.11143933981657028 1.5604466199874878 1.827572226524353
v 0.11143940687179565 1.8897885084152222 1.6966341733932495
v 0.11143927276134491 2.5484719276428223 1.7085683345794678
v 0.11143950372934341 2.219130277633667 1.6546289920806885
v -1.7558010816574097 1.7374491691589355 2.0663437843322754
v -1.7751706838607788 1.8851256370544434 2.094033718109131
v -2.390115737915039 1.3798320293426514 2.739112377166748
v -1.8350563049316406 1.434221625328064 2.1948983669281006
v -1.8350560665130615 1.40774405002594 2.1984593868255615
v -2.390115737915039 1.4012881517410278 2.735475778579712
v -2.390115976333618 1.3752273321151733 2.3783600330352783
v -1.8350563049316406 1.385960340499878 1.917413592338562
v -1.8350563049316406 1.3591631650924683 1.917413592338562
v -2.39011549949646 1.3967074155807495 2.37835955619812
v -0.526790201663971 0.7796273827552795 1.5321447849273682
v -1.1684179306030273 1.3390475511550903 1.680867075920105
v -0.5191137194633484 1.316994547843933 1.677591323852539
v -1.168418049812317 0.9291816353797913 1.5865159034729004
v -1.1684179306030273 1.3739014863967896 1.6808669567108154
v -0.5191134810447693 1.364736557006836 1.67759108543396
v -0.20371100306510925 1.3045905828475952 1.710638403892517
v 0.11143902689218521 0.9435041546821594 1.6349848508834839
v -1.8350563049316406 1.3591631650924683 1.917413592338562
v -1.8350563049316406 1.385960340499878 1.917413592338562
v -0.20370995998382568 1.3620370626449585 1.7106388807296753
v 0.11143866181373596 1.2914365530014038 1.8275721073150635
v 0.1114393100142479 1.360138177871704 1.8275729417800903
v -0.5172367095947266 0.2374008148908615 1.6776633262634277
v -1.168418049812317 0.5193159580230713 1.7474154233932495
v -1.7751723527908325 0.9031083583831787 1.8835647106170654
v -0.516996443271637 0.18978118896484375 1.677672266960144
v -1.1684179306030273 0.48446181416511536 1.7474154233932495
v -1.83414626121521 0.7269315719604492 2.0153427124023438
v -1.8342608213424683 0.753773033618927 2.0154025554656982
v -0.19750989973545074 0.015903931111097336 1.71087646484375
v -0.19824962317943573 0.0729769915342331 1.7108476161956787
v 0.11143875122070312 -0.16899444162845612 1.8275725841522217
v 0.11143948137760162 -0.10029327124357224 1.8275727033615112
v 0.11143939942121506 0.24763914942741394 1.6349852085113525
v 0.1114393025636673 0.595571756362915 1.5773191452026367
v -1.7558032274246216 1.05354905128479 1.8388340473175049
v -1.775477409362793 1.206195592880249 1.8499878644943237
v -2.448274850845337 0.9196111559867859 2.5704398155212402
v -1.8342608213424683 0.753773033618927 2.0154025554656982
v -1.83414626121521 0.7269315719604492 2.0153427124023438
v -2.448274612426758 0.9411109685897827 2.5704398155212402
vn 0.18675583600997925 0.9766618013381958 -0.10608378052711487
vn -0.9349039793014526 0.31635573506355286 0.16085310280323029
vn -0.9515417218208313 0.25802081823349 0.16731302440166473
vn 0.2740778923034668 0.954200029373169 -0.1199321523308754
vn -0.4033980369567871 -0.9005848169326782 0.1619168221950531
vn -0.31766384840011597 -0.9362379908561707 0.15016038715839386
vn 0.9203052520751953 -0.3682844340801239 -0.131927490234375
vn -0.31766384840011597 -0.9362379908561707 0.15016038715839386
vn 0.9395100474357605 -0.31272485852241516 -0.1397281438112259
vn -0.4033980369567871 -0.9005848169326782 0.1619168221950531
vn 0.2740778923034668 0.954200029373169 -0.1199321523308754
vn 0.18675583600997925 0.9766618013381958 -0.10608378052711487
vn -0.0 0.0 1.0
vn -0.0 0.0 1.0
vn -0.0 0.0 1.0
vn -0.0 0.0 1.0
vn -0.9500243663787842 0.30653053522109985 -0.05909912288188934
vn 0.26789501309394836 0.9634475708007812 -0.0009626684477552772
vn -0.9494638442993164 0.3082849085330963 -0.05898047611117363
vn 0.2799220681190491 0.9600223302841187 0.0008637900464236736
vn -0.33770349621772766 -0.9411935806274414 0.010538007132709026
vn -0.3499245047569275 -0.9367170929908752 0.01067169476300478
vn 0.9477958083152771 -0.3102516829967499 0.07366794347763062
vn -0.3499245047569275 -0.9367170929908752 0.01067169476300478
vn 0.9485338926315308 -0.30802085995674133 0.07352952659130096
vn -0.33770349621772766 -0.9411935806274414 0.010538007132709026
vn 0.2799220681190491 0.9600223302841187 0.0008637900464236736
vn 0.9485338926315308 -0.30802085995674133 0.07352952659130096
vn 0.26789501309394836 0.9634475708007812 -0.0009626684477552772
vn 0.9477958083152771 -0.3102516829967499 0.07366794347763062
vn -0.0 0.0 1.0
vn -0.0 0.0 1.0
vn -0.0 0.0 1.0
vn -0.0 0.0 1.0
vn -0.9981707334518433 0.053651344031095505 -0.027870694175362587
vn -7.056089089019224e-05 0.9999887943267822 0.0047332835383713245
vn -0.9990597367286682 0.03416519612073898 -0.026692267507314682
vn 0.014741134829819202 0.9998782873153687 0.005116494372487068
vn 0.01640179753303528 -0.9998016953468323 0.011300833895802498
vn -0.0001835243310779333 -0.9999442100524902 0.010560611262917519
vn 0.997694194316864 0.0519494004547596 0.04367535933852196
vn -0.0001835243310779333 -0.9999442100524902 0.010560611262917519
vn 0.998505711555481 0.03425315394997597 0.042580798268318176
vn 0.01640179753303528 -0.9998016953468323 0.011300833895802498
vn 0.014741134829819202 0.9998782873153687 0.005116494372487068
vn 0.998505711555481 0.03425315394997597 0.042580798268318176
vn -7.056089089019224e-05 0.9999887943267822 0.0047332835383713245
vn 0.997694194316864 0.0519494004547596 0.04367535933852196
vn -0.0 0.0 1.0
vn -0.0 0.0 1.0
vn -0.0 0.0 1.0
vn -0.0 0.0 1.0
vn 0.19385376572608948 0.9793230295181274 -0.05785370618104935
vn -0.923833429813385 0.339576780796051 0.17669039964675903
vn -0.9401174783706665 0.2937110364437103 0.172953799366951
vn 0.2884848713874817 0.9554545283317566 -0.06231389567255974
vn -0.40980157256126404 -0.9062179923057556 0.10407528281211853
vn -0.31589972972869873 -0.9454469084739685 0.07960915565490723
vn 0.93239825963974 -0.32218846678733826 -0.16379272937774658
vn -0.31589972972869873 -0.9454469084739685 0.07960915565490723
vn 0.9445016980171204 -0.27893754839897156 -0.1735229641199112
vn -0.40980157256126404 -0.9062179923057556 0.10407528281211853
vn 0.93239825963974 -0.32218846678733826 -0.16379272937774658
vn 0.2884848713874817 0.9554545283317566 -0.06231389567255974
vn 0.19385376572608948 0.9793230295181274 -0.05785370618104935
vn 0.9445016980171204 -0.27893754839897156 -0.1735229641199112
vn -0.0 0.0 1.0
vn -0.0 0.0 1.0
vn -0.0 0.0 1.0
vn -0.0 0.0 1.0
vn -0.9161466360092163 0.3705701529979706 0.15281693637371063
vn 0.2740778923034668 0.954200029373169 -0.1199321523308754
vn 0.3805636167526245 0.9148179292678833 -0.13520142436027527
vn -0.9349039793014526 0.31635573506355286 0.16085310280323029
vn -0.2158351093530655 -0.9673060774803162 0.13316962122917175
vn -0.31766384840011597 -0.9362379908561707 0.15016038715839386
vn 0.9395100474357605 -0.31272485852241516 -0.1397281438112259
vn -0.2158351093530655 -0.9673060774803162 0.13316962122917175
vn 0.9565515518188477 -0.2517954409122467 -0.14699700474739075
vn -0.31766384840011597 -0.9362379908561707 0.15016038715839386
vn 0.3805636167526245 0.9148179292678833 -0.13520142436027527
vn 0.2740778923034668 0.954200029373169 -0.1199321523308754
vn -0.9488687515258789 0.31015536189079285 -0.058750659227371216
vn 0.26789501309394836 0.9634475708007812 -0.0009626684477552772
vn 0.27095136046409607 0.9625928997993469 0.0006212848820723593
vn -0.9494638442993164 0.3082849085330963 -0.05898047611117363
vn -0.3467813730239868 -0.9378979206085205 0.009498262777924538
vn -0.3499245047569275 -0.9367170929908752 0.01067169476300478
vn 0.9491105079650879 -0.3062986433506012 0.07328317314386368
vn -0.3499245047569275 -0.9367170929908752 0.01067169476300478
vn -0.3467813730239868 -0.9378979206085205 0.009498262777924538
vn 0.9485338926315308 -0.30802085995674133 0.07352952659130096
vn 0.27095136046409607 0.9625928997993469 0.0006212848820723593
vn 0.9485338926315308 -0.30802085995674133 0.07352952659130096
vn 0.9491105079650879 -0.3062986433506012 0.07328317314386368
vn 0.26789501309394836 0.9634475708007812 -0.0009626684477552772
vn -0.9995991587638855 -0.0021214373409748077 -0.028234587982296944
vn -7.056089089019224e-05 0.9999887943267822 0.0047332835383713245
vn -0.016023235395550728 0.9998618364334106 0.004434807226061821
vn -0.9990597367286682 0.03416519612073898 -0.026692267507314682
vn -0.015972085297107697 -0.9998254179954529 0.009704590775072575
vn -0.0001835243310779333 -0.9999442100524902 0.010560611262917519
vn 0.9990158081054688 -0.0021717154886573553 0.044302694499492645
vn -0.0001835243310779333 -0.9999442100524902 0.010560611262917519
vn -0.015972085297107697 -0.9998254179954529 0.009704590775072575
vn 0.998505711555481 0.03425315394997597 0.042580798268318176
vn -0.016023235395550728 0.9998618364334106 0.004434807226061821
vn 0.998505711555481 0.03425315394997597 0.042580798268318176
vn 0.9990158081054688 -0.0021717154886573553 0.044302694499492645
vn -7.056089089019224e-05 0.9999887943267822 0.0047332835383713245
vn -0.9099364876747131 0.37220898270606995 0.1829645335674286
vn 0.2884848713874817 0.9554545283317566 -0.06231389567255974
vn 0.41194453835487366 0.908173680305481 -0.07431156933307648
vn -0.923833429813385 0.339576780796051 0.17669039964675903
vn -0.1872987002134323 -0.9813218712806702 0.04389438033103943
vn -0.31589972972869873 -0.9454469084739685 0.07960915565490723
vn 0.9445016980171204 -0.27893754839897156 -0.1735229641199112
vn -0.1872987002134323 -0.9813218712806702 0.04389438033103943
vn 0.9522707462310791 -0.24736839532852173 -0.178855761885643
vn -0.31589972972869873 -0.9454469084739685 0.07960915565490723
vn 0.41194453835487366 0.908173680305481 -0.07431156933307648
vn 0.9445016980171204 -0.27893754839897156 -0.1735229641199112
vn 0.9522707462310791 -0.24736839532852173 -0.178855761885643
vn 0.2884848713874817 0.9554545283317566 -0.06231389567255974
vn 0.19202788174152374 0.9809530377388 -0.029266130179166794
vn -0.9245609641075134 0.3333016335964203 0.18465375900268555
vn -0.9357337355613708 0.3029493987560272 0.18062099814414978
vn 0.2906726002693176 0.9556285738945007 -0.04778718948364258
vn -0.41592487692832947 -0.9059513807296753 0.07911074161529541
vn -0.31638386845588684 -0.9464726448059082 0.06395862996578217
vn 0.935149610042572 -0.3088253438472748 -0.17355723679065704
vn -0.31638386845588684 -0.9464726448059082 0.06395862996578217
vn 0.9423717856407166 -0.2827248275279999 -0.17889155447483063
vn -0.41592487692832947 -0.9059513807296753 0.07911074161529541
vn 0.935149610042572 -0.3088253438472748 -0.17355723679065704
vn 0.2906726002693176 0.9556285738945007 -0.04778718948364258
vn 0.19202788174152374 0.9809530377388 -0.029266130179166794
vn 0.9423717856407166 -0.2827248275279999 -0.17889155447483063
vn -0.0 0.0 1.0
vn -0.0 0.0 1.0
vn -0.0 0.0 1.0
vn -0.0 0.0 1.0
vn -0.9096221327781677 0.37057381868362427 0.18778330087661743
vn 0.2906726002693176 0.9556285738945007 -0.04778718948364258
vn 0.41392141580581665 0.9074611663818359 -0.07199559360742569
vn -0.9245609641075134 0.3333016335964203 0.18465375900268555
vn -0.1854291707277298 -0.9818453788757324 0.03994816169142723
vn -0.31638386845588684 -0.9464726448059082 0.06395862996578217
vn 0.9423717856407166 -0.2827248275279999 -0.17889155447483063
vn -0.1854291707277298 -0.9818453788757324 0.03994816169142723
vn 0.9512251019477844 -0.24841368198394775 -0.18292446434497833
vn -0.31638386845588684 -0.9464726448059082 0.06395862996578217
vn 0.41392141580581665 0.9074611663818359 -0.07199559360742569
vn 0.9423717856407166 -0.2827248275279999 -0.17889155447483063
vn 0.9512251019477844 -0.24841368198394775 -0.18292446434497833
vn 0.2906726002693176 0.9556285738945007 -0.04778718948364258
vn -0.9500243067741394 0.30653101205825806 -0.059099163860082626
vn 0.2688107192516327 0.9631925821304321 -0.0008633076213300228
vn -0.9493827223777771 0.3081665337085724 -0.06087575852870941
vn 0.27992165088653564 0.9600224494934082 0.0008638441213406622
vn -0.3377034366130829 -0.9411935806274414 0.010538024827837944
vn -0.34905168414115906 -0.9370372891426086 0.011134752072393894
vn 0.9477964639663696 -0.3102497160434723 0.07366804778575897
vn -0.34905168414115906 -0.9370372891426086 0.011134752072393894
vn 0.9483540654182434 -0.30803632736206055 0.07575138658285141
vn -0.3377034366130829 -0.9411935806274414 0.010538024827837944
vn 0.27992165088653564 0.9600224494934082 0.0008638441213406622
vn 0.9483540654182434 -0.30803632736206055 0.07575138658285141
vn 0.2688107192516327 0.9631925821304321 -0.0008633076213300228
vn 0.9477964639663696 -0.3102497160434723 0.07366804778575897
vn -0.0 0.0 1.0
vn -0.0 0.0 1.0
vn -0.0 0.0 1.0
vn -0.0 0.0 1.0
vn -0.9486197829246521 0.31019726395606995 -0.06243576481938362
vn 0.2688107192516327 0.9631925821304321 -0.0008633076213300228
vn 0.26911264657974243 0.9631085395812988 0.0005250281537882984
vn -0.9493827223777771 0.3081665337085724 -0.06087575852870941
vn -0.3485991954803467 -0.9372190237045288 0.00996024627238512
vn -0.34905168414115906 -0.9370372891426086 0.011134752072393894
vn 0.9488218426704407 -0.3060612976551056 0.07786881923675537
vn -0.34905168414115906 -0.9370372891426086 0.011134752072393894
vn -0.3485991954803467 -0.9372190237045288 0.00996024627238512
vn 0.9483540654182434 -0.30803632736206055 0.07575138658285141
vn 0.26911264657974243 0.9631085395812988 0.0005250281537882984
vn 0.9483540654182434 -0.30803632736206055 0.07575138658285141
vn 0.9488218426704407 -0.3060612976551056 0.07786881923675537
vn 0.2688107192516327 0.9631925821304321 -0.0008633076213300228
vn 0.17891524732112885 0.9836171865463257 0.022059699520468712
vn -0.9306882619857788 0.3060394823551178 0.20039759576320648
vn -0.9331284165382385 0.29941147565841675 0.19905821979045868
vn 0.28565770387649536 0.9583302736282349 0.0016116905026137829
vn -0.4311356246471405 -0.900857150554657 0.050777509808540344
vn -0.3294201195240021 -0.943671703338623 0.03108227252960205
vn 0.9339179396629333 -0.3091740906238556 -0.17946738004684448
vn -0.3294201195240021 -0.943671703338623 0.03108227252960205
vn 0.9360130429267883 -0.3029606342315674 -0.1791493445634842
vn -0.4311356246471405 -0.900857150554657 0.050777509808540344
vn 0.28565770387649536 0.9583302736282349 0.0016116905026137829
vn 0.17891524732112885 0.9836171865463257 0.022059699520468712
vn -2.020805141000892e-06 3.920436029147822e-06 1.0
vn -2.0590493932104437e-06 3.802734909186256e-06 1.0
vn -2.059056214420707e-06 3.8027130813134136e-06 1.0
vn -2.096976004395401e-06 3.686010586534394e-06 1.0
vn -0.9285815358161926 0.3124611973762512 0.20026041567325592
vn 0.28565770387649536 0.9583302736282349 0.0016116905026137829
vn 0.4061039090156555 0.9135698080062866 -0.021675359457731247
vn -0.9306882619857788 0.3060394823551178 0.20039759576320648
vn -0.20676612854003906 -0.9783721566200256 0.005977279506623745
vn -0.3294201195240021 -0.943671703338623 0.03108227252960205
vn 0.9360130429267883 -0.3029606342315674 -0.1791493445634842
vn -0.20676612854003906 -0.9783721566200256 0.005977279506623745
vn 0.9384731650352478 -0.29581907391548157 -0.17821113765239716
vn -0.3294201195240021 -0.943671703338623 0.03108227252960205
vn 0.4061039090156555 0.9135698080062866 -0.021675359457731247
vn 0.28565770387649536 0.9583302736282349 0.0016116905026137829
vn 0.7012863755226135 0.1209515705704689 0.7025440335273743
vn 0.5467654466629028 0.1116119772195816 0.8298134207725525
vn 0.6047788262367249 -0.04159964248538017 0.7953062653541565
vn 0.7011151313781738 0.1215936616063118 0.7026042342185974
vn 0.09735367447137833 0.025516755878925323 0.9949226975440979
vn 0.36036333441734314 -0.08316852152347565 0.9290969967842102
vn 0.11011198163032532 -0.07228519767522812 0.9912871718406677
vn 0.32023492455482483 0.01885317452251911 0.9471505284309387
vn 0.27669262886047363 0.08624763786792755 0.9570801854133606
vn 0.03541816025972366 0.044450536370277405 0.9983835220336914
vn 0.6047788262367249 -0.04159964248538017 0.7953062653541565
vn 0.5467654466629028 0.1116119772195816 0.8298134207725525
vn 0.08337084203958511 0.16414916515350342 0.9829061031341553
vn 0.28095337748527527 0.1768478900194168 0.9432867765426636
vn 0.409770667552948 0.2858274579048157 0.8662509918212891
vn 0.09232546389102936 0.04621570184826851 0.9946558475494385
vn 0.3027677536010742 0.08598937839269638 0.9491772055625916
vn 0.5808310508728027 0.10794516652822495 0.8068352341651917
vn 0.5254605412483215 0.17544905841350555 0.8325316309928894
vn -0.08298157900571823 -0.07261504232883453 0.9939019680023193
vn -0.22569169104099274 0.023984849452972412 0.9739035367965698
vn -0.25129470229148865 -0.11338561028242111 0.9612464308738708
vn -0.3103320002555847 2.8608374122995883e-06 0.9506282806396484
vn -0.0901874303817749 0.02406924217939377 0.9956339001655579
vn -0.09333549439907074 0.15574222803115845 0.9833782911300659
vn -0.2235061228275299 0.0023647991474717855 0.9746996164321899
vn -0.23249290883541107 0.18579989671707153 0.9546859860420227
vn -0.1237487867474556 0.2176084965467453 0.9681594371795654
vn -0.04000309482216835 -0.2209114134311676 0.9744731783866882
vn -0.05080781877040863 -0.04412195831537247 0.9977333545684814
vn 0.46329548954963684 0.033145107328891754 0.8855838775634766
vn 0.513604462146759 -0.25392037630081177 0.8195942640304565
vn 0.6889436841011047 0.12054350972175598 0.7147207856178284
vn 0.5254605412483215 0.17544905841350555 0.8325316309928894
vn 0.5808310508728027 0.10794516652822495 0.8068352341651917
vn 0.6888628005981445 0.12114006280899048 0.7146978974342346
vn 0.638871967792511 1.2485123988881242e-05 0.7693130373954773
vn 0.4958497881889343 1.2312048625062744e-07 0.8684083223342896
vn 0.45044973492622375 -0.07281168550252914 0.8898277282714844
vn 0.6388719081878662 1.278313993680058e-05 0.7693130373954773
vn 0.01994987390935421 -0.00017546475282870233 0.999800980091095
vn 0.16997030377388 -0.11934993416070938 0.9781951308250427
vn -0.054517947137355804 -0.13155491650104523 0.9898086190223694
vn 0.24131298065185547 0.051573824137449265 0.9690759181976318
vn 0.17380353808403015 4.307929884816986e-06 0.9847803115844727
vn -0.049261923879384995 5.88731063544401e-06 0.9987859129905701
vn -0.2005271315574646 -0.1677422970533371 0.9652209877967834
vn -0.1564057618379593 -0.2758233845233917 0.9483979344367981
vn 0.45044973492622375 -0.07281168550252914 0.8898277282714844
vn 0.4958497881889343 1.2312048625062744e-07 0.8684083223342896
vn -0.22727741301059723 -3.997535714006517e-06 0.9738300442695618
vn -0.3470578193664551 -0.22797276079654694 0.909713864326477
vn -0.3478691875934601 -7.127864137146389e-06 0.9375430345535278
vn 0.06166694685816765 0.14251141250133514 0.9878702759742737
vn 0.3043319880962372 0.19096434116363525 0.933228075504303
vn 0.44325098395347595 0.3527374267578125 0.8240781426429749
vn -0.02891005389392376 3.01092386507662e-05 0.9995819926261902
vn 0.21095715463161469 4.617747038082598e-07 0.9774953722953796
vn 0.5036656856536865 0.00022687746968585998 0.8638986349105835
vn 0.5436896681785583 0.14854881167411804 0.8260354995727539
vn -0.2728841304779053 -0.0030335644260048866 0.9620420932769775
vn -0.08517518639564514 0.18075163662433624 0.9798336625099182
vn -0.35301244258880615 -0.00047011300921440125 0.93561851978302
vn -0.2673584818840027 0.1620379090309143 0.9498754143714905
vn 0.005510883405804634 0.3168705403804779 0.9484528303146362
vn -0.062137387692928314 0.029391391202807426 0.997634768486023
vn 0.40861839056015015 0.08653058111667633 0.9085942506790161
vn 0.3378511965274811 -0.1901879906654358 0.9217836260795593
vn 0.6705831289291382 1.1395711226214189e-05 0.7418343424797058
vn 0.5436896681785583 0.14854881167411804 0.8260354995727539
vn 0.5036656856536865 0.00022687746968585998 0.8638986349105835
vn 0.6705800294876099 -9.51845504459925e-06 0.741837203502655
vt 0.9847437739372253 0.7522907108068466
vt 0.9662826657295227 0.9981401964323595
vt 0.9662826657295227 0.7522907108068466
vt 0.9847437739372253 0.9981401964323595
vt 0.9496679902076721 0.7522907108068466
vt 0.9496679902076721 0.9981401964323595
vt 0.9662826657295227 0.7522907108068466
vt 0.9847437739372253 0.9981401964323595
vt 0.9662826657295227 0.9981401964323595
vt 0.9847437739372253 0.7522907108068466
vt 0.9496679902076721 0.9981401964323595
vt 0.9496679902076721 0.7522907108068466
vt 0.9674192070960999 0.7331930696964264
vt 0.9826202988624573 0.7331930696964264
vt 0.9674192070960999 0.7482407689094543
vt 0.9826202988624573 0.7482407689094543
vt 0.9662826657295227 0.7522907108068466
vt 0.9847437739372253 0.9981401964323595
vt 0.9662826657295227 0.9981401964323595
vt 0.9847437739372253 0.7522907108068466
vt 0.9496679902076721 0.7522907108068466
vt 0.9496679902076721 0.9981401964323595
vt 0.9662826657295227 0.7522907108068466
vt 0.9847437739372253 0.9981401964323595
vt 0.9662826657295227 0.9981401964323595
vt 0.9847437739372253 0.7522907108068466
vt 0.9496679902076721 0.7522907108068466
vt 0.9662826657295227 0.9981401964323595
vt 0.9496679902076721 0.9981401964323595
vt 0.9662826657295227 0.7522907108068466
vt 0.9674192070960999 0.7331930696964264
vt 0.9826202988624573 0.7331930696964264
vt 0.9674192070960999 0.7482407689094543
vt 0.9826202988624573 0.7482407689094543
vt 0.9662826657295227 0.7522907108068466
vt 0.9847437739372253 0.9981401964323595
vt 0.9662826657295227 0.9981401964323595
vt 0.9847437739372253 0.7522907108068466
vt 0.9496679902076721 0.7522907108068466
vt 0.9496679902076721 0.9981401964323595
vt 0.9662826657295227 0.7522907108068466
vt 0.9847437739372253 0.9981401964323595
vt 0.9662826657295227 0.9981401964323595
vt 0.9847437739372253 0.7522907108068466
vt 0.9496679902076721 0.7522907108068466
vt 0.9662826657295227 0.9981401964323595
vt 0.9496679902076721 0.9981401964323595
vt 0.9662826657295227 0.7522907108068466
vt 0.9674192070960999 0.7331930696964264
vt 0.9826202988624573 0.7331930696964264
vt 0.9826202988624573 0.7482407689094543
vt 0.9674192070960999 0.7482407689094543
vt 0.9847437739372253 0.7522907108068466
vt 0.9662826657295227 0.9981401964323595
vt 0.9662826657295227 0.7522907108068466
vt 0.9847437739372253 0.9981401964323595
vt 0.9496679902076721 0.7522907108068466
vt 0.9496679902076721 0.9981401964323595
vt 0.9662826657295227 0.7522907108068466
vt 0.9847437739372253 0.9981401964323595
vt 0.9662826657295227 0.9981401964323595
vt 0.9847437739372253 0.7522907108068466
vt 0.9662826657295227 0.7522907108068466
vt 0.9496679902076721 0.9981401964323595
vt 0.9496679902076721 0.7522907108068466
vt 0.9662826657295227 0.9981401964323595
vt 0.9674192070960999 0.7331930696964264
vt 0.9826202988624573 0.7482407689094543
vt 0.9674192070960999 0.7482407689094543
vt 0.9826202988624573 0.7331930696964264
vt 0.9662826657295227 0.9981401964323595
vt 0.9847437739372253 0.7522907108068466
vt 0.9847437739372253 0.9981401964323595
vt 0.9662826657295227 0.7522907108068466
vt 0.9496679902076721 0.9981401964323595
vt 0.9496679902076721 0.7522907108068466
vt 0.9662826657295227 0.7522907108068466
vt 0.9847437739372253 0.9981401964323595
vt 0.9662826657295227 0.9981401964323595
vt 0.9847437739372253 0.7522907108068466
vt 0.9496679902076721 0.9981401964323595
vt 0.9496679902076721 0.7522907108068466
vt 0.9662826657295227 0.9981401964323595
vt 0.9847437739372253 0.7522907108068466
vt 0.9847437739372253 0.9981401964323595
vt 0.9662826657295227 0.7522907108068466
vt 0.9496679902076721 0.9981401964323595
vt 0.9496679902076721 0.7522907108068466
vt 0.9662826657295227 0.9981401964323595
vt 0.9847437739372253 0.7522907108068466
vt 0.9847437739372253 0.9981401964323595
vt 0.9662826657295227 0.7522907108068466
vt 0.9496679902076721 0.9981401964323595
vt 0.9662826657295227 0.7522907108068466
vt 0.9662826657295227 0.9981401964323595
vt 0.9496679902076721 0.7522907108068466
vt 0.9662826657295227 0.9981401964323595
vt 0.9847437739372253 0.7522907108068466
vt 0.9847437739372253 0.9981401964323595
vt 0.9662826657295227 0.7522907108068466
vt 0.9496679902076721 0.9981401964323595
vt 0.9496679902076721 0.7522907108068466
vt 0.9662826657295227 0.9981401964323595
vt 0.9847437739372253 0.7522907108068466
vt 0.9847437739372253 0.9981401964323595
vt 0.9662826657295227 0.7522907108068466
vt 0.9496679902076721 0.9981401964323595
vt 0.9662826657295227 0.7522907108068466
vt 0.9662826657295227 0.9981401964323595
vt 0.9496679902076721 0.7522907108068466
vt 0.9662826657295227 0.9981401964323595
vt 0.9847437739372253 0.7522907108068466
vt 0.9847437739372253 0.9981401964323595
vt 0.9662826657295227 0.7522907108068466
vt 0.9496679902076721 0.9981401964323595
vt 0.9496679902076721 0.7522907108068466
vt 0.9662826657295227 0.7522907108068466
vt 0.9847437739372253 0.9981401964323595
vt 0.9662826657295227 0.9981401964323595
vt 0.9847437739372253 0.7522907108068466
vt 0.9496679902076721 0.9981401964323595
vt 0.9662826657295227 0.7522907108068466
vt 0.9662826657295227 0.9981401964323595
vt 0.9496679902076721 0.7522907108068466
vt 0.9847437739372253 0.7522907108068466
vt 0.9662826657295227 0.9981401964323595
vt 0.9662826657295227 0.7522907108068466
vt 0.9847437739372253 0.9981401964323595
vt 0.9496679902076721 0.7522907108068466
vt 0.9496679902076721 0.9981401964323595
vt 0.9662826657295227 0.7522907108068466
vt 0.9847437739372253 0.9981401964323595
vt 0.9662826657295227 0.9981401964323595
vt 0.9847437739372253 0.7522907108068466
vt 0.9662826657295227 0.7522907108068466
vt 0.9496679902076721 0.9981401964323595
vt 0.9496679902076721 0.7522907108068466
vt 0.9662826657295227 0.9981401964323595
vt 0.9674192070960999 0.7331930696964264
vt 0.9826202988624573 0.7482407689094543
vt 0.9674192070960999 0.7482407689094543
vt 0.9826202988624573 0.7331930696964264
vt 0.9662826657295227 0.9981401964323595
vt 0.9847437739372253 0.7522907108068466
vt 0.9847437739372253 0.9981401964323595
vt 0.9662826657295227 0.7522907108068466
vt 0.9496679902076721 0.9981401964323595
vt 0.9496679902076721 0.7522907108068466
vt 0.9662826657295227 0.7522907108068466
vt 0.9847437739372253 0.9981401964323595
vt 0.9662826657295227 0.9981401964323595
vt 0.9847437739372253 0.7522907108068466
vt 0.9496679902076721 0.9981401964323595
vt 0.9662826657295227 0.7522907108068466
vt 0.9662826657295227 0.9981401964323595
vt 0.9496679902076721 0.7522907108068466
vt 0.9662826657295227 0.7522907108068466
vt 0.9847437739372253 0.9981401964323595
vt 0.9662826657295227 0.9981401964323595
vt 0.9847437739372253 0.7522907108068466
vt 0.9496679902076721 0.7522907108068466
vt 0.9496679902076721 0.9981401964323595
vt 0.9662826657295227 0.7522907108068466
vt 0.9847437739372253 0.9981401964323595
vt 0.9662826657295227 0.9981401964323595
vt 0.9847437739372253 0.7522907108068466
vt 0.9496679902076721 0.7522907108068466
vt 0.9662826657295227 0.9981401964323595
vt 0.9496679902076721 0.9981401964323595
vt 0.9662826657295227 0.7522907108068466
vt 0.9674192070960999 0.7331930696964264
vt 0.9826202988624573 0.7331930696964264
vt 0.9674192070960999 0.7482407689094543
vt 0.9826202988624573 0.7482407689094543
vt 0.9662826657295227 0.9981401964323595
vt 0.9847437739372253 0.7522907108068466
vt 0.9847437739372253 0.9981401964323595
vt 0.9662826657295227 0.7522907108068466
vt 0.9496679902076721 0.9981401964323595
vt 0.9496679902076721 0.7522907108068466
vt 0.9662826657295227 0.9981401964323595
vt 0.9847437739372253 0.7522907108068466
vt 0.9847437739372253 0.9981401964323595
vt 0.9662826657295227 0.7522907108068466
vt 0.9496679902076721 0.9981401964323595
vt 0.9662826657295227 0.7522907108068466
vt 0.9662826657295227 0.9981401964323595
vt 0.9496679902076721 0.7522907108068466
vt 0.9847437739372253 0.7522907108068466
vt 0.9662826657295227 0.9981401964323595
vt 0.9662826657295227 0.7522907108068466
vt 0.9847437739372253 0.9981401964323595
vt 0.9496679902076721 0.7522907108068466
vt 0.9496679902076721 0.9981401964323595
vt 0.9662826657295227 0.7522907108068466
vt 0.9847437739372253 0.9981401964323595
vt 0.9662826657295227 0.9981401964323595
vt 0.9847437739372253 0.7522907108068466
vt 0.9496679902076721 0.9981401964323595
vt 0.9496679902076721 0.7522907108068466
vt 0.9674192070960999 0.7331930696964264
vt 0.9826202988624573 0.7331930696964264
vt 0.9674192070960999 0.7482407689094543
vt 0.9826202988624573 0.7482407689094543
vt 0.9662826657295227 0.9981401964323595
vt 0.9847437739372253 0.7522907108068466
vt 0.9847437739372253 0.9981401964323595
vt 0.9662826657295227 0.7522907108068466
vt 0.9496679902076721 0.9981401964323595
vt 0.9496679902076721 0.7522907108068466
vt 0.9662826657295227 0.7522907108068466
vt 0.9847437739372253 0.9981401964323595
vt 0.9662826657295227 0.9981401964323595
vt 0.9847437739372253 0.7522907108068466
vt 0.9496679902076721 0.9981401964323595
vt 0.9496679902076721 0.7522907108068466
vt 0.9988631010055542 0.9986425853567198
vt 0.9872047901153564 0.7125413715839386
vt 0.9988631010055542 0.7125413715839386
vt 0.9872047901153564 0.9986425853567198
vt 0.6696048974990845 0.9275444746017456
vt 0.7321724891662598 0.8596857488155365
vt 0.7321724891662598 0.9275444746017456
vt 0.6696048974990845 0.8596857488155365
vt 0.7408879995346069 0.8596857488155365
vt 0.7408879995346069 0.9275444746017456
vt 0.7321724891662598 0.7888544052839279
vt 0.7408879995346069 0.7888544052839279
vt 0.6045386791229248 0.9275444746017456
vt 0.6045385599136353 0.8596857488155365
vt 0.6324162483215332 0.7888543605804443
vt 0.5979474186897278 0.9275444746017456
vt 0.5979474186897278 0.8596857488155365
vt 0.5979474186897278 0.7888543605804443
vt 0.60453861951828 0.7888543605804443
vt 0.7321724891662598 0.9625842310488224
vt 0.7408879995346069 0.9625842310488224
vt 0.7321724891662598 0.9966292835306376
vt 0.7408879995346069 0.9966294397599995
vt 0.5979474186897278 0.9625842310488224
vt 0.6045387387275696 0.9625842310488224
vt 0.5979474186897278 0.9966292835306376
vt 0.6045387387275696 0.9966294397599995
vt 0.6373323202133179 0.996629387838766
vt 0.7027119994163513 0.9966292835306376
vt 0.6696048974990845 0.9966292835306376
vt 0.6696048974990845 0.7888544052839279
vt 0.7038641571998596 0.7888544052839279
vt 0.9988631010055542 0.9986425853567198
vt 0.9872047901153564 0.7125414907932281
vt 0.9988631010055542 0.7125414907932281
vt 0.9872047901153564 0.9986425853567198
vt 0.9988631010055542 0.9986425853567198
vt 0.9872047901153564 0.7125414907932281
vt 0.9988631010055542 0.7125414907932281
vt 0.9872047901153564 0.9986425853567198
vt 0.5281782150268555 0.9275444746017456
vt 0.5890318155288696 0.8596857488155365
vt 0.5890318155288696 0.9275444746017456
vt 0.5281782150268555 0.8596857488155365
vt 0.5956229567527771 0.8596857488155365
vt 0.5956230759620667 0.9275444746017456
vt 0.5890318155288696 0.9625842310488224
vt 0.5588073134422302 0.9966294397599995
vt 0.5890318155288696 0.7888543605804443
vt 0.5956230163574219 0.7888543605804443
vt 0.5956231355667114 0.9625842310488224
vt 0.5890318155288696 0.9966292835306376
vt 0.5956231355667114 0.9966294397599995
vt 0.46594592928886414 0.9275444746017456
vt 0.46594592928886414 0.8596857488155365
vt 0.4975537955760956 0.7888543009757996
vt 0.4589690566062927 0.9275444746017456
vt 0.4589690566062927 0.8596857488155365
vt 0.4589690566062927 0.7888543009757996
vt 0.46594592928886414 0.7888543009757996
vt 0.4589690566062927 0.9625842310488224
vt 0.4659459888935089 0.9625842310488224
vt 0.4589690566062927 0.9966294397599995
vt 0.4659459888935089 0.99662957014516
vt 0.4973173439502716 0.9966294397599995
vt 0.5281782150268555 0.9966294397599995
vt 0.5281782746315002 0.7888543605804443
vt 0.5608313083648682 0.7888543605804443
vt 0.9988631010055542 0.9986425853567198
vt 0.9872047901153564 0.7125416100025177
vt 0.9988631010055542 0.7125416100025177
vt 0.9872047901153564 0.9986425853567198

g bg_mdl_map_tento04
s 1
usemtl bg_mdl_map_tento04
f 3/3/3 2/2/2 1/1/1 
f 4/4/4 1/1/1 2/2/2 
f 3/3/3 5/5/5 2/2/2 
f 6/6/6 2/2/2 5/5/5 
f 9/9/9 8/8/8 7/7/7 
f 10/10/10 7/7/7 8/8/8 
f 9/9/9 7/7/7 11/11/11 
f 12/12/12 11/11/11 7/7/7 
f 15/15/15 14/14/14 13/13/13 
f 16/16/16 14/14/14 15/15/15 
f 19/19/19 18/18/18 17/17/17 
f 20/20/20 17/17/17 18/18/18 
f 17/17/17 21/21/21 19/19/19 
f 22/22/22 19/19/19 21/21/21 
f 25/25/25 24/24/24 23/23/23 
f 26/26/26 23/23/23 24/24/24 
f 29/29/29 28/28/28 27/27/27 
f 30/30/30 27/27/27 28/28/28 
f 33/33/33 32/32/32 31/31/31 
f 34/34/34 32/32/32 33/33/33 
f 37/37/37 36/36/36 35/35/35 
f 38/38/38 35/35/35 36/36/36 
f 35/35/35 39/39/39 37/37/37 
f 40/40/40 37/37/37 39/39/39 
f 43/43/43 42/42/42 41/41/41 
f 44/44/44 41/41/41 42/42/42 
f 47/47/47 46/46/46 45/45/45 
f 48/48/48 45/45/45 46/46/46 
f 51/51/51 50/50/50 49/49/49 
f 52/52/52 51/51/51 49/49/49 
f 55/55/55 54/54/54 53/53/53 
f 56/56/56 53/53/53 54/54/54 
f 55/55/55 57/57/57 54/54/54 
f 58/58/58 54/54/54 57/57/57 
f 61/61/61 60/60/60 59/59/59 
f 62/62/62 59/59/59 60/60/60 
f 65/65/65 64/64/64 63/63/63 
f 66/66/66 63/63/63 64/64/64 
f 69/69/69 68/68/68 67/67/67 
f 68/68/68 70/70/70 67/67/67 
f 73/73/73 72/72/72 71/71/71 
f 74/74/74 71/71/71 72/72/72 
f 71/71/71 74/74/74 75/75/75 
f 76/76/76 75/75/75 74/74/74 
f 79/79/79 78/78/78 77/77/77 
f 80/80/80 77/77/77 78/78/78 
f 79/79/79 77/77/77 81/81/81 
f 82/82/82 81/81/81 77/77/77 
f 85/85/85 84/84/84 83/83/83 
f 86/86/86 83/83/83 84/84/84 
f 83/83/83 86/86/86 87/87/87 
f 88/88/88 87/87/87 86/86/86 
f 91/91/91 90/90/90 89/89/89 
f 92/92/92 89/89/89 90/90/90 
f 95/95/95 94/94/94 93/93/93 
f 96/96/96 93/93/93 94/94/94 
f 99/99/99 98/98/98 97/97/97 
f 100/100/100 97/97/97 98/98/98 
f 97/97/97 100/100/100 101/101/101 
f 102/102/102 101/101/101 100/100/100 
f 105/105/105 104/104/104 103/103/103 
f 106/106/106 103/103/103 104/104/104 
f 109/109/109 108/108/108 107/107/107 
f 110/110/110 107/107/107 108/108/108 
f 113/113/113 112/112/112 111/111/111 
f 114/114/114 111/111/111 112/112/112 
f 111/111/111 114/114/114 115/115/115 
f 116/116/116 115/115/115 114/114/114 
f 119/119/119 118/118/118 117/117/117 
f 120/120/120 117/117/117 118/118/118 
f 123/123/123 122/122/122 121/121/121 
f 124/124/124 121/121/121 122/122/122 
f 127/127/127 126/126/126 125/125/125 
f 128/128/128 125/125/125 126/126/126 
f 127/127/127 129/129/129 126/126/126 
f 130/130/130 126/126/126 129/129/129 
f 133/133/133 132/132/132 131/131/131 
f 134/134/134 131/131/131 132/132/132 
f 137/137/137 136/136/136 135/135/135 
f 138/138/138 135/135/135 136/136/136 
f 141/141/141 140/140/140 139/139/139 
f 140/140/140 142/142/142 139/139/139 
f 145/145/145 144/144/144 143/143/143 
f 146/146/146 143/143/143 144/144/144 
f 143/143/143 146/146/146 147/147/147 
f 148/148/148 147/147/147 146/146/146 
f 151/151/151 150/150/150 149/149/149 
f 152/152/152 149/149/149 150/150/150 
f 155/155/155 154/154/154 153/153/153 
f 156/156/156 153/153/153 154/154/154 
f 159/159/159 158/158/158 157/157/157 
f 160/160/160 157/157/157 158/158/158 
f 157/157/157 161/161/161 159/159/159 
f 162/162/162 159/159/159 161/161/161 
f 165/165/165 164/164/164 163/163/163 
f 166/166/166 163/163/163 164/164/164 
f 169/169/169 168/168/168 167/167/167 
f 170/170/170 167/167/167 168/168/168 
f 173/173/173 172/172/172 171/171/171 
f 174/174/174 172/172/172 173/173/173 
f 177/177/177 176/176/176 175/175/175 
f 178/178/178 175/175/175 176/176/176 
f 175/175/175 178/178/178 179/179/179 
f 180/180/180 179/179/179 178/178/178 
f 183/183/183 182/182/182 181/181/181 
f 184/184/184 181/181/181 182/182/182 
f 187/187/187 186/186/186 185/185/185 
f 188/188/188 185/185/185 186/186/186 
f 191/191/191 190/190/190 189/189/189 
f 192/192/192 189/189/189 190/190/190 
f 191/191/191 193/193/193 190/190/190 
f 194/194/194 190/190/190 193/193/193 
f 197/197/197 196/196/196 195/195/195 
f 198/198/198 195/195/195 196/196/196 
f 197/197/197 195/195/195 199/199/199 
f 200/200/200 199/199/199 195/195/195 
f 203/203/203 202/202/202 201/201/201 
f 204/204/204 202/202/202 203/203/203 
f 207/207/207 206/206/206 205/205/205 
f 208/208/208 205/205/205 206/206/206 
f 205/205/205 208/208/208 209/209/209 
f 210/210/210 209/209/209 208/208/208 
f 213/213/213 212/212/212 211/211/211 
f 214/214/214 211/211/211 212/212/212 
f 213/213/213 211/211/211 215/215/215 
f 216/216/216 215/215/215 211/211/211 
f 219/219/219 218/218/218 217/217/217 
f 220/220/220 217/217/217 218/218/218 
f 223/223/223 222/222/222 221/221/221 
f 224/224/224 221/221/221 222/222/222 
f 222/222/222 223/223/223 225/225/225 
f 226/226/226 225/225/225 223/223/223 
f 222/222/222 225/225/225 227/227/227 
f 228/228/228 227/227/227 225/225/225 
f 221/221/221 224/224/224 229/229/229 
f 230/230/230 229/229/229 224/224/224 
f 231/231/231 230/230/230 224/224/224 
f 229/229/229 230/230/230 232/232/232 
f 233/233/233 232/232/232 230/230/230 
f 233/233/233 230/230/230 234/234/234 
f 235/235/235 234/234/234 230/230/230 
f 235/235/235 230/230/230 231/231/231 
f 223/223/223 236/236/236 226/226/226 
f 237/237/237 226/226/226 236/236/236 
f 236/236/236 238/238/238 237/237/237 
f 239/239/239 237/237/237 238/238/238 
f 232/232/232 240/240/240 229/229/229 
f 241/241/241 229/229/229 240/240/240 
f 240/240/240 242/242/242 241/241/241 
f 243/243/243 241/241/241 242/242/242 
f 243/243/243 244/244/244 241/241/241 
f 238/238/238 236/236/236 245/245/245 
f 236/236/236 223/223/223 245/245/245 
f 221/221/221 245/245/245 223/223/223 
f 244/244/244 221/221/221 241/241/241 
f 244/244/244 246/246/246 221/221/221 
f 246/246/246 245/245/245 221/221/221 
f 229/229/229 241/241/241 221/221/221 
f 224/224/224 248/248/248 247/247/247 
f 222/222/222 248/248/248 224/224/224 
f 247/247/247 231/231/231 224/224/224 
f 227/227/227 248/248/248 222/222/222 
f 251/251/251 250/250/250 249/249/249 
f 252/252/252 249/249/249 250/250/250 
f 255/255/255 254/254/254 253/253/253 
f 256/256/256 253/253/253 254/254/254 
f 259/259/259 258/258/258 257/257/257 
f 260/260/260 257/257/257 258/258/258 
f 258/258/258 259/259/259 261/261/261 
f 262/262/262 261/261/261 259/259/259 
f 259/259/259 257/257/257 263/263/263 
f 259/259/259 263/263/263 262/262/262 
f 264/264/264 263/263/263 257/257/257 
f 258/258/258 261/261/261 265/265/265 
f 266/266/266 265/265/265 261/261/261 
f 267/267/267 262/262/262 263/263/263 
f 263/263/263 268/268/268 267/267/267 
f 268/268/268 263/263/263 264/264/264 
f 269/269/269 267/267/267 268/268/268 
f 257/257/257 260/260/260 270/270/270 
f 271/271/271 270/270/270 260/260/260 
f 272/272/272 271/271/271 260/260/260 
f 270/270/270 271/271/271 273/273/273 
f 274/274/274 273/273/273 271/271/271 
f 274/274/274 271/271/271 275/275/275 
f 276/276/276 275/275/275 271/271/271 
f 276/276/276 271/271/271 272/272/272 
f 273/273/273 277/277/277 270/270/270 
f 278/278/278 270/270/270 277/277/277 
f 277/277/277 279/279/279 278/278/278 
f 280/280/280 278/278/278 279/279/279 
f 280/280/280 281/281/281 278/278/278 
f 270/270/270 278/278/278 257/257/257 
f 281/281/281 257/257/257 278/278/278 
f 257/257/257 281/281/281 282/282/282 
f 282/282/282 264/264/264 257/257/257 
f 283/283/283 272/272/272 260/260/260 
f 260/260/260 284/284/284 283/283/283 
f 258/258/258 284/284/284 260/260/260 
f 265/265/265 284/284/284 258/258/258 
f 287/287/287 286/286/286 285/285/285 
f 288/288/288 285/285/285 286/286/286 

