v 0.27170729637145996 6.836984867142348e-10 0.2114340364933014
v 0.1695629507303238 0.1695629209280014 0.09674584865570068
v 0.23979820311069489 0.0 0.09674584865570068
v 0.1921260803937912 0.1921260803937912 0.2114340364933014
v 6.125002179505437e-16 0.23979821801185608 0.09674584865570068
v 6.125002179505437e-16 0.27170732617378235 0.2114340364933014
v 0.1921260803937912 -0.19212613999843597 0.2114340364933014
v 0.1695629060268402 -0.16956296563148499 0.09674584865570068
v -1.5312505448763592e-16 -0.27170732617378235 0.2114340364933014
v -1.5312505448763592e-16 -0.23979821801185608 0.09674584865570068
v 0.15241476893424988 -1.7573585919805623e-09 0.019780507311224937
v 0.10777352005243301 0.10777351260185242 0.019780507311224937
v 0.10777350515127182 -0.10777352750301361 0.019780507311224937
v 0.15241476893424988 -1.7573585919805623e-09 0.019780507311224937
v -1.780740923116561e-16 -0.15241479873657227 0.019780507311224937
v 3.561481846233122e-16 0.15241476893424988 0.019780507311224937
v 0.1738329529762268 0.1738329529762268 0.3136371970176697
v 6.125002179505437e-16 0.24583691358566284 0.3136371970176697
v 3.0625010897527183e-16 0.18541979789733887 0.36967960000038147
v 0.13111157715320587 0.13111157715320587 0.36967960000038147
v 0.24583691358566284 3.8816594383206393e-10 0.3136371970176697
v 0.18541979789733887 -1.1918995790338727e-09 0.36967960000038147
v 0.1738329529762268 -0.173832967877388 0.3136371970176697
v 0.13111156225204468 -0.13111159205436707 0.36967960000038147
v -1.5312505448763592e-16 -0.24583691358566284 0.3136371970176697
v -3.0625010897527183e-16 -0.18541979789733887 0.36967960000038147
v 0.0913655161857605 -5.651355383662349e-09 0.39053472876548767
v 0.06460516899824142 0.06460516899824142 0.39053472876548767
v 1.5312505448763592e-16 0.09136549383401871 0.39053472876548767
v -1.5312505448763592e-16 -0.0913655236363411 0.39053472876548767
v 0.06460516899824142 -0.06460518389940262 0.39053472876548767
v 0.0913655161857605 -5.651355383662349e-09 0.39053472876548767
v 0.026682719588279724 0.02668270841240883 0.3795521557331085
v 0.03773505985736847 -8.68770211326364e-09 0.3795521557331085
v -9.570315905477245e-18 0.03773505240678787 0.3795521557331085
v 0.026682717725634575 -0.02668272890150547 0.3795521557331085
v -1.5312505448763592e-16 -0.037735071033239365 0.3795521557331085
v 0.03773505985736847 -8.68770211326364e-09 0.3795521557331085
v 0.0221117977052927 -0.022111808881163597 0.4541718661785126
v 0.02211179956793785 0.022111792117357254 0.4541718661785126
v 0.03127080574631691 -8.739752921371746e-09 0.4541718661785126
v -3.828126362190898e-17 0.031270790845155716 0.4541718661785126
v -1.5312505448763592e-16 -0.031270816922187805 0.4541718661785126
v -8.903704615582806e-17 -1.499388346815067e-08 5.960464122267695e-09
v -8.903704615582806e-17 -1.499388346815067e-08 5.960464122267695e-09
v -8.903704615582806e-17 -1.499388346815067e-08 5.960464122267695e-09
v -8.903704615582806e-17 -1.499388346815067e-08 5.960464122267695e-09
v 0.02211179956793785 0.022111792117357254 0.4541718661785126
v 0.03773505985736847 -8.68770211326364e-09 0.3795521557331085
v 0.03127080574631691 -8.739752921371746e-09 0.4541718661785126
v 0.026682719588279724 0.02668270841240883 0.3795521557331085
v -3.828126362190898e-17 0.031270790845155716 0.4541718661785126
v -9.570315905477245e-18 0.03773505240678787 0.3795521557331085
v 0.026682717725634575 -0.02668272890150547 0.3795521557331085
v 0.0221117977052927 -0.022111808881163597 0.4541718661785126
v -1.5312505448763592e-16 -0.037735071033239365 0.3795521557331085
v -1.5312505448763592e-16 -0.031270816922187805 0.4541718661785126
v -0.27170735597610474 6.836986532476885e-10 0.2114340364933014
v -0.16956296563148499 0.1695629507303238 0.09674584865570068
v -0.1921261101961136 0.1921261101961136 0.2114340364933014
v -0.23979821801185608 0.0 0.09674584865570068
v 6.125002179505437e-16 0.23979821801185608 0.09674584865570068
v 6.125002179505437e-16 0.27170732617378235 0.2114340364933014
v -0.1921260803937912 -0.19212613999843597 0.2114340364933014
v -0.1695629507303238 -0.16956298053264618 0.09674584865570068
v -1.5312505448763592e-16 -0.27170732617378235 0.2114340364933014
v -1.5312505448763592e-16 -0.23979821801185608 0.09674584865570068
v -0.15241479873657227 -1.7573585919805623e-09 0.019780507311224937
v -0.10777352005243301 0.10777352005243301 0.019780507311224937
v -0.10777352005243301 -0.1077735498547554 0.019780507311224937
v -0.15241479873657227 -1.7573585919805623e-09 0.019780507311224937
v -1.780740923116561e-16 -0.15241479873657227 0.019780507311224937
v 3.561481846233122e-16 0.15241476893424988 0.019780507311224937
v -0.173832967877388 0.173832967877388 0.3136371970176697
v -0.24583695828914642 3.8816597158763955e-10 0.3136371970176697
v -0.13111159205436707 0.13111159205436707 0.36967960000038147
v -0.18541979789733887 -1.1918996900561751e-09 0.36967960000038147
v 3.0625010897527183e-16 0.18541979789733887 0.36967960000038147
v 6.125002179505437e-16 0.24583691358566284 0.3136371970176697
v -0.1738329529762268 -0.1738329976797104 0.3136371970176697
v -0.13111157715320587 -0.13111162185668945 0.36967960000038147
v -1.5312505448763592e-16 -0.24583691358566284 0.3136371970176697
v -3.0625010897527183e-16 -0.18541979789733887 0.36967960000038147
v -0.0913655236363411 -5.651356271840768e-09 0.39053472876548767
v -0.06460516899824142 0.06460516899824142 0.39053472876548767
v 1.5312505448763592e-16 0.09136549383401871 0.39053472876548767
v -1.5312505448763592e-16 -0.0913655236363411 0.39053472876548767
v -0.06460516899824142 -0.06460519134998322 0.39053472876548767
v -0.0913655236363411 -5.651356271840768e-09 0.39053472876548767
v -0.026682725176215172 0.026682710275053978 0.3795521557331085
v -0.03773506358265877 -8.68770300144206e-09 0.3795521557331085
v -9.570315905477245e-18 0.03773505240678787 0.3795521557331085
v -0.026682719588279724 -0.02668273076415062 0.3795521557331085
v -1.5312505448763592e-16 -0.037735071033239365 0.3795521557331085
v -0.03773506358265877 -8.68770300144206e-09 0.3795521557331085
v -0.02211179956793785 -0.022111810743808746 0.4541718661785126
v -3.828126362190898e-17 0.031270790845155716 0.4541718661785126
v -1.5312505448763592e-16 -0.031270816922187805 0.4541718661785126
v -0.022111801430583 0.022111793980002403 0.4541718661785126
v -0.03127080947160721 -8.739753809550166e-09 0.4541718661785126
v -8.903704615582806e-17 -1.499388346815067e-08 5.960464122267695e-09
v -8.903704615582806e-17 -1.499388346815067e-08 5.960464122267695e-09
v -8.903704615582806e-17 -1.499388346815067e-08 5.960464122267695e-09
v -8.903704615582806e-17 -1.499388346815067e-08 5.960464122267695e-09
v -0.022111801430583 0.022111793980002403 0.4541718661785126
v -0.03773506358265877 -8.68770300144206e-09 0.3795521557331085
v -0.026682725176215172 0.026682710275053978 0.3795521557331085
v -0.03127080947160721 -8.739753809550166e-09 0.4541718661785126
v -3.828126362190898e-17 0.031270790845155716 0.4541718661785126
v -9.570315905477245e-18 0.03773505240678787 0.3795521557331085
v -0.026682719588279724 -0.02668273076415062 0.3795521557331085
v -0.02211179956793785 -0.022111810743808746 0.4541718661785126
v -1.5312505448763592e-16 -0.037735071033239365 0.3795521557331085
v -1.5312505448763592e-16 -0.031270816922187805 0.4541718661785126
vn 0.99993896484375 0.0 -0.011049224063754082
vn 0.6115432381629944 0.6115431189537048 -0.5020256042480469
vn 0.8648526668548584 0.0 -0.5020256638526917
vn 0.707063615322113 0.707063615322113 -0.011049170047044754
vn -0.0 0.8648526668548584 -0.5020257830619812
vn -0.0 0.99993896484375 -0.011049157939851284
vn 0.7070634365081787 -0.7070636749267578 -0.011049219407141209
vn 0.6115431785583496 -0.6115432381629944 -0.502025842666626
vn -0.0 -0.99993896484375 -0.0110491793602705
vn -0.0 -0.8648526668548584 -0.5020257234573364
vn 0.46952024102211 0.0 -0.8829217553138733
vn 0.3320009410381317 0.3320009410381317 -0.8829217553138733
vn 0.3320009112358093 -0.33200082182884216 -0.8829217553138733
vn 0.46952024102211 0.0 -0.8829217553138733
vn -0.0 -0.4695202708244324 -0.8829216957092285
vn -0.0 0.4695201814174652 -0.8829217553138733
vn 0.6195738911628723 0.6195738315582275 0.4819299578666687
vn -0.0 0.8762097954750061 0.4819300174713135
vn -0.0 0.5124297142028809 0.8587292432785034
vn 0.3623424768447876 0.36234238743782043 0.8587293028831482
vn 0.8762097954750061 0.0 0.4819299280643463
vn 0.5124297142028809 0.0 0.8587291240692139
vn 0.6195738315582275 -0.6195738315582275 0.481930136680603
vn 0.36234238743782043 -0.3623424768447876 0.8587293028831482
vn -0.0 -0.8762097954750061 0.48193007707595825
vn -0.0 -0.5124297738075256 0.8587292432785034
vn 0.060066040605306625 0.0 0.9981943964958191
vn 0.04247310385107994 0.04247310012578964 0.9981943964958191
vn -0.0 0.06006596237421036 0.9981943964958191
vn -0.0 -0.060065995901823044 0.9981943964958191
vn 0.04247308149933815 -0.042473096400499344 0.9981943964958191
vn 0.060066040605306625 0.0 0.9981943964958191
vn 0.3186059892177582 0.318605899810791 0.892737627029419
vn 0.45057693123817444 0.0 0.892737627029419
vn -0.0 0.45057693123817444 0.892737627029419
vn 0.31860587000846863 -0.318605899810791 0.8927376866340637
vn -0.0 -0.4505769908428192 0.892737627029419
vn 0.45057693123817444 0.0 0.892737627029419
vn 0.5297178030014038 -0.5297178030014038 0.6624184250831604
vn 0.529717743396759 0.5297178626060486 0.6624183058738708
vn 0.7491340637207031 0.0 0.6624183654785156
vn -0.0 0.7491340041160583 0.6624183654785156
vn -0.0 -0.7491340637207031 0.6624183654785156
vn -0.0 0.0 -1.0
vn -0.0 0.0 -1.0
vn -0.0 0.0 -1.0
vn -0.0 0.0 -1.0
vn 0.529717743396759 0.5297178626060486 0.6624183058738708
vn 0.45057693123817444 0.0 0.892737627029419
vn 0.7491340637207031 0.0 0.6624183654785156
vn 0.3186059892177582 0.318605899810791 0.892737627029419
vn -0.0 0.7491340041160583 0.6624183654785156
vn -0.0 0.45057693123817444 0.892737627029419
vn 0.31860587000846863 -0.318605899810791 0.8927376866340637
vn 0.5297178030014038 -0.5297178030014038 0.6624184250831604
vn -0.0 -0.4505769908428192 0.892737627029419
vn -0.0 -0.7491340637207031 0.6624183654785156
vn -0.99993896484375 -1.0151241269795719e-07 -0.011049277149140835
vn -0.6115431785583496 0.6115431785583496 -0.502025842666626
vn -0.707063615322113 0.7070635557174683 -0.011049159802496433
vn -0.8648525476455688 0.0 -0.502025842666626
vn -0.0 0.8648526668548584 -0.5020257830619812
vn -0.0 0.99993896484375 -0.011049157939851284
vn -0.7070634961128235 -0.7070636749267578 -0.01104921754449606
vn -0.6115431785583496 -0.6115431785583496 -0.5020257830619812
vn -0.0 -0.99993896484375 -0.0110491793602705
vn -0.0 -0.8648526668548584 -0.5020257234573364
vn -0.4695202708244324 0.0 -0.8829216957092285
vn -0.3320007920265198 0.3320009410381317 -0.8829217553138733
vn -0.3320009112358093 -0.3320009112358093 -0.8829217553138733
vn -0.4695202708244324 0.0 -0.8829216957092285
vn -0.0 -0.4695202708244324 -0.8829216957092285
vn -0.0 0.4695201814174652 -0.8829217553138733
vn -0.6195738315582275 0.6195738315582275 0.4819300174713135
vn -0.8762097954750061 0.0 0.48193007707595825
vn -0.3623424172401428 0.3623424172401428 0.8587293028831482
vn -0.5124295949935913 0.0 0.8587293028831482
vn -0.0 0.5124297142028809 0.8587292432785034
vn -0.0 0.8762097954750061 0.4819300174713135
vn -0.6195738315582275 -0.6195739507675171 0.4819299578666687
vn -0.36234238743782043 -0.3623424768447876 0.8587292432785034
vn -0.0 -0.8762097954750061 0.48193007707595825
vn -0.0 -0.5124297738075256 0.8587292432785034
vn -0.06006603315472603 0.0 0.9981943964958191
vn -0.042473070323467255 0.042473070323467255 0.9981943964958191
vn -0.0 0.06006596237421036 0.9981943964958191
vn -0.0 -0.060065995901823044 0.9981943964958191
vn -0.04247308522462845 -0.042473096400499344 0.9981943964958191
vn -0.06006603315472603 0.0 0.9981943964958191
vn -0.318605899810791 0.318605899810791 0.8927376866340637
vn -0.4505770206451416 0.0 0.892737627029419
vn -0.0 0.45057693123817444 0.892737627029419
vn -0.31860587000846863 -0.3186059892177582 0.892737627029419
vn -0.0 -0.4505769908428192 0.892737627029419
vn -0.4505770206451416 0.0 0.892737627029419
vn -0.529717743396759 -0.5297178626060486 0.6624183654785156
vn -0.0 0.7491340041160583 0.6624183654785156
vn -0.0 -0.7491340637207031 0.6624183654785156
vn -0.5297176837921143 0.5297178626060486 0.6624183058738708
vn -0.7491340041160583 0.0 0.6624183654785156
vn -0.0 0.0 -1.0
vn -0.0 0.0 -1.0
vn -0.0 0.0 -1.0
vn -0.0 0.0 -1.0
vn -0.5297176837921143 0.5297178626060486 0.6624183058738708
vn -0.4505770206451416 0.0 0.892737627029419
vn -0.318605899810791 0.318605899810791 0.8927376866340637
vn -0.7491340041160583 0.0 0.6624183654785156
vn -0.0 0.7491340041160583 0.6624183654785156
vn -0.0 0.45057693123817444 0.892737627029419
vn -0.31860587000846863 -0.3186059892177582 0.892737627029419
vn -0.529717743396759 -0.5297178626060486 0.6624183654785156
vn -0.0 -0.4505769908428192 0.892737627029419
vn -0.0 -0.7491340637207031 0.6624183654785156
vt 0.4999997913837433 0.525247722864151
vt 0.7869903445243835 0.7029182314872742
vt 0.4999997913837433 0.7032952308654785
vt 0.7740018963813782 0.525247722864151
vt 0.9918026924133301 0.7029182314872742
vt 0.9918026924133301 0.525247722864151
vt 0.2744871973991394 0.525247722864151
vt 0.2601153254508972 0.7029182314872742
vt 0.00819706916809082 0.5252476930618286
vt 0.00819706916809082 0.7029182016849518
vt 0.5963917374610901 0.8560387492179871
vt 0.8231543898582458 0.8560387492179871
vt 0.18304841220378876 0.8560387343168259
vt 0.36623141169548035 0.8560387641191483
vt 0.00819706916809082 0.8560387194156647
vt 0.9918026924133301 0.8560387343168259
vt 0.7869903445243835 0.3701598644256592
vt 0.9918026924133301 0.3701598644256592
vt 0.9918026924133301 0.269897997379303
vt 0.8101645708084106 0.269897997379303
vt 0.4999997913837433 0.3701598644256592
vt 0.4999998211860657 0.269897997379303
vt 0.2601153254508972 0.3701598644256592
vt 0.20877502858638763 0.269897997379303
vt 0.00819706916809082 0.3701598644256592
vt 0.00819706916809082 0.269897997379303
vt 0.6854734420776367 0.14714252948760986
vt 0.8937628269195557 0.14714252948760986
vt 0.9918026924133301 0.14714252948760986
vt 0.00819706916809082 0.14714252948760986
vt 0.11870022118091583 0.14714252948760986
vt 0.31220364570617676 0.14714252948760986
vt 0.9451500773429871 0.09392207860946655
vt 0.7920414209365845 0.09450411796569824
vt 0.9915586709976196 0.09392207860946655
vt 0.0644688606262207 0.09392207860946655
vt 0.006927937269210815 0.09392207860946655
vt 0.20541228353977203 0.09450411796569824
vt 0.46396327018737793 0.887752965092659
vt 0.5249380469322205 0.887752965092659
vt 0.4944506287574768 0.887752965092659
vt 0.5591473579406738 0.8668007254600525
vt 0.42975395917892456 0.8668007254600525
vt 0.7289495468139648 0.9888777993619442
vt 0.9917953014373779 0.9888777993619442
vt 0.23291707038879395 0.9888777993619442
vt 0.008204355835914612 0.9888777993619442
vt 0.5249380469322205 0.887752965092659
vt 0.4944506287574768 0.9780286084860563
vt 0.4944506287574768 0.887752965092659
vt 0.5312404036521912 0.9780286084860563
vt 0.5591473579406738 0.8668007254600525
vt 0.5725213885307312 0.9780286084860563
vt 0.457660973072052 0.9780286084860563
vt 0.46396327018737793 0.887752965092659
vt 0.41637998819351196 0.9780286084860563
vt 0.42975395917892456 0.8668007254600525
vt 0.4999997913837433 0.525247722864151
vt 0.7869903445243835 0.7029182314872742
vt 0.7740018963813782 0.525247722864151
vt 0.4999997913837433 0.7032952308654785
vt 0.9918026924133301 0.7029182314872742
vt 0.9918026924133301 0.525247722864151
vt 0.2744871973991394 0.525247722864151
vt 0.2601153254508972 0.7029182314872742
vt 0.00819706916809082 0.5252476930618286
vt 0.00819706916809082 0.7029182016849518
vt 0.5963917374610901 0.8560387492179871
vt 0.8231543898582458 0.8560387492179871
vt 0.18304841220378876 0.8560387343168259
vt 0.36623141169548035 0.8560387641191483
vt 0.00819706916809082 0.8560387194156647
vt 0.9918026924133301 0.8560387343168259
vt 0.7869903445243835 0.3701598644256592
vt 0.4999997913837433 0.3701598644256592
vt 0.8101645708084106 0.269897997379303
vt 0.4999998211860657 0.269897997379303
vt 0.9918026924133301 0.269897997379303
vt 0.9918026924133301 0.3701598644256592
vt 0.2601153254508972 0.3701598644256592
vt 0.20877502858638763 0.269897997379303
vt 0.00819706916809082 0.3701598644256592
vt 0.00819706916809082 0.269897997379303
vt 0.6854734420776367 0.14714252948760986
vt 0.8937628269195557 0.14714252948760986
vt 0.9918026924133301 0.14714252948760986
vt 0.00819706916809082 0.14714252948760986
vt 0.11870022118091583 0.14714252948760986
vt 0.31220364570617676 0.14714252948760986
vt 0.9451500773429871 0.09392207860946655
vt 0.7920414209365845 0.09450411796569824
vt 0.9915586709976196 0.09392207860946655
vt 0.0644688606262207 0.09392207860946655
vt 0.006927937269210815 0.09392207860946655
vt 0.20541228353977203 0.09450411796569824
vt 0.46396327018737793 0.887752965092659
vt 0.5591473579406738 0.8668007254600525
vt 0.42975395917892456 0.8668007254600525
vt 0.5249380469322205 0.887752965092659
vt 0.4944506287574768 0.887752965092659
vt 0.7289495468139648 0.9888777993619442
vt 0.9917953014373779 0.9888777993619442
vt 0.23291707038879395 0.9888777993619442
vt 0.008204355835914612 0.9888777993619442
vt 0.5249380469322205 0.887752965092659
vt 0.4944506287574768 0.9780286084860563
vt 0.5312404036521912 0.9780286084860563
vt 0.4944506287574768 0.887752965092659
vt 0.5591473579406738 0.8668007254600525
vt 0.5725213885307312 0.9780286084860563
vt 0.457660973072052 0.9780286084860563
vt 0.46396327018737793 0.887752965092659
vt 0.41637998819351196 0.9780286084860563
vt 0.42975395917892456 0.8668007254600525

g bg_mdl_map_pumpkin00
s 1
usemtl bg_mdl_map_pumpkin00
f 3/3/3 2/2/2 1/1/1 
f 4/4/4 1/1/1 2/2/2 
f 2/2/2 5/5/5 4/4/4 
f 6/6/6 4/4/4 5/5/5 
f 1/1/1 7/7/7 3/3/3 
f 8/8/8 3/3/3 7/7/7 
f 7/7/7 9/9/9 8/8/8 
f 10/10/10 8/8/8 9/9/9 
f 3/3/3 11/11/11 2/2/2 
f 12/12/12 2/2/2 11/11/11 
f 2/2/2 12/12/12 5/5/5 
f 8/8/8 13/13/13 3/3/3 
f 14/14/14 3/3/3 13/13/13 
f 13/13/13 8/8/8 15/15/15 
f 10/10/10 15/15/15 8/8/8 
f 16/16/16 5/5/5 12/12/12 
f 4/4/4 17/17/17 1/1/1 
f 6/6/6 18/18/18 4/4/4 
f 17/17/17 4/4/4 18/18/18 
f 18/18/18 19/19/19 17/17/17 
f 20/20/20 17/17/17 19/19/19 
f 17/17/17 20/20/20 21/21/21 
f 22/22/22 21/21/21 20/20/20 
f 21/21/21 22/22/22 23/23/23 
f 24/24/24 23/23/23 22/22/22 
f 23/23/23 24/24/24 25/25/25 
f 26/26/26 25/25/25 24/24/24 
f 21/21/21 1/1/1 17/17/17 
f 25/25/25 9/9/9 23/23/23 
f 7/7/7 23/23/23 9/9/9 
f 1/1/1 21/21/21 7/7/7 
f 23/23/23 7/7/7 21/21/21 
f 22/22/22 20/20/20 27/27/27 
f 28/28/28 27/27/27 20/20/20 
f 20/20/20 19/19/19 28/28/28 
f 29/29/29 28/28/28 19/19/19 
f 26/26/26 24/24/24 30/30/30 
f 31/31/31 30/30/30 24/24/24 
f 24/24/24 22/22/22 31/31/31 
f 32/32/32 31/31/31 22/22/22 
f 28/28/28 33/33/33 27/27/27 
f 34/34/34 27/27/27 33/33/33 
f 29/29/29 35/35/35 28/28/28 
f 33/33/33 28/28/28 35/35/35 
f 31/31/31 36/36/36 30/30/30 
f 37/37/37 30/30/30 36/36/36 
f 32/32/32 38/38/38 31/31/31 
f 36/36/36 31/31/31 38/38/38 
f 41/41/41 40/40/40 39/39/39 
f 40/40/40 42/42/42 39/39/39 
f 42/42/42 43/43/43 39/39/39 
f 11/11/11 44/44/44 12/12/12 
f 12/12/12 45/45/45 16/16/16 
f 13/13/13 46/46/46 14/14/14 
f 15/15/15 47/47/47 13/13/13 
f 50/50/50 49/49/49 48/48/48 
f 51/51/51 48/48/48 49/49/49 
f 48/48/48 51/51/51 52/52/52 
f 53/53/53 52/52/52 51/51/51 
f 49/49/49 50/50/50 54/54/54 
f 55/55/55 54/54/54 50/50/50 
f 54/54/54 55/55/55 56/56/56 
f 57/57/57 56/56/56 55/55/55 
f 60/60/60 59/59/59 58/58/58 
f 61/61/61 58/58/58 59/59/59 
f 59/59/59 60/60/60 62/62/62 
f 63/63/63 62/62/62 60/60/60 
f 58/58/58 61/61/61 64/64/64 
f 65/65/65 64/64/64 61/61/61 
f 64/64/64 65/65/65 66/66/66 
f 67/67/67 66/66/66 65/65/65 
f 61/61/61 59/59/59 68/68/68 
f 69/69/69 68/68/68 59/59/59 
f 59/59/59 62/62/62 69/69/69 
f 65/65/65 61/61/61 70/70/70 
f 71/71/71 70/70/70 61/61/61 
f 67/67/67 65/65/65 72/72/72 
f 70/70/70 72/72/72 65/65/65 
f 73/73/73 69/69/69 62/62/62 
f 60/60/60 58/58/58 74/74/74 
f 75/75/75 74/74/74 58/58/58 
f 58/58/58 64/64/64 75/75/75 
f 74/74/74 75/75/75 76/76/76 
f 77/77/77 76/76/76 75/75/75 
f 76/76/76 78/78/78 74/74/74 
f 79/79/79 74/74/74 78/78/78 
f 75/75/75 80/80/80 77/77/77 
f 81/81/81 77/77/77 80/80/80 
f 80/80/80 82/82/82 81/81/81 
f 83/83/83 81/81/81 82/82/82 
f 74/74/74 79/79/79 60/60/60 
f 63/63/63 60/60/60 79/79/79 
f 82/82/82 80/80/80 66/66/66 
f 64/64/64 66/66/66 80/80/80 
f 80/80/80 75/75/75 64/64/64 
f 77/77/77 84/84/84 76/76/76 
f 85/85/85 76/76/76 84/84/84 
f 76/76/76 85/85/85 78/78/78 
f 86/86/86 78/78/78 85/85/85 
f 83/83/83 87/87/87 81/81/81 
f 88/88/88 81/81/81 87/87/87 
f 81/81/81 88/88/88 77/77/77 
f 89/89/89 77/77/77 88/88/88 
f 85/85/85 84/84/84 90/90/90 
f 91/91/91 90/90/90 84/84/84 
f 90/90/90 92/92/92 85/85/85 
f 86/86/86 85/85/85 92/92/92 
f 88/88/88 87/87/87 93/93/93 
f 94/94/94 93/93/93 87/87/87 
f 93/93/93 95/95/95 88/88/88 
f 89/89/89 88/88/88 95/95/95 
f 98/98/98 97/97/97 96/96/96 
f 97/97/97 99/99/99 96/96/96 
f 99/99/99 100/100/100 96/96/96 
f 101/101/101 68/68/68 69/69/69 
f 102/102/102 69/69/69 73/73/73 
f 103/103/103 70/70/70 71/71/71 
f 104/104/104 72/72/72 70/70/70 
f 107/107/107 106/106/106 105/105/105 
f 108/108/108 105/105/105 106/106/106 
f 105/105/105 109/109/109 107/107/107 
f 110/110/110 107/107/107 109/109/109 
f 106/106/106 111/111/111 108/108/108 
f 112/112/112 108/108/108 111/111/111 
f 111/111/111 113/113/113 112/112/112 
f 114/114/114 112/112/112 113/113/113 

