v 0.15867874026298523 -0.0037387001793831587 -0.11109005659818649
v 0.1435026228427887 0.018123025074601173 -0.11464764922857285
v 0.178282231092453 0.020074771717190742 -0.12497205287218094
v 0.14929640293121338 -0.014917999505996704 -0.1274707317352295
v 0.1769411861896515 -0.0223125908523798 -0.12503354251384735
v 0.16521836817264557 -0.03289792314171791 -0.14124584197998047
v 0.19864627718925476 -0.009380999021232128 -0.1304503083229065
v 0.17656491696834564 -0.03973088040947914 -0.13107626140117645
v 0.18103711307048798 -0.03145955130457878 -0.1212395429611206
v 0.19789855182170868 -0.027689887210726738 -0.12421673536300659
v 0.1588221788406372 -0.0038542544934898615 -0.11123532056808472
v 0.17690902948379517 -0.022249706089496613 -0.12504397332668304
v 0.13467103242874146 -0.0007945573306642473 -0.12629686295986176
v 0.14350257813930511 0.018123043701052666 -0.11464767158031464
v 0.15133710205554962 -0.013646787963807583 -0.11946319043636322
v 0.13458405435085297 0.00998875591903925 -0.1463571935892105
v 0.13806220889091492 -0.021293358877301216 -0.14668379724025726
v 0.12526904046535492 -0.0041631972417235374 -0.16356685757637024
v 0.15817147493362427 -0.03564689680933952 -0.1395668238401413
v 0.12522166967391968 -0.02069239318370819 -0.161666139960289
v 0.13166843354701996 -0.029268989339470863 -0.14991241693496704
v 0.14322923123836517 -0.042282141745090485 -0.14783811569213867
v 0.13471664488315582 -0.0009323930717073381 -0.12646150588989258
v 0.13807538151741028 -0.021234750747680664 -0.14665238559246063
v 0.16027244925498962 0.03466919809579849 -0.1447039693593979
v 0.14391650259494781 0.019760992377996445 -0.1148005872964859
v 0.1318986862897873 0.020861200988292694 -0.1427515745162964
v 0.1761387586593628 0.01991073414683342 -0.12543149292469025
v 0.1483081579208374 0.03208806738257408 -0.16661733388900757
v 0.1671493500471115 0.03552544116973877 -0.17265579104423523
v 0.19500182569026947 0.03495140001177788 -0.1661289781332016
v 0.1880294233560562 0.015888016670942307 -0.1163962334394455
v 0.16753463447093964 0.028663968667387962 -0.1349487006664276
v 0.19305092096328735 0.029405444860458374 -0.14468491077423096
v 0.20506295561790466 0.020140571519732475 -0.14097219705581665
v 0.20212706923484802 0.014595197513699532 -0.12915481626987457
v 0.20768243074417114 -0.010151224210858345 -0.12164610624313354
v 0.18793191015720367 -0.016092319041490555 -0.12052922695875168
v 0.16241960227489471 -0.005999072454869747 -0.10959836840629578
v 0.14574967324733734 0.01860078237950802 -0.11340255290269852
v 0.14583757519721985 0.024194123223423958 -0.1210242435336113
v 0.18798889219760895 0.015850188210606575 -0.11647909134626389
v 0.13668295741081238 0.028363041579723358 -0.1738005429506302
v 0.12356512993574142 0.01972522959113121 -0.1451359987258911
v 0.1179082840681076 0.014585563912987709 -0.1731998771429062
v 0.14651678502559662 0.03258151561021805 -0.15390239655971527
v 0.14314162731170654 0.01925746724009514 -0.1150001510977745
v 0.12134658545255661 -0.011161464266479015 -0.14430935680866241
v 0.1208447590470314 -0.007456169929355383 -0.1689346432685852
v 0.19777385890483856 0.05209452658891678 -0.12792757153511047
v 0.18643008172512054 0.04731705039739609 -0.1343841701745987
v 0.1953010857105255 0.04955010488629341 -0.13567055761814117
v 0.1705954521894455 0.0386408232152462 -0.11788474023342133
v 0.2053070366382599 0.054365385323762894 -0.12990190088748932
v 0.17061536014080048 0.045585982501506805 -0.13970550894737244
v 0.19044646620750427 0.04925502836704254 -0.14110134541988373
v 0.1549583375453949 0.03442889451980591 -0.13205118477344513
v 0.1416640281677246 0.018821395933628082 -0.11285465210676193
v 0.1393113136291504 0.04030417278409004 -0.1458623856306076
v 0.12637348473072052 0.02129943296313286 -0.14019593596458435
v 0.13020871579647064 0.026863127946853638 -0.16428759694099426
v 0.18334828317165375 0.019936202093958855 -0.11202172935009003
v 0.18255312740802765 0.039086680859327316 -0.11529343575239182
v 0.17101944983005524 0.00806226022541523 -0.10355424880981445
v 0.19595474004745483 0.010671348311007023 -0.11671320348978043
v 0.19782935082912445 -0.007028401829302311 -0.1160770133137703
v 0.20179489254951477 -0.0011338865151628852 -0.11834641546010971
v 0.2076774537563324 -0.007507035508751869 -0.12048017978668213
v 0.1571633517742157 -0.00016747831250540912 -0.10713258385658264
v 0.1485282927751541 -0.02251974493265152 -0.11685390025377274
v 0.16559532284736633 -0.02277335152029991 -0.11300315707921982
v 0.1683555245399475 -0.040477294474840164 -0.12439248710870743
v 0.17221245169639587 -0.014939665794372559 -0.1085389032959938
v 0.19496236741542816 -0.022335907444357872 -0.11711549758911133
v 0.20693255960941315 -0.01905636116862297 -0.12001550197601318
v 0.1574603021144867 -0.051019228994846344 -0.13398435711860657
v 0.16136959195137024 -0.05581515282392502 -0.1329120695590973
v 0.14815808832645416 -0.04736100137233734 -0.1378180980682373
v 0.15613582730293274 -0.05539485812187195 -0.1353953778743744
v 0.1344488114118576 -0.02588064596056938 -0.1309204250574112
v 0.13086380064487457 -0.008325873874127865 -0.12059760093688965
v 0.12034131586551666 0.001369936391711235 -0.1395135223865509
v 0.1258869767189026 -0.021186012774705887 -0.14110009372234344
v 0.11156768351793289 -0.018968762829899788 -0.1541445404291153
v 0.11008502542972565 -0.008808053098618984 -0.15813398361206055
v 0.10284523665904999 -0.012626404874026775 -0.16007301211357117
v 0.12073953449726105 0.016741393133997917 -0.14938125014305115
v 0.11210984736680984 0.00539140310138464 -0.15927934646606445
v 0.102364182472229 -0.006574931088835001 -0.16290467977523804
v 0.14084258675575256 0.04484694451093674 -0.18827903270721436
v 0.14703859388828278 0.04386195167899132 -0.178694486618042
v 0.139097198843956 0.03930605202913284 -0.18284770846366882
v 0.1589464694261551 0.04895677790045738 -0.17381983995437622
v 0.1495676040649414 0.04817677289247513 -0.1838420033454895
v 0.16068917512893677 0.04604872688651085 -0.15023308992385864
v 0.17552344501018524 -0.003165393602102995 -0.13218027353286743
v 0.14911092817783356 0.014736263081431389 -0.11850062012672424
v 0.1616276651620865 -0.01786668412387371 -0.1356291025876999
v 0.1730586588382721 -0.014197141863405704 -0.14587312936782837
v 0.17552344501018524 -0.003165393602102995 -0.13218027353286743
v 0.17552344501018524 -0.003165393602102995 -0.13218027353286743
v 0.17928634583950043 0.010442317463457584 -0.14095823466777802
v 0.1608409881591797 0.014948906376957893 -0.15272974967956543
v 0.1817648857831955 0.002057752339169383 -0.14677484333515167
v 0.1476217359304428 -0.00488511985167861 -0.15727077424526215
v 0.1698683202266693 0.00414237380027771 -0.15606185793876648
v 0.1608409881591797 0.014948906376957893 -0.15272974967956543
v 0.1476217359304428 -0.00488511985167861 -0.15727077424526215
v 0.14911092817783356 0.014736263081431389 -0.11850062012672424
v 0.1529974788427353 -0.00928061455488205 -0.1588953137397766
v 0.16192582249641418 -0.01935724727809429 -0.15361753106117249
v 0.1476217359304428 -0.00488511985167861 -0.15727077424526215
v 0.1476217359304428 -0.00488511985167861 -0.15727077424526215
v 0.16080181300640106 0.00998002476990223 -0.1607879102230072
v 0.15582424402236938 0.00047641544369980693 -0.1702001988887787
v 0.1608409881591797 0.014948906376957893 -0.15272974967956543
v 0.13218499720096588 0.02093534916639328 -0.14281223714351654
v 0.14408673346042633 0.01984555646777153 -0.11512962728738785
v 0.16028577089309692 0.03461141139268875 -0.14474590122699738
v 0.17599958181381226 0.01999356411397457 -0.12565867602825165
v 0.14843592047691345 0.032054875046014786 -0.16644923388957977
v 0.16709701716899872 0.0354594886302948 -0.17243018746376038
v 0.19468200206756592 0.034890223294496536 -0.16596589982509613
v 0.11802348494529724 0.01457939576357603 -0.17301417887210846
v 0.1236254870891571 0.019670648500323296 -0.1452188342809677
v 0.13661816716194153 0.02822491154074669 -0.17360861599445343
v 0.14635774493217468 0.032402876764535904 -0.15390150249004364
v 0.14301450550556183 0.019207186996936798 -0.11537160724401474
v 0.12142888456583023 -0.010920708999037743 -0.14440037310123444
v 0.12093159556388855 -0.007250739261507988 -0.1687893271446228
v 0.19492797553539276 0.04916796460747719 -0.1356714516878128
v 0.1861412078142166 0.04695647582411766 -0.13439728319644928
v 0.19737613201141357 0.05168892815709114 -0.1280028223991394
v 0.17045874893665314 0.0383630245923996 -0.1180557906627655
v 0.20483733713626862 0.05393676459789276 -0.129957914352417
v 0.17047841846942902 0.04524125158786774 -0.13966745138168335
v 0.190119206905365 0.04887594282627106 -0.1410508155822754
v 0.15497168898582458 0.034190960228443146 -0.1320859044790268
v 0.1418037712574005 0.01873396523296833 -0.11307433992624283
v 0.13947418332099915 0.04001076519489288 -0.1457657814025879
v 0.12666019797325134 0.021188125014305115 -0.14015327394008636
v 0.1304587870836258 0.02669840306043625 -0.16401320695877075
v 0.18308845162391663 0.019837455824017525 -0.11224978417158127
v 0.18230171501636505 0.038804471492767334 -0.11548938602209091
v 0.17087821662425995 0.00807712972164154 -0.10386289656162262
v 0.19557464122772217 0.010662001557648182 -0.1168953999876976
v 0.1974317878484726 -0.006868768949061632 -0.1162646934390068
v 0.20135845243930817 -0.0010295378742739558 -0.11851281672716141
v 0.2071855515241623 -0.007342264521867037 -0.12062773108482361
v 0.157154843211174 -7.354378612944856e-05 -0.10740753263235092
v 0.14860285818576813 -0.022211953997612 -0.11703523248434067
v 0.16550564765930176 -0.02246192842721939 -0.113221175968647
v 0.16824008524417877 -0.039996903389692307 -0.12450084090232849
v 0.17205986380577087 -0.014704179018735886 -0.10879961401224136
v 0.19459231197834015 -0.02202877774834633 -0.11729390919208527
v 0.206446573138237 -0.018780821934342384 -0.12016638368368149
v 0.15744933485984802 -0.05043724924325943 -0.1340007781982422
v 0.1613205373287201 -0.0551881305873394 -0.13293887674808502
v 0.14823678135871887 -0.04681405797600746 -0.137798473238945
v 0.15613795816898346 -0.054771240800619125 -0.13539887964725494
v 0.134658083319664 -0.025539910420775414 -0.13096587359905243
v 0.13110750913619995 -0.008153854869306087 -0.12074314057826996
v 0.12068578600883484 0.0014497548108920455 -0.13947737216949463
v 0.12617836892604828 -0.02089100331068039 -0.1410493105649948
v 0.11199691891670227 -0.018693957477808 -0.15396887063980103
v 0.11052768677473068 -0.008630850352346897 -0.15792042016983032
v 0.10335760563611984 -0.012412354350090027 -0.15984004735946655
v 0.12107951939105988 0.016673879697918892 -0.14925067126750946
v 0.11253312230110168 0.005432784557342529 -0.15905402600765228
v 0.10288131237030029 -0.006419550161808729 -0.16264446079730988
v 0.13926172256469727 0.03902231529355049 -0.18239650130271912
v 0.14712683856487274 0.04353421553969383 -0.178282231092453
v 0.14099006354808807 0.0445096492767334 -0.18777598440647125
v 0.15892082452774048 0.04858073592185974 -0.17345553636550903
v 0.14963197708129883 0.047807853668928146 -0.18338075280189514
v 0.16064713895320892 0.045699749141931534 -0.15009453892707825
v 0.14869387447834015 0.01505687553435564 -0.11792177706956863
v 0.17170125246047974 0.005001185927540064 -0.11356483399868011
v 0.15517213940620422 -0.012080061249434948 -0.12089219689369202
v 0.17552344501018524 -0.003165393602102995 -0.13218027353286743
v 0.16160377860069275 -0.019340191036462784 -0.13493217527866364
v 0.1730586588382721 -0.014197141863405704 -0.14587312936782837
v 0.1751774400472641 0.023601965978741646 -0.12416759133338928
v 0.15393008291721344 0.027799095958471298 -0.14010821282863617
v 0.18061576783657074 0.011138071306049824 -0.14066901803016663
v 0.16077987849712372 0.016079578548669815 -0.15340662002563477
v 0.1817648857831955 0.002057752339169383 -0.14677484333515167
v 0.1705809235572815 0.004375479184091091 -0.15709051489830017
v 0.15393008291721344 0.027799095958471298 -0.14010821282863617
v 0.14869387447834015 0.01505687553435564 -0.11792177706956863
v 0.13734377920627594 0.013606238178908825 -0.14829565584659576
v 0.1340629905462265 -0.006197371520102024 -0.13643789291381836
v 0.15517213940620422 -0.012080061249434948 -0.12089219689369202
v 0.16077987849712372 0.016079578548669815 -0.15340662002563477
v 0.1476217359304428 -0.00488511985167861 -0.15727077424526215
v 0.16160377860069275 -0.019340191036462784 -0.13493217527866364
v 0.1529974788427353 -0.00928061455488205 -0.1588953137397766
v 0.1476217359304428 -0.00488511985167861 -0.15727077424526215
v 0.16192582249641418 -0.01935724727809429 -0.15361753106117249
v 0.1476217359304428 -0.00488511985167861 -0.15727077424526215
v 0.16065426170825958 0.010740753263235092 -0.1620865911245346
v 0.15582424402236938 0.00047641544369980693 -0.1702001988887787
v 0.17160959541797638 0.0023267092183232307 -0.10130897909402847
v 0.15814626216888428 0.02161228097975254 -0.09317921102046967
v 0.1635972112417221 0.020890286192297935 -0.10582233965396881
v 0.16615863144397736 0.003048692364245653 -0.08866582065820694
v 0.14027556777000427 0.028281640261411667 -0.10126537829637527
v 0.14572763442993164 0.027560090646147728 -0.11390765756368637
v 0.12301652878522873 0.01914912834763527 -0.10818566381931305
v 0.12846753001213074 0.01842775009572506 -0.12082801759243011
v 0.11647788435220718 -0.0004346195491962135 -0.1098872721195221
v 0.12192895263433456 -0.0011565895983949304 -0.1225304827094078
v 0.12449024617671967 -0.01899823173880577 -0.10537393391132355
v 0.12994125485420227 -0.019720204174518585 -0.11801709234714508
v 0.14235980808734894 -0.025668032467365265 -0.09728860855102539
v 0.1478109061717987 -0.026389382779598236 -0.10993099212646484
v 0.15961898863315582 -0.01653551682829857 -0.09036830067634583
v 0.16506993770599365 -0.017256859689950943 -0.10301068425178528
v 0.16615863144397736 0.003048692364245653 -0.08866582065820694
v 0.17160959541797638 0.0023267092183232307 -0.10130897909402847
v 0.16506993770599365 -0.017256859689950943 -0.10301068425178528
v 0.1635972112417221 0.020890286192297935 -0.10582233965396881
v 0.1478109061717987 -0.026389382779598236 -0.10993099212646484
v 0.17160959541797638 0.0023267092183232307 -0.10130897909402847
v 0.12994125485420227 -0.019720204174518585 -0.11801709234714508
v 0.14572763442993164 0.027560090646147728 -0.11390765756368637
v 0.12192895263433456 -0.0011565895983949304 -0.1225304827094078
v 0.12846753001213074 0.01842775009572506 -0.12082801759243011
v 0.14027556777000427 0.028281640261411667 -0.10126537829637527
v 0.16615863144397736 0.003048692364245653 -0.08866582065820694
v 0.15961898863315582 -0.01653551682829857 -0.09036830067634583
v 0.15814626216888428 0.02161228097975254 -0.09317921102046967
v 0.12301652878522873 0.01914912834763527 -0.10818566381931305
v 0.14235980808734894 -0.025668032467365265 -0.09728860855102539
v 0.11647788435220718 -0.0004346195491962135 -0.1098872721195221
v 0.12449024617671967 -0.01899823173880577 -0.10537393391132355
v 0.193181112408638 0.015595287084579468 -0.08883030712604523
v 0.16566234827041626 -0.004941146820783615 -0.09952807426452637
v 0.16573677957057953 0.009510567411780357 -0.1004871353507042
v 0.19303978979587555 -0.010378511622548103 -0.08718926459550858
v 0.20850399136543274 0.002745584584772587 -0.08399108797311783
v 0.21101027727127075 0.018960680812597275 -0.08475217968225479
v 0.2159261405467987 0.0021573430858552456 -0.0925896018743515
v 0.21837218105793 0.019125081598758698 -0.09344955533742905
v 0.21418341994285583 0.01776319555938244 -0.1034180074930191
v 0.21168239414691925 0.0015339549863711 -0.10258107632398605
v 0.19635161757469177 0.014499061740934849 -0.10418571531772614
v 0.21082475781440735 -0.013446575030684471 -0.08252254128456116
v 0.21817782521247864 -0.014792295172810555 -0.09111600369215012
v 0.21399779617786407 -0.014681669883430004 -0.10118557512760162
v 0.1962103396654129 -0.011474013328552246 -0.10254544764757156
v 0.16566234827041626 -0.004941146820783615 -0.09952807426452637
v 0.16573677957057953 0.009510567411780357 -0.1004871353507042
v 0.16573677957057953 0.009510567411780357 -0.1004871353507042
v 0.19635161757469177 0.014499061740934849 -0.10418571531772614
v 0.19474156200885773 0.010566060431301594 -0.09622520953416824
v 0.21418341994285583 0.01776319555938244 -0.1034180074930191
v 0.21837218105793 0.019125081598758698 -0.09344955533742905
v 0.193181112408638 0.015595287084579468 -0.08883030712604523
v 0.21101027727127075 0.018960680812597275 -0.08475217968225479
v 0.19464950263500214 -0.006446102634072304 -0.09515069425106049
v 0.1962103396654129 -0.011474013328552246 -0.10254544764757156
v 0.16566234827041626 -0.004941146820783615 -0.09952807426452637
v 0.21399779617786407 -0.014681669883430004 -0.10118557512760162
v 0.21817782521247864 -0.014792295172810555 -0.09111600369215012
v 0.21082475781440735 -0.013446575030684471 -0.08252254128456116
v 0.19303978979587555 -0.010378511622548103 -0.08718926459550858
v 0.12329813092947006 0.006219400092959404 -0.11450096219778061
v 0.09778272360563278 -0.01518411934375763 -0.12299062311649323
v 0.12423745542764664 -0.007416884880512953 -0.11316429823637009
v 0.09600316733121872 0.010658610612154007 -0.1255234330892563
v 0.03704638406634331 0.01195510383695364 -0.15987370908260345
v 0.04355267435312271 0.027234507724642754 -0.15881548821926117
v 0.035502899438142776 -0.003846087260171771 -0.15742310881614685
v 0.09215233474969864 -0.0011799716157838702 -0.12461929023265839
v 0.1247837021946907 -0.007515473756939173 -0.11302168667316437
v 0.12344672530889511 0.006138362921774387 -0.1138906255364418
v 0.09873297810554504 -0.019344046711921692 -0.11830268800258636
v 0.04002920165657997 -0.025758804753422737 -0.14190420508384705
v 0.04253675788640976 -0.009764802642166615 -0.1431606560945511
v 0.04371168836951256 -0.04036403447389603 -0.13728825747966766
v 0.09550140053033829 -0.015585099346935749 -0.12522825598716736
v 0.12509413063526154 0.003681725123897195 -0.11840607970952988
v 0.12406756728887558 -0.010567769408226013 -0.11601573973894119
v 0.09740756452083588 0.010004252195358276 -0.12957775592803955
v 0.0824987143278122 -0.0030148348305374384 -0.13503895699977875
v 0.07936622202396393 -0.019090227782726288 -0.1337866485118866
v 0.08295324444770813 -0.00494763907045126 -0.1462385207414627
v 0.07984785735607147 -0.02177143469452858 -0.14485256373882294
v 0.08978275209665298 -0.022497281432151794 -0.14927183091640472
v 0.09286085516214371 -0.00639118067920208 -0.15047964453697205
v 0.10367400199174881 -0.01831763982772827 -0.13837328553199768
v 0.08162971585988998 0.012881100177764893 -0.13907907903194427
v 0.08221544325351715 0.011688713915646076 -0.15039095282554626
v 0.09204739332199097 0.009510040283203125 -0.15457074344158173
v 0.105581134557724 0.007271543610841036 -0.14272239804267883
v 0.12509413063526154 0.003681725123897195 -0.11840607970952988
v 0.12406756728887558 -0.010567769408226013 -0.11601573973894119
v 0.12406756728887558 -0.010567769408226013 -0.11601573973894119
v 0.10367400199174881 -0.01831763982772827 -0.13837328553199768
v 0.09991664439439774 -0.012536655180156231 -0.13255177438259125
v 0.08978275209665298 -0.022497281432151794 -0.14927183091640472
v 0.07984785735607147 -0.02177143469452858 -0.14485256373882294
v 0.09550140053033829 -0.015585099346935749 -0.12522825598716736
v 0.07936622202396393 -0.019090227782726288 -0.1337866485118866
v 0.10116498917341232 0.0042232125997543335 -0.1353992372751236
v 0.105581134557724 0.007271543610841036 -0.14272239804267883
v 0.12509413063526154 0.003681725123897195 -0.11840607970952988
v 0.09204739332199097 0.009510040283203125 -0.15457074344158173
v 0.08221544325351715 0.011688713915646076 -0.15039095282554626
v 0.08162971585988998 0.012881100177764893 -0.13907907903194427
v 0.09740756452083588 0.010004252195358276 -0.12957775592803955
v 0.13793300092220306 0.04532487690448761 -0.11705747246742249
v 0.11998698115348816 0.03752269968390465 -0.12155958265066147
v 0.13598519563674927 0.02115098014473915 -0.1186968982219696
v 0.1587497889995575 0.018687056377530098 -0.10949207842350006
v 0.168364018201828 0.06217480078339577 -0.10717128217220306
v 0.13779480755329132 0.05564021319150925 -0.11127743124961853
v 0.1478852778673172 0.06888587027788162 -0.10355336219072342
v 0.16033963859081268 0.07481063157320023 -0.09732770919799805
v 0.1659700721502304 0.0870053768157959 -0.09399694949388504
v 0.18023154139518738 0.09138385206460953 -0.08948452025651932
v 0.18967017531394958 0.06067619100213051 -0.09428682923316956
v 0.1901499181985855 0.08370789140462875 -0.08560793846845627
v 0.186751127243042 0.09597455710172653 -0.08200281113386154
v 0.20165227353572845 0.09050512313842773 -0.07837288081645966
v 0.1788945496082306 0.04121801257133484 -0.10111309587955475
v 0.1259305775165558 0.06118767708539963 -0.11194930970668793
v 0.11470761895179749 0.05816436931490898 -0.11651380360126495
v 0.11722293496131897 0.06818939000368118 -0.11246609687805176
v 0.20369063317775726 -0.06305595487356186 0.053922299295663834
v 0.18836989998817444 -0.03270166739821434 0.08309987187385559
v 0.20696067810058594 -0.03403356298804283 0.05492810904979706
v 0.1890856921672821 -0.06148442253470421 0.09057704359292984
v 0.216613307595253 -0.04870186746120453 0.023924006149172783
v 0.22020240128040314 -0.011114637367427349 0.03394393250346184
v 0.1738283485174179 -0.04362506791949272 0.1159769594669342
v 0.15893226861953735 -0.012605766765773296 0.1233391985297203
v 0.17532111704349518 -0.007897675037384033 0.10195599496364594
v 0.1754579097032547 0.025846857577562332 0.10045109689235687
v 0.15308280289173126 0.030153973028063774 0.11727020144462585
v 0.1575637012720108 0.05946845933794975 0.10187873244285583
v 0.18870055675506592 0.048766206949949265 0.07946593314409256
v 0.181608647108078 0.06319377571344376 0.0738147646188736
v 0.2072901874780655 0.04743428900837898 0.051294244825839996
v 0.20207977294921875 0.05845596268773079 0.04616565257310867
v 0.20859527587890625 0.08195214718580246 0.04403477534651756
v 0.22324012219905853 0.05700381100177765 0.013977457769215107
v 0.2146560549736023 0.042999379336833954 0.023805594071745872
v 0.18568870425224304 0.08345246315002441 0.07646175473928452
v 0.2203391194343567 0.0226312056183815 0.032438527792692184
v 0.23159530758857727 0.017717501148581505 0.002821769565343857
v 0.2269429713487625 -0.015842558816075325 0.0028389431536197662
v 0.2331996113061905 0.028084833174943924 0.14043749868869781
v 0.2466374933719635 -0.032846491783857346 0.1223813146352768
v 0.23305754363536835 -0.007033748552203178 0.1420045793056488
v 0.2659838795661926 -0.034232623875141144 0.0930628553032875
v 0.24698050320148468 0.05193767324090004 0.11859951913356781
v 0.2797647714614868 -0.010380735620856285 0.07122444361448288
v 0.26632797718048096 0.05055060237646103 0.08928054571151733
v 0.2799069285392761 0.024737846106290817 0.0696573406457901
v 0.20369063317775726 -0.06305595487356186 0.053922299295663834
v 0.1855992078781128 -0.03240930661559105 0.0825609415769577
v 0.1890856921672821 -0.06148442253470421 0.09057704359292984
v 0.2041889876127243 -0.033741213381290436 0.05438924580812454
v 0.1738283485174179 -0.04362506791949272 0.1159769594669342
v 0.15893226861953735 -0.012605766765773296 0.1233391985297203
v 0.16709083318710327 0.018647082149982452 0.09177444875240326
v 0.15308280289173126 0.030153973028063774 0.11727020144462585
v 0.1575637012720108 0.05946845933794975 0.10187873244285583
v 0.20081031322479248 0.012394369579851627 0.06495007127523422
v 0.20655356347560883 0.00407063215970993 0.027808301150798798
v 0.216613307595253 -0.04870186746120453 0.023924006149172783
v 0.2269429713487625 -0.015842558816075325 0.0028389431536197662
v 0.20283225178718567 0.05038399621844292 0.0313933901488781
v 0.23159530758857727 0.017717501148581505 0.002821769565343857
v 0.22324012219905853 0.05700381100177765 0.013977457769215107
v 0.177255317568779 0.062348637729883194 0.06754901260137558
v 0.20859527587890625 0.08195214718580246 0.04403477534651756
v 0.18568870425224304 0.08345246315002441 0.07646175473928452
v 0.2062930315732956 0.02534334361553192 0.11752473562955856
v 0.23305754363536835 -0.007033748552203178 0.1420045793056488
v 0.20616553723812103 -0.006125523708760738 0.11892857402563095
v 0.2331996113061905 0.028084833174943924 0.14043749868869781
v 0.17532111704349518 -0.007897675037384033 0.10195599496364594
v 0.1754579097032547 0.025846857577562332 0.10045109689235687
v 0.18870055675506592 0.048766206949949265 0.07946593314409256
v 0.21864204108715057 0.04671713709831238 0.09795553982257843
v 0.24698050320148468 0.05193767324090004 0.11859951913356781
v 0.2466374933719635 -0.032846491783857346 0.1223813146352768
v 0.21833427250385284 -0.02925623580813408 0.10134439915418625
v 0.18836989998817444 -0.03270166739821434 0.08309987187385559
v 0.2072901874780655 0.04743428900837898 0.051294244825839996
v 0.2359783947467804 0.04547464847564697 0.07168364524841309
v 0.26632797718048096 0.05055060237646103 0.08928054571151733
v 0.2659838795661926 -0.034232623875141144 0.0930628553032875
v 0.2356707751750946 -0.030498305335640907 0.07507266104221344
v 0.20696067810058594 -0.03403356298804283 0.05492810904979706
v 0.2203391194343567 0.0226312056183815 0.032438527792692184
v 0.2481468915939331 0.02234436199069023 0.05409964919090271
v 0.2799069285392761 0.024737846106290817 0.0696573406457901
v 0.2797647714614868 -0.010380735620856285 0.07122444361448288
v 0.24801932275295258 -0.009125110693275928 0.0555037185549736
v 0.22020240128040314 -0.011114637367427349 0.03394393250346184
v 0.2481468915939331 0.02234436199069023 0.05409964919090271
v 0.2203391194343567 0.0226312056183815 0.032438527792692184
v 0.2799069285392761 0.024737846106290817 0.0696573406457901
v 0.21256019175052643 0.05989876016974449 0.06618102639913559
v 0.19526579976081848 0.05018557608127594 0.07698266953229904
v 0.19785918295383453 0.05276074633002281 0.0644792839884758
v 0.2034493237733841 0.050420600920915604 0.07652066648006439
v 0.2122676819562912 0.05036904662847519 0.0788203775882721
v 0.22255629301071167 0.05126841366291046 0.07540412992238998
v 0.22788695991039276 0.052675146609544754 0.06843173503875732
v 0.22571830451488495 0.05372243747115135 0.05775981768965721
v 0.21610938012599945 0.054138652980327606 0.05220942944288254
v 0.20459158718585968 0.0539664551615715 0.05544530600309372
v 0.22255629301071167 0.05126841366291046 0.07540412992238998
v 0.21610938012599945 0.054138652980327606 0.05220942944288254
v 0.20459158718585968 0.0539664551615715 0.05544530600309372
v 0.22788695991039276 0.052675146609544754 0.06843173503875732
v 0.22571830451488495 0.05372243747115135 0.05775981768965721
v 0.3129817247390747 -0.03243184834718704 -0.008642814122140408
v 0.30603453516960144 -0.03503112867474556 -0.030632708221673965
v 0.2818982005119324 -0.016617272049188614 -0.026729941368103027
v 0.3304598927497864 -0.04777175933122635 -0.01839134283363819
v 0.34486809372901917 -0.06503316015005112 0.008103209547698498
v 0.3133852183818817 -0.0385163314640522 0.007532837335020304
v 0.295278400182724 -0.020260769873857498 0.012003165669739246
v 0.2763804495334625 0.004082260187715292 -0.0008958253310993314
v 0.30809858441352844 -0.03919997811317444 0.011929113417863846
v 0.31168022751808167 -0.0457538403570652 0.014530875720083714
v 0.26990821957588196 -0.013142685405910015 -0.028580205515027046
v 0.23706984519958496 0.010063466615974903 -0.013502731919288635
v 0.25025230646133423 0.04013322293758392 0.03222719952464104
v 0.2823602855205536 0.005012793466448784 0.02374926023185253
v 0.2295096516609192 0.03781357407569885 0.019417230039834976
v 0.20441238582134247 0.05369626730680466 0.05563078448176384
v 0.22800429165363312 0.02340470440685749 -0.010401353240013123
v 0.22745002806186676 0.010687306523323059 -0.029723064973950386
v 0.25548896193504333 -0.009865038096904755 -0.03195646405220032
v 0.24261467158794403 -0.007135410327464342 -0.030931109562516212
v 0.23088355362415314 0.04975224286317825 0.0707663893699646
v 0.25775963068008423 0.037242285907268524 0.060790084302425385
v 0.21314170956611633 0.050153475254774094 0.07746212184429169
v 0.19907882809638977 0.0520411878824234 0.06560883671045303
v 0.26897993683815 0.02247294783592224 0.03970830515027046
v 0.26915106177330017 0.021282341331243515 0.04796074330806732
v 0.2759157419204712 0.0110436687245965 0.03652366250753403
v 0.28023412823677063 0.009197003208100796 0.0404498316347599
v 0.22060264647006989 0.014003063552081585 -0.0368085540831089
v 0.2847071886062622 -0.02759787254035473 -0.04085491970181465
v 0.27731338143348694 -0.023561103269457817 -0.039454005658626556
v 0.2778143286705017 -0.02781767025589943 -0.05204262584447861
v 0.28207823634147644 -0.016346661373972893 -0.026916401460766792
v 0.3062136769294739 -0.03476094454526901 -0.03081817738711834
v 0.31316083669662476 -0.03216257691383362 -0.008828704245388508
v 0.33063894510269165 -0.0475015714764595 -0.01857682317495346
v 0.3450482189655304 -0.06476296484470367 0.007917653769254684
v 0.31356436014175415 -0.03824705630540848 0.007346947677433491
v 0.2954574525356293 -0.0199905838817358 0.011817686259746552
v 0.2765595316886902 0.004352445714175701 -0.001081295544281602
v 0.3082777261734009 -0.038930702954530716 0.011743223294615746
v 0.3118591904640198 -0.04548415169119835 0.014344079419970512
v 0.2700883448123932 -0.012872480787336826 -0.028765760362148285
v 0.2372489869594574 0.010333646088838577 -0.013688212260603905
v 0.2504313588142395 0.0404038168489933 0.032040808349847794
v 0.282539427280426 0.005282982252538204 0.023563789203763008
v 0.22968879342079163 0.0380837582051754 0.019231749698519707
v 0.20459158718585968 0.0539664551615715 0.05544530600309372
v 0.22818343341350555 0.023673977702856064 -0.010587243363261223
v 0.227629154920578 0.010957497172057629 -0.029908541589975357
v 0.25566810369491577 -0.009594853036105633 -0.032141946256160736
v 0.2427937239408493 -0.006866135634481907 -0.031116999685764313
v 0.23106276988983154 0.050022419542074203 0.07058091461658478
v 0.25793975591659546 0.03751157596707344 0.06060413271188736
v 0.2122676819562912 0.05036903917789459 0.0788203775882721
v 0.199257954955101 0.052310459315776825 0.06542293727397919
v 0.26915907859802246 0.022743135690689087 0.03952282667160034
v 0.2693302035331726 0.021552523598074913 0.0477752722799778
v 0.27609488368034363 0.011314270086586475 0.03633727505803108
v 0.28041335940361023 0.009467189200222492 0.04026436805725098
v 0.22078169882297516 0.014273252338171005 -0.03699404001235962
v 0.27749350666999817 -0.023290902376174927 -0.039639562368392944
v 0.2848862409591675 -0.027328183874487877 -0.04104170575737953
v 0.27799347043037415 -0.027547474950551987 -0.052228108048439026
vn -0.050594694912433624 -0.2486615628004074 0.9672680497169495
vn -0.6931084990501404 0.7202168703079224 0.02980308048427105
vn 0.6358751654624939 0.6906880140304565 -0.3444022536277771
vn -0.6520530581474304 -0.4412961006164551 -0.6165099740028381
vn -0.1492873877286911 -0.18484099209308624 0.9713635444641113
vn -0.11354094743728638 -0.6528908610343933 -0.7488938570022583
vn 0.946945309638977 -0.2506107985973358 -0.20121821761131287
vn -0.04330670088529587 0.9527973532676697 0.30050259828567505
vn -0.1368386149406433 0.7558227777481079 -0.640317976474762
vn -0.8734729290008545 0.47382888197898865 -0.11194247007369995
vn 0.04646305367350578 0.2507591247558594 -0.9669337868690491
vn 0.14811639487743378 0.18552903831005096 -0.9714115858078003
vn -0.8911449909210205 -0.15446306765079498 0.42661669850349426
vn 0.26439592242240906 0.7934642434120178 0.548187255859375
vn 0.6991311311721802 -0.5417246222496033 0.4666370749473572
vn -0.09579282253980637 0.4579129219055176 -0.8838209509849548
vn -0.7366626858711243 -0.1996980458498001 0.6461026668548584
vn 0.3282705545425415 -0.8152626752853394 0.4770588278770447
vn 0.47166669368743896 -0.8354948163032532 -0.28192004561424255
vn 0.6254344582557678 0.30526208877563477 0.7180854678153992
vn 0.6285712718963623 0.7763040661811829 0.04743541032075882
vn 0.02135688252747059 0.9820265173912048 0.18753039836883545
vn 0.8918607831001282 0.1575917750597 -0.42396843433380127
vn 0.7374078631401062 0.2004614919424057 -0.6450153589248657
vn -0.07583390176296234 0.96026611328125 0.2685856223106384
vn -0.1530480831861496 0.9152843952178955 0.37259992957115173
vn -0.420378714799881 0.8892935514450073 0.1801074743270874
vn 0.209878072142601 0.8519894480705261 0.4796510338783264
vn -0.2998276352882385 0.9526026248931885 0.05149519443511963
vn -0.06495127826929092 0.9977818131446838 0.014585147611796856
vn 0.1313549280166626 0.9653152823448181 0.22563780844211578
vn 0.32884320616722107 0.4860262870788574 0.8097164630889893
vn -0.45426827669143677 0.47456419467926025 -0.7539423704147339
vn 0.1039402037858963 0.5098998546600342 -0.8539312481880188
vn 0.7724224328994751 -0.08612046390771866 -0.629243016242981
vn 0.9207240343093872 -0.3188115358352661 -0.22500306367874146
vn 0.7614477276802063 -0.6407468914985657 -0.0981864184141159
vn -0.04483400285243988 -0.9829283356666565 -0.17844267189502716
vn -0.5998128056526184 -0.751301646232605 0.2752644419670105
vn -0.9439331889152527 -0.02624441310763359 0.32909172773361206
vn -0.8926583528518677 0.33884134888648987 -0.2972331941127777
vn -0.3280786871910095 -0.48624131083488464 -0.8098973035812378
vn -0.5363076329231262 0.8439757227897644 0.008892952464520931
vn -0.8077663779258728 0.5187323689460754 0.2800535261631012
vn -0.9188643097877502 0.37708941102027893 0.11615491658449173
vn -0.4419346749782562 0.8857467174530029 0.1419377326965332
vn -0.6972147822380066 0.5486093163490295 0.46143198013305664
vn -0.9691735506057739 0.07588763535022736 0.23440060019493103
vn -0.9928321838378906 -0.00518012372776866 0.11940465867519379
vn -0.3340899348258972 0.9400123357772827 -0.06899826973676682
vn -0.2796967029571533 0.9524202346801758 0.12110093981027603
vn -0.2856445908546448 0.9337635636329651 -0.21562156081199646
vn -0.2938784658908844 0.6856482028961182 0.6659744381904602
vn -0.33009040355682373 0.9229750037193298 -0.19788236916065216
vn -0.30095231533050537 0.9141221046447754 0.2716771066188812
vn -0.1666884422302246 0.9694358706474304 0.18002517521381378
vn -0.3232836127281189 0.8456565737724304 0.42467939853668213
vn -0.5055176615715027 0.38244393467903137 0.7734264731407166
vn -0.5216563940048218 0.8108561635017395 0.26530539989471436
vn -0.8196236491203308 0.43889951705932617 0.3682176172733307
vn -0.8232322335243225 0.5676564574241638 -0.007399771362543106
vn 0.1613403856754303 0.2941204905509949 0.9420522451400757
vn -0.19680318236351013 0.5462595820426941 0.8141676783561707
vn 0.07770372182130814 0.16604790091514587 0.9830514192581177
vn 0.44852086901664734 0.10183487087488174 0.8879520297050476
vn 0.3682797849178314 -0.030962007120251656 0.9291993379592896
vn 0.4087781310081482 0.07516709715127945 0.9095330834388733
vn 0.410045862197876 0.07412732392549515 0.9090476632118225
vn -0.32223668694496155 -0.13079632818698883 0.9375798106193542
vn -0.37622296810150146 -0.42517486214637756 0.8232147693634033
vn -0.2026851624250412 -0.4522760510444641 0.8685418963432312
vn -0.23130962252616882 -0.5148887634277344 0.8254607915878296
vn 0.20688091218471527 -0.18330051004886627 0.9610416889190674
vn 0.2920219302177429 -0.11907333880662918 0.9489703178405762
vn 0.26338765025138855 -0.11431565135717392 0.9578930139541626
vn -0.4361843168735504 -0.3509786128997803 0.8285874724388123
vn -0.5087902545928955 -0.2291945070028305 0.8298207521438599
vn -0.4983748495578766 -0.49738624691963196 0.7100911736488342
vn -0.4285200834274292 -0.1572096347808838 0.8897503614425659
vn -0.5342785716056824 -0.5272272229194641 0.6607403755187988
vn -0.6691462993621826 -0.1470654308795929 0.7284332513809204
vn -0.8674874305725098 0.08427231758832932 0.49026891589164734
vn -0.7872464060783386 -0.23369257152080536 0.5706407427787781
vn -0.721194326877594 0.017201073467731476 0.6925192475318909
vn -0.7041329741477966 0.163107767701149 0.6910806894302368
vn -0.3864269256591797 0.28768017888069153 0.8763071298599243
vn -0.8680223822593689 0.28396135568618774 0.4073120355606079
vn -0.8271993398666382 0.20479066669940948 0.5232608914375305
vn -0.4910292625427246 0.13938333094120026 0.859920084476471
vn -0.610534131526947 0.6440816521644592 0.4608761966228485
vn -0.49625980854034424 0.8524152040481567 0.16466470062732697
vn -0.6432332396507263 0.740439772605896 0.19493579864501953
vn -0.3783324658870697 0.9167296290397644 0.12834055721759796
vn -0.4944366216659546 0.7702757120132446 0.40275025367736816
vn -0.19599580764770508 0.9405194520950317 0.2775043845176697
vn 0.6777313351631165 -0.5723687410354614 -0.461599737405777
vn 0.4676720201969147 -0.4464251697063446 -0.7628810405731201
vn 0.3013969361782074 0.7500097751617432 -0.5887658596038818
vn 0.9300937652587891 0.185621440410614 -0.31697049736976624
vn 0.6777313351631165 -0.5723687410354614 -0.461599737405777
vn 0.6777313351631165 -0.5723687410354614 -0.461599737405777
vn -0.7408512830734253 -0.594713032245636 -0.3121792674064636
vn 0.300575315952301 -0.8962441086769104 0.32619160413742065
vn 0.3798653185367584 -0.9104959964752197 -0.16339968144893646
vn 0.05198437720537186 -0.44901448488235474 -0.8920109868049622
vn -0.5245012044906616 -0.6185466051101685 0.5850629210472107
vn 0.300575315952301 -0.8962441086769104 0.32619160413742065
vn 0.05198437720537186 -0.44901448488235474 -0.8920109868049622
vn 0.4676720201969147 -0.4464251697063446 -0.7628810405731201
vn 0.051956258714199066 0.05466952174901962 -0.9971518516540527
vn -0.1650690883398056 -0.5684185028076172 -0.8060103058815002
vn 0.05198437720537186 -0.44901448488235474 -0.8920109868049622
vn 0.05198437720537186 -0.44901448488235474 -0.8920109868049622
vn 0.7468734979629517 -0.5893367528915405 0.30799728631973267
vn -0.8075771331787109 -0.14379924535751343 -0.5719624757766724
vn 0.300575315952301 -0.8962441086769104 0.32619160413742065
vn 0.4204008877277374 -0.8892817497253418 -0.1801142394542694
vn 0.15304966270923615 -0.9152765274047852 -0.37261882424354553
vn 0.07582739740610123 -0.9602625966072083 -0.2686000466346741
vn -0.2099037766456604 -0.851971447467804 -0.4796717166900635
vn 0.29984045028686523 -0.9525982737541199 -0.05149960517883301
vn 0.06493785977363586 -0.9977826476097107 -0.014589187689125538
vn -0.13138297200202942 -0.9653093814849854 -0.22564660012722015
vn 0.918869137763977 -0.3770877718925476 -0.11612208932638168
vn 0.8077650666236877 -0.5187390446662903 -0.2800454795360565
vn 0.5362956523895264 -0.8439835906028748 -0.008867130614817142
vn 0.441904217004776 -0.8857643008232117 -0.14192326366901398
vn 0.6972119808197021 -0.5486112833023071 -0.46143367886543274
vn 0.9691740870475769 -0.07586254924535751 -0.23440653085708618
vn 0.9928330183029175 0.0051881093531847 -0.11939740926027298
vn 0.2855934500694275 -0.9337422847747803 0.2157817929983139
vn 0.2797325551509857 -0.9524148106575012 -0.12106065452098846
vn 0.33403950929641724 -0.9400206804275513 0.06912904232740402
vn 0.29388463497161865 -0.6856367588043213 -0.6659834980964661
vn 0.32996830344200134 -0.9229770302772522 0.1980765014886856
vn 0.30097681283950806 -0.9141201376914978 -0.27165669202804565
vn 0.16672493517398834 -0.9694362878799438 -0.17998942732810974
vn 0.32328104972839355 -0.8456655144691467 -0.42466363310813904
vn 0.5055150389671326 -0.38244760036468506 -0.7734264731407166
vn 0.521648108959198 -0.8108609318733215 -0.26530686020851135
vn 0.819618284702301 -0.43890371918678284 -0.36822453141212463
vn 0.8232376575469971 -0.5676488280296326 0.007394648157060146
vn -0.1613302379846573 -0.2941493093967438 -0.9420449733734131
vn 0.19679832458496094 -0.5462267994880676 -0.8141908049583435
vn -0.07768892496824265 -0.16605208814144135 -0.9830518960952759
vn -0.4485146999359131 -0.10188765823841095 -0.8879489898681641
vn -0.36831626296043396 0.030968910083174706 -0.92918461561203
vn -0.4088907837867737 -0.075189970433712 -0.9094805121421814
vn -0.41020116209983826 -0.07411552965641022 -0.9089784622192383
vn 0.3222449719905853 0.13080453872680664 -0.9375758171081543
vn 0.3762161433696747 0.4251735806465149 -0.8232186436653137
vn 0.2026754915714264 0.45224863290786743 -0.8685584664344788
vn 0.23132666945457458 0.5148770809173584 -0.8254631757736206
vn -0.2068440467119217 0.18330919742584229 -0.9610480666160583
vn -0.29203513264656067 0.1191231831908226 -0.94896000623703
vn -0.263444721698761 0.11437313258647919 -0.957870364189148
vn 0.43624746799468994 0.3509901165962219 -0.828549325466156
vn 0.5088381171226501 0.22914475202560425 -0.8298050761222839
vn 0.4984133243560791 0.49740248918533325 -0.7100526690483093
vn 0.42862197756767273 0.15731029212474823 -0.8896835446357727
vn 0.53425532579422 0.5272372961044312 -0.6607511639595032
vn 0.6691416501998901 0.14707061648368835 -0.7284364700317383
vn 0.8674888014793396 -0.08425796031951904 -0.4902690649032593
vn 0.7872569561004639 0.23370137810707092 -0.5706225037574768
vn 0.7212019562721252 -0.017172494903206825 -0.692512035369873
vn 0.7041061520576477 -0.16308467090129852 -0.6911135315895081
vn 0.386354923248291 -0.287706196308136 -0.8763304352760315
vn 0.8680151104927063 -0.2839450240135193 -0.40733909606933594
vn 0.8272112011909485 -0.20475798845291138 -0.5232549905776978
vn 0.49099498987197876 -0.13933145999908447 -0.8599480390548706
vn 0.6432371139526367 -0.7404336333274841 -0.19494611024856567
vn 0.49625322222709656 -0.8524239659309387 -0.16463954746723175
vn 0.6105545163154602 -0.644088625907898 -0.4608396589756012
vn 0.3783361613750458 -0.9167263507843018 -0.12835358083248138
vn 0.4944201707839966 -0.7702934145927429 -0.4027366042137146
vn 0.19596867263317108 -0.9405180811882019 -0.2775283753871918
vn -0.510534942150116 0.40435877442359924 0.7588465213775635
vn 0.501474142074585 -0.1295647770166397 0.8554159998893738
vn -0.1355048418045044 -0.671776294708252 0.7282547950744629
vn 0.6777313351631165 -0.5723687410354614 -0.461599737405777
vn 0.024077756330370903 -0.9531106352806091 0.30166253447532654
vn 0.9300937652587891 0.185621440410614 -0.31697049736976624
vn 0.600591242313385 0.7118499875068665 0.36408767104148865
vn -0.17060120403766632 0.9709647297859192 -0.16769830882549286
vn 0.9353318810462952 0.3530520498752594 -0.0225514005869627
vn 0.014693206176161766 0.7247357964515686 -0.6888701319694519
vn 0.3798653185367584 -0.9104959964752197 -0.16339968144893646
vn 0.526610791683197 0.6230294704437256 -0.5783730149269104
vn -0.17060120403766632 0.9709647297859192 -0.16769830882549286
vn -0.510534942150116 0.40435877442359924 0.7588465213775635
vn -0.7890723943710327 0.4422488510608673 -0.4263576567173004
vn -0.901493489742279 -0.41899919509887695 0.10839278250932693
vn -0.1355048418045044 -0.671776294708252 0.7282547950744629
vn 0.014693206176161766 0.7247357964515686 -0.6888701319694519
vn 0.05198437720537186 -0.44901448488235474 -0.8920109868049622
vn 0.024077756330370903 -0.9531106352806091 0.30166253447532654
vn 0.051956258714199066 0.05466952174901962 -0.9971518516540527
vn 0.05198437720537186 -0.44901448488235474 -0.8920109868049622
vn -0.1650690883398056 -0.5684185028076172 -0.8060103058815002
vn 0.05198437720537186 -0.44901448488235474 -0.8920109868049622
vn -0.7757996916770935 0.5539103150367737 -0.3021891713142395
vn -0.8075771331787109 -0.14379924535751343 -0.5719624757766724
vn 0.9616798162460327 0.016950614750385284 -0.27365046739578247
vn 0.23347319662570953 0.61539626121521 0.752846360206604
vn 0.7318768501281738 0.5494257807731628 -0.4030974507331848
vn 0.4633050858974457 0.08291953057050705 0.8823111057281494
vn -0.2790948152542114 0.8066935539245605 0.5209141969680786
vn 0.21933062374591827 0.7407326698303223 -0.634987473487854
vn -0.7741407155990601 0.5447447896003723 0.32242730259895325
vn -0.27576783299446106 0.478808730840683 -0.8334832787513733
vn -0.96168452501297 -0.016970084980130196 0.27363258600234985
vn -0.46330463886260986 -0.08293170481920242 -0.8823100924491882
vn -0.7318817973136902 -0.5494271516799927 0.40308669209480286
vn -0.23348355293273926 -0.6153951287269592 -0.7528440952301025
vn -0.2193068563938141 -0.740731954574585 0.6349965929985046
vn 0.2790979743003845 -0.8066921234130859 -0.5209146738052368
vn 0.275736004114151 -0.4787963330745697 0.833500862121582
vn 0.7741315364837646 -0.5447512269020081 -0.32243815064430237
vn 0.4633050858974457 0.08291953057050705 0.8823111057281494
vn 0.9616798162460327 0.016950614750385284 -0.27365046739578247
vn 0.7741315364837646 -0.5447512269020081 -0.32243815064430237
vn 0.7318768501281738 0.5494257807731628 -0.4030974507331848
vn 0.2790979743003845 -0.8066921234130859 -0.5209146738052368
vn 0.9616798162460327 0.016950614750385284 -0.27365046739578247
vn -0.23348355293273926 -0.6153951287269592 -0.7528440952301025
vn 0.21933062374591827 0.7407326698303223 -0.634987473487854
vn -0.46330463886260986 -0.08293170481920242 -0.8823100924491882
vn -0.27576783299446106 0.478808730840683 -0.8334832787513733
vn -0.2790948152542114 0.8066935539245605 0.5209141969680786
vn 0.4633050858974457 0.08291953057050705 0.8823111057281494
vn 0.275736004114151 -0.4787963330745697 0.833500862121582
vn 0.23347319662570953 0.61539626121521 0.752846360206604
vn -0.7741407155990601 0.5447447896003723 0.32242730259895325
vn -0.2193068563938141 -0.740731954574585 0.6349965929985046
vn -0.96168452501297 -0.016970084980130196 0.27363258600234985
vn -0.7318817973136902 -0.5494271516799927 0.40308669209480286
vn -0.30796927213668823 0.8581433892250061 0.41078561544418335
vn -0.8708926439285278 -0.4810020327568054 -0.10091134905815125
vn -0.8592994213104248 0.48415639996528625 -0.16491539776325226
vn -0.32482847571372986 -0.7936040163040161 0.5144698023796082
vn 0.2566203474998474 0.06342311948537827 0.9644290804862976
vn 0.19241663813591003 0.7257593870162964 0.6604915857315063
vn 0.9878413081169128 0.0050288778729736805 0.15538401901721954
vn 0.7355656027793884 0.6739576458930969 0.06873372197151184
vn 0.3946042060852051 0.6319708228111267 -0.6670084595680237
vn 0.5372540950775146 -0.05941157415509224 -0.8413254022598267
vn -0.15845297276973724 0.7872596383094788 -0.5959151387214661
vn 0.1825447678565979 -0.6332548260688782 0.7521076202392578
vn 0.7286502122879028 -0.6665090918540955 0.15758970379829407
vn 0.38996145129203796 -0.7193145751953125 -0.5749056339263916
vn -0.17275340855121613 -0.8567893505096436 -0.48586854338645935
vn -0.8708926439285278 -0.4810020327568054 -0.10091134905815125
vn -0.8592994213104248 0.48415639996528625 -0.16491539776325226
vn -0.8592994213104248 0.48415639996528625 -0.16491539776325226
vn -0.15845297276973724 0.7872596383094788 -0.5959151387214661
vn -0.10654018819332123 0.9905239939689636 -0.08666767925024033
vn 0.3946042060852051 0.6319708228111267 -0.6670084595680237
vn 0.7355656027793884 0.6739576458930969 0.06873372197151184
vn -0.30796927213668823 0.8581433892250061 0.41078561544418335
vn 0.19241663813591003 0.7257593870162964 0.6604915857315063
vn -0.1293962001800537 -0.9904950857162476 0.04664731025695801
vn -0.17275340855121613 -0.8567893505096436 -0.48586854338645935
vn -0.8708926439285278 -0.4810020327568054 -0.10091134905815125
vn 0.38996145129203796 -0.7193145751953125 -0.5749056339263916
vn 0.7286502122879028 -0.6665090918540955 0.15758970379829407
vn 0.1825447678565979 -0.6332548260688782 0.7521076202392578
vn -0.32482847571372986 -0.7936040163040161 0.5144698023796082
vn 0.3643947243690491 -0.06595057249069214 -0.928906261920929
vn 0.4282192289829254 -0.06857059895992279 -0.9010695815086365
vn 0.3643958866596222 -0.06595220416784286 -0.9289057850837708
vn 0.4471588432788849 -0.06430161744356155 -0.8921403288841248
vn 0.477045476436615 -0.15136605501174927 -0.8657459616661072
vn 0.49511298537254333 -0.15157924592494965 -0.8555038571357727
vn 0.45072484016418457 -0.17963796854019165 -0.8744010925292969
vn 0.34775611758232117 -0.16754955053329468 -0.9224926829338074
vn 0.31787070631980896 -0.0904945358633995 -0.9438055753707886
vn 0.3299753963947296 -0.027739278972148895 -0.9435818791389465
vn 0.33568015694618225 -0.19964301586151123 -0.9205766916275024
vn 0.37753012776374817 -0.16481441259384155 -0.9112119674682617
vn 0.36673009395599365 -0.1298648864030838 -0.9212188720703125
vn 0.38400769233703613 -0.1888267993927002 -0.9038155674934387
vn -0.14874300360679626 -0.7160002589225769 0.682069718837738
vn 0.7572246193885803 0.5013278126716614 0.4186660647392273
vn 0.6838195323944092 -0.4506942331790924 0.5738165974617004
vn -0.021254442632198334 0.9116788506507874 0.4103533923625946
vn -0.8450928330421448 0.14642681181430817 0.5141763687133789
vn -0.6674289107322693 -0.5627676248550415 0.48767954111099243
vn -0.825986385345459 -0.034669432789087296 -0.5626227855682373
vn -0.6584343314170837 -0.686920702457428 -0.30757808685302734
vn 0.09143353253602982 -0.7951675653457642 -0.5994568467140198
vn 0.18246477842330933 -0.17466294765472412 -0.9675740003585815
vn 0.42948928475379944 -0.8921899199485779 -0.13977178931236267
vn -0.569676399230957 0.7776762843132019 0.2658728361129761
vn -0.5631394386291504 0.6346048712730408 -0.5292925834655762
vn 0.18412069976329803 0.5375207662582397 -0.8229040503501892
vn 0.5498649477958679 0.7293449640274048 -0.4070679843425751
vn 0.7572246193885803 0.5013278126716614 0.4186660647392273
vn 0.6838195323944092 -0.4506942331790924 0.5738165974617004
vn 0.6838195323944092 -0.4506942331790924 0.5738165974617004
vn 0.42948928475379944 -0.8921899199485779 -0.13977178931236267
vn 0.025167245417833328 -0.9739858508110046 0.2252071052789688
vn 0.09143353253602982 -0.7951675653457642 -0.5994568467140198
vn -0.6584343314170837 -0.686920702457428 -0.30757808685302734
vn -0.14874300360679626 -0.7160002589225769 0.682069718837738
vn -0.6674289107322693 -0.5627676248550415 0.48767954111099243
vn 0.173907071352005 0.98039710521698 -0.09261623024940491
vn 0.5498649477958679 0.7293449640274048 -0.4070679843425751
vn 0.7572246193885803 0.5013278126716614 0.4186660647392273
vn 0.18412069976329803 0.5375207662582397 -0.8229040503501892
vn -0.5631394386291504 0.6346048712730408 -0.5292925834655762
vn -0.569676399230957 0.7776762843132019 0.2658728361129761
vn -0.021254442632198334 0.9116788506507874 0.4103533923625946
vn 0.20018379390239716 0.19134731590747833 -0.9608916640281677
vn 0.18881088495254517 0.20552688837051392 -0.9602652192115784
vn 0.3234952986240387 0.03805389255285263 -0.9454642534255981
vn 0.36640113592147827 -0.00828006025403738 -0.9304202198982239
vn 0.2800871431827545 0.2741175591945648 -0.9200058579444885
vn 0.011882727034389973 0.49157077074050903 -0.8707565069198608
vn 0.0328536219894886 0.5501032471656799 -0.8344501256942749
vn -0.20771196484565735 0.5156475901603699 -0.831242024898529
vn 0.014378651976585388 0.4697189927101135 -0.8826988935470581
vn 0.45418456196784973 0.3678264319896698 -0.8114308714866638
vn 0.521373450756073 0.18324734270572662 -0.8334208130836487
vn 0.4881419539451599 0.3268553614616394 -0.8092484474182129
vn 0.46563974022865295 0.3658430874347687 -0.8058154582977295
vn 0.34120866656303406 0.3508358299732208 -0.8720613121986389
vn 0.46203839778900146 -0.02411002852022648 -0.8865321278572083
vn 0.22680878639221191 0.3163851499557495 -0.921117901802063
vn 0.29041436314582825 0.2958543598651886 -0.9100162386894226
vn 0.2908749282360077 0.2945575416088104 -0.9102898836135864
vn 0.04843645542860031 -0.9878040552139282 -0.14797596633434296
vn 0.6335736513137817 -0.45787280797958374 0.6236480474472046
vn 0.7846762537956238 -0.5885732769966125 0.19458860158920288
vn 0.05097658559679985 -0.9420166015625 0.33167171478271484
vn 0.11675366759300232 -0.9226809144020081 -0.3674623668193817
vn 0.9430344104766846 -0.29505741596221924 -0.15371112525463104
vn -0.19668637216091156 -0.5628535151481628 0.8028141260147095
vn -0.41482481360435486 -0.4866424798965454 0.7688299417495728
vn 0.36005792021751404 -0.19516867399215698 0.9122869372367859
vn 0.22526848316192627 0.36782968044281006 0.9021947979927063
vn -0.6345056295394897 0.2401924431324005 0.7346497178077698
vn -0.5704883933067322 0.658465564250946 0.4908829629421234
vn 0.3658722937107086 0.763089656829834 0.5327585935592651
vn 0.7804727554321289 0.14237956702709198 0.6087613105773926
vn 0.6627281904220581 0.7481095194816589 0.03351961821317673
vn 0.8560221791267395 0.15122488141059875 0.4943249523639679
vn 0.4308032989501953 0.8937836289405823 -0.12473729252815247
vn 0.5910534858703613 0.4695099890232086 -0.6559085249900818
vn 0.887754499912262 0.1393168717622757 0.4387286603450775
vn 0.1405382752418518 0.9046851396560669 0.40223604440689087
vn 0.9266937375068665 0.3320542871952057 -0.17600734531879425
vn 0.5509555339813232 0.2448134422302246 -0.7978184819221497
vn 0.36460718512535095 -0.35580703616142273 -0.8605015277862549
vn 0.07005572319030762 0.3536582291126251 0.9327476024627686
vn 0.3086116313934326 -0.7279917597770691 0.6121984124183655
vn 0.06753317266702652 -0.26975974440574646 0.9605566263198853
vn 0.6520492434501648 -0.7526065111160278 0.0917341411113739
vn 0.31469228863716125 0.7770982980728149 0.5450568795204163
vn 0.8966917991638184 -0.3291785418987274 -0.29594820737838745
vn 0.6581558585166931 0.7524802088737488 0.024585217237472534
vn 0.8992118239402771 0.29424935579299927 -0.32378286123275757
vn 0.04843645542860031 -0.9878040552139282 -0.14797596633434296
vn -0.8537603616714478 -0.13725529611110687 -0.5022491812705994
vn 0.05097658559679985 -0.9420166015625 0.33167171478271484
vn -0.9077926874160767 -0.017119133844971657 -0.4190695881843567
vn -0.19668637216091156 -0.5628535151481628 0.8028141260147095
vn -0.41482481360435486 -0.4866424798965454 0.7688299417495728
vn -0.8040754795074463 -0.167324498295784 -0.57049560546875
vn -0.6345056295394897 0.2401924431324005 0.7346497178077698
vn -0.5704883933067322 0.658465564250946 0.4908829629421234
vn -0.8583757877349854 -0.1356804370880127 -0.4947541654109955
vn -0.8991947770118713 -0.041906364262104034 -0.435537189245224
vn 0.11675366759300232 -0.9226809144020081 -0.3674623668193817
vn 0.36460718512535095 -0.35580703616142273 -0.8605015277862549
vn -0.7963179349899292 0.09174682945013046 -0.5978798270225525
vn 0.5509555339813232 0.2448134422302246 -0.7978184819221497
vn 0.5910534858703613 0.4695099890232086 -0.6559085249900818
vn -0.8128511905670166 0.1564287394285202 -0.5610730648040771
vn 0.4308032989501953 0.8937836289405823 -0.12473729252815247
vn 0.1405382752418518 0.9046851396560669 0.40223604440689087
vn -0.5284091234207153 0.41803979873657227 0.738936185836792
vn 0.06753317266702652 -0.26975974440574646 0.9605566263198853
vn -0.5315065383911133 -0.34629786014556885 0.7730320692062378
vn 0.07005572319030762 0.3536582291126251 0.9327476024627686
vn 0.36005792021751404 -0.19516867399215698 0.9122869372367859
vn 0.22526848316192627 0.36782968044281006 0.9021947979927063
vn 0.3658722937107086 0.763089656829834 0.5327585935592651
vn -0.22847989201545715 0.9371798634529114 0.2636110484600067
vn 0.31469228863716125 0.7770982980728149 0.5450568795204163
vn 0.3086116313934326 -0.7279917597770691 0.6121984124183655
vn -0.23594851791858673 -0.9081060886383057 0.34593597054481506
vn 0.6335736513137817 -0.45787280797958374 0.6236480474472046
vn 0.6627281904220581 0.7481095194816589 0.03351961821317673
vn 0.1926104575395584 0.9070064425468445 -0.3744869828224182
vn 0.6581558585166931 0.7524802088737488 0.024585217237472534
vn 0.6520492434501648 -0.7526065111160278 0.0917341411113739
vn 0.18513432145118713 -0.9382766485214233 -0.2921680510044098
vn 0.7846762537956238 -0.5885732769966125 0.19458860158920288
vn 0.9266937375068665 0.3320542871952057 -0.17600734531879425
vn 0.4881667196750641 0.34519821405410767 -0.801580548286438
vn 0.8992118239402771 0.29424935579299927 -0.32378286123275757
vn 0.8966917991638184 -0.3291785418987274 -0.29594820737838745
vn 0.4850703775882721 -0.41914230585098267 -0.7674804925918579
vn 0.9430344104766846 -0.29505741596221924 -0.15371112525463104
vn 0.4881667196750641 0.34519821405410767 -0.801580548286438
vn 0.9266937375068665 0.3320542871952057 -0.17600734531879425
vn 0.8992118239402771 0.29424935579299927 -0.32378286123275757
vn -0.009832170791924 0.9936208128929138 0.11234285682439804
vn -0.2585509419441223 0.8866713643074036 0.3833604156970978
vn -0.4354400932788849 0.9001109004020691 -0.013866350054740906
vn -0.041379138827323914 0.7544129490852356 0.655094563961029
vn -0.017507748678326607 0.7985475063323975 0.6016771197319031
vn 0.4470388889312744 0.5045107007026672 0.7386645078659058
vn 0.9715930223464966 -0.14901207387447357 0.18385429680347443
vn 0.8103364706039429 -0.10987681150436401 -0.5755708813667297
vn 0.14127661287784576 -0.09592875838279724 -0.9853115081787109
vn -0.43890488147735596 0.7258701324462891 -0.5295990109443665
vn 0.4470388889312744 0.5045107007026672 0.7386645078659058
vn 0.14127661287784576 -0.09592875838279724 -0.9853115081787109
vn -0.43890488147735596 0.7258701324462891 -0.5295990109443665
vn 0.9715930223464966 -0.14901207387447357 0.18385429680347443
vn 0.8103364706039429 -0.10987681150436401 -0.5755708813667297
vn -0.6516603231430054 -0.7578942179679871 0.030580731108784676
vn -0.5530818700790405 -0.7888525128364563 0.26797792315483093
vn -0.43086981773376465 -0.7622367143630981 0.48305943608283997
vn -0.6541110873222351 -0.7562034726142883 0.0171742532402277
vn -0.6617008447647095 -0.7315566539764404 -0.16424617171287537
vn -0.6392782926559448 -0.6379967331886292 -0.42928239703178406
vn -0.7543769478797913 -0.635870635509491 -0.16304601728916168
vn -0.5633383989334106 -0.7343845963478088 0.3785882592201233
vn -0.5352823138237 -0.4514687955379486 -0.7138968706130981
vn -0.49545153975486755 -0.5406543016433716 -0.6798681616783142
vn -0.30533647537231445 -0.7787190675735474 0.5480567216873169
vn -0.4749389588832855 -0.7127724885940552 0.5161283016204834
vn -0.4243604838848114 -0.8569293022155762 0.29255810379981995
vn -0.7519667744636536 -0.6280167102813721 0.2003519982099533
vn -0.2518536150455475 -0.8452932834625244 0.4712206721305847
vn -0.10587149858474731 -0.9941427111625671 0.02171744406223297
vn -0.7340332865715027 -0.581616222858429 0.35059624910354614
vn -0.705254077911377 -0.582732617855072 0.4037814140319824
vn -0.2519789934158325 -0.7725628614425659 0.5827977657318115
vn -0.09909258782863617 -0.7238560318946838 0.6827980875968933
vn -0.22712036967277527 -0.9733448624610901 0.03187895566225052
vn -0.5667190551757812 -0.8227471113204956 0.04377893730998039
vn -0.05428014695644379 -0.9888367652893066 -0.1387646198272705
vn 0.003793728305026889 -0.9868389964103699 -0.16166144609451294
vn -0.7786665558815002 -0.624828577041626 0.05716341361403465
vn -0.8270429968833923 -0.5617334246635437 -0.02134122885763645
vn -0.6778360605239868 -0.6997687220573425 0.22552600502967834
vn -0.5974302887916565 -0.7399678826332092 0.30907052755355835
vn -0.7025629281997681 -0.5849977135658264 0.40519508719444275
vn -0.38094058632850647 -0.8353073000907898 0.3964163064956665
vn -0.35535866022109985 -0.8155450224876404 0.45673462748527527
vn -0.41986826062202454 -0.8647050857543945 0.27567315101623535
vn 0.43085625767707825 0.7622464895248413 -0.48305609822273254
vn 0.5531020164489746 0.7888458371162415 -0.2679557502269745
vn 0.6516610383987427 0.7578940391540527 -0.03056889958679676
vn 0.6540933847427368 0.7562190890312195 -0.01716536283493042
vn 0.6616770029067993 0.7315775156021118 0.16424936056137085
vn 0.6392821073532104 0.6379876136779785 0.4292902946472168
vn 0.7543858885765076 0.635863721370697 0.16303163766860962
vn 0.5633408427238464 0.7343853116035461 -0.37858328223228455
vn 0.5352979898452759 0.45142990350723267 0.7139097452163696
vn 0.49547579884529114 0.5406048893928528 0.6798897981643677
vn 0.30529868602752686 0.7787291407585144 -0.5480635762214661
vn 0.47492536902427673 0.7127776145935059 -0.5161335468292236
vn 0.424355149269104 0.8569306135177612 -0.29256194829940796
vn 0.7519704103469849 0.6280123591423035 -0.20035241544246674
vn 0.25182101130485535 0.8452959656715393 -0.4712335169315338
vn 0.10524946451187134 0.9941396713256836 -0.024677593261003494
vn 0.7340137958526611 0.5816340446472168 -0.3506072163581848
vn 0.7052448987960815 0.5827494263648987 -0.40377315878868103
vn 0.2519506812095642 0.7725562453269958 -0.5828188061714172
vn 0.09905809164047241 0.7238423824310303 -0.6828173995018005
vn 0.22525545954704285 0.9738283157348633 -0.030303122475743294
vn 0.566738486289978 0.8227344751358032 -0.043766386806964874
vn 0.05369780585169792 0.9894383549690247 0.13464060425758362
vn -0.013814179226756096 0.9875775575637817 0.15652433037757874
vn 0.7786704897880554 0.6248242855072021 -0.057156212627887726
vn 0.8270453214645386 0.5617299675941467 0.02134450525045395
vn 0.6778679490089417 0.699760377407074 -0.2254561185836792
vn 0.5974787473678589 0.7399638891220093 -0.3089864253997803
vn 0.7025543451309204 0.5850139856338501 -0.4051864445209503
vn 0.35535484552383423 0.8155205249786377 -0.4567814767360687
vn 0.3809719681739807 0.8352850079536438 -0.3964332640171051
vn 0.41992083191871643 0.8646726012229919 -0.27569520473480225
vt 0.745174765586853 0.43308115005493164
vt 0.7750567197799683 0.39099353551864624
vt 0.7931360602378845 0.4642854332923889
vt 0.7031043171882629 0.41680246591567993
vt 0.7128790020942688 0.4854205846786499
vt 0.6660550236701965 0.4572405219078064
vt 0.7546898126602173 0.5237986445426941
vt 0.6721277236938477 0.4922744035720825
vt 0.6972975730895996 0.5036004185676575
vt 0.7174939513206482 0.5328269004821777
vt 0.745174765586853 0.43308115005493164
vt 0.7128790020942688 0.4854205846786499
vt 0.745174765586853 0.43308115005493164
vt 0.7750567197799683 0.39099353551864624
vt 0.7931360602378845 0.4642854332923889
vt 0.7031043171882629 0.41680246591567993
vt 0.7128790020942688 0.4854205846786499
vt 0.6660550236701965 0.4572405219078064
vt 0.7546898126602173 0.5237986445426941
vt 0.6704195737838745 0.48783791065216064
vt 0.6972975730895996 0.5036004185676575
vt 0.7174939513206482 0.5328269004821777
vt 0.745174765586853 0.43308115005493164
vt 0.7128790020942688 0.4854205846786499
vt 0.7394000291824341 0.4559999704360962
vt 0.7508000135421753 0.37459999322891235
vt 0.8007000088691711 0.4228000044822693
vt 0.6876000165939331 0.41860002279281616
vt 0.7822999954223633 0.4908999800682068
vt 0.7458000183105469 0.5191999971866608
vt 0.6812000274658203 0.5250000059604645
vt 0.7282765507698059 0.4694526195526123
vt 0.7910928726196289 0.4565451145172119
vt 0.7757271528244019 0.5163551568984985
vt 0.7422336339950562 0.531694233417511
vt 0.7226161360740662 0.5089997053146362
vt 0.6651079654693604 0.4992644786834717
vt 0.6620665192604065 0.4533342123031616
vt 0.7017040848731995 0.40188539028167725
vt 0.7661415338516235 0.3876379132270813
vt 0.7857375144958496 0.3981083631515503
vt 0.7282765507698059 0.4694526195526123
vt 0.663750171661377 0.4681081175804138
vt 0.7341127991676331 0.4544525146484375
vt 0.7005451321601868 0.5085420310497284
vt 0.6848325729370117 0.4194011092185974
vt 0.7727479934692383 0.38596802949905396
vt 0.7901049852371216 0.49255669116973877
vt 0.7478355169296265 0.5328374207019806
vt 0.9333999752998352 0.726500004529953
vt 0.9039000272750854 0.722900003194809
vt 0.9190000295639038 0.731799989938736
vt 0.892300009727478 0.6782999932765961
vt 0.9352999925613403 0.7396000027656555
vt 0.8694999814033508 0.7138999998569489
vt 0.9027000069618225 0.7391999959945679
vt 0.8446000218391418 0.6811000108718872
vt 0.8378999829292297 0.6168999969959259
vt 0.7832000255584717 0.6827999949455261
vt 0.7656000256538391 0.6342000067234039
vt 0.7366999983787537 0.6751999855041504
vt 0.9261000156402588 0.6450000107288361
vt 0.9408000111579895 0.6838000118732452
vt 0.9068999886512756 0.6028000116348267
vt 0.9542999863624573 0.631199985742569
vt 0.9664999842643738 0.5929999947547913
vt 0.9726999998092651 0.6123000085353851
vt 0.9851999878883362 0.6010000109672546
vt 0.8834999799728394 0.5667000114917755
vt 0.8447999954223633 0.5259999930858612
vt 0.885200023651123 0.5290000140666962
vt 0.8761000037193298 0.4876999855041504
vt 0.9218000173568726 0.5523999929428101
vt 0.9664000272750854 0.5600000023841858
vt 0.9891999959945679 0.5769000053405762
vt 0.8414999842643738 0.46390002965927124
vt 0.8521999716758728 0.454800009727478
vt 0.8203999996185303 0.47119998931884766
vt 0.8384000062942505 0.455299973487854
vt 0.8015999794006348 0.5157999992370605
vt 0.8029000163078308 0.5528999865055084
vt 0.7581999897956848 0.5864000022411346
vt 0.7599999904632568 0.5361999869346619
vt 0.7153000235557556 0.5480000078678131
vt 0.7087000012397766 0.5719000101089478
vt 0.6924999952316284 0.5629000067710876
vt 0.7450000047683716 0.6263999938964844
vt 0.7150999903678894 0.6046000123023987
vt 0.6894000172615051 0.5774999856948853
vt 0.7245000004768372 0.7416000068187714
vt 0.7476000189781189 0.7346999943256378
vt 0.7286999821662903 0.7247999906539917
vt 0.7734000086784363 0.7495000064373016
vt 0.742900013923645 0.7477000057697296
vt 0.8123000264167786 0.7245000004768372
vt 0.203669935464859 0.2314477562904358
vt 0.19293327629566193 0.18004250526428223
vt 0.2535056471824646 0.1897057294845581
vt 0.2490207999944687 0.23218101263046265
vt 0.203669935464859 0.2314477562904358
vt 0.203669935464859 0.2314477562904358
vt 0.1482105702161789 0.2188485860824585
vt 0.1493249535560608 0.14619141817092896
vt 0.16201454401016235 0.2454494833946228
vt 0.2158038169145584 0.1161879301071167
vt 0.11956953257322311 0.17468780279159546
vt 0.1493249535560608 0.14619141817092896
vt 0.2158038169145584 0.1161879301071167
vt 0.19293327629566193 0.18004250526428223
vt 0.23687432706356049 0.1266811490058899
vt 0.2633562386035919 0.14741390943527222
vt 0.2158038169145584 0.1161879301071167
vt 0.2158038169145584 0.1161879301071167
vt 0.16520905494689941 0.11880594491958618
vt 0.18549537658691406 0.0939931869506836
vt 0.1493249535560608 0.14619141817092896
vt 0.8007000088691711 0.4228000044822693
vt 0.7508000135421753 0.37459999322891235
vt 0.7394000291824341 0.4559999704360962
vt 0.6876000165939331 0.41860002279281616
vt 0.7822999954223633 0.4908999800682068
vt 0.7458000183105469 0.5191999971866608
vt 0.6812000274658203 0.5250000059604645
vt 0.7005451321601868 0.5085420310497284
vt 0.7341127991676331 0.4544525146484375
vt 0.663750171661377 0.4681081175804138
vt 0.6848325729370117 0.4194011092185974
vt 0.7727479934692383 0.38596802949905396
vt 0.7901049852371216 0.49255669116973877
vt 0.7478355169296265 0.5328374207019806
vt 0.9190000295639038 0.731799989938736
vt 0.9039000272750854 0.722900003194809
vt 0.9333999752998352 0.726500004529953
vt 0.892300009727478 0.6782999932765961
vt 0.9352999925613403 0.7396000027656555
vt 0.8694999814033508 0.7138999998569489
vt 0.9027000069618225 0.7391999959945679
vt 0.8446000218391418 0.6811000108718872
vt 0.8378999829292297 0.6168999969959259
vt 0.7832000255584717 0.6827999949455261
vt 0.7656000256538391 0.6342000067234039
vt 0.7366999983787537 0.6751999855041504
vt 0.9261000156402588 0.6450000107288361
vt 0.9408000111579895 0.6838000118732452
vt 0.9068999886512756 0.6028000116348267
vt 0.9542999863624573 0.631199985742569
vt 0.9664999842643738 0.5929999947547913
vt 0.9726999998092651 0.6123000085353851
vt 0.9851999878883362 0.6010000109672546
vt 0.8834999799728394 0.5667000114917755
vt 0.8447999954223633 0.5259999930858612
vt 0.885200023651123 0.5290000140666962
vt 0.8761000037193298 0.4876999855041504
vt 0.9218000173568726 0.5523999929428101
vt 0.9664000272750854 0.5600000023841858
vt 0.9891999959945679 0.5769000053405762
vt 0.8414999842643738 0.46390002965927124
vt 0.8521999716758728 0.454800009727478
vt 0.8203999996185303 0.47119998931884766
vt 0.8384000062942505 0.455299973487854
vt 0.8015999794006348 0.5157999992370605
vt 0.8029000163078308 0.5528999865055084
vt 0.7581999897956848 0.5864000022411346
vt 0.7599999904632568 0.5361999869346619
vt 0.7153000235557556 0.5480000078678131
vt 0.7087000012397766 0.5719000101089478
vt 0.6924999952316284 0.5629000067710876
vt 0.7450000047683716 0.6263999938964844
vt 0.7150999903678894 0.6046000123023987
vt 0.6894000172615051 0.5774999856948853
vt 0.7286999821662903 0.7247999906539917
vt 0.7476000189781189 0.7346999943256378
vt 0.7245000004768372 0.7416000068187714
vt 0.7734000086784363 0.7495000064373016
vt 0.742900013923645 0.7477000057697296
vt 0.8123000264167786 0.7245000004768372
vt 0.8234000205993652 0.37400001287460327
vt 0.8892999887466431 0.38739997148513794
vt 0.8799999952316284 0.44290000200271606
vt 0.9380000233650208 0.3919000029563904
vt 0.930899977684021 0.4524000287055969
vt 0.968999981880188 0.4283999800682068
vt 0.8910999894142151 0.34619998931884766
vt 0.8568000197410583 0.2955999970436096
vt 0.9388999938964844 0.3375999927520752
vt 0.9110000133514404 0.2756999731063843
vt 0.9652000069618225 0.35329997539520264
vt 0.9527000188827515 0.2842000126838684
vt 0.6947000026702881 0.7558999955654144
vt 0.6600000262260437 0.675599992275238
vt 0.6428999900817871 0.761000007390976
vt 0.6050000190734863 0.737199991941452
vt 0.5681999921798706 0.6875999867916107
vt 0.6654000282287598 0.8041999936103821
vt 0.5965999960899353 0.7958000004291534
vt 0.534600019454956 0.7364999949932098
vt 0.5755000114440918 0.7978000044822693
vt 0.5965999960899353 0.7958000004291534
vt 0.5389000177383423 0.786300003528595
vt 0.5965999960899353 0.7958000004291534
vt 0.645799994468689 0.8232000023126602
vt 0.6118000149726868 0.8360999971628189
vt 0.5975000262260437 0.23799997568130493
vt 0.6437000036239624 0.18970000743865967
vt 0.6437000036239624 0.23799997568130493
vt 0.5975000262260437 0.18970000743865967
vt 0.6898999810218811 0.18970000743865967
vt 0.6898999810218811 0.23799997568130493
vt 0.7361999750137329 0.18970000743865967
vt 0.7361999750137329 0.23799997568130493
vt 0.7824000120162964 0.18970000743865967
vt 0.7824000120162964 0.23799997568130493
vt 0.8285999894142151 0.18970000743865967
vt 0.8285999894142151 0.23799997568130493
vt 0.875 0.18970000743865967
vt 0.875 0.23799997568130493
vt 0.9214000105857849 0.18970000743865967
vt 0.9214000105857849 0.23799997568130493
vt 0.9675999879837036 0.18970000743865967
vt 0.9675999879837036 0.23799997568130493
vt 0.6349925994873047 0.25484222173690796
vt 0.6894258260726929 0.27661460638046265
vt 0.6128318309783936 0.27754873037338257
vt 0.666718602180481 0.25445473194122314
vt 0.6132189035415649 0.3092745542526245
vt 0.6898133158683777 0.3083404302597046
vt 0.6359261274337769 0.3314353823661804
vt 0.6683775186538696 0.32912832498550415
vt 0.6898133158683777 0.3083404302597046
vt 0.6359261274337769 0.3314353823661804
vt 0.6132189035415649 0.3092745542526245
vt 0.6683775186538696 0.32912832498550415
vt 0.6894258260726929 0.27661460638046265
vt 0.6128318309783936 0.27754873037338257
vt 0.666718602180481 0.25445473194122314
vt 0.6349925994873047 0.25484222173690796
vt 0.8892999887466431 0.09240001440048218
vt 0.9710000157356262 0.023899972438812256
vt 0.9700999855995178 0.09240001440048218
vt 0.8892999887466431 0.023899972438812256
vt 0.8434000015258789 0.058000028133392334
vt 0.8434000015258789 0.09240001440048218
vt 0.7994999885559082 0.058000028133392334
vt 0.7994999885559082 0.09240001440048218
vt 0.7597000002861023 0.09240001440048218
vt 0.7597000002861023 0.058000028133392334
vt 0.7142000198364258 0.09240001440048218
vt 0.8434000015258789 0.023899972438812256
vt 0.7994999885559082 0.023899972438812256
vt 0.7597000002861023 0.023899972438812256
vt 0.7142000198364258 0.023899972438812256
vt 0.6262999773025513 0.023899972438812256
vt 0.6254000067710876 0.09240001440048218
vt 0.616100013256073 0.14639997482299805
vt 0.6850000023841858 0.11119997501373291
vt 0.6834999918937683 0.1410999894142151
vt 0.7300000190734863 0.10280001163482666
vt 0.7423999905586243 0.1355000138282776
vt 0.6862000226974487 0.17089998722076416
vt 0.7289999723434448 0.17170000076293945
vt 0.6834999918937683 0.1410999894142151
vt 0.6850000023841858 0.11119997501373291
vt 0.616100013256073 0.14639997482299805
vt 0.7300000190734863 0.10280001163482666
vt 0.7423999905586243 0.1355000138282776
vt 0.7289999723434448 0.17170000076293945
vt 0.6862000226974487 0.17089998722076416
vt 0.9775000214576721 0.1728000044822693
vt 0.8935999870300293 0.10610002279281616
vt 0.9775000214576721 0.10610002279281616
vt 0.892799973487854 0.1728000044822693
vt 0.7462000250816345 0.13999998569488525
vt 0.7531999945640564 0.1728000044822693
vt 0.7531999945640564 0.10610002279281616
vt 0.8935999870300293 0.1728000044822693
vt 0.9775000214576721 0.10610002279281616
vt 0.9775000214576721 0.1728000044822693
vt 0.8935999870300293 0.10610002279281616
vt 0.7462000250816345 0.13999998569488525
vt 0.7531999945640564 0.1728000044822693
vt 0.7531999945640564 0.10610002279281616
vt 0.8892999887466431 0.09240001440048218
vt 0.9710000157356262 0.023899972438812256
vt 0.9700999855995178 0.09240001440048218
vt 0.8892999887466431 0.023899972438812256
vt 0.8434000015258789 0.058000028133392334
vt 0.8434000015258789 0.09240001440048218
vt 0.7994999885559082 0.058000028133392334
vt 0.7994999885559082 0.09240001440048218
vt 0.7597000002861023 0.09240001440048218
vt 0.7597000002861023 0.058000028133392334
vt 0.7142000198364258 0.09240001440048218
vt 0.8434000015258789 0.023899972438812256
vt 0.7994999885559082 0.023899972438812256
vt 0.7597000002861023 0.023899972438812256
vt 0.7142000198364258 0.023899972438812256
vt 0.6262999773025513 0.023899972438812256
vt 0.6254000067710876 0.09240001440048218
vt 0.616100013256073 0.14639997482299805
vt 0.6850000023841858 0.11119997501373291
vt 0.6834999918937683 0.1410999894142151
vt 0.7300000190734863 0.10280001163482666
vt 0.7423999905586243 0.1355000138282776
vt 0.6862000226974487 0.17089998722076416
vt 0.7289999723434448 0.17170000076293945
vt 0.6834999918937683 0.1410999894142151
vt 0.6850000023841858 0.11119997501373291
vt 0.616100013256073 0.14639997482299805
vt 0.7300000190734863 0.10280001163482666
vt 0.7423999905586243 0.1355000138282776
vt 0.7289999723434448 0.17170000076293945
vt 0.6862000226974487 0.17089998722076416
vt 0.5388000011444092 0.1363999843597412
vt 0.5792999863624573 0.17339998483657837
vt 0.6008999943733215 0.11269998550415039
vt 0.5756999850273132 0.048500001430511475
vt 0.45750001072883606 0.08039999008178711
vt 0.508899986743927 0.14980000257492065
vt 0.45910000801086426 0.1402999758720398
vt 0.4244999885559082 0.11669999361038208
vt 0.38659998774528503 0.11119997501373291
vt 0.3587000072002411 0.07819998264312744
vt 0.42669999599456787 0.019599974155426025
vt 0.36239999532699585 0.04220002889633179
vt 0.3328000009059906 0.06339997053146362
vt 0.3276999890804291 0.018999993801116943
vt 0.4918000102043152 0.023899972438812256
vt 0.5074999928474426 0.18250000476837158
vt 0.5299000144004822 0.20829999446868896
vt 0.49970000982284546 0.21219998598098755
vt 0.26353320479393005 0.030124902725219727
vt 0.2801421880722046 0.132651686668396
vt 0.2209288328886032 0.0820000171661377
vt 0.3327540159225464 0.08898657560348511
vt 0.18392884731292725 0.008366703987121582
vt 0.14333966374397278 0.08860504627227783
vt 0.3611147105693817 0.1636483073234558
vt 0.33922526240348816 0.24205034971237183
vt 0.284542053937912 0.21040946245193481
vt 0.23249727487564087 0.267783522605896
vt 0.2728438675403595 0.3187464475631714
vt 0.2012408971786499 0.3500327467918396
vt 0.15631695091724396 0.27054381370544434
vt 0.1258614957332611 0.2999076843261719
vt 0.09903554618358612 0.22187644243240356
vt 0.07208848744630814 0.24150192737579346
vt 0.028984250500798225 0.2784249186515808
vt 0.007192639634013176 0.18392854928970337
vt 0.049394942820072174 0.1771247386932373
vt 0.09731549769639969 0.3403918147087097
vt 0.09279900789260864 0.14644736051559448
vt 0.041908442974090576 0.09320765733718872
vt 0.09367316961288452 0.033681631088256836
vt 0.9477999806404114 0.7774000018835068
vt 0.7717000246047974 0.7774000018835068
vt 0.8597000241279602 0.7409999966621399
vt 0.7351999878883362 0.8655000030994415
vt 0.9843000173568726 0.8655000030994415
vt 0.7717000246047974 0.9534999988973141
vt 0.9477999806404114 0.9534999988973141
vt 0.8597000241279602 0.9900000002235174
vt 0.2742544710636139 0.39665287733078003
vt 0.17932184040546417 0.4275466799736023
vt 0.1953239142894745 0.3643953204154968
vt 0.24864603579044342 0.4538136124610901
vt 0.12102902680635452 0.3726891875267029
vt 0.06538595259189606 0.42492908239364624
vt 0.09866722673177719 0.5160226821899414
vt 0.03175581246614456 0.5139289498329163
vt 0.03841324895620346 0.587143212556839
vt 0.1882687360048294 0.5340508222579956
vt 0.2664380669593811 0.5526109635829926
vt 0.32698318362236023 0.4538887143135071
vt 0.346517950296402 0.5403227508068085
vt 0.21355776488780975 0.638460099697113
vt 0.32290878891944885 0.6110913157463074
vt 0.2595014274120331 0.6760237216949463
vt 0.11504926532506943 0.6250781714916229
vt 0.17218992114067078 0.7001239061355591
vt 0.09042665362358093 0.6707257628440857
vt 0.2800999879837036 0.9171999990940094
vt 0.36739999055862427 0.9840999990701675
vt 0.36739999055862427 0.9171999990940094
vt 0.2800999879837036 0.9840999990701675
vt 0.36739999055862427 0.8502999991178513
vt 0.2800999879837036 0.8502999991178513
vt 0.19280000030994415 0.8502999991178513
vt 0.19280000030994415 0.9171999990940094
vt 0.19280000030994415 0.9840999990701675
vt 0.4546000063419342 0.9840999990701675
vt 0.4546000063419342 0.9171999990940094
vt 0.4546000063419342 0.8502999991178513
vt 0.1054999977350235 0.8502999991178513
vt 0.1054999977350235 0.9171999990940094
vt 0.1054999977350235 0.9840999990701675
vt 0.5418999791145325 0.9840999990701675
vt 0.5418999791145325 0.9171999990940094
vt 0.5418999791145325 0.8502999991178513
vt 0.018200000748038292 0.8502999991178513
vt 0.018200000748038292 0.9171999990940094
vt 0.018200000748038292 0.9840999990701675
vt 0.6291999816894531 0.9840999990701675
vt 0.6291999816894531 0.9171999990940094
vt 0.6291999816894531 0.8502999991178513
vt 0.7164999842643738 0.9171999990940094
vt 0.7164999842643738 0.8502999991178513
vt 0.7164999842643738 0.9840999990701675
vt 0.1453063040971756 0.7689717561006546
vt 0.22617565095424652 0.788281038403511
vt 0.18158157169818878 0.8164096921682358
vt 0.20615489780902863 0.761550560593605
vt 0.1875508725643158 0.7293561697006226
vt 0.14833936095237732 0.7101023197174072
vt 0.11240027844905853 0.7156861424446106
vt 0.08648937940597534 0.7513055205345154
vt 0.0952528640627861 0.7949231415987015
vt 0.13557179272174835 0.8211107105016708
vt 0.024155206978321075 0.7705544233322144
vt 0.06816582381725311 0.6815294325351715
vt 0.024155206978321075 0.6600362062454224
vt 0.05981796607375145 0.7634365260601044
vt 0.0824011042714119 0.7247304320335388
vt 0.44850000739097595 0.688400000333786
vt 0.5784000158309937 0.6565999984741211
vt 0.5960000157356262 0.5906000137329102
vt 0.45190000534057617 0.7906000018119812
vt 0.31200000643730164 0.8289999961853027
vt 0.38999998569488525 0.6969000101089478
vt 0.40790000557899475 0.6241999864578247
vt 0.5333999991416931 0.5404999852180481
vt 0.37369999289512634 0.6762000024318695
vt 0.35600000619888306 0.704800009727478
vt 0.6171000003814697 0.534500002861023
vt 0.6297000050544739 0.3878999948501587
vt 0.4742000102996826 0.40799999237060547
vt 0.426800012588501 0.5602999925613403
vt 0.5557000041007996 0.3357999920845032
vt 0.4577000141143799 0.19919997453689575
vt 0.649399995803833 0.34880000352859497
vt 0.704800009727478 0.35829997062683105
vt 0.6491000056266785 0.47930002212524414
vt 0.6564000248908997 0.42239999771118164
vt 0.364300012588501 0.3033999800682068
vt 0.3603000044822693 0.43800002336502075
vt 0.35519999265670776 0.21939998865127563
vt 0.4187000095844269 0.16689997911453247
vt 0.4138999879360199 0.4865000247955322
vt 0.37389999628067017 0.48430001735687256
vt 0.4000999927520752 0.5243000090122223
vt 0.3727000057697296 0.536300003528595
vt 0.7454000115394592 0.3345000147819519
vt 0.6292999982833862 0.6114999949932098
vt 0.638700008392334 0.5783999860286713
vt 0.6814000010490417 0.589599996805191
vt 0.5960000157356262 0.5906000137329102
vt 0.5784000158309937 0.6565999984741211
vt 0.44850000739097595 0.688400000333786
vt 0.45190000534057617 0.7906000018119812
vt 0.31200000643730164 0.8289999961853027
vt 0.38999998569488525 0.6969000101089478
vt 0.40790000557899475 0.6241999864578247
vt 0.5333999991416931 0.5404999852180481
vt 0.37369999289512634 0.6762000024318695
vt 0.35600000619888306 0.704800009727478
vt 0.6171000003814697 0.534500002861023
vt 0.6297000050544739 0.3878999948501587
vt 0.4742000102996826 0.40799999237060547
vt 0.426800012588501 0.5602999925613403
vt 0.5557000041007996 0.3357999920845032
vt 0.4577000141143799 0.19919997453689575
vt 0.649399995803833 0.34880000352859497
vt 0.704800009727478 0.35829997062683105
vt 0.6491000056266785 0.47930002212524414
vt 0.6564000248908997 0.42239999771118164
vt 0.364300012588501 0.3033999800682068
vt 0.3603000044822693 0.43800002336502075
vt 0.35519999265670776 0.21939998865127563
vt 0.4187000095844269 0.16689997911453247
vt 0.4138999879360199 0.4865000247955322
vt 0.37389999628067017 0.48430001735687256
vt 0.4000999927520752 0.5243000090122223
vt 0.3727000057697296 0.536300003528595
vt 0.7454000115394592 0.3345000147819519
vt 0.638700008392334 0.5783999860286713
vt 0.6292999982833862 0.6114999949932098
vt 0.6814000010490417 0.589599996805191

g F_bar_hat_00
s 1
usemtl F_bar_hat_00
f 3/3/3 2/2/2 1/1/1 
f 2/2/2 4/4/4 1/1/1 
f 1/1/1 4/4/4 5/5/5 
f 1/1/1 5/5/5 3/3/3 
f 6/6/6 5/5/5 4/4/4 
f 7/7/7 3/3/3 5/5/5 
f 8/8/8 5/5/5 6/6/6 
f 9/9/9 5/5/5 8/8/8 
f 10/10/10 5/5/5 9/9/9 
f 7/7/7 5/5/5 10/10/10 
f 11/11/11 2/2/2 3/3/3 
f 11/11/11 4/4/4 2/2/2 
f 11/11/11 12/12/12 4/4/4 
f 6/6/6 4/4/4 12/12/12 
f 7/7/7 12/12/12 3/3/3 
f 11/11/11 3/3/3 12/12/12 
f 9/9/9 12/12/12 10/10/10 
f 6/6/6 12/12/12 8/8/8 
f 8/8/8 12/12/12 9/9/9 
f 10/10/10 12/12/12 7/7/7 
f 15/15/15 14/14/14 13/13/13 
f 14/14/14 16/16/16 13/13/13 
f 13/13/13 16/16/16 17/17/17 
f 13/13/13 17/17/17 15/15/15 
f 18/18/18 17/17/17 16/16/16 
f 19/19/19 15/15/15 17/17/17 
f 20/20/20 17/17/17 18/18/18 
f 21/21/21 17/17/17 20/20/20 
f 22/22/22 17/17/17 21/21/21 
f 19/19/19 17/17/17 22/22/22 
f 23/23/23 14/14/14 15/15/15 
f 23/23/23 16/16/16 14/14/14 
f 23/23/23 24/24/24 16/16/16 
f 18/18/18 16/16/16 24/24/24 
f 19/19/19 24/24/24 15/15/15 
f 23/23/23 15/15/15 24/24/24 
f 21/21/21 24/24/24 22/22/22 
f 18/18/18 24/24/24 20/20/20 
f 20/20/20 24/24/24 21/21/21 
f 22/22/22 24/24/24 19/19/19 
f 27/27/27 26/26/26 25/25/25 
f 25/25/25 26/26/26 28/28/28 
f 25/25/25 29/29/29 27/27/27 
f 29/29/29 25/25/25 30/30/30 
f 25/25/25 31/31/31 30/30/30 
f 28/28/28 31/31/31 25/25/25 
f 34/34/34 33/33/33 32/32/32 
f 34/34/34 32/32/32 35/35/35 
f 35/35/35 32/32/32 36/36/36 
f 32/32/32 37/37/37 36/36/36 
f 38/38/38 37/37/37 32/32/32 
f 32/32/32 39/39/39 38/38/38 
f 40/40/40 39/39/39 32/32/32 
f 40/40/40 32/32/32 41/41/41 
f 41/41/41 32/32/32 33/33/33 
f 42/42/42 33/33/33 34/34/34 
f 42/42/42 37/37/37 38/38/38 
f 36/36/36 37/37/37 42/42/42 
f 42/42/42 39/39/39 40/40/40 
f 38/38/38 39/39/39 42/42/42 
f 41/41/41 42/42/42 40/40/40 
f 35/35/35 42/42/42 34/34/34 
f 36/36/36 42/42/42 35/35/35 
f 33/33/33 42/42/42 41/41/41 
f 45/45/45 44/44/44 43/43/43 
f 46/46/46 43/43/43 44/44/44 
f 44/44/44 47/47/47 46/46/46 
f 48/48/48 47/47/47 44/44/44 
f 49/49/49 48/48/48 44/44/44 
f 44/44/44 45/45/45 49/49/49 
f 52/52/52 51/51/51 50/50/50 
f 50/50/50 51/51/51 53/53/53 
f 52/52/52 50/50/50 54/54/54 
f 53/53/53 51/51/51 55/55/55 
f 55/55/55 51/51/51 56/56/56 
f 53/53/53 55/55/55 57/57/57 
f 57/57/57 58/58/58 53/53/53 
f 59/59/59 58/58/58 57/57/57 
f 59/59/59 60/60/60 58/58/58 
f 59/59/59 61/61/61 60/60/60 
f 53/53/53 58/58/58 62/62/62 
f 63/63/63 53/53/53 62/62/62 
f 50/50/50 53/53/53 63/63/63 
f 62/62/62 58/58/58 64/64/64 
f 62/62/62 64/64/64 65/65/65 
f 65/65/65 64/64/64 66/66/66 
f 65/65/65 66/66/66 67/67/67 
f 67/67/67 66/66/66 68/68/68 
f 58/58/58 69/69/69 64/64/64 
f 69/69/69 58/58/58 70/70/70 
f 69/69/69 70/70/70 71/71/71 
f 70/70/70 72/72/72 71/71/71 
f 64/64/64 69/69/69 73/73/73 
f 66/66/66 64/64/64 73/73/73 
f 66/66/66 73/73/73 74/74/74 
f 66/66/66 74/74/74 75/75/75 
f 76/76/76 72/72/72 70/70/70 
f 77/77/77 72/72/72 76/76/76 
f 76/76/76 70/70/70 78/78/78 
f 76/76/76 78/78/78 79/79/79 
f 78/78/78 70/70/70 80/80/80 
f 70/70/70 81/81/81 80/80/80 
f 58/58/58 81/81/81 70/70/70 
f 58/58/58 82/82/82 81/81/81 
f 81/81/81 82/82/82 83/83/83 
f 83/83/83 82/82/82 84/84/84 
f 84/84/84 82/82/82 85/85/85 
f 84/84/84 85/85/85 86/86/86 
f 60/60/60 82/82/82 58/58/58 
f 82/82/82 60/60/60 87/87/87 
f 82/82/82 87/87/87 88/88/88 
f 85/85/85 82/82/82 88/88/88 
f 85/85/85 88/88/88 89/89/89 
f 92/92/92 91/91/91 90/90/90 
f 91/91/91 92/92/92 59/59/59 
f 91/91/91 59/59/59 93/93/93 
f 91/91/91 93/93/93 94/94/94 
f 93/93/93 59/59/59 95/95/95 
f 95/95/95 59/59/59 57/57/57 
f 59/59/59 92/92/92 61/61/61 
f 98/98/98 97/97/97 96/96/96 
f 100/100/100 99/99/99 98/98/98 
f 97/97/97 102/102/102 101/101/101 
f 97/97/97 103/103/103 102/102/102 
f 104/104/104 101/101/101 102/102/102 
f 97/97/97 105/105/105 103/103/103 
f 107/107/107 106/106/106 102/102/102 
f 109/109/109 98/98/98 108/108/108 
f 98/98/98 111/111/111 110/110/110 
f 98/98/98 110/110/110 112/112/112 
f 115/115/115 114/114/114 113/113/113 
f 113/113/113 114/114/114 116/116/116 
f 119/119/119 118/118/118 117/117/117 
f 120/120/120 118/118/118 119/119/119 
f 117/117/117 121/121/121 119/119/119 
f 122/122/122 119/119/119 121/121/121 
f 122/122/122 123/123/123 119/119/119 
f 119/119/119 123/123/123 120/120/120 
f 126/126/126 125/125/125 124/124/124 
f 125/125/125 126/126/126 127/127/127 
f 127/127/127 128/128/128 125/125/125 
f 125/125/125 128/128/128 129/129/129 
f 125/125/125 129/129/129 130/130/130 
f 130/130/130 124/124/124 125/125/125 
f 133/133/133 132/132/132 131/131/131 
f 134/134/134 132/132/132 133/133/133 
f 135/135/135 133/133/133 131/131/131 
f 136/136/136 132/132/132 134/134/134 
f 137/137/137 132/132/132 136/136/136 
f 138/138/138 136/136/136 134/134/134 
f 134/134/134 139/139/139 138/138/138 
f 138/138/138 139/139/139 140/140/140 
f 139/139/139 141/141/141 140/140/140 
f 141/141/141 142/142/142 140/140/140 
f 143/143/143 139/139/139 134/134/134 
f 143/143/143 134/134/134 144/144/144 
f 144/144/144 134/134/134 133/133/133 
f 145/145/145 139/139/139 143/143/143 
f 146/146/146 145/145/145 143/143/143 
f 147/147/147 145/145/145 146/146/146 
f 148/148/148 147/147/147 146/146/146 
f 149/149/149 147/147/147 148/148/148 
f 145/145/145 150/150/150 139/139/139 
f 151/151/151 139/139/139 150/150/150 
f 152/152/152 151/151/151 150/150/150 
f 152/152/152 153/153/153 151/151/151 
f 154/154/154 150/150/150 145/145/145 
f 154/154/154 145/145/145 147/147/147 
f 155/155/155 154/154/154 147/147/147 
f 156/156/156 155/155/155 147/147/147 
f 151/151/151 153/153/153 157/157/157 
f 157/157/157 153/153/153 158/158/158 
f 159/159/159 151/151/151 157/157/157 
f 160/160/160 159/159/159 157/157/157 
f 161/161/161 151/151/151 159/159/159 
f 161/161/161 162/162/162 151/151/151 
f 151/151/151 162/162/162 139/139/139 
f 162/162/162 163/163/163 139/139/139 
f 164/164/164 163/163/163 162/162/162 
f 165/165/165 163/163/163 164/164/164 
f 166/166/166 163/163/163 165/165/165 
f 167/167/167 166/166/166 165/165/165 
f 139/139/139 163/163/163 141/141/141 
f 168/168/168 141/141/141 163/163/163 
f 169/169/169 168/168/168 163/163/163 
f 169/169/169 163/163/163 166/166/166 
f 170/170/170 169/169/169 166/166/166 
f 173/173/173 172/172/172 171/171/171 
f 140/140/140 171/171/171 172/172/172 
f 174/174/174 140/140/140 172/172/172 
f 175/175/175 174/174/174 172/172/172 
f 176/176/176 140/140/140 174/174/174 
f 138/138/138 140/140/140 176/176/176 
f 142/142/142 171/171/171 140/140/140 
f 179/179/179 178/178/178 177/177/177 
f 178/178/178 179/179/179 180/180/180 
f 181/181/181 180/180/180 179/179/179 
f 182/182/182 180/180/180 181/181/181 
f 183/183/183 177/177/177 178/178/178 
f 178/178/178 180/180/180 183/183/183 
f 184/184/184 177/177/177 183/183/183 
f 185/185/185 183/183/183 180/180/180 
f 183/183/183 185/185/185 184/184/184 
f 186/186/186 184/184/184 185/185/185 
f 180/180/180 187/187/187 185/185/185 
f 188/188/188 186/186/186 185/185/185 
f 191/191/191 190/190/190 189/189/189 
f 190/190/190 191/191/191 192/192/192 
f 193/193/193 190/190/190 192/192/192 
f 189/189/189 194/194/194 191/191/191 
f 195/195/195 191/191/191 194/194/194 
f 195/195/195 192/192/192 191/191/191 
f 196/196/196 193/193/193 192/192/192 
f 196/196/196 195/195/195 197/197/197 
f 196/196/196 192/192/192 198/198/198 
f 196/196/196 197/197/197 199/199/199 
f 201/201/201 200/200/200 194/194/194 
f 201/201/201 202/202/202 200/200/200 
f 205/205/205 204/204/204 203/203/203 
f 206/206/206 203/203/203 204/204/204 
f 204/204/204 205/205/205 207/207/207 
f 208/208/208 207/207/207 205/205/205 
f 207/207/207 208/208/208 209/209/209 
f 210/210/210 209/209/209 208/208/208 
f 209/209/209 210/210/210 211/211/211 
f 212/212/212 211/211/211 210/210/210 
f 211/211/211 212/212/212 213/213/213 
f 214/214/214 213/213/213 212/212/212 
f 213/213/213 214/214/214 215/215/215 
f 216/216/216 215/215/215 214/214/214 
f 215/215/215 216/216/216 217/217/217 
f 218/218/218 217/217/217 216/216/216 
f 217/217/217 218/218/218 219/219/219 
f 220/220/220 219/219/219 218/218/218 
f 223/223/223 222/222/222 221/221/221 
f 224/224/224 221/221/221 222/222/222 
f 223/223/223 225/225/225 222/222/222 
f 226/226/226 222/222/222 225/225/225 
f 225/225/225 227/227/227 226/226/226 
f 228/228/228 226/226/226 227/227/227 
f 231/231/231 230/230/230 229/229/229 
f 232/232/232 229/229/229 230/230/230 
f 229/229/229 233/233/233 231/231/231 
f 234/234/234 231/231/231 233/233/233 
f 233/233/233 235/235/235 234/234/234 
f 236/236/236 234/234/234 235/235/235 
f 239/239/239 238/238/238 237/237/237 
f 240/240/240 237/237/237 238/238/238 
f 241/241/241 237/237/237 240/240/240 
f 242/242/242 237/237/237 241/241/241 
f 241/241/241 243/243/243 242/242/242 
f 244/244/244 242/242/242 243/243/243 
f 244/244/244 243/243/243 245/245/245 
f 246/246/246 245/245/245 243/243/243 
f 247/247/247 245/245/245 246/246/246 
f 241/241/241 248/248/248 243/243/243 
f 241/241/241 240/240/240 248/248/248 
f 249/249/249 243/243/243 248/248/248 
f 246/246/246 243/243/243 250/250/250 
f 249/249/249 250/250/250 243/243/243 
f 251/251/251 246/246/246 250/250/250 
f 247/247/247 246/246/246 251/251/251 
f 251/251/251 252/252/252 247/247/247 
f 253/253/253 247/247/247 252/252/252 
f 256/256/256 255/255/255 254/254/254 
f 255/255/255 256/256/256 257/257/257 
f 258/258/258 257/257/257 256/256/256 
f 259/259/259 256/256/256 254/254/254 
f 259/259/259 260/260/260 256/256/256 
f 258/258/258 256/256/256 260/260/260 
f 263/263/263 262/262/262 261/261/261 
f 262/262/262 264/264/264 261/261/261 
f 265/265/265 261/261/261 264/264/264 
f 265/265/265 266/266/266 261/261/261 
f 267/267/267 261/261/261 266/266/266 
f 263/263/263 261/261/261 267/267/267 
f 270/270/270 269/269/269 268/268/268 
f 271/271/271 268/268/268 269/269/269 
f 272/272/272 271/271/271 269/269/269 
f 273/273/273 271/271/271 272/272/272 
f 272/272/272 269/269/269 274/274/274 
f 277/277/277 276/276/276 275/275/275 
f 278/278/278 275/275/275 276/276/276 
f 279/279/279 275/275/275 278/278/278 
f 280/280/280 275/275/275 279/279/279 
f 279/279/279 278/278/278 281/281/281 
f 284/284/284 283/283/283 282/282/282 
f 285/285/285 282/282/282 283/283/283 
f 286/286/286 282/282/282 285/285/285 
f 287/287/287 282/282/282 286/286/286 
f 286/286/286 288/288/288 287/287/287 
f 289/289/289 287/287/287 288/288/288 
f 289/289/289 288/288/288 290/290/290 
f 291/291/291 290/290/290 288/288/288 
f 292/292/292 290/290/290 291/291/291 
f 286/286/286 293/293/293 288/288/288 
f 286/286/286 285/285/285 293/293/293 
f 294/294/294 288/288/288 293/293/293 
f 291/291/291 288/288/288 295/295/295 
f 294/294/294 295/295/295 288/288/288 
f 296/296/296 291/291/291 295/295/295 
f 292/292/292 291/291/291 296/296/296 
f 296/296/296 297/297/297 292/292/292 
f 298/298/298 292/292/292 297/297/297 
f 301/301/301 300/300/300 299/299/299 
f 300/300/300 301/301/301 302/302/302 
f 303/303/303 302/302/302 301/301/301 
f 304/304/304 301/301/301 299/299/299 
f 304/304/304 305/305/305 301/301/301 
f 303/303/303 301/301/301 305/305/305 
f 308/308/308 307/307/307 306/306/306 
f 307/307/307 309/309/309 306/306/306 
f 310/310/310 306/306/306 309/309/309 
f 310/310/310 311/311/311 306/306/306 
f 312/312/312 306/306/306 311/311/311 
f 308/308/308 306/306/306 312/312/312 
f 315/315/315 314/314/314 313/313/313 
f 315/315/315 313/313/313 316/316/316 
f 316/316/316 313/313/313 317/317/317 
f 317/317/317 313/313/313 318/318/318 
f 317/317/317 318/318/318 319/319/319 
f 317/317/317 319/319/319 320/320/320 
f 317/317/317 320/320/320 321/321/321 
f 317/317/317 321/321/321 322/322/322 
f 317/317/317 322/322/322 323/323/323 
f 323/323/323 322/322/322 324/324/324 
f 324/324/324 322/322/322 325/325/325 
f 324/324/324 325/325/325 326/326/326 
f 327/327/327 317/317/317 323/323/323 
f 316/316/316 317/317/317 327/327/327 
f 313/313/313 314/314/314 328/328/328 
f 329/329/329 328/328/328 314/314/314 
f 328/328/328 329/329/329 330/330/330 
f 333/333/333 332/332/332 331/331/331 
f 334/334/334 331/331/331 332/332/332 
f 333/333/333 331/331/331 335/335/335 
f 333/333/333 335/335/335 336/336/336 
f 332/332/332 337/337/337 334/334/334 
f 332/332/332 338/338/338 337/337/337 
f 339/339/339 338/338/338 332/332/332 
f 340/340/340 338/338/338 339/339/339 
f 340/340/340 341/341/341 338/338/338 
f 340/340/340 342/342/342 341/341/341 
f 340/340/340 343/343/343 342/342/342 
f 342/342/342 343/343/343 344/344/344 
f 343/343/343 345/345/345 344/344/344 
f 346/346/346 344/344/344 345/345/345 
f 346/346/346 347/347/347 344/344/344 
f 347/347/347 346/346/346 348/348/348 
f 349/349/349 348/348/348 346/346/346 
f 346/346/346 345/345/345 349/349/349 
f 350/350/350 344/344/344 347/347/347 
f 344/344/344 350/350/350 342/342/342 
f 351/351/351 349/349/349 345/345/345 
f 352/352/352 348/348/348 349/349/349 
f 351/351/351 352/352/352 349/349/349 
f 336/336/336 352/352/352 351/351/351 
f 336/336/336 353/353/353 352/352/352 
f 336/336/336 335/335/335 353/353/353 
f 356/356/356 355/355/355 354/354/354 
f 355/355/355 357/357/357 354/354/354 
f 358/358/358 354/354/354 357/357/357 
f 357/357/357 359/359/359 358/358/358 
f 360/360/360 358/358/358 359/359/359 
f 360/360/360 359/359/359 361/361/361 
f 364/364/364 363/363/363 362/362/362 
f 365/365/365 362/362/362 363/363/363 
f 366/366/366 363/363/363 364/364/364 
f 367/367/367 363/363/363 366/366/366 
f 367/367/367 368/368/368 363/363/363 
f 369/369/369 368/368/368 367/367/367 
f 368/368/368 369/369/369 370/370/370 
f 371/371/371 365/365/365 363/363/363 
f 371/371/371 363/363/363 368/368/368 
f 371/371/371 372/372/372 365/365/365 
f 365/365/365 372/372/372 373/373/373 
f 365/365/365 373/373/373 362/362/362 
f 372/372/372 374/374/374 373/373/373 
f 372/372/372 371/371/371 375/375/375 
f 372/372/372 375/375/375 376/376/376 
f 372/372/372 376/376/376 374/374/374 
f 377/377/377 376/376/376 375/375/375 
f 371/371/371 368/368/368 378/378/378 
f 378/378/378 368/368/368 370/370/370 
f 375/375/375 371/371/371 378/378/378 
f 375/375/375 378/378/378 379/379/379 
f 377/377/377 375/375/375 379/379/379 
f 380/380/380 379/379/379 378/378/378 
f 380/380/380 378/378/378 370/370/370 
f 383/383/383 382/382/382 381/381/381 
f 384/384/384 381/381/381 382/382/382 
f 383/383/383 381/381/381 385/385/385 
f 386/386/386 385/385/385 381/381/381 
f 386/386/386 381/381/381 387/387/387 
f 388/388/388 387/387/387 381/381/381 
f 384/384/384 389/389/389 381/381/381 
f 388/388/388 381/381/381 389/389/389 
f 382/382/382 383/383/383 390/390/390 
f 391/391/391 390/390/390 383/383/383 
f 385/385/385 392/392/392 383/383/383 
f 391/391/391 383/383/383 392/392/392 
f 387/387/387 388/388/388 393/393/393 
f 394/394/394 393/393/393 388/388/388 
f 389/389/389 395/395/395 388/388/388 
f 394/394/394 388/388/388 395/395/395 
f 390/390/390 391/391/391 396/396/396 
f 397/397/397 396/396/396 391/391/391 
f 392/392/392 398/398/398 391/391/391 
f 397/397/397 391/391/391 398/398/398 
f 393/393/393 394/394/394 399/399/399 
f 400/400/400 399/399/399 394/394/394 
f 395/395/395 401/401/401 394/394/394 
f 400/400/400 394/394/394 401/401/401 
f 396/396/396 397/397/397 402/402/402 
f 403/403/403 402/402/402 397/397/397 
f 398/398/398 404/404/404 397/397/397 
f 403/403/403 397/397/397 404/404/404 
f 403/403/403 404/404/404 405/405/405 
f 403/403/403 405/405/405 402/402/402 
f 406/406/406 405/405/405 404/404/404 
f 407/407/407 402/402/402 405/405/405 
f 410/410/410 409/409/409 408/408/408 
f 411/411/411 408/408/408 409/409/409 
f 412/412/412 408/408/408 411/411/411 
f 413/413/413 408/408/408 412/412/412 
f 414/414/414 408/408/408 413/413/413 
f 415/415/415 408/408/408 414/414/414 
f 416/416/416 408/408/408 415/415/415 
f 417/417/417 408/408/408 416/416/416 
f 410/410/410 408/408/408 417/417/417 
f 420/420/420 419/419/419 418/418/418 
f 421/421/421 418/418/418 419/419/419 
f 421/421/421 419/419/419 422/422/422 
f 425/425/425 424/424/424 423/423/423 
f 424/424/424 426/426/426 423/423/423 
f 426/426/426 427/427/427 423/423/423 
f 427/427/427 428/428/428 423/423/423 
f 423/423/423 428/428/428 429/429/429 
f 429/429/429 430/430/430 423/423/423 
f 430/430/430 425/425/425 423/423/423 
f 429/429/429 428/428/428 431/431/431 
f 428/428/428 432/432/432 431/431/431 
f 433/433/433 425/425/425 430/430/430 
f 433/433/433 430/430/430 434/434/434 
f 430/430/430 435/435/435 434/434/434 
f 436/436/436 435/435/435 430/430/430 
f 436/436/436 430/430/430 429/429/429 
f 435/435/435 437/437/437 434/434/434 
f 438/438/438 437/437/437 435/435/435 
f 439/439/439 434/434/434 437/437/437 
f 440/440/440 434/434/434 439/439/439 
f 441/441/441 433/433/433 434/434/434 
f 441/441/441 434/434/434 442/442/442 
f 443/443/443 438/438/438 435/435/435 
f 435/435/435 444/444/444 443/443/443 
f 443/443/443 445/445/445 438/438/438 
f 446/446/446 438/438/438 445/445/445 
f 447/447/447 444/444/444 435/435/435 
f 447/447/447 435/435/435 436/436/436 
f 448/448/448 444/444/444 447/447/447 
f 449/449/449 448/448/448 447/447/447 
f 450/450/450 448/448/448 449/449/449 
f 451/451/451 440/440/440 439/439/439 
f 425/425/425 453/453/453 452/452/452 
f 454/454/454 452/452/452 453/453/453 
f 433/433/433 453/453/453 425/425/425 
f 457/457/457 456/456/456 455/455/455 
f 457/457/457 458/458/458 456/456/456 
f 457/457/457 459/459/459 458/458/458 
f 457/457/457 460/460/460 459/459/459 
f 461/461/461 460/460/460 457/457/457 
f 457/457/457 462/462/462 461/461/461 
f 457/457/457 455/455/455 462/462/462 
f 463/463/463 460/460/460 461/461/461 
f 463/463/463 464/464/464 460/460/460 
f 462/462/462 455/455/455 465/465/465 
f 466/466/466 462/462/462 465/465/465 
f 466/466/466 467/467/467 462/462/462 
f 462/462/462 467/467/467 468/468/468 
f 461/461/461 462/462/462 468/468/468 
f 467/467/467 466/466/466 469/469/469 
f 467/467/467 469/469/469 470/470/470 
f 471/471/471 469/469/469 466/466/466 
f 471/471/471 466/466/466 472/472/472 
f 466/466/466 465/465/465 473/473/473 
f 474/474/474 466/466/466 473/473/473 
f 467/467/467 470/470/470 475/475/475 
f 475/475/475 476/476/476 467/467/467 
f 475/475/475 470/470/470 477/477/477 
f 478/478/478 477/477/477 470/470/470 
f 467/467/467 476/476/476 479/479/479 
f 468/468/468 467/467/467 479/479/479 
f 479/479/479 476/476/476 480/480/480 
f 479/479/479 480/480/480 481/481/481 
f 481/481/481 480/480/480 482/482/482 
f 471/471/471 472/472/472 483/483/483 
f 485/485/485 484/484/484 455/455/455 
f 484/484/484 485/485/485 486/486/486 
f 455/455/455 484/484/484 465/465/465 

