v -11.5 -10.5 0.0
v -3.5 8.5 0.0
v -3.5 -5.5 0.0
v -11.5 14.5 0.0
v 11.5 14.5 0.0
v 2.5 8.5 0.0
v 6.5 1.5 0.0
v 11.5 -10.5 0.0
v 6.5 -6.5 0.0
v 2.5 3.5 0.0
v -0.5 1.5 0.0
v -0.5 3.5 0.0
v -0.5 -6.5 0.0
v -0.5 -5.5 0.0
v -11.5 -10.5 0.0
v -11.5 14.5 -1.372194766998291
v -11.5 14.5 0.0
v -11.5 -10.5 -1.372194766998291
v 11.5 14.5 0.0
v 11.5 -10.5 -1.372194766998291
v 11.5 -10.5 0.0
v 11.5 14.5 -1.372194766998291
v -11.5 14.5 0.0
v 11.5 14.5 -1.372194766998291
v 11.5 14.5 0.0
v -11.5 14.5 -1.372194766998291
v 11.5 -10.5 0.0
v -11.5 -10.5 -1.372194766998291
v -11.5 -10.5 0.0
v 11.5 -10.5 -1.372194766998291
vn -0.0 0.0 1.0
vn -0.0 0.0 1.0
vn -0.0 0.0 1.0
vn -0.0 0.0 1.0
vn -0.0 0.0 1.0
vn -0.0 0.0 1.0
vn -0.0 0.0 1.0
vn -0.0 0.0 1.0
vn -0.0 0.0 1.0
vn -0.0 0.0 1.0
vn -0.0 0.0 1.0
vn -0.0 0.0 1.0
vn -0.0 0.0 1.0
vn -0.0 0.0 1.0
vn -1.0 0.0 0.0
vn -1.0 0.0 0.0
vn -1.0 0.0 0.0
vn -1.0 0.0 0.0
vn 1.0 0.0 0.0
vn 1.0 0.0 0.0
vn 1.0 0.0 0.0
vn 1.0 0.0 0.0
vn -0.0 1.0 0.0
vn -0.0 1.0 0.0
vn -0.0 1.0 0.0
vn -0.0 1.0 0.0
vn -0.0 -1.0 0.0
vn -0.0 -1.0 0.0
vn -0.0 -1.0 0.0
vn -0.0 -1.0 0.0
vt -0.309455931186676 0.9967147503048182
vt 2.211963653564453 -4.481821537017822
vt 2.2119624614715576 -0.4425851106643677
vt -0.3290533721446991 -6.218072891235352
vt 6.967236518859863 -6.217087268829346
vt 4.107931613922119 -4.481821060180664
vt 5.371910095214844 -2.462202787399292
vt 6.946349620819092 0.9866350684314966
vt 5.371909141540527 -0.15406763553619385
vt 4.107931137084961 -3.0392370223999023
vt 3.159947156906128 -2.46220326423645
vt 3.159947156906128 -3.0392370223999023
vt 3.1599464416503906 -0.15406811237335205
vt 3.1599464416503906 -0.4425848722457886
vt -0.309455931186676 0.9967147503048182
vt -0.3290533721446991 -6.218072891235352
vt -0.3290533721446991 -6.218072891235352
vt -0.309455931186676 0.9967147503048182
vt 6.967236518859863 -6.217087268829346
vt 6.946349620819092 0.9866350684314966
vt 6.946349620819092 0.9866350684314966
vt 6.967236518859863 -6.217087268829346
vt -0.3290533721446991 -6.218072891235352
vt 6.967236518859863 -6.217087268829346
vt 6.967236518859863 -6.217087268829346
vt -0.3290533721446991 -6.218072891235352
vt 6.946349620819092 0.9866350684314966
vt -0.309455931186676 0.9967147503048182
vt -0.309455931186676 0.9967147503048182
vt 6.946349620819092 0.9866350684314966

g bg_mdl_map_shingeki_water01
s 1
usemtl bg_mdl_map_shingeki_water01
f 3/3/3 2/2/2 1/1/1 
f 4/4/4 1/1/1 2/2/2 
f 4/4/4 2/2/2 5/5/5 
f 6/6/6 5/5/5 2/2/2 
f 5/5/5 6/6/6 7/7/7 
f 5/5/5 7/7/7 8/8/8 
f 9/9/9 8/8/8 7/7/7 
f 10/10/10 7/7/7 6/6/6 
f 7/7/7 10/10/10 11/11/11 
f 12/12/12 11/11/11 10/10/10 
f 1/1/1 8/8/8 13/13/13 
f 9/9/9 13/13/13 8/8/8 
f 1/1/1 13/13/13 3/3/3 
f 14/14/14 3/3/3 13/13/13 
f 17/17/17 16/16/16 15/15/15 
f 18/18/18 15/15/15 16/16/16 
f 21/21/21 20/20/20 19/19/19 
f 22/22/22 19/19/19 20/20/20 
f 25/25/25 24/24/24 23/23/23 
f 26/26/26 23/23/23 24/24/24 
f 29/29/29 28/28/28 27/27/27 
f 30/30/30 27/27/27 28/28/28 

