v 2.5007410049438477 1.9064812660217285 -1.3884171323752525e-07
v 1.6039785146713257 2.061872959136963 -1.3780910990135453e-07
v 2.157052993774414 2.236664295196533 -1.3822682376485318e-07
v 1.841463565826416 2.558720350265503 -1.3892808681248425e-07
v 1.5801053047180176 2.875383138656616 -1.3663733966495784e-07
v 1.3726582527160645 3.169720411300659 -1.3452778091505024e-07
v 0.020131263881921768 1.9400588274002075 -1.3287960598518112e-07
v -0.014551361091434956 3.383805513381958 -1.25858662158862e-07
v 1.510444164276123 3.66420316696167 -1.3831468947955727e-07
v 2.0637054443359375 3.063072443008423 -1.3884636018701713e-07
v 1.1920150518417358 4.03029727935791 -1.343549911325681e-07
v 0.8619927167892456 4.4752421379089355 -1.390884420970906e-07
v -0.08070739358663559 4.408679485321045 -1.4058289821150538e-07
v 0.9546478986740112 4.729513168334961 -1.3867139614376356e-07
v 0.716946542263031 5.0106048583984375 -1.379837897275138e-07
v 0.5071678161621094 5.289765357971191 -1.3933322406955995e-07
v 0.3164856433868408 5.579721450805664 -1.405774128215853e-07
v 0.15853948891162872 5.855739593505859 -1.4135923720459687e-07
v -0.0538293793797493 6.298994541168213 -1.413457226817627e-07
v -0.28032341599464417 5.840620040893555 -1.4569869222214038e-07
v -0.458312451839447 5.533382892608643 -1.4685548421766725e-07
v -0.6101309657096863 5.289498329162598 -1.4754725441434857e-07
v -0.7858027219772339 5.031980514526367 -1.4723451613463112e-07
v -1.0718525648117065 4.403419494628906 -1.4109805590578617e-07
v -1.0364254713058472 4.694103717803955 -1.4460495378898486e-07
v -1.2253905534744263 4.394873142242432 -1.4044364604615112e-07
v -1.1921677589416504 4.523798942565918 -1.428796281288669e-07
v -1.330432415008545 4.411953449249268 -1.40040626206428e-07
v -1.390282392501831 3.938105344772339 -1.4360179534378403e-07
v -1.6479943990707397 3.5973598957061768 -1.4335913078866724e-07
v -1.8519097566604614 3.3505125045776367 -1.428350344667706e-07
v -1.3881521224975586 3.203007221221924 -1.369768227732493e-07
v -2.099534034729004 3.092759370803833 -1.4045791374428518e-07
v -1.7340047359466553 2.7543139457702637 -1.3626878114791907e-07
v -1.6520763635635376 2.0637123584747314 -1.3697054157546518e-07
v -2.181495428085327 1.9694963693618774 -1.3777425067473814e-07
v -2.1690216064453125 2.224599838256836 -1.3766161544026545e-07
v -1.532217264175415 1.2605565786361694 -1.3742017301865417e-07
v -1.7909373044967651 1.2121189832687378 -1.3776784157926159e-07
v -1.8301090002059937 1.801058292388916 -1.3934163689555135e-07
v -2.006220579147339 1.5673801898956299 -1.405454383984761e-07
v -2.214691162109375 1.3159167766571045 -1.4095316203110997e-07
v -2.090155601501465 1.151232123374939 -1.3792671893497754e-07
v -2.447413682937622 1.0725631713867188 -1.401583205051793e-07
v -2.3518435955047607 2.0558557510375977 -1.3868182691112452e-07
v -2.538405656814575 1.9022126197814941 -1.3880570293167693e-07
v -0.9907012581825256 1.2818496227264404 -1.3621855998735555e-07
v -0.3638354539871216 1.1491755247116089 -1.367433100085691e-07
v 0.2798137962818146 1.0929501056671143 -1.369886035718082e-07
v 0.33160215616226196 1.1935662031173706 -1.3649693642037164e-07
v -0.7618597149848938 0.5735915899276733 -1.390352650787463e-07
v 0.9505823850631714 1.2333319187164307 -1.3636214646339795e-07
v 1.578037977218628 1.2948627471923828 -1.388457633311191e-07
v 1.7810152769088745 1.7928489446640015 -1.3696759992853913e-07
v 1.9764069318771362 1.541822910308838 -1.366186097584432e-07
v 2.219911813735962 1.2812716960906982 -1.3662146614024095e-07
v 2.4443888664245605 1.0714911222457886 -1.377015763637246e-07
v 1.6720929145812988 0.6530491709709167 -1.390673247669838e-07
v 0.7793993949890137 0.49591705203056335 -1.3883042981888138e-07
v -0.31944581866264343 1.0811117887496948 -1.3707243340377318e-07
v 0.3201991617679596 0.6953957676887512 -1.3690815592326544e-07
v -0.3593962788581848 0.6845660209655762 -1.3900299222768808e-07
v 0.3810431659221649 0.3398083448410034 -1.385870262993194e-07
v -0.4245009422302246 0.3457263112068176 -1.3894330663788423e-07
v -0.4511353075504303 0.24067167937755585 -1.3890091565826879e-07
v 0.41593870520591736 0.23327361047267914 -1.388979313787786e-07
v -0.510321319103241 0.17704680562019348 -1.3887525085465313e-07
v 0.47506895661354065 0.17515258491039276 -1.3897464157253125e-07
v 0.6600813269615173 0.07791046053171158 -1.3883523308777512e-07
v -0.6478974223136902 0.10253845155239105 -1.3992186609357304e-07
v -0.8669164776802063 0.02020416222512722 -1.3881195570775162e-07
v 0.8376386761665344 0.021683653816580772 -1.3881255256364966e-07
v -0.868395984172821 -0.00051116943359375 -1.3880359972517908e-07
v 0.8420777916908264 -0.00051116943359375 -1.3880359972517908e-07
v 1.2506115436553955 4.406992435455322 -1.400671010287624e-07
v -1.711904764175415 0.6811816096305847 -1.3907869345075596e-07
vn -0.0 0.0 1.0
vn -0.0 0.0 1.0
vn -0.0 0.0 1.0
vn -0.0 0.0 1.0
vn -0.0 0.0 1.0
vn -0.0 0.0 1.0
vn -0.0 0.0 1.0
vn -0.0 0.0 1.0
vn -0.0 0.0 1.0
vn -0.0 0.0 1.0
vn -0.0 0.0 1.0
vn -0.0 0.0 1.0
vn -0.0 0.0 1.0
vn -0.0 0.0 1.0
vn -0.0 0.0 1.0
vn -0.0 0.0 1.0
vn -0.0 0.0 1.0
vn -0.0 0.0 1.0
vn -0.0 0.0 1.0
vn -0.0 0.0 1.0
vn -0.0 0.0 1.0
vn -0.0 0.0 1.0
vn -0.0 0.0 1.0
vn -0.0 0.0 1.0
vn -0.0 0.0 1.0
vn -0.0 0.0 1.0
vn -0.0 0.0 1.0
vn -0.0 0.0 1.0
vn -0.0 0.0 1.0
vn -0.0 0.0 1.0
vn -0.0 0.0 1.0
vn -0.0 0.0 1.0
vn -0.0 0.0 1.0
vn -0.0 0.0 1.0
vn -0.0 0.0 1.0
vn -0.0 0.0 1.0
vn -0.0 0.0 1.0
vn -0.0 0.0 1.0
vn -0.0 0.0 1.0
vn -0.0 0.0 1.0
vn -0.0 0.0 1.0
vn -0.0 0.0 1.0
vn -0.0 0.0 1.0
vn -0.0 0.0 1.0
vn -0.0 0.0 1.0
vn -0.0 0.0 1.0
vn -0.0 0.0 1.0
vn -0.0 0.0 1.0
vn -0.0 0.0 1.0
vn -0.0 0.0 1.0
vn -0.0 0.0 1.0
vn -0.0 0.0 1.0
vn -0.0 0.0 1.0
vn -0.0 0.0 1.0
vn -0.0 0.0 1.0
vn -0.0 0.0 1.0
vn -0.0 0.0 1.0
vn -0.0 0.0 1.0
vn -0.0 0.0 1.0
vn -0.0 0.0 1.0
vn -0.0 0.0 1.0
vn -0.0 0.0 1.0
vn -0.0 0.0 1.0
vn -0.0 0.0 1.0
vn -0.0 0.0 1.0
vn -0.0 0.0 1.0
vn -0.0 0.0 1.0
vn -0.0 0.0 1.0
vn -0.0 0.0 1.0
vn -0.0 0.0 1.0
vn -0.0 0.0 1.0
vn -0.0 0.0 1.0
vn -0.0 0.0 1.0
vn -0.0 0.0 1.0
vn -0.0 0.0 1.0
vn -0.0 0.0 1.0
vt 0.9884282350540161 0.6966845989227295
vt 0.8133947253227234 0.6725861132144928
vt 0.9215409159660339 0.6456548571586609
vt 0.8598469495773315 0.5957266688346863
vt 0.809039294719696 0.5463440418243408
vt 0.7683635950088501 0.5000575184822083
vt 0.5039616823196411 0.6901947259902954
vt 0.49720871448516846 0.4648340344429016
vt 0.7956697344779968 0.4250713586807251
vt 0.9034410119056702 0.5176042914390564
vt 0.7344095706939697 0.3681100606918335
vt 0.6686295866966248 0.29883861541748047
vt 0.484307199716568 0.30920034646987915
vt 0.6872577667236328 0.2601225972175598
vt 0.6415500044822693 0.21688860654830933
vt 0.6010433435440063 0.17367398738861084
vt 0.5638379454612732 0.12867385149002075
vt 0.5320767164230347 0.08594298362731934
vt 0.48958662152290344 0.016326963901519775
vt 0.4449014365673065 0.08792877197265625
vt 0.4101710319519043 0.13587599992752075
vt 0.38055500388145447 0.1739821434020996
vt 0.34650665521621704 0.21454507112503052
vt 0.2906218469142914 0.31012099981307983
vt 0.2965388596057892 0.26612842082977295
vt 0.26069435477256775 0.3112714886665344
vt 0.266489714384079 0.29199808835983276
vt 0.2401990443468094 0.308551549911499
vt 0.2277611494064331 0.382601261138916
vt 0.1775975376367569 0.43548864126205444
vt 0.13775749504566193 0.4735698103904724
vt 0.2285228669643402 0.49502676725387573
vt 0.08982554078102112 0.5130749344825745
vt 0.16129560768604279 0.5646642744541168
vt 0.17731809616088867 0.6718401908874512
vt 0.07391494512557983 0.6866770386695862
vt 0.07634932547807693 0.6471003592014313
vt 0.20075306296348572 0.7964795529842377
vt 0.15017475187778473 0.8041804432868958
vt 0.14219287037849426 0.7130332887172699
vt 0.10753201693296432 0.7494719624519348
vt 0.06712941080331802 0.7884517163038254
vt 0.09179970622062683 0.8136759102344513
vt 0.02205510251224041 0.8259724527597427
vt 0.0405818372964859 0.6734832525253296
vt 0.004218472167849541 0.6973370909690857
vt 0.3064998984336853 0.7928101122379303
vt 0.42895668745040894 0.8136510252952576
vt 0.554668664932251 0.8224212825298309
vt 0.5647850632667542 0.8067151457071304
vt 0.3512091040611267 0.9033845663070679
vt 0.6856813430786133 0.8005219548940659
vt 0.8082730174064636 0.7915145307779312
vt 0.8486437797546387 0.7147002220153809
vt 0.8867501616477966 0.7541029304265976
vt 0.9341086149215698 0.794143483042717
vt 0.9773818254470825 0.8261270374059677
vt 0.8265917301177979 0.8910739496350288
vt 0.6522350311279297 0.9153807461261749
vt 0.43762555718421936 0.8242749720811844
vt 0.5625637769699097 0.8843613341450691
vt 0.42981699109077454 0.8861739635467529
vt 0.5744322538375854 0.9396221749484539
vt 0.4170958995819092 0.9386885613203049
vt 0.41189223527908325 0.9549651108682156
vt 0.581242561340332 0.9561113193631172
vt 0.4003314673900604 0.9648227505385876
vt 0.59283047914505 0.9651457220315933
vt 0.6289241909980774 0.9801823068410158
vt 0.3733055889606476 0.9764249138534069
vt 0.3306814730167389 0.9891229625791311
vt 0.6636024713516235 0.9888937063515186
vt 0.33039218187332153 0.9923324654810131
vt 0.6644690632820129 0.9923324189148843
vt 0.7443102598190308 0.3093276023864746
vt 0.16565515100955963 0.8867153078317642

g snowman_tree01
s 1
usemtl snowman_tree01
f 3/3/3 2/2/2 1/1/1 
f 4/4/4 2/2/2 3/3/3 
f 4/4/4 5/5/5 2/2/2 
f 5/5/5 6/6/6 2/2/2 
f 6/6/6 7/7/7 2/2/2 
f 8/8/8 7/7/7 6/6/6 
f 8/8/8 6/6/6 9/9/9 
f 10/10/10 9/9/9 6/6/6 
f 11/11/11 8/8/8 9/9/9 
f 11/11/11 12/12/12 8/8/8 
f 13/13/13 8/8/8 12/12/12 
f 13/13/13 12/12/12 14/14/14 
f 14/14/14 15/15/15 13/13/13 
f 15/15/15 16/16/16 13/13/13 
f 16/16/16 17/17/17 13/13/13 
f 17/17/17 18/18/18 13/13/13 
f 13/13/13 18/18/18 19/19/19 
f 19/19/19 20/20/20 13/13/13 
f 20/20/20 21/21/21 13/13/13 
f 21/21/21 22/22/22 13/13/13 
f 22/22/22 23/23/23 13/13/13 
f 13/13/13 23/23/23 24/24/24 
f 25/25/25 24/24/24 23/23/23 
f 26/26/26 24/24/24 25/25/25 
f 27/27/27 26/26/26 25/25/25 
f 28/28/28 26/26/26 27/27/27 
f 13/13/13 24/24/24 8/8/8 
f 29/29/29 8/8/8 24/24/24 
f 29/29/29 30/30/30 8/8/8 
f 30/30/30 31/31/31 8/8/8 
f 8/8/8 31/31/31 32/32/32 
f 32/32/32 31/31/31 33/33/33 
f 32/32/32 34/34/34 8/8/8 
f 34/34/34 35/35/35 8/8/8 
f 34/34/34 36/36/36 35/35/35 
f 37/37/37 36/36/36 34/34/34 
f 35/35/35 38/38/38 8/8/8 
f 39/39/39 38/38/38 35/35/35 
f 40/40/40 39/39/39 35/35/35 
f 41/41/41 39/39/39 40/40/40 
f 42/42/42 39/39/39 41/41/41 
f 43/43/43 39/39/39 42/42/42 
f 44/44/44 43/43/43 42/42/42 
f 37/37/37 45/45/45 36/36/36 
f 36/36/36 45/45/45 46/46/46 
f 38/38/38 47/47/47 8/8/8 
f 8/8/8 47/47/47 7/7/7 
f 7/7/7 47/47/47 48/48/48 
f 48/48/48 49/49/49 7/7/7 
f 49/49/49 50/50/50 7/7/7 
f 47/47/47 51/51/51 48/48/48 
f 7/7/7 50/50/50 52/52/52 
f 7/7/7 52/52/52 2/2/2 
f 2/2/2 52/52/52 53/53/53 
f 2/2/2 53/53/53 54/54/54 
f 54/54/54 53/53/53 55/55/55 
f 55/55/55 53/53/53 56/56/56 
f 56/56/56 53/53/53 57/57/57 
f 53/53/53 52/52/52 58/58/58 
f 50/50/50 59/59/59 52/52/52 
f 48/48/48 60/60/60 49/49/49 
f 49/49/49 60/60/60 61/61/61 
f 62/62/62 61/61/61 60/60/60 
f 61/61/61 62/62/62 63/63/63 
f 64/64/64 63/63/63 62/62/62 
f 64/64/64 65/65/65 63/63/63 
f 66/66/66 63/63/63 65/65/65 
f 65/65/65 67/67/67 66/66/66 
f 68/68/68 66/66/66 67/67/67 
f 68/68/68 67/67/67 69/69/69 
f 70/70/70 69/69/69 67/67/67 
f 71/71/71 69/69/69 70/70/70 
f 72/72/72 69/69/69 71/71/71 
f 71/71/71 73/73/73 72/72/72 
f 74/74/74 72/72/72 73/73/73 
f 14/14/14 12/12/12 75/75/75 
f 76/76/76 47/47/47 38/38/38 

