v -3.5 -5.5 0.25
v -2.5 -4.5 0.25
v -2.5 -5.5 0.25
v -3.5 -4.5 0.25
v -1.5359838008880615 -4.5 0.25
v -1.5359838008880615 -4.830824851989746 0.25
v -1.5499999523162842 -4.949105739593506 0.25
v -1.5499999523162842 -5.5 0.25
v -2.549999952316284 -3.5 0.25
v -2.5 -3.549999952316284 0.25
v -3.5 -3.5 0.25
v -1.55941641330719 -4.365444660186768 0.25
v -1.5286669731140137 -3.897742509841919 0.25
v -1.8977423906326294 -3.529618978500366 0.25
v -1.5999999046325684 -3.549999952316284 0.25
v -1.5499999523162842 -3.5999999046325684 0.25
v -2.2022573947906494 -3.549999952316284 0.25
v -2.5363597869873047 -3.169175148010254 0.25
v -2.528846263885498 -2.830825090408325 0.25
v -2.549999952316284 -2.5 0.25
v -3.5 -2.5 0.25
v -2.5999999046325684 -1.5499999523162842 0.25
v -2.549999952316284 -2.0183026790618896 0.25
v -2.525747060775757 -1.8977423906326294 0.25
v -2.549999952316284 -1.5999999046325684 0.25
v -2.897742509841919 -1.5499999523162842 0.25
v -3.2022573947906494 -1.514933705329895 0.25
v -3.5 -1.5499999523162842 0.25
v -3.549999952316284 -1.5 0.25
v -4.5 -1.5 0.25
v -4.5 -2.5 0.25
v -4.5 -3.5 0.25
v -4.5 -4.5 0.25
v -4.5 -5.5 0.25
v -4.5 -0.5 0.25
v -3.549999952316284 -1.17831552028656 0.25
v -3.51043438911438 -1.041788101196289 0.25
v -3.549999952316284 -0.5 0.25
v -4.5 0.5 0.25
v -3.5124292373657227 -0.16917499899864197 0.25
v -3.549999952316284 0.1691749542951584 0.25
v -3.549999952316284 0.5 0.25
v -4.5 1.5 0.25
v -3.527275323867798 0.8570902943611145 0.25
v -3.527275323867798 1.1691749095916748 0.25
v -3.549999952316284 1.5 0.25
v -3.5 1.5499999523162842 0.25
v -4.5 2.5 0.25
v -4.169175148010254 2.464891195297241 0.25
v -4.053565502166748 2.5 0.25
v -3.5 2.5 0.25
v -3.185716152191162 2.4607231616973877 0.25
v -2.864283800125122 2.5 0.25
v -2.557190418243408 2.4854178428649902 0.25
v -2.5283398628234863 2.2022573947906494 0.25
v -2.5283398628234863 1.8977423906326294 0.25
v -2.549999952316284 1.5999999046325684 0.25
v -3.2022573947906494 1.527148962020874 0.25
v -2.897742509841919 1.5499999523162842 0.25
v -2.5999999046325684 1.5499999523162842 0.25
v -3.5249998569488525 1.5 0.22499999403953552
v -3.5 1.524999976158142 0.22499999403953552
v -3.1898488998413086 1.498223066329956 0.22892597317695618
v -2.872642993927002 1.5170587301254272 0.23294122517108917
v -2.4994139671325684 2.1898488998413086 0.22892597317695618
v -2.49539852142334 1.8726431131362915 0.23294122517108917
v -2.5624918937683105 1.5131326913833618 0.23686718940734863
v -2.5131328105926514 1.5624920129776 0.23686718940734863
v -2.5305442810058594 2.5 0.22499999403953552
v -3.4981398582458496 1.1691750288009644 0.22913530468940735
v -3.493910789489746 0.8570902943611145 0.23336468636989594
v -3.5124998092651367 0.5 0.23749999701976776
v -3.5124998092651367 0.1691749542951584 0.23749999701976776
v -3.474929094314575 -0.16917499899864197 0.23749999701976776
v -3.5124998092651367 -0.5 0.23749999701976776
v -3.477069854736328 -1.0417879819869995 0.23336468636989594
v -3.520864486694336 -1.17831552028656 0.22913530468940735
v -3.5249998569488525 -1.5 0.22499999403953552
v -3.5 -1.524999976158142 0.22499999403953552
v -3.1898488998413086 -1.486007809638977 0.22892597317695618
v -2.872642993927002 -1.5170587301254272 0.23294122517108917
v -2.5624918937683105 -1.5131326913833618 0.23686718940734863
v -2.512500047683716 -1.5625 0.23749999701976776
v -2.4882469177246094 -1.8726484775543213 0.23749999701976776
v -2.512500047683716 -2.00589656829834 0.23749999701976776
v -2.512500047683716 -2.5 0.23749999701976776
v -2.4954817295074463 -2.830824851989746 0.23336468636989594
v -2.5072245597839355 -3.169175148010254 0.22913530468940735
v -2.5249998569488525 -3.5 0.22499999403953552
v -2.5 -3.5249998569488525 0.22499999403953552
v -2.1898488998413086 -3.521074056625366 0.22892597317695618
v -1.8726431131362915 -3.496677875518799 0.23294122517108917
v -1.5624920129776 -3.5131328105926514 0.23686718940734863
v -1.5124999284744263 -3.5625 0.23749999701976776
v -1.4911669492721558 -3.872648239135742 0.23749999701976776
v -1.5219165086746216 -4.353039264678955 0.23749999701976776
v -1.4984838962554932 -4.5 0.23749999701976776
v -1.4984838962554932 -4.830824851989746 0.23749999701976776
v -1.5124999284744263 -4.949105739593506 0.23749999701976776
v -1.5124999284744263 -5.5 0.23749999701976776
v -2.864283800125122 2.549999952316284 0.5
v -2.549999952316284 2.6499998569488525 0.5
v -2.6499998569488525 2.549999952316284 0.5
v -2.549999952316284 2.864283800125122 0.5
v -3.185716152191162 2.510723114013672 0.5
v -3.5 2.549999952316284 0.5
v -2.5075230598449707 3.185716152191162 0.5
v -2.5075230598449707 3.5 0.5
v -3.5 3.5 0.5
v -2.549999952316284 3.830824851989746 0.5
v -2.510197162628174 4.169174671173096 0.5
v -2.549999952316284 4.5 0.5
v -3.5 4.5 0.5
v -2.5 4.549999713897705 0.5
v -2.5 5.5 0.5
v -3.5 5.5 0.5
v -1.5499999523162842 5.5 0.5
v -1.5050420761108398 5.2022576332092285 0.5
v -1.5050420761108398 4.89774227142334 0.5
v -1.5499999523162842 4.599999904632568 0.5
v -2.2022573947906494 4.5179033279418945 0.5
v -1.8977423906326294 4.549999713897705 0.5
v -1.5999999046325684 4.549999713897705 0.5
v -4.5 4.5 0.5
v -4.5 3.5 0.5
v -4.5 5.5 0.5
v -2.5249998569488525 4.5 0.4749999940395355
v -2.5 4.525000095367432 0.4749999940395355
v -2.1898488998413086 4.488977432250977 0.4789259731769562
v -1.8726431131362915 4.517058849334717 0.482941210269928
v -1.467542052268982 5.189851760864258 0.48749998211860657
v -1.467542052268982 4.872648239135742 0.48749998211860657
v -1.5624920129776 4.5131330490112305 0.48686715960502625
v -1.5124999284744263 4.5625 0.48749998211860657
v -9.5 5.5 0.5
v -9.5 4.5 0.5
v -9.5 3.5 0.5
v -4.5 2.549999952316284 0.5
v -9.5 2.549999952316284 0.5
v -4.053565502166748 2.549999952316284 0.5
v -4.169175148010254 2.5148913860321045 0.5
v -4.5 2.549999952316284 0.5
v -4.053565502166748 2.512500047683716 0.48749998211860657
v -4.169175148010254 2.477391242980957 0.48749998211860657
v -3.5 2.512500047683716 0.48749998211860657
v -4.5 2.512500047683716 0.48749998211860657
v -3.1733102798461914 2.4732232093811035 0.48749998211860657
v -2.8391897678375244 2.512500047683716 0.48749998211860657
v -2.612499952316284 2.512500047683716 0.48749998211860657
v -2.512500047683716 2.612499952316284 0.48749998211860657
v -2.512500047683716 2.8391897678375244 0.48749998211860657
v -2.4700231552124023 3.1733102798461914 0.48749998211860657
v -2.4700231552124023 3.5 0.48749998211860657
v -2.5166351795196533 3.830824851989746 0.48336467146873474
v -2.4810619354248047 4.169175148010254 0.47913530468940735
v -1.5124999284744263 5.5 0.48749998211860657
v -9.5 2.5 0.25
v -9.5 1.5 0.25
v -9.5 0.5 0.25
v -9.5 -0.5 0.25
v -9.5 -1.5 0.25
v -9.5 -2.5 0.25
v -9.5 -3.5 0.25
v -9.5 -4.5 0.25
v -9.5 -5.5 0.25
v -9.5 2.549999952316284 0.5
v -4.5 2.549999952316284 0.5
v -9.5 2.512500047683716 0.48749998211860657
v -2.5 5.5 0.5
v -1.5499999523162842 5.5 1.5258788721439487e-07
v -1.5499999523162842 5.5 0.5
v -2.5 5.5 1.5258788721439487e-07
v -1.5124999284744263 5.5 1.5258788721439487e-07
v -1.5124999284744263 5.5 0.48749998211860657
v -1.5124999284744263 5.5 0.48749998211860657
v -1.5 5.5 1.5258788721439487e-07
v -1.5 5.5 0.44999998807907104
v -1.5124999284744263 5.5 1.5258788721439487e-07
v -1.4859838485717773 -4.830824851989746 0.0
v -1.5 -4.949105739593506 0.19999998807907104
v -1.4859838485717773 -4.830824851989746 0.19999998807907104
v -1.5 -4.949105739593506 0.0
v -1.5124999284744263 -4.949105739593506 0.23749999701976776
v -1.4984838962554932 -4.830824851989746 0.23749999701976776
v -1.4859838485717773 -4.5 0.0
v -1.4859838485717773 -4.5 0.19999998807907104
v -1.5 -5.5 0.19999998807907104
v -1.5 -5.5 0.0
v -1.5094164609909058 -4.348903656005859 0.0
v -1.5094164609909058 -4.348903656005859 0.19999998807907104
v -1.47866690158844 -3.864283561706543 0.0
v -1.47866690158844 -3.864283561706543 0.19999998807907104
v -1.4911669492721558 -3.872648239135742 0.23749999701976776
v -1.5219165086746216 -4.353039264678955 0.23749999701976776
v -1.5 -3.549999952316284 0.0
v -1.5 -3.549999952316284 0.19999998807907104
v -1.5499999523162842 -3.5 0.19999998807907104
v -1.5499999523162842 -3.5 0.0
v -1.5624920129776 -3.5131328105926514 0.23686718940734863
v -1.5124999284744263 -3.5625 0.23749999701976776
v -1.4984838962554932 -4.5 0.23749999701976776
v -1.8477424383163452 -3.479619026184082 0.0
v -1.8477424383163452 -3.479619026184082 0.19999998807907104
v -2.1522574424743652 -3.5 0.0
v -2.1522574424743652 -3.5 0.19999998807907104
v -1.8726431131362915 -3.496677875518799 0.23294122517108917
v -2.1898488998413086 -3.521074056625366 0.22892597317695618
v -2.450000047683716 -3.5 0.0
v -2.450000047683716 -3.5 0.19999998807907104
v -2.5 -3.5249998569488525 0.22499999403953552
v -2.5 -3.4499998092651367 0.19999998807907104
v -2.5249998569488525 -3.5 0.22499999403953552
v -2.5072245597839355 -3.169175148010254 0.22913530468940735
v -2.4863598346710205 -3.135716199874878 0.19999998807907104
v -2.4954817295074463 -2.830824851989746 0.23336468636989594
v -2.478846311569214 -2.814283609390259 0.19999998807907104
v -2.478846311569214 -2.814283609390259 0.0
v -2.4863598346710205 -3.135716199874878 0.0
v -2.5 -2.5 0.0
v -2.5 -2.5 0.19999998807907104
v -2.5 -3.4499998092651367 0.0
v -2.512500047683716 -2.5 0.23749999701976776
v -2.5 -2.0017611980438232 0.0
v -2.5 -2.0017611980438232 0.19999998807907104
v -2.4757471084594727 -1.8642836809158325 0.0
v -2.4757471084594727 -1.8642836809158325 0.19999998807907104
v -2.4882469177246094 -1.8726484775543213 0.23749999701976776
v -2.512500047683716 -2.00589656829834 0.23749999701976776
v -2.5 -1.5499999523162842 0.0
v -2.5 -1.5499999523162842 0.19999998807907104
v -2.549999952316284 -1.5 0.19999998807907104
v -2.549999952316284 -1.5 0.0
v -2.5624918937683105 -1.5131326913833618 0.23686718940734863
v -2.512500047683716 -1.5625 0.23749999701976776
v -2.8477425575256348 -1.5 0.0
v -2.8477425575256348 -1.5 0.19999998807907104
v -3.152257204055786 -1.4649337530136108 0.0
v -3.152257204055786 -1.4649337530136108 0.19999998807907104
v -2.872642993927002 -1.5170587301254272 0.23294122517108917
v -3.1898488998413086 -1.486007809638977 0.22892597317695618
v -3.4499998092651367 -1.5 0.0
v -3.4499998092651367 -1.5 0.19999998807907104
v -3.5 -1.524999976158142 0.22499999403953552
v -3.5 -1.4499999284744263 0.19999998807907104
v -3.5249998569488525 -1.5 0.22499999403953552
v -3.520864486694336 -1.17831552028656 0.22913530468940735
v -3.5 -1.1448568105697632 0.19999998807907104
v -3.477069854736328 -1.0417879819869995 0.23336468636989594
v -3.4604344367980957 -1.0252467393875122 0.19999998807907104
v -3.4604344367980957 -1.0252467393875122 0.0
v -3.5 -1.1448568105697632 0.0
v -3.5 -0.5 0.0
v -3.5 -0.5 0.19999998807907104
v -3.5 -1.4499999284744263 0.0
v -3.5124998092651367 -0.5 0.23749999701976776
v -3.4624290466308594 -0.16917499899864197 0.0
v -3.4624290466308594 -0.16917499899864197 0.19999998807907104
v -3.5 0.1691749542951584 0.0
v -3.5 0.1691749542951584 0.19999998807907104
v -3.474929094314575 -0.16917499899864197 0.23749999701976776
v -3.5124998092651367 0.1691749542951584 0.23749999701976776
v -3.5 0.5 0.0
v -3.5 0.5 0.19999998807907104
v -3.5124998092651367 0.5 0.23749999701976776
v -3.4772753715515137 0.8405489921569824 0.0
v -3.4772753715515137 0.8405489921569824 0.19999998807907104
v -3.4772753715515137 1.135716199874878 0.0
v -3.4772753715515137 1.135716199874878 0.19999998807907104
v -3.493910789489746 0.8570902943611145 0.23336468636989594
v -3.4981398582458496 1.1691750288009644 0.22913530468940735
v -3.5 1.4499999284744263 0.0
v -3.5 1.4499999284744263 0.19999998807907104
v -3.5249998569488525 1.5 0.22499999403953552
v -3.4499998092651367 1.5 0.19999998807907104
v -3.5 1.524999976158142 0.22499999403953552
v -3.1898488998413086 1.498223066329956 0.22892597317695618
v -3.152257204055786 1.4771490097045898 0.19999998807907104
v -2.872642993927002 1.5170587301254272 0.23294122517108917
v -2.8477425575256348 1.5 0.19999998807907104
v -2.8477425575256348 1.5 0.0
v -3.152257204055786 1.4771490097045898 0.0
v -2.549999952316284 1.5 0.0
v -2.549999952316284 1.5 0.19999998807907104
v -2.5 1.5499999523162842 0.19999998807907104
v -2.5 1.5499999523162842 0.0
v -2.5131328105926514 1.5624920129776 0.23686718940734863
v -2.5624918937683105 1.5131326913833618 0.23686718940734863
v -3.4499998092651367 1.5 0.0
v -2.478339672088623 1.8642836809158325 0.0
v -2.478339672088623 1.8642836809158325 0.19999998807907104
v -2.478339672088623 2.185716152191162 0.0
v -2.478339672088623 2.185716152191162 0.19999998807907104
v -2.49539852142334 1.8726431131362915 0.23294122517108917
v -2.4994139671325684 2.1898488998413086 0.22892597317695618
v -2.5178847312927246 2.5 0.18942345678806305
v -2.5305442810058594 2.5 0.22499999403953552
v -2.5 2.5 0.0
v -2.4575231075286865 3.1691746711730957 0.0
v -2.5 2.830824851989746 0.44999998807907104
v -2.4575231075286865 3.1691746711730957 0.44999998807907104
v -2.5 2.830824851989746 0.0
v -2.512500047683716 2.8391897678375244 0.48749998211860657
v -2.4700231552124023 3.1733102798461914 0.48749998211860657
v -2.4575231075286865 3.5 0.0
v -2.4575231075286865 3.5 0.44999998807907104
v -2.5 3.814283609390259 0.0
v -2.5 3.814283609390259 0.44999998807907104
v -2.4601972103118896 4.135715961456299 0.0
v -2.4601972103118896 4.135715961456299 0.44999998807907104
v -2.5166351795196533 3.830824851989746 0.48336467146873474
v -2.4810619354248047 4.169175148010254 0.47913530468940735
v -2.5 4.449999809265137 0.0
v -2.5 4.449999809265137 0.44999998807907104
v -2.4700231552124023 3.5 0.48749998211860657
v -2.512500047683716 2.612499952316284 0.48749998211860657
v -2.5249998569488525 4.5 0.4749999940395355
v -2.450000047683716 4.5 0.44999998807907104
v -2.5 4.525000095367432 0.4749999940395355
v -2.5 2.5999999046325684 0.44999998807907104
v -2.5 2.5 0.0
v -2.5178847312927246 2.5 0.18942345678806305
v -2.5305442810058594 2.5 0.22499999403953552
v -2.5999999046325684 2.5 0.44999998807907104
v -2.557190418243408 2.4854178428649902 0.25
v -2.5 2.5999999046325684 0.44999998807907104
v -2.5178847312927246 2.5 0.18942345678806305
v -1.8477424383163452 4.5 0.0
v -2.1522574424743652 4.467903137207031 0.44999998807907104
v -1.8477424383163452 4.5 0.44999998807907104
v -2.1522574424743652 4.467903137207031 0.0
v -1.8726431131362915 4.517058849334717 0.482941210269928
v -2.1898488998413086 4.488977432250977 0.4789259731769562
v -1.5499999523162842 4.5 0.0
v -1.5499999523162842 4.5 0.44999998807907104
v -2.450000047683716 4.5 0.44999998807907104
v -2.450000047683716 4.5 0.0
v -1.5624920129776 4.5131330490112305 0.48686715960502625
v -2.5 4.525000095367432 0.4749999940395355
v -1.4550421237945557 5.18571662902832 0.0
v -1.4550421237945557 4.864283561706543 0.44999998807907104
v -1.4550421237945557 5.18571662902832 0.44999998807907104
v -1.4550421237945557 4.864283561706543 0.0
v -1.467542052268982 4.872648239135742 0.48749998211860657
v -1.467542052268982 5.189851760864258 0.48749998211860657
v -1.5 5.5 0.0
v -1.5 5.5 0.44999998807907104
v -1.5 4.549999713897705 0.44999998807907104
v -1.5 4.549999713897705 0.0
v -1.5499999523162842 4.5 0.0
v -1.5499999523162842 4.5 0.44999998807907104
v -1.5124999284744263 4.5625 0.48749998211860657
v -1.5624920129776 4.5131330490112305 0.48686715960502625
v -1.5124999284744263 5.5 0.48749998211860657
v -4.053565502166748 2.5 0.25
v -4.169175148010254 2.464891195297241 0.44999998807907104
v -4.053565502166748 2.5 0.44999998807907104
v -4.169175148010254 2.464891195297241 0.25
v -4.169175148010254 2.477391242980957 0.48749998211860657
v -4.053565502166748 2.512500047683716 0.48749998211860657
v -3.5 2.5 0.25
v -3.5 2.5 0.44999998807907104
v -4.5 2.5 0.44999998807907104
v -4.5 2.5 0.25
v -3.5 2.512500047683716 0.48749998211860657
v -4.5 2.512500047683716 0.48749998211860657
v -3.185716152191162 2.4607231616973877 0.25
v -3.169175148010254 2.4607231616973877 0.44999998807907104
v -2.864283800125122 2.5 0.25
v -2.830825090408325 2.5 0.44999998807907104
v -2.8391897678375244 2.512500047683716 0.48749998211860657
v -3.1733102798461914 2.4732232093811035 0.48749998211860657
v -2.612499952316284 2.512500047683716 0.48749998211860657
v -2.5999999046325684 2.5 0.44999998807907104
v -2.557190418243408 2.4854178428649902 0.25
v -2.5 4.449999809265137 0.0
v -2.450000047683716 4.5 0.44999998807907104
v -2.450000047683716 4.5 0.0
v -2.5 4.449999809265137 0.44999998807907104
v -3.5 1.4499999284744263 0.0
v -3.4499998092651367 1.5 0.19999998807907104
v -3.4499998092651367 1.5 0.0
v -3.5 1.4499999284744263 0.19999998807907104
v -2.450000047683716 -3.5 0.0
v -2.5 -3.4499998092651367 0.19999998807907104
v -2.5 -3.4499998092651367 0.0
v -2.450000047683716 -3.5 0.19999998807907104
v -3.4499998092651367 -1.5 0.0
v -3.5 -1.4499999284744263 0.19999998807907104
v -3.5 -1.4499999284744263 0.0
v -3.4499998092651367 -1.5 0.19999998807907104
v -1.5124999284744263 -5.5 0.23749999701976776
v -2.512500047683716 2.612499952316284 0.48749998211860657
v -2.5999999046325684 2.5 0.44999998807907104
v -2.612499952316284 2.512500047683716 0.48749998211860657
v -2.5 2.5999999046325684 0.44999998807907104
v -4.5 2.5 0.25
v -9.5 2.5 0.44999998807907104
v -4.5 2.5 0.44999998807907104
v -9.5 2.5 0.25
v -4.5 2.5 0.44999998807907104
v -9.5 2.512500047683716 0.48749998211860657
v -4.5 2.512500047683716 0.48749998211860657
v -9.5 2.5 0.44999998807907104
vn -0.0 0.0 1.0
vn -0.0 0.0 1.0
vn -0.0 0.0 1.0
vn -0.0 0.0 1.0
vn 0.16866831481456757 0.015402104705572128 0.9855524897575378
vn 0.16600637137889862 -0.010170531459152699 0.9860721826553345
vn 0.1542932242155075 -0.008801024407148361 0.9879859089851379
vn 0.16018222272396088 0.0 0.9870874881744385
vn 0.28293049335479736 0.09001120924949646 0.9549074769020081
vn 0.10198710113763809 0.28934937715530396 0.9517750144004822
vn -0.0 0.0 1.0
vn 0.1461229920387268 0.00942345429211855 0.989221453666687
vn 0.16917894780635834 -0.0037118264008313417 0.9855782985687256
vn -0.012483565136790276 0.25659987330436707 0.9664371609687805
vn 0.04394836351275444 0.16758060455322266 0.9848782420158386
vn 0.14999940991401672 0.04865638539195061 0.9874881505966187
vn -0.013249577954411507 0.3105306625366211 0.9504709839820862
vn 0.30472588539123535 -0.01394458208233118 0.9523380994796753
vn 0.2325528860092163 0.0007226920570246875 0.9725834131240845
vn 0.15700103342533112 0.004920268896967173 0.9875861406326294
vn -0.0 0.0 1.0
vn 0.035614438354969025 0.1788083165884018 0.9832391738891602
vn 0.15385369956493378 -0.011735095642507076 0.9880239367485046
vn 0.18514041602611542 -0.020127205178141594 0.9825059175491333
vn 0.14866513013839722 0.04957091063261032 0.987644374370575
vn 0.011387556791305542 0.22441257536411285 0.9744276404380798
vn -0.014516817405819893 0.3365873098373413 0.9415404200553894
vn 0.080833800137043 0.2777533233165741 0.9572455883026123
vn 0.2868883013725281 0.09741341322660446 0.9529982805252075
vn -0.0 0.0 1.0
vn -0.0 0.0 1.0
vn -0.0 0.0 1.0
vn -0.0 0.0 1.0
vn -0.0 0.0 1.0
vn -0.0 0.0 1.0
vn 0.2738972008228302 -0.04321199655532837 0.9607877135276794
vn 0.2515529990196228 -0.03246600180864334 0.9672988653182983
vn 0.15091419219970703 -0.0028753853403031826 0.9885426759719849
vn -0.0 0.0 1.0
vn 0.1712522953748703 -0.00022955892200116068 0.9852272272109985
vn 0.15466231107711792 0.008287700824439526 0.9879326224327087
vn 0.15929406881332397 -0.001714878249913454 0.9872296452522278
vn -0.0 0.0 1.0
vn 0.2363739013671875 -0.003228247631341219 0.9716567397117615
vn 0.31429219245910645 0.015496164560317993 0.9491997957229614
vn 0.2826729714870453 -0.08931393921375275 0.9550492167472839
vn 0.08788850158452988 -0.28187257051467896 0.9554179906845093
vn -0.0 0.0 1.0
vn -0.0 0.0 1.0
vn -0.0 0.0 1.0
vn -0.0 0.0 1.0
vn -0.0 0.0 1.0
vn -0.0 0.0 1.0
vn 0.3700049817562103 0.037699148058891296 0.9282645583152771
vn 0.3271133303642273 0.023674676194787025 0.9446884989738464
vn 0.24481111764907837 0.00027540241717360914 0.9695707559585571
vn 0.16685056686401367 -0.04645995423197746 0.9848870635032654
vn -0.011035960167646408 -0.32878077030181885 0.944341778755188
vn 0.005866631865501404 -0.23069648444652557 0.9730080366134644
vn 0.03765226528048515 -0.17874957621097565 0.9831739068031311
vn 0.5787785053253174 -0.28590288758277893 0.7637243866920471
vn 0.28411853313446045 -0.5797869563102722 0.76362544298172
vn -0.02015620470046997 -0.721182644367218 0.6924516558647156
vn 0.021768718957901 -0.688633143901825 0.7247831225395203
vn 0.7160724997520447 0.05160873010754585 0.6961154937744141
vn 0.7009505033493042 -0.0179750956594944 0.7129834294319153
vn 0.24850809574127197 -0.653731107711792 0.7147582769393921
vn 0.6368287801742554 -0.2713339328765869 0.7216835021972656
vn 0.8388805985450745 0.08746036887168884 0.5372430086135864
vn 0.7211445569992065 0.04051102697849274 0.6915991902351379
vn 0.7040897011756897 -0.009803595021367073 0.7100433111190796
vn 0.7003435492515564 -0.018414122983813286 0.713568389415741
vn 0.6983315348625183 0.03869073837995529 0.7147279977798462
vn 0.7223275899887085 -0.000903940002899617 0.6915504932403564
vn 0.6930424571037292 -0.013670255430042744 0.7207671403884888
vn 0.7473228573799133 -0.12596078217029572 0.6524127721786499
vn 0.7189865708351135 -0.0948665663599968 0.6885191798210144
vn 0.5733399987220764 0.29827648401260376 0.7630939483642578
vn 0.2740744650363922 0.5848188400268555 0.763459324836731
vn -0.029161427170038223 0.7301803827285767 0.6826318502426147
vn 0.0358482301235199 0.6793746948242188 0.7329154014587402
vn 0.24634090065956116 0.6566264033317566 0.7128519415855408
vn 0.6368470191955566 0.28081250190734863 0.7180321216583252
vn 0.7279776334762573 -0.03838261589407921 0.6845256686210632
vn 0.7004977464675903 -0.0661555826663971 0.7105816006660461
vn 0.7019088864326477 0.022533148527145386 0.7119101881980896
vn 0.7112616300582886 0.0006899439031258225 0.7029270529747009
vn 0.7192263603210449 -0.032784149050712585 0.6940019726753235
vn 0.5784787535667419 0.28847917914390564 0.7629823684692383
vn 0.30230462551116943 0.5701220035552979 0.7639194130897522
vn -0.025141330435872078 0.7116183042526245 0.7021163105964661
vn -0.013033470138907433 0.7149806618690491 0.6990227699279785
vn 0.2687506377696991 0.6399251222610474 0.7199090123176575
vn 0.6391957998275757 0.2778111696243286 0.7171120047569275
vn 0.7148205041885376 0.0010927547700703144 0.6993072032928467
vn 0.6878401637077332 0.0306473970413208 0.7252148985862732
vn 0.7158893346786499 0.05771389976143837 0.6958243250846863
vn 0.714413046836853 -0.042222410440444946 0.6984491348266602
vn 0.6976851224899292 -0.041239265352487564 0.7152165770530701
vn 0.7071066498756409 0.0 0.70710688829422
vn 0.011332356370985508 -0.14730659127235413 0.989025890827179
vn 0.16043037176132202 -0.04122725501656532 0.9861857295036316
vn 0.04122726246714592 -0.16043037176132202 0.9861857891082764
vn 0.14633338153362274 -0.01213266421109438 0.98916095495224
vn -0.004367180168628693 -0.17343346774578094 0.9848359227180481
vn -0.009242229163646698 -0.15397316217422485 0.9880317449569702
vn 0.16392269730567932 -0.009019847959280014 0.9864320158958435
vn 0.1689113825559616 0.015417609363794327 0.9855107069015503
vn -0.0 0.0 1.0
vn 0.214703768491745 0.004491043277084827 0.9766688942909241
vn 0.3288878798484802 0.005300839897245169 0.9443541169166565
vn 0.27749618887901306 -0.08040835708379745 0.9573559165000916
vn -0.0 0.0 1.0
vn 0.08251726627349854 -0.27876073122024536 0.9568089246749878
vn -0.0 0.0 1.0
vn -0.0 0.0 1.0
vn 0.14518937468528748 0.0219230055809021 0.98916095495224
vn 0.17199498414993286 0.015589393675327301 0.9849745035171509
vn 0.16259489953517914 -0.008094421587884426 0.9866596460342407
vn 0.13972319662570953 -0.05747140571475029 0.9885213375091553
vn -0.013643347658216953 -0.33469656109809875 0.9422271847724915
vn 0.01008707657456398 -0.2259170114994049 0.9740943312644958
vn 0.03765241801738739 -0.1787503957748413 0.983173668384552
vn -0.0 0.0 1.0
vn -0.0 0.0 1.0
vn -0.0 0.0 1.0
vn 0.5851073861122131 -0.27312299609184265 0.7635791301727295
vn 0.27653518319129944 -0.5836055278778076 0.7635003924369812
vn -0.02686787210404873 -0.7279569506645203 0.6850961446762085
vn 0.0324871763586998 -0.6816257834434509 0.7309794425964355
vn 0.321531742811203 0.018003087490797043 0.9467276334762573
vn 0.29798978567123413 -0.028928203508257866 0.9541306495666504
vn 0.0656045451760292 -0.6174840331077576 0.7838428020477295
vn 0.20265787839889526 -0.12124694883823395 0.9717144966125488
vn -0.0 0.0 1.0
vn -0.0 0.0 1.0
vn -0.0 0.0 1.0
vn -0.0 0.0 1.0
vn -0.0 0.0 1.0
vn 0.019869662821292877 -0.14537274837493896 0.989177405834198
vn 0.019565468654036522 -0.17985589802265167 0.9834983944892883
vn -0.01587878167629242 -0.14962400496006012 0.9886154532432556
vn 0.05175769329071045 -0.3158038854598999 0.9474117159843445
vn 0.02689783275127411 -0.31611335277557373 0.9483399987220764
vn -0.020433461293578148 -0.31659674644470215 0.948340117931366
vn -0.033540647476911545 -0.3160499036312103 0.948149561882019
vn 0.006836351938545704 -0.3137039840221405 0.9494962096214294
vn 0.011907960288226604 -0.3090246617794037 0.950979471206665
vn 0.10756606608629227 -0.21592304110527039 0.9704673290252686
vn 0.6196134686470032 -0.06887886673212051 0.7818789482116699
vn 0.6890209317207336 -0.04321945831179619 0.7234516143798828
vn 0.7101849913597107 -0.04508453235030174 0.7025700211524963
vn 0.7136620879173279 0.051677197217941284 0.6985813975334167
vn 0.6867235898971558 -0.003095869207754731 0.7269121408462524
vn 0.7296833992004395 0.037253785878419876 0.6827695965766907
vn 0.31691935658454895 0.04770634323358536 0.9472519159317017
vn -0.0 0.0 1.0
vn -0.0 0.0 1.0
vn -0.0 0.0 1.0
vn -0.0 0.0 1.0
vn -0.0 0.0 1.0
vn -0.0 0.0 1.0
vn -0.0 0.0 1.0
vn -0.0 0.0 1.0
vn -0.0 0.0 1.0
vn -0.0 -0.3162277638912201 0.9486833214759827
vn -0.0 -0.3162277936935425 0.9486833214759827
vn -0.0 -0.3162277936935425 0.9486833214759827
vn -0.0 1.0 0.0
vn -0.0 1.0 0.0
vn -0.0 1.0 0.0
vn -0.0 1.0 0.0
vn -0.0 1.0 0.0
vn -0.0 1.0 0.0
vn -0.0 1.0 0.0
vn -0.0 1.0 0.0
vn -0.0 1.0 0.0
vn -0.0 1.0 0.0
vn 0.9982615113258362 -0.05894020199775696 0.0
vn 0.985238790512085 -0.05851604416966438 0.16087402403354645
vn 0.9855828285217285 -0.05786259099841118 0.15899145603179932
vn 0.9982615113258362 -0.058940205723047256 0.0
vn 0.6976851224899292 -0.041239265352487564 0.7152165770530701
vn 0.714413046836853 -0.042222410440444946 0.6984491348266602
vn 0.9970423579216003 0.07685336470603943 0.0
vn 0.9843177795410156 0.07613547891378403 0.15912902355194092
vn 0.9870874881744385 0.0 0.16018225252628326
vn 1.0 0.0 0.0
vn 0.9989765882492065 0.04523087292909622 0.0
vn 0.9856438636779785 0.04137371480464935 0.16368979215621948
vn 0.999997615814209 0.00220420490950346 0.0
vn 0.9870378971099854 0.006454683840274811 0.16035734117031097
vn 0.7148205041885376 0.0010927547700703144 0.6993072032928467
vn 0.6878401637077332 0.0306473970413208 0.7252148985862732
vn 0.9103836417198181 0.4137653410434723 0.0
vn 0.8856102228164673 0.41868168115615845 0.20099812746047974
vn 0.4164298176765442 0.8850861191749573 0.2078671008348465
vn 0.41402503848075867 0.9102655053138733 0.0
vn 0.2687506377696991 0.6399251222610474 0.7199090123176575
vn 0.6391957998275757 0.2778111696243286 0.7171120047569275
vn 0.7158893346786499 0.05771389976143837 0.6958243250846863
vn 0.00075772765558213 0.9999997615814209 0.0
vn 0.005622317548841238 0.97214275598526 0.23432204127311707
vn -0.03340839594602585 0.9994418025016785 0.0
vn -0.04573895037174225 0.9586072564125061 0.28103405237197876
vn -0.013033470138907433 0.7149806618690491 0.6990227699279785
vn -0.025141330435872078 0.7116183042526245 0.7021163105964661
vn -0.0 1.0 0.0
vn 0.07163552194833755 0.7945114374160767 0.6030091047286987
vn 0.30230462551116943 0.5701220035552979 0.7639194130897522
vn 0.8089564442634583 0.04039929062128067 0.5864788293838501
vn 0.5784787535667419 0.28847917914390564 0.7629823684692383
vn 0.7192263603210449 -0.032784149050712585 0.6940019726753235
vn 0.9573869109153748 -0.03584304824471474 0.2865755259990692
vn 0.7112616300582886 0.0006899439031258225 0.7029270529747009
vn 0.973347544670105 0.020716043189167976 0.22839723527431488
vn 0.9997598528862 0.02191588655114174 0.0
vn 0.9994432330131531 -0.03336583450436592 0.0
vn 0.9994354844093323 0.033596597611904144 0.0
vn 0.9864519834518433 0.03327089175581932 0.16064131259918213
vn 0.9990594983100891 -0.04335988312959671 0.0
vn 0.7019088864326477 0.022533148527145386 0.7119101881980896
vn 0.9961910247802734 -0.08719764649868011 0.0
vn 0.9836859107017517 -0.09097311645746231 0.15519624948501587
vn 0.9988094568252563 -0.048781029880046844 0.0
vn 0.987069845199585 -0.0397460050880909 0.15528516471385956
vn 0.7279776334762573 -0.03838261589407921 0.6845256686210632
vn 0.7004977464675903 -0.0661555826663971 0.7105816006660461
vn 0.9084618091583252 0.4179677963256836 0.0
vn 0.883737325668335 0.4224680960178375 0.20131821930408478
vn 0.3882778584957123 0.8983510136604309 0.20544007420539856
vn 0.3826834261417389 0.9238795042037964 0.0
vn 0.24634090065956116 0.6566264033317566 0.7128519415855408
vn 0.6368470191955566 0.28081250190734863 0.7180321216583252
vn 0.057293325662612915 0.998357355594635 0.0
vn 0.040192991495132446 0.9692599773406982 0.24273349344730377
vn -0.0012920672306790948 0.9999991655349731 0.0
vn 0.01438827533274889 0.9495470523834229 0.31329452991485596
vn 0.0358482301235199 0.6793746948242188 0.7329154014587402
vn -0.029161427170038223 0.7301803827285767 0.6826318502426147
vn -0.11696521192789078 0.9931360483169556 0.0
vn -0.01645267754793167 0.834296464920044 0.5510706305503845
vn 0.2740744650363922 0.5848188400268555 0.763459324836731
vn 0.7946821451187134 0.07147350162267685 0.6028034090995789
vn 0.5733399987220764 0.29827648401260376 0.7630939483642578
vn 0.7189865708351135 -0.0948665663599968 0.6885191798210144
vn 0.959991455078125 -0.19849076867103577 0.1975293606519699
vn 0.7473228573799133 -0.12596078217029572 0.6524127721786499
vn 0.9735000133514404 -0.09818071871995926 0.20653827488422394
vn 0.9925507307052612 -0.12183237820863724 0.0
vn 0.9872704744338989 -0.1590501070022583 0.0
vn 0.9998205304145813 -0.018947463482618332 0.0
vn 0.9866609573364258 -0.018877020105719566 0.1616908758878708
vn 1.0 0.0 0.0
vn 0.6930424571037292 -0.013670255430042744 0.7207671403884888
vn 0.9999992847442627 -0.0012471311492845416 0.0
vn 0.9873724579811096 -0.0012184816878288984 0.15841145813465118
vn 0.9984716773033142 0.05526593700051308 0.0
vn 0.9854542016983032 0.05484798550605774 0.16084657609462738
vn 0.7223275899887085 -0.000903940002899617 0.6915504932403564
vn 0.6983315348625183 0.03869073837995529 0.7147279977798462
vn 0.9994451403617859 -0.03330911695957184 0.0
vn 0.9864620566368103 -0.03298525512218475 0.16063812375068665
vn 0.7003435492515564 -0.018414122983813286 0.713568389415741
vn 0.9994451403617859 -0.03330911695957184 0.0
vn 0.9725304245948792 -0.030764199793338776 0.2307339608669281
vn 0.9993488192558289 0.036082372069358826 0.0
vn 0.9570906758308411 0.033834751695394516 0.2878067195415497
vn 0.7040897011756897 -0.009803595021367073 0.7100433111190796
vn 0.7211445569992065 0.04051102697849274 0.6915991902351379
vn 0.9973961114883423 0.07211776077747345 0.0
vn 0.8186229467391968 -0.018924584612250328 0.5740193724632263
vn 0.5787785053253174 -0.28590288758277893 0.7637243866920471
vn 0.01515922136604786 -0.8205805420875549 0.5713297128677368
vn 0.28411853313446045 -0.5797869563102722 0.76362544298172
vn -0.02015620470046997 -0.721182644367218 0.6924516558647156
vn 0.007602151017636061 -0.9509197473526001 0.3093442916870117
vn 0.021768718957901 -0.688633143901825 0.7247831225395203
vn 0.02430000528693199 -0.9708712100982666 0.23836657404899597
vn 0.037441328167915344 -0.9992988109588623 0.0
vn -0.0008485062862746418 -0.9999996423721313 0.0
vn 0.3826834261417389 -0.9238795042037964 0.0
vn 0.38827791810035706 -0.8983510136604309 0.20544007420539856
vn 0.8849927186965942 -0.4166208505630493 0.20788206160068512
vn 0.9101690649986267 -0.4142368733882904 0.0
vn 0.6368287801742554 -0.2713339328765869 0.7216835021972656
vn 0.24850809574127197 -0.653731107711792 0.7147582769393921
vn -0.07652231305837631 -0.9970678687095642 0.0
vn 0.9994081258773804 -0.034398362040519714 0.0
vn 0.9713420271873474 -0.031131481751799583 0.23563843965530396
vn 0.9994081258773804 0.034398362040519714 0.0
vn 0.9491384625434875 0.05675021559000015 0.3097025752067566
vn 0.7009505033493042 -0.0179750956594944 0.7129834294319153
vn 0.7160724997520447 0.05160873010754585 0.6961154937744141
vn 0.9782781600952148 -0.12445296347141266 0.1657809466123581
vn 0.8388805985450745 0.08746036887168884 0.5372430086135864
vn 0.9990376234054565 0.024044571444392204 0.03668445348739624
vn 0.9980510473251343 -0.062403272837400436 0.0
vn 0.9843506813049316 -0.05785844475030899 0.16645145416259766
vn 0.9846958518028259 -0.0634985864162445 0.16230225563049316
vn 0.9980510473251343 -0.062403272837400436 0.0
vn 0.6890209317207336 -0.04321945831179619 0.7234516143798828
vn 0.7101849913597107 -0.04508453235030174 0.7025700211524963
vn 0.9977449178695679 0.06711965054273605 0.0
vn 0.9851144552230835 0.06584437936544418 0.15878967940807343
vn 0.9999845027923584 0.005569129716604948 0.0
vn 0.9747412800788879 0.025718729943037033 0.2218509465456009
vn 0.9999990463256836 0.0013865845976397395 0.0
vn 0.9514991641044617 -0.01411682739853859 0.30732718110084534
vn 0.6867235898971558 -0.003095869207754731 0.7269121408462524
vn 0.7296833992004395 0.037253785878419876 0.6827695965766907
vn 0.9920756816864014 0.12564219534397125 0.0
vn 0.836514949798584 0.02271305024623871 0.547473132610321
vn 0.7136620879173279 0.051677197217941284 0.6985813975334167
vn 0.6196134686470032 -0.06887886673212051 0.7818789482116699
vn 0.5851073861122131 -0.27312299609184265 0.7635791301727295
vn -0.008681471459567547 -0.8309887647628784 0.5562213659286499
vn 0.27653518319129944 -0.5836055278778076 0.7635003924369812
vn 0.9629807472229004 -0.2151746302843094 0.16238227486610413
vn 0.9990376234054565 0.024044571444392204 0.03668445348739624
vn 0.9782781600952148 -0.12445296347141266 0.1657809466123581
vn 0.6500743627548218 -0.7269020676612854 0.2213975191116333
vn 0.22761133313179016 -0.9557220935821533 0.18651649355888367
vn 0.38793984055519104 -0.9095038771629333 0.1493496596813202
vn 0.6523211598396301 -0.7215234041213989 0.23212289810180664
vn 0.6523212194442749 -0.7215234041213989 0.23212292790412903
vn 0.052483104169368744 -0.9986218214035034 0.0
vn 0.012789337895810604 -0.9498683214187622 0.3123885691165924
vn 0.03634055331349373 -0.9696770310401917 0.24167294800281525
vn -0.0011852933093905449 -0.9999992847442627 0.0
vn 0.0324871763586998 -0.6816257834434509 0.7309794425964355
vn -0.02686787210404873 -0.7279569506645203 0.6850961446762085
vn -0.0 -1.0 0.0
vn -0.0 -0.9884310960769653 0.15167097747325897
vn -0.008681471459567547 -0.8309887647628784 0.5562213659286499
vn -0.10717878490686417 -0.9942398071289062 0.0
vn 0.0656045451760292 -0.6174840331077576 0.7838428020477295
vn 0.27653518319129944 -0.5836055278778076 0.7635003924369812
vn 0.9974775910377502 0.07098272442817688 0.0
vn 0.9832113981246948 -0.07432855665683746 0.16664552688598633
vn 0.9855196475982666 0.06744810193777084 0.15556971728801727
vn 0.9974775910377502 -0.07098265737295151 0.0
vn 0.9429118037223816 -0.0597686730325222 0.32763561606407166
vn 0.9483600854873657 0.07312006503343582 0.3086528778076172
vn 0.9899229407310486 0.14160732924938202 0.0
vn 0.9769970178604126 0.14060725271701813 0.1603320837020874
vn 0.8710312843322754 -0.4477877914905548 0.20196689665317535
vn 0.8943852186203003 -0.4472975730895996 0.0
vn 0.7071067690849304 -0.7071067690849304 0.0
vn 0.6870071291923523 -0.6915969252586365 0.22296838462352753
vn 0.829100489616394 -0.38373446464538574 0.4066205322742462
vn 0.627738893032074 -0.6413413286209106 0.44116342067718506
vn 0.9398382306098938 0.13623526692390442 0.3132793605327606
vn 0.14688286185264587 -0.9891539216041565 0.0
vn 0.0915711373090744 -0.9834277033805847 0.1564757525920868
vn 0.14716234803199768 -0.9759470224380493 0.160844087600708
vn 0.09441100060939789 -0.9955332279205322 0.0
vn 0.0934048667550087 -0.9445358514785767 0.3148452639579773
vn 0.13557283580303192 -0.9399244785308838 0.3133081793785095
vn -0.06212379038333893 -0.9980685114860535 0.0
vn -0.059951867908239365 -0.9850476980209351 0.1615140587091446
vn -0.10415470600128174 -0.9814382791519165 0.16102996468544006
vn -0.10553193837404251 -0.9944158792495728 0.0
vn -0.056062132120132446 -0.9471913576126099 0.3157304525375366
vn -0.10017219185829163 -0.9439115524291992 0.314637154340744
vn -0.005676968488842249 -0.9999829530715942 -0.0013827783986926079
vn 0.00680830143392086 -0.987461507320404 0.15771307051181793
vn 0.055160485208034515 -0.9984695315361023 0.0039858766831457615
vn 0.05050068348646164 -0.985542893409729 0.16172488033771515
vn 0.061091601848602295 -0.9428918361663818 0.32744887471199036
vn -0.008265184238553047 -0.9487834572792053 0.3158189654350281
vn -0.0 -0.9486833214759827 0.3162277638912201
vn 0.22761133313179016 -0.9557220935821533 0.18651649355888367
vn 0.38793984055519104 -0.9095038771629333 0.1493496596813202
vn 0.7071067690849304 -0.7071067690849304 0.0
vn 0.7071067690849304 -0.7071067690849304 0.0
vn 0.7071067690849304 -0.7071067690849304 0.0
vn 0.7071067690849304 -0.7071067690849304 0.0
vn 0.7071067690849304 -0.7071067690849304 0.0
vn 0.7071067690849304 -0.7071067690849304 0.0
vn 0.7071067690849304 -0.7071067690849304 0.0
vn 0.7071067690849304 -0.7071067690849304 0.0
vn 0.7071067690849304 0.7071067690849304 0.0
vn 0.7071067690849304 0.7071067690849304 0.0
vn 0.7071067690849304 0.7071067690849304 0.0
vn 0.7071067690849304 0.7071067690849304 0.0
vn 0.7071067690849304 0.7071067690849304 0.0
vn 0.7071067690849304 0.7071067690849304 0.0
vn 0.7071067690849304 0.7071067690849304 0.0
vn 0.7071067690849304 0.7071067690849304 0.0
vn 0.7071066498756409 0.0 0.70710688829422
vn 0.6396021246910095 -0.6396021246910095 0.42640143632888794
vn 0.6396021246910095 -0.6396021246910095 0.42640143632888794
vn 0.6396021246910095 -0.6396021246910095 0.42640143632888794
vn 0.6396021246910095 -0.6396021246910095 0.42640143632888794
vn -0.0 -1.0 0.0
vn -0.0 -1.0 0.0
vn -0.0 -1.0 0.0
vn -0.0 -1.0 0.0
vn -0.0 -0.9486833214759827 0.3162277638912201
vn -0.0 -0.9486833214759827 0.3162277638912201
vn -0.0 -0.9486833214759827 0.3162277936935425
vn -0.0 -0.9486833214759827 0.3162277936935425
vt 0.2550794780254364 -0.365841269493103
vt 0.5045708417892456 -0.119110107421875
vt 0.2550794780254364 -0.119110107421875
vt 0.5045710206031799 -0.365841269493103
vt 0.5045708417892456 0.11874282360076904
vt 0.42203280329704285 0.11874282360076904
vt 0.392522931098938 0.11528456211090088
vt 0.2550794780254364 0.11528456211090088
vt 0.7540621161460876 -0.1314467191696167
vt 0.7415876984596252 -0.119110107421875
vt 0.7540621161460876 -0.365841269493103
vt 0.5381411910057068 0.1129612922668457
vt 0.6548289656639099 0.12054812908172607
vt 0.7466724514961243 0.029485583305358887
vt 0.7415876984596252 0.10294806957244873
vt 0.7291131019592285 0.11528456211090088
vt 0.7415876984596252 -0.04564774036407471
vt 0.836600124835968 -0.12808120250701904
vt 0.9210155010223389 -0.1262274980545044
vt 1.0035535097122192 -0.1314467191696167
vt 1.0035535097122192 -0.365841269493103
vt 1.240570306777954 -0.1437833309173584
vt 1.1237329244613647 -0.1314467191696167
vt 1.1538116931915283 -0.12546277046203613
vt 1.2280958890914917 -0.1314467191696167
vt 1.240570306777954 -0.2172456979751587
vt 1.2493191957473755 -0.2923790216445923
vt 1.240570306777954 -0.365841269493103
vt 1.253044843673706 -0.3781780004501343
vt 1.253044843673706 -0.6125725507736206
vt 1.0035535097122192 -0.6125725507736206
vt 0.7540621161460876 -0.6125725507736206
vt 0.5045710206031799 -0.6125725507736206
vt 0.2550794780254364 -0.6125725507736206
vt 1.5025365352630615 -0.6125725507736206
vt 1.3333024978637695 -0.3781780004501343
vt 1.3673648834228516 -0.36841583251953125
vt 1.5025365352630615 -0.3781780004501343
vt 1.7520276308059692 -0.6125725507736206
vt 1.5850743055343628 -0.3689080476760864
vt 1.6694895029067993 -0.3781780004501343
vt 1.7520276308059692 -0.3781780004501343
vt 2.001518964767456 -0.6125725507736206
vt 1.8411184549331665 -0.37257111072540283
vt 1.9189807176589966 -0.37257111072540283
vt 2.001518726348877 -0.3781780004501343
vt 2.013993501663208 -0.365841269493103
vt 2.2510101795196533 -0.6125725507736206
vt 2.242250919342041 -0.5309475660324097
vt 2.2510101795196533 -0.5024231672286987
vt 2.2510101795196533 -0.365841269493103
vt 2.241211175918579 -0.28829753398895264
vt 2.2510101795196533 -0.208990216255188
vt 2.2473719120025635 -0.13322067260742188
vt 2.1767258644104004 -0.12610244750976562
vt 2.100752353668213 -0.12610244750976562
vt 2.02646803855896 -0.1314467191696167
vt 2.0082921981811523 -0.2923790216445923
vt 2.013993501663208 -0.2172456979751587
vt 2.013993501663208 -0.1437833309173584
vt 2.001518726348877 -0.37200963497161865
vt 2.007755994796753 -0.365841269493103
vt 2.001075506210327 -0.2893174886703491
vt 2.005774736404419 -0.21105289459228516
vt 2.1736299991607666 -0.1189655065536499
vt 2.0944902896881104 -0.11797475814819336
vt 2.004795551300049 -0.13452887535095215
vt 2.0171101093292236 -0.12235045433044434
vt 2.2510101795196533 -0.12664616107940674
vt 1.9189807176589966 -0.36538243293762207
vt 1.8411184549331665 -0.3643389940261841
vt 1.7520276308059692 -0.36892545223236084
vt 1.6694895029067993 -0.36892545223236084
vt 1.5850743055343628 -0.359655499458313
vt 1.5025365352630615 -0.36892545223236084
vt 1.3673648834228516 -0.36018383502960205
vt 1.3333024978637695 -0.3709893226623535
vt 1.253044843673706 -0.37200963497161865
vt 1.24680757522583 -0.365841269493103
vt 1.2565358877182007 -0.2893174886703491
vt 1.2487889528274536 -0.21105289459228516
vt 1.2497684955596924 -0.13452887535095215
vt 1.2374516725540161 -0.12219429016113281
vt 1.1600723266601562 -0.11621034145355225
vt 1.1268280744552612 -0.12219429016113281
vt 1.0035535097122192 -0.12219429016113281
vt 0.9210156798362732 -0.11799538135528564
vt 0.836600124835968 -0.12089264392852783
vt 0.7540621161460876 -0.12527835369110107
vt 0.7478248476982117 -0.119110107421875
vt 0.7488043904304504 -0.04258608818054199
vt 0.7548911571502686 0.03567838668823242
vt 0.750785768032074 0.11220240592956543
vt 0.7384690642356873 0.12453699111938477
vt 0.6610896587371826 0.1298004388809204
vt 0.5412362217903137 0.12221360206604004
vt 0.5045708417892456 0.12799525260925293
vt 0.42203280329704285 0.12799525260925293
vt 0.392522931098938 0.12453699111938477
vt 0.2550794780254364 0.12453699111938477
vt 2.2634847164154053 -0.208990216255188
vt 2.2884340286254883 -0.13144659996032715
vt 2.2634847164154053 -0.156119704246521
vt 2.341895818710327 -0.13144659996032715
vt 2.253685235977173 -0.28829753398895264
vt 2.2634847164154053 -0.365841269493103
vt 2.4220902919769287 -0.12096619606018066
vt 2.500501871109009 -0.12096619606018066
vt 2.500501871109009 -0.365841269493103
vt 2.5830392837524414 -0.13144659996032715
vt 2.667454957962036 -0.12162601947784424
vt 2.749992847442627 -0.13144659996032715
vt 2.749992847442627 -0.365841269493103
vt 2.762467622756958 -0.11910998821258545
vt 2.9994845390319824 -0.11910998821258545
vt 2.9994845390319824 -0.365841269493103
vt 2.9994845390319824 0.11528468132019043
vt 2.9251999855041504 0.12637722492218018
vt 2.849226236343384 0.12637722492218018
vt 2.77494215965271 0.11528468132019043
vt 2.7544596195220947 -0.045647621154785156
vt 2.762467622756958 0.029485702514648438
vt 2.762467622756958 0.10294818878173828
vt 2.749992847442627 -0.6125725507736206
vt 2.500501871109009 -0.6125725507736206
vt 2.9994845390319824 -0.6125725507736206
vt 2.749992847442627 -0.12527835369110107
vt 2.756230115890503 -0.11910998821258545
vt 2.7472431659698486 -0.04258596897125244
vt 2.754249095916748 0.03567850589752197
vt 2.922105073928833 0.13562965393066406
vt 2.842965602874756 0.13562965393066406
vt 2.7532691955566406 0.11220252513885498
vt 2.7655861377716064 0.12453711032867432
vt 2.9994845390319824 -1.846229076385498
vt 2.749992847442627 -1.846229076385498
vt 2.500501871109009 -1.846229076385498
vt 2.2634847164154053 -0.6125725507736206
vt 2.2634847164154053 -1.846229076385498
vt 2.2634847164154053 -0.5024231672286987
vt 2.254725456237793 -0.5309475660324097
vt 2.2634847164154053 -0.6125725507736206
vt 2.254128932952881 -0.5024231672286987
vt 2.2453696727752686 -0.5309475660324097
vt 2.254128932952881 -0.365841269493103
vt 2.254128932952881 -0.6125725507736206
vt 2.2443294525146484 -0.2852367162704468
vt 2.254128932952881 -0.20279884338378906
vt 2.254128932952881 -0.1468672752380371
vt 2.2790780067443848 -0.12219417095184326
vt 2.33563494682312 -0.12219417095184326
vt 2.4189953804016113 -0.11171388626098633
vt 2.500501871109009 -0.11171388626098633
vt 2.5830392837524414 -0.1232144832611084
vt 2.667454957962036 -0.11443734169006348
vt 2.9994845390319824 0.12453711032867432
vt 2.2510101795196533 -1.846229076385498
vt 2.001518964767456 -1.846229076385498
vt 1.7520276308059692 -1.846229076385498
vt 1.5025365352630615 -1.846229076385498
vt 1.253044843673706 -1.846229076385498
vt 1.0035537481307983 -1.846229076385498
vt 0.7540623545646667 -1.846229076385498
vt 0.5045710206031799 -1.846229076385498
vt 0.2550796568393707 -1.846229076385498
vt 2.2634847164154053 -1.846229076385498
vt 2.2634847164154053 -0.6125725507736206
vt 2.254128932952881 -1.846229076385498
vt 2.9994845390319824 -0.11910998821258545
vt 2.9994845390319824 0.11528468132019043
vt 2.9994845390319824 0.11528468132019043
vt 2.9994845390319824 -0.11910998821258545
vt 2.9994845390319824 0.12453711032867432
vt 2.9994845390319824 0.12453711032867432
vt 1.4489771127700806 0.005924522876739502
vt 1.448747992515564 0.09715926647186279
vt 1.448747992515564 0.09715926647186279
vt 1.4489771127700806 0.005924522876739502
vt -1.9170680046081543 0.7429801225662231
vt -1.9799269437789917 0.5499323904514313
vt -1.9170680046081543 0.5489263534545898
vt -1.979914903640747 0.7430451810359955
vt -1.9793567657470703 0.5040059983730316
vt -1.9164857864379883 0.5020589828491211
vt -1.7412889003753662 0.7429801225662231
vt -1.7412889003753662 0.5489263534545898
vt -2.2726244926452637 0.5489263534545898
vt -2.2726244926452637 0.7429801225662231
vt -1.6610060930252075 0.7429318726062775
vt -1.6609594821929932 0.5489174127578735
vt -1.4035098552703857 0.7429801225662231
vt -1.4035098552703857 0.5489263534545898
vt -1.4032714366912842 0.5020589828491211
vt -1.6615632772445679 0.5023188591003418
vt -1.2365195751190186 0.7429801225662231
vt -1.2365195751190186 0.5489263534545898
vt -1.2054545879364014 0.5489263534545898
vt -1.2054545879364014 0.7429801225662231
vt -1.205723762512207 0.5020589828491211
vt -1.2364511489868164 0.5020589828491211
vt -1.7407066822052002 0.5020589828491211
vt -1.0487422943115234 0.7429801225662231
vt -1.0487422943115234 0.5489263534545898
vt -0.8884653449058533 0.7429801225662231
vt -0.8884653449058533 0.5489263534545898
vt -1.035562515258789 0.5020589828491211
vt -0.8690159320831299 0.5020589828491211
vt -0.7317530512809753 0.7429801225662231
vt -0.7317530512809753 0.5489263534545898
vt -0.7216190695762634 0.5020589828491211
vt -0.6847266554832458 0.5489263534545898
vt -0.7017946243286133 0.5020589828491211
vt -0.5333333611488342 0.5020589828491211
vt -0.5135343670845032 0.5489263534545898
vt -0.34840115904808044 0.5020589828491211
vt -0.33844810724258423 0.5489263534545898
vt -0.33844810724258423 0.7429801225662231
vt -0.5135343670845032 0.7429801225662231
vt -0.16725581884384155 0.7429801225662231
vt -0.16725581884384155 0.5489263534545898
vt -0.6847266554832458 0.7429801225662231
vt -0.16667431592941284 0.5020589828491211
vt 0.09747636318206787 0.7430344820022583
vt 0.09740380942821503 0.5553244054317474
vt 0.17052316665649414 0.7429801225662231
vt 0.17052316665649414 0.5489263534545898
vt 0.17102617025375366 0.5020589828491211
vt 0.09914926439523697 0.5148002803325653
vt 0.33751344680786133 0.7429801225662231
vt 0.33751344680786133 0.5489263534545898
vt 0.37390637397766113 0.5489263534545898
vt 0.37390637397766113 0.7429801225662231
vt 0.37403419613838196 0.5020589828491211
vt 0.33797767758369446 0.5020589828491211
vt 0.5325090885162354 0.7429801225662231
vt 0.5325093269348145 0.5489263534545898
vt 0.6947193145751953 0.7429801225662231
vt 0.6947197914123535 0.5489263534545898
vt 0.5390787124633789 0.5020589828491211
vt 0.7078772783279419 0.5020589828491211
vt 0.8533220291137695 0.7429801225662231
vt 0.8533227443695068 0.5489263534545898
vt 0.8729218244552612 0.5020589828491211
vt 0.8987658023834229 0.5489263534545898
vt 0.8781739473342896 0.5020589828491211
vt 1.0470829010009766 0.5010425746440887
vt 1.060760259628296 0.5484511256217957
vt 1.116326093673706 0.4796900749206543
vt 1.1230055093765259 0.5385319888591766
vt 1.1244529485702515 0.7429174780845642
vt 1.0608991384506226 0.7429774105548859
vt 1.4035346508026123 0.7429801225662231
vt 1.4035346508026123 0.5489263534545898
vt 0.8987658023834229 0.7429801225662231
vt 1.4041156768798828 0.5020589828491211
vt 1.5793137550354004 0.7429801225662231
vt 1.5793137550354004 0.5489263534545898
vt 1.7590911388397217 0.7429801225662231
vt 1.7590911388397217 0.5489263534545898
vt 1.579894781112671 0.5020589828491211
vt 1.7596724033355713 0.5020589828491211
vt 1.9348702430725098 0.7429801225662231
vt 1.9348702430725098 0.5489263534545898
vt 1.9354515075683594 0.5020589828491211
vt 2.120786190032959 0.7429879009723663
vt 2.1208109855651855 0.5459012389183044
vt 2.2819271087646484 0.7429801225662231
vt 2.2819271087646484 0.5489263534545898
vt 2.1299359798431396 0.5025429427623749
vt 2.3024513721466064 0.5020589828491211
vt 2.4535040855407715 0.7429801225662231
vt 2.4535040855407715 0.5489263534545898
vt 2.4780917167663574 0.5020589828491211
vt 2.5143492221832275 0.5489263534545898
vt 2.4921622276306152 0.5020589828491211
vt 2.648955821990967 0.5020589828491211
vt 2.6688148975372314 0.5489263534545898
vt 2.814741849899292 0.5020589828491211
vt 2.826794385910034 0.5489263534545898
vt 2.826794385910034 0.7429801225662231
vt 2.6688148975372314 0.7429801225662231
vt 2.981260061264038 0.7429801225662231
vt 2.981260061264038 0.5489263534545898
vt 3.0180511474609375 0.5489263534545898
vt 3.0180511474609375 0.7429801225662231
vt 3.0179927349090576 0.5020589828491211
vt 2.981260061264038 0.5020589828491211
vt 2.5143492221832275 0.7429801225662231
vt 3.1850411891937256 0.7429801225662231
vt 3.1850411891937256 0.5489263534545898
vt 3.3558297157287598 0.7429801225662231
vt 3.3558297157287598 0.5489263534545898
vt 3.1853866577148438 0.5020589828491211
vt 3.356588125228882 0.5020589828491211
vt 3.523651599884033 0.5430130660533905
vt 3.523981809616089 0.5020589828491211
vt 3.522819995880127 0.7429801225662231
vt -0.09639361500740051 0.5001450777053833
vt -0.239645853638649 0.09715926647186279
vt -0.09639361500740051 0.09715926647186279
vt -0.239645853638649 0.5001450777053833
vt -0.23766368627548218 0.005924522876739502
vt -0.09529778361320496 0.005924522876739502
vt 0.0436725914478302 0.5001450777053833
vt 0.0436725914478302 0.09715926647186279
vt 0.180307537317276 0.5001450777053833
vt 0.180307537317276 0.09715926647186279
vt 0.32005035877227783 0.5001450777053833
vt 0.32005035877227783 0.09715926647186279
vt 0.1839125156402588 0.005924522876739502
vt 0.32710790634155273 0.005924522876739502
vt 0.45668530464172363 0.5001450777053833
vt 0.45668530464172363 0.09715926647186279
vt 0.04390183091163635 0.005924522876739502
vt -0.3342542052268982 0.005924522876739502
vt 0.46711862087249756 0.005924522876739502
vt 0.5055984258651733 0.09715926647186279
vt 0.4996521472930908 0.005924522876739502
vt -0.33737361431121826 0.09715926647186279
vt -0.3797121047973633 0.5001450777053833
vt -0.3799945116043091 0.34540116786956787
vt -0.38654443621635437 0.31233012676239014
vt -0.40278953313827515 0.09729409217834473
vt -0.4027518630027771 0.2884520888328552
vt -0.33737361431121826 0.09715926647186279
vt -0.3799945116043091 0.34540116786956787
vt 0.8127185702323914 0.5001450777053833
vt 0.6574317216873169 0.09715926647186279
vt 0.8127185106277466 0.09715926647186279
vt 0.6574317216873169 0.5001450777053833
vt 0.8174080848693848 0.005924522876739502
vt 0.6567435264587402 0.005924522876739502
vt 0.9645518064498901 0.5001450777053833
vt 0.9645518064498901 0.09715926647186279
vt 0.5055984258651733 0.09715926647186279
vt 0.5055984258651733 0.5001450777053833
vt 0.9744994640350342 0.005924522876739502
vt 0.4996521472930908 0.005924522876739502
vt 1.305306077003479 0.5001450777053833
vt 1.1586015224456787 0.09715926647186279
vt 1.305306077003479 0.09715926647186279
vt 1.1586015224456787 0.5001450777053833
vt 1.1552047729492188 0.005924522876739502
vt 1.3037426471710205 0.005924522876739502
vt 1.448747992515564 0.5001450777053833
vt 1.448747992515564 0.09715926647186279
vt 1.0151596069335938 0.09715926647186279
vt 1.0151596069335938 0.5001450777053833
vt 0.9645518064498901 0.5001450777053833
vt 0.9645518064498901 0.09715926647186279
vt 1.0099704265594482 0.005924522876739502
vt 0.9744994640350342 0.005924522876739502
vt 1.4489771127700806 0.005924522876739502
vt 5.161253929138184 0.7368013262748718
vt 5.222191333770752 0.5489263534545898
vt 5.160564422607422 0.5392571091651917
vt 5.22219181060791 0.7375760078430176
vt 5.218713283538818 0.5020589828491211
vt 5.156397819519043 0.48349517583847046
vt 4.869470596313477 0.7375760078430176
vt 4.869470596313477 0.5489263534545898
vt 5.396568298339844 0.5489263534545898
vt 5.39656925201416 0.7375760078430176
vt 4.865992069244385 0.5020589828491211
vt 5.393090724945068 0.5020589828491211
vt 4.697328090667725 0.7375760078430176
vt 4.689352512359619 0.5489263534545898
vt 4.521270275115967 0.7375760078430176
vt 4.5051374435424805 0.5489263534545898
vt 4.503986835479736 0.5020589828491211
vt 4.6870245933532715 0.5020589828491211
vt 4.379801273345947 0.5020589828491211
vt 4.379464626312256 0.5489263534545898
vt 4.349127769470215 0.7375760078430176
vt 0.45668530464172363 0.5001450777053833
vt 0.5055984258651733 0.09715926647186279
vt 0.5055984258651733 0.5001450777053833
vt 0.45668530464172363 0.09715926647186279
vt 2.4535040855407715 0.7429801225662231
vt 2.5143492221832275 0.5489263534545898
vt 2.5143492221832275 0.7429801225662231
vt 2.4535040855407715 0.5489263534545898
vt -0.7317530512809753 0.7429801225662231
vt -0.6847266554832458 0.5489263534545898
vt -0.6847266554832458 0.7429801225662231
vt -0.7317530512809753 0.5489263534545898
vt 0.8533220291137695 0.7429801225662231
vt 0.8987658023834229 0.5489263534545898
vt 0.8987658023834229 0.7429801225662231
vt 0.8533227443695068 0.5489263534545898
vt -2.2720422744750977 0.5020589828491211
vt 4.240346431732178 0.5017396807670593
vt 4.379464626312256 0.5489263534545898
vt 4.379801273345947 0.5020589828491211
vt 4.2401299476623535 0.5486459136009216
vt 5.39656925201416 0.7375760078430176
vt 7.4765753746032715 0.5512011647224426
vt 5.396568298339844 0.5489263534545898
vt 7.476576328277588 0.746482253074646
vt 5.396568298339844 0.5489263534545898
vt 7.473098278045654 0.5104341506958008
vt 5.393090724945068 0.5020589828491211
vt 7.4765753746032715 0.5512011647224426

g bg_mdl_map_ground01
s 1
usemtl bg_mdl_map_ground01_0
f 3/3/3 2/2/2 1/1/1 
f 4/4/4 1/1/1 2/2/2 
f 3/3/3 5/5/5 2/2/2 
f 6/6/6 5/5/5 3/3/3 
f 7/7/7 6/6/6 3/3/3 
f 8/8/8 7/7/7 3/3/3 
f 2/2/2 9/9/9 4/4/4 
f 10/10/10 9/9/9 2/2/2 
f 4/4/4 9/9/9 11/11/11 
f 5/5/5 12/12/12 2/2/2 
f 12/12/12 13/13/13 2/2/2 
f 13/13/13 14/14/14 2/2/2 
f 15/15/15 14/14/14 13/13/13 
f 16/16/16 15/15/15 13/13/13 
f 14/14/14 17/17/17 2/2/2 
f 2/2/2 17/17/17 10/10/10 
f 9/9/9 18/18/18 11/11/11 
f 18/18/18 19/19/19 11/11/11 
f 19/19/19 20/20/20 11/11/11 
f 11/11/11 20/20/20 21/21/21 
f 20/20/20 22/22/22 21/21/21 
f 23/23/23 22/22/22 20/20/20 
f 24/24/24 22/22/22 23/23/23 
f 25/25/25 22/22/22 24/24/24 
f 22/22/22 26/26/26 21/21/21 
f 26/26/26 27/27/27 21/21/21 
f 21/21/21 27/27/27 28/28/28 
f 28/28/28 29/29/29 21/21/21 
f 29/29/29 30/30/30 21/21/21 
f 30/30/30 31/31/31 21/21/21 
f 21/21/21 31/31/31 11/11/11 
f 32/32/32 11/11/11 31/31/31 
f 11/11/11 32/32/32 4/4/4 
f 33/33/33 4/4/4 32/32/32 
f 4/4/4 33/33/33 1/1/1 
f 34/34/34 1/1/1 33/33/33 
f 35/35/35 30/30/30 29/29/29 
f 36/36/36 35/35/35 29/29/29 
f 37/37/37 35/35/35 36/36/36 
f 38/38/38 35/35/35 37/37/37 
f 39/39/39 35/35/35 38/38/38 
f 40/40/40 39/39/39 38/38/38 
f 41/41/41 39/39/39 40/40/40 
f 42/42/42 39/39/39 41/41/41 
f 43/43/43 39/39/39 42/42/42 
f 44/44/44 43/43/43 42/42/42 
f 45/45/45 43/43/43 44/44/44 
f 46/46/46 43/43/43 45/45/45 
f 47/47/47 43/43/43 46/46/46 
f 48/48/48 43/43/43 47/47/47 
f 49/49/49 48/48/48 47/47/47 
f 50/50/50 49/49/49 47/47/47 
f 51/51/51 50/50/50 47/47/47 
f 47/47/47 52/52/52 51/51/51 
f 53/53/53 52/52/52 47/47/47 
f 54/54/54 53/53/53 47/47/47 
f 55/55/55 54/54/54 47/47/47 
f 56/56/56 55/55/55 47/47/47 
f 57/57/57 56/56/56 47/47/47 
f 58/58/58 57/57/57 47/47/47 
f 59/59/59 57/57/57 58/58/58 
f 60/60/60 57/57/57 59/59/59 
f 46/46/46 61/61/61 47/47/47 
f 62/62/62 47/47/47 61/61/61 
f 47/47/47 62/62/62 58/58/58 
f 58/58/58 63/63/63 59/59/59 
f 63/63/63 58/58/58 62/62/62 
f 64/64/64 59/59/59 63/63/63 
f 59/59/59 64/64/64 60/60/60 
f 55/55/55 56/56/56 65/65/65 
f 66/66/66 65/65/65 56/56/56 
f 56/56/56 57/57/57 66/66/66 
f 60/60/60 67/67/67 57/57/57 
f 67/67/67 60/60/60 64/64/64 
f 68/68/68 57/57/57 67/67/67 
f 68/68/68 66/66/66 57/57/57 
f 54/54/54 55/55/55 69/69/69 
f 65/65/65 69/69/69 55/55/55 
f 46/46/46 45/45/45 61/61/61 
f 70/70/70 61/61/61 45/45/45 
f 45/45/45 44/44/44 70/70/70 
f 71/71/71 70/70/70 44/44/44 
f 44/44/44 42/42/42 71/71/71 
f 72/72/72 71/71/71 42/42/42 
f 42/42/42 41/41/41 72/72/72 
f 73/73/73 72/72/72 41/41/41 
f 41/41/41 40/40/40 73/73/73 
f 74/74/74 73/73/73 40/40/40 
f 40/40/40 38/38/38 74/74/74 
f 75/75/75 74/74/74 38/38/38 
f 38/38/38 37/37/37 75/75/75 
f 76/76/76 75/75/75 37/37/37 
f 37/37/37 36/36/36 76/76/76 
f 77/77/77 76/76/76 36/36/36 
f 36/36/36 29/29/29 77/77/77 
f 78/78/78 77/77/77 29/29/29 
f 78/78/78 29/29/29 79/79/79 
f 28/28/28 79/79/79 29/29/29 
f 28/28/28 27/27/27 79/79/79 
f 80/80/80 79/79/79 27/27/27 
f 27/27/27 26/26/26 80/80/80 
f 81/81/81 80/80/80 26/26/26 
f 26/26/26 22/22/22 81/81/81 
f 82/82/82 81/81/81 22/22/22 
f 82/82/82 22/22/22 83/83/83 
f 25/25/25 83/83/83 22/22/22 
f 83/83/83 25/25/25 84/84/84 
f 24/24/24 84/84/84 25/25/25 
f 84/84/84 24/24/24 85/85/85 
f 23/23/23 85/85/85 24/24/24 
f 85/85/85 23/23/23 86/86/86 
f 20/20/20 86/86/86 23/23/23 
f 20/20/20 19/19/19 86/86/86 
f 87/87/87 86/86/86 19/19/19 
f 19/19/19 18/18/18 87/87/87 
f 88/88/88 87/87/87 18/18/18 
f 18/18/18 9/9/9 88/88/88 
f 89/89/89 88/88/88 9/9/9 
f 9/9/9 10/10/10 89/89/89 
f 90/90/90 89/89/89 10/10/10 
f 10/10/10 17/17/17 90/90/90 
f 91/91/91 90/90/90 17/17/17 
f 17/17/17 14/14/14 91/91/91 
f 92/92/92 91/91/91 14/14/14 
f 14/14/14 15/15/15 92/92/92 
f 93/93/93 92/92/92 15/15/15 
f 93/93/93 15/15/15 94/94/94 
f 16/16/16 94/94/94 15/15/15 
f 94/94/94 16/16/16 95/95/95 
f 13/13/13 95/95/95 16/16/16 
f 95/95/95 13/13/13 96/96/96 
f 12/12/12 96/96/96 13/13/13 
f 96/96/96 12/12/12 97/97/97 
f 5/5/5 97/97/97 12/12/12 
f 5/5/5 6/6/6 97/97/97 
f 98/98/98 97/97/97 6/6/6 
f 6/6/6 7/7/7 98/98/98 
f 99/99/99 98/98/98 7/7/7 
f 7/7/7 8/8/8 99/99/99 
f 100/100/100 99/99/99 8/8/8 
f 103/103/103 102/102/102 101/101/101 
f 102/102/102 104/104/104 101/101/101 
f 101/101/101 104/104/104 105/105/105 
f 105/105/105 104/104/104 106/106/106 
f 104/104/104 107/107/107 106/106/106 
f 107/107/107 108/108/108 106/106/106 
f 106/106/106 108/108/108 109/109/109 
f 108/108/108 110/110/110 109/109/109 
f 110/110/110 111/111/111 109/109/109 
f 111/111/111 112/112/112 109/109/109 
f 109/109/109 112/112/112 113/113/113 
f 112/112/112 114/114/114 113/113/113 
f 114/114/114 115/115/115 113/113/113 
f 113/113/113 115/115/115 116/116/116 
f 114/114/114 117/117/117 115/115/115 
f 118/118/118 117/117/117 114/114/114 
f 119/119/119 118/118/118 114/114/114 
f 120/120/120 119/119/119 114/114/114 
f 121/121/121 120/120/120 114/114/114 
f 122/122/122 120/120/120 121/121/121 
f 123/123/123 120/120/120 122/122/122 
f 113/113/113 124/124/124 109/109/109 
f 125/125/125 109/109/109 124/124/124 
f 116/116/116 126/126/126 113/113/113 
f 124/124/124 113/113/113 126/126/126 
f 112/112/112 127/127/127 114/114/114 
f 128/128/128 114/114/114 127/127/127 
f 114/114/114 128/128/128 121/121/121 
f 121/121/121 129/129/129 122/122/122 
f 129/129/129 121/121/121 128/128/128 
f 130/130/130 122/122/122 129/129/129 
f 122/122/122 130/130/130 123/123/123 
f 118/118/118 119/119/119 131/131/131 
f 132/132/132 131/131/131 119/119/119 
f 119/119/119 120/120/120 132/132/132 
f 123/123/123 133/133/133 120/120/120 
f 133/133/133 123/123/123 130/130/130 
f 134/134/134 120/120/120 133/133/133 
f 134/134/134 132/132/132 120/120/120 
f 126/126/126 135/135/135 124/124/124 
f 136/136/136 124/124/124 135/135/135 
f 124/124/124 136/136/136 125/125/125 
f 137/137/137 125/125/125 136/136/136 
f 125/125/125 137/137/137 138/138/138 
f 139/139/139 138/138/138 137/137/137 
f 109/109/109 125/125/125 106/106/106 
f 125/125/125 140/140/140 106/106/106 
f 141/141/141 140/140/140 125/125/125 
f 142/142/142 141/141/141 125/125/125 
f 140/140/140 141/141/141 143/143/143 
f 144/144/144 143/143/143 141/141/141 
f 141/141/141 142/142/142 144/144/144 
f 106/106/106 140/140/140 145/145/145 
f 143/143/143 145/145/145 140/140/140 
f 146/146/146 144/144/144 142/142/142 
f 106/106/106 145/145/145 105/105/105 
f 147/147/147 105/105/105 145/145/145 
f 105/105/105 147/147/147 101/101/101 
f 148/148/148 101/101/101 147/147/147 
f 101/101/101 148/148/148 103/103/103 
f 149/149/149 103/103/103 148/148/148 
f 103/103/103 149/149/149 102/102/102 
f 150/150/150 102/102/102 149/149/149 
f 150/150/150 151/151/151 102/102/102 
f 104/104/104 102/102/102 151/151/151 
f 151/151/151 152/152/152 104/104/104 
f 107/107/107 104/104/104 152/152/152 
f 152/152/152 153/153/153 107/107/107 
f 108/108/108 107/107/107 153/153/153 
f 153/153/153 154/154/154 108/108/108 
f 110/110/110 108/108/108 154/154/154 
f 154/154/154 155/155/155 110/110/110 
f 111/111/111 110/110/110 155/155/155 
f 155/155/155 127/127/127 111/111/111 
f 112/112/112 111/111/111 127/127/127 
f 117/117/117 118/118/118 156/156/156 
f 131/131/131 156/156/156 118/118/118 
f 48/48/48 157/157/157 43/43/43 
f 158/158/158 43/43/43 157/157/157 
f 43/43/43 158/158/158 39/39/39 
f 159/159/159 39/39/39 158/158/158 
f 39/39/39 159/159/159 35/35/35 
f 160/160/160 35/35/35 159/159/159 
f 35/35/35 160/160/160 30/30/30 
f 161/161/161 30/30/30 160/160/160 
f 30/30/30 161/161/161 31/31/31 
f 162/162/162 31/31/31 161/161/161 
f 31/31/31 162/162/162 32/32/32 
f 163/163/163 32/32/32 162/162/162 
f 32/32/32 163/163/163 33/33/33 
f 164/164/164 33/33/33 163/163/163 
f 33/33/33 164/164/164 34/34/34 
f 165/165/165 34/34/34 164/164/164 
f 167/167/167 166/166/166 146/146/146 
f 168/168/168 146/146/146 166/166/166 
f 171/171/171 170/170/170 169/169/169 
f 172/172/172 169/169/169 170/170/170 
f 170/170/170 171/171/171 173/173/173 
f 174/174/174 173/173/173 171/171/171 
f 177/177/177 176/176/176 175/175/175 
f 178/178/178 175/175/175 176/176/176 

usemtl bg_mdl_map_ground01_1
f 181/181/181 180/180/180 179/179/179 
f 182/182/182 179/179/179 180/180/180 
f 180/180/180 181/181/181 183/183/183 
f 184/184/184 183/183/183 181/181/181 
f 179/179/179 185/185/185 181/181/181 
f 186/186/186 181/181/181 185/185/185 
f 181/181/181 186/186/186 184/184/184 
f 180/180/180 187/187/187 182/182/182 
f 188/188/188 182/182/182 187/187/187 
f 185/185/185 189/189/189 186/186/186 
f 190/190/190 186/186/186 189/189/189 
f 189/189/189 191/191/191 190/190/190 
f 192/192/192 190/190/190 191/191/191 
f 192/192/192 193/193/193 190/190/190 
f 194/194/194 190/190/190 193/193/193 
f 190/190/190 194/194/194 186/186/186 
f 191/191/191 195/195/195 192/192/192 
f 196/196/196 192/192/192 195/195/195 
f 196/196/196 195/195/195 197/197/197 
f 198/198/198 197/197/197 195/195/195 
f 197/197/197 199/199/199 196/196/196 
f 200/200/200 196/196/196 199/199/199 
f 196/196/196 200/200/200 192/192/192 
f 193/193/193 192/192/192 200/200/200 
f 201/201/201 186/186/186 194/194/194 
f 201/201/201 184/184/184 186/186/186 
f 198/198/198 202/202/202 197/197/197 
f 203/203/203 197/197/197 202/202/202 
f 197/197/197 203/203/203 199/199/199 
f 202/202/202 204/204/204 203/203/203 
f 205/205/205 203/203/203 204/204/204 
f 203/203/203 205/205/205 206/206/206 
f 206/206/206 199/199/199 203/203/203 
f 207/207/207 206/206/206 205/205/205 
f 204/204/204 208/208/208 205/205/205 
f 209/209/209 205/205/205 208/208/208 
f 205/205/205 209/209/209 207/207/207 
f 210/210/210 207/207/207 209/209/209 
f 209/209/209 211/211/211 210/210/210 
f 212/212/212 210/210/210 211/211/211 
f 212/212/212 211/211/211 213/213/213 
f 214/214/214 213/213/213 211/211/211 
f 213/213/213 214/214/214 215/215/215 
f 216/216/216 215/215/215 214/214/214 
f 216/216/216 214/214/214 217/217/217 
f 218/218/218 217/217/217 214/214/214 
f 214/214/214 211/211/211 218/218/218 
f 217/217/217 219/219/219 216/216/216 
f 220/220/220 216/216/216 219/219/219 
f 221/221/221 218/218/218 211/211/211 
f 220/220/220 222/222/222 216/216/216 
f 215/215/215 216/216/216 222/222/222 
f 219/219/219 223/223/223 220/220/220 
f 224/224/224 220/220/220 223/223/223 
f 223/223/223 225/225/225 224/224/224 
f 226/226/226 224/224/224 225/225/225 
f 226/226/226 227/227/227 224/224/224 
f 228/228/228 224/224/224 227/227/227 
f 222/222/222 220/220/220 228/228/228 
f 224/224/224 228/228/228 220/220/220 
f 225/225/225 229/229/229 226/226/226 
f 230/230/230 226/226/226 229/229/229 
f 230/230/230 229/229/229 231/231/231 
f 232/232/232 231/231/231 229/229/229 
f 231/231/231 233/233/233 230/230/230 
f 234/234/234 230/230/230 233/233/233 
f 230/230/230 234/234/234 226/226/226 
f 227/227/227 226/226/226 234/234/234 
f 232/232/232 235/235/235 231/231/231 
f 236/236/236 231/231/231 235/235/235 
f 231/231/231 236/236/236 233/233/233 
f 235/235/235 237/237/237 236/236/236 
f 238/238/238 236/236/236 237/237/237 
f 236/236/236 238/238/238 239/239/239 
f 239/239/239 233/233/233 236/236/236 
f 240/240/240 239/239/239 238/238/238 
f 237/237/237 241/241/241 238/238/238 
f 242/242/242 238/238/238 241/241/241 
f 238/238/238 242/242/242 240/240/240 
f 243/243/243 240/240/240 242/242/242 
f 242/242/242 244/244/244 243/243/243 
f 245/245/245 243/243/243 244/244/244 
f 245/245/245 244/244/244 246/246/246 
f 247/247/247 246/246/246 244/244/244 
f 246/246/246 247/247/247 248/248/248 
f 249/249/249 248/248/248 247/247/247 
f 249/249/249 247/247/247 250/250/250 
f 251/251/251 250/250/250 247/247/247 
f 247/247/247 244/244/244 251/251/251 
f 250/250/250 252/252/252 249/249/249 
f 253/253/253 249/249/249 252/252/252 
f 254/254/254 251/251/251 244/244/244 
f 253/253/253 255/255/255 249/249/249 
f 248/248/248 249/249/249 255/255/255 
f 252/252/252 256/256/256 253/253/253 
f 257/257/257 253/253/253 256/256/256 
f 253/253/253 257/257/257 255/255/255 
f 256/256/256 258/258/258 257/257/257 
f 259/259/259 257/257/257 258/258/258 
f 257/257/257 259/259/259 260/260/260 
f 260/260/260 255/255/255 257/257/257 
f 261/261/261 260/260/260 259/259/259 
f 258/258/258 262/262/262 259/259/259 
f 263/263/263 259/259/259 262/262/262 
f 259/259/259 263/263/263 261/261/261 
f 264/264/264 261/261/261 263/263/263 
f 262/262/262 265/265/265 263/263/263 
f 266/266/266 263/263/263 265/265/265 
f 263/263/263 266/266/266 264/264/264 
f 265/265/265 267/267/267 266/266/266 
f 268/268/268 266/266/266 267/267/267 
f 266/266/266 268/268/268 269/269/269 
f 269/269/269 264/264/264 266/266/266 
f 270/270/270 269/269/269 268/268/268 
f 267/267/267 271/271/271 268/268/268 
f 272/272/272 268/268/268 271/271/271 
f 268/268/268 272/272/272 270/270/270 
f 273/273/273 270/270/270 272/272/272 
f 272/272/272 274/274/274 273/273/273 
f 275/275/275 273/273/273 274/274/274 
f 275/275/275 274/274/274 276/276/276 
f 277/277/277 276/276/276 274/274/274 
f 276/276/276 277/277/277 278/278/278 
f 279/279/279 278/278/278 277/277/277 
f 279/279/279 277/277/277 280/280/280 
f 281/281/281 280/280/280 277/277/277 
f 277/277/277 274/274/274 281/281/281 
f 280/280/280 282/282/282 279/279/279 
f 283/283/283 279/279/279 282/282/282 
f 283/283/283 282/282/282 284/284/284 
f 285/285/285 284/284/284 282/282/282 
f 284/284/284 286/286/286 283/283/283 
f 287/287/287 283/283/283 286/286/286 
f 283/283/283 287/287/287 279/279/279 
f 278/278/278 279/279/279 287/287/287 
f 288/288/288 281/281/281 274/274/274 
f 285/285/285 289/289/289 284/284/284 
f 290/290/290 284/284/284 289/289/289 
f 284/284/284 290/290/290 286/286/286 
f 289/289/289 291/291/291 290/290/290 
f 292/292/292 290/290/290 291/291/291 
f 290/290/290 292/292/292 293/293/293 
f 293/293/293 286/286/286 290/290/290 
f 294/294/294 293/293/293 292/292/292 
f 292/292/292 295/295/295 294/294/294 
f 296/296/296 294/294/294 295/295/295 
f 291/291/291 297/297/297 292/292/292 
f 295/295/295 292/292/292 297/297/297 
f 300/300/300 299/299/299 298/298/298 
f 301/301/301 298/298/298 299/299/299 
f 299/299/299 300/300/300 302/302/302 
f 303/303/303 302/302/302 300/300/300 
f 298/298/298 304/304/304 300/300/300 
f 305/305/305 300/300/300 304/304/304 
f 300/300/300 305/305/305 303/303/303 
f 304/304/304 306/306/306 305/305/305 
f 307/307/307 305/305/305 306/306/306 
f 306/306/306 308/308/308 307/307/307 
f 309/309/309 307/307/307 308/308/308 
f 307/307/307 309/309/309 310/310/310 
f 311/311/311 310/310/310 309/309/309 
f 308/308/308 312/312/312 309/309/309 
f 313/313/313 309/309/309 312/312/312 
f 309/309/309 313/313/313 311/311/311 
f 314/314/314 303/303/303 305/305/305 
f 305/305/305 307/307/307 314/314/314 
f 310/310/310 314/314/314 307/307/307 
f 302/302/302 315/315/315 299/299/299 
f 316/316/316 311/311/311 313/313/313 
f 313/313/313 317/317/317 316/316/316 
f 318/318/318 316/316/316 317/317/317 
f 319/319/319 299/299/299 315/315/315 
f 299/299/299 319/319/319 301/301/301 
f 320/320/320 301/301/301 319/319/319 
f 320/320/320 319/319/319 321/321/321 
f 319/319/319 323/323/323 322/322/322 
f 322/322/322 323/323/323 324/324/324 
f 326/326/326 325/325/325 322/322/322 
f 329/329/329 328/328/328 327/327/327 
f 330/330/330 327/327/327 328/328/328 
f 329/329/329 331/331/331 328/328/328 
f 332/332/332 328/328/328 331/331/331 
f 327/327/327 333/333/333 329/329/329 
f 334/334/334 329/329/329 333/333/333 
f 328/328/328 335/335/335 330/330/330 
f 328/328/328 332/332/332 335/335/335 
f 336/336/336 330/330/330 335/335/335 
f 334/334/334 337/337/337 329/329/329 
f 331/331/331 329/329/329 337/337/337 
f 338/338/338 335/335/335 332/332/332 
f 341/341/341 340/340/340 339/339/339 
f 342/342/342 339/339/339 340/340/340 
f 340/340/340 341/341/341 343/343/343 
f 344/344/344 343/343/343 341/341/341 
f 339/339/339 345/345/345 341/341/341 
f 346/346/346 341/341/341 345/345/345 
f 341/341/341 346/346/346 344/344/344 
f 340/340/340 347/347/347 342/342/342 
f 348/348/348 342/342/342 347/347/347 
f 348/348/348 347/347/347 349/349/349 
f 350/350/350 349/349/349 347/347/347 
f 347/347/347 351/351/351 350/350/350 
f 347/347/347 340/340/340 351/351/351 
f 343/343/343 351/351/351 340/340/340 
f 352/352/352 350/350/350 351/351/351 
f 353/353/353 344/344/344 346/346/346 
f 356/356/356 355/355/355 354/354/354 
f 357/357/357 354/354/354 355/355/355 
f 355/355/355 356/356/356 358/358/358 
f 359/359/359 358/358/358 356/356/356 
f 354/354/354 360/360/360 356/356/356 
f 361/361/361 356/356/356 360/360/360 
f 356/356/356 361/361/361 359/359/359 
f 355/355/355 362/362/362 357/357/357 
f 363/363/363 357/357/357 362/362/362 
f 364/364/364 359/359/359 361/361/361 
f 362/362/362 355/355/355 365/365/365 
f 358/358/358 365/365/365 355/355/355 
f 360/360/360 366/366/366 361/361/361 
f 367/367/367 361/361/361 366/366/366 
f 366/366/366 368/368/368 367/367/367 
f 369/369/369 367/367/367 368/368/368 
f 369/369/369 370/370/370 367/367/367 
f 371/371/371 367/367/367 370/370/370 
f 364/364/364 361/361/361 371/371/371 
f 367/367/367 371/371/371 361/361/361 
f 370/370/370 369/369/369 372/372/372 
f 373/373/373 372/372/372 369/369/369 
f 369/369/369 368/368/368 373/373/373 
f 374/374/374 373/373/373 368/368/368 
f 377/377/377 376/376/376 375/375/375 
f 378/378/378 375/375/375 376/376/376 
f 381/381/381 380/380/380 379/379/379 
f 382/382/382 379/379/379 380/380/380 
f 385/385/385 384/384/384 383/383/383 
f 386/386/386 383/383/383 384/384/384 
f 389/389/389 388/388/388 387/387/387 
f 390/390/390 387/387/387 388/388/388 
f 187/187/187 180/180/180 391/391/391 
f 183/183/183 391/391/391 180/180/180 
f 394/394/394 393/393/393 392/392/392 
f 395/395/395 392/392/392 393/393/393 
f 398/398/398 397/397/397 396/396/396 
f 399/399/399 396/396/396 397/397/397 
f 402/402/402 401/401/401 400/400/400 
f 403/403/403 400/400/400 401/401/401 

