v -0.0 -0.17864544689655304 0.0
v -0.01705913431942463 -0.16990192234516144 0.052502572536468506
v -0.0 -0.16990192234516144 0.05520446598529816
v -0.03244837746024132 -0.14452719688415527 0.09986583143472672
v -0.0 -0.14452719688415527 0.1050051674246788
v -0.061720483005046844 -0.14452719688415527 0.08495096117258072
v -0.03244837746024132 -0.16990192234516144 0.04466136917471886
v -0.0 -0.17864544689655304 0.0
v -0.08495097607374191 -0.14452719688415527 0.06172044575214386
v -0.04466136917471886 -0.16990192234516144 0.032448384910821915
v -0.0 -0.17864544689655304 0.0
v -0.0998658537864685 -0.14452719688415527 0.03244834765791893
v -0.0525025837123394 -0.16990192234516144 0.017059097066521645
v -0.0 -0.17864544689655304 0.0
v -0.1050051674246788 -0.14452719688415527 -1.907348590179936e-08
v -0.05520447716116905 -0.16990192234516144 -1.907348590179936e-08
v -0.0 -0.17864544689655304 0.0
v -0.09986583143472672 -0.14452719688415527 -0.0324484258890152
v -0.0525025837123394 -0.16990192234516144 -0.01705915480852127
v -0.0 -0.17864544689655304 0.0
v -0.08495093882083893 -0.14452719688415527 -0.061720531433820724
v -0.04466133937239647 -0.16990192234516144 -0.03244839608669281
v -0.0 -0.17864544689655304 0.0
v -0.06172042712569237 -0.14452719688415527 -0.0849509984254837
v -0.032448358833789825 -0.16990192234516144 -0.04466138780117035
v -0.0 -0.17864544689655304 0.0
v -0.03244827315211296 -0.14452719688415527 -0.0998658761382103
v -0.017059078440070152 -0.16990192234516144 -0.052502602338790894
v -0.0 -0.17864544689655304 0.0
v 1.1444091541079615e-07 -0.14452719688415527 -0.1050051674246788
v 5.7220457705398076e-08 -0.16990192234516144 -0.05520447716116905
v -0.0 -0.17864544689655304 0.0
v 0.032448481768369675 -0.14452719688415527 -0.09986581653356552
v 0.017059192061424255 -0.16990192234516144 -0.05250256508588791
v -0.0 -0.17864544689655304 0.0
v 0.0617205984890461 -0.14452719688415527 -0.08495089411735535
v 0.03244844451546669 -0.16990192234516144 -0.04466132074594498
v -0.0 -0.17864544689655304 0.0
v 0.08495103567838669 -0.14452719688415527 -0.06172037124633789
v 0.04466140642762184 -0.16990192234516144 -0.032448310405015945
v -0.0 -0.17864544689655304 0.0
v 0.0998658761382103 -0.14452719688415527 -0.03244822472333908
v 0.05250259116292 -0.16990192234516144 -0.01705903932452202
v -0.0 -0.17864544689655304 0.0
v 0.1050051674246788 -0.14452719688415527 1.7166136956348055e-07
v 0.05520446598529816 -0.16990192234516144 7.629394360719743e-08
v -0.0 -0.17864544689655304 0.0
v 0.09986579418182373 -0.14452719688415527 0.03244853764772415
v 0.052502553910017014 -0.16990192234516144 0.017059210687875748
v -0.0 -0.17864544689655304 0.0
v 0.08495084941387177 -0.14452719688415527 0.06172063574194908
v 0.04466129094362259 -0.16990192234516144 0.03244846314191818
v -0.0 -0.17864544689655304 0.0
v 0.061720311641693115 -0.14452719688415527 0.08495109528303146
v 0.03244829177856445 -0.16990192234516144 0.044661425054073334
v -0.0 -0.17864544689655304 0.0
v 0.03244815766811371 -0.14452719688415527 0.09986592829227448
v 0.017059020698070526 -0.16990192234516144 0.05250263214111328
v -0.0 -0.17864544689655304 0.0
v -0.0 -0.14452719688415527 0.1050051674246788
v -0.0 -0.16990192234516144 0.05520446598529816
v -0.0 -0.17864544689655304 0.0
v 0.11692481487989426 -0.1050051674246788 0.08495116978883743
v 0.13745348155498505 -0.1050051674246788 0.04466159641742706
v 0.08495073020458221 -0.1050051674246788 0.11692514270544052
v 0.04466106370091438 -0.1050051674246788 0.13745364546775818
v -1.907348590179936e-08 -0.1050051674246788 0.14452718198299408
v 0.1374533474445343 -0.05520447716116905 0.09986606240272522
v 0.1615862101316452 -0.05520447716116905 0.05250285938382149
v 0.14452718198299408 -0.1050051674246788 2.288818308215923e-07
v 0.1374536156654358 -0.1050051674246788 -0.04466114938259125
v 0.11692506819963455 -0.1050051674246788 -0.08495080471038818
v 0.08495109528303146 -0.1050051674246788 -0.11692486703395844
v 0.04466148093342781 -0.1050051674246788 -0.13745349645614624
v 1.5258788721439487e-07 -0.1050051674246788 -0.14452721178531647
v -0.04466124251484871 -0.1050051674246788 -0.1374535858631134
v -0.08495088666677475 -0.1050051674246788 -0.11692503839731216
v -0.11692491173744202 -0.1050051599740982 -0.08495103567838669
v -0.13745351135730743 -0.1050051674246788 -0.044661425054073334
v -0.14452721178531647 -0.1050051674246788 -5.7220457705398076e-08
v -0.13745355606079102 -0.1050051674246788 0.044661350548267365
v -0.11692497134208679 -0.1050051674246788 0.08495096117258072
v -0.08495095372200012 -0.1050051599740982 0.11692497134208679
v -0.04466136917471886 -0.1050051674246788 0.13745354115962982
v -1.907348590179936e-08 -0.1050051674246788 0.14452718198299408
v -0.0525025837123394 -0.05520447716116905 0.16158631443977356
v -1.907348590179936e-08 -0.05520447716116905 0.16990190744400024
v -0.09986583143472672 -0.05520447716116905 0.13745354115962982
v -0.13745355606079102 -0.05520448461174965 0.09986581653356552
v -0.16158634424209595 -0.05520447716116905 0.05250253528356552
v -0.16990192234516144 -0.05520447716116905 -5.7220457705398076e-08
v -0.16158629953861237 -0.05520447716116905 -0.05250263959169388
v -0.13745348155498505 -0.05520445853471756 -0.09986592084169388
v -0.09986574947834015 -0.05520448461174965 -0.1374536156654358
v -0.05250243842601776 -0.05520445853471756 -0.16158637404441833
v 1.7166136956348055e-07 -0.05520447716116905 -0.16990192234516144
v 0.052502743899822235 -0.05520447716116905 -0.16158628463745117
v 0.09986598789691925 -0.05520448461174965 -0.13745342195034027
v 0.13745369017124176 -0.05520447716116905 -0.09986566007137299
v 0.16158638894557953 -0.05520447716116905 -0.0525023452937603
v 0.16990190744400024 -0.05520447716116905 2.8610227786884934e-07
v 1.7166136956348055e-07 0.0 -0.17864544689655304
v -0.05520434305071831 -1.907348590179936e-08 -0.1699019819498062
v 0.055204637348651886 0.0 -0.16990186274051666
v 0.10500527918338776 -1.907348590179936e-08 -0.14452707767486572
v 0.14452730119228363 -1.907348590179936e-08 -0.10500496625900269
v 0.1699020117521286 0.0 -0.05520423874258995
v 0.17864544689655304 0.0 2.47955313170678e-07
v 0.16990181803703308 0.0 0.05520477145910263
v 0.14452698826789856 0.0 0.10500539839267731
v 0.10500486195087433 0.0 0.1445273756980896
v 0.09986558556556702 -0.05520447716116905 0.13745370507240295
v 0.05250224843621254 -0.05520447716116905 0.1615864336490631
v -1.907348590179936e-08 -0.05520447716116905 0.16990190744400024
v 0.055204086005687714 0.0 0.16990205645561218
v -1.907348590179936e-08 0.0 0.17864544689655304
v 0.16158638894557953 0.05520448461174965 -0.0525023452937603
v 0.16990190744400024 0.05520446598529816 2.8610227786884934e-07
v 0.1615862399339676 0.05520446598529816 0.052502840757369995
v 0.1374533623456955 0.05520448461174965 0.09986608475446701
v 0.09986557066440582 0.05520448461174965 0.13745370507240295
v 0.05250224843621254 0.05520452558994293 0.1615864783525467
v -1.907348590179936e-08 0.05520446598529816 0.16990190744400024
v 0.14452718198299408 0.1050051674246788 2.288818308215923e-07
v 0.1374536156654358 0.1050051674246788 -0.04466113820672035
v 0.13745366036891937 0.05520448461174965 -0.09986566007137299
v 0.09986598789691925 0.05520446598529816 -0.13745342195034027
v 0.052502743899822235 0.05520448461174965 -0.16158628463745117
v 1.7166136956348055e-07 0.05520446598529816 -0.16990192234516144
v -0.05250243842601776 0.05520452558994293 -0.16158637404441833
v -0.10500505566596985 0.0 -0.14452728629112244
v -0.1445271521806717 1.907348590179936e-08 -0.10500524193048477
v -0.16990190744400024 0.0 -0.05520456284284592
v -0.17864544689655304 0.0 -5.7220457705398076e-08
v -0.16990193724632263 -1.907348590179936e-08 0.05520442873239517
v -0.14452722668647766 0.0 0.1050051674246788
v -0.10500514507293701 0.0 0.14452718198299408
v -0.055204495787620544 0.0 0.16990190744400024
v -1.907348590179936e-08 0.0 0.17864544689655304
v -0.0525025837123394 0.05520448461174965 0.16158631443977356
v -1.907348590179936e-08 0.05520446598529816 0.16990190744400024
v -0.09986583143472672 0.05520452558994293 0.13745354115962982
v -0.13745355606079102 0.05520448461174965 0.09986581653356552
v -0.16158634424209595 0.05520452558994293 0.05250253528356552
v -0.16990192234516144 0.05520446598529816 -5.7220457705398076e-08
v -0.16158629953861237 0.05520452558994293 -0.05250265821814537
v -0.13745348155498505 0.05520448461174965 -0.09986591339111328
v -0.09986574947834015 0.05520448461174965 -0.1374536156654358
v -0.044661350548267365 0.1050051674246788 0.13745354115962982
v -1.907348590179936e-08 0.1050051674246788 0.14452718198299408
v -0.08495095372200012 0.1050051674246788 0.11692498624324799
v -0.11692497134208679 0.10500514507293701 0.08495096117258072
v -0.13745355606079102 0.1050051674246788 0.044661350548267365
v -0.14452719688415527 0.1050051674246788 -3.814697180359872e-08
v -0.13745351135730743 0.1050051674246788 -0.04466141760349274
v -0.11692491173744202 0.1050051674246788 -0.08495103567838669
v -0.08495088666677475 0.10500514507293701 -0.11692503839731216
v -0.04466123506426811 0.10500514507293701 -0.1374535858631134
v 1.5258788721439487e-07 0.1050051674246788 -0.14452719688415527
v 0.04466148093342781 0.10500514507293701 -0.13745349645614624
v 0.08495111018419266 0.10500514507293701 -0.11692485213279724
v 0.11692508310079575 0.1050051674246788 -0.08495080471038818
v -0.06172042712569237 0.14452722668647766 -0.08495097607374191
v -0.08495090901851654 0.14452722668647766 -0.061720531433820724
v -0.03244829177856445 0.14452722668647766 -0.0998658612370491
v 1.1444091541079615e-07 0.14452722668647766 -0.10500514507293701
v 0.032448481768369675 0.14452722668647766 -0.09986579418182373
v 0.06172056123614311 0.14452725648880005 -0.08495087176561356
v 0.0849510207772255 0.14452722668647766 -0.06172037124633789
v 0.0998658761382103 0.14452718198299408 -0.03244822472333908
v 0.1050051674246788 0.14452718198299408 1.7166136956348055e-07
v 0.09986577928066254 0.14452722668647766 0.03244853764772415
v 0.13745348155498505 0.1050051674246788 0.04466159641742706
v 0.11692481487989426 0.1050051674246788 0.08495116978883743
v 0.08495073020458221 0.1050051674246788 0.11692514270544052
v 0.04466106370091438 0.1050051674246788 0.13745366036891937
v -1.907348590179936e-08 0.1050051674246788 0.14452718198299408
v 0.08495080471038818 0.14452718198299408 0.06172061711549759
v 0.06172029301524162 0.14452722668647766 0.08495105803012848
v 0.03244815766811371 0.14452722668647766 0.09986589103937149
v -0.0 0.14452722668647766 0.1050051674246788
v 0.0446612723171711 0.16990193724632263 0.03244844451546669
v 0.03244827315211296 0.1699019819498062 0.04466140642762184
v 0.017058981582522392 0.16990193724632263 0.052502553910017014
v -0.0 0.16990190744400024 0.055204447358846664
v -0.0 0.17864544689655304 0.0
v -0.0 0.17864544689655304 0.0
v -0.0 0.17864544689655304 0.0
v 0.05250251665711403 0.16990193724632263 0.017059210687875748
v 0.055204447358846664 0.16990193724632263 7.629394360719743e-08
v 0.052502553910017014 0.16990190744400024 -0.01705903932452202
v 0.04466138780117035 0.16990193724632263 -0.03244829177856445
v 0.0324484258890152 0.16990193724632263 -0.044661302119493484
v 0.017059173434972763 0.1699019819498062 -0.052502527832984924
v 5.7220457705398076e-08 0.16990193724632263 -0.055204447358846664
v -0.01705905795097351 0.16990193724632263 -0.05250254645943642
v -0.03244834020733833 0.1699019819498062 -0.04466136917471886
v -0.04466132074594498 0.16990190744400024 -0.03244837746024132
v -0.09986581653356552 0.14452722668647766 -0.0324484258890152
v -0.10500514507293701 0.14452725648880005 -1.907348590179936e-08
v -0.09986583143472672 0.14452718198299408 0.03244834765791893
v -0.08495096117258072 0.14452722668647766 0.06172046437859535
v -0.061720456928014755 0.14452722668647766 0.08495096117258072
v -0.03244837746024132 0.14452722668647766 0.09986581653356552
v -0.0 0.14452722668647766 0.1050051674246788
v -0.017059115692973137 0.16990190744400024 0.05250251665711403
v -0.0 0.16990190744400024 0.055204447358846664
v -0.032448358833789825 0.1699019819498062 0.044661350548267365
v -0.04466133937239647 0.16990193724632263 0.03244834765791893
v -0.05250256508588791 0.16990193724632263 0.017059097066521645
v -0.05520445853471756 0.16990190744400024 -1.907348590179936e-08
v -0.0 0.17864544689655304 0.0
v -0.0 0.17864544689655304 0.0
v -0.0 0.17864544689655304 0.0
v -0.0 0.17864544689655304 0.0
v -0.0 0.17864544689655304 0.0
v -0.052502527832984924 0.1699019819498062 -0.01705913431942463
v -0.0 0.17864544689655304 0.0
v -0.0 0.17864544689655304 0.0
v -0.0 0.17864544689655304 0.0
v -0.0 0.17864544689655304 0.0
v -0.0 0.17864544689655304 0.0
v -0.0 0.17864544689655304 0.0
v -0.0 0.17864544689655304 0.0
v -0.0 0.17864544689655304 0.0
v -0.0 0.17864544689655304 0.0
v -0.0 0.17864544689655304 0.0
v -0.0 0.17864544689655304 0.0
v -0.0 0.17864544689655304 0.0
vn -0.0 -1.0 0.0
vn -0.09981998801231384 -0.9463905692100525 0.3072146773338318
vn -4.434051277257822e-07 -0.9463906288146973 0.3230243921279907
vn -0.184738427400589 -0.8016259670257568 0.5685662031173706
vn -5.209594746702351e-07 -0.8016259670257568 0.5978258848190308
vn -0.35139331221580505 -0.8016259074211121 0.48365142941474915
vn -0.18986907601356506 -0.9463905692100525 0.2613324224948883
vn -0.0 -1.0 0.0
vn -0.48365139961242676 -0.8016260862350464 0.35139310359954834
vn -0.2613324224948883 -0.9463905692100525 0.18986907601356506
vn -0.0 -1.0 0.0
vn -0.5685662031173706 -0.8016259670257568 0.18473823368549347
vn -0.307214617729187 -0.9463906288146973 0.0998198613524437
vn -0.0 -1.0 0.0
vn -0.5978260040283203 -0.8016259074211121 -1.3145708521733468e-07
vn -0.32302454113960266 -0.9463906288146973 0.0
vn -0.0 -1.0 0.0
vn -0.5685663223266602 -0.8016258478164673 -0.18473859131336212
vn -0.3072145879268646 -0.9463905692100525 -0.09982018172740936
vn -0.0 -1.0 0.0
vn -0.4836511015892029 -0.8016259074211121 -0.35139355063438416
vn -0.26133212447166443 -0.9463906288146973 -0.189869225025177
vn -0.0 -1.0 0.0
vn -0.3513927757740021 -0.8016259670257568 -0.48365160822868347
vn -0.18986907601356506 -0.9463905692100525 -0.2613324522972107
vn -0.0 -1.0 0.0
vn -0.18473783135414124 -0.8016259670257568 -0.5685663223266602
vn -0.09981977194547653 -0.9463905692100525 -0.30721473693847656
vn -0.0 -1.0 0.0
vn 5.745160365222546e-07 -0.8016259670257568 -0.5978258848190308
vn 3.431255777286424e-07 -0.9463905692100525 -0.32302454113960266
vn -0.0 -1.0 0.0
vn 0.1847389191389084 -0.8016259074211121 -0.568566083908081
vn 0.09982036799192429 -0.9463905692100525 -0.30721452832221985
vn -0.0 -1.0 0.0
vn 0.3513939380645752 -0.8016259074211121 -0.48365095257759094
vn 0.18986953794956207 -0.9463906288146973 -0.26133203506469727
vn -0.0 -1.0 0.0
vn 0.48365193605422974 -0.8016259670257568 -0.35139238834381104
vn 0.2613326907157898 -0.9463906288146973 -0.18986853957176208
vn -0.0 -1.0 0.0
vn 0.5685664415359497 -0.8016259670257568 -0.18473751842975616
vn 0.30721476674079895 -0.9463906288146973 -0.09981956332921982
vn -0.0 -1.0 0.0
vn 0.5978260040283203 -0.8016259074211121 6.864980264253973e-07
vn 0.32302454113960266 -0.9463906288146973 3.6970570249650336e-07
vn -0.0 -1.0 0.0
vn 0.5685659050941467 -0.8016259670257568 0.18473933637142181
vn 0.30721452832221985 -0.9463905692100525 0.09982054680585861
vn -0.0 -1.0 0.0
vn 0.48365065455436707 -0.8016259670257568 0.3513941168785095
vn 0.2613319754600525 -0.9463906288146973 0.18986958265304565
vn -0.0 -1.0 0.0
vn 0.35139235854148865 -0.8016259670257568 0.48365193605422974
vn 0.1898687183856964 -0.9463906288146973 0.261332631111145
vn -0.0 -1.0 0.0
vn 0.18473735451698303 -0.8016259074211121 0.5685665607452393
vn 0.09981958568096161 -0.9463905692100525 0.30721476674079895
vn -0.0 -1.0 0.0
vn -5.209594746702351e-07 -0.8016259670257568 0.5978258848190308
vn -4.434051277257822e-07 -0.9463906288146973 0.3230243921279907
vn -0.0 -1.0 0.0
vn 0.6587622165679932 -0.5804780125617981 0.47862058877944946
vn 0.7744221687316895 -0.5804778933525085 0.25162622332572937
vn 0.4786180853843689 -0.5804780721664429 0.6587638854980469
vn 0.25162360072135925 -0.5804781913757324 0.7744228839874268
vn -6.49711125788599e-07 -0.5804781317710876 0.814275860786438
vn 0.7705899477005005 -0.3045303523540497 0.5598682761192322
vn 0.9058831930160522 -0.30453068017959595 0.29434114694595337
vn 0.814275860786438 -0.5804781317710876 1.2540652960524312e-06
vn 0.7744227051734924 -0.5804782509803772 -0.2516237795352936
vn 0.6587635278701782 -0.580478310585022 -0.4786182940006256
vn 0.4786200523376465 -0.5804780721664429 -0.6587624549865723
vn 0.2516259253025055 -0.5804781913757324 -0.7744219899177551
vn 8.838524081511423e-07 -0.5804781317710876 -0.8142758011817932
vn -0.25162434577941895 -0.5804782509803772 -0.7744225263595581
vn -0.47861889004707336 -0.5804782509803772 -0.6587632894515991
vn -0.6587628722190857 -0.5804780721664429 -0.47861963510513306
vn -0.7744222283363342 -0.5804781317710876 -0.25162559747695923
vn -0.8142758011817932 -0.5804782509803772 -4.449910022685799e-07
vn -0.7744223475456238 -0.5804781913757324 0.2516249716281891
vn -0.6587628722190857 -0.5804781913757324 0.47861945629119873
vn -0.478619247674942 -0.5804780721664429 0.6587631106376648
vn -0.25162506103515625 -0.5804781317710876 0.774422287940979
vn -6.49711125788599e-07 -0.5804781317710876 0.814275860786438
vn -0.29433944821357727 -0.30453062057495117 0.9058837890625
vn -7.072435437294189e-07 -0.3045308589935303 0.9525025486946106
vn -0.5598668456077576 -0.30453068017959595 0.7705908417701721
vn -0.7705907821655273 -0.3045308589935303 0.5598667860031128
vn -0.9058837890625 -0.30453065037727356 0.29433923959732056
vn -0.9525025486946106 -0.30453068017959595 -3.363720111337898e-07
vn -0.9058836102485657 -0.3045307695865631 -0.29433995485305786
vn -0.7705904841423035 -0.30453062057495117 -0.5598673224449158
vn -0.5598664879798889 -0.30453068017959595 -0.7705909609794617
vn -0.2943386435508728 -0.30453062057495117 -0.9058839678764343
vn 8.920634968490049e-07 -0.30453068017959595 -0.9525025486946106
vn 0.294340580701828 -0.30453068017959595 -0.9058833718299866
vn 0.559867799282074 -0.3045305013656616 -0.7705901861190796
vn 0.7705914378166199 -0.304530531167984 -0.5598660707473755
vn 0.9058842062950134 -0.30453094840049744 -0.2943379282951355
vn 0.952502429485321 -0.3045309782028198 1.8124660527973901e-06
vn 9.998740324590472e-07 0.0 -1.0
vn -0.3090161383152008 -1.2467566534724028e-07 -0.9510567784309387
vn 0.309018075466156 0.0 -0.9510561227798462
vn 0.5877863168716431 0.0 -0.8090162873268127
vn 0.809017539024353 1.4195737207955972e-07 -0.5877845883369446
vn 0.9510568976402283 1.8516186628403375e-07 -0.3090158700942993
vn 1.0 0.0 1.5059832776387339e-06
vn 0.9510559439659119 -3.098375032095646e-07 0.3090188801288605
vn 0.8090157508850098 -2.691018607947626e-07 0.5877870321273804
vn 0.587783932685852 0.0 0.8090178966522217
vn 0.5598657727241516 -0.3045303225517273 0.770591676235199
vn 0.2943381369113922 -0.30453062057495117 0.9058842062950134
vn -7.072435437294189e-07 -0.3045308589935303 0.9525025486946106
vn 0.30901551246643066 -2.2836626101252477e-07 0.9510570168495178
vn -7.55460291657073e-07 0.0 1.0
vn 0.9058842062950134 0.3045307993888855 -0.2943381071090698
vn 0.9525025486946106 0.3045308589935303 1.521682634120225e-06
vn 0.9058833122253418 0.30453068017959595 0.29434090852737427
vn 0.7705896496772766 0.30453047156333923 0.5598685145378113
vn 0.5598658323287964 0.30453041195869446 0.7705916166305542
vn 0.29433807730674744 0.3045307397842407 0.9058842062950134
vn -9.019203162097256e-07 0.3045307993888855 0.9525025486946106
vn 0.8142758011817932 0.5804781317710876 1.1559956192286336e-06
vn 0.7744227051734924 0.5804782509803772 -0.25162366032600403
vn 0.7705915570259094 0.3045303523540497 -0.5598660111427307
vn 0.5598679184913635 0.30453044176101685 -0.77059006690979
vn 0.29434049129486084 0.3045307397842407 -0.9058833718299866
vn 1.030062094287132e-06 0.30453068017959595 -0.9525025486946106
vn -0.2943386733531952 0.30453094840049744 -0.9058839082717896
vn -0.5877847075462341 0.0 -0.8090173602104187
vn -0.8090166449546814 0.0 -0.5877857804298401
vn -0.9510563611984253 0.0 -0.30901747941970825
vn -1.0 0.0 -2.8514924110822903e-07
vn -0.9510565400123596 -1.5923914986615273e-07 0.3090166449546814
vn -0.8090168833732605 0.0 0.5877853035926819
vn -0.5877851843833923 0.0 0.8090170621871948
vn -0.30901724100112915 -1.333165187134e-07 0.9510564804077148
vn -7.55460291657073e-07 0.0 1.0
vn -0.29433929920196533 0.30453068017959595 0.9058837890625
vn -9.019203162097256e-07 0.3045307993888855 0.9525025486946106
vn -0.5598670244216919 0.30453062057495117 0.7705907225608826
vn -0.7705907821655273 0.3045307695865631 0.5598669052124023
vn -0.9058837890625 0.30453088879585266 0.29433923959732056
vn -0.9525025486946106 0.30453068017959595 -3.62246765917007e-07
vn -0.9058836102485657 0.30453094840049744 -0.2943398058414459
vn -0.7705903649330139 0.30453070998191833 -0.5598674416542053
vn -0.5598664879798889 0.3045307993888855 -0.7705910801887512
vn -0.2516246736049652 0.5804782509803772 0.7744223475456238
vn -9.635336937208194e-07 0.5804781317710876 0.814275860786438
vn -0.47861921787261963 0.580478310585022 0.65876305103302
vn -0.65876305103302 0.5804782509803772 0.478619247674942
vn -0.7744221687316895 0.5804783701896667 0.2516251504421234
vn -0.814275860786438 0.5804781317710876 -4.3763563439824793e-07
vn -0.7744222283363342 0.580478310585022 -0.25162526965141296
vn -0.6587626338005066 0.5804781913757324 -0.47861966490745544
vn -0.4786188006401062 0.5804781317710876 -0.6587633490562439
vn -0.2516244053840637 0.5804781913757324 -0.7744225263595581
vn 9.831480838329298e-07 0.5804781913757324 -0.8142758011817932
vn 0.2516258656978607 0.5804780721664429 -0.7744220495223999
vn 0.4786202013492584 0.5804780125617981 -0.658762514591217
vn 0.6587635278701782 0.580478310585022 -0.4786183834075928
vn -0.3513929545879364 0.8016258478164673 -0.4836517572402954
vn -0.48365116119384766 0.8016259670257568 -0.35139337182044983
vn -0.1847379058599472 0.8016259670257568 -0.5685663223266602
vn 5.526064796868013e-07 0.8016258478164673 -0.5978260040283203
vn 0.1847388744354248 0.8016257882118225 -0.5685663223266602
vn 0.35139381885528564 0.8016259670257568 -0.48365089297294617
vn 0.4836522340774536 0.8016259670257568 -0.3513919711112976
vn 0.5685664415359497 0.8016260862350464 -0.1847374439239502
vn 0.5978261232376099 0.8016258478164673 5.891223509024712e-07
vn 0.5685657262802124 0.8016259670257568 0.18473966419696808
vn 0.7744219303131104 0.5804781913757324 0.25162631273269653
vn 0.6587619781494141 0.5804783701896667 0.47862035036087036
vn 0.4786180853843689 0.5804781317710876 0.6587638258934021
vn 0.2516237199306488 0.5804783701896667 0.7744225859642029
vn -9.635336937208194e-07 0.5804781317710876 0.814275860786438
vn 0.4836507737636566 0.8016258478164673 0.3513942360877991
vn 0.35139256715774536 0.8016260862350464 0.48365166783332825
vn 0.1847376972436905 0.8016263246536255 0.568566083908081
vn -5.769504127783875e-07 0.8016260862350464 0.5978257060050964
vn 0.2613326907157898 0.9463905692100525 0.18986889719963074
vn 0.18986812233924866 0.9463906288146973 0.2613329291343689
vn 0.09981784969568253 0.9463906288146973 0.30721521377563477
vn -1.0601853546177153e-06 0.9463905692100525 0.32302457094192505
vn -0.0 1.0 1.015393422676425e-07
vn -0.0 1.0 1.015393422676425e-07
vn -0.0 1.0 1.015393422676425e-07
vn 0.3072143495082855 0.9463906288146973 0.09982053935527802
vn 0.3230243921279907 0.9463906288146973 -5.056269856140716e-07
vn 0.3072149157524109 0.9463905692100525 -0.09981988370418549
vn 0.26133325695991516 0.9463906288146973 -0.18986742198467255
vn 0.1898699849843979 0.9463906288146973 -0.26133161783218384
vn 0.09982039779424667 0.9463907480239868 -0.30721402168273926
vn -8.173394121513411e-07 0.9463906288146973 -0.3230243921279907
vn -0.09981899708509445 0.9463906288146973 -0.3072149455547333
vn -0.18986892700195312 0.9463907480239868 -0.26133182644844055
vn -0.2613328695297241 0.9463904500007629 -0.18986882269382477
vn -0.5685661435127258 0.8016258478164673 -0.1847391575574875
vn -0.5978257060050964 0.8016261458396912 2.6656579166228767e-07
vn -0.568566083908081 0.8016259670257568 0.1847386509180069
vn -0.48365169763565063 0.8016259074211121 0.35139286518096924
vn -0.3513931632041931 0.8016259074211121 0.48365145921707153
vn -0.18473824858665466 0.8016259670257568 0.5685662031173706
vn -5.769504127783875e-07 0.8016260862350464 0.5978257060050964
vn -0.09981788694858551 0.9463906288146973 0.30721500515937805
vn -1.0601853546177153e-06 0.9463905692100525 0.32302457094192505
vn -0.18986812233924866 0.9463908672332764 0.26133230328559875
vn -0.2613328695297241 0.9463905692100525 0.18986842036247253
vn -0.30721497535705566 0.9463905692100525 0.09981896728277206
vn -0.3230246603488922 0.9463905692100525 1.1073042287534918e-06
vn -0.0 1.0 1.015393422676425e-07
vn -0.0 1.0 1.015393422676425e-07
vn -0.0 1.0 1.015393422676425e-07
vn -0.0 1.0 1.015393422676425e-07
vn -0.0 1.0 1.015393422676425e-07
vn -0.30721357464790344 0.9463908672332764 -0.09982050210237503
vn -0.0 1.0 1.015393422676425e-07
vn -0.0 1.0 1.015393422676425e-07
vn -0.0 1.0 1.015393422676425e-07
vn -0.0 1.0 1.015393422676425e-07
vn -0.0 1.0 1.015393422676425e-07
vn -0.0 1.0 1.015393422676425e-07
vn -0.0 1.0 1.015393422676425e-07
vn -0.0 1.0 1.015393422676425e-07
vn -0.0 1.0 1.015393422676425e-07
vn -0.0 1.0 1.015393422676425e-07
vn -0.0 1.0 1.015393422676425e-07
vn -0.0 1.0 1.015393422676425e-07
vt 0.0 0.0
vt 0.05000000074505806 0.10000002384185791
vt 0.0 0.10000002384185791
vt 0.05000000074505806 0.19999998807907104
vt 0.0 0.19999998807907104
vt 0.10000000149011612 0.19999998807907104
vt 0.10000000149011612 0.10000002384185791
vt 0.05000000074505806 0.0
vt 0.14999999105930328 0.19999998807907104
vt 0.14999999105930328 0.10000002384185791
vt 0.10000000149011612 0.0
vt 0.20000000298023224 0.19999998807907104
vt 0.20000000298023224 0.10000002384185791
vt 0.14999999105930328 0.0
vt 0.25 0.19999998807907104
vt 0.25 0.10000002384185791
vt 0.20000000298023224 0.0
vt 0.29999998211860657 0.19999998807907104
vt 0.29999998211860657 0.10000002384185791
vt 0.25 0.0
vt 0.34999996423721313 0.19999998807907104
vt 0.34999996423721313 0.10000002384185791
vt 0.29999998211860657 0.0
vt 0.4000000059604645 0.19999998807907104
vt 0.4000000059604645 0.10000002384185791
vt 0.34999996423721313 0.0
vt 0.45000001788139343 0.19999998807907104
vt 0.45000001788139343 0.10000002384185791
vt 0.4000000059604645 0.0
vt 0.5000000596046448 0.19999998807907104
vt 0.5000000596046448 0.10000002384185791
vt 0.45000001788139343 0.0
vt 0.5500000715255737 0.19999998807907104
vt 0.5500000715255737 0.10000002384185791
vt 0.5000000596046448 0.0
vt 0.6000000834465027 0.19999998807907104
vt 0.6000000834465027 0.10000002384185791
vt 0.5500000715255737 0.0
vt 0.6500000953674316 0.19999998807907104
vt 0.6500000953674316 0.10000002384185791
vt 0.6000000834465027 0.0
vt 0.7000001072883606 0.19999998807907104
vt 0.7000001072883606 0.10000002384185791
vt 0.6500000953674316 0.0
vt 0.7500001192092896 0.19999998807907104
vt 0.7500001192092896 0.10000002384185791
vt 0.7000001072883606 0.0
vt 0.8000001311302185 0.19999998807907104
vt 0.8000001311302185 0.10000002384185791
vt 0.7500001192092896 0.0
vt 0.8500001430511475 0.19999998807907104
vt 0.8500001430511475 0.10000002384185791
vt 0.8000001311302185 0.0
vt 0.9000001549720764 0.19999998807907104
vt 0.9000001549720764 0.10000002384185791
vt 0.8500001430511475 0.0
vt 0.9500002264976501 0.19999998807907104
vt 0.9500002264976501 0.10000002384185791
vt 0.9000001549720764 0.0
vt 1.000000238418579 0.19999998807907104
vt 1.000000238418579 0.10000002384185791
vt 0.9500002264976501 0.0
vt 0.8500001430511475 0.2999999523162842
vt 0.8000001311302185 0.2999999523162842
vt 0.9000001549720764 0.2999999523162842
vt 0.9500002264976501 0.2999999523162842
vt 1.000000238418579 0.2999999523162842
vt 0.8500001430511475 0.3999999761581421
vt 0.8000001311302185 0.3999999761581421
vt 0.7500001192092896 0.2999999523162842
vt 0.7000001072883606 0.2999999523162842
vt 0.6500000953674316 0.2999999523162842
vt 0.6000000834465027 0.2999999523162842
vt 0.5500000715255737 0.2999999523162842
vt 0.5000000596046448 0.2999999523162842
vt 0.45000001788139343 0.2999999523162842
vt 0.4000000059604645 0.2999999523162842
vt 0.34999996423721313 0.2999999523162842
vt 0.29999998211860657 0.2999999523162842
vt 0.25 0.2999999523162842
vt 0.20000000298023224 0.2999999523162842
vt 0.14999999105930328 0.2999999523162842
vt 0.10000000149011612 0.2999999523162842
vt 0.05000000074505806 0.2999999523162842
vt 0.0 0.2999999523162842
vt 0.05000000074505806 0.3999999761581421
vt 0.0 0.3999999761581421
vt 0.10000000149011612 0.3999999761581421
vt 0.14999999105930328 0.3999999761581421
vt 0.20000000298023224 0.3999999761581421
vt 0.25 0.3999999761581421
vt 0.29999998211860657 0.3999999761581421
vt 0.34999996423721313 0.3999999761581421
vt 0.4000000059604645 0.3999999761581421
vt 0.45000001788139343 0.3999999761581421
vt 0.5000000596046448 0.3999999761581421
vt 0.5500000715255737 0.3999999761581421
vt 0.6000000834465027 0.3999999761581421
vt 0.6500000953674316 0.3999999761581421
vt 0.7000001072883606 0.3999999761581421
vt 0.7500001192092896 0.3999999761581421
vt 0.5000000596046448 0.5
vt 0.45000001788139343 0.5
vt 0.5500000715255737 0.5
vt 0.6000000834465027 0.5
vt 0.6500000953674316 0.5
vt 0.7000001072883606 0.5
vt 0.7500001192092896 0.5
vt 0.8000001311302185 0.5
vt 0.8500001430511475 0.5
vt 0.9000001549720764 0.5
vt 0.9000001549720764 0.3999999761581421
vt 0.9500002264976501 0.3999999761581421
vt 1.000000238418579 0.3999999761581421
vt 0.9500002264976501 0.5
vt 1.000000238418579 0.5
vt 0.7000001072883606 0.5999999642372131
vt 0.7500001192092896 0.5999999642372131
vt 0.8000001311302185 0.5999999642372131
vt 0.8500001430511475 0.5999999642372131
vt 0.9000001549720764 0.5999999642372131
vt 0.9500002264976501 0.5999999642372131
vt 1.000000238418579 0.5999999642372131
vt 0.7500001192092896 0.6999999284744263
vt 0.7000001072883606 0.6999999284744263
vt 0.6500000953674316 0.5999999642372131
vt 0.6000000834465027 0.5999999642372131
vt 0.5500000715255737 0.5999999642372131
vt 0.5000000596046448 0.5999999642372131
vt 0.45000001788139343 0.5999999642372131
vt 0.4000000059604645 0.5
vt 0.34999996423721313 0.5
vt 0.29999998211860657 0.5
vt 0.25 0.5
vt 0.20000000298023224 0.5
vt 0.14999999105930328 0.5
vt 0.10000000149011612 0.5
vt 0.05000000074505806 0.5
vt 0.0 0.5
vt 0.05000000074505806 0.5999999642372131
vt 0.0 0.5999999642372131
vt 0.10000000149011612 0.5999999642372131
vt 0.14999999105930328 0.5999999642372131
vt 0.20000000298023224 0.5999999642372131
vt 0.25 0.5999999642372131
vt 0.29999998211860657 0.5999999642372131
vt 0.34999996423721313 0.5999999642372131
vt 0.4000000059604645 0.5999999642372131
vt 0.05000000074505806 0.6999999284744263
vt 0.0 0.6999999284744263
vt 0.10000000149011612 0.6999999284744263
vt 0.14999999105930328 0.6999999284744263
vt 0.20000000298023224 0.6999999284744263
vt 0.25 0.6999999284744263
vt 0.29999998211860657 0.6999999284744263
vt 0.34999996423721313 0.6999999284744263
vt 0.4000000059604645 0.6999999284744263
vt 0.45000001788139343 0.6999999284744263
vt 0.5000000596046448 0.6999999284744263
vt 0.5500000715255737 0.6999999284744263
vt 0.6000000834465027 0.6999999284744263
vt 0.6500000953674316 0.6999999284744263
vt 0.4000000059604645 0.800000011920929
vt 0.34999996423721313 0.800000011920929
vt 0.45000001788139343 0.800000011920929
vt 0.5000000596046448 0.800000011920929
vt 0.5500000715255737 0.800000011920929
vt 0.6000000834465027 0.800000011920929
vt 0.6500000953674316 0.800000011920929
vt 0.7000001072883606 0.800000011920929
vt 0.7500001192092896 0.800000011920929
vt 0.8000001311302185 0.800000011920929
vt 0.8000001311302185 0.6999999284744263
vt 0.8500001430511475 0.6999999284744263
vt 0.9000001549720764 0.6999999284744263
vt 0.9500002264976501 0.6999999284744263
vt 1.000000238418579 0.6999999284744263
vt 0.8500001430511475 0.800000011920929
vt 0.9000001549720764 0.800000011920929
vt 0.9500002264976501 0.800000011920929
vt 1.000000238418579 0.800000011920929
vt 0.8500001430511475 0.9000000357627869
vt 0.9000001549720764 0.9000000357627869
vt 0.9500002264976501 0.9000000357627869
vt 1.000000238418579 0.9000000357627869
vt 0.8500001430511475 1.0000001192092896
vt 0.9000001549720764 1.0000001192092896
vt 0.9500002264976501 1.0000001192092896
vt 0.8000001311302185 0.9000000357627869
vt 0.7500001192092896 0.9000000357627869
vt 0.7000001072883606 0.9000000357627869
vt 0.6500000953674316 0.9000000357627869
vt 0.6000000834465027 0.9000000357627869
vt 0.5500000715255737 0.9000000357627869
vt 0.5000000596046448 0.9000000357627869
vt 0.45000001788139343 0.9000000357627869
vt 0.4000000059604645 0.9000000357627869
vt 0.34999996423721313 0.9000000357627869
vt 0.29999998211860657 0.800000011920929
vt 0.25 0.800000011920929
vt 0.20000000298023224 0.800000011920929
vt 0.14999999105930328 0.800000011920929
vt 0.10000000149011612 0.800000011920929
vt 0.05000000074505806 0.800000011920929
vt 0.0 0.800000011920929
vt 0.05000000074505806 0.9000000357627869
vt 0.0 0.9000000357627869
vt 0.10000000149011612 0.9000000357627869
vt 0.14999999105930328 0.9000000357627869
vt 0.20000000298023224 0.9000000357627869
vt 0.25 0.9000000357627869
vt 0.0 1.0000001192092896
vt 0.05000000074505806 1.0000001192092896
vt 0.10000000149011612 1.0000001192092896
vt 0.14999999105930328 1.0000001192092896
vt 0.20000000298023224 1.0000001192092896
vt 0.29999998211860657 0.9000000357627869
vt 0.25 1.0000001192092896
vt 0.29999998211860657 1.0000001192092896
vt 0.34999996423721313 1.0000001192092896
vt 0.4000000059604645 1.0000001192092896
vt 0.45000001788139343 1.0000001192092896
vt 0.5000000596046448 1.0000001192092896
vt 0.5500000715255737 1.0000001192092896
vt 0.6000000834465027 1.0000001192092896
vt 0.6500000953674316 1.0000001192092896
vt 0.7000001072883606 1.0000001192092896
vt 0.7500001192092896 1.0000001192092896
vt 0.8000001311302185 1.0000001192092896

g eff_mdl_sphere05
s 1
usemtl eff_mdl_sphere05
f 3/3/3 2/2/2 1/1/1 
f 4/4/4 2/2/2 3/3/3 
f 5/5/5 4/4/4 3/3/3 
f 4/4/4 6/6/6 2/2/2 
f 6/6/6 7/7/7 2/2/2 
f 2/2/2 7/7/7 8/8/8 
f 6/6/6 9/9/9 7/7/7 
f 9/9/9 10/10/10 7/7/7 
f 7/7/7 10/10/10 11/11/11 
f 9/9/9 12/12/12 10/10/10 
f 12/12/12 13/13/13 10/10/10 
f 10/10/10 13/13/13 14/14/14 
f 12/12/12 15/15/15 13/13/13 
f 15/15/15 16/16/16 13/13/13 
f 13/13/13 16/16/16 17/17/17 
f 15/15/15 18/18/18 16/16/16 
f 18/18/18 19/19/19 16/16/16 
f 16/16/16 19/19/19 20/20/20 
f 18/18/18 21/21/21 19/19/19 
f 21/21/21 22/22/22 19/19/19 
f 19/19/19 22/22/22 23/23/23 
f 21/21/21 24/24/24 22/22/22 
f 24/24/24 25/25/25 22/22/22 
f 22/22/22 25/25/25 26/26/26 
f 24/24/24 27/27/27 25/25/25 
f 27/27/27 28/28/28 25/25/25 
f 25/25/25 28/28/28 29/29/29 
f 27/27/27 30/30/30 28/28/28 
f 30/30/30 31/31/31 28/28/28 
f 28/28/28 31/31/31 32/32/32 
f 30/30/30 33/33/33 31/31/31 
f 33/33/33 34/34/34 31/31/31 
f 31/31/31 34/34/34 35/35/35 
f 33/33/33 36/36/36 34/34/34 
f 36/36/36 37/37/37 34/34/34 
f 34/34/34 37/37/37 38/38/38 
f 36/36/36 39/39/39 37/37/37 
f 39/39/39 40/40/40 37/37/37 
f 37/37/37 40/40/40 41/41/41 
f 39/39/39 42/42/42 40/40/40 
f 42/42/42 43/43/43 40/40/40 
f 40/40/40 43/43/43 44/44/44 
f 42/42/42 45/45/45 43/43/43 
f 45/45/45 46/46/46 43/43/43 
f 43/43/43 46/46/46 47/47/47 
f 45/45/45 48/48/48 46/46/46 
f 48/48/48 49/49/49 46/46/46 
f 46/46/46 49/49/49 50/50/50 
f 48/48/48 51/51/51 49/49/49 
f 51/51/51 52/52/52 49/49/49 
f 49/49/49 52/52/52 53/53/53 
f 51/51/51 54/54/54 52/52/52 
f 54/54/54 55/55/55 52/52/52 
f 52/52/52 55/55/55 56/56/56 
f 54/54/54 57/57/57 55/55/55 
f 57/57/57 58/58/58 55/55/55 
f 55/55/55 58/58/58 59/59/59 
f 57/57/57 60/60/60 58/58/58 
f 60/60/60 61/61/61 58/58/58 
f 58/58/58 61/61/61 62/62/62 
f 63/63/63 51/51/51 48/48/48 
f 64/64/64 63/63/63 48/48/48 
f 63/63/63 65/65/65 51/51/51 
f 65/65/65 54/54/54 51/51/51 
f 65/65/65 66/66/66 54/54/54 
f 66/66/66 57/57/57 54/54/54 
f 66/66/66 67/67/67 57/57/57 
f 67/67/67 60/60/60 57/57/57 
f 68/68/68 63/63/63 64/64/64 
f 69/69/69 68/68/68 64/64/64 
f 69/69/69 64/64/64 70/70/70 
f 70/70/70 64/64/64 45/45/45 
f 70/70/70 45/45/45 42/42/42 
f 71/71/71 70/70/70 42/42/42 
f 71/71/71 42/42/42 39/39/39 
f 72/72/72 71/71/71 39/39/39 
f 72/72/72 39/39/39 36/36/36 
f 73/73/73 72/72/72 36/36/36 
f 73/73/73 36/36/36 33/33/33 
f 74/74/74 73/73/73 33/33/33 
f 74/74/74 33/33/33 30/30/30 
f 75/75/75 74/74/74 30/30/30 
f 75/75/75 30/30/30 27/27/27 
f 76/76/76 75/75/75 27/27/27 
f 76/76/76 27/27/27 24/24/24 
f 77/77/77 76/76/76 24/24/24 
f 77/77/77 24/24/24 21/21/21 
f 78/78/78 77/77/77 21/21/21 
f 78/78/78 21/21/21 18/18/18 
f 79/79/79 78/78/78 18/18/18 
f 79/79/79 18/18/18 15/15/15 
f 80/80/80 79/79/79 15/15/15 
f 80/80/80 15/15/15 12/12/12 
f 81/81/81 80/80/80 12/12/12 
f 81/81/81 12/12/12 9/9/9 
f 82/82/82 81/81/81 9/9/9 
f 82/82/82 9/9/9 6/6/6 
f 83/83/83 82/82/82 6/6/6 
f 83/83/83 6/6/6 4/4/4 
f 84/84/84 83/83/83 4/4/4 
f 84/84/84 4/4/4 5/5/5 
f 85/85/85 84/84/84 5/5/5 
f 86/86/86 84/84/84 85/85/85 
f 87/87/87 86/86/86 85/85/85 
f 86/86/86 88/88/88 84/84/84 
f 88/88/88 83/83/83 84/84/84 
f 88/88/88 89/89/89 83/83/83 
f 89/89/89 82/82/82 83/83/83 
f 89/89/89 90/90/90 82/82/82 
f 90/90/90 81/81/81 82/82/82 
f 90/90/90 91/91/91 81/81/81 
f 91/91/91 80/80/80 81/81/81 
f 91/91/91 92/92/92 80/80/80 
f 92/92/92 79/79/79 80/80/80 
f 92/92/92 93/93/93 79/79/79 
f 93/93/93 78/78/78 79/79/79 
f 93/93/93 94/94/94 78/78/78 
f 94/94/94 77/77/77 78/78/78 
f 94/94/94 95/95/95 77/77/77 
f 95/95/95 76/76/76 77/77/77 
f 95/95/95 96/96/96 76/76/76 
f 96/96/96 75/75/75 76/76/76 
f 96/96/96 97/97/97 75/75/75 
f 97/97/97 74/74/74 75/75/75 
f 97/97/97 98/98/98 74/74/74 
f 98/98/98 73/73/73 74/74/74 
f 98/98/98 99/99/99 73/73/73 
f 99/99/99 72/72/72 73/73/73 
f 99/99/99 100/100/100 72/72/72 
f 100/100/100 71/71/71 72/72/72 
f 100/100/100 101/101/101 71/71/71 
f 101/101/101 70/70/70 71/71/71 
f 101/101/101 69/69/69 70/70/70 
f 102/102/102 96/96/96 95/95/95 
f 103/103/103 102/102/102 95/95/95 
f 102/102/102 104/104/104 96/96/96 
f 104/104/104 97/97/97 96/96/96 
f 104/104/104 105/105/105 97/97/97 
f 105/105/105 98/98/98 97/97/97 
f 105/105/105 106/106/106 98/98/98 
f 106/106/106 99/99/99 98/98/98 
f 106/106/106 107/107/107 99/99/99 
f 107/107/107 100/100/100 99/99/99 
f 107/107/107 108/108/108 100/100/100 
f 108/108/108 101/101/101 100/100/100 
f 108/108/108 109/109/109 101/101/101 
f 109/109/109 69/69/69 101/101/101 
f 109/109/109 110/110/110 69/69/69 
f 110/110/110 68/68/68 69/69/69 
f 110/110/110 111/111/111 68/68/68 
f 111/111/111 112/112/112 68/68/68 
f 68/68/68 112/112/112 63/63/63 
f 112/112/112 65/65/65 63/63/63 
f 112/112/112 113/113/113 65/65/65 
f 113/113/113 66/66/66 65/65/65 
f 113/113/113 114/114/114 66/66/66 
f 114/114/114 67/67/67 66/66/66 
f 111/111/111 115/115/115 112/112/112 
f 115/115/115 113/113/113 112/112/112 
f 115/115/115 116/116/116 113/113/113 
f 116/116/116 114/114/114 113/113/113 
f 117/117/117 107/107/107 106/106/106 
f 117/117/117 118/118/118 107/107/107 
f 118/118/118 108/108/108 107/107/107 
f 118/118/118 119/119/119 108/108/108 
f 119/119/119 109/109/109 108/108/108 
f 119/119/119 120/120/120 109/109/109 
f 120/120/120 110/110/110 109/109/109 
f 120/120/120 121/121/121 110/110/110 
f 121/121/121 111/111/111 110/110/110 
f 121/121/121 122/122/122 111/111/111 
f 122/122/122 115/115/115 111/111/111 
f 122/122/122 123/123/123 115/115/115 
f 123/123/123 116/116/116 115/115/115 
f 124/124/124 118/118/118 117/117/117 
f 125/125/125 124/124/124 117/117/117 
f 125/125/125 117/117/117 126/126/126 
f 126/126/126 117/117/117 106/106/106 
f 126/126/126 106/106/106 105/105/105 
f 127/127/127 126/126/126 105/105/105 
f 127/127/127 105/105/105 104/104/104 
f 128/128/128 127/127/127 104/104/104 
f 128/128/128 104/104/104 102/102/102 
f 129/129/129 128/128/128 102/102/102 
f 129/129/129 102/102/102 103/103/103 
f 130/130/130 129/129/129 103/103/103 
f 130/130/130 103/103/103 131/131/131 
f 131/131/131 103/103/103 94/94/94 
f 131/131/131 94/94/94 93/93/93 
f 132/132/132 131/131/131 93/93/93 
f 132/132/132 93/93/93 92/92/92 
f 133/133/133 132/132/132 92/92/92 
f 133/133/133 92/92/92 91/91/91 
f 134/134/134 133/133/133 91/91/91 
f 134/134/134 91/91/91 90/90/90 
f 135/135/135 134/134/134 90/90/90 
f 135/135/135 90/90/90 89/89/89 
f 136/136/136 135/135/135 89/89/89 
f 136/136/136 89/89/89 88/88/88 
f 137/137/137 136/136/136 88/88/88 
f 137/137/137 88/88/88 86/86/86 
f 138/138/138 137/137/137 86/86/86 
f 138/138/138 86/86/86 87/87/87 
f 139/139/139 138/138/138 87/87/87 
f 140/140/140 138/138/138 139/139/139 
f 141/141/141 140/140/140 139/139/139 
f 140/140/140 142/142/142 138/138/138 
f 142/142/142 137/137/137 138/138/138 
f 142/142/142 143/143/143 137/137/137 
f 143/143/143 136/136/136 137/137/137 
f 143/143/143 144/144/144 136/136/136 
f 144/144/144 135/135/135 136/136/136 
f 144/144/144 145/145/145 135/135/135 
f 145/145/145 134/134/134 135/135/135 
f 145/145/145 146/146/146 134/134/134 
f 146/146/146 133/133/133 134/134/134 
f 146/146/146 147/147/147 133/133/133 
f 147/147/147 132/132/132 133/133/133 
f 147/147/147 148/148/148 132/132/132 
f 148/148/148 131/131/131 132/132/132 
f 148/148/148 130/130/130 131/131/131 
f 149/149/149 140/140/140 141/141/141 
f 150/150/150 149/149/149 141/141/141 
f 149/149/149 151/151/151 140/140/140 
f 151/151/151 142/142/142 140/140/140 
f 151/151/151 152/152/152 142/142/142 
f 152/152/152 143/143/143 142/142/142 
f 152/152/152 153/153/153 143/143/143 
f 153/153/153 144/144/144 143/143/143 
f 153/153/153 154/154/154 144/144/144 
f 154/154/154 145/145/145 144/144/144 
f 154/154/154 155/155/155 145/145/145 
f 155/155/155 146/146/146 145/145/145 
f 155/155/155 156/156/156 146/146/146 
f 156/156/156 147/147/147 146/146/146 
f 156/156/156 157/157/157 147/147/147 
f 157/157/157 148/148/148 147/147/147 
f 157/157/157 158/158/158 148/148/148 
f 158/158/158 130/130/130 148/148/148 
f 158/158/158 159/159/159 130/130/130 
f 159/159/159 129/129/129 130/130/130 
f 159/159/159 160/160/160 129/129/129 
f 160/160/160 128/128/128 129/129/129 
f 160/160/160 161/161/161 128/128/128 
f 161/161/161 127/127/127 128/128/128 
f 161/161/161 162/162/162 127/127/127 
f 162/162/162 126/126/126 127/127/127 
f 162/162/162 125/125/125 126/126/126 
f 163/163/163 157/157/157 156/156/156 
f 164/164/164 163/163/163 156/156/156 
f 163/163/163 165/165/165 157/157/157 
f 165/165/165 158/158/158 157/157/157 
f 165/165/165 166/166/166 158/158/158 
f 166/166/166 159/159/159 158/158/158 
f 166/166/166 167/167/167 159/159/159 
f 167/167/167 160/160/160 159/159/159 
f 167/167/167 168/168/168 160/160/160 
f 168/168/168 161/161/161 160/160/160 
f 168/168/168 169/169/169 161/161/161 
f 169/169/169 162/162/162 161/161/161 
f 169/169/169 170/170/170 162/162/162 
f 170/170/170 125/125/125 162/162/162 
f 170/170/170 171/171/171 125/125/125 
f 171/171/171 124/124/124 125/125/125 
f 171/171/171 172/172/172 124/124/124 
f 172/172/172 173/173/173 124/124/124 
f 124/124/124 173/173/173 118/118/118 
f 173/173/173 119/119/119 118/118/118 
f 173/173/173 174/174/174 119/119/119 
f 174/174/174 120/120/120 119/119/119 
f 174/174/174 175/175/175 120/120/120 
f 175/175/175 121/121/121 120/120/120 
f 175/175/175 176/176/176 121/121/121 
f 176/176/176 122/122/122 121/121/121 
f 176/176/176 177/177/177 122/122/122 
f 177/177/177 123/123/123 122/122/122 
f 172/172/172 178/178/178 173/173/173 
f 178/178/178 174/174/174 173/173/173 
f 178/178/178 179/179/179 174/174/174 
f 179/179/179 175/175/175 174/174/174 
f 179/179/179 180/180/180 175/175/175 
f 180/180/180 176/176/176 175/175/175 
f 180/180/180 181/181/181 176/176/176 
f 181/181/181 177/177/177 176/176/176 
f 182/182/182 178/178/178 172/172/172 
f 182/182/182 183/183/183 178/178/178 
f 183/183/183 179/179/179 178/178/178 
f 183/183/183 184/184/184 179/179/179 
f 184/184/184 180/180/180 179/179/179 
f 184/184/184 185/185/185 180/180/180 
f 185/185/185 181/181/181 180/180/180 
f 183/183/183 182/182/182 186/186/186 
f 184/184/184 183/183/183 187/187/187 
f 185/185/185 184/184/184 188/188/188 
f 189/189/189 182/182/182 172/172/172 
f 189/189/189 172/172/172 171/171/171 
f 190/190/190 189/189/189 171/171/171 
f 190/190/190 171/171/171 170/170/170 
f 191/191/191 190/190/190 170/170/170 
f 191/191/191 170/170/170 169/169/169 
f 192/192/192 191/191/191 169/169/169 
f 192/192/192 169/169/169 168/168/168 
f 193/193/193 192/192/192 168/168/168 
f 193/193/193 168/168/168 167/167/167 
f 194/194/194 193/193/193 167/167/167 
f 194/194/194 167/167/167 166/166/166 
f 195/195/195 194/194/194 166/166/166 
f 195/195/195 166/166/166 165/165/165 
f 196/196/196 195/195/195 165/165/165 
f 196/196/196 165/165/165 163/163/163 
f 197/197/197 196/196/196 163/163/163 
f 197/197/197 163/163/163 164/164/164 
f 198/198/198 197/197/197 164/164/164 
f 198/198/198 164/164/164 199/199/199 
f 199/199/199 164/164/164 155/155/155 
f 199/199/199 155/155/155 154/154/154 
f 200/200/200 199/199/199 154/154/154 
f 200/200/200 154/154/154 153/153/153 
f 201/201/201 200/200/200 153/153/153 
f 201/201/201 153/153/153 152/152/152 
f 202/202/202 201/201/201 152/152/152 
f 202/202/202 152/152/152 151/151/151 
f 203/203/203 202/202/202 151/151/151 
f 203/203/203 151/151/151 149/149/149 
f 204/204/204 203/203/203 149/149/149 
f 204/204/204 149/149/149 150/150/150 
f 205/205/205 204/204/204 150/150/150 
f 164/164/164 156/156/156 155/155/155 
f 206/206/206 204/204/204 205/205/205 
f 207/207/207 206/206/206 205/205/205 
f 206/206/206 208/208/208 204/204/204 
f 208/208/208 203/203/203 204/204/204 
f 208/208/208 209/209/209 203/203/203 
f 209/209/209 202/202/202 203/203/203 
f 209/209/209 210/210/210 202/202/202 
f 210/210/210 201/201/201 202/202/202 
f 210/210/210 211/211/211 201/201/201 
f 206/206/206 207/207/207 212/212/212 
f 208/208/208 206/206/206 213/213/213 
f 209/209/209 208/208/208 214/214/214 
f 210/210/210 209/209/209 215/215/215 
f 211/211/211 210/210/210 216/216/216 
f 211/211/211 200/200/200 201/201/201 
f 211/211/211 217/217/217 200/200/200 
f 217/217/217 199/199/199 200/200/200 
f 217/217/217 198/198/198 199/199/199 
f 217/217/217 211/211/211 218/218/218 
f 198/198/198 217/217/217 219/219/219 
f 197/197/197 198/198/198 220/220/220 
f 196/196/196 197/197/197 221/221/221 
f 195/195/195 196/196/196 222/222/222 
f 194/194/194 195/195/195 223/223/223 
f 193/193/193 194/194/194 224/224/224 
f 192/192/192 193/193/193 225/225/225 
f 191/191/191 192/192/192 226/226/226 
f 190/190/190 191/191/191 227/227/227 
f 189/189/189 190/190/190 228/228/228 
f 182/182/182 189/189/189 229/229/229 
f 64/64/64 48/48/48 45/45/45 
f 103/103/103 95/95/95 94/94/94 

