v -2.855011463165283 -0.0750652328133583 4.343814849853516
v 2.855011463165283 -0.07506685703992844 4.061970233917236
v -2.855011463165283 -0.0750652328133583 4.061970233917236
v 2.855011463165283 -0.07506685703992844 4.343814849853516
v 3.2119550704956055 0.2756342887878418 5.214015960693359
v 0.942497968673706 0.23409585654735565 5.260397434234619
v 0.9424981474876404 0.27571165561676025 5.102161884307861
v 3.2952609062194824 0.23396509885787964 5.372251510620117
v -0.9424979090690613 0.2757122218608856 5.102161884307861
v -0.9424980878829956 0.23409639298915863 5.260397434234619
v 3.2119548320770264 -0.27563613653182983 5.214015960693359
v 0.942497968673706 -0.23409640789031982 5.260397434234619
v 3.2952609062194824 -0.2339669018983841 5.372251510620117
v 0.9424978494644165 -0.275712251663208 5.102161884307861
v -0.9424982070922852 -0.27571168541908264 5.102161884307861
v -0.9424980878829956 -0.23409587144851685 5.260397434234619
v 3.2952609062194824 0.23396509885787964 5.372251510620117
v 3.2119548320770264 -0.27563613653182983 5.214015960693359
v 3.2952609062194824 -0.2339669018983841 5.372251510620117
v 3.2119550704956055 0.2756342887878418 5.214015960693359
v -0.9424980878829956 -0.2339657098054886 4.964487075805664
v 0.9424978494644165 -0.275712251663208 5.102161884307861
v 0.942497968673706 -0.23396624624729156 4.964487075805664
v -0.9424982070922852 -0.27571168541908264 5.102161884307861
v 3.1286492347717285 -0.23396672308444977 5.076341152191162
v 3.2119548320770264 -0.27563613653182983 5.214015960693359
v 2.855011463165283 0.07506541162729263 4.061970233917236
v 2.855011463165283 -0.07506685703992844 4.343814849853516
v 2.855011463165283 0.07506541162729263 4.343814849853516
v 2.855011463165283 -0.07506685703992844 4.061970233917236
v -2.855011463165283 -0.0750652328133583 4.343814849853516
v 2.855011463165283 0.07506541162729263 4.343814849853516
v 2.855011463165283 -0.07506685703992844 4.343814849853516
v -2.855011463165283 0.07506702840328217 4.343814849853516
v -0.24326518177986145 0.0018801037222146988 4.343814849853516
v 0.24326501786708832 0.001880002673715353 4.975157737731934
v -0.24326518177986145 0.0018801034893840551 4.975157737731934
v 0.24326501786708832 0.0018800030229613185 4.343814849853516
v -3.211954355239868 0.2756361663341522 5.214015960693359
v -0.9424980878829956 0.23409639298915863 5.260397434234619
v -3.295260190963745 0.23396693170070648 5.372251510620117
v -0.9424979090690613 0.2757122218608856 5.102161884307861
v -3.2119548320770264 -0.2756342589855194 5.214015960693359
v -0.9424980878829956 -0.23409587144851685 5.260397434234619
v -0.9424982070922852 -0.27571168541908264 5.102161884307861
v -3.295260190963745 -0.23396506905555725 5.372251510620117
v -3.2119548320770264 -0.2756342589855194 5.214015960693359
v -3.295260190963745 0.23396693170070648 5.372251510620117
v -3.295260190963745 -0.23396506905555725 5.372251510620117
v -3.211954355239868 0.2756361663341522 5.214015960693359
v 0.24296323955059052 -0.01879999414086342 4.343814849853516
v -0.24296340346336365 -0.01879989728331566 4.975157737731934
v 0.24296323955059052 -0.01879999414086342 4.975157737731934
v -0.24296340346336365 -0.01879989728331566 4.343814849853516
v -2.855011463165283 0.07506702840328217 4.061970233917236
v -2.855011463165283 -0.0750652328133583 4.343814849853516
v -2.855011463165283 -0.0750652328133583 4.061970233917236
v -2.855011463165283 0.07506702840328217 4.343814849853516
v -2.855011463165283 0.07506702840328217 4.343814849853516
v 2.855011463165283 0.07506541162729263 4.061970233917236
v 2.855011463165283 0.07506541162729263 4.343814849853516
v -2.855011463165283 0.07506702840328217 4.061970233917236
v 2.0979559421539307 -5.667955065291608e-07 5.08754301071167
v 1.9473522901535034 -0.2072889655828476 0.8023402690887451
v 1.9473522901535034 -0.2072889655828476 5.08754301071167
v 2.0979559421539307 -5.667955065291608e-07 0.8023402690887451
v 1.7036699056625366 -0.12811179459095 0.8023402690887451
v 1.7036699056625366 -0.12811179459095 5.08754301071167
v 1.7036699056625366 0.12811078131198883 0.8023402690887451
v 1.7036699056625366 0.12811078131198883 5.08754301071167
v 1.9473522901535034 0.20728784799575806 5.08754301071167
v 2.0979559421539307 -5.667955065291608e-07 0.8023402690887451
v 2.0979559421539307 -5.667955065291608e-07 5.08754301071167
v 1.9473522901535034 0.20728784799575806 0.8023402690887451
v 1.7036699056625366 0.12811078131198883 5.08754301071167
v 1.7036699056625366 0.12811078131198883 0.8023402690887451
v 2.1742405891418457 -5.793129957964993e-07 0.8023402690887451
v 1.9709255695343018 -0.2798398733139038 0.0
v 1.9709254503250122 -0.2798398733139038 0.8023402690887451
v 2.1742405891418457 -5.793129957964993e-07 0.0
v 1.6419546604156494 -0.17295071482658386 0.0
v 1.6419546604156494 -0.17295071482658386 0.8023402690887451
v 1.6419544219970703 0.17294974625110626 0.0
v 1.6419544219970703 0.17294974625110626 0.8023402690887451
v 1.9709254503250122 0.27983883023262024 0.8023402690887451
v 2.1742405891418457 -5.793129957964993e-07 0.0
v 2.1742405891418457 -5.793129957964993e-07 0.8023402690887451
v 1.9709254503250122 0.27983883023262024 0.0
v 1.6419544219970703 0.17294974625110626 0.8023402690887451
v 1.6419544219970703 0.17294974625110626 0.0
v 1.9709254503250122 -0.2798398733139038 0.8023402690887451
v 1.9709254503250122 0.27983883023262024 0.8023402690887451
v 2.1742405891418457 -5.793129957964993e-07 0.8023402690887451
v 1.6419544219970703 0.17294974625110626 0.8023402690887451
v 1.6419546604156494 -0.17295071482658386 0.8023402690887451
v -2.0979561805725098 6.169971129565965e-07 5.08754301071167
v -1.9473522901535034 -0.20728781819343567 0.8023402690887451
v -2.0979561805725098 6.169971129565965e-07 0.8023402690887451
v -1.9473519325256348 -0.20728781819343567 5.08754301071167
v -1.7036702632904053 -0.1281108409166336 0.8023402690887451
v -1.7036702632904053 -0.1281108409166336 5.08754301071167
v -1.7036702632904053 0.12811173498630524 0.8023402690887451
v -1.7036702632904053 0.12811173498630524 5.08754301071167
v -1.9473519325256348 0.2072889804840088 5.08754301071167
v -2.0979561805725098 6.169971129565965e-07 0.8023402690887451
v -1.9473522901535034 0.2072889804840088 0.8023402690887451
v -2.0979561805725098 6.169971129565965e-07 5.08754301071167
v -1.7036702632904053 0.12811173498630524 5.08754301071167
v -1.7036702632904053 0.12811173498630524 0.8023402690887451
v -2.1742405891418457 6.475240752479294e-07 0.8023402690887451
v -1.9709254503250122 -0.27983877062797546 0.0
v -2.1742405891418457 6.475240752479294e-07 0.0
v -1.9709254503250122 -0.27983877062797546 0.8023402690887451
v -1.6419546604156494 -0.17294980585575104 0.0
v -1.6419546604156494 -0.17294980585575104 0.8023402690887451
v -1.6419546604156494 0.17295067012310028 0.0
v -1.6419546604156494 0.17295067012310028 0.8023402690887451
v -1.9709254503250122 0.2798399329185486 0.8023402690887451
v -2.1742405891418457 6.475240752479294e-07 0.0
v -1.9709254503250122 0.2798399329185486 0.0
v -2.1742405891418457 6.475240752479294e-07 0.8023402690887451
v -1.6419546604156494 0.17295067012310028 0.8023402690887451
v -1.6419546604156494 0.17295067012310028 0.0
v -1.9709254503250122 -0.27983877062797546 0.8023402690887451
v -1.6419546604156494 0.17295067012310028 0.8023402690887451
v -1.6419546604156494 -0.17294980585575104 0.8023402690887451
v -1.9709254503250122 0.2798399329185486 0.8023402690887451
v -2.1742405891418457 6.475240752479294e-07 0.8023402690887451
v 0.9424981474876404 0.27571165561676025 5.102161884307861
v 3.1286492347717285 0.2339649498462677 5.076341152191162
v 3.2119550704956055 0.2756342887878418 5.214015960693359
v 0.942497968673706 0.23396563529968262 4.964487075805664
v -0.9424979090690613 0.2757122218608856 5.102161884307861
v -0.9424980878829956 0.2339661717414856 4.964487075805664
v 3.0829997062683105 -8.622652671874675e-07 5.001743793487549
v 3.2119550704956055 0.2756342887878418 5.214015960693359
v 3.1286492347717285 0.2339649498462677 5.076341152191162
v 3.2119550704956055 0.2756342887878418 5.214015960693359
v 3.1286492347717285 -0.23396672308444977 5.076341152191162
v 3.2119548320770264 -0.27563613653182983 5.214015960693359
v 3.0829997062683105 -8.622652671874675e-07 5.001743793487549
v 3.1286492347717285 -0.23396672308444977 5.076341152191162
v 3.2119550704956055 0.2756342887878418 5.214015960693359
v -3.128648519515991 0.23396675288677216 5.076341152191162
v -0.9424979090690613 0.2757122218608856 5.102161884307861
v -3.211954355239868 0.2756361663341522 5.214015960693359
v -0.9424980878829956 0.2339661717414856 4.964487075805664
v -0.9424982070922852 -0.27571168541908264 5.102161884307861
v -3.1286492347717285 -0.2339649349451065 5.076341152191162
v -3.2119548320770264 -0.2756342589855194 5.214015960693359
v -0.9424980878829956 -0.2339657098054886 4.964487075805664
v -3.2119548320770264 -0.2756342589855194 5.214015960693359
v -3.128648519515991 0.23396675288677216 5.076341152191162
v -3.211954355239868 0.2756361663341522 5.214015960693359
v -3.1286492347717285 -0.2339649349451065 5.076341152191162
v -3.128648519515991 0.23396675288677216 5.076341152191162
v -3.1286492347717285 -0.2339649349451065 5.076341152191162
v -3.08270001411438 8.812673399916093e-07 5.001743793487549
v 0.9424979090690613 -0.25626814365386963 5.2729973793029785
v 3.5594255924224854 -1.361664885735081e-06 5.506397724151611
v 3.489633083343506 -0.2561267018318176 5.384851455688477
v 3.5594255924224854 -1.361664885735081e-06 5.506397724151611
v 0.9424979090690613 -0.25626814365386963 5.2729973793029785
v 0.942497968673706 -4.073478692134813e-07 5.394543170928955
v -0.9424980878829956 4.073478692134813e-07 5.394543170928955
v -0.9424981474876404 -0.25626733899116516 5.2729973793029785
v 0.942497968673706 -4.073478692134813e-07 5.394543170928955
v 3.489633083343506 0.2561238706111908 5.384851455688477
v 3.5594255924224854 -1.361664885735081e-06 5.506397724151611
v 3.489633083343506 0.2561238706111908 5.384851455688477
v 0.942497968673706 -4.073478692134813e-07 5.394543170928955
v 0.9424980878829956 0.2562673091888428 5.2729973793029785
v -0.942497968673706 0.25626814365386963 5.2729973793029785
v -0.9424980878829956 4.073478692134813e-07 5.394543170928955
v 3.489633083343506 0.2561238706111908 5.384851455688477
v 3.489633083343506 -0.2561267018318176 5.384851455688477
v 3.5594255924224854 -1.361664885735081e-06 5.506397724151611
v -0.9424981474876404 -0.25626733899116516 5.2729973793029785
v -3.559424877166748 1.5673571169827483e-06 5.506397724151611
v -0.9424980878829956 4.073478692134813e-07 5.394543170928955
v -3.559424877166748 1.5673571169827483e-06 5.506397724151611
v -0.9424981474876404 -0.25626733899116516 5.2729973793029785
v -3.4896321296691895 -0.256123811006546 5.384851455688477
v -0.9424980878829956 4.073478692134813e-07 5.394543170928955
v -3.4896321296691895 0.25612673163414 5.384851455688477
v -0.942497968673706 0.25626814365386963 5.2729973793029785
v -3.4896321296691895 0.25612673163414 5.384851455688477
v -0.9424980878829956 4.073478692134813e-07 5.394543170928955
v -3.559424877166748 1.5673571169827483e-06 5.506397724151611
v -3.4896321296691895 0.25612673163414 5.384851455688477
v -3.559424877166748 1.5673571169827483e-06 5.506397724151611
v -3.4896321296691895 -0.256123811006546 5.384851455688477
v 3.489633083343506 -0.2561267018318176 5.384851455688477
v 0.9424979090690613 -0.25626814365386963 5.222006320953369
v 0.9424979090690613 -0.25626814365386963 5.2729973793029785
v 3.489633083343506 -0.2561267018318176 5.333860397338867
v -0.9424982070922852 -0.25626733899116516 5.222006320953369
v -0.9424981474876404 -0.25626733899116516 5.2729973793029785
v 0.9424980878829956 0.2562673091888428 5.2729973793029785
v 3.489633083343506 0.2561238706111908 5.333860397338867
v 3.489633083343506 0.2561238706111908 5.384851455688477
v 0.9424980878829956 0.2562673091888428 5.222006320953369
v -0.942497968673706 0.25626814365386963 5.2729973793029785
v -0.9424980878829956 0.25626814365386963 5.222006320953369
v 3.489633083343506 0.2561238706111908 5.384851455688477
v 3.489633083343506 -0.2561267018318176 5.333860397338867
v 3.489633083343506 -0.2561267018318176 5.384851455688477
v 3.489633083343506 0.2561238706111908 5.333860397338867
v -0.9424981474876404 -0.25626733899116516 5.2729973793029785
v -3.4896321296691895 -0.256123811006546 5.333860397338867
v -3.4896321296691895 -0.256123811006546 5.384851455688477
v -0.9424982070922852 -0.25626733899116516 5.222006320953369
v -3.4896321296691895 0.25612673163414 5.384851455688477
v -0.9424980878829956 0.25626814365386963 5.222006320953369
v -0.942497968673706 0.25626814365386963 5.2729973793029785
v -3.4896321296691895 0.25612673163414 5.333860397338867
v -3.4896321296691895 -0.256123811006546 5.384851455688477
v -3.4896321296691895 0.25612673163414 5.333860397338867
v -3.4896321296691895 0.25612673163414 5.384851455688477
v -3.4896321296691895 -0.256123811006546 5.333860397338867
vn -2.8392992135195527e-07 -1.0 0.0
vn -2.8392992135195527e-07 -1.0 0.0
vn -2.8392992135195527e-07 -1.0 0.0
vn -2.8392992135195527e-07 -1.0 0.0
vn -0.01250213012099266 0.9670365452766418 0.25433021783828735
vn -0.01250213012099266 0.9670365452766418 0.25433024764060974
vn -0.01250213012099266 0.9670365452766418 0.25433024764060974
vn -0.012340758927166462 0.9653392434120178 0.2607061564922333
vn 2.7400250246500946e-07 0.9671121835708618 0.2543503940105438
vn 2.7400250246500946e-07 0.9671121835708618 0.25435036420822144
vn -0.012341290712356567 -0.9653391242027283 0.26070669293403625
vn -0.012341290712356567 -0.9653391242027283 0.26070669293403625
vn -0.012341289781033993 -0.9653391242027283 0.26070669293403625
vn -0.012502665631473064 -0.9670364260673523 0.254330575466156
vn -2.935740894827177e-07 -0.9671120643615723 0.254350483417511
vn -2.7400250246500946e-07 -0.9671121835708618 0.2543502748012543
vn 0.8848626017570496 0.0 -0.46585220098495483
vn 0.8848626017570496 0.0 -0.46585220098495483
vn 0.8848626017570496 0.0 -0.46585220098495483
vn 0.8848632574081421 -4.898481620330131e-07 -0.46585091948509216
vn -2.711299771362974e-07 -0.9569735527038574 -0.29017511010169983
vn -2.711300055580068e-07 -0.9569735527038574 -0.2901751399040222
vn -2.711300055580068e-07 -0.9569735527038574 -0.29017511010169983
vn -2.904964730987558e-07 -0.956973671913147 -0.2901749014854431
vn 0.01470954529941082 -0.9545152187347412 -0.2977992594242096
vn 0.01470954529941082 -0.9545152187347412 -0.2977992594242096
vn 1.0 0.0 0.0
vn 1.0 0.0 0.0
vn 1.0 0.0 0.0
vn 1.0 0.0 0.0
vn -0.0 0.0 1.0
vn -0.0 0.0 1.0
vn -0.0 0.0 1.0
vn -0.0 0.0 1.0
vn 2.0704129610749078e-07 1.0 0.0
vn 2.0704129610749078e-07 1.0 0.0
vn 2.0704129610749078e-07 1.0 0.0
vn 2.0704129610749078e-07 1.0 0.0
vn 0.012341312132775784 0.9653391242027283 0.2607065737247467
vn 0.012341313995420933 0.9653391242027283 0.2607065737247467
vn 0.012341313064098358 0.9653391242027283 0.2607065737247467
vn 0.012502689845860004 0.9670365452766418 0.25433051586151123
vn 0.012502102181315422 -0.9670365452766418 0.2543303370475769
vn 0.012502104975283146 -0.9670365452766418 0.2543303668498993
vn 0.012502103112637997 -0.9670365452766418 0.2543303668498993
vn 0.01234073843806982 -0.9653392434120178 0.2607061564922333
vn -0.8848639726638794 0.0 -0.4658494293689728
vn -0.8848639726638794 0.0 -0.4658494293689728
vn -0.8848639726638794 0.0 -0.4658494293689728
vn -0.8848626613616943 9.796957556318375e-07 -0.46585190296173096
vn -2.0116536347813962e-07 -1.0 0.0
vn -2.0116539189984906e-07 -1.0 0.0
vn -2.0116536347813962e-07 -1.0 0.0
vn -2.0116536347813962e-07 -1.0 0.0
vn -1.0 0.0 0.0
vn -1.0 0.0 0.0
vn -1.0 0.0 0.0
vn -1.0 0.0 0.0
vn 2.8392992135195527e-07 1.0 0.0
vn 2.8392992135195527e-07 1.0 0.0
vn 2.8392992135195527e-07 1.0 0.0
vn 2.8392992135195527e-07 1.0 0.0
vn 1.0 0.0 0.0
vn 0.3090173006057739 -0.9510564804077148 0.0
vn 0.3090174198150635 -0.9510564804077148 0.0
vn 1.0 0.0 0.0
vn -0.80901700258255 -0.5877852439880371 0.0
vn -0.8090168833732605 -0.5877853631973267 0.0
vn -0.809016764163971 0.587785542011261 0.0
vn -0.8090168237686157 0.587785542011261 0.0
vn 0.30901750922203064 0.9510563611984253 0.0
vn 1.0 0.0 0.0
vn 1.0 0.0 0.0
vn 0.30901768803596497 0.9510563611984253 0.0
vn -0.8090168237686157 0.587785542011261 0.0
vn -0.809016764163971 0.587785542011261 0.0
vn 0.8032113313674927 0.0 0.5956941843032837
vn 0.30901700258255005 -0.9510565400123596 0.0
vn 0.2482057511806488 -0.7638993859291077 0.595694363117218
vn 1.0 0.0 0.0
vn -0.8090168237686157 -0.587785542011261 0.0
vn -0.6498114466667175 -0.4721158444881439 0.5956943035125732
vn -0.80901700258255 0.5877852439880371 0.0
vn -0.6498116254806519 0.4721156656742096 0.5956941843032837
vn 0.2482059895992279 0.7638993859291077 0.5956942439079285
vn 1.0 0.0 0.0
vn 0.8032113313674927 0.0 0.5956941843032837
vn 0.30901703238487244 0.9510565400123596 0.0
vn -0.6498116254806519 0.4721156656742096 0.5956941843032837
vn -0.80901700258255 0.5877852439880371 0.0
vn 0.2482057511806488 -0.7638993859291077 0.595694363117218
vn 0.2482059895992279 0.7638993859291077 0.5956942439079285
vn 0.8032113313674927 0.0 0.5956941843032837
vn -0.6498116254806519 0.4721156656742096 0.5956941843032837
vn -0.6498114466667175 -0.4721158444881439 0.5956943035125732
vn -1.0 1.8761303977044008e-07 0.0
vn -0.30901697278022766 -0.9510565400123596 0.0
vn -1.0 0.0 0.0
vn -0.3090163469314575 -0.9510566592216492 0.0
vn 0.8090168833732605 -0.5877853035926819 0.0
vn 0.80901700258255 -0.5877853035926819 0.0
vn 0.8090171813964844 0.587785005569458 0.0
vn 0.8090173602104187 0.5877848267555237 0.0
vn -0.30901581048965454 0.9510568976402283 0.0
vn -1.0 0.0 0.0
vn -0.30901652574539185 0.9510566592216492 0.0
vn -1.0 1.8761303977044008e-07 0.0
vn 0.8090173602104187 0.5877848267555237 0.0
vn 0.8090171813964844 0.587785005569458 0.0
vn -0.8032112121582031 1.1301958835474579e-07 0.5956942439079285
vn -0.3090170919895172 -0.9510565400123596 0.0
vn -1.0 0.0 0.0
vn -0.2482060343027115 -0.7638992071151733 0.595694363117218
vn 0.8090168833732605 -0.5877853631973267 0.0
vn 0.6498115062713623 -0.4721158444881439 0.5956941843032837
vn 0.8090171217918396 0.5877851247787476 0.0
vn 0.6498116850852966 0.4721156060695648 0.5956943035125732
vn -0.24820557236671448 0.7638995051383972 0.5956941843032837
vn -1.0 0.0 0.0
vn -0.3090165853500366 0.9510566592216492 0.0
vn -0.8032112121582031 1.1301958835474579e-07 0.5956942439079285
vn 0.6498116850852966 0.4721156060695648 0.5956943035125732
vn 0.8090171217918396 0.5877851247787476 0.0
vn -0.2482060343027115 -0.7638992071151733 0.595694363117218
vn 0.6498116850852966 0.4721156060695648 0.5956943035125732
vn 0.6498115062713623 -0.4721158444881439 0.5956941843032837
vn -0.24820557236671448 0.7638995051383972 0.5956941843032837
vn -0.8032112121582031 1.1301958835474579e-07 0.5956942439079285
vn 0.01471005380153656 0.9545152187347412 -0.2977991998195648
vn 0.01471005380153656 0.9545152187347412 -0.2977991998195648
vn 0.01471005380153656 0.9545152187347412 -0.2977992296218872
vn 0.014845414087176323 0.9568681120872498 -0.2901431918144226
vn 2.9049641625533695e-07 0.9569735527038574 -0.29017511010169983
vn 2.7113003397971625e-07 0.9569735527038574 -0.2901754081249237
vn 0.8558404445648193 -0.0020699247252196074 -0.5172358155250549
vn 0.8558405041694641 -0.0020699247252196074 -0.5172357559204102
vn 0.8558404445648193 -0.0020699247252196074 -0.5172357559204102
vn 0.8555657267570496 -4.736293988116813e-07 -0.5176941752433777
vn 0.8555657267570496 -4.7362945565510017e-07 -0.5176942348480225
vn 0.8555657267570496 -4.7362945565510017e-07 -0.5176942348480225
vn 0.8541578054428101 0.0008561191498301923 -0.5200130939483643
vn 0.8541578054428101 0.0008561191498301923 -0.5200130939483643
vn 0.8541578054428101 0.0008561191498301923 -0.5200130939483643
vn -0.01470952294766903 0.9545152187347412 -0.2977992296218872
vn -0.014709522016346455 0.9545152187347412 -0.2977992296218872
vn -0.01470952294766903 0.9545152187347412 -0.2977992296218872
vn -0.01484487671405077 0.9568681120872498 -0.2901434004306793
vn -0.01471007987856865 -0.9545152187347412 -0.2977990508079529
vn -0.01471007987856865 -0.9545152187347412 -0.2977990508079529
vn -0.014710081741213799 -0.9545152187347412 -0.29779908061027527
vn -0.014845444820821285 -0.9568681716918945 -0.2901429831981659
vn -0.85556560754776 9.472588544667815e-07 -0.5176942944526672
vn -0.85556560754776 9.472587976233626e-07 -0.5176942348480225
vn -0.85556560754776 9.472588544667815e-07 -0.5176942944526672
vn -0.8555659055709839 1.1159664836668526e-06 -0.5176939964294434
vn -0.8514399528503418 1.1165818705194397e-06 -0.5244520306587219
vn -0.8514399528503418 1.1165818705194397e-06 -0.5244520306587219
vn -0.8514400720596313 1.1165819842062774e-06 -0.5244520902633667
vn -0.039800941944122314 -0.41951775550842285 0.9068741798400879
vn -0.039800941944122314 -0.41951775550842285 0.9068741798400879
vn -0.039800941944122314 -0.41951775550842285 0.9068741798400879
vn -0.03859037905931473 -0.4282163977622986 0.9028518795967102
vn -0.03859037905931473 -0.4282163679599762 0.9028518795967102
vn -0.038590382784605026 -0.4282163977622986 0.9028518795967102
vn -1.8521316746955563e-07 -0.4285356104373932 0.9035248756408691
vn -1.8645542354533973e-07 -0.4285356402397156 0.9035248756408691
vn -0.03875897452235222 0.4197683036327362 0.9068034291267395
vn -0.03875897452235222 0.4197683036327362 0.9068034291267395
vn -0.03875897079706192 0.4197683036327362 0.9068034291267395
vn -0.03962189331650734 0.4281991124153137 0.9028153419494629
vn -0.03962188586592674 0.4281991422176361 0.9028153419494629
vn -0.03962188586592674 0.4281991124153137 0.9028153419494629
vn 1.8645542354533973e-07 0.4285356402397156 0.9035248756408691
vn 1.8521318168041034e-07 0.4285356402397156 0.9035248756408691
vn 0.8672035932540894 0.0 -0.4979536533355713
vn 0.8672035932540894 0.0 -0.49795371294021606
vn 0.8672035932540894 0.0 -0.49795371294021606
vn 0.038590047508478165 -0.42821648716926575 0.9028518795967102
vn 0.03859005123376846 -0.4282163977622986 0.9028518795967102
vn 0.038590043783187866 -0.42821645736694336 0.9028518795967102
vn 0.039800625294446945 -0.41951778531074524 0.9068741798400879
vn 0.03980062156915665 -0.41951775550842285 0.9068741798400879
vn 0.03980062156915665 -0.41951775550842285 0.9068741798400879
vn 0.03962225094437599 0.42819905281066895 0.9028153419494629
vn 0.03962225466966629 0.4281991124153137 0.9028153419494629
vn 0.03962225466966629 0.4281991124153137 0.9028153419494629
vn 0.038759320974349976 0.4197683036327362 0.9068034291267395
vn 0.03875931724905968 0.4197683036327362 0.9068034291267395
vn 0.038759320974349976 0.4197683036327362 0.9068034291267395
vn -0.867202639579773 0.0 -0.497955322265625
vn -0.8672026991844177 0.0 -0.497955322265625
vn -0.8672026991844177 0.0 -0.497955322265625
vn 5.55325677851215e-05 -1.0 0.0
vn 5.553257142310031e-05 -1.0 0.0
vn 5.553257142310031e-05 -1.0 0.0
vn 5.553257142310031e-05 -1.0 0.0
vn -4.3509896840987494e-07 -1.0 0.0
vn -4.3509899683158437e-07 -1.0 0.0
vn 5.6318840506719425e-05 1.0 0.0
vn 5.6318840506719425e-05 1.0 0.0
vn 5.6318840506719425e-05 1.0 0.0
vn 5.6318840506719425e-05 1.0 0.0
vn 4.3509899683158437e-07 1.0 0.0
vn 4.350990252532938e-07 1.0 0.0
vn 1.0 0.0 0.0
vn 1.0 0.0 0.0
vn 1.0 0.0 0.0
vn 1.0 0.0 0.0
vn -5.634132685372606e-05 -1.0 0.0
vn -5.634133412968367e-05 -1.0 0.0
vn -5.634132685372606e-05 -1.0 0.0
vn -5.634132321574725e-05 -1.0 0.0
vn -5.551012873183936e-05 1.0 0.0
vn -5.551012509386055e-05 1.0 0.0
vn -5.551012873183936e-05 1.0 0.0
vn -5.5510132369818166e-05 1.0 0.0
vn -1.0 0.0 0.0
vn -1.0 0.0 0.0
vn -1.0 0.0 0.0
vn -1.0 0.0 0.0
vt 0.21699965000152588 0.9631123766303062
vt 0.15608620643615723 0.03579956293106079
vt 0.15608614683151245 0.9631125628948212
vt 0.21699970960617065 0.035799384117126465
vt 0.30676013231277466 0.1700230836868286
vt 0.3110200762748718 0.6138239800930023
vt 0.28830641508102417 0.6138239800930023
vt 0.3294737935066223 0.1537322998046875
vt 0.2883062958717346 0.9824422467499971
vt 0.3110199570655823 0.9824422467499971
vt 0.30676013231277466 0.1700230836868286
vt 0.3110200762748718 0.6138239800930023
vt 0.3294737935066223 0.1537322998046875
vt 0.28830641508102417 0.6138239800930023
vt 0.2883062958717346 0.9824422467499971
vt 0.3110199570655823 0.9824422467499971
vt 0.4724145829677582 0.6671721935272217
vt 0.37821516394615173 0.7021450102329254
vt 0.37821516394615173 0.6671721935272217
vt 0.4724145829677582 0.7021450102329254
vt 0.26559263467788696 0.9824422467499971
vt 0.28830641508102417 0.6138239800930023
vt 0.2655927538871765 0.6138239800930023
vt 0.2883062958717346 0.9824422467499971
vt 0.284046471118927 0.18631386756896973
vt 0.30676013231277466 0.1700230836868286
vt 0.15608620643615723 0.03579956293106079
vt 0.21699970960617065 0.016216158866882324
vt 0.21699970960617065 0.035799384117126465
vt 0.15608620643615723 0.016216158866882324
vt 0.24617022275924683 0.9631123766303062
vt 0.21699970960617065 0.035799384117126465
vt 0.2461702823638916 0.035799384117126465
vt 0.21699965000152588 0.9631123766303062
vt 0.35328781604766846 0.1366328001022339
vt 0.2739449739456177 0.012376070022583008
vt 0.3532876968383789 0.012376070022583008
vt 0.2739449739456177 0.1366328001022339
vt 0.29196566343307495 0.5388794243335724
vt 0.3110200762748718 0.982442244887352
vt 0.3146793246269226 0.522588700056076
vt 0.28830641508102417 0.982442244887352
vt 0.29196566343307495 0.5388793647289276
vt 0.3110200762748718 0.982442244887352
vt 0.28830641508102417 0.982442244887352
vt 0.3146793246269226 0.522588700056076
vt 0.4724145829677582 0.7021450102329254
vt 0.37821516394615173 0.6671721935272217
vt 0.4724145829677582 0.6671721935272217
vt 0.37821516394615173 0.7021450102329254
vt 0.27399420738220215 0.1366328001022339
vt 0.353238582611084 0.012376070022583008
vt 0.27399420738220215 0.012376070022583008
vt 0.353238582611084 0.1366328001022339
vt 0.15608614683151245 0.9631125628948212
vt 0.21699965000152588 0.9843275286257267
vt 0.15608614683151245 0.9843277148902416
vt 0.21699965000152588 0.9631123766303062
vt 0.21699965000152588 0.9631123766303062
vt 0.15608620643615723 0.03579956293106079
vt 0.21699970960617065 0.035799384117126465
vt 0.15608614683151245 0.9631125628948212
vt 0.011322678998112679 0.016303837299346924
vt 0.04712811857461929 0.9890518095344305
vt 0.047127507627010345 0.016303837299346924
vt 0.01132343802601099 0.9890518095344305
vt 0.08580746501684189 0.9890518095344305
vt 0.08580685406923294 0.016303837299346924
vt 0.1301666796207428 0.9890518095344305
vt 0.13016606867313385 0.016303837299346924
vt 0.047127507627010345 0.016303837299346924
vt 0.01132343802601099 0.9890518095344305
vt 0.011322678998112679 0.016303837299346924
vt 0.04712811857461929 0.9890518095344305
vt 0.08580685406923294 0.016303837299346924
vt 0.08580746501684189 0.9890518095344305
vt 0.38328272104263306 0.8545529544353485
vt 0.4274541735649109 0.981349216774106
vt 0.4274541735649109 0.8545529544353485
vt 0.38328272104263306 0.981349216774106
vt 0.47967129945755005 0.981349216774106
vt 0.47967129945755005 0.8545529544353485
vt 0.5240307450294495 0.981349216774106
vt 0.5240305066108704 0.8545529544353485
vt 0.4274541735649109 0.8545529544353485
vt 0.38328272104263306 0.981349216774106
vt 0.38328272104263306 0.8545529544353485
vt 0.4274541735649109 0.981349216774106
vt 0.47967129945755005 0.8545529544353485
vt 0.47967129945755005 0.981349216774106
vt 0.42521339654922485 0.7552238702774048
vt 0.39735573530197144 0.8399101048707962
vt 0.38052064180374146 0.7874476909637451
vt 0.4524534344673157 0.8401097655296326
vt 0.46967047452926636 0.7877709716558456
vt 0.011322678998112679 0.016303837299346924
vt 0.04712811857461929 0.9890518095344305
vt 0.01132343802601099 0.9890518095344305
vt 0.047127507627010345 0.016303837299346924
vt 0.08580746501684189 0.9890518095344305
vt 0.08580685406923294 0.016303837299346924
vt 0.1301666796207428 0.9890518095344305
vt 0.13016606867313385 0.016303837299346924
vt 0.047127507627010345 0.016303837299346924
vt 0.01132343802601099 0.9890518095344305
vt 0.04712811857461929 0.9890518095344305
vt 0.011322678998112679 0.016303837299346924
vt 0.08580685406923294 0.016303837299346924
vt 0.08580746501684189 0.9890518095344305
vt 0.38328272104263306 0.8545529544353485
vt 0.4274541735649109 0.981349216774106
vt 0.38328272104263306 0.981349216774106
vt 0.4274541735649109 0.8545529544353485
vt 0.47967129945755005 0.981349216774106
vt 0.47967129945755005 0.8545529544353485
vt 0.5240307450294495 0.981349216774106
vt 0.5240305066108704 0.8545529544353485
vt 0.4274541735649109 0.8545529544353485
vt 0.38328272104263306 0.981349216774106
vt 0.4274541735649109 0.981349216774106
vt 0.38328272104263306 0.8545529544353485
vt 0.47967129945755005 0.8545529544353485
vt 0.47967129945755005 0.981349216774106
vt 0.42521339654922485 0.7552238702774048
vt 0.4524534344673157 0.8401097655296326
vt 0.46967047452926636 0.7877709716558456
vt 0.39735573530197144 0.8399101048707962
vt 0.38052064180374146 0.7874476909637451
vt 0.28830641508102417 0.6138239800930023
vt 0.284046471118927 0.18631386756896973
vt 0.30676013231277466 0.1700230836868286
vt 0.2655927538871765 0.6138239800930023
vt 0.2883062958717346 0.9824422467499971
vt 0.26559263467788696 0.9824422467499971
vt 0.42531487345695496 0.7371178269386292
vt 0.4724145829677582 0.7021450102329254
vt 0.4724145829677582 0.7371178269386292
vt 0.4724145829677582 0.7021450102329254
vt 0.37821516394615173 0.7371178269386292
vt 0.37821516394615173 0.7021450102329254
vt 0.42531487345695496 0.7371178269386292
vt 0.37821516394615173 0.7371178269386292
vt 0.4724145829677582 0.7021450102329254
vt 0.2692520022392273 0.5551701486110687
vt 0.28830641508102417 0.982442244887352
vt 0.29196566343307495 0.5388794243335724
vt 0.2655927538871765 0.982442244887352
vt 0.28830641508102417 0.982442244887352
vt 0.2692520022392273 0.5551700294017792
vt 0.29196566343307495 0.5388793647289276
vt 0.2655927538871765 0.982442244887352
vt 0.4724145829677582 0.7021450102329254
vt 0.37821516394615173 0.7371178269386292
vt 0.37821516394615173 0.7021450102329254
vt 0.4724145829677582 0.7371178269386292
vt 0.37821516394615173 0.7371178269386292
vt 0.4724145829677582 0.7371178269386292
vt 0.42531487345695496 0.7371178269386292
vt 0.3221469819545746 0.6138239800930023
vt 0.37624889612197876 0.1537322998046875
vt 0.3406006991863251 0.1537322998046875
vt 0.37624889612197876 0.1537322998046875
vt 0.3221469819545746 0.6138239800930023
vt 0.3577950596809387 0.6138239800930023
vt 0.3577950596809387 0.9824422467499971
vt 0.32214686274528503 0.9824422467499971
vt 0.3577950596809387 0.6138239800930023
vt 0.3406006991863251 0.1537322998046875
vt 0.37624889612197876 0.1537322998046875
vt 0.3406006991863251 0.1537322998046875
vt 0.3577950596809387 0.6138239800930023
vt 0.3221469819545746 0.6138239800930023
vt 0.32214686274528503 0.9824422467499971
vt 0.3577950596809387 0.9824422467499971
vt 0.4724145829677582 0.6671721935272217
vt 0.37821516394615173 0.6671721935272217
vt 0.4247322976589203 0.632908046245575
vt 0.3221469819545746 0.982442244887352
vt 0.36145442724227905 0.522588700056076
vt 0.3577950596809387 0.982442244887352
vt 0.36145442724227905 0.522588700056076
vt 0.3221469819545746 0.982442244887352
vt 0.32580623030662537 0.522588700056076
vt 0.3577950596809387 0.982442244887352
vt 0.32580623030662537 0.522588700056076
vt 0.3221469819545746 0.982442244887352
vt 0.32580623030662537 0.522588700056076
vt 0.3577950596809387 0.982442244887352
vt 0.36145442724227905 0.522588700056076
vt 0.37821516394615173 0.6671721935272217
vt 0.4247322976589203 0.632914125919342
vt 0.4724145829677582 0.6671721935272217
vt 0.3406006991863251 0.1537322998046875
vt 0.311677485704422 0.6138239800930023
vt 0.3221469819545746 0.6138239800930023
vt 0.3301312029361725 0.1537322998046875
vt 0.31167736649513245 0.9824422467499971
vt 0.32214686274528503 0.9824422467499971
vt 0.3221469819545746 0.6138239800930023
vt 0.3301312029361725 0.1537322998046875
vt 0.3406006991863251 0.1537322998046875
vt 0.311677485704422 0.6138239800930023
vt 0.32214686274528503 0.9824422467499971
vt 0.31167736649513245 0.9824422467499971
vt 0.4724145829677582 0.6671721935272217
vt 0.37821516394615173 0.6704634130001068
vt 0.37821516394615173 0.6671721935272217
vt 0.4724145829677582 0.6704634130001068
vt 0.3221469819545746 0.982442244887352
vt 0.3153367340564728 0.522588700056076
vt 0.32580623030662537 0.522588700056076
vt 0.311677485704422 0.982442244887352
vt 0.32580623030662537 0.522588700056076
vt 0.311677485704422 0.982442244887352
vt 0.3221469819545746 0.982442244887352
vt 0.3153367340564728 0.522588700056076
vt 0.4724145829677582 0.6671721935272217
vt 0.37821516394615173 0.6704634130001068
vt 0.37821516394615173 0.6671721935272217
vt 0.4724145829677582 0.6704634130001068

g bg_mdl_map_torii_01
s 1
usemtl bg_mdl_map_torii_01
f 3/3/3 2/2/2 1/1/1 
f 4/4/4 1/1/1 2/2/2 
f 7/7/7 6/6/6 5/5/5 
f 8/8/8 5/5/5 6/6/6 
f 7/7/7 9/9/9 6/6/6 
f 10/10/10 6/6/6 9/9/9 
f 13/13/13 12/12/12 11/11/11 
f 14/14/14 11/11/11 12/12/12 
f 14/14/14 12/12/12 15/15/15 
f 16/16/16 15/15/15 12/12/12 
f 19/19/19 18/18/18 17/17/17 
f 20/20/20 17/17/17 18/18/18 
f 23/23/23 22/22/22 21/21/21 
f 24/24/24 21/21/21 22/22/22 
f 23/23/23 25/25/25 22/22/22 
f 26/26/26 22/22/22 25/25/25 
f 29/29/29 28/28/28 27/27/27 
f 30/30/30 27/27/27 28/28/28 
f 33/33/33 32/32/32 31/31/31 
f 34/34/34 31/31/31 32/32/32 
f 37/37/37 36/36/36 35/35/35 
f 38/38/38 35/35/35 36/36/36 
f 41/41/41 40/40/40 39/39/39 
f 42/42/42 39/39/39 40/40/40 
f 45/45/45 44/44/44 43/43/43 
f 46/46/46 43/43/43 44/44/44 
f 49/49/49 48/48/48 47/47/47 
f 50/50/50 47/47/47 48/48/48 
f 53/53/53 52/52/52 51/51/51 
f 54/54/54 51/51/51 52/52/52 
f 57/57/57 56/56/56 55/55/55 
f 58/58/58 55/55/55 56/56/56 
f 61/61/61 60/60/60 59/59/59 
f 62/62/62 59/59/59 60/60/60 
f 65/65/65 64/64/64 63/63/63 
f 66/66/66 63/63/63 64/64/64 
f 64/64/64 65/65/65 67/67/67 
f 68/68/68 67/67/67 65/65/65 
f 67/67/67 68/68/68 69/69/69 
f 70/70/70 69/69/69 68/68/68 
f 73/73/73 72/72/72 71/71/71 
f 74/74/74 71/71/71 72/72/72 
f 71/71/71 74/74/74 75/75/75 
f 76/76/76 75/75/75 74/74/74 
f 79/79/79 78/78/78 77/77/77 
f 80/80/80 77/77/77 78/78/78 
f 78/78/78 79/79/79 81/81/81 
f 82/82/82 81/81/81 79/79/79 
f 81/81/81 82/82/82 83/83/83 
f 84/84/84 83/83/83 82/82/82 
f 87/87/87 86/86/86 85/85/85 
f 88/88/88 85/85/85 86/86/86 
f 85/85/85 88/88/88 89/89/89 
f 90/90/90 89/89/89 88/88/88 
f 93/93/93 92/92/92 91/91/91 
f 92/92/92 94/94/94 91/91/91 
f 94/94/94 95/95/95 91/91/91 
f 98/98/98 97/97/97 96/96/96 
f 99/99/99 96/96/96 97/97/97 
f 97/97/97 100/100/100 99/99/99 
f 101/101/101 99/99/99 100/100/100 
f 100/100/100 102/102/102 101/101/101 
f 103/103/103 101/101/101 102/102/102 
f 106/106/106 105/105/105 104/104/104 
f 107/107/107 104/104/104 105/105/105 
f 104/104/104 108/108/108 106/106/106 
f 109/109/109 106/106/106 108/108/108 
f 112/112/112 111/111/111 110/110/110 
f 113/113/113 110/110/110 111/111/111 
f 111/111/111 114/114/114 113/113/113 
f 115/115/115 113/113/113 114/114/114 
f 114/114/114 116/116/116 115/115/115 
f 117/117/117 115/115/115 116/116/116 
f 120/120/120 119/119/119 118/118/118 
f 121/121/121 118/118/118 119/119/119 
f 118/118/118 122/122/122 120/120/120 
f 123/123/123 120/120/120 122/122/122 
f 126/126/126 125/125/125 124/124/124 
f 125/125/125 127/127/127 124/124/124 
f 127/127/127 128/128/128 124/124/124 
f 131/131/131 130/130/130 129/129/129 
f 132/132/132 129/129/129 130/130/130 
f 129/129/129 132/132/132 133/133/133 
f 134/134/134 133/133/133 132/132/132 
f 137/137/137 136/136/136 135/135/135 
f 140/140/140 139/139/139 138/138/138 
f 143/143/143 142/142/142 141/141/141 
f 146/146/146 145/145/145 144/144/144 
f 147/147/147 144/144/144 145/145/145 
f 150/150/150 149/149/149 148/148/148 
f 151/151/151 148/148/148 149/149/149 
f 154/154/154 153/153/153 152/152/152 
f 155/155/155 152/152/152 153/153/153 
f 158/158/158 157/157/157 156/156/156 
f 161/161/161 160/160/160 159/159/159 
f 164/164/164 163/163/163 162/162/162 
f 164/164/164 165/165/165 163/163/163 
f 166/166/166 163/163/163 165/165/165 
f 169/169/169 168/168/168 167/167/167 
f 172/172/172 171/171/171 170/170/170 
f 172/172/172 173/173/173 171/171/171 
f 174/174/174 171/171/171 173/173/173 
f 177/177/177 176/176/176 175/175/175 
f 180/180/180 179/179/179 178/178/178 
f 183/183/183 182/182/182 181/181/181 
f 186/186/186 185/185/185 184/184/184 
f 189/189/189 188/188/188 187/187/187 
f 192/192/192 191/191/191 190/190/190 
f 195/195/195 194/194/194 193/193/193 
f 196/196/196 193/193/193 194/194/194 
f 194/194/194 195/195/195 197/197/197 
f 198/198/198 197/197/197 195/195/195 
f 201/201/201 200/200/200 199/199/199 
f 202/202/202 199/199/199 200/200/200 
f 199/199/199 202/202/202 203/203/203 
f 204/204/204 203/203/203 202/202/202 
f 207/207/207 206/206/206 205/205/205 
f 208/208/208 205/205/205 206/206/206 
f 211/211/211 210/210/210 209/209/209 
f 212/212/212 209/209/209 210/210/210 
f 215/215/215 214/214/214 213/213/213 
f 216/216/216 213/213/213 214/214/214 
f 219/219/219 218/218/218 217/217/217 
f 220/220/220 217/217/217 218/218/218 

