v -0.4119933843612671 -0.4119933843612671 0.0
v 0.4119933247566223 -0.4119933843612671 0.08662711828947067
v 0.4119933247566223 -0.4119933843612671 0.0
v -0.4119933843612671 -0.4119933843612671 0.08662711828947067
v 0.4119933247566223 -0.4119933843612671 0.0
v 0.4119933247566223 0.4119933247566223 0.08662711828947067
v 0.4119933247566223 0.4119933247566223 0.0
v 0.4119933247566223 -0.4119933843612671 0.08662711828947067
v 0.4119933247566223 0.4119933247566223 0.0
v -0.4119933843612671 0.4119933247566223 0.08662711828947067
v -0.4119933843612671 0.4119933247566223 0.0
v 0.4119933247566223 0.4119933247566223 0.08662711828947067
v -0.4119933843612671 0.4119933247566223 0.0
v -0.4119933843612671 -0.4119933843612671 0.08662711828947067
v -0.4119933843612671 -0.4119933843612671 0.0
v -0.4119933843612671 0.4119933247566223 0.08662711828947067
v -0.4119933843612671 -0.4119933843612671 0.08662711828947067
v 0.32724234461784363 -0.3272424340248108 0.09636937826871872
v 0.4119933247566223 -0.4119933843612671 0.08662711828947067
v -0.3272424340248108 -0.3272424340248108 0.09636937826871872
v 0.4119933247566223 -0.4119933843612671 0.08662711828947067
v 0.32724234461784363 0.32724234461784363 0.09636931866407394
v 0.4119933247566223 0.4119933247566223 0.08662711828947067
v 0.32724234461784363 -0.3272424340248108 0.09636937826871872
v 0.4119933247566223 0.4119933247566223 0.08662711828947067
v -0.3272424340248108 0.32724234461784363 0.09636931866407394
v -0.4119933843612671 0.4119933247566223 0.08662711828947067
v 0.32724234461784363 0.32724234461784363 0.09636931866407394
v -0.4119933843612671 0.4119933247566223 0.08662711828947067
v -0.3272424340248108 -0.3272424340248108 0.09636937826871872
v -0.4119933843612671 -0.4119933843612671 0.08662711828947067
v -0.3272424340248108 0.32724234461784363 0.09636931866407394
v -0.3272424340248108 -0.3272424340248108 0.09636937826871872
v 0.32724234461784363 -0.327242374420166 0.23329442739486694
v 0.32724234461784363 -0.3272424340248108 0.09636937826871872
v -0.3272424340248108 -0.327242374420166 0.23329442739486694
v 0.32724234461784363 -0.3272424340248108 0.09636937826871872
v 0.32724234461784363 0.327242374420166 0.2332945019006729
v 0.32724234461784363 0.32724234461784363 0.09636931866407394
v 0.32724234461784363 -0.327242374420166 0.23329442739486694
v 0.32724234461784363 0.32724234461784363 0.09636931866407394
v -0.3272424340248108 0.327242374420166 0.2332945019006729
v -0.3272424340248108 0.32724234461784363 0.09636931866407394
v 0.32724234461784363 0.327242374420166 0.2332945019006729
v -0.3272424340248108 0.32724234461784363 0.09636931866407394
v -0.3272424340248108 -0.327242374420166 0.23329442739486694
v -0.3272424340248108 -0.3272424340248108 0.09636937826871872
v -0.3272424340248108 0.327242374420166 0.2332945019006729
v -0.3272424340248108 -0.327242374420166 0.23329442739486694
v 0.37406933307647705 -0.3740694224834442 0.2452010065317154
v 0.32724234461784363 -0.327242374420166 0.23329442739486694
v -0.3740693926811218 -0.3740694224834442 0.2452010065317154
v 0.32724234461784363 -0.327242374420166 0.23329442739486694
v 0.37406933307647705 0.3740692734718323 0.24520093202590942
v 0.32724234461784363 0.327242374420166 0.2332945019006729
v 0.37406933307647705 0.3740692734718323 0.24520093202590942
v 0.32724234461784363 -0.327242374420166 0.23329442739486694
v 0.37406933307647705 -0.3740694224834442 0.2452010065317154
v 0.32724234461784363 0.327242374420166 0.2332945019006729
v -0.3740693926811218 0.3740692734718323 0.24520093202590942
v -0.3272424340248108 0.327242374420166 0.2332945019006729
v 0.37406933307647705 0.3740692734718323 0.24520093202590942
v -0.3272424340248108 0.327242374420166 0.2332945019006729
v -0.3740693926811218 -0.3740694224834442 0.2452010065317154
v -0.3272424340248108 -0.327242374420166 0.23329442739486694
v -0.3740693926811218 0.3740692734718323 0.24520093202590942
v -0.3740693926811218 -0.3740694224834442 0.2452010065317154
v 0.37406933307647705 -0.37406936287879944 0.33293014764785767
v 0.37406933307647705 -0.3740694224834442 0.2452010065317154
v -0.3740693926811218 -0.37406936287879944 0.33293014764785767
v 0.37406933307647705 -0.3740694224834442 0.2452010065317154
v 0.37406933307647705 0.37406936287879944 0.3329300582408905
v 0.37406933307647705 0.3740692734718323 0.24520093202590942
v 0.37406933307647705 -0.37406936287879944 0.33293014764785767
v 0.37406933307647705 0.3740692734718323 0.24520093202590942
v -0.3740693926811218 0.37406936287879944 0.3329300582408905
v -0.3740693926811218 0.3740692734718323 0.24520093202590942
v 0.37406933307647705 0.37406936287879944 0.3329300582408905
v -0.3740693926811218 0.3740692734718323 0.24520093202590942
v -0.3740693926811218 -0.37406936287879944 0.33293014764785767
v -0.3740693926811218 -0.3740694224834442 0.2452010065317154
v -0.3740693926811218 0.37406936287879944 0.3329300582408905
v -0.268907755613327 -0.26890772581100464 0.3077447712421417
v 0.26890766620635986 0.26890772581100464 0.30774471163749695
v 0.26890766620635986 -0.26890772581100464 0.3077447712421417
v -0.268907755613327 0.26890772581100464 0.30774471163749695
v -0.3740693926811218 -0.37406936287879944 0.33293014764785767
v 0.26890766620635986 -0.26890772581100464 0.33293014764785767
v 0.37406933307647705 -0.37406936287879944 0.33293014764785767
v -0.268907755613327 -0.26890772581100464 0.33293014764785767
v 0.26890766620635986 0.26890772581100464 0.3329300582408905
v 0.37406933307647705 0.37406936287879944 0.3329300582408905
v -0.268907755613327 0.26890772581100464 0.3329300582408905
v -0.3740693926811218 0.37406936287879944 0.3329300582408905
v -0.268907755613327 -0.26890772581100464 0.33293014764785767
v 0.26890766620635986 -0.26890772581100464 0.3077447712421417
v 0.26890766620635986 -0.26890772581100464 0.33293014764785767
v -0.268907755613327 -0.26890772581100464 0.3077447712421417
v 0.26890766620635986 -0.26890772581100464 0.33293014764785767
v 0.26890766620635986 0.26890772581100464 0.30774471163749695
v 0.26890766620635986 0.26890772581100464 0.3329300582408905
v 0.26890766620635986 -0.26890772581100464 0.3077447712421417
v 0.26890766620635986 0.26890772581100464 0.3329300582408905
v -0.268907755613327 0.26890772581100464 0.30774471163749695
v -0.268907755613327 0.26890772581100464 0.3329300582408905
v 0.26890766620635986 0.26890772581100464 0.30774471163749695
v -0.268907755613327 0.26890772581100464 0.3329300582408905
v -0.268907755613327 -0.26890772581100464 0.3077447712421417
v -0.268907755613327 -0.26890772581100464 0.33293014764785767
v -0.268907755613327 0.26890772581100464 0.30774471163749695
vn -0.0 -1.0 0.0
vn -0.0 -1.0 0.0
vn -0.0 -1.0 0.0
vn -0.0 -1.0 0.0
vn 1.0 0.0 0.0
vn 1.0 0.0 0.0
vn 1.0 0.0 0.0
vn 1.0 0.0 0.0
vn -0.0 1.0 0.0
vn -0.0 1.0 0.0
vn -0.0 1.0 0.0
vn -0.0 1.0 0.0
vn -1.0 0.0 0.0
vn -1.0 0.0 0.0
vn -1.0 0.0 0.0
vn -1.0 0.0 0.0
vn -0.0 -0.09429651498794556 0.9955442547798157
vn -0.0 -0.09429651498794556 0.9955442547798157
vn -0.0 -0.09429652243852615 0.9955442547798157
vn -0.0 -0.09429653733968735 0.9955442547798157
vn 0.09429596364498138 0.0 0.9955442547798157
vn 0.09429597109556198 0.0 0.9955442547798157
vn 0.09429597854614258 0.0 0.9955442547798157
vn 0.09429660439491272 0.0 0.9955442547798157
vn -0.0 0.09429596364498138 0.9955442547798157
vn -0.0 0.09429597109556198 0.9955442547798157
vn -0.0 0.09429597854614258 0.9955442547798157
vn -0.0 0.09429597854614258 0.9955442547798157
vn -0.09429651498794556 0.0 0.9955442547798157
vn -0.09429651498794556 0.0 0.9955442547798157
vn -0.09429652243852615 0.0 0.9955442547798157
vn -0.09429589658975601 0.0 0.9955442547798157
vn -0.0 -1.0 2.785974686503323e-07
vn -0.0 -1.0 2.785974686503323e-07
vn -0.0 -1.0 2.785974686503323e-07
vn -0.0 -1.0 2.785974686503323e-07
vn 1.0 0.0 0.0
vn 1.0 0.0 0.0
vn 1.0 0.0 0.0
vn 1.0 0.0 0.0
vn -0.0 1.0 -2.78597184433238e-07
vn -0.0 1.0 -2.78597184433238e-07
vn -0.0 1.0 -2.78597184433238e-07
vn -0.0 1.0 -2.78597184433238e-07
vn -1.0 0.0 0.0
vn -1.0 0.0 0.0
vn -1.0 0.0 0.0
vn -1.0 0.0 0.0
vn -0.0 -0.20506064593791962 -0.9787492156028748
vn -0.0 -0.20506063103675842 -0.9787492156028748
vn -0.0 -0.20506064593791962 -0.9787492156028748
vn -0.0 -0.20506063103675842 -0.9787492156028748
vn 0.205058291554451 0.0 -0.9787498116493225
vn 0.2050582766532898 0.0 -0.9787498116493225
vn 0.2050582766532898 0.0 -0.9787498116493225
vn 0.20506083965301514 0.0 -0.9787492156028748
vn 0.20506083965301514 0.0 -0.9787492156028748
vn 0.20506083965301514 0.0 -0.9787492156028748
vn -0.0 0.20505863428115845 -0.978749692440033
vn -0.0 0.20505866408348083 -0.978749692440033
vn -0.0 0.20505864918231964 -0.978749692440033
vn -0.0 0.20505864918231964 -0.978749692440033
vn -0.20506101846694946 0.0 -0.9787492156028748
vn -0.20506103336811066 0.0 -0.9787492156028748
vn -0.20506101846694946 0.0 -0.9787492156028748
vn -0.20505847036838531 0.0 -0.978749692440033
vn -0.0 -1.0 8.696535473973199e-07
vn -0.0 -1.0 8.696534905539011e-07
vn -0.0 -1.0 8.696535473973199e-07
vn -0.0 -1.0 8.696535473973199e-07
vn 1.0 0.0 0.0
vn 1.0 0.0 0.0
vn 1.0 0.0 0.0
vn 1.0 0.0 0.0
vn -0.0 1.0 -8.696535473973199e-07
vn -0.0 1.0 -8.696534905539011e-07
vn -0.0 1.0 -8.696535473973199e-07
vn -0.0 1.0 -8.696535473973199e-07
vn -1.0 0.0 0.0
vn -1.0 0.0 0.0
vn -1.0 0.0 0.0
vn -1.0 0.0 0.0
vn -0.0 1.1688991463643106e-07 1.0
vn -0.0 1.1688991463643106e-07 1.0
vn -0.0 1.1688991463643106e-07 1.0
vn -0.0 1.1688991463643106e-07 1.0
vn -0.0 0.0 1.0
vn -0.0 0.0 1.0
vn -0.0 0.0 1.0
vn -0.0 0.0 1.0
vn -0.0 0.0 1.0
vn -0.0 0.0 1.0
vn -0.0 0.0 1.0
vn -0.0 0.0 1.0
vn -0.0 1.0 0.0
vn -0.0 1.0 0.0
vn -0.0 1.0 0.0
vn -0.0 1.0 0.0
vn -1.0 0.0 0.0
vn -1.0 0.0 0.0
vn -1.0 0.0 0.0
vn -1.0 0.0 0.0
vn -0.0 -1.0 0.0
vn -0.0 -1.0 0.0
vn -0.0 -1.0 0.0
vn -0.0 -1.0 0.0
vn 1.0 0.0 0.0
vn 1.0 0.0 0.0
vn 1.0 0.0 0.0
vn 1.0 0.0 0.0
vt 0.0032156244851648808 0.9941624235361814
vt 0.3197515904903412 0.9505424164235592
vt 0.3197515904903412 0.9941623490303755
vt 0.0032156244851648808 0.9505424909293652
vt 0.0032156244851648808 0.9941624235361814
vt 0.3197515904903412 0.9505424164235592
vt 0.3197515904903412 0.9941623490303755
vt 0.0032156244851648808 0.9505424909293652
vt 0.0032156244851648808 0.9941624235361814
vt 0.3197515904903412 0.9505424164235592
vt 0.3197515904903412 0.9941623490303755
vt 0.0032156244851648808 0.9505424909293652
vt 0.0032156244851648808 0.9941624235361814
vt 0.3197515904903412 0.9505424164235592
vt 0.3197515904903412 0.9941623490303755
vt 0.0032156244851648808 0.9505424909293652
vt 0.0032156244851648808 0.9505424909293652
vt 0.29252663254737854 0.9307766631245613
vt 0.3197515904903412 0.9505424164235592
vt 0.036384209990501404 0.9307767376303673
vt 0.0032156244851648808 0.9505424909293652
vt 0.29252663254737854 0.9307766631245613
vt 0.3197515904903412 0.9505424164235592
vt 0.036384209990501404 0.9307767376303673
vt 0.0032156244851648808 0.9505424909293652
vt 0.29252663254737854 0.9307766631245613
vt 0.3197515904903412 0.9505424164235592
vt 0.036384209990501404 0.9307767376303673
vt 0.0032156244851648808 0.9505424909293652
vt 0.29252663254737854 0.9307766631245613
vt 0.3197515904903412 0.9505424164235592
vt 0.036384209990501404 0.9307767376303673
vt 0.036384209990501404 0.9307767376303673
vt 0.29252663254737854 0.8562066853046417
vt 0.29252663254737854 0.9307766631245613
vt 0.036384209990501404 0.8562067747116089
vt 0.036384209990501404 0.9307767376303673
vt 0.29252663254737854 0.8562066853046417
vt 0.29252663254737854 0.9307766631245613
vt 0.036384209990501404 0.8562067747116089
vt 0.036384209990501404 0.9307767376303673
vt 0.29252663254737854 0.8562066853046417
vt 0.29252663254737854 0.9307766631245613
vt 0.036384209990501404 0.8562067747116089
vt 0.036384209990501404 0.9307767376303673
vt 0.29252663254737854 0.8562066853046417
vt 0.29252663254737854 0.9307766631245613
vt 0.036384209990501404 0.8562067747116089
vt 0.036384209990501404 0.8562067747116089
vt 0.31378093361854553 0.8529880195856094
vt 0.29252663254737854 0.8562066853046417
vt 0.015129867941141129 0.8529881238937378
vt 0.29252663254737854 0.8562066853046417
vt 0.31263479590415955 0.8527320027351379
vt 0.29430845379829407 0.8562066853046417
vt 0.31263479590415955 0.8527320027351379
vt 0.29252663254737854 0.8562066853046417
vt 0.31378093361854553 0.8529880195856094
vt 0.036384209990501404 0.8562067747116089
vt 0.310852974653244 0.8527320027351379
vt 0.29252663254737854 0.8562066853046417
vt 0.018057815730571747 0.8527320921421051
vt 0.036384209990501404 0.8562067747116089
vt 0.015129867941141129 0.8529881238937378
vt 0.036384209990501404 0.8562067747116089
vt 0.018057815730571747 0.8527320921421051
vt 0.015129867941141129 0.8529881238937378
vt 0.31378093361854553 0.8268740624189377
vt 0.31378093361854553 0.8529880195856094
vt 0.015129867941141129 0.8268741816282272
vt 0.018057815730571747 0.8527320921421051
vt 0.310852974653244 0.8271300792694092
vt 0.310852974653244 0.8527320027351379
vt 0.018057815730571747 0.8271301984786987
vt 0.018057815730571747 0.8527320921421051
vt 0.310852974653244 0.8271300792694092
vt 0.310852974653244 0.8527320027351379
vt 0.018057815730571747 0.8271301984786987
vt 0.018057815730571747 0.8527320921421051
vt 0.310852974653244 0.8271300792694092
vt 0.310852974653244 0.8527320027351379
vt 0.018057815730571747 0.8271301984786987
vt 0.48237690329551697 0.6248015761375427
vt 0.32480525970458984 0.7809419184923172
vt 0.32480525970458984 0.6248015761375427
vt 0.48237690329551697 0.7809419184923172
vt 0.272788405418396 0.8187160640954971
vt 0.49556347727775574 0.7822802513837814
vt 0.5319992899894714 0.8187160640954971
vt 0.3092242181301117 0.7822802513837814
vt 0.49556347727775574 0.5959409773349762
vt 0.5319992899894714 0.5595051646232605
vt 0.3092242181301117 0.5959409773349762
vt 0.272788405418396 0.5595051646232605
vt 0.3094482123851776 0.5962347686290741
vt 0.4955243170261383 0.6133619248867035
vt 0.4955243170261383 0.5962348282337189
vt 0.3094482123851776 0.6133618354797363
vt 0.3094482123851776 0.5962347686290741
vt 0.4955243170261383 0.6133619248867035
vt 0.4955243170261383 0.5962348282337189
vt 0.3094482123851776 0.6133618354797363
vt 0.3094482123851776 0.5962347686290741
vt 0.4955243170261383 0.6133619248867035
vt 0.4955243170261383 0.5962348282337189
vt 0.3094482123851776 0.6133618354797363
vt 0.3094482123851776 0.5962347686290741
vt 0.4955243170261383 0.6133619248867035
vt 0.4955243170261383 0.5962348282337189
vt 0.3094482123851776 0.6133618354797363

g bg_mdl_map_objstand_iseki
s 1
usemtl bg_mdl_map_objstand_iseki
f 3/3/3 2/2/2 1/1/1 
f 4/4/4 1/1/1 2/2/2 
f 7/7/7 6/6/6 5/5/5 
f 8/8/8 5/5/5 6/6/6 
f 11/11/11 10/10/10 9/9/9 
f 12/12/12 9/9/9 10/10/10 
f 15/15/15 14/14/14 13/13/13 
f 16/16/16 13/13/13 14/14/14 
f 19/19/19 18/18/18 17/17/17 
f 20/20/20 17/17/17 18/18/18 
f 23/23/23 22/22/22 21/21/21 
f 24/24/24 21/21/21 22/22/22 
f 27/27/27 26/26/26 25/25/25 
f 28/28/28 25/25/25 26/26/26 
f 31/31/31 30/30/30 29/29/29 
f 32/32/32 29/29/29 30/30/30 
f 35/35/35 34/34/34 33/33/33 
f 36/36/36 33/33/33 34/34/34 
f 39/39/39 38/38/38 37/37/37 
f 40/40/40 37/37/37 38/38/38 
f 43/43/43 42/42/42 41/41/41 
f 44/44/44 41/41/41 42/42/42 
f 47/47/47 46/46/46 45/45/45 
f 48/48/48 45/45/45 46/46/46 
f 51/51/51 50/50/50 49/49/49 
f 52/52/52 49/49/49 50/50/50 
f 55/55/55 54/54/54 53/53/53 
f 58/58/58 57/57/57 56/56/56 
f 61/61/61 60/60/60 59/59/59 
f 62/62/62 59/59/59 60/60/60 
f 65/65/65 64/64/64 63/63/63 
f 66/66/66 63/63/63 64/64/64 
f 69/69/69 68/68/68 67/67/67 
f 70/70/70 67/67/67 68/68/68 
f 73/73/73 72/72/72 71/71/71 
f 74/74/74 71/71/71 72/72/72 
f 77/77/77 76/76/76 75/75/75 
f 78/78/78 75/75/75 76/76/76 
f 81/81/81 80/80/80 79/79/79 
f 82/82/82 79/79/79 80/80/80 
f 85/85/85 84/84/84 83/83/83 
f 86/86/86 83/83/83 84/84/84 
f 89/89/89 88/88/88 87/87/87 
f 90/90/90 87/87/87 88/88/88 
f 88/88/88 89/89/89 91/91/91 
f 92/92/92 91/91/91 89/89/89 
f 91/91/91 92/92/92 93/93/93 
f 94/94/94 93/93/93 92/92/92 
f 87/87/87 90/90/90 94/94/94 
f 93/93/93 94/94/94 90/90/90 
f 97/97/97 96/96/96 95/95/95 
f 98/98/98 95/95/95 96/96/96 
f 101/101/101 100/100/100 99/99/99 
f 102/102/102 99/99/99 100/100/100 
f 105/105/105 104/104/104 103/103/103 
f 106/106/106 103/103/103 104/104/104 
f 109/109/109 108/108/108 107/107/107 
f 110/110/110 107/107/107 108/108/108 

