v -0.30708280205726624 -0.2147883176803589 1.0317715406417847
v -0.3070828318595886 -0.19239439070224762 1.0317715406417847
v -0.2958858609199524 -0.20359134674072266 1.0317715406417847
v -0.3182797431945801 -0.20359136164188385 1.0317715406417847
v -0.029766837134957314 -0.11462334543466568 0.3859655559062958
v -0.04048316553235054 -0.09005137532949448 0.25794288516044617
v -0.05398203432559967 -0.13883855938911438 0.3859655559062958
v -0.010730321519076824 -0.060298532247543335 0.25794288516044617
v -0.016315441578626633 -0.03829881548881531 0.0
v 0.02775448188185692 0.0057710991241037846 0.0
v -0.11721145361661911 -0.10967213660478592 0.5158860087394714
v -0.1370135396718979 -0.12947425246238708 0.5158860087394714
v -0.17071951925754547 -0.13434937596321106 0.77382892370224
v -0.1894727647304535 -0.15310263633728027 0.77382892370224
v -0.2958858609199524 -0.20359134674072266 1.0317715406417847
v -0.30708280205726624 -0.2147883176803589 1.0317715406417847
v -0.05398205295205116 -0.09040815383195877 0.3859655559062958
v -0.010730321519076824 -0.060298532247543335 0.25794288516044617
v -0.029766837134957314 -0.11462334543466568 0.3859655559062958
v -0.04048316553235054 -0.030545687302947044 0.25794288516044617
v 0.02775448188185692 0.0057710991241037846 0.0
v -0.016315432265400887 0.0498410202562809 0.0
v -0.1370135396718979 -0.08987005800008774 0.5158860087394714
v -0.11721145361661911 -0.10967213660478592 0.5158860087394714
v -0.18947277963161469 -0.11559617519378662 0.77382892370224
v -0.17071951925754547 -0.13434937596321106 0.77382892370224
v -0.3070828318595886 -0.19239439070224762 1.0317715406417847
v -0.2958858609199524 -0.20359134674072266 1.0317715406417847
v -0.07819725573062897 -0.11462337523698807 0.3859655559062958
v -0.04048316553235054 -0.030545687302947044 0.25794288516044617
v -0.05398205295205116 -0.09040815383195877 0.3859655559062958
v -0.07023601979017258 -0.060298528522253036 0.25794288516044617
v -0.016315432265400887 0.0498410202562809 0.0
v -0.06038535386323929 0.005771108902990818 0.0
v -0.15681563317775726 -0.10967215150594711 0.5158860087394714
v -0.1370135396718979 -0.08987005800008774 0.5158860087394714
v -0.2082260102033615 -0.13434940576553345 0.77382892370224
v -0.18947277963161469 -0.11559617519378662 0.77382892370224
v -0.3182797431945801 -0.20359136164188385 1.0317715406417847
v -0.3070828318595886 -0.19239439070224762 1.0317715406417847
v -0.05398203432559967 -0.13883855938911438 0.3859655559062958
v -0.07023601979017258 -0.060298528522253036 0.25794288516044617
v -0.07819725573062897 -0.11462337523698807 0.3859655559062958
v -0.04048316553235054 -0.09005137532949448 0.25794288516044617
v -0.06038535386323929 0.005771108902990818 0.0
v -0.016315441578626633 -0.03829881548881531 0.0
v -0.1370135396718979 -0.12947425246238708 0.5158860087394714
v -0.15681563317775726 -0.10967215150594711 0.5158860087394714
v -0.1894727647304535 -0.15310263633728027 0.77382892370224
v -0.2082260102033615 -0.13434940576553345 0.77382892370224
v -0.30708280205726624 -0.2147883176803589 1.0317715406417847
v -0.3182797431945801 -0.20359136164188385 1.0317715406417847
v -0.03155072033405304 0.11567594110965729 0.85639888048172
v -0.031550705432891846 0.1298479288816452 0.85639888048172
v -0.02446470595896244 0.12276192754507065 0.85639888048172
v -0.0386367104947567 0.12276192754507065 0.85639888048172
v 0.031649138778448105 0.12276191264390945 0.6008418202400208
v 0.04195043072104454 0.04998904466629028 0.3452851176261902
v 0.011364385485649109 0.10247714072465897 0.6008418798446655
v 0.06411267071962357 0.07215126603841782 0.3452850580215454
v -0.02446470595896244 0.12276192754507065 0.85639888048172
v -0.03155072033405304 0.11567594110965729 0.85639888048172
v 0.04195040464401245 0.022015206515789032 0.007719272281974554
v 0.07632303237915039 0.05638780817389488 0.007719272281974554
v 0.011364340782165527 0.14304670691490173 0.6008418202400208
v 0.06411267071962357 0.07215126603841782 0.3452850580215454
v 0.031649138778448105 0.12276191264390945 0.6008418202400208
v 0.04195043444633484 0.09431350231170654 0.3452850580215454
v -0.031550705432891846 0.1298479288816452 0.85639888048172
v -0.02446470595896244 0.12276192754507065 0.85639888048172
v 0.07632303237915039 0.05638780817389488 0.007719272281974554
v 0.04195043444633484 0.09076044708490372 0.007719272281974554
v -0.008920407854020596 0.12276191264390945 0.6008418202400208
v 0.04195043444633484 0.09431350231170654 0.3452850580215454
v 0.011364340782165527 0.14304670691490173 0.6008418202400208
v 0.019788194447755814 0.0721512958407402 0.3452850580215454
v -0.0386367104947567 0.12276192754507065 0.85639888048172
v -0.031550705432891846 0.1298479288816452 0.85639888048172
v 0.04195043444633484 0.09076044708490372 0.007719272281974554
v 0.007577810902148485 0.05638784170150757 0.007719272281974554
v 0.011364385485649109 0.10247714072465897 0.6008418798446655
v 0.019788194447755814 0.0721512958407402 0.3452850580215454
v -0.008920407854020596 0.12276191264390945 0.6008418202400208
v 0.04195043072104454 0.04998904466629028 0.3452851176261902
v -0.03155072033405304 0.11567594110965729 0.85639888048172
v -0.0386367104947567 0.12276192754507065 0.85639888048172
v 0.007577810902148485 0.05638784170150757 0.007719272281974554
v 0.04195040464401245 0.022015206515789032 0.007719272281974554
v 0.1558946818113327 -0.22937797009944916 0.7300841212272644
v 0.17117013037204742 -0.21963366866111755 0.7290502190589905
v 0.1679144948720932 -0.23172715306282043 0.7262517213821411
v 0.15915054082870483 -0.2172846496105194 0.7328824996948242
v 0.0373721607029438 -0.22142086923122406 0.5943800806999207
v -0.0692024901509285 -0.11973392963409424 0.3899182677268982
v 0.018986498937010765 -0.21782776713371277 0.6002420783042908
v -0.045947957783937454 -0.12427863478660583 0.38250377774238586
v 0.1679144948720932 -0.23172715306282043 0.7262517213821411
v 0.1558946818113327 -0.22937797009944916 0.7300841212272644
v 0.0423520989716053 -0.20292264223098755 0.5986605286598206
v -0.045947957783937454 -0.12427863478660583 0.38250377774238586
v 0.0373721607029438 -0.22142086923122406 0.5943800806999207
v -0.039649203419685364 -0.10088188201189041 0.38791823387145996
v 0.17117013037204742 -0.21963366866111755 0.7290502190589905
v 0.1679144948720932 -0.23172715306282043 0.7262517213821411
v 0.023966515436768532 -0.19932956993579865 0.6045227646827698
v -0.039649203419685364 -0.10088188201189041 0.38791823387145996
v 0.0423520989716053 -0.20292264223098755 0.5986605286598206
v -0.06290364265441895 -0.09633711725473404 0.39533254504203796
v 0.15915054082870483 -0.2172846496105194 0.7328824996948242
v 0.17117013037204742 -0.21963366866111755 0.7290502190589905
v 0.018986498937010765 -0.21782776713371277 0.6002420783042908
v -0.06290364265441895 -0.09633711725473404 0.39533254504203796
v 0.023966515436768532 -0.19932956993579865 0.6045227646827698
v -0.0692024901509285 -0.11973392963409424 0.3899182677268982
v 0.1558946818113327 -0.22937797009944916 0.7300841212272644
v 0.15915054082870483 -0.2172846496105194 0.7328824996948242
vn -0.0 0.0 1.0
vn -0.0 0.0 1.0
vn -0.0 0.0 1.0
vn -0.0 0.0 1.0
vn 0.7069901823997498 -0.7069899439811707 0.018166333436965942
vn 0.6896296739578247 -0.6896297335624695 -0.22095662355422974
vn 0.6684914231300354 -0.6684911251068115 0.32594311237335205
vn 0.6963195204734802 -0.6963196992874146 -0.17400580644607544
vn 0.7024292945861816 -0.702429473400116 -0.11482967436313629
vn 0.7024292945861816 -0.702429473400116 -0.1148296594619751
vn 0.6352576613426208 -0.6352568864822388 0.4391997158527374
vn 0.6715508103370667 -0.6715499758720398 0.31311336159706116
vn 0.6985470652580261 -0.6985470652580261 0.15512540936470032
vn 0.6943673491477966 -0.6943673491477966 0.18896524608135223
vn 0.6884550452232361 -0.6884532570838928 0.22817037999629974
vn 0.6884551048278809 -0.688453197479248 0.22817037999629974
vn 0.5917781591415405 0.5917786359786987 0.5473542809486389
vn 0.6234411001205444 0.6234410405158997 0.4718499481678009
vn 0.5934627056121826 0.5934632420539856 0.5436941385269165
vn 0.6300269365310669 0.6300268769264221 0.4540179967880249
vn 0.6476698517799377 0.6476696729660034 0.4013073146343231
vn 0.6476698517799377 0.6476696729660034 0.4013073146343231
vn 0.6438758969306946 0.6438766121864319 0.41333597898483276
vn 0.6251760125160217 0.6251767873764038 0.4672355055809021
vn 0.6157174706459045 0.6157197952270508 0.4917125403881073
vn 0.6264203190803528 0.6264227628707886 0.46388816833496094
vn 0.548213005065918 0.5482131242752075 0.6316050291061401
vn 0.5482130646705627 0.548213005065918 0.6316050291061401
vn -0.6811053156852722 0.6811049580574036 -0.2686848044395447
vn -0.6794745326042175 0.6794747710227966 0.2768183648586273
vn -0.7059769034385681 0.7059765458106995 0.056513987481594086
vn -0.6715404391288757 0.6715407371520996 0.3131556808948517
vn -0.6882649660110474 0.6882652044296265 0.22930826246738434
vn -0.6882649660110474 0.6882652044296265 0.22930826246738434
vn -0.6767642498016357 0.6767638921737671 -0.28979432582855225
vn -0.6450040340423584 0.6450037360191345 -0.4098049998283386
vn -0.6993415355682373 0.6993414759635925 -0.14779320359230042
vn -0.7011256217956543 0.7011255621910095 -0.12979130446910858
vn -0.6969882249832153 0.6969861388206482 -0.16857583820819855
vn -0.6969882845878601 0.6969859004020691 -0.1685759723186493
vn -0.6162940263748169 -0.6162950396537781 -0.49026745557785034
vn -0.6566851139068604 -0.6566854119300842 -0.37084901332855225
vn -0.6141149997711182 -0.6141161322593689 -0.4957056939601898
vn -0.6496399641036987 -0.6496401429176331 -0.39488691091537476
vn -0.6738276481628418 -0.673827588558197 -0.30317094922065735
vn -0.6738277077674866 -0.6738275289535522 -0.30317091941833496
vn -0.635914146900177 -0.635914146900177 -0.4372943341732025
vn -0.6511217355728149 -0.6511216759681702 -0.38997575640678406
vn -0.6336157321929932 -0.6336156129837036 -0.44391700625419617
vn -0.6240871548652649 -0.6240870356559753 -0.47013887763023376
vn -0.5653217434883118 -0.5653216242790222 -0.600685179233551
vn -0.565321683883667 -0.5653216242790222 -0.6006852984428406
vn -0.0 0.0 1.0
vn -0.0 0.0 1.0
vn -0.0 0.0 1.0
vn -0.0 0.0 1.0
vn 0.6779204607009888 -0.6779190897941589 0.2843407392501831
vn 0.69206702709198 -0.6920672655105591 0.20514889061450958
vn 0.6785993576049805 -0.6785979866981506 0.28108298778533936
vn 0.6905419230461121 -0.6905422210693359 0.2151820957660675
vn 0.6879936456680298 -0.6879957914352417 0.23092550039291382
vn 0.6879934668540955 -0.6879960298538208 0.23092550039291382
vn 0.7042868137359619 -0.7042872905731201 0.08921698480844498
vn 0.7042868137359619 -0.7042872905731201 0.08921698480844498
vn 0.7034459114074707 0.7034462094306946 0.10162299126386642
vn 0.7065640091896057 0.7065639495849609 -0.0391748882830143
vn 0.7061817646026611 0.7061821222305298 0.051129598170518875
vn 0.7063210606575012 0.7063208222389221 -0.047131046652793884
vn 0.6879947781562805 0.6879947185516357 0.23092538118362427
vn 0.6879947781562805 0.6879947185516357 0.23092538118362427
vn 0.7070614099502563 0.7070605754852295 -0.011376406066119671
vn 0.7070614099502563 0.7070605754852295 -0.011376393027603626
vn -0.6895546317100525 0.6895535588264465 -0.22142790257930756
vn -0.6967131495475769 0.6967141628265381 -0.1708218902349472
vn -0.6884974241256714 0.6884962916374207 -0.22791244089603424
vn -0.6982235312461853 0.6982246041297913 -0.1580072045326233
vn -0.7015868425369263 0.7015867829322815 -0.12470743060112
vn -0.7015867829322815 0.7015868425369263 -0.1247074082493782
vn -0.7070608139038086 0.7070611715316772 -0.011376461945474148
vn -0.7070608139038086 0.7070611715316772 -0.011376466602087021
vn -0.7071039080619812 -0.7071042060852051 0.002754027023911476
vn -0.7041812539100647 -0.7041805982589722 0.0908760279417038
vn -0.7067242860794067 -0.7067247629165649 -0.03287689387798309
vn -0.7042049765586853 -0.7042043209075928 0.0905074030160904
vn -0.7015862464904785 -0.7015873789787292 -0.12470745295286179
vn -0.7015861868858337 -0.7015873789787292 -0.12470743060112
vn -0.7042874097824097 -0.704286515712738 0.08921705931425095
vn -0.7042874097824097 -0.7042865753173828 0.08921704441308975
vn 0.16456039249897003 -0.19079405069351196 0.9677382707595825
vn 0.16456040740013123 -0.19079406559467316 0.9677382707595825
vn 0.164559468626976 -0.19079254567623138 0.9677388668060303
vn 0.1645614206790924 -0.1907956302165985 0.9677379727363586
vn -0.20439499616622925 -0.9767431616783142 -0.06477320939302444
vn -0.26021459698677063 -0.8572206497192383 -0.44436606764793396
vn -0.24216480553150177 -0.9243023991584778 -0.29499372839927673
vn -0.2602148950099945 -0.8572205901145935 -0.44436588883399963
vn -0.1637696623802185 -0.9777604937553406 0.1310112476348877
vn -0.16377051174640656 -0.9777601361274719 0.1310129314661026
vn 0.6950393319129944 -0.0789363905787468 -0.7146254181861877
vn 0.8069155216217041 -0.1300065815448761 -0.576181948184967
vn 0.6889517903327942 -0.07636711746454239 -0.7207728624343872
vn 0.8069156408309937 -0.1300063133239746 -0.5761818885803223
vn 0.5500077605247498 -0.02168610692024231 -0.8348780274391174
vn 0.5500077605247498 -0.02168579399585724 -0.8348780274391174
vn 0.24673999845981598 0.9115851521492004 0.32883420586586
vn 0.2625552713871002 0.8436684608459473 0.4682822525501251
vn 0.21307745575904846 0.970573902130127 0.11217966675758362
vn 0.2625553607940674 0.8436684608459473 0.4682822525501251
vn 0.17637450993061066 0.9815325140953064 -0.07406739890575409
vn 0.17637459933757782 0.9815324544906616 -0.07406753301620483
vn -0.6700684428215027 0.06850171834230423 0.7391317486763
vn -0.7932266592979431 0.12327836453914642 0.5963169932365417
vn -0.6764603853225708 0.07114572823047638 0.7330344915390015
vn -0.7932266592979431 0.12327840924263 0.5963170528411865
vn -0.5263546705245972 0.013015088625252247 0.8501655459403992
vn -0.5263545513153076 0.013015931472182274 0.8501655459403992
vt 0.47672849893569946 0.5232714712619781
vt 0.523271381855011 0.47672855854034424
vt 0.523271381855011 0.5232714712619781
vt 0.47672849893569946 0.47672855854034424
vt 0.141422301530838 0.565413236618042
vt 0.10479554533958435 0.6308264434337616
vt 0.10479554533958435 0.565413236618042
vt 0.141422301530838 0.630826473236084
vt 0.10479554533958435 0.7616529017686844
vt 0.141422301530838 0.7616529017686844
vt 0.141422301530838 0.5
vt 0.10479554533958435 0.5
vt 0.141422301530838 0.3691735863685608
vt 0.10479554533958435 0.369173526763916
vt 0.141422301530838 0.2383471131324768
vt 0.10479554533958435 0.2383471131324768
vt 0.17804905772209167 0.565413236618042
vt 0.141422301530838 0.630826473236084
vt 0.141422301530838 0.565413236618042
vt 0.17804905772209167 0.630826473236084
vt 0.141422301530838 0.7616529017686844
vt 0.17804905772209167 0.7616529017686844
vt 0.17804905772209167 0.5
vt 0.141422301530838 0.5
vt 0.17804905772209167 0.3691735863685608
vt 0.141422301530838 0.3691735863685608
vt 0.17804905772209167 0.2383471131324768
vt 0.141422301530838 0.2383471131324768
vt 0.21467581391334534 0.565413236618042
vt 0.17804905772209167 0.630826473236084
vt 0.17804905772209167 0.565413236618042
vt 0.21467581391334534 0.630826473236084
vt 0.17804905772209167 0.7616529017686844
vt 0.21467581391334534 0.7616529017686844
vt 0.21467581391334534 0.5
vt 0.17804905772209167 0.5
vt 0.21467581391334534 0.3691735863685608
vt 0.17804905772209167 0.3691735863685608
vt 0.21467581391334534 0.2383471131324768
vt 0.17804905772209167 0.2383471131324768
vt 0.10479554533958435 0.565413236618042
vt 0.06816879659891129 0.630826473236084
vt 0.06816879659891129 0.565413236618042
vt 0.10479554533958435 0.6308264434337616
vt 0.06816879659891129 0.7616529017686844
vt 0.10479554533958435 0.7616529017686844
vt 0.10479554533958435 0.5
vt 0.06816879659891129 0.5
vt 0.10479554533958435 0.369173526763916
vt 0.06816879659891129 0.3691735863685608
vt 0.10479554533958435 0.2383471131324768
vt 0.06816879659891129 0.2383471131324768
vt 0.47672849893569946 0.5232714712619781
vt 0.523271381855011 0.47672855854034424
vt 0.523271381855011 0.5232714712619781
vt 0.47672849893569946 0.47672855854034424
vt 0.141422301530838 0.41278237104415894
vt 0.10479554533958435 0.5872176289558411
vt 0.10479554533958435 0.41278237104415894
vt 0.141422301530838 0.5872176289558411
vt 0.141422301530838 0.2383471131324768
vt 0.10479554533958435 0.2383471131324768
vt 0.10479554533958435 0.7616529017686844
vt 0.141422301530838 0.7616529017686844
vt 0.17804905772209167 0.41278237104415894
vt 0.141422301530838 0.5872176289558411
vt 0.141422301530838 0.41278237104415894
vt 0.17804905772209167 0.5872176289558411
vt 0.17804905772209167 0.2383471131324768
vt 0.141422301530838 0.2383471131324768
vt 0.141422301530838 0.7616529017686844
vt 0.17804905772209167 0.7616529017686844
vt 0.21467581391334534 0.41278237104415894
vt 0.17804905772209167 0.5872176289558411
vt 0.17804905772209167 0.41278237104415894
vt 0.21467581391334534 0.5872176289558411
vt 0.21467581391334534 0.2383471131324768
vt 0.17804905772209167 0.2383471131324768
vt 0.17804905772209167 0.7616529017686844
vt 0.21467581391334534 0.7616529017686844
vt 0.10479554533958435 0.41278237104415894
vt 0.06816879659891129 0.5872176289558411
vt 0.06816879659891129 0.41278237104415894
vt 0.10479554533958435 0.5872176289558411
vt 0.10479554533958435 0.2383471131324768
vt 0.06816879659891129 0.2383471131324768
vt 0.06816879659891129 0.7616529017686844
vt 0.10479554533958435 0.7616529017686844
vt 0.47672849893569946 0.5232714712619781
vt 0.523271381855011 0.47672855854034424
vt 0.523271381855011 0.5232714712619781
vt 0.47672849893569946 0.47672855854034424
vt 0.141422301530838 0.41278237104415894
vt 0.10479554533958435 0.5872176289558411
vt 0.10479554533958435 0.41278237104415894
vt 0.141422301530838 0.5872176289558411
vt 0.141422301530838 0.2383471131324768
vt 0.10479554533958435 0.2383471131324768
vt 0.17804905772209167 0.41278237104415894
vt 0.141422301530838 0.5872176289558411
vt 0.141422301530838 0.41278237104415894
vt 0.17804905772209167 0.5872176289558411
vt 0.17804905772209167 0.2383471131324768
vt 0.141422301530838 0.2383471131324768
vt 0.21467581391334534 0.41278237104415894
vt 0.17804905772209167 0.5872176289558411
vt 0.17804905772209167 0.41278237104415894
vt 0.21467581391334534 0.5872176289558411
vt 0.21467581391334534 0.2383471131324768
vt 0.17804905772209167 0.2383471131324768
vt 0.10479554533958435 0.41278237104415894
vt 0.06816879659891129 0.5872176289558411
vt 0.06816879659891129 0.41278237104415894
vt 0.10479554533958435 0.5872176289558411
vt 0.10479554533958435 0.2383471131324768
vt 0.06816879659891129 0.2383471131324768

g bg_mdl_map_wood03
s 1
usemtl bg_mdl_map_wood03
f 3/3/3 2/2/2 1/1/1 
f 4/4/4 1/1/1 2/2/2 
f 7/7/7 6/6/6 5/5/5 
f 8/8/8 5/5/5 6/6/6 
f 6/6/6 9/9/9 8/8/8 
f 10/10/10 8/8/8 9/9/9 
f 5/5/5 11/11/11 7/7/7 
f 12/12/12 7/7/7 11/11/11 
f 11/11/11 13/13/13 12/12/12 
f 14/14/14 12/12/12 13/13/13 
f 13/13/13 15/15/15 14/14/14 
f 16/16/16 14/14/14 15/15/15 
f 19/19/19 18/18/18 17/17/17 
f 20/20/20 17/17/17 18/18/18 
f 18/18/18 21/21/21 20/20/20 
f 22/22/22 20/20/20 21/21/21 
f 17/17/17 23/23/23 19/19/19 
f 24/24/24 19/19/19 23/23/23 
f 23/23/23 25/25/25 24/24/24 
f 26/26/26 24/24/24 25/25/25 
f 25/25/25 27/27/27 26/26/26 
f 28/28/28 26/26/26 27/27/27 
f 31/31/31 30/30/30 29/29/29 
f 32/32/32 29/29/29 30/30/30 
f 30/30/30 33/33/33 32/32/32 
f 34/34/34 32/32/32 33/33/33 
f 29/29/29 35/35/35 31/31/31 
f 36/36/36 31/31/31 35/35/35 
f 35/35/35 37/37/37 36/36/36 
f 38/38/38 36/36/36 37/37/37 
f 37/37/37 39/39/39 38/38/38 
f 40/40/40 38/38/38 39/39/39 
f 43/43/43 42/42/42 41/41/41 
f 44/44/44 41/41/41 42/42/42 
f 42/42/42 45/45/45 44/44/44 
f 46/46/46 44/44/44 45/45/45 
f 41/41/41 47/47/47 43/43/43 
f 48/48/48 43/43/43 47/47/47 
f 47/47/47 49/49/49 48/48/48 
f 50/50/50 48/48/48 49/49/49 
f 49/49/49 51/51/51 50/50/50 
f 52/52/52 50/50/50 51/51/51 
f 55/55/55 54/54/54 53/53/53 
f 56/56/56 53/53/53 54/54/54 
f 59/59/59 58/58/58 57/57/57 
f 60/60/60 57/57/57 58/58/58 
f 57/57/57 61/61/61 59/59/59 
f 62/62/62 59/59/59 61/61/61 
f 58/58/58 63/63/63 60/60/60 
f 64/64/64 60/60/60 63/63/63 
f 67/67/67 66/66/66 65/65/65 
f 68/68/68 65/65/65 66/66/66 
f 65/65/65 69/69/69 67/67/67 
f 70/70/70 67/67/67 69/69/69 
f 66/66/66 71/71/71 68/68/68 
f 72/72/72 68/68/68 71/71/71 
f 75/75/75 74/74/74 73/73/73 
f 76/76/76 73/73/73 74/74/74 
f 73/73/73 77/77/77 75/75/75 
f 78/78/78 75/75/75 77/77/77 
f 74/74/74 79/79/79 76/76/76 
f 80/80/80 76/76/76 79/79/79 
f 83/83/83 82/82/82 81/81/81 
f 84/84/84 81/81/81 82/82/82 
f 81/81/81 85/85/85 83/83/83 
f 86/86/86 83/83/83 85/85/85 
f 82/82/82 87/87/87 84/84/84 
f 88/88/88 84/84/84 87/87/87 
f 91/91/91 90/90/90 89/89/89 
f 92/92/92 89/89/89 90/90/90 
f 95/95/95 94/94/94 93/93/93 
f 96/96/96 93/93/93 94/94/94 
f 93/93/93 97/97/97 95/95/95 
f 98/98/98 95/95/95 97/97/97 
f 101/101/101 100/100/100 99/99/99 
f 102/102/102 99/99/99 100/100/100 
f 99/99/99 103/103/103 101/101/101 
f 104/104/104 101/101/101 103/103/103 
f 107/107/107 106/106/106 105/105/105 
f 108/108/108 105/105/105 106/106/106 
f 105/105/105 109/109/109 107/107/107 
f 110/110/110 107/107/107 109/109/109 
f 113/113/113 112/112/112 111/111/111 
f 114/114/114 111/111/111 112/112/112 
f 111/111/111 115/115/115 113/113/113 
f 116/116/116 113/113/113 115/115/115 

