v -5.5 -6.5 0.5
v -4.5 -5.5 0.5
v -4.5 -6.5 0.5
v -5.5 -5.5 0.5
v -4.5 -6.5 0.5
v -3.5 -5.5 0.5
v -3.5 -6.5 0.5
v -4.5 -5.5 0.5
v -3.5 -6.5 0.5
v -2.549999952316284 -5.5 0.5
v -2.549999952316284 -6.5 0.5
v -3.5 -5.5 0.5
v -2.518836259841919 -5.5 0.48749998211860657
v -2.518836259841919 -6.5 0.48749998211860657
v -5.5 -5.5 0.5
v -4.5 -4.5 0.5
v -4.5 -5.5 0.5
v -5.5 -4.5 0.5
v -4.5 -5.5 0.5
v -3.5 -4.5 0.5
v -3.5 -5.5 0.5
v -4.5 -4.5 0.5
v -3.5 -5.5 0.5
v -2.5464422702789307 -5.093352317810059 0.5
v -2.549999952316284 -5.5 0.5
v -2.545933961868286 -5.03525972366333 0.5
v -2.543388605117798 -4.744324684143066 0.5
v -2.542694568634033 -4.664999961853027 0.5
v -2.5412509441375732 -4.5 0.5
v -3.5 -4.5 0.5
v -2.518836259841919 -5.5 0.48749998211860657
v -2.5152785778045654 -5.093352317810059 0.48749998211860657
v -2.501094102859497 -4.5 0.48749998211860657
v -2.510542154312134 -4.551974773406982 0.48749998211860657
v -2.511531114578247 -4.664999961853027 0.48749998211860657
v -2.5010628700256348 -4.744324684143066 0.48749998211860657
v -2.503608226776123 -5.03525972366333 0.48749998211860657
v -5.5 -4.5 0.5
v -4.5 -3.5 0.5
v -4.5 -4.5 0.5
v -5.5 -3.5 0.5
v -4.5 -4.5 0.5
v -3.5 -3.5 0.5
v -3.5 -4.5 0.5
v -4.5 -3.5 0.5
v -3.5 -4.5 0.5
v -2.5450568199157715 -4.114155292510986 0.5
v -2.5412509441375732 -4.5 0.5
v -2.549999952316284 -3.5 0.5
v -3.5 -3.5 0.5
v -2.5165743827819824 -4.111273765563965 0.4820624887943268
v -2.5249998569488525 -3.530583143234253 0.4749999940395355
v -2.506770372390747 -4.15777587890625 0.48274219036102295
v -2.501094102859497 -4.5 0.48749998211860657
v -5.5 -3.5 0.5
v -4.5 -2.5 0.5
v -4.5 -3.5 0.5
v -5.5 -2.5 0.5
v -4.5 -3.5 0.5
v -3.5 -2.5 0.5
v -3.5 -3.5 0.5
v -4.5 -2.5 0.5
v -3.5 -3.5 0.5
v -2.5 -3.4499998092651367 0.5
v -2.549999952316284 -3.5 0.5
v -2.5 -2.5 0.5
v -3.5 -2.5 0.5
v -2.5 -3.4499998092651367 0.5
v -1.5 -2.5 0.5
v -1.5 -3.450059175491333 0.5
v -2.5 -2.5 0.5
v -1.5 -3.4800868034362793 0.48749998211860657
v -2.4735658168792725 -3.4749999046325684 0.4749999940395355
v -1.5 -3.450059175491333 0.5
v -0.550000011920929 -3.3047549724578857 0.5
v -0.6499999761581421 -3.4499998092651367 0.5
v -0.550000011920929 -2.5 0.5
v -1.5 -2.5 0.5
v -0.6183801293373108 -3.487499952316284 0.48749998211860657
v -1.1741100549697876 -3.4780163764953613 0.48749998211860657
v -1.5 -3.4800868034362793 0.48749998211860657
v -0.5249999761581421 -2.5350863933563232 0.478929728269577
v -0.5137655735015869 -3.342270851135254 0.4862343966960907
v -1.1741100549697876 -3.4780163764953613 0.48749998211860657
v -1.0740000009536743 -3.493178606033325 0.48749998211860657
v -3.5 -2.5 0.5
v -2.5 -1.5 0.5
v -2.5 -2.5 0.5
v -3.5 -1.5 0.5
v -2.5 -2.5 0.5
v -1.5 -1.5 0.5
v -1.5 -2.5 0.5
v -2.5 -1.5 0.5
v -1.5 -2.5 0.5
v -0.5 -2.450000047683716 0.5
v -0.550000011920929 -2.5 0.5
v -0.5 -1.5 0.5
v -1.5 -1.5 0.5
v -0.5 -2.450000047683716 0.5
v 0.5 -1.5 0.5
v 0.5 -2.450000047683716 0.5
v -0.5 -1.5 0.5
v -0.4680188000202179 -2.4749999046325684 0.478929728269577
v 0.4080381691455841 -2.4863123893737793 0.48631247878074646
v 0.5 -2.4981844425201416 0.48749998211860657
v 0.5 -2.450000047683716 0.5
v 1.5 -1.5 0.5
v 1.5 -2.450000047683716 0.5
v 0.5 -1.5 0.5
v 1.409999966621399 -2.487499952316284 0.48749998211860657
v 0.7599415183067322 -2.487499952316284 0.48749998211860657
v 0.6956499814987183 -2.4981844425201416 0.48749998211860657
v 0.5 -2.4981844425201416 0.48749998211860657
v 1.5 -2.4948947429656982 0.48749998211860657
v 1.7193948030471802 -2.4536173343658447 0.5
v 2.5 -1.5 0.5
v 2.5 -2.4664881229400635 0.5
v 1.5 -2.450000047683716 0.5
v 1.5 -1.5 0.5
v 1.717400074005127 -2.4802324771881104 0.48749998211860657
v 1.6649385690689087 -2.4921507835388184 0.48749998211860657
v 1.5 -2.4948947429656982 0.48749998211860657
v 1.806977391242981 -2.4988813400268555 0.48749998211860657
v 1.806977391242981 -2.4988813400268555 0.48749998211860657
v 2.5 -2.503988027572632 0.48749998211860657
v 2.5 -2.4664881229400635 0.5
v 3.5 -1.5 0.5
v 3.5 -2.4478464126586914 0.5
v 2.5 -1.5 0.5
v 3.5 -2.4853463172912598 0.48749998211860657
v 2.5 -2.503988027572632 0.48749998211860657
v 3.893313407897949 -2.443469285964966 0.5
v 4.5 -1.5 0.5
v 4.5 -2.4367177486419678 0.5
v 3.5 -2.4478464126586914 0.5
v 3.5 -1.5 0.5
v 4.11707067489624 -2.4824485778808594 0.48749998211860657
v 4.5 -2.4742178916931152 0.48749998211860657
v 4.074581146240234 -2.491769552230835 0.48749998211860657
v 3.747066020965576 -2.4923858642578125 0.48749998211860657
v 3.6599998474121094 -2.484861373901367 0.48749998211860657
v 3.6599998474121094 -2.484861373901367 0.48749998211860657
v 3.5 -2.4853463172912598 0.48749998211860657
v 4.5 -2.4367177486419678 0.5
v 5.5 -1.5 0.5
v 5.5 -2.4402475357055664 0.5
v 4.5 -1.5 0.5
v 5.5 -2.4777474403381348 0.48749998211860657
v 4.5 -2.4742178916931152 0.48749998211860657
v -2.5 -1.5 0.5
v -1.5 -0.5 0.5
v -1.5 -1.5 0.5
v -2.5 -0.5 0.5
v -1.5 -1.5 0.5
v -0.5 -0.5 0.5
v -0.5 -1.5 0.5
v -1.5 -0.5 0.5
v -0.5 -1.5 0.5
v 0.5 -0.5 0.5
v 0.5 -1.5 0.5
v -0.5 -0.5 0.5
v 1.5 -0.5 0.5
v 1.5 -1.5 0.5
v 2.5 -0.5 0.5
v 2.5 -1.5 0.5
v 0.5 0.5 0.5
v -0.5 0.5 0.5
v 2.5 -1.5 0.5
v 3.5 -0.5 0.5
v 3.5 -1.5 0.5
v 2.5 -0.5 0.5
v 3.5 -1.5 0.5
v 4.5 -0.5 0.5
v 4.5 -1.5 0.5
v 3.5 -0.5 0.5
v 4.5 -1.5 0.5
v 5.5 -0.5 0.5
v 5.5 -1.5 0.5
v 4.5 -0.5 0.5
v -2.5 -0.5 0.5
v -1.5 0.5 0.5
v -1.5 -0.5 0.5
v -2.5 0.5 0.5
v -1.5 -0.5 0.5
v -0.5 0.5 0.5
v -0.5 -0.5 0.5
v -1.5 0.5 0.5
v 0.5 -0.5 0.5
v 1.5 0.5 0.5
v 1.5 -0.5 0.5
v 0.5 0.5 0.5
v 1.5 -0.5 0.5
v 2.5 0.5 0.5
v 2.5 -0.5 0.5
v 1.5 0.5 0.5
v 3.5 0.5 0.5
v 3.5 -0.5 0.5
v -3.5 0.5 0.5
v -2.5 1.5 0.5
v -2.5 0.5 0.5
v -3.5 1.5 0.5
v -2.5 0.5 0.5
v -1.5 1.5 0.5
v -1.5 0.5 0.5
v -2.5 1.5 0.5
v -1.5 0.5 0.5
v -0.5 1.5 0.5
v -0.5 0.5 0.5
v -1.5 1.5 0.5
v -0.5 0.5 0.5
v 0.5 1.5 0.5
v 0.5 0.5 0.5
v -0.5 1.5 0.5
v 0.5 0.5 0.5
v 1.5 1.5 0.5
v 1.5 0.5 0.5
v 0.5 1.5 0.5
v 1.5 2.467949390411377 0.5
v 0.5 2.450000047683716 0.5
v -0.5 1.5 0.5
v -0.5 2.450000047683716 0.5
v -1.5 1.5 0.5
v -1.479395866394043 2.49415922164917 0.5
v 2.5 2.487868547439575 0.5
v 2.5 1.5 0.5
v 1.5 2.5054492950439453 0.48749998211860657
v 2.5 2.5253686904907227 0.48749998211860657
v 0.5 2.487499952316284 0.48749998211860657
v -0.5 2.487499952316284 0.48749998211860657
v -1.479395866394043 2.5191590785980225 0.4749999940395355
v 1.5 0.5 0.5
v 2.5 1.5 0.5
v 2.5 0.5 0.5
v 1.5 1.5 0.5
v -3.5 1.5 0.5
v -2.5 2.5 0.5
v -2.5 1.5 0.5
v -3.5 2.5 0.5
v -1.5 1.5 0.5
v -1.5293958187103271 2.544159173965454 0.5
v -1.479395866394043 2.49415922164917 0.5
v -2.5 1.5 0.5
v -2.5 2.5 0.5
v -3.5 2.5 0.5
v -2.5 3.5 0.5
v -2.5 2.5 0.5
v -3.5 3.5 0.5
v -2.5 2.5 0.5
v -1.5475174188613892 3.5 0.5
v -1.5293958187103271 2.544159173965454 0.5
v -2.5 3.5 0.5
v -1.5499999523162842 4.5 0.5
v -2.5 4.5 0.5
v -1.504395842552185 2.544159173965454 0.4749999940395355
v -1.5095957517623901 3.428311586380005 0.48656249046325684
v -1.5124999284744263 4.5 0.48749998211860657
v -1.507170557975769 3.8720998764038086 0.48749998211860657
v -1.4871947765350342 3.809999942779541 0.48749998211860657
v -1.4846941232681274 3.5 0.48749998211860657
v -1.507170557975769 3.8720998764038086 0.48749998211860657
v -1.5095957517623901 3.428311586380005 0.48656249046325684
v -3.5 3.5 0.5
v -2.5 4.5 0.5
v -2.5 3.5 0.5
v -3.5 4.5 0.5
v -3.5 4.5 0.5
v -2.5 5.5 0.5
v -2.5 4.5 0.5
v -3.5 5.5 0.5
v -2.5 4.5 0.5
v -1.5499999523162842 5.5 0.5
v -1.5499999523162842 4.5 0.5
v -2.5 5.5 0.5
v -1.5124999284744263 5.5 0.48749998211860657
v -1.5124999284744263 4.5 0.48749998211860657
v -2.5249998569488525 -3.530583143234253 0.4749999940395355
v -2.5 -3.4499998092651367 0.5
v -2.4735658168792725 -3.4749999046325684 0.4749999940395355
v -2.549999952316284 -3.5 0.5
v -0.5249999761581421 -2.5350863933563232 0.478929728269577
v -0.5 -2.450000047683716 0.5
v -0.4680188000202179 -2.4749999046325684 0.478929728269577
v -0.550000011920929 -2.5 0.5
v -1.479395866394043 2.5191590785980225 0.4749999940395355
v -1.5293958187103271 2.544159173965454 0.5
v -1.504395842552185 2.544159173965454 0.4749999940395355
v -1.479395866394043 2.49415922164917 0.5
v -2.5412509441375732 -4.5 0.5
v -2.5165743827819824 -4.111273765563965 0.4820624887943268
v -2.506770372390747 -4.15777587890625 0.48274219036102295
v -2.5 -6.5 0.0
v -2.5 -5.5 0.44999998807907104
v -2.5 -5.5 0.0
v -2.5 -6.5 0.44999998807907104
v -2.4964423179626465 -5.093352317810059 0.0
v -2.4964423179626465 -5.093352317810059 0.44999998807907104
v -2.518836259841919 -6.5 0.48749998211860657
v -2.518836259841919 -5.5 0.48749998211860657
v -2.5152785778045654 -5.093352317810059 0.48749998211860657
v -2.4661173820495605 -5.03525972366333 0.0
v -2.484771728515625 -5.03525972366333 0.44999998807907104
v -2.4635720252990723 -4.744324684143066 0.0
v -2.482226610183716 -4.744324684143066 0.44999998807907104
v -2.492694616317749 -4.664999961853027 0.0
v -2.492694616317749 -4.664999961853027 0.44999998807907104
v -2.4917056560516357 -4.551974773406982 0.0
v -2.4917056560516357 -4.551974773406982 0.44999998807907104
v -2.511531114578247 -4.664999961853027 0.48749998211860657
v -2.510542154312134 -4.551974773406982 0.48749998211860657
v -2.5010628700256348 -4.744324684143066 0.48749998211860657
v -2.503608226776123 -5.03525972366333 0.48749998211860657
v -2.465707540512085 -4.5 0.0
v -2.482257843017578 -4.5 0.44999998807907104
v -2.4690375328063965 -4.157437324523926 0.0
v -2.4855878353118896 -4.157437324523926 0.44999998807907104
v -2.501094102859497 -4.5 0.48749998211860657
v -2.506770372390747 -4.15777587890625 0.48274219036102295
v -2.4950568675994873 -4.108500003814697 0.0
v -2.4950568675994873 -4.108500003814697 0.44999998807907104
v -2.5 -3.5999999046325684 0.0
v -2.5 -3.5999999046325684 0.44999998807907104
v -2.5165743827819824 -4.111273765563965 0.4820624887943268
v -2.5 -3.5999999046325684 0.44999998807907104
v -2.5249998569488525 -3.530583143234253 0.4749999940395355
v -2.3999998569488525 -3.5 0.0
v -1.5 -3.500059127807617 0.44999998807907104
v -1.5 -3.5095925331115723 0.0
v -2.3999998569488525 -3.5 0.44999998807907104
v -1.1695200204849243 -3.5069103240966797 0.0
v -1.1695200204849243 -3.5069103240966797 0.44999998807907104
v -1.1741100549697876 -3.4780163764953613 0.48749998211860657
v -2.5 -3.5999999046325684 0.0
v -2.5 -3.5999999046325684 0.44999998807907104
v -1.0679999589920044 -3.539902925491333 0.0
v -1.0679999589920044 -3.51861572265625 0.44999998807907104
v -0.5999999642372131 -3.5249133110046387 0.0
v -0.5999999642372131 -3.51293683052063 0.44999998807907104
v -1.0740000009536743 -3.493178606033325 0.48749998211860657
v -0.6183801293373108 -3.487499952316284 0.48749998211860657
v -0.5999999642372131 -3.51293683052063 0.44999998807907104
v -2.4735658168792725 -3.4749999046325684 0.4749999940395355
v -2.3999998569488525 -3.5 0.44999998807907104
v -1.5 -3.4800868034362793 0.48749998211860657
v -1.1741100549697876 -3.4780163764953613 0.48749998211860657
v -0.5 -3.35475492477417 0.44999998807907104
v -0.5 -3.352395534515381 0.0
v -0.5 -2.5999999046325684 0.44999998807907104
v -0.5 -2.5999999046325684 0.0
v -0.5999999642372131 -3.51293683052063 0.44999998807907104
v -0.5249999761581421 -2.5350863933563232 0.478929728269577
v -0.5 -2.5999999046325684 0.44999998807907104
v -0.5137655735015869 -3.342270851135254 0.4862343966960907
v -0.5999999642372131 -3.51293683052063 0.44999998807907104
v -2.3999998569488525 -3.5 0.44999998807907104
v -2.5249998569488525 -3.530583143234253 0.4749999940395355
v -2.5 -3.5999999046325684 0.44999998807907104
v 0.414499968290329 -2.5 0.0
v -0.3999999761581421 -2.5 0.44999998807907104
v 0.414499968290329 -2.512838125228882 0.44999998807907104
v -0.3999999761581421 -2.5 0.0
v -0.5 -2.5999999046325684 0.0
v -0.5 -2.5999999046325684 0.44999998807907104
v 0.5 -2.5353055000305176 0.0
v 0.5 -2.5248701572418213 0.44999998807907104
v 0.6931806802749634 -2.5353055000305176 0.0
v 0.6956499814987183 -2.524582862854004 0.44999998807907104
v 0.6956499814987183 -2.4981844425201416 0.48749998211860657
v 0.5 -2.4981844425201416 0.48749998211860657
v 0.7566607594490051 -2.5 0.0
v 0.7599415183067322 -2.513803720474243 0.44999998807907104
v 0.7599415183067322 -2.487499952316284 0.48749998211860657
v 1.398514986038208 -2.5 0.0
v 1.409999966621399 -2.5128486156463623 0.44999998807907104
v 1.4926294088363647 -2.551053524017334 0.0
v 1.5 -2.520111083984375 0.44999998807907104
v 1.6646969318389893 -2.549562931060791 0.0
v 1.6649385690689087 -2.517367124557495 0.44999998807907104
v 1.6649385690689087 -2.4921507835388184 0.48749998211860657
v 1.5 -2.4948947429656982 0.48749998211860657
v 1.717400074005127 -2.5 0.0
v 1.717400074005127 -2.4802324771881104 0.48749998211860657
v 1.717400074005127 -2.501152515411377 0.44999998807907104
v 1.717400074005127 -2.5 0.0
v 1.806977391242981 -2.4988813400268555 0.48749998211860657
v 1.806977391242981 -2.5228705406188965 0.44999998807907104
v 1.806977391242981 -2.542661666870117 0.0
v 1.717400074005127 -2.5 0.0
v 2.5 -2.5164880752563477 0.0
v 2.5 -2.5164880752563477 0.44999998807907104
v 3.5 -2.4978463649749756 0.44999998807907104
v 3.5 -2.4978463649749756 0.0
v 3.6599998474121094 -2.508683919906616 0.0
v 3.6599998474121094 -2.497361660003662 0.44999998807907104
v 2.5 -2.503988027572632 0.48749998211860657
v 3.5 -2.4853463172912598 0.48749998211860657
v 3.6599998474121094 -2.484861373901367 0.48749998211860657
v 1.806977391242981 -2.4988813400268555 0.48749998211860657
v 3.7454376220703125 -2.551708698272705 0.0
v 3.747066020965576 -2.529320001602173 0.44999998807907104
v 4.076209545135498 -2.551708698272705 0.0
v 4.074581146240234 -2.5287039279937744 0.44999998807907104
v 3.747066020965576 -2.4923858642578125 0.48749998211860657
v 3.6599998474121094 -2.484861373901367 0.48749998211860657
v 4.074581146240234 -2.491769552230835 0.48749998211860657
v 4.11707067489624 -2.5165657997131348 0.0
v 4.11707067489624 -2.510941505432129 0.44999998807907104
v 4.11707067489624 -2.4824485778808594 0.48749998211860657
v 4.5 -2.5083351135253906 0.0
v 4.5 -2.5027105808258057 0.44999998807907104
v 5.5 -2.4902474880218506 0.44999998807907104
v 5.5 -2.5 0.0
v 4.5 -2.4742178916931152 0.48749998211860657
v 5.5 -2.4777474403381348 0.48749998211860657
v 2.5 2.5378684997558594 0.0
v 1.5 2.517949342727661 0.44999998807907104
v 1.5 2.517949342727661 0.0
v 2.5 2.5378684997558594 0.44999998807907104
v 0.5 2.5 0.44999998807907104
v 0.5 2.5 0.0
v -0.5 2.5 0.44999998807907104
v -0.5 2.5 0.0
v -1.479395866394043 2.544159173965454 0.44999998807907104
v -1.479395866394043 2.544159173965454 0.0
v 2.5 2.5253686904907227 0.48749998211860657
v 1.5 2.5054492950439453 0.48749998211860657
v 0.5 2.487499952316284 0.48749998211860657
v -0.5 2.487499952316284 0.48749998211860657
v -1.479395866394043 2.544159173965454 0.44999998807907104
v -1.479395866394043 2.5191590785980225 0.4749999940395355
v -1.504395842552185 2.544159173965454 0.4749999940395355
v -1.479395866394043 2.544159173965454 0.44999998807907104
v -1.5095957517623901 3.428311586380005 0.48656249046325684
v -1.479395866394043 2.544159173965454 0.44999998807907104
v -1.479395866394043 2.544159173965454 0.44999998807907104
v -1.496158242225647 3.428311586380005 0.44999998807907104
v -1.496158242225647 3.428311586380005 0.0
v -1.479395866394043 2.544159173965454 0.0
v -1.4461380243301392 3.5 0.0
v -1.4721941947937012 3.5 0.44999998807907104
v -1.4486385583877563 3.809999942779541 0.0
v -1.474694848060608 3.809999942779541 0.44999998807907104
v -1.4871947765350342 3.809999942779541 0.48749998211860657
v -1.4846941232681274 3.5 0.48749998211860657
v -1.4946705102920532 3.8720998764038086 0.0
v -1.4946705102920532 3.8720998764038086 0.44999998807907104
v -1.507170557975769 3.8720998764038086 0.48749998211860657
v -1.5 4.5 0.0
v -1.5 4.5 0.44999998807907104
v -1.5 5.5 0.44999998807907104
v -1.5 5.5 0.0
v -1.5124999284744263 4.5 0.48749998211860657
v -1.5124999284744263 5.5 0.48749998211860657
v -1.5095957517623901 3.428311586380005 0.48656249046325684
v -0.3999999761581421 -2.5 0.44999998807907104
v 0.4080381691455841 -2.4863123893737793 0.48631247878074646
v -0.4680188000202179 -2.4749999046325684 0.478929728269577
v -0.3999999761581421 -2.5 0.44999998807907104
v -0.5249999761581421 -2.5350863933563232 0.478929728269577
v -0.5 -2.5999999046325684 0.44999998807907104
v 1.409999966621399 -2.487499952316284 0.48749998211860657
vn -0.0 0.0 1.0
vn -0.0 0.0 1.0
vn -0.0 0.0 1.0
vn -0.0 0.0 1.0
vn -0.0 0.0 1.0
vn -0.0 0.0 1.0
vn -0.0 0.0 1.0
vn -0.0 0.0 1.0
vn -0.0 0.0 1.0
vn 0.15154798328876495 -0.0006629414274357259 0.9884496927261353
vn 0.25224682688713074 0.0 0.9676629304885864
vn -0.0 0.0 1.0
vn 0.5792791247367859 -0.0025340192951261997 0.8151253461837769
vn 0.7636328339576721 0.0 0.6456508040428162
vn -0.0 0.0 1.0
vn -0.0 0.0 1.0
vn -0.0 0.0 1.0
vn -0.0 0.0 1.0
vn -0.0 0.0 1.0
vn -0.0 0.0 1.0
vn -0.0 0.0 1.0
vn -0.0 0.0 1.0
vn -0.0 0.0 1.0
vn 0.22732149064540863 -0.0019888514652848244 0.9738177061080933
vn 0.15154798328876495 -0.0006629414274357259 0.9884496927261353
vn 0.20594753324985504 -0.010962480679154396 0.978501558303833
vn 0.14308960735797882 -0.0012518332805484533 0.9897089600563049
vn 0.3032747209072113 -0.013501700945198536 0.9528075456619263
vn 0.18084894120693207 0.008659068495035172 0.9834728240966797
vn -0.0 0.0 1.0
vn 0.5792791247367859 -0.0025340192951261997 0.8151253461837769
vn 0.7038867473602295 -0.06653930246829987 0.7071889042854309
vn 0.6989851593971252 -0.04379943013191223 0.7137935161590576
vn 0.7840257287025452 -0.09680267423391342 0.6131336688995361
vn 0.7298638820648193 0.03144456446170807 0.6828688383102417
vn 0.6026122570037842 0.04152326658368111 0.7969530820846558
vn 0.7035025358200073 -0.05475649982690811 0.7085801959037781
vn -0.0 0.0 1.0
vn -0.0 0.0 1.0
vn -0.0 0.0 1.0
vn -0.0 0.0 1.0
vn -0.0 0.0 1.0
vn -0.0 0.0 1.0
vn -0.0 0.0 1.0
vn -0.0 0.0 1.0
vn -0.0 0.0 1.0
vn 0.3742659091949463 0.006112635601311922 0.9273013472557068
vn 0.18084894120693207 0.008659068495035172 0.9834728240966797
vn 0.23237422108650208 -0.07968021929264069 0.9693571329116821
vn -0.0 0.0 1.0
vn 0.6202018857002258 0.046758539974689484 0.7830474376678467
vn 0.48379483819007874 -0.17726218700408936 0.8570418357849121
vn 0.6246297955513 0.09025362879037857 0.7756879925727844
vn 0.6989851593971252 -0.04379943013191223 0.7137935161590576
vn -0.0 0.0 1.0
vn -0.0 0.0 1.0
vn -0.0 0.0 1.0
vn -0.0 0.0 1.0
vn -0.0 0.0 1.0
vn -0.0 0.0 1.0
vn -0.0 0.0 1.0
vn -0.0 0.0 1.0
vn -0.0 0.0 1.0
vn 0.10341472178697586 -0.24612730741500854 0.9637047052383423
vn 0.23237422108650208 -0.07968021929264069 0.9693571329116821
vn -0.0 0.0 1.0
vn -0.0 0.0 1.0
vn 0.10341472178697586 -0.24612730741500854 0.9637047052383423
vn -0.0 0.0 1.0
vn -0.0007506156689487398 -0.2008470594882965 0.9796223640441895
vn -0.0 0.0 1.0
vn -0.003219448961317539 -0.6815499663352966 0.7317644953727722
vn 0.13507069647312164 -0.6187092065811157 0.7739217281341553
vn -0.0007506156689487398 -0.2008470594882965 0.9796223640441895
vn 0.24719586968421936 -0.04778970032930374 0.9677863121032715
vn 0.07110842317342758 -0.15580810606479645 0.9852246046066284
vn 0.20103104412555695 -0.06588227301836014 0.9773668646812439
vn -0.0 0.0 1.0
vn 0.14684024453163147 -0.43691521883010864 0.8874362111091614
vn -0.024513883516192436 -0.5982890129089355 0.8009053468704224
vn -0.003219448961317539 -0.6815499663352966 0.7317644953727722
vn 0.5229684114456177 -0.15539321303367615 0.8380672931671143
vn 0.6417715549468994 -0.2310287356376648 0.7312694787979126
vn -0.03032437339425087 -0.5231356024742126 0.85170978307724
vn -0.056225795298814774 -0.6700820922851562 0.7401543855667114
vn -0.0 0.0 1.0
vn -0.0 0.0 1.0
vn -0.0 0.0 1.0
vn -0.0 0.0 1.0
vn -0.0 0.0 1.0
vn -0.0 0.0 1.0
vn -0.0 0.0 1.0
vn -0.0 0.0 1.0
vn -0.0 0.0 1.0
vn 0.09693092107772827 -0.19050046801567078 0.976889967918396
vn 0.20103104412555695 -0.06588227301836014 0.9773668646812439
vn -0.0 0.0 1.0
vn -0.0 0.0 1.0
vn 0.09693092107772827 -0.19050046801567078 0.976889967918396
vn -0.0 0.0 1.0
vn -0.0032276934944093227 -0.2304905652999878 0.9730692505836487
vn -0.0 0.0 1.0
vn 0.12449920177459717 -0.487074077129364 0.8644413352012634
vn -0.0415019765496254 -0.6248552799224854 0.779636800289154
vn -0.057605888694524765 -0.6245561242103577 0.7788525223731995
vn -0.0032276934944093227 -0.2304905652999878 0.9730692505836487
vn -0.0 0.0 1.0
vn 0.0013469900004565716 -0.18133042752742767 0.9834213852882385
vn -0.0 0.0 1.0
vn -0.02769056335091591 -0.5976920127868652 0.8012474179267883
vn 0.03454192355275154 -0.6263712644577026 0.7787593007087708
vn 0.05293520539999008 -0.6513734459877014 0.7569085955619812
vn -0.057605888694524765 -0.6245561242103577 0.7788525223731995
vn -0.019140752032399178 -0.5849749445915222 0.810825526714325
vn -0.0035869143903255463 -0.21754492819309235 0.9760437607765198
vn -0.0 0.0 1.0
vn -0.0015520963352173567 -0.18318748474121094 0.983076810836792
vn 0.0013469900004565716 -0.18133042752742767 0.9834213852882385
vn -0.0 0.0 1.0
vn 0.04271070286631584 -0.5610731840133667 0.8266635537147522
vn 0.054425399750471115 -0.6245940923690796 0.7790508270263672
vn -0.019140752032399178 -0.5849749445915222 0.810825526714325
vn -0.0850544422864914 -0.6383174657821655 0.7650598883628845
vn -0.07267222553491592 -0.7101751565933228 0.7002642154693604
vn 0.007106631528586149 -0.7739218473434448 0.6332412362098694
vn -0.0015520963352173567 -0.18318748474121094 0.983076810836792
vn -0.0 0.0 1.0
vn 0.0017329786205664277 -0.1585264652967453 0.9873532056808472
vn -0.0 0.0 1.0
vn 0.007410545367747545 -0.6332067847251892 0.7739472389221191
vn 0.007106631528586149 -0.7739218473434448 0.6332412362098694
vn 0.0029804592486470938 -0.1703324317932129 0.9853821992874146
vn -0.0 0.0 1.0
vn 0.001124543254263699 -0.17892445623874664 0.9838621020317078
vn 0.0017329786205664277 -0.1585264652967453 0.9873532056808472
vn -0.0 0.0 1.0
vn 0.04374456778168678 -0.5526441335678101 0.832268476486206
vn 0.006291110999882221 -0.6798097491264343 0.733361542224884
vn 0.10385753959417343 -0.5443599820137024 0.8323976397514343
vn -0.015708545222878456 -0.5375847816467285 0.8430634140968323
vn -0.01906684786081314 -0.39349937438964844 0.9191270470619202
vn -0.06344486027956009 -0.6907134056091309 0.7203400135040283
vn 0.007410545367747545 -0.6332067847251892 0.7739472389221191
vn 0.001124543254263699 -0.17892445623874664 0.9838621020317078
vn -0.0 0.0 1.0
vn -0.0005653890548273921 -0.1601821780204773 0.9870872497558594
vn -0.0 0.0 1.0
vn -0.0020515676587820053 -0.5812361836433411 0.8137324452400208
vn 0.006291110999882221 -0.6798097491264343 0.733361542224884
vn -0.0 0.0 1.0
vn -0.0 0.0 1.0
vn -0.0 0.0 1.0
vn -0.0 0.0 1.0
vn -0.0 0.0 1.0
vn -0.0 0.0 1.0
vn -0.0 0.0 1.0
vn -0.0 0.0 1.0
vn -0.0 0.0 1.0
vn -0.0 0.0 1.0
vn -0.0 0.0 1.0
vn -0.0 0.0 1.0
vn -0.0 0.0 1.0
vn -0.0 0.0 1.0
vn -0.0 0.0 1.0
vn -0.0 0.0 1.0
vn -0.0 0.0 1.0
vn -0.0 0.0 1.0
vn -0.0 0.0 1.0
vn -0.0 0.0 1.0
vn -0.0 0.0 1.0
vn -0.0 0.0 1.0
vn -0.0 0.0 1.0
vn -0.0 0.0 1.0
vn -0.0 0.0 1.0
vn -0.0 0.0 1.0
vn -0.0 0.0 1.0
vn -0.0 0.0 1.0
vn -0.0 0.0 1.0
vn -0.0 0.0 1.0
vn -0.0 0.0 1.0
vn -0.0 0.0 1.0
vn -0.0 0.0 1.0
vn -0.0 0.0 1.0
vn -0.0 0.0 1.0
vn -0.0 0.0 1.0
vn -0.0 0.0 1.0
vn -0.0 0.0 1.0
vn -0.0 0.0 1.0
vn -0.0 0.0 1.0
vn -0.0 0.0 1.0
vn -0.0 0.0 1.0
vn -0.0 0.0 1.0
vn -0.0 0.0 1.0
vn -0.0 0.0 1.0
vn -0.0 0.0 1.0
vn -0.0 0.0 1.0
vn -0.0 0.0 1.0
vn -0.0 0.0 1.0
vn -0.0 0.0 1.0
vn -0.0 0.0 1.0
vn -0.0 0.0 1.0
vn -0.0 0.0 1.0
vn -0.0 0.0 1.0
vn -0.0 0.0 1.0
vn -0.0 0.0 1.0
vn -0.0 0.0 1.0
vn -0.0 0.0 1.0
vn -0.0 0.0 1.0
vn -0.0 0.0 1.0
vn -0.0 0.0 1.0
vn -0.0 0.0 1.0
vn -0.0 0.0 1.0
vn -0.0 0.0 1.0
vn -0.0 0.0 1.0
vn -0.0 0.0 1.0
vn -0.0 0.0 1.0
vn -0.0 0.0 1.0
vn -0.0029803048819303513 0.16018015146255493 0.9870833158493042
vn -0.0009583767969161272 0.16018173098564148 0.9870870113372803
vn -0.0 0.0 1.0
vn 0.005203096196055412 0.23242048919200897 0.9726014733314514
vn -0.0 0.0 1.0
vn 0.17024555802345276 0.35884130001068115 0.9177414178848267
vn -0.003190648974850774 0.16017954051494598 0.9870827198028564
vn -0.0 0.0 1.0
vn -0.013270879164338112 0.7070199847221375 0.7070689797401428
vn -0.01620645821094513 0.8136064410209656 0.5811900496482849
vn -0.005287971813231707 0.7070901989936829 0.7071034908294678
vn 0.00996049027889967 0.6470615267753601 0.7623727321624756
vn 0.31439971923828125 0.6129260659217834 0.7248961925506592
vn -0.0 0.0 1.0
vn -0.0 0.0 1.0
vn -0.0 0.0 1.0
vn -0.0 0.0 1.0
vn -0.0 0.0 1.0
vn -0.0 0.0 1.0
vn -0.0 0.0 1.0
vn -0.0 0.0 1.0
vn -0.0 0.0 1.0
vn 0.297391802072525 0.18659111857414246 0.9363448619842529
vn 0.17024555802345276 0.35884130001068115 0.9177414178848267
vn -0.0 0.0 1.0
vn -0.0 0.0 1.0
vn -0.0 0.0 1.0
vn -0.0 0.0 1.0
vn -0.0 0.0 1.0
vn -0.0 0.0 1.0
vn -0.0 0.0 1.0
vn 0.21374578773975372 -0.00489945849403739 0.9768770337104797
vn 0.297391802072525 0.18659111857414246 0.9363448619842529
vn -0.0 0.0 1.0
vn 0.16018222272396088 0.0001325563935097307 0.9870874881744385
vn -0.0 0.0 1.0
vn 0.614755392074585 0.24557188153266907 0.7495133876800537
vn 0.7324222922325134 -0.12864117324352264 0.6685873866081238
vn 0.7021763920783997 0.0020910005550831556 0.7120000123977661
vn 0.7352285981178284 0.07806094735860825 0.6733093857765198
vn 0.1367436945438385 0.013331376016139984 0.990516722202301
vn 0.19499406218528748 -0.03942162171006203 0.9800118207931519
vn 0.1779128462076187 0.013762852177023888 0.9839500188827515
vn 0.6757733225822449 -0.08360440284013748 0.7323529124259949
vn -0.0 0.0 1.0
vn -0.0 0.0 1.0
vn -0.0 0.0 1.0
vn -0.0 0.0 1.0
vn -0.0 0.0 1.0
vn -0.0 0.0 1.0
vn -0.0 0.0 1.0
vn -0.0 0.0 1.0
vn -0.0 0.0 1.0
vn 0.1066322773694992 0.0 0.99429851770401
vn 0.16018222272396088 0.0001325563935097307 0.9870874881744385
vn -0.0 0.0 1.0
vn 0.5812381505966187 0.0 0.8137334585189819
vn 0.7021763920783997 0.0020910005550831556 0.7120000123977661
vn 0.48379483819007874 -0.17726218700408936 0.8570418357849121
vn 0.10341472178697586 -0.24612730741500854 0.9637047052383423
vn 0.13507069647312164 -0.6187092065811157 0.7739217281341553
vn 0.23237422108650208 -0.07968021929264069 0.9693571329116821
vn 0.5229684114456177 -0.15539321303367615 0.8380672931671143
vn 0.09693092107772827 -0.19050046801567078 0.976889967918396
vn 0.12449920177459717 -0.487074077129364 0.8644413352012634
vn 0.20103104412555695 -0.06588227301836014 0.9773668646812439
vn 0.31439971923828125 0.6129260659217834 0.7248961925506592
vn 0.297391802072525 0.18659111857414246 0.9363448619842529
vn 0.614755392074585 0.24557188153266907 0.7495133876800537
vn 0.17024555802345276 0.35884130001068115 0.9177414178848267
vn 0.18084894120693207 0.008659068495035172 0.9834728240966797
vn 0.6202018857002258 0.046758539974689484 0.7830474376678467
vn 0.6246297955513 0.09025362879037857 0.7756879925727844
vn 1.0 0.0 0.0
vn 0.9730281233787537 -0.004256415646523237 0.23064692318439484
vn 0.9999904632568359 -0.004374352283775806 0.0
vn 0.9730371832847595 0.0 0.23064862191677094
vn 0.9864392280578613 -0.1641271859407425 0.0
vn 0.9648951292037964 -0.17737461626529694 0.19368983805179596
vn 0.7636328339576721 0.0 0.6456508040428162
vn 0.5792791247367859 -0.0025340192951261997 0.8151253461837769
vn 0.7038867473602295 -0.06653930246829987 0.7071889042854309
vn 0.9734821915626526 -0.22705897688865662 0.02786930464208126
vn 0.9634527564048767 -0.09847298264503479 0.2491220384836197
vn 0.9930171966552734 0.11055439710617065 0.041164934635162354
vn 0.9645566344261169 0.09776946902275085 0.24509501457214355
vn 0.9874734878540039 0.157239630818367 0.013107904233038425
vn 0.9714280962944031 0.058311689645051956 0.23005881905555725
vn 0.9873459935188293 -0.15858080983161926 0.0
vn 0.9609213471412659 -0.14046582579612732 0.2385360151529312
vn 0.7298638820648193 0.03144456446170807 0.6828688383102417
vn 0.7840257287025452 -0.09680267423391342 0.6131336688995361
vn 0.6026122570037842 0.04152326658368111 0.7969530820846558
vn 0.7035025358200073 -0.05475649982690811 0.7085801959037781
vn 0.9775087833404541 -0.20943422615528107 0.024774787947535515
vn 0.9655627012252808 -0.08069200813770294 0.2473408281803131
vn 0.9852728247642517 0.16710585355758667 0.03623678535223007
vn 0.9483288526535034 0.15022045373916626 0.279474675655365
vn 0.6989851593971252 -0.04379943013191223 0.7137935161590576
vn 0.6246297955513 0.09025362879037857 0.7756879925727844
vn 0.9737386107444763 0.22740131616592407 0.011034112423658371
vn 0.952360212802887 0.0972689688205719 0.28904786705970764
vn 0.9257285594940186 -0.3781886100769043 0.0
vn 0.9184829592704773 -0.1883186548948288 0.34774285554885864
vn 0.6202018857002258 0.046758539974689484 0.7830474376678467
vn 0.8303830027580261 -0.21678800880908966 0.513290286064148
vn 0.48379483819007874 -0.17726218700408936 0.8570418357849121
vn 0.24914953112602234 -0.9684354066848755 0.007577447220683098
vn -0.005887238774448633 -0.9533988237380981 0.30165550112724304
vn -0.0012707964051514864 -0.9997748732566833 0.0211805310100317
vn 0.404150128364563 -0.8920929431915283 0.20207154750823975
vn -0.10838034749031067 -0.9940839409828186 0.0071357665583491325
vn -0.11880668252706528 -0.9412229061126709 0.31620317697525024
vn -0.024513883516192436 -0.5982890129089355 0.8009053468704224
vn 0.9257285594940186 -0.3781886100769043 0.0
vn 0.9184829592704773 -0.1883186548948288 0.34774285554885864
vn -0.13185936212539673 -0.990760862827301 0.03171589970588684
vn -0.02530066855251789 -0.9498381614685059 0.3117167055606842
vn 0.5004735589027405 -0.8654088377952576 0.02436741255223751
vn 0.33546578884124756 -0.9124755859375 0.23420314490795135
vn -0.056225795298814774 -0.6700820922851562 0.7401543855667114
vn 0.14684024453163147 -0.43691521883010864 0.8874362111091614
vn 0.4023861587047577 -0.783791720867157 0.4730284512042999
vn 0.13507069647312164 -0.6187092065811157 0.7739217281341553
vn 0.3952879309654236 -0.745604932308197 0.5364892482757568
vn -0.003219448961317539 -0.6815499663352966 0.7317644953727722
vn -0.02839711122214794 -0.693063497543335 0.720317006111145
vn 0.9264702200889587 -0.2688082754611969 0.2634294033050537
vn 0.9850249290466309 -0.17240935564041138 -0.000903928535990417
vn 0.9634512066841125 -0.1966845840215683 0.18187040090560913
vn 0.8628562092781067 -0.5054493546485901 0.0
vn 0.6395311951637268 -0.7006730437278748 0.3163180947303772
vn 0.5229684114456177 -0.15539321303367615 0.8380672931671143
vn 0.896508514881134 -0.23864108324050903 0.37325984239578247
vn 0.6417715549468994 -0.2310287356376648 0.7312694787979126
vn 0.622822642326355 -0.6347113847732544 0.4574204385280609
vn 0.1704156994819641 -0.40918585658073425 0.8963958024978638
vn 0.48379483819007874 -0.17726218700408936 0.8570418357849121
vn 0.6379607915878296 -0.07786273211240768 0.7661222219467163
vn -0.13463762402534485 -0.9907203912734985 -0.018596254289150238
vn 0.25776922702789307 -0.9397990703582764 0.2243497222661972
vn -0.13695639371871948 -0.9436715841293335 0.301209032535553
vn 0.3826834261417389 -0.9238795042037964 0.0
vn 0.8628562092781067 -0.5054493546485901 0.0
vn 0.9634512066841125 -0.1966845840215683 0.18187040090560913
vn -0.175968199968338 -0.9843732118606567 0.006682693026959896
vn -0.04374455288052559 -0.9482476115226746 0.3145042061805725
vn 0.16721747815608978 -0.9856666922569275 0.022350240498781204
vn 0.1680096834897995 -0.9545911550521851 0.24602553248405457
vn 0.05293520539999008 -0.6513734459877014 0.7569085955619812
vn -0.057605888694524765 -0.6245561242103577 0.7788525223731995
vn 0.22206741571426392 -0.9749162197113037 -0.014986422844231129
vn 0.07722268998622894 -0.9551883339881897 0.28574812412261963
vn 0.03454192355275154 -0.6263712644577026 0.7787593007087708
vn -0.16289487481117249 -0.986333429813385 -0.02473204955458641
vn -0.10989943891763687 -0.9461244344711304 0.30458277463912964
vn -0.1874500960111618 -0.9813411235809326 0.04280141368508339
vn -0.0239778533577919 -0.9322552680969238 0.36100584268569946
vn 0.25157031416893005 -0.9654539227485657 0.06790561974048615
vn 0.25849148631095886 -0.9177963137626648 0.30138349533081055
vn 0.054425399750471115 -0.6245940923690796 0.7790508270263672
vn -0.019140752032399178 -0.5849749445915222 0.810825526714325
vn 0.5028497576713562 -0.8640041947364807 0.025277677923440933
vn 0.04271070286631584 -0.5610731840133667 0.8266635537147522
vn -0.08740858733654022 -0.9585465788841248 0.2711979150772095
vn 0.2078256607055664 -0.9780048727989197 0.017747899517416954
vn -0.07267222553491592 -0.7101751565933228 0.7002642154693604
vn -0.07945133000612259 -0.9673587083816528 0.2406337559223175
vn -0.21341750025749207 -0.9765406250953674 0.028661902993917465
vn -0.07229142636060715 -0.9973801970481873 -0.0025543938390910625
vn 0.021052375435829163 -0.9997180104255676 0.010979291051626205
vn 0.009482856839895248 -0.9707494378089905 0.23990748822689056
vn 0.0017526843585073948 -0.9865685701370239 0.16333846747875214
vn -0.02449350617825985 -0.9996999502182007 0.0
vn -0.17513324320316315 -0.9844111204147339 0.016218822449445724
vn -0.2298569232225418 -0.9621787071228027 0.14621184766292572
vn 0.007106631528586149 -0.7739218473434448 0.6332412362098694
vn 0.007410545367747545 -0.6332067847251892 0.7739472389221191
vn -0.06981661170721054 -0.757920503616333 0.6486000418663025
vn -0.08036050200462341 -0.800723135471344 0.5936198830604553
vn -0.2699154317378998 -0.9620183706283569 0.04082024097442627
vn -0.1301581710577011 -0.9352579116821289 0.3291678726673126
vn 0.2304764688014984 -0.9717909097671509 0.05003103241324425
vn 0.2446748912334442 -0.8824232220649719 0.4018251299858093
vn -0.015708545222878456 -0.5375847816467285 0.8430634140968323
vn -0.06344486027956009 -0.6907134056091309 0.7203400135040283
vn 0.10385753959417343 -0.5443599820137024 0.8323976397514343
vn 0.3673316538333893 -0.9298156499862671 0.022590912878513336
vn 0.16132313013076782 -0.9260784983634949 0.3411062955856323
vn 0.04374456778168678 -0.5526441335678101 0.832268476486206
vn 0.01594279147684574 -0.999763548374176 0.014788438566029072
vn 0.016411447897553444 -0.9220978617668152 0.3866087794303894
vn 0.007082114927470684 -0.9689357876777649 0.24721121788024902
vn 0.008332867175340652 -0.9997305274009705 0.02166638895869255
vn 0.006291110999882221 -0.6798097491264343 0.733361542224884
vn -0.0020515676587820053 -0.5812361836433411 0.8137324452400208
vn -0.019915331155061722 0.9998016953468323 0.0
vn -0.019010460004210472 0.9869088530540466 0.1601548045873642
vn -0.018602771684527397 0.999826967716217 0.0
vn -0.019658271223306656 0.9868964552879333 0.160152867436409
vn -0.01181030459702015 0.9870184659957886 0.16017195582389832
vn -0.005982374306768179 0.9999821186065674 0.0
vn 0.014824156649410725 0.9869785308837891 0.16016732156276703
vn 0.030035091564059258 0.9995488524436951 0.0
vn 0.15806688368320465 0.9235483407974243 0.34938982129096985
vn 0.045042477548122406 0.9989849925041199 0.0
vn -0.01620645821094513 0.8136064410209656 0.5811900496482849
vn -0.013270879164338112 0.7070199847221375 0.7070689797401428
vn -0.005287971813231707 0.7070901989936829 0.7071034908294678
vn 0.00996049027889967 0.6470615267753601 0.7623727321624756
vn 0.28494831919670105 0.8412633538246155 0.45943495631217957
vn 0.31439971923828125 0.6129260659217834 0.7248961925506592
vn 0.614755392074585 0.24557188153266907 0.7495133876800537
vn 0.6553401947021484 0.6420783400535583 0.39782506227493286
vn 0.7324222922325134 -0.12864117324352264 0.6685873866081238
vn 0.8441104292869568 0.26600271463394165 0.4655320942401886
vn 0.9241008758544922 0.13742920756340027 0.3565821945667267
vn 0.958827793598175 -0.23995108902454376 0.1518973857164383
vn 0.9825162887573242 -0.18617665767669678 0.0
vn 0.9998204112052917 0.018955303356051445 0.0
vn 0.9521257877349854 -0.3032369017601013 0.03878115490078926
vn 0.9690055251121521 -0.13156451284885406 0.20909105241298676
vn 0.975438117980957 0.21290940046310425 0.05648050084710121
vn 0.9563442468643188 0.25080108642578125 0.15001510083675385
vn 0.9377565979957581 0.15133622288703918 0.3125855326652527
vn 0.9369854927062988 -0.15655368566513062 0.3123285174369812
vn 0.9494452476501465 0.31352370977401733 0.01601693406701088
vn 0.9751543402671814 0.15611858665943146 0.15716569125652313
vn 0.848528265953064 0.08546996861696243 0.5222017765045166
vn 0.9999910593032837 0.004243744071573019 0.0
vn 0.9813598394393921 0.004979993682354689 0.192114919424057
vn 0.9870874881744385 0.0 0.16018226742744446
vn 1.0 0.0 0.0
vn 0.7021763920783997 0.0020910005550831556 0.7120000123977661
vn 0.5812381505966187 0.0 0.8137334585189819
vn 0.812027096748352 -0.1326407492160797 0.568347156047821
vn 0.29473575949668884 -0.8398213982582092 0.4558846354484558
vn -0.0415019765496254 -0.6248552799224854 0.779636800289154
vn 0.12449920177459717 -0.487074077129364 0.8644413352012634
vn 0.14691105484962463 -0.5700445771217346 0.8083726167678833
vn 0.5229684114456177 -0.15539321303367615 0.8380672931671143
vn 0.550575852394104 -0.15363788604736328 0.8205252885818481
vn -0.02769056335091591 -0.5976920127868652 0.8012474179267883
vt 0.7502368688583374 0.24999576807022095
vt 0.9995152950286865 0.0003104209899902344
vt 0.9995152950286865 0.24999576807022095
vt 0.7502368688583374 0.0003104209899902344
vt 0.7502368688583374 0.24999576807022095
vt 0.9995152950286865 0.0003104209899902344
vt 0.9995152950286865 0.24999576807022095
vt 0.7502368688583374 0.0003104209899902344
vt 0.7502368688583374 0.24999576807022095
vt 0.9870513677597046 0.0003104209899902344
vt 0.9870513677597046 0.24999576807022095
vt 0.7502368688583374 0.0003104209899902344
vt 0.9977056384086609 0.0003104209899902344
vt 0.9977056384086609 0.24999576807022095
vt 0.7502368688583374 0.24999576807022095
vt 0.9995152950286865 0.0003104209899902344
vt 0.9995152950286865 0.24999576807022095
vt 0.7502368688583374 0.0003104209899902344
vt 0.7502368688583374 0.24999576807022095
vt 0.9995152950286865 0.0003104209899902344
vt 0.9995152950286865 0.24999576807022095
vt 0.7502368688583374 0.0003104209899902344
vt 0.7502368688583374 0.7499608397483826
vt 0.9870513677597046 0.64842689037323
vt 0.9870513677597046 0.7499608397483826
vt 0.9870513677597046 0.6339220404624939
vt 0.9870513677597046 0.5612798631191254
vt 0.9870513677597046 0.5414735674858093
vt 0.9870513677597046 0.5002754926681519
vt 0.7502368688583374 0.5002754926681519
vt 0.99770587682724 0.7500171810388565
vt 0.9977057576179504 0.6484626233577728
vt 0.9977056384086609 0.5002811253070831
vt 0.9977056384086609 0.5132611691951752
vt 0.9977056980133057 0.5414875745773315
vt 0.9977056980133057 0.5612978935241699
vt 0.9977057576179504 0.6339548230171204
vt 0.7502368688583374 0.24999576807022095
vt 0.9995152950286865 0.0003104209899902344
vt 0.9995152950286865 0.24999576807022095
vt 0.7502368688583374 0.0003104209899902344
vt 0.7502368688583374 0.24999576807022095
vt 0.9995152950286865 0.0003104209899902344
vt 0.9995152950286865 0.24999576807022095
vt 0.7502368688583374 0.0003104209899902344
vt 0.7502368688583374 0.24999576807022095
vt 0.9855585098266602 0.1536598801612854
vt 0.9870513677597046 0.24999576807022095
vt 0.9870513677597046 0.0003104209899902344
vt 0.7502368688583374 0.0003104209899902344
vt 1.0002574920654297 0.1499893069267273
vt 0.9996164441108704 0.0003104209899902344
vt 0.9984786510467529 0.1616080403327942
vt 0.9978556632995605 0.24992281198501587
vt 0.7502368688583374 0.24999576807022095
vt 0.9995152950286865 0.0003104209899902344
vt 0.9995152950286865 0.24999576807022095
vt 0.7502368688583374 0.0003104209899902344
vt 0.7502368688583374 0.24999576807022095
vt 0.9995152950286865 0.0003104209899902344
vt 0.9995152950286865 0.24999576807022095
vt 0.7502368688583374 0.0003104209899902344
vt 0.7502368688583374 0.24999576807022095
vt 0.9995152950286865 0.2375115156173706
vt 0.9870513677597046 0.24999576807022095
vt 0.9995152950286865 0.0003104209899902344
vt 0.7502368688583374 0.0003104209899902344
vt 0.7502368688583374 0.2375115156173706
vt 0.9995152950286865 0.0003104209899902344
vt 0.9995152950286865 0.2375115156173706
vt 0.7502368688583374 0.0003104209899902344
vt 0.9995063543319702 0.24790656566619873
vt 0.7502368688583374 0.24997150897979736
vt 0.7502368688583374 0.2375115156173706
vt 0.9870513677597046 0.21254301071166992
vt 0.9621235132217407 0.23751157522201538
vt 0.9870513677597046 0.0003104209899902344
vt 0.7502368688583374 0.0003104209899902344
vt 0.9727537631988525 0.24957209825515747
vt 0.8325358629226685 0.24997150897979736
vt 0.7502997517585754 0.24774736166000366
vt 0.9996164441108704 0.0003104209899902344
vt 0.9996164441108704 0.22469347715377808
vt 0.8325358629226685 0.24997150897979736
vt 0.8578172922134399 0.24997150897979736
vt 0.7502368688583374 0.24999576807022095
vt 0.9995152950286865 0.0003104209899902344
vt 0.9995152950286865 0.24999576807022095
vt 0.7502368688583374 0.0003104209899902344
vt 0.7502368688583374 0.24999576807022095
vt 0.9995152950286865 0.0003104209899902344
vt 0.9995152950286865 0.24999576807022095
vt 0.7502368688583374 0.0003104209899902344
vt 0.7502368688583374 0.24999576807022095
vt 0.9995152950286865 0.2375115156173706
vt 0.9870513677597046 0.24999576807022095
vt 0.9995152950286865 0.0003104209899902344
vt 0.7502368688583374 0.0003104209899902344
vt 0.7502368688583374 0.7374379634857178
vt 0.9995152950286865 0.5002368986606598
vt 0.9995152950286865 0.7374379634857178
vt 0.7502368688583374 0.5002368986606598
vt 0.7502368688583374 0.7498979568481445
vt 0.9758338332176208 0.7498979568481445
vt 0.9995152950286865 0.7498979568481445
vt 0.7502368688583374 0.2375115156173706
vt 0.9995152950286865 0.0003104209899902344
vt 0.9995152950286865 0.2375115156173706
vt 0.7502368688583374 0.0003104209899902344
vt 0.977080225944519 0.24997150897979736
vt 0.8150346875190735 0.24997150897979736
vt 0.7990081906318665 0.24997150897979736
vt 0.7502368688583374 0.24997150897979736
vt 0.9995152950286865 0.24997150897979736
vt 0.8049272298812866 0.2375115156173706
vt 0.9995152950286865 0.0003104209899902344
vt 0.9995152950286865 0.2375115156173706
vt 0.7502368688583374 0.2375115156173706
vt 0.7502368688583374 0.0003104209899902344
vt 0.8041701912879944 0.2508137822151184
vt 0.7912853360176086 0.2504952549934387
vt 0.7502368688583374 0.24997150897979736
vt 0.8267694711685181 0.2517234683036804
vt 0.8267694711685181 0.2517234683036804
vt 0.9995152950286865 0.24997150897979736
vt 0.7502368688583374 0.2375115156173706
vt 0.9995152950286865 0.0003104209899902344
vt 0.9995152950286865 0.2375115156173706
vt 0.7502368688583374 0.0003104209899902344
vt 0.9995152950286865 0.24997150897979736
vt 0.7502368688583374 0.24997150897979736
vt 0.8482815027236938 0.2375115156173706
vt 0.9995152950286865 0.0003104209899902344
vt 0.9995152950286865 0.2375115156173706
vt 0.7502368688583374 0.2375115156173706
vt 0.7502368688583374 0.0003104209899902344
vt 0.9040593504905701 0.24997150897979736
vt 0.9995152950286865 0.24997150897979736
vt 0.8930555582046509 0.24997150897979736
vt 0.8118252158164978 0.24965929985046387
vt 0.7901214361190796 0.24997150897979736
vt 0.7901214361190796 0.24997150897979736
vt 0.7502368688583374 0.24997150897979736
vt 0.7502368688583374 0.2375115156173706
vt 0.9995152950286865 0.0003104209899902344
vt 0.9995152950286865 0.2375115156173706
vt 0.7502368688583374 0.0003104209899902344
vt 0.9995152950286865 0.24997150897979736
vt 0.7502368688583374 0.24997150897979736
vt 0.7502368688583374 0.24999576807022095
vt 0.9995152950286865 0.0003104209899902344
vt 0.9995152950286865 0.24999576807022095
vt 0.7502368688583374 0.0003104209899902344
vt 0.7502368688583374 0.24999576807022095
vt 0.9995152950286865 0.0003104209899902344
vt 0.9995152950286865 0.24999576807022095
vt 0.7502368688583374 0.0003104209899902344
vt 0.0008412864990532398 0.7499517798423767
vt 0.25011971592903137 0.5002664923667908
vt 0.25011971592903137 0.7499517798423767
vt 0.0008412864990532398 0.5002664923667908
vt 0.5000100135803223 0.500249981880188
vt 0.5000100135803223 0.7499353289604187
vt 0.7498390078544617 0.5004856586456299
vt 0.7498390078544617 0.7501709908246994
vt 0.250034898519516 0.2501652240753174
vt 0.0007564781699329615 0.2501652240753174
vt 0.7502368688583374 0.24999576807022095
vt 0.9995152950286865 0.0003104209899902344
vt 0.9995152950286865 0.24999576807022095
vt 0.7502368688583374 0.0003104209899902344
vt 0.7502368688583374 0.24999576807022095
vt 0.9995152950286865 0.0003104209899902344
vt 0.9995152950286865 0.24999576807022095
vt 0.7502368688583374 0.0003104209899902344
vt 0.7502368688583374 0.24999576807022095
vt 0.9995152950286865 0.0003104209899902344
vt 0.9995152950286865 0.24999576807022095
vt 0.7502368688583374 0.0003104209899902344
vt 0.7502368688583374 0.24999576807022095
vt 0.9995152950286865 0.0003104209899902344
vt 0.9995152950286865 0.24999576807022095
vt 0.7502368688583374 0.0003104209899902344
vt 0.7502368688583374 0.24999576807022095
vt 0.9995152950286865 0.0003104209899902344
vt 0.9995152950286865 0.24999576807022095
vt 0.7502368688583374 0.0003104209899902344
vt 0.7502537369728088 0.9997289157763589
vt 0.9995322227478027 0.750043660402298
vt 0.9995322227478027 0.9997289157763589
vt 0.7502537369728088 0.750043660402298
vt 0.5004579424858093 0.2499977946281433
vt 0.7497363686561584 0.00031244754791259766
vt 0.7497363686561584 0.2499977946281433
vt 0.5004579424858093 0.00031244754791259766
vt 0.9995152950286865 0.0003104209899902344
vt 0.9995152950286865 0.24999576807022095
vt 0.7502368688583374 0.24999576807022095
vt 0.9995152950286865 0.0003104209899902344
vt 0.9995152950286865 0.24999576807022095
vt 0.7502368688583374 0.0003104209899902344
vt 0.7502368688583374 0.24999576807022095
vt 0.9995152950286865 0.0003104209899902344
vt 0.9995152950286865 0.24999576807022095
vt 0.7502368688583374 0.0003104209899902344
vt 0.0008905591093935072 0.7500293105840683
vt 0.25016897916793823 0.5003439486026764
vt 0.25016897916793823 0.7500293105840683
vt 0.0008905591093935072 0.5003439486026764
vt 0.0006825588643550873 0.9995409612602089
vt 0.2499609887599945 0.7498556077480316
vt 0.2499609887599945 0.9995409612602089
vt 0.0006825588643550873 0.7498556077480316
vt 0.5005897283554077 0.49994659423828125
vt 0.7498681545257568 0.2502613067626953
vt 0.7498681545257568 0.49994659423828125
vt 0.5005897283554077 0.2502613067626953
vt 0.749778687953949 0.012794673442840576
vt 0.500156581401825 0.012794673442840576
vt 0.24998779594898224 0.24999576807022095
vt 0.24998779594898224 0.012794673442840576
vt 0.0007093739695847034 0.24999576807022095
vt 0.0007093739695847034 0.012794673442840576
vt 0.9995152950286865 0.012794673442840576
vt 0.9995152950286865 0.24999576807022095
vt 0.7502368688583374 0.0004589557647705078
vt 0.9995152950286865 0.0005776286125183105
vt 0.5005002617835999 0.0004589557647705078
vt 0.2508781850337982 0.0004589557647705078
vt 0.0007093739695847034 0.0004589557647705078
vt 0.7502368688583374 0.24999576807022095
vt 0.9995152950286865 0.0003104209899902344
vt 0.9995152950286865 0.24999576807022095
vt 0.7502368688583374 0.0003104209899902344
vt 0.7502368688583374 0.24999576807022095
vt 0.9995152950286865 0.0003104209899902344
vt 0.9995152950286865 0.24999576807022095
vt 0.7502368688583374 0.0003104209899902344
vt 0.9995152950286865 0.24999576807022095
vt 0.9870513677597046 0.0003104209899902344
vt 0.9995152950286865 0.012794673442840576
vt 0.7502368688583374 0.24999576807022095
vt 0.7502368688583374 0.0003104209899902344
vt 0.7502368688583374 0.24999576807022095
vt 0.9995152950286865 0.0003104209899902344
vt 0.9995152950286865 0.24999576807022095
vt 0.7502368688583374 0.0003104209899902344
vt 0.7502368688583374 0.5000431537628174
vt 0.9870513677597046 0.25035780668258667
vt 0.9870513677597046 0.5000431537628174
vt 0.7502368688583374 0.25035780668258667
vt 0.9870513677597046 0.0003104209899902344
vt 0.7502368688583374 0.0003104209899902344
vt 0.9996164441108704 0.5000431537628174
vt 0.9996164441108704 0.26908421516418457
vt 0.9996164441108704 0.0003104209899902344
vt 0.9996164441108704 0.15708786249160767
vt 0.9996164441108704 0.17259329557418823
vt 0.9996164441108704 0.24999576807022095
vt 0.9996164441108704 0.15708786249160767
vt 0.9996164441108704 0.26908421516418457
vt 0.7502368688583374 0.24999576807022095
vt 0.9995152950286865 0.0003104209899902344
vt 0.9995152950286865 0.24999576807022095
vt 0.7502368688583374 0.0003104209899902344
vt 0.7502368688583374 0.24999576807022095
vt 0.9995152950286865 0.0003104209899902344
vt 0.9995152950286865 0.24999576807022095
vt 0.7502368688583374 0.0003104209899902344
vt 0.7502368688583374 0.24999576807022095
vt 0.9870513677597046 0.0003104209899902344
vt 0.9870513677597046 0.24999576807022095
vt 0.7502368688583374 0.0003104209899902344
vt 0.9996164441108704 0.0003104209899902344
vt 0.9996164441108704 0.24999576807022095
vt 0.9814889430999756 0.008343279361724854
vt 0.9783899784088135 0.010145246982574463
vt 0.9805424213409424 0.010145246982574463
vt 0.9774100184440613 0.008343279361724854
vt 0.9870949387550354 0.006498992443084717
vt 0.9843599200248718 0.00845569372177124
vt 0.9860132932662964 0.00845569372177124
vt 0.9833186864852905 0.006498992443084717
vt 0.7734678387641907 0.0207861065864563
vt 0.7810067534446716 0.030329644680023193
vt 0.7810067534446716 0.023913323879241943
vt 0.7734678387641907 0.034071147441864014
vt 0.9870513677597046 0.24999576807022095
vt 1.0002574920654297 0.1499893069267273
vt 0.9984786510467529 0.1616080403327942
vt -2.8787314891815186 0.7499843239784241
vt -2.362423896789551 0.516208291053772
vt -2.362423896789551 0.7499843239784241
vt -2.8787314891815186 0.516208291053772
vt -2.1550498008728027 0.7499843239784241
vt -2.1550498008728027 0.516208291053772
vt -2.8787314891815186 0.5006887316703796
vt -2.362492561340332 0.5006855428218842
vt -2.15511155128479 0.5006146132946014
vt -2.125424861907959 0.7499843239784241
vt -2.125424861907959 0.516208291053772
vt -1.9770597219467163 0.7499843239784241
vt -1.9770597219467163 0.516208291053772
vt -1.9366071224212646 0.7499843239784241
vt -1.9366071224212646 0.516208291053772
vt -1.8789689540863037 0.7499843239784241
vt -1.8789689540863037 0.516208291053772
vt -1.936661720275879 0.5005399286746979
vt -1.8790215253829956 0.5005202293395996
vt -1.9771156311035156 0.5005537569522858
vt -2.12548565864563 0.5006044805049896
vt -1.852463722229004 0.7499843239784241
vt -1.852463722229004 0.516208291053772
vt -1.68058443069458 0.7499843239784241
vt -1.6805840730667114 0.516208291053772
vt -1.852515459060669 0.5005111694335938
vt -1.6762275695800781 0.4994736313819885
vt -1.6560301780700684 0.7499843239784241
vt -1.6560298204421997 0.516208291053772
vt -1.4008923768997192 0.7499843239784241
vt -1.4008914232254028 0.516208291053772
vt -1.6521390676498413 0.49873244762420654
vt -1.4008914232254028 0.516208291053772
vt -1.35696542263031 0.5014374852180481
vt -1.298918604850769 0.7499843239784241
vt -0.8327264189720154 0.516208291053772
vt -0.8327264189720154 0.7499843239784241
vt -1.2989176511764526 0.516208291053772
vt -0.6630499362945557 0.7499843239784241
vt -0.6630499362945557 0.516208291053772
vt -0.6632885932922363 0.5014374852180481
vt -1.4008923768997192 0.7499843239784241
vt -1.4008914232254028 0.516208291053772
vt -0.6109270453453064 0.7499843239784241
vt -0.6109270453453064 0.516208291053772
vt -0.37064439058303833 0.7499843239784241
vt -0.37064439058303833 0.516208291053772
vt -0.6112390160560608 0.5014374852180481
vt -0.37400317192077637 0.5011957287788391
vt -0.37064439058303833 0.516208291053772
vt -1.3453665971755981 0.5014374852180481
vt -1.2989176511764526 0.516208291053772
vt -0.8326476812362671 0.5002083480358124
vt -0.6632885932922363 0.5014374852180481
vt -0.26821091771125793 0.516208291053772
vt -0.2682110071182251 0.7499843239784241
vt 0.1405174732208252 0.516208291053772
vt 0.14051654934883118 0.7499843239784241
vt -0.37064439058303833 0.516208291053772
vt 0.18462730944156647 0.5014374852180481
vt 0.1405174732208252 0.516208291053772
vt -0.2682793140411377 0.5014374852180481
vt -0.37064439058303833 0.516208291053772
vt -1.2989176511764526 0.516208291053772
vt -1.35696542263031 0.5014374852180481
vt -1.4008914232254028 0.516208291053772
vt 0.6653105020523071 0.7499843239784241
vt 0.24340754747390747 0.516208291053772
vt 0.6653106212615967 0.516208291053772
vt 0.24340662360191345 0.7499843239784241
vt 0.14051654934883118 0.7499843239784241
vt 0.1405174732208252 0.516208291053772
vt 0.7095987796783447 0.7499843239784241
vt 0.7095987796783447 0.516208291053772
vt 0.8095052242279053 0.7499895989894867
vt 0.810681939125061 0.516208291053772
vt 0.810681939125061 0.5014374852180481
vt 0.7095987796783447 0.5014374852180481
vt 0.8423349857330322 0.7499913275241852
vt 0.843898355960846 0.516208291053772
vt 0.843898355960846 0.5014374852180481
vt 1.174280047416687 0.7500088512897491
vt 1.179753065109253 0.516208291053772
vt 1.2221864461898804 0.7498801648616791
vt 1.2262518405914307 0.516208291053772
vt 1.3100003004074097 0.750045970082283
vt 1.3110235929489136 0.516156405210495
vt 1.3113374710083008 0.5010753273963928
vt 1.2262518405914307 0.5014374852180481
vt 1.3387316465377808 0.7495186626911163
vt 1.3385717868804932 0.5003682076931
vt 1.3385711908340454 0.5156378746032715
vt 1.3387316465377808 0.7495186626911163
vt 1.3849401473999023 0.5022807717323303
vt 1.3849835395812988 0.5165102481842041
vt 1.3850821256637573 0.7499597668647766
vt 1.3387316465377808 0.7495186626911163
vt 1.742904782295227 0.7499843239784241
vt 1.742904782295227 0.516208291053772
vt 2.2595582008361816 0.516208291053772
vt 2.2595582008361816 0.7499843239784241
vt 2.3422226905822754 0.7499843239784241
vt 2.3422226905822754 0.516208291053772
vt 1.742904782295227 0.5014374852180481
vt 2.2595582008361816 0.5014374852180481
vt 2.3422226905822754 0.5014374852180481
vt 1.3849401473999023 0.5022807717323303
vt 2.3872547149658203 0.7498967945575714
vt 2.3875300884246826 0.5165381729602814
vt 2.5559515953063965 0.7501440644264221
vt 2.5557000637054443 0.5162449479103088
vt 2.3872320652008057 0.5023002028465271
vt 2.3422226905822754 0.5014374852180481
vt 2.5561206340789795 0.5007286071777344
vt 2.578369617462158 0.7499843239784241
vt 2.578369617462158 0.516208291053772
vt 2.578369617462158 0.5014374852180481
vt 2.7762110233306885 0.7499843239784241
vt 2.7762110233306885 0.516208291053772
vt 3.2928647994995117 0.516208291053772
vt 3.2928647994995117 0.7499843239784241
vt 2.7762110233306885 0.5014374852180481
vt 3.2928647994995117 0.5014374852180481
vt -0.8219249248504639 0.7485847175121307
vt -0.29921358823776245 0.5141235291957855
vt -0.29921358823776245 0.7485847175121307
vt -0.8219249248504639 0.5141232907772064
vt 0.24813422560691833 0.5141237676143646
vt 0.24813422560691833 0.7485847175121307
vt 0.8069266676902771 0.5141240060329437
vt 0.8069266676902771 0.7485847175121307
vt 1.3349697589874268 0.5141242444515228
vt 1.3349685668945312 0.7485847175121307
vt -0.8219249248504639 0.5009491741657257
vt -0.29921358823776245 0.5009491741657257
vt 0.24813422560691833 0.5009491741657257
vt 0.8069266676902771 0.5009491741657257
vt 1.3349697589874268 0.5141242444515228
vt 1.328418493270874 0.5009491741657257
vt 1.3465487957000732 0.5009491741657257
vt 1.3349697589874268 0.5141242444515228
vt 1.829237461090088 0.5009491741657257
vt 1.3349697589874268 0.5141242444515228
vt 1.3349697589874268 0.5141242444515228
vt 1.8283690214157104 0.5141406655311584
vt 1.828368902206421 0.7485847175121307
vt 1.3349685668945312 0.7485847175121307
vt 1.8683743476867676 0.7485847175121307
vt 1.8683743476867676 0.5141420066356659
vt 2.0287928581237793 0.7485847175121307
vt 2.0287928581237793 0.5141475200653076
vt 2.0287928581237793 0.5009491741657257
vt 1.8683743476867676 0.5009491741657257
vt 2.0609283447265625 0.7485847175121307
vt 2.0609283447265625 0.514148622751236
vt 2.0609283447265625 0.5009491741657257
vt 2.3858530521392822 0.7485847175121307
vt 2.3858530521392822 0.514159768819809
vt 2.916362762451172 0.5141774117946625
vt 2.916362762451172 0.7485847175121307
vt 2.3858530521392822 0.5009491741657257
vt 2.916362762451172 0.5009491741657257
vt 1.829237461090088 0.5009491741657257
vt 0.24340754747390747 0.516208291053772
vt 0.660897970199585 0.5014374852180481
vt 0.19695860147476196 0.5014374852180481
vt 0.24340754747390747 0.516208291053772
vt 0.18462730944156647 0.5014374852180481
vt 0.1405174732208252 0.516208291053772
vt 1.179753065109253 0.5014374852180481

g bg_mdl_map_forestground01
s 1
usemtl bg_mdl_map_forestground01_0
f 3/3/3 2/2/2 1/1/1 
f 4/4/4 1/1/1 2/2/2 
f 7/7/7 6/6/6 5/5/5 
f 8/8/8 5/5/5 6/6/6 
f 11/11/11 10/10/10 9/9/9 
f 12/12/12 9/9/9 10/10/10 
f 10/10/10 11/11/11 13/13/13 
f 14/14/14 13/13/13 11/11/11 
f 17/17/17 16/16/16 15/15/15 
f 18/18/18 15/15/15 16/16/16 
f 21/21/21 20/20/20 19/19/19 
f 22/22/22 19/19/19 20/20/20 
f 25/25/25 24/24/24 23/23/23 
f 24/24/24 26/26/26 23/23/23 
f 26/26/26 27/27/27 23/23/23 
f 27/27/27 28/28/28 23/23/23 
f 28/28/28 29/29/29 23/23/23 
f 23/23/23 29/29/29 30/30/30 
f 25/25/25 31/31/31 24/24/24 
f 32/32/32 24/24/24 31/31/31 
f 24/24/24 32/32/32 26/26/26 
f 29/29/29 28/28/28 33/33/33 
f 33/33/33 28/28/28 34/34/34 
f 34/34/34 28/28/28 35/35/35 
f 35/35/35 28/28/28 36/36/36 
f 27/27/27 36/36/36 28/28/28 
f 27/27/27 26/26/26 36/36/36 
f 37/37/37 36/36/36 26/26/26 
f 37/37/37 26/26/26 32/32/32 
f 40/40/40 39/39/39 38/38/38 
f 41/41/41 38/38/38 39/39/39 
f 44/44/44 43/43/43 42/42/42 
f 45/45/45 42/42/42 43/43/43 
f 48/48/48 47/47/47 46/46/46 
f 47/47/47 49/49/49 46/46/46 
f 46/46/46 49/49/49 50/50/50 
f 51/51/51 47/47/47 48/48/48 
f 49/49/49 47/47/47 52/52/52 
f 51/51/51 52/52/52 47/47/47 
f 54/54/54 53/53/53 48/48/48 
f 57/57/57 56/56/56 55/55/55 
f 58/58/58 55/55/55 56/56/56 
f 61/61/61 60/60/60 59/59/59 
f 62/62/62 59/59/59 60/60/60 
f 65/65/65 64/64/64 63/63/63 
f 64/64/64 66/66/66 63/63/63 
f 63/63/63 66/66/66 67/67/67 
f 70/70/70 69/69/69 68/68/68 
f 71/71/71 68/68/68 69/69/69 
f 70/70/70 68/68/68 72/72/72 
f 73/73/73 72/72/72 68/68/68 
f 76/76/76 75/75/75 74/74/74 
f 75/75/75 77/77/77 74/74/74 
f 74/74/74 77/77/77 78/78/78 
f 79/79/79 76/76/76 74/74/74 
f 76/76/76 79/79/79 75/75/75 
f 80/80/80 79/79/79 74/74/74 
f 81/81/81 80/80/80 74/74/74 
f 77/77/77 75/75/75 82/82/82 
f 83/83/83 82/82/82 75/75/75 
f 83/83/83 75/75/75 79/79/79 
f 85/85/85 79/79/79 84/84/84 
f 88/88/88 87/87/87 86/86/86 
f 89/89/89 86/86/86 87/87/87 
f 92/92/92 91/91/91 90/90/90 
f 93/93/93 90/90/90 91/91/91 
f 96/96/96 95/95/95 94/94/94 
f 95/95/95 97/97/97 94/94/94 
f 94/94/94 97/97/97 98/98/98 
f 101/101/101 100/100/100 99/99/99 
f 102/102/102 99/99/99 100/100/100 
f 103/103/103 101/101/101 99/99/99 
f 104/104/104 101/101/101 103/103/103 
f 105/105/105 101/101/101 104/104/104 
f 108/108/108 107/107/107 106/106/106 
f 109/109/109 106/106/106 107/107/107 
f 110/110/110 108/108/108 106/106/106 
f 111/111/111 110/110/110 106/106/106 
f 112/112/112 111/111/111 106/106/106 
f 113/113/113 112/112/112 106/106/106 
f 114/114/114 108/108/108 110/110/110 
f 117/117/117 116/116/116 115/115/115 
f 115/115/115 116/116/116 118/118/118 
f 118/118/118 116/116/116 119/119/119 
f 115/115/115 118/118/118 120/120/120 
f 115/115/115 120/120/120 117/117/117 
f 121/121/121 120/120/120 118/118/118 
f 122/122/122 121/121/121 118/118/118 
f 123/123/123 117/117/117 120/120/120 
f 125/125/125 117/117/117 124/124/124 
f 128/128/128 127/127/127 126/126/126 
f 129/129/129 126/126/126 127/127/127 
f 128/128/128 126/126/126 130/130/130 
f 131/131/131 130/130/130 126/126/126 
f 134/134/134 133/133/133 132/132/132 
f 132/132/132 133/133/133 135/135/135 
f 135/135/135 133/133/133 136/136/136 
f 134/134/134 132/132/132 137/137/137 
f 138/138/138 134/134/134 137/137/137 
f 139/139/139 137/137/137 132/132/132 
f 139/139/139 132/132/132 140/140/140 
f 140/140/140 132/132/132 141/141/141 
f 135/135/135 142/142/142 132/132/132 
f 143/143/143 142/142/142 135/135/135 
f 146/146/146 145/145/145 144/144/144 
f 147/147/147 144/144/144 145/145/145 
f 146/146/146 144/144/144 148/148/148 
f 149/149/149 148/148/148 144/144/144 
f 152/152/152 151/151/151 150/150/150 
f 153/153/153 150/150/150 151/151/151 
f 156/156/156 155/155/155 154/154/154 
f 157/157/157 154/154/154 155/155/155 
f 160/160/160 159/159/159 158/158/158 
f 161/161/161 158/158/158 159/159/159 
f 159/159/159 160/160/160 162/162/162 
f 163/163/163 162/162/162 160/160/160 
f 162/162/162 163/163/163 164/164/164 
f 165/165/165 164/164/164 163/163/163 
f 159/159/159 166/166/166 161/161/161 
f 167/167/167 161/161/161 166/166/166 
f 170/170/170 169/169/169 168/168/168 
f 171/171/171 168/168/168 169/169/169 
f 174/174/174 173/173/173 172/172/172 
f 175/175/175 172/172/172 173/173/173 
f 178/178/178 177/177/177 176/176/176 
f 179/179/179 176/176/176 177/177/177 
f 182/182/182 181/181/181 180/180/180 
f 183/183/183 180/180/180 181/181/181 
f 186/186/186 185/185/185 184/184/184 
f 187/187/187 184/184/184 185/185/185 
f 190/190/190 189/189/189 188/188/188 
f 191/191/191 188/188/188 189/189/189 
f 194/194/194 193/193/193 192/192/192 
f 195/195/195 192/192/192 193/193/193 
f 193/193/193 194/194/194 196/196/196 
f 197/197/197 196/196/196 194/194/194 
f 200/200/200 199/199/199 198/198/198 
f 201/201/201 198/198/198 199/199/199 
f 204/204/204 203/203/203 202/202/202 
f 205/205/205 202/202/202 203/203/203 
f 208/208/208 207/207/207 206/206/206 
f 209/209/209 206/206/206 207/207/207 
f 212/212/212 211/211/211 210/210/210 
f 213/213/213 210/210/210 211/211/211 
f 216/216/216 215/215/215 214/214/214 
f 217/217/217 214/214/214 215/215/215 
f 215/215/215 218/218/218 217/217/217 
f 219/219/219 217/217/217 218/218/218 
f 217/217/217 219/219/219 220/220/220 
f 221/221/221 220/220/220 219/219/219 
f 220/220/220 221/221/221 222/222/222 
f 223/223/223 222/222/222 221/221/221 
f 218/218/218 215/215/215 224/224/224 
f 225/225/225 224/224/224 215/215/215 
f 218/218/218 224/224/224 226/226/226 
f 227/227/227 226/226/226 224/224/224 
f 219/219/219 218/218/218 228/228/228 
f 226/226/226 228/228/228 218/218/218 
f 221/221/221 219/219/219 229/229/229 
f 228/228/228 229/229/229 219/219/219 
f 223/223/223 221/221/221 230/230/230 
f 229/229/229 230/230/230 221/221/221 
f 233/233/233 232/232/232 231/231/231 
f 234/234/234 231/231/231 232/232/232 
f 237/237/237 236/236/236 235/235/235 
f 238/238/238 235/235/235 236/236/236 
f 241/241/241 240/240/240 239/239/239 
f 239/239/239 240/240/240 242/242/242 
f 242/242/242 240/240/240 243/243/243 
f 246/246/246 245/245/245 244/244/244 
f 247/247/247 244/244/244 245/245/245 
f 250/250/250 249/249/249 248/248/248 
f 251/251/251 248/248/248 249/249/249 
f 249/249/249 252/252/252 251/251/251 
f 253/253/253 251/251/251 252/252/252 
f 250/250/250 254/254/254 249/249/249 
f 255/255/255 249/249/249 254/254/254 
f 256/256/256 252/252/252 249/249/249 
f 257/257/257 256/256/256 249/249/249 
f 259/259/259 258/258/258 249/249/249 
f 258/258/258 260/260/260 249/249/249 
f 259/259/259 249/249/249 261/261/261 
f 264/264/264 263/263/263 262/262/262 
f 265/265/265 262/262/262 263/263/263 
f 268/268/268 267/267/267 266/266/266 
f 269/269/269 266/266/266 267/267/267 
f 272/272/272 271/271/271 270/270/270 
f 273/273/273 270/270/270 271/271/271 
f 271/271/271 272/272/272 274/274/274 
f 275/275/275 274/274/274 272/272/272 
f 278/278/278 277/277/277 276/276/276 
f 279/279/279 276/276/276 277/277/277 
f 282/282/282 281/281/281 280/280/280 
f 283/283/283 280/280/280 281/281/281 
f 286/286/286 285/285/285 284/284/284 
f 287/287/287 284/284/284 285/285/285 
f 290/290/290 289/289/289 288/288/288 

usemtl bg_mdl_map_forestground01_1
f 293/293/293 292/292/292 291/291/291 
f 294/294/294 291/291/291 292/292/292 
f 293/293/293 295/295/295 292/292/292 
f 296/296/296 292/292/292 295/295/295 
f 294/294/294 292/292/292 297/297/297 
f 298/298/298 297/297/297 292/292/292 
f 296/296/296 299/299/299 292/292/292 
f 298/298/298 292/292/292 299/299/299 
f 295/295/295 300/300/300 296/296/296 
f 301/301/301 296/296/296 300/300/300 
f 296/296/296 301/301/301 299/299/299 
f 300/300/300 302/302/302 301/301/301 
f 303/303/303 301/301/301 302/302/302 
f 302/302/302 304/304/304 303/303/303 
f 305/305/305 303/303/303 304/304/304 
f 304/304/304 306/306/306 305/305/305 
f 307/307/307 305/305/305 306/306/306 
f 305/305/305 307/307/307 308/308/308 
f 309/309/309 308/308/308 307/307/307 
f 308/308/308 310/310/310 305/305/305 
f 303/303/303 305/305/305 310/310/310 
f 310/310/310 311/311/311 303/303/303 
f 301/301/301 303/303/303 311/311/311 
f 311/311/311 299/299/299 301/301/301 
f 306/306/306 312/312/312 307/307/307 
f 313/313/313 307/307/307 312/312/312 
f 307/307/307 313/313/313 309/309/309 
f 312/312/312 314/314/314 313/313/313 
f 315/315/315 313/313/313 314/314/314 
f 313/313/313 315/315/315 316/316/316 
f 316/316/316 309/309/309 313/313/313 
f 317/317/317 316/316/316 315/315/315 
f 314/314/314 318/318/318 315/315/315 
f 319/319/319 315/315/315 318/318/318 
f 315/315/315 319/319/319 317/317/317 
f 318/318/318 320/320/320 319/319/319 
f 321/321/321 319/319/319 320/320/320 
f 322/322/322 317/317/317 319/319/319 
f 319/319/319 323/323/323 322/322/322 
f 324/324/324 322/322/322 323/323/323 
f 327/327/327 326/326/326 325/325/325 
f 328/328/328 325/325/325 326/326/326 
f 327/327/327 329/329/329 326/326/326 
f 330/330/330 326/326/326 329/329/329 
f 330/330/330 331/331/331 326/326/326 
f 325/325/325 328/328/328 332/332/332 
f 333/333/333 332/332/332 328/328/328 
f 329/329/329 334/334/334 330/330/330 
f 335/335/335 330/330/330 334/334/334 
f 334/334/334 336/336/336 335/335/335 
f 337/337/337 335/335/335 336/336/336 
f 335/335/335 338/338/338 330/330/330 
f 331/331/331 330/330/330 338/338/338 
f 338/338/338 335/335/335 339/339/339 
f 340/340/340 339/339/339 335/335/335 
f 342/342/342 326/326/326 341/341/341 
f 343/343/343 341/341/341 326/326/326 
f 343/343/343 326/326/326 344/344/344 
f 346/346/346 345/345/345 336/336/336 
f 345/345/345 346/346/346 347/347/347 
f 348/348/348 347/347/347 346/346/346 
f 349/349/349 336/336/336 345/345/345 
f 351/351/351 350/350/350 345/345/345 
f 352/352/352 345/345/345 350/350/350 
f 339/339/339 353/353/353 352/352/352 
f 345/345/345 352/352/352 353/353/353 
f 341/341/341 355/355/355 354/354/354 
f 356/356/356 354/354/354 355/355/355 
f 359/359/359 358/358/358 357/357/357 
f 360/360/360 357/357/357 358/358/358 
f 360/360/360 358/358/358 361/361/361 
f 362/362/362 361/361/361 358/358/358 
f 357/357/357 363/363/363 359/359/359 
f 364/364/364 359/359/359 363/363/363 
f 363/363/363 365/365/365 364/364/364 
f 366/366/366 364/364/364 365/365/365 
f 366/366/366 367/367/367 364/364/364 
f 368/368/368 364/364/364 367/367/367 
f 364/364/364 368/368/368 359/359/359 
f 365/365/365 369/369/369 366/366/366 
f 370/370/370 366/366/366 369/369/369 
f 366/366/366 370/370/370 367/367/367 
f 371/371/371 367/367/367 370/370/370 
f 369/369/369 372/372/372 370/370/370 
f 373/373/373 370/370/370 372/372/372 
f 370/370/370 373/373/373 371/371/371 
f 372/372/372 374/374/374 373/373/373 
f 375/375/375 373/373/373 374/374/374 
f 374/374/374 376/376/376 375/375/375 
f 377/377/377 375/375/375 376/376/376 
f 377/377/377 378/378/378 375/375/375 
f 379/379/379 375/375/375 378/378/378 
f 376/376/376 380/380/380 377/377/377 
f 378/378/378 377/377/377 381/381/381 
f 382/382/382 381/381/381 377/377/377 
f 382/382/382 377/377/377 383/383/383 
f 381/381/381 382/382/382 384/384/384 
f 385/385/385 384/384/384 382/382/382 
f 385/385/385 382/382/382 386/386/386 
f 387/387/387 386/386/386 382/382/382 
f 386/386/386 388/388/388 385/385/385 
f 389/389/389 385/385/385 388/388/388 
f 385/385/385 389/389/389 384/384/384 
f 389/389/389 388/388/388 390/390/390 
f 391/391/391 390/390/390 388/388/388 
f 391/391/391 392/392/392 390/390/390 
f 393/393/393 390/390/390 392/392/392 
f 389/389/389 390/390/390 394/394/394 
f 395/395/395 394/394/394 390/390/390 
f 393/393/393 396/396/396 390/390/390 
f 395/395/395 390/390/390 396/396/396 
f 394/394/394 397/397/397 389/389/389 
f 392/392/392 398/398/398 393/393/393 
f 399/399/399 393/393/393 398/398/398 
f 393/393/393 399/399/399 396/396/396 
f 398/398/398 400/400/400 399/399/399 
f 401/401/401 399/399/399 400/400/400 
f 399/399/399 401/401/401 402/402/402 
f 402/402/402 403/403/403 399/399/399 
f 404/404/404 402/402/402 401/401/401 
f 400/400/400 405/405/405 401/401/401 
f 406/406/406 401/401/401 405/405/405 
f 401/401/401 406/406/406 404/404/404 
f 407/407/407 404/404/404 406/406/406 
f 405/405/405 408/408/408 406/406/406 
f 409/409/409 406/406/406 408/408/408 
f 406/406/406 409/409/409 407/407/407 
f 409/409/409 408/408/408 410/410/410 
f 411/411/411 410/410/410 408/408/408 
f 409/409/409 410/410/410 412/412/412 
f 412/412/412 407/407/407 409/409/409 
f 413/413/413 412/412/412 410/410/410 
f 416/416/416 415/415/415 414/414/414 
f 417/417/417 414/414/414 415/415/415 
f 415/415/415 416/416/416 418/418/418 
f 419/419/419 418/418/418 416/416/416 
f 418/418/418 419/419/419 420/420/420 
f 421/421/421 420/420/420 419/419/419 
f 420/420/420 421/421/421 422/422/422 
f 423/423/423 422/422/422 421/421/421 
f 417/417/417 415/415/415 424/424/424 
f 425/425/425 424/424/424 415/415/415 
f 415/415/415 418/418/418 425/425/425 
f 426/426/426 425/425/425 418/418/418 
f 418/418/418 420/420/420 426/426/426 
f 427/427/427 426/426/426 420/420/420 
f 420/420/420 422/422/422 427/427/427 
f 429/429/429 427/427/427 428/428/428 
f 431/431/431 430/430/430 429/429/429 
f 430/430/430 433/433/433 432/432/432 
f 435/435/435 432/432/432 434/434/434 
f 435/435/435 434/434/434 436/436/436 
f 437/437/437 436/436/436 434/434/434 
f 436/436/436 438/438/438 435/435/435 
f 439/439/439 435/435/435 438/438/438 
f 435/435/435 439/439/439 432/432/432 
f 438/438/438 440/440/440 439/439/439 
f 441/441/441 439/439/439 440/440/440 
f 441/441/441 442/442/442 439/439/439 
f 443/443/443 439/439/439 442/442/442 
f 440/440/440 444/444/444 441/441/441 
f 445/445/445 441/441/441 444/444/444 
f 441/441/441 445/445/445 442/442/442 
f 446/446/446 442/442/442 445/445/445 
f 444/444/444 447/447/447 445/445/445 
f 448/448/448 445/445/445 447/447/447 
f 445/445/445 448/448/448 446/446/446 
f 448/448/448 447/447/447 449/449/449 
f 450/450/450 449/449/449 447/447/447 
f 448/448/448 449/449/449 451/451/451 
f 451/451/451 446/446/446 448/448/448 
f 452/452/452 451/451/451 449/449/449 
f 443/443/443 453/453/453 439/439/439 
f 359/359/359 455/455/455 454/454/454 
f 456/456/456 454/454/454 455/455/455 
f 455/455/455 359/359/359 368/368/368 
f 456/456/456 458/458/458 457/457/457 
f 459/459/459 457/457/457 458/458/458 
f 379/379/379 460/460/460 375/375/375 
f 373/373/373 375/375/375 460/460/460 
f 460/460/460 371/371/371 373/373/373 

