v 3.1581780910491943 2.995924711227417 0.7207093834877014
v 3.180070161819458 3.0501489639282227 0.0
v 3.2018587589263916 3.0124096870422363 0.0
v 3.1396210193634033 3.028066873550415 0.7207093834877014
v 3.1364922523498535 3.0501489639282227 0.0
v 3.102506637573242 3.028066873550415 0.7207093834877014
v 3.1396210193634033 2.963782787322998 0.7207093834877014
v 3.180070161819458 2.974669933319092 0.0
v 3.1199357509613037 3.028066873550415 1.24460768699646
v 3.138493061065674 2.995924711227417 1.24460768699646
v 3.0828216075897217 3.028066873550415 1.24460768699646
v 3.1199357509613037 2.963782787322998 1.24460768699646
v 3.114199161529541 3.0336642265319824 1.4414187669754028
v 3.1359877586364746 2.995924711227417 1.4414187669754028
v 3.0706212520599365 3.0336642265319824 1.4414187669754028
v 3.114199161529541 2.9581854343414307 1.4414187669754028
v 3.102506637573242 3.028066873550415 0.7207093834877014
v 3.114703416824341 3.0124096870422363 0.0
v 3.1364922523498535 3.0501489639282227 0.0
v 3.083949565887451 2.995924711227417 0.7207093834877014
v 3.1364922523498535 2.974669933319092 0.0
v 3.102506637573242 2.963782787322998 0.7207093834877014
v 3.180070161819458 2.974669933319092 0.0
v 3.1396210193634033 2.963782787322998 0.7207093834877014
v 3.0642640590667725 2.995924711227417 1.24460768699646
v 3.0828216075897217 3.028066873550415 1.24460768699646
v 3.0828216075897217 2.963782787322998 1.24460768699646
v 3.1199357509613037 2.963782787322998 1.24460768699646
v 3.048832416534424 2.995924711227417 1.4414187669754028
v 3.0706212520599365 3.0336642265319824 1.4414187669754028
v 3.0706212520599365 2.9581854343414307 1.4414187669754028
v 3.114199161529541 2.9581854343414307 1.4414187669754028
v 3.0706212520599365 2.9581854343414307 1.4414187669754028
v 3.1359877586364746 2.995924711227417 1.4414187669754028
v 3.114199161529541 2.9581854343414307 1.4414187669754028
v 3.048832416534424 2.995924711227417 1.4414187669754028
v 3.114199161529541 3.0336642265319824 1.4414187669754028
v 3.0706212520599365 3.0336642265319824 1.4414187669754028
v 1.4622602462768555 2.911088228225708 2.4833133220672607
v 1.4999996423721313 3.2461888790130615 0.0
v 1.4999996423721313 2.9328770637512207 2.4833133220672607
v 1.4622602462768555 3.224400043487549 0.0
v 1.5377390384674072 2.911088228225708 2.4833133220672607
v 1.5377390384674072 3.224400043487549 0.0
v 1.5377390384674072 2.8675105571746826 2.4833133220672607
v 1.5377390384674072 3.1808226108551025 0.0
v 1.4999996423721313 2.84572172164917 2.4833133220672607
v 1.4999996423721313 3.15903377532959 0.0
v 1.4622602462768555 2.8675105571746826 2.4833133220672607
v 1.4622602462768555 3.1808226108551025 0.0
v 1.4622602462768555 2.911088228225708 2.4833133220672607
v 1.4622602462768555 3.1808226108551025 0.0
v 1.4622602462768555 3.224400043487549 0.0
v 1.4622602462768555 2.8675105571746826 2.4833133220672607
v 1.4622602462768555 2.911088228225708 2.4833133220672607
v 1.4999996423721313 2.84572172164917 2.4833133220672607
v 1.4622602462768555 2.8675105571746826 2.4833133220672607
v 1.5377390384674072 2.911088228225708 2.4833133220672607
v 1.5377390384674072 2.8675105571746826 2.4833133220672607
v 1.4999996423721313 2.9328770637512207 2.4833133220672607
v -0.1461338847875595 2.995924711227417 0.7207093834877014
v -0.1680256575345993 3.0501489639282227 0.0
v -0.12757675349712372 3.028066873550415 0.7207093834877014
v -0.18981459736824036 3.0124096870422363 0.0
v -0.1244477853178978 3.0501489639282227 0.0
v -0.09046218544244766 3.028066873550415 0.7207093834877014
v -0.12757675349712372 2.963782787322998 0.7207093834877014
v -0.1680256575345993 2.974669933319092 0.0
v -0.10789138823747635 3.028066873550415 1.24460768699646
v -0.12644851207733154 2.995924711227417 1.24460768699646
v -0.07077712565660477 3.028066873550415 1.24460768699646
v -0.10789138823747635 2.963782787322998 1.24460768699646
v -0.1021546944975853 3.0336642265319824 1.4414187669754028
v -0.12394363433122635 2.995924711227417 1.4414187669754028
v -0.058576811105012894 3.0336642265319824 1.4414187669754028
v -0.1021546944975853 2.9581854343414307 1.4414187669754028
v -0.09046218544244766 3.028066873550415 0.7207093834877014
v -0.10265883803367615 3.0124096870422363 0.0
v -0.07190506160259247 2.995924711227417 0.7207093834877014
v -0.1244477853178978 3.0501489639282227 0.0
v -0.1244477853178978 2.974669933319092 0.0
v -0.09046218544244766 2.963782787322998 0.7207093834877014
v -0.1680256575345993 2.974669933319092 0.0
v -0.12757675349712372 2.963782787322998 0.7207093834877014
v -0.05222000181674957 2.995924711227417 1.24460768699646
v -0.07077712565660477 3.028066873550415 1.24460768699646
v -0.07077712565660477 2.963782787322998 1.24460768699646
v -0.10789138823747635 2.963782787322998 1.24460768699646
v -0.03678787127137184 2.995924711227417 1.4414187669754028
v -0.058576811105012894 3.0336642265319824 1.4414187669754028
v -0.058576811105012894 2.9581854343414307 1.4414187669754028
v -0.1021546944975853 2.9581854343414307 1.4414187669754028
v -0.12394363433122635 2.995924711227417 1.4414187669754028
v -0.058576811105012894 2.9581854343414307 1.4414187669754028
v -0.1021546944975853 2.9581854343414307 1.4414187669754028
v -0.03678787127137184 2.995924711227417 1.4414187669754028
v -0.058576811105012894 3.0336642265319824 1.4414187669754028
v -0.1021546944975853 3.0336642265319824 1.4414187669754028
v 3.1581780910491943 0.004075164906680584 0.7207093834877014
v 3.180070161819458 -0.05014907568693161 0.0
v 3.1396210193634033 -0.028066864237189293 0.7207093834877014
v 3.2018587589263916 -0.012409667484462261 0.0
v 3.1364922523498535 -0.05014907568693161 0.0
v 3.102506637573242 -0.028066864237189293 0.7207093834877014
v 3.1396210193634033 0.03621719405055046 0.7207093834877014
v 3.180070161819458 0.025329895317554474 0.0
v 3.1199357509613037 -0.028066864237189293 1.24460768699646
v 3.138493061065674 0.004075164906680584 1.24460768699646
v 3.0828216075897217 -0.028066864237189293 1.24460768699646
v 3.1199357509613037 0.03621719405055046 1.24460768699646
v 3.114199161529541 -0.033664245158433914 1.4414187669754028
v 3.1359877586364746 0.004075164906680584 1.4414187669754028
v 3.0706212520599365 -0.033664245158433914 1.4414187669754028
v 3.114199161529541 0.04181457310914993 1.4414187669754028
v 3.102506637573242 -0.028066864237189293 0.7207093834877014
v 3.114703416824341 -0.012409514747560024 0.0
v 3.083949565887451 0.004075164906680584 0.7207093834877014
v 3.1364922523498535 -0.05014907568693161 0.0
v 3.1364922523498535 0.025329895317554474 0.0
v 3.102506637573242 0.03621719405055046 0.7207093834877014
v 3.180070161819458 0.025329895317554474 0.0
v 3.1396210193634033 0.03621719405055046 0.7207093834877014
v 3.0642640590667725 0.004075164906680584 1.24460768699646
v 3.0828216075897217 -0.028066864237189293 1.24460768699646
v 3.0828216075897217 0.03621719405055046 1.24460768699646
v 3.1199357509613037 0.03621719405055046 1.24460768699646
v 3.048832416534424 0.004075164906680584 1.4414187669754028
v 3.0706212520599365 -0.033664245158433914 1.4414187669754028
v 3.0706212520599365 0.04181457310914993 1.4414187669754028
v 3.114199161529541 0.04181457310914993 1.4414187669754028
v 3.0706212520599365 -0.033664245158433914 1.4414187669754028
v 3.1359877586364746 0.004075164906680584 1.4414187669754028
v 3.114199161529541 -0.033664245158433914 1.4414187669754028
v 3.048832416534424 0.004075164906680584 1.4414187669754028
v 3.114199161529541 0.04181457310914993 1.4414187669754028
v 3.0706212520599365 0.04181457310914993 1.4414187669754028
v 1.4622602462768555 0.0889117419719696 2.4833133220672607
v 1.4999996423721313 -0.24618911743164062 0.0
v 1.4622602462768555 -0.22440017759799957 0.0
v 1.4999996423721313 0.06712280213832855 2.4833133220672607
v 1.5377390384674072 0.0889117419719696 2.4833133220672607
v 1.5377390384674072 -0.22440017759799957 0.0
v 1.5377390384674072 0.13248930871486664 2.4833133220672607
v 1.5377390384674072 -0.18082259595394135 0.0
v 1.4999996423721313 0.1542782485485077 2.4833133220672607
v 1.4999996423721313 -0.1590336561203003 0.0
v 1.4622602462768555 0.13248930871486664 2.4833133220672607
v 1.4622602462768555 -0.18082259595394135 0.0
v 1.4622602462768555 0.0889117419719696 2.4833133220672607
v 1.4622602462768555 -0.18082259595394135 0.0
v 1.4622602462768555 0.13248930871486664 2.4833133220672607
v 1.4622602462768555 -0.22440017759799957 0.0
v 1.5377390384674072 0.0889117419719696 2.4833133220672607
v 1.4999996423721313 0.1542782485485077 2.4833133220672607
v 1.5377390384674072 0.13248930871486664 2.4833133220672607
v 1.4622602462768555 0.0889117419719696 2.4833133220672607
v 1.4622602462768555 0.13248930871486664 2.4833133220672607
v 1.4999996423721313 0.06712280213832855 2.4833133220672607
v -0.1461338847875595 0.004075164906680584 0.7207093834877014
v -0.1680256575345993 -0.05014907568693161 0.0
v -0.18981459736824036 -0.012409667484462261 0.0
v -0.12757675349712372 -0.028066864237189293 0.7207093834877014
v -0.1244477853178978 -0.05014907568693161 0.0
v -0.09046218544244766 -0.028066864237189293 0.7207093834877014
v -0.12757675349712372 0.03621719405055046 0.7207093834877014
v -0.1680256575345993 0.025329895317554474 0.0
v -0.10789138823747635 -0.028066864237189293 1.24460768699646
v -0.12644851207733154 0.004075164906680584 1.24460768699646
v -0.07077712565660477 -0.028066864237189293 1.24460768699646
v -0.10789138823747635 0.03621719405055046 1.24460768699646
v -0.1021546944975853 -0.033664245158433914 1.4414187669754028
v -0.12394363433122635 0.004075164906680584 1.4414187669754028
v -0.058576811105012894 -0.033664245158433914 1.4414187669754028
v -0.1021546944975853 0.04181457310914993 1.4414187669754028
v -0.09046218544244766 -0.028066864237189293 0.7207093834877014
v -0.10265883803367615 -0.012409514747560024 0.0
v -0.1244477853178978 -0.05014907568693161 0.0
v -0.07190506160259247 0.004075164906680584 0.7207093834877014
v -0.1244477853178978 0.025329895317554474 0.0
v -0.09046218544244766 0.03621719405055046 0.7207093834877014
v -0.1680256575345993 0.025329895317554474 0.0
v -0.12757675349712372 0.03621719405055046 0.7207093834877014
v -0.05222000181674957 0.004075164906680584 1.24460768699646
v -0.07077712565660477 -0.028066864237189293 1.24460768699646
v -0.07077712565660477 0.03621719405055046 1.24460768699646
v -0.10789138823747635 0.03621719405055046 1.24460768699646
v -0.03678787127137184 0.004075164906680584 1.4414187669754028
v -0.058576811105012894 -0.033664245158433914 1.4414187669754028
v -0.058576811105012894 0.04181457310914993 1.4414187669754028
v -0.1021546944975853 0.04181457310914993 1.4414187669754028
v -0.12394363433122635 0.004075164906680584 1.4414187669754028
v -0.058576811105012894 -0.033664245158433914 1.4414187669754028
v -0.1021546944975853 -0.033664245158433914 1.4414187669754028
v -0.03678787127137184 0.004075164906680584 1.4414187669754028
v -0.058576811105012894 0.04181457310914993 1.4414187669754028
v -0.1021546944975853 0.04181457310914993 1.4414187669754028
v 1.5 2.7702696323394775 2.2357213497161865
v 1.5637459754943848 2.2609267234802246 1.8737901449203491
v 1.5 2.2078163623809814 1.8936339616775513
v 1.6084498167037964 2.9444851875305176 2.230330467224121
v 1.5613046884536743 1.5 1.7235206365585327
v 2.8506033420562744 2.251429319381714 1.1999999284744263
v 2.800466537475586 1.5 1.1999999284744263
v 1.5 1.5 1.7507730722427368
v 2.177929162979126 2.999999523162842 1.7669494152069092
v 3.0 3.0 1.1999999284744263
v 1.5 2.983447313308716 1.5415400266647339
v 1.5717391967773438 2.922680616378784 1.1999999284744263
v 2.177929162979126 2.999999523162842 1.7669494152069092
v 1.6084498167037964 2.9444851875305176 2.230330467224121
v 1.5 3.0248711109161377 2.2057814598083496
v 2.48427677154541 2.972081184387207 1.1999999284744263
v 3.0 3.0 1.1999999284744263
v 2.8506033420562744 2.251429319381714 1.1999999284744263
v 2.800466537475586 1.5 0.0
v 2.800466537475586 1.5 1.1999999284744263
v 2.8506033420562744 2.251429319381714 0.0
v 3.0 3.0 1.1999999284744263
v 2.8506033420562744 2.251429319381714 0.0
v 2.8506033420562744 2.251429319381714 1.1999999284744263
v 3.0 3.0 0.0
v 2.48427677154541 2.972081184387207 1.1999999284744263
v 3.0 3.0 0.0
v 3.0 3.0 1.1999999284744263
v 2.48427677154541 2.972081184387207 0.0
v 1.7941257953643799 2.867966651916504 1.529889702796936
v 1.5 2.8540070056915283 0.6788864135742188
v 1.806121587753296 2.867966651916504 0.6788864135742188
v 1.5 2.8540070056915283 1.5999999046325684
v 1.9189414978027344 2.867966651916504 0.0
v 1.624820351600647 2.8540070056915283 0.0
v 2.077714443206787 2.874946117401123 1.4544025659561157
v 1.806121587753296 2.867966651916504 0.6788864135742188
v 2.0737931728363037 2.874946117401123 0.6788864135742188
v 1.7941257953643799 2.867966651916504 1.529889702796936
v 2.159942150115967 2.874946117401123 0.0
v 1.9189414978027344 2.867966651916504 0.0
v 2.077714443206787 2.874946117401123 1.4544025659561157
v 2.0737931728363037 2.874946117401123 0.6788864135742188
v 2.7543013095855713 2.8819258213043213 1.2406944036483765
v 2.7543013095855713 2.8819258213043213 0.0
v 2.7543013095855713 2.8819258213043213 0.0
v 2.0737931728363037 2.874946117401123 0.6788864135742188
v 2.159942150115967 2.874946117401123 0.0
v 1.5 2.7702696323394775 2.2357213497161865
v 1.5 3.0248711109161377 2.2057814598083496
v 1.6084498167037964 2.9444851875305176 2.230330467224121
v 1.5 2.7702696323394775 2.2357213497161865
v 1.4362539052963257 2.2609267234802246 1.8737901449203491
v 1.391550064086914 2.9444851875305176 2.230330467224121
v 1.5 2.2078163623809814 1.8936339616775513
v 1.4386951923370361 1.5 1.7235206365585327
v 0.14939665794372559 2.251429319381714 1.1999999284744263
v 0.1995333880186081 1.5 1.1999999284744263
v 1.5 1.5 1.7507730722427368
v 0.8220707774162292 2.999999523162842 1.7669494152069092
v -0.0 3.0 1.1999999284744263
v 1.5 2.983447313308716 1.5415400266647339
v 0.8220707774162292 2.999999523162842 1.7669494152069092
v 1.4282608032226562 2.922680616378784 1.1999999284744263
v 1.391550064086914 2.9444851875305176 2.230330467224121
v 1.5 3.0248711109161377 2.2057814598083496
v 0.5157232284545898 2.972081184387207 1.1999999284744263
v -0.0 3.0 1.1999999284744263
v 0.14939665794372559 2.251429319381714 1.1999999284744263
v 0.1995333880186081 1.5 0.0
v 0.14939665794372559 2.251429319381714 0.0
v 0.1995333880186081 1.5 1.1999999284744263
v -0.0 3.0 1.1999999284744263
v 0.14939665794372559 2.251429319381714 0.0
v -0.0 3.0 0.0
v 0.14939665794372559 2.251429319381714 1.1999999284744263
v 0.5157232284545898 2.972081184387207 1.1999999284744263
v -0.0 3.0 0.0
v 0.5157232284545898 2.972081184387207 0.0
v -0.0 3.0 1.1999999284744263
v 1.2058742046356201 2.867966651916504 1.529889702796936
v 1.5 2.8540070056915283 0.6788864135742188
v 1.5 2.8540070056915283 1.5999999046325684
v 1.1938782930374146 2.867966651916504 0.6788864135742188
v 1.0810585021972656 2.867966651916504 0.0
v 1.3751795291900635 2.8540070056915283 0.0
v 0.9222853779792786 2.874946117401123 1.4544025659561157
v 1.1938782930374146 2.867966651916504 0.6788864135742188
v 1.2058742046356201 2.867966651916504 1.529889702796936
v 0.926206648349762 2.874946117401123 0.6788864135742188
v 0.8400577902793884 2.874946117401123 0.0
v 1.0810585021972656 2.867966651916504 0.0
v 0.9222853779792786 2.874946117401123 1.4544025659561157
v 0.24569854140281677 2.8819258213043213 1.2406944036483765
v 0.926206648349762 2.874946117401123 0.6788864135742188
v 0.24569854140281677 2.8819258213043213 0.0
v 0.24569854140281677 2.8819258213043213 0.0
v 0.8400577902793884 2.874946117401123 0.0
v 0.926206648349762 2.874946117401123 0.6788864135742188
v 1.5 2.7702696323394775 2.2357213497161865
v 1.391550064086914 2.9444851875305176 2.230330467224121
v 1.5 3.0248711109161377 2.2057814598083496
v 3.0722832679748535 2.9975697994232178 1.3076940774917603
v 2.300584316253662 2.9354028701782227 1.773168921470642
v 2.300584316253662 2.9545180797576904 1.773168921470642
v 3.0722832679748535 2.97845458984375 1.3076940774917603
v 2.300584316253662 2.9545180797576904 1.773168921470642
v 1.5288853645324707 2.892350912094116 2.449481248855591
v 1.5288853645324707 2.911466598510742 2.449481248855591
v 2.300584316253662 2.9354028701782227 1.773168921470642
v 1.5229575634002686 2.8039941787719727 2.219428539276123
v 1.5017958879470825 2.8492205142974854 2.2821216583251953
v 1.520259976387024 2.854167938232422 2.2821216583251953
v 1.5044934749603271 2.799046516418457 2.219428539276123
v 1.499098300933838 2.89082932472229 2.4551515579223633
v 1.5175623893737793 2.8957765102386475 2.4551515579223633
v 1.4515024423599243 2.848160743713379 2.219428539276123
v 1.464772343635559 2.874452829360962 2.2821216583251953
v 1.477059245109558 2.859809398651123 2.2821216583251953
v 1.4392153024673462 2.8628039360046387 2.219428539276123
v 1.5013424158096313 2.894482135772705 2.4551515579223633
v 1.51362943649292 2.879838705062866 2.4551515579223633
v -0.0602387972176075 2.9975697994232178 1.3076940774917603
v 0.7114601135253906 2.9354028701782227 1.773168921470642
v -0.0602387972176075 2.97845458984375 1.3076940774917603
v 0.7114601135253906 2.9545180797576904 1.773168921470642
v 0.7114601135253906 2.9545180797576904 1.773168921470642
v 1.4831589460372925 2.892350912094116 2.449481248855591
v 0.7114601135253906 2.9354028701782227 1.773168921470642
v 1.4831589460372925 2.911466598510742 2.449481248855591
v 1.5 0.22973021864891052 2.2357213497161865
v 1.5637459754943848 0.7390733361244202 1.8737901449203491
v 1.6084498167037964 0.055514831095933914 2.230330467224121
v 1.5 0.7921836972236633 1.8936339616775513
v 1.5613046884536743 1.5 1.7235206365585327
v 2.8506033420562744 0.7485705614089966 1.1999999284744263
v 2.800466537475586 1.5 1.1999999284744263
v 1.5 1.5 1.7507730722427368
v 2.177929162979126 3.0517577442878974e-07 1.7669494152069092
v 3.0 0.0 1.1999999284744263
v 1.5 0.01655273325741291 1.5415400266647339
v 2.177929162979126 3.0517577442878974e-07 1.7669494152069092
v 1.5717391967773438 0.07731948792934418 1.1999999284744263
v 1.6084498167037964 0.055514831095933914 2.230330467224121
v 1.5 -0.02487136796116829 2.2057814598083496
v 2.48427677154541 0.027918852865695953 1.1999999284744263
v 3.0 0.0 1.1999999284744263
v 2.8506033420562744 0.7485705614089966 1.1999999284744263
v 2.800466537475586 1.5 0.0
v 2.8506033420562744 0.7485705614089966 0.0
v 2.800466537475586 1.5 1.1999999284744263
v 3.0 0.0 1.1999999284744263
v 2.8506033420562744 0.7485705614089966 0.0
v 3.0 0.0 0.0
v 2.8506033420562744 0.7485705614089966 1.1999999284744263
v 2.48427677154541 0.027918852865695953 1.1999999284744263
v 3.0 0.0 0.0
v 2.48427677154541 0.027918852865695953 0.0
v 3.0 0.0 1.1999999284744263
v 1.7941257953643799 0.13203337788581848 1.529889702796936
v 1.5 0.14599303901195526 0.6788864135742188
v 1.5 0.14599303901195526 1.5999999046325684
v 1.806121587753296 0.13203337788581848 0.6788864135742188
v 1.9189414978027344 0.13203337788581848 0.0
v 1.624820351600647 0.14599289000034332 0.0
v 2.077714443206787 0.12505370378494263 1.4544025659561157
v 1.806121587753296 0.13203337788581848 0.6788864135742188
v 1.7941257953643799 0.13203337788581848 1.529889702796936
v 2.0737931728363037 0.12505370378494263 0.6788864135742188
v 2.159942150115967 0.12505370378494263 0.0
v 1.9189414978027344 0.13203337788581848 0.0
v 2.077714443206787 0.12505370378494263 1.4544025659561157
v 2.7543013095855713 0.11807402968406677 1.2406944036483765
v 2.0737931728363037 0.12505370378494263 0.6788864135742188
v 2.7543013095855713 0.11807402968406677 0.0
v 2.7543013095855713 0.11807402968406677 0.0
v 2.159942150115967 0.12505370378494263 0.0
v 2.0737931728363037 0.12505370378494263 0.6788864135742188
v 1.5 0.22973021864891052 2.2357213497161865
v 1.6084498167037964 0.055514831095933914 2.230330467224121
v 1.5 -0.02487136796116829 2.2057814598083496
v 1.5 0.22973021864891052 2.2357213497161865
v 1.4362539052963257 0.7390733361244202 1.8737901449203491
v 1.5 0.7921836972236633 1.8936339616775513
v 1.391550064086914 0.055514831095933914 2.230330467224121
v 1.4386951923370361 1.5 1.7235206365585327
v 0.14939665794372559 0.7485705614089966 1.1999999284744263
v 0.1995333880186081 1.5 1.1999999284744263
v 1.5 1.5 1.7507730722427368
v 0.8220707774162292 3.0517577442878974e-07 1.7669494152069092
v -0.0 0.0 1.1999999284744263
v 1.5 0.01655273325741291 1.5415400266647339
v 1.4282608032226562 0.07731948792934418 1.1999999284744263
v 0.8220707774162292 3.0517577442878974e-07 1.7669494152069092
v 1.391550064086914 0.055514831095933914 2.230330467224121
v 1.5 -0.02487136796116829 2.2057814598083496
v 0.5157232284545898 0.027918852865695953 1.1999999284744263
v -0.0 0.0 1.1999999284744263
v 0.14939665794372559 0.7485705614089966 1.1999999284744263
v 0.1995333880186081 1.5 0.0
v 0.1995333880186081 1.5 1.1999999284744263
v 0.14939665794372559 0.7485705614089966 0.0
v -0.0 0.0 1.1999999284744263
v 0.14939665794372559 0.7485705614089966 0.0
v 0.14939665794372559 0.7485705614089966 1.1999999284744263
v -0.0 0.0 0.0
v 0.5157232284545898 0.027918852865695953 1.1999999284744263
v -0.0 0.0 0.0
v -0.0 0.0 1.1999999284744263
v 0.5157232284545898 0.027918852865695953 0.0
v 1.2058742046356201 0.13203337788581848 1.529889702796936
v 1.5 0.14599303901195526 0.6788864135742188
v 1.1938782930374146 0.13203337788581848 0.6788864135742188
v 1.5 0.14599303901195526 1.5999999046325684
v 1.0810585021972656 0.13203337788581848 0.0
v 1.3751795291900635 0.14599289000034332 0.0
v 0.9222853779792786 0.12505370378494263 1.4544025659561157
v 1.1938782930374146 0.13203337788581848 0.6788864135742188
v 0.926206648349762 0.12505370378494263 0.6788864135742188
v 1.2058742046356201 0.13203337788581848 1.529889702796936
v 0.8400577902793884 0.12505370378494263 0.0
v 1.0810585021972656 0.13203337788581848 0.0
v 0.9222853779792786 0.12505370378494263 1.4544025659561157
v 0.926206648349762 0.12505370378494263 0.6788864135742188
v 0.24569854140281677 0.11807402968406677 1.2406944036483765
v 0.24569854140281677 0.11807402968406677 0.0
v 0.24569854140281677 0.11807402968406677 0.0
v 0.926206648349762 0.12505370378494263 0.6788864135742188
v 0.8400577902793884 0.12505370378494263 0.0
v 1.5 0.22973021864891052 2.2357213497161865
v 1.5 -0.02487136796116829 2.2057814598083496
v 1.391550064086914 0.055514831095933914 2.230330467224121
v 3.0722832679748535 0.0024301146622747183 1.3076940774917603
v 2.300584316253662 0.06459716707468033 1.773168921470642
v 3.0722832679748535 0.021545562893152237 1.3076940774917603
v 2.300584316253662 0.04548187181353569 1.773168921470642
v 2.300584316253662 0.04548187181353569 1.773168921470642
v 1.5288853645324707 0.10764876753091812 2.449481248855591
v 2.300584316253662 0.06459716707468033 1.773168921470642
v 1.5288853645324707 0.08853347599506378 2.449481248855591
v 1.5229575634002686 0.19600585103034973 2.219428539276123
v 1.5017958879470825 0.15077926218509674 2.2821216583251953
v 1.5044934749603271 0.20095336437225342 2.219428539276123
v 1.520259976387024 0.1458319127559662 2.2821216583251953
v 1.499098300933838 0.10917068272829056 2.4551515579223633
v 1.5175623893737793 0.1042233258485794 2.4551515579223633
v 1.4515024423599243 0.15183928608894348 2.219428539276123
v 1.464772343635559 0.12554717063903809 2.2821216583251953
v 1.4392153024673462 0.13719604909420013 2.219428539276123
v 1.477059245109558 0.14019042253494263 2.2821216583251953
v 1.5013424158096313 0.10551787912845612 2.4551515579223633
v 1.51362943649292 0.12016097456216812 2.4551515579223633
v -0.0602387972176075 0.0024301146622747183 1.3076940774917603
v 0.7114601135253906 0.06459716707468033 1.773168921470642
v 0.7114601135253906 0.04548187181353569 1.773168921470642
v -0.0602387972176075 0.021545562893152237 1.3076940774917603
v 0.7114601135253906 0.04548187181353569 1.773168921470642
v 1.4831589460372925 0.10764876753091812 2.449481248855591
v 1.4831589460372925 0.08853347599506378 2.449481248855591
v 0.7114601135253906 0.06459716707468033 1.773168921470642
vn 0.9987857937812805 -0.0037947366945445538 0.049118321388959885
vn 0.5081388354301453 0.8595265746116638 0.05485411733388901
vn 0.9981338381767273 0.0070552099496126175 0.06065647676587105
vn 0.4993065893650055 0.8656414747238159 0.036848291754722595
vn -0.4844769239425659 0.8747950792312622 0.003957081586122513
vn -0.5031698346138 0.8641480207443237 -0.008273513056337833
vn 0.496521532535553 -0.8678669929504395 0.016529424116015434
vn 0.5152093768119812 -0.8569154739379883 0.015971003100275993
vn 0.5009227991104126 0.865480363368988 0.004464051686227322
vn 0.9996814727783203 -4.015090780740138e-06 0.025239598006010056
vn -0.498410701751709 0.8661385178565979 -0.03729477524757385
vn 0.5009196400642395 -0.8654822707176208 0.004463525488972664
vn 0.48911625146865845 0.8721547722816467 -0.010546840727329254
vn 0.999919056892395 -2.0509814930846915e-06 0.012727395631372929
vn -0.5097422003746033 0.8585017919540405 -0.05601436644792557
vn 0.4891146719455719 -0.8721556663513184 -0.010548281483352184
vn -0.5031698346138 0.8641480207443237 -0.008273513056337833
vn -0.9990705847740173 0.007414994295686483 -0.042462561279535294
vn -0.4844769239425659 0.8747950792312622 0.003957081586122513
vn -0.9991878867149353 -0.0035206659231334925 -0.04013807699084282
vn -0.4903235137462616 -0.8707852959632874 -0.03627585619688034
vn -0.4997100532054901 -0.8657519221305847 -0.027632419019937515
vn 0.5152093768119812 -0.8569154739379883 0.015971003100275993
vn 0.496521532535553 -0.8678669929504395 0.016529424116015434
vn -0.9983021020889282 -3.927908437617589e-06 -0.05824879929423332
vn -0.498410701751709 0.8661385178565979 -0.03729477524757385
vn -0.49840694665908813 -0.866140604019165 -0.037295516580343246
vn 0.5009196400642395 -0.8654822707176208 0.004463525488972664
vn -0.9969401359558105 -1.6612901845292072e-06 -0.07816953212022781
vn -0.5097422003746033 0.8585017919540405 -0.05601436644792557
vn -0.5097402334213257 -0.8585029244422913 -0.0560150220990181
vn 0.4891146719455719 -0.8721556663513184 -0.010548281483352184
vn -0.0 0.0 1.0
vn -0.0 0.0 1.0
vn -0.0 0.0 1.0
vn -0.0 0.0 1.0
vn -0.0 0.0 1.0
vn -0.0 0.0 1.0
vn -0.881725549697876 0.4680521786212921 0.059052664786577225
vn -0.0 0.9921348094940186 0.12517450749874115
vn -0.0 0.9921348094940186 0.12517450749874115
vn -0.8468783497810364 0.5276039242744446 0.0665661096572876
vn 0.8817256093025208 0.46805205941200256 0.05905264988541603
vn 0.8468778729438782 0.5276048183441162 0.06656622886657715
vn 0.8468778729438782 -0.5276047587394714 -0.06656627357006073
vn 0.8817260265350342 -0.4680514931678772 -0.05905263125896454
vn 2.2772867680487252e-07 -0.992134690284729 -0.1251746118068695
vn 4.4155828504699457e-07 -0.992134690284729 -0.1251745969057083
vn -0.8468786478042603 -0.5276036262512207 -0.06656614691019058
vn -0.8817257285118103 -0.4680519104003906 -0.05905268341302872
vn -0.881725549697876 0.4680521786212921 0.059052664786577225
vn -0.8817257285118103 -0.4680519104003906 -0.05905268341302872
vn -0.8468783497810364 0.5276039242744446 0.0665661096572876
vn -0.8468786478042603 -0.5276036262512207 -0.06656614691019058
vn -0.0 0.0 1.0
vn -0.0 0.0 1.0
vn -0.0 0.0 1.0
vn -0.0 0.0 1.0
vn -0.0 0.0 1.0
vn -0.0 0.0 1.0
vn -0.9987857937812805 -0.003794595366343856 0.049118515104055405
vn -0.5081364512443542 0.8595280647277832 0.05485399067401886
vn -0.49930647015571594 0.8656414747238159 0.03684832900762558
vn -0.9981338381767273 0.007055375259369612 0.06065630540251732
vn 0.4844769537448883 0.8747950196266174 0.003957078326493502
vn 0.5031697750091553 0.8641480207443237 -0.008273374289274216
vn -0.4965217113494873 -0.8678669333457947 0.016529573127627373
vn -0.5152065753936768 -0.8569172620773315 0.01597059890627861
vn -0.5009229183197021 0.865480363368988 0.004464198835194111
vn -0.9996814727783203 -3.873251444019843e-06 0.025239450857043266
vn 0.49841344356536865 0.8661368489265442 -0.037295274436473846
vn -0.5009193420410156 -0.8654824495315552 0.004463314078748226
vn -0.4891141355037689 0.8721560835838318 -0.010547510348260403
vn -0.999919056892395 -1.6173358972082497e-06 0.012726426124572754
vn 0.5097422003746033 0.8585017919540405 -0.05601436644792557
vn -0.4891121983528137 -0.8721571564674377 -0.01054839976131916
vn 0.5031697750091553 0.8641480207443237 -0.008273374289274216
vn 0.9990705847740173 0.007414994295686483 -0.042462561279535294
vn 0.9991878867149353 -0.003520527621731162 -0.04013792425394058
vn 0.4844769537448883 0.8747950196266174 0.003957078326493502
vn 0.4903235137462616 -0.8707852959632874 -0.03627585619688034
vn 0.4997100532054901 -0.8657519221305847 -0.027632419019937515
vn -0.5152065753936768 -0.8569172620773315 0.01597059890627861
vn -0.4965217113494873 -0.8678669333457947 0.016529573127627373
vn 0.9983021020889282 -4.1346243051521014e-06 -0.05824903026223183
vn 0.49841344356536865 0.8661368489265442 -0.037295274436473846
vn 0.4984099268913269 -0.8661388754844666 -0.037295497953891754
vn -0.5009193420410156 -0.8654824495315552 0.004463314078748226
vn 0.996940016746521 -2.1102882783452515e-06 -0.07817040383815765
vn 0.5097422003746033 0.8585017919540405 -0.05601436644792557
vn 0.5097405314445496 -0.8585027456283569 -0.0560157373547554
vn -0.4891121983528137 -0.8721571564674377 -0.01054839976131916
vn -0.0 0.0 1.0
vn -0.0 0.0 1.0
vn -0.0 0.0 1.0
vn -0.0 0.0 1.0
vn -0.0 0.0 1.0
vn -0.0 0.0 1.0
vn 0.9987857937812805 0.0037907545920461416 0.04911847040057182
vn 0.5081394910812378 -0.8595262169837952 0.05485433340072632
vn 0.499304860830307 -0.8656424880027771 0.036848414689302444
vn 0.9981338381767273 -0.0070538897998631 0.06065632030367851
vn -0.48447832465171814 -0.8747943043708801 0.003957364708185196
vn -0.503167986869812 -0.8641489744186401 -0.008273373357951641
vn 0.49652329087257385 0.8678659200668335 0.016529489308595657
vn 0.5152093768119812 0.8569154739379883 0.015970824286341667
vn 0.5009211301803589 -0.865481436252594 0.004463640972971916
vn 0.9996814727783203 -1.2001628135749343e-07 0.02523946389555931
vn -0.4984089434146881 -0.8661394119262695 -0.037294916808605194
vn 0.5009212493896484 0.8654812574386597 0.004463796503841877
vn 0.489115446805954 -0.8721552491188049 -0.010547337122261524
vn 0.999919056892395 2.3728102860332e-07 0.01272762194275856
vn -0.5097413063049316 -0.8585023283958435 -0.05601498857140541
vn 0.4891156554222107 0.8721552491188049 -0.010547567158937454
vn -0.503167986869812 -0.8641489744186401 -0.008273373357951641
vn -0.9990705847740173 -0.007412374019622803 -0.042462386190891266
vn -0.9991878867149353 0.003516558790579438 -0.0401381254196167
vn -0.48447832465171814 -0.8747943043708801 0.003957364708185196
vn -0.49032285809516907 0.8707855343818665 -0.03627585247159004
vn -0.4997117519378662 0.8657508492469788 -0.02763257548213005
vn 0.5152093768119812 0.8569154739379883 0.015970824286341667
vn 0.49652329087257385 0.8678659200668335 0.016529489308595657
vn -0.9983021020889282 0.0 -0.05824866518378258
vn -0.4984089434146881 -0.8661394119262695 -0.037294916808605194
vn -0.49840858578681946 0.8661397099494934 -0.03729524463415146
vn 0.5009212493896484 0.8654812574386597 0.004463796503841877
vn -0.9969401359558105 -1.7959895615149435e-07 -0.07816974818706512
vn -0.5097413063049316 -0.8585023283958435 -0.05601498857140541
vn -0.5097411870956421 0.8585023880004883 -0.05601463466882706
vn 0.4891156554222107 0.8721552491188049 -0.010547567158937454
vn -0.0 0.0 1.0
vn -0.0 0.0 1.0
vn -0.0 0.0 1.0
vn -0.0 0.0 1.0
vn -0.0 0.0 1.0
vn -0.0 0.0 1.0
vn -0.8817259073257446 -0.46805158257484436 0.059052612632513046
vn -0.0 -0.992134690284729 0.12517455220222473
vn -0.8468783497810364 -0.5276039242744446 0.06656614691019058
vn -0.0 -0.992134690284729 0.12517455220222473
vn 0.8817260265350342 -0.4680514931678772 0.05905260145664215
vn 0.8468778729438782 -0.5276048183441162 0.06656626611948013
vn 0.8468778729438782 0.5276047587394714 -0.06656625121831894
vn 0.8817260265350342 0.4680514931678772 -0.05905260145664215
vn 2.0958157165296143e-07 0.992134690284729 -0.12517455220222473
vn 4.6258492147899233e-07 0.992134690284729 -0.12517455220222473
vn -0.8468786478042603 0.5276036262512207 -0.0665660947561264
vn -0.8817260265350342 0.4680514335632324 -0.05905260145664215
vn -0.8817259073257446 -0.46805158257484436 0.059052612632513046
vn -0.8817260265350342 0.4680514335632324 -0.05905260145664215
vn -0.8468786478042603 0.5276036262512207 -0.0665660947561264
vn -0.8468783497810364 -0.5276039242744446 0.06656614691019058
vn -0.0 0.0 1.0
vn -0.0 0.0 1.0
vn -0.0 0.0 1.0
vn -0.0 0.0 1.0
vn -0.0 0.0 1.0
vn -0.0 0.0 1.0
vn -0.9987857937812805 0.0037904807832092047 0.049118656665086746
vn -0.5081369280815125 -0.8595277070999146 0.05485419183969498
vn -0.9981338381767273 -0.007054077927023172 0.06065615266561508
vn -0.49930480122566223 -0.8656424880027771 0.03684845194220543
vn 0.4844783842563629 -0.8747941851615906 0.00395736051723361
vn 0.5031679272651672 -0.8641489744186401 -0.008273230865597725
vn -0.49652349948883057 0.8678659200668335 0.016529640182852745
vn -0.5152066946029663 0.856917142868042 0.015970423817634583
vn -0.5009211301803589 -0.8654813766479492 0.00446378905326128
vn -0.9996814727783203 -2.6185361434727383e-07 0.02523932047188282
vn 0.49841177463531494 -0.8661378026008606 -0.03729541599750519
vn -0.5009210109710693 0.8654815554618835 0.004463586024940014
vn -0.48911312222480774 -0.8721565008163452 -0.010548007674515247
vn -0.999919056892395 -2.400093421783822e-07 0.01272665522992611
vn 0.5097413063049316 -0.8585023283958435 -0.05601498857140541
vn -0.4891130328178406 0.8721566200256348 -0.010547684505581856
vn 0.5031679272651672 -0.8641489744186401 -0.008273230865597725
vn 0.9990705847740173 -0.007412374019622803 -0.042462386190891266
vn 0.4844783842563629 -0.8747941851615906 0.00395736051723361
vn 0.9991880059242249 0.003516408847644925 -0.04013798385858536
vn 0.49032285809516907 0.8707855343818665 -0.03627585247159004
vn 0.4997117519378662 0.8657508492469788 -0.02763257548213005
vn -0.5152066946029663 0.856917142868042 0.015970423817634583
vn -0.49652349948883057 0.8678659200668335 0.016529640182852745
vn 0.9983021020889282 2.3257264558651514e-07 -0.05824889987707138
vn 0.49841177463531494 -0.8661378026008606 -0.03729541599750519
vn 0.498411625623703 0.8661379814147949 -0.037295229732990265
vn -0.5009210109710693 0.8654815554618835 0.004463586024940014
vn 0.996940016746521 3.1429831892637594e-07 -0.07817061245441437
vn 0.5097413063049316 -0.8585023283958435 -0.05601498857140541
vn 0.509741485118866 0.8585021495819092 -0.05601534619927406
vn -0.4891130328178406 0.8721566200256348 -0.010547684505581856
vn -0.0 0.0 1.0
vn -0.0 0.0 1.0
vn -0.0 0.0 1.0
vn -0.0 0.0 1.0
vn -0.0 0.0 1.0
vn -0.0 0.0 1.0
vn -0.0 -0.5066602230072021 0.8621457815170288
vn 0.517520010471344 -0.3015788197517395 0.8007642030715942
vn -0.0 -0.3042711317539215 0.9525855183601379
vn 0.6179872751235962 -0.3949785530567169 0.6797673106193542
vn 0.4252172112464905 0.0 0.9050912857055664
vn 0.47036367654800415 -0.126197949051857 0.8734025359153748
vn 0.389173299074173 0.0 0.9211645722389221
vn -0.0 0.0 1.0
vn 0.5245218873023987 -0.2640095055103302 0.8094292283058167
vn 0.5641260743141174 -0.11258598417043686 0.8179767727851868
vn -0.0 0.9970402121543884 -0.07688112556934357
vn -0.004454092122614384 0.9914450645446777 -0.13044822216033936
vn -0.039807334542274475 0.9981289505958557 -0.04641178622841835
vn 0.3250613808631897 0.9456900954246521 0.0023130420595407486
vn -0.0 0.9980611205101013 -0.06224188581109047
vn -0.05389074608683586 0.9954847097396851 -0.07814034819602966
vn -0.05389061197638512 0.9954848289489746 -0.07814028114080429
vn 0.9977815747261047 -0.06657376140356064 0.0
vn 0.9977815747261047 -0.06657376885414124 0.0
vn 0.9977815747261047 -0.06657377630472183 0.0
vn 0.9977815747261047 -0.06657377630472183 0.0
vn 0.980660617351532 -0.1957162469625473 0.0
vn 0.980660617351532 -0.1957162767648697 0.0
vn 0.980660617351532 -0.1957162469625473 0.0
vn 0.980660617351532 -0.1957162469625473 0.0
vn -0.05405588448047638 0.9985378980636597 0.0
vn -0.054055891931056976 0.9985378980636597 0.0
vn -0.05405588820576668 0.9985378980636597 0.0
vn -0.05405588820576668 0.9985378980636597 0.0
vn -0.045554306358098984 0.9989616870880127 -0.0006421392899937928
vn -0.04555431380867958 0.9989616870880127 -0.0006421393482014537
vn -0.04555431008338928 0.9989616870880127 -0.0006421393482014537
vn -0.04740814492106438 0.9988755583763123 0.0
vn -0.047407105565071106 0.9988376498222351 -0.00871629361063242
vn -0.047407105565071106 0.9988376498222351 -0.008716294541954994
vn -0.026066645979881287 0.9996601343154907 0.0001317994756391272
vn -0.026066645979881287 0.9996601343154907 0.0001317994756391272
vn -0.026066647842526436 0.9996601343154907 0.00013179949019104242
vn -0.02469712682068348 0.9996949434280396 -0.0003481338208075613
vn -0.02894875593483448 0.9995693564414978 -0.004810809623450041
vn -0.02894875593483448 0.9995693564414978 -0.0048108091577887535
vn -0.010299012064933777 0.9999469518661499 5.207475260249339e-05
vn -0.010299012064933777 0.9999469518661499 5.207475260249339e-05
vn -0.010299010202288628 0.9999469518661499 5.207475260249339e-05
vn -0.010256025940179825 0.9999474287033081 0.0
vn -0.011742369271814823 0.9999300241470337 -0.0014900746755301952
vn -0.011742370203137398 0.9999300241470337 -0.0014900745591148734
vn -0.011742369271814823 0.9999300241470337 -0.001490074791945517
vn -0.13694337010383606 0.11569062620401382 0.983799934387207
vn -0.13694337010383606 0.11569062620401382 0.983799934387207
vn -0.13694337010383606 0.11569062620401382 0.983799934387207
vn -0.0 -0.5066602230072021 0.8621457815170288
vn -0.517520010471344 -0.3015788197517395 0.8007642030715942
vn -0.617987334728241 -0.39497849345207214 0.6797673106193542
vn -0.0 -0.3042711317539215 0.9525855183601379
vn -0.4252172112464905 0.0 0.9050912857055664
vn -0.47036367654800415 -0.126197949051857 0.8734025359153748
vn -0.389173299074173 0.0 0.9211645722389221
vn -0.0 0.0 1.0
vn -0.5245218873023987 -0.2640095055103302 0.8094292283058167
vn -0.5641260743141174 -0.11258595436811447 0.8179767727851868
vn -0.0 0.9970402121543884 -0.07688112556934357
vn 0.039807334542274475 0.9981289505958557 -0.04641177877783775
vn 0.00445408932864666 0.9914450645446777 -0.13044820725917816
vn -0.3250613808631897 0.9456900954246521 0.0023130455520004034
vn -0.0 0.9980611205101013 -0.06224188581109047
vn 0.05389074608683586 0.9954847097396851 -0.07814034819602966
vn 0.05389061197638512 0.9954848289489746 -0.07814028114080429
vn -0.9977815747261047 -0.06657376885414124 0.0
vn -0.9977815747261047 -0.06657376140356064 0.0
vn -0.9977815747261047 -0.06657377630472183 0.0
vn -0.9977815747261047 -0.06657377630472183 0.0
vn -0.980660617351532 -0.1957162767648697 0.0
vn -0.980660617351532 -0.1957162469625473 0.0
vn -0.980660617351532 -0.1957162469625473 0.0
vn -0.980660617351532 -0.1957162469625473 0.0
vn 0.054055891931056976 0.9985378980636597 0.0
vn 0.05405588448047638 0.9985378980636597 0.0
vn 0.05405588820576668 0.9985378980636597 0.0
vn 0.05405588820576668 0.9985378980636597 0.0
vn 0.04740814492106438 0.9988755583763123 0.0
vn 0.04740814492106438 0.9988755583763123 0.0
vn 0.04740814492106438 0.9988755583763123 0.0
vn 0.04555431008338928 0.9989616870880127 -0.0006421393482014537
vn 0.04555301368236542 0.9989332556724548 -0.007570165675133467
vn 0.047407105565071106 0.9988376498222351 -0.008716294541954994
vn 0.024697117507457733 0.9996949434280396 -0.000348133675288409
vn 0.024697115644812584 0.9996949434280396 -0.000348133675288409
vn 0.024697115644812584 0.9996949434280396 -0.00034813364618457854
vn 0.026066649705171585 0.9996601343154907 0.00013180208043195307
vn 0.026066508144140244 0.9996547698974609 -0.003307769075036049
vn 0.02894875593483448 0.9995693564414978 -0.0048108091577887535
vn 0.010299012064933777 0.9999469518661499 5.207538924878463e-05
vn 0.010299012064933777 0.9999469518661499 5.207538924878463e-05
vn 0.010299012064933777 0.9999469518661499 5.2075396524742246e-05
vn 0.010256025940179825 0.9999474287033081 0.0
vn 0.011742369271814823 0.9999300241470337 -0.0014900746755301952
vn 0.011742370203137398 0.9999300241470337 -0.0014900749083608389
vn 0.011742371134459972 0.9999300241470337 -0.001490074791945517
vn 0.13694339990615845 0.11569064110517502 0.983799934387207
vn 0.13694339990615845 0.11569063365459442 0.983799934387207
vn 0.13694339990615845 0.11569063365459442 0.983799934387207
vn 0.5164976716041565 0.0 0.8562886118888855
vn 0.5921490788459778 -4.698926204582676e-06 0.8058284521102905
vn 0.5880626440048218 -4.663024810724892e-06 0.8088154196739197
vn 0.5164976119995117 0.0 0.8562886118888855
vn 0.5880626440048218 -4.663024810724892e-06 0.8088154196739197
vn 0.6590980291366577 0.0 0.7520570158958435
vn 0.6590980291366577 0.0 0.7520570158958435
vn 0.5921490788459778 -4.698926204582676e-06 0.8058284521102905
vn 0.2036694437265396 -0.7600921392440796 0.617072582244873
vn 0.23186160624027252 -0.8653049468994141 0.44439566135406494
vn 0.23461802303791046 -0.875593900680542 0.42224371433258057
vn 0.2036694884300232 -0.7600921988487244 0.6170726418495178
vn 0.2518719732761383 -0.9400374889373779 0.22997808456420898
vn 0.2518710494041443 -0.9400378465652466 0.2299780547618866
vn -0.7033039927482605 -0.590140700340271 0.396355003118515
vn -0.7261752486228943 -0.6093262434005737 0.3184196352958679
vn -0.7282708287239075 -0.6110839247703552 0.31015801429748535
vn -0.7033033967018127 -0.5901414155960083 0.39635518193244934
vn -0.7455152869224548 -0.625553548336029 0.22997745871543884
vn -0.7455152869224548 -0.625553548336029 0.22997745871543884
vn -0.516497790813446 0.0 0.856288492679596
vn -0.5921486616134644 0.0 0.8058287501335144
vn -0.5164977312088013 0.0 0.856288492679596
vn -0.5880627632141113 0.0 0.8088153600692749
vn -0.5880627632141113 0.0 0.8088153600692749
vn -0.659098207950592 0.0 0.7520569562911987
vn -0.5921486616134644 0.0 0.8058287501335144
vn -0.6590981483459473 0.0 0.7520569562911987
vn -0.0 0.5066602230072021 0.8621457815170288
vn 0.517520010471344 0.3015788197517395 0.8007642030715942
vn 0.617987334728241 0.39497849345207214 0.6797673106193542
vn -0.0 0.3042711317539215 0.9525853991508484
vn 0.4252172112464905 0.0 0.9050912857055664
vn 0.47036367654800415 0.126197949051857 0.8734025359153748
vn 0.389173299074173 0.0 0.9211645722389221
vn -0.0 0.0 1.0
vn 0.5245218873023987 0.2640095055103302 0.8094292283058167
vn 0.5641260743141174 0.11258595436811447 0.8179767727851868
vn -0.0 -0.9970402121543884 -0.07688137143850327
vn -0.03980736806988716 -0.9981289505958557 -0.04641200602054596
vn -0.004454018548130989 -0.9914450645446777 -0.13044854998588562
vn 0.3250618875026703 -0.9456899166107178 0.002312962431460619
vn -0.0 -0.9980610013008118 -0.06224210187792778
vn -0.05389094352722168 -0.9954847097396851 -0.0781407356262207
vn -0.0538909025490284 -0.9954847097396851 -0.07814070582389832
vn 0.9977815747261047 0.06657376885414124 0.0
vn 0.9977815747261047 0.06657376140356064 0.0
vn 0.9977815747261047 0.06657377630472183 0.0
vn 0.9977815747261047 0.06657377630472183 0.0
vn 0.980660617351532 0.1957162767648697 0.0
vn 0.980660617351532 0.1957162469625473 0.0
vn 0.980660617351532 0.1957162469625473 0.0
vn 0.980660617351532 0.1957162469625473 0.0
vn -0.05405618995428085 -0.9985378980636597 0.0
vn -0.05405618995428085 -0.9985378980636597 0.0
vn -0.05405618995428085 -0.9985378980636597 0.0
vn -0.05405618995428085 -0.9985378980636597 0.0
vn -0.04740814492106438 -0.9988755583763123 0.0
vn -0.04740814492106438 -0.9988755583763123 0.0
vn -0.04740814492106438 -0.9988755583763123 0.0
vn -0.04555431008338928 -0.9989616870880127 -0.0006421393482014537
vn -0.04555301368236542 -0.9989332556724548 -0.007570165675133467
vn -0.04740658774971962 -0.9988376498222351 -0.008715975098311901
vn -0.02469712868332863 -0.9996949434280396 -0.0003481338208075613
vn -0.02469712309539318 -0.9996949434280396 -0.0003481337917037308
vn -0.02469712682068348 -0.9996949434280396 -0.0003481338208075613
vn -0.026066647842526436 -0.9996601343154907 0.00013179949019104242
vn -0.026066508144140244 -0.9996547698974609 -0.003307769075036049
vn -0.02894875593483448 -0.9995693564414978 -0.0048108091577887535
vn -0.010299012064933777 -0.9999469518661499 5.2074370614718646e-05
vn -0.010299010202288628 -0.9999469518661499 5.207437425269745e-05
vn -0.010299012064933777 -0.9999469518661499 5.2074370614718646e-05
vn -0.010256025940179825 -0.9999474287033081 0.0
vn -0.011742369271814823 -0.9999300241470337 -0.0014900746755301952
vn -0.011742370203137398 -0.9999300241470337 -0.0014900749083608389
vn -0.011742371134459972 -0.9999300241470337 -0.001490074791945517
vn -0.1369432806968689 -0.11569056659936905 0.983799934387207
vn -0.1369432806968689 -0.11569056659936905 0.983799934387207
vn -0.1369432955980301 -0.11569057404994965 0.983799934387207
vn -0.0 0.5066602230072021 0.8621457815170288
vn -0.517520010471344 0.3015788197517395 0.8007642030715942
vn -0.0 0.3042711317539215 0.9525853991508484
vn -0.6179872751235962 0.3949785530567169 0.6797673106193542
vn -0.4252172112464905 0.0 0.9050912857055664
vn -0.47036367654800415 0.126197949051857 0.8734025359153748
vn -0.389173299074173 0.0 0.9211645722389221
vn -0.0 0.0 1.0
vn -0.5245218873023987 0.2640095055103302 0.8094292283058167
vn -0.5641260743141174 0.11258598417043686 0.8179767727851868
vn -0.0 -0.9970402121543884 -0.07688137143850327
vn 0.004454018548130989 -0.9914450645446777 -0.13044856488704681
vn 0.03980736806988716 -0.9981289505958557 -0.04641202092170715
vn -0.3250618875026703 -0.9456899166107178 0.0023129554465413094
vn -0.0 -0.9980610013008118 -0.06224210187792778
vn 0.05389094352722168 -0.9954847097396851 -0.0781407356262207
vn 0.0538909025490284 -0.9954847097396851 -0.07814070582389832
vn -0.9977815747261047 0.06657376140356064 0.0
vn -0.9977815747261047 0.06657376885414124 0.0
vn -0.9977815747261047 0.06657377630472183 0.0
vn -0.9977815747261047 0.06657377630472183 0.0
vn -0.980660617351532 0.1957162469625473 0.0
vn -0.980660617351532 0.1957162767648697 0.0
vn -0.980660617351532 0.1957162469625473 0.0
vn -0.980660617351532 0.1957162469625473 0.0
vn 0.05405618995428085 -0.9985378980636597 0.0
vn 0.05405618995428085 -0.9985378980636597 0.0
vn 0.05405618995428085 -0.9985378980636597 0.0
vn 0.05405618995428085 -0.9985378980636597 0.0
vn 0.045554306358098984 -0.9989616870880127 -0.0006421392899937928
vn 0.04555431380867958 -0.9989616870880127 -0.0006421393482014537
vn 0.04555431008338928 -0.9989616870880127 -0.0006421393482014537
vn 0.04740814492106438 -0.9988755583763123 0.0
vn 0.04740658774971962 -0.9988376498222351 -0.008715975098311901
vn 0.04740658774971962 -0.9988376498222351 -0.008715975098311901
vn 0.026066645979881287 -0.9996601343154907 0.00013180205132812262
vn 0.026066647842526436 -0.9996601343154907 0.00013180206588003784
vn 0.026066649705171585 -0.9996601343154907 0.00013180208043195307
vn 0.024697115644812584 -0.9996949434280396 -0.00034813364618457854
vn 0.02894875593483448 -0.9995693564414978 -0.004810809623450041
vn 0.02894875593483448 -0.9995693564414978 -0.0048108091577887535
vn 0.010299012064933777 -0.9999469518661499 5.2075472922297195e-05
vn 0.010299012064933777 -0.9999469518661499 5.2075483836233616e-05
vn 0.010299012064933777 -0.9999469518661499 5.207548019825481e-05
vn 0.010256025940179825 -0.9999474287033081 0.0
vn 0.011742369271814823 -0.9999300241470337 -0.0014900746755301952
vn 0.011742370203137398 -0.9999300241470337 -0.0014900745591148734
vn 0.011742369271814823 -0.9999300241470337 -0.001490074791945517
vn 0.1369432657957077 -0.11569056659936905 0.983799934387207
vn 0.1369432806968689 -0.11569057404994965 0.983799934387207
vn 0.1369432657957077 -0.11569056659936905 0.983799934387207
vn 0.5164977312088013 0.0 0.856288492679596
vn 0.592149019241333 4.6989252950879745e-06 0.8058284521102905
vn 0.5164977312088013 0.0 0.8562886118888855
vn 0.5880626440048218 4.663024810724892e-06 0.8088153600692749
vn 0.5880626440048218 4.663024810724892e-06 0.8088153600692749
vn 0.6590980291366577 0.0 0.7520570158958435
vn 0.592149019241333 4.6989252950879745e-06 0.8058284521102905
vn 0.6590980291366577 0.0 0.7520570158958435
vn 0.20366843044757843 0.7600916028022766 0.617073655128479
vn 0.23185543715953827 0.8653068542480469 0.44439518451690674
vn 0.2036692202091217 0.7600913047790527 0.6170737147331238
vn 0.23461173474788666 0.8755954504013062 0.4222438931465149
vn 0.2518783211708069 0.9400359392166138 0.22997772693634033
vn 0.2518782913684845 0.9400359392166138 0.22997772693634033
vn -0.7033039927482605 0.590140700340271 0.396355003118515
vn -0.7261752486228943 0.6093262434005737 0.3184196352958679
vn -0.7033033967018127 0.5901414155960083 0.39635518193244934
vn -0.7282707095146179 0.611083984375 0.31015801429748535
vn -0.7455122470855713 0.6255570650100708 0.2299777865409851
vn -0.7455120086669922 0.6255573034286499 0.2299777865409851
vn -0.5164978504180908 0.0 0.856288492679596
vn -0.5921487212181091 0.0 0.8058287501335144
vn -0.5880627036094666 0.0 0.8088153600692749
vn -0.516497790813446 0.0 0.856288492679596
vn -0.5880627036094666 0.0 0.8088153600692749
vn -0.659098207950592 0.0 0.7520569562911987
vn -0.6590981483459473 0.0 0.7520569562911987
vn -0.5921487212181091 0.0 0.8058287501335144
vt 0.9221753478050232 0.9113227799534798
vt 0.9312388300895691 0.9985102498903871
vt 0.9221753478050232 0.9985102498903871
vt 0.9312388300895691 0.9113227799534798
vt 0.9403025507926941 0.9985102498903871
vt 0.9403025507926941 0.9113227799534798
vt 0.9131119251251221 0.9113227799534798
vt 0.9131119251251221 0.9985102498903871
vt 0.9312388300895691 0.8677290678024292
vt 0.9221753478050232 0.8677290678024292
vt 0.9403025507926941 0.8677290678024292
vt 0.9131119251251221 0.8677290678024292
vt 0.9312388300895691 0.8241353183984756
vt 0.9221753478050232 0.8241353183984756
vt 0.9403025507926941 0.8241353183984756
vt 0.9131119251251221 0.8241353183984756
vt 0.8859211206436157 0.9113227799534798
vt 0.8949847221374512 0.9985102498903871
vt 0.8859211206436157 0.9985102498903871
vt 0.8949847221374512 0.9113227799534798
vt 0.9040483236312866 0.9985102498903871
vt 0.9040483236312866 0.9113227799534798
vt 0.9131119251251221 0.9985102498903871
vt 0.9131119251251221 0.9113227799534798
vt 0.8949847221374512 0.8677290678024292
vt 0.8859211206436157 0.8677290678024292
vt 0.9040483236312866 0.8677290678024292
vt 0.9131119251251221 0.8677290678024292
vt 0.8949847221374512 0.8241353183984756
vt 0.8859211206436157 0.8241353183984756
vt 0.9040483236312866 0.8241353183984756
vt 0.9131119251251221 0.8241353183984756
vt 0.8562017679214478 0.9093480035662651
vt 0.8492410182952881 0.8972915783524513
vt 0.8562017679214478 0.9013103917241096
vt 0.8492410182952881 0.913366824388504
vt 0.8422801494598389 0.9013103917241096
vt 0.8422801494598389 0.9093480035662651
vt 0.9315991997718811 0.8236214071512222
vt 0.922412633895874 0.9981657576281577
vt 0.922412633895874 0.8236214071512222
vt 0.9315991997718811 0.9981657576281577
vt 0.9132261276245117 0.8236214071512222
vt 0.9132261276245117 0.9981657576281577
vt 0.9040398597717285 0.8236214071512222
vt 0.9040398597717285 0.9981657576281577
vt 0.8948532938957214 0.8236214071512222
vt 0.8948532938957214 0.9981657576281577
vt 0.8856669068336487 0.8236214071512222
vt 0.8856669068336487 0.9981657576281577
vt 0.9315991997718811 0.8236214071512222
vt 0.9407854676246643 0.9981657576281577
vt 0.9315991997718811 0.9981657576281577
vt 0.9407854676246643 0.8236214071512222
vt 0.8422801494598389 0.9012683108448982
vt 0.8492410182952881 0.9133247509598732
vt 0.8422801494598389 0.9093059301376343
vt 0.8562017679214478 0.9012683108448982
vt 0.8562017679214478 0.9093059301376343
vt 0.8492410182952881 0.8972494974732399
vt 0.9221753478050232 0.9113227799534798
vt 0.9312388300895691 0.9985102498903871
vt 0.9312388300895691 0.9113227799534798
vt 0.9221753478050232 0.9985102498903871
vt 0.9403025507926941 0.9985102498903871
vt 0.9403025507926941 0.9113227799534798
vt 0.9131119251251221 0.9113227799534798
vt 0.9131119251251221 0.9985102498903871
vt 0.9312388300895691 0.8677290678024292
vt 0.9221753478050232 0.8677290678024292
vt 0.9403025507926941 0.8677290678024292
vt 0.9131119251251221 0.8677290678024292
vt 0.9312388300895691 0.8241353183984756
vt 0.9221753478050232 0.8241353183984756
vt 0.9403025507926941 0.8241353183984756
vt 0.9131119251251221 0.8241353183984756
vt 0.8859211206436157 0.9113227799534798
vt 0.8949847221374512 0.9985102498903871
vt 0.8949847221374512 0.9113227799534798
vt 0.8859211206436157 0.9985102498903871
vt 0.9040483236312866 0.9985102498903871
vt 0.9040483236312866 0.9113227799534798
vt 0.9131119251251221 0.9985102498903871
vt 0.9131119251251221 0.9113227799534798
vt 0.8949847221374512 0.8677290678024292
vt 0.8859211206436157 0.8677290678024292
vt 0.9040483236312866 0.8677290678024292
vt 0.9131119251251221 0.8677290678024292
vt 0.8949847221374512 0.8241353183984756
vt 0.8859211206436157 0.8241353183984756
vt 0.9040483236312866 0.8241353183984756
vt 0.9131119251251221 0.8241353183984756
vt 0.8492410182952881 0.8972915783524513
vt 0.8562017679214478 0.9093480035662651
vt 0.8562017679214478 0.9013103917241096
vt 0.8492410182952881 0.913366824388504
vt 0.8422801494598389 0.9093480035662651
vt 0.8422801494598389 0.9013103917241096
vt 0.9221753478050232 0.9113227799534798
vt 0.9312388300895691 0.9985102498903871
vt 0.9312388300895691 0.9113227799534798
vt 0.9221753478050232 0.9985102498903871
vt 0.9403025507926941 0.9985102498903871
vt 0.9403025507926941 0.9113227799534798
vt 0.9131119251251221 0.9113227799534798
vt 0.9131119251251221 0.9985102498903871
vt 0.9312388300895691 0.8677290678024292
vt 0.9221753478050232 0.8677290678024292
vt 0.9403025507926941 0.8677290678024292
vt 0.9131119251251221 0.8677290678024292
vt 0.9312388300895691 0.8241353183984756
vt 0.9221753478050232 0.8241353183984756
vt 0.9403025507926941 0.8241353183984756
vt 0.9131119251251221 0.8241353183984756
vt 0.8859211206436157 0.9113227799534798
vt 0.8949847221374512 0.9985102498903871
vt 0.8949847221374512 0.9113227799534798
vt 0.8859211206436157 0.9985102498903871
vt 0.9040483236312866 0.9985102498903871
vt 0.9040483236312866 0.9113227799534798
vt 0.9131119251251221 0.9985102498903871
vt 0.9131119251251221 0.9113227799534798
vt 0.8949847221374512 0.8677290678024292
vt 0.8859211206436157 0.8677290678024292
vt 0.9040483236312866 0.8677290678024292
vt 0.9131119251251221 0.8677290678024292
vt 0.8949847221374512 0.8241353183984756
vt 0.8859211206436157 0.8241353183984756
vt 0.9040483236312866 0.8241353183984756
vt 0.9131119251251221 0.8241353183984756
vt 0.8422801494598389 0.9093480035662651
vt 0.8492410182952881 0.8972915783524513
vt 0.8422801494598389 0.9013103917241096
vt 0.8492410182952881 0.913366824388504
vt 0.8562017679214478 0.9013103917241096
vt 0.8562017679214478 0.9093480035662651
vt 0.9315991997718811 0.8236214071512222
vt 0.922412633895874 0.9981657576281577
vt 0.9315991997718811 0.9981657576281577
vt 0.922412633895874 0.8236214071512222
vt 0.9132261276245117 0.8236214071512222
vt 0.9132261276245117 0.9981657576281577
vt 0.9040398597717285 0.8236214071512222
vt 0.9040398597717285 0.9981657576281577
vt 0.8948532938957214 0.8236214071512222
vt 0.8948532938957214 0.9981657576281577
vt 0.8856669068336487 0.8236214071512222
vt 0.8856669068336487 0.9981657576281577
vt 0.9315991997718811 0.8236214071512222
vt 0.9407854676246643 0.9981657576281577
vt 0.9407854676246643 0.8236214071512222
vt 0.9315991997718811 0.9981657576281577
vt 0.8562017679214478 0.9012683108448982
vt 0.8492410182952881 0.9133247509598732
vt 0.8562017679214478 0.9093059301376343
vt 0.8422801494598389 0.9012683108448982
vt 0.8422801494598389 0.9093059301376343
vt 0.8492410182952881 0.8972494974732399
vt 0.9221753478050232 0.9113227799534798
vt 0.9312388300895691 0.9985102498903871
vt 0.9221753478050232 0.9985102498903871
vt 0.9312388300895691 0.9113227799534798
vt 0.9403025507926941 0.9985102498903871
vt 0.9403025507926941 0.9113227799534798
vt 0.9131119251251221 0.9113227799534798
vt 0.9131119251251221 0.9985102498903871
vt 0.9312388300895691 0.8677290678024292
vt 0.9221753478050232 0.8677290678024292
vt 0.9403025507926941 0.8677290678024292
vt 0.9131119251251221 0.8677290678024292
vt 0.9312388300895691 0.8241353183984756
vt 0.9221753478050232 0.8241353183984756
vt 0.9403025507926941 0.8241353183984756
vt 0.9131119251251221 0.8241353183984756
vt 0.8859211206436157 0.9113227799534798
vt 0.8949847221374512 0.9985102498903871
vt 0.8859211206436157 0.9985102498903871
vt 0.8949847221374512 0.9113227799534798
vt 0.9040483236312866 0.9985102498903871
vt 0.9040483236312866 0.9113227799534798
vt 0.9131119251251221 0.9985102498903871
vt 0.9131119251251221 0.9113227799534798
vt 0.8949847221374512 0.8677290678024292
vt 0.8859211206436157 0.8677290678024292
vt 0.9040483236312866 0.8677290678024292
vt 0.9131119251251221 0.8677290678024292
vt 0.8949847221374512 0.8241353183984756
vt 0.8859211206436157 0.8241353183984756
vt 0.9040483236312866 0.8241353183984756
vt 0.9131119251251221 0.8241353183984756
vt 0.8492410182952881 0.8972915783524513
vt 0.8422801494598389 0.9093480035662651
vt 0.8422801494598389 0.9013103917241096
vt 0.8492410182952881 0.913366824388504
vt 0.8562017679214478 0.9093480035662651
vt 0.8562017679214478 0.9013103917241096
vt 0.3779851496219635 0.4605869650840759
vt 0.4221952557563782 0.46660274267196655
vt 0.42680513858795166 0.46058690547943115
vt 0.35187312960624695 0.4708216190338135
vt 0.48824241757392883 0.46637237071990967
vt 0.4230196475982666 0.5981931388378143
vt 0.4882424771785736 0.5981931388378143
vt 0.48824241757392883 0.46058690547943115
vt 0.35187312960624695 0.5245649516582489
vt 0.35187312960624695 0.5981931388378143
vt 0.347779780626297 0.6177116334438324
vt 0.347779780626297 0.5971838235855103
vt 0.413975328207016 0.6326181888580322
vt 0.36025017499923706 0.6509561538696289
vt 0.347779780626297 0.653022974729538
vt 0.442876398563385 0.5971838235855103
vt 0.4915302097797394 0.5971838235855103
vt 0.49292710423469543 0.5287013947963715
vt 0.3518120348453522 0.46205878257751465
vt 0.49292704463005066 0.46205878257751465
vt 0.3518120348453522 0.5287013947963715
vt 0.49292704463005066 0.5950904786586761
vt 0.3518120348453522 0.5287013947963715
vt 0.49292710423469543 0.5287013947963715
vt 0.3518120348453522 0.5950905084609985
vt 0.49297693371772766 0.530919224023819
vt 0.3518619239330292 0.5985608398914337
vt 0.49297693371772766 0.5985608398914337
vt 0.3518619239330292 0.530919224023819
vt 0.4420373737812042 0.6535668075084686
vt 0.5067794919013977 0.6714173555374146
vt 0.49286606907844543 0.653314471244812
vt 0.4537598490715027 0.6714173555374146
vt 0.5374244451522827 0.6468610167503357
vt 0.5492099523544312 0.663819283246994
vt 0.4331982433795929 0.6412902474403381
vt 0.49794039130210876 0.6589689254760742
vt 0.4840269386768341 0.6410379111766815
vt 0.44492074847221375 0.6593126058578491
vt 0.5285853147506714 0.6350558698177338
vt 0.5403708219528198 0.6515426933765411
vt 0.4537598490715027 0.6714173555374146
vt 0.5067794919013977 0.6714173555374146
vt 0.4454765021800995 0.6278468668460846
vt 0.5230198502540588 0.6278468668460846
vt 0.5230198502540588 0.6278468668460846
vt 0.5067794919013977 0.6714173555374146
vt 0.5492099523544312 0.663819283246994
vt 0.3779851496219635 0.4605869650840759
vt 0.35187312960624695 0.46058690547943115
vt 0.35187312960624695 0.4708216190338135
vt 0.3779851496219635 0.4605869650840759
vt 0.4221952557563782 0.46660274267196655
vt 0.35187312960624695 0.4708216190338135
vt 0.42680513858795166 0.46058690547943115
vt 0.48824241757392883 0.46637237071990967
vt 0.4230196475982666 0.5981931388378143
vt 0.4882424771785736 0.5981931388378143
vt 0.48824241757392883 0.46058690547943115
vt 0.35187312960624695 0.5245649516582489
vt 0.35187312960624695 0.5981931388378143
vt 0.347779780626297 0.6177116334438324
vt 0.413975328207016 0.6326181888580322
vt 0.347779780626297 0.5971838235855103
vt 0.36025017499923706 0.6509561538696289
vt 0.347779780626297 0.653022974729538
vt 0.442876398563385 0.5971838235855103
vt 0.4915302097797394 0.5971838235855103
vt 0.49292710423469543 0.5287013947963715
vt 0.3518120348453522 0.46205878257751465
vt 0.3518120348453522 0.5287013947963715
vt 0.49292704463005066 0.46205878257751465
vt 0.49292704463005066 0.5950904786586761
vt 0.3518120348453522 0.5287013947963715
vt 0.3518120348453522 0.5950905084609985
vt 0.49292710423469543 0.5287013947963715
vt 0.49297693371772766 0.530919224023819
vt 0.3518619239330292 0.5985608398914337
vt 0.3518619239330292 0.530919224023819
vt 0.49297693371772766 0.5985608398914337
vt 0.4420373737812042 0.6535668075084686
vt 0.5067794919013977 0.6714173555374146
vt 0.4537598490715027 0.6714173555374146
vt 0.49286606907844543 0.653314471244812
vt 0.5374244451522827 0.6468610167503357
vt 0.5492099523544312 0.663819283246994
vt 0.4331982433795929 0.6412902474403381
vt 0.49794039130210876 0.6589689254760742
vt 0.44492074847221375 0.6593126058578491
vt 0.4840269386768341 0.6410379111766815
vt 0.5285853147506714 0.6350558698177338
vt 0.5403708219528198 0.6515426933765411
vt 0.4537598490715027 0.6714173555374146
vt 0.4454765021800995 0.6278468668460846
vt 0.5067794919013977 0.6714173555374146
vt 0.5230198502540588 0.6278468668460846
vt 0.5230198502540588 0.6278468668460846
vt 0.5492099523544312 0.663819283246994
vt 0.5067794919013977 0.6714173555374146
vt 0.3779851496219635 0.4605869650840759
vt 0.35187312960624695 0.4708216190338135
vt 0.35187312960624695 0.46058690547943115
vt 0.34801414608955383 0.6579900085926056
vt 0.35212233662605286 0.45976513624191284
vt 0.34801414608955383 0.45976513624191284
vt 0.35212233662605286 0.6579900085926056
vt 0.34801414608955383 0.6580007374286652
vt 0.35212233662605286 0.4597758650779724
vt 0.34801414608955383 0.4597758650779724
vt 0.35212233662605286 0.6580007374286652
vt 0.34666869044303894 0.6009347438812256
vt 0.3529841899871826 0.5727651119232178
vt 0.34666869044303894 0.5727651119232178
vt 0.3529841899871826 0.6009347438812256
vt 0.3529841899871826 0.5141820013523102
vt 0.34666869044303894 0.5141820013523102
vt 0.346663236618042 0.6010125875473022
vt 0.35297876596450806 0.5728429555892944
vt 0.346663236618042 0.5728429555892944
vt 0.35297876596450806 0.6010125875473022
vt 0.35297876596450806 0.5142604410648346
vt 0.346663236618042 0.5142604410648346
vt 0.34801414608955383 0.6579900085926056
vt 0.35212233662605286 0.45976513624191284
vt 0.35212233662605286 0.6579900085926056
vt 0.34801414608955383 0.45976513624191284
vt 0.34801414608955383 0.6580007374286652
vt 0.35212233662605286 0.4597758650779724
vt 0.35212233662605286 0.6580007374286652
vt 0.34801414608955383 0.4597758650779724
vt 0.3779851496219635 0.4605869650840759
vt 0.4221952557563782 0.46660274267196655
vt 0.35187312960624695 0.4708216190338135
vt 0.42680513858795166 0.46058690547943115
vt 0.48824241757392883 0.46637237071990967
vt 0.4230196475982666 0.5981931388378143
vt 0.4882424771785736 0.5981931388378143
vt 0.48824241757392883 0.46058690547943115
vt 0.35187312960624695 0.5245649516582489
vt 0.35187312960624695 0.5981931388378143
vt 0.347779780626297 0.6177116334438324
vt 0.413975328207016 0.6326181888580322
vt 0.347779780626297 0.5971838235855103
vt 0.36025017499923706 0.6509561538696289
vt 0.347779780626297 0.653022974729538
vt 0.442876398563385 0.5971838235855103
vt 0.4915302097797394 0.5971838235855103
vt 0.49292710423469543 0.5287013947963715
vt 0.3518120348453522 0.46205878257751465
vt 0.3518120348453522 0.5287013947963715
vt 0.49292704463005066 0.46205878257751465
vt 0.49292704463005066 0.5950904786586761
vt 0.3518120348453522 0.5287013947963715
vt 0.3518120348453522 0.5950905084609985
vt 0.49292710423469543 0.5287013947963715
vt 0.49297693371772766 0.530919224023819
vt 0.3518619239330292 0.5985608398914337
vt 0.3518619239330292 0.530919224023819
vt 0.49297693371772766 0.5985608398914337
vt 0.4420373737812042 0.6535668075084686
vt 0.5067794919013977 0.6714173555374146
vt 0.4537598490715027 0.6714173555374146
vt 0.49286606907844543 0.653314471244812
vt 0.5374244451522827 0.6468610167503357
vt 0.5492099523544312 0.663819283246994
vt 0.4331982433795929 0.6412902474403381
vt 0.49794039130210876 0.6589689254760742
vt 0.44492074847221375 0.6593126058578491
vt 0.4840269386768341 0.6410379111766815
vt 0.5285853147506714 0.6350558698177338
vt 0.5403708219528198 0.6515426933765411
vt 0.4537598490715027 0.6714173555374146
vt 0.4454765021800995 0.6278468668460846
vt 0.5067794919013977 0.6714173555374146
vt 0.5230198502540588 0.6278468668460846
vt 0.5230198502540588 0.6278468668460846
vt 0.5492099523544312 0.663819283246994
vt 0.5067794919013977 0.6714173555374146
vt 0.3779851496219635 0.4605869650840759
vt 0.35187312960624695 0.4708216190338135
vt 0.35187312960624695 0.46058690547943115
vt 0.3779851496219635 0.4605869650840759
vt 0.4221952557563782 0.46660274267196655
vt 0.42680513858795166 0.46058690547943115
vt 0.35187312960624695 0.4708216190338135
vt 0.48824241757392883 0.46637237071990967
vt 0.4230196475982666 0.5981931388378143
vt 0.4882424771785736 0.5981931388378143
vt 0.48824241757392883 0.46058690547943115
vt 0.35187312960624695 0.5245649516582489
vt 0.35187312960624695 0.5981931388378143
vt 0.347779780626297 0.6177116334438324
vt 0.347779780626297 0.5971838235855103
vt 0.413975328207016 0.6326181888580322
vt 0.36025017499923706 0.6509561538696289
vt 0.347779780626297 0.653022974729538
vt 0.442876398563385 0.5971838235855103
vt 0.4915302097797394 0.5971838235855103
vt 0.49292710423469543 0.5287013947963715
vt 0.3518120348453522 0.46205878257751465
vt 0.49292704463005066 0.46205878257751465
vt 0.3518120348453522 0.5287013947963715
vt 0.49292704463005066 0.5950904786586761
vt 0.3518120348453522 0.5287013947963715
vt 0.49292710423469543 0.5287013947963715
vt 0.3518120348453522 0.5950905084609985
vt 0.49297693371772766 0.530919224023819
vt 0.3518619239330292 0.5985608398914337
vt 0.49297693371772766 0.5985608398914337
vt 0.3518619239330292 0.530919224023819
vt 0.4420373737812042 0.6535668075084686
vt 0.5067794919013977 0.6714173555374146
vt 0.49286606907844543 0.653314471244812
vt 0.4537598490715027 0.6714173555374146
vt 0.5374244451522827 0.6468610167503357
vt 0.5492099523544312 0.663819283246994
vt 0.4331982433795929 0.6412902474403381
vt 0.49794039130210876 0.6589689254760742
vt 0.4840269386768341 0.6410379111766815
vt 0.44492074847221375 0.6593126058578491
vt 0.5285853147506714 0.6350558698177338
vt 0.5403708219528198 0.6515426933765411
vt 0.4537598490715027 0.6714173555374146
vt 0.5067794919013977 0.6714173555374146
vt 0.4454765021800995 0.6278468668460846
vt 0.5230198502540588 0.6278468668460846
vt 0.5230198502540588 0.6278468668460846
vt 0.5067794919013977 0.6714173555374146
vt 0.5492099523544312 0.663819283246994
vt 0.3779851496219635 0.4605869650840759
vt 0.35187312960624695 0.46058690547943115
vt 0.35187312960624695 0.4708216190338135
vt 0.34801414608955383 0.6579900085926056
vt 0.35212233662605286 0.45976513624191284
vt 0.35212233662605286 0.6579900085926056
vt 0.34801414608955383 0.45976513624191284
vt 0.34801414608955383 0.6580007374286652
vt 0.35212233662605286 0.4597758650779724
vt 0.35212233662605286 0.6580007374286652
vt 0.34801414608955383 0.4597758650779724
vt 0.34666869044303894 0.6009347438812256
vt 0.3529841899871826 0.5727651119232178
vt 0.3529841899871826 0.6009347438812256
vt 0.34666869044303894 0.5727651119232178
vt 0.3529841899871826 0.5141820013523102
vt 0.34666869044303894 0.5141820013523102
vt 0.346663236618042 0.6010125875473022
vt 0.35297876596450806 0.5728429555892944
vt 0.35297876596450806 0.6010125875473022
vt 0.346663236618042 0.5728429555892944
vt 0.35297876596450806 0.5142604410648346
vt 0.346663236618042 0.5142604410648346
vt 0.34801414608955383 0.6579900085926056
vt 0.35212233662605286 0.45976513624191284
vt 0.34801414608955383 0.45976513624191284
vt 0.35212233662605286 0.6579900085926056
vt 0.34801414608955383 0.6580007374286652
vt 0.35212233662605286 0.4597758650779724
vt 0.34801414608955383 0.4597758650779724
vt 0.35212233662605286 0.6580007374286652

g bg_mdl_map_tento02
s 1
usemtl bg_mdl_map_tento02
f 3/3/3 2/2/2 1/1/1 
f 4/4/4 1/1/1 2/2/2 
f 2/2/2 5/5/5 4/4/4 
f 6/6/6 4/4/4 5/5/5 
f 1/1/1 7/7/7 3/3/3 
f 8/8/8 3/3/3 7/7/7 
f 4/4/4 9/9/9 1/1/1 
f 10/10/10 1/1/1 9/9/9 
f 1/1/1 10/10/10 7/7/7 
f 6/6/6 11/11/11 4/4/4 
f 9/9/9 4/4/4 11/11/11 
f 12/12/12 7/7/7 10/10/10 
f 9/9/9 13/13/13 10/10/10 
f 14/14/14 10/10/10 13/13/13 
f 10/10/10 14/14/14 12/12/12 
f 11/11/11 15/15/15 9/9/9 
f 13/13/13 9/9/9 15/15/15 
f 16/16/16 12/12/12 14/14/14 
f 19/19/19 18/18/18 17/17/17 
f 20/20/20 17/17/17 18/18/18 
f 18/18/18 21/21/21 20/20/20 
f 22/22/22 20/20/20 21/21/21 
f 21/21/21 23/23/23 22/22/22 
f 24/24/24 22/22/22 23/23/23 
f 20/20/20 25/25/25 17/17/17 
f 26/26/26 17/17/17 25/25/25 
f 22/22/22 27/27/27 20/20/20 
f 25/25/25 20/20/20 27/27/27 
f 24/24/24 28/28/28 22/22/22 
f 27/27/27 22/22/22 28/28/28 
f 25/25/25 29/29/29 26/26/26 
f 30/30/30 26/26/26 29/29/29 
f 27/27/27 31/31/31 25/25/25 
f 29/29/29 25/25/25 31/31/31 
f 28/28/28 32/32/32 27/27/27 
f 31/31/31 27/27/27 32/32/32 
f 35/35/35 34/34/34 33/33/33 
f 36/36/36 33/33/33 34/34/34 
f 34/34/34 37/37/37 36/36/36 
f 38/38/38 36/36/36 37/37/37 
f 41/41/41 40/40/40 39/39/39 
f 42/42/42 39/39/39 40/40/40 
f 41/41/41 43/43/43 40/40/40 
f 44/44/44 40/40/40 43/43/43 
f 43/43/43 45/45/45 44/44/44 
f 46/46/46 44/44/44 45/45/45 
f 45/45/45 47/47/47 46/46/46 
f 48/48/48 46/46/46 47/47/47 
f 47/47/47 49/49/49 48/48/48 
f 50/50/50 48/48/48 49/49/49 
f 53/53/53 52/52/52 51/51/51 
f 54/54/54 51/51/51 52/52/52 
f 57/57/57 56/56/56 55/55/55 
f 56/56/56 58/58/58 55/55/55 
f 59/59/59 58/58/58 56/56/56 
f 58/58/58 60/60/60 55/55/55 
f 63/63/63 62/62/62 61/61/61 
f 64/64/64 61/61/61 62/62/62 
f 62/62/62 63/63/63 65/65/65 
f 66/66/66 65/65/65 63/63/63 
f 61/61/61 64/64/64 67/67/67 
f 68/68/68 67/67/67 64/64/64 
f 63/63/63 61/61/61 69/69/69 
f 70/70/70 69/69/69 61/61/61 
f 61/61/61 67/67/67 70/70/70 
f 69/69/69 71/71/71 63/63/63 
f 66/66/66 63/63/63 71/71/71 
f 72/72/72 70/70/70 67/67/67 
f 69/69/69 70/70/70 73/73/73 
f 74/74/74 73/73/73 70/70/70 
f 70/70/70 72/72/72 74/74/74 
f 73/73/73 75/75/75 69/69/69 
f 71/71/71 69/69/69 75/75/75 
f 76/76/76 74/74/74 72/72/72 
f 79/79/79 78/78/78 77/77/77 
f 80/80/80 77/77/77 78/78/78 
f 78/78/78 79/79/79 81/81/81 
f 82/82/82 81/81/81 79/79/79 
f 81/81/81 82/82/82 83/83/83 
f 84/84/84 83/83/83 82/82/82 
f 79/79/79 77/77/77 85/85/85 
f 86/86/86 85/85/85 77/77/77 
f 85/85/85 87/87/87 79/79/79 
f 82/82/82 79/79/79 87/87/87 
f 87/87/87 88/88/88 82/82/82 
f 84/84/84 82/82/82 88/88/88 
f 85/85/85 86/86/86 89/89/89 
f 90/90/90 89/89/89 86/86/86 
f 89/89/89 91/91/91 85/85/85 
f 87/87/87 85/85/85 91/91/91 
f 91/91/91 92/92/92 87/87/87 
f 88/88/88 87/87/87 92/92/92 
f 95/95/95 94/94/94 93/93/93 
f 96/96/96 93/93/93 94/94/94 
f 96/96/96 97/97/97 93/93/93 
f 98/98/98 93/93/93 97/97/97 
f 101/101/101 100/100/100 99/99/99 
f 102/102/102 99/99/99 100/100/100 
f 100/100/100 101/101/101 103/103/103 
f 104/104/104 103/103/103 101/101/101 
f 99/99/99 102/102/102 105/105/105 
f 106/106/106 105/105/105 102/102/102 
f 101/101/101 99/99/99 107/107/107 
f 108/108/108 107/107/107 99/99/99 
f 99/99/99 105/105/105 108/108/108 
f 107/107/107 109/109/109 101/101/101 
f 104/104/104 101/101/101 109/109/109 
f 110/110/110 108/108/108 105/105/105 
f 107/107/107 108/108/108 111/111/111 
f 112/112/112 111/111/111 108/108/108 
f 108/108/108 110/110/110 112/112/112 
f 111/111/111 113/113/113 107/107/107 
f 109/109/109 107/107/107 113/113/113 
f 114/114/114 112/112/112 110/110/110 
f 117/117/117 116/116/116 115/115/115 
f 118/118/118 115/115/115 116/116/116 
f 116/116/116 117/117/117 119/119/119 
f 120/120/120 119/119/119 117/117/117 
f 119/119/119 120/120/120 121/121/121 
f 122/122/122 121/121/121 120/120/120 
f 117/117/117 115/115/115 123/123/123 
f 124/124/124 123/123/123 115/115/115 
f 123/123/123 125/125/125 117/117/117 
f 120/120/120 117/117/117 125/125/125 
f 125/125/125 126/126/126 120/120/120 
f 122/122/122 120/120/120 126/126/126 
f 123/123/123 124/124/124 127/127/127 
f 128/128/128 127/127/127 124/124/124 
f 127/127/127 129/129/129 123/123/123 
f 125/125/125 123/123/123 129/129/129 
f 129/129/129 130/130/130 125/125/125 
f 126/126/126 125/125/125 130/130/130 
f 133/133/133 132/132/132 131/131/131 
f 134/134/134 131/131/131 132/132/132 
f 132/132/132 135/135/135 134/134/134 
f 136/136/136 134/134/134 135/135/135 
f 139/139/139 138/138/138 137/137/137 
f 140/140/140 137/137/137 138/138/138 
f 140/140/140 138/138/138 141/141/141 
f 142/142/142 141/141/141 138/138/138 
f 141/141/141 142/142/142 143/143/143 
f 144/144/144 143/143/143 142/142/142 
f 143/143/143 144/144/144 145/145/145 
f 146/146/146 145/145/145 144/144/144 
f 145/145/145 146/146/146 147/147/147 
f 148/148/148 147/147/147 146/146/146 
f 151/151/151 150/150/150 149/149/149 
f 152/152/152 149/149/149 150/150/150 
f 155/155/155 154/154/154 153/153/153 
f 154/154/154 156/156/156 153/153/153 
f 157/157/157 156/156/156 154/154/154 
f 156/156/156 158/158/158 153/153/153 
f 161/161/161 160/160/160 159/159/159 
f 162/162/162 159/159/159 160/160/160 
f 160/160/160 163/163/163 162/162/162 
f 164/164/164 162/162/162 163/163/163 
f 159/159/159 165/165/165 161/161/161 
f 166/166/166 161/161/161 165/165/165 
f 162/162/162 167/167/167 159/159/159 
f 168/168/168 159/159/159 167/167/167 
f 159/159/159 168/168/168 165/165/165 
f 164/164/164 169/169/169 162/162/162 
f 167/167/167 162/162/162 169/169/169 
f 170/170/170 165/165/165 168/168/168 
f 167/167/167 171/171/171 168/168/168 
f 172/172/172 168/168/168 171/171/171 
f 168/168/168 172/172/172 170/170/170 
f 169/169/169 173/173/173 167/167/167 
f 171/171/171 167/167/167 173/173/173 
f 174/174/174 170/170/170 172/172/172 
f 177/177/177 176/176/176 175/175/175 
f 178/178/178 175/175/175 176/176/176 
f 176/176/176 179/179/179 178/178/178 
f 180/180/180 178/178/178 179/179/179 
f 179/179/179 181/181/181 180/180/180 
f 182/182/182 180/180/180 181/181/181 
f 178/178/178 183/183/183 175/175/175 
f 184/184/184 175/175/175 183/183/183 
f 180/180/180 185/185/185 178/178/178 
f 183/183/183 178/178/178 185/185/185 
f 182/182/182 186/186/186 180/180/180 
f 185/185/185 180/180/180 186/186/186 
f 183/183/183 187/187/187 184/184/184 
f 188/188/188 184/184/184 187/187/187 
f 185/185/185 189/189/189 183/183/183 
f 187/187/187 183/183/183 189/189/189 
f 186/186/186 190/190/190 185/185/185 
f 189/189/189 185/185/185 190/190/190 
f 193/193/193 192/192/192 191/191/191 
f 194/194/194 191/191/191 192/192/192 
f 194/194/194 195/195/195 191/191/191 
f 196/196/196 191/191/191 195/195/195 
f 199/199/199 198/198/198 197/197/197 
f 200/200/200 197/197/197 198/198/198 
f 198/198/198 199/199/199 201/201/201 
f 198/198/198 201/201/201 202/202/202 
f 203/203/203 202/202/202 201/201/201 
f 204/204/204 201/201/201 199/199/199 
f 202/202/202 205/205/205 198/198/198 
f 200/200/200 198/198/198 205/205/205 
f 206/206/206 205/205/205 202/202/202 
f 209/209/209 208/208/208 207/207/207 
f 210/210/210 209/209/209 207/207/207 
f 211/211/211 210/210/210 207/207/207 
f 212/212/212 208/208/208 209/209/209 
f 213/213/213 212/212/212 209/209/209 
f 216/216/216 215/215/215 214/214/214 
f 217/217/217 214/214/214 215/215/215 
f 220/220/220 219/219/219 218/218/218 
f 221/221/221 218/218/218 219/219/219 
f 224/224/224 223/223/223 222/222/222 
f 225/225/225 222/222/222 223/223/223 
f 228/228/228 227/227/227 226/226/226 
f 229/229/229 226/226/226 227/227/227 
f 228/228/228 230/230/230 227/227/227 
f 231/231/231 227/227/227 230/230/230 
f 234/234/234 233/233/233 232/232/232 
f 235/235/235 232/232/232 233/233/233 
f 234/234/234 236/236/236 233/233/233 
f 237/237/237 233/233/233 236/236/236 
f 240/240/240 239/239/239 238/238/238 
f 241/241/241 239/239/239 240/240/240 
f 244/244/244 243/243/243 242/242/242 
f 247/247/247 246/246/246 245/245/245 
f 250/250/250 249/249/249 248/248/248 
f 251/251/251 248/248/248 249/249/249 
f 249/249/249 252/252/252 251/251/251 
f 249/249/249 253/253/253 252/252/252 
f 254/254/254 252/252/252 253/253/253 
f 255/255/255 251/251/251 252/252/252 
f 256/256/256 253/253/253 249/249/249 
f 249/249/249 250/250/250 256/256/256 
f 256/256/256 257/257/257 253/253/253 
f 260/260/260 259/259/259 258/258/258 
f 259/259/259 261/261/261 258/258/258 
f 261/261/261 262/262/262 258/258/258 
f 260/260/260 263/263/263 259/259/259 
f 263/263/263 264/264/264 259/259/259 
f 267/267/267 266/266/266 265/265/265 
f 268/268/268 265/265/265 266/266/266 
f 271/271/271 270/270/270 269/269/269 
f 272/272/272 269/269/269 270/270/270 
f 275/275/275 274/274/274 273/273/273 
f 276/276/276 273/273/273 274/274/274 
f 279/279/279 278/278/278 277/277/277 
f 280/280/280 277/277/277 278/278/278 
f 280/280/280 278/278/278 281/281/281 
f 282/282/282 281/281/281 278/278/278 
f 285/285/285 284/284/284 283/283/283 
f 286/286/286 283/283/283 284/284/284 
f 286/286/286 284/284/284 287/287/287 
f 288/288/288 287/287/287 284/284/284 
f 291/291/291 290/290/290 289/289/289 
f 291/291/291 292/292/292 290/290/290 
f 295/295/295 294/294/294 293/293/293 
f 298/298/298 297/297/297 296/296/296 
f 301/301/301 300/300/300 299/299/299 
f 302/302/302 299/299/299 300/300/300 
f 305/305/305 304/304/304 303/303/303 
f 306/306/306 303/303/303 304/304/304 
f 309/309/309 308/308/308 307/307/307 
f 310/310/310 307/307/307 308/308/308 
f 308/308/308 309/309/309 311/311/311 
f 312/312/312 311/311/311 309/309/309 
f 315/315/315 314/314/314 313/313/313 
f 316/316/316 313/313/313 314/314/314 
f 314/314/314 315/315/315 317/317/317 
f 318/318/318 317/317/317 315/315/315 
f 321/321/321 320/320/320 319/319/319 
f 322/322/322 319/319/319 320/320/320 
f 325/325/325 324/324/324 323/323/323 
f 326/326/326 323/323/323 324/324/324 
f 329/329/329 328/328/328 327/327/327 
f 330/330/330 327/327/327 328/328/328 
f 328/328/328 331/331/331 330/330/330 
f 328/328/328 332/332/332 331/331/331 
f 333/333/333 331/331/331 332/332/332 
f 334/334/334 330/330/330 331/331/331 
f 335/335/335 332/332/332 328/328/328 
f 328/328/328 329/329/329 335/335/335 
f 335/335/335 336/336/336 332/332/332 
f 339/339/339 338/338/338 337/337/337 
f 338/338/338 340/340/340 337/337/337 
f 340/340/340 341/341/341 337/337/337 
f 339/339/339 342/342/342 338/338/338 
f 342/342/342 343/343/343 338/338/338 
f 346/346/346 345/345/345 344/344/344 
f 347/347/347 344/344/344 345/345/345 
f 350/350/350 349/349/349 348/348/348 
f 351/351/351 348/348/348 349/349/349 
f 354/354/354 353/353/353 352/352/352 
f 355/355/355 352/352/352 353/353/353 
f 358/358/358 357/357/357 356/356/356 
f 359/359/359 356/356/356 357/357/357 
f 359/359/359 357/357/357 360/360/360 
f 361/361/361 360/360/360 357/357/357 
f 364/364/364 363/363/363 362/362/362 
f 365/365/365 362/362/362 363/363/363 
f 365/365/365 363/363/363 366/366/366 
f 367/367/367 366/366/366 363/363/363 
f 370/370/370 369/369/369 368/368/368 
f 370/370/370 371/371/371 369/369/369 
f 374/374/374 373/373/373 372/372/372 
f 377/377/377 376/376/376 375/375/375 
f 380/380/380 379/379/379 378/378/378 
f 381/381/381 378/378/378 379/379/379 
f 379/379/379 380/380/380 382/382/382 
f 379/379/379 382/382/382 383/383/383 
f 384/384/384 383/383/383 382/382/382 
f 385/385/385 382/382/382 380/380/380 
f 383/383/383 386/386/386 379/379/379 
f 381/381/381 379/379/379 386/386/386 
f 387/387/387 386/386/386 383/383/383 
f 390/390/390 389/389/389 388/388/388 
f 391/391/391 390/390/390 388/388/388 
f 392/392/392 391/391/391 388/388/388 
f 393/393/393 389/389/389 390/390/390 
f 394/394/394 393/393/393 390/390/390 
f 397/397/397 396/396/396 395/395/395 
f 398/398/398 395/395/395 396/396/396 
f 401/401/401 400/400/400 399/399/399 
f 402/402/402 399/399/399 400/400/400 
f 405/405/405 404/404/404 403/403/403 
f 406/406/406 403/403/403 404/404/404 
f 409/409/409 408/408/408 407/407/407 
f 410/410/410 407/407/407 408/408/408 
f 409/409/409 411/411/411 408/408/408 
f 412/412/412 408/408/408 411/411/411 
f 415/415/415 414/414/414 413/413/413 
f 416/416/416 413/413/413 414/414/414 
f 415/415/415 417/417/417 414/414/414 
f 418/418/418 414/414/414 417/417/417 
f 421/421/421 420/420/420 419/419/419 
f 422/422/422 420/420/420 421/421/421 
f 425/425/425 424/424/424 423/423/423 
f 428/428/428 427/427/427 426/426/426 
f 431/431/431 430/430/430 429/429/429 
f 432/432/432 429/429/429 430/430/430 
f 435/435/435 434/434/434 433/433/433 
f 436/436/436 433/433/433 434/434/434 
f 439/439/439 438/438/438 437/437/437 
f 440/440/440 437/437/437 438/438/438 
f 438/438/438 441/441/441 440/440/440 
f 442/442/442 440/440/440 441/441/441 
f 445/445/445 444/444/444 443/443/443 
f 446/446/446 443/443/443 444/444/444 
f 444/444/444 447/447/447 446/446/446 
f 448/448/448 446/446/446 447/447/447 
f 451/451/451 450/450/450 449/449/449 
f 452/452/452 449/449/449 450/450/450 
f 455/455/455 454/454/454 453/453/453 
f 456/456/456 453/453/453 454/454/454 

