v 6.103515488575795e-07 0.521434485912323 -0.18231047689914703
v 6.103515488575795e-07 0.521434485912323 0.4372790455818176
v 6.103515488575795e-07 0.04719589278101921 0.4372790455818176
v 6.103515488575795e-07 0.04719589278101921 -0.18231047689914703
vn -1.0 0.0 0.0
vn -1.0 0.0 0.0
vn -1.0 0.0 0.0
vn -1.0 0.0 0.0
vt 0.27695292234420776 0.4323309063911438
vt 0.27695292234420776 0.004319489002227783
vt 0.5590673685073853 0.004319489002227783
vt 0.5590673685073853 0.4323309063911438

g bg_mdl_map_poster02
s 1
usemtl bg_mdl_map_poster02
f 3/3/3 2/2/2 1/1/1 
f 4/4/4 3/3/3 1/1/1 

