v 1.0342493057250977 -0.00085188023513183 -0.4156641960144043
v 0.8018712401390076 -0.00042760485666804016 -0.061218686401844025
v 1.0342494249343872 -0.0003592692664824426 -0.145529106259346
v 0.7755106687545776 -0.0007884809165261686 -0.34719428420066833
v 1.2929883003234863 -0.0009298993973061442 -0.38824155926704407
v 1.2929883003234863 -0.00028083816869184375 -0.07287829369306564
v 1.5646588802337646 -0.0010054180165752769 -0.24592189490795135
v 1.5646588802337646 -0.00020584790036082268 0.19724327325820923
v 1.8311392068862915 -0.0010521840304136276 -0.027955859899520874
v 1.8311392068862915 -0.00016095636237878352 0.3273720145225525
v 0.5786458849906921 -0.0005078151589259505 0.1318356841802597
v 0.49949878454208374 -0.0007097249035723507 -0.19286730885505676
v 0.3001365661621094 -0.0005711657577194273 0.25737127661705017
v 0.2580326795578003 -0.000647281704004854 -0.08196809887886047
v 0.03595130890607834 -0.0009560116450302303 0.2684059739112854
v 0.2580326795578003 -0.000647281704004854 -0.08196809887886047
v -0.01852981559932232 -0.0002635213895700872 -0.053116220980882645
v 0.3001365661621094 -0.0005711657577194273 0.25737127661705017
v -0.060812149196863174 0.0049816700629889965 0.9421114325523376
v 0.11600791662931442 0.004981613252311945 1.1174700260162354
v -0.44387832283973694 0.004982018377631903 -1.07949960231781
v -0.2341996729373932 0.004981961101293564 -1.1244795322418213
v 1.0342493057250977 0.0003612888976931572 -0.4156641960144043
v 0.8018712401390076 0.0007854781579226255 -0.061218686401844025
v 0.7755106687545776 0.00042461196426302195 -0.34719428420066833
v 1.0342494249343872 0.0008538997499272227 -0.145529106259346
v 1.2929880619049072 0.000283374625723809 -0.38824155926704407
v 1.2929880619049072 0.0009324261918663979 -0.07287825644016266
v 1.564658761024475 0.0002079513797070831 -0.24592189490795135
v 1.5646586418151855 0.0010075023164972663 0.19724327325820923
v 1.8311392068862915 0.00016123296518344432 -0.027955859899520874
v 1.8311392068862915 0.0010524606332182884 0.3273720145225525
v 0.5786461234092712 0.0007051724242046475 0.13183565437793732
v 0.4994988441467285 0.0005032631452195346 -0.19286730885505676
v 0.3001367747783661 0.000641736201941967 0.25737127661705017
v 0.2580329179763794 0.0005656298599205911 -0.08196809887886047
v 0.03595130890607834 0.0002564135938882828 0.2684059739112854
v 0.2580329179763794 0.0005656298599205911 -0.08196809887886047
v 0.3001367747783661 0.000641736201941967 0.25737127661705017
v -0.01852981559932232 0.0009489038493484259 -0.053116220980882645
vn -3.848638152703643e-05 -0.9999985694885254 0.001673470833338797
vn 0.0010315756080672145 -0.9999986886978149 0.0012858634581789374
vn 0.00030481748399324715 -0.9999982118606567 0.0018875922542065382
vn 0.00028888494125567377 -0.9999994039535522 0.001084750983864069
vn -0.000768812489695847 -0.9999977350234985 0.0019852484110742807
vn -0.001031725201755762 -0.999997615814209 0.001964252209290862
vn -0.0015002955915406346 -0.9999971389770508 0.0018949230434373021
vn -0.0013694580411538482 -0.9999969005584717 0.002093452960252762
vn -0.0014220898738130927 -0.9999969005584717 0.0020753841381520033
vn -0.0010563418036326766 -0.9999963045120239 0.002508174628019333
vn 0.0005140347057022154 -0.9999996423721313 0.0006349324248731136
vn 9.147889068117365e-05 -0.9999998807907104 0.0005062903510406613
vn 0.0008792292210273445 -0.9999996423721313 0.00020594007219187915
vn -0.00020220733131282032 -1.0 -0.00035034542088396847
vn -0.021132849156856537 -0.9997739195823669 0.0023481149692088366
vn -0.00020220733131282032 -1.0 -0.00035034542088396847
vn -0.015467416495084763 -0.9998786449432373 0.0018819947727024555
vn 0.0008792292210273445 -0.9999996423721313 0.00020594007219187915
vn -0.01009402796626091 -0.9999227523803711 0.007250357884913683
vn -0.007650652434676886 -0.9999409914016724 0.007714095059782267
vn -0.003806319320574403 -0.9999865293502808 -0.0035332387778908014
vn -0.001007072045467794 -0.9999885559082031 -0.004693299066275358
vn 3.812183058471419e-05 0.9999985694885254 -0.0016734546516090631
vn -0.0010319279972463846 0.9999986886978149 -0.0012858089758083224
vn -0.0002891913754865527 0.9999994039535522 -0.0010846842778846622
vn -0.0003051968524232507 0.9999982118606567 -0.001887583639472723
vn 0.0007684307056479156 0.9999977350234985 -0.001985226757824421
vn 0.0010313579114153981 0.999997615814209 -0.001964216586202383
vn 0.0014999768463894725 0.9999971389770508 -0.0018948839278891683
vn 0.0013691876083612442 0.9999969005584717 -0.002093426650390029
vn 0.0014218601863831282 0.9999969005584717 -0.0020753575954586267
vn 0.0010560901137068868 0.9999963045120239 -0.0025081748608499765
vn -0.0005143388407304883 0.9999996423721313 -0.0006348603637889028
vn -9.179038897855207e-05 0.9999998807907104 -0.000506214564666152
vn -0.0008803262026049197 0.9999996423721313 -0.0002057740348391235
vn 0.0002012456679949537 1.0 0.0003505056956782937
vn -0.0001462994987377897 0.9999997615814209 0.000789801066275686
vn 0.0002012456679949537 1.0 0.0003505056956782937
vn -0.0008803262026049197 0.9999996423721313 -0.0002057740348391235
vn 0.001582557801157236 0.9999970197677612 0.0018856199458241463
vt 0.5857826471328735 0.8957473263144493
vt 0.5489758253097534 0.844130739569664
vt 0.5842558741569519 0.8569179028272629
vt 0.5455964207649231 0.8857752457261086
vt 0.6257244348526001 0.8913277462124825
vt 0.6246780753135681 0.8460473567247391
vt 0.6675481796264648 0.8701189756393433
vt 0.6656935811042786 0.8065209835767746
vt 0.7079178094863892 0.8389024883508682
vt 0.707502543926239 0.78688645362854
vt 0.5115342736244202 0.8197913467884064
vt 0.50627201795578 0.869560718536377
vt 0.4931494891643524 0.8074002265930176
vt 0.48401549458503723 0.8532250374555588
vt 0.8233835697174072 0.42389917373657227
vt 0.735373318195343 0.4985767602920532
vt 0.7528062462806702 0.427168607711792
vt 0.8130626082420349 0.5121857821941376
vt 0.9699023962020874 0.37076830863952637
vt 1.015442132949829 0.41045081615448
vt 0.5103762149810791 0.36647868156433105
vt 0.5087748765945435 0.4220982789993286
vt 0.5852565169334412 0.8957146108150482
vt 0.5499098300933838 0.8442123532295227
vt 0.5455591082572937 0.8856459930539131
vt 0.5858437418937683 0.856390655040741
vt 0.6251283884048462 0.891778938472271
vt 0.6249638795852661 0.8455682843923569
vt 0.6667062044143677 0.870817631483078
vt 0.6667889356613159 0.805789515376091
vt 0.7073638439178467 0.8392387926578522
vt 0.707502543926239 0.78688645362854
vt 0.5115342736244202 0.8197913467884064
vt 0.5060200691223145 0.8694042265415192
vt 0.4931494891643524 0.8074002265930176
vt 0.48401549458503723 0.8532250374555588
vt 0.8233835697174072 0.42389917373657227
vt 0.735373318195343 0.4985767602920532
vt 0.8130626082420349 0.5121857821941376
vt 0.7528062462806702 0.427168607711792

g bg_mdl_top_town05_flag00
s 1
usemtl bg_mdl_top_town05_flag00
f 3/3/3 2/2/2 1/1/1 
f 4/4/4 1/1/1 2/2/2 
f 1/1/1 5/5/5 3/3/3 
f 6/6/6 3/3/3 5/5/5 
f 5/5/5 7/7/7 6/6/6 
f 8/8/8 6/6/6 7/7/7 
f 7/7/7 9/9/9 8/8/8 
f 10/10/10 8/8/8 9/9/9 
f 2/2/2 11/11/11 4/4/4 
f 12/12/12 4/4/4 11/11/11 
f 11/11/11 13/13/13 12/12/12 
f 14/14/14 12/12/12 13/13/13 
f 17/17/17 16/16/16 15/15/15 
f 18/18/18 15/15/15 16/16/16 
f 15/15/15 19/19/19 17/17/17 
f 15/15/15 20/20/20 19/19/19 
f 21/21/21 17/17/17 19/19/19 
f 22/22/22 17/17/17 21/21/21 
f 25/25/25 24/24/24 23/23/23 
f 26/26/26 23/23/23 24/24/24 
f 23/23/23 26/26/26 27/27/27 
f 28/28/28 27/27/27 26/26/26 
f 27/27/27 28/28/28 29/29/29 
f 30/30/30 29/29/29 28/28/28 
f 29/29/29 30/30/30 31/31/31 
f 32/32/32 31/31/31 30/30/30 
f 24/24/24 25/25/25 33/33/33 
f 34/34/34 33/33/33 25/25/25 
f 33/33/33 34/34/34 35/35/35 
f 36/36/36 35/35/35 34/34/34 
f 39/39/39 38/38/38 37/37/37 
f 40/40/40 37/37/37 38/38/38 

