v -3.75841580080305e-07 -0.8479956388473511 -0.9924205541610718
v -3.114757589628425e-07 -1.7971935272216797 -2.0371203422546387
v 2.741243463333376e-07 1.7971935272216797 -2.0371205806732178
v -3.8035307170503074e-07 -1.642187476158142 -1.5656996965408325
v -1.663116364625239e-07 1.1473362445831299 -0.27072593569755554
v -2.8115587724641955e-07 1.1473362445831299 2.0371205806732178
v -1.8151723679693532e-07 1.797194004058838 2.033576726913452
v -2.90982171691212e-07 0.33425962924957275 -0.34614652395248413
vn -1.0 1.6433676819360699e-07 -2.0136471334808448e-07
vn -1.0 1.5716260293174855e-07 -2.0440729997517337e-07
vn -1.0 2.138703223408811e-07 -1.6732531094021397e-07
vn -1.0 1.4573521411875845e-07 -1.9402450845973362e-07
vn -1.0 3.9564466192132386e-07 -1.03391705863487e-07
vn -1.0 1.920978718317201e-07 -1.0565010910568162e-07
vn -1.0 1.527133690615301e-07 -1.1193208848681024e-07
vn -1.0 1.6999892693547736e-07 -1.796803275055936e-07
vt 0.3441997766494751 0.8582919239997864
vt 0.46641847491264343 0.9930167403072119
vt 0.00321095809340477 0.9926583240740001
vt 0.4464899003505707 0.932249441742897
vt 0.08713403344154358 0.7650883793830872
vt 0.08736395090818405 0.4676765203475952
vt 0.0036166300997138023 0.46806836128234863
vt 0.1919075846672058 0.7748889327049255

g bg_mdl_top_town05_01
s 1
usemtl bg_mdl_top_town05_01
f 3/3/3 2/2/2 1/1/1 
f 4/4/4 1/1/1 2/2/2 
f 3/3/3 1/1/1 5/5/5 
f 5/5/5 6/6/6 3/3/3 
f 7/7/7 3/3/3 6/6/6 
f 8/8/8 5/5/5 1/1/1 

