v -0.6838024854660034 -0.32725584506988525 2.4670326709747314
v -0.6874549984931946 -0.31584057211875916 2.464167356491089
v -0.6932809352874756 -0.3222073018550873 2.4730095863342285
v 0.0178079791367054 -0.14312171936035156 1.8131784200668335
v 0.005867459811270237 -0.12676119804382324 0.836498498916626
v 0.04874483123421669 -0.052495330572128296 0.836498498916626
v -0.02271520160138607 -0.18468396365642548 1.7785335779190063
v 0.0073137241415679455 -0.2335509955883026 1.7979694604873657
v 0.04874484986066818 -0.201027050614357 0.836498498916626
v 0.10658654570579529 -0.1664000302553177 1.0134177207946777
v 0.055734314024448395 -0.1970624327659607 1.8366293907165527
v -0.07328753173351288 -0.24931786954402924 2.075209140777588
v -0.09584847092628479 -0.16574713587760925 2.0694284439086914
v -0.04981623962521553 -0.1918857842683792 2.1107776165008545
v 0.055734314024448395 -0.1970624327659607 1.8366293907165527
v -0.04981623962521553 -0.1918857842683792 2.1107776165008545
v -0.26242920756340027 -0.2653326690196991 2.470710277557373
v -0.2848854660987854 -0.24069640040397644 2.44305419921875
v -0.2691192626953125 -0.2916164994239807 2.433663845062256
v -0.26242920756340027 -0.2653326690196991 2.470710277557373
v -0.04973217472434044 -0.005555621348321438 0.3214471638202667
v 0.04348737746477127 -0.005555597599595785 0.3214471638202667
v 0.13449977338314056 -0.05249536782503128 0.836498498916626
v 0.09009717404842377 -0.08628616482019424 0.3214471638202667
v 0.1773771196603775 -0.12676118314266205 0.836498498916626
v 0.04348734766244888 -0.1670166701078415 0.3214471638202667
v 0.13449977338314056 -0.20102712512016296 0.836498498916626
v 0.2034226506948471 -0.20160849392414093 0.9612197875976562
v 0.21165831387043 -0.14834044873714447 0.929850161075592
v 0.16061274707317352 -0.12398795038461685 1.0115721225738525
v 0.13449977338314056 -0.05249536782503128 0.836498498916626
v -0.47410112619400024 -0.29880568385124207 2.528257369995117
v -0.47410112619400024 -0.29880568385124207 2.528257369995117
v -0.09634201973676682 -0.08628607541322708 0.3214471638202667
v -0.06361027806997299 0.06404886394739151 -9.58802033323991e-08
v -0.15393692255020142 -0.06625155359506607 -9.58802033323991e-08
v -0.0636102706193924 -0.1965520679950714 -9.58802033323991e-08
v -0.049732230603694916 -0.1670166701078415 0.3214471638202667
v 0.04348734766244888 -0.1670166701078415 0.3214471638202667
v 0.13449977338314056 -0.20102712512016296 0.836498498916626
v 0.15577535331249237 -0.17668595910072327 1.032412052154541
v 0.2034226506948471 -0.20160849392414093 0.9612197875976562
v 0.10658654570579529 -0.1664000302553177 1.0134177207946777
v -0.6269794702529907 -0.31591570377349854 2.5166571140289307
v -0.4747087061405182 -0.2800542116165161 2.501674175262451
v -0.6158393621444702 -0.30417877435684204 2.5005733966827393
v -0.46838274598121643 -0.3177153468132019 2.500519037246704
v -0.6932809352874756 -0.3222073018550873 2.4730095863342285
v -0.6874549984931946 -0.31584057211875916 2.464167356491089
v -0.6838024854660034 -0.32725584506988525 2.4670326709747314
v -0.6068723797798157 -0.32562175393104553 2.5091922283172607
v -0.6269794702529907 -0.31591570377349854 2.5166571140289307
v -0.6932809352874756 -0.3222073018550873 2.4730095863342285
v 0.26411986351013184 -0.15377627313137054 1.235892415046692
v 0.452428936958313 -0.09776521474123001 1.719391942024231
v 0.30544716119766235 -0.17201313376426697 1.177298903465271
v 0.42695704102516174 -0.09630122035741806 1.7463784217834473
v 0.653403103351593 0.025400705635547638 1.8613643646240234
v 0.6454322934150696 0.022357646375894547 1.8973604440689087
v 0.624834418296814 0.047133106738328934 1.8789619207382202
v 0.4094119071960449 -0.054542187601327896 1.738271713256836
v 0.44492611289024353 -0.057781852781772614 1.7048391103744507
v 0.26257821917533875 -0.10419587790966034 1.2186813354492188
v 0.309197336435318 -0.12253124266862869 1.1507220268249512
v 0.15577535331249237 -0.17668595910072327 1.032412052154541
v 0.16061274707317352 -0.12398795038461685 1.0115721225738525
v 0.653403103351593 0.025400705635547638 1.8613643646240234
v 0.80368971824646 0.1388075202703476 1.9689860343933105
v 0.804402232170105 0.14389725029468536 1.9392874240875244
v 0.804402232170105 0.14389725029468536 1.9392874240875244
v 0.7840574979782104 0.15984290838241577 1.9591761827468872
v 0.9091193079948425 0.3130330741405487 1.8787049055099487
v 0.9088430404663086 0.31282421946525574 1.8553968667984009
v 0.9217720031738281 0.3578520119190216 1.8043798208236694
v 0.8930026888847351 0.3174019753932953 1.8711498975753784
v 0.9088430404663086 0.31282421946525574 1.8553968667984009
v 0.21165831387043 -0.14834044873714447 0.929850161075592
v 0.2034226506948471 -0.20160849392414093 0.9612197875976562
v 0.309197336435318 -0.12253124266862869 1.1507220268249512
v 0.21165831387043 -0.14834044873714447 0.929850161075592
v 0.44492611289024353 -0.057781852781772614 1.7048391103744507
v 0.11779002845287323 -0.10614548623561859 0.9743226170539856
v 0.10658654570579529 -0.1664000302553177 1.0134177207946777
v 0.10234304517507553 -0.08409670740365982 0.9439530968666077
v 0.13449977338314056 -0.05249536782503128 0.836498498916626
v -0.049732230603694916 -0.1670166701078415 0.3214471638202667
v -0.024440258741378784 -0.1965520679950714 -9.58802033323991e-08
v -0.0636102706193924 -0.1965520679950714 -9.58802033323991e-08
v 0.04348734766244888 -0.1670166701078415 0.3214471638202667
v 0.07198894023895264 -0.18643085658550262 0.11015382409095764
v -0.024440258741378784 -0.1965520679950714 -9.58802033323991e-08
v 0.04348734766244888 -0.1670166701078415 0.3214471638202667
v 0.07198894023895264 -0.18643085658550262 0.11015382409095764
v 0.1353599727153778 -0.07368785887956619 0.11931195110082626
v 0.13465428352355957 -0.11374863237142563 -9.58802033323991e-08
v 0.04348734766244888 -0.1670166701078415 0.3214471638202667
v 0.1353599727153778 -0.07368785887956619 0.11931195110082626
v 0.07198894023895264 -0.18643085658550262 0.11015382409095764
v 0.09009717404842377 -0.08628616482019424 0.3214471638202667
v 0.1353599727153778 -0.07368785887956619 0.11931195110082626
v 0.04348734766244888 -0.1670166701078415 0.3214471638202667
v 0.13465428352355957 -0.11374863237142563 -9.58802033323991e-08
v 0.16207671165466309 -0.06625161319971085 -9.58802033323991e-08
v 0.09009717404842377 -0.08628616482019424 0.3214471638202667
v 0.11054334044456482 -0.008121944032609463 0.15176734328269958
v 0.1353599727153778 -0.07368785887956619 0.11931195110082626
v 0.16207671165466309 -0.06625161319971085 -9.58802033323991e-08
v 0.04348737746477127 -0.005555597599595785 0.3214471638202667
v 0.11054334044456482 -0.008121944032609463 0.15176734328269958
v 0.09009717404842377 -0.08628616482019424 0.3214471638202667
v 0.04348737746477127 -0.005555597599595785 0.3214471638202667
v 0.04348738119006157 -0.005555585026741028 0.32144710421562195
v 0.11054334044456482 -0.008121944032609463 0.15176734328269958
v 0.06721333414316177 0.03253064677119255 0.1455572545528412
v -0.06361027806997299 0.06404886394739151 -9.58802033323991e-08
v 0.010382845997810364 0.13686500489711761 -9.58802033323991e-08
v 0.04348738119006157 -0.005555585026741028 0.32144710421562195
v -0.06361027806997299 0.06404886394739151 -9.58802033323991e-08
v 0.06721333414316177 0.03253064677119255 0.1455572545528412
v 0.04348737746477127 -0.005555597599595785 0.3214471638202667
v -0.06361027806997299 0.06404886394739151 -9.58802033323991e-08
v 0.04348738119006157 -0.005555585026741028 0.32144710421562195
v -0.04973217472434044 -0.005555621348321438 0.3214471638202667
v -0.06361027806997299 0.06404886394739151 -9.58802033323991e-08
v 0.04348737746477127 -0.005555597599595785 0.3214471638202667
v 0.15577535331249237 -0.17668595910072327 1.032412052154541
v 0.10658654570579529 -0.1664000302553177 1.0134177207946777
v 0.16061274707317352 -0.12398795038461685 1.0115721225738525
v 0.11779002845287323 -0.10614548623561859 0.9743226170539856
v 0.16061274707317352 -0.12398795038461685 1.0115721225738525
v 0.10658654570579529 -0.1664000302553177 1.0134177207946777
v 0.13449977338314056 -0.05249536782503128 0.836498498916626
v -0.04289023205637932 -0.21508890390396118 2.0327022075653076
v -0.21907970309257507 -0.022339249029755592 2.252223253250122
v -0.03869668021798134 -0.18456922471523285 1.9973337650299072
v -0.22327303886413574 -0.05285920575261116 2.2875914573669434
v -0.06433404982089996 -0.22345930337905884 1.9918357133865356
v -0.24471695721149445 -0.06123002991080284 2.246724843978882
v -0.03869668021798134 -0.18456922471523285 1.9973337650299072
v -0.21907970309257507 -0.022339249029755592 2.252223253250122
v -0.3597823679447174 0.06173546984791756 2.4205873012542725
v -0.36118581891059875 0.03863268345594406 2.447911500930786
v -0.5465512871742249 0.21492964029312134 2.452308177947998
v -0.5332325100898743 0.217723548412323 2.431072235107422
v -0.5553891062736511 0.20339059829711914 2.4319632053375244
v -0.3854295611381531 0.03558773919939995 2.421943426132202
v -0.3597823679447174 0.06173546984791756 2.4205873012542725
v -0.5332325100898743 0.217723548412323 2.431072235107422
v -0.7023378014564514 0.31953680515289307 2.2734639644622803
v -0.69673091173172 0.3227889835834503 2.2643425464630127
v -0.7007436752319336 0.312364786863327 2.2650232315063477
v -0.69673091173172 0.3227889835834503 2.2643425464630127
v 0.032421838492155075 -0.15490351617336273 1.581667184829712
v 0.057381514459848404 -0.3972031772136688 1.75425386428833
v -0.007148504722863436 -0.1714223474264145 1.538421630859375
v 0.1029079258441925 -0.3945050835609436 1.7912133932113647
v 0.039528992027044296 -0.18553680181503296 1.5206034183502197
v 0.1089821606874466 -0.4206860363483429 1.7390252351760864
v -0.007148504722863436 -0.1714223474264145 1.538421630859375
v 0.057381514459848404 -0.3972031772136688 1.75425386428833
v 0.19336451590061188 -0.6316827535629272 2.0332255363464355
v 0.2223314791917801 -0.627838671207428 2.053924798965454
v 0.33804622292518616 -0.8026148676872253 2.1467862129211426
v 0.31937509775161743 -0.8208959698677063 2.1328508853912354
v 0.34928619861602783 -0.8187533617019653 2.124988317489624
v 0.22546713054180145 -0.6466429233551025 2.023793935775757
v 0.19336451590061188 -0.6316827535629272 2.0332255363464355
v 0.31937509775161743 -0.8208959698677063 2.1328508853912354
v 0.38061025738716125 -0.9947723150253296 2.2017037868499756
v 0.3674028813838959 -0.9919281005859375 2.1793880462646484
v 0.3674028813838959 -0.9919281005859375 2.1793880462646484
v 0.39399653673171997 -0.9854663014411926 2.1821560859680176
v 0.4054103493690491 -1.170530915260315 2.0510849952697754
v 0.4004440903663635 -1.1644071340560913 2.0413424968719482
v 0.4004440903663635 -1.1644071340560913 2.0413424968719482
v 0.4126680791378021 -1.1671736240386963 2.0414342880249023
v 0.004781445953994989 -0.21534757316112518 1.8156499862670898
v 0.07958751916885376 -0.028059251606464386 2.057169198989868
v 0.04336867853999138 -0.1921948939561844 1.809072494506836
v 0.05284973978996277 -0.03200334310531616 2.0790727138519287
v -0.011129741556942463 -0.1839284896850586 1.78544282913208
v 0.047912053763866425 -0.016861027106642723 2.048145294189453
v 0.04336867853999138 -0.1921948939561844 1.809072494506836
v 0.07958751916885376 -0.028059251606464386 2.057169198989868
v 0.04641402140259743 0.25599101185798645 2.2929561138153076
v 0.02495219185948372 0.25987300276756287 2.308779716491699
v 0.028691846877336502 0.4458014667034149 2.3438267707824707
v 0.04126378521323204 0.43737396597862244 2.3314549922943115
v 0.0218034777790308 0.4410960376262665 2.326334238052368
v 0.02136816456913948 0.26017189025878906 2.282191514968872
v 0.04641402140259743 0.25599101185798645 2.2929561138153076
v 0.04126378521323204 0.43737396597862244 2.3314549922943115
v 0.05825427919626236 0.6267156600952148 2.3119146823883057
v 0.0664093866944313 0.6203125715255737 2.30277681350708
v 0.09722734987735748 0.7040568590164185 2.252861499786377
v 0.053930673748254776 0.6218366026878357 2.2980356216430664
v 0.09546852856874466 0.6990038752555847 2.2425944805145264
v 0.0664093866944313 0.6203125715255737 2.30277681350708
v 0.1009657084941864 0.6996779441833496 2.2469565868377686
v 0.1009657084941864 0.6996779441833496 2.2469565868377686
v 0.3284465968608856 -0.09830723702907562 1.4370272159576416
v 0.4502100646495819 -0.2193545699119568 1.5379600524902344
v 0.3206356465816498 -0.1339000016450882 1.4074963331222534
v 0.4580209255218506 -0.18376152217388153 1.5674912929534912
v 0.3498969078063965 -0.09932165592908859 1.3953275680541992
v 0.4794714152812958 -0.18477578461170197 1.5257912874221802
v 0.3206356465816498 -0.1339000016450882 1.4074963331222534
v 0.4502100646495819 -0.2193545699119568 1.5379600524902344
v 0.6196922659873962 -0.39100974798202515 1.6542178392410278
v 0.6327263712882996 -0.3679406940937042 1.6783052682876587
v 0.7244717478752136 -0.5193219184875488 1.5923789739608765
v 0.7102702260017395 -0.530488133430481 1.5747791528701782
v 0.7242890000343323 -0.5086860656738281 1.569750189781189
v 0.6375857591629028 -0.36079666018486023 1.6437116861343384
v 0.6196922659873962 -0.39100974798202515 1.6542178392410278
v 0.7102702260017395 -0.530488133430481 1.5747791528701782
v 0.7645013332366943 -0.5787988901138306 1.4844051599502563
v 0.7557370066642761 -0.5821055769920349 1.4712244272232056
v 0.7670350670814514 -0.5705472230911255 1.4707306623458862
v 0.7557370066642761 -0.5821055769920349 1.4712244272232056
v -0.03430210053920746 -0.6173502802848816 2.0392160415649414
v -0.14743351936340332 -0.8510377407073975 2.170881509780884
v -0.17269742488861084 -0.842850387096405 2.1577775478363037
v -0.011882475577294827 -0.6418758034706116 2.052565097808838
v -0.1497836410999298 -0.8567295670509338 2.142176389694214
v -0.023615475744009018 -0.6461069583892822 2.019162178039551
v -0.03430210053920746 -0.6173502802848816 2.0392160415649414
v -0.17269742488861084 -0.842850387096405 2.1577775478363037
v 0.09795945882797241 -0.3905874788761139 1.785591959953308
v 0.08118759840726852 -0.3748646080493927 1.7486324310302734
v -0.23091033101081848 -0.9941496849060059 2.182539224624634
v -0.2500826418399811 -0.983852207660675 2.1681549549102783
v 0.08118759840726852 -0.3748646080493927 1.7486324310302734
v 0.09877992421388626 -0.41276633739471436 1.733404517173767
v -0.2500826418399811 -0.983852207660675 2.1681549549102783
v -0.22730650007724762 -0.9948595762252808 2.1573517322540283
v -0.27116405963897705 -1.0533353090286255 2.139035701751709
v -0.28460121154785156 -1.0443209409713745 2.1306629180908203
v -0.2947032153606415 -1.0925178527832031 2.0486958026885986
v -0.3022893965244293 -1.0848126411437988 2.0464558601379395
v -0.2694985270500183 -1.0513664484024048 2.121372699737549
v -0.2950153052806854 -1.0878161191940308 2.0387094020843506
v -0.3022893965244293 -1.0848126411437988 2.0464558601379395
v -0.28460121154785156 -1.0443209409713745 2.1306629180908203
v -0.09325875341892242 -0.20203231275081635 2.1705713272094727
v 0.05789348855614662 -0.3073609173297882 2.54586124420166
v -0.10708983987569809 -0.255598247051239 2.136305570602417
v 0.0639415979385376 -0.28393638134002686 2.560844898223877
v -0.061832401901483536 -0.2140423208475113 2.1148669719696045
v 0.07768435031175613 -0.2891882359981537 2.5364859104156494
v -0.10708983987569809 -0.255598247051239 2.136305570602417
v 0.05789348855614662 -0.3073609173297882 2.54586124420166
v 0.1318923532962799 -0.3621761202812195 2.6338441371917725
v 0.13541626930236816 -0.34414535760879517 2.6454412937164307
v 0.2047320157289505 -0.42748838663101196 2.6902554035186768
v 0.19647620618343353 -0.43155696988105774 2.678030014038086
v 0.211337149143219 -0.42572253942489624 2.676713705062866
v 0.15020646154880524 -0.3499468266963959 2.6307590007781982
v 0.1318923532962799 -0.3621761202812195 2.6338441371917725
v 0.19647620618343353 -0.43155696988105774 2.678030014038086
v 0.2540650963783264 -0.5040852427482605 2.6489768028259277
v 0.2488170564174652 -0.5085952877998352 2.6403839588165283
v 0.2797800898551941 -0.5517964959144592 2.5995330810546875
v 0.2587755024433136 -0.5031394362449646 2.63871431350708
v 0.28222084045410156 -0.5518330335617065 2.593198299407959
v 0.27813467383384705 -0.5568353533744812 2.5952913761138916
v 0.2488170564174652 -0.5085952877998352 2.6403839588165283
v 0.27813467383384705 -0.5568353533744812 2.5952913761138916
v 0.04201897978782654 0.24623282253742218 2.2881877422332764
v 0.15866152942180634 0.39701932668685913 2.246246337890625
v 0.16209353506565094 0.38227832317352295 2.2338743209838867
v 0.028988108038902283 0.26372215151786804 2.304011583328247
v 0.15041586756706238 0.39828428626060486 2.2287538051605225
v 0.026573453098535538 0.2663874924182892 2.277423620223999
v 0.04201897978782654 0.24623282253742218 2.2881877422332764
v 0.16209353506565094 0.38227832317352295 2.2338743209838867
v 0.27665743231773376 0.5090223550796509 2.155729055404663
v 0.2782444655895233 0.49877604842185974 2.1465911865234375
v 0.3228197693824768 0.538923978805542 2.0966758728027344
v 0.2701673209667206 0.5084094405174255 2.141849994659424
v 0.31808483600616455 0.5364328026771545 2.086408853530884
v 0.2782444655895233 0.49877604842185974 2.1465911865234375
v 0.3225615620613098 0.5331721901893616 2.090771198272705
v 0.3225615620613098 0.5331721901893616 2.090771198272705
v -0.024440258741378784 -0.1965520679950714 -9.58802033323991e-08
v 0.07198894023895264 -0.18643085658550262 0.11015382409095764
v 0.11075147986412048 -0.2842485308647156 -9.58802033323991e-08
v 0.07198894023895264 -0.18643085658550262 0.11015382409095764
v 0.13465428352355957 -0.11374863237142563 -9.58802033323991e-08
v 0.11075147986412048 -0.2842485308647156 -9.58802033323991e-08
v 0.2164832502603531 0.02865046262741089 -9.58802033323991e-08
v 0.06721333414316177 0.03253064677119255 0.1455572545528412
v 0.09858715534210205 0.048886436969041824 -9.58802033323991e-08
v 0.06721333414316177 0.03253064677119255 0.1455572545528412
v 0.010382845997810364 0.13686500489711761 -9.58802033323991e-08
v 0.09858715534210205 0.048886436969041824 -9.58802033323991e-08
v 0.16207671165466309 -0.06625161319971085 -9.58802033323991e-08
v 0.11054334044456482 -0.008121944032609463 0.15176734328269958
v 0.2164832502603531 0.02865046262741089 -9.58802033323991e-08
v 0.2164832502603531 0.02865046262741089 -9.58802033323991e-08
v 0.11054334044456482 -0.008121944032609463 0.15176734328269958
v 0.06721333414316177 0.03253064677119255 0.1455572545528412
v 0.11054334044456482 -0.008121944032609463 0.15176734328269958
v 0.04348738119006157 -0.005555585026741028 0.32144710421562195
v 0.06721333414316177 0.03253064677119255 0.1455572545528412
vn -0.06282901763916016 -0.8316141963005066 -0.5517882704734802
vn -0.37179386615753174 0.5918468236923218 -0.715182900428772
vn -0.9555405378341675 -0.10585377365350723 0.2752041220664978
vn 0.1395256668329239 0.9881336092948914 0.06422359496355057
vn -0.9959025979042053 -0.0022114100866019726 0.09040474891662598
vn -0.4428793489933014 0.8820455074310303 0.16079044342041016
vn -0.9859297871589661 0.10144597291946411 -0.13285818696022034
vn -0.10952047258615494 -0.9923143982887268 -0.05759802460670471
vn -0.44671741127967834 -0.8941285014152527 0.03126873821020126
vn 0.47245585918426514 -0.7642492055892944 0.4389858543872833
vn 0.9539269208908081 -0.16981971263885498 0.24735555052757263
vn -0.029736462980508804 -0.996037483215332 -0.0838158130645752
vn -0.6308696269989014 0.7718358635902405 -0.07920128852128983
vn 0.8337390422821045 0.31413641571998596 0.4540897607803345
vn 0.9539269208908081 -0.16981971263885498 0.24735555052757263
vn 0.8337390422821045 0.31413641571998596 0.4540897607803345
vn 0.5751653909683228 0.037725288420915604 0.8171667456626892
vn -0.2711644172668457 0.9513465762138367 -0.14631985127925873
vn 0.01457678247243166 -0.974075198173523 -0.2257544845342636
vn 0.5751653909683228 0.037725288420915604 0.8171667456626892
vn -0.6752054691314697 0.7182995676994324 0.16775982081890106
vn 0.44493722915649414 0.8955566883087158 0.0029946179129183292
vn 0.5008911490440369 0.8588919639587402 0.10682974755764008
vn 0.9859409928321838 0.026318663731217384 -0.16500809788703918
vn 0.9802317023277283 0.08541304618120193 -0.17846719920635223
vn 0.4601815938949585 -0.8768417239189148 -0.13921703398227692
vn 0.42370808124542236 -0.8966532349586487 -0.12839147448539734
vn 0.41638341546058655 -0.898303210735321 -0.14027196168899536
vn 0.8885536789894104 0.3420488238334656 -0.3057366907596588
vn -0.1689656674861908 0.8986513018608093 0.404816597700119
vn 0.5008911490440369 0.8588919639587402 0.10682974755764008
vn 0.09211846441030502 0.005364568904042244 0.9957336783409119
vn 0.09211846441030502 0.005364568904042244 0.9957336783409119
vn -0.985806405544281 -0.0008279163157567382 0.167883962392807
vn -0.8178516030311584 0.548700749874115 0.17333851754665375
vn -0.9839110374450684 0.019992660731077194 0.17753702402114868
vn -0.825620174407959 -0.5541744232177734 0.10602856427431107
vn -0.6862509846687317 -0.7245127558708191 0.0643489882349968
vn 0.4601815938949585 -0.8768417239189148 -0.13921703398227692
vn 0.42370808124542236 -0.8966532349586487 -0.12839147448539734
vn -0.5647459626197815 -0.5947204232215881 0.5721623301506042
vn 0.41638341546058655 -0.898303210735321 -0.14027196168899536
vn 0.47245585918426514 -0.7642492055892944 0.4389858543872833
vn -0.4029388129711151 0.02820023149251938 0.9147924184799194
vn -0.251126229763031 0.8940863609313965 -0.3708706796169281
vn 0.08431129157543182 0.8664880990982056 -0.49202653765678406
vn 0.027636954560875893 -0.9230191707611084 -0.3837602138519287
vn -0.9555405378341675 -0.10585377365350723 0.2752041220664978
vn -0.37179386615753174 0.5918468236923218 -0.715182900428772
vn -0.06282901763916016 -0.8316141963005066 -0.5517882704734802
vn 0.13241566717624664 -0.9878184795379639 -0.08173570781946182
vn -0.4029388129711151 0.02820023149251938 0.9147924184799194
vn -0.9555405378341675 -0.10585377365350723 0.2752041220664978
vn -0.7120199799537659 -0.6083766222000122 0.35057875514030457
vn 0.5915547013282776 -0.7931231260299683 -0.1449783742427826
vn 0.5683271288871765 -0.8193378448486328 -0.07543089985847473
vn -0.390300989151001 -0.7131970524787903 0.5822500586509705
vn 0.642427921295166 -0.26581981778144836 -0.7187671065330505
vn -0.019939936697483063 -0.6270310282707214 0.7787390947341919
vn -0.54420405626297 0.8240236043930054 0.15756630897521973
vn -0.7779783010482788 0.5039871335029602 0.37516215443611145
vn 0.490403950214386 0.714518666267395 -0.498965859413147
vn -0.5444262623786926 0.8255436420440674 0.14858579635620117
vn 0.7861241102218628 0.5106272101402283 -0.34823644161224365
vn -0.5647459626197815 -0.5947204232215881 0.5721623301506042
vn -0.1689656674861908 0.8986513018608093 0.404816597700119
vn 0.642427921295166 -0.26581981778144836 -0.7187671065330505
vn 0.4333187937736511 -0.39229920506477356 0.8113791942596436
vn 0.4574199318885803 -0.3814144432544708 -0.8032993674278259
vn 0.4574199318885803 -0.3814144432544708 -0.8032993674278259
vn -0.6308611035346985 0.6622382402420044 0.4042954742908478
vn 0.704890251159668 0.25708767771720886 0.6610866189002991
vn 0.34132981300354004 -0.6865794062614441 -0.6419522166252136
vn 0.2273445874452591 0.553189218044281 -0.8014338612556458
vn -0.7226074934005737 0.6873071193695068 0.07380648702383041
vn 0.34132981300354004 -0.6865794062614441 -0.6419522166252136
vn 0.8885536789894104 0.3420488238334656 -0.3057366907596588
vn 0.41638341546058655 -0.898303210735321 -0.14027196168899536
vn 0.7861241102218628 0.5106272101402283 -0.34823644161224365
vn 0.8885536789894104 0.3420488238334656 -0.3057366907596588
vn 0.490403950214386 0.714518666267395 -0.498965859413147
vn 0.4535166025161743 0.8076271414756775 0.3769100308418274
vn 0.47245585918426514 -0.7642492055892944 0.4389858543872833
vn 0.3992457389831543 0.887468695640564 0.23022185266017914
vn 0.5008911490440369 0.8588919639587402 0.10682974755764008
vn -0.0 -0.9958052635192871 0.09149706363677979
vn -0.0 -0.9958052635192871 0.09149707108736038
vn -0.0 -0.9958052635192871 0.09149706363677979
vn -1.1903829744142058e-07 -0.9958052635192871 0.09149707853794098
vn -0.0 -0.9958052635192871 0.09149705618619919
vn -0.0 -0.9958052635192871 0.09149704873561859
vn -0.0 -0.9958052635192871 0.09149704873561859
vn 0.854777455329895 -0.4935060739517212 0.1606462597846985
vn 0.854777455329895 -0.4935060739517212 0.1606462448835373
vn 0.854777455329895 -0.4935060739517212 0.1606462597846985
vn 0.854777455329895 -0.4935060739517212 0.16064642369747162
vn 0.854777455329895 -0.4935060739517212 0.16064642369747162
vn 0.854777455329895 -0.4935060739517212 0.16064640879631042
vn 0.8547773361206055 -0.49350637197494507 0.1606462150812149
vn 0.8547773361206055 -0.49350637197494507 0.1606462150812149
vn 0.8547773361206055 -0.49350637197494507 0.1606462150812149
vn 0.854777455329895 -0.49350619316101074 0.16064628958702087
vn 0.854777455329895 -0.49350619316101074 0.16064627468585968
vn 0.9427810907363892 0.24478885531425476 0.22636738419532776
vn 0.9427810907363892 0.24478885531425476 0.22636738419532776
vn 0.9427810907363892 0.24478885531425476 0.22636738419532776
vn 0.9427810907363892 0.24478881061077118 0.22636738419532776
vn 0.8212507367134094 0.47414928674697876 0.3173796236515045
vn 0.8212507367134094 0.474149227142334 0.3173796236515045
vn 0.8212507367134094 0.47414928674697876 0.3173796236515045
vn 0.347576767206192 0.9277755618095398 0.13573132455348969
vn 0.347576767206192 0.9277755618095398 0.13573132455348969
vn 0.3475767970085144 0.9277755618095398 0.13573132455348969
vn -0.55179363489151 0.5607126951217651 0.6173532009124756
vn -0.55179363489151 0.5607126951217651 0.6173532009124756
vn -0.55179363489151 0.5607126951217651 0.6173532009124756
vn -0.0 0.9773499369621277 0.21163003146648407
vn -0.0 0.9773499369621277 0.21163003146648407
vn -0.0 0.9773498177528381 0.21163003146648407
vn 0.2265651673078537 0.9648132920265198 0.13342997431755066
vn 0.2265651822090149 0.9648132920265198 0.13342997431755066
vn 0.2265651673078537 0.9648132920265198 0.13342998921871185
vn -2.2562221602129284e-07 0.9773498177528381 0.21163006126880646
vn -2.5542453840898816e-07 0.9773498177528381 0.21163009107112885
vn -2.514317714030767e-07 0.9773498177528381 0.21163006126880646
vn -0.5647459626197815 -0.5947204232215881 0.5721623301506042
vn 0.47245585918426514 -0.7642492055892944 0.4389858543872833
vn -0.1689656674861908 0.8986513018608093 0.404816597700119
vn 0.4535166025161743 0.8076271414756775 0.3769100308418274
vn -0.1689656674861908 0.8986513018608093 0.404816597700119
vn 0.47245585918426514 -0.7642492055892944 0.4389858543872833
vn 0.5008911490440369 0.8588919639587402 0.10682974755764008
vn 0.45302680134773254 -0.5714132785797119 0.6842905879020691
vn 0.3175259828567505 0.9030043482780457 -0.2894139587879181
vn 0.07831478863954544 0.8652089834213257 -0.4952576160430908
vn 0.5345620512962341 -0.46597516536712646 0.7050607204437256
vn -0.857850193977356 -0.2393084317445755 -0.45477956533432007
vn -0.8316448926925659 -0.4222407639026642 -0.36066535115242004
vn 0.07831478863954544 0.8652089834213257 -0.4952576160430908
vn 0.3175259828567505 0.9030043482780457 -0.2894139587879181
vn 0.4733632802963257 0.8427846431732178 -0.25620561838150024
vn 0.2860710024833679 -0.28949984908103943 0.913429319858551
vn -0.193492129445076 0.30890658497810364 0.9312021732330322
vn 0.6295891404151917 0.6677952408790588 -0.3970731198787689
vn -0.5949742794036865 -0.7882980108261108 -0.15681825578212738
vn -0.7242857813835144 -0.6395218372344971 -0.2577243745326996
vn 0.4733632802963257 0.8427846431732178 -0.25620561838150024
vn 0.6295891404151917 0.6677952408790588 -0.3970731198787689
vn -0.546760618686676 0.4301092028617859 0.7183722853660583
vn 0.7460256814956665 0.5378468036651611 -0.39264047145843506
vn -0.03017447702586651 -0.8197871446609497 -0.5718727111816406
vn 0.7460256814956665 0.5378468036651611 -0.39264047145843506
vn 0.15969637036323547 0.7079184055328369 0.688003420829773
vn -0.9541316628456116 -0.26777732372283936 0.133896142244339
vn -0.9204443693161011 -0.371088445186615 -0.12278182804584503
vn 0.32845205068588257 0.7380527853965759 0.589404284954071
vn 0.36494219303131104 -0.5734804272651672 -0.7334421873092651
vn 0.5371233224868774 -0.5431419014930725 -0.6453646421432495
vn -0.9204443693161011 -0.371088445186615 -0.12278182804584503
vn -0.9541316628456116 -0.26777732372283936 0.133896142244339
vn -0.9157804250717163 -0.27632513642311096 0.2915318012237549
vn 0.2636549174785614 0.6400720477104187 0.7216604948043823
vn 0.29818087816238403 0.4896226227283478 0.8193642497062683
vn -0.9012305736541748 -0.4275347888469696 -0.07069329172372818
vn 0.756812572479248 0.021610599011182785 -0.653274655342102
vn 0.4851089119911194 -0.3581623136997223 -0.7977399230003357
vn -0.9157804250717163 -0.27632513642311096 0.2915318012237549
vn -0.9012305736541748 -0.4275347888469696 -0.07069329172372818
vn 0.015590980648994446 -0.2252141386270523 0.9741844534873962
vn -0.9367838501930237 -0.15996110439300537 -0.3112049996852875
vn -0.9367838501930237 -0.15996110439300537 -0.3112049996852875
vn 0.961505115032196 0.2409900724887848 -0.13202974200248718
vn 0.0434555858373642 -0.6564458608627319 0.7531204223632812
vn -0.6658968925476074 0.36073845624923706 -0.6530307531356812
vn -0.6658968925476074 0.36073845624923706 -0.6530307531356812
vn 0.9024332761764526 0.3179129660129547 -0.2907673716545105
vn -0.51569664478302 -0.6583700180053711 0.5482752919197083
vn 0.9982237219810486 -0.04658665135502815 -0.03713683784008026
vn 0.9812619090080261 0.05025171488523483 -0.18601003289222717
vn -0.3237822949886322 -0.6607927680015564 0.6771395802497864
vn -0.7810002565383911 0.5817713737487793 -0.22711381316184998
vn -0.5781481266021729 0.6611645817756653 -0.4781278371810913
vn 0.9812619090080261 0.05025171488523483 -0.18601003289222717
vn 0.9982237219810486 -0.04658665135502815 -0.03713683784008026
vn 0.9959878325462341 -0.03342448174953461 0.08301179856061935
vn -0.3885372579097748 -0.3530716598033905 0.851104736328125
vn -0.24116554856300354 0.0529555082321167 0.9690380692481995
vn 0.9875806570053101 -0.06798303127288818 -0.14164264500141144
vn -0.8105573654174805 0.06129328906536102 -0.5824430584907532
vn -0.6933769583702087 0.2799006402492523 -0.6639910340309143
vn 0.9959878325462341 -0.03342448174953461 0.08301179856061935
vn 0.9875806570053101 -0.06798303127288818 -0.14164264500141144
vn -0.2028067260980606 0.44642651081085205 0.8715347051620483
vn 0.9472962617874146 -0.3081357181072235 -0.08764778822660446
vn -0.033612243831157684 0.6667078137397766 0.7445608973503113
vn -0.7650285363197327 -0.007620216812938452 -0.6439513564109802
vn -0.4166411757469177 -0.31174781918525696 -0.8539458513259888
vn 0.9472962617874146 -0.3081357181072235 -0.08764778822660446
vn 0.9003767967224121 -0.43148085474967957 -0.05608941987156868
vn 0.9003767967224121 -0.43148085474967957 -0.05608941987156868
vn -0.3292378783226013 0.6061385273933411 0.7240155935287476
vn -0.5331926941871643 -0.8218082189559937 -0.20084035396575928
vn -0.30419978499412537 -0.9068045020103455 -0.2918357253074646
vn -0.20969566702842712 0.5250630378723145 0.8248251676559448
vn 0.7606993317604065 0.22248926758766174 -0.6097828149795532
vn 0.771963357925415 0.3786855638027191 -0.5105581879615784
vn -0.30419978499412537 -0.9068045020103455 -0.2918357253074646
vn -0.5331926941871643 -0.8218082189559937 -0.20084035396575928
vn -0.7752220630645752 -0.6304613351821899 0.039361435920000076
vn 0.20504605770111084 0.16817377507686615 0.9641958475112915
vn 0.5662680864334106 -0.3261250853538513 0.7569563984870911
vn -0.7571800947189331 -0.6530150175094604 -0.01580824702978134
vn 0.39149731397628784 0.7093062996864319 -0.5861862897872925
vn 0.7282835841178894 0.44057562947273254 -0.5248771905899048
vn -0.7752220630645752 -0.6304613351821899 0.039361435920000076
vn -0.7571800947189331 -0.6530150175094604 -0.01580824702978134
vn 0.5951031446456909 -0.5997041463851929 0.5349833369255066
vn -0.9146775007247925 0.005122920963913202 -0.40415215492248535
vn -0.026947159320116043 0.8761463761329651 -0.48129144310951233
vn -0.9146775007247925 0.005122920963913202 -0.40415215492248535
vn -0.6462825536727905 0.6735949516296387 0.3585926592350006
vn 0.5000536441802979 -0.04544232413172722 0.8648014068603516
vn -0.8436951637268066 0.5273398160934448 0.10045477747917175
vn 0.7995676398277283 -0.005117091815918684 0.6005542278289795
vn 0.35912877321243286 -0.4836938977241516 -0.7981646060943604
vn -0.02047739364206791 -0.6128604412078857 -0.789925754070282
vn -0.6462825536727905 0.6735949516296387 0.3585926592350006
vn -0.8436951637268066 0.5273398160934448 0.10045477747917175
vn 0.4637824296951294 0.5622810125350952 0.6846501231193542
vn -0.951903223991394 0.2155253142118454 -0.21778197586536407
vn 0.22738119959831238 -0.36691588163375854 0.9020368456840515
vn -0.9003279805183411 0.42931777238845825 0.07138442993164062
vn -0.951903223991394 0.2155253142118454 -0.21778197586536407
vn -0.37603214383125305 -0.632281482219696 -0.6773625612258911
vn -0.9003279805183411 0.42931777238845825 0.07138442993164062
vn 0.6558419466018677 -0.27616366744041443 -0.7025702595710754
vn 0.06330300122499466 -0.7787228226661682 0.6241662502288818
vn -0.9557854533195496 0.2914641499519348 0.039023857563734055
vn 0.5122506022453308 -0.840592086315155 0.17608018219470978
vn -0.6989678144454956 0.7012699842453003 -0.14022910594940186
vn 0.8309237957000732 0.15037742257118225 -0.5356792211532593
vn 0.6797583103179932 0.5702282786369324 -0.4612681567668915
vn -0.6989678144454956 0.7012699842453003 -0.14022910594940186
vn -0.9557854533195496 0.2914641499519348 0.039023857563734055
vn -0.4095897674560547 0.8455624580383301 0.34243300557136536
vn -0.5773664116859436 -0.8164784908294678 0.00329604372382164
vn -0.05237575247883797 -0.9931528568267822 -0.10442247986793518
vn -0.36875617504119873 0.7339524030685425 0.5703794360160828
vn 0.9219887852668762 -0.1878843754529953 -0.3385795056819916
vn 0.892183780670166 0.24102382361888885 -0.3819890022277832
vn -0.05237575247883797 -0.9931528568267822 -0.10442247986793518
vn -0.5773664116859436 -0.8164784908294678 0.00329604372382164
vn -0.5921489000320435 -0.7946034669876099 -0.13403400778770447
vn -0.1996043175458908 0.554413378238678 0.8079503774642944
vn 0.09136898070573807 0.05603954941034317 0.994239091873169
vn -0.740551769733429 -0.6482682824134827 -0.17700670659542084
vn 0.7628995776176453 0.5372944474220276 -0.35958170890808105
vn 0.8249591588973999 0.30498528480529785 -0.47584283351898193
vn -0.5921489000320435 -0.7946034669876099 -0.13403400778770447
vn -0.740551769733429 -0.6482682824134827 -0.17700670659542084
vn 0.375914990901947 -0.35241439938545227 0.8570250868797302
vn -0.8491044044494629 -0.4628978967666626 -0.2544548213481903
vn 0.6108920574188232 -0.36093443632125854 0.7046539783477783
vn 0.6799477338790894 0.590514600276947 -0.4346994161605835
vn -0.40898630023002625 0.5102587342262268 -0.7565488815307617
vn -0.874047040939331 0.0308048315346241 -0.4848637580871582
vn -0.8491044044494629 -0.4628978967666626 -0.2544548213481903
vn -0.874047040939331 0.0308048315346241 -0.4848637580871582
vn 0.7483533024787903 -0.6630158424377441 0.01942322961986065
vn 0.15008412301540375 0.4121758043766022 0.8986578583717346
vn 0.6275313496589661 -0.730067789554596 -0.27056512236595154
vn 0.021351106464862823 0.3577694594860077 0.9335657954216003
vn -0.7268245220184326 0.40607723593711853 -0.5539200901985168
vn -0.5999942421913147 0.2879374921321869 -0.7463905215263367
vn 0.7483533024787903 -0.6630158424377441 0.01942322961986065
vn 0.6275313496589661 -0.730067789554596 -0.27056512236595154
vn 0.3023129403591156 0.5618565678596497 0.7700156569480896
vn 0.5505976676940918 -0.8139628767967224 -0.18522021174430847
vn 0.4287016689777374 0.6897169351577759 0.5835283398628235
vn -0.7700192332267761 0.3479548394680023 -0.5347877144813538
vn -0.7062651515007019 0.0011034972267225385 -0.7079465389251709
vn 0.5505976676940918 -0.8139628767967224 -0.18522021174430847
vn 0.422257661819458 -0.8822024464607239 -0.20836830139160156
vn 0.422257661819458 -0.8822024464607239 -0.20836830139160156
vn -0.4761430025100708 -0.734015941619873 0.4842607378959656
vn -0.4761430323123932 -0.7340158820152283 0.48426076769828796
vn -0.4761429727077484 -0.7340158820152283 0.48426076769828796
vn 0.8956467509269714 -0.12556296586990356 0.42667409777641296
vn 0.8956467509269714 -0.12556296586990356 0.42667409777641296
vn 0.8956467509269714 -0.12556296586990356 0.42667409777641296
vn 0.16736480593681335 0.9750783443450928 0.1456405222415924
vn 0.16736482083797455 0.9750783443450928 0.1456405222415924
vn 0.16736482083797455 0.9750783443450928 0.1456405073404312
vn 0.6879635453224182 0.6897287964820862 0.22578799724578857
vn 0.6879636645317078 0.6897287964820862 0.22578801214694977
vn 0.6879636645317078 0.6897287964820862 0.22578801214694977
vn 0.7805604934692383 -0.44748857617378235 0.43643930554389954
vn 0.7805604934692383 -0.44748857617378235 0.43643930554389954
vn 0.7805604934692383 -0.44748857617378235 0.4364393651485443
vn 0.5369367599487305 0.6537522077560425 0.5332043766975403
vn 0.5369367599487305 0.6537522077560425 0.5332044363021851
vn 0.5369367599487305 0.6537522077560425 0.5332043766975403
vn 0.6447471976280212 0.7244601249694824 0.24384121596813202
vn 0.6447471976280212 0.7244601845741272 0.24384121596813202
vn 0.6447471976280212 0.7244601249694824 0.24384121596813202
vt 0.14782477915287018 0.04804027080535889
vt 0.09034903347492218 0.024436116218566895
vt 0.07708479464054108 0.04804027080535889
vt 0.22909535467624664 0.08878904581069946
vt 0.10361752659082413 0.11505186557769775
vt 0.10361752659082413 0.0895845890045166
vt 0.2308545708656311 0.11505186557769775
vt 0.23044539988040924 0.13236957788467407
vt 0.10361752659082413 0.1423768401145935
vt 0.10361752659082413 0.16399049758911133
vt 0.23044539988040924 0.1472424864768982
vt 0.3394758403301239 0.11878305673599243
vt 0.34200364351272583 0.09140866994857788
vt 0.33483558893203735 0.07301384210586548
vt 0.2177339643239975 0.07715660333633423
vt 0.3394758403301239 0.1326535940170288
vt 0.4149014949798584 0.07301384210586548
vt 0.4149029552936554 0.09132492542266846
vt 0.4149021804332733 0.11878305673599243
vt 0.4149021804332733 0.1326535940170288
vt 0.05501151829957962 0.0895845890045166
vt 0.05501151829957962 0.06411737203598022
vt 0.10361752659082413 0.06411737203598022
vt 0.055740419775247574 0.03865009546279907
vt 0.10361752659082413 0.03865009546279907
vt 0.055740419775247574 0.01318281888961792
vt 0.10361752659082413 0.01318281888961792
vt 0.20523153245449066 0.010988116264343262
vt 0.20435190200805664 0.03775167465209961
vt 0.20369094610214233 0.06040924787521362
vt 0.1027582436800003 0.05791968107223511
vt 0.5059919357299805 0.07301384210586548
vt 0.5059926509857178 0.1326535940170288
vt 0.055740419775247574 0.11505186557769775
vt 0.006405457854270935 0.0895845890045166
vt 0.007863308303058147 0.11505186557769775
vt 0.007863308303058147 0.1405191421508789
vt 0.055740419775247574 0.1405191421508789
vt 0.055740419775247574 0.16598641872406006
vt 0.10361752659082413 0.16598641872406006
vt 0.22999776899814606 0.14806509017944336
vt 0.20259277522563934 0.16562354564666748
vt 0.17429307103157043 0.09535467624664307
vt 0.6307801008224487 0.07301384210586548
vt 0.5059937834739685 0.09124153852462769
vt 0.6343521475791931 0.09112197160720825
vt 0.5059926509857178 0.11878305673599243
vt 0.6805208325386047 0.07301384210586548
vt 0.6855159401893616 0.09107428789138794
vt 0.6818612217903137 0.11878305673599243
vt 0.6317386627197266 0.11878305673599243
vt 0.6317386627197266 0.1326535940170288
vt 0.6818612217903137 0.1326535940170288
vt 0.09877760708332062 0.04433894157409668
vt 0.32974985241889954 0.06143152713775635
vt 0.09877759218215942 0.06143152713775635
vt 0.32974985241889954 0.04433894157409668
vt 0.43654727935791016 0.07896554470062256
vt 0.43654727935791016 0.04433894157409668
vt 0.43654727935791016 0.02422177791595459
vt 0.32974985241889954 0.02422177791595459
vt 0.32974985241889954 0.007835149765014648
vt 0.09877759218215942 0.02422177791595459
vt 0.09877760708332062 0.007835149765014648
vt 0.006711740046739578 0.04433894157409668
vt 0.006711740046739578 0.02422177791595459
vt 0.43654727935791016 0.007835149765014648
vt 0.5154484510421753 0.04433894157409668
vt 0.5154484510421753 0.07896554470062256
vt 0.5154484510421753 0.007835149765014648
vt 0.5154484510421753 0.02422177791595459
vt 0.6090999841690063 0.04433894157409668
vt 0.6090999841690063 0.07896554470062256
vt 0.693734347820282 0.05034363269805908
vt 0.6090999841690063 0.02422177791595459
vt 0.6090999841690063 0.007835149765014648
vt 0.006711740046739578 0.007835149765014648
vt 0.006711740046739578 0.06143152713775635
vt 0.09877760708332062 0.07896554470062256
vt 0.006711740046739578 0.07896554470062256
vt 0.32974985241889954 0.07896554470062256
vt 0.14175182580947876 0.06528657674789429
vt 0.15751399099826813 0.05682426691055298
vt 0.123554527759552 0.07715660333633423
vt 0.10361752659082413 0.07715660333633423
vt 0.055740419775247574 0.1405191421508789
vt 0.007863308303058147 0.14714926481246948
vt 0.007863308303058147 0.1405191421508789
vt 0.055740419775247574 0.16598641872406006
vt 0.024269890040159225 0.16598641872406006
vt 0.007863308303058147 0.14714926481246948
vt 0.055740419775247574 0.16598641872406006
vt 0.024269890040159225 0.01318281888961792
vt 0.025633925572037697 0.03865015506744385
vt 0.007863308303058147 0.029366791248321533
vt 0.055740419775247574 0.01318281888961792
vt 0.025633925572037697 0.03865015506744385
vt 0.024269890040159225 0.01318281888961792
vt 0.055740419775247574 0.03865009546279907
vt 0.025633925572037697 0.03865015506744385
vt 0.055740419775247574 0.01318281888961792
vt 0.007863308303058147 0.029366791248321533
vt 0.007863308303058147 0.03865009546279907
vt 0.055740419775247574 0.03865009546279907
vt 0.02735072746872902 0.05437040328979492
vt 0.025633925572037697 0.03865015506744385
vt 0.007863308303058147 0.03865009546279907
vt 0.05501151829957962 0.06411737203598022
vt 0.02735072746872902 0.05437040328979492
vt 0.055740419775247574 0.03865009546279907
vt 0.05501151829957962 0.06411737203598022
vt 0.05501151084899902 0.06411737203598022
vt 0.02735072746872902 0.05437040328979492
vt 0.028415190055966377 0.06411737203598022
vt 0.006405457854270935 0.0895845890045166
vt 0.006405457854270935 0.07706016302108765
vt 0.05501151084899902 0.06411737203598022
vt 0.006405457854270935 0.0895845890045166
vt 0.028415190055966377 0.06411737203598022
vt 0.05501151829957962 0.06411737203598022
vt 0.006405457854270935 0.0895845890045166
vt 0.05501151084899902 0.06411737203598022
vt 0.05501151829957962 0.0895845890045166
vt 0.006405457854270935 0.0895845890045166
vt 0.05501151829957962 0.06411737203598022
vt 0.22999776899814606 0.14806509017944336
vt 0.20692163705825806 0.1558084487915039
vt 0.20302996039390564 0.12026762962341309
vt 0.19465050101280212 0.1464410424232483
vt 0.20302996039390564 0.12026762962341309
vt 0.20745748281478882 0.15522372722625732
vt 0.10819365084171295 0.12564623355865479
vt 0.006586864590644836 0.05344033241271973
vt 0.13768430054187775 0.07756733894348145
vt 0.006586864590644836 0.07756733894348145
vt 0.13768430054187775 0.05344033241271973
vt 0.006586864590644836 0.02931356430053711
vt 0.13768430054187775 0.02931356430053711
vt 0.006586864590644836 0.005186557769775391
vt 0.13768430054187775 0.005186557769775391
vt 0.258938729763031 0.07756733894348145
vt 0.258938729763031 0.05344033241271973
vt 0.38019314408302307 0.05344033241271973
vt 0.38019314408302307 0.07756733894348145
vt 0.38019314408302307 0.02931356430053711
vt 0.258938729763031 0.02931356430053711
vt 0.258938729763031 0.005186557769775391
vt 0.38019314408302307 0.005186796188354492
vt 0.5014477372169495 0.05344033241271973
vt 0.5014477372169495 0.07756733894348145
vt 0.5014477372169495 0.02931356430053711
vt 0.5014477372169495 0.005186796188354492
vt 0.006586864590644836 0.05344033241271973
vt 0.13768430054187775 0.07756733894348145
vt 0.006586864590644836 0.07756733894348145
vt 0.13768430054187775 0.05344033241271973
vt 0.006586864590644836 0.02931356430053711
vt 0.13768430054187775 0.02931356430053711
vt 0.006586864590644836 0.005186557769775391
vt 0.13768430054187775 0.005186557769775391
vt 0.28215861320495605 0.07756733894348145
vt 0.28215861320495605 0.05344033241271973
vt 0.4348282516002655 0.05344033241271973
vt 0.4348282516002655 0.07756733894348145
vt 0.4348282516002655 0.02931356430053711
vt 0.28215861320495605 0.02931356430053711
vt 0.28215861320495605 0.005186557769775391
vt 0.4348282516002655 0.005186796188354492
vt 0.4876788258552551 0.05344033241271973
vt 0.4876788258552551 0.07756733894348145
vt 0.4876788258552551 0.005186796188354492
vt 0.4876788258552551 0.02931356430053711
vt 0.6899386644363403 0.05344033241271973
vt 0.6899386644363403 0.07756733894348145
vt 0.6899386644363403 0.005186796188354492
vt 0.6899386644363403 0.02931356430053711
vt 0.006586864590644836 0.05344033241271973
vt 0.13768430054187775 0.07756733894348145
vt 0.006586864590644836 0.07756733894348145
vt 0.13768430054187775 0.05344033241271973
vt 0.006586864590644836 0.02931356430053711
vt 0.13768430054187775 0.02931356430053711
vt 0.006586864590644836 0.005186557769775391
vt 0.13768430054187775 0.005186557769775391
vt 0.258938729763031 0.07756733894348145
vt 0.258938729763031 0.05344033241271973
vt 0.38019314408302307 0.05344033241271973
vt 0.38019314408302307 0.07756733894348145
vt 0.38019314408302307 0.02931356430053711
vt 0.258938729763031 0.02931356430053711
vt 0.258938729763031 0.005186557769775391
vt 0.38019314408302307 0.005186796188354492
vt 0.44082045555114746 0.05344033241271973
vt 0.44082045555114746 0.07756733894348145
vt 0.5014477372169495 0.05344033241271973
vt 0.44082045555114746 0.02931356430053711
vt 0.5014477372169495 0.02931356430053711
vt 0.44082045555114746 0.005186796188354492
vt 0.5014477372169495 0.005186796188354492
vt 0.5014477372169495 0.07756733894348145
vt 0.006586864590644836 0.05344033241271973
vt 0.13768430054187775 0.07756733894348145
vt 0.006586864590644836 0.07756733894348145
vt 0.13768430054187775 0.05344033241271973
vt 0.006586864590644836 0.02931356430053711
vt 0.13768430054187775 0.02931356430053711
vt 0.006586864590644836 0.005186557769775391
vt 0.13768430054187775 0.005186557769775391
vt 0.258938729763031 0.07756733894348145
vt 0.258938729763031 0.05344033241271973
vt 0.38019314408302307 0.05344033241271973
vt 0.38019314408302307 0.07756733894348145
vt 0.38019314408302307 0.02931356430053711
vt 0.258938729763031 0.02931356430053711
vt 0.258938729763031 0.005186557769775391
vt 0.38019314408302307 0.005186796188354492
vt 0.5014477372169495 0.05344033241271973
vt 0.5014477372169495 0.07756733894348145
vt 0.5014477372169495 0.02931356430053711
vt 0.5014477372169495 0.005186796188354492
vt 0.28215861320495605 0.07756733894348145
vt 0.4348282516002655 0.05344033241271973
vt 0.4348282516002655 0.07756733894348145
vt 0.28215861320495605 0.05344033241271973
vt 0.4348282516002655 0.02931356430053711
vt 0.28215861320495605 0.02931356430053711
vt 0.28215861320495605 0.005186557769775391
vt 0.4348282516002655 0.005186796188354492
vt 0.13768430054187775 0.05344033241271973
vt 0.13768430054187775 0.07756733894348145
vt 0.4876788258552551 0.05344033241271973
vt 0.4876788258552551 0.07756733894348145
vt 0.13768430054187775 0.005186557769775391
vt 0.13768430054187775 0.02931356430053711
vt 0.4876788258552551 0.005186796188354492
vt 0.4876788258552551 0.02931356430053711
vt 0.5877974629402161 0.05344033241271973
vt 0.5877974629402161 0.07756733894348145
vt 0.6899386644363403 0.05344033241271973
vt 0.6899386644363403 0.07756733894348145
vt 0.5877974629402161 0.02931356430053711
vt 0.6899386644363403 0.02931356430053711
vt 0.6899386644363403 0.005186796188354492
vt 0.5877974629402161 0.005186796188354492
vt 0.006586864590644836 0.05344033241271973
vt 0.13768430054187775 0.07756733894348145
vt 0.006586864590644836 0.07756733894348145
vt 0.13768430054187775 0.05344033241271973
vt 0.006586864590644836 0.02931356430053711
vt 0.13768430054187775 0.02931356430053711
vt 0.006586864590644836 0.005186557769775391
vt 0.13768430054187775 0.005186557769775391
vt 0.258938729763031 0.07756733894348145
vt 0.258938729763031 0.05344033241271973
vt 0.38019314408302307 0.05344033241271973
vt 0.38019314408302307 0.07756733894348145
vt 0.38019314408302307 0.02931356430053711
vt 0.258938729763031 0.02931356430053711
vt 0.258938729763031 0.005186557769775391
vt 0.38019314408302307 0.005186796188354492
vt 0.4353639781475067 0.05344033241271973
vt 0.4353639781475067 0.07756733894348145
vt 0.5014477372169495 0.05344033241271973
vt 0.4353639781475067 0.02931356430053711
vt 0.5014477372169495 0.02931356430053711
vt 0.5014477372169495 0.005186796188354492
vt 0.4353639781475067 0.005186796188354492
vt 0.5014477372169495 0.07756733894348145
vt 0.258938729763031 0.07756733894348145
vt 0.38019314408302307 0.05344033241271973
vt 0.38019314408302307 0.07756733894348145
vt 0.258938729763031 0.05344033241271973
vt 0.38019314408302307 0.02931356430053711
vt 0.258938729763031 0.02931356430053711
vt 0.258938729763031 0.005186557769775391
vt 0.38019314408302307 0.005186796188354492
vt 0.44082045555114746 0.05344033241271973
vt 0.44082045555114746 0.07756733894348145
vt 0.5014477372169495 0.05344033241271973
vt 0.44082045555114746 0.02931356430053711
vt 0.5014477372169495 0.02931356430053711
vt 0.44082045555114746 0.005186796188354492
vt 0.5014477372169495 0.005186796188354492
vt 0.5014477372169495 0.07756733894348145
vt 0.007863308303058147 0.14714926481246948
vt 0.024269890040159225 0.16598641872406006
vt 0.007863308303058147 0.16598641872406006
vt 0.024269890040159225 0.01318281888961792
vt 0.007863308303058147 0.029366791248321533
vt 0.007863308303058147 0.01318281888961792
vt 0.007113381288945675 0.05175060033798218
vt 0.028415190055966377 0.06411737203598022
vt 0.006405457854270935 0.06411737203598022
vt 0.028415190055966377 0.06411737203598022
vt 0.006405457854270935 0.07706016302108765
vt 0.006405457854270935 0.06411737203598022
vt 0.007863308303058147 0.03865009546279907
vt 0.02735072746872902 0.05437040328979492
vt 0.007113381288945675 0.05175060033798218
vt 0.007113381288945675 0.05175060033798218
vt 0.02735072746872902 0.05437040328979492
vt 0.028415190055966377 0.06411737203598022
vt 0.02735072746872902 0.05437040328979492
vt 0.05501151084899902 0.06411737203598022
vt 0.028415190055966377 0.06411737203598022

g bg_mdl_map_miki01
s 1
usemtl bg_mdl_map_miki01
f 3/3/3 2/2/2 1/1/1 
f 6/6/6 5/5/5 4/4/4 
f 7/7/7 4/4/4 5/5/5 
f 7/7/7 5/5/5 8/8/8 
f 9/9/9 8/8/8 5/5/5 
f 9/9/9 10/10/10 8/8/8 
f 11/11/11 8/8/8 10/10/10 
f 8/8/8 12/12/12 7/7/7 
f 13/13/13 7/7/7 12/12/12 
f 4/4/4 7/7/7 13/13/13 
f 13/13/13 14/14/14 4/4/4 
f 15/15/15 4/4/4 14/14/14 
f 11/11/11 16/16/16 8/8/8 
f 12/12/12 8/8/8 16/16/16 
f 14/14/14 13/13/13 17/17/17 
f 18/18/18 17/17/17 13/13/13 
f 13/13/13 12/12/12 18/18/18 
f 19/19/19 18/18/18 12/12/12 
f 16/16/16 20/20/20 12/12/12 
f 19/19/19 12/12/12 20/20/20 
f 6/6/6 21/21/21 5/5/5 
f 21/21/21 6/6/6 22/22/22 
f 23/23/23 22/22/22 6/6/6 
f 22/22/22 23/23/23 24/24/24 
f 25/25/25 24/24/24 23/23/23 
f 24/24/24 25/25/25 26/26/26 
f 27/27/27 26/26/26 25/25/25 
f 27/27/27 25/25/25 28/28/28 
f 29/29/29 28/28/28 25/25/25 
f 29/29/29 25/25/25 30/30/30 
f 31/31/31 30/30/30 25/25/25 
f 17/17/17 18/18/18 32/32/32 
f 20/20/20 33/33/33 19/19/19 
f 21/21/21 35/35/35 34/34/34 
f 36/36/36 34/34/34 35/35/35 
f 36/36/36 37/37/37 34/34/34 
f 38/38/38 34/34/34 37/37/37 
f 34/34/34 5/5/5 21/21/21 
f 34/34/34 38/38/38 5/5/5 
f 9/9/9 5/5/5 38/38/38 
f 38/38/38 39/39/39 9/9/9 
f 40/40/40 9/9/9 39/39/39 
f 9/9/9 40/40/40 41/41/41 
f 42/42/42 41/41/41 40/40/40 
f 9/9/9 41/41/41 43/43/43 
f 32/32/32 45/45/45 44/44/44 
f 46/46/46 44/44/44 45/45/45 
f 45/45/45 32/32/32 18/18/18 
f 18/18/18 19/19/19 45/45/45 
f 47/47/47 45/45/45 19/19/19 
f 47/47/47 19/19/19 33/33/33 
f 44/44/44 46/46/46 48/48/48 
f 49/49/49 48/48/48 46/46/46 
f 49/49/49 46/46/46 50/50/50 
f 51/51/51 50/50/50 46/46/46 
f 47/47/47 51/51/51 45/45/45 
f 46/46/46 45/45/45 51/51/51 
f 47/47/47 33/33/33 51/51/51 
f 51/51/51 52/52/52 50/50/50 
f 52/52/52 51/51/51 33/33/33 
f 53/53/53 50/50/50 52/52/52 
f 56/56/56 55/55/55 54/54/54 
f 57/57/57 54/54/54 55/55/55 
f 55/55/55 58/58/58 57/57/57 
f 59/59/59 57/57/57 58/58/58 
f 59/59/59 60/60/60 57/57/57 
f 61/61/61 57/57/57 60/60/60 
f 57/57/57 61/61/61 54/54/54 
f 61/61/61 60/60/60 62/62/62 
f 61/61/61 62/62/62 63/63/63 
f 63/63/63 54/54/54 61/61/61 
f 64/64/64 63/63/63 62/62/62 
f 54/54/54 63/63/63 65/65/65 
f 54/54/54 65/65/65 56/56/56 
f 66/66/66 65/65/65 63/63/63 
f 63/63/63 64/64/64 66/66/66 
f 67/67/67 62/62/62 60/60/60 
f 59/59/59 58/58/58 68/68/68 
f 59/59/59 68/68/68 60/60/60 
f 69/69/69 68/68/68 58/58/58 
f 67/67/67 60/60/60 70/70/70 
f 71/71/71 70/70/70 60/60/60 
f 71/71/71 60/60/60 68/68/68 
f 68/68/68 69/69/69 72/72/72 
f 68/68/68 72/72/72 71/71/71 
f 73/73/73 72/72/72 69/69/69 
f 74/74/74 72/72/72 73/73/73 
f 74/74/74 75/75/75 72/72/72 
f 75/75/75 71/71/71 72/72/72 
f 70/70/70 71/71/71 76/76/76 
f 75/75/75 76/76/76 71/71/71 
f 76/76/76 75/75/75 74/74/74 
f 77/77/77 66/66/66 64/64/64 
f 78/78/78 56/56/56 65/65/65 
f 56/56/56 78/78/78 79/79/79 
f 80/80/80 79/79/79 78/78/78 
f 79/79/79 81/81/81 56/56/56 
f 55/55/55 56/56/56 81/81/81 
f 81/81/81 58/58/58 55/55/55 
f 83/83/83 82/82/82 15/15/15 
f 84/84/84 15/15/15 82/82/82 
f 85/85/85 84/84/84 82/82/82 
f 85/85/85 6/6/6 84/84/84 
f 6/6/6 4/4/4 84/84/84 
f 15/15/15 84/84/84 4/4/4 
f 88/88/88 87/87/87 86/86/86 
f 86/86/86 87/87/87 89/89/89 
f 92/92/92 91/91/91 90/90/90 
f 95/95/95 94/94/94 93/93/93 
f 98/98/98 97/97/97 96/96/96 
f 101/101/101 100/100/100 99/99/99 
f 103/103/103 100/100/100 102/102/102 
f 106/106/106 105/105/105 104/104/104 
f 106/106/106 107/107/107 105/105/105 
f 110/110/110 109/109/109 108/108/108 
f 113/113/113 112/112/112 111/111/111 
f 116/116/116 115/115/115 114/114/114 
f 119/119/119 118/118/118 117/117/117 
f 122/122/122 121/121/121 120/120/120 
f 125/125/125 124/124/124 123/123/123 
f 128/128/128 127/127/127 126/126/126 
f 131/131/131 130/130/130 129/129/129 
f 132/132/132 129/129/129 130/130/130 
f 135/135/135 134/134/134 133/133/133 
f 136/136/136 133/133/133 134/134/134 
f 133/133/133 136/136/136 137/137/137 
f 138/138/138 137/137/137 136/136/136 
f 137/137/137 138/138/138 139/139/139 
f 140/140/140 139/139/139 138/138/138 
f 134/134/134 141/141/141 136/136/136 
f 142/142/142 136/136/136 141/141/141 
f 142/142/142 141/141/141 143/143/143 
f 144/144/144 143/143/143 141/141/141 
f 143/143/143 145/145/145 142/142/142 
f 146/146/146 142/142/142 145/145/145 
f 138/138/138 146/146/146 140/140/140 
f 142/142/142 146/146/146 136/136/136 
f 138/138/138 136/136/136 146/146/146 
f 146/146/146 145/145/145 147/147/147 
f 147/147/147 140/140/140 146/146/146 
f 148/148/148 147/147/147 145/145/145 
f 143/143/143 144/144/144 149/149/149 
f 143/143/143 149/149/149 145/145/145 
f 150/150/150 149/149/149 144/144/144 
f 145/145/145 151/151/151 148/148/148 
f 151/151/151 145/145/145 149/149/149 
f 152/152/152 148/148/148 151/151/151 
f 155/155/155 154/154/154 153/153/153 
f 156/156/156 153/153/153 154/154/154 
f 153/153/153 156/156/156 157/157/157 
f 158/158/158 157/157/157 156/156/156 
f 157/157/157 158/158/158 159/159/159 
f 160/160/160 159/159/159 158/158/158 
f 154/154/154 161/161/161 156/156/156 
f 162/162/162 156/156/156 161/161/161 
f 162/162/162 161/161/161 163/163/163 
f 164/164/164 163/163/163 161/161/161 
f 163/163/163 165/165/165 162/162/162 
f 166/166/166 162/162/162 165/165/165 
f 158/158/158 166/166/166 160/160/160 
f 162/162/162 166/166/166 156/156/156 
f 158/158/158 156/156/156 166/166/166 
f 166/166/166 165/165/165 167/167/167 
f 167/167/167 160/160/160 166/166/166 
f 168/168/168 167/167/167 165/165/165 
f 163/163/163 164/164/164 169/169/169 
f 163/163/163 169/169/169 165/165/165 
f 170/170/170 169/169/169 164/164/164 
f 168/168/168 165/165/165 171/171/171 
f 172/172/172 171/171/171 165/165/165 
f 172/172/172 165/165/165 169/169/169 
f 169/169/169 170/170/170 173/173/173 
f 169/169/169 173/173/173 172/172/172 
f 174/174/174 173/173/173 170/170/170 
f 171/171/171 172/172/172 175/175/175 
f 176/176/176 175/175/175 172/172/172 
f 176/176/176 172/172/172 173/173/173 
f 179/179/179 178/178/178 177/177/177 
f 180/180/180 177/177/177 178/178/178 
f 177/177/177 180/180/180 181/181/181 
f 182/182/182 181/181/181 180/180/180 
f 181/181/181 182/182/182 183/183/183 
f 184/184/184 183/183/183 182/182/182 
f 178/178/178 185/185/185 180/180/180 
f 186/186/186 180/180/180 185/185/185 
f 186/186/186 185/185/185 187/187/187 
f 188/188/188 187/187/187 185/185/185 
f 187/187/187 189/189/189 186/186/186 
f 190/190/190 186/186/186 189/189/189 
f 182/182/182 190/190/190 184/184/184 
f 186/186/186 190/190/190 180/180/180 
f 182/182/182 180/180/180 190/190/190 
f 190/190/190 189/189/189 191/191/191 
f 191/191/191 184/184/184 190/190/190 
f 192/192/192 191/191/191 189/189/189 
f 187/187/187 188/188/188 193/193/193 
f 187/187/187 193/193/193 189/189/189 
f 194/194/194 193/193/193 188/188/188 
f 193/193/193 194/194/194 195/195/195 
f 193/193/193 195/195/195 196/196/196 
f 189/189/189 196/196/196 192/192/192 
f 196/196/196 189/189/189 193/193/193 
f 197/197/197 196/196/196 195/195/195 
f 196/196/196 197/197/197 198/198/198 
f 198/198/198 192/192/192 196/196/196 
f 199/199/199 198/198/198 197/197/197 
f 200/200/200 195/195/195 194/194/194 
f 203/203/203 202/202/202 201/201/201 
f 204/204/204 201/201/201 202/202/202 
f 201/201/201 204/204/204 205/205/205 
f 206/206/206 205/205/205 204/204/204 
f 205/205/205 206/206/206 207/207/207 
f 208/208/208 207/207/207 206/206/206 
f 202/202/202 209/209/209 204/204/204 
f 210/210/210 204/204/204 209/209/209 
f 210/210/210 209/209/209 211/211/211 
f 212/212/212 211/211/211 209/209/209 
f 211/211/211 213/213/213 210/210/210 
f 214/214/214 210/210/210 213/213/213 
f 206/206/206 214/214/214 208/208/208 
f 210/210/210 214/214/214 204/204/204 
f 206/206/206 204/204/204 214/214/214 
f 214/214/214 213/213/213 215/215/215 
f 215/215/215 208/208/208 214/214/214 
f 216/216/216 215/215/215 213/213/213 
f 211/211/211 212/212/212 217/217/217 
f 211/211/211 217/217/217 213/213/213 
f 218/218/218 217/217/217 212/212/212 
f 213/213/213 219/219/219 216/216/216 
f 219/219/219 213/213/213 217/217/217 
f 220/220/220 216/216/216 219/219/219 
f 223/223/223 222/222/222 221/221/221 
f 224/224/224 221/221/221 222/222/222 
f 222/222/222 225/225/225 224/224/224 
f 226/226/226 224/224/224 225/225/225 
f 226/226/226 225/225/225 227/227/227 
f 228/228/228 227/227/227 225/225/225 
f 224/224/224 229/229/229 221/221/221 
f 224/224/224 226/226/226 229/229/229 
f 230/230/230 221/221/221 229/229/229 
f 222/222/222 223/223/223 231/231/231 
f 222/222/222 231/231/231 225/225/225 
f 232/232/232 231/231/231 223/223/223 
f 227/227/227 233/233/233 226/226/226 
f 234/234/234 226/226/226 233/233/233 
f 234/234/234 229/229/229 226/226/226 
f 228/228/228 225/225/225 235/235/235 
f 236/236/236 235/235/235 225/225/225 
f 236/236/236 225/225/225 231/231/231 
f 231/231/231 232/232/232 237/237/237 
f 231/231/231 237/237/237 236/236/236 
f 238/238/238 237/237/237 232/232/232 
f 237/237/237 238/238/238 239/239/239 
f 240/240/240 239/239/239 238/238/238 
f 237/237/237 239/239/239 241/241/241 
f 241/241/241 236/236/236 237/237/237 
f 242/242/242 241/241/241 239/239/239 
f 242/242/242 243/243/243 241/241/241 
f 244/244/244 241/241/241 243/243/243 
f 235/235/235 236/236/236 244/244/244 
f 241/241/241 244/244/244 236/236/236 
f 247/247/247 246/246/246 245/245/245 
f 248/248/248 245/245/245 246/246/246 
f 245/245/245 248/248/248 249/249/249 
f 250/250/250 249/249/249 248/248/248 
f 249/249/249 250/250/250 251/251/251 
f 252/252/252 251/251/251 250/250/250 
f 246/246/246 253/253/253 248/248/248 
f 254/254/254 248/248/248 253/253/253 
f 254/254/254 253/253/253 255/255/255 
f 256/256/256 255/255/255 253/253/253 
f 255/255/255 257/257/257 254/254/254 
f 258/258/258 254/254/254 257/257/257 
f 250/250/250 258/258/258 252/252/252 
f 254/254/254 258/258/258 248/248/248 
f 250/250/250 248/248/248 258/258/258 
f 258/258/258 257/257/257 259/259/259 
f 259/259/259 252/252/252 258/258/258 
f 260/260/260 259/259/259 257/257/257 
f 255/255/255 256/256/256 261/261/261 
f 255/255/255 261/261/261 257/257/257 
f 262/262/262 261/261/261 256/256/256 
f 261/261/261 262/262/262 263/263/263 
f 261/261/261 263/263/263 264/264/264 
f 264/264/264 257/257/257 261/261/261 
f 265/265/265 264/264/264 263/263/263 
f 265/265/265 266/266/266 264/264/264 
f 267/267/267 264/264/264 266/266/266 
f 260/260/260 257/257/257 267/267/267 
f 264/264/264 267/267/267 257/257/257 
f 268/268/268 263/263/263 262/262/262 
f 271/271/271 270/270/270 269/269/269 
f 272/272/272 269/269/269 270/270/270 
f 270/270/270 273/273/273 272/272/272 
f 274/274/274 272/272/272 273/273/273 
f 274/274/274 273/273/273 275/275/275 
f 276/276/276 275/275/275 273/273/273 
f 270/270/270 271/271/271 277/277/277 
f 270/270/270 277/277/277 273/273/273 
f 278/278/278 277/277/277 271/271/271 
f 277/277/277 278/278/278 279/279/279 
f 277/277/277 279/279/279 280/280/280 
f 273/273/273 280/280/280 276/276/276 
f 280/280/280 273/273/273 277/277/277 
f 281/281/281 280/280/280 279/279/279 
f 280/280/280 281/281/281 282/282/282 
f 282/282/282 276/276/276 280/280/280 
f 283/283/283 282/282/282 281/281/281 
f 284/284/284 279/279/279 278/278/278 
f 287/287/287 286/286/286 285/285/285 
f 290/290/290 289/289/289 288/288/288 
f 293/293/293 292/292/292 291/291/291 
f 296/296/296 295/295/295 294/294/294 
f 299/299/299 298/298/298 297/297/297 
f 302/302/302 301/301/301 300/300/300 
f 305/305/305 304/304/304 303/303/303 

