v 1.3717602491378784 -0.9580743312835693 1.9600013494491577
v 1.4822852611541748 -0.9580743312835693 1.3732909565078444e-06
v 1.3717602491378784 -0.9580743312835693 1.3732909565078444e-06
v 1.4822852611541748 -0.9580743312835693 1.9600013494491577
v 1.4822852611541748 -0.9580743312835693 1.9600013494491577
v 1.4822853803634644 -0.7494910359382629 1.3732909565078444e-06
v 1.4822852611541748 -0.9580743312835693 1.3732909565078444e-06
v 1.4822853803634644 -0.7494910359382629 1.9600013494491577
v 1.4822853803634644 -0.7494910359382629 1.9600013494491577
v 1.3717602491378784 -0.7494910359382629 1.3732909565078444e-06
v 1.4822853803634644 -0.7494910359382629 1.3732909565078444e-06
v 1.3717602491378784 -0.7494910359382629 1.9600013494491577
v 1.3717602491378784 -0.7494910359382629 1.9600013494491577
v 1.3717602491378784 -0.9580743312835693 1.3732909565078444e-06
v 1.3717602491378784 -0.7494910359382629 1.3732909565078444e-06
v 1.3717602491378784 -0.9580743312835693 1.9600013494491577
v 0.5000397562980652 -0.9582842588424683 0.2517753541469574
v 1.497496247291565 -0.9864521622657776 0.25000137090682983
v 0.5000397562980652 -0.9864521622657776 0.2517753541469574
v 1.497496247291565 -0.9582842588424683 0.25000137090682983
v 0.5000397562980652 -0.9864521622657776 0.2517753541469574
v 1.497496247291565 -0.9864521622657776 0.1412103772163391
v 0.5000397562980652 -0.9864521622657776 0.1412103772163391
v 1.497496247291565 -0.9864521622657776 0.25000137090682983
v 1.497496247291565 -0.9864521622657776 0.25000137090682983
v 1.497496247291565 -0.9582842588424683 0.1412103772163391
v 1.497496247291565 -0.9864521622657776 0.1412103772163391
v 1.497496247291565 -0.9582842588424683 0.25000137090682983
v 1.497496247291565 -0.9582842588424683 0.25000137090682983
v 0.5000397562980652 -0.9582842588424683 0.1412103772163391
v 1.497496247291565 -0.9582842588424683 0.1412103772163391
v 0.5000397562980652 -0.9582842588424683 0.2517753541469574
v 1.4377484321594238 -0.9465853571891785 0.25316137075424194
v 1.4026873111724854 -0.9768173098564148 0.25316137075424194
v 1.4377484321594238 -0.9768173098564148 0.25316137075424194
v 1.4026873111724854 -0.9465853571891785 0.25316137075424194
v 1.4026873111724854 -0.9768173098564148 0.3105153441429138
v 1.4377484321594238 -0.9465853571891785 0.3087043762207031
v 1.4377484321594238 -0.9768173098564148 0.3105153441429138
v 1.4026873111724854 -0.9465853571891785 0.3087043762207031
v 1.4377484321594238 -0.9465853571891785 0.3087043762207031
v 1.4377484321594238 -0.9768173098564148 0.25316137075424194
v 1.4377484321594238 -0.9768173098564148 0.3105153441429138
v 1.4377484321594238 -0.9465853571891785 0.25316137075424194
v 1.4026873111724854 -0.9465853571891785 0.3087043762207031
v 1.4026873111724854 -0.9768173098564148 0.25316137075424194
v 1.4026873111724854 -0.9465853571891785 0.25316137075424194
v 1.4026873111724854 -0.9768173098564148 0.3105153441429138
v 1.4026873111724854 -0.9768173098564148 0.3105153441429138
v 1.4377484321594238 -0.9768173098564148 0.25316137075424194
v 1.4026873111724854 -0.9768173098564148 0.25316137075424194
v 1.4377484321594238 -0.9768173098564148 0.3105153441429138
v 0.4974963366985321 -0.9582842588424683 1.9600013494491577
v 1.497496247291565 -0.9740353226661682 1.9564533233642578
v 0.4979031980037689 -0.9740353226661682 1.9582273960113525
v 1.497496247291565 -0.9582842588424683 1.9564533233642578
v 0.4979031980037689 -0.9740353226661682 1.9582273960113525
v 1.497496247291565 -0.9740353226661682 1.847662329673767
v 0.4979031980037689 -0.9740353226661682 1.847662329673767
v 1.497496247291565 -0.9740353226661682 1.9564533233642578
v 1.497496247291565 -0.9740353226661682 1.9564533233642578
v 1.497496247291565 -0.9582842588424683 1.847662329673767
v 1.497496247291565 -0.9740353226661682 1.847662329673767
v 1.497496247291565 -0.9582842588424683 1.9564533233642578
v 1.497496247291565 -0.9582842588424683 1.9564533233642578
v 0.4974963366985321 -0.9582842588424683 1.847662329673767
v 1.497496247291565 -0.9582842588424683 1.847662329673767
v 0.4974963366985321 -0.9582842588424683 1.9600013494491577
v 1.1719443798065186 -0.9450603127479553 1.8794773817062378
v 1.3907983303070068 -0.9450603127479553 1.6249823570251465
v 1.1441233158111572 -0.9450603127479553 1.8516573905944824
v 1.4186183214187622 -0.9450603127479553 1.6528022289276123
v 1.1719443798065186 -0.9450603127479553 1.8794773817062378
v 1.4186183214187622 -0.9074212908744812 1.6528022289276123
v 1.4186183214187622 -0.9450603127479553 1.6528022289276123
v 1.1719443798065186 -0.9074212908744812 1.8794773817062378
v 1.1719443798065186 -0.9074212908744812 1.8794773817062378
v 1.3907983303070068 -0.9074212908744812 1.6249823570251465
v 1.4186183214187622 -0.9074212908744812 1.6528022289276123
v 1.1441233158111572 -0.9074212908744812 1.8516573905944824
v 1.1441233158111572 -0.9074212908744812 1.8516573905944824
v 1.3907983303070068 -0.9450603127479553 1.6249823570251465
v 1.3907983303070068 -0.9074212908744812 1.6249823570251465
v 1.1441233158111572 -0.9450603127479553 1.8516573905944824
v 1.3809632062911987 -0.9343463182449341 0.317910373210907
v 1.4594722986221313 0.934344470500946 0.3154083788394928
v 1.3809632062911987 0.934344470500946 0.3154083788394928
v 1.4594722986221313 -0.9343463182449341 0.317910373210907
v 1.4594722986221313 -0.9343463182449341 0.317910373210907
v 1.4594722986221313 0.934344470500946 0.23867936432361603
v 1.4594722986221313 -0.9343463182449341 0.23867936432361603
v 1.4594722986221313 0.934344470500946 0.3154083788394928
v 1.3809632062911987 0.934344470500946 0.3154083788394928
v 1.3809632062911987 -0.9343463182449341 0.23867936432361603
v 1.3809632062911987 0.934344470500946 0.23867936432361603
v 1.3809632062911987 -0.9343463182449341 0.317910373210907
v 1.4822852611541748 0.9580724835395813 1.3732909565078444e-06
v 1.3717602491378784 0.9580724835395813 1.9600013494491577
v 1.3717602491378784 0.9580724835395813 1.3732909565078444e-06
v 1.4822852611541748 0.9580724835395813 1.9600013494491577
v 1.4822853803634644 0.7494894862174988 1.3732909565078444e-06
v 1.4822852611541748 0.9580724835395813 1.9600013494491577
v 1.4822852611541748 0.9580724835395813 1.3732909565078444e-06
v 1.4822853803634644 0.7494894862174988 1.9600013494491577
v 1.3717602491378784 0.7494894862174988 1.3732909565078444e-06
v 1.4822853803634644 0.7494894862174988 1.9600013494491577
v 1.4822853803634644 0.7494894862174988 1.3732909565078444e-06
v 1.3717602491378784 0.7494894862174988 1.9600013494491577
v 1.3717602491378784 0.9580724835395813 1.3732909565078444e-06
v 1.3717602491378784 0.7494894862174988 1.9600013494491577
v 1.3717602491378784 0.7494894862174988 1.3732909565078444e-06
v 1.3717602491378784 0.9580724835395813 1.9600013494491577
v 1.497496247291565 0.9864504933357239 0.25000137090682983
v 0.5000397562980652 0.958282470703125 0.2517753541469574
v 0.5000397562980652 0.9864504933357239 0.2517753541469574
v 1.497496247291565 0.958282470703125 0.25000137090682983
v 1.497496247291565 0.9864504933357239 0.14121036231517792
v 0.5000397562980652 0.9864504933357239 0.2517753541469574
v 0.5000397562980652 0.9864504933357239 0.14121036231517792
v 1.497496247291565 0.9864504933357239 0.25000137090682983
v 1.497496247291565 0.958282470703125 0.14121036231517792
v 1.497496247291565 0.9864504933357239 0.25000137090682983
v 1.497496247291565 0.9864504933357239 0.14121036231517792
v 1.497496247291565 0.958282470703125 0.25000137090682983
v 0.5000397562980652 0.958282470703125 0.14121036231517792
v 1.497496247291565 0.958282470703125 0.25000137090682983
v 1.497496247291565 0.958282470703125 0.14121036231517792
v 0.5000397562980652 0.958282470703125 0.2517753541469574
v 1.4026873111724854 0.9768154621124268 0.25316137075424194
v 1.4377484321594238 0.9465835094451904 0.25316137075424194
v 1.4377484321594238 0.9768154621124268 0.25316137075424194
v 1.4026873111724854 0.9465835094451904 0.25316137075424194
v 1.4377484321594238 0.9465835094451904 0.3087043762207031
v 1.4026873111724854 0.9768154621124268 0.3105153441429138
v 1.4377484321594238 0.9768154621124268 0.3105153441429138
v 1.4026873111724854 0.9465835094451904 0.3087043762207031
v 1.4377484321594238 0.9465835094451904 0.3087043762207031
v 1.4377484321594238 0.9768154621124268 0.25316137075424194
v 1.4377484321594238 0.9465835094451904 0.25316137075424194
v 1.4377484321594238 0.9768154621124268 0.3105153441429138
v 1.4026873111724854 0.9768154621124268 0.25316137075424194
v 1.4026873111724854 0.9465835094451904 0.3087043762207031
v 1.4026873111724854 0.9465835094451904 0.25316137075424194
v 1.4026873111724854 0.9768154621124268 0.3105153441429138
v 1.4377484321594238 0.9768154621124268 0.25316137075424194
v 1.4026873111724854 0.9768154621124268 0.3105153441429138
v 1.4026873111724854 0.9768154621124268 0.25316137075424194
v 1.4377484321594238 0.9768154621124268 0.3105153441429138
v 1.497496247291565 0.9740334749221802 1.9564533233642578
v 0.4974963366985321 0.958282470703125 1.9600013494491577
v 0.4985041618347168 0.9740344285964966 1.96000075340271
v 1.497496247291565 0.958282470703125 1.9564533233642578
v 1.497496247291565 0.9740334749221802 1.847662329673767
v 0.4985041618347168 0.9740344285964966 1.96000075340271
v 0.4985041618347168 0.9740344285964966 1.8476614952087402
v 1.497496247291565 0.9740334749221802 1.9564533233642578
v 1.497496247291565 0.958282470703125 1.847662329673767
v 1.497496247291565 0.9740334749221802 1.9564533233642578
v 1.497496247291565 0.9740334749221802 1.847662329673767
v 1.497496247291565 0.958282470703125 1.9564533233642578
v 0.4974963366985321 0.958282470703125 1.847662329673767
v 1.497496247291565 0.958282470703125 1.9564533233642578
v 1.497496247291565 0.958282470703125 1.847662329673767
v 0.4974963366985321 0.958282470703125 1.9600013494491577
v 1.1719443798065186 0.9450585842132568 1.8794773817062378
v 1.3907983303070068 0.9450585842132568 1.6249823570251465
v 1.4186183214187622 0.9450585842132568 1.6528022289276123
v 1.1441233158111572 0.9450585842132568 1.8516573905944824
v 1.4186183214187622 0.9074193835258484 1.6528022289276123
v 1.1719443798065186 0.9450585842132568 1.8794773817062378
v 1.4186183214187622 0.9450585842132568 1.6528022289276123
v 1.1719443798065186 0.9074193835258484 1.8794773817062378
v 1.3907983303070068 0.9074193835258484 1.6249823570251465
v 1.1719443798065186 0.9074193835258484 1.8794773817062378
v 1.4186183214187622 0.9074193835258484 1.6528022289276123
v 1.1441233158111572 0.9074193835258484 1.8516573905944824
v 1.3907983303070068 0.9450585842132568 1.6249823570251465
v 1.1441233158111572 0.9074193835258484 1.8516573905944824
v 1.3907983303070068 0.9074193835258484 1.6249823570251465
v 1.1441233158111572 0.9450585842132568 1.8516573905944824
v 0.4974983036518097 0.9997125267982483 2.0000014305114746
v 1.4924962520599365 -0.9997143149375916 2.0000014305114746
v 0.4974983036518097 -0.9997143149375916 2.0000014305114746
v 1.4924962520599365 0.9997125267982483 2.0000014305114746
v 0.4974983036518097 -0.9997143149375916 2.0000014305114746
v 1.4924962520599365 -0.9997143149375916 1.9600013494491577
v 0.4974983036518097 -0.9997143149375916 1.9600013494491577
v 1.4924962520599365 -0.9997143149375916 2.0000014305114746
v 1.4924962520599365 -0.9997143149375916 2.0000014305114746
v 1.4924962520599365 0.9997125267982483 1.9600013494491577
v 1.4924962520599365 -0.9997143149375916 1.9600013494491577
v 1.4924962520599365 0.9997125267982483 2.0000014305114746
v 1.4924962520599365 0.9997125267982483 2.0000014305114746
v 0.4974983036518097 0.9997125267982483 1.9600013494491577
v 1.4924962520599365 0.9997125267982483 1.9600013494491577
v 0.4974983036518097 0.9997125267982483 2.0000014305114746
v 1.411603331565857 0.8914954662322998 0.26118847727775574
v 1.4350441694259644 -0.9262222647666931 1.9318794012069702
v 1.4441403150558472 0.8912304639816284 0.26130348443984985
v 1.4025063514709473 -0.9259573221206665 1.9317644834518433
v 1.4351493120193481 -0.908859372138977 1.9688143730163574
v 1.41171133518219 0.9097265601158142 0.2991533577442169
v 1.4442492723464966 0.909461498260498 0.29926836490631104
v 1.402612328529358 -0.9085953235626221 1.968699336051941
v 1.4350441694259644 -0.9262222647666931 1.9318794012069702
v 1.4442492723464966 0.909461498260498 0.29926836490631104
v 1.4441403150558472 0.8912304639816284 0.26130348443984985
v 1.4351493120193481 -0.908859372138977 1.9688143730163574
v 1.411603331565857 0.8914954662322998 0.26118847727775574
v 1.402612328529358 -0.9085953235626221 1.968699336051941
v 1.4025063514709473 -0.9259573221206665 1.9317644834518433
v 1.41171133518219 0.9097265601158142 0.2991533577442169
v 1.4321343898773193 0.9251382350921631 1.9333940744400024
v 1.414512276649475 -0.89253169298172 0.26272323727607727
v 1.441230297088623 -0.8923137187957764 0.26281821727752686
v 1.4054162502288818 0.9249210953712463 1.93329918384552
v 1.4146212339401245 -0.9097053408622742 0.2991633713245392
v 1.432239294052124 0.9088345170021057 1.9688044786453247
v 1.441339373588562 -0.9094873070716858 0.29925736784935
v 1.4055222272872925 0.9086164832115173 1.9687104225158691
v 1.441339373588562 -0.9094873070716858 0.29925736784935
v 1.4321343898773193 0.9251382350921631 1.9333940744400024
v 1.441230297088623 -0.8923137187957764 0.26281821727752686
v 1.432239294052124 0.9088345170021057 1.9688044786453247
v 1.4055222272872925 0.9086164832115173 1.9687104225158691
v 1.414512276649475 -0.89253169298172 0.26272323727607727
v 1.4054162502288818 0.9249210953712463 1.93329918384552
v 1.4146212339401245 -0.9097053408622742 0.2991633713245392
v -1.4924983978271484 0.9997125267982483 2.0000014305114746
v -1.4924983978271484 -0.9997143149375916 1.9600013494491577
v -1.4924983978271484 0.9997125267982483 1.9600013494491577
v -1.4924983978271484 -0.9997143149375916 2.0000014305114746
v -0.4974996745586395 0.999713122844696 2.000000238418579
v 0.49749839305877686 -0.9997143149375916 2.0
v -0.4974996745586395 -0.9997137188911438 2.000000238418579
v 0.49749839305877686 0.9997125267982483 2.0
v -0.4974996745586395 -0.9997137188911438 2.000000238418579
v 0.49749839305877686 -0.9997143149375916 1.9600001573562622
v -0.4974996745586395 -0.9997137188911438 1.9600002765655518
v 0.49749839305877686 -0.9997143149375916 2.0
v 0.49749839305877686 0.9997125267982483 2.0
v -0.4974996745586395 0.999713122844696 1.9600002765655518
v 0.49749839305877686 0.9997125267982483 1.9600001573562622
v -0.4974996745586395 0.999713122844696 2.000000238418579
v -1.4924978017807007 0.9997137188911438 2.000000476837158
v -0.4974996745586395 -0.9997137188911438 2.000000238418579
v -1.4924978017807007 -0.999713122844696 2.000000476837158
v -0.4974996745586395 0.999713122844696 2.000000238418579
v -1.4924978017807007 -0.999713122844696 2.000000476837158
v -0.4974996745586395 -0.9997137188911438 1.9600002765655518
v -1.4924978017807007 -0.999713122844696 1.9600003957748413
v -0.4974996745586395 -0.9997137188911438 2.000000238418579
v -0.4974996745586395 0.999713122844696 2.000000238418579
v -1.4924978017807007 0.9997137188911438 1.9600003957748413
v -0.4974996745586395 0.999713122844696 1.9600002765655518
v -1.4924978017807007 0.9997137188911438 2.000000476837158
v -1.3717607259750366 0.9580743312835693 1.959999918937683
v -1.482285737991333 0.9580743312835693 0.0
v -1.3717607259750366 0.9580743312835693 0.0
v -1.482285737991333 0.9580743312835693 1.959999918937683
v -1.482285737991333 0.9580743312835693 1.959999918937683
v -1.482285737991333 0.7494909763336182 0.0
v -1.482285737991333 0.9580743312835693 0.0
v -1.482285737991333 0.7494909763336182 1.959999918937683
v -1.482285737991333 0.7494909763336182 1.959999918937683
v -1.3717604875564575 0.7494910955429077 0.0
v -1.482285737991333 0.7494909763336182 0.0
v -1.3717604875564575 0.7494910955429077 1.959999918937683
v -1.3717604875564575 0.7494910955429077 1.959999918937683
v -1.3717607259750366 0.9580743312835693 0.0
v -1.3717604875564575 0.7494910955429077 0.0
v -1.3717607259750366 0.9580743312835693 1.959999918937683
v -0.4974566400051117 0.9582833647727966 0.25354868173599243
v -1.4974966049194336 0.9864522814750671 0.25
v -0.4974566400051117 0.9864513874053955 0.25354868173599243
v -1.4974966049194336 0.9582842588424683 0.25
v -0.4974566400051117 0.9864513874053955 0.25354868173599243
v -1.4974966049194336 0.9864522814750671 0.14120899140834808
v -0.4974566400051117 0.9864513874053955 0.141209676861763
v -1.4974966049194336 0.9864522814750671 0.25
v -1.4974966049194336 0.9864522814750671 0.25
v -1.4974966049194336 0.9582842588424683 0.14120899140834808
v -1.4974966049194336 0.9864522814750671 0.14120899140834808
v -1.4974966049194336 0.9582842588424683 0.25
v -1.4974966049194336 0.9582842588424683 0.25
v -0.4974566400051117 0.9582833647727966 0.141209676861763
v -1.4974966049194336 0.9582842588424683 0.14120899140834808
v -0.4974566400051117 0.9582833647727966 0.25354868173599243
v -1.437748670578003 0.9465852379798889 0.2531599998474121
v -1.402687668800354 0.9768173098564148 0.2531599998474121
v -1.437748670578003 0.9768173098564148 0.2531599998474121
v -1.402687668800354 0.9465852379798889 0.2531599998474121
v -1.402687668800354 0.9768173098564148 0.310513973236084
v -1.437748670578003 0.9465852379798889 0.3087030053138733
v -1.437748670578003 0.9768173098564148 0.310513973236084
v -1.402687668800354 0.9465852379798889 0.3087030053138733
v -1.437748670578003 0.9465852379798889 0.3087030053138733
v -1.437748670578003 0.9768173098564148 0.2531599998474121
v -1.437748670578003 0.9768173098564148 0.310513973236084
v -1.437748670578003 0.9465852379798889 0.2531599998474121
v -1.402687668800354 0.9465852379798889 0.3087030053138733
v -1.402687668800354 0.9768173098564148 0.2531599998474121
v -1.402687668800354 0.9465852379798889 0.2531599998474121
v -1.402687668800354 0.9768173098564148 0.310513973236084
v -1.402687668800354 0.9768173098564148 0.310513973236084
v -1.437748670578003 0.9768173098564148 0.2531599998474121
v -1.402687668800354 0.9768173098564148 0.2531599998474121
v -1.437748670578003 0.9768173098564148 0.310513973236084
v -0.497496634721756 0.9582844376564026 1.959999918937683
v -1.4974966049194336 0.9740353226661682 1.9564520120620728
v -0.49899229407310486 0.9740353226661682 1.958225965499878
v -1.4974966049194336 0.9582842588424683 1.9564520120620728
v -0.49899229407310486 0.9740353226661682 1.958225965499878
v -1.4974966049194336 0.9740353226661682 1.8476608991622925
v -0.49899229407310486 0.9740353226661682 1.8476608991622925
v -1.4974966049194336 0.9740353226661682 1.9564520120620728
v -1.4974966049194336 0.9740353226661682 1.9564520120620728
v -1.4974966049194336 0.9582842588424683 1.8476608991622925
v -1.4974966049194336 0.9740353226661682 1.8476608991622925
v -1.4974966049194336 0.9582842588424683 1.9564520120620728
v -1.4974966049194336 0.9582842588424683 1.9564520120620728
v -0.497496634721756 0.9582844376564026 1.8476608991622925
v -1.4974966049194336 0.9582842588424683 1.8476608991622925
v -0.497496634721756 0.9582844376564026 1.959999918937683
v -1.1719447374343872 0.9450602531433105 1.8794759511947632
v -1.390798568725586 0.9450602531433105 1.6249809265136719
v -1.1441236734390259 0.9450602531433105 1.8516559600830078
v -1.4186187982559204 0.9450602531433105 1.6528010368347168
v -1.1719447374343872 0.9450602531433105 1.8794759511947632
v -1.4186187982559204 0.9074212312698364 1.6528010368347168
v -1.4186187982559204 0.9450602531433105 1.6528010368347168
v -1.1719447374343872 0.9074212312698364 1.8794759511947632
v -1.1719447374343872 0.9074212312698364 1.8794759511947632
v -1.390798568725586 0.9074212312698364 1.6249809265136719
v -1.4186187982559204 0.9074212312698364 1.6528010368347168
v -1.1441236734390259 0.9074212312698364 1.8516559600830078
v -1.1441236734390259 0.9074212312698364 1.8516559600830078
v -1.390798568725586 0.9450602531433105 1.6249809265136719
v -1.390798568725586 0.9074212312698364 1.6249809265136719
v -1.1441236734390259 0.9450602531433105 1.8516559600830078
v -1.380963683128357 0.9343463182449341 0.31790897250175476
v -1.4594722986221313 -0.934344470500946 0.31540700793266296
v -1.3809634447097778 -0.934344470500946 0.31540700793266296
v -1.45947265625 0.9343463182449341 0.31790897250175476
v -1.45947265625 0.9343463182449341 0.31790897250175476
v -1.4594722986221313 -0.934344470500946 0.2386779934167862
v -1.45947265625 0.9343463182449341 0.2386779934167862
v -1.4594722986221313 -0.934344470500946 0.31540700793266296
v -1.3809634447097778 -0.934344470500946 0.31540700793266296
v -1.380963683128357 0.9343463182449341 0.2386779934167862
v -1.3809634447097778 -0.934344470500946 0.2386779934167862
v -1.380963683128357 0.9343463182449341 0.31790897250175476
v -1.4822853803634644 -0.9580724835395813 0.0
v -1.371760368347168 -0.9580724835395813 1.959999918937683
v -1.371760368347168 -0.9580724835395813 0.0
v -1.4822853803634644 -0.9580724835395813 1.959999918937683
v -1.4822853803634644 -0.7494894862174988 0.0
v -1.4822853803634644 -0.9580724835395813 1.959999918937683
v -1.4822853803634644 -0.9580724835395813 0.0
v -1.4822853803634644 -0.7494894862174988 1.959999918937683
v -1.3717602491378784 -0.7494894862174988 0.0
v -1.4822853803634644 -0.7494894862174988 1.959999918937683
v -1.4822853803634644 -0.7494894862174988 0.0
v -1.3717602491378784 -0.7494894862174988 1.959999918937683
v -1.371760368347168 -0.9580724835395813 0.0
v -1.3717602491378784 -0.7494894862174988 1.959999918937683
v -1.3717602491378784 -0.7494894862174988 0.0
v -1.371760368347168 -0.9580724835395813 1.959999918937683
v -1.497496247291565 -0.9864503145217896 0.25
v -0.4974566400051117 -0.9582833647727966 0.25354868173599243
v -0.4974566400051117 -0.986451268196106 0.25354868173599243
v -1.497496247291565 -0.958282470703125 0.25
v -1.497496247291565 -0.9864503145217896 0.14120899140834808
v -0.4974566400051117 -0.986451268196106 0.25354868173599243
v -0.4974566400051117 -0.986451268196106 0.141209676861763
v -1.497496247291565 -0.9864503145217896 0.25
v -1.497496247291565 -0.958282470703125 0.14120899140834808
v -1.497496247291565 -0.9864503145217896 0.25
v -1.497496247291565 -0.9864503145217896 0.14120899140834808
v -1.497496247291565 -0.958282470703125 0.25
v -0.4974566400051117 -0.9582833647727966 0.141209676861763
v -1.497496247291565 -0.958282470703125 0.25
v -1.497496247291565 -0.958282470703125 0.14120899140834808
v -0.4974566400051117 -0.9582833647727966 0.25354868173599243
v -1.4026873111724854 -0.9768154621124268 0.2531599998474121
v -1.4377484321594238 -0.9465835094451904 0.2531599998474121
v -1.4377484321594238 -0.9768154621124268 0.2531599998474121
v -1.4026873111724854 -0.9465835094451904 0.2531599998474121
v -1.4377484321594238 -0.9465835094451904 0.3087030053138733
v -1.4026873111724854 -0.9768154621124268 0.310513973236084
v -1.4377484321594238 -0.9768154621124268 0.310513973236084
v -1.4026873111724854 -0.9465835094451904 0.3087030053138733
v -1.4377484321594238 -0.9465835094451904 0.3087030053138733
v -1.4377484321594238 -0.9768154621124268 0.2531599998474121
v -1.4377484321594238 -0.9465835094451904 0.2531599998474121
v -1.4377484321594238 -0.9768154621124268 0.310513973236084
v -1.4026873111724854 -0.9768154621124268 0.2531599998474121
v -1.4026873111724854 -0.9465835094451904 0.3087030053138733
v -1.4026873111724854 -0.9465835094451904 0.2531599998474121
v -1.4026873111724854 -0.9768154621124268 0.310513973236084
v -1.4377484321594238 -0.9768154621124268 0.2531599998474121
v -1.4026873111724854 -0.9768154621124268 0.310513973236084
v -1.4026873111724854 -0.9768154621124268 0.2531599998474121
v -1.4377484321594238 -0.9768154621124268 0.310513973236084
v -1.497496247291565 -0.9740334749221802 1.9564520120620728
v -0.4974963366985321 -0.958282470703125 1.959999918937683
v -0.49959319829940796 -0.9740344285964966 1.96000075340271
v -1.497496247291565 -0.958282470703125 1.9564520120620728
v -1.497496247291565 -0.9740334749221802 1.8476608991622925
v -0.49959319829940796 -0.9740344285964966 1.96000075340271
v -0.49959319829940796 -0.9740344285964966 1.8476614952087402
v -1.497496247291565 -0.9740334749221802 1.9564520120620728
v -1.497496247291565 -0.958282470703125 1.8476608991622925
v -1.497496247291565 -0.9740334749221802 1.9564520120620728
v -1.497496247291565 -0.9740334749221802 1.8476608991622925
v -1.497496247291565 -0.958282470703125 1.9564520120620728
v -0.4974963366985321 -0.958282470703125 1.8476608991622925
v -1.497496247291565 -0.958282470703125 1.9564520120620728
v -1.497496247291565 -0.958282470703125 1.8476608991622925
v -0.4974963366985321 -0.958282470703125 1.959999918937683
v -1.1719443798065186 -0.9450585842132568 1.8794759511947632
v -1.3907983303070068 -0.9450585842132568 1.6249809265136719
v -1.4186184406280518 -0.9450585842132568 1.6528010368347168
v -1.1441233158111572 -0.9450585842132568 1.8516559600830078
v -1.4186184406280518 -0.9074193835258484 1.6528010368347168
v -1.1719443798065186 -0.9450585842132568 1.8794759511947632
v -1.4186184406280518 -0.9450585842132568 1.6528010368347168
v -1.1719443798065186 -0.9074193835258484 1.8794759511947632
v -1.3907983303070068 -0.9074193835258484 1.6249809265136719
v -1.1719443798065186 -0.9074193835258484 1.8794759511947632
v -1.4186184406280518 -0.9074193835258484 1.6528010368347168
v -1.1441233158111572 -0.9074193835258484 1.8516559600830078
v -1.3907983303070068 -0.9450585842132568 1.6249809265136719
v -1.1441233158111572 -0.9074193835258484 1.8516559600830078
v -1.3907983303070068 -0.9074193835258484 1.6249809265136719
v -1.1441233158111572 -0.9450585842132568 1.8516559600830078
v -1.411603331565857 -0.8914954662322998 0.2611870765686035
v -1.4350446462631226 0.9262222051620483 1.9318779706954956
v -1.4441403150558472 -0.8912304639816284 0.26130211353302
v -1.402506709098816 0.9259573221206665 1.9317630529403687
v -1.4351496696472168 0.9088592529296875 1.9688129425048828
v -1.41171133518219 -0.9097265601158142 0.2991519868373871
v -1.4442493915557861 -0.909461498260498 0.2992669939994812
v -1.4026126861572266 0.9085952639579773 1.9686979055404663
v -1.4350446462631226 0.9262222051620483 1.9318779706954956
v -1.4442493915557861 -0.909461498260498 0.2992669939994812
v -1.4441403150558472 -0.8912304639816284 0.26130211353302
v -1.4351496696472168 0.9088592529296875 1.9688129425048828
v -1.411603331565857 -0.8914954662322998 0.2611870765686035
v -1.4026126861572266 0.9085952639579773 1.9686979055404663
v -1.402506709098816 0.9259573221206665 1.9317630529403687
v -1.41171133518219 -0.9097265601158142 0.2991519868373871
v -1.4321343898773193 -0.9251382350921631 1.9333927631378174
v -1.4145126342773438 0.89253169298172 0.26272186636924744
v -1.4412307739257812 0.8923136591911316 0.262816846370697
v -1.4054163694381714 -0.9249210953712463 1.933297872543335
v -1.4146217107772827 0.9097051620483398 0.29916200041770935
v -1.432239294052124 -0.9088345170021057 1.9688029289245605
v -1.4413397312164307 0.9094873070716858 0.29925599694252014
v -1.4055224657058716 -0.9086164832115173 1.968708872795105
v -1.4413397312164307 0.9094873070716858 0.29925599694252014
v -1.4321343898773193 -0.9251382350921631 1.9333927631378174
v -1.4412307739257812 0.8923136591911316 0.262816846370697
v -1.432239294052124 -0.9088345170021057 1.9688029289245605
v -1.4055224657058716 -0.9086164832115173 1.968708872795105
v -1.4145126342773438 0.89253169298172 0.26272186636924744
v -1.4054163694381714 -0.9249210953712463 1.933297872543335
v -1.4146217107772827 0.9097051620483398 0.29916200041770935
v 0.4423772990703583 -0.9580743312835693 1.9600013494491577
v 0.5529022216796875 -0.9580743312835693 1.3732909565078444e-06
v 0.4423772990703583 -0.9580743312835693 1.3732909565078444e-06
v 0.5529022216796875 -0.9580743312835693 1.9600013494491577
v 0.5529022216796875 -0.9580743312835693 1.9600013494491577
v 0.5529022216796875 -0.7494910359382629 1.3732909565078444e-06
v 0.5529022216796875 -0.9580743312835693 1.3732909565078444e-06
v 0.5529022216796875 -0.7494910359382629 1.9600013494491577
v 0.5529022216796875 -0.7494910359382629 1.9600013494491577
v 0.4423772990703583 -0.7494910359382629 1.3732909565078444e-06
v 0.5529022216796875 -0.7494910359382629 1.3732909565078444e-06
v 0.4423772990703583 -0.7494910359382629 1.9600013494491577
v 0.4423772990703583 -0.7494910359382629 1.9600013494491577
v 0.4423772990703583 -0.9580743312835693 1.3732909565078444e-06
v 0.4423772990703583 -0.7494910359382629 1.3732909565078444e-06
v 0.4423772990703583 -0.9580743312835693 1.9600013494491577
v 0.5529022216796875 0.9580724835395813 1.3732909565078444e-06
v 0.4423772990703583 0.9580724835395813 1.9600013494491577
v 0.4423772990703583 0.9580724835395813 1.3732909565078444e-06
v 0.5529022216796875 0.9580724835395813 1.9600013494491577
v 0.5529022216796875 0.7494894862174988 1.3732909565078444e-06
v 0.5529022216796875 0.9580724835395813 1.9600013494491577
v 0.5529022216796875 0.9580724835395813 1.3732909565078444e-06
v 0.5529022216796875 0.7494894862174988 1.9600013494491577
v 0.4423772990703583 0.7494894862174988 1.3732909565078444e-06
v 0.5529022216796875 0.7494894862174988 1.9600013494491577
v 0.5529022216796875 0.7494894862174988 1.3732909565078444e-06
v 0.4423772990703583 0.7494894862174988 1.9600013494491577
v 0.4423772990703583 0.9580724835395813 1.3732909565078444e-06
v 0.4423772990703583 0.7494894862174988 1.9600013494491577
v 0.4423772990703583 0.7494894862174988 1.3732909565078444e-06
v 0.4423772990703583 0.9580724835395813 1.9600013494491577
v -0.542875349521637 -0.9580743312835693 1.9600013494491577
v -0.4323504567146301 -0.9580743312835693 1.3732909565078444e-06
v -0.542875349521637 -0.9580743312835693 1.3732909565078444e-06
v -0.4323504567146301 -0.9580743312835693 1.9600013494491577
v -0.4323504567146301 -0.9580743312835693 1.9600013494491577
v -0.4323504567146301 -0.7494910359382629 1.3732909565078444e-06
v -0.4323504567146301 -0.9580743312835693 1.3732909565078444e-06
v -0.4323504567146301 -0.7494910359382629 1.9600013494491577
v -0.4323504567146301 -0.7494910359382629 1.9600013494491577
v -0.542875349521637 -0.7494910359382629 1.3732909565078444e-06
v -0.4323504567146301 -0.7494910359382629 1.3732909565078444e-06
v -0.542875349521637 -0.7494910359382629 1.9600013494491577
v -0.542875349521637 -0.7494910359382629 1.9600013494491577
v -0.542875349521637 -0.9580743312835693 1.3732909565078444e-06
v -0.542875349521637 -0.7494910359382629 1.3732909565078444e-06
v -0.542875349521637 -0.9580743312835693 1.9600013494491577
v -0.4323504567146301 0.9580724835395813 1.3732909565078444e-06
v -0.542875349521637 0.9580724835395813 1.9600013494491577
v -0.542875349521637 0.9580724835395813 1.3732909565078444e-06
v -0.4323504567146301 0.9580724835395813 1.9600013494491577
v -0.4323504567146301 0.7494894862174988 1.3732909565078444e-06
v -0.4323504567146301 0.9580724835395813 1.9600013494491577
v -0.4323504567146301 0.9580724835395813 1.3732909565078444e-06
v -0.4323504567146301 0.7494894862174988 1.9600013494491577
v -0.542875349521637 0.7494894862174988 1.3732909565078444e-06
v -0.4323504567146301 0.7494894862174988 1.9600013494491577
v -0.4323504567146301 0.7494894862174988 1.3732909565078444e-06
v -0.542875349521637 0.7494894862174988 1.9600013494491577
v -0.542875349521637 0.9580724835395813 1.3732909565078444e-06
v -0.542875349521637 0.7494894862174988 1.9600013494491577
v -0.542875349521637 0.7494894862174988 1.3732909565078444e-06
v -0.542875349521637 0.9580724835395813 1.9600013494491577
v -0.4974566400051117 -0.9582833647727966 0.25354868173599243
v 0.5000397562980652 -0.9864521622657776 0.2517753541469574
v -0.4974566400051117 -0.986451268196106 0.25354868173599243
v 0.5000397562980652 -0.9582842588424683 0.2517753541469574
v -0.4974566400051117 -0.986451268196106 0.25354868173599243
v 0.5000397562980652 -0.9864521622657776 0.1412103772163391
v -0.4974566400051117 -0.986451268196106 0.141209676861763
v 0.5000397562980652 -0.9864521622657776 0.2517753541469574
v 0.5000397562980652 -0.9582842588424683 0.2517753541469574
v -0.4974566400051117 -0.9582833647727966 0.141209676861763
v 0.5000397562980652 -0.9582842588424683 0.1412103772163391
v -0.4974566400051117 -0.9582833647727966 0.25354868173599243
v 0.5000397562980652 0.9864504933357239 0.2517753541469574
v -0.4974566400051117 0.9582833647727966 0.25354868173599243
v -0.4974566400051117 0.9864513874053955 0.25354868173599243
v 0.5000397562980652 0.958282470703125 0.2517753541469574
v 0.5000397562980652 0.9864504933357239 0.14121036231517792
v -0.4974566400051117 0.9864513874053955 0.25354868173599243
v -0.4974566400051117 0.9864513874053955 0.141209676861763
v 0.5000397562980652 0.9864504933357239 0.2517753541469574
v -0.4974566400051117 0.9582833647727966 0.141209676861763
v 0.5000397562980652 0.958282470703125 0.2517753541469574
v 0.5000397562980652 0.958282470703125 0.14121036231517792
v -0.4974566400051117 0.9582833647727966 0.25354868173599243
v -0.49959319829940796 -0.9740344285964966 1.96000075340271
v 0.4979031980037689 -0.9740353226661682 1.847662329673767
v -0.49959319829940796 -0.9740344285964966 1.8476614952087402
v 0.4979031980037689 -0.9740353226661682 1.9582273960113525
v 0.4985041618347168 0.9740344285964966 1.96000075340271
v -0.49899229407310486 0.9740353226661682 1.8476608991622925
v 0.4985041618347168 0.9740344285964966 1.8476614952087402
v -0.49899229407310486 0.9740353226661682 1.958225965499878
vn -0.0 -1.0 0.0
vn -0.0 -1.0 0.0
vn -0.0 -1.0 0.0
vn -0.0 -1.0 0.0
vn 1.0 0.0 0.0
vn 1.0 0.0 0.0
vn 1.0 0.0 0.0
vn 1.0 0.0 0.0
vn -0.0 1.0 0.0
vn -0.0 1.0 0.0
vn -0.0 1.0 0.0
vn -0.0 1.0 0.0
vn -1.0 0.0 0.0
vn -1.0 0.0 0.0
vn -1.0 0.0 0.0
vn -1.0 0.0 0.0
vn 0.00039999998989515007 0.0 1.0
vn 0.00039999998989515007 0.0 1.0
vn 0.00039999998989515007 0.0 1.0
vn 0.00039999998989515007 0.0 1.0
vn -0.0 -1.0 0.0
vn -0.0 -1.0 0.0
vn -0.0 -1.0 0.0
vn -0.0 -1.0 0.0
vn 1.0 0.0 0.0
vn 1.0 0.0 0.0
vn 1.0 0.0 0.0
vn 1.0 0.0 0.0
vn -0.0 1.0 0.0
vn -0.0 1.0 0.0
vn -0.0 1.0 0.0
vn -0.0 1.0 0.0
vn -0.0 0.0 -1.0
vn -0.0 0.0 -1.0
vn -0.0 0.0 -1.0
vn -0.0 0.0 -1.0
vn -0.0 0.00629987521097064 0.9999802112579346
vn -0.0 0.00629987521097064 0.9999802112579346
vn -0.0 0.00629987521097064 0.9999802112579346
vn -0.0 0.00629987521097064 0.9999802112579346
vn 1.0 0.0 0.0
vn 1.0 0.0 0.0
vn 1.0 0.0 0.0
vn 1.0 0.0 0.0
vn -1.0 0.0 0.0
vn -1.0 0.0 0.0
vn -1.0 0.0 0.0
vn -1.0 0.0 0.0
vn -0.0 -1.0 0.0
vn -0.0 -1.0 0.0
vn -0.0 -1.0 0.0
vn -0.0 -1.0 0.0
vn 0.00039999998989515007 0.0 1.0
vn 0.00039999998989515007 0.0 1.0
vn 0.0017635655822232366 -0.11187392473220825 0.9937208890914917
vn 0.00039999998989515007 0.0 1.0
vn -4.5943158966110786e-07 -1.0 0.0
vn -0.0 -1.0 0.0
vn -0.0 -1.0 0.0
vn -0.0 -1.0 0.0
vn 1.0 0.0 0.0
vn 1.0 0.0 0.0
vn 1.0 0.0 0.0
vn 1.0 0.0 0.0
vn -0.0 1.0 0.0
vn -0.0 1.0 0.0
vn -0.0 1.0 0.0
vn -0.0 1.0 0.0
vn -0.0 -1.0 0.0
vn -0.0 -1.0 0.0
vn -0.0 -1.0 0.0
vn -0.0 -1.0 0.0
vn 0.1009986400604248 0.0 0.994886577129364
vn 0.1009986400604248 0.0 0.994886577129364
vn 0.1009986400604248 0.0 0.994886577129364
vn 0.1009986400604248 0.0 0.994886577129364
vn -0.0 1.0 0.0
vn -0.0 1.0 0.0
vn -0.0 1.0 0.0
vn -0.0 1.0 0.0
vn -0.1009986400604248 0.0 -0.994886577129364
vn -0.1009986400604248 0.0 -0.994886577129364
vn -0.1009986400604248 0.0 -0.994886577129364
vn -0.1009986400604248 0.0 -0.994886577129364
vn -0.0 -0.0003000000142492354 -1.0
vn -0.0 -0.0003000000142492354 -1.0
vn -0.0 -0.0013388951774686575 -0.9999991655349731
vn -0.0 -0.0013388951774686575 -0.9999991655349731
vn 1.0 0.0 0.0
vn 1.0 0.0 0.0
vn 1.0 0.0 0.0
vn 1.0 0.0 0.0
vn -1.0 0.0 0.0
vn -1.0 0.0 0.0
vn -1.0 0.0 0.0
vn -1.0 0.0 0.0
vn -0.0 1.0 0.0
vn -0.0 1.0 0.0
vn -0.0 1.0 0.0
vn -0.0 1.0 0.0
vn 1.0 0.0 0.0
vn 1.0 0.0 0.0
vn 1.0 0.0 0.0
vn 1.0 0.0 0.0
vn -0.0 -1.0 0.0
vn -0.0 -1.0 0.0
vn -0.0 -1.0 0.0
vn -0.0 -1.0 0.0
vn -1.0 0.0 0.0
vn -1.0 0.0 0.0
vn -1.0 0.0 0.0
vn -1.0 0.0 0.0
vn 0.00039999998989515007 0.0 1.0
vn 0.00039999998989515007 0.0 1.0
vn 0.00039999998989515007 0.0 1.0
vn 0.00039999998989515007 0.0 1.0
vn -0.0 1.0 0.0
vn -0.0 1.0 0.0
vn -0.0 1.0 0.0
vn -0.0 1.0 0.0
vn 1.0 0.0 0.0
vn 1.0 0.0 0.0
vn 1.0 0.0 0.0
vn 1.0 0.0 0.0
vn -0.0 -1.0 0.0
vn -0.0 -1.0 0.0
vn -0.0 -1.0 0.0
vn -0.0 -1.0 0.0
vn -0.0 0.0 -1.0
vn -0.0 0.0 -1.0
vn -0.0 0.0 -1.0
vn -0.0 0.0 -1.0
vn -0.0 -0.00629987521097064 0.9999802112579346
vn -0.0 -0.00629987521097064 0.9999802112579346
vn -0.0 -0.00629987521097064 0.9999802112579346
vn -0.0 -0.00629987521097064 0.9999802112579346
vn 1.0 0.0 0.0
vn 1.0 0.0 0.0
vn 1.0 0.0 0.0
vn 1.0 0.0 0.0
vn -1.0 0.0 0.0
vn -1.0 0.0 0.0
vn -1.0 0.0 0.0
vn -1.0 0.0 0.0
vn -0.0 1.0 0.0
vn -0.0 1.0 0.0
vn -0.0 1.0 0.0
vn -0.0 1.0 0.0
vn 0.00039999998989515007 0.0 1.0
vn 0.00039999998989515007 0.0 1.0
vn 0.00039999998989515007 0.0 1.0
vn 0.00039999998989515007 0.0 1.0
vn -0.0 1.0 0.0
vn -0.0 1.0 0.0
vn -0.0 1.0 0.0
vn -0.0 1.0 0.0
vn 1.0 0.0 0.0
vn 1.0 0.0 0.0
vn 1.0 0.0 0.0
vn 1.0 0.0 0.0
vn -0.0 -1.0 0.0
vn -0.0 -1.0 0.0
vn -0.0 -1.0 0.0
vn -0.0 -1.0 0.0
vn -0.0 1.0 0.0
vn -0.0 1.0 0.0
vn -0.0 1.0 0.0
vn -0.0 1.0 0.0
vn 0.1009986400604248 0.0 0.994886577129364
vn 0.1009986400604248 0.0 0.994886577129364
vn 0.1009986400604248 0.0 0.994886577129364
vn 0.1009986400604248 0.0 0.994886577129364
vn -0.0 -1.0 0.0
vn -0.0 -1.0 0.0
vn -0.0 -1.0 0.0
vn -0.0 -1.0 0.0
vn -0.1009986400604248 0.0 -0.994886577129364
vn -0.1009986400604248 0.0 -0.994886577129364
vn -0.1009986400604248 0.0 -0.994886577129364
vn -0.1009986400604248 0.0 -0.994886577129364
vn -0.0 0.0 1.0
vn -0.0 0.0 1.0
vn -0.0 0.0 1.0
vn -0.0 0.0 1.0
vn -0.0 -1.0 0.0
vn -0.0 -1.0 0.0
vn -0.0 -1.0 0.0
vn -0.0 -1.0 0.0
vn 1.0 0.0 0.0
vn 1.0 0.0 0.0
vn 1.0 0.0 0.0
vn 1.0 0.0 0.0
vn -0.0 1.0 0.0
vn -0.0 1.0 0.0
vn -0.0 1.0 0.0
vn -0.0 1.0 0.0
vn -0.0002999907883349806 -0.08629734814167023 -0.9962693452835083
vn -0.0002999907883349806 -0.08629734814167023 -0.9962693452835083
vn -0.0002999907883349806 -0.08629734814167023 -0.9962693452835083
vn -0.0002999907883349806 -0.08629734814167023 -0.9962693452835083
vn 0.00029999593971297145 0.08609883487224579 0.9962865114212036
vn 0.00029999593971297145 0.08609883487224579 0.9962865114212036
vn 0.00029999593971297145 0.08609883487224579 0.9962865114212036
vn 0.00029999593971297145 0.08609883487224579 0.9962865114212036
vn 0.999447762966156 -0.007800372317433357 0.03230154141783714
vn 0.999447762966156 -0.007800372317433357 0.03230154141783714
vn 0.999447762966156 -0.007800372317433357 0.03230154141783714
vn 0.999447762966156 -0.007800372317433357 0.03230154141783714
vn -0.999447762966156 0.007800372317433357 -0.03230154141783714
vn -0.999447762966156 0.007800372317433357 -0.03230154141783714
vn -0.999447762966156 0.007800372317433357 -0.03230154141783714
vn -0.999447762966156 0.007800372317433357 -0.03230154141783714
vn -0.0002999907883349806 0.08629734814167023 -0.9962693452835083
vn -0.0002999907883349806 0.08629734814167023 -0.9962693452835083
vn -0.0002999907883349806 0.08629734814167023 -0.9962693452835083
vn -0.0002999907883349806 0.08629734814167023 -0.9962693452835083
vn 0.00029999593971297145 -0.08609883487224579 0.9962865114212036
vn 0.00029999593971297145 -0.08609883487224579 0.9962865114212036
vn 0.00029999593971297145 -0.08609883487224579 0.9962865114212036
vn 0.00029999593971297145 -0.08609883487224579 0.9962865114212036
vn 0.999447762966156 0.007800372317433357 0.03230154141783714
vn 0.999447762966156 0.007800372317433357 0.03230154141783714
vn 0.999447762966156 0.007800372317433357 0.03230154141783714
vn 0.999447762966156 0.007800372317433357 0.03230154141783714
vn -0.999447762966156 -0.007800372317433357 -0.03230154141783714
vn -0.999447762966156 -0.007800372317433357 -0.03230154141783714
vn -0.999447762966156 -0.007800372317433357 -0.03230154141783714
vn -0.999447762966156 -0.007800372317433357 -0.03230154141783714
vn -1.0 0.0 0.0
vn -1.0 0.0 0.0
vn -1.0 0.0 0.0
vn -1.0 0.0 0.0
vn 1.5335494651935733e-07 0.0 1.0
vn 1.5335496073021204e-07 0.0 1.0
vn 1.5335494651935733e-07 0.0 1.0
vn 1.5335496073021204e-07 0.0 1.0
vn -6.134198429208482e-07 -1.0 0.0
vn -6.13419899764267e-07 -1.0 0.0
vn -6.134197860774293e-07 -1.0 0.0
vn -6.134197860774293e-07 -1.0 0.0
vn 6.134198429208482e-07 1.0 0.0
vn 6.13419899764267e-07 1.0 0.0
vn 6.13419899764267e-07 1.0 0.0
vn 6.134197860774293e-07 1.0 0.0
vn 1.5335494651935733e-07 0.0 1.0
vn 1.5335494651935733e-07 0.0 1.0
vn 1.533549180976479e-07 0.0 1.0
vn 1.5335494651935733e-07 0.0 1.0
vn -6.134197860774293e-07 -1.0 0.0
vn -6.134197860774293e-07 -1.0 0.0
vn -6.134197860774293e-07 -1.0 0.0
vn -6.134198429208482e-07 -1.0 0.0
vn 6.134197860774293e-07 1.0 0.0
vn 6.134197860774293e-07 1.0 0.0
vn 6.13419899764267e-07 1.0 0.0
vn 6.134198429208482e-07 1.0 0.0
vn -0.0 -1.0 0.0
vn -0.0 -1.0 0.0
vn -0.0 -1.0 0.0
vn -0.0 -1.0 0.0
vn 1.0 0.0 0.0
vn 1.0 0.0 0.0
vn 1.0 0.0 0.0
vn 1.0 0.0 0.0
vn -0.0 1.0 0.0
vn -0.0 1.0 0.0
vn -0.0 1.0 0.0
vn -0.0 1.0 0.0
vn -1.0 0.0 0.0
vn -1.0 0.0 0.0
vn -1.0 0.0 0.0
vn -1.0 0.0 0.0
vn 0.00039999998989515007 0.0 1.0
vn 0.00039999998989515007 0.0 1.0
vn 0.00039999998989515007 0.0 1.0
vn 0.00039999998989515007 0.0 1.0
vn -0.0 -1.0 0.0
vn -0.0 -1.0 0.0
vn -0.0 -1.0 0.0
vn -0.0 -1.0 0.0
vn 1.0 0.0 0.0
vn 1.0 0.0 0.0
vn 1.0 0.0 0.0
vn 1.0 0.0 0.0
vn -0.0 1.0 0.0
vn -0.0 1.0 0.0
vn -0.0 1.0 0.0
vn -0.0 1.0 0.0
vn -0.0 0.0 -1.0
vn -0.0 0.0 -1.0
vn -0.0 0.0 -1.0
vn -0.0 0.0 -1.0
vn -0.0 0.00629987521097064 0.9999802112579346
vn -0.0 0.00629987521097064 0.9999802112579346
vn -0.0 0.00629987521097064 0.9999802112579346
vn -0.0 0.00629987521097064 0.9999802112579346
vn 1.0 0.0 0.0
vn 1.0 0.0 0.0
vn 1.0 0.0 0.0
vn 1.0 0.0 0.0
vn -1.0 0.0 0.0
vn -1.0 0.0 0.0
vn -1.0 0.0 0.0
vn -1.0 0.0 0.0
vn -0.0 -1.0 0.0
vn -0.0 -1.0 0.0
vn -0.0 -1.0 0.0
vn -0.0 -1.0 0.0
vn 0.00039999998989515007 0.0 1.0
vn 0.00039999998989515007 0.0 1.0
vn -0.0017655122792348266 0.111754409968853 0.9937343001365662
vn 0.00039999998989515007 0.0 1.0
vn 4.5943204440845875e-07 1.0 0.0
vn -0.0 -1.0 0.0
vn 4.589124387166521e-07 1.0 0.0
vn -0.0 -1.0 0.0
vn 1.0 0.0 0.0
vn 1.0 0.0 0.0
vn 1.0 0.0 0.0
vn 1.0 0.0 0.0
vn -0.0 1.0 0.0
vn -0.0 1.0 0.0
vn -0.0 1.0 0.0
vn -0.0 1.0 0.0
vn -0.0 -1.0 0.0
vn -0.0 -1.0 0.0
vn -0.0 -1.0 0.0
vn -0.0 -1.0 0.0
vn 0.1009986400604248 0.0 0.994886577129364
vn 0.1009986400604248 0.0 0.994886577129364
vn 0.1009986400604248 0.0 0.994886577129364
vn 0.1009986400604248 0.0 0.994886577129364
vn -0.0 1.0 0.0
vn -0.0 1.0 0.0
vn -0.0 1.0 0.0
vn -0.0 1.0 0.0
vn -0.1009986400604248 0.0 -0.994886577129364
vn -0.1009986400604248 0.0 -0.994886577129364
vn -0.1009986400604248 0.0 -0.994886577129364
vn -0.1009986400604248 0.0 -0.994886577129364
vn -0.0 -0.0003000000142492354 -1.0
vn -0.0 -0.0003000000142492354 -1.0
vn -0.0 0.001338895526714623 -0.9999991655349731
vn -0.0 0.001338895526714623 -0.9999991655349731
vn 1.0 0.0 0.0
vn 1.0 0.0 0.0
vn 1.0 0.0 0.0
vn 1.0 0.0 0.0
vn -1.0 0.0 0.0
vn -1.0 0.0 0.0
vn -1.0 0.0 0.0
vn -1.0 0.0 0.0
vn -0.0 1.0 0.0
vn -0.0 1.0 0.0
vn -0.0 1.0 0.0
vn -0.0 1.0 0.0
vn 1.0 0.0 0.0
vn 1.0 0.0 0.0
vn 1.0 0.0 0.0
vn 1.0 0.0 0.0
vn -0.0 -1.0 0.0
vn -0.0 -1.0 0.0
vn -0.0 -1.0 0.0
vn -0.0 -1.0 0.0
vn -1.0 0.0 0.0
vn -1.0 0.0 0.0
vn -1.0 0.0 0.0
vn -1.0 0.0 0.0
vn 0.00039999998989515007 0.0 1.0
vn 0.00039999998989515007 0.0 1.0
vn 0.00039999998989515007 0.0 1.0
vn 0.00039999998989515007 0.0 1.0
vn -0.0 1.0 0.0
vn -0.0 1.0 0.0
vn -0.0 1.0 0.0
vn -0.0 1.0 0.0
vn 1.0 0.0 0.0
vn 1.0 0.0 0.0
vn 1.0 0.0 0.0
vn 1.0 0.0 0.0
vn -0.0 -1.0 0.0
vn -0.0 -1.0 0.0
vn -0.0 -1.0 0.0
vn -0.0 -1.0 0.0
vn -0.0 0.0 -1.0
vn -0.0 0.0 -1.0
vn -0.0 0.0 -1.0
vn -0.0 0.0 -1.0
vn -0.0 -0.00629987521097064 0.9999802112579346
vn -0.0 -0.00629987521097064 0.9999802112579346
vn -0.0 -0.00629987521097064 0.9999802112579346
vn -0.0 -0.00629987521097064 0.9999802112579346
vn 1.0 0.0 0.0
vn 1.0 0.0 0.0
vn 1.0 0.0 0.0
vn 1.0 0.0 0.0
vn -1.0 0.0 0.0
vn -1.0 0.0 0.0
vn -1.0 0.0 0.0
vn -1.0 0.0 0.0
vn -0.0 1.0 0.0
vn -0.0 1.0 0.0
vn -0.0 1.0 0.0
vn -0.0 1.0 0.0
vn 0.00039999998989515007 0.0 1.0
vn 0.00039999998989515007 0.0 1.0
vn -0.0035561698023229837 0.0005218232399784029 0.9999935626983643
vn 0.00039999998989515007 0.0 1.0
vn -0.0 1.0 0.0
vn -9.176381468023465e-07 -1.0 0.0
vn -9.176380899589276e-07 -1.0 0.0
vn -0.0 1.0 0.0
vn 1.0 0.0 0.0
vn 1.0 0.0 0.0
vn 1.0 0.0 0.0
vn 1.0 0.0 0.0
vn -0.0 -1.0 0.0
vn -0.0 -1.0 0.0
vn -0.0 -1.0 0.0
vn -0.0 -1.0 0.0
vn -0.0 1.0 0.0
vn -0.0 1.0 0.0
vn -0.0 1.0 0.0
vn -0.0 1.0 0.0
vn 0.1009986400604248 0.0 0.994886577129364
vn 0.1009986400604248 0.0 0.994886577129364
vn 0.1009986400604248 0.0 0.994886577129364
vn 0.1009986400604248 0.0 0.994886577129364
vn -0.0 -1.0 0.0
vn -0.0 -1.0 0.0
vn -0.0 -1.0 0.0
vn -0.0 -1.0 0.0
vn -0.1009986400604248 0.0 -0.994886577129364
vn -0.1009986400604248 0.0 -0.994886577129364
vn -0.1009986400604248 0.0 -0.994886577129364
vn -0.1009986400604248 0.0 -0.994886577129364
vn -0.0002999907883349806 -0.08629734814167023 -0.9962693452835083
vn -0.0002999907883349806 -0.08629734814167023 -0.9962693452835083
vn -0.0002999907883349806 -0.08629734814167023 -0.9962693452835083
vn -0.0002999907883349806 -0.08629734814167023 -0.9962693452835083
vn 0.00029999593971297145 0.08609883487224579 0.9962865114212036
vn 0.00029999593971297145 0.08609883487224579 0.9962865114212036
vn 0.00029999593971297145 0.08609883487224579 0.9962865114212036
vn 0.00029999593971297145 0.08609883487224579 0.9962865114212036
vn 0.999447762966156 -0.007800372317433357 0.03230154141783714
vn 0.999447762966156 -0.007800372317433357 0.03230154141783714
vn 0.999447762966156 -0.007800372317433357 0.03230154141783714
vn 0.999447762966156 -0.007800372317433357 0.03230154141783714
vn -0.999447762966156 0.007800372317433357 -0.03230154141783714
vn -0.999447762966156 0.007800372317433357 -0.03230154141783714
vn -0.999447762966156 0.007800372317433357 -0.03230154141783714
vn -0.999447762966156 0.007800372317433357 -0.03230154141783714
vn -0.0002999907883349806 0.08629734814167023 -0.9962693452835083
vn -0.0002999907883349806 0.08629734814167023 -0.9962693452835083
vn -0.0002999907883349806 0.08629734814167023 -0.9962693452835083
vn -0.0002999907883349806 0.08629734814167023 -0.9962693452835083
vn 0.00029999593971297145 -0.08609883487224579 0.9962865114212036
vn 0.00029999593971297145 -0.08609883487224579 0.9962865114212036
vn 0.00029999593971297145 -0.08609883487224579 0.9962865114212036
vn 0.00029999593971297145 -0.08609883487224579 0.9962865114212036
vn 0.999447762966156 0.007800372317433357 0.03230154141783714
vn 0.999447762966156 0.007800372317433357 0.03230154141783714
vn 0.999447762966156 0.007800372317433357 0.03230154141783714
vn 0.999447762966156 0.007800372317433357 0.03230154141783714
vn -0.999447762966156 -0.007800372317433357 -0.03230154141783714
vn -0.999447762966156 -0.007800372317433357 -0.03230154141783714
vn -0.999447762966156 -0.007800372317433357 -0.03230154141783714
vn -0.999447762966156 -0.007800372317433357 -0.03230154141783714
vn -0.0 -1.0 0.0
vn -0.0 -1.0 0.0
vn -0.0 -1.0 0.0
vn -0.0 -1.0 0.0
vn 1.0 0.0 0.0
vn 1.0 0.0 0.0
vn 1.0 0.0 0.0
vn 1.0 0.0 0.0
vn -0.0 1.0 0.0
vn -0.0 1.0 0.0
vn -0.0 1.0 0.0
vn -0.0 1.0 0.0
vn -1.0 0.0 0.0
vn -1.0 0.0 0.0
vn -1.0 0.0 0.0
vn -1.0 0.0 0.0
vn -0.0 1.0 0.0
vn -0.0 1.0 0.0
vn -0.0 1.0 0.0
vn -0.0 1.0 0.0
vn 1.0 0.0 0.0
vn 1.0 0.0 0.0
vn 1.0 0.0 0.0
vn 1.0 0.0 0.0
vn -0.0 -1.0 0.0
vn -0.0 -1.0 0.0
vn -0.0 -1.0 0.0
vn -0.0 -1.0 0.0
vn -1.0 0.0 0.0
vn -1.0 0.0 0.0
vn -1.0 0.0 0.0
vn -1.0 0.0 0.0
vn -0.0 -1.0 0.0
vn -0.0 -1.0 0.0
vn -0.0 -1.0 0.0
vn -0.0 -1.0 0.0
vn 1.0 0.0 0.0
vn 1.0 0.0 0.0
vn 1.0 0.0 0.0
vn 1.0 0.0 0.0
vn -0.0 1.0 0.0
vn -0.0 1.0 0.0
vn -0.0 1.0 0.0
vn -0.0 1.0 0.0
vn -1.0 0.0 0.0
vn -1.0 0.0 0.0
vn -1.0 0.0 0.0
vn -1.0 0.0 0.0
vn -0.0 1.0 0.0
vn -0.0 1.0 0.0
vn -0.0 1.0 0.0
vn -0.0 1.0 0.0
vn 1.0 0.0 0.0
vn 1.0 0.0 0.0
vn 1.0 0.0 0.0
vn 1.0 0.0 0.0
vn -0.0 -1.0 0.0
vn -0.0 -1.0 0.0
vn -0.0 -1.0 0.0
vn -0.0 -1.0 0.0
vn -1.0 0.0 0.0
vn -1.0 0.0 0.0
vn -1.0 0.0 0.0
vn -1.0 0.0 0.0
vn 0.0017777672037482262 0.0 0.9999984502792358
vn 0.001777767320163548 0.0 0.9999984502792358
vn 0.0017777672037482262 0.0 0.9999984502792358
vn 0.0017777672037482262 0.0 0.9999984502792358
vn -9.178251616503985e-07 -1.0 0.0
vn -9.178252184938174e-07 -1.0 0.0
vn -9.178251616503985e-07 -1.0 0.0
vn -9.178252184938174e-07 -1.0 0.0
vn 9.560679927744786e-07 1.0 0.0
vn 9.560681064613163e-07 1.0 0.0
vn 9.560679927744786e-07 1.0 0.0
vn 9.560679927744786e-07 1.0 0.0
vn 0.0017777672037482262 0.0 0.9999984502792358
vn 0.0017777672037482262 0.0 0.9999984502792358
vn 0.0017777669709175825 0.0 0.9999984502792358
vn 0.0017777669709175825 0.0 0.9999984502792358
vn 9.178252184938174e-07 1.0 0.0
vn 9.178251616503985e-07 1.0 0.0
vn 9.178251616503985e-07 1.0 0.0
vn 9.178252184938174e-07 1.0 0.0
vn -9.178251616503985e-07 -1.0 0.0
vn -9.178251616503985e-07 -1.0 0.0
vn -9.178251616503985e-07 -1.0 0.0
vn -9.178251616503985e-07 -1.0 0.0
vn -9.176381468023465e-07 -1.0 0.0
vn -9.178253321806551e-07 -1.0 0.0
vn -9.176380899589276e-07 -1.0 0.0
vn -4.5943158966110786e-07 -1.0 0.0
vn 9.178251616503985e-07 1.0 0.0
vn 4.589124387166521e-07 1.0 0.0
vn 9.178251048069797e-07 1.0 0.0
vn 4.5943204440845875e-07 1.0 0.0
vt 0.09837275743484497 0.016728520393371582
vt 0.17781132459640503 0.7220244407653809
vt 0.09837275743484497 0.7220244407653809
vt 0.17780941724777222 0.01672840118408203
vt 0.17780941724777222 0.01672840118408203
vt 0.2572507858276367 0.7220244407653809
vt 0.17781132459640503 0.7220244407653809
vt 0.2572506070137024 0.01672840118408203
vt 0.2572506070137024 0.01672840118408203
vt 0.33669090270996094 0.7220244407653809
vt 0.2572507858276367 0.7220244407653809
vt 0.33669087290763855 0.016728520393371582
vt 0.018931686878204346 0.016728520393371582
vt 0.09837275743484497 0.7220244407653809
vt 0.01893174648284912 0.7220244407653809
vt 0.09837275743484497 0.016728520393371582
vt 0.8384771347045898 0.903618149459362
vt 0.10381149500608444 0.8920464739203453
vt 0.8384771347045898 0.8920467421412468
vt 0.10381149500608444 0.9036178812384605
vt 0.8384771347045898 0.8920467421412468
vt 0.10381153225898743 0.8109010756015778
vt 0.8384771943092346 0.8109013140201569
vt 0.10381149500608444 0.8920464739203453
vt 0.10381149500608444 0.8920464739203453
vt 0.021175971254706383 0.9036178812384605
vt 0.021175971254706383 0.8920464739203453
vt 0.10381149500608444 0.9036178812384605
vt 0.10381149500608444 0.9036178812384605
vt 0.8384771943092346 0.9743457399308681
vt 0.10381153225898743 0.9743454419076443
vt 0.8384771347045898 0.903618149459362
vt 0.11212107539176941 0.7637622505426407
vt 0.08461843430995941 0.7948122918605804
vt 0.0846184492111206 0.7637622505426407
vt 0.11212107539176941 0.7948122769594193
vt 0.035119179636240005 0.7948122918605804
vt 0.008055003359913826 0.7637622654438019
vt 0.035119179636240005 0.7637622654438019
vt 0.008055003359913826 0.7948122918605804
vt 0.035119179636240005 0.737064778804779
vt 0.0846184492111206 0.7637622505426407
vt 0.035119179636240005 0.7637622654438019
vt 0.0846184492111206 0.737064778804779
vt 0.035119179636240005 0.8214415013790131
vt 0.08461843430995941 0.7948122918605804
vt 0.08461843430995941 0.8214415013790131
vt 0.035119179636240005 0.7948122918605804
vt 0.035119179636240005 0.7948122918605804
vt 0.0846184492111206 0.7637622505426407
vt 0.08461843430995941 0.7948122918605804
vt 0.035119179636240005 0.7637622654438019
vt 0.10381149500608444 0.8920464664697647
vt 0.8384771943092346 0.9036180227994919
vt 0.10381149500608444 0.9036178812384605
vt 0.8384771943092346 0.8920466154813766
vt 0.10381149500608444 0.9036178812384605
vt 0.8384771943092346 0.9743457399308681
vt 0.10381149500608444 0.9743455946445465
vt 0.8384771943092346 0.9036180227994919
vt 0.8384771943092346 0.9036180227994919
vt 0.9181302189826965 0.8920466154813766
vt 0.9181302189826965 0.9036180227994919
vt 0.8384771943092346 0.8920466154813766
vt 0.8384771943092346 0.8920466154813766
vt 0.10381149500608444 0.8109012246131897
vt 0.8384771943092346 0.810901403427124
vt 0.10381149500608444 0.8920464664697647
vt 0.9287645816802979 0.6713384985923767
vt 0.9063461422920227 0.8665569573640823
vt 0.9063461422920227 0.6713384985923767
vt 0.9287645816802979 0.8665569573640823
vt 0.9287645816802979 0.6713384985923767
vt 0.9511836767196655 0.8665569573640823
vt 0.9287645816802979 0.8665569573640823
vt 0.9511838555335999 0.6713384985923767
vt 0.9511838555335999 0.6713384985923767
vt 0.9736032485961914 0.8665569573640823
vt 0.9511836767196655 0.8665569573640823
vt 0.9736032485961914 0.6713384985923767
vt 0.8839263319969177 0.6713384985923767
vt 0.9063461422920227 0.8665569573640823
vt 0.8839263319969177 0.8665569573640823
vt 0.9063461422920227 0.6713384985923767
vt 0.9250590205192566 0.013071894645690918
vt 0.9245964884757996 0.013106942176818848
vt 0.9262452125549316 0.6324787139892578
vt 0.9261848330497742 0.6325139403343201
vt 0.9261848330497742 0.6325139403343201
vt 0.8979808688163757 0.013071894645690918
vt 0.8991072773933411 0.6324776411056519
vt 0.9245964884757996 0.013106942176818848
vt 0.9262452125549316 0.6324787139892578
vt 0.8979809880256653 0.013107895851135254
vt 0.8996292352676392 0.6325138807296753
vt 0.9250590205192566 0.013071894645690918
vt 0.17781132459640503 0.7220244407653809
vt 0.2572506070137024 0.01672840118408203
vt 0.2572507858276367 0.7220244407653809
vt 0.17780941724777222 0.01672840118408203
vt 0.09837275743484497 0.7220244407653809
vt 0.17780941724777222 0.01672840118408203
vt 0.17781132459640503 0.7220244407653809
vt 0.09837275743484497 0.016728520393371582
vt 0.01893174648284912 0.7220244407653809
vt 0.09837275743484497 0.016728520393371582
vt 0.09837275743484497 0.7220244407653809
vt 0.018931686878204346 0.016728520393371582
vt 0.2572507858276367 0.7220244407653809
vt 0.33669087290763855 0.016728520393371582
vt 0.33669090270996094 0.7220244407653809
vt 0.2572506070137024 0.01672840118408203
vt 0.8384771943092346 0.8920466154813766
vt 0.10381149500608444 0.9036178812384605
vt 0.10381149500608444 0.8920464664697647
vt 0.8384771943092346 0.9036180227994919
vt 0.8384771943092346 0.810901403427124
vt 0.10381149500608444 0.8920464664697647
vt 0.10381149500608444 0.8109012246131897
vt 0.8384771943092346 0.8920466154813766
vt 0.9181302189826965 0.9036180227994919
vt 0.8384771943092346 0.8920466154813766
vt 0.9181302189826965 0.8920466154813766
vt 0.8384771943092346 0.9036180227994919
vt 0.10381149500608444 0.9743455946445465
vt 0.8384771943092346 0.9036180227994919
vt 0.8384771943092346 0.9743457399308681
vt 0.10381149500608444 0.9036178812384605
vt 0.035119179636240005 0.7948122918605804
vt 0.008055003359913826 0.7637622654438019
vt 0.035119179636240005 0.7637622654438019
vt 0.008055003359913826 0.7948122918605804
vt 0.11212107539176941 0.7637622505426407
vt 0.08461843430995941 0.7948122918605804
vt 0.0846184492111206 0.7637622505426407
vt 0.11212107539176941 0.7948122769594193
vt 0.0846184492111206 0.737064778804779
vt 0.035119179636240005 0.7637622654438019
vt 0.035119179636240005 0.737064778804779
vt 0.0846184492111206 0.7637622505426407
vt 0.035119179636240005 0.7948122918605804
vt 0.08461843430995941 0.8214415013790131
vt 0.035119179636240005 0.8214415013790131
vt 0.08461843430995941 0.7948122918605804
vt 0.035119179636240005 0.7637622654438019
vt 0.08461843430995941 0.7948122918605804
vt 0.035119179636240005 0.7948122918605804
vt 0.0846184492111206 0.7637622505426407
vt 0.10381149500608444 0.9036178812384605
vt 0.8384771347045898 0.8920467421412468
vt 0.8384771347045898 0.903618149459362
vt 0.10381149500608444 0.8920464739203453
vt 0.10381153225898743 0.9743454419076443
vt 0.8384771347045898 0.903618149459362
vt 0.8384771943092346 0.9743457399308681
vt 0.10381149500608444 0.9036178812384605
vt 0.021175971254706383 0.8920464739203453
vt 0.10381149500608444 0.9036178812384605
vt 0.021175971254706383 0.9036178812384605
vt 0.10381149500608444 0.8920464739203453
vt 0.8384771943092346 0.8109013140201569
vt 0.10381149500608444 0.8920464739203453
vt 0.10381153225898743 0.8109010756015778
vt 0.8384771347045898 0.8920467421412468
vt 0.9287645816802979 0.6713384985923767
vt 0.9511836767196655 0.8665569573640823
vt 0.9287645816802979 0.8665569573640823
vt 0.9511838555335999 0.6713384985923767
vt 0.9063461422920227 0.8665569573640823
vt 0.9287645816802979 0.6713384985923767
vt 0.9287645816802979 0.8665569573640823
vt 0.9063461422920227 0.6713384985923767
vt 0.8839263319969177 0.8665569573640823
vt 0.9063461422920227 0.6713384985923767
vt 0.9063461422920227 0.8665569573640823
vt 0.8839263319969177 0.6713384985923767
vt 0.9511836767196655 0.8665569573640823
vt 0.9736032485961914 0.6713384985923767
vt 0.9736032485961914 0.8665569573640823
vt 0.9511838555335999 0.6713384985923767
vt 0.7422505617141724 0.7500565648078918
vt 0.3817291855812073 0.02456796169281006
vt 0.7422505617141724 0.02456796169281006
vt 0.38172924518585205 0.7500565648078918
vt 0.7422505617141724 0.02456796169281006
vt 0.38172924518585205 0.010074496269226074
vt 0.7422505617141724 0.010074496269226074
vt 0.3817291855812073 0.02456796169281006
vt 0.3817291855812073 0.02456796169281006
vt 0.3672366738319397 0.7500565648078918
vt 0.3672366738319397 0.02456796169281006
vt 0.38172924518585205 0.7500565648078918
vt 0.38172924518585205 0.7500565648078918
vt 0.7422505617141724 0.7645500302314758
vt 0.38172924518585205 0.7645500302314758
vt 0.7422505617141724 0.7500565648078918
vt 0.7855356931686401 0.6324113011360168
vt 0.8019822239875793 0.01155310869216919
vt 0.8019822239875793 0.6324113011360168
vt 0.7855356931686401 0.01155310869216919
vt 0.8183925151824951 0.01155310869216919
vt 0.8348087668418884 0.6324113011360168
vt 0.8183925151824951 0.6324113011360168
vt 0.834808886051178 0.01155310869216919
vt 0.8019822239875793 0.01155310869216919
vt 0.8183925151824951 0.6324113011360168
vt 0.8019822239875793 0.6324113011360168
vt 0.8183925151824951 0.01155310869216919
vt 0.851252555847168 0.6324113011360168
vt 0.834808886051178 0.01155310869216919
vt 0.851252555847168 0.01155310869216919
vt 0.8348087668418884 0.6324113011360168
vt 0.8019822239875793 0.6324113011360168
vt 0.7855356931686401 0.01155310869216919
vt 0.8019822239875793 0.01155310869216919
vt 0.7855356931686401 0.6324113011360168
vt 0.834808886051178 0.01155310869216919
vt 0.8183925151824951 0.6324113011360168
vt 0.8183925151824951 0.01155310869216919
vt 0.8348087668418884 0.6324113011360168
vt 0.8183925151824951 0.01155310869216919
vt 0.8019822239875793 0.6324113011360168
vt 0.8019822239875793 0.01155310869216919
vt 0.8183925151824951 0.6324113011360168
vt 0.8348087668418884 0.6324113011360168
vt 0.851252555847168 0.01155310869216919
vt 0.851252555847168 0.6324113011360168
vt 0.834808886051178 0.01155310869216919
vt 0.7422505617141724 0.7500565648078918
vt 0.756743311882019 0.02456796169281006
vt 0.7567431926727295 0.7500565648078918
vt 0.7422505617141724 0.02456796169281006
vt 0.7422505617141724 0.7500565648078918
vt 0.3817291855812073 0.02456796169281006
vt 0.7422505617141724 0.02456796169281006
vt 0.38172924518585205 0.7500565648078918
vt 0.7422505617141724 0.02456796169281006
vt 0.38172924518585205 0.010074496269226074
vt 0.7422505617141724 0.010074496269226074
vt 0.3817291855812073 0.02456796169281006
vt 0.38172924518585205 0.7500565648078918
vt 0.7422505617141724 0.7645500302314758
vt 0.38172924518585205 0.7645500302314758
vt 0.7422505617141724 0.7500565648078918
vt 0.7422505617141724 0.7500565648078918
vt 0.3817291855812073 0.02456796169281006
vt 0.7422505617141724 0.02456796169281006
vt 0.38172924518585205 0.7500565648078918
vt 0.7422505617141724 0.02456796169281006
vt 0.38172924518585205 0.010074496269226074
vt 0.7422505617141724 0.010074496269226074
vt 0.3817291855812073 0.02456796169281006
vt 0.38172924518585205 0.7500565648078918
vt 0.7422505617141724 0.7645500302314758
vt 0.38172924518585205 0.7645500302314758
vt 0.7422505617141724 0.7500565648078918
vt 0.09837275743484497 0.016728520393371582
vt 0.17781132459640503 0.7220244407653809
vt 0.09837275743484497 0.7220244407653809
vt 0.17780941724777222 0.01672840118408203
vt 0.17780941724777222 0.01672840118408203
vt 0.2572507858276367 0.7220244407653809
vt 0.17781132459640503 0.7220244407653809
vt 0.2572506070137024 0.01672840118408203
vt 0.2572506070137024 0.01672840118408203
vt 0.33669090270996094 0.7220244407653809
vt 0.2572507858276367 0.7220244407653809
vt 0.33669087290763855 0.016728520393371582
vt 0.018931686878204346 0.016728520393371582
vt 0.09837275743484497 0.7220244407653809
vt 0.01893174648284912 0.7220244407653809
vt 0.09837275743484497 0.016728520393371582
vt 0.8384771347045898 0.903618149459362
vt 0.10381149500608444 0.8920464739203453
vt 0.8384771347045898 0.8920467421412468
vt 0.10381149500608444 0.9036178812384605
vt 0.8384771347045898 0.8920467421412468
vt 0.10381153225898743 0.8109010756015778
vt 0.8384771943092346 0.8109013140201569
vt 0.10381149500608444 0.8920464739203453
vt 0.10381149500608444 0.8920464739203453
vt 0.021175971254706383 0.9036178812384605
vt 0.021175971254706383 0.8920464739203453
vt 0.10381149500608444 0.9036178812384605
vt 0.10381149500608444 0.9036178812384605
vt 0.8384771943092346 0.9743457399308681
vt 0.10381153225898743 0.9743454419076443
vt 0.8384771347045898 0.903618149459362
vt 0.11212107539176941 0.7637622505426407
vt 0.08461843430995941 0.7948122918605804
vt 0.0846184492111206 0.7637622505426407
vt 0.11212107539176941 0.7948122769594193
vt 0.035119179636240005 0.7948122918605804
vt 0.008055003359913826 0.7637622654438019
vt 0.035119179636240005 0.7637622654438019
vt 0.008055003359913826 0.7948122918605804
vt 0.035119179636240005 0.737064778804779
vt 0.0846184492111206 0.7637622505426407
vt 0.035119179636240005 0.7637622654438019
vt 0.0846184492111206 0.737064778804779
vt 0.035119179636240005 0.8214415013790131
vt 0.08461843430995941 0.7948122918605804
vt 0.08461843430995941 0.8214415013790131
vt 0.035119179636240005 0.7948122918605804
vt 0.035119179636240005 0.7948122918605804
vt 0.0846184492111206 0.7637622505426407
vt 0.08461843430995941 0.7948122918605804
vt 0.035119179636240005 0.7637622654438019
vt 0.10381149500608444 0.8920464664697647
vt 0.8384771943092346 0.9036180227994919
vt 0.10381149500608444 0.9036178812384605
vt 0.8384771943092346 0.8920466154813766
vt 0.10381149500608444 0.9036178812384605
vt 0.8384771943092346 0.9743457399308681
vt 0.10381149500608444 0.9743455946445465
vt 0.8384771943092346 0.9036180227994919
vt 0.8384771943092346 0.9036180227994919
vt 0.9181302189826965 0.8920466154813766
vt 0.9181302189826965 0.9036180227994919
vt 0.8384771943092346 0.8920466154813766
vt 0.8384771943092346 0.8920466154813766
vt 0.10381149500608444 0.8109012246131897
vt 0.8384771943092346 0.810901403427124
vt 0.10381149500608444 0.8920464664697647
vt 0.9287645816802979 0.6713384985923767
vt 0.9063461422920227 0.8665569573640823
vt 0.9063461422920227 0.6713384985923767
vt 0.9287645816802979 0.8665569573640823
vt 0.9287645816802979 0.6713384985923767
vt 0.9511836767196655 0.8665569573640823
vt 0.9287645816802979 0.8665569573640823
vt 0.9511838555335999 0.6713384985923767
vt 0.9511838555335999 0.6713384985923767
vt 0.9736032485961914 0.8665569573640823
vt 0.9511836767196655 0.8665569573640823
vt 0.9736032485961914 0.6713384985923767
vt 0.8839263319969177 0.6713384985923767
vt 0.9063461422920227 0.8665569573640823
vt 0.8839263319969177 0.8665569573640823
vt 0.9063461422920227 0.6713384985923767
vt 0.9250590205192566 0.013071894645690918
vt 0.9245964884757996 0.013106942176818848
vt 0.9262452125549316 0.6324787139892578
vt 0.9261848330497742 0.6325139403343201
vt 0.9261848330497742 0.6325139403343201
vt 0.8979808688163757 0.013071894645690918
vt 0.8991072773933411 0.6324776411056519
vt 0.9245964884757996 0.013106942176818848
vt 0.9262452125549316 0.6324787139892578
vt 0.8979809880256653 0.013107895851135254
vt 0.8996292352676392 0.6325138807296753
vt 0.9250590205192566 0.013071894645690918
vt 0.17781132459640503 0.7220244407653809
vt 0.2572506070137024 0.01672840118408203
vt 0.2572507858276367 0.7220244407653809
vt 0.17780941724777222 0.01672840118408203
vt 0.09837275743484497 0.7220244407653809
vt 0.17780941724777222 0.01672840118408203
vt 0.17781132459640503 0.7220244407653809
vt 0.09837275743484497 0.016728520393371582
vt 0.01893174648284912 0.7220244407653809
vt 0.09837275743484497 0.016728520393371582
vt 0.09837275743484497 0.7220244407653809
vt 0.018931686878204346 0.016728520393371582
vt 0.2572507858276367 0.7220244407653809
vt 0.33669087290763855 0.016728520393371582
vt 0.33669090270996094 0.7220244407653809
vt 0.2572506070137024 0.01672840118408203
vt 0.8384771943092346 0.8920466154813766
vt 0.10381149500608444 0.9036178812384605
vt 0.10381149500608444 0.8920464664697647
vt 0.8384771943092346 0.9036180227994919
vt 0.8384771943092346 0.810901403427124
vt 0.10381149500608444 0.8920464664697647
vt 0.10381149500608444 0.8109012246131897
vt 0.8384771943092346 0.8920466154813766
vt 0.9181302189826965 0.9036180227994919
vt 0.8384771943092346 0.8920466154813766
vt 0.9181302189826965 0.8920466154813766
vt 0.8384771943092346 0.9036180227994919
vt 0.10381149500608444 0.9743455946445465
vt 0.8384771943092346 0.9036180227994919
vt 0.8384771943092346 0.9743457399308681
vt 0.10381149500608444 0.9036178812384605
vt 0.035119179636240005 0.7948122918605804
vt 0.008055003359913826 0.7637622654438019
vt 0.035119179636240005 0.7637622654438019
vt 0.008055003359913826 0.7948122918605804
vt 0.11212107539176941 0.7637622505426407
vt 0.08461843430995941 0.7948122918605804
vt 0.0846184492111206 0.7637622505426407
vt 0.11212107539176941 0.7948122769594193
vt 0.0846184492111206 0.737064778804779
vt 0.035119179636240005 0.7637622654438019
vt 0.035119179636240005 0.737064778804779
vt 0.0846184492111206 0.7637622505426407
vt 0.035119179636240005 0.7948122918605804
vt 0.08461843430995941 0.8214415013790131
vt 0.035119179636240005 0.8214415013790131
vt 0.08461843430995941 0.7948122918605804
vt 0.035119179636240005 0.7637622654438019
vt 0.08461843430995941 0.7948122918605804
vt 0.035119179636240005 0.7948122918605804
vt 0.0846184492111206 0.7637622505426407
vt 0.10381149500608444 0.9036178812384605
vt 0.8384771347045898 0.8920467421412468
vt 0.8384771347045898 0.903618149459362
vt 0.10381149500608444 0.8920464739203453
vt 0.10381153225898743 0.9743454419076443
vt 0.8384771347045898 0.903618149459362
vt 0.8384771943092346 0.9743457399308681
vt 0.10381149500608444 0.9036178812384605
vt 0.021175971254706383 0.8920464739203453
vt 0.10381149500608444 0.9036178812384605
vt 0.021175971254706383 0.9036178812384605
vt 0.10381149500608444 0.8920464739203453
vt 0.8384771943092346 0.8109013140201569
vt 0.10381149500608444 0.8920464739203453
vt 0.10381153225898743 0.8109010756015778
vt 0.8384771347045898 0.8920467421412468
vt 0.9287645816802979 0.6713384985923767
vt 0.9511836767196655 0.8665569573640823
vt 0.9287645816802979 0.8665569573640823
vt 0.9511838555335999 0.6713384985923767
vt 0.9063461422920227 0.8665569573640823
vt 0.9287645816802979 0.6713384985923767
vt 0.9287645816802979 0.8665569573640823
vt 0.9063461422920227 0.6713384985923767
vt 0.8839263319969177 0.8665569573640823
vt 0.9063461422920227 0.6713384985923767
vt 0.9063461422920227 0.8665569573640823
vt 0.8839263319969177 0.6713384985923767
vt 0.9511836767196655 0.8665569573640823
vt 0.9736032485961914 0.6713384985923767
vt 0.9736032485961914 0.8665569573640823
vt 0.9511838555335999 0.6713384985923767
vt 0.7855356931686401 0.6324113011360168
vt 0.8019822239875793 0.01155310869216919
vt 0.8019822239875793 0.6324113011360168
vt 0.7855356931686401 0.01155310869216919
vt 0.8183925151824951 0.01155310869216919
vt 0.8348087668418884 0.6324113011360168
vt 0.8183925151824951 0.6324113011360168
vt 0.834808886051178 0.01155310869216919
vt 0.8019822239875793 0.01155310869216919
vt 0.8183925151824951 0.6324113011360168
vt 0.8019822239875793 0.6324113011360168
vt 0.8183925151824951 0.01155310869216919
vt 0.851252555847168 0.6324113011360168
vt 0.834808886051178 0.01155310869216919
vt 0.851252555847168 0.01155310869216919
vt 0.8348087668418884 0.6324113011360168
vt 0.8019822239875793 0.6324113011360168
vt 0.7855356931686401 0.01155310869216919
vt 0.8019822239875793 0.01155310869216919
vt 0.7855356931686401 0.6324113011360168
vt 0.834808886051178 0.01155310869216919
vt 0.8183925151824951 0.6324113011360168
vt 0.8183925151824951 0.01155310869216919
vt 0.8348087668418884 0.6324113011360168
vt 0.8183925151824951 0.01155310869216919
vt 0.8019822239875793 0.6324113011360168
vt 0.8019822239875793 0.01155310869216919
vt 0.8183925151824951 0.6324113011360168
vt 0.8348087668418884 0.6324113011360168
vt 0.851252555847168 0.01155310869216919
vt 0.851252555847168 0.6324113011360168
vt 0.834808886051178 0.01155310869216919
vt 0.09837275743484497 0.016728520393371582
vt 0.17781132459640503 0.7220244407653809
vt 0.09837275743484497 0.7220244407653809
vt 0.17780941724777222 0.01672840118408203
vt 0.17780941724777222 0.01672840118408203
vt 0.2572507858276367 0.7220244407653809
vt 0.17781132459640503 0.7220244407653809
vt 0.2572506070137024 0.01672840118408203
vt 0.2572506070137024 0.01672840118408203
vt 0.33669090270996094 0.7220244407653809
vt 0.2572507858276367 0.7220244407653809
vt 0.33669087290763855 0.016728520393371582
vt 0.018931686878204346 0.016728520393371582
vt 0.09837275743484497 0.7220244407653809
vt 0.01893174648284912 0.7220244407653809
vt 0.09837275743484497 0.016728520393371582
vt 0.17781132459640503 0.7220244407653809
vt 0.2572506070137024 0.01672840118408203
vt 0.2572507858276367 0.7220244407653809
vt 0.17780941724777222 0.01672840118408203
vt 0.09837275743484497 0.7220244407653809
vt 0.17780941724777222 0.01672840118408203
vt 0.17781132459640503 0.7220244407653809
vt 0.09837275743484497 0.016728520393371582
vt 0.01893174648284912 0.7220244407653809
vt 0.09837275743484497 0.016728520393371582
vt 0.09837275743484497 0.7220244407653809
vt 0.018931686878204346 0.016728520393371582
vt 0.2572507858276367 0.7220244407653809
vt 0.33669087290763855 0.016728520393371582
vt 0.33669090270996094 0.7220244407653809
vt 0.2572506070137024 0.01672840118408203
vt 0.09837275743484497 0.016728520393371582
vt 0.17781132459640503 0.7220244407653809
vt 0.09837275743484497 0.7220244407653809
vt 0.17780941724777222 0.01672840118408203
vt 0.17780941724777222 0.01672840118408203
vt 0.2572507858276367 0.7220244407653809
vt 0.17781132459640503 0.7220244407653809
vt 0.2572506070137024 0.01672840118408203
vt 0.2572506070137024 0.01672840118408203
vt 0.33669090270996094 0.7220244407653809
vt 0.2572507858276367 0.7220244407653809
vt 0.33669087290763855 0.016728520393371582
vt 0.018931686878204346 0.016728520393371582
vt 0.09837275743484497 0.7220244407653809
vt 0.01893174648284912 0.7220244407653809
vt 0.09837275743484497 0.016728520393371582
vt 0.17781132459640503 0.7220244407653809
vt 0.2572506070137024 0.01672840118408203
vt 0.2572507858276367 0.7220244407653809
vt 0.17780941724777222 0.01672840118408203
vt 0.09837275743484497 0.7220244407653809
vt 0.17780941724777222 0.01672840118408203
vt 0.17781132459640503 0.7220244407653809
vt 0.09837275743484497 0.016728520393371582
vt 0.01893174648284912 0.7220244407653809
vt 0.09837275743484497 0.016728520393371582
vt 0.09837275743484497 0.7220244407653809
vt 0.018931686878204346 0.016728520393371582
vt 0.2572507858276367 0.7220244407653809
vt 0.33669087290763855 0.016728520393371582
vt 0.33669090270996094 0.7220244407653809
vt 0.2572506070137024 0.01672840118408203
vt 0.8384771347045898 0.903618149459362
vt 0.10381149500608444 0.8920464739203453
vt 0.8384771347045898 0.8920467421412468
vt 0.10381149500608444 0.9036178812384605
vt 0.8384771347045898 0.8920467421412468
vt 0.10381153225898743 0.8109010756015778
vt 0.8384771943092346 0.8109013140201569
vt 0.10381149500608444 0.8920464739203453
vt 0.10381149500608444 0.9036178812384605
vt 0.8384771943092346 0.9743457399308681
vt 0.10381153225898743 0.9743454419076443
vt 0.8384771347045898 0.903618149459362
vt 0.8384771943092346 0.8920466154813766
vt 0.10381149500608444 0.9036178812384605
vt 0.10381149500608444 0.8920464664697647
vt 0.8384771943092346 0.9036180227994919
vt 0.8384771943092346 0.810901403427124
vt 0.10381149500608444 0.8920464664697647
vt 0.10381149500608444 0.8109012246131897
vt 0.8384771943092346 0.8920466154813766
vt 0.10381149500608444 0.9743455946445465
vt 0.8384771943092346 0.9036180227994919
vt 0.8384771943092346 0.9743457399308681
vt 0.10381149500608444 0.9036178812384605
vt 0.10381149500608444 0.9036178812384605
vt 0.8384771943092346 0.9743457399308681
vt 0.10381149500608444 0.9743455946445465
vt 0.8384771943092346 0.9036180227994919
vt 0.10381149500608444 0.9036178812384605
vt 0.8384771943092346 0.9743457399308681
vt 0.10381149500608444 0.9743455946445465
vt 0.8384771943092346 0.9036180227994919

g bg_mdl_map_hashi1x3_200
s 1
usemtl bg_mdl_map_hashi1x3_200
f 3/3/3 2/2/2 1/1/1 
f 4/4/4 1/1/1 2/2/2 
f 7/7/7 6/6/6 5/5/5 
f 8/8/8 5/5/5 6/6/6 
f 11/11/11 10/10/10 9/9/9 
f 12/12/12 9/9/9 10/10/10 
f 15/15/15 14/14/14 13/13/13 
f 16/16/16 13/13/13 14/14/14 
f 19/19/19 18/18/18 17/17/17 
f 20/20/20 17/17/17 18/18/18 
f 23/23/23 22/22/22 21/21/21 
f 24/24/24 21/21/21 22/22/22 
f 27/27/27 26/26/26 25/25/25 
f 28/28/28 25/25/25 26/26/26 
f 31/31/31 30/30/30 29/29/29 
f 32/32/32 29/29/29 30/30/30 
f 35/35/35 34/34/34 33/33/33 
f 36/36/36 33/33/33 34/34/34 
f 39/39/39 38/38/38 37/37/37 
f 40/40/40 37/37/37 38/38/38 
f 43/43/43 42/42/42 41/41/41 
f 44/44/44 41/41/41 42/42/42 
f 47/47/47 46/46/46 45/45/45 
f 48/48/48 45/45/45 46/46/46 
f 51/51/51 50/50/50 49/49/49 
f 52/52/52 49/49/49 50/50/50 
f 55/55/55 54/54/54 53/53/53 
f 56/56/56 53/53/53 54/54/54 
f 59/59/59 58/58/58 57/57/57 
f 60/60/60 57/57/57 58/58/58 
f 63/63/63 62/62/62 61/61/61 
f 64/64/64 61/61/61 62/62/62 
f 67/67/67 66/66/66 65/65/65 
f 68/68/68 65/65/65 66/66/66 
f 71/71/71 70/70/70 69/69/69 
f 72/72/72 69/69/69 70/70/70 
f 75/75/75 74/74/74 73/73/73 
f 76/76/76 73/73/73 74/74/74 
f 79/79/79 78/78/78 77/77/77 
f 80/80/80 77/77/77 78/78/78 
f 83/83/83 82/82/82 81/81/81 
f 84/84/84 81/81/81 82/82/82 
f 87/87/87 86/86/86 85/85/85 
f 88/88/88 85/85/85 86/86/86 
f 91/91/91 90/90/90 89/89/89 
f 92/92/92 89/89/89 90/90/90 
f 95/95/95 94/94/94 93/93/93 
f 96/96/96 93/93/93 94/94/94 
f 99/99/99 98/98/98 97/97/97 
f 100/100/100 97/97/97 98/98/98 
f 103/103/103 102/102/102 101/101/101 
f 104/104/104 101/101/101 102/102/102 
f 107/107/107 106/106/106 105/105/105 
f 108/108/108 105/105/105 106/106/106 
f 111/111/111 110/110/110 109/109/109 
f 112/112/112 109/109/109 110/110/110 
f 115/115/115 114/114/114 113/113/113 
f 116/116/116 113/113/113 114/114/114 
f 119/119/119 118/118/118 117/117/117 
f 120/120/120 117/117/117 118/118/118 
f 123/123/123 122/122/122 121/121/121 
f 124/124/124 121/121/121 122/122/122 
f 127/127/127 126/126/126 125/125/125 
f 128/128/128 125/125/125 126/126/126 
f 131/131/131 130/130/130 129/129/129 
f 132/132/132 129/129/129 130/130/130 
f 135/135/135 134/134/134 133/133/133 
f 136/136/136 133/133/133 134/134/134 
f 139/139/139 138/138/138 137/137/137 
f 140/140/140 137/137/137 138/138/138 
f 143/143/143 142/142/142 141/141/141 
f 144/144/144 141/141/141 142/142/142 
f 147/147/147 146/146/146 145/145/145 
f 148/148/148 145/145/145 146/146/146 
f 151/151/151 150/150/150 149/149/149 
f 152/152/152 149/149/149 150/150/150 
f 155/155/155 154/154/154 153/153/153 
f 156/156/156 153/153/153 154/154/154 
f 159/159/159 158/158/158 157/157/157 
f 160/160/160 157/157/157 158/158/158 
f 163/163/163 162/162/162 161/161/161 
f 164/164/164 161/161/161 162/162/162 
f 167/167/167 166/166/166 165/165/165 
f 168/168/168 165/165/165 166/166/166 
f 171/171/171 170/170/170 169/169/169 
f 172/172/172 169/169/169 170/170/170 
f 175/175/175 174/174/174 173/173/173 
f 176/176/176 173/173/173 174/174/174 
f 179/179/179 178/178/178 177/177/177 
f 180/180/180 177/177/177 178/178/178 
f 183/183/183 182/182/182 181/181/181 
f 184/184/184 181/181/181 182/182/182 
f 187/187/187 186/186/186 185/185/185 
f 188/188/188 185/185/185 186/186/186 
f 191/191/191 190/190/190 189/189/189 
f 192/192/192 189/189/189 190/190/190 
f 195/195/195 194/194/194 193/193/193 
f 196/196/196 193/193/193 194/194/194 
f 199/199/199 198/198/198 197/197/197 
f 200/200/200 197/197/197 198/198/198 
f 203/203/203 202/202/202 201/201/201 
f 204/204/204 201/201/201 202/202/202 
f 207/207/207 206/206/206 205/205/205 
f 208/208/208 205/205/205 206/206/206 
f 211/211/211 210/210/210 209/209/209 
f 212/212/212 209/209/209 210/210/210 
f 215/215/215 214/214/214 213/213/213 
f 216/216/216 213/213/213 214/214/214 
f 219/219/219 218/218/218 217/217/217 
f 220/220/220 217/217/217 218/218/218 
f 223/223/223 222/222/222 221/221/221 
f 224/224/224 221/221/221 222/222/222 
f 227/227/227 226/226/226 225/225/225 
f 228/228/228 225/225/225 226/226/226 
f 231/231/231 230/230/230 229/229/229 
f 232/232/232 229/229/229 230/230/230 
f 235/235/235 234/234/234 233/233/233 
f 236/236/236 233/233/233 234/234/234 
f 239/239/239 238/238/238 237/237/237 
f 240/240/240 237/237/237 238/238/238 
f 243/243/243 242/242/242 241/241/241 
f 244/244/244 241/241/241 242/242/242 
f 247/247/247 246/246/246 245/245/245 
f 248/248/248 245/245/245 246/246/246 
f 251/251/251 250/250/250 249/249/249 
f 252/252/252 249/249/249 250/250/250 
f 255/255/255 254/254/254 253/253/253 
f 256/256/256 253/253/253 254/254/254 
f 259/259/259 258/258/258 257/257/257 
f 260/260/260 257/257/257 258/258/258 
f 263/263/263 262/262/262 261/261/261 
f 264/264/264 261/261/261 262/262/262 
f 267/267/267 266/266/266 265/265/265 
f 268/268/268 265/265/265 266/266/266 
f 271/271/271 270/270/270 269/269/269 
f 272/272/272 269/269/269 270/270/270 
f 275/275/275 274/274/274 273/273/273 
f 276/276/276 273/273/273 274/274/274 
f 279/279/279 278/278/278 277/277/277 
f 280/280/280 277/277/277 278/278/278 
f 283/283/283 282/282/282 281/281/281 
f 284/284/284 281/281/281 282/282/282 
f 287/287/287 286/286/286 285/285/285 
f 288/288/288 285/285/285 286/286/286 
f 291/291/291 290/290/290 289/289/289 
f 292/292/292 289/289/289 290/290/290 
f 295/295/295 294/294/294 293/293/293 
f 296/296/296 293/293/293 294/294/294 
f 299/299/299 298/298/298 297/297/297 
f 300/300/300 297/297/297 298/298/298 
f 303/303/303 302/302/302 301/301/301 
f 304/304/304 301/301/301 302/302/302 
f 307/307/307 306/306/306 305/305/305 
f 308/308/308 305/305/305 306/306/306 
f 311/311/311 310/310/310 309/309/309 
f 312/312/312 309/309/309 310/310/310 
f 315/315/315 314/314/314 313/313/313 
f 316/316/316 313/313/313 314/314/314 
f 319/319/319 318/318/318 317/317/317 
f 320/320/320 317/317/317 318/318/318 
f 323/323/323 322/322/322 321/321/321 
f 324/324/324 321/321/321 322/322/322 
f 327/327/327 326/326/326 325/325/325 
f 328/328/328 325/325/325 326/326/326 
f 331/331/331 330/330/330 329/329/329 
f 332/332/332 329/329/329 330/330/330 
f 335/335/335 334/334/334 333/333/333 
f 336/336/336 333/333/333 334/334/334 
f 339/339/339 338/338/338 337/337/337 
f 340/340/340 337/337/337 338/338/338 
f 343/343/343 342/342/342 341/341/341 
f 344/344/344 341/341/341 342/342/342 
f 347/347/347 346/346/346 345/345/345 
f 348/348/348 345/345/345 346/346/346 
f 351/351/351 350/350/350 349/349/349 
f 352/352/352 349/349/349 350/350/350 
f 355/355/355 354/354/354 353/353/353 
f 356/356/356 353/353/353 354/354/354 
f 359/359/359 358/358/358 357/357/357 
f 360/360/360 357/357/357 358/358/358 
f 363/363/363 362/362/362 361/361/361 
f 364/364/364 361/361/361 362/362/362 
f 367/367/367 366/366/366 365/365/365 
f 368/368/368 365/365/365 366/366/366 
f 371/371/371 370/370/370 369/369/369 
f 372/372/372 369/369/369 370/370/370 
f 375/375/375 374/374/374 373/373/373 
f 376/376/376 373/373/373 374/374/374 
f 379/379/379 378/378/378 377/377/377 
f 380/380/380 377/377/377 378/378/378 
f 383/383/383 382/382/382 381/381/381 
f 384/384/384 381/381/381 382/382/382 
f 387/387/387 386/386/386 385/385/385 
f 388/388/388 385/385/385 386/386/386 
f 391/391/391 390/390/390 389/389/389 
f 392/392/392 389/389/389 390/390/390 
f 395/395/395 394/394/394 393/393/393 
f 396/396/396 393/393/393 394/394/394 
f 399/399/399 398/398/398 397/397/397 
f 400/400/400 397/397/397 398/398/398 
f 403/403/403 402/402/402 401/401/401 
f 404/404/404 401/401/401 402/402/402 
f 407/407/407 406/406/406 405/405/405 
f 408/408/408 405/405/405 406/406/406 
f 411/411/411 410/410/410 409/409/409 
f 412/412/412 409/409/409 410/410/410 
f 415/415/415 414/414/414 413/413/413 
f 416/416/416 413/413/413 414/414/414 
f 419/419/419 418/418/418 417/417/417 
f 420/420/420 417/417/417 418/418/418 
f 423/423/423 422/422/422 421/421/421 
f 424/424/424 421/421/421 422/422/422 
f 427/427/427 426/426/426 425/425/425 
f 428/428/428 425/425/425 426/426/426 
f 431/431/431 430/430/430 429/429/429 
f 432/432/432 429/429/429 430/430/430 
f 435/435/435 434/434/434 433/433/433 
f 436/436/436 433/433/433 434/434/434 
f 439/439/439 438/438/438 437/437/437 
f 440/440/440 437/437/437 438/438/438 
f 443/443/443 442/442/442 441/441/441 
f 444/444/444 441/441/441 442/442/442 
f 447/447/447 446/446/446 445/445/445 
f 448/448/448 445/445/445 446/446/446 
f 451/451/451 450/450/450 449/449/449 
f 452/452/452 449/449/449 450/450/450 
f 455/455/455 454/454/454 453/453/453 
f 456/456/456 453/453/453 454/454/454 
f 459/459/459 458/458/458 457/457/457 
f 460/460/460 457/457/457 458/458/458 
f 463/463/463 462/462/462 461/461/461 
f 464/464/464 461/461/461 462/462/462 
f 467/467/467 466/466/466 465/465/465 
f 468/468/468 465/465/465 466/466/466 
f 471/471/471 470/470/470 469/469/469 
f 472/472/472 469/469/469 470/470/470 
f 475/475/475 474/474/474 473/473/473 
f 476/476/476 473/473/473 474/474/474 
f 479/479/479 478/478/478 477/477/477 
f 480/480/480 477/477/477 478/478/478 
f 483/483/483 482/482/482 481/481/481 
f 484/484/484 481/481/481 482/482/482 
f 487/487/487 486/486/486 485/485/485 
f 488/488/488 485/485/485 486/486/486 
f 491/491/491 490/490/490 489/489/489 
f 492/492/492 489/489/489 490/490/490 
f 495/495/495 494/494/494 493/493/493 
f 496/496/496 493/493/493 494/494/494 
f 499/499/499 498/498/498 497/497/497 
f 500/500/500 497/497/497 498/498/498 
f 503/503/503 502/502/502 501/501/501 
f 504/504/504 501/501/501 502/502/502 
f 507/507/507 506/506/506 505/505/505 
f 508/508/508 505/505/505 506/506/506 
f 511/511/511 510/510/510 509/509/509 
f 512/512/512 509/509/509 510/510/510 
f 515/515/515 514/514/514 513/513/513 
f 516/516/516 513/513/513 514/514/514 
f 519/519/519 518/518/518 517/517/517 
f 520/520/520 517/517/517 518/518/518 
f 523/523/523 522/522/522 521/521/521 
f 524/524/524 521/521/521 522/522/522 
f 527/527/527 526/526/526 525/525/525 
f 528/528/528 525/525/525 526/526/526 
f 531/531/531 530/530/530 529/529/529 
f 532/532/532 529/529/529 530/530/530 
f 535/535/535 534/534/534 533/533/533 
f 536/536/536 533/533/533 534/534/534 
f 539/539/539 538/538/538 537/537/537 
f 540/540/540 537/537/537 538/538/538 
f 543/543/543 542/542/542 541/541/541 
f 544/544/544 541/541/541 542/542/542 
f 547/547/547 546/546/546 545/545/545 
f 548/548/548 545/545/545 546/546/546 
f 551/551/551 550/550/550 549/549/549 
f 552/552/552 549/549/549 550/550/550 
f 555/555/555 554/554/554 553/553/553 
f 556/556/556 553/553/553 554/554/554 
f 559/559/559 558/558/558 557/557/557 
f 560/560/560 557/557/557 558/558/558 
f 563/563/563 562/562/562 561/561/561 
f 564/564/564 561/561/561 562/562/562 

