v 0.12912853062152863 -0.020950552076101303 0.03343862667679787
v 0.1604926437139511 -0.015510848723351955 -0.01009202841669321
v 0.13162396848201752 0.0021874629892408848 0.0
v 0.15790919959545135 -0.03946484997868538 0.024525847285985947
v 0.12320151180028915 -0.04282237961888313 0.06614269316196442
v 0.1515464037656784 -0.06295149028301239 0.05965152755379677
v 0.11395347118377686 -0.06342989206314087 0.09889084845781326
v 0.14159022271633148 -0.08513975143432617 0.09491901099681854
v 0.10162422806024551 -0.08228819817304611 0.1317078173160553
v 0.1282976269721985 -0.10547253489494324 0.130309596657753
v 0.08652252703905106 -0.09895298629999161 0.16461621224880219
v 0.11201349645853043 -0.12344204634428024 0.16580289602279663
v 0.06901952624320984 -0.11303071677684784 0.19763751327991486
v 0.09316165745258331 -0.13860377669334412 0.20137636363506317
v 0.049541544169187546 -0.12418702989816666 0.2307910919189453
v 0.0722329393029213 -0.15058957040309906 0.23700614273548126
v 0.02856086753308773 -0.13215479254722595 0.26409482955932617
v 0.04977062717080116 -0.15911807119846344 0.27266833186149597
v 0.006586929317563772 -0.13674037158489227 0.2975630462169647
v 0.026356305927038193 -0.16400188207626343 0.3083367347717285
v -0.0158455278724432 -0.13782952725887299 0.331207811832428
v 0.0025912185665220022 -0.16515296697616577 0.343986451625824
v -0.038188133388757706 -0.13539119064807892 0.3650379776954651
v -0.02091996558010578 -0.16258388757705688 0.3795923590660095
v -0.05989168584346771 -0.12947963178157806 0.3990594148635864
v -0.04358675703406334 -0.15640629827976227 0.41513001918792725
v -0.08041959255933762 -0.12023472785949707 0.43327441811561584
v -0.06484940648078918 -0.14682632684707642 0.4505763053894043
v -0.0992613285779953 -0.10787995159626007 0.46768203377723694
v -0.08419408649206161 -0.13413694500923157 0.48590946197509766
v -0.11594606935977936 -0.09271819144487381 0.5022779703140259
v -0.10116659104824066 -0.1187080442905426 0.521109938621521
v -0.13005545735359192 -0.07512503117322922 0.537054717540741
v -0.11538336426019669 -0.10097421705722809 0.5561605095863342
v -0.1412355750799179 -0.055539991706609726 0.5720014572143555
v -0.12654025852680206 -0.08142133802175522 0.5910462141036987
v -0.14920707046985626 -0.034455783665180206 0.6071044206619263
v -0.13441868126392365 -0.060571569949388504 0.6257553100585938
v -0.15377402305603027 -0.012405097484588623 0.6423467993736267
v -0.13888883590698242 -0.038968466222286224 0.6602791547775269
v -0.15482982993125916 0.010053836740553379 0.6777099967002869
v -0.13991017639636993 -0.01716172695159912 0.6946122646331787
v -0.15236088633537292 0.03235223516821861 0.7131727337837219
v -0.13752952218055725 0.004307131748646498 0.7287524938583374
v -0.1464473307132721 0.053926970809698105 0.7487120032310486
v -0.13187673687934875 0.024918287992477417 0.7627013325691223
v -0.13726085424423218 0.07423678040504456 0.7843037247657776
v -0.1231585368514061 0.04418591037392616 0.7964633703231812
v -0.1250596046447754 0.0927773043513298 0.8199225664138794
v -0.11165031790733337 0.061668939888477325 0.8300471901893616
v -0.11018066853284836 0.10909553617238998 0.8555426597595215
v -0.0976877361536026 0.07697924226522446 0.8634635806083679
v -0.09302937239408493 0.1228025034070015 0.89113849401474
v -0.08165591210126877 0.08978963643312454 0.8967272043228149
v -0.07406726479530334 0.13358354568481445 0.9266846776008606
v -0.0639796182513237 0.0998384952545166 0.9298549294471741
v -0.05379810184240341 0.14120633900165558 0.9621569514274597
v -0.04511214792728424 0.10693362355232239 0.962866485118866
v -0.03275259956717491 0.1455262303352356 0.9975321888923645
v -0.025524653494358063 0.11095429211854935 0.9957835674285889
v -0.011473293416202068 0.14648845791816711 1.0327891111373901
v -0.005696205887943506 0.11185142397880554 1.0286293029785156
v 0.009501714259386063 0.1441277116537094 1.0679090023040771
v 0.013897248543798923 0.10964721441268921 1.0614287853240967
v 0.029652530327439308 0.1385650485754013 1.1028748750686646
v 0.032791439443826675 0.10443297773599625 1.0942065715789795
v 0.0484924241900444 0.13000182807445526 1.137673258781433
v 0.05054426193237305 0.0963660255074501 1.1269893646240234
v 0.06557922810316086 0.1187121719121933 1.1722936630249023
v 0.06674325466156006 0.08566579967737198 1.1598025560379028
v 0.0805259495973587 0.10503306984901428 1.2067286968231201
v 0.08101414144039154 0.07260890305042267 1.192671298980713
v 0.09300902485847473 0.08935363590717316 1.240973949432373
v 0.0930284783244133 0.05752312391996384 1.225619912147522
v 0.10277482122182846 0.07210253924131393 1.2750297784805298
v 0.10250990837812424 0.04078104346990585 1.2586708068847656
v 0.1096431314945221 0.05373569205403328 1.3089007139205933
v 0.1092403382062912 0.02279289998114109 1.2918431758880615
v 0.11350797116756439 0.034726861864328384 1.34259033203125
v 0.11306589841842651 0.003995399456471205 1.3251582384109497
v 0.11433915793895721 0.015550644136965275 1.3761100769042969
v 0.11389957368373871 -0.015153570100665092 1.3586302995681763
v 0.11217887699604034 -0.003325332421809435 1.4094730615615845
v 0.11172489821910858 -0.03418726474046707 1.392271876335144
v 0.10713841021060944 -0.021451931446790695 1.4426953792572021
v 0.10659731924533844 -0.05264049023389816 1.4260927438735962
v 0.09939322620630264 -0.0384075865149498 1.4757962226867676
v 0.09864398837089539 -0.07005996257066727 1.4600987434387207
v 0.08917702734470367 -0.05380678176879883 1.5087958574295044
v 0.08806178718805313 -0.08601655811071396 1.4942926168441772
v 0.07677488029003143 -0.06730712950229645 1.5417181253433228
v 0.07511385530233383 -0.10011529922485352 1.5286734104156494
v 0.06251604855060577 -0.07861533761024475 1.5745865106582642
v 0.06012363359332085 -0.11200681328773499 1.5632363557815552
v 0.046766042709350586 -0.08749204128980637 1.6074270009994507
v 0.043467529118061066 -0.12139668315649033 1.5979739427566528
v 0.029918871819972992 -0.0937555804848671 1.6402645111083984
v 0.025565752759575844 -0.12805414199829102 1.6328743696212769
v 0.012387952767312527 -0.09728503972291946 1.6731256246566772
v 0.006871419958770275 -0.13181911408901215 1.667923092842102
v -0.00540191400796175 -0.09802181273698807 1.7060356140136719
v -0.012141888961195946 -0.1326073557138443 1.7031033039093018
v -0.023022925481200218 -0.09597046673297882 1.7390180826187134
v -0.030992871150374413 -0.13041311502456665 1.7383947372436523
v -0.040053799748420715 -0.09119866043329239 1.7720966339111328
v -0.049205850809812546 -0.12530989944934845 1.7737764120101929
v -0.05608809366822243 -0.08383582532405853 1.8052916526794434
v -0.06632450222969055 -0.11744840443134308 1.8092237710952759
v -0.07074301689863205 -0.07407084107398987 1.8386220932006836
v -0.08192489296197891 -0.10705209523439407 1.8447121381759644
v -0.08366797119379044 -0.062148503959178925 1.8721036911010742
v -0.09562737494707108 -0.09441045671701431 1.8802168369293213
v -0.09455282986164093 -0.04836481437087059 1.905748963356018
v -0.10710712522268295 -0.07987037301063538 1.9157111644744873
v -0.10313587635755539 -0.033060360699892044 1.9395684003829956
v -0.11610317975282669 -0.06382494419813156 1.9511704444885254
v -0.10921023786067963 -0.016613831743597984 1.9735674858093262
v -0.12242450565099716 -0.04670247063040733 1.9865691661834717
v -0.11263006180524826 0.000567181094083935 2.007749080657959
v -0.12595471739768982 -0.02895277366042137 2.0218846797943115
v -0.11331518739461899 0.01805604249238968 2.042112112045288
v -0.1266537457704544 -0.01103411614894867 2.0570945739746094
v -0.11125395447015762 0.035417020320892334 2.0766522884368896
v -0.12455708533525467 0.0065995785407722 2.092180013656616
v -0.10650458186864853 0.052217092365026474 2.1113617420196533
v -0.11977281421422958 0.023511743173003197 2.1271235942840576
v -0.09919463843107224 0.06803688406944275 2.146228075027466
v -0.11247670650482178 0.03929426521062851 2.1619107723236084
v -0.08951801061630249 0.08248315006494522 2.1812376976013184
v -0.10290494561195374 0.05357857421040535 2.196531057357788
v -0.07773039489984512 0.09519877284765244 2.2163727283477783
v -0.09134599566459656 0.06604330241680145 2.2309765815734863
v -0.06414240598678589 0.10587351769208908 2.2516140937805176
v -0.07813101261854172 0.07642156630754471 2.2652437686920166
v -0.04911116138100624 0.11425258219242096 2.2869396209716797
v -0.06362368166446686 0.08450574427843094 2.2993316650390625
v -0.03302996978163719 0.12014414370059967 2.3223254680633545
v -0.048209723085165024 0.09015050530433655 2.3332438468933105
v -0.016317052766680717 0.1234244778752327 2.3577473163604736
v -0.032286424189805984 0.09327390789985657 2.3669867515563965
v 0.0005967726465314627 0.1240411177277565 2.3931801319122314
v -0.016252797096967697 0.09385685622692108 2.4005703926086426
v 0.017280125990509987 0.1220136508345604 2.428598642349243
v -0.0004998648073524237 0.0919412299990654 2.434008836746216
v 0.03331425040960312 0.11743226647377014 2.463977813720703
v 0.01459822990000248 0.08762640506029129 2.4673173427581787
v 0.04830386862158775 0.11045416444540024 2.499293804168701
v 0.028691139072179794 0.08106522262096405 2.5005149841308594
v 0.06188886612653732 0.10129758715629578 2.5345239639282227
v 0.04146020859479904 0.07245849072933197 2.533623218536377
v 0.07375337183475494 0.09023434668779373 2.5696470737457275
v 0.05262346193194389 0.062049563974142075 2.566663980484009
v 0.08363371342420578 0.07758070528507233 2.6046457290649414
v 0.06194116547703743 0.05011759698390961 2.5996620655059814
v 0.09132399410009384 0.06368745863437653 2.6395037174224854
v 0.06921923160552979 0.03697119280695915 2.6326417922973633
v 0.09668021649122238 0.0489293597638607 2.674207925796509
v 0.07431238144636154 0.0229419507086277 2.66562819480896
v 0.09962233155965805 0.033693328499794006 2.708750009536743
v 0.07712668180465698 0.008376355282962322 2.6986465454101562
v 0.10013363510370255 0.018368763849139214 2.7431225776672363
v 0.07762062549591064 -0.00637054955586791 2.731719493865967
v 0.09825921803712845 0.003336410503834486 2.7773239612579346
v 0.0758056640625 -0.020943140611052513 2.7648708820343018
v 0.09410236775875092 -0.0110405208542943 2.811354637145996
v 0.07174606621265411 -0.03499189764261246 2.7981209754943848
v 0.08781947195529938 -0.024425577372312546 2.845219850540161
v 0.06555740535259247 -0.04818187654018402 2.831488609313965
v 0.07961427420377731 -0.03651537001132965 2.8789281845092773
v 0.057404350489377975 -0.060199201107025146 2.864989757537842
v 0.06973126530647278 -0.04704580083489418 2.912489891052246
v 0.04749766364693642 -0.07075847685337067 2.8986380100250244
v 0.05844767019152641 -0.055797360837459564 2.945919990539551
v 0.03608926758170128 -0.07960991561412811 2.932443380355835
v 0.04606681689620018 -0.06259751319885254 2.9792351722717285
v 0.023467442020773888 -0.08654507249593735 2.966411590576172
v 0.03290943056344986 -0.06732352823019028 3.012455940246582
v 0.009949462488293648 -0.09140292555093765 3.000547170639038
v 0.019307302311062813 -0.0699029490351677 3.045602560043335
v -0.004124892875552177 -0.09407394379377365 3.034848928451538
v 0.00559492502361536 -0.07031410187482834 3.07869815826416
v -0.018402481451630592 -0.09450381249189377 3.069312334060669
v -0.007897566072642803 -0.06858492642641068 3.1117663383483887
v -0.03252587094902992 -0.09269528836011887 3.103930950164795
v -0.020850202068686485 -0.06479141116142273 3.1448304653167725
v -0.046142034232616425 -0.08870871365070343 3.138692855834961
v -0.03296101838350296 -0.05905492603778839 3.1779158115386963
v -0.05891292914748192 -0.08266055583953857 3.1735856533050537
v -0.043950650840997696 -0.05153947323560715 3.211045503616333
v -0.07052385061979294 -0.07472090423107147 3.208592653274536
v -0.05356874689459801 -0.04244762286543846 3.2442407608032227
v -0.08069287240505219 -0.06510858237743378 3.24369478225708
v -0.061599038541316986 -0.03201579675078392 3.2775230407714844
v -0.08917874097824097 -0.05408475920557976 3.2788712978363037
v -0.06786330789327621 -0.020509950816631317 3.31091046333313
v -0.09578704833984375 -0.04194612056016922 3.3141000270843506
v -0.07222601026296616 -0.008218944072723389 3.3444204330444336
v -0.10037609189748764 -0.029015298932790756 3.3493587970733643
v -0.07459710538387299 0.004551208112388849 3.3780648708343506
v -0.10286002606153488 -0.015632005408406258 3.3846230506896973
v -0.0749344602227211 0.017484150826931 3.4118542671203613
v -0.10321065038442612 -0.0021430528722703457 3.4198696613311768
v -0.07324536144733429 0.030261263251304626 3.445796012878418
v -0.10145740211009979 0.011108350940048695 3.455075979232788
v -0.06958671659231186 0.042568471282720566 3.479893445968628
v -0.09768527001142502 0.023791605606675148 3.4902195930480957
v -0.06406400352716446 0.05410459265112877 3.5141475200653076
v -0.09203121066093445 0.03559805080294609 3.5252811908721924
v -0.05682925879955292 0.06458864361047745 3.5485544204711914
v -0.0846787616610527 0.046249426901340485 3.5602426528930664
v -0.04807725176215172 0.07376774400472641 3.5831072330474854
v -0.07585178315639496 0.05550442636013031 3.5950868129730225
v -0.03804079443216324 0.08142369240522385 3.6177966594696045
v -0.06580691039562225 0.06316439807415009 3.6298017501831055
v -0.02698483131825924 0.08737888187170029 3.65260910987854
v -0.05482541769742966 0.06907737255096436 3.664376735687256
v -0.015198412351310253 0.09150181710720062 3.687530517578125
v -0.04320424795150757 0.07314061373472214 3.698805809020996
v -0.0029881077352911234 0.09370991587638855 3.7225430011749268
v -0.031248794868588448 0.0753009170293808 3.7330846786499023
v 0.00933176651597023 0.09397242963314056 3.7576262950897217
v -0.0192633718252182 0.07555478066205978 3.7672126293182373
v 0.021447625011205673 0.09231065213680267 3.792759895324707
v -0.007544063031673431 0.073946014046669 3.801193952560425
v 0.03305549919605255 0.08879699558019638 3.8279223442077637
v 0.003628352889791131 0.070562943816185 3.8350346088409424
v 0.04387018084526062 0.08355209976434708 3.863091230392456
v 0.013995172455906868 0.06553418189287186 3.8687446117401123
v 0.053631819784641266 0.07674108445644379 3.898244857788086
v 0.02332373522222042 0.05902445316314697 3.9023361206054688
v 0.06211407110095024 0.06856773793697357 3.933361053466797
v 0.03141332417726517 0.05122879520058632 3.935823678970337
v 0.06912970542907715 0.0592675544321537 3.9684200286865234
v 0.03809797763824463 0.04236694797873497 3.969224452972412
v 0.0745341032743454 0.049101293087005615 4.003402233123779
v 0.043248336762189865 0.032678525894880295 4.002557754516602
v 0.0782293751835823 0.03834550082683563 4.038291931152344
v 0.0467744804918766 0.022415641695261 4.035843849182129
v 0.08016474545001984 0.027285447344183922 4.073073863983154
v 0.048625849187374115 0.0118382154032588 4.069103717803955
v 0.080336794257164 0.016206974163651466 4.1077351570129395
v 0.04879158362746239 0.0012081727618351579 4.102358341217041
v 0.07878796011209488 0.005387339275330305 4.142268657684326
v 0.04729999601840973 -0.009217407554388046 4.135629653930664
v 0.07560361921787262 -0.004910074174404144 4.176666736602783
v 0.04421722888946533 -0.019189655780792236 4.168937683105469
v 0.07090799510478973 -0.014443944208323956 4.210927963256836
v 0.03964511305093765 -0.02847531996667385 4.202301979064941
v 0.06485957652330399 -0.022999223321676254 4.245051860809326
v 0.03371870145201683 -0.036860160529613495 4.235741138458252
v 0.05764584243297577 -0.030391773208975792 4.279041767120361
v 0.02660347707569599 -0.04415362328290939 4.2692694664001465
v 0.04947676137089729 -0.03647233545780182 4.312905311584473
v 0.018490534275770187 -0.05019407719373703 4.302903175354004
v 0.040579285472631454 -0.04112803190946579 4.346651554107666
v 0.00959306675940752 -0.05485130846500397 4.336650848388672
v 0.031191030517220497 -0.04428386688232422 4.3802924156188965
v 0.00014103770081419498 -0.05802999436855316 4.370522499084473
v 0.021554308012127876 -0.04590306058526039 4.41384220123291
v -0.00962445605546236 -0.059672120958566666 4.40452241897583
v 0.011910230852663517 -0.045986372977495193 4.447317123413086
v -0.01945686526596546 -0.059758260846138 4.438652515411377
v 0.002493433188647032 -0.04457081854343414 4.4807353019714355
v -0.029110442847013474 -0.05830821022391319 4.472912788391113
v -0.006472969893366098 -0.041727591305971146 4.514115333557129
v -0.03834658861160278 -0.055380456149578094 4.507298946380615
v -0.01478202547878027 -0.03755955398082733 4.5474772453308105
v -0.04693998396396637 -0.0510706901550293 4.541804313659668
v -0.022247042506933212 -0.032198093831539154 4.580840110778809
v -0.054684609174728394 -0.045509204268455505 4.576418399810791
v -0.028705120086669922 -0.025799628347158432 4.614222526550293
v -0.06139931082725525 -0.038857150822877884 4.6111297607421875
v -0.034020353108644485 -0.018541688099503517 4.647644519805908
v -0.06693249195814133 -0.031302083283662796 4.6459245681762695
v -0.03808635473251343 -0.010618625208735466 4.681122303009033
v -0.07116624712944031 -0.023052379488945007 4.680787086486816
v -0.040828216820955276 -0.0022370743099600077 4.714671611785889
v -0.07401909679174423 -0.014331367798149586 4.715699195861816
v -0.042203936725854874 0.006388748064637184 4.748307228088379
v -0.07544798403978348 -0.005370692349970341 4.750644207000732
v -0.04220504313707352 0.015042181126773357 4.78203821182251
v -0.07544875890016556 0.0035963859409093857 4.785601615905762
v -0.04085664823651314 0.023509187623858452 4.81587553024292
v -0.07405554503202438 0.01234158594161272 4.820554256439209
v -0.0382167249917984 0.031583260744810104 4.849823951721191
v -0.07133900374174118 0.020647993311285973 4.8554840087890625
v -0.034374356269836426 0.03907109797000885 4.883888244628906
v -0.06740318983793259 0.02831633761525154 4.890373229980469
v -0.02944767102599144 0.04579635336995125 4.918067932128906
v -0.06238202005624771 0.03516922891139984 4.925206184387207
v -0.023580584675073624 0.05160490795969963 4.9523606300354
v -0.056434329599142075 0.04105638340115547 4.959968566894531
v -0.016938550397753716 0.05636873096227646 4.986762046813965
v -0.04973834007978439 0.04585782811045647 4.994647979736328
v -0.00970500335097313 0.059988368302583694 5.02126407623291
v -0.04248683527112007 0.0494854636490345 5.029234409332275
v -0.00207496527582407 0.06239642575383186 5.0558576583862305
v -0.03488016128540039 0.05188523232936859 5.063720703125
v 0.005749109201133251 0.06355822086334229 5.090529918670654
v -0.027121679857373238 0.053036440163850784 5.098100662231445
v 0.013563787564635277 0.0634729415178299 5.125267028808594
v -0.019411366432905197 0.05295151472091675 5.132373332977295
v 0.02117050439119339 0.06217287853360176 5.160055637359619
v -0.01194062177091837 0.051673948764801025 5.166539192199707
v 0.028380146250128746 0.059722110629081726 5.194879055023193
v -0.0048885405994951725 0.04927607253193855 5.200599670410156
v 0.035019341856241226 0.056213922798633575 5.2297210693359375
v 0.001583397388458252 0.04585564509034157 5.23456335067749
v 0.04093437269330025 0.051767561584711075 5.264564514160156
v 0.007333585061132908 0.04153262823820114 5.268435001373291
v 0.04599492624402046 0.04652445390820503 5.299393653869629
v 0.012243393808603287 0.036445215344429016 5.3022260665893555
v 0.05009790137410164 0.040642961859703064 5.334193706512451
v 0.016219450160861015 0.030745262280106544 5.3359479904174805
v 0.05316884070634842 0.034293897449970245 5.368949890136719
v 0.01919424533843994 0.024594709277153015 5.3696136474609375
v 0.055163342505693436 0.027655083686113358 5.403649806976318
v 0.02112714946269989 0.01816086657345295 5.4032392501831055
v 0.05606731399893761 0.020905887708067894 5.438281059265137
v 0.022004297003149986 0.011612491682171822 5.436836242675781
v 0.05589715763926506 0.01425416674464941 5.472670555114746
v 0.02183663286268711 0.0050580305978655815 5.470723628997803
vn -0.5714491009712219 -0.6426398754119873 -0.5103528499603271
vn -0.5733374953269958 -0.6531071662902832 -0.494707316160202
vn -0.5733374357223511 -0.6531070470809937 -0.49470728635787964
vn -0.5714282989501953 -0.6426698565483093 -0.5103382468223572
vn -0.5667627453804016 -0.6248911023139954 -0.5369274616241455
vn -0.5667256116867065 -0.6249505877494812 -0.5368974804878235
vn -0.5619446635246277 -0.6138814687728882 -0.5544076561927795
vn -0.5619128346443176 -0.6139412522315979 -0.554373562335968
vn -0.5590118765830994 -0.609170138835907 -0.5625099539756775
vn -0.5589854121208191 -0.6092298626899719 -0.5624715089797974
vn -0.5597387552261353 -0.6097873449325562 -0.5611165761947632
vn -0.5597174763679504 -0.6098461747169495 -0.5610739588737488
vn -0.5655385851860046 -0.6143046617507935 -0.5502689480781555
vn -0.565522313117981 -0.6143614649772644 -0.5502223372459412
vn -0.5773509740829468 -0.6209588646888733 -0.53016597032547
vn -0.5773391723632812 -0.6210126876831055 -0.5301156640052795
vn -0.5955680012702942 -0.627800464630127 -0.5011640787124634
vn -0.5955601334571838 -0.6278510093688965 -0.5011099576950073
vn -0.6200071573257446 -0.6328579187393188 -0.46376922726631165
vn -0.6200023889541626 -0.632904589176178 -0.4637119472026825
vn -0.6499317288398743 -0.6342985033988953 -0.4186338186264038
vn -0.6499291062355042 -0.6343408226966858 -0.41857361793518066
vn -0.6841147541999817 -0.630581796169281 -0.36654287576675415
vn -0.6841134428977966 -0.6306195855140686 -0.3664802014827728
vn -0.7209444642066956 -0.6205840110778809 -0.3084063231945038
vn -0.7209435701370239 -0.620617151260376 -0.3083418607711792
vn -0.7585611343383789 -0.6036904454231262 -0.24524040520191193
vn -0.7585595846176147 -0.6037192344665527 -0.24517418444156647
vn -0.7950121164321899 -0.579842746257782 -0.17815189063549042
vn -0.7950091361999512 -0.5798676013946533 -0.17808452248573303
vn -0.8284156918525696 -0.5495400428771973 -0.1083197072148323
vn -0.8284103870391846 -0.5495614409446716 -0.10825154185295105
vn -0.8571166396141052 -0.5137937664985657 -0.03697318583726883
vn -0.8571085333824158 -0.513812243938446 -0.0369047187268734
vn -0.8798219561576843 -0.4740402102470398 0.03463001176714897
vn -0.8798102736473083 -0.4740568697452545 0.034698061645030975
vn -0.8957048058509827 -0.43201854825019836 0.10522730648517609
vn -0.8956894278526306 -0.4320341646671295 0.10529455542564392
vn -0.9044702649116516 -0.38962242007255554 0.17357370257377625
vn -0.9044509530067444 -0.3896377980709076 0.17363996803760529
vn -0.9063732624053955 -0.3487420082092285 0.2384670525789261
vn -0.9063499569892883 -0.34875819087028503 0.2385319024324417
vn -0.9021914601325989 -0.3111085295677185 0.29876765608787537
vn -0.9021645188331604 -0.3111262917518616 0.29883041977882385
vn -0.8931558132171631 -0.2781507670879364 0.35341864824295044
vn -0.8931257128715515 -0.27817100286483765 0.3534790873527527
vn -0.8808404207229614 -0.2508818805217743 0.40147027373313904
vn -0.8808075189590454 -0.2509053349494934 0.40152788162231445
vn -0.8670294880867004 -0.22981995344161987 0.4420890510082245
vn -0.8669945001602173 -0.2298469841480255 0.4421435296535492
vn -0.8535639643669128 -0.2149534821510315 0.47457724809646606
vn -0.8535275459289551 -0.2149847000837326 0.47462862730026245
vn -0.842187762260437 -0.20574866235256195 0.4983847141265869
vn -0.8421509265899658 -0.2057839334011078 0.49843233823776245
vn -0.8344046473503113 -0.20120194554328918 0.5131146311759949
vn -0.8343681693077087 -0.20124147832393646 0.5131586194038391
vn -0.8313525319099426 -0.19993335008621216 0.5185360908508301
vn -0.8313168287277222 -0.1999770700931549 0.5185763835906982
vn -0.833716630935669 -0.20030517876148224 0.5145817995071411
vn -0.8336825370788574 -0.2003529667854309 0.514618456363678
vn -0.8416749238967896 -0.2005668729543686 0.501354455947876
vn -0.8416430354118347 -0.20061823725700378 0.5013875365257263
vn -0.854891300201416 -0.19900088012218475 0.47912368178367615
vn -0.8548620343208313 -0.1990555226802826 0.4791531562805176
vn -0.8725495934486389 -0.1940736174583435 0.44832199811935425
vn -0.8725234270095825 -0.19413092732429504 0.4483482241630554
vn -0.8934304714202881 -0.18455734848976135 0.40953701734542847
vn -0.8934076428413391 -0.18461664021015167 0.40956002473831177
vn -0.9160172939300537 -0.16963835060596466 0.3635038435459137
vn -0.9159979224205017 -0.1696995347738266 0.36352431774139404
vn -0.9386304616928101 -0.14897756278514862 0.31109240651130676
vn -0.9386144876480103 -0.14904020726680756 0.3111107647418976
vn -0.9595721960067749 -0.12273816764354706 0.2532913386821747
vn -0.9595597982406616 -0.12280166894197464 0.2533074617385864
vn -0.9772729277610779 -0.09156370162963867 0.19119006395339966
vn -0.9772641658782959 -0.09162762761116028 0.19120465219020844
vn -0.9904243350028992 -0.05651520565152168 0.1259593665599823
vn -0.9904182553291321 -0.05658149719238281 0.12597696483135223
vn -0.9980872273445129 -0.018986839801073074 0.05883360281586647
vn -0.9980849027633667 -0.019053267315030098 0.05885102599859238
vn -0.9997715353965759 0.01942288689315319 -0.008925305679440498
vn -0.9997729659080505 0.019356979057192802 -0.008908026851713657
vn -0.9954708814620972 0.05705426633358002 -0.0760425552725792
vn -0.9954760670661926 0.056988876312971115 -0.07602483034133911
vn -0.9856587052345276 0.09232311695814133 -0.14125634729862213
vn -0.9856672883033752 0.09225928038358688 -0.14123839139938354
vn -0.9712408185005188 0.12386253476142883 -0.2033456265926361
vn -0.9712526202201843 0.12380069494247437 -0.20332662761211395
vn -0.9534734487533569 0.150628924369812 -0.2611498236656189
vn -0.953488290309906 0.1505695879459381 -0.26113006472587585
vn -0.9338492155075073 0.17199309170246124 -0.31359851360321045
vn -0.9338669180870056 0.17193591594696045 -0.31357714533805847
vn -0.9139682650566101 0.18778136372566223 -0.3597222864627838
vn -0.9139882326126099 0.18772725760936737 -0.3596996068954468
vn -0.8953964114189148 0.19829235970973969 -0.39867961406707764
vn -0.8954185843467712 0.19824132323265076 -0.39865508675575256
vn -0.8795349597930908 0.20425207912921906 -0.4297666549682617
vn -0.8795588612556458 0.20420432090759277 -0.4297405183315277
vn -0.8675004839897156 0.20675605535507202 -0.45243221521377563
vn -0.8675257563591003 0.20671172440052032 -0.4524039328098297
vn -0.860034704208374 0.2071581929922104 -0.4662895202636719
vn -0.8600610494613647 0.20711728930473328 -0.4662589430809021
vn -0.8574472665786743 0.2069588154554367 -0.47111809253692627
vn -0.8574744462966919 0.2069215178489685 -0.4710851311683655
vn -0.8595967888832092 0.20766250789165497 -0.4668721854686737
vn -0.8596248030662537 0.2076280266046524 -0.46683600544929504
vn -0.8659079670906067 0.21065472066402435 -0.45368266105651855
vn -0.8659356832504272 0.21062405407428741 -0.45364415645599365
vn -0.875433087348938 0.21708473563194275 -0.43184614181518555
vn -0.8754602074623108 0.21705730259418488 -0.43180498480796814
vn -0.8869384527206421 0.22775804996490479 -0.40182894468307495
vn -0.8869649767875671 0.2277333289384842 -0.40178442001342773
vn -0.8990146517753601 0.24308224022388458 -0.3642575144767761
vn -0.8990394473075867 0.2430606335401535 -0.3642108142375946
vn -0.9102060198783875 0.2630334198474884 -0.3199036121368408
vn -0.9102287292480469 0.2630143463611603 -0.31985485553741455
vn -0.9191391468048096 0.2871626615524292 -0.2696678340435028
vn -0.9191597104072571 0.2871452569961548 -0.26961657404899597
vn -0.924640953540802 0.3146410882472992 -0.21456940472126007
vn -0.9246588945388794 0.31462493538856506 -0.21451590955257416
vn -0.9258395433425903 0.34434249997138977 -0.1557222306728363
vn -0.9258544445037842 0.3443271517753601 -0.1556675136089325
vn -0.9222374558448792 0.37494516372680664 -0.09430990368127823
vn -0.9222493171691895 0.37492990493774414 -0.09425456076860428
vn -0.9137507081031799 0.4050470292568207 -0.03156775236129761
vn -0.9137596487998962 0.4050312042236328 -0.03151220828294754
vn -0.9007099270820618 0.43329566717147827 0.03124699369072914
vn -0.900716245174408 0.4332786202430725 0.03130219131708145
vn -0.8838247656822205 0.45850497484207153 0.09288111329078674
vn -0.8838287591934204 0.45848628878593445 0.09293525665998459
vn -0.8641155362129211 0.4797571301460266 0.15210959315299988
vn -0.8641178607940674 0.479736328125 0.15216223895549774
vn -0.8428189158439636 0.4964789152145386 0.20776192843914032
vn -0.8428201079368591 0.49645569920539856 0.2078126221895218
vn -0.8212739825248718 0.5084868669509888 0.2587474286556244
vn -0.8212747573852539 0.5084613561630249 0.2587951123714447
vn -0.8008040189743042 0.5159977078437805 0.30407097935676575
vn -0.800804853439331 0.5159699320793152 0.3041161596775055
vn -0.7825998067855835 0.519598126411438 0.3428635001182556
vn -0.7826011776924133 0.519567608833313 0.34290656447410583
vn -0.767616868019104 0.520189106464386 0.37438955903053284
vn -0.7676193714141846 0.5201570987701416 0.37442919611930847
vn -0.7564941644668579 0.5189017653465271 0.39806726574897766
vn -0.7564979791641235 0.5188682079315186 0.3981037735939026
vn -0.7495083808898926 0.5169859528541565 0.41347646713256836
vn -0.7495139241218567 0.5169505476951599 0.4135105311870575
vn -0.7465556263923645 0.5157043933868408 0.42036134004592896
vn -0.7465630769729614 0.5156679153442383 0.4203929007053375
vn -0.7471639513969421 0.5162144303321838 0.41865092515945435
vn -0.747173547744751 0.5161768198013306 0.41868025064468384
vn -0.7505486011505127 0.5194725394248962 0.40844228863716125
vn -0.7505600452423096 0.5194351077079773 0.40846890211105347
vn -0.7556859850883484 0.5261515378952026 0.3900039792060852
vn -0.7557001113891602 0.5261126756668091 0.3900294303894043
vn -0.7614140510559082 0.536576509475708 0.36377787590026855
vn -0.7614305019378662 0.5365365743637085 0.3638022840023041
vn -0.7665299773216248 0.5507220029830933 0.33035898208618164
vn -0.7665480971336365 0.5506834387779236 0.33038124442100525
vn -0.7699078321456909 0.5682031512260437 0.29049447178840637
vn -0.7699283361434937 0.5681645274162292 0.2905156910419464
vn -0.7705981135368347 0.5883245468139648 0.24505643546581268
vn -0.7706212401390076 0.5882858633995056 0.24507704377174377
vn -0.767906904220581 0.6101493835449219 0.19503021240234375
vn -0.7679319381713867 0.6101115942001343 0.19505007565021515
vn -0.761452853679657 0.6325885057449341 0.1414961963891983
vn -0.7614796757698059 0.6325521469116211 0.14151518046855927
vn -0.7512010931968689 0.6544991731643677 0.08560142666101456
vn -0.7512298226356506 0.6544637680053711 0.08562021702528
vn -0.7374551296234131 0.674793004989624 0.02853621169924736
vn -0.7374854683876038 0.674759030342102 0.028555212542414665
vn -0.7208248972892761 0.692531406879425 -0.02848922461271286
vn -0.7208566665649414 0.6924992799758911 -0.028470080345869064
vn -0.7021664977073669 0.707007884979248 -0.08427490293979645
vn -0.7021989226341248 0.7069778442382812 -0.0842561274766922
vn -0.6824959516525269 0.7178094983100891 -0.1376550942659378
vn -0.682528555393219 0.7177820205688477 -0.13763642311096191
vn -0.6628971695899963 0.7248462438583374 -0.18752379715442657
vn -0.6629304885864258 0.7248208522796631 -0.1875043362379074
vn -0.6444242596626282 0.7283506393432617 -0.23285789787769318
vn -0.6444575786590576 0.7283275127410889 -0.23283806443214417
vn -0.6279996633529663 0.7288544178009033 -0.2727411389350891
vn -0.6280323266983032 0.728833794593811 -0.27272090315818787
vn -0.6143414974212646 0.727128803730011 -0.3063793480396271
vn -0.6143733859062195 0.7271105051040649 -0.30635857582092285
vn -0.6038985848426819 0.7241120934486389 -0.33311909437179565
vn -0.6039296984672546 0.7240960001945496 -0.3330974280834198
vn -0.5968211889266968 0.7208179831504822 -0.35245686769485474
vn -0.5968514680862427 0.7208039164543152 -0.3524344563484192
vn -0.5929466485977173 0.7182441353797913 -0.36405980587005615
vn -0.5929763913154602 0.7182316780090332 -0.36403608322143555
vn -0.5918320417404175 0.7172788381576538 -0.3677581548690796
vn -0.5918607115745544 0.7172678709030151 -0.3677330017089844
vn -0.5927926301956177 0.7186282277107239 -0.3635523319244385
vn -0.5928196310997009 0.718619167804718 -0.36352646350860596
vn -0.5949772596359253 0.7227530479431152 -0.35161077976226807
vn -0.5950027704238892 0.7227451801300049 -0.3515835404396057
vn -0.5974471569061279 0.7298285961151123 -0.3322758674621582
vn -0.5974714756011963 0.7298218011856079 -0.3322470784187317
vn -0.599265456199646 0.7397425770759583 -0.30604249238967896
vn -0.5992885231971741 0.7397364974021912 -0.30601179599761963
vn -0.5995838046073914 0.7521111965179443 -0.27354708313941956
vn -0.5996052026748657 0.7521057724952698 -0.27351516485214233
vn -0.5977154970169067 0.7663180828094482 -0.23556922376155853
vn -0.5977351069450378 0.766312837600708 -0.23553644120693207
vn -0.5931991934776306 0.7815809845924377 -0.19299174845218658
vn -0.593217134475708 0.7815757989883423 -0.19295774400234222
vn -0.5858331322669983 0.7970260381698608 -0.1467963308095932
vn -0.5858493447303772 0.7970203161239624 -0.14676186442375183
vn -0.5756891369819641 0.8117698431015015 -0.09803963452577591
vn -0.5757039785385132 0.8117635846138 -0.09800468385219574
vn -0.5630975365638733 0.8250055909156799 -0.04782183840870857
vn -0.5631111264228821 0.8249983787536621 -0.04778693616390228
vn -0.5486117005348206 0.8360728025436401 0.002734030596911907
vn -0.5486242175102234 0.8360643982887268 0.0027687030378729105
vn -0.5329487323760986 0.8445168733596802 0.0525067038834095
vn -0.5329604744911194 0.8445073366165161 0.05254034698009491
vn -0.5169206261634827 0.8501248955726624 0.10040337592363358
vn -0.5169318914413452 0.850114107131958 0.10043653845787048
vn -0.5013562440872192 0.852938711643219 0.14538735151290894
vn -0.5013676285743713 0.85292649269104 0.14541949331760406
vn -0.4870232343673706 0.8532453179359436 0.1864960938692093
vn -0.4870346486568451 0.853232204914093 0.1865261197090149
vn -0.47455790638923645 0.8515440225601196 0.2228621244430542
vn -0.4745696485042572 0.851530134677887 0.22289054095745087
vn -0.46441102027893066 0.8484910726547241 0.2537427842617035
vn -0.464423269033432 0.8484763503074646 0.25376948714256287
vn -0.45681124925613403 0.8448376059532166 0.27851903438568115
vn -0.45682385563850403 0.8448228240013123 0.27854353189468384
vn -0.45175090432167053 0.8413562774658203 0.2967167794704437
vn -0.4517640471458435 0.8413411378860474 0.29673945903778076
vn -0.44899266958236694 0.8387643694877625 0.30802592635154724
vn -0.4490073323249817 0.8387482166290283 0.308048278093338
vn -0.44810351729393005 0.8376648426055908 0.31228306889533997
vn -0.44811901450157166 0.8376488089561462 0.31230393052101135
vn -0.4484909176826477 0.8384947776794434 0.30948731303215027
vn -0.4485068917274475 0.838479220867157 0.3095063269138336
vn -0.44947388768196106 0.8414792418479919 0.2998097836971283
vn -0.4494907557964325 0.8414636850357056 0.2998279333114624
vn -0.45034536719322205 0.8466305136680603 0.2835592031478882
vn -0.4503629803657532 0.8466154336929321 0.2835763394832611
vn -0.45043978095054626 0.8537439703941345 0.2611997723579407
vn -0.4504583477973938 0.8537290096282959 0.2612163722515106
vn -0.44919419288635254 0.8624281287193298 0.2333289384841919
vn -0.44921332597732544 0.8624138236045837 0.23334473371505737
vn -0.44619712233543396 0.8721486330032349 0.2006610780954361
vn -0.44621720910072327 0.8721348643302917 0.20067650079727173
vn -0.4412265717983246 0.8822799324989319 0.16401608288288116
vn -0.44124770164489746 0.8822664618492126 0.16403146088123322
vn -0.43425995111465454 0.8921715021133423 0.12429116666316986
vn -0.43428167700767517 0.8921589255332947 0.12430623173713684
vn -0.42547106742858887 0.901208758354187 0.08244477957487106
vn -0.4254927635192871 0.9011971354484558 0.08245953172445297
vn -0.41520920395851135 0.9088691473007202 0.03947436064481735
vn -0.4152311384677887 0.9088584184646606 0.039488665759563446
vn -0.4039592444896698 0.9147698879241943 -0.0036122913006693125
vn -0.40398138761520386 0.9147601127624512 -0.0035979554522782564
vn -0.39228928089141846 0.9187000393867493 -0.04581804573535919
vn -0.39231130480766296 0.9186913371086121 -0.045803774148225784
vn -0.3807953894138336 0.920634388923645 -0.08618087321519852
vn -0.3808169662952423 0.920626699924469 -0.0861668586730957
vn -0.3700444996356964 0.920728862285614 -0.12379530817270279
vn -0.37006551027297974 0.9207223057746887 -0.12378152459859848
vn -0.36051926016807556 0.9193007349967957 -0.15783531963825226
vn -0.3605395257472992 0.9192951917648315 -0.15782169997692108
vn -0.3525771200656891 0.9167912602424622 -0.18757154047489166
vn -0.3525967299938202 0.9167865514755249 -0.18755798041820526
vn -0.3464204967021942 0.9137199521064758 -0.2123878449201584
vn -0.3464391231536865 0.9137160778045654 -0.2123744785785675
vn -0.3420819342136383 0.9106318950653076 -0.23179614543914795
vn -0.34209975600242615 0.910628616809845 -0.23178258538246155
vn -0.33943113684654236 0.9080461263656616 -0.24543613195419312
vn -0.33944791555404663 0.9080434441566467 -0.2454226016998291
vn -0.3381882905960083 0.9064050912857056 -0.2530975937843323
vn -0.3382042944431305 0.9064030647277832 -0.25308388471603394
vn -0.33796167373657227 0.9060364365577698 -0.2547152042388916
vn -0.33797720074653625 0.9060346484184265 -0.2547009289264679
vn -0.33828747272491455 0.9071276187896729 -0.25036177039146423
vn -0.3383018970489502 0.907126247882843 -0.2503472566604614
vn -0.338675320148468 0.9097111225128174 -0.24025967717170715
vn -0.3386884927749634 0.9097099900245667 -0.2402452826499939
vn -0.33865973353385925 0.9136704802513123 -0.22475717961788177
vn -0.3386724889278412 0.9136695265769958 -0.2247421145439148
vn -0.3378446698188782 0.9187558889389038 -0.20432449877262115
vn -0.33785703778266907 0.9187549948692322 -0.20430868864059448
vn -0.33593347668647766 0.9246131181716919 -0.17955321073532104
vn -0.3359447419643402 0.9246119856834412 -0.17953741550445557
vn -0.33275702595710754 0.9308252930641174 -0.15111927688121796
vn -0.3327677547931671 0.9308241009712219 -0.1511031687259674
vn -0.32828593254089355 0.9369537830352783 -0.11977463960647583
vn -0.3282961845397949 0.9369522929191589 -0.1197580024600029
vn -0.3226242661476135 0.9425815343856812 -0.08633410185575485
vn -0.3226339519023895 0.9425797462463379 -0.08631754666566849
vn -0.31599515676498413 0.9473541378974915 -0.05164441466331482
vn -0.3160042464733124 0.9473520517349243 -0.05162810534238815
vn -0.30871331691741943 0.9510108232498169 -0.016566289588809013
vn -0.3087220788002014 0.9510083794593811 -0.016550321131944656
vn -0.301151305437088 0.9534056186676025 0.018045227974653244
vn -0.3011598289012909 0.9534026980400085 0.018060918897390366
vn -0.2936992943286896 0.9545167088508606 0.05136523023247719
vn -0.2937074601650238 0.9545134902000427 0.051379866898059845
vn -0.28672561049461365 0.9544438719749451 0.08261534571647644
vn -0.2867334485054016 0.9544403553009033 0.08262933790683746
vn -0.2805444002151489 0.9533913135528564 0.11108513921499252
vn -0.28055286407470703 0.9533870816230774 0.11109974980354309
vn -0.2753874361515045 0.9516430497169495 0.13615164160728455
vn -0.27539563179016113 0.9516388773918152 0.13616463541984558
vn -0.2713760435581207 0.9495347738265991 0.15728570520877838
vn -0.27138379216194153 0.9495306015014648 0.15729759633541107
vn -0.2685304284095764 0.9474131464958191 0.17406857013702393
vn -0.26853811740875244 0.9474089741706848 0.17407937347888947
vn -0.2667592167854309 0.9456063508987427 0.18619418144226074
vn -0.2667665481567383 0.945602297782898 0.18620385229587555
vn -0.26588279008865356 0.9443880319595337 0.19348777830600739
vn -0.2658914625644684 0.944383442401886 0.1934983730316162
vn -0.2656531035900116 0.9439566135406494 0.19589351117610931
vn -0.2656615376472473 0.943952202796936 0.19590313732624054
vn -0.2657719850540161 0.9444204568862915 0.19348186254501343
vn -0.2657802999019623 0.944416344165802 0.19349069893360138
vn -0.26594117283821106 0.945787250995636 0.18644532561302185
vn -0.2659452259540558 0.9457852244377136 0.18644966185092926
vn -0.26599082350730896 0.9466788172721863 0.1817912608385086
vn -0.2659895122051239 0.9466794729232788 0.18178997933864594

g eff_mdl_ff15_noct_skill180_emitter00
s 1
usemtl eff_mdl_ff15_noct_skill180_emitter00
f 3//3 2//2 1//1 
f 4//4 1//1 2//2 
f 1//1 4//4 5//5 
f 6//6 5//5 4//4 
f 5//5 6//6 7//7 
f 8//8 7//7 6//6 
f 7//7 8//8 9//9 
f 10//10 9//9 8//8 
f 9//9 10//10 11//11 
f 12//12 11//11 10//10 
f 11//11 12//12 13//13 
f 14//14 13//13 12//12 
f 13//13 14//14 15//15 
f 16//16 15//15 14//14 
f 15//15 16//16 17//17 
f 18//18 17//17 16//16 
f 17//17 18//18 19//19 
f 20//20 19//19 18//18 
f 19//19 20//20 21//21 
f 22//22 21//21 20//20 
f 21//21 22//22 23//23 
f 24//24 23//23 22//22 
f 23//23 24//24 25//25 
f 26//26 25//25 24//24 
f 25//25 26//26 27//27 
f 28//28 27//27 26//26 
f 27//27 28//28 29//29 
f 30//30 29//29 28//28 
f 29//29 30//30 31//31 
f 32//32 31//31 30//30 
f 31//31 32//32 33//33 
f 34//34 33//33 32//32 
f 33//33 34//34 35//35 
f 36//36 35//35 34//34 
f 35//35 36//36 37//37 
f 38//38 37//37 36//36 
f 37//37 38//38 39//39 
f 40//40 39//39 38//38 
f 39//39 40//40 41//41 
f 42//42 41//41 40//40 
f 41//41 42//42 43//43 
f 44//44 43//43 42//42 
f 43//43 44//44 45//45 
f 46//46 45//45 44//44 
f 45//45 46//46 47//47 
f 48//48 47//47 46//46 
f 47//47 48//48 49//49 
f 50//50 49//49 48//48 
f 49//49 50//50 51//51 
f 52//52 51//51 50//50 
f 51//51 52//52 53//53 
f 54//54 53//53 52//52 
f 53//53 54//54 55//55 
f 56//56 55//55 54//54 
f 55//55 56//56 57//57 
f 58//58 57//57 56//56 
f 57//57 58//58 59//59 
f 60//60 59//59 58//58 
f 59//59 60//60 61//61 
f 62//62 61//61 60//60 
f 61//61 62//62 63//63 
f 64//64 63//63 62//62 
f 63//63 64//64 65//65 
f 66//66 65//65 64//64 
f 65//65 66//66 67//67 
f 68//68 67//67 66//66 
f 67//67 68//68 69//69 
f 70//70 69//69 68//68 
f 69//69 70//70 71//71 
f 72//72 71//71 70//70 
f 71//71 72//72 73//73 
f 74//74 73//73 72//72 
f 73//73 74//74 75//75 
f 76//76 75//75 74//74 
f 75//75 76//76 77//77 
f 78//78 77//77 76//76 
f 77//77 78//78 79//79 
f 80//80 79//79 78//78 
f 79//79 80//80 81//81 
f 82//82 81//81 80//80 
f 81//81 82//82 83//83 
f 84//84 83//83 82//82 
f 83//83 84//84 85//85 
f 86//86 85//85 84//84 
f 85//85 86//86 87//87 
f 88//88 87//87 86//86 
f 87//87 88//88 89//89 
f 90//90 89//89 88//88 
f 89//89 90//90 91//91 
f 92//92 91//91 90//90 
f 91//91 92//92 93//93 
f 94//94 93//93 92//92 
f 93//93 94//94 95//95 
f 96//96 95//95 94//94 
f 95//95 96//96 97//97 
f 98//98 97//97 96//96 
f 97//97 98//98 99//99 
f 100//100 99//99 98//98 
f 99//99 100//100 101//101 
f 102//102 101//101 100//100 
f 101//101 102//102 103//103 
f 104//104 103//103 102//102 
f 103//103 104//104 105//105 
f 106//106 105//105 104//104 
f 105//105 106//106 107//107 
f 108//108 107//107 106//106 
f 107//107 108//108 109//109 
f 110//110 109//109 108//108 
f 109//109 110//110 111//111 
f 112//112 111//111 110//110 
f 111//111 112//112 113//113 
f 114//114 113//113 112//112 
f 113//113 114//114 115//115 
f 116//116 115//115 114//114 
f 115//115 116//116 117//117 
f 118//118 117//117 116//116 
f 117//117 118//118 119//119 
f 120//120 119//119 118//118 
f 119//119 120//120 121//121 
f 122//122 121//121 120//120 
f 121//121 122//122 123//123 
f 124//124 123//123 122//122 
f 123//123 124//124 125//125 
f 126//126 125//125 124//124 
f 125//125 126//126 127//127 
f 128//128 127//127 126//126 
f 127//127 128//128 129//129 
f 130//130 129//129 128//128 
f 129//129 130//130 131//131 
f 132//132 131//131 130//130 
f 131//131 132//132 133//133 
f 134//134 133//133 132//132 
f 133//133 134//134 135//135 
f 136//136 135//135 134//134 
f 135//135 136//136 137//137 
f 138//138 137//137 136//136 
f 137//137 138//138 139//139 
f 140//140 139//139 138//138 
f 139//139 140//140 141//141 
f 142//142 141//141 140//140 
f 141//141 142//142 143//143 
f 144//144 143//143 142//142 
f 143//143 144//144 145//145 
f 146//146 145//145 144//144 
f 145//145 146//146 147//147 
f 148//148 147//147 146//146 
f 147//147 148//148 149//149 
f 150//150 149//149 148//148 
f 149//149 150//150 151//151 
f 152//152 151//151 150//150 
f 151//151 152//152 153//153 
f 154//154 153//153 152//152 
f 153//153 154//154 155//155 
f 156//156 155//155 154//154 
f 155//155 156//156 157//157 
f 158//158 157//157 156//156 
f 157//157 158//158 159//159 
f 160//160 159//159 158//158 
f 159//159 160//160 161//161 
f 162//162 161//161 160//160 
f 161//161 162//162 163//163 
f 164//164 163//163 162//162 
f 163//163 164//164 165//165 
f 166//166 165//165 164//164 
f 165//165 166//166 167//167 
f 168//168 167//167 166//166 
f 167//167 168//168 169//169 
f 170//170 169//169 168//168 
f 169//169 170//170 171//171 
f 172//172 171//171 170//170 
f 171//171 172//172 173//173 
f 174//174 173//173 172//172 
f 173//173 174//174 175//175 
f 176//176 175//175 174//174 
f 175//175 176//176 177//177 
f 178//178 177//177 176//176 
f 177//177 178//178 179//179 
f 180//180 179//179 178//178 
f 179//179 180//180 181//181 
f 182//182 181//181 180//180 
f 181//181 182//182 183//183 
f 184//184 183//183 182//182 
f 183//183 184//184 185//185 
f 186//186 185//185 184//184 
f 185//185 186//186 187//187 
f 188//188 187//187 186//186 
f 187//187 188//188 189//189 
f 190//190 189//189 188//188 
f 189//189 190//190 191//191 
f 192//192 191//191 190//190 
f 191//191 192//192 193//193 
f 194//194 193//193 192//192 
f 193//193 194//194 195//195 
f 196//196 195//195 194//194 
f 195//195 196//196 197//197 
f 198//198 197//197 196//196 
f 197//197 198//198 199//199 
f 200//200 199//199 198//198 
f 199//199 200//200 201//201 
f 202//202 201//201 200//200 
f 201//201 202//202 203//203 
f 204//204 203//203 202//202 
f 203//203 204//204 205//205 
f 206//206 205//205 204//204 
f 205//205 206//206 207//207 
f 208//208 207//207 206//206 
f 207//207 208//208 209//209 
f 210//210 209//209 208//208 
f 209//209 210//210 211//211 
f 212//212 211//211 210//210 
f 211//211 212//212 213//213 
f 214//214 213//213 212//212 
f 213//213 214//214 215//215 
f 216//216 215//215 214//214 
f 215//215 216//216 217//217 
f 218//218 217//217 216//216 
f 217//217 218//218 219//219 
f 220//220 219//219 218//218 
f 219//219 220//220 221//221 
f 222//222 221//221 220//220 
f 221//221 222//222 223//223 
f 224//224 223//223 222//222 
f 223//223 224//224 225//225 
f 226//226 225//225 224//224 
f 225//225 226//226 227//227 
f 228//228 227//227 226//226 
f 227//227 228//228 229//229 
f 230//230 229//229 228//228 
f 229//229 230//230 231//231 
f 232//232 231//231 230//230 
f 231//231 232//232 233//233 
f 234//234 233//233 232//232 
f 233//233 234//234 235//235 
f 236//236 235//235 234//234 
f 235//235 236//236 237//237 
f 238//238 237//237 236//236 
f 237//237 238//238 239//239 
f 240//240 239//239 238//238 
f 239//239 240//240 241//241 
f 242//242 241//241 240//240 
f 241//241 242//242 243//243 
f 244//244 243//243 242//242 
f 243//243 244//244 245//245 
f 246//246 245//245 244//244 
f 245//245 246//246 247//247 
f 248//248 247//247 246//246 
f 247//247 248//248 249//249 
f 250//250 249//249 248//248 
f 249//249 250//250 251//251 
f 252//252 251//251 250//250 
f 251//251 252//252 253//253 
f 254//254 253//253 252//252 
f 253//253 254//254 255//255 
f 256//256 255//255 254//254 
f 255//255 256//256 257//257 
f 258//258 257//257 256//256 
f 257//257 258//258 259//259 
f 260//260 259//259 258//258 
f 259//259 260//260 261//261 
f 262//262 261//261 260//260 
f 261//261 262//262 263//263 
f 264//264 263//263 262//262 
f 263//263 264//264 265//265 
f 266//266 265//265 264//264 
f 265//265 266//266 267//267 
f 268//268 267//267 266//266 
f 267//267 268//268 269//269 
f 270//270 269//269 268//268 
f 269//269 270//270 271//271 
f 272//272 271//271 270//270 
f 271//271 272//272 273//273 
f 274//274 273//273 272//272 
f 273//273 274//274 275//275 
f 276//276 275//275 274//274 
f 275//275 276//276 277//277 
f 278//278 277//277 276//276 
f 277//277 278//278 279//279 
f 280//280 279//279 278//278 
f 279//279 280//280 281//281 
f 282//282 281//281 280//280 
f 281//281 282//282 283//283 
f 284//284 283//283 282//282 
f 283//283 284//284 285//285 
f 286//286 285//285 284//284 
f 285//285 286//286 287//287 
f 288//288 287//287 286//286 
f 287//287 288//288 289//289 
f 290//290 289//289 288//288 
f 289//289 290//290 291//291 
f 292//292 291//291 290//290 
f 291//291 292//292 293//293 
f 294//294 293//293 292//292 
f 293//293 294//294 295//295 
f 296//296 295//295 294//294 
f 295//295 296//296 297//297 
f 298//298 297//297 296//296 
f 297//297 298//298 299//299 
f 300//300 299//299 298//298 
f 299//299 300//300 301//301 
f 302//302 301//301 300//300 
f 301//301 302//302 303//303 
f 304//304 303//303 302//302 
f 303//303 304//304 305//305 
f 306//306 305//305 304//304 
f 305//305 306//306 307//307 
f 308//308 307//307 306//306 
f 307//307 308//308 309//309 
f 310//310 309//309 308//308 
f 309//309 310//310 311//311 
f 312//312 311//311 310//310 
f 311//311 312//312 313//313 
f 314//314 313//313 312//312 
f 313//313 314//314 315//315 
f 316//316 315//315 314//314 
f 315//315 316//316 317//317 
f 318//318 317//317 316//316 
f 317//317 318//318 319//319 
f 320//320 319//319 318//318 
f 319//319 320//320 321//321 
f 322//322 321//321 320//320 

