v -0.0 0.0 0.10907360166311264
v -9.50727141457719e-09 0.07712668180465698 0.07712667435407639
v 0.054536789655685425 0.05453680828213692 0.07712667435407639
v -0.05453680828213692 0.054536789655685425 0.07712667435407639
v -0.07712668180465698 -2.3768178536442974e-08 0.07712667435407639
v -0.05453679338097572 -0.05453680455684662 0.07712667435407639
v -9.50727141457719e-09 0.10907360166311264 -4.7677586323402465e-09
v 0.07712666690349579 0.07712668925523758 -4.7677586323402465e-09
v -0.07712668925523758 0.07712666690349579 -4.7677586323402465e-09
v -0.10907360166311264 -2.852181424373157e-08 -4.7677586323402465e-09
v -0.07712667435407639 -0.07712668925523758 -4.7677586323402465e-09
v -9.50727141457719e-09 0.07712668180465698 -0.07712667435407639
v 0.054536789655685425 0.05453680828213692 -0.07712667435407639
v -0.05453680828213692 0.054536789655685425 -0.07712667435407639
v -0.07712668180465698 -2.3768178536442974e-08 -0.07712667435407639
v -0.05453679338097572 -0.05453680455684662 -0.07712667435407639
v -0.0 0.0 0.10907360166311264
v -0.0 -0.07712668180465698 0.07712667435407639
v -0.05453679338097572 -0.05453680455684662 0.07712667435407639
v 0.054536785930395126 -0.054536812007427216 0.07712667435407639
v 0.07712668180465698 -2.852181424373157e-08 0.07712667435407639
v 0.054536789655685425 0.05453680828213692 0.07712667435407639
v -4.753635707288595e-09 -0.10907360166311264 -4.7677586323402465e-09
v -0.07712667435407639 -0.07712668925523758 -4.7677586323402465e-09
v 0.07712666690349579 -0.07712668925523758 -4.7677586323402465e-09
v 0.10907360166311264 -4.2782719589240514e-08 -4.7677586323402465e-09
v 0.07712666690349579 0.07712668925523758 -4.7677586323402465e-09
v -0.0 -0.07712668180465698 -0.07712667435407639
v -0.05453679338097572 -0.05453680455684662 -0.07712667435407639
v 0.054536785930395126 -0.054536812007427216 -0.07712667435407639
v 0.07712668180465698 -2.852181424373157e-08 -0.07712667435407639
v 0.054536789655685425 0.05453680828213692 -0.07712667435407639
v -0.0 0.0 -0.10907360166311264
v 0.054536789655685425 0.05453680828213692 -0.07712667435407639
v -9.50727141457719e-09 0.07712668180465698 -0.07712667435407639
v -0.05453680828213692 0.054536789655685425 -0.07712667435407639
v -0.07712668180465698 -2.3768178536442974e-08 -0.07712667435407639
v -0.05453679338097572 -0.05453680455684662 -0.07712667435407639
v -0.0 0.0 -0.10907360166311264
v -0.05453679338097572 -0.05453680455684662 -0.07712667435407639
v -0.0 -0.07712668180465698 -0.07712667435407639
v 0.054536785930395126 -0.054536812007427216 -0.07712667435407639
v 0.07712668180465698 -2.852181424373157e-08 -0.07712667435407639
v 0.054536789655685425 0.05453680828213692 -0.07712667435407639
vn -0.0 0.0 1.0
vn -1.0929120008995596e-07 0.7486157417297363 0.6630040407180786
vn 0.5293512940406799 0.5293513536453247 0.6630041003227234
vn -0.5293514728546143 0.5293512344360352 0.6630041003227234
vn -0.7486157417297363 -1.6106071143440204e-07 0.6630040407180786
vn -0.5293511748313904 -0.5293513536453247 0.6630041003227234
vn -1.2735485199755203e-07 1.0 0.0
vn 0.7071067690849304 0.7071068286895752 0.0
vn -0.70710688829422 0.7071066498756409 0.0
vn -1.0 -2.0619357599116483e-07 0.0
vn -0.7071066498756409 -0.70710688829422 0.0
vn -1.1791946263883801e-07 0.7486158609390259 -0.6630041003227234
vn 0.5293514132499695 0.5293512940406799 -0.6630040407180786
vn -0.5293513536453247 0.5293512344360352 -0.6630041003227234
vn -0.7486156821250916 -1.783172081104567e-07 -0.6630041599273682
vn -0.5293512344360352 -0.5293512940406799 -0.6630041003227234
vn -0.0 0.0 1.0
vn -0.0 -0.7486159205436707 0.6630040407180786
vn -0.5293511748313904 -0.5293513536453247 0.6630041003227234
vn 0.5293511748313904 -0.5293513536453247 0.6630041003227234
vn 0.7486157417297363 -1.7256506623652967e-07 0.6630041003227234
vn 0.5293512940406799 0.5293513536453247 0.6630041003227234
vn -0.0 -1.0 0.0
vn -0.7071066498756409 -0.70710688829422 0.0
vn 0.7071065902709961 -0.70710688829422 0.0
vn 1.0 -2.0012906531974295e-07 0.0
vn 0.7071067690849304 0.7071068286895752 0.0
vn -0.0 -0.7486159205436707 -0.6630040407180786
vn -0.5293512344360352 -0.5293512940406799 -0.6630041003227234
vn 0.5293511748313904 -0.5293514728546143 -0.6630041003227234
vn 0.7486157417297363 -1.2367162582904712e-07 -0.6630041003227234
vn 0.5293514132499695 0.5293512940406799 -0.6630040407180786
vn -0.0 0.0 -1.0
vn 0.5293514132499695 0.5293512940406799 -0.6630040407180786
vn -1.1791946263883801e-07 0.7486158609390259 -0.6630041003227234
vn -0.5293513536453247 0.5293512344360352 -0.6630041003227234
vn -0.7486156821250916 -1.783172081104567e-07 -0.6630041599273682
vn -0.5293512344360352 -0.5293512940406799 -0.6630041003227234
vn -0.0 0.0 -1.0
vn -0.5293512344360352 -0.5293512940406799 -0.6630041003227234
vn -0.0 -0.7486159205436707 -0.6630040407180786
vn 0.5293511748313904 -0.5293514728546143 -0.6630041003227234
vn 0.7486157417297363 -1.2367162582904712e-07 -0.6630041003227234
vn 0.5293514132499695 0.5293512940406799 -0.6630040407180786
vt 0.20527568459510803 0.44016486406326294
vt 0.1776813268661499 0.46941202878952026
vt 0.15495169162750244 0.46941202878952026
vt 0.20338580012321472 0.46941202878952026
vt 0.22909015417099 0.46941202878952026
vt 0.25266996026039124 0.46941202878952026
vt 0.1776813268661499 0.503250777721405
vt 0.15495169162750244 0.503250777721405
vt 0.20338580012321472 0.503250777721405
vt 0.22909015417099 0.503250777721405
vt 0.25266996026039124 0.503250777721405
vt 0.1776813268661499 0.5370895862579346
vt 0.15495169162750244 0.5370895862579346
vt 0.20338580012321472 0.5370895862579346
vt 0.22909015417099 0.5370895862579346
vt 0.25266996026039124 0.5370895862579346
vt 0.20527568459510803 0.44016486406326294
vt 0.1772744059562683 0.46941202878952026
vt 0.15454474091529846 0.46941202878952026
vt 0.20297887921333313 0.46941202878952026
vt 0.2286834418773651 0.46941202878952026
vt 0.25226283073425293 0.46941202878952026
vt 0.1772744059562683 0.503250777721405
vt 0.15454474091529846 0.503250777721405
vt 0.20297887921333313 0.503250777721405
vt 0.2286834418773651 0.503250777721405
vt 0.25226283073425293 0.503250777721405
vt 0.1772744059562683 0.5370895862579346
vt 0.15454474091529846 0.5370895862579346
vt 0.20297887921333313 0.5370895862579346
vt 0.2286834418773651 0.5370895862579346
vt 0.25226283073425293 0.5370895862579346
vt 0.20527568459510803 0.5583012998104095
vt 0.15495169162750244 0.5370895862579346
vt 0.1776813268661499 0.5370895862579346
vt 0.20338580012321472 0.5370895862579346
vt 0.22909015417099 0.5370895862579346
vt 0.25266996026039124 0.5370895862579346
vt 0.20527568459510803 0.5583012998104095
vt 0.15454474091529846 0.5370895862579346
vt 0.1772744059562683 0.5370895862579346
vt 0.20297887921333313 0.5370895862579346
vt 0.2286834418773651 0.5370895862579346
vt 0.25226283073425293 0.5370895862579346

g bg_mdl_map_argent
s 1
usemtl bg_mdl_map_argent
f 3/3/3 2/2/2 1/1/1 
f 2/2/2 4/4/4 1/1/1 
f 4/4/4 5/5/5 1/1/1 
f 5/5/5 6/6/6 1/1/1 
f 7/7/7 2/2/2 3/3/3 
f 8/8/8 7/7/7 3/3/3 
f 7/7/7 9/9/9 2/2/2 
f 9/9/9 4/4/4 2/2/2 
f 9/9/9 10/10/10 4/4/4 
f 10/10/10 5/5/5 4/4/4 
f 10/10/10 11/11/11 5/5/5 
f 11/11/11 6/6/6 5/5/5 
f 12/12/12 7/7/7 8/8/8 
f 13/13/13 12/12/12 8/8/8 
f 12/12/12 14/14/14 7/7/7 
f 14/14/14 9/9/9 7/7/7 
f 14/14/14 15/15/15 9/9/9 
f 15/15/15 10/10/10 9/9/9 
f 15/15/15 16/16/16 10/10/10 
f 16/16/16 11/11/11 10/10/10 
f 19/19/19 18/18/18 17/17/17 
f 18/18/18 20/20/20 17/17/17 
f 20/20/20 21/21/21 17/17/17 
f 21/21/21 22/22/22 17/17/17 
f 23/23/23 18/18/18 19/19/19 
f 24/24/24 23/23/23 19/19/19 
f 23/23/23 25/25/25 18/18/18 
f 25/25/25 20/20/20 18/18/18 
f 25/25/25 26/26/26 20/20/20 
f 26/26/26 21/21/21 20/20/20 
f 26/26/26 27/27/27 21/21/21 
f 27/27/27 22/22/22 21/21/21 
f 28/28/28 23/23/23 24/24/24 
f 29/29/29 28/28/28 24/24/24 
f 28/28/28 30/30/30 23/23/23 
f 30/30/30 25/25/25 23/23/23 
f 30/30/30 31/31/31 25/25/25 
f 31/31/31 26/26/26 25/25/25 
f 31/31/31 32/32/32 26/26/26 
f 32/32/32 27/27/27 26/26/26 
f 35/35/35 34/34/34 33/33/33 
f 36/36/36 35/35/35 33/33/33 
f 37/37/37 36/36/36 33/33/33 
f 38/38/38 37/37/37 33/33/33 
f 41/41/41 40/40/40 39/39/39 
f 42/42/42 41/41/41 39/39/39 
f 43/43/43 42/42/42 39/39/39 
f 44/44/44 43/43/43 39/39/39 

