v 0.1876298040151596 0.05763361230492592 -0.02784048579633236
v 0.18732814490795135 0.05697745829820633 -0.05693402513861656
v 0.19873400032520294 0.062478046864271164 -0.03279786929488182
v 0.1784791201353073 0.0526435412466526 -0.0512053444981575
v 0.1701209545135498 0.050424955785274506 -0.07668033242225647
v 0.16500362753868103 0.04755932092666626 -0.0674433708190918
v 0.14473028481006622 0.03973107784986496 -0.08007438480854034
v 0.14623379707336426 0.0410221703350544 -0.09004784375429153
v 0.0989668220281601 0.022100862115621567 -0.09050975739955902
v 0.10047042369842529 0.023391954600811005 -0.10048321634531021
v 0.10537491738796234 0.013825789093971252 -0.1030830442905426
v 0.1511382907629013 0.031456008553504944 -0.09264768660068512
v 0.10962885618209839 0.003467499278485775 -0.10168430209159851
v 0.15539230406284332 0.021097715944051743 -0.09124892950057983
v 0.15344032645225525 0.019664568826556206 -0.0812557265162468
v 0.17440703511238098 0.02598540298640728 -0.0687977597117424
v 0.17998497188091278 0.02898360975086689 -0.07787062227725983
v 0.18835410475730896 0.030210843309760094 -0.05269698426127434
v 0.19756269454956055 0.03461746126413345 -0.05804642662405968
v 0.20923016965389252 0.03833878040313721 -0.032797861844301224
v 0.19793958961963654 0.033434994518756866 -0.030440859496593475
v 0.20322270691394806 0.03501169756054878 1.1514976705484514e-07
v 0.2142871618270874 0.04007990285754204 1.1514976705484514e-07
v 0.20410409569740295 0.06487912684679031 1.1514976705484514e-07
v 0.19244273006916046 0.0598030649125576 1.1514976705484514e-07
v 0.1876298040151596 0.05763361230492592 0.027840713039040565
v 0.19873400032520294 0.062478046864271164 0.032798100262880325
v 0.18732814490795135 0.05697745829820633 0.056934256106615067
v 0.1784791201353073 0.0526435412466526 0.05120557174086571
v 0.1701209545135498 0.050424955785274506 0.07668056339025497
v 0.16500362753868103 0.04755932092666626 0.0674436017870903
v 0.14473028481006622 0.03973107784986496 0.08007461577653885
v 0.14623379707336426 0.0410221703350544 0.09004807472229004
v 0.0989668220281601 0.022100862115621567 0.09050998836755753
v 0.10047042369842529 0.023391954600811005 0.10048344731330872
v 0.10537491738796234 0.013825789093971252 0.10308327525854111
v 0.1511382907629013 0.031456008553504944 0.09264791011810303
v 0.10962885618209839 0.003467499278485775 0.10168453305959702
v 0.15539230406284332 0.021097715944051743 0.09124916046857834
v 0.15344032645225525 0.019664568826556206 0.0812559574842453
v 0.17440703511238098 0.02598540298640728 0.0687979906797409
v 0.17998497188091278 0.02898360975086689 0.07787084579467773
v 0.18835410475730896 0.030210843309760094 0.05269721522927284
v 0.19756269454956055 0.03461746126413345 0.05804665386676788
v 0.20923016965389252 0.03833878040313721 0.03279809281229973
v 0.19793958961963654 0.033434994518756866 0.03044108860194683
v 0.20322270691394806 0.03501169756054878 1.1514976705484514e-07
v 0.2142871618270874 0.04007990285754204 1.1514976705484514e-07
v 0.20410409569740295 0.06487912684679031 1.1514976705484514e-07
v 0.19244273006916046 0.0598030649125576 1.1514976705484514e-07
v 0.17269903421401978 0.03344084322452545 0.12564563751220703
v 0.198282390832901 0.017570115625858307 0.1313270479440689
v 0.17873699963092804 0.04347964748740196 0.13885943591594696
v 0.20655867457389832 0.025048155337572098 0.15068449079990387
v 0.1680535078048706 0.028961854055523872 0.10934329032897949
v 0.18735457956790924 0.01802620105445385 0.1040067970752716
v 0.15792465209960938 0.02163601852953434 0.08719781041145325
v 0.17426848411560059 0.026403464376926422 0.07883009314537048
v 0.2042553722858429 0.026454705744981766 0.1631714403629303
v 0.175880566239357 0.04453214630484581 0.15183112025260925
v 0.1680249571800232 0.0369049571454525 0.15938839316368103
v 0.1948799043893814 0.018613623455166817 0.1699891835451126
v 0.17873699963092804 0.04347964748740196 0.13885943591594696
v 0.1616632044315338 0.01739606261253357 0.13076011836528778
v 0.17269903421401978 0.03344084322452545 0.12564563751220703
v 0.16087256371974945 0.01743151806294918 0.1106615737080574
v 0.1680535078048706 0.028961854055523872 0.10934329032897949
v 0.15792465209960938 0.02163601852953434 0.08719781041145325
v 0.16049475967884064 0.017919454723596573 0.14531056582927704
v 0.1680249571800232 0.0369049571454525 0.15938839316368103
v 0.162261962890625 0.02511436864733696 0.1556723713874817
v 0.175880566239357 0.04453214630484581 0.15183112025260925
v 0.1892698109149933 0.0070486124604940414 0.16721153259277344
v 0.16049475967884064 0.017919454723596573 0.14531056582927704
v 0.162261962890625 0.02511436864733696 0.1556723713874817
v 0.18721270561218262 0.0008221695898100734 0.1562618762254715
v 0.1616632044315338 0.01739606261253357 0.13076011836528778
v 0.18558627367019653 0.0022440196480602026 0.1362503468990326
v 0.16087256371974945 0.01743151806294918 0.1106615737080574
v 0.18133775889873505 0.010182692669332027 0.10490870475769043
v 0.15792465209960938 0.02163601852953434 0.08719781041145325
v 0.17426848411560059 0.026403464376926422 0.07883009314537048
v 0.1680249571800232 0.0369049571454525 0.15938839316368103
v 0.1948799043893814 0.018613623455166817 0.1699891835451126
v 0.20824004709720612 0.02086394652724266 0.12538030743598938
v 0.2295025736093521 0.006678738631308079 0.10816308110952377
v 0.22498191893100739 0.025300081819295883 0.14335989952087402
v 0.24699746072292328 0.004486998077481985 0.12504138052463531
v 0.1927306354045868 0.022133000195026398 0.10407674312591553
v 0.20815645158290863 0.01705465093255043 0.08764127641916275
v 0.17107734084129333 0.027160117402672768 0.07797176390886307
v 0.1857924610376358 0.0316193662583828 0.06672443449497223
v 0.2512935996055603 -0.0008669596863910556 0.13443030416965485
v 0.22858412563800812 0.019648436456918716 0.15378805994987488
v 0.24815577268600464 -0.008783075958490372 0.14060068130493164
v 0.22593460977077484 0.011810201220214367 0.15933223068714142
v 0.22498191893100739 0.025300081819295883 0.14335989952087402
v 0.19752137362957 0.00399279547855258 0.13087905943393707
v 0.20824004709720612 0.02086394652724266 0.12538030743598938
v 0.20866543054580688 -5.381838127505034e-05 0.15113632380962372
v 0.1860915571451187 0.013345003128051758 0.10588224232196808
v 0.1927306354045868 0.022133000195026398 0.10407674312591553
v 0.17107734084129333 0.027160117402672768 0.07797176390886307
v 0.22593460977077484 0.011810201220214367 0.15933223068714142
v 0.21808770298957825 0.0031681591644883156 0.15885615348815918
v 0.22858412563800812 0.019648436456918716 0.15378805994987488
v 0.19752137362957 0.00399279547855258 0.13087905943393707
v 0.20866543054580688 -5.381838127505034e-05 0.15113632380962372
v 0.22969022393226624 -0.019930344074964523 0.13364215195178986
v 0.21758654713630676 -0.009392001666128635 0.11480212956666946
v 0.1860915571451187 0.013345003128051758 0.10588224232196808
v 0.20091478526592255 0.007643257267773151 0.09049823880195618
v 0.17107734084129333 0.027160117402672768 0.07797176390886307
v 0.1857924610376358 0.0316193662583828 0.06672443449497223
v 0.21808770298957825 0.0031681591644883156 0.15885615348815918
v 0.23963956534862518 -0.0177614763379097 0.14087696373462677
v 0.22593460977077484 0.011810201220214367 0.15933223068714142
v 0.24815577268600464 -0.008783075958490372 0.14060068130493164
v 0.13005617260932922 0.05674653872847557 0.11878558248281479
v 0.12574046850204468 0.053641658276319504 0.10230556130409241
v 0.1315801441669464 0.06332629173994064 0.11541974544525146
v 0.12773214280605316 0.04209447279572487 0.11321389675140381
v 0.13272640109062195 0.054915789514780045 0.12336651235818863
v 0.13598309457302094 0.049297526478767395 0.12462971359491348
v 0.14401745796203613 0.035788822919130325 0.1173192486166954
v 0.14321056008338928 0.050509631633758545 0.1274777352809906
v 0.13354463875293732 0.06414326280355453 0.11070962995290756
v 0.13677126169204712 0.059631913900375366 0.09658323228359222
v 0.13811396062374115 0.06868257373571396 0.1103205755352974
v 0.15078158676624298 0.051765162497758865 0.12295665591955185
v 0.1575378030538559 0.04391370713710785 0.10727258771657944
v 0.15357929468154907 0.056616853922605515 0.12164827436208725
v 0.1534898579120636 0.05979986861348152 0.11507310718297958
v 0.1447007954120636 0.06594900786876678 0.10606125742197037
v 0.15347370505332947 0.05618350952863693 0.09975606948137283
v 0.1500306874513626 0.06557298451662064 0.1131981909275055
v 0.1534898579120636 0.05979986861348152 0.11507310718297958
v 0.1575378030538559 0.04391370713710785 0.10727258771657944
v 0.15857866406440735 0.06370604038238525 0.11509408056735992
v 0.1644887924194336 0.054927799850702286 0.10306453704833984
v 0.1609620302915573 0.05542028322815895 0.11598767340183258
v 0.15492311120033264 0.0648404210805893 0.10731688886880875
v 0.16362027823925018 0.04506037011742592 0.11124292761087418
v 0.15726442635059357 0.06195581704378128 0.09645700454711914
v 0.1518615186214447 0.06829526275396347 0.10803720355033875
v 0.1472533494234085 0.07245003432035446 0.10688556730747223
v 0.1477488875389099 0.06590628623962402 0.09277160465717316
v 0.1382388472557068 0.07004429399967194 0.10198262333869934
v 0.135255828499794 0.0678883045911789 0.09524185210466385
v 0.14645344018936157 0.0530301071703434 0.0842825323343277
v 0.12791423499584198 0.04996147379279137 0.08812454342842102
v 0.14231619238853455 0.0327620729804039 0.09002181142568588
v 0.1230517327785492 0.038608990609645844 0.09888485074043274
v 0.12495508790016174 0.061388496309518814 0.09716353565454483
v 0.11935673654079437 0.04847811535000801 0.10940079391002655
v 0.12102686613798141 0.06004739925265312 0.11264687031507492
v 0.12623810768127441 0.06856226921081543 0.11067236959934235
v 0.13374124467372894 0.07036931067705154 0.10376673191785812
v 0.12304941564798355 0.05714045837521553 0.12148937582969666
v 0.12580212950706482 0.048174381256103516 0.12517420947551727
v 0.13295631110668182 0.027502890676259995 0.10901067405939102
v 0.1594468355178833 0.04310351610183716 0.0936005562543869
v 0.13063634932041168 0.03549450635910034 0.12161848694086075
v 0.13279621303081512 0.048148393630981445 0.12994080781936646
v 0.1419466882944107 0.04121524840593338 0.12930253148078918
v 0.14485418796539307 0.034915972501039505 0.12421655654907227
v 0.15467840433120728 0.029369235038757324 0.10661252588033676
v 0.1582711637020111 0.037512410432100296 0.119564950466156
v 0.14770328998565674 0.04372435435652733 0.12875165045261383
v 0.15413996577262878 0.05037451535463333 0.12772348523139954
v 0.1609155684709549 0.05085105448961258 0.12075545638799667
v 0.16362027823925018 0.04506037011742592 0.11124292761087418
v 0.15650762617588043 0.034637972712516785 0.1016208827495575
v 0.15650762617588043 0.034637972712516785 0.1016208827495575
v 0.12102686613798141 0.06004739925265312 0.11264687031507492
v 0.135255828499794 0.0678883045911789 0.09524185210466385
v 0.14247526228427887 0.040714092552661896 0.09846898168325424
v 0.13374124467372894 0.07036931067705154 0.10376673191785812
v 0.12623810768127441 0.06856226921081543 0.11067236959934235
v 0.15492311120033264 0.0648404210805893 0.10731688886880875
v 0.16362027823925018 0.04506037011742592 0.11124292761087418
v 0.1382388472557068 0.07004429399967194 0.10198262333869934
v 0.1518615186214447 0.06829526275396347 0.10803720355033875
v 0.1472533494234085 0.07245003432035446 0.10688556730747223
v 0.1609620302915573 0.05542028322815895 0.11598767340183258
v 0.15857866406440735 0.06370604038238525 0.11509408056735992
v 0.12580212950706482 0.048174381256103516 0.12517420947551727
v 0.12304941564798355 0.05714045837521553 0.12148937582969666
v 0.14485418796539307 0.034915972501039505 0.12421655654907227
v 0.14770328998565674 0.04372435435652733 0.12875165045261383
v 0.1609155684709549 0.05085105448961258 0.12075545638799667
v 0.15413996577262878 0.05037451535463333 0.12772348523139954
v 0.1419466882944107 0.04121524840593338 0.12930253148078918
v 0.13279621303081512 0.048148393630981445 0.12994080781936646
v 0.14226415753364563 0.03784310445189476 0.11166020482778549
v 0.14252635836601257 0.05586383864283562 0.12294726073741913
v 0.15478549897670746 0.0457758828997612 0.10409320890903473
v 0.14944620430469513 0.05915539711713791 0.11802693456411362
v 0.1429329216480255 0.05432899668812752 0.09606790542602539
v 0.14286775887012482 0.06483310461044312 0.11446424573659897
v 0.1310236006975174 0.046311162412166595 0.10371211916208267
v 0.13596445322036743 0.05945909768342972 0.11781071126461029
v 0.14226415753364563 0.03784310445189476 0.11166020482778549
v 0.14252635836601257 0.05586383864283562 0.12294726073741913
v 0.14944620430469513 0.05915539711713791 0.11802693456411362
v 0.14286775887012482 0.06483310461044312 0.11446424573659897
v 0.13272640109062195 0.054915789514780045 0.12336651235818863
v 0.13005617260932922 0.05674653872847557 0.11878558248281479
v 0.13598309457302094 0.049297526478767395 0.12462971359491348
v 0.1422891765832901 0.03766630217432976 0.09487291425466537
v 0.13354463875293732 0.06414326280355453 0.11070962995290756
v 0.1315801441669464 0.06332629173994064 0.11541974544525146
v 0.15078158676624298 0.051765162497758865 0.12295665591955185
v 0.1534898579120636 0.05979986861348152 0.11507310718297958
v 0.15357929468154907 0.056616853922605515 0.12164827436208725
v 0.14321056008338928 0.050509631633758545 0.1274777352809906
v 0.1447007954120636 0.06594900786876678 0.10606125742197037
v 0.13811396062374115 0.06868257373571396 0.1103205755352974
v 0.1500306874513626 0.06557298451662064 0.1131981909275055
v 0.14183394610881805 0.08444537222385406 0.0798281654715538
v 0.14007362723350525 0.07174137234687805 0.08318690210580826
v 0.1455976963043213 0.07383734732866287 0.07201019674539566
v 0.1536967009305954 0.06197672337293625 0.08129798620939255
v 0.15989533066749573 0.07184009999036789 0.07077127695083618
v 0.16812707483768463 0.06782228499650955 0.08120507746934891
v 0.16224145889282227 0.06478536128997803 0.094601571559906
v 0.14564134180545807 0.06734848022460938 0.09491454809904099
v 0.14007362723350525 0.07174137234687805 0.08318690210580826
v 0.15557900071144104 0.07670368999242783 0.10240684449672699
v 0.16573448479175568 0.07528785616159439 0.09981420636177063
v 0.17124679684638977 0.07602547109127045 0.09231267869472504
v 0.17248007655143738 0.07889584451913834 0.0840194895863533
v 0.14603950083255768 0.07828841358423233 0.09907930344343185
v 0.14004866778850555 0.08292634785175323 0.08670616149902344
v 0.14562177658081055 0.08560565859079361 0.07395566999912262
v 0.14227981865406036 0.08035361021757126 0.09377322345972061
v 0.14876990020275116 0.08845926821231842 0.09348256140947342
v 0.1523641049861908 0.08920145779848099 0.0968753919005394
v 0.14004866778850555 0.08292634785175323 0.08670616149902344
v 0.14858794212341309 0.09182161837816238 0.08966238796710968
v 0.16895988583564758 0.08167436718940735 0.076126828789711
v 0.16275183856487274 0.08388660848140717 0.07151145488023758
v 0.15367911756038666 0.08506731688976288 0.07050438225269318
v 0.16754812002182007 0.08959661424160004 0.08799200505018234
v 0.16117551922798157 0.09260623902082443 0.07975156605243683
v 0.15510496497154236 0.09107545763254166 0.07863441109657288
v 0.15038083493709564 0.09366708248853683 0.08231508731842041
v 0.1477106362581253 0.09009017795324326 0.08579996228218079
v 0.1477106362581253 0.09009017795324326 0.08579996228218079
v 0.1646721363067627 0.08974525332450867 0.08199702948331833
v 0.16587401926517487 0.08602644503116608 0.09301028400659561
v 0.1621466726064682 0.08782956004142761 0.09702447056770325
v 0.15661124885082245 0.08508271723985672 0.09859202802181244
v 0.14393363893032074 0.07493823021650314 0.08267838507890701
v 0.15090224146842957 0.08834955096244812 0.0874997228384018
v 0.15317460894584656 0.07000530511140823 0.09522499144077301
v 0.15633253753185272 0.08646614849567413 0.09421805292367935
v 0.163768008351326 0.08597823232412338 0.08940313011407852
v 0.15859198570251465 0.08947070688009262 0.08271047472953796
v 0.15859198570251465 0.08947070688009262 0.08271047472953796
v 0.15750016272068024 0.07569544017314911 0.07340899854898453
v 0.163768008351326 0.08597823232412338 0.08940313011407852
v 0.16732774674892426 0.07062637805938721 0.08613941073417664
v 0.15633253753185272 0.08646614849567413 0.09421805292367935
v 0.15317460894584656 0.07000530511140823 0.09522499144077301
v 0.1523641049861908 0.08920145779848099 0.0968753919005394
v 0.14876990020275116 0.08845926821231842 0.09348256140947342
v 0.15553483366966248 0.07603929191827774 0.08470645546913147
v 0.14858794212341309 0.09182161837816238 0.08966238796710968
v 0.1477106362581253 0.09009017795324326 0.08579996228218079
v 0.15038083493709564 0.09366708248853683 0.08231508731842041
v 0.15510496497154236 0.09107545763254166 0.07863441109657288
v 0.16117551922798157 0.09260623902082443 0.07975156605243683
v 0.15661124885082245 0.08508271723985672 0.09859202802181244
v 0.1621466726064682 0.08782956004142761 0.09702447056770325
v 0.16587401926517487 0.08602644503116608 0.09301028400659561
v 0.16754812002182007 0.08959661424160004 0.08799200505018234
v 0.1646721363067627 0.08974525332450867 0.08199702948331833
v 0.19105447828769684 0.06741143018007278 0.09207797050476074
v 0.2026633471250534 0.08380553871393204 0.10198508948087692
v 0.19042909145355225 0.06175926700234413 0.1093570813536644
v 0.21285346150398254 0.08110660314559937 0.10187362134456635
v 0.20797890424728394 0.060547322034835815 0.09082759916782379
v 0.21211235225200653 0.07651866227388382 0.1113673597574234
v 0.20770853757858276 0.054568007588386536 0.10861464589834213
v 0.20332175493240356 0.08175379782915115 0.11196975409984589
v 0.21211235225200653 0.07651866227388382 0.1113673597574234
v 0.21285346150398254 0.08110660314559937 0.10187362134456635
v 0.20332175493240356 0.08175379782915115 0.11196975409984589
v 0.19042909145355225 0.06175926700234413 0.1093570813536644
v 0.19587157666683197 0.085626021027565 0.10079628974199295
v 0.19617491960525513 0.07507684081792831 0.087896928191185
v 0.20283515751361847 0.08677338063716888 0.09649442136287689
v 0.1843671351671219 0.07515677809715271 0.10250988602638245
v 0.2065759301185608 0.08314487338066101 0.09243492037057877
v 0.21112069487571716 0.06882117688655853 0.08735918998718262
v 0.21568267047405243 0.08167403936386108 0.0952206626534462
v 0.22006507217884064 0.07503556460142136 0.09906569868326187
v 0.22088657319545746 0.05899564549326897 0.10375043749809265
v 0.2223336100578308 0.07442312687635422 0.10801568627357483
v 0.21638566255569458 0.07128597795963287 0.11493462324142456
v 0.21015223860740662 0.05804033949971199 0.1200340986251831
v 0.21397440135478973 0.0736299380660057 0.12084028124809265
v 0.20761819183826447 0.07294595241546631 0.12185528129339218
v 0.1919393241405487 0.06580474972724915 0.12027773261070251
v 0.1998952478170395 0.07957787066698074 0.12118664383888245
v 0.19403785467147827 0.08103667944669724 0.11451723426580429
v 0.1843671351671219 0.07515677809715271 0.10250988602638245
v 0.19405081868171692 0.08680606633424759 0.10744371265172958
v 0.19587157666683197 0.085626021027565 0.10079628974199295
v 0.17985905706882477 0.09135597944259644 0.11039689183235168
v 0.18009978532791138 0.08448205888271332 0.11876080185174942
v 0.16853614151477814 0.08406417816877365 0.10761260986328125
v 0.17868934571743011 0.07691439241170883 0.12278717011213303
v 0.18172599375247955 0.0888555571436882 0.0940677598118782
v 0.17326484620571136 0.08159122616052628 0.09609366208314896
v 0.1650950163602829 0.0567619688808918 0.11995133757591248
v 0.18893273174762726 0.0649372786283493 0.13777844607830048
v 0.18604804575443268 0.07919057458639145 0.12692303955554962
v 0.19629471004009247 0.07720992714166641 0.13523255288600922
v 0.20821824669837952 0.06404422223567963 0.1341017335653305
v 0.2069169133901596 0.05528344213962555 0.13494426012039185
v 0.22393184900283813 0.05222276225686073 0.13087353110313416
v 0.21644899249076843 0.06685029715299606 0.13254417479038239
v 0.22374428808689117 0.06618751585483551 0.12865886092185974
v 0.22697046399116516 0.0624626949429512 0.11655872315168381
v 0.22856394946575165 0.05213028937578201 0.11511795967817307
v 0.23579081892967224 0.05766964331269264 0.10006939619779587
v 0.2307177037000656 0.06732572615146637 0.11141832172870636
v 0.2325107753276825 0.0707525908946991 0.1043158695101738
v 0.2295694798231125 0.07091517746448517 0.09292562305927277
v 0.2284511774778366 0.06708511710166931 0.08578170835971832
v 0.1801898032426834 0.04580506309866905 0.13297080993652344
v 0.1692221611738205 0.0386379174888134 0.10712207853794098
v 0.17812703549861908 0.031965676695108414 0.11569669097661972
v 0.18436217308044434 0.027467824518680573 0.08848629891872406
v 0.16379018127918243 0.045003894716501236 0.09477313607931137
v 0.16732607781887054 0.04710129648447037 0.08435823023319244
v 0.19270415604114532 0.026420459151268005 0.11505655944347382
v 0.20146560668945312 0.02375755086541176 0.11030340194702148
v 0.20895446836948395 0.02409479394555092 0.1011095866560936
v 0.2117597907781601 0.026535997167229652 0.08925280719995499
v 0.20539410412311554 0.032980240881443024 0.07724650949239731
v 0.1974080353975296 0.04000650346279144 0.06799156218767166
v 0.18582548201084137 0.04373128339648247 0.07108277082443237
v 0.1755710244178772 0.04757193475961685 0.0733724907040596
v 0.16732607781887054 0.04710129648447037 0.08435823023319244
v 0.19987745583057404 0.037623073905706406 0.1316175013780594
v 0.2150573432445526 0.033842284232378006 0.12403766065835953
v 0.2229660600423813 0.033918023109436035 0.11036769300699234
v 0.2287786602973938 0.038847606629133224 0.09361264854669571
v 0.2228642851114273 0.04578659310936928 0.07519417256116867
v 0.21520759165287018 0.07660845667123795 0.07068698108196259
v 0.22503547370433807 0.07652675360441208 0.0864279568195343
v 0.21705825626850128 0.08511798083782196 0.08182784169912338
v 0.2036469280719757 0.08532731235027313 0.0795312225818634
v 0.1994001716375351 0.08075841516256332 0.07247266918420792
v 0.1865013837814331 0.08690106123685837 0.07674679905176163
v 0.19969739019870758 0.09085100889205933 0.08170901238918304
v 0.19358091056346893 0.09360163658857346 0.08659142255783081
v 0.18172599375247955 0.0888555571436882 0.0940677598118782
v 0.17326484620571136 0.08159122616052628 0.09609366208314896
v 0.20782481133937836 0.058204762637615204 0.062043193727731705
v 0.19298936426639557 0.062325600534677505 0.06633409112691879
v 0.17775925993919373 0.06891142576932907 0.06860397011041641
v 0.16460031270980835 0.06674088537693024 0.09251250326633453
v 0.19629471004009247 0.07720992714166641 0.13523255288600922
v 0.18604804575443268 0.07919057458639145 0.12692303955554962
v 0.20821824669837952 0.06404422223567963 0.1341017335653305
v 0.17868934571743011 0.07691439241170883 0.12278717011213303
v 0.18697233498096466 0.03305894136428833 0.09088371694087982
v 0.18172599375247955 0.0888555571436882 0.0940677598118782
v 0.18009978532791138 0.08448205888271332 0.11876080185174942
v 0.17985905706882477 0.09135597944259644 0.11039689183235168
v 0.2036469280719757 0.08532731235027313 0.0795312225818634
v 0.19969739019870758 0.09085100889205933 0.08170901238918304
v 0.19358091056346893 0.09360163658857346 0.08659142255783081
v 0.2284511774778366 0.06708511710166931 0.08578170835971832
v 0.22503547370433807 0.07652675360441208 0.0864279568195343
v 0.21705825626850128 0.08511798083782196 0.08182784169912338
v 0.22697046399116516 0.0624626949429512 0.11655872315168381
v 0.2295694798231125 0.07091517746448517 0.09292562305927277
v 0.2307177037000656 0.06732572615146637 0.11141832172870636
v 0.2325107753276825 0.0707525908946991 0.1043158695101738
v 0.21644899249076843 0.06685029715299606 0.13254417479038239
v 0.22374428808689117 0.06618751585483551 0.12865886092185974
v 0.20650260150432587 0.08795452862977982 0.08891453593969345
v 0.19391196966171265 0.08705741912126541 0.09099535644054413
v 0.20025473833084106 0.07752697914838791 0.07793457806110382
v 0.18135452270507812 0.08110688626766205 0.09109250456094742
v 0.2165677547454834 0.07798357307910919 0.08848877996206284
v 0.21430733799934387 0.06983264535665512 0.0830763578414917
v 0.22478051483631134 0.062083933502435684 0.08616518974304199
v 0.22574622929096222 0.07637087255716324 0.09851935505867004
v 0.22536081075668335 0.07204198092222214 0.1041368916630745
v 0.22483590245246887 0.06760887056589127 0.1069156602025032
v 0.22596247494220734 0.0538913868367672 0.11457889527082443
v 0.22582094371318817 0.07014863193035126 0.11658128350973129
v 0.21762368083000183 0.0652739554643631 0.1237519308924675
v 0.20223620533943176 0.05855501443147659 0.130802184343338
v 0.20761063694953918 0.0736382007598877 0.1292954534292221
v 0.19426001608371735 0.07460620999336243 0.12631390988826752
v 0.17761743068695068 0.073560431599617 0.11797115951776505
v 0.18858496844768524 0.0852411761879921 0.11936010420322418
v 0.18496902287006378 0.08576345443725586 0.10936519503593445
v 0.18135452270507812 0.08110688626766205 0.09109250456094742
v 0.1910845786333084 0.09091244637966156 0.09966901689767838
v 0.19391196966171265 0.08705741912126541 0.09099535644054413
v 0.18496902287006378 0.08576345443725586 0.10936519503593445
v 0.19391196966171265 0.08705741912126541 0.09099535644054413
v 0.19069822132587433 0.04189462214708328 0.09362273663282394
v 0.1910845786333084 0.09091244637966156 0.09966901689767838
v 0.19426001608371735 0.07460620999336243 0.12631390988826752
v 0.21762368083000183 0.0652739554643631 0.1237519308924675
v 0.22483590245246887 0.06760887056589127 0.1069156602025032
v 0.22582094371318817 0.07014863193035126 0.11658128350973129
v 0.18858496844768524 0.0852411761879921 0.11936010420322418
v 0.20761063694953918 0.0736382007598877 0.1292954534292221
v 0.2165677547454834 0.07798357307910919 0.08848877996206284
v 0.20650260150432587 0.08795452862977982 0.08891453593969345
v 0.22536081075668335 0.07204198092222214 0.1041368916630745
v 0.22574622929096222 0.07637087255716324 0.09851935505867004
v 0.19403785467147827 0.08103667944669724 0.11451723426580429
v 0.19587157666683197 0.085626021027565 0.10079628974199295
v 0.19448146224021912 0.05058537796139717 0.09622786194086075
v 0.19405081868171692 0.08680606633424759 0.10744371265172958
v 0.2065759301185608 0.08314487338066101 0.09243492037057877
v 0.20283515751361847 0.08677338063716888 0.09649442136287689
v 0.22006507217884064 0.07503556460142136 0.09906569868326187
v 0.21638566255569458 0.07128597795963287 0.11493462324142456
v 0.2223336100578308 0.07442312687635422 0.10801568627357483
v 0.21568267047405243 0.08167403936386108 0.0952206626534462
v 0.20761819183826447 0.07294595241546631 0.12185528129339218
v 0.21397440135478973 0.0736299380660057 0.12084028124809265
v 0.1998952478170395 0.07957787066698074 0.12118664383888245
v 0.15876443684101105 0.06587743014097214 0.1013394445180893
v 0.16460031270980835 0.06674088537693024 0.09251250326633453
v 0.203655406832695 0.007702050730586052 0.10422774404287338
v 0.1857924610376358 0.0316193662583828 0.06672443449497223
v 0.20091478526592255 0.007643257267773151 0.09049823880195618
v 0.20815645158290863 0.01705465093255043 0.08764127641916275
v 0.21758654713630676 -0.009392001666128635 0.11480212956666946
v 0.2295025736093521 0.006678738631308079 0.10816308110952377
v 0.24699746072292328 0.004486998077481985 0.12504138052463531
v 0.22969022393226624 -0.019930344074964523 0.13364215195178986
v 0.23963956534862518 -0.0177614763379097 0.14087696373462677
v 0.24815577268600464 -0.008783075958490372 0.14060068130493164
v 0.2512935996055603 -0.0008669596863910556 0.13443030416965485
v 0.20655867457389832 0.025048155337572098 0.15068449079990387
v 0.198282390832901 0.017570115625858307 0.1313270479440689
v 0.17866097390651703 0.011499638669192791 0.11476784199476242
v 0.18735457956790924 0.01802620105445385 0.1040067970752716
v 0.17426848411560059 0.026403464376926422 0.07883009314537048
v 0.18133775889873505 0.010182692669332027 0.10490870475769043
v 0.18558627367019653 0.0022440196480602026 0.1362503468990326
v 0.18721270561218262 0.0008221695898100734 0.1562618762254715
v 0.1892698109149933 0.0070486124604940414 0.16721153259277344
v 0.1948799043893814 0.018613623455166817 0.1699891835451126
v 0.2042553722858429 0.026454705744981766 0.1631714403629303
vn -0.408216267824173 0.912842869758606 -0.008799734525382519
vn 0.2570628523826599 0.8740025162696838 -0.4123569428920746
vn 0.3651297390460968 0.9001011848449707 -0.23769347369670868
vn -0.42885008454322815 0.9031360745429993 0.02080312743782997
vn 0.13581021130084991 0.8357992768287659 -0.5319729447364807
vn -0.4029781222343445 0.9132364392280579 0.06006618216633797
vn -0.3841012120246887 0.9211996793746948 0.06210794672369957
vn -0.0902065858244896 0.8079766035079956 -0.5822683572769165
vn -0.3714149296283722 0.9262645244598389 0.06391341239213943
vn -0.1804097294807434 0.8038197159767151 -0.5668564438819885
vn 0.16689589619636536 0.14411526918411255 -0.9753853678703308
vn 0.29245883226394653 0.19181109964847565 -0.9368438124656677
vn 0.2732805609703064 -0.14664874970912933 -0.9506902098655701
vn 0.46352171897888184 -0.5624974370002747 -0.6846489310264587
vn 0.34554266929626465 -0.9360265135765076 -0.06674271076917648
vn 0.3583277761936188 -0.9298843741416931 -0.083164282143116
vn 0.6591043472290039 -0.4153321385383606 -0.6269615292549133
vn 0.393344908952713 -0.9169561266899109 -0.06686758995056152
vn 0.8126309514045715 -0.35732847452163696 -0.46037742495536804
vn 0.9072232246398926 -0.34512296319007874 -0.2404913306236267
vn 0.3931560814380646 -0.9190226197242737 -0.028735576197504997
vn 0.41170206665992737 -0.9113184809684753 0.0
vn 0.9450499415397644 -0.32692599296569824 0.0
vn 0.4192120134830475 0.9078883528709412 0.0
vn -0.399463951587677 0.9167488813400269 0.0
vn -0.408216267824173 0.912842869758606 0.008799734525382519
vn 0.3651297390460968 0.9001011848449707 0.23769347369670868
vn 0.2570628523826599 0.8740025162696838 0.4123569428920746
vn -0.42885008454322815 0.9031360745429993 -0.02080312743782997
vn 0.13581021130084991 0.8357992768287659 0.5319729447364807
vn -0.4029781222343445 0.9132364392280579 -0.06006618216633797
vn -0.3841012120246887 0.9211996793746948 -0.06210794672369957
vn -0.0902065858244896 0.8079766035079956 0.5822683572769165
vn -0.3714149296283722 0.9262645244598389 -0.06391341239213943
vn -0.1804097294807434 0.8038197159767151 0.5668564438819885
vn 0.16689589619636536 0.14411526918411255 0.9753853678703308
vn 0.29245883226394653 0.19181109964847565 0.9368438124656677
vn 0.2732805609703064 -0.14664874970912933 0.9506902098655701
vn 0.46352171897888184 -0.5624974370002747 0.6846489310264587
vn 0.34554266929626465 -0.9360265135765076 0.06674271076917648
vn 0.3583277761936188 -0.9298843741416931 0.083164282143116
vn 0.6591043472290039 -0.4153321385383606 0.6269615292549133
vn 0.393344908952713 -0.9169561266899109 0.06686758995056152
vn 0.8126309514045715 -0.35732847452163696 0.46037742495536804
vn 0.9072232246398926 -0.34512296319007874 0.2404913306236267
vn 0.3931560814380646 -0.9190226197242737 0.028735576197504997
vn 0.41170206665992737 -0.9113184809684753 0.0
vn 0.9450499415397644 -0.32692599296569824 0.0
vn 0.4192120134830475 0.9078883528709412 0.0
vn -0.399463951587677 0.9167488813400269 0.0
vn -0.25510936975479126 0.9005601406097412 -0.35200929641723633
vn 0.8626886010169983 -0.46670153737068176 -0.19482804834842682
vn -0.04578537866473198 0.9288129210472107 -0.3677096962928772
vn 0.9899609088897705 -0.13228696584701538 -0.049775879830121994
vn -0.24946407973766327 0.9549699425697327 -0.16062377393245697
vn 0.7860692739486694 -0.04699641093611717 -0.6163493990898132
vn -0.7109923362731934 0.08552934229373932 -0.6979789733886719
vn 0.23388414084911346 0.43663516640663147 -0.8687047958374023
vn 0.8601965308189392 0.10906902700662613 0.4981626272201538
vn -0.1847314089536667 0.9625846147537231 0.19825583696365356
vn -0.6149526834487915 0.5568305850028992 0.5583661794662476
vn 0.4666248857975006 -0.20469263195991516 0.8604430556297302
vn -0.04578537866473198 0.9288129210472107 -0.3677096962928772
vn -0.9768699407577515 -0.2131156325340271 -0.0175136998295784
vn -0.25510936975479126 0.9005601406097412 -0.35200929641723633
vn -0.9467021822929382 -0.3220086097717285 0.008080455474555492
vn -0.24946407973766327 0.9549699425697327 -0.16062377393245697
vn -0.7109923362731934 0.08552934229373932 -0.6979789733886719
vn -0.9632667899131775 -0.25652647018432617 0.07944249361753464
vn -0.6149526834487915 0.5568305850028992 0.5583661794662476
vn -0.9004625082015991 0.017219966277480125 0.4345925748348236
vn -0.1847314089536667 0.9625846147537231 0.19825583696365356
vn 0.30588042736053467 -0.6839710474014282 0.6622844934463501
vn -0.9632667899131775 -0.25652647018432617 0.07944249361753464
vn -0.9004625082015991 0.017219966277480125 0.4345925748348236
vn 0.4106651544570923 -0.8979844450950623 0.15804436802864075
vn -0.9768699407577515 -0.2131156325340271 -0.0175136998295784
vn 0.708904504776001 -0.6902130842208862 -0.14512142539024353
vn -0.9467021822929382 -0.3220086097717285 0.008080455474555492
vn 0.7907179594039917 -0.5812402367591858 -0.19215832650661469
vn -0.7109923362731934 0.08552934229373932 -0.6979789733886719
vn 0.23388414084911346 0.43663516640663147 -0.8687047958374023
vn -0.6149526834487915 0.5568305850028992 0.5583661794662476
vn 0.4666248857975006 -0.20469263195991516 0.8604430556297302
vn -0.2510548233985901 0.9600348472595215 0.12371174991130829
vn 0.6095802783966064 -0.24197505414485931 -0.7548906803131104
vn 0.02088082581758499 0.9805311560630798 0.19525033235549927
vn 0.796588659286499 0.028727730736136436 -0.6038387417793274
vn -0.16636478900909424 0.941240131855011 0.29392123222351074
vn 0.5351205468177795 0.13551154732704163 -0.8338360786437988
vn -0.8816437125205994 0.30677178502082825 -0.35860201716423035
vn 0.045277681201696396 0.5535661578178406 -0.831573486328125
vn 0.9819296002388 -0.1035543754696846 -0.1584005057811737
vn 0.20902656018733978 0.7310513854026794 0.6495165824890137
vn 0.8558156490325928 -0.4873772859573364 0.17332902550697327
vn 0.051099758595228195 0.2986091077327728 0.9530065059661865
vn 0.02088082581758499 0.9805311560630798 0.19525033235549927
vn -0.9095712304115295 -0.1999458223581314 0.3642825782299042
vn -0.2510548233985901 0.9600348472595215 0.12371174991130829
vn -0.7417382597923279 -0.2361830472946167 0.6277275085449219
vn -0.9212498068809509 -0.2348441332578659 0.3100758194923401
vn -0.16636478900909424 0.941240131855011 0.29392123222351074
vn -0.8816437125205994 0.30677178502082825 -0.35860201716423035
vn 0.051099758595228195 0.2986091077327728 0.9530065059661865
vn -0.3339396119117737 -0.13092707097530365 0.9334572553634644
vn 0.20902656018733978 0.7310513854026794 0.6495165824890137
vn -0.9095712304115295 -0.1999458223581314 0.3642825782299042
vn -0.7417382597923279 -0.2361830472946167 0.6277275085449219
vn 0.10830682516098022 -0.9581626653671265 -0.2649412751197815
vn 0.48443710803985596 -0.5918236970901489 -0.6442557573318481
vn -0.9212498068809509 -0.2348441332578659 0.3100758194923401
vn 0.5252379179000854 -0.5958849787712097 -0.607491672039032
vn -0.8816437125205994 0.30677178502082825 -0.35860201716423035
vn 0.045277681201696396 0.5535661578178406 -0.831573486328125
vn -0.3339396119117737 -0.13092707097530365 0.9334572553634644
vn 0.4628317952156067 -0.8743444085121155 0.14597417414188385
vn 0.051099758595228195 0.2986091077327728 0.9530065059661865
vn 0.8558156490325928 -0.4873772859573364 0.17332902550697327
vn -0.27046704292297363 0.6131005883216858 0.7422635555267334
vn -0.8805104494094849 0.4712897539138794 -0.0508657805621624
vn 0.028606686741113663 0.771301805973053 0.6358263492584229
vn -0.7986191511154175 -0.2641163170337677 0.5407863259315491
vn 0.10927403718233109 0.6972588300704956 0.7084414958953857
vn -0.29770565032958984 0.3223732113838196 0.8985804319381714
vn 0.2022218555212021 -0.6188206672668457 0.759056806564331
vn 0.019418656826019287 0.39310207962989807 0.9192897081375122
vn -0.09639978408813477 0.871835470199585 0.4802187383174896
vn -0.24992212653160095 0.7975378632545471 -0.5490647554397583
vn -0.001614355482161045 0.8087615370750427 0.5881344676017761
vn 0.2782077491283417 0.35926032066345215 0.8908044099807739
vn 0.9536486268043518 -0.10140657424926758 0.2833215296268463
vn 0.25680917501449585 0.5741690397262573 0.7774180173873901
vn 0.30002561211586 0.7742041945457458 0.5573080778121948
vn 0.23888914287090302 0.9500800967216492 0.20069806277751923
vn 0.7579847574234009 0.5593632459640503 -0.33551737666130066
vn -0.027870262041687965 0.7467002868652344 0.664576530456543
vn 0.30002561211586 0.7742041945457458 0.5573080778121948
vn 0.9536486268043518 -0.10140657424926758 0.2833215296268463
vn -0.06234893575310707 0.6666972041130066 0.7427162528038025
vn 0.9499459862709045 0.24638143181800842 -0.19209054112434387
vn 0.07244212925434113 -0.16603417694568634 0.9834555387496948
vn 0.19969256222248077 0.6304153800010681 0.7501329183578491
vn 0.8877708315849304 -0.0020227860659360886 0.4602811634540558
vn 0.6901158690452576 0.5514169335365295 -0.4686998426914215
vn 0.34134167432785034 0.302570104598999 0.8899085521697998
vn -0.032185569405555725 0.8089483976364136 0.5869978666305542
vn 0.23846782743930817 0.7225019931793213 -0.6489406824111938
vn -0.8583726286888123 0.35460737347602844 0.3707425594329834
vn -0.2434411495923996 0.9524455666542053 -0.1832588165998459
vn 0.18771494925022125 0.1409830003976822 -0.9720529317855835
vn -0.5832306146621704 0.015479950234293938 -0.8121591210365295
vn 0.009179704822599888 -0.6953111290931702 -0.7186501622200012
vn -0.8164056539535522 -0.47083765268325806 -0.3343556225299835
vn -0.7570640444755554 0.44697412848472595 -0.47651660442352295
vn -0.9883605241775513 -0.14959263801574707 0.027667442336678505
vn -0.4932209551334381 0.7093802094459534 0.5035006403923035
vn -0.10397408902645111 0.6963571906089783 0.7101238965988159
vn 0.7103477120399475 0.6890949010848999 0.14336730539798737
vn 0.04067465662956238 0.7070381045341492 0.7060048580169678
vn -0.33672648668289185 0.38690102100372314 0.8584421277046204
vn -0.37123972177505493 -0.925697922706604 0.07255557924509048
vn 0.7473769783973694 -0.2863795757293701 -0.5995117425918579
vn -0.5289751887321472 -0.6528517007827759 0.5421900749206543
vn 0.07815597206354141 0.7541232705116272 0.6520656943321228
vn 0.6927313804626465 0.29657208919525146 0.6573950052261353
vn 0.2128692865371704 -0.2927168011665344 0.9322035312652588
vn 0.5099005699157715 -0.8591720461845398 -0.042715925723314285
vn 0.6701762080192566 -0.5525142550468445 0.4955722987651825
vn -0.6361868381500244 0.26403290033340454 0.72495037317276
vn -0.09483280777931213 0.7872627973556519 0.6092815399169922
vn 0.4639061689376831 0.8810625672340393 0.0923023521900177
vn 0.8877708315849304 -0.0020227860659360886 0.4602811634540558
vn 0.7265411019325256 -0.5884162187576294 -0.35483014583587646
vn 0.7265411019325256 -0.5884162187576294 -0.35483014583587646
vn -0.4932209551334381 0.7093802094459534 0.5035006403923035
vn -0.2434411495923996 0.9524455666542053 -0.1832588165998459
vn 0.06579822301864624 0.6327064633369446 0.7715912461280823
vn 0.7103477120399475 0.6890949010848999 0.14336730539798737
vn -0.10397408902645111 0.6963571906089783 0.7101238965988159
vn 0.19969256222248077 0.6304153800010681 0.7501329183578491
vn 0.8877708315849304 -0.0020227860659360886 0.4602811634540558
vn -0.8583726286888123 0.35460737347602844 0.3707425594329834
vn 0.34134167432785034 0.302570104598999 0.8899085521697998
vn -0.032185569405555725 0.8089483976364136 0.5869978666305542
vn 0.07244212925434113 -0.16603417694568634 0.9834555387496948
vn -0.06234893575310707 0.6666972041130066 0.7427162528038025
vn -0.33672648668289185 0.38690102100372314 0.8584421277046204
vn 0.04067465662956238 0.7070381045341492 0.7060048580169678
vn 0.2128692865371704 -0.2927168011665344 0.9322035312652588
vn -0.6361868381500244 0.26403290033340454 0.72495037317276
vn 0.4639061689376831 0.8810625672340393 0.0923023521900177
vn -0.09483280777931213 0.7872627973556519 0.6092815399169922
vn 0.6927313804626465 0.29657208919525146 0.6573950052261353
vn 0.07815597206354141 0.7541232705116272 0.6520656943321228
vn -0.03594425693154335 -0.5341395139694214 0.8446318507194519
vn -0.016235578805208206 0.0410948321223259 0.9990233182907104
vn 0.963576078414917 0.1617930680513382 0.21294178068637848
vn 0.7681950926780701 0.41819116473197937 0.4847603142261505
vn 0.020442629233002663 0.8714617490768433 -0.49003735184669495
vn 0.021336566656827927 0.9967100620269775 0.07819083333015442
vn -0.9687774181365967 0.1874532252550125 0.16226984560489655
vn -0.7676856517791748 0.44853273034095764 0.45768675208091736
vn -0.03594425693154335 -0.5341395139694214 0.8446318507194519
vn -0.016235578805208206 0.0410948321223259 0.9990233182907104
vn 0.7681950926780701 0.41819116473197937 0.4847603142261505
vn 0.021336566656827927 0.9967100620269775 0.07819083333015442
vn 0.10927403718233109 0.6972588300704956 0.7084414958953857
vn -0.27046704292297363 0.6131005883216858 0.7422635555267334
vn -0.29770565032958984 0.3223732113838196 0.8985804319381714
vn -0.012771353125572205 0.6897621750831604 0.7239233255386353
vn -0.09639978408813477 0.871835470199585 0.4802187383174896
vn 0.028606686741113663 0.771301805973053 0.6358263492584229
vn 0.2782077491283417 0.35926032066345215 0.8908044099807739
vn 0.30002561211586 0.7742041945457458 0.5573080778121948
vn 0.25680917501449585 0.5741690397262573 0.7774180173873901
vn 0.019418656826019287 0.39310207962989807 0.9192897081375122
vn 0.23888914287090302 0.9500800967216492 0.20069806277751923
vn -0.001614355482161045 0.8087615370750427 0.5881344676017761
vn -0.027870262041687965 0.7467002868652344 0.664576530456543
vn -0.8687506914138794 0.40594130754470825 -0.28369665145874023
vn -0.9039291739463806 -0.40782931447029114 -0.12879183888435364
vn -0.5489859580993652 -0.30481675267219543 -0.7782680988311768
vn -0.12025303393602371 -0.9573408365249634 -0.2627504765987396
vn 0.25040483474731445 -0.41710203886032104 -0.873683750629425
vn 0.7075075507164001 -0.645302951335907 -0.28812700510025024
vn 0.33302751183509827 -0.8120622634887695 0.47921550273895264
vn -0.5566776990890503 -0.6522796750068665 0.514432966709137
vn -0.9039291739463806 -0.40782931447029114 -0.12879183888435364
vn -0.033561449497938156 -0.04128402844071388 0.9985836744308472
vn 0.5540581345558167 -0.1056821271777153 0.8257427215576172
vn 0.9195820689201355 -0.10543718189001083 0.3784862458705902
vn 0.9915014505386353 0.05746074765920639 -0.11671840399503708
vn -0.5747965574264526 0.08311259746551514 0.814064621925354
vn -0.930438756942749 0.34727299213409424 0.11698313057422638
vn -0.5752227902412415 0.4780714213848114 -0.6637517809867859
vn -0.8466308116912842 0.19856618344783783 0.49374857544898987
vn -0.12971746921539307 0.9167565107345581 0.377797394990921
vn 0.1456676423549652 0.939223051071167 0.3108713626861572
vn -0.930438756942749 0.34727299213409424 0.11698313057422638
vn 0.15688282251358032 0.9732720851898193 0.16771772503852844
vn 0.7946843504905701 0.20904260873794556 -0.5698928236961365
vn 0.4217917323112488 0.35044750571250916 -0.836228609085083
vn -0.09481897205114365 0.4301588535308838 -0.8977598547935486
vn 0.24204948544502258 0.9286431074142456 0.28113001585006714
vn 0.16658766567707062 0.9698072671890259 0.17810791730880737
vn 0.060365401208400726 0.9974217414855957 0.03880729898810387
vn 0.06505874544382095 0.9715678095817566 0.22764727473258972
vn -0.1225116103887558 0.9858949184417725 0.1140270009636879
vn -0.1225116103887558 0.9858949184417725 0.1140270009636879
vn 0.2533037066459656 0.9557269811630249 0.1497437208890915
vn 0.3236997425556183 0.8759093284606934 0.3577728867530823
vn 0.10843461751937866 0.9442177414894104 0.3109576404094696
vn 0.09067419171333313 0.7923223376274109 0.6033270955085754
vn -0.8798897862434387 0.4728943705558777 -0.046527452766895294
vn -0.6239885687828064 0.7765452861785889 0.08726799488067627
vn -0.139154314994812 0.08070020377635956 0.9869769215583801
vn -0.02206685207784176 0.5560404062271118 0.830862283706665
vn 0.7971676588058472 0.5237573385238647 0.30033645033836365
vn 0.22314010560512543 0.8725645542144775 -0.4345568120479584
vn 0.22314010560512543 0.8725645542144775 -0.4345568120479584
vn 0.21452273428440094 0.5401423573493958 -0.8137728571891785
vn 0.7971676588058472 0.5237573385238647 0.30033645033836365
vn 0.9563997387886047 0.17179863154888153 0.2361878901720047
vn -0.02206685207784176 0.5560404062271118 0.830862283706665
vn -0.139154314994812 0.08070020377635956 0.9869769215583801
vn 0.1456676423549652 0.939223051071167 0.3108713626861572
vn -0.12971746921539307 0.9167565107345581 0.377797394990921
vn 0.1307622492313385 0.9529399871826172 0.2735077440738678
vn 0.15688282251358032 0.9732720851898193 0.16771772503852844
vn -0.1225116103887558 0.9858949184417725 0.1140270009636879
vn 0.06505874544382095 0.9715678095817566 0.22764727473258972
vn 0.060365401208400726 0.9974217414855957 0.03880729898810387
vn 0.16658766567707062 0.9698072671890259 0.17810791730880737
vn 0.09067419171333313 0.7923223376274109 0.6033270955085754
vn 0.10843461751937866 0.9442177414894104 0.3109576404094696
vn 0.3236997425556183 0.8759093284606934 0.3577728867530823
vn 0.24204948544502258 0.9286431074142456 0.28113001585006714
vn 0.2533037066459656 0.9557269811630249 0.1497437208890915
vn -0.5133755803108215 0.6786150932312012 -0.5252876877784729
vn -0.24528731405735016 0.928869366645813 -0.2775533199310303
vn -0.5777449011802673 0.26598039269447327 0.7716639041900635
vn 0.7398973703384399 0.6185188293457031 -0.2645494341850281
vn 0.7523083686828613 0.17100006341934204 -0.6362318396568298
vn 0.7138645648956299 0.19535700976848602 0.6724827289581299
vn 0.699563205242157 -0.22602766752243042 0.6778810620307922
vn -0.16636109352111816 0.6916061639785767 0.7028548717498779
vn 0.7138645648956299 0.19535700976848602 0.6724827289581299
vn 0.7398973703384399 0.6185188293457031 -0.2645494341850281
vn -0.16636109352111816 0.6916061639785767 0.7028548717498779
vn -0.5777449011802673 0.26598039269447327 0.7716639041900635
vn 0.23294013738632202 0.9704519510269165 -0.06294363737106323
vn -0.2746824324131012 0.5790407061576843 -0.7676336169242859
vn 0.43351224064826965 0.8567283749580383 0.2794342637062073
vn -0.8197123408317566 0.5727291703224182 0.007277342956513166
vn 0.34668681025505066 0.9275307059288025 -0.13962464034557343
vn 0.5384988784790039 0.2005368322134018 -0.8184154629707336
vn 0.4943971633911133 0.8630004525184631 0.10393045842647552
vn 0.681739866733551 0.7238376140594482 -0.10625314712524414
vn 0.9830325245857239 -0.1665918529033661 0.07677385956048965
vn 0.6784392595291138 0.6663124561309814 0.3094315826892853
vn 0.5517667531967163 0.7578467726707458 0.3481690585613251
vn 0.4922178387641907 -0.18078438937664032 0.8514919877052307
vn 0.5008660554885864 0.7228814363479614 0.47599974274635315
vn 0.22688588500022888 0.7125940918922424 0.6638768315315247
vn -0.4565028250217438 0.13275140523910522 0.8797625303268433
vn 0.15429994463920593 0.8132098317146301 0.5611428022384644
vn -0.03978274390101433 0.89958655834198 0.43492692708969116
vn -0.8197123408317566 0.5727291703224182 0.007277342956513166
vn 0.09004094451665878 0.9572141170501709 0.27501609921455383
vn 0.23294013738632202 0.9704519510269165 -0.06294363737106323
vn 0.3042599558830261 0.9133647680282593 0.27053773403167725
vn 0.4502035677433014 0.48300328850746155 0.7510157227516174
vn -0.762822151184082 0.63323575258255 0.13082358241081238
vn -0.034071724861860275 0.8115626573562622 0.5832710862159729
vn 0.09149885922670364 0.9789232611656189 0.1825847327709198
vn -0.7099520564079285 0.5907739996910095 -0.3833461105823517
vn -0.8445079326629639 -0.05875462293624878 0.5323101878166199
vn -0.26699361205101013 0.13476251065731049 0.9542292952537537
vn -0.0645209476351738 0.9813685417175293 -0.18097704648971558
vn 0.3334549069404602 0.839501678943634 0.42900440096855164
vn 0.30011042952537537 0.7559943199157715 0.5817270278930664
vn 0.163715198636055 -0.0983261689543724 0.9815953969955444
vn 0.6818639039993286 -0.17943193018436432 0.7091302871704102
vn -0.005335593596100807 0.8574992418289185 0.5144575238227844
vn 0.5887817740440369 0.7497656941413879 0.30197250843048096
vn 0.4763891398906708 0.8489460945129395 0.2287876456975937
vn 0.9310635328292847 -0.1563667356967926 0.32965150475502014
vn 0.9987096786499023 -0.05031266063451767 -0.0068968222476542
vn 0.27855339646339417 0.7044442296028137 0.6528142094612122
vn 0.36839452385902405 0.9031157493591309 0.2206067144870758
vn -0.04344100132584572 0.9405227303504944 -0.3369421064853668
vn 0.7471756339073181 0.6513318419456482 -0.13227039575576782
vn -0.46039488911628723 -0.36570537090301514 0.8088857531547546
vn -0.7757569551467896 -0.6078326106071472 0.16953091323375702
vn -0.539037823677063 -0.7623226046562195 0.35819339752197266
vn -0.3731060028076172 -0.8735488057136536 -0.3125770390033722
vn -0.8828080296516418 -0.44803759455680847 -0.14111070334911346
vn -0.8163071870803833 -0.32200300693511963 -0.4795379340648651
vn -0.2041109949350357 -0.9058447480201721 0.37119260430336
vn 0.04113827645778656 -0.9724977612495422 0.2292504757642746
vn 0.27237337827682495 -0.9621833562850952 -0.0039982241578400135
vn 0.3362674117088318 -0.8839459419250488 -0.3249058723449707
vn 0.18297217786312103 -0.7663891911506653 -0.6157668232917786
vn -0.07474399358034134 -0.53029865026474 -0.8445097208023071
vn -0.3466179072856903 -0.42946791648864746 -0.8339144587516785
vn -0.572011411190033 -0.35228586196899414 -0.7407413125038147
vn -0.8163071870803833 -0.32200300693511963 -0.4795379340648651
vn 0.01415299903601408 -0.5727992653846741 0.8195734620094299
vn 0.4238439202308655 -0.7052444219589233 0.5683192014694214
vn 0.7145457863807678 -0.6651418805122375 0.21681943535804749
vn 0.8236269354820251 -0.5414905548095703 -0.16860240697860718
vn 0.6837033033370972 -0.33343830704689026 -0.6491292119026184
vn 0.45585986971855164 0.46232134103775024 -0.7605594396591187
vn 0.6437085866928101 0.3721995949745178 0.6686605215072632
vn 0.34329360723495483 0.9115234613418579 0.22643879055976868
vn 0.40908747911453247 0.8919833898544312 0.1923874020576477
vn 0.043260082602500916 0.5971676707267761 -0.800948977470398
vn -0.3546057343482971 0.705270528793335 -0.6138797402381897
vn 0.6674544215202332 0.7446092963218689 -0.007852880284190178
vn 0.3053358197212219 0.8543979525566101 0.42044535279273987
vn 0.09149885922670364 0.9789232611656189 0.1825847327709198
vn -0.7099520564079285 0.5907739996910095 -0.3833461105823517
vn 0.19992873072624207 -0.008974865078926086 -0.9797693490982056
vn -0.1845497339963913 0.09120423346757889 -0.9785822629928589
vn -0.5299897193908691 0.24800047278404236 -0.8109294772148132
vn -0.8195499181747437 0.3247869312763214 -0.47207143902778625
vn 0.3334549069404602 0.839501678943634 0.42900440096855164
vn -0.0645209476351738 0.9813685417175293 -0.18097704648971558
vn 0.30011042952537537 0.7559943199157715 0.5817270278930664
vn -0.034071724861860275 0.8115626573562622 0.5832710862159729
vn 0.37139713764190674 0.8747805953025818 0.31116414070129395
vn 0.09149885922670364 0.9789232611656189 0.1825847327709198
vn 0.4502035677433014 0.48300328850746155 0.7510157227516174
vn 0.3042599558830261 0.9133647680282593 0.27053773403167725
vn 0.40908747911453247 0.8919833898544312 0.1923874020576477
vn 0.6674544215202332 0.7446092963218689 -0.007852880284190178
vn 0.3053358197212219 0.8543979525566101 0.42044535279273987
vn 0.7471756339073181 0.6513318419456482 -0.13227039575576782
vn 0.6437085866928101 0.3721995949745178 0.6686605215072632
vn 0.34329360723495483 0.9115234613418579 0.22643879055976868
vn 0.4763891398906708 0.8489460945129395 0.2287876456975937
vn -0.04344100132584572 0.9405227303504944 -0.3369421064853668
vn 0.27855339646339417 0.7044442296028137 0.6528142094612122
vn 0.36839452385902405 0.9031157493591309 0.2206067144870758
vn -0.005335593596100807 0.8574992418289185 0.5144575238227844
vn 0.5887817740440369 0.7497656941413879 0.30197250843048096
vn 0.3748384714126587 0.9028602242469788 0.21056970953941345
vn 0.20759756863117218 0.9781981706619263 0.0056218914687633514
vn 0.12069171667098999 0.6420902013778687 -0.7570691704750061
vn -0.585355818271637 0.7382778525352478 -0.33511847257614136
vn 0.4429135024547577 0.895254373550415 -0.04844797030091286
vn 0.5008928775787354 0.37807801365852356 -0.778564989566803
vn 0.8845624923706055 0.24323908984661102 -0.39797475934028625
vn 0.5630394816398621 0.7966127395629883 0.21998775005340576
vn 0.4019613564014435 0.5316774249076843 0.7454838156700134
vn 0.5576863288879395 0.8030957579612732 0.20981727540493011
vn 0.9168552756309509 -0.07103773206472397 0.3928486704826355
vn 0.4745545983314514 0.8381878733634949 0.26877322793006897
vn 0.4970244765281677 0.6082967519760132 0.6188228726387024
vn 0.09563791751861572 -0.027987737208604813 0.9950226545333862
vn 0.36494845151901245 0.8298636674880981 0.42206498980522156
vn 0.12577185034751892 0.7597185373306274 0.6379726529121399
vn -0.693271279335022 0.44096672534942627 0.5700205564498901
vn 0.2620907127857208 0.890055239200592 0.37297454476356506
vn 0.016178356483578682 0.9859720468521118 0.16612491011619568
vn -0.585355818271637 0.7382778525352478 -0.33511847257614136
vn 0.4345810115337372 0.8618216514587402 0.2615392506122589
vn 0.20759756863117218 0.9781981706619263 0.0056218914687633514
vn 0.016178356483578682 0.9859720468521118 0.16612491011619568
vn 0.20759756863117218 0.9781981706619263 0.0056218914687633514
vn 0.36940208077430725 0.8649618625640869 0.3396807909011841
vn 0.4345810115337372 0.8618216514587402 0.2615392506122589
vn 0.12577185034751892 0.7597185373306274 0.6379726529121399
vn 0.4970244765281677 0.6082967519760132 0.6188228726387024
vn 0.5576863288879395 0.8030957579612732 0.20981727540493011
vn 0.4745545983314514 0.8381878733634949 0.26877322793006897
vn 0.2620907127857208 0.890055239200592 0.37297454476356506
vn 0.36494845151901245 0.8298636674880981 0.42206498980522156
vn 0.4429135024547577 0.895254373550415 -0.04844797030091286
vn 0.3748384714126587 0.9028602242469788 0.21056970953941345
vn 0.4019613564014435 0.5316774249076843 0.7454838156700134
vn 0.5630394816398621 0.7966127395629883 0.21998775005340576
vn -0.03978274390101433 0.89958655834198 0.43492692708969116
vn 0.23294013738632202 0.9704519510269165 -0.06294363737106323
vn 0.38501229882240295 0.8623210787773132 0.32888874411582947
vn 0.09004094451665878 0.9572141170501709 0.27501609921455383
vn 0.34668681025505066 0.9275307059288025 -0.13962464034557343
vn 0.43351224064826965 0.8567283749580383 0.2794342637062073
vn 0.681739866733551 0.7238376140594482 -0.10625314712524414
vn 0.5517667531967163 0.7578467726707458 0.3481690585613251
vn 0.6784392595291138 0.6663124561309814 0.3094315826892853
vn 0.4943971633911133 0.8630004525184631 0.10393045842647552
vn 0.22688588500022888 0.7125940918922424 0.6638768315315247
vn 0.5008660554885864 0.7228814363479614 0.47599974274635315
vn 0.15429994463920593 0.8132098317146301 0.5611428022384644
vn -0.9798274040222168 0.1883305460214615 -0.0668574869632721
vn -0.8195499181747437 0.3247869312763214 -0.47207143902778625
vn 0.7676005363464355 -0.2712433338165283 -0.5807034969329834
vn 0.045277681201696396 0.5535661578178406 -0.831573486328125
vn 0.5252379179000854 -0.5958849787712097 -0.607491672039032
vn 0.5351205468177795 0.13551154732704163 -0.8338360786437988
vn 0.48443710803985596 -0.5918236970901489 -0.6442557573318481
vn 0.6095802783966064 -0.24197505414485931 -0.7548906803131104
vn 0.796588659286499 0.028727730736136436 -0.6038387417793274
vn 0.10830682516098022 -0.9581626653671265 -0.2649412751197815
vn 0.4628317952156067 -0.8743444085121155 0.14597417414188385
vn 0.8558156490325928 -0.4873772859573364 0.17332902550697327
vn 0.9819296002388 -0.1035543754696846 -0.1584005057811737
vn 0.9899609088897705 -0.13228696584701538 -0.049775879830121994
vn 0.8626886010169983 -0.46670153737068176 -0.19482804834842682
vn 0.990680992603302 -0.11546677350997925 -0.07224002480506897
vn 0.7860692739486694 -0.04699641093611717 -0.6163493990898132
vn 0.23388414084911346 0.43663516640663147 -0.8687047958374023
vn 0.7907179594039917 -0.5812402367591858 -0.19215832650661469
vn 0.708904504776001 -0.6902130842208862 -0.14512142539024353
vn 0.4106651544570923 -0.8979844450950623 0.15804436802864075
vn 0.30588042736053467 -0.6839710474014282 0.6622844934463501
vn 0.4666248857975006 -0.20469263195991516 0.8604430556297302
vn 0.8601965308189392 0.10906902700662613 0.4981626272201538
vt 0.39620524644851685 0.14970427751541138
vt 0.31833750009536743 0.11940443515777588
vt 0.39620524644851685 0.11940443515777588
vt 0.31833750009536743 0.14970427751541138
vt 0.2479356974363327 0.11940443515777588
vt 0.2479356974363327 0.14970427751541138
vt 0.16792023181915283 0.14970427751541138
vt 0.16792023181915283 0.11940443515777588
vt 0.02354404889047146 0.14970427751541138
vt 0.02354404889047146 0.11940443515777588
vt 0.02354404889047146 0.08410018682479858
vt 0.16792023181915283 0.08410018682479858
vt 0.02354404889047146 0.048920273780822754
vt 0.16792023181915283 0.048920273780822754
vt 0.16792023181915283 0.013781130313873291
vt 0.2479356974363327 0.013781130313873291
vt 0.2479356974363327 0.048920273780822754
vt 0.31833750009536743 0.013781130313873291
vt 0.31833750009536743 0.048920273780822754
vt 0.39620524644851685 0.048920273780822754
vt 0.39620524644851685 0.013781130313873291
vt 0.49001896381378174 0.013781130313873291
vt 0.49001896381378174 0.048920273780822754
vt 0.49001896381378174 0.11940443515777588
vt 0.49001896381378174 0.14970427751541138
vt 0.39620524644851685 0.14970427751541138
vt 0.39620524644851685 0.11940443515777588
vt 0.31833750009536743 0.11940443515777588
vt 0.31833750009536743 0.14970427751541138
vt 0.2479356974363327 0.11940443515777588
vt 0.2479356974363327 0.14970427751541138
vt 0.16792023181915283 0.14970427751541138
vt 0.16792023181915283 0.11940443515777588
vt 0.02354404889047146 0.14970427751541138
vt 0.02354404889047146 0.11940443515777588
vt 0.02354404889047146 0.08410018682479858
vt 0.16792023181915283 0.08410018682479858
vt 0.02354404889047146 0.048920273780822754
vt 0.16792023181915283 0.048920273780822754
vt 0.16792023181915283 0.013781130313873291
vt 0.2479356974363327 0.013781130313873291
vt 0.2479356974363327 0.048920273780822754
vt 0.31833750009536743 0.013781130313873291
vt 0.31833750009536743 0.048920273780822754
vt 0.39620524644851685 0.048920273780822754
vt 0.39620524644851685 0.013781130313873291
vt 0.49001896381378174 0.013781130313873291
vt 0.49001896381378174 0.048920273780822754
vt 0.49001896381378174 0.11940443515777588
vt 0.49001896381378174 0.14970427751541138
vt 0.7908691763877869 0.151858389377594
vt 0.7908691763877869 0.022346198558807373
vt 0.9098843932151794 0.15917718410491943
vt 0.9098843932151794 0.013476252555847168
vt 0.6739944219589233 0.14220178127288818
vt 0.6739944219589233 0.03571254014968872
vt 0.5296186804771423 0.12715423107147217
vt 0.5296186804771423 0.052593886852264404
vt 0.9466619491577148 0.012456238269805908
vt 0.9466619491577148 0.15952080488204956
vt 0.9844444394111633 0.15952080488204956
vt 0.9844444394111633 0.012456238269805908
vt 0.6572783589363098 0.24731165170669556
vt 0.5764456987380981 0.16593468189239502
vt 0.5764456987380981 0.24857300519943237
vt 0.48050054907798767 0.1794198751449585
vt 0.48050054907798767 0.23584109544754028
vt 0.3814751207828522 0.20820164680480957
vt 0.6572783589363098 0.1692788004875183
vt 0.6920769810676575 0.20820164680480957
vt 0.6852868795394897 0.1875717043876648
vt 0.6852868795394897 0.22783303260803223
vt 0.9466619491577148 0.012456238269805908
vt 0.9098843932151794 0.15917718410491943
vt 0.9466619491577148 0.15952080488204956
vt 0.9098843932151794 0.013476252555847168
vt 0.7908691763877869 0.151858389377594
vt 0.7908691763877869 0.022346198558807373
vt 0.6739944219589233 0.14220178127288818
vt 0.6739944219589233 0.03571254014968872
vt 0.5296186804771423 0.12715423107147217
vt 0.5296186804771423 0.052593886852264404
vt 0.9844444394111633 0.15952080488204956
vt 0.9844444394111633 0.012456238269805908
vt 0.7908691763877869 0.151858389377594
vt 0.7908691763877869 0.022346198558807373
vt 0.9098843932151794 0.15917718410491943
vt 0.9098843932151794 0.013476252555847168
vt 0.6739944219589233 0.14220178127288818
vt 0.6739944219589233 0.03571254014968872
vt 0.5296186804771423 0.12715423107147217
vt 0.5296186804771423 0.052593886852264404
vt 0.9466619491577148 0.012456238269805908
vt 0.9466619491577148 0.15952080488204956
vt 0.9844444394111633 0.012456238269805908
vt 0.9844444394111633 0.15952080488204956
vt 0.6572783589363098 0.24731165170669556
vt 0.5764456987380981 0.16593468189239502
vt 0.5764456987380981 0.24857300519943237
vt 0.6572783589363098 0.1692788004875183
vt 0.48050054907798767 0.1794198751449585
vt 0.48050054907798767 0.23584109544754028
vt 0.3814751207828522 0.20820164680480957
vt 0.6920769810676575 0.20820164680480957
vt 0.6852868795394897 0.1875717043876648
vt 0.6852868795394897 0.22783303260803223
vt 0.7908691763877869 0.151858389377594
vt 0.9098843932151794 0.15917718410491943
vt 0.9098843932151794 0.013476252555847168
vt 0.7908691763877869 0.022346198558807373
vt 0.6739944219589233 0.14220178127288818
vt 0.6739944219589233 0.03571254014968872
vt 0.5296186804771423 0.12715423107147217
vt 0.5296186804771423 0.052593886852264404
vt 0.9466619491577148 0.15952080488204956
vt 0.9466619491577148 0.012456238269805908
vt 0.9844444394111633 0.15952080488204956
vt 0.9844444394111633 0.012456238269805908
vt 0.5813080668449402 0.44520139694213867
vt 0.5446526408195496 0.4960044026374817
vt 0.5562214851379395 0.4344336986541748
vt 0.6025170087814331 0.4984644651412964
vt 0.599719226360321 0.43666505813598633
vt 0.6222498416900635 0.4447398781776428
vt 0.6667174696922302 0.48895925283432007
vt 0.6451592445373535 0.4278807044029236
vt 0.5384014248847961 0.4400954246520996
vt 0.4982750117778778 0.4775694012641907
vt 0.5225099921226501 0.42299604415893555
vt 0.6771224141120911 0.423789381980896
vt 0.7303826808929443 0.4660634994506836
vt 0.6902574896812439 0.40765267610549927
vt 0.7160676121711731 0.40196263790130615
vt 0.49282196164131165 0.42765724658966064
vt 0.443672239780426 0.44663286209106445
vt 0.479956716299057 0.3980804681777954
vt 0.45569920539855957 0.3909810781478882
vt 0.3966907858848572 0.41982346773147583
vt 0.019000032916665077 0.34036266803741455
vt 0.07214231044054031 0.36010533571243286
vt 0.028791112825274467 0.37600308656692505
vt 0.04235048219561577 0.3126718997955322
vt 0.07074413448572159 0.40794169902801514
vt 0.08183912187814713 0.31893861293792725
vt 0.04060355946421623 0.2912377119064331
vt 0.046947311609983444 0.26435577869415283
vt 0.0999678447842598 0.2815783619880676
vt 0.08552680164575577 0.23511552810668945
vt 0.12285976111888885 0.23352456092834473
vt 0.14098526537418365 0.31299734115600586
vt 0.18416085839271545 0.2741582989692688
vt 0.2119562327861786 0.35693687200546265
vt 0.23388125002384186 0.27382510900497437
vt 0.1741829365491867 0.22459524869918823
vt 0.24476711452007294 0.22544211149215698
vt 0.22522275149822235 0.18634867668151855
vt 0.18077129125595093 0.17168021202087402
vt 0.13786156475543976 0.1920391321182251
vt 0.27213653922080994 0.181441068649292
vt 0.3075541853904724 0.21278953552246094
vt 0.2792566120624542 0.3058473467826843
vt 0.12848801910877228 0.3730950951576233
vt 0.3127712309360504 0.26542234420776367
vt 0.34435927867889404 0.22339493036270142
vt 0.3641490638256073 0.27109241485595703
vt 0.3508307635784149 0.30870211124420166
vt 0.2986114025115967 0.37452465295791626
vt 0.35397475957870483 0.3649669289588928
vt 0.3894270956516266 0.3223562240600586
vt 0.40878742933273315 0.3533228039741516
vt 0.39575251936912537 0.38938647508621216
vt 0.3548475503921509 0.41148942708969116
vt 0.2884737551212311 0.398324191570282
vt 0.14313261210918427 0.41245096921920776
vt 0.025111768394708633 0.5131720900535583
vt 0.06515219062566757 0.4529535174369812
vt 0.1031767725944519 0.5106497406959534
vt 0.039780933409929276 0.4597988724708557
vt 0.021073244512081146 0.48366498947143555
vt 0.13716472685337067 0.4505523443222046
vt 0.1641053706407547 0.5142431855201721
vt 0.08315670490264893 0.43855589628219604
vt 0.12807156145572662 0.44017577171325684
vt 0.11307752132415771 0.4296586513519287
vt 0.16890671849250793 0.4787566661834717
vt 0.16205522418022156 0.4545038938522339
vt 0.04599381610751152 0.5642098188400269
vt 0.0251945611089468 0.5419244468212128
vt 0.11622826009988785 0.5739552676677704
vt 0.1440802365541458 0.5810762643814087
vt 0.1766444593667984 0.544593334197998
vt 0.16857968270778656 0.5710733234882355
vt 0.09475845843553543 0.5872718691825867
vt 0.06098291650414467 0.5838857591152191
vt 0.406108021736145 0.25855666399002075
vt 0.46819156408309937 0.25855666399002075
vt 0.414568692445755 0.3061704635620117
vt 0.46819156408309937 0.284837543964386
vt 0.44083818793296814 0.3467589020729065
vt 0.48634156584739685 0.30550700426101685
vt 0.4778754413127899 0.37595605850219727
vt 0.5103867650032043 0.32061946392059326
vt 0.5384827852249146 0.38157910108566284
vt 0.5384827852249146 0.32061946392059326
vt 0.5384827852249146 0.2938652038574219
vt 0.5103867650032043 0.2938652038574219
vt 0.6712993383407593 0.3846058249473572
vt 0.6527157425880432 0.40228134393692017
vt 0.6804397106170654 0.3551234006881714
vt 0.6189944744110107 0.35221731662750244
vt 0.5966523885726929 0.40641266107559204
vt 0.6188268661499023 0.4123910069465637
vt 0.6474630236625671 0.29724568128585815
vt 0.59086674451828 0.29903364181518555
vt 0.6231805086135864 0.28947025537490845
vt 0.6742536425590515 0.3232618570327759
vt 0.5622381567955017 0.35775893926620483
vt 0.5730658173561096 0.3932873606681824
vt 0.5692299008369446 0.31914693117141724
vt 0.9633859395980835 0.3022423982620239
vt 0.9275495409965515 0.3495003581047058
vt 0.9155644774436951 0.30724138021469116
vt 0.8419362306594849 0.32223939895629883
vt 0.8851697444915771 0.2747342586517334
vt 0.8481354117393494 0.2606428265571594
vt 0.8070082664489746 0.2691625952720642
vt 0.771574854850769 0.3054782748222351
vt 0.7566275000572205 0.3506482243537903
vt 0.7614179849624634 0.2515484094619751
vt 0.7903851866722107 0.23108744621276855
vt 0.8203670382499695 0.2227504849433899
vt 0.8503220677375793 0.22149360179901123
vt 0.7395962476730347 0.27873092889785767
vt 0.9795539379119873 0.3225710988044739
vt 0.9484909176826477 0.28121405839920044
vt 0.7257696390151978 0.2984716296195984
vt 0.7022660970687866 0.2646549344062805
vt 0.7137902975082397 0.24178975820541382
vt 0.7068432569503784 0.31832224130630493
vt 0.6843560934066772 0.2705550789833069
vt 0.8809968829154968 0.22512173652648926
vt 0.9049674272537231 0.23732954263687134
vt 0.9292551875114441 0.2585303783416748
vt 0.852031409740448 0.1769999861717224
vt 0.9295971393585205 0.20426982641220093
vt 0.9531147480010986 0.23315119743347168
vt 0.9809936285018921 0.25169771909713745
vt 0.9912857413291931 0.2749422788619995
vt 0.6779477596282959 0.2860245704650879
vt 0.895991861820221 0.1921311616897583
vt 0.808584988117218 0.18713825941085815
vt 0.7705091834068298 0.19486838579177856
vt 0.7407819628715515 0.22455894947052002
vt 0.4778754413127899 0.37595605850219727
vt 0.5103867650032043 0.32061946392059326
vt 0.5384827852249146 0.38157910108566284
vt 0.5384827852249146 0.32061946392059326
vt 0.5384827852249146 0.2938652038574219
vt 0.5103867650032043 0.2938652038574219
vt 0.48634156584739685 0.30550700426101685
vt 0.44083818793296814 0.3467589020729065
vt 0.46819156408309937 0.284837543964386
vt 0.414568692445755 0.3061704635620117
vt 0.46819156408309937 0.25855666399002075
vt 0.406108021736145 0.25855666399002075
vt 0.28829753398895264 0.4947088956832886
vt 0.26730382442474365 0.5061538815498352
vt 0.24465954303741455 0.4618288278579712
vt 0.24439391493797302 0.515338808298111
vt 0.22612698376178741 0.5062178373336792
vt 0.20147301256656647 0.49666380882263184
vt 0.1961076408624649 0.46636056900024414
vt 0.19643034040927887 0.43585526943206787
vt 0.2945551872253418 0.4658135175704956
vt 0.2931104302406311 0.4353031516075134
vt 0.2709132432937622 0.4190372824668884
vt 0.2433987706899643 0.40611475706100464
vt 0.2152906358242035 0.4208558201789856
vt 0.4778754413127899 0.37595605850219727
vt 0.5103867650032043 0.32061946392059326
vt 0.5384827852249146 0.38157910108566284
vt 0.48634156584739685 0.30550700426101685
vt 0.44083818793296814 0.3467589020729065
vt 0.46819156408309937 0.284837543964386
vt 0.414568692445755 0.3061704635620117
vt 0.5384827852249146 0.32061946392059326
vt 0.5384827852249146 0.2938652038574219
vt 0.5103867650032043 0.2938652038574219
vt 0.46819156408309937 0.25855666399002075
vt 0.406108021736145 0.25855666399002075
vt 0.3518272936344147 0.8631825298070908
vt 0.35353919863700867 0.9246838539838791
vt 0.3233221471309662 0.8740577548742294
vt 0.4069575369358063 0.8804522603750229
vt 0.3113592565059662 0.8953083008527756
vt 0.30076637864112854 0.95289121940732
vt 0.27612873911857605 0.9002641290426254
vt 0.251030832529068 0.9211016148328781
vt 0.2254108339548111 0.9772930033504963
vt 0.21695508062839508 0.9185753911733627
vt 0.1831497699022293 0.9298269599676132
vt 0.15336038172245026 0.9786879308521748
vt 0.1601649671792984 0.9197547286748886
vt 0.13683529198169708 0.9249569624662399
vt 0.08292683213949203 0.9592063911259174
vt 0.1050650104880333 0.9047228544950485
vt 0.07225855439901352 0.8995439857244492
vt 0.014588317833840847 0.9191543310880661
vt 0.05126854032278061 0.8731832355260849
vt 0.027604125440120697 0.8628722876310349
vt 0.35236018896102905 0.7631265968084335
vt 0.38192126154899597 0.7284876108169556
vt 0.39353880286216736 0.7865261137485504
vt 0.41418084502220154 0.7106868028640747
vt 0.3395126163959503 0.8274040818214417
vt 0.3817410171031952 0.8316641598939896
vt 0.48524776101112366 0.7587419301271439
vt 0.4727502763271332 0.6452996730804443
vt 0.41188520193099976 0.6703007519245148
vt 0.43827691674232483 0.6112338006496429
vt 0.5232227444648743 0.5726496875286102
vt 0.5439188480377197 0.5980075597763062
vt 0.6094086766242981 0.5633465349674225
vt 0.5569273233413696 0.5381327271461487
vt 0.6007652282714844 0.5196273028850555
vt 0.6771994233131409 0.5272549092769623
vt 0.6778360605239868 0.5662491917610168
vt 0.7521013617515564 0.5687947869300842
vt 0.7193763256072998 0.5206027030944824
vt 0.7626174688339233 0.524377703666687
vt 0.8123367428779602 0.5610640048980713
vt 0.8308302760124207 0.600037693977356
vt 0.5250442028045654 0.6986356973648071
vt 0.5600103139877319 0.7917767614126205
vt 0.5784360766410828 0.750221773982048
vt 0.6752856373786926 0.8111488372087479
vt 0.5466805100440979 0.8406749963760376
vt 0.5545971393585205 0.879952035844326
vt 0.6129598021507263 0.7170768678188324
vt 0.640527069568634 0.7043168842792511
vt 0.6749005913734436 0.6979080140590668
vt 0.7105126976966858 0.7062680423259735
vt 0.7442945837974548 0.7354973256587982
vt 0.7771000266075134 0.7634338736534119
vt 0.7822141051292419 0.8032107055187225
vt 0.797272801399231 0.8393460661172867
vt 0.7949314713478088 0.8893448412418365
vt 0.5737247467041016 0.6535629034042358
vt 0.6247758269309998 0.6339693963527679
vt 0.6736025810241699 0.6302758157253265
vt 0.7303287386894226 0.6379006505012512
vt 0.7867143750190735 0.6689861118793488
vt 0.8920228481292725 0.6764050126075745
vt 0.8791143894195557 0.6078388392925262
vt 0.9280504584312439 0.6472257673740387
vt 0.9492011666297913 0.7173740267753601
vt 0.920030951499939 0.7374375760555267
vt 0.9426060318946838 0.7895355671644211
vt 0.9704306721687317 0.7436942756175995
vt 0.9877468347549438 0.7779647558927536
vt 0.9796321392059326 0.8405128121376038
vt 0.9522014856338501 0.8765627890825272
vt 0.836694061756134 0.7225167453289032
vt 0.8512259125709534 0.7698627859354019
vt 0.8717761635780334 0.8174200057983398
vt 0.8900076150894165 0.9086136370897293
vt 0.31347185373306274 0.8073137849569321
vt 0.2744910418987274 0.8479204922914505
vt 0.31512415409088135 0.7301434874534607
vt 0.24270449578762054 0.8693664819002151
vt 0.16808804869651794 0.7468259930610657
vt 0.09409836679697037 0.8702353984117508
vt 0.20881490409374237 0.8881882578134537
vt 0.16307590901851654 0.8995717018842697
vt 0.025300689041614532 0.7592885047197342
vt 0.025460578501224518 0.7910212278366089
vt 0.04003949090838432 0.82602758705616
vt 0.09622085094451904 0.6274943053722382
vt 0.05907892808318138 0.6533800959587097
vt 0.026421844959259033 0.6986435353755951
vt 0.24502533674240112 0.6260542571544647
vt 0.12896083295345306 0.6100465655326843
vt 0.21456895768642426 0.6075339913368225
vt 0.18023677170276642 0.5982491075992584
vt 0.3107990324497223 0.6902152299880981
vt 0.29630452394485474 0.6566786468029022
vt 0.8964362144470215 0.9314241856336594
vt 0.9458991885185242 0.9460156969726086
vt 0.9020329713821411 0.9873369140550494
vt 0.9849769473075867 0.9873369140550494
vt 0.8434000611305237 0.9510921686887741
vt 0.8441153168678284 0.9873369140550494
vt 0.7887688875198364 0.9873369140550494
vt 0.7911787033081055 0.932165190577507
vt 0.762213408946991 0.9360357373952866
vt 0.7432582378387451 0.9463631920516491
vt 0.7027827501296997 0.9873369140550494
vt 0.7044739127159119 0.9288491457700729
vt 0.6573137640953064 0.9461014084517956
vt 0.6029568314552307 0.9873369140550494
vt 0.60140061378479 0.926768347620964
vt 0.5477972030639648 0.9462457709014416
vt 0.4940170645713806 0.9873369140550494
vt 0.4926437735557556 0.930341824889183
vt 0.45117807388305664 0.9465236477553844
vt 0.39411234855651855 0.9873369140550494
vt 0.4065580368041992 0.9321684092283249
vt 0.3720705509185791 0.9448202066123486
vt 0.924140989780426 0.5476594567298889
vt 0.8360092639923096 0.5448774099349976
vt 0.8797791600227356 0.46279221773147583
vt 0.8733736276626587 0.559043675661087
vt 0.9756269454956055 0.4698629379272461
vt 0.9274623394012451 0.38022810220718384
vt 0.8469317555427551 0.3785284757614136
vt 0.882645308971405 0.3625323176383972
vt 0.9576730728149414 0.5229473412036896
vt 0.9666656851768494 0.4180840849876404
vt 0.7880549430847168 0.45495885610580444
vt 0.7995803952217102 0.5101324617862701
vt 0.8281524181365967 0.3876592516899109
vt 0.8059404492378235 0.40254509449005127
vt 0.38290345668792725 0.6341142356395721
vt 0.31317201256752014 0.6335180699825287
vt 0.3467354476451874 0.5730368196964264
vt 0.3423098027706146 0.6436655521392822
vt 0.2772904336452484 0.5755506455898285
vt 0.2861184775829315 0.6049868762493134
vt 0.3159126043319702 0.5080333650112152
vt 0.39082273840904236 0.5183690786361694
vt 0.35412290692329407 0.5003344714641571
vt 0.28869467973709106 0.5349959433078766
vt 0.41870957612991333 0.5660746991634369
vt 0.4139931797981262 0.5379036664962769
vt 0.4097931981086731 0.6081353425979614
vt 0.46131032705307007 0.8261260837316513
vt 0.4568108022212982 0.8608779460191727
vt 0.5203254818916321 0.20820164680480957
vt 0.3814751207828522 0.20820164680480957
vt 0.48050054907798767 0.1794198751449585
vt 0.48050054907798767 0.23584109544754028
vt 0.5764456987380981 0.16593468189239502
vt 0.5764456987380981 0.24857300519943237
vt 0.6572783589363098 0.24731165170669556
vt 0.6572783589363098 0.1692788004875183
vt 0.6852868795394897 0.1875717043876648
vt 0.6920769810676575 0.20820164680480957
vt 0.6852868795394897 0.22783303260803223
vt 0.6572783589363098 0.24731165170669556
vt 0.5764456987380981 0.24857300519943237
vt 0.5203254818916321 0.20820164680480957
vt 0.48050054907798767 0.23584109544754028
vt 0.3814751207828522 0.20820164680480957
vt 0.48050054907798767 0.1794198751449585
vt 0.5764456987380981 0.16593468189239502
vt 0.6572783589363098 0.1692788004875183
vt 0.6852868795394897 0.1875717043876648
vt 0.6920769810676575 0.20820164680480957
vt 0.6852868795394897 0.22783303260803223

g F_pok_eros_hat_00
s 1
usemtl F_pok_eros_hat_00
f 3/3/3 2/2/2 1/1/1 
f 4/4/4 1/1/1 2/2/2 
f 5/5/5 4/4/4 2/2/2 
f 4/4/4 5/5/5 6/6/6 
f 5/5/5 7/7/7 6/6/6 
f 7/7/7 5/5/5 8/8/8 
f 8/8/8 9/9/9 7/7/7 
f 9/9/9 8/8/8 10/10/10 
f 8/8/8 11/11/11 10/10/10 
f 11/11/11 8/8/8 12/12/12 
f 12/12/12 8/8/8 5/5/5 
f 12/12/12 13/13/13 11/11/11 
f 13/13/13 12/12/12 14/14/14 
f 15/15/15 13/13/13 14/14/14 
f 14/14/14 16/16/16 15/15/15 
f 16/16/16 14/14/14 17/17/17 
f 14/14/14 12/12/12 17/17/17 
f 5/5/5 17/17/17 12/12/12 
f 2/2/2 17/17/17 5/5/5 
f 17/17/17 18/18/18 16/16/16 
f 18/18/18 17/17/17 19/19/19 
f 20/20/20 18/18/18 19/19/19 
f 21/21/21 18/18/18 20/20/20 
f 21/21/21 20/20/20 22/22/22 
f 23/23/23 22/22/22 20/20/20 
f 19/19/19 3/3/3 20/20/20 
f 3/3/3 19/19/19 2/2/2 
f 17/17/17 2/2/2 19/19/19 
f 20/20/20 24/24/24 23/23/23 
f 24/24/24 20/20/20 3/3/3 
f 24/24/24 3/3/3 25/25/25 
f 1/1/1 25/25/25 3/3/3 
f 28/28/28 27/27/27 26/26/26 
f 26/26/26 29/29/29 28/28/28 
f 29/29/29 30/30/30 28/28/28 
f 30/30/30 29/29/29 31/31/31 
f 32/32/32 30/30/30 31/31/31 
f 30/30/30 32/32/32 33/33/33 
f 34/34/34 33/33/33 32/32/32 
f 33/33/33 34/34/34 35/35/35 
f 36/36/36 33/33/33 35/35/35 
f 33/33/33 36/36/36 37/37/37 
f 33/33/33 37/37/37 30/30/30 
f 38/38/38 37/37/37 36/36/36 
f 37/37/37 38/38/38 39/39/39 
f 38/38/38 40/40/40 39/39/39 
f 41/41/41 39/39/39 40/40/40 
f 39/39/39 41/41/41 42/42/42 
f 30/30/30 37/37/37 42/42/42 
f 39/39/39 42/42/42 37/37/37 
f 42/42/42 28/28/28 30/30/30 
f 43/43/43 42/42/42 41/41/41 
f 42/42/42 43/43/43 44/44/44 
f 43/43/43 45/45/45 44/44/44 
f 43/43/43 46/46/46 45/45/45 
f 45/45/45 46/46/46 47/47/47 
f 47/47/47 48/48/48 45/45/45 
f 49/49/49 45/45/45 48/48/48 
f 45/45/45 49/49/49 27/27/27 
f 27/27/27 44/44/44 45/45/45 
f 27/27/27 49/49/49 50/50/50 
f 50/50/50 26/26/26 27/27/27 
f 44/44/44 27/27/27 28/28/28 
f 28/28/28 42/42/42 44/44/44 
f 53/53/53 52/52/52 51/51/51 
f 52/52/52 53/53/53 54/54/54 
f 51/51/51 52/52/52 55/55/55 
f 56/56/56 55/55/55 52/52/52 
f 56/56/56 57/57/57 55/55/55 
f 56/56/56 58/58/58 57/57/57 
f 54/54/54 53/53/53 59/59/59 
f 60/60/60 59/59/59 53/53/53 
f 59/59/59 60/60/60 61/61/61 
f 61/61/61 62/62/62 59/59/59 
f 65/65/65 64/64/64 63/63/63 
f 65/65/65 66/66/66 64/64/64 
f 66/66/66 65/65/65 67/67/67 
f 66/66/66 67/67/67 68/68/68 
f 69/69/69 63/63/63 64/64/64 
f 70/70/70 63/63/63 69/69/69 
f 70/70/70 69/69/69 71/71/71 
f 63/63/63 70/70/70 72/72/72 
f 75/75/75 74/74/74 73/73/73 
f 76/76/76 73/73/73 74/74/74 
f 77/77/77 76/76/76 74/74/74 
f 76/76/76 77/77/77 78/78/78 
f 77/77/77 79/79/79 78/78/78 
f 80/80/80 78/78/78 79/79/79 
f 79/79/79 81/81/81 80/80/80 
f 82/82/82 80/80/80 81/81/81 
f 83/83/83 75/75/75 73/73/73 
f 73/73/73 84/84/84 83/83/83 
f 87/87/87 86/86/86 85/85/85 
f 86/86/86 87/87/87 88/88/88 
f 85/85/85 86/86/86 89/89/89 
f 90/90/90 89/89/89 86/86/86 
f 90/90/90 91/91/91 89/89/89 
f 90/90/90 92/92/92 91/91/91 
f 87/87/87 93/93/93 88/88/88 
f 94/94/94 93/93/93 87/87/87 
f 95/95/95 93/93/93 94/94/94 
f 94/94/94 96/96/96 95/95/95 
f 99/99/99 98/98/98 97/97/97 
f 98/98/98 100/100/100 97/97/97 
f 99/99/99 101/101/101 98/98/98 
f 101/101/101 99/99/99 102/102/102 
f 101/101/101 102/102/102 103/103/103 
f 104/104/104 97/97/97 100/100/100 
f 104/104/104 100/100/100 105/105/105 
f 97/97/97 104/104/104 106/106/106 
f 109/109/109 108/108/108 107/107/107 
f 107/107/107 110/110/110 109/109/109 
f 107/107/107 111/111/111 110/110/110 
f 112/112/112 110/110/110 111/111/111 
f 113/113/113 112/112/112 111/111/111 
f 112/112/112 113/113/113 114/114/114 
f 115/115/115 108/108/108 109/109/109 
f 109/109/109 116/116/116 115/115/115 
f 116/116/116 117/117/117 115/115/115 
f 117/117/117 116/116/116 118/118/118 
f 121/121/121 120/120/120 119/119/119 
f 122/122/122 119/119/119 120/120/120 
f 119/119/119 122/122/122 123/123/123 
f 122/122/122 124/124/124 123/123/123 
f 124/124/124 122/122/122 125/125/125 
f 125/125/125 126/126/126 124/124/124 
f 120/120/120 121/121/121 127/127/127 
f 120/120/120 127/127/127 128/128/128 
f 128/128/128 127/127/127 129/129/129 
f 126/126/126 125/125/125 130/130/130 
f 130/130/130 125/125/125 131/131/131 
f 130/130/130 131/131/131 132/132/132 
f 131/131/131 133/133/133 132/132/132 
f 128/128/128 129/129/129 134/134/134 
f 128/128/128 134/134/134 135/135/135 
f 134/134/134 136/136/136 135/135/135 
f 137/137/137 135/135/135 136/136/136 
f 137/137/137 138/138/138 135/135/135 
f 141/141/141 140/140/140 139/139/139 
f 140/140/140 142/142/142 139/139/139 
f 140/140/140 141/141/141 143/143/143 
f 140/140/140 144/144/144 142/142/142 
f 145/145/145 142/142/142 144/144/144 
f 146/146/146 145/145/145 144/144/144 
f 146/146/146 144/144/144 147/147/147 
f 146/146/146 147/147/147 148/148/148 
f 148/148/148 147/147/147 149/149/149 
f 149/149/149 147/147/147 150/150/150 
f 150/150/150 147/147/147 144/144/144 
f 151/151/151 149/149/149 150/150/150 
f 152/152/152 151/151/151 150/150/150 
f 152/152/152 153/153/153 151/151/151 
f 151/151/151 153/153/153 154/154/154 
f 149/149/149 151/151/151 154/154/154 
f 155/155/155 154/154/154 153/153/153 
f 155/155/155 156/156/156 154/154/154 
f 154/154/154 156/156/156 157/157/157 
f 154/154/154 157/157/157 158/158/158 
f 158/158/158 149/149/149 154/154/154 
f 156/156/156 155/155/155 159/159/159 
f 155/155/155 160/160/160 159/159/159 
f 152/152/152 161/161/161 153/153/153 
f 162/162/162 152/152/152 150/150/150 
f 144/144/144 162/162/162 150/150/150 
f 162/162/162 144/144/144 140/140/140 
f 140/140/140 143/143/143 162/162/162 
f 155/155/155 163/163/163 160/160/160 
f 153/153/153 163/163/163 155/155/155 
f 161/161/161 163/163/163 153/153/153 
f 164/164/164 160/160/160 163/163/163 
f 163/163/163 165/165/165 164/164/164 
f 163/163/163 166/166/166 165/165/165 
f 166/166/166 163/163/163 161/161/161 
f 161/161/161 167/167/167 166/166/166 
f 168/168/168 166/166/166 167/167/167 
f 169/169/169 166/166/166 168/168/168 
f 168/168/168 170/170/170 169/169/169 
f 170/170/170 168/168/168 171/171/171 
f 171/171/171 168/168/168 172/172/172 
f 168/168/168 167/167/167 172/172/172 
f 167/167/167 161/161/161 152/152/152 
f 173/173/173 172/172/172 167/167/167 
f 152/152/152 173/173/173 167/167/167 
f 143/143/143 174/174/174 162/162/162 
f 162/162/162 174/174/174 152/152/152 
f 177/177/177 176/176/176 175/175/175 
f 175/175/175 176/176/176 178/178/178 
f 175/175/175 178/178/178 179/179/179 
f 176/176/176 177/177/177 180/180/180 
f 177/177/177 181/181/181 180/180/180 
f 176/176/176 180/180/180 182/182/182 
f 182/182/182 180/180/180 183/183/183 
f 182/182/182 183/183/183 184/184/184 
f 180/180/180 181/181/181 185/185/185 
f 180/180/180 185/185/185 186/186/186 
f 177/177/177 175/175/175 187/187/187 
f 187/187/187 175/175/175 188/188/188 
f 177/177/177 189/189/189 181/181/181 
f 177/177/177 187/187/187 189/189/189 
f 181/181/181 189/189/189 190/190/190 
f 191/191/191 181/181/181 190/190/190 
f 191/191/191 190/190/190 192/192/192 
f 189/189/189 187/187/187 193/193/193 
f 193/193/193 187/187/187 194/194/194 
f 197/197/197 196/196/196 195/195/195 
f 196/196/196 197/197/197 198/198/198 
f 199/199/199 198/198/198 197/197/197 
f 198/198/198 199/199/199 200/200/200 
f 201/201/201 200/200/200 199/199/199 
f 200/200/200 201/201/201 202/202/202 
f 203/203/203 202/202/202 201/201/201 
f 202/202/202 203/203/203 204/204/204 
f 204/204/204 205/205/205 202/202/202 
f 205/205/205 206/206/206 202/202/202 
f 209/209/209 208/208/208 207/207/207 
f 210/210/210 208/208/208 209/209/209 
f 210/210/210 211/211/211 208/208/208 
f 208/208/208 211/211/211 212/212/212 
f 210/210/210 209/209/209 213/213/213 
f 210/210/210 213/213/213 214/214/214 
f 214/214/214 213/213/213 215/215/215 
f 213/213/213 209/209/209 216/216/216 
f 210/210/210 214/214/214 217/217/217 
f 210/210/210 217/217/217 211/211/211 
f 218/218/218 211/211/211 217/217/217 
f 217/217/217 214/214/214 219/219/219 
f 222/222/222 221/221/221 220/220/220 
f 223/223/223 221/221/221 222/222/222 
f 223/223/223 222/222/222 224/224/224 
f 225/225/225 223/223/223 224/224/224 
f 223/223/223 225/225/225 226/226/226 
f 223/223/223 226/226/226 227/227/227 
f 223/223/223 227/227/227 228/228/228 
f 227/227/227 226/226/226 229/229/229 
f 230/230/230 229/229/229 226/226/226 
f 231/231/231 230/230/230 226/226/226 
f 226/226/226 225/225/225 231/231/231 
f 232/232/232 231/231/231 225/225/225 
f 229/229/229 233/233/233 227/227/227 
f 220/220/220 221/221/221 234/234/234 
f 222/222/222 220/220/220 235/235/235 
f 233/233/233 236/236/236 227/227/227 
f 236/236/236 228/228/228 227/227/227 
f 237/237/237 236/236/236 233/233/233 
f 237/237/237 233/233/233 238/238/238 
f 236/236/236 237/237/237 239/239/239 
f 228/228/228 236/236/236 239/239/239 
f 237/237/237 240/240/240 239/239/239 
f 225/225/225 241/241/241 232/232/232 
f 241/241/241 225/225/225 224/224/224 
f 224/224/224 242/242/242 241/241/241 
f 243/243/243 242/242/242 224/224/224 
f 222/222/222 243/243/243 224/224/224 
f 243/243/243 222/222/222 235/235/235 
f 232/232/232 241/241/241 244/244/244 
f 242/242/242 243/243/243 245/245/245 
f 246/246/246 243/243/243 235/235/235 
f 246/246/246 245/245/245 243/243/243 
f 247/247/247 246/246/246 235/235/235 
f 220/220/220 247/247/247 235/235/235 
f 220/220/220 248/248/248 247/247/247 
f 248/248/248 220/220/220 234/234/234 
f 240/240/240 249/249/249 239/239/239 
f 244/244/244 241/241/241 250/250/250 
f 242/242/242 250/250/250 241/241/241 
f 250/250/250 242/242/242 245/245/245 
f 244/244/244 231/231/231 232/232/232 
f 244/244/244 251/251/251 231/231/231 
f 251/251/251 230/230/230 231/231/231 
f 230/230/230 251/251/251 252/252/252 
f 252/252/252 253/253/253 230/230/230 
f 253/253/253 229/229/229 230/230/230 
f 229/229/229 253/253/253 233/233/233 
f 233/233/233 253/253/253 238/238/238 
f 256/256/256 255/255/255 254/254/254 
f 255/255/255 256/256/256 257/257/257 
f 255/255/255 257/257/257 258/258/258 
f 255/255/255 258/258/258 259/259/259 
f 260/260/260 254/254/254 255/255/255 
f 254/254/254 260/260/260 261/261/261 
f 262/262/262 261/261/261 260/260/260 
f 261/261/261 262/262/262 263/263/263 
f 264/264/264 263/263/263 262/262/262 
f 263/263/263 264/264/264 265/265/265 
f 268/268/268 267/267/267 266/266/266 
f 268/268/268 269/269/269 267/267/267 
f 268/268/268 270/270/270 269/269/269 
f 268/268/268 271/271/271 270/270/270 
f 268/268/268 272/272/272 271/271/271 
f 268/268/268 273/273/273 272/272/272 
f 268/268/268 266/266/266 274/274/274 
f 268/268/268 274/274/274 275/275/275 
f 268/268/268 275/275/275 276/276/276 
f 268/268/268 276/276/276 277/277/277 
f 268/268/268 278/278/278 273/273/273 
f 268/268/268 277/277/277 278/278/278 
f 281/281/281 280/280/280 279/279/279 
f 282/282/282 279/279/279 280/280/280 
f 279/279/279 282/282/282 283/283/283 
f 284/284/284 283/283/283 282/282/282 
f 283/283/283 284/284/284 285/285/285 
f 280/280/280 281/281/281 286/286/286 
f 287/287/287 280/280/280 286/286/286 
f 287/287/287 288/288/288 280/280/280 
f 289/289/289 285/285/285 284/284/284 
f 285/285/285 289/289/289 290/290/290 
f 293/293/293 292/292/292 291/291/291 
f 294/294/294 291/291/291 292/292/292 
f 292/292/292 293/293/293 295/295/295 
f 292/292/292 295/295/295 296/296/296 
f 296/296/296 295/295/295 297/297/297 
f 296/296/296 297/297/297 298/298/298 
f 296/296/296 298/298/298 299/299/299 
f 298/298/298 300/300/300 299/299/299 
f 301/301/301 299/299/299 300/300/300 
f 301/301/301 302/302/302 299/299/299 
f 302/302/302 301/301/301 303/303/303 
f 304/304/304 302/302/302 303/303/303 
f 304/304/304 305/305/305 302/302/302 
f 306/306/306 305/305/305 304/304/304 
f 305/305/305 306/306/306 307/307/307 
f 307/307/307 308/308/308 305/305/305 
f 308/308/308 307/307/307 309/309/309 
f 310/310/310 308/308/308 309/309/309 
f 313/313/313 312/312/312 311/311/311 
f 313/313/313 314/314/314 312/312/312 
f 315/315/315 313/313/313 311/311/311 
f 313/313/313 315/315/315 316/316/316 
f 313/313/313 317/317/317 314/314/314 
f 318/318/318 314/314/314 317/317/317 
f 319/319/319 314/314/314 318/318/318 
f 318/318/318 320/320/320 319/319/319 
f 320/320/320 318/318/318 321/321/321 
f 321/321/321 318/318/318 322/322/322 
f 323/323/323 321/321/321 322/322/322 
f 324/324/324 321/321/321 323/323/323 
f 323/323/323 325/325/325 324/324/324 
f 323/323/323 326/326/326 325/325/325 
f 326/326/326 323/323/323 327/327/327 
f 328/328/328 326/326/326 327/327/327 
f 328/328/328 329/329/329 326/326/326 
f 329/329/329 328/328/328 330/330/330 
f 330/330/330 328/328/328 331/331/331 
f 328/328/328 332/332/332 331/331/331 
f 317/317/317 333/333/333 318/318/318 
f 334/334/334 333/333/333 317/317/317 
f 333/333/333 334/334/334 335/335/335 
f 336/336/336 335/335/335 334/334/334 
f 337/337/337 336/336/336 334/334/334 
f 317/317/317 337/337/337 334/334/334 
f 336/336/336 337/337/337 338/338/338 
f 335/335/335 336/336/336 339/339/339 
f 335/335/335 339/339/339 333/333/333 
f 336/336/336 340/340/340 339/339/339 
f 340/340/340 336/336/336 341/341/341 
f 336/336/336 342/342/342 341/341/341 
f 342/342/342 336/336/336 343/343/343 
f 336/336/336 344/344/344 343/343/343 
f 344/344/344 336/336/336 345/345/345 
f 345/345/345 336/336/336 346/346/346 
f 346/346/346 336/336/336 347/347/347 
f 340/340/340 348/348/348 339/339/339 
f 348/348/348 333/333/333 339/339/339 
f 348/348/348 318/318/318 333/333/333 
f 318/318/318 348/348/348 322/322/322 
f 348/348/348 323/323/323 322/322/322 
f 340/340/340 341/341/341 349/349/349 
f 323/323/323 348/348/348 349/349/349 
f 348/348/348 340/340/340 349/349/349 
f 349/349/349 350/350/350 323/323/323 
f 350/350/350 349/349/349 341/341/341 
f 327/327/327 323/323/323 350/350/350 
f 350/350/350 328/328/328 327/327/327 
f 342/342/342 351/351/351 341/341/341 
f 328/328/328 350/350/350 351/351/351 
f 350/350/350 341/341/341 351/351/351 
f 343/343/343 344/344/344 352/352/352 
f 351/351/351 352/352/352 328/328/328 
f 352/352/352 342/342/342 343/343/343 
f 342/342/342 352/352/352 351/351/351 
f 332/332/332 328/328/328 352/352/352 
f 352/352/352 353/353/353 332/332/332 
f 354/354/354 332/332/332 353/353/353 
f 353/353/353 355/355/355 354/354/354 
f 353/353/353 356/356/356 355/355/355 
f 356/356/356 353/353/353 357/357/357 
f 358/358/358 356/356/356 357/357/357 
f 359/359/359 356/356/356 358/358/358 
f 358/358/358 360/360/360 359/359/359 
f 360/360/360 358/358/358 361/361/361 
f 362/362/362 361/361/361 358/358/358 
f 363/363/363 357/357/357 353/353/353 
f 353/353/353 352/352/352 363/363/363 
f 363/363/363 352/352/352 344/344/344 
f 357/357/357 363/363/363 364/364/364 
f 344/344/344 364/364/364 363/363/363 
f 364/364/364 344/344/344 345/345/345 
f 357/357/357 365/365/365 358/358/358 
f 365/365/365 357/357/357 364/364/364 
f 345/345/345 365/365/365 364/364/364 
f 365/365/365 345/345/345 346/346/346 
f 346/346/346 347/347/347 365/365/365 
f 358/358/358 366/366/366 362/362/362 
f 366/366/366 358/358/358 365/365/365 
f 366/366/366 365/365/365 347/347/347 
f 369/369/369 368/368/368 367/367/367 
f 369/369/369 370/370/370 368/368/368 
f 371/371/371 370/370/370 369/369/369 
f 371/371/371 372/372/372 370/370/370 
f 370/370/370 372/372/372 373/373/373 
f 373/373/373 372/372/372 374/374/374 
f 371/371/371 375/375/375 372/372/372 
f 372/372/372 375/375/375 376/376/376 
f 372/372/372 376/376/376 377/377/377 
f 371/371/371 378/378/378 375/375/375 
f 375/375/375 378/378/378 379/379/379 
f 380/380/380 375/375/375 379/379/379 
f 371/371/371 381/381/381 378/378/378 
f 371/371/371 369/369/369 381/381/381 
f 378/378/378 381/381/381 382/382/382 
f 382/382/382 381/381/381 383/383/383 
f 382/382/382 383/383/383 384/384/384 
f 381/381/381 369/369/369 385/385/385 
f 381/381/381 385/385/385 386/386/386 
f 389/389/389 388/388/388 387/387/387 
f 390/390/390 388/388/388 389/389/389 
f 389/389/389 387/387/387 391/391/391 
f 391/391/391 392/392/392 389/389/389 
f 392/392/392 391/391/391 393/393/393 
f 393/393/393 391/391/391 394/394/394 
f 394/394/394 395/395/395 393/393/393 
f 393/393/393 395/395/395 396/396/396 
f 396/396/396 397/397/397 393/393/393 
f 397/397/397 396/396/396 398/398/398 
f 399/399/399 397/397/397 398/398/398 
f 397/397/397 399/399/399 400/400/400 
f 401/401/401 400/400/400 399/399/399 
f 400/400/400 401/401/401 402/402/402 
f 403/403/403 400/400/400 402/402/402 
f 403/403/403 402/402/402 404/404/404 
f 403/403/403 404/404/404 405/405/405 
f 405/405/405 406/406/406 403/403/403 
f 406/406/406 405/405/405 407/407/407 
f 408/408/408 406/406/406 407/407/407 
f 411/411/411 410/410/410 409/409/409 
f 409/409/409 410/410/410 412/412/412 
f 411/411/411 409/409/409 413/413/413 
f 411/411/411 413/413/413 414/414/414 
f 411/411/411 414/414/414 415/415/415 
f 415/415/415 414/414/414 416/416/416 
f 413/413/413 409/409/409 417/417/417 
f 414/414/414 413/413/413 418/418/418 
f 411/411/411 419/419/419 410/410/410 
f 419/419/419 411/411/411 415/415/415 
f 410/410/410 419/419/419 420/420/420 
f 419/419/419 415/415/415 421/421/421 
f 419/419/419 421/421/421 422/422/422 
f 425/425/425 424/424/424 423/423/423 
f 423/423/423 424/424/424 426/426/426 
f 425/425/425 427/427/427 424/424/424 
f 424/424/424 427/427/427 428/428/428 
f 425/425/425 429/429/429 427/427/427 
f 425/425/425 430/430/430 429/429/429 
f 429/429/429 430/430/430 431/431/431 
f 432/432/432 427/427/427 429/429/429 
f 425/425/425 433/433/433 430/430/430 
f 425/425/425 423/423/423 433/433/433 
f 430/430/430 433/433/433 434/434/434 
f 433/433/433 423/423/423 435/435/435 
f 313/313/313 316/316/316 436/436/436 
f 317/317/317 313/313/313 436/436/436 
f 337/337/337 317/317/317 436/436/436 
f 436/436/436 338/338/338 337/337/337 
f 437/437/437 436/436/436 316/316/316 
f 338/338/338 436/436/436 437/437/437 
f 440/440/440 439/439/439 438/438/438 
f 438/438/438 439/439/439 441/441/441 
f 440/440/440 438/438/438 442/442/442 
f 443/443/443 438/438/438 441/441/441 
f 444/444/444 438/438/438 443/443/443 
f 442/442/442 438/438/438 445/445/445 
f 445/445/445 438/438/438 446/446/446 
f 438/438/438 447/447/447 446/446/446 
f 448/448/448 447/447/447 438/438/438 
f 438/438/438 444/444/444 448/448/448 
f 451/451/451 450/450/450 449/449/449 
f 451/451/451 452/452/452 450/450/450 
f 451/451/451 453/453/453 452/452/452 
f 453/453/453 451/451/451 454/454/454 
f 454/454/454 451/451/451 455/455/455 
f 455/455/455 451/451/451 456/456/456 
f 456/456/456 451/451/451 457/457/457 
f 451/451/451 458/458/458 457/457/457 
f 459/459/459 458/458/458 451/451/451 
f 451/451/451 449/449/449 459/459/459 

