v -1.0 0.0 1.0
v -0.0 1.0 1.0
v -0.0 0.0 1.0
v -1.0 1.0 1.0
v -0.0 0.0 9.53674295089968e-09
v -1.0 0.0 0.5
v -0.0 0.0 0.5
v -1.0 0.0 9.53674295089968e-09
v -0.0 1.0 9.53674295089968e-09
v -0.0 0.0 0.5
v -0.0 1.0 0.5
v -0.0 0.5 9.53674295089968e-09
v -0.0 0.0 9.53674295089968e-09
v -0.0 1.0 1.0
v -0.0 0.0 1.0
v -1.0 1.0 9.53674295089968e-09
v -0.0 1.0 0.5
v -1.0 1.0 0.5
v -0.0 1.0 9.53674295089968e-09
v -1.0 1.0 1.0
v -0.0 1.0 1.0
v -1.0 0.0 9.53674295089968e-09
v -1.0 1.0 0.5
v -1.0 0.0 0.5
v -1.0 0.5 9.53674295089968e-09
v -1.0 1.0 9.53674295089968e-09
v -1.0 0.0 1.0
v -1.0 1.0 1.0
v -0.0 0.0 1.0
v -1.0 0.0 0.5
v -1.0 0.0 1.0
v -0.0 0.0 0.5
v -1.0 0.0 9.53674295089968e-09
v -0.0 0.5 9.53674295089968e-09
v -1.0 0.5 9.53674295089968e-09
v -0.0 0.0 9.53674295089968e-09
v -1.0 1.0 9.53674295089968e-09
v -0.0 0.5 9.53674295089968e-09
v -0.0 1.0 9.53674295089968e-09
v -1.0 0.5 9.53674295089968e-09
vn -0.0 0.0 1.0
vn -0.0 0.0 1.0
vn -0.0 0.0 1.0
vn -0.0 0.0 1.0
vn -0.0 -1.0 0.0
vn -0.0 -1.0 0.0
vn -0.0 -1.0 0.0
vn -0.0 -1.0 0.0
vn 1.0 0.0 0.0
vn 1.0 0.0 0.0
vn 1.0 0.0 0.0
vn 1.0 0.0 0.0
vn 1.0 0.0 0.0
vn 1.0 0.0 0.0
vn 1.0 0.0 0.0
vn -0.0 1.0 0.0
vn -0.0 1.0 0.0
vn -0.0 1.0 0.0
vn -0.0 1.0 0.0
vn -0.0 1.0 0.0
vn -0.0 1.0 0.0
vn -1.0 0.0 0.0
vn -1.0 0.0 0.0
vn -1.0 0.0 0.0
vn -1.0 0.0 0.0
vn -1.0 0.0 0.0
vn -1.0 0.0 0.0
vn -1.0 0.0 0.0
vn -0.0 -1.0 0.0
vn -0.0 -1.0 0.0
vn -0.0 -1.0 0.0
vn -0.0 -1.0 0.0
vn -0.0 0.0 -1.0
vn -0.0 0.0 -1.0
vn -0.0 0.0 -1.0
vn -0.0 0.0 -1.0
vn -0.0 0.0 -1.0
vn -0.0 0.0 -1.0
vn -0.0 0.0 -1.0
vn -0.0 0.0 -1.0
vt 0.3128989040851593 0.6250643134117126
vt 0.6257510185241699 0.0
vt 0.6257510185241699 0.6250643134117126
vt 0.3128989040851593 0.0
vt 0.6257511973381042 0.6250645518302917
vt 0.3128989636898041 0.9324641227722168
vt 0.6257511973381042 0.9324641227722168
vt 0.3128989636898041 0.6250645518302917
vt 0.3128989040851593 0.6250643134117126
vt 1.6968426663765968e-08 0.31683021783828735
vt 0.3128989040851593 0.31683021783828735
vt 0.15624213218688965 0.6250643134117126
vt 1.6968426663765968e-08 0.6250643134117126
vt 0.3128989040851593 0.0
vt 1.6968426663765968e-08 0.0
vt 0.6257511973381042 0.6260603666305542
vt 0.3128989636898041 0.316830575466156
vt 0.6257511973381042 0.316830575466156
vt 0.3128989636898041 0.6260603666305542
vt 0.6257510781288147 0.0
vt 0.3128989338874817 0.0
vt 0.3128989040851593 0.6250643134117126
vt 1.6968426663765968e-08 0.31683021783828735
vt 0.3128989040851593 0.31683021783828735
vt 0.15624213218688965 0.6250643134117126
vt 1.6968426663765968e-08 0.6250643134117126
vt 0.3128989040851593 0.0
vt 1.6968426663765968e-08 0.0
vt 0.6257510185241699 0.6250643134117126
vt 0.3128989040851593 0.9930661879479885
vt 0.3128989040851593 0.6250643134117126
vt 0.6257510185241699 0.9930661879479885
vt 0.31357109546661377 0.6250645518302917
vt 0.0011335117742419243 0.9324641227722168
vt 0.31357109546661377 0.9324641227722168
vt 0.0011335117742419243 0.6250645518302917
vt 0.3135712146759033 0.6250643134117126
vt 0.0011335117742419243 0.9324643388390541
vt 0.0011335117742419243 0.6250643134117126
vt 0.3135712146759033 0.9324643388390541

g bg_mdl_map_block_em_iseki
s 1
usemtl bg_mdl_map_block_em_iseki
f 3/3/3 2/2/2 1/1/1 
f 4/4/4 1/1/1 2/2/2 
f 7/7/7 6/6/6 5/5/5 
f 8/8/8 5/5/5 6/6/6 
f 11/11/11 10/10/10 9/9/9 
f 9/9/9 10/10/10 12/12/12 
f 12/12/12 10/10/10 13/13/13 
f 11/11/11 14/14/14 10/10/10 
f 15/15/15 10/10/10 14/14/14 
f 18/18/18 17/17/17 16/16/16 
f 19/19/19 16/16/16 17/17/17 
f 18/18/18 20/20/20 17/17/17 
f 21/21/21 17/17/17 20/20/20 
f 24/24/24 23/23/23 22/22/22 
f 22/22/22 23/23/23 25/25/25 
f 25/25/25 23/23/23 26/26/26 
f 24/24/24 27/27/27 23/23/23 
f 28/28/28 23/23/23 27/27/27 
f 31/31/31 30/30/30 29/29/29 
f 32/32/32 29/29/29 30/30/30 
f 35/35/35 34/34/34 33/33/33 
f 36/36/36 33/33/33 34/34/34 
f 39/39/39 38/38/38 37/37/37 
f 40/40/40 37/37/37 38/38/38 

