v -0.5504791736602783 -0.3519127666950226 0.6516132354736328
v 0.6975694298744202 0.38019827008247375 1.2065472602844238
v 0.3729659616947174 -0.15236277878284454 0.2340882420539856
v -0.22587595880031586 0.18064840137958527 1.6240721940994263
v -0.4950675964355469 -0.4896087646484375 0.6255149245262146
v 0.5421051383018494 0.6262819170951843 1.1208029985427856
v 0.596317708492279 -0.4896085262298584 0.8266692161560059
v -0.5461694002151489 0.6262818574905396 0.9202218651771545
v -0.059594325721263885 -0.43448927998542786 -1.4019891023635864
v 0.15159446001052856 0.3038851022720337 0.7935276031494141
v 0.15989170968532562 0.296651691198349 -1.3279078006744385
v -0.0678921639919281 -0.427256315946579 0.7194451689720154
vn 0.34895965456962585 -0.866125226020813 0.35784658789634705
vn 0.34895965456962585 -0.8661252856254578 0.35784655809402466
vn 0.34895971417427063 -0.866125226020813 0.35784652829170227
vn 0.3489595651626587 -0.866125226020813 0.3578466773033142
vn -0.17507843673229218 -0.25888848304748535 0.9499075412750244
vn -0.17507842183113098 -0.25888848304748535 0.9499075412750244
vn -0.17507830262184143 -0.2588885724544525 0.9499074220657349
vn -0.17507852613925934 -0.2588884234428406 0.9499075412750244
vn 0.9576317667961121 -0.28795692324638367 0.004727279767394066
vn 0.9576316475868225 -0.28795722126960754 0.004727396182715893
vn 0.9576317667961121 -0.2879568040370941 0.00472724623978138
vn 0.9576316475868225 -0.2879573702812195 0.0047273775562644005
vt 0.4709733724594116 1.0
vt 0.8101711273193359 0.6598874628543854
vt 0.8101711273193359 1.0
vt 0.4709733724594116 0.6598874628543854
vt 0.4709733724594116 1.0
vt 0.8101711273193359 0.6598874628543854
vt 0.8101711273193359 1.0
vt 0.4709733724594116 0.6598874628543854
vt 0.7600533366203308 0.495927095413208
vt 0.9993681311607361 0.0015575289726257324
vt 0.9993680119514465 0.495927095413208
vt 0.7600533366203308 0.0015575289726257324

g bg_mdl_map_tsuru00
s 1
usemtl bg_mdl_map_tsuru00
f 3/3/3 2/2/2 1/1/1 
f 4/4/4 1/1/1 2/2/2 
f 7/7/7 6/6/6 5/5/5 
f 8/8/8 5/5/5 6/6/6 
f 11/11/11 10/10/10 9/9/9 
f 12/12/12 9/9/9 10/10/10 

