v -0.2553047835826874 0.3631886839866638 2.3149242401123047
v 0.26638349890708923 0.41278716921806335 2.0975518226623535
v 0.18777188658714294 0.060857754200696945 3.639925241470337
v -0.1877719908952713 0.06085784360766411 3.639925479888916
v -0.13227830827236176 -0.4744873344898224 5.206508159637451
v 0.13227812945842743 -0.47448745369911194 5.206508159637451
v 0.3755437135696411 -0.26463186740875244 3.626756191253662
v 0.26455652713775635 -0.7015318870544434 5.166476726531982
v -0.2645567059516907 -0.7015318274497986 5.166476726531982
v -0.37554407119750977 -0.26463183760643005 3.626755952835083
v -0.13227826356887817 -0.9285764694213867 5.1264448165893555
v -0.1877719908952713 -0.5901215076446533 3.61358642578125
v 0.18777188658714294 -0.5901215076446533 3.613585948944092
v 0.13227812945842743 -0.9285763502120972 5.1264448165893555
v -0.1877719908952713 -0.5901215076446533 3.61358642578125
v -0.13227826356887817 -0.9285764694213867 5.1264448165893555
v 0.08011046051979065 -1.249822735786438 6.914204120635986
v 0.160221666097641 -1.3729008436203003 6.855683326721191
v -0.08011119812726974 -1.2498226165771484 6.914204120635986
v -0.16022206842899323 -1.3729008436203003 6.855683326721191
v -0.08011101186275482 -1.4959814548492432 6.797145366668701
v 0.08011073619127274 -1.495981216430664 6.797143936157227
v -0.08011101186275482 -1.4959814548492432 6.797145366668701
v 0.03741787374019623 -2.114579200744629 8.469666481018066
v 0.07483583688735962 -2.162141799926758 8.425704002380371
v -0.037418149411678314 -2.114579439163208 8.469667434692383
v -0.07483620196580887 -2.162141799926758 8.425703048706055
v -0.037418149411678314 -2.209704637527466 8.381739616394043
v 0.03741787374019623 -2.209704637527466 8.381739616394043
v -0.037418149411678314 -2.209704637527466 8.381739616394043
v -1.83105456130761e-07 -2.2190349102020264 8.519999504089355
v -1.83105456130761e-07 -2.2190349102020264 8.519999504089355
v -1.83105456130761e-07 -2.2190349102020264 8.519999504089355
v -1.83105456130761e-07 -2.2190349102020264 8.519999504089355
v -1.83105456130761e-07 -2.2190349102020264 8.519999504089355
v -1.83105456130761e-07 -2.2190349102020264 8.519999504089355
v 0.31576964259147644 -0.39448118209838867 2.7127318382263184
v 0.23950155079364777 -0.527857780456543 2.6202147006988525
v 0.23961211740970612 -0.5277246832847595 2.618091344833374
v 0.35727623105049133 -0.32005488872528076 2.824370861053467
v 0.44982391595840454 -0.16167865693569183 2.90580677986145
v -0.24663600325584412 -0.5192705988883972 2.4832136631011963
v -0.42489394545555115 -0.2144135683774948 2.5279953479766846
v -0.5457648634910583 -0.022899717092514038 1.974624752998352
v -0.33736276626586914 -0.36359214782714844 2.5258758068084717
v -0.31060269474983215 -0.41160452365875244 2.432847023010254
v -0.24663600325584412 -0.5192705988883972 2.4832136631011963
v -0.16377615928649902 3.338054656982422 2.253749370574951
v 0.1804526150226593 3.1474645137786865 1.8573352098464966
v -0.1890801340341568 2.8948559761047363 1.7229162454605103
v 0.16377682983875275 3.338054656982422 2.253749132156372
v 0.1335175484418869 3.7186343669891357 2.9299283027648926
v -0.1335168331861496 3.718632936477661 2.929927349090576
v 0.0940583124756813 3.999999523162842 4.09999942779541
v -0.09405723959207535 3.9999992847442627 4.09999942779541
v -0.26703396439552307 3.999999523162842 2.7999987602233887
v -0.1881152093410492 4.299999237060547 4.19999885559082
v 0.1881163865327835 4.299999713897705 4.1999993324279785
v 0.26703497767448425 3.9999992847442627 2.799999713897705
v 0.09405830502510071 4.59999942779541 4.299999713897705
v 0.1335175782442093 4.400000095367432 2.6999995708465576
v -0.13351686298847198 4.400000095367432 2.6999995708465576
v -0.09405723959207535 4.599999904632568 4.299999713897705
v 0.1335175782442093 4.400000095367432 2.6999995708465576
v 0.09405830502510071 4.59999942779541 4.299999713897705
v -0.07550995796918869 3.9425272941589355 4.868852615356445
v -0.15102094411849976 4.195655345916748 4.93526554107666
v 0.07551150768995285 3.9425272941589355 4.868852615356445
v 0.1510223150253296 4.195655822753906 4.93526554107666
v 0.0755113884806633 4.498497486114502 5.001555442810059
v 0.0755113884806633 4.498497486114502 5.001555442810059
v -0.07551009207963943 4.498498439788818 5.0015549659729
v 0.16377680003643036 4.155683994293213 1.8911904096603394
v 0.3275534510612488 3.5967369079589844 2.1725690364837646
v 0.16377680003643036 4.155683994293213 1.8911904096603394
v -0.06623633950948715 4.09999942779541 5.200000286102295
v 0.06623807549476624 4.099999904632568 5.200000286102295
v 0.0569646917283535 3.9850547313690186 5.637703895568848
v -0.05696268007159233 3.9850547313690186 5.637703895568848
v 1.0296752179783653e-06 4.000000476837158 5.900001049041748
v -0.11392666399478912 4.091311931610107 5.6705322265625
v 0.11392825841903687 4.091311931610107 5.6705322265625
v 0.056964486837387085 4.196995258331299 5.703110218048096
v -0.05696294084191322 4.196997165679932 5.7031097412109375
v 0.056964486837387085 4.196995258331299 5.703110218048096
v -0.13247379660606384 4.199999809265137 5.299999713897705
v 0.13247530162334442 4.200000286102295 5.3000006675720215
v -0.32755252718925476 3.5967376232147217 2.1725683212280273
v -0.1637761890888214 4.155683994293213 1.8911904096603394
v -1.1699998378753662 0.023233527317643166 0.19578967988491058
v -0.4959079921245575 -0.9624993801116943 0.4934574067592621
v -0.584999680519104 -0.8678510189056396 0.1866336166858673
v -1.1422439813613892 -0.028124675154685974 0.9509745836257935
v 0.49590814113616943 -0.9624994993209839 0.4934573769569397
v 0.5849994421005249 -0.8678510785102844 0.1866336613893509
v 1.1699998378753662 0.023233603686094284 0.19578967988491058
v 1.1422439813613892 -0.028124647215008736 0.9509745836257935
v 0.8505449295043945 0.013691344298422337 -0.07613382488489151
v 0.9788062572479248 0.7962513566017151 0.07240783423185349
v 0.6647630333900452 0.766704797744751 -0.19964978098869324
v 0.4252724051475525 -0.7231677174568176 -0.08180483430624008
v -0.42527246475219727 -0.7231676578521729 -0.08180487155914307
v -0.8505449295043945 0.013691344298422337 -0.07613387703895569
v -9.15527280653805e-08 -9.15527280653805e-08 -0.3513449430465698
v -5.7220457705398076e-08 1.053693175315857 -0.40154778957366943
v -9.15527280653805e-08 -9.15527280653805e-08 -0.3513449430465698
v -9.15527280653805e-08 -9.15527280653805e-08 -0.3513449430465698
v 0.8132679462432861 0.01683896780014038 1.1049740314483643
v 0.4256093502044678 -0.7142753601074219 0.7274978756904602
v -0.42560943961143494 -0.7142752408981323 0.7274977564811707
v -0.8132289052009583 0.016852429136633873 1.1049810647964478
v -0.8292813897132874 1.0605390071868896 -0.26394227147102356
v -1.1407499313354492 1.0916630029678345 0.009723758324980736
v -5.7220457705398076e-08 1.053693175315857 -0.40154778957366943
v -0.8159263134002686 0.7672825455665588 1.5214675664901733
v -0.8937203884124756 1.0953927040100098 0.8290787935256958
v -0.7079302668571472 1.3530948162078857 1.283610224723816
v -0.4634496867656708 1.428204894065857 1.8550550937652588
v -0.39245346188545227 1.1576076745986938 2.008060932159424
v 0.46343958377838135 1.4282456636428833 1.8550764322280884
v 0.39170119166374207 1.1609610319137573 2.009809732437134
v 0.3588540852069855 0.5658584833145142 2.120068311691284
v -0.35113006830215454 0.5191879272460938 2.3246092796325684
v 0.26638349890708923 0.41278716921806335 2.0975518226623535
v -0.2553047835826874 0.3631886839866638 2.3149242401123047
v -0.7604109644889832 -0.034154169261455536 1.877341389656067
v -0.5457648634910583 -0.022899717092514038 1.974624752998352
v -0.2932789921760559 -0.5114768147468567 1.7146210670471191
v -0.4019058644771576 -0.7082390189170837 1.6087288856506348
v -0.8132289052009583 0.016852429136633873 1.1049810647964478
v -0.40886759757995605 -0.6850932836532593 1.098753809928894
v 0.40383997559547424 -0.7136467099189758 1.548606276512146
v 0.40886756777763367 -0.6850932836532593 1.098753809928894
v 0.7760707139968872 -0.027742592617869377 1.7591696977615356
v 0.8132679462432861 0.01683896780014038 1.1049740314483643
v 0.29455581307411194 -0.5129668116569519 1.6980565786361694
v 0.2728821635246277 -0.4876796305179596 1.9792022705078125
v -0.272882342338562 -0.48767951130867004 1.9792022705078125
v -0.2638859152793884 -0.49850791692733765 2.1519615650177
v 0.25705423951148987 -0.5067306160926819 2.2831475734710693
v -0.30478984117507935 -0.6141693592071533 2.3793532848358154
v 0.30247196555137634 -0.6096053123474121 2.4907007217407227
v 0.3879574239253998 -0.40127483010292053 2.6164135932922363
v 0.23961211740970612 -0.5277246832847595 2.618091344833374
v 0.31576964259147644 -0.39448118209838867 2.7127318382263184
v 0.4590162932872772 -0.2594788372516632 2.7116005420684814
v 0.3272959887981415 -0.38370752334594727 2.3741769790649414
v 0.4280413091182709 -0.2045581191778183 2.624417304992676
v 0.44982391595840454 -0.16167865693569183 2.90580677986145
v 0.5657556056976318 -0.015918731689453125 1.8459577560424805
v 0.35727623105049133 -0.32005488872528076 2.824370861053467
v -0.24663600325584412 -0.5192705988883972 2.4832136631011963
v -0.31060269474983215 -0.41160452365875244 2.432847023010254
v -0.42214128375053406 -0.44970664381980896 2.344759225845337
v 0.23950155079364777 -0.527857780456543 2.6202147006988525
v -0.45187804102897644 -0.3744131326675415 2.4305567741394043
v -0.4205280840396881 -0.22602131962776184 2.3678531646728516
v -0.39421898126602173 -0.2750401198863983 2.2066705226898193
v -0.5457648634910583 -0.022899717092514038 1.974624752998352
v -0.42489394545555115 -0.2144135683774948 2.5279953479766846
v -0.33736276626586914 -0.36359214782714844 2.5258758068084717
v 0.26638349890708923 0.41278716921806335 2.0975518226623535
v -0.8154600262641907 1.5839626789093018 -0.2625245451927185
v -0.6485934257507324 2.2541158199310303 0.14014209806919098
v -1.1217374801635742 1.6258776187896729 0.012012748047709465
v -0.5320352911949158 2.2366538047790527 -0.1077377125620842
v -1.907348590179936e-08 1.5805398225784302 -0.33132728934288025
v 0.5282654166221619 2.2366538047790527 -0.10773761570453644
v -0.8292813897132874 1.0605390071868896 -0.26394227147102356
v -1.1407499313354492 1.0916630029678345 0.009723758324980736
v -5.7220457705398076e-08 1.053693175315857 -0.40154778957366943
v -1.1113865375518799 1.5480802059173584 0.6855852603912354
v -0.8937203884124756 1.0953927040100098 0.8290787935256958
v -0.9110497832298279 1.7968965768814087 1.1873393058776855
v -0.7079302668571472 1.3530948162078857 1.283610224723816
v -0.4877597391605377 2.0849006175994873 1.4996302127838135
v -0.5335797667503357 2.337270736694336 0.913201093673706
v -0.49383726716041565 1.654797077178955 1.574096441268921
v 0.5242196321487427 2.084920883178711 1.4996410608291626
v 0.4938296377658844 1.65482759475708 1.5741125345230103
v 0.9221657514572144 1.8731904029846191 1.2067804336547852
v 0.9118996858596802 1.3938554525375366 1.2504268884658813
v 1.0549100637435913 1.8279476165771484 0.49351003766059875
v 0.5298080444335938 2.337275981903076 0.913203775882721
v 1.0119187831878662 1.519683837890625 0.9201292991638184
v 0.7657300233840942 1.1353825330734253 0.9878578782081604
v 0.696572482585907 1.1329017877578735 1.2816674709320068
v 0.8494831919670105 0.8860986232757568 0.8310476541519165
v 1.18376624584198 1.1294596195220947 0.5469599962234497
v 1.121737003326416 1.6258776187896729 0.012012805789709091
v 1.1407496929168701 1.0916630029678345 0.009723796509206295
v 0.8292812705039978 1.0605387687683105 -0.26394224166870117
v 0.8154599666595459 1.5839625597000122 -0.2625245153903961
v -5.7220457705398076e-08 1.053693175315857 -0.40154778957366943
v -1.907348590179936e-08 1.5805398225784302 -0.33132728934288025
v 0.6265907287597656 2.2541158199310303 0.14014212787151337
v 0.5282654166221619 2.2366538047790527 -0.10773761570453644
v 0.6647630333900452 0.766704797744751 -0.19964978098869324
v 0.9788062572479248 0.7962513566017151 0.07240783423185349
v 0.3588540852069855 0.5658584833145142 2.120068311691284
v 0.7026631832122803 0.6444801688194275 1.4802087545394897
v 0.5657556056976318 -0.015918731689453125 1.8459577560424805
v 0.26638349890708923 0.41278716921806335 2.0975518226623535
v 0.4256093502044678 -0.7142753601074219 0.7274978756904602
v -0.42560943961143494 -0.7142752408981323 0.7274977564811707
v 0.7026631832122803 0.6444801688194275 1.4802087545394897
v 0.696572482585907 1.1329017877578735 1.2816674709320068
v 0.7657300233840942 1.1353825330734253 0.9878578782081604
v 0.8494831919670105 0.8860986232757568 0.8310476541519165
v 0.4938296377658844 1.65482759475708 1.5741125345230103
v -0.49383726716041565 1.654797077178955 1.574096441268921
v 0.8494831919670105 0.8860986232757568 0.8310476541519165
v 0.7026631832122803 0.6444801688194275 1.4802087545394897
v -0.7230541706085205 2.8999993801116943 0.7999991178512573
v -0.24227456748485565 2.500000238418579 1.3999990224838257
v -0.44775310158729553 2.1472537517547607 1.1055612564086914
v 0.24227479100227356 2.5 1.3999993801116943
v 0.447115957736969 2.1472532749176025 1.1055612564086914
v 0.7305941581726074 2.8999998569488525 0.7999998331069946
v 0.30116623640060425 2.8945083618164062 1.8198174238204956
v -0.19403553009033203 2.738355875015259 1.7622042894363403
v 0.5858778357505798 3.4190642833709717 1.368833303451538
v 0.4514901340007782 3.57468318939209 2.1485071182250977
v 0.4112454652786255 3.9460508823394775 1.2028595209121704
v 0.35887354612350464 4.232882976531982 1.8248876333236694
v 0.5335797667503357 3.500000476837158 -3.2234190712188138e-06
v 0.3275534510612488 3.5967369079589844 2.1725690364837646
v 0.16377680003643036 4.155683994293213 1.8911904096603394
v 0.1804526150226593 3.1474645137786865 1.8573352098464966
v -0.1890801340341568 2.8948559761047363 1.7229162454605103
v -0.4408464729785919 2.792696237564087 1.7071138620376587
v -0.32755252718925476 3.5967376232147217 2.1725683212280273
v -0.4782407283782959 3.577662944793701 2.076979875564575
v -0.35941287875175476 4.229142665863037 1.8126055002212524
v -0.1637761890888214 4.155683994293213 1.8911904096603394
v 0.35887354612350464 4.232882976531982 1.8248876333236694
v 0.16377680003643036 4.155683994293213 1.8911904096603394
v 0.4112454652786255 3.9460508823394775 1.2028595209121704
v -0.4037046432495117 3.9460513591766357 1.2028594017028809
v 0.5335797667503357 3.500000476837158 -3.2234190712188138e-06
v -0.5282642841339111 3.4999990463256836 -5.531310875994677e-07
v -0.7706094980239868 3.419065237045288 1.3688329458236694
v -0.9561614990234375 2.2569000720977783 0.1366410106420517
v -0.6265907883644104 2.938594341278076 -0.4278266131877899
v -0.9034133553504944 2.0951757431030273 -0.0387641116976738
v -0.3215136229991913 1.646403193473816 0.5250424742698669
v -0.4185837507247925 1.800474762916565 0.7343279719352722
v -0.5282655954360962 2.558756113052368 -0.496235191822052
v 0.4179466664791107 1.8004745244979858 0.7343276739120483
v 0.32087603211402893 1.646403193473816 0.5250424742698669
v 0.9109532237052917 2.0951759815216064 -0.038764189928770065
v 0.9637015461921692 2.256899833679199 0.13664108514785767
v 0.005681831855326891 1.9690395593643188 -0.1937481313943863
v 0.005681831855326891 1.9690395593643188 -0.1937481313943863
v 0.005681831855326891 1.9690395593643188 -0.1937481313943863
v 0.005681831855326891 1.9690395593643188 -0.1937481313943863
v 0.5320348739624023 2.5587565898895264 -0.4962349236011505
v -0.5282655954360962 2.558756113052368 -0.496235191822052
v 0.005681831855326891 1.9690395593643188 -0.1937481313943863
v 0.9109532237052917 2.0951759815216064 -0.038764189928770065
v 0.5320348739624023 2.5587565898895264 -0.4962349236011505
v 0.005681831855326891 1.9690395593643188 -0.1937481313943863
v 0.9637015461921692 2.256899833679199 0.13664108514785767
v 0.5320348739624023 2.5587565898895264 -0.4962349236011505
v 0.9109532237052917 2.0951759815216064 -0.038764189928770065
v 0.5320348739624023 2.5587565898895264 -0.4962349236011505
v 0.9637015461921692 2.256899833679199 0.13664108514785767
v 0.7128263711929321 2.948967218399048 -0.43821442127227783
v 0.7305941581726074 2.8999998569488525 0.7999998331069946
v 0.7128263711929321 2.948967218399048 -0.43821442127227783
v 0.9637015461921692 2.256899833679199 0.13664108514785767
v 0.5335797667503357 3.500000476837158 -3.2234190712188138e-06
v 0.7128263711929321 2.948967218399048 -0.43821442127227783
v -0.5282655954360962 2.558756113052368 -0.496235191822052
v 0.5320348739624023 2.5587565898895264 -0.4962349236011505
v -0.5282655954360962 2.558756113052368 -0.496235191822052
v 0.7128263711929321 2.948967218399048 -0.43821442127227783
v -0.6265907883644104 2.938594341278076 -0.4278266131877899
v 0.5335797667503357 3.500000476837158 -3.2234190712188138e-06
v -0.6265907883644104 2.938594341278076 -0.4278266131877899
v 0.7128263711929321 2.948967218399048 -0.43821442127227783
v -0.6265907883644104 2.938594341278076 -0.4278266131877899
v 0.5335797667503357 3.500000476837158 -3.2234190712188138e-06
v -0.5282642841339111 3.4999990463256836 -5.531310875994677e-07
vn -0.5012643933296204 0.8372823596000671 0.2183854728937149
vn 0.27711015939712524 0.9336026906967163 0.22714754939079285
vn 0.4824486970901489 0.8373056054115295 0.2572208046913147
vn -0.4832189083099365 0.8368659615516663 0.2572059631347656
vn -0.48821577429771423 0.8061649799346924 0.33428019285202026
vn 0.4873806834220886 0.8062529563903809 0.3352855145931244
vn 0.9956465363502502 0.01300194300711155 0.0922984778881073
vn 0.9975888729095459 0.0012645814567804337 0.06938910484313965
vn -0.9975847005844116 0.002080036560073495 0.069429412484169
vn -0.9955565333366394 0.014222157187759876 0.09308598190546036
vn -0.5077478885650635 -0.8337003588676453 -0.21710777282714844
vn -0.5093258023262024 -0.8548311591148376 -0.09925153851509094
vn 0.509652853012085 -0.8546290397644043 -0.09931337088346481
vn 0.5076982378959656 -0.8335612416267395 -0.21775713562965393
vn -0.5093258023262024 -0.8548311591148376 -0.09925153851509094
vn -0.5077478885650635 -0.8337003588676453 -0.21710777282714844
vn 0.49018359184265137 0.7726168632507324 0.40346404910087585
vn 0.9984904527664185 -0.00938933715224266 0.05411671847105026
vn -0.49037623405456543 0.7726616263389587 0.40314409136772156
vn -0.9985276460647583 -0.009354476816952229 0.05343160405755043
vn -0.5017684102058411 -0.8098037242889404 -0.30404984951019287
vn 0.501335859298706 -0.8101507425308228 -0.30383890867233276
vn -0.5017684102058411 -0.8098037242889404 -0.30404984951019287
vn 0.4864168167114258 0.5500717163085938 0.6788371205329895
vn 0.9566903114318848 -0.1702352911233902 0.23614291846752167
vn -0.48643428087234497 0.550081729888916 0.6788163781166077
vn -0.956821620464325 -0.1702187955379486 0.23562248051166534
vn -0.4645950198173523 -0.8665580749511719 -0.18228712677955627
vn 0.4641139805316925 -0.8669114708900452 -0.18183188140392303
vn -0.4645950198173523 -0.8665580749511719 -0.18228712677955627
vn -1.0346528966920232e-07 -0.5634981989860535 0.8261172771453857
vn -1.0346528966920232e-07 -0.5634981989860535 0.8261172771453857
vn -1.0346528966920232e-07 -0.5634981989860535 0.8261172771453857
vn -1.0346528966920232e-07 -0.5634981989860535 0.8261172771453857
vn -1.0346528966920232e-07 -0.5634981989860535 0.8261172771453857
vn -1.0346528966920232e-07 -0.5634981989860535 0.8261172771453857
vn 0.8641481995582581 -0.5030456185340881 0.013895515352487564
vn 0.6269640326499939 -0.77888023853302 -0.016172068193554878
vn 0.8639712333679199 -0.5033616423606873 0.013437622226774693
vn 0.8623288869857788 -0.5061165690422058 0.015326708555221558
vn 0.9893530607223511 0.09101562947034836 0.11356380581855774
vn -0.6111422181129456 -0.7913211584091187 -0.01777426339685917
vn -0.8648541569709778 -0.501791775226593 0.015244053676724434
vn -0.9236271381378174 0.3540002703666687 0.14695791900157928
vn -0.862335205078125 -0.5061663389205933 0.013179861009120941
vn -0.862335205078125 -0.5061662793159485 0.013179863803088665
vn -0.6111422181129456 -0.7913211584091187 -0.01777426339685917
vn -0.46080559492111206 -0.739845871925354 0.4901900589466095
vn -0.03528856113553047 -0.5513231754302979 0.8335450887680054
vn -0.06442991644144058 -0.21924544870853424 0.9735400080680847
vn 0.4820444881916046 -0.7688338160514832 0.42015188932418823
vn 0.5657984018325806 -0.7522447109222412 0.33763912320137024
vn -0.5643366575241089 -0.7545708417892456 0.334883451461792
vn 0.6086066365242004 -0.7880489826202393 0.09261030703783035
vn -0.6054362654685974 -0.7899031639099121 0.09746748208999634
vn -0.997082531452179 0.014971357770264149 0.07484729588031769
vn -0.999186098575592 0.021466460078954697 0.03414987772703171
vn 0.9990605711936951 0.021417466923594475 0.03767416998744011
vn 0.9969635605812073 0.013862872496247292 0.07662546634674072
vn 0.5766215324401855 0.8164180517196655 0.0311294998973608
vn 0.5715715885162354 0.8059009313583374 -0.1543685644865036
vn -0.5718089938163757 0.8058351874351501 -0.15383152663707733
vn -0.5730290412902832 0.8191453814506531 0.025271164253354073
vn 0.5715715885162354 0.8059009313583374 -0.1543685644865036
vn 0.5766215324401855 0.8164180517196655 0.0311294998973608
vn -0.5457534193992615 -0.8232297301292419 0.15635225176811218
vn -0.9939870834350586 -0.074614517390728 0.08013945817947388
vn 0.5457539558410645 -0.8232293128967285 0.156352236866951
vn 0.9946118593215942 -0.07021958380937576 0.07626610994338989
vn 0.5855181813240051 0.7803980112075806 0.2194254994392395
vn 0.5855181813240051 0.7803980112075806 0.2194254994392395
vn -0.5826798677444458 0.7811107635498047 0.22438809275627136
vn 0.27810466289520264 0.7913488745689392 0.5444490313529968
vn 0.7548104524612427 -0.14861243963241577 0.6388860940933228
vn 0.27810466289520264 0.7913488745689392 0.5444490313529968
vn -0.5542426109313965 -0.8293231129646301 0.07098165154457092
vn 0.5542470812797546 -0.8293200731277466 0.07098118215799332
vn 0.5083963871002197 -0.8603169918060303 -0.03725138679146767
vn -0.5083946585655212 -0.8603181838989258 -0.03725139796733856
vn 1.2676916867349064e-06 -0.35539510846138 0.9347161054611206
vn -0.9738531112670898 -0.05638469010591507 0.2200702726840973
vn 0.973853349685669 -0.05638013035058975 0.22007018327713013
vn 0.5042551755905151 0.6974161267280579 0.5092518925666809
vn -0.5042486190795898 0.6974203586578369 0.5092525482177734
vn 0.5042551755905151 0.6974161267280579 0.5092518925666809
vn -0.9965826869010925 -0.05856862664222717 0.05824694782495499
vn 0.9965828061103821 -0.05856518819928169 0.05824754387140274
vn -0.8358078598976135 -0.1053544133901596 0.538818895816803
vn -0.2988688349723816 0.8080796003341675 0.5076267123222351
vn -0.922378659248352 -0.22305361926555634 -0.31538012623786926
vn -0.35041525959968567 -0.9033007621765137 0.24750135838985443
vn -0.522818922996521 -0.7832428216934204 -0.33643895387649536
vn -0.8387300968170166 -0.31402117013931274 0.4448847770690918
vn 0.3519419729709625 -0.9019696116447449 0.2501753270626068
vn 0.5272010564804077 -0.7770817875862122 -0.34380650520324707
vn 0.9304246306419373 -0.14913205802440643 -0.3347681760787964
vn 0.8486833572387695 -0.26421356201171875 0.4581786096096039
vn 0.5266886949539185 -0.16539689898490906 -0.8338122367858887
vn 0.8904370665550232 -0.24254027009010315 -0.38509246706962585
vn 0.41347184777259827 -0.18846529722213745 -0.8907984495162964
vn 0.2836722135543823 -0.5750519633293152 -0.767362654209137
vn -0.2709277272224426 -0.5777694582939148 -0.7699224948883057
vn -0.5083054304122925 -0.21509602665901184 -0.8338820338249207
vn 0.011791633442044258 -0.16394177079200745 -0.9863995313644409
vn 0.020653225481510162 0.002623525448143482 -0.9997832179069519
vn 0.011791633442044258 -0.16394177079200745 -0.9863995313644409
vn 0.011791633442044258 -0.16394177079200745 -0.9863995313644409
vn 0.6896942257881165 -0.47096094489097595 0.5500160455703735
vn 0.3116598427295685 -0.7797925472259521 0.5429472923278809
vn -0.2920023202896118 -0.7838365435600281 0.5480280518531799
vn -0.6893301010131836 -0.4926695227622986 0.5311316251754761
vn -0.440105140209198 -0.04912590980529785 -0.8966013789176941
vn -0.9388483166694641 -0.0420653373003006 -0.34175199270248413
vn 0.020653225481510162 0.002623525448143482 -0.9997832179069519
vn -0.9131852984428406 0.16108378767967224 0.3743588328361511
vn -0.9539473056793213 -0.01569615863263607 0.29956337809562683
vn -0.8841415643692017 0.08329644799232483 0.45973387360572815
vn -0.49162769317626953 0.5228481888771057 0.6963704824447632
vn -0.40373358130455017 0.343983918428421 0.8477465510368347
vn 0.5485749244689941 0.48995551466941833 0.6775021553039551
vn 0.4686889052391052 0.25060567259788513 0.8470699191093445
vn 0.5068486928939819 0.03774383291602135 0.8612083792686462
vn -0.3092021048069 0.1501511037349701 0.9390680193901062
vn 0.5191933512687683 -0.09831112623214722 0.848983645439148
vn -0.03239388018846512 -0.09388696402311325 0.9950556755065918
vn -0.8032082915306091 -0.31253477931022644 0.5071276426315308
vn -0.5318760275840759 -0.556477427482605 0.6383109092712402
vn -0.20915749669075012 -0.6937490701675415 0.6891772747039795
vn -0.406977117061615 -0.8103364109992981 0.42157381772994995
vn -0.6893301010131836 -0.4926695227622986 0.5311316251754761
vn -0.5063861012458801 -0.8618448972702026 0.028219720348715782
vn 0.44733744859695435 -0.818067193031311 0.3614628314971924
vn 0.5097368359565735 -0.8599199652671814 0.02657127194106579
vn 0.830224335193634 -0.22523650527000427 0.5098981857299805
vn 0.6896942257881165 -0.47096094489097595 0.5500160455703735
vn 0.32469725608825684 -0.7038366794586182 0.6318114399909973
vn 0.5001013875007629 -0.8648878931999207 0.043215908110141754
vn -0.5037705302238464 -0.862644612789154 0.045382995158433914
vn -0.45249733328819275 -0.8468648791313171 -0.27940329909324646
vn 0.5611857175827026 -0.7937553524971008 -0.23457007110118866
vn -0.48051851987838745 -0.8628247380256653 0.1569569706916809
vn 0.538267970085144 -0.841569721698761 0.04503249377012253
vn 0.8453492522239685 -0.5150938630104065 0.1416437029838562
vn 0.17886629700660706 -0.9013143181800842 0.3945114016532898
vn 0.6132537126541138 -0.6716572046279907 0.415688157081604
vn 0.9756144285202026 -0.21770553290843964 0.027942746877670288
vn 0.8982589840888977 -0.4259601831436157 -0.10811420530080795
vn 0.9467684626579285 -0.29785794019699097 -0.12210652977228165
vn 0.9691986441612244 -0.15818917751312256 0.18875977396965027
vn 0.6659457087516785 -0.30525821447372437 0.6806862354278564
vn 0.6996798515319824 -0.6583114266395569 0.2776223123073578
vn -0.45085424184799194 -0.5397700071334839 0.7109000086784363
vn -0.47842907905578613 -0.5836430191993713 0.6560993194580078
vn -0.8859217762947083 -0.46305495500564575 0.02688346616923809
vn -0.0 -0.9980413913726807 -0.06255689263343811
vn -0.8786824345588684 -0.4024198651313782 0.256856769323349
vn -0.9688428044319153 -0.23868045210838318 -0.06614603102207184
vn -0.9110229015350342 -0.39421510696411133 -0.12096206098794937
vn -0.5318760275840759 -0.556477427482605 0.6383109092712402
vn -0.9369753003120422 -0.17772182822227478 0.3008190989494324
vn -0.44567441940307617 -0.6553509831428528 0.6098273396492004
vn 0.5191933512687683 -0.09831112623214722 0.848983645439148
vn -0.4199621379375458 0.22554229199886322 -0.8790690898895264
vn -0.8033852577209473 0.5592657923698425 -0.20443564653396606
vn -0.8678483366966248 0.3326111435890198 -0.3690651059150696
vn -0.4397030472755432 0.4087007939815521 -0.7997655272483826
vn 4.232463470543735e-05 0.2101190835237503 -0.9776757955551147
vn 0.46097561717033386 0.4169904887676239 -0.783339262008667
vn -0.440105140209198 -0.04912590980529785 -0.8966013789176941
vn -0.9388483166694641 -0.0420653373003006 -0.34175199270248413
vn 0.020653225481510162 0.002623525448143482 -0.9997832179069519
vn -0.9669653177261353 0.11091802269220352 0.22951100766658783
vn -0.9539473056793213 -0.01569615863263607 0.29956337809562683
vn -0.8428510427474976 0.22549444437026978 0.48862504959106445
vn -0.8841415643692017 0.08329644799232483 0.45973387360572815
vn -0.36042481660842896 0.5579535961151123 0.7475169897079468
vn -0.5444547533988953 0.7967325448989868 0.26227137446403503
vn -0.5779416561126709 0.37564781308174133 0.7244806289672852
vn 0.359178751707077 0.5837082266807556 0.7282000184059143
vn 0.475115567445755 0.2941848635673523 0.8292890787124634
vn 0.794786274433136 0.4612919092178345 0.3943660855293274
vn 0.8108071088790894 -0.29353800415992737 0.5063865184783936
vn 0.881318986415863 0.46875008940696716 0.05958325415849686
vn 0.5196236371994019 0.8063598275184631 0.28244489431381226
vn 0.9501293897628784 -0.06569372117519379 0.30485790967941284
vn 0.876568615436554 -0.23939234018325806 0.4175150394439697
vn 0.9174019694328308 -0.09934303909540176 0.38536301255226135
vn 0.929935097694397 -0.011983745731413364 0.36752834916114807
vn 0.9313450455665588 -0.2682308554649353 0.24626928567886353
vn 0.8534020781517029 0.31594568490982056 -0.41458791494369507
vn 0.8776319622993469 -0.23244301974773407 -0.41920456290245056
vn 0.45405152440071106 -0.2080226093530655 -0.8663508892059326
vn 0.4208431541919708 0.23003005981445312 -0.8774834871292114
vn 0.020653225481510162 0.002623525448143482 -0.9997832179069519
vn 4.232463470543735e-05 0.2101190835237503 -0.9776757955551147
vn 0.7523630261421204 0.6107562184333801 -0.24683329463005066
vn 0.46097561717033386 0.4169904887676239 -0.783339262008667
vn 0.41347184777259827 -0.18846529722213745 -0.8907984495162964
vn 0.8904370665550232 -0.24254027009010315 -0.38509246706962585
vn 0.5068486928939819 0.03774383291602135 0.8612083792686462
vn 0.9142210483551025 0.15668216347694397 0.37369847297668457
vn 0.6659457087516785 -0.30525821447372437 0.6806862354278564
vn 0.5191933512687683 -0.09831112623214722 0.848983645439148
vn 0.3116598427295685 -0.7797925472259521 0.5429472923278809
vn -0.2920023202896118 -0.7838365435600281 0.5480280518531799
vn 0.9142210483551025 0.15668216347694397 0.37369847297668457
vn 0.9174019694328308 -0.09934303909540176 0.38536301255226135
vn 0.876568615436554 -0.23939234018325806 0.4175150394439697
vn 0.929935097694397 -0.011983745731413364 0.36752834916114807
vn 0.475115567445755 0.2941848635673523 0.8292890787124634
vn -0.5779416561126709 0.37564781308174133 0.7244806289672852
vn 0.929935097694397 -0.011983745731413364 0.36752834916114807
vn 0.9142210483551025 0.15668216347694397 0.37369847297668457
vn -0.9864321351051331 -0.0363246314227581 0.16010047495365143
vn -0.3678038418292999 -0.6723196506500244 0.6424225568771362
vn -0.5304883122444153 -0.4917919337749481 0.6904511451721191
vn 0.44262754917144775 -0.5482154488563538 0.7096059322357178
vn 0.5269983410835266 -0.49412432312965393 0.6914576888084412
vn 0.9424435496330261 -0.01786992698907852 0.33388763666152954
vn 0.4650172293186188 -0.4990175664424896 0.7312594652175903
vn -0.09988333284854889 -0.43204593658447266 0.8963032364845276
vn 0.9864016175270081 0.05758500099182129 0.15393471717834473
vn 0.660943329334259 -0.0667637437582016 0.7474599480628967
vn 0.6144869327545166 0.7554791569709778 -0.22728180885314941
vn 0.5343677401542664 0.8104357123374939 0.24009361863136292
vn 0.48742979764938354 0.8336852788925171 -0.25957849621772766
vn 0.7548104524612427 -0.14861243963241577 0.6388860940933228
vn 0.27810466289520264 0.7913488745689392 0.5444490313529968
vn -0.03528856113553047 -0.5513231754302979 0.8335450887680054
vn -0.06442991644144058 -0.21924544870853424 0.9735400080680847
vn -0.5737202167510986 -0.5356448888778687 0.6196205615997314
vn -0.8358078598976135 -0.1053544133901596 0.538818895816803
vn -0.7732769250869751 0.04667375609278679 0.6323482394218445
vn -0.5378320217132568 0.8144713640213013 0.2176538109779358
vn -0.2988688349723816 0.8080796003341675 0.5076267123222351
vn 0.5343677401542664 0.8104357123374939 0.24009361863136292
vn 0.27810466289520264 0.7913488745689392 0.5444490313529968
vn 0.6144869327545166 0.7554791569709778 -0.22728180885314941
vn -0.5188769698143005 0.8246752023696899 -0.22511635720729828
vn 0.48742979764938354 0.8336852788925171 -0.25957849621772766
vn -0.7230184674263 0.6498433351516724 -0.23440970480442047
vn -0.9752600789070129 0.15883570909500122 0.15375001728534698
vn -0.9898942112922668 -0.1272236406803131 0.06263852119445801
vn -0.9164986610412598 0.19054695963859558 -0.3517414331436157
vn -0.7551611065864563 -0.5376868844032288 -0.37499934434890747
vn -0.2829732298851013 -0.9552547931671143 0.08610738068819046
vn -0.4601985812187195 -0.7361062169075012 0.4963516592979431
vn -0.45485246181488037 -0.34212934970855713 -0.8222266435623169
vn 0.45088115334510803 -0.733758270740509 0.5082370042800903
vn 0.26810422539711 -0.959439754486084 0.0871526300907135
vn 0.5466960668563843 -0.7896286249160767 -0.278585821390152
vn 0.82859206199646 -0.4332834780216217 0.3545428514480591
vn 0.000922839215490967 -0.7344481348991394 -0.6786642074584961
vn 0.000922839215490967 -0.7344481348991394 -0.6786642074584961
vn 0.000922839215490967 -0.7344481348991394 -0.6786642074584961
vn 0.000922839215490967 -0.7344481348991394 -0.6786642074584961
vn 0.12567654252052307 -0.5392890572547913 -0.8326900601387024
vn -0.45485246181488037 -0.34212934970855713 -0.8222266435623169
vn 0.000922839215490967 -0.7344481348991394 -0.6786642074584961
vn 0.5466960668563843 -0.7896286249160767 -0.278585821390152
vn 0.12567654252052307 -0.5392890572547913 -0.8326900601387024
vn 0.000922839215490967 -0.7344481348991394 -0.6786642074584961
vn 0.8515428900718689 0.2321256846189499 -0.4700983166694641
vn 0.8515428900718689 0.2321256846189499 -0.4700983166694641
vn 0.8515428900718689 0.23212571442127228 -0.4700983166694641
vn 0.7401775121688843 -0.2501312792301178 -0.6241567134857178
vn 0.7401775121688843 -0.2501312792301178 -0.6241567134857178
vn 0.740177571773529 -0.2501313090324402 -0.624156653881073
vn 0.9401392936706543 0.34079036116600037 -1.3431837942334823e-05
vn 0.9401392936706543 0.34079036116600037 -1.3431837942334823e-05
vn 0.9401392936706543 0.340790331363678 -1.3431837942334823e-05
vn 0.9506308436393738 0.31032106280326843 -0.0013689190382137895
vn 1.6444262485038053e-07 0.14707326889038086 -0.9891256093978882
vn 1.6444263906123524e-07 0.14707329869270325 -0.9891256093978882
vn 1.6444263906123524e-07 0.14707326889038086 -0.9891256093978882
vn -0.008990640752017498 0.17498579621315002 -0.984529972076416
vn -0.008990640752017498 0.17498579621315002 -0.984529972076416
vn -0.008990639820694923 0.17498578131198883 -0.984529972076416
vn -0.010886220261454582 0.6202186942100525 -0.7843534350395203
vn -0.010886221192777157 0.6202186346054077 -0.7843534350395203
vn -0.010886220261454582 0.6202186346054077 -0.7843534350395203
vn -2.871174501706264e-06 0.6061233878135681 -0.7953706383705139
vn -2.871174501706264e-06 0.6061233878135681 -0.7953705787658691
vn -2.871174956453615e-06 0.6061233878135681 -0.7953706383705139
vt -0.30918222665786743 1.868804693222046
vt -0.5 1.9856708645820618
vt -0.5 1.3236577212810516
vt -0.3093094825744629 1.3236577212810516
vt -0.3093094825744629 0.7379864454269409
vt -0.5 0.7379864454269409
vt -0.6918302774429321 1.3236577212810516
vt -0.6918302774429321 0.7379864454269409
vt -0.14104565978050232 0.7379864454269409
vt -0.14104565978050232 1.3236577212810516
vt 0.0 0.7379864454269409
vt 0.0 1.3236577212810516
vt -0.893679678440094 1.3236577212810516
vt -0.893679678440094 0.7379864454269409
vt -1.0 1.3236577212810516
vt -1.0 0.7379864454269409
vt -0.5 -0.16054069995880127
vt -0.6918302774429321 -0.16054069995880127
vt -0.3093094825744629 -0.16054069995880127
vt -0.14104565978050232 -0.16054069995880127
vt 0.0 -0.16054069995880127
vt -0.893679678440094 -0.16054069995880127
vt -1.0 -0.16054069995880127
vt -0.5 -1.3592016696929932
vt -0.6918302774429321 -1.3592016696929932
vt -0.3093094825744629 -1.3592016696929932
vt -0.14104565978050232 -1.3592016696929932
vt 0.0 -1.3592016696929932
vt -0.893679678440094 -1.3592016696929932
vt -1.0 -1.3592016696929932
vt -0.622437059879303 -1.5346310138702393
vt -0.622437059879303 -1.5346310138702393
vt -0.622437059879303 -1.5346310138702393
vt -0.622437059879303 -1.5346310138702393
vt -0.622437059879303 -1.5346310138702393
vt -0.622437059879303 -1.5346310138702393
vt -0.8188811540603638 1.7229225039482117
vt -0.8936797380447388 1.7451291680335999
vt -0.8762162327766418 1.7459324598312378
vt -0.7588164210319519 1.6860383749008179
vt -0.6931743025779724 1.6650627255439758
vt -1.0 1.6593518257141113
vt -0.11391690373420715 1.692612111568451
vt -0.17140552401542664 1.9164650440216064
vt -0.06146468222141266 1.658484399318695
vt -0.02716897428035736 1.677398681640625
vt 0.0 1.6593518257141113
vt 2.8481311798095703 1.2518657743930817
vt 2.986689567565918 1.4687053263187408
vt 2.8481311798095703 1.582693874835968
vt 2.986689567565918 1.2518657743930817
vt 2.986689567565918 1.0100392727181315
vt 2.8481311798095703 1.0100392727181315
vt 2.986689567565918 0.44076812267303467
vt 2.8481311798095703 0.44629716873168945
vt 2.6513280868530273 1.0100392727181315
vt 2.6513280868530273 0.43951165676116943
vt 3.178985118865967 0.42371171712875366
vt 3.178985118865967 1.0100392727181315
vt 3.2851476669311523 0.3986135721206665
vt 3.2851476669311523 1.0100392727181315
vt 2.410991907119751 1.0100392727181315
vt 2.410991907119751 0.42562317848205566
vt 2.2851476669311523 1.0100392727181315
vt 2.2851476669311523 0.4128193259239197
vt 2.8481311798095703 0.05174928903579712
vt 2.6513280868530273 0.048011958599090576
vt 2.986689567565918 0.04858255386352539
vt 3.178985118865967 0.04037964344024658
vt 3.2851476669311523 0.026933491230010986
vt 2.2851476669311523 0.02363896369934082
vt 2.410991907119751 0.037128746509552
vt 3.2851476669311523 1.2518657743930817
vt 3.178985118865967 1.2518657743930817
vt 2.2851476669311523 1.2518657743930817
vt 2.8481311798095703 -0.14552462100982666
vt 2.986689567565918 -0.14751017093658447
vt 2.986689567565918 -0.34360289573669434
vt 2.8481311798095703 -0.34279847145080566
vt 2.66367244720459 -0.490325927734375
vt 2.6513280868530273 -0.3434877395629883
vt 3.178985118865967 -0.3429523706436157
vt 3.2851476669311523 -0.344746470451355
vt 2.410991907119751 -0.3513658046722412
vt 2.2851476669311523 -0.36554133892059326
vt 2.6513280868530273 -0.14773786067962646
vt 3.178985118865967 -0.15128636360168457
vt 2.6513280868530273 1.2518657743930817
vt 2.410991907119751 1.2518657743930817
vt 0.38397738337516785 0.0798996090888977
vt 0.5604764819145203 0.27236586809158325
vt 0.501552402973175 0.28557348251342773
vt 0.5476447939872742 -0.016767024993896484
vt 0.6070619225502014 0.49464935064315796
vt 0.5685935616493225 0.5452522337436676
vt 0.5612121224403381 0.7836100608110428
vt 0.7085291743278503 0.7647772580385208
vt 0.4715171754360199 0.7451135218143463
vt 0.46429333090782166 0.9321628287434578
vt 0.3451988399028778 0.8733506351709366
vt 0.4990226924419403 0.5487633645534515
vt 0.4542623460292816 0.3391261100769043
vt 0.3364381492137909 0.1650884747505188
vt 0.2946731746196747 0.6055690944194794
vt 0.14703510701656342 0.825394943356514
vt 0.2821955382823944 0.47395068407058716
vt 0.22491692006587982 0.355909526348114
vt 0.7590431571006775 0.7413065731525421
vt 0.668064534664154 0.4861606955528259
vt 0.6413418650627136 0.23980849981307983
vt 0.6503424048423767 -0.0162353515625
vt 0.11805342882871628 0.022408604621887207
vt 0.19278036057949066 -0.07078230381011963
vt 0.0 0.20227593183517456
vt 0.5738394856452942 -0.28698229789733887
vt 0.37396129965782166 -0.2193286418914795
vt 0.3965754210948944 -0.3360029458999634
vt 0.4536726176738739 -0.4494227170944214
vt 0.5236144661903381 -0.4656703472137451
vt 0.41218897700309753 -0.6596890687942505
vt 0.4781518876552582 -0.6552544832229614
vt 0.6168214678764343 -0.6901823282241821
vt 0.6742808222770691 -0.5073210000991821
vt 0.670630156993866 -0.6823176145553589
vt 0.6994709372520447 -0.5435563325881958
vt 0.7829894423484802 -0.36615705490112305
vt 0.7995161414146423 -0.4469653367996216
vt 0.9550175070762634 -0.45458924770355225
vt 0.9570936560630798 -0.3600856065750122
vt 0.7563781142234802 -0.1768702268600464
vt 0.9691411852836609 -0.2192748785018921
vt 1.1341077089309692 -0.4081689119338989
vt 1.1679822206497192 -0.28842949867248535
vt 1.285810112953186 -0.5186529159545898
vt 1.3584553003311157 -0.3731348514556885
vt 1.1133066415786743 -0.503990888595581
vt 1.0857356786727905 -0.591643214225769
vt 0.9439453482627869 -0.5454939603805542
vt 0.9326216578483582 -0.5987033843994141
vt 1.0546091794967651 -0.670350193977356
vt 0.9190286993980408 -0.660740852355957
vt 1.0360854864120483 -0.7293928861618042
vt 1.065780520439148 -0.7748597860336304
vt 1.018351674079895 -0.7722510099411011
vt 1.0457018613815308 -0.8030145168304443
vt 1.0904995203018188 -0.8064800500869751
vt 1.0827735662460327 -0.7050846815109253
vt 1.1088212728500366 -0.7842072248458862
vt 1.095502495765686 -0.8564850091934204
vt 1.2337802648544312 -0.6184512376785278
vt 1.0577834844589233 -0.8324257135391235
vt 0.917763888835907 -0.6956820487976074
vt 0.8859047293663025 -0.6874414682388306
vt 0.8822769522666931 -0.6483365297317505
vt 1.0154238939285278 -0.777297854423523
vt 0.86393803358078 -0.6604279279708862
vt 0.8356000781059265 -0.6324673891067505
vt 0.86127108335495 -0.5956350564956665
vt 0.8078011870384216 -0.514623761177063
vt 0.8231248259544373 -0.6735521554946899
vt 0.8628584742546082 -0.6975113153457642
vt 1.3194178342819214 -0.7432363033294678
vt 2.3597030639648438 -1.0963661670684814
vt 2.31115984916687 -0.8901998996734619
vt 2.2873284816741943 -1.0870227813720703
vt 2.397247076034546 -0.9267557859420776
vt 2.538457155227661 -1.086634874343872
vt 2.648287057876587 -0.9200936555862427
vt 2.3613455295562744 -1.2199878692626953
vt 2.2749149799346924 -1.2092554569244385
vt 2.5502333641052246 -1.2119019031524658
vt 2.1447534561157227 -1.0828821659088135
vt 2.081786632537842 -1.1856637001037598
vt 2.061065435409546 -1.0089056491851807
vt 1.9882525205612183 -1.1003119945526123
vt 1.9969996213912964 -0.92560875415802
vt 2.1246800422668457 -0.8397599458694458
vt 1.9398024082183838 -1.002026081085205
vt 1.8401108980178833 -0.7903450727462769
vt 1.7641509771347046 -0.8506652116775513
vt 1.757606863975525 -0.7270575761795044
vt 1.6586743593215942 -0.7752896547317505
vt 1.7313123941421509 -0.5840625762939453
vt 1.9107483625411987 -0.6802014112472534
vt 1.6644083261489868 -0.6929799318313599
vt 1.5744351148605347 -0.7568590641021729
vt 1.6156257390975952 -0.8355041742324829
vt 1.5143637657165527 -0.6966894865036011
vt 1.579420804977417 -0.6096100807189941
vt 1.6875404119491577 -0.49661076068878174
vt 1.5774410963058472 -0.4931598901748657
vt 1.5802468061447144 -0.4097393751144409
vt 1.697245717048645 -0.4198096990585327
vt 1.588807225227356 -0.22361576557159424
vt 1.7250956296920776 -0.24115073680877686
vt 1.866257667541504 -0.48506462574005127
vt 1.8623285293579102 -0.40322911739349365
vt 1.5073647499084473 -0.39013564586639404
vt 1.507055640220642 -0.4981013536453247
vt 1.3616288900375366 -0.7059304714202881
vt 1.4601212739944458 -0.5414477586746216
vt 1.251970648765564 -0.5666882991790771
vt 1.3128587007522583 -0.7042287588119507
vt 1.199243187904358 -0.19617319107055664
vt 0.9851540923118591 -0.11990249156951904
vt 0.5082986950874329 -0.8501935005187988
vt 0.3775363862514496 -0.8223080635070801
vt 0.3310762345790863 -0.8818854093551636
vt 0.35840269923210144 -0.9533405303955078
vt 0.3319755494594574 -0.6742371320724487
vt 0.3582952916622162 -0.4344247579574585
vt 0.6708301901817322 1.0
vt 0.8572880625724792 0.9317613318562508
vt 2.0460541248321533 0.41994309425354004
vt 2.225604295730591 0.45687878131866455
vt 2.180701971054077 0.5850645005702972
vt 2.3301753997802734 0.44320249557495117
vt 2.3703808784484863 0.5707060396671295
vt 2.489002227783203 0.37647801637649536
vt 2.350341558456421 0.1073043942451477
vt 2.2472007274627686 0.18174749612808228
vt 2.446235179901123 0.14245814085006714
vt 2.4574832916259766 -0.030854105949401855
vt 2.5262770652770996 0.09601801633834839
vt 2.532367467880249 -0.06812071800231934
vt 2.6068050861358643 0.3184783458709717
vt 2.439899444580078 -0.06171011924743652
vt 2.5169928073883057 -0.09717667102813721
vt 2.340191125869751 0.06785529851913452
vt 2.2324295043945312 0.1323125958442688
vt 2.183657169342041 0.17550182342529297
vt 2.1370370388031006 -0.02031862735748291
vt 2.1146905422210693 0.018208682537078857
vt 2.062825918197632 -0.018092632293701172
vt 2.0806429386138916 -0.07421696186065674
vt 1.9982713460922241 -0.17668139934539795
vt 2.052460193634033 -0.15300452709197998
vt 1.8892945051193237 -0.0472644567489624
vt 2.0146641731262207 0.12627357244491577
vt 1.7278746366500854 0.1543954610824585
vt 1.906947135925293 0.3598273992538452
vt 2.09892201423645 0.19354921579360962
vt 1.9708492755889893 0.6414413154125214
vt 1.8236380815505981 0.5230505168437958
vt 1.9583927392959595 0.692217081785202
vt 2.1772634983062744 0.7710278779268265
vt 2.1732420921325684 0.7143479883670807
vt 1.7971526384353638 0.5714128911495209
vt 2.3741447925567627 0.7001489698886871
vt 2.3542637825012207 0.7532962709665298
vt 2.5807573795318604 0.6412794888019562
vt 2.5626821517944336 0.592803567647934
vt 2.030545949935913 0.9447103776037693
vt 1.7841078042984009 0.8108024150133133
vt 2.4999215602874756 0.9122466519474983
vt 2.2665317058563232 1.0
vt 1.5506566762924194 0.394267737865448
vt 1.7971526384353638 0.5714128911495209
vt 1.507055640220642 0.7227699458599091
vt 2.5807573795318604 0.6412794888019562
vt 2.7645437717437744 0.5572380125522614
vt 2.79701828956604 0.8298930078744888
vt 2.5626821517944336 0.592803567647934
vt 2.7645437717437744 0.5572380125522614
vt 2.5807573795318604 0.6412794888019562
vt 2.7645437717437744 0.5572380125522614
vt 2.5626821517944336 0.592803567647934
vt 2.7307443618774414 0.49724090099334717
vt 2.489002227783203 0.37647801637649536
vt 2.7307443618774414 0.49724090099334717
vt 2.5626821517944336 0.592803567647934
vt 2.6068050861358643 0.3184783458709717
vt 1.5942350625991821 0.3292894959449768
vt 1.7971526384353638 0.5714128911495209
vt 1.5506566762924194 0.394267737865448
vt 1.7971526384353638 0.5714128911495209
vt 1.5942350625991821 0.3292894959449768
vt 1.8236380815505981 0.5230505168437958
vt 1.7278746366500854 0.1543954610824585
vt 1.8236380815505981 0.5230505168437958
vt 1.5942350625991821 0.3292894959449768
vt 1.8236380815505981 0.5230505168437958
vt 1.7278746366500854 0.1543954610824585
vt 1.906947135925293 0.3598273992538452

g bg_mdl_map_hone04
s 1
usemtl bg_mdl_map_hone04_0
f 3/3/3 2/2/2 1/1/1 
f 4/4/4 3/3/3 1/1/1 
f 4/4/4 5/5/5 3/3/3 
f 6/6/6 3/3/3 5/5/5 
f 3/3/3 6/6/6 7/7/7 
f 8/8/8 7/7/7 6/6/6 
f 5/5/5 4/4/4 9/9/9 
f 10/10/10 9/9/9 4/4/4 
f 4/4/4 1/1/1 10/10/10 
f 9/9/9 10/10/10 11/11/11 
f 12/12/12 11/11/11 10/10/10 
f 7/7/7 8/8/8 13/13/13 
f 14/14/14 13/13/13 8/8/8 
f 13/13/13 14/14/14 15/15/15 
f 16/16/16 15/15/15 14/14/14 
f 6/6/6 17/17/17 8/8/8 
f 18/18/18 8/8/8 17/17/17 
f 8/8/8 18/18/18 14/14/14 
f 5/5/5 19/19/19 6/6/6 
f 17/17/17 6/6/6 19/19/19 
f 9/9/9 20/20/20 5/5/5 
f 19/19/19 5/5/5 20/20/20 
f 11/11/11 21/21/21 9/9/9 
f 20/20/20 9/9/9 21/21/21 
f 14/14/14 22/22/22 16/16/16 
f 22/22/22 14/14/14 18/18/18 
f 23/23/23 16/16/16 22/22/22 
f 17/17/17 24/24/24 18/18/18 
f 17/17/17 19/19/19 24/24/24 
f 25/25/25 18/18/18 24/24/24 
f 18/18/18 25/25/25 22/22/22 
f 26/26/26 24/24/24 19/19/19 
f 20/20/20 27/27/27 19/19/19 
f 26/26/26 19/19/19 27/27/27 
f 21/21/21 28/28/28 20/20/20 
f 27/27/27 20/20/20 28/28/28 
f 22/22/22 29/29/29 23/23/23 
f 29/29/29 22/22/22 25/25/25 
f 30/30/30 23/23/23 29/29/29 
f 31/31/31 29/29/29 25/25/25 
f 24/24/24 32/32/32 25/25/25 
f 26/26/26 33/33/33 24/24/24 
f 27/27/27 28/28/28 34/34/34 
f 27/27/27 35/35/35 26/26/26 
f 30/30/30 29/29/29 36/36/36 
f 13/13/13 38/38/38 37/37/37 
f 39/39/39 37/37/37 38/38/38 
f 7/7/7 13/13/13 37/37/37 
f 40/40/40 7/7/7 37/37/37 
f 41/41/41 7/7/7 40/40/40 
f 13/13/13 15/15/15 38/38/38 
f 42/42/42 38/38/38 15/15/15 
f 7/7/7 41/41/41 3/3/3 
f 3/3/3 41/41/41 2/2/2 
f 44/44/44 43/43/43 10/10/10 
f 12/12/12 10/10/10 43/43/43 
f 12/12/12 43/43/43 45/45/45 
f 46/46/46 12/12/12 45/45/45 
f 47/47/47 12/12/12 46/46/46 
f 10/10/10 1/1/1 44/44/44 
f 50/50/50 49/49/49 48/48/48 
f 51/51/51 48/48/48 49/49/49 
f 51/51/51 52/52/52 48/48/48 
f 53/53/53 48/48/48 52/52/52 
f 52/52/52 54/54/54 53/53/53 
f 55/55/55 53/53/53 54/54/54 
f 53/53/53 55/55/55 56/56/56 
f 57/57/57 56/56/56 55/55/55 
f 54/54/54 52/52/52 58/58/58 
f 59/59/59 58/58/58 52/52/52 
f 58/58/58 59/59/59 60/60/60 
f 61/61/61 60/60/60 59/59/59 
f 56/56/56 57/57/57 62/62/62 
f 63/63/63 62/62/62 57/57/57 
f 62/62/62 63/63/63 64/64/64 
f 65/65/65 64/64/64 63/63/63 
f 55/55/55 66/66/66 57/57/57 
f 55/55/55 54/54/54 66/66/66 
f 67/67/67 57/57/57 66/66/66 
f 68/68/68 66/66/66 54/54/54 
f 54/54/54 58/58/58 68/68/68 
f 69/69/69 68/68/68 58/58/58 
f 58/58/58 60/60/60 69/69/69 
f 70/70/70 69/69/69 60/60/60 
f 65/65/65 63/63/63 71/71/71 
f 72/72/72 71/71/71 63/63/63 
f 67/67/67 72/72/72 57/57/57 
f 63/63/63 57/57/57 72/72/72 
f 61/61/61 59/59/59 73/73/73 
f 74/74/74 73/73/73 59/59/59 
f 59/59/59 52/52/52 74/74/74 
f 51/51/51 74/74/74 52/52/52 
f 64/64/64 75/75/75 62/62/62 
f 51/51/51 49/49/49 74/74/74 
f 76/76/76 67/67/67 66/66/66 
f 76/76/76 66/66/66 77/77/77 
f 68/68/68 77/77/77 66/66/66 
f 77/77/77 68/68/68 69/69/69 
f 77/77/77 78/78/78 76/76/76 
f 79/79/79 76/76/76 78/78/78 
f 80/80/80 79/79/79 78/78/78 
f 79/79/79 80/80/80 81/81/81 
f 82/82/82 80/80/80 78/78/78 
f 83/83/83 80/80/80 82/82/82 
f 81/81/81 80/80/80 84/84/84 
f 84/84/84 80/80/80 85/85/85 
f 81/81/81 86/86/86 79/79/79 
f 76/76/76 79/79/79 86/86/86 
f 81/81/81 84/84/84 86/86/86 
f 82/82/82 78/78/78 87/87/87 
f 77/77/77 87/87/87 78/78/78 
f 82/82/82 87/87/87 83/83/83 
f 86/86/86 67/67/67 76/76/76 
f 87/87/87 77/77/77 69/69/69 
f 87/87/87 69/69/69 70/70/70 
f 83/83/83 87/87/87 70/70/70 
f 86/86/86 72/72/72 67/67/67 
f 84/84/84 72/72/72 86/86/86 
f 84/84/84 71/71/71 72/72/72 
f 85/85/85 71/71/71 84/84/84 
f 56/56/56 88/88/88 53/53/53 
f 48/48/48 53/53/53 88/88/88 
f 88/88/88 56/56/56 89/89/89 
f 62/62/62 89/89/89 56/56/56 
f 89/89/89 62/62/62 75/75/75 
f 48/48/48 88/88/88 50/50/50 

usemtl bg_mdl_map_hone04_1
f 92/92/92 91/91/91 90/90/90 
f 93/93/93 90/90/90 91/91/91 
f 91/91/91 92/92/92 94/94/94 
f 95/95/95 94/94/94 92/92/92 
f 95/95/95 96/96/96 94/94/94 
f 97/97/97 94/94/94 96/96/96 
f 96/96/96 95/95/95 98/98/98 
f 96/96/96 98/98/98 99/99/99 
f 100/100/100 99/99/99 98/98/98 
f 101/101/101 98/98/98 95/95/95 
f 95/95/95 92/92/92 101/101/101 
f 102/102/102 101/101/101 92/92/92 
f 92/92/92 90/90/90 102/102/102 
f 103/103/103 102/102/102 90/90/90 
f 98/98/98 104/104/104 100/100/100 
f 104/104/104 98/98/98 101/101/101 
f 105/105/105 100/100/100 104/104/104 
f 106/106/106 101/101/101 102/102/102 
f 107/107/107 102/102/102 103/103/103 
f 97/97/97 108/108/108 94/94/94 
f 109/109/109 94/94/94 108/108/108 
f 94/94/94 109/109/109 91/91/91 
f 110/110/110 91/91/91 109/109/109 
f 91/91/91 110/110/110 93/93/93 
f 111/111/111 93/93/93 110/110/110 
f 103/103/103 112/112/112 107/107/107 
f 112/112/112 103/103/103 113/113/113 
f 90/90/90 113/113/113 103/103/103 
f 114/114/114 107/107/107 112/112/112 
f 93/93/93 111/111/111 115/115/115 
f 93/93/93 115/115/115 116/116/116 
f 93/93/93 116/116/116 90/90/90 
f 113/113/113 90/90/90 116/116/116 
f 115/115/115 117/117/117 116/116/116 
f 115/115/115 118/118/118 117/117/117 
f 119/119/119 118/118/118 115/115/115 
f 118/118/118 119/119/119 120/120/120 
f 121/121/121 120/120/120 119/119/119 
f 121/121/121 119/119/119 122/122/122 
f 123/123/123 122/122/122 119/119/119 
f 119/119/119 115/115/115 123/123/123 
f 122/122/122 123/123/123 124/124/124 
f 125/125/125 124/124/124 123/123/123 
f 123/123/123 126/126/126 125/125/125 
f 123/123/123 115/115/115 126/126/126 
f 127/127/127 125/125/125 126/126/126 
f 127/127/127 126/126/126 128/128/128 
f 129/129/129 128/128/128 126/126/126 
f 126/126/126 130/130/130 129/129/129 
f 130/130/130 126/126/126 115/115/115 
f 131/131/131 129/129/129 130/130/130 
f 129/129/129 131/131/131 132/132/132 
f 133/133/133 132/132/132 131/131/131 
f 132/132/132 133/133/133 134/134/134 
f 135/135/135 134/134/134 133/133/133 
f 132/132/132 134/134/134 136/136/136 
f 128/128/128 129/129/129 136/136/136 
f 132/132/132 136/136/136 129/129/129 
f 136/136/136 137/137/137 128/128/128 
f 138/138/138 128/128/128 137/137/137 
f 138/138/138 137/137/137 139/139/139 
f 140/140/140 139/139/139 137/137/137 
f 139/139/139 140/140/140 141/141/141 
f 142/142/142 141/141/141 140/140/140 
f 142/142/142 140/140/140 143/143/143 
f 142/142/142 143/143/143 144/144/144 
f 145/145/145 144/144/144 143/143/143 
f 143/143/143 146/146/146 145/145/145 
f 143/143/143 147/147/147 146/146/146 
f 147/147/147 143/143/143 140/140/140 
f 140/140/140 137/137/137 147/147/147 
f 148/148/148 146/146/146 147/147/147 
f 148/148/148 149/149/149 146/146/146 
f 149/149/149 148/148/148 150/150/150 
f 150/150/150 148/148/148 147/147/147 
f 136/136/136 150/150/150 137/137/137 
f 137/137/137 150/150/150 147/147/147 
f 149/149/149 151/151/151 146/146/146 
f 151/151/151 145/145/145 146/146/146 
f 141/141/141 142/142/142 152/152/152 
f 142/142/142 144/144/144 152/152/152 
f 152/152/152 153/153/153 141/141/141 
f 154/154/154 141/141/141 153/153/153 
f 141/141/141 154/154/154 139/139/139 
f 144/144/144 155/155/155 152/152/152 
f 154/154/154 153/153/153 156/156/156 
f 156/156/156 157/157/157 154/154/154 
f 158/158/158 154/154/154 157/157/157 
f 158/158/158 157/157/157 159/159/159 
f 157/157/157 160/160/160 159/159/159 
f 160/160/160 157/157/157 156/156/156 
f 161/161/161 160/160/160 156/156/156 
f 161/161/161 156/156/156 153/153/153 
f 158/158/158 139/139/139 154/154/154 
f 159/159/159 138/138/138 158/158/158 
f 139/139/139 158/158/158 138/138/138 
f 138/138/138 159/159/159 128/128/128 
f 162/162/162 149/149/149 150/150/150 
f 165/165/165 164/164/164 163/163/163 
f 166/166/166 163/163/163 164/164/164 
f 167/167/167 163/163/163 166/166/166 
f 167/167/167 166/166/166 168/168/168 
f 163/163/163 169/169/169 165/165/165 
f 170/170/170 165/165/165 169/169/169 
f 167/167/167 171/171/171 163/163/163 
f 169/169/169 163/163/163 171/171/171 
f 165/165/165 172/172/172 164/164/164 
f 170/170/170 172/172/172 165/165/165 
f 172/172/172 170/170/170 173/173/173 
f 174/174/174 164/164/164 172/172/172 
f 172/172/172 173/173/173 174/174/174 
f 175/175/175 174/174/174 173/173/173 
f 174/174/174 175/175/175 176/176/176 
f 174/174/174 176/176/176 177/177/177 
f 164/164/164 174/174/174 177/177/177 
f 178/178/178 176/176/176 175/175/175 
f 176/176/176 178/178/178 179/179/179 
f 180/180/180 179/179/179 178/178/178 
f 179/179/179 180/180/180 181/181/181 
f 182/182/182 181/181/181 180/180/180 
f 181/181/181 183/183/183 179/179/179 
f 184/184/184 179/179/179 183/183/183 
f 177/177/177 176/176/176 184/184/184 
f 179/179/179 184/184/184 176/176/176 
f 183/183/183 181/181/181 185/185/185 
f 182/182/182 185/185/185 181/181/181 
f 185/185/185 182/182/182 186/186/186 
f 187/187/187 186/186/186 182/182/182 
f 180/180/180 187/187/187 182/182/182 
f 186/186/186 188/188/188 185/185/185 
f 189/189/189 185/185/185 188/188/188 
f 185/185/185 189/189/189 183/183/183 
f 183/183/183 189/189/189 190/190/190 
f 191/191/191 190/190/190 189/189/189 
f 191/191/191 192/192/192 190/190/190 
f 193/193/193 190/190/190 192/192/192 
f 192/192/192 194/194/194 193/193/193 
f 195/195/195 193/193/193 194/194/194 
f 190/190/190 193/193/193 196/196/196 
f 190/190/190 196/196/196 183/183/183 
f 196/196/196 184/184/184 183/183/183 
f 197/197/197 196/196/196 193/193/193 
f 197/197/197 193/193/193 195/195/195 
f 192/192/192 198/198/198 194/194/194 
f 192/192/192 191/191/191 198/198/198 
f 199/199/199 198/198/198 191/191/191 
f 188/188/188 199/199/199 189/189/189 
f 191/191/191 189/189/189 199/199/199 
f 201/201/201 200/200/200 134/134/134 
f 134/134/134 200/200/200 202/202/202 
f 202/202/202 136/136/136 134/134/134 
f 203/203/203 202/202/202 200/200/200 
f 135/135/135 201/201/201 134/134/134 
f 133/133/133 204/204/204 135/135/135 
f 204/204/204 133/133/133 205/205/205 
f 131/131/131 205/205/205 133/133/133 
f 131/131/131 130/130/130 205/205/205 
f 121/121/121 206/206/206 120/120/120 
f 120/120/120 206/206/206 207/207/207 
f 207/207/207 206/206/206 208/208/208 
f 206/206/206 209/209/209 208/208/208 
f 121/121/121 122/122/122 206/206/206 
f 120/120/120 207/207/207 210/210/210 
f 120/120/120 210/210/210 118/118/118 
f 211/211/211 118/118/118 210/210/210 
f 211/211/211 117/117/117 118/118/118 
f 97/97/97 96/96/96 212/212/212 
f 99/99/99 212/212/212 96/96/96 
f 97/97/97 212/212/212 213/213/213 
f 108/108/108 97/97/97 213/213/213 
f 216/216/216 215/215/215 214/214/214 
f 215/215/215 216/216/216 217/217/217 
f 218/218/218 217/217/217 216/216/216 
f 218/218/218 219/219/219 217/217/217 
f 217/217/217 220/220/220 215/215/215 
f 221/221/221 215/215/215 220/220/220 
f 219/219/219 222/222/222 217/217/217 
f 220/220/220 217/217/217 222/222/222 
f 223/223/223 220/220/220 222/222/222 
f 222/222/222 224/224/224 223/223/223 
f 222/222/222 219/219/219 224/224/224 
f 225/225/225 223/223/223 224/224/224 
f 226/226/226 224/224/224 219/219/219 
f 227/227/227 223/223/223 225/225/225 
f 228/228/228 227/227/227 225/225/225 
f 220/220/220 223/223/223 229/229/229 
f 227/227/227 229/229/229 223/223/223 
f 229/229/229 230/230/230 220/220/220 
f 221/221/221 220/220/220 230/230/230 
f 221/221/221 230/230/230 231/231/231 
f 230/230/230 232/232/232 231/231/231 
f 233/233/233 231/231/231 232/232/232 
f 233/233/233 232/232/232 234/234/234 
f 235/235/235 234/234/234 232/232/232 
f 234/234/234 235/235/235 236/236/236 
f 237/237/237 236/236/236 235/235/235 
f 236/236/236 238/238/238 234/234/234 
f 239/239/239 234/234/234 238/238/238 
f 234/234/234 239/239/239 233/233/233 
f 238/238/238 240/240/240 239/239/239 
f 241/241/241 239/239/239 240/240/240 
f 239/239/239 241/241/241 242/242/242 
f 242/242/242 231/231/231 233/233/233 
f 242/242/242 233/233/233 239/239/239 
f 231/231/231 242/242/242 214/214/214 
f 214/214/214 242/242/242 241/241/241 
f 214/214/214 241/241/241 243/243/243 
f 244/244/244 243/243/243 241/241/241 
f 243/243/243 244/244/244 245/245/245 
f 245/245/245 246/246/246 243/243/243 
f 247/247/247 243/243/243 246/246/246 
f 248/248/248 245/245/245 244/244/244 
f 247/247/247 246/246/246 249/249/249 
f 250/250/250 249/249/249 246/246/246 
f 250/250/250 251/251/251 249/249/249 
f 252/252/252 249/249/249 251/251/251 
f 253/253/253 246/246/246 245/245/245 
f 254/254/254 245/245/245 248/248/248 
f 255/255/255 251/251/251 250/250/250 
f 256/256/256 250/250/250 246/246/246 
f 249/249/249 218/218/218 247/247/247 
f 249/249/249 252/252/252 218/218/218 
f 216/216/216 247/247/247 218/218/218 
f 247/247/247 216/216/216 243/243/243 
f 243/243/243 216/216/216 214/214/214 
f 252/252/252 219/219/219 218/218/218 
f 215/215/215 231/231/231 214/214/214 
f 221/221/221 231/231/231 215/215/215 
f 259/259/259 258/258/258 257/257/257 
f 262/262/262 261/261/261 260/260/260 
f 265/265/265 264/264/264 263/263/263 
f 268/268/268 267/267/267 266/266/266 
f 271/271/271 270/270/270 269/269/269 
f 272/272/272 269/269/269 270/270/270 
f 275/275/275 274/274/274 273/273/273 
f 278/278/278 277/277/277 276/276/276 
f 281/281/281 280/280/280 279/279/279 
f 284/284/284 283/283/283 282/282/282 

