v 1.2628702279471327e-06 3.1561262607574463 -2.07353138923645
v 4.4710463953379076e-07 1.9984465837478638 -0.4972795248031616
v 1.106479203372146e-06 2.196204423904419 -2.6907155513763428
v 7.148012173274765e-07 2.895437479019165 -1.0365961790084839
v -1.3186001979192952e-07 -3.90224289894104 -2.6907103061676025
v 1.1414604728088307e-07 0.9830367565155029 0.7657029628753662
v -3.55985264377523e-07 0.07921706140041351 1.1797280311584473
v -5.042974180469173e-07 -1.0730748176574707 2.6907167434692383
v -8.268747251349851e-07 -2.8110804557800293 1.8445771932601929
v -7.594439352942572e-07 -3.902244806289673 1.5972225666046143
v -7.062460554152494e-07 -2.633718729019165 2.6110806465148926
vn -1.0 2.632712323702435e-07 -3.241752040139545e-07
vn -1.0 1.7962820209049823e-07 -2.588949143955688e-07
vn -1.0 2.59691574910903e-07 -2.7719906370293756e-07
vn -1.0 0.0 -5.342783993000921e-07
vn -1.0 1.5092963678853266e-07 -2.010455801837452e-07
vn -1.0 2.2303385094346595e-07 -2.440613116050372e-07
vn -1.0 1.8978452942519652e-07 -2.531353402446257e-07
vn -1.0 1.2051262388013129e-07 0.0
vn -1.0 1.7447332822939643e-07 -1.3009899646476697e-07
vn -1.0 0.0 -1.4636052014793677e-07
vn -1.0 1.2282049510758952e-07 1.289557616246384e-07
vt 0.6037020683288574 0.28690701723098755
vt 0.666908860206604 0.1925014853477478
vt 0.6560682058334351 0.32172250747680664
vt 0.6173397898674011 0.22369158267974854
vt 0.9944983720779419 0.32223784923553467
vt 0.7234934568405151 0.11805689334869385
vt 0.7736247777938843 0.09353232383728027
vt 0.8370135426521301 0.004276752471923828
vt 0.9329658150672913 0.054685771465301514
vt 0.9933825731277466 0.06929701566696167
vt 0.9233368635177612 0.009972810745239258

g bg_mdl_top_town04_05
s 1
usemtl bg_mdl_top_town04_05
f 3/3/3 2/2/2 1/1/1 
f 4/4/4 1/1/1 2/2/2 
f 3/3/3 5/5/5 2/2/2 
f 5/5/5 6/6/6 2/2/2 
f 6/6/6 5/5/5 7/7/7 
f 5/5/5 8/8/8 7/7/7 
f 8/8/8 5/5/5 9/9/9 
f 10/10/10 9/9/9 5/5/5 
f 11/11/11 8/8/8 9/9/9 

