v -0.08727683871984482 3.2168362140655518 -0.6997889280319214
v -0.08727683871984482 1.8107378482818604 0.42402884364128113
v -0.08727683871984482 2.5820605754852295 -1.2633854150772095
v -0.08727683871984482 3.217405319213867 0.12238523364067078
v -0.08727683871984482 0.6617258191108704 0.38468390703201294
v -0.08727683871984482 -0.359657347202301 -1.2633854150772095
v -0.08727683871984482 -3.1037065982818604 1.2633851766586304
v -0.08727683871984482 -3.303694486618042 -0.8310078382492065
v -0.08727683871984482 7.053990840911865 -0.30410778522491455
v -0.08727683871984482 5.4059014320373535 0.0397171787917614
v -0.08727683871984482 5.880395412445068 -0.7792152166366577
v -0.08727683871984482 6.164257526397705 0.5594432950019836
v -0.08727683871984482 3.812593936920166 0.20628787577152252
v -0.08727683871984482 4.578237056732178 -1.1550365686416626
v -0.08727683871984482 3.217405319213867 0.12238523364067078
v -0.08727683871984482 3.2168362140655518 -0.6997889280319214
vn -1.0 0.0 0.0
vn -1.0 0.0 0.0
vn -1.0 0.0 0.0
vn -1.0 0.0 0.0
vn -1.0 0.0 0.0
vn -1.0 0.0 0.0
vn -1.0 0.0 0.0
vn -1.0 0.0 0.0
vn -1.0 0.0 0.0
vn -1.0 0.0 0.0
vn -1.0 0.0 0.0
vn -1.0 0.0 0.0
vn -1.0 0.0 0.0
vn -1.0 0.0 0.0
vn -1.0 0.0 0.0
vn -1.0 0.0 0.0
vt 0.6316562294960022 0.6658235788345337
vt 0.7109455466270447 0.5982159674167633
vt 0.6674509644508362 0.6997287571430206
vt 0.6316240429878235 0.6163625121116638
vt 0.7757378816604614 0.6005828678607941
vt 0.8333332538604736 0.6997287571430206
vt 0.9880691170692444 0.547721266746521
vt 0.9993464350700378 0.6737174093723297
vt 0.3298279941082001 0.6259347498416901
vt 0.4517762064933777 0.5987933278083801
vt 0.4166666865348816 0.6634394824504852
vt 0.3956626355648041 0.5577663779258728
vt 0.5696707963943481 0.5856443047523499
vt 0.5130181312561035 0.6931065917015076
vt 0.6137763261795044 0.5922814607620239
vt 0.6137496829032898 0.6570877134799957

g bg_mdl_top_town04_14
s 1
usemtl bg_mdl_top_town04_14
f 3/3/3 2/2/2 1/1/1 
f 4/4/4 1/1/1 2/2/2 
f 2/2/2 3/3/3 5/5/5 
f 6/6/6 5/5/5 3/3/3 
f 5/5/5 6/6/6 7/7/7 
f 8/8/8 7/7/7 6/6/6 
f 11/11/11 10/10/10 9/9/9 
f 12/12/12 9/9/9 10/10/10 
f 10/10/10 11/11/11 13/13/13 
f 14/14/14 13/13/13 11/11/11 
f 13/13/13 14/14/14 15/15/15 
f 16/16/16 15/15/15 14/14/14 

