v 0.9807851910591125 0.19509032368659973 0.0
v 1.0 0.0 0.0
v 0.5 0.0 0.0
v 0.4903925955295563 0.09754516184329987 0.0
v 0.9238794445991516 0.3826834261417389 0.0
v 0.4619397222995758 0.19134171307086945 0.0
v 0.8314695358276367 0.5555702447891235 0.0
v 0.41573476791381836 0.27778512239456177 0.0
v 0.7071067690849304 0.7071067690849304 0.0
v 0.3535533845424652 0.3535533845424652 0.0
v 0.5555701851844788 0.8314696550369263 0.0
v 0.2777850925922394 0.41573482751846313 0.0
v 0.3826833963394165 0.9238794445991516 0.0
v 0.19134169816970825 0.4619397222995758 0.0
v 0.19509035348892212 0.9807851910591125 0.0
v 0.09754517674446106 0.4903925955295563 0.0
v 7.549790126404332e-08 1.0 0.0
v 3.774895063202166e-08 0.5 0.0
v -0.195090189576149 0.9807852506637573 0.0
v -0.0975450947880745 0.49039262533187866 0.0
v -0.38268324732780457 0.9238795042037964 0.0
v -0.19134162366390228 0.4619397521018982 0.0
v -0.5555701851844788 0.8314696550369263 0.0
v -0.2777850925922394 0.41573482751846313 0.0
v -0.7071067690849304 0.7071067690849304 0.0
v -0.3535533845424652 0.3535533845424652 0.0
v -0.8314696550369263 0.5555701851844788 0.0
v -0.41573482751846313 0.2777850925922394 0.0
v -0.9238796234130859 0.38268324732780457 0.0
v -0.46193981170654297 0.19134162366390228 0.0
v -0.9807852506637573 0.19509008526802063 0.0
v -0.49039262533187866 0.09754504263401031 0.0
v -1.0 -3.2584134146418364e-07 0.0
v -0.5 -1.6292067073209182e-07 0.0
v -0.9807851910591125 -0.19509072601795197 0.0
v -0.4903925955295563 -0.09754536300897598 0.0
v -0.9238793253898621 -0.3826838731765747 0.0
v -0.46193966269493103 -0.19134193658828735 0.0
v -0.8314692378044128 -0.5555707216262817 0.0
v -0.4157346189022064 -0.27778536081314087 0.0
v -0.7071062922477722 -0.7071072459220886 0.0
v -0.3535531461238861 -0.3535536229610443 0.0
v -0.5555696487426758 -0.8314700126647949 0.0
v -0.2777848243713379 -0.41573500633239746 0.0
v -0.3826826810836792 -0.9238798022270203 0.0
v -0.1913413405418396 -0.46193990111351013 0.0
v -0.1950894445180893 -0.9807854294776917 0.0
v -0.09754472225904465 -0.4903927147388458 0.0
v 9.655991561885457e-07 -1.0 0.0
v 4.827995780942729e-07 -0.5 0.0
v 0.1950913369655609 -0.980785071849823 0.0
v 0.09754566848278046 -0.4903925359249115 0.0
v 0.38268446922302246 -0.923879086971283 0.0
v 0.19134223461151123 -0.4619395434856415 0.0
v 0.5555712580680847 -0.831468939781189 0.0
v 0.27778562903404236 -0.4157344698905945 0.0
v 0.707107663154602 -0.7071058750152588 0.0
v 0.353553831577301 -0.3535529375076294 0.0
v 0.8314703106880188 -0.5555691123008728 0.0
v 0.4157351553440094 -0.2777845561504364 0.0
v 0.9238800406455994 -0.38268205523490906 0.0
v 0.4619400203227997 -0.19134102761745453 0.0
v 0.9807854890823364 -0.19508881866931915 0.0
v 0.4903927445411682 -0.09754440933465958 0.0
v -0.0 0.0 0.0
vn -0.0 0.0 1.0
vn -0.0 0.0 1.0
vn -0.0 0.0 1.0
vn -0.0 0.0 1.0
vn -0.0 0.0 1.0
vn -0.0 0.0 1.0
vn -0.0 0.0 1.0
vn -0.0 0.0 1.0
vn -0.0 0.0 1.0
vn -0.0 0.0 1.0
vn -0.0 0.0 1.0
vn -0.0 0.0 1.0
vn -0.0 0.0 1.0
vn -0.0 0.0 1.0
vn -0.0 0.0 1.0
vn -0.0 0.0 1.0
vn -0.0 0.0 1.0
vn -0.0 0.0 1.0
vn -0.0 0.0 1.0
vn -0.0 0.0 1.0
vn -0.0 0.0 1.0
vn -0.0 0.0 1.0
vn -0.0 0.0 1.0
vn -0.0 0.0 1.0
vn -0.0 0.0 1.0
vn -0.0 0.0 1.0
vn -0.0 0.0 1.0
vn -0.0 0.0 1.0
vn -0.0 0.0 1.0
vn -0.0 0.0 1.0
vn -0.0 0.0 1.0
vn -0.0 0.0 1.0
vn -0.0 0.0 1.0
vn -0.0 0.0 1.0
vn -0.0 0.0 1.0
vn -0.0 0.0 1.0
vn -0.0 0.0 1.0
vn -0.0 0.0 1.0
vn -0.0 0.0 1.0
vn -0.0 0.0 1.0
vn -0.0 0.0 1.0
vn -0.0 0.0 1.0
vn -0.0 0.0 1.0
vn -0.0 0.0 1.0
vn -0.0 0.0 1.0
vn -0.0 0.0 1.0
vn -0.0 0.0 1.0
vn -0.0 0.0 1.0
vn -0.0 0.0 1.0
vn -0.0 0.0 1.0
vn -0.0 0.0 1.0
vn -0.0 0.0 1.0
vn -0.0 0.0 1.0
vn -0.0 0.0 1.0
vn -0.0 0.0 1.0
vn -0.0 0.0 1.0
vn -0.0 0.0 1.0
vn -0.0 0.0 1.0
vn -0.0 0.0 1.0
vn -0.0 0.0 1.0
vn -0.0 0.0 1.0
vn -0.0 0.0 1.0
vn -0.0 0.0 1.0
vn -0.0 0.0 1.0
vn -0.0 0.0 1.0
vt 0.9903926253318787 0.4024549722671509
vt 1.0 0.5000001192092896
vt 0.75 0.5000000596046448
vt 0.7451963424682617 0.45122748613357544
vt 0.961939811706543 0.3086583614349365
vt 0.7309699058532715 0.40432918071746826
vt 0.9157348275184631 0.222214937210083
vt 0.7078673839569092 0.3611074686050415
vt 0.8535534739494324 0.14644670486450195
vt 0.6767767667770386 0.323223352432251
vt 0.7777851819992065 0.08426523208618164
vt 0.6388925909996033 0.2921326160430908
vt 0.6913418173789978 0.03806030750274658
vt 0.5956708788871765 0.2690301537513733
vt 0.5975452661514282 0.009607434272766113
vt 0.5487726330757141 0.25480371713638306
vt 0.5000001788139343 0.0
vt 0.5000000596046448 0.25
vt 0.40245503187179565 0.009607315063476562
vt 0.4512275159358978 0.2548036575317383
vt 0.3086584806442261 0.03806018829345703
vt 0.40432924032211304 0.2690300941467285
vt 0.22221499681472778 0.08426511287689209
vt 0.3611074984073639 0.29213255643844604
vt 0.14644670486450195 0.14644652605056763
vt 0.323223352432251 0.3232232332229614
vt 0.08426523208618164 0.22221481800079346
vt 0.2921326160430908 0.36110740900039673
vt 0.03806024789810181 0.308658242225647
vt 0.2690301239490509 0.4043291211128235
vt 0.009607404470443726 0.40245485305786133
vt 0.25480371713638306 0.45122742652893066
vt 0.0 0.5000000298023224
vt 0.25 0.5000000298023224
vt 0.009607374668121338 0.5975452363491058
vt 0.25480368733406067 0.5487726330757141
vt 0.038060277700424194 0.6913418173789978
vt 0.2690301537513733 0.5956709086894989
vt 0.0842653214931488 0.7777852714061737
vt 0.2921326756477356 0.638892650604248
vt 0.14644676446914673 0.8535535335540771
vt 0.32322338223457336 0.6767767667770386
vt 0.22221508622169495 0.9157349467277527
vt 0.3611075282096863 0.7078674733638763
vt 0.30865854024887085 0.9619398415088654
vt 0.4043292701244354 0.7309699058532715
vt 0.4024551510810852 0.9903926849365234
vt 0.4512275755405426 0.7451963424682617
vt 0.5000003576278687 1.0
vt 0.5000001788139343 0.75
vt 0.5975455641746521 0.9903925657272339
vt 0.5487727522850037 0.7451962828636169
vt 0.6913421154022217 0.9619396030902863
vt 0.5956710577011108 0.7309697866439819
vt 0.7777855396270752 0.9157345294952393
vt 0.6388927698135376 0.7078672647476196
vt 0.8535537719726562 0.8535530269145966
vt 0.6767768859863281 0.6767765283584595
vt 0.915735125541687 0.7777846455574036
vt 0.7078675627708435 0.6388923227787018
vt 0.9619399309158325 0.6913411319255829
vt 0.7309699654579163 0.5956705808639526
vt 0.9903926849365234 0.5975445210933685
vt 0.7451963424682617 0.5487722754478455
vt 0.5 0.5

g eff_mdl_ring14
s 1
usemtl eff_mdl_ring14
f 3/3/3 2/2/2 1/1/1 
f 4/4/4 3/3/3 1/1/1 
f 4/4/4 1/1/1 5/5/5 
f 6/6/6 4/4/4 5/5/5 
f 6/6/6 5/5/5 7/7/7 
f 8/8/8 6/6/6 7/7/7 
f 8/8/8 7/7/7 9/9/9 
f 10/10/10 8/8/8 9/9/9 
f 10/10/10 9/9/9 11/11/11 
f 12/12/12 10/10/10 11/11/11 
f 12/12/12 11/11/11 13/13/13 
f 14/14/14 12/12/12 13/13/13 
f 14/14/14 13/13/13 15/15/15 
f 16/16/16 14/14/14 15/15/15 
f 16/16/16 15/15/15 17/17/17 
f 18/18/18 16/16/16 17/17/17 
f 18/18/18 17/17/17 19/19/19 
f 20/20/20 18/18/18 19/19/19 
f 20/20/20 19/19/19 21/21/21 
f 22/22/22 20/20/20 21/21/21 
f 22/22/22 21/21/21 23/23/23 
f 24/24/24 22/22/22 23/23/23 
f 24/24/24 23/23/23 25/25/25 
f 26/26/26 24/24/24 25/25/25 
f 26/26/26 25/25/25 27/27/27 
f 28/28/28 26/26/26 27/27/27 
f 28/28/28 27/27/27 29/29/29 
f 30/30/30 28/28/28 29/29/29 
f 30/30/30 29/29/29 31/31/31 
f 32/32/32 30/30/30 31/31/31 
f 32/32/32 31/31/31 33/33/33 
f 34/34/34 32/32/32 33/33/33 
f 34/34/34 33/33/33 35/35/35 
f 36/36/36 34/34/34 35/35/35 
f 36/36/36 35/35/35 37/37/37 
f 38/38/38 36/36/36 37/37/37 
f 38/38/38 37/37/37 39/39/39 
f 40/40/40 38/38/38 39/39/39 
f 40/40/40 39/39/39 41/41/41 
f 42/42/42 40/40/40 41/41/41 
f 42/42/42 41/41/41 43/43/43 
f 44/44/44 42/42/42 43/43/43 
f 44/44/44 43/43/43 45/45/45 
f 46/46/46 44/44/44 45/45/45 
f 46/46/46 45/45/45 47/47/47 
f 48/48/48 46/46/46 47/47/47 
f 48/48/48 47/47/47 49/49/49 
f 50/50/50 48/48/48 49/49/49 
f 50/50/50 49/49/49 51/51/51 
f 52/52/52 50/50/50 51/51/51 
f 52/52/52 51/51/51 53/53/53 
f 54/54/54 52/52/52 53/53/53 
f 54/54/54 53/53/53 55/55/55 
f 56/56/56 54/54/54 55/55/55 
f 56/56/56 55/55/55 57/57/57 
f 58/58/58 56/56/56 57/57/57 
f 58/58/58 57/57/57 59/59/59 
f 60/60/60 58/58/58 59/59/59 
f 60/60/60 59/59/59 61/61/61 
f 62/62/62 60/60/60 61/61/61 
f 62/62/62 61/61/61 63/63/63 
f 64/64/64 62/62/62 63/63/63 
f 64/64/64 63/63/63 2/2/2 
f 3/3/3 64/64/64 2/2/2 
f 65/65/65 52/52/52 54/54/54 
f 65/65/65 54/54/54 56/56/56 
f 65/65/65 56/56/56 58/58/58 
f 65/65/65 58/58/58 60/60/60 
f 65/65/65 60/60/60 62/62/62 
f 65/65/65 62/62/62 64/64/64 
f 65/65/65 64/64/64 3/3/3 
f 65/65/65 3/3/3 4/4/4 
f 65/65/65 4/4/4 6/6/6 
f 65/65/65 6/6/6 8/8/8 
f 65/65/65 8/8/8 10/10/10 
f 65/65/65 10/10/10 12/12/12 
f 65/65/65 12/12/12 14/14/14 
f 65/65/65 14/14/14 16/16/16 
f 65/65/65 16/16/16 18/18/18 
f 65/65/65 18/18/18 20/20/20 
f 65/65/65 20/20/20 22/22/22 
f 65/65/65 22/22/22 24/24/24 
f 65/65/65 24/24/24 26/26/26 
f 65/65/65 26/26/26 28/28/28 
f 65/65/65 28/28/28 30/30/30 
f 65/65/65 30/30/30 32/32/32 
f 65/65/65 32/32/32 34/34/34 
f 65/65/65 34/34/34 36/36/36 
f 65/65/65 36/36/36 38/38/38 
f 65/65/65 38/38/38 40/40/40 
f 65/65/65 40/40/40 42/42/42 
f 65/65/65 42/42/42 44/44/44 
f 65/65/65 44/44/44 46/46/46 
f 65/65/65 46/46/46 48/48/48 
f 65/65/65 48/48/48 50/50/50 
f 65/65/65 50/50/50 52/52/52 

