v -0.05802677199244499 0.0238245390355587 1.0203169584274292
v -0.03251766040921211 1.02582848072052 0.3622848093509674
v -1.067806601524353 0.38024693727493286 0.7203742861747742
v 0.5531141757965088 0.6429454684257507 0.5297978520393372
v -0.4223160445690155 0.7201032638549805 0.7751224637031555
v -0.8114465475082397 0.9380300045013428 -0.060298822820186615
v -0.6621022820472717 0.6074331402778625 0.4389141798019409
v -0.6598179936408997 0.346543550491333 -1.0
v 0.2812097668647766 -1.0 0.09846869856119156
v 1.0 0.06184486299753189 0.07787582278251648
v -0.05576610565185547 0.07832340151071548 0.9927642345428467
v -0.01924888603389263 1.019690752029419 0.7911126613616943
v -1.0617364645004272 0.7807574272155762 0.6045549511909485
v -0.8598993420600891 0.43951740860939026 0.25961026549339294
v -0.727653980255127 0.6779780387878418 0.9872681498527527
v -0.5457738637924194 0.9919863939285278 -0.12534494698047638
v -0.9421747922897339 -0.3261547088623047 0.07700558006763458
v 0.329166442155838 0.7306979894638062 -1.0
v -0.818314254283905 -1.0 0.11625216901302338
v 1.0 0.0631011575460434 0.0905013233423233
v -0.06275653839111328 0.07993675023317337 0.9828432202339172
v -0.053210485726594925 0.9579989314079285 0.6876547932624817
v -0.897088885307312 0.7741253972053528 0.529291033744812
v -0.7751280665397644 0.5216156840324402 0.3565017879009247
v -0.5373200178146362 0.33741068840026855 -0.23492158949375153
v -0.7420315742492676 -0.3448287546634674 -0.6701276898384094
v 0.36816293001174927 -0.6562850475311279 0.6585940718650818
v 0.670868456363678 0.6546260714530945 1.0
v -0.6566271781921387 1.0 0.06238403171300888
v -1.0 0.06511333584785461 0.0787651389837265
v -0.12618671357631683 0.046636465936899185 0.9785712361335754
v -0.020297011360526085 0.9476230144500732 0.5822282433509827
v -0.9190919995307922 0.6437490582466125 0.6206033229827881
v -0.5490320324897766 0.6597486734390259 0.5131233334541321
v -0.5217368006706238 0.7656058073043823 0.6432832479476929
v -0.5815790295600891 0.49288421869277954 0.36164623498916626
v -0.5361490249633789 0.6438607573509216 -0.5458824038505554
v -0.5545384287834167 -0.6439992785453796 -1.0
v 0.3976091742515564 -1.0 0.0553775392472744
v 1.0 -0.0009723281837068498 0.11747932434082031
v 0.01484424527734518 0.10316329449415207 1.0017386674880981
v -0.08182349801063538 0.9915445446968079 0.2418081909418106
v -0.9861366748809814 0.49040019512176514 0.747031569480896
v -0.29501739144325256 0.8198589086532593 0.49070972204208374
v -0.5735366344451904 0.8063435554504395 0.8191706538200378
v -0.5050036311149597 0.733386754989624 0.23107433319091797
v -0.8410302996635437 0.5092262625694275 -0.18263819813728333
v -0.02021927572786808 -0.7817507982254028 1.0
v 0.7808408737182617 1.0 -0.004753760993480682
v -1.0 0.027264347299933434 0.13887710869312286
v -0.06552913784980774 0.08720000833272934 0.9800588488578796
v -0.08590511232614517 0.987808346748352 0.685650646686554
v -0.9876050353050232 0.4618086516857147 0.4913274347782135
v -0.37404128909111023 0.4944210648536682 0.7846278548240662
v -0.31498631834983826 0.9267402291297913 -0.8686598539352417
v -0.9085037708282471 -0.9017168879508972 -0.24454033374786377
v 0.8169836401939392 0.06631845980882645 0.5728347301483154
v 0.09590650349855423 0.38756227493286133 -1.0
v -0.7762916088104248 -1.0 -0.010770263150334358
v 1.0 0.05862228199839592 0.08583736419677734
v -0.12034591287374496 0.07858306914567947 0.9272478818893433
v -0.10482486337423325 0.9355836510658264 0.649506151676178
v -0.9739425182342529 0.5905096530914307 0.3723282814025879
v -0.6758440732955933 0.2152353972196579 0.704917311668396
v -0.5965191125869751 0.7355236411094666 0.7985309362411499
v -0.5868432521820068 0.8632619380950928 -0.45352697372436523
v -0.8981180787086487 -0.23443780839443207 0.37205207347869873
v 0.05880597606301308 0.4186345040798187 -1.0
v -0.34895214438438416 -1.0 0.1391681283712387
v 1.0 0.08368861675262451 0.15794304013252258
v -0.11663100868463516 0.1259784698486328 0.8769623637199402
v -0.1738685518503189 0.8277286887168884 0.2448876053094864
v -0.8606285452842712 -0.16022144258022308 0.929847002029419
v 0.1530635803937912 0.9448336362838745 0.28958767652511597
v -0.7868564128875732 0.3089636266231537 0.7951157093048096
v -0.259590744972229 0.8931058049201965 -0.37556716799736023
v -0.835469126701355 -0.5139485001564026 0.19454607367515564
v 0.5857572555541992 0.09216084331274033 -1.0
v -0.08087010681629181 -1.0 0.09753436595201492
v 1.0 0.14153781533241272 0.15519604086875916
v -0.14635047316551208 0.16064044833183289 0.6940022110939026
v -0.19633831083774567 0.6897897124290466 0.26148340106010437
v -0.6860383749008179 0.1528012454509735 0.9664160013198853
v -0.4548014998435974 0.8617644906044006 0.22476105391979218
v -0.9543867111206055 0.15689168870449066 0.921585738658905
v -0.36393728852272034 0.7349869608879089 -0.6637254357337952
v -0.90096515417099 -0.36871811747550964 0.22871103882789612
v 0.4067704677581787 0.05302482098340988 -1.0
v 0.02165107987821102 -1.0 0.22658255696296692
v 1.0 0.26620781421661377 0.13353896141052246
v -0.07345111668109894 0.2018887996673584 0.642832338809967
v -0.21845203638076782 0.6376997232437134 0.40479588508605957
v -0.6850264072418213 0.29603391885757446 0.8995974659919739
v -0.11110524088144302 0.9786034226417542 0.17317919433116913
v -0.9082828760147095 0.34352877736091614 0.9055404663085938
v -0.45133092999458313 0.4962868392467499 -0.8574224710464478
v -0.773496150970459 -0.6321388483047485 0.045872174203395844
v -0.010554194450378418 0.3100467324256897 -1.0
v 0.11035837978124619 -1.0 0.1757970005273819
v 1.0 0.1448344737291336 0.1133229061961174
v -0.15405268967151642 0.08978385478258133 0.863643229007721
v -0.004324111621826887 1.066460132598877 -0.3507288992404938
v -1.0242329835891724 -0.3192497193813324 -0.6448087096214294
v -0.6613227128982544 -0.5170016884803772 -0.5434718728065491
v 0.6406166553497314 -0.5169164538383484 0.7808675169944763
v 0.7120378017425537 0.8272570371627808 0.4408828914165497
v -0.9605735540390015 -0.06734943389892578 -0.2697455585002899
v -0.5692406892776489 0.4679262340068817 1.0
v -0.3633272349834442 1.0 0.08340045809745789
v -1.0 0.0962376743555069 0.0032580564729869366
v -0.05974014103412628 0.07690192759037018 0.9907488226890564
v -0.07721134275197983 0.9925671815872192 0.7399533987045288
v -1.0190118551254272 -0.7953987717628479 -0.5452116131782532
v 0.7896113395690918 -0.5948064923286438 -0.15072892606258392
v 0.454325795173645 -0.2722771465778351 0.49381107091903687
v 0.660401463508606 0.9839056134223938 -0.17501020431518555
v -0.9897550940513611 -0.14208461344242096 -0.01402914710342884
v 0.270253449678421 -0.0444876067340374 1.0
v -0.7609240412712097 1.0 0.12130504101514816
v -1.0 0.06200912222266197 0.08444102853536606
v -0.06188804656267166 0.08916804939508438 0.9756712913513184
v -0.07946155220270157 0.980950117111206 -0.49826639890670776
v -0.9568730592727661 -0.6882610321044922 -0.5291968584060669
v 0.77443927526474 -0.5290692448616028 -0.3468852937221527
v 0.5214064121246338 -0.3561969995498657 -0.2161492556333542
v 0.3369743227958679 -0.2333073765039444 -0.2531440556049347
v 0.34848350286483765 -0.6708325743675232 0.6546318531036377
v 0.6565703749656677 0.6585177183151245 -1.0
v -0.6572869420051575 -1.0 0.12447597086429596
v 1.0 0.061499401926994324 0.07159965485334396
v -0.06421508640050888 0.07724384218454361 0.9857251048088074
v -0.04627246782183647 0.9180560111999512 -0.6441299319267273
v -0.9461772441864014 -0.5819030404090881 -0.5035918951034546
v 0.48589804768562317 -0.5062479972839355 -0.7124717235565186
v 0.6616247296333313 -0.5111674666404724 0.37821418046951294
v 0.7643706798553467 0.6479000449180603 0.4410970211029053
v -0.487076997756958 0.3644838035106659 -0.7936670780181885
v -0.6432097554206848 -0.5446465611457825 1.0
v 0.6440748572349548 1.0 0.060598332434892654
v -1.0 -0.015180549584329128 0.10268134623765945
v 0.0016764450119808316 0.11619888246059418 0.9946799874305725
v -0.08385086059570312 0.9867163896560669 -0.4322092831134796
v -0.9897386431694031 -0.23457355797290802 -0.22501647472381592
v 0.4941409230232239 -0.7500925660133362 -0.43952906131744385
v 0.8237305283546448 -0.4831196665763855 0.7371623516082764
v 0.8072893023490906 0.8297378420829773 0.3743817210197449
v -0.742341935634613 0.21904729306697845 -0.6332035660743713
v -0.4955778121948242 -0.17372649908065796 1.0
v 0.7817226052284241 -1.0 0.01456684060394764
v 1.0 0.04275913164019585 0.14147526025772095
v -0.0257477555423975 0.13754844665527344 0.9809594750404358
v -0.08614169806241989 0.9786450266838074 -0.6858697533607483
v -0.9863015413284302 -0.6858698129653931 -0.4863101541996002
v 0.20186057686805725 -0.3117219805717468 -0.9284834861755371
v 0.49424341320991516 -0.7846049666404724 -0.8070625066757202
v 0.7396001219749451 -0.794542133808136 -0.14290916919708252
v 0.9083375334739685 -0.2323664128780365 0.3477482199668884
v -0.0904107540845871 0.5538286566734314 1.0
v -0.3750385344028473 1.0 0.027147749438881874
v -1.0 -0.012005462311208248 0.18189933896064758
v -0.0569659024477005 0.08446162939071655 0.9819889664649963
v -0.07113757729530334 0.9722641706466675 -0.5899183750152588
v -0.9342008829116821 -0.6510406732559204 -0.4714322090148926
v 0.7429665327072144 -0.3173213303089142 -0.5893283486366272
v 0.21372105181217194 -0.705349862575531 0.4896549880504608
v 0.734377384185791 0.8064576387405396 -0.5772896409034729
v -0.8629909753799438 -0.4541923701763153 0.22125960886478424
v 0.23244281113147736 0.3700757622718811 1.0
v -0.4202196002006531 1.0 0.04155336320400238
v -1.0 0.13732756674289703 0.0832328051328659
v -0.0830012857913971 0.15587764978408813 0.8782766461372375
v -0.124241404235363 0.8761720061302185 -0.6214641332626343
v -0.8269860148429871 -0.2455853670835495 -0.9158520102500916
v -0.16398967802524567 -0.9294500946998596 -0.3304995596408844
v 0.944337010383606 -0.28958383202552795 0.9354149699211121
v 0.30844542384147644 0.7949708700180054 -0.5926653742790222
v -0.8924239873886108 -0.37573933601379395 0.24979844689369202
v 0.5135053992271423 0.19014503061771393 1.0
v -0.08771832287311554 1.0 0.14877136051654816
v -1.0 0.0967678427696228 0.18955130875110626
v -0.14067816734313965 0.1530788391828537 0.7352774143218994
v -0.1585254967212677 0.6935585141181946 -0.3017253875732422
v -0.6894575357437134 -0.26009392738342285 -0.9508345127105713
v 0.15193964540958405 -0.9666252732276917 -0.20627637207508087
v 0.8615225553512573 -0.2258605808019638 0.8358938694000244
v 0.1567184329032898 0.9201326966285706 -0.2898845374584198
v -0.7373685240745544 -0.6613590121269226 0.13744789361953735
v 0.36630338430404663 0.2288358360528946 1.0
v -0.04269487410783768 1.0 0.21727442741394043
v -1.0 0.22518348693847656 0.11417556554079056
v -0.26514169573783875 0.13221457600593567 0.6672358512878418
v -0.19967108964920044 0.6422899961471558 -0.2368951439857483
v -0.6368464231491089 -0.40003907680511475 -0.8365749716758728
v 0.29536673426628113 -0.8999069929122925 -0.3208206295967102
v 0.9787276387214661 -0.17265819013118744 0.949296236038208
v 0.34396129846572876 0.9068756699562073 -0.3350514769554138
v -0.4930059611797333 -0.8573523759841919 -0.14795981347560883
v 0.6295830607414246 0.03963649645447731 1.0
v -0.3138173222541809 1.0 0.19053500890731812
v -1.0 0.17420761287212372 0.10609927773475647
v -0.14321261644363403 0.11196037381887436 0.867069661617279
v -0.08920356631278992 0.8625869750976562 -0.8120298981666565
v -0.9749388694763184 0.2939727306365967 -0.6651526689529419
v 0.007847405038774014 0.7434042692184448 -0.6687963008880615
v 0.5402414798736572 -0.5762240886688232 -0.7506603002548218
v 0.819021463394165 -0.833317756652832 0.06688874959945679
v 0.8089532852172852 -0.28502699732780457 -0.5141538381576538
v -0.19242486357688904 0.20237410068511963 1.0
v -0.6863706707954407 1.0 -0.031500302255153656
v -1.0 -0.03971115127205849 -0.07754684239625931
v 0.03833986073732376 -0.07271896302700043 0.9938614964485168
v 0.0660623162984848 0.9940031170845032 -0.8416179418563843
v -0.997069239616394 -0.8679928779602051 0.4719008207321167
v 0.8511985540390015 0.025954650714993477 0.5242016911506653
v -0.4055750370025635 0.17348229885101318 -0.41712674498558044
v -0.367714524269104 -0.6167442798614502 -0.46530410647392273
v 0.48016852140426636 -0.43431147933006287 -0.7621100544929504
v 0.1893208622932434 -0.30451470613479614 1.0
v 0.07333135604858398 1.0 0.019430790096521378
v -1.0 0.034487534314394 -0.04503112658858299
v -0.03809026628732681 -0.04851241782307625 1.0203771591186523
v 0.054010313004255295 1.0084129571914673 0.7846813201904297
v -1.0010167360305786 0.9680640697479248 0.2000049501657486
v -0.9212731122970581 -0.2515062987804413 -0.2966485619544983
v 0.8309412002563477 0.48014459013938904 -0.7597888112068176
v 0.6864051818847656 -0.9411433339118958 -0.07609745115041733
v 0.7894678115844727 -0.3959560990333557 -0.4689982533454895
v 0.7370719909667969 -0.5582056045532227 -1.0
v 0.23021773993968964 -1.0 0.002425231970846653
v 1.0 0.028163108974695206 -0.05107482895255089
v -0.04029279574751854 -0.054010313004255295 1.0084129571914673
v 0.04851241782307625 1.0203771591186523 0.8987307548522949
v -1.02413809299469 0.5720116496086121 0.30225518345832825
v -0.9680640697479248 0.2000049501657486 0.15116240084171295
v -0.6442141532897949 0.6909482479095459 -0.8505889773368835
v -0.8767561912536621 -0.7113978266716003 -0.6547653079032898
v 0.7175738215446472 -0.62698894739151 -0.3032699525356293
v 0.4766238331794739 0.28231409192085266 -1.0
v 0.18960297107696533 -1.0 -0.007587031926959753
v 1.0 -0.016515789553523064 -0.043656766414642334
v 0.020375346764922142 -0.04512077197432518 1.0172032117843628
v 0.052615582942962646 1.0159893035888672 -0.3932425379753113
v -1.0093666315078735 -0.25781357288360596 -0.5613116025924683
v 0.459484726190567 -0.5063801407814026 0.7296937108039856
v -0.4719008207321167 0.15458932518959045 -0.36821049451828003
v 0.20041672885417938 -0.36659109592437744 -0.8029904365539551
v 0.3122885525226593 -0.42518407106399536 -0.8495259881019592
v 0.47934940457344055 -0.74068284034729 -1.0
v 0.7614250779151917 -1.0 -0.02160150557756424
v 1.0 -0.03971115127205849 -0.07754684239625931
v 0.031500302255153656 -0.08096466213464737 0.9812971949577332
v 0.08405730873346329 0.9759500026702881 -0.7265080213546753
v -0.9828965663909912 -0.1353352814912796 -0.8943297266960144
v -0.20294353365898132 -0.9202420115470886 0.3346168100833893
v 0.6839694380760193 -0.674002468585968 -0.8263882994651794
v 0.6010565757751465 -0.8147107362747192 -0.4424324929714203
v 0.8390659689903259 -0.325252503156662 -0.43609538674354553
v 0.2601760923862457 -0.4426785409450531 -1.0
v -0.6361655592918396 1.0 0.05352317541837692
v -1.0 0.036830462515354156 -0.0815652459859848
v -0.03375654295086861 -0.06175750494003296 0.9840822219848633
v 0.0632920041680336 0.9925916790962219 -0.8654254078865051
v -1.0055692195892334 -0.841648519039154 0.039339013397693634
v 0.5767293572425842 0.4954448640346527 0.6495518684387207
v -0.5156412124633789 0.6756764650344849 0.8467733263969421
v -0.7847936749458313 0.8959861993789673 -0.2901303172111511
v 0.4753131568431854 -0.33779218792915344 0.8123877644538879
v 0.15007485449314117 0.987103283405304 1.0
v -0.6547650694847107 1.0 0.07881244271993637
v -1.0 0.08153526484966278 -0.03616439923644066
v -0.08775802701711655 -0.03826599195599556 0.9889186024665833
v 0.04443008452653885 0.9817200303077698 0.9516045451164246
v -0.9722924828529358 0.9664828181266785 -0.06566675752401352
v -0.8301687836647034 -0.05063074454665184 -0.5552083253860474
v 0.4582149386405945 -0.5280777812004089 0.3657398819923401
v 0.6081359386444092 -0.7868155241012573 0.18447932600975037
v 0.42655593156814575 0.7456362843513489 -0.511934220790863
v -0.15840736031532288 -0.17998741567134857 1.0
v -0.17463630437850952 1.0 0.047881774604320526
v 1.0 0.033234670758247375 -0.07388824224472046
v -0.036830462515354156 -0.0815652459859848 0.9711315631866455
v 0.08513854444026947 0.9653996825218201 -0.45089083909988403
v -0.9589456915855408 0.03321639448404312 -0.6545798182487488
v 0.21879252791404724 -0.7369642853736877 0.6395416259765625
v -0.07156010717153549 -0.4321151077747345 -0.34440290927886963
v 0.008055011741816998 -0.312164843082428 0.5265469551086426
v -0.18542993068695068 0.9577566385269165 0.21981382369995117
v -0.6814393997192383 0.4819386303424835 -1.0
v -0.7246957421302795 -1.0 0.06339435279369354
v 1.0 0.06807895749807358 -0.07716292887926102
v -0.07573722302913666 -0.07276245206594467 0.9694221019744873
v 0.07668212801218033 0.9601967930793762 0.28116196393966675
v -0.9606841802597046 0.7149636149406433 -0.4582149386405945
v -0.8301687836647034 -0.05063074454665184 -0.5552083253860474
v 0.610874593257904 0.3972615599632263 -0.35447731614112854
v -0.4433900713920593 -0.3701325058937073 0.25005412101745605
v -0.2567283809185028 0.24254295229911804 0.9355552196502686
v -0.5596708655357361 0.8030948638916016 -1.0
v -0.7878987789154053 -1.0 0.08775802701711655
v 1.0 0.07880759984254837 -0.0483715794980526
v -0.07406886667013168 -0.043998945504426956 1.0004258155822754
v 0.04176292195916176 1.0046664476394653 0.43739238381385803
v -1.0050204992294312 0.3959190249443054 0.6330798864364624
v -0.22705018520355225 0.9646419286727905 0.13384373486042023
v -0.6211481094360352 0.5718225836753845 -0.8366937041282654
v -0.544131875038147 -0.7982160449028015 0.26325979828834534
v 0.7091509699821472 0.38887766003608704 0.5881147384643555
v -0.7157108187675476 0.44649529457092285 -1.0
v 0.3471413850784302 -1.0 0.046335067600011826
v 1.0 0.04060445725917816 -0.03833511099219322
v -0.05662399157881737 0.07905994355678558 0.9780147075653076
v -0.0884862095117569 0.9958716630935669 -0.7353255152702332
v -0.9877502918243408 -0.594491183757782 0.7893197536468506
v 0.49508973956108093 -0.29942604899406433 0.8156164884567261
v 0.7283939123153687 0.6846536993980408 0.6337583661079407
v 0.3733397126197815 0.8354911208152771 -0.10764487832784653
v -0.8291370868682861 -0.19625820219516754 0.523463785648346
v -0.6586568355560303 0.6668172478675842 1.0
v 0.26346442103385925 1.0 0.07051505893468857
v -1.0 0.06941066682338715 0.07632198184728622
v -0.07051505893468857 0.07226737588644028 0.9917979836463928
v -0.07587962597608566 0.9840161204338074 0.8445332646369934
v -0.9864437580108643 0.7674886584281921 0.31515082716941833
v -0.5715365409851074 0.48855122923851013 0.6592903137207031
v -0.4595121145248413 0.4740912914276123 0.13256524503231049
v -0.8352259993553162 0.24194949865341187 0.8878325819969177
v 0.36575257778167725 0.6789503693580627 -0.6365935206413269
v -0.4953399896621704 -0.8633923530578613 -1.0
v 0.6666359901428223 -1.0 0.06273719668388367
v 1.0 0.061108969151973724 0.09933635592460632
v -0.05458354949951172 0.09656551480293274 0.9877502918243408
v -0.09427013248205185 0.9894433617591858 0.29926133155822754
v -0.9958716630935669 -0.7353255152702332 0.2706570327281952
v -0.24862803518772125 0.5371809005737305 0.8059905767440796
v 0.29942604899406433 0.8156164884567261 -0.1493540108203888
v -0.8789902329444885 0.21173246204853058 0.8856942057609558
v -0.5847421288490295 0.5667063593864441 0.5804486870765686
v -0.0 0.0 -1.0
v -0.0 -1.0 0.051272545009851456
v 1.0 0.055709149688482285 0.07896331697702408
v -0.0636044293642044 0.07145500183105469 0.9980791807174683
v -0.10040073096752167 0.978988766670227 0.0985042080283165
v -0.9748595952987671 -0.5384554862976074 -0.583807647228241
v 0.8861575722694397 -0.034067168831825256 0.46213001012802124
v -0.5097590088844299 0.10133640468120575 1.0
v 0.3691376745700836 1.0 0.0
v -1.0 0.0 0.0
v -0.5232442617416382 0.11470002681016922 0.5435415506362915
v -0.2281169444322586 0.47026529908180237 0.25072863698005676
v -0.5323483943939209 0.19929033517837524 0.3644688129425049
v -0.29920804500579834 0.3477797210216522 0.2636403441429138
v -0.277678519487381 0.24569779634475708 0.21557894349098206
v -0.9092414379119873 0.8711695671081543 0.9565480947494507
v -0.9247068762779236 0.5551702380180359 0.8585360646247864
v -0.4830951988697052 0.803301215171814 0.3584880828857422
v -0.431998610496521 0.3265574276447296 0.3159483075141907
v -0.9873502850532532 0.9975165724754333 0.8648748993873596
v -0.8835485577583313 0.5585595369338989 0.9388855695724487
v -0.4753439128398895 0.896713376045227 0.5077207088470459
v -0.8496586084365845 0.7973138689994812 0.8342587947845459
v -0.6852414608001709 0.8644658327102661 0.8618403077125549
v -0.6090454459190369 0.46369922161102295 0.49948400259017944
v -0.8011068105697632 0.4420090317726135 0.5850322842597961
v -0.19944995641708374 0.593174159526825 0.06877021491527557
v -0.8274229764938354 0.04029199481010437 0.9311034083366394
v -0.21869739890098572 0.4155217707157135 0.29162710905075073
v -0.8869028687477112 0.31869956851005554 0.8665396571159363
v -0.44702258706092834 0.1294562667608261 0.4585137963294983
v -0.16630442440509796 0.5349457263946533 0.2281169444322586
v -0.45395487546920776 0.2757945656776428 0.5323483943939209
v -0.2636403441429138 0.3559773862361908 0.29920804500579834
v -0.3159483075141907 0.22447219491004944 0.277678519487381
v -0.9878619909286499 0.879987359046936 0.9092414379119873
v -0.9388855695724487 0.5183927416801453 0.8835485577583313
v -0.5077207088470459 0.9815014600753784 0.4830951988697052
v -0.4527462422847748 0.37160637974739075 0.431998610496521
v -0.8648748993873596 0.9505414366722107 0.9873502850532532
v -0.77190762758255 0.6064003705978394 0.9247068762779236
v -0.5137448906898499 0.7942103743553162 0.4753439128398895
v -0.7213518023490906 0.8423855304718018 0.7138059139251709
v -0.5712136030197144 0.7369751334190369 0.6852414608001709
vn 0.6515757441520691 0.5138244032859802 0.5580623745918274
vn -0.6286512613296509 0.6881478428840637 0.9206862449645996
vn -0.5800631642341614 0.914043128490448 -0.1969456970691681
vn -0.7806706428527832 0.6220424771308899 0.06013726070523262
vn -0.5788975358009338 0.25310635566711426 -1.0
vn 0.34126806259155273 -1.0 0.04951030761003494
vn 1.0 0.04947250336408615 0.019775085151195526
vn -0.08543739467859268 0.02695743553340435 1.0317137241363525
vn -0.0038086699787527323 1.0643675327301025 0.9453637599945068
vn -0.9906718134880066 0.8751493096351624 0.47934675216674805
vn 0.8187404274940491 0.4929649829864502 0.29436323046684265
vn -0.5451071858406067 0.2774866819381714 0.5990363359451294
vn -0.15789587795734406 0.6181929111480713 -0.7841342091560364
vn -0.4380250871181488 -0.8964728116989136 0.06686161458492279
vn 0.1580600142478943 0.01785120740532875 -1.0
vn -0.015866069123148918 -1.0 0.06454353034496307
vn 1.0 0.06328441202640533 0.08523189276456833
vn -0.12281909584999084 0.07409515231847763 0.9444929957389832
vn -0.08847609907388687 0.9348505735397339 0.6524949073791504
vn -0.9771323800086975 0.50152188539505 0.6150261759757996
vn -0.49844855070114136 0.5066207051277161 0.7034802436828613
vn -0.5283461213111877 0.49797701835632324 -0.3517315089702606
vn -0.347247451543808 -0.2147074043750763 -0.2964969277381897
vn 0.21787376701831818 -0.3089677691459656 0.9257806539535522
vn 0.25163158774375916 0.9388788342475891 -1.0
vn -0.6572838425636292 1.0 0.15964801609516144
vn -1.0 0.17117957770824432 0.0341908261179924
vn -0.12547583878040314 0.048913612961769104 0.9813731908798218
vn -0.07303646206855774 0.9946523904800415 0.3689371347427368
vn -0.9872295260429382 0.3689371347427368 0.5541784167289734
vn -0.48592114448547363 0.5056586861610413 0.7128744125366211
vn -0.5034655928611755 0.6383829712867737 0.37966281175613403
vn -0.4477037787437439 0.05304086208343506 0.5474589467048645
vn -0.3747209906578064 0.35446760058403015 -0.8567011952400208
vn -0.4475403130054474 -0.6212038397789001 -1.0
vn 0.7913767099380493 -1.0 0.11535400152206421
vn 1.0 0.19029800593852997 -0.0206867977976799
vn -0.06140640005469322 0.07279384136199951 0.9910590648651123
vn -0.08537235110998154 0.9881677031517029 0.43000951409339905
vn -0.9964826107025146 0.3004874587059021 0.5766364336013794
vn -0.13919970393180847 0.21293200552463531 0.9671004414558411
vn -0.2366085648536682 0.9410340189933777 0.9445664882659912
vn -0.4488334655761719 0.8460094332695007 -0.2844250500202179
vn -0.7251819968223572 0.14227861166000366 -0.6736971139907837
vn -0.38779571652412415 -0.4225800633430481 -1.0
vn 0.6393344402313232 -1.0 -0.06968343257904053
vn 1.0 0.044287070631980896 0.1427554339170456
vn -0.016012800857424736 0.19063769280910492 0.9381084442138672
vn -0.16925063729286194 0.9833789467811584 0.6219774484634399
vn -0.9821078181266785 0.6510287523269653 0.5403724908828735
vn -0.6856507062911987 0.486217200756073 0.5417342185974121
vn -0.486217200756073 0.5417342185974121 0.6370351910591125
vn -0.7384646534919739 -0.7896267771720886 -0.15148697793483734
vn 0.8041512966156006 -0.2485482394695282 0.5399671196937561
vn 0.37786999344825745 0.32038161158561707 -1.0
vn -0.3565201461315155 -1.0 0.05753261595964432
vn 1.0 0.054152678698301315 0.08228076994419098
vn -0.02851562388241291 0.14389881491661072 0.9602293372154236
vn -0.18324688076972961 0.9570832848548889 0.5203426480293274
vn -0.9828538298606873 0.6814013719558716 0.5543004870414734
vn -0.74234938621521 0.3179464340209961 0.5897690057754517
vn -0.47325950860977173 0.5951195955276489 0.626687228679657
vn -0.7160098552703857 0.6130912899971008 -0.7839109897613525
vn -0.4812469780445099 -0.8532601594924927 -0.2008691430091858
vn 0.5881296992301941 0.12826484441757202 -1.0
vn -0.2215672880411148 -1.0 0.023984793573617935
vn 1.0 0.023250503465533257 0.1347113698720932
vn -0.04244399815797806 0.09361488372087479 0.9774093627929688
vn -0.08399482816457748 0.8950658440589905 0.733161211013794
vn -0.8790803551673889 0.284993052482605 0.8857606053352356
vn -0.6199886798858643 0.6891552209854126 0.3750722110271454
vn -0.9162132143974304 0.31714892387390137 0.9010859131813049
vn -0.33123064041137695 0.9237774014472961 0.023014601320028305
vn -0.936886191368103 0.04552686959505081 0.3466579020023346
vn 0.591826319694519 0.13241086900234222 -1.0
vn -0.24761150777339935 -1.0 0.1321919560432434
vn 1.0 0.1702168583869934 0.14234423637390137
vn -0.15001030266284943 0.12412375956773758 0.8203976154327393
vn -0.1917160004377365 0.7348270416259766 0.3324955701828003
vn -0.7356812953948975 0.37909504771232605 0.9069889783859253
vn -0.30264657735824585 0.9264556765556335 0.22379662096500397
vn -0.950457751750946 0.1680966317653656 0.9187167882919312
vn -0.20662032067775726 0.9440043568611145 -0.2045968919992447
vn -0.8338110446929932 -0.5006934404373169 0.23251916468143463
vn 0.2880701422691345 0.26018303632736206 -1.0
vn -0.1387908160686493 -1.0 0.17372523248195648
vn 1.0 0.19957317411899567 0.1560596376657486
vn -0.2173580527305603 0.17963340878486633 0.663136899471283
vn -0.11537597328424454 0.7107964754104614 0.5989173650741577
vn -0.6688151359558105 0.5515183210372925 0.5465603470802307
vn -0.24073706567287445 0.923477292060852 0.29872286319732666
vn -0.8337100744247437 0.37559011578559875 0.8493934273719788
vn -0.3210737407207489 0.8939743041992188 -0.37933212518692017
vn -0.9503633379936218 -0.15558253228664398 0.26945069432258606
vn 0.3360135555267334 0.25902020931243896 -1.0
vn 0.13611085712909698 -1.0 0.19088515639305115
vn 1.0 0.014557876624166965 0.18246501684188843
vn -0.1924455165863037 0.11217380315065384 0.7698572874069214
vn -0.10744781047105789 0.813561737537384 0.7266257405281067
vn -0.8680169582366943 0.6894399523735046 0.6073085069656372
vn -0.8111692070960999 0.41428378224372864 0.41276323795318604
vn 0.7307392358779907 -0.5856701135635376 0.925865888595581
vn 0.69447922706604 0.9370250701904297 -0.1052478551864624
vn -0.6907109618186951 0.7022745013237 0.17242051661014557
vn -0.6178849935531616 0.09200052917003632 1.0
vn -0.34823575615882874 1.0 0.05500652268528938
vn -1.0 0.05124912038445473 0.03438854217529297
vn -0.051141660660505295 0.018346404656767845 1.0727018117904663
vn -0.025846365839242935 1.0316877365112305 -0.9046490788459778
vn -1.0646891593933105 -0.940535306930542 -0.3225085139274597
vn 0.9050487279891968 -0.4252999722957611 0.0025987334083765745
vn 0.5644999146461487 -0.3657989203929901 0.5455043315887451
vn 0.2647360563278198 0.6008632779121399 -0.7665643692016602
vn -0.6114055514335632 -0.7834618091583252 -0.11122407764196396
vn 0.864222526550293 -0.09628036618232727 1.0
vn 0.03607170283794403 1.0 0.1167224869132042
vn -1.0 0.06425014138221741 0.07490134984254837
vn -0.11474548280239105 0.08708617836236954 0.9337633848190308
vn -0.07276718318462372 0.9433404803276062 -0.6549878120422363
vn -0.9800187945365906 -0.5005600452423096 -0.5610753893852234
vn 0.5003965497016907 -0.6184797286987305 -0.6058763861656189
vn 0.5093496441841125 -0.7016363143920898 -0.6464905142784119
vn 0.49623334407806396 -0.35148411989212036 -0.3551327884197235
vn 0.21317152678966522 -0.29801785945892334 0.9304532408714294
vn 0.31084465980529785 0.9255566596984863 1.0
vn -0.9388747215270996 1.0 0.17004138231277466
vn 1.0 0.15850429236888885 -0.03965095430612564
vn -0.11391879618167877 0.012804488651454449 1.0089939832687378
vn -0.04773803427815437 0.9796404242515564 -0.434373140335083
vn -0.9930594563484192 -0.3689414858818054 -0.5540492534637451
vn 0.3689415156841278 -0.5540492534637451 -0.7462650537490845
vn 0.6220361590385437 -0.44516023993492126 0.04731200262904167
vn 0.6385797262191772 0.3800080120563507 0.5258484482765198
vn -0.5157268643379211 0.49206259846687317 -0.7013559937477112
vn -0.34886839985847473 -0.8574641942977905 1.0
vn 0.621014416217804 1.0 0.062069546431303024
vn -1.0 0.11433146893978119 0.014552688226103783
vn -0.18925417959690094 -0.021994780749082565 0.9686533808708191
vn -0.07168647646903992 0.9891870021820068 -0.287132203578949
vn -0.9994938969612122 -0.13565073907375336 -0.201862171292305
vn 0.30132541060447693 -0.5761329531669617 -0.7597853541374207
vn 0.6056373119354248 -0.6681306958198547 0.9016647338867188
vn 0.9456969499588013 0.9541545510292053 0.1327611654996872
vn -0.8466065526008606 -0.3002082407474518 -0.4394681751728058
vn -0.12400936335325241 -0.6642389893531799 1.0
vn 0.41397279500961304 1.0 -0.06961257755756378
vn -1.0 -0.06984943151473999 0.10442420840263367
vn 0.006196842063218355 0.16789942979812622 0.9821640849113464
vn -0.18934516608715057 0.9368345141410828 -0.6219427585601807
vn -0.953408420085907 -0.6511779427528381 -0.5403215885162354
vn 0.6510818004608154 -0.5404627323150635 -0.5329095721244812
vn 0.4863101541996002 -0.5413734316825867 0.6333869695663452
vn 0.5413734912872314 0.6381988525390625 -0.04447660222649574
vn 0.8722839951515198 -0.3738848567008972 0.31516754627227783
vn 0.2430330365896225 0.5381309986114502 1.0
vn -0.5901522636413574 1.0 0.003440437139943242
vn -1.0 0.05615566298365593 0.08306190371513367
vn -0.0531340017914772 0.08107135444879532 0.9897218942642212
vn -0.1424790918827057 0.9590057134628296 -0.5981035232543945
vn -0.9556540250778198 -0.5217106342315674 -0.6413645148277283
vn 0.6836249828338623 -0.5540958046913147 -0.47501030564308167
vn 0.3728440999984741 -0.716228723526001 0.618251383304596
vn 0.5948930382728577 0.6257251501083374 -0.7769812345504761
vn -0.5059643983840942 -0.8426704406738281 -0.18413734436035156
vn 0.8454976081848145 -0.2130066156387329 1.0
vn -0.12791647017002106 1.0 0.06869258731603622
vn -1.0 0.024109553545713425 0.10784526914358139
vn -0.023551519960165024 0.1326296627521515 0.9174212217330933
vn -0.09161395579576492 0.9766429662704468 -0.009901486337184906
vn -0.8938759565353394 -0.7329130172729492 -0.4696178436279297
vn 0.2847799062728882 -0.885818362236023 -0.36636897921562195
vn 0.687798023223877 -0.3751215636730194 0.7260318398475647
vn 0.3176524341106415 0.8997006416320801 -0.33733707666397095
vn -0.9218709468841553 0.02515445090830326 0.3866797685623169
vn -0.047182146459817886 0.3503892421722412 1.0
vn -0.1294957846403122 1.0 0.0926060825586319
vn -1.0 0.1311841905117035 0.14878889918327332
vn -0.16901138424873352 0.1405903548002243 0.782681941986084
vn -0.12241294234991074 0.8194372653961182 -0.5706498622894287
vn -0.7344943284988403 -0.33214861154556274 -0.9300416111946106
vn 0.3772398829460144 -0.9079737663269043 -0.1824110895395279
vn 0.9271161556243896 -0.222300186753273 0.9054401516914368
vn 0.1681218147277832 0.9184382557868958 -0.29735690355300903
vn -0.9426690340042114 -0.20446066558361053 0.26376283168792725
vn 0.500352144241333 0.2256748378276825 1.0
vn -0.26329198479652405 1.0 0.15378886461257935
vn -1.0 0.17308776080608368 0.1580554097890854
vn -0.19867552816867828 0.1541162133216858 0.7067057490348816
vn -0.17766860127449036 0.6619051694869995 -0.2053976207971573
vn -0.7093873620033264 -0.6010985374450684 -0.5143448114395142
vn 0.5539303421974182 -0.5417653322219849 -0.6321800351142883
vn 0.9250990152359009 -0.2967701554298401 0.9253281950950623
vn 0.3743142783641815 0.8506229519844055 -0.4909508228302002
vn -0.8936148285865784 -0.37901243567466736 0.2404206246137619
vn 0.1556728333234787 0.27313491702079773 1.0
vn -0.2555719017982483 1.0 0.20388011634349823
vn -1.0 0.18950042128562927 0.1472335010766983
vn -0.01472970936447382 0.18023055791854858 0.7624885439872742
vn -0.11113505810499191 0.7690479755401611 -0.8028706908226013
vn -0.8125422596931458 -0.7272192239761353 -0.5311154723167419
vn 0.6895102858543396 -0.6076353788375854 -0.3941509425640106
vn 0.41310885548591614 -0.4122481346130371 0.48279494047164917
vn 0.6864051818847656 -0.95225989818573 -0.14194488525390625
vn 0.9643383622169495 -0.18257108330726624 -0.19162271916866302
vn 0.17164047062397003 -0.6380036473274231 1.0
vn 0.548732578754425 1.0 0.010371322743594646
vn -1.0 -0.010006122291088104 -0.09415923804044724
vn 0.027079200372099876 -0.08405730873346329 0.9759500026702881
vn 0.08096466213464737 0.9812971949577332 -0.7490803003311157
vn -0.9885440468788147 -0.9518061280250549 -0.28283193707466125
vn 0.945254385471344 0.04992075636982918 0.3224934935569763
vn -0.5015100240707397 -0.20041672885417938 -0.5385793447494507
vn -0.15458932518959045 -0.4929649829864502 -0.8563393950462341
vn 0.40508460998535156 -0.6675524711608887 -0.6247240304946899
vn 0.9081874489784241 -0.034650664776563644 1.0
vn 0.6349162459373474 1.0 -0.016515789553523064
vn -1.0 -0.008974608965218067 -0.03847755491733551
vn -0.007454357109963894 -0.038951337337493896 1.0268168449401855
vn 0.03729873523116112 1.0264167785644531 0.327991783618927
vn -1.02413809299469 0.5720116496086121 0.30225518345832825
vn -0.8987307548522949 -0.00990641862154007 0.43838897347450256
vn -0.5016013383865356 0.36424070596694946 -0.15998002886772156
vn -0.15116240084171295 0.18546582758426666 -0.16563817858695984
vn 0.35949209332466125 -0.25966060161590576 -0.8962932825088501
vn 0.4983121156692505 -0.41761937737464905 -1.0
vn 0.3293304145336151 -1.0 0.04095859453082085
vn 1.0 0.04758109897375107 -0.07534049451351166
vn -0.033583641052246094 -0.06654228270053864 1.0076756477355957
vn 0.0717536136507988 1.0124621391296387 -0.027969814836978912
vn -1.016105055809021 0.11123215407133102 -0.5957264304161072
vn -0.7846813201904297 0.5016013383865356 0.36424070596694946
vn 0.00990641862154007 0.43838897347450256 0.133562371134758
vn -0.7625250220298767 -0.7731125950813293 -0.11191675812005997
vn -0.22824805974960327 -0.9525423645973206 -0.2014099806547165
vn 0.11681855469942093 0.5126907229423523 -1.0
vn 0.25533413887023926 -1.0 0.003726539434865117
vn 1.0 0.007454357109963894 -0.038951337337493896
vn 0.008974608965218067 -0.03847755491733551 1.0303080081939697
vn 0.04758697375655174 1.0213115215301514 -0.13456711173057556
vn -1.0241535902023315 -0.8673838376998901 0.10563024878501892
vn 0.7709171175956726 0.5200700759887695 0.367714524269104
vn 0.38906583189964294 0.833059549331665 -0.7391992211341858
vn -0.7864232659339905 -0.7727158069610596 -0.36884820461273193
vn 0.7501767873764038 -0.21857626736164093 -0.6240665912628174
vn 0.40275752544403076 -0.837978184223175 -1.0
vn 0.46991217136383057 -1.0 -0.03833986073732376
vn 1.0 -0.033375050872564316 -0.05678046867251396
vn 0.02133169211447239 -0.04813201725482941 1.0138847827911377
vn 0.0797649398446083 0.9913984537124634 -0.20422862470149994
vn -0.9885440468788147 -0.9518061280250549 -0.28283193707466125
vn 0.7490803003311157 -0.4284428656101227 -0.5052873492240906
vn 0.4173438847064972 -0.5459030866622925 -0.08954816311597824
vn -0.42644888162612915 -0.7281975746154785 -0.20208366215229034
vn 0.7665840983390808 -0.36193060874938965 -0.5304290056228638
vn -0.5285678505897522 -0.19416119158267975 -1.0
vn 0.37483322620391846 -1.0 0.01419282890856266
vn 1.0 0.01614353060722351 -0.08304198831319809
vn -0.033234670758247375 -0.07388824224472046 0.9799298644065857
vn 0.04639472812414169 0.9734857678413391 -0.31618109345436096
vn -0.9711315631866455 -0.8206989765167236 -0.550281822681427
vn 0.8989747762680054 0.07156010717153549 -0.4321151077747345
vn 0.5009731650352478 -0.008055011741816998 -0.36399316787719727
vn -0.5385909676551819 0.3763149082660675 0.7580394744873047
vn -0.8127725720405579 0.42814940214157104 0.3950807750225067
vn -0.2497025728225708 0.4697059392929077 1.0
vn -0.3362041115760803 1.0 0.05970890074968338
vn -1.0 0.06158149614930153 -0.0302526094019413
vn -0.06585754454135895 -0.03390449285507202 1.0050204992294312
vn 0.032044827938079834 1.003443956375122 0.5718238353729248
vn -0.9916288256645203 0.545714795589447 0.8309028148651123
vn -0.6638041138648987 0.6750295162200928 0.32202354073524475
vn -0.3059478998184204 0.029065536335110664 -0.25020506978034973
vn 0.24819111824035645 -0.21641090512275696 -0.7284821271896362
vn -0.3128352761268616 0.8666137456893921 0.38873469829559326
vn -0.8888313174247742 -0.2760673761367798 1.0
vn 0.5889725089073181 1.0 0.06807895749807358
vn -1.0 0.059110600501298904 -0.08323059231042862
vn -0.04192691668868065 -0.08513854444026947 0.9653996825218201
vn 0.07702949643135071 0.979637861251831 -0.04157334566116333
vn -0.9799298644065857 -0.924789547920227 -0.35544800758361816
vn 0.8206989765167236 -0.550281822681427 -0.15376274287700653
vn 0.7481616139411926 -0.486776739358902 -0.7643452882766724
vn 0.7552627921104431 -0.7101635336875916 -0.5471853613853455
vn 0.3804275393486023 0.6679820418357849 0.6395896673202515
vn -0.49404603242874146 0.7983139753341675 -1.0
vn -0.7907599806785583 -1.0 0.027313612401485443
vn 1.0 0.043688029050827026 -0.05344543233513832
vn -0.06937579810619354 -0.0666709914803505 0.9958282113075256
vn 0.08085731416940689 0.9705453515052795 0.2807922959327698
vn -0.9602510333061218 0.3175968527793884 -0.4064864218235016
vn -0.5460148453712463 -0.7481701970100403 0.3769736588001251
vn 0.7423735857009888 -0.6081359386444092 -0.26547864079475403
vn 0.5280777812004089 0.5825263857841492 -0.027281587943434715
vn -0.5256635546684265 0.4028586745262146 0.7492547035217285
vn -0.19703255593776703 0.9140700101852417 -1.0
vn -0.8946926593780518 -1.0 0.09132953733205795
vn 1.0 0.09614761173725128 -0.04443008452653885
vn -0.08264678716659546 -0.050772398710250854 0.986630916595459
vn 0.03826599195599556 0.9889186024665833 0.6638041138648987
vn -0.9927191734313965 0.7332927584648132 -0.25449374318122864
vn -0.5521107316017151 -0.28113114833831787 0.7849452495574951
vn 0.25536593794822693 0.862250566482544 -0.5543253421783447
vn -0.6651752591133118 -0.8775757551193237 0.47413960099220276
vn 0.466142863035202 -0.01302256342023611 0.8846135139465332
vn -0.3001493513584137 0.4580983817577362 -1.0
vn -0.54179847240448 -1.0 0.08153526484966278
vn 1.0 0.054219551384449005 -0.04558349400758743
vn -0.054106518626213074 -0.030818099156022072 1.0156928300857544
vn 0.03559478744864464 1.0119777917861938 -0.526854395866394
vn -1.0105020999908447 -0.5767293572425842 0.4954448640346527
vn 0.5737175941467285 -0.4741649031639099 -0.6678441166877747
vn -0.2706570327281952 0.6213220953941345 -0.6738712787628174
vn -0.15347477793693542 0.07538062334060669 0.24473032355308533
vn 0.21801528334617615 -0.8658926486968994 -0.4502212107181549
vn 0.517511248588562 -0.5749194025993347 1.0
vn 0.5388573408126831 1.0 0.07037197053432465
vn -1.0 0.07575229555368423 0.08448333293199539
vn -0.07550651580095291 0.07587962597608566 0.9840161204338074
vn -0.07226737588644028 0.9917979836463928 0.5725533962249756
vn -0.9919359087944031 0.6850156188011169 0.23633772134780884
vn -0.5725533962249756 -0.7460610270500183 0.33996403217315674
vn 0.521588921546936 -0.1212785542011261 0.30973386764526367
vn -0.5582482218742371 0.1863633096218109 0.723521888256073
vn -0.17682428658008575 0.7112458944320679 -0.6803399920463562
vn -0.5984845161437988 -0.7900903224945068 -1.0
vn 0.391425222158432 -1.0 0.07575229555368423
vn 1.0 0.06863009929656982 0.09256640821695328
vn -0.07037197053432465 0.09353084117174149 0.9755884408950806
vn -0.09631889313459396 0.9829897880554199 0.5021798014640808
vn -0.979426920413971 -0.12230763584375381 0.9195969104766846
vn 0.594491183757782 0.7893197536468506 0.15347477793693542
vn -0.7032338976860046 0.6449068188667297 0.16951538622379303
vn -0.6213220953941345 0.008816047571599483 0.9205334782600403
vn -0.1880854070186615 0.7895052433013916 -0.5842133164405823
vn -0.9540959596633911 0.2596043646335602 -1.0
vn 0.413176953792572 -1.0 0.06357574462890625
vn 1.0 0.05595844238996506 0.07850978523492813
vn -0.053899649530649185 0.09748439490795135 0.9879341721534729
vn -0.08879329264163971 0.996581494808197 0.6913979053497314
vn -0.999530017375946 0.45255380868911743 0.2642934322357178
vn 0.04234154522418976 0.7004738450050354 -0.7124208211898804
vn 0.9322643876075745 0.34810930490493774 1.0
vn -0.6076465249061584 1.0 0.0
vn -1.0 0.0 0.0
vn -0.0 0.0 -1.0
vn -0.0 -1.0 0.06551212072372437
vn 1.0 0.0 0.0
vn -0.1468692570924759 0.3663453459739685 0.13455958664417267
vn -0.5349011421203613 0.18752899765968323 0.3753947615623474
vn -0.270283579826355 0.44855964183807373 0.3135393261909485
vn -0.3559773862361908 0.3400960862636566 0.4527462422847748
vn -0.1765844076871872 0.2988077402114868 0.9878619909286499
vn -0.775177001953125 0.9235432147979736 0.7731513977050781
vn -0.49612534046173096 0.7975730299949646 0.5137448906898499
vn -0.4434126317501068 0.29920804500579834 0.3477797210216522
vn -0.22447219491004944 0.277678519487381 0.24569779634475708
vn -0.9505414366722107 0.9092414379119873 0.8699257969856262
vn -0.6064003705978394 0.9247068762779236 0.5551702380180359
vn -0.9815014600753784 0.4830951988697052 0.803301215171814
vn -0.7250703573226929 0.8658102750778198 0.6862361431121826
vn -0.6280866265296936 0.6557014584541321 0.5910047888755798
vn -0.7349603772163391 0.4533524811267853 0.6017131805419922
vn -0.27506643533706665 0.7109449505805969 0.25470131635665894
vn -0.5245006084442139 0.08088569343090057 0.646574854850769
vn -0.1793798804283142 0.963037371635437 0.10874567180871964
vn -0.3353975713253021 0.11305749416351318 0.9041756391525269
vn -0.42009395360946655 0.8177083730697632 0.5498541593551636
vn -0.11470002681016922 0.5435415506362915 0.1468692570924759
vn -0.47026529908180237 0.25072863698005676 0.5349011421203613
vn -0.19929033517837524 0.3644688129425049 0.270283579826355
vn -0.3477797210216522 0.3584880828857422 0.4434126317501068
vn -0.24569779634475708 0.21557894349098206 0.1765844076871872
vn -0.8711695671081543 0.9565480947494507 0.775177001953125
vn -0.5551702380180359 0.8585360646247864 0.49612534046173096
vn -0.803301215171814 0.2636403441429138 0.3559773862361908
vn -0.3265574276447296 0.3159483075141907 0.22447219491004944
vn -0.9975165724754333 0.9878619909286499 0.878743588924408
vn -0.5585595369338989 0.9388855695724487 0.5183927416801453
vn -0.896713376045227 0.5077207088470459 0.9815014600753784
vn -0.7973138689994812 0.8342587947845459 0.7250703573226929
vn -0.8644658327102661 0.8618403077125549 0.6280866265296936
vt 0.48167094588279724 0.4799327254295349
vt 0.6090454459190369 0.536300778388977
vt 0.49948400259017944 0.2650396227836609
vt 0.4533524811267853 0.3982868194580078
vt 0.37229347229003906 0.2829417586326599
vt 0.34773707389831543 0.1970580816268921
vt 0.34146013855934143 0.19889318943023682
vt 0.4420090317726135 0.41496771574020386
vt 0.27506643533706665 0.2890550494194031
vt 0.25470131635665894 0.3046233654022217
vt 0.16115719079971313 0.43347930908203125
vt 0.17585977911949158 0.5405999720096588
vt 0.19944995641708374 0.40682584047317505
vt 0.06877021491527557 0.47549939155578613
vt 0.08088569343090057 0.35342514514923096
vt 0.040181517601013184 0.2788330912590027
vt 0.0339156836271286 0.17802941799163818
vt 0.15829795598983765 0.17257702350616455
vt 0.04029199481010437 0.0688965916633606
vt 0.1793798804283142 0.03696262836456299
vt 0.10874567180871964 0.5251420438289642
vt 0.09360019862651825 0.5752375721931458
vt 0.08497984707355499 0.6355010569095612
vt 0.21869739890098572 0.5844782292842865
vt 0.29162710905075073 0.6646024286746979
vt 0.11305749416351318 0.09582436084747314
vt 0.23907946050167084 0.17930078506469727
vt 0.24213163554668427 0.5748280584812164
vt 0.39417868852615356 0.11309713125228882
vt 0.31869956851005554 0.13346034288406372
vt 0.42009395360946655 0.18229162693023682
vt 0.5498541593551636 0.12768769264221191
vt 0.5472879409790039 0.8530469536781311
vt 0.6643950939178467 0.7751417905092239
vt 0.7932252287864685 0.8871077448129654
vt 0.6715372204780579 0.8257990628480911
vt 0.6813597679138184 0.7996542155742645
vt 0.6357789635658264 0.7859125882387161
vt 0.6136914491653442 0.7724596858024597
vt 0.6244948506355286 0.7058883905410767
vt 0.6434757113456726 0.6446414589881897
vt 0.6706203818321228 0.6124051809310913
vt 0.7481895089149475 0.6280552744865417
vt 0.8252900838851929 0.6602462530136108
vt 0.8858547806739807 0.66485595703125
vt 0.9263699054718018 0.7130227088928223
vt 0.9237781763076782 0.776850625872612
vt 0.943672776222229 0.8421325236558914
vt 0.9442078471183777 0.9052273258566856
vt 0.9229477643966675 0.9058375731110573
vt 0.9188979268074036 0.911525048315525
vt 0.9131861329078674 0.9210900515317917
vt 0.8964066505432129 0.946371540427208
vt 0.8186357021331787 0.9284604266285896
vt 0.7724075317382812 0.9333095028996468
vt 0.727232038974762 0.931123748421669
vt 0.7126630544662476 0.8399130553007126
vt 0.6709632277488708 0.7647403627634048
vt 0.5963104367256165 0.8316846191883087
vt 0.5853399038314819 0.8774313032627106
vt 0.5910418629646301 0.8999400660395622
vt 0.7199655771255493 0.7850911617279053
vt 0.8192240595817566 0.9367685765028
vt 0.7974392175674438 0.9664485603570938
vt 0.7283647656440735 0.9889218518510461
vt 0.7877339720726013 0.9904573233798146
vt 0.8158928155899048 0.9508188590407372
vt 0.6623899936676025 0.9581510350108147
vt 0.890139639377594 0.9049800708889961
vt 0.8657606840133667 0.8711189329624176
vt 0.9102832078933716 0.9117056280374527
vt 0.9268123507499695 0.8608740866184235
vt 0.9894523024559021 0.8224711716175079
vt 0.9408836364746094 0.8082802444696426
vt 0.9870591759681702 0.7700044065713882
vt 0.9805448651313782 0.7674219906330109
vt 0.9376916289329529 0.7038303911685944
vt 0.9306195974349976 0.6501427888870239
vt 0.8738832473754883 0.6314102411270142
vt 0.912055492401123 0.6086737215518951
vt 0.9056650400161743 0.5780969262123108
vt 0.8849745392799377 0.6793543994426727
vt 0.9753064513206482 0.7500582188367844
vt 0.9682318568229675 0.6264464557170868
vt 0.8106422424316406 0.5535822808742523
vt 0.8605458736419678 0.558051347732544
vt 0.8064490556716919 0.5555786192417145
vt 0.7709392309188843 0.6310803294181824
vt 0.7345880270004272 0.6844030022621155
vt 0.6739271283149719 0.5687708258628845
vt 0.6673376560211182 0.6404251456260681
vt 0.6041752099990845 0.6948435604572296
vt 0.6214796304702759 0.7500720471143723
vt 0.6697288751602173 0.8530469536781311
vt 0.6643950939178467 0.7751417905092239
vt 0.7932252287864685 0.8871077448129654
vt 0.6715372204780579 0.8264860510826111
vt 0.6845125555992126 0.7996542155742645
vt 0.6357789635658264 0.7859125882387161
vt 0.6136914491653442 0.7724596858024597
vt 0.6244948506355286 0.7058883905410767
vt 0.6434757113456726 0.6446414589881897
vt 0.6706203818321228 0.6124051809310913
vt 0.7481895089149475 0.6280552744865417
vt 0.8252900838851929 0.6634753942489624
vt 0.8956371545791626 0.66485595703125
vt 0.9263699054718018 0.7130227088928223
vt 0.9237781763076782 0.8094915747642517
vt 0.943940281867981 0.9052273258566856
vt 0.9229477643966675 0.9058375731110573
vt 0.9188979268074036 0.911525048315525
vt 0.9131861329078674 0.9210900515317917
vt 0.8964066505432129 0.946371540427208
vt 0.8186357021331787 0.9284604266285896
vt 0.7724075317382812 0.9333095028996468
vt 0.727232038974762 0.931123748421669
vt 0.7126630544662476 0.815176323056221
vt 0.6917065382003784 0.7647403627634048
vt 0.5963104367256165 0.8316846191883087
vt 0.5853399038314819 0.8774313032627106
vt 0.5910418629646301 0.9508188590407372
vt 0.6623899936676025 0.7160229682922363
vt 0.6725486516952515 0.6964421272277832
vt 0.613862156867981 0.6404251456260681
vt 0.6041752099990845 0.5687708258628845
vt 0.6673376560211182 0.644081175327301
vt 0.7322456240653992 0.7846441715955734
vt 0.8060283660888672 0.9072842672467232
vt 0.7096933722496033 0.9664485603570938
vt 0.7283647656440735 0.9267354309558868
vt 0.7888707518577576 0.9889218518510461
vt 0.7877339720726013 0.9904573233798146
vt 0.8158928155899048 0.9581510350108147
vt 0.890139639377594 0.9009125828742981
vt 0.8559668064117432 0.8640409708023071
vt 0.8940318822860718 0.9117056280374527
vt 0.9268123507499695 0.8608740866184235
vt 0.9894523024559021 0.8161275386810303
vt 0.913547158241272 0.7891423255205154
vt 0.9838020205497742 0.7731000930070877
vt 0.9106832146644592 0.7176171243190765
vt 0.9022180438041687 0.6505384743213654
vt 0.8581858277320862 0.6429518461227417
vt 0.9059522747993469 0.6086737215518951
vt 0.9056650400161743 0.5780969262123108
vt 0.8849745392799377 0.6793543994426727
vt 0.9753064513206482 0.7500582188367844
vt 0.9682318568229675 0.6316277980804443
vt 0.8106417655944824 0.5535822808742523
vt 0.8605458736419678 0.558051347732544
vt 0.8064490556716919 0.5555786192417145
vt 0.7709392309188843 0.7653641402721405
vt 0.7841763496398926 0.8151527643203735
vt 0.7760653495788574 0.7932383269071579
vt 0.7488293647766113 0.8106584846973419
vt 0.8070874214172363 0.7892192900180817
vt 0.831048309803009 0.7606717348098755
vt 0.7391972541809082 0.7296091914176941
vt 0.7593928575515747 0.7200733423233032
vt 0.7906457781791687 0.7324057817459106
vt 0.8195157647132874 0.7600354701280594
vt 0.8321254849433899 0.844055101275444
vt 0.8716456890106201 0.8740832954645157
vt 0.9011623859405518 0.7796106338500977
vt 0.9533177614212036 0.776050329208374
vt 0.9038877487182617 0.7637101709842682
vt 0.7816722393035889 0.697365015745163
vt 0.8787652254104614 0.8878846913576126
vt 0.8042340278625488 0.6711171269416809
vt 0.9273983240127563 0.6474100649356842
vt 0.814250111579895 0.6021149456501007
vt 0.8340277671813965 0.6555415391921997
vt 0.7321501970291138 0.6102358996868134
vt 0.7026323080062866 0.7066619396209717
vt 0.6300851106643677 0.7278559803962708
vt 0.6737457513809204 0.8307759463787079
vt 0.6252007484436035 0.8094345331192017
vt 0.6683086156845093 0.909791573882103
vt 0.7036952972412109 0.8667269349098206
vt 0.7278741598129272 0.9327868893742561
vt 0.8155986070632935 0.4701871871948242
vt 0.9024433493614197 0.4701871871948242
vt 0.9024433493614197 0.4701871871948242
vt 0.9024433493614197 0.4701871871948242
vt 0.9024433493614197 0.4701871871948242
vt 0.9024433493614197 0.4701871871948242
vt 0.9024433493614197 0.4701871871948242
vt 0.9024433493614197 0.4701871871948242
vt 0.9024433493614197 0.4701871871948242
vt 0.9024433493614197 0.4701871871948242
vt 0.9024433493614197 0.4701871871948242
vt 0.9024433493614197 1.0
vt 0.0 0.0
vt 0.0 1.0
vt 0.0 1.0
vt 0.0 1.0
vt 0.0 0.0
vt 0.0 1.0
vt 0.0 1.0
vt 0.0 1.0
vt 0.0 0.0
vt 0.0 1.0
vt 0.0 1.0
vt 0.0 1.0
vt 0.0 0.0
vt 0.0 1.0
vt 0.0 1.0
vt 0.0 1.0
vt 0.0 0.0
vt 0.0 1.0
vt 0.0 1.0
vt 0.0 1.0
vt 0.0 0.0
vt 0.0 1.0
vt 0.0 1.0
vt 0.0 1.0
vt 0.0 0.0
vt 0.0 1.0
vt 0.0 1.0
vt 0.0 1.0
vt 0.0 0.0
vt 0.0 1.0
vt 0.0 1.0
vt 0.0 1.0
vt 0.0 0.0
vt 0.0 1.0
vt 0.0 1.0
vt 0.0 1.0
vt 0.0 0.0
vt 0.0 1.0
vt 0.0 1.0
vt 0.0 1.0
vt 0.0 0.0
vt 0.0 1.0
vt 0.0 1.0
vt 0.0 1.0
vt 0.0 0.0
vt 0.0 1.0
vt 0.0 1.0
vt 0.0 1.0
vt 0.0 0.0
vt 0.0 1.0
vt 0.0 1.0
vt 0.0 1.0
vt 0.0 0.0
vt 0.0 1.0
vt 0.0 1.0
vt 0.0 1.0
vt 0.0 0.0
vt 0.0 1.0
vt 0.0 1.0
vt 0.0 1.0
vt 0.0 0.0
vt 0.0 1.0
vt 0.0 1.0
vt 0.0 1.0
vt 0.0 0.0
vt 0.0 1.0
vt 0.0 1.0
vt 0.0 1.0
vt 0.0 0.0
vt 0.0 1.0
vt 0.0 1.0
vt 0.0 1.0
vt 0.0 0.0
vt 0.0 1.0
vt 0.0 1.0
vt 0.0 1.0
vt 0.0 0.10000002384185791
vt 0.10000000149011612 1.0
vt 0.0 1.0
vt 1.401298464324817e-45 1.0
vt 0.0 0.19999998807907104
vt 0.20000000298023224 1.0
vt 0.0 1.0
vt 1.401298464324817e-45 1.0
vt 0.0 0.0
vt 0.0 1.0
vt 0.0 1.0
vt 0.0 1.0
vt 0.0 0.0
vt 0.0 1.0
vt 0.0 1.0
vt 0.0 1.0
vt 0.0 0.0
vt 0.0 1.0
vt 0.0 1.0
vt 0.0 1.0
vt 0.0 0.10000002384185791
vt 0.10000000149011612 1.0
vt 0.0 1.0
vt 1.401298464324817e-45 1.0
vt 0.0 0.0
vt 0.0 1.0
vt 0.0 1.0
vt 0.0 1.0
vt 0.0 0.19999998807907104
vt 0.20000000298023224 1.0
vt 0.0 1.0
vt 1.401298464324817e-45 1.0
vt 0.0 0.0
vt 0.0 1.0
vt 0.0 1.0
vt 0.0 1.0
vt 0.0 0.0
vt 0.0 1.0
vt 0.0 1.0
vt 0.0 1.0
vt 0.0 0.0
vt 0.0 1.0
vt 0.0 1.0
vt 0.0 1.0
vt 0.0 0.0
vt 0.0 1.0
vt 0.0 1.0
vt 0.0 1.0
vt 0.0 0.0
vt 0.0 1.0
vt 0.0 1.0
vt 0.0 1.0
vt 0.0 0.0
vt 0.0 1.0
vt 0.0 1.0
vt 0.0 1.0
vt 0.0 0.0
vt 0.0 1.0
vt 0.0 1.0
vt 0.0 1.0
vt 0.0 0.0
vt 0.0 1.0
vt 0.0 1.0
vt 0.0 1.0
vt 0.0 0.0
vt 0.0 1.0
vt 0.0 1.0
vt 0.0 1.0
vt 0.0 0.0
vt 0.0 1.0
vt 0.0 1.0
vt 0.0 1.0
vt 0.0 0.0
vt 0.0 1.0
vt 0.0 1.0
vt 0.0 1.0
vt 0.0 0.0
vt 0.0 1.0
vt 0.0 1.0
vt 0.0 1.0
vt 0.0 0.0
vt 0.0 1.0
vt 0.0 1.0
vt 0.0 1.0
vt 0.0 0.0
vt 0.0 1.0
vt 0.0 1.0
vt 0.0 1.0
vt 0.0 0.0
vt 0.0 1.0
vt 0.0 1.0
vt 0.0 1.0
vt 0.0 0.0
vt 0.0 1.0
vt 0.0 1.0
vt 0.0 1.0
vt 0.0 0.0
vt 0.0 1.0
vt 0.0 1.0
vt 0.0 1.0
vt 0.0 0.0
vt 0.0 1.0
vt 0.0 1.0
vt 0.0 1.0
vt 0.0 0.0
vt 0.0 1.0
vt 0.0 1.0
vt 0.0 1.0
vt 0.0 0.0
vt 0.0 1.0
vt 0.0 1.0
vt 0.0 1.0
vt 0.0 0.0

g F_wed_hat_00
s 1
usemtl F_wed_hat_00
f 3/3/3 2/2/2 1/1/1 
f 4/4/4 3/3/3 1/1/1 
f 1/1/1 2/2/2 5/5/5 
f 2/2/2 6/6/6 5/5/5 
f 1/1/1 7/7/7 4/4/4 
f 7/7/7 8/8/8 4/4/4 
f 7/7/7 9/9/9 8/8/8 
f 9/9/9 10/10/10 8/8/8 
f 11/11/11 9/9/9 7/7/7 
f 12/12/12 11/11/11 7/7/7 
f 12/12/12 7/7/7 1/1/1 
f 5/5/5 12/12/12 1/1/1 
f 9/9/9 13/13/13 10/10/10 
f 13/13/13 14/14/14 10/10/10 
f 15/15/15 13/13/13 9/9/9 
f 11/11/11 15/15/15 9/9/9 
f 13/13/13 16/16/16 14/14/14 
f 16/16/16 17/17/17 14/14/14 
f 18/18/18 16/16/16 13/13/13 
f 15/15/15 18/18/18 13/13/13 
f 21/21/21 20/20/20 19/19/19 
f 22/22/22 21/21/21 19/19/19 
f 23/23/23 19/19/19 20/20/20 
f 24/24/24 23/23/23 20/20/20 
f 24/24/24 20/20/20 25/25/25 
f 20/20/20 21/21/21 25/25/25 
f 26/26/26 24/24/24 25/25/25 
f 21/21/21 27/27/27 25/25/25 
f 30/30/30 29/29/29 28/28/28 
f 31/31/31 30/30/30 28/28/28 
f 31/31/31 28/28/28 32/32/32 
f 33/33/33 31/31/31 32/32/32 
f 36/36/36 35/35/35 34/34/34 
f 37/37/37 36/36/36 34/34/34 
f 37/37/37 34/34/34 38/38/38 
f 39/39/39 37/37/37 38/38/38 
f 40/40/40 34/34/34 35/35/35 
f 41/41/41 40/40/40 35/35/35 
f 42/42/42 38/38/38 34/34/34 
f 40/40/40 42/42/42 34/34/34 
f 45/45/45 44/44/44 43/43/43 
f 46/46/46 45/45/45 43/43/43 
f 47/47/47 43/43/43 44/44/44 
f 48/48/48 47/47/47 44/44/44 
f 48/48/48 44/44/44 49/49/49 
f 44/44/44 45/45/45 49/49/49 
f 50/50/50 48/48/48 49/49/49 
f 45/45/45 51/51/51 49/49/49 
f 54/54/54 53/53/53 52/52/52 
f 55/55/55 54/54/54 52/52/52 
f 55/55/55 52/52/52 56/56/56 
f 57/57/57 55/55/55 56/56/56 
f 60/60/60 59/59/59 58/58/58 
f 61/61/61 60/60/60 58/58/58 
f 61/61/61 58/58/58 62/62/62 
f 63/63/63 61/61/61 62/62/62 
f 64/64/64 58/58/58 59/59/59 
f 65/65/65 64/64/64 59/59/59 
f 66/66/66 62/62/62 58/58/58 
f 64/64/64 66/66/66 58/58/58 
f 69/69/69 68/68/68 67/67/67 
f 70/70/70 69/69/69 67/67/67 
f 68/68/68 69/69/69 71/71/71 
f 72/72/72 68/68/68 71/71/71 
f 73/73/73 72/72/72 71/71/71 
f 72/72/72 73/73/73 74/74/74 
f 75/75/75 73/73/73 71/71/71 
f 76/76/76 67/67/67 68/68/68 
f 72/72/72 77/77/77 68/68/68 
f 77/77/77 72/72/72 74/74/74 
f 77/77/77 78/78/78 68/68/68 
f 77/77/77 79/79/79 78/78/78 
f 79/79/79 77/77/77 80/80/80 
f 80/80/80 77/77/77 74/74/74 
f 81/81/81 79/79/79 80/80/80 
f 79/79/79 82/82/82 78/78/78 
f 79/79/79 83/83/83 82/82/82 
f 83/83/83 79/79/79 81/81/81 
f 83/83/83 84/84/84 82/82/82 
f 82/82/82 84/84/84 85/85/85 
f 86/86/86 82/82/82 85/85/85 
f 84/84/84 83/83/83 87/87/87 
f 88/88/88 84/84/84 87/87/87 
f 89/89/89 88/88/88 87/87/87 
f 89/89/89 87/87/87 90/90/90 
f 90/90/90 87/87/87 91/91/91 
f 89/89/89 90/90/90 92/92/92 
f 90/90/90 93/93/93 92/92/92 
f 93/93/93 90/90/90 91/91/91 
f 94/94/94 89/89/89 92/92/92 
f 89/89/89 94/94/94 95/95/95 
f 96/96/96 89/89/89 95/95/95 
f 97/97/97 96/96/96 95/95/95 
f 96/96/96 97/97/97 98/98/98 
f 97/97/97 99/99/99 98/98/98 
f 100/100/100 93/93/93 91/91/91 
f 91/91/91 101/101/101 100/100/100 
f 101/101/101 91/91/91 102/102/102 
f 91/91/91 103/103/103 102/102/102 
f 104/104/104 101/101/101 102/102/102 
f 96/96/96 98/98/98 105/105/105 
f 106/106/106 96/96/96 105/105/105 
f 91/91/91 87/87/87 103/103/103 
f 103/103/103 87/87/87 107/107/107 
f 87/87/87 83/83/83 107/107/107 
f 107/107/107 83/83/83 81/81/81 
f 96/96/96 106/106/106 89/89/89 
f 106/106/106 88/88/88 89/89/89 
f 88/88/88 106/106/106 84/84/84 
f 106/106/106 85/85/85 84/84/84 
f 106/106/106 105/105/105 85/85/85 
f 105/105/105 108/108/108 85/85/85 
f 108/108/108 109/109/109 85/85/85 
f 109/109/109 86/86/86 85/85/85 
f 86/86/86 109/109/109 110/110/110 
f 109/109/109 111/111/111 110/110/110 
f 76/76/76 110/110/110 111/111/111 
f 76/76/76 68/68/68 110/110/110 
f 68/68/68 78/78/78 110/110/110 
f 82/82/82 86/86/86 110/110/110 
f 78/78/78 82/82/82 110/110/110 
f 114/114/114 113/113/113 112/112/112 
f 115/115/115 114/114/114 112/112/112 
f 114/114/114 116/116/116 113/113/113 
f 116/116/116 117/117/117 113/113/113 
f 114/114/114 115/115/115 118/118/118 
f 115/115/115 119/119/119 118/118/118 
f 118/118/118 119/119/119 120/120/120 
f 119/119/119 121/121/121 120/120/120 
f 118/118/118 120/120/120 122/122/122 
f 123/123/123 118/118/118 122/122/122 
f 114/114/114 118/118/118 123/123/123 
f 116/116/116 114/114/114 123/123/123 
f 120/120/120 121/121/121 124/124/124 
f 121/121/121 125/125/125 124/124/124 
f 120/120/120 124/124/124 126/126/126 
f 122/122/122 120/120/120 126/126/126 
f 124/124/124 125/125/125 127/127/127 
f 125/125/125 128/128/128 127/127/127 
f 124/124/124 127/127/127 129/129/129 
f 126/126/126 124/124/124 129/129/129 
f 132/132/132 131/131/131 130/130/130 
f 133/133/133 132/132/132 130/130/130 
f 131/131/131 132/132/132 134/134/134 
f 135/135/135 131/131/131 134/134/134 
f 136/136/136 131/131/131 135/135/135 
f 131/131/131 136/136/136 130/130/130 
f 137/137/137 136/136/136 135/135/135 
f 136/136/136 138/138/138 130/130/130 
f 141/141/141 140/140/140 139/139/139 
f 142/142/142 141/141/141 139/139/139 
f 143/143/143 141/141/141 142/142/142 
f 144/144/144 143/143/143 142/142/142 
f 147/147/147 146/146/146 145/145/145 
f 148/148/148 147/147/147 145/145/145 
f 149/149/149 147/147/147 148/148/148 
f 150/150/150 149/149/149 148/148/148 
f 146/146/146 147/147/147 151/151/151 
f 152/152/152 146/146/146 151/151/151 
f 147/147/147 149/149/149 153/153/153 
f 151/151/151 147/147/147 153/153/153 
f 156/156/156 155/155/155 154/154/154 
f 157/157/157 156/156/156 154/154/154 
f 155/155/155 156/156/156 158/158/158 
f 159/159/159 155/155/155 158/158/158 
f 160/160/160 155/155/155 159/159/159 
f 155/155/155 160/160/160 154/154/154 
f 161/161/161 160/160/160 159/159/159 
f 160/160/160 162/162/162 154/154/154 
f 165/165/165 164/164/164 163/163/163 
f 166/166/166 165/165/165 163/163/163 
f 167/167/167 165/165/165 166/166/166 
f 168/168/168 167/167/167 166/166/166 
f 171/171/171 170/170/170 169/169/169 
f 172/172/172 171/171/171 169/169/169 
f 173/173/173 171/171/171 172/172/172 
f 174/174/174 173/173/173 172/172/172 
f 170/170/170 171/171/171 175/175/175 
f 176/176/176 170/170/170 175/175/175 
f 171/171/171 173/173/173 177/177/177 
f 175/175/175 171/171/171 177/177/177 
f 180/180/180 179/179/179 178/178/178 
f 181/181/181 180/180/180 178/178/178 
f 182/182/182 178/178/178 179/179/179 
f 183/183/183 182/182/182 179/179/179 
f 182/182/182 183/183/183 184/184/184 
f 183/183/183 185/185/185 184/184/184 
f 186/186/186 182/182/182 184/184/184 
f 187/187/187 179/179/179 180/180/180 
f 183/183/183 179/179/179 188/188/188 
f 185/185/185 183/183/183 188/188/188 
f 179/179/179 189/189/189 188/188/188 
f 188/188/188 189/189/189 190/190/190 
f 191/191/191 188/188/188 190/190/190 
f 191/191/191 185/185/185 188/188/188 
f 192/192/192 191/191/191 190/190/190 
f 189/189/189 193/193/193 190/190/190 
f 190/190/190 193/193/193 194/194/194 
f 192/192/192 190/190/190 194/194/194 
f 193/193/193 195/195/195 194/194/194 
f 196/196/196 195/195/195 193/193/193 
f 197/197/197 196/196/196 193/193/193 
f 198/198/198 194/194/194 195/195/195 
f 199/199/199 198/198/198 195/195/195 
f 200/200/200 198/198/198 199/199/199 
f 200/200/200 201/201/201 198/198/198 
f 201/201/201 202/202/202 198/198/198 
f 203/203/203 201/201/201 200/200/200 
f 201/201/201 203/203/203 204/204/204 
f 202/202/202 201/201/201 204/204/204 
f 205/205/205 203/203/203 200/200/200 
f 200/200/200 206/206/206 205/205/205 
f 206/206/206 200/200/200 207/207/207 
f 208/208/208 206/206/206 207/207/207 
f 207/207/207 209/209/209 208/208/208 
f 209/209/209 210/210/210 208/208/208 
f 211/211/211 202/202/202 204/204/204 
f 202/202/202 211/211/211 212/212/212 
f 213/213/213 202/202/202 212/212/212 
f 202/202/202 213/213/213 214/214/214 
f 215/215/215 213/213/213 212/212/212 
f 207/207/207 216/216/216 209/209/209 
f 217/217/217 216/216/216 207/207/207 
f 202/202/202 214/214/214 198/198/198 
f 214/214/214 218/218/218 198/198/198 
f 218/218/218 194/194/194 198/198/198 
f 218/218/218 192/192/192 194/194/194 
f 207/207/207 200/200/200 217/217/217 
f 200/200/200 199/199/199 217/217/217 
f 199/199/199 195/195/195 217/217/217 
f 195/195/195 196/196/196 217/217/217 
f 217/217/217 196/196/196 216/216/216 
f 196/196/196 219/219/219 216/216/216 
f 219/219/219 196/196/196 220/220/220 
f 196/196/196 197/197/197 220/220/220 
f 197/197/197 221/221/221 220/220/220 
f 221/221/221 222/222/222 220/220/220 
f 187/187/187 222/222/222 221/221/221 
f 187/187/187 221/221/221 179/179/179 
f 221/221/221 189/189/189 179/179/179 
f 221/221/221 197/197/197 193/193/193 
f 189/189/189 221/221/221 193/193/193 
f 225/225/225 224/224/224 223/223/223 
f 223/223/223 224/224/224 226/226/226 
f 224/224/224 227/227/227 226/226/226 
f 224/224/224 228/228/228 227/227/227 
f 228/228/228 224/224/224 229/229/229 
f 224/224/224 230/230/230 229/229/229 
f 231/231/231 230/230/230 224/224/224 
f 231/231/231 224/224/224 232/232/232 
f 233/233/233 232/232/232 224/224/224 
f 234/234/234 233/233/233 224/224/224 
f 224/224/224 235/235/235 234/234/234 
f 235/235/235 224/224/224 236/236/236 
f 237/237/237 236/236/236 224/224/224 
f 238/238/238 237/237/237 224/224/224 
f 224/224/224 239/239/239 238/238/238 
f 240/240/240 239/239/239 224/224/224 
f 241/241/241 240/240/240 224/224/224 
f 224/224/224 242/242/242 241/241/241 
f 243/243/243 242/242/242 224/224/224 
f 243/243/243 224/224/224 244/244/244 
f 224/224/224 245/245/245 244/244/244 
f 246/246/246 245/245/245 224/224/224 
f 225/225/225 246/246/246 224/224/224 
f 249/249/249 248/248/248 247/247/247 
f 250/250/250 249/249/249 247/247/247 
f 247/247/247 251/251/251 250/250/250 
f 247/247/247 252/252/252 251/251/251 
f 252/252/252 253/253/253 251/251/251 
f 253/253/253 254/254/254 251/251/251 
f 255/255/255 254/254/254 253/253/253 
f 256/256/256 255/255/255 253/253/253 
f 254/254/254 257/257/257 251/251/251 
f 251/251/251 257/257/257 250/250/250 
f 256/256/256 253/253/253 258/258/258 
f 253/253/253 259/259/259 258/258/258 
f 252/252/252 259/259/259 253/253/253 
f 259/259/259 252/252/252 260/260/260 
f 258/258/258 259/259/259 260/260/260 
f 261/261/261 258/258/258 260/260/260 
f 262/262/262 261/261/261 260/260/260 
f 260/260/260 252/252/252 263/263/263 
f 262/262/262 260/260/260 263/263/263 
f 264/264/264 262/262/262 263/263/263 
f 265/265/265 264/264/264 263/263/263 
f 266/266/266 265/265/265 263/263/263 
f 252/252/252 266/266/266 263/263/263 
f 266/266/266 252/252/252 267/267/267 
f 252/252/252 268/268/268 267/267/267 
f 268/268/268 269/269/269 267/267/267 
f 270/270/270 269/269/269 268/268/268 
f 271/271/271 270/270/270 268/268/268 
f 269/269/269 272/272/272 267/267/267 
f 273/273/273 267/267/267 272/272/272 
f 273/273/273 265/265/265 266/266/266 
f 273/273/273 266/266/266 267/267/267 
f 268/268/268 252/252/252 274/274/274 
f 271/271/271 268/268/268 274/274/274 
f 275/275/275 271/271/271 274/274/274 
f 276/276/276 275/275/275 274/274/274 
f 277/277/277 276/276/276 274/274/274 
f 274/274/274 252/252/252 278/278/278 
f 277/277/277 274/274/274 278/278/278 
f 252/252/252 279/279/279 278/278/278 
f 279/279/279 280/280/280 278/278/278 
f 280/280/280 277/277/277 278/278/278 
f 281/281/281 280/280/280 279/279/279 
f 281/281/281 279/279/279 282/282/282 
f 279/279/279 252/252/252 283/283/283 
f 279/279/279 283/283/283 282/282/282 
f 283/283/283 248/248/248 282/282/282 
f 247/247/247 248/248/248 283/283/283 
f 252/252/252 247/247/247 283/283/283 
f 286/286/286 285/285/285 284/284/284 
f 284/284/284 285/285/285 287/287/287 
f 285/285/285 288/288/288 287/287/287 
f 285/285/285 289/289/289 288/288/288 
f 289/289/289 285/285/285 290/290/290 
f 285/285/285 291/291/291 290/290/290 
f 292/292/292 291/291/291 285/285/285 
f 292/292/292 285/285/285 293/293/293 
f 294/294/294 293/293/293 285/285/285 
f 295/295/295 294/294/294 285/285/285 
f 285/285/285 296/296/296 295/295/295 
f 296/296/296 285/285/285 297/297/297 
f 298/298/298 297/297/297 285/285/285 
f 285/285/285 299/299/299 298/298/298 
f 300/300/300 299/299/299 285/285/285 
f 301/301/301 300/300/300 285/285/285 
f 285/285/285 302/302/302 301/301/301 
f 303/303/303 302/302/302 285/285/285 
f 303/303/303 285/285/285 304/304/304 
f 285/285/285 305/305/305 304/304/304 
f 306/306/306 305/305/305 285/285/285 
f 286/286/286 306/306/306 285/285/285 
f 309/309/309 308/308/308 307/307/307 
f 310/310/310 309/309/309 307/307/307 
f 311/311/311 310/310/310 307/307/307 
f 307/307/307 308/308/308 312/312/312 
f 312/312/312 308/308/308 313/313/313 
f 314/314/314 312/312/312 313/313/313 
f 314/314/314 315/315/315 312/312/312 
f 312/312/312 315/315/315 316/316/316 
f 316/316/316 317/317/317 312/312/312 
f 312/312/312 317/317/317 307/307/307 
f 307/307/307 317/317/317 318/318/318 
f 318/318/318 311/311/311 307/307/307 
f 319/319/319 311/311/311 318/318/318 
f 320/320/320 319/319/319 318/318/318 
f 317/317/317 320/320/320 318/318/318 
f 321/321/321 319/319/319 320/320/320 
f 322/322/322 321/321/321 320/320/320 
f 322/322/322 320/320/320 323/323/323 
f 320/320/320 324/324/324 323/323/323 
f 317/317/317 324/324/324 320/320/320 
f 324/324/324 317/317/317 325/325/325 
f 323/323/323 324/324/324 325/325/325 
f 326/326/326 323/323/323 325/325/325 
f 327/327/327 326/326/326 325/325/325 
f 325/325/325 317/317/317 328/328/328 
f 327/327/327 325/325/325 328/328/328 
f 329/329/329 327/327/327 328/328/328 
f 330/330/330 329/329/329 328/328/328 
f 317/317/317 330/330/330 328/328/328 
f 330/330/330 317/317/317 331/331/331 
f 331/331/331 317/317/317 332/332/332 
f 333/333/333 331/331/331 332/332/332 
f 334/334/334 333/333/333 332/332/332 
f 335/335/335 334/334/334 332/332/332 
f 333/333/333 336/336/336 331/331/331 
f 337/337/337 331/331/331 336/336/336 
f 337/337/337 329/329/329 330/330/330 
f 337/337/337 330/330/330 331/331/331 
f 335/335/335 332/332/332 338/338/338 
f 339/339/339 335/335/335 338/338/338 
f 340/340/340 339/339/339 338/338/338 
f 332/332/332 317/317/317 338/338/338 
f 341/341/341 340/340/340 338/338/338 
f 338/338/338 317/317/317 316/316/316 
f 341/341/341 338/338/338 316/316/316 
f 315/315/315 341/341/341 316/316/316 
f 344/344/344 343/343/343 342/342/342 
f 342/342/342 343/343/343 345/345/345 
f 342/342/342 345/345/345 346/346/346 
f 342/342/342 347/347/347 344/344/344 
f 342/342/342 348/348/348 347/347/347 
f 342/342/342 349/349/349 348/348/348 
f 342/342/342 350/350/350 349/349/349 
f 342/342/342 351/351/351 350/350/350 
f 351/351/351 342/342/342 346/346/346 
f 354/354/354 353/353/353 352/352/352 
f 355/355/355 354/354/354 352/352/352 
f 356/356/356 355/355/355 352/352/352 
f 355/355/355 356/356/356 357/357/357 
f 352/352/352 358/358/358 356/356/356 
f 359/359/359 354/354/354 355/355/355 
f 357/357/357 359/359/359 355/355/355 
f 357/357/357 356/356/356 360/360/360 
f 361/361/361 359/359/359 357/357/357 
f 360/360/360 361/361/361 357/357/357 
f 360/360/360 362/362/362 361/361/361 
f 360/360/360 356/356/356 362/362/362 
f 362/362/362 363/363/363 361/361/361 
f 364/364/364 363/363/363 362/362/362 
f 365/365/365 364/364/364 362/362/362 
f 356/356/356 365/365/365 362/362/362 
f 366/366/366 364/364/364 365/365/365 
f 367/367/367 366/366/366 365/365/365 
f 356/356/356 367/367/367 365/365/365 
f 368/368/368 366/366/366 367/367/367 
f 369/369/369 368/368/368 367/367/367 
f 369/369/369 367/367/367 356/356/356 
f 356/356/356 358/358/358 369/369/369 
f 369/369/369 358/358/358 370/370/370 
f 368/368/368 369/369/369 370/370/370 
f 370/370/370 358/358/358 352/352/352 
f 353/353/353 370/370/370 352/352/352 
f 373/373/373 372/372/372 371/371/371 
f 373/373/373 371/371/371 374/374/374 
f 374/374/374 371/371/371 375/375/375 
f 376/376/376 371/371/371 372/372/372 
f 377/377/377 371/371/371 376/376/376 
f 378/378/378 371/371/371 377/377/377 
f 379/379/379 371/371/371 378/378/378 
f 380/380/380 371/371/371 379/379/379 
f 371/371/371 380/380/380 375/375/375 
f 379/379/379 381/381/381 380/380/380 
f 373/373/373 381/381/381 372/372/372 
f 381/381/381 374/374/374 375/375/375 
f 379/379/379 378/378/378 381/381/381 
f 375/375/375 380/380/380 381/381/381 
f 378/378/378 377/377/377 381/381/381 
f 372/372/372 381/381/381 376/376/376 
f 377/377/377 376/376/376 381/381/381 
f 373/373/373 374/374/374 381/381/381 

