v -0.4069291353225708 -0.3476291596889496 2.0652809143066406
v -0.306978702545166 -0.5283985733985901 2.0441091060638428
v -0.4076772928237915 -0.4552365243434906 2.0441091060638428
v -0.305931955575943 -0.31447118520736694 2.087902545928955
v -0.20454338192939758 -0.388134628534317 2.087902545928955
v -0.20486906170845032 -0.49443498253822327 2.0652809143066406
v 0.205082967877388 -0.4949544072151184 2.067448139190674
v 0.10241757333278656 -0.35484960675239563 2.1035618782043457
v 0.2047571837902069 -0.38854238390922546 2.0900933742523193
v -1.332524846020533e-08 -0.42702609300613403 2.0926129817962646
v -2.3705144513996856e-08 -0.5317516922950745 2.0684828758239746
v 0.10271760076284409 -0.566012978553772 2.0568079948425293
vn -0.14837628602981567 -0.19557572901248932 0.969399094581604
vn -0.14145377278327942 -0.198445662856102 0.9698505401611328
vn -0.13823959231376648 -0.19026975333690643 0.9719502329826355
vn -0.14838232100009918 -0.19763509929180145 0.9689804315567017
vn -0.1405745893716812 -0.20008040964603424 0.9696425199508667
vn -0.132535919547081 -0.2059227079153061 0.9695515036582947
vn 0.049597013741731644 -0.21379415690898895 0.975618839263916
vn 0.051476359367370605 -0.2137344777584076 0.9755346775054932
vn 0.06015055254101753 -0.20759208500385284 0.9763643145561218
vn 0.04642674699425697 -0.22074544429779053 0.9742258787155151
vn 0.044333167374134064 -0.21968311071395874 0.9745634198188782
vn 0.042064689099788666 -0.20695918798446655 0.9774448871612549
vt 0.4957042932510376 0.021141409873962402
vt 0.08887539058923721 0.7312936186790466
vt 0.088875412940979 0.25752103328704834
vt 0.9111247062683105 0.25752103328704834
vt 0.9111247062683105 0.7312936782836914
vt 0.5053901672363281 0.9711028337478638
vt 0.088875412940979 0.25752103328704834
vt 0.5053901672363281 0.9711028337478638
vt 0.08887539058923721 0.7312936186790466
vt 0.9111247062683105 0.7312936782836914
vt 0.9111247062683105 0.25752103328704834
vt 0.4957042932510376 0.021141409873962402

g eff_ndl_shield_027
s 1
usemtl eff_ndl_shield_027
f 3/3/3 2/2/2 1/1/1 
f 1/1/1 2/2/2 4/4/4 
f 2/2/2 5/5/5 4/4/4 
f 6/6/6 5/5/5 2/2/2 
f 9/9/9 8/8/8 7/7/7 
f 8/8/8 10/10/10 7/7/7 
f 10/10/10 11/11/11 7/7/7 
f 11/11/11 12/12/12 7/7/7 

