v -0.5 -3.966922790255012e-08 -5.649424039688711e-08
v 1.6812795600174013e-09 4.042162604633859e-09 4.042164380990698e-09
v -0.4999999403953552 -0.5 0.0
v 4.53926709553798e-08 -0.5 7.629394360719743e-08
v 0.5 4.7753555776353096e-08 6.748340553031085e-08
v 0.5 -0.4999999403953552 1.5258788721439487e-07
v -4.203010561809606e-08 0.5 -7.629394360719743e-08
v -0.5 0.4999999403953552 -1.5258788721439487e-07
v 0.4999999403953552 0.5 3.814697180359872e-08
vn -1.2895159784420684e-07 1.447091193540473e-07 1.0
vn -1.4066696962800052e-07 1.3589857417173334e-07 1.0
vn -1.3683036570455442e-07 1.2874602361989673e-07 1.0
vn -1.4616155397106922e-07 1.5092992100562697e-07 1.0
vn -1.333088448518538e-07 1.0801456795661579e-07 1.0
vn -1.525879156361043e-07 1.7020899178987747e-07 1.0
vn -1.828561266847828e-07 1.6855098294854542e-07 1.0
vn -1.525879156361043e-07 1.921873149512976e-07 1.0
vn -1.7788217121506023e-07 1.0967252705995634e-07 1.0
vt 2.086162567138672e-07 1.1920928955078125e-07
vt 2.8411415087248315e-07 1.0000000596046377
vt 1.0000001192092896 5.960464477539063e-08
vt 1.000000238418579 0.9999999999999964
vt 2.086162567138672e-07 1.1920928955078125e-07
vt 1.0000001192092896 5.960464477539063e-08
vt 1.000000238418579 0.9999999999999964
vt 1.0000001192092896 5.960464477539063e-08
vt 1.0000001192092896 5.960464477539063e-08

g eff_mdl_plane05
s 1
usemtl eff_mdl_plane05
f 3/3/3 2/2/2 1/1/1 
f 2/2/2 3/3/3 4/4/4 
f 4/4/4 5/5/5 2/2/2 
f 5/5/5 4/4/4 6/6/6 
f 7/7/7 1/1/1 2/2/2 
f 1/1/1 7/7/7 8/8/8 
f 2/2/2 9/9/9 7/7/7 
f 9/9/9 2/2/2 5/5/5 

