v -0.0074790422804653645 0.03326324373483658 -0.0631868913769722
v 0.007479063700884581 -0.014339127577841282 -0.06014281138777733
v 0.007479071617126465 0.03326324373483658 -0.0631868913769722
v -0.007479050196707249 -0.014339127577841282 -0.06014281138777733
v -0.0074790529906749725 -0.03521101921796799 0.0483444482088089
v 0.007479060906916857 -0.035211022943258286 0.0483444482088089
v 0.007479051593691111 -0.0888599157333374 0.0483209602534771
v -0.007479061838239431 -0.0888599157333374 0.0483209602534771
v 0.007479067891836166 0.00839058868587017 0.05366065353155136
v -0.007479046005755663 0.008228302001953125 0.05366065353155136
v 0.007479067891836166 0.008389529772102833 0.1089613288640976
v -0.007479046005755663 0.008389529772102833 0.1089613288640976
v -0.007479063700884581 -0.1000315248966217 0.03489111736416817
v 0.007479050196707249 -0.1000315248966217 0.03489111736416817
v -0.0074790664948523045 -0.11878398805856705 0.04036427289247513
v 0.0074790469370782375 -0.11878398805856705 0.04036427289247513
v -0.0074790664948523045 -0.11876475811004639 0.10896240174770355
v 0.0074790469370782375 -0.11876475811004639 0.10896240174770355
v -0.007479063700884581 -0.1000315248966217 0.03489111736416817
v -0.007479061838239431 -0.0888599157333374 0.0483209602534771
v -0.0074790664948523045 -0.11878398805856705 0.04036427289247513
v -0.0074790664948523045 -0.11876475811004639 0.10896240174770355
v -0.007479046005755663 0.008389529772102833 0.1089613288640976
v -0.0074790529906749725 -0.03521101921796799 0.0483444482088089
v -0.007479046005755663 0.008228302001953125 0.05366065353155136
v -0.007479050196707249 -0.014339127577841282 -0.06014281138777733
v -0.0074790422804653645 0.03326324373483658 -0.0631868913769722
v 1.679792876529973e-05 -0.05348513647913933 0.023594586178660393
v 1.6797726857475936e-05 -0.05472796410322189 0.05189356580376625
v 1.6799840523162857e-05 -0.041758306324481964 0.052740272134542465
v 0.0074790469370782375 -0.11878398805856705 0.04036427289247513
v 0.007479051593691111 -0.0888599157333374 0.0483209602534771
v 0.007479050196707249 -0.1000315248966217 0.03489111736416817
v 0.0074790469370782375 -0.11876475811004639 0.10896240174770355
v 0.007479067891836166 0.008389529772102833 0.1089613288640976
v 0.007479060906916857 -0.035211022943258286 0.0483444482088089
v 0.007479067891836166 0.00839058868587017 0.05366065353155136
v 0.007479063700884581 -0.014339127577841282 -0.06014281138777733
v 0.007479071617126465 0.03326324373483658 -0.0631868913769722
v -0.04202038049697876 -0.47515255212783813 0.24899344146251678
v 9.484346810495481e-05 -0.4751269519329071 0.2653670310974121
v 9.48434608289972e-05 -0.47515788674354553 0.23669539391994476
v -0.04202038049697876 -0.47515255212783813 0.25717970728874207
v -0.062101081013679504 -0.47509488463401794 0.21172237396240234
v -0.07863160222768784 -0.4750564992427826 0.2254106104373932
v -0.10153856873512268 -0.47515255212783813 0.19312581419944763
v -0.0879272073507309 -0.4751589596271515 0.1503061205148697
v 0.0001082736998796463 -0.42843714356422424 0.1503061205148697
v -0.06319870799779892 -0.47509488463401794 0.08971558511257172
v 9.48434608289972e-05 -0.4751589596271515 0.0638168528676033
v -0.11688925325870514 -0.4751269519329071 0.1503061205148697
v -0.10996292531490326 -0.47515255212783813 0.19312581419944763
v -0.10153856873512268 -0.47515255212783813 0.10668601095676422
v -0.10996292531490326 -0.47515255212783813 0.10668601095676422
v -0.07863160222768784 -0.4750564992427826 0.07292347401380539
v -0.04202038049697876 -0.47515255212783813 0.05091553181409836
v 9.484346810495481e-05 -0.4751269519329071 0.03481103479862213
v -0.04202038049697876 -0.47515255212783813 0.042726077139377594
v 0.0001082736998796463 -0.42843714356422424 0.03481103852391243
v 0.0001082736998796463 -0.42843714356422424 0.2653670310974121
v -0.04202037304639816 -0.42843714356422424 0.05091552436351776
v -0.10153856128454208 -0.42843714356422424 0.10668601095676422
v -0.11688924580812454 -0.42843714356422424 0.1503061205148697
v -0.10153856128454208 -0.42843714356422424 0.19312675297260284
v -0.04202037304639816 -0.42843714356422424 0.24899344146251678
v -0.04202037304639816 -0.42843714356422424 0.25717970728874207
v -0.10996291786432266 -0.42843714356422424 0.10668601095676422
v -0.10996291786432266 -0.42843714356422424 0.19312548637390137
v -0.04202037304639816 -0.42843714356422424 0.042726073414087296
v -0.04202038049697876 -0.47515255212783813 0.25717970728874207
v 0.0001082736998796463 -0.42843714356422424 0.2653670310974121
v 9.484346810495481e-05 -0.4751269519329071 0.2653670310974121
v -0.04202037304639816 -0.42843714356422424 0.25717970728874207
v -0.04202038049697876 -0.47515255212783813 0.24899344146251678
v -0.04202037304639816 -0.42843714356422424 0.24899344146251678
v -0.07863160222768784 -0.4750564992427826 0.2254106104373932
v -0.10153856128454208 -0.42843714356422424 0.19312675297260284
v -0.10153856873512268 -0.47515255212783813 0.19312581419944763
v -0.10996291786432266 -0.42843714356422424 0.19312548637390137
v -0.10996292531490326 -0.47515255212783813 0.19312581419944763
v -0.11688925325870514 -0.4751269519329071 0.1503061205148697
v -0.11688924580812454 -0.42843714356422424 0.1503061205148697
v -0.10996291786432266 -0.42843714356422424 0.10668601095676422
v -0.10996292531490326 -0.47515255212783813 0.10668601095676422
v -0.10153856873512268 -0.47515255212783813 0.10668601095676422
v -0.10153856128454208 -0.42843714356422424 0.10668601095676422
v -0.07863160222768784 -0.4750564992427826 0.07292347401380539
v -0.04202037304639816 -0.42843714356422424 0.05091552436351776
v -0.04202038049697876 -0.47515255212783813 0.05091553181409836
v -0.04202037304639816 -0.42843714356422424 0.042726073414087296
v -0.04202038049697876 -0.47515255212783813 0.042726077139377594
v 0.0001082736998796463 -0.42843714356422424 0.03481103852391243
v 9.484346810495481e-05 -0.4751269519329071 0.03481103479862213
v -0.009481423534452915 -0.23026446998119354 -0.05586443841457367
v -0.009481417015194893 -0.1890827715396881 0.024890800938010216
v -0.009481423534452915 -0.23113253712654114 0.025973476469516754
v -0.009481417015194893 -0.18991239368915558 -0.05986306443810463
v -0.009480351582169533 -0.2063090056180954 0.10105589032173157
v -0.009480344131588936 -0.16036845743656158 0.10067471116781235
v -0.061304789036512375 -0.42843714356422424 0.22084194421768188
v -1.6068355762399733e-05 -0.39646974205970764 0.21158891916275024
v 0.0001082736998796463 -0.42843714356422424 0.24427083134651184
v -0.044348008930683136 -0.3964708149433136 0.1963108330965042
v -0.08845604956150055 -0.42843714356422424 0.1503061205148697
v -0.06534267961978912 -0.3964708149433136 0.1504691243171692
v -0.044348008930683136 -0.3964708149433136 0.10465092211961746
v -0.061304789036512375 -0.42843714356422424 0.0803181380033493
v -1.6068355762399733e-05 -0.39646974205970764 0.08860836178064346
v 0.0001082736998796463 -0.42843714356422424 0.05572846159338951
v -0.04269623011350632 -0.3683854341506958 0.19462117552757263
v -1.6082285583252087e-05 -0.3683854341506958 0.20932960510253906
v -0.06122659519314766 -0.368385374546051 0.15046530961990356
v -0.04269623011350632 -0.3683854341506958 0.10637637227773666
v -1.6082285583252087e-05 -0.3683854341506958 0.09093066304922104
v -0.04269622638821602 -0.32223087549209595 0.19462169706821442
v -1.610438084753696e-05 -0.32223087549209595 0.20932960510253906
v -0.06130881607532501 -0.3222317099571228 0.1504565179347992
v -0.04269622638821602 -0.32223087549209595 0.10637637227773666
v -1.610438084753696e-05 -0.32223087549209595 0.09093066304922104
v -0.053134188055992126 0.3832395374774933 0.09510866552591324
v 7.454888617530742e-08 0.3832395374774933 0.22343318164348602
v -0.053134188055992126 0.3832395374774933 0.20447039604187012
v 7.454888617530742e-08 0.3832395374774933 0.07686124742031097
v -0.07675119489431381 0.3832395374774933 0.15047767758369446
v -0.053134188055992126 0.3832395374774933 0.20447039604187012
v 6.813274922023993e-08 0.34385761618614197 0.22343318164348602
v -0.05319078266620636 0.34385862946510315 0.20447145402431488
v 7.454888617530742e-08 0.3832395374774933 0.22343318164348602
v -0.07675119489431381 0.3832395374774933 0.15047767758369446
v -0.076751209795475 0.34385761618614197 0.15047767758369446
v -0.053134188055992126 0.3832395374774933 0.09510866552591324
v -0.05319078266620636 0.34385761618614197 0.0951097309589386
v 7.454888617530742e-08 0.3832395374774933 0.07686124742031097
v 6.813274922023993e-08 0.34385761618614197 0.07686124742031097
v -1.5974679627106525e-05 0.17850543558597565 0.20184165239334106
v -0.037753645330667496 0.1785043627023697 0.18900974094867706
v -1.600285031599924e-05 0.005601263139396906 0.2093392163515091
v -0.04269617050886154 0.005601267796009779 0.19463130831718445
v -0.054137881845235825 0.1785043627023697 0.15046700835227966
v -0.061227601021528244 0.005600204225629568 0.15047019720077515
v -0.037753645330667496 0.1785043627023697 0.1120096817612648
v -0.0426972396671772 0.005601267796009779 0.10638704150915146
v -1.5974679627106525e-05 0.17850543558597565 0.09852965176105499
v -1.600285031599924e-05 0.005601263139396906 0.09094027429819107
v -1.6056261301855557e-05 -0.32222980260849 0.20932960510253906
v -0.04269622266292572 -0.32223087549209595 0.19462169706821442
v -0.06122659146785736 -0.32223081588745117 0.15047019720077515
v -0.04269622266292572 -0.32223087549209595 0.10637637227773666
v -1.6056261301855557e-05 -0.32222980260849 0.09093066304922104
v -8.453725968138315e-06 0.4662519693374634 0.20547297596931458
v -0.03963814675807953 0.37745994329452515 0.18919230997562408
v -0.04098346456885338 0.4662519693374634 0.18918590247631073
v -1.7009992006933317e-05 0.37745994329452515 0.20546764135360718
v -0.056834910064935684 0.4662519693374634 0.15046273171901703
v -0.0559455081820488 0.3774589002132416 0.15047019720077515
v -0.04098346456885338 0.4662519693374634 0.11155269294977188
v -0.03963814675807953 0.37745994329452515 0.1115548312664032
v -8.453725968138315e-06 0.4662519693374634 0.09491754323244095
v -1.7009992006933317e-05 0.37745994329452515 0.0949239432811737
v 9.48434608289972e-05 -0.47515788674354553 0.23669539391994476
v 9.484346810495481e-05 -0.4751269519329071 0.2653670310974121
v 0.042020250111818314 -0.47515255212783813 0.24899344146251678
v 0.042020250111818314 -0.47515255212783813 0.25717970728874207
v 0.06402178853750229 -0.47509488463401794 0.20941288769245148
v 0.08010172843933105 -0.4750564992427826 0.2254106104373932
v 0.10153843462467194 -0.47515255212783813 0.1931268870830536
v 0.0001082736998796463 -0.42843714356422424 0.1503061205148697
v 0.08791640400886536 -0.4751589596271515 0.1503061205148697
v 0.11720943450927734 -0.4751269817352295 0.1503061205148697
v 0.10996279120445251 -0.47515255212783813 0.19312581419944763
v 0.10153843462467194 -0.47515255212783813 0.10668601095676422
v 0.10996279120445251 -0.47515255212783813 0.10668601095676422
v 0.06291668862104416 -0.47509488463401794 0.08736765384674072
v 0.08010172843933105 -0.4750564992427826 0.07292347401380539
v 0.042020250111818314 -0.47515255212783813 0.05091553181409836
v 9.48434608289972e-05 -0.4751589596271515 0.0638168528676033
v 9.484346810495481e-05 -0.4751269519329071 0.03481103479862213
v 0.042020250111818314 -0.47515255212783813 0.042726077139377594
v 0.10153844952583313 -0.42843714356422424 0.10668601095676422
v 0.0001082736998796463 -0.42843714356422424 0.2653670310974121
v 0.04202025383710861 -0.42843714356422424 0.05091552436351776
v 0.11720944195985794 -0.42843717336654663 0.1503061205148697
v 0.10153844952583313 -0.42843714356422424 0.19312548637390137
v 0.04202025383710861 -0.42843714356422424 0.24899344146251678
v 0.0001082736998796463 -0.42843714356422424 0.03481103852391243
v 0.04202025383710861 -0.42843714356422424 0.25717970728874207
v 0.10996280610561371 -0.42843714356422424 0.19312548637390137
v 0.10996280610561371 -0.42843714356422424 0.10668601095676422
v 0.04202025383710861 -0.42843714356422424 0.042726073414087296
v 0.0001082736998796463 -0.42843714356422424 0.2653670310974121
v 0.042020250111818314 -0.47515255212783813 0.25717970728874207
v 9.484346810495481e-05 -0.4751269519329071 0.2653670310974121
v 0.04202025383710861 -0.42843714356422424 0.25717970728874207
v 0.042020250111818314 -0.47515255212783813 0.24899344146251678
v 0.04202025383710861 -0.42843714356422424 0.24899344146251678
v 0.08010172843933105 -0.4750564992427826 0.2254106104373932
v 0.10153844952583313 -0.42843714356422424 0.19312548637390137
v 0.10153843462467194 -0.47515255212783813 0.1931268870830536
v 0.10996280610561371 -0.42843714356422424 0.19312548637390137
v 0.10996279120445251 -0.47515255212783813 0.19312581419944763
v 0.11720943450927734 -0.4751269817352295 0.1503061205148697
v 0.11720944195985794 -0.42843717336654663 0.1503061205148697
v 0.10996280610561371 -0.42843714356422424 0.10668601095676422
v 0.10996279120445251 -0.47515255212783813 0.10668601095676422
v 0.10153843462467194 -0.47515255212783813 0.10668601095676422
v 0.10153844952583313 -0.42843714356422424 0.10668601095676422
v 0.08010172843933105 -0.4750564992427826 0.07292347401380539
v 0.04202025383710861 -0.42843714356422424 0.05091552436351776
v 0.042020250111818314 -0.47515255212783813 0.05091553181409836
v 0.04202025383710861 -0.42843714356422424 0.042726073414087296
v 0.042020250111818314 -0.47515255212783813 0.042726077139377594
v 0.0001082736998796463 -0.42843714356422424 0.03481103852391243
v 9.484346810495481e-05 -0.4751269519329071 0.03481103479862213
v -0.009481423534452915 -0.23113253712654114 0.025973476469516754
v 0.009480307810008526 -0.2063090056180954 0.10105589032173157
v 0.009481371380388737 -0.23113253712654114 0.025973476469516754
v -0.009480351582169533 -0.2063090056180954 0.10105589032173157
v -0.009481423534452915 -0.23026446998119354 -0.05586443841457367
v 0.009481371380388737 -0.23026446998119354 -0.05586443841457367
v -0.009481417015194893 -0.18991239368915558 -0.05986306443810463
v 0.009481377899646759 -0.18991239368915558 -0.05986306443810463
v -0.009481417015194893 -0.1890827715396881 0.024890800938010216
v 0.009481378830969334 -0.1890827715396881 0.024890800938010216
v -0.009480344131588936 -0.16036845743656158 0.10067471116781235
v 0.009480314329266548 -0.16036845743656158 0.10067471116781235
v 0.009481371380388737 -0.23026446998119354 -0.05586443841457367
v 0.009481378830969334 -0.1890827715396881 0.024890800938010216
v 0.009481377899646759 -0.18991239368915558 -0.05986306443810463
v 0.009481371380388737 -0.23113253712654114 0.025973476469516754
v 0.009480307810008526 -0.2063090056180954 0.10105589032173157
v 0.009480314329266548 -0.16036845743656158 0.10067471116781235
v 0.06125619262456894 -0.42843714356422424 0.22084194421768188
v -1.6068355762399733e-05 -0.39646974205970764 0.21158891916275024
v 0.044314801692962646 -0.3964708149433136 0.19630976021289825
v 0.0001082736998796463 -0.42843714356422424 0.24427083134651184
v 0.0884087085723877 -0.42843714356422424 0.1503061205148697
v 0.06530947983264923 -0.3964708149433136 0.1504691243171692
v 0.044314801692962646 -0.3964708149433136 0.10465092211961746
v 0.06125746667385101 -0.42843714356422424 0.0803181380033493
v -1.6068355762399733e-05 -0.39646974205970764 0.08860836178064346
v 0.0001082736998796463 -0.42843714356422424 0.05572846159338951
v 0.04266410693526268 -0.3683854341506958 0.1946221888065338
v -1.6082285583252087e-05 -0.3683854341506958 0.20932960510253906
v 0.06119341403245926 -0.3683854341506958 0.15046632289886475
v 0.04266410693526268 -0.3683854341506958 0.10637637227773666
v -1.6082285583252087e-05 -0.3683854341506958 0.09093066304922104
v 0.04266411066055298 -0.32223087549209595 0.19462169706821442
v -1.610438084753696e-05 -0.32223087549209595 0.20932960510253906
v 0.061276596039533615 -0.32223087549209595 0.1504565179347992
v 0.04266411066055298 -0.32223087549209595 0.10637637227773666
v -1.610438084753696e-05 -0.32223087549209595 0.09093066304922104
v 7.454888617530742e-08 0.3832395374774933 0.22343318164348602
v 0.05313434079289436 0.3832395374774933 0.09510866552591324
v 0.05313434079289436 0.3832395374774933 0.20447039604187012
v 7.454888617530742e-08 0.3832395374774933 0.07686124742031097
v 0.07675135135650635 0.3832395374774933 0.15047767758369446
v 0.05313434079289436 0.3832395374774933 0.20447039604187012
v 6.813274922023993e-08 0.34385761618614197 0.22343318164348602
v 7.454888617530742e-08 0.3832395374774933 0.22343318164348602
v 0.05319198966026306 0.34385862946510315 0.20447145402431488
v 0.07675135135650635 0.3832395374774933 0.15047767758369446
v 0.07675240188837051 0.34385761618614197 0.15047767758369446
v 0.05313434079289436 0.3832395374774933 0.09510866552591324
v 0.05319198966026306 0.34385761618614197 0.0951097309589386
v 7.454888617530742e-08 0.3832395374774933 0.07686124742031097
v 6.813274922023993e-08 0.34385761618614197 0.07686124742031097
v -1.5974679627106525e-05 0.17850543558597565 0.20184165239334106
v 0.03772062808275223 0.1785043627023697 0.18900974094867706
v -1.600285031599924e-05 0.005601263139396906 0.2093392163515091
v 0.04266416281461716 0.0056012580171227455 0.19463130831718445
v 0.0611945316195488 0.0056001851335167885 0.15047019720077515
v 0.05410486459732056 0.1785043627023697 0.15046700835227966
v 0.03772062808275223 0.1785043627023697 0.1120096817612648
v 0.04266416281461716 0.0056012580171227455 0.10638704150915146
v -1.5974679627106525e-05 0.17850543558597565 0.09852965176105499
v -1.600285031599924e-05 0.005601263139396906 0.09094027429819107
v -1.6056261301855557e-05 -0.32222980260849 0.20932960510253906
v 0.04266411066055298 -0.32223087549209595 0.19462169706821442
v 0.06119341775774956 -0.32223087549209595 0.15047019720077515
v 0.04266411066055298 -0.32223087549209595 0.10637637227773666
v -1.6056261301855557e-05 -0.32222980260849 0.09093066304922104
v 0.039604127407073975 0.37745994329452515 0.18919230997562408
v -8.453725968138315e-06 0.4662519693374634 0.20547297596931458
v 0.04096655920147896 0.4662519693374634 0.18918590247631073
v -1.7009992006933317e-05 0.37745994329452515 0.20546764135360718
v 0.056818000972270966 0.4662519693374634 0.15046273171901703
v 0.055911481380462646 0.3774589002132416 0.15047019720077515
v 0.04096655920147896 0.4662519693374634 0.11155269294977188
v 0.039604127407073975 0.37745994329452515 0.1115548312664032
v -8.453725968138315e-06 0.4662519693374634 0.09491754323244095
v -1.7009992006933317e-05 0.37745994329452515 0.0949239432811737
v -0.04098346456885338 0.4662519693374634 0.11155269294977188
v -8.453725968138315e-06 0.4662519693374634 0.20547297596931458
v -0.056834910064935684 0.4662519693374634 0.15046273171901703
v -0.04098346456885338 0.4662519693374634 0.18918590247631073
v -8.453725968138315e-06 0.4662519693374634 0.09491754323244095
v 0.04096655920147896 0.4662519693374634 0.18918590247631073
v -8.453725968138315e-06 0.4662519693374634 0.20547297596931458
v 0.056818000972270966 0.4662519693374634 0.15046273171901703
v 0.04096655920147896 0.4662519693374634 0.11155269294977188
v -8.453725968138315e-06 0.4662519693374634 0.09491754323244095
v 1.6792497262940742e-05 -0.0868387222290039 0.024115635082125664
v 1.679034721746575e-05 -0.1000315248966217 0.03489111736416817
v 1.6792166206869297e-05 -0.0888599157333374 0.0483209602534771
v 1.6790529116406105e-05 -0.09890934824943542 0.014711113646626472
v 1.6802421669126488e-05 -0.025922873988747597 0.008290884084999561
v 1.6802352547529154e-05 -0.026340365409851074 0.018866699188947678
vn -0.5643359422683716 0.6247636079788208 -0.5396252274513245
vn 0.5918915271759033 -0.5328648686408997 -0.604747474193573
vn 0.5643113255500793 0.6247481107711792 -0.5396689176559448
vn -0.5918917059898376 -0.5328647494316101 -0.6047473549842834
vn -0.881571888923645 -0.3005300760269165 -0.3640229403972626
vn 0.8815717101097107 -0.300530344247818 -0.36402297019958496
vn 0.8161630034446716 0.2454299032688141 -0.5231082439422607
vn -0.8161628842353821 0.2454301416873932 -0.5231080651283264
vn 0.7279214262962341 0.6818435788154602 0.07224718481302261
vn -0.7352683544158936 0.6740278601646423 0.07118216156959534
vn 0.7064672112464905 0.7077437043190002 -0.001714125624857843
vn -0.706451416015625 0.7077584862709045 -0.00206345715560019
vn -0.6020213961601257 0.23328009247779846 -0.7636430263519287
vn 0.6020214557647705 0.23327992856502533 -0.7636430263519287
vn -0.5937537550926208 -0.6438287496566772 -0.48263952136039734
vn 0.5937537550926208 -0.6438289284706116 -0.48263952136039734
vn -0.7071681022644043 -0.7070453763008118 0.00019816556596197188
vn 0.7071678638458252 -0.7070456147193909 0.00019816328131128103
vn -0.6020213961601257 0.23328009247779846 -0.7636430263519287
vn -0.8161628842353821 0.2454301416873932 -0.5231080651283264
vn -0.5937537550926208 -0.6438287496566772 -0.48263952136039734
vn -0.7071681022644043 -0.7070453763008118 0.00019816556596197188
vn -0.706451416015625 0.7077584862709045 -0.00206345715560019
vn -0.881571888923645 -0.3005300760269165 -0.3640229403972626
vn -0.7352683544158936 0.6740278601646423 0.07118216156959534
vn -0.5918917059898376 -0.5328647494316101 -0.6047473549842834
vn -0.5643359422683716 0.6247636079788208 -0.5396252274513245
vn 1.0 -1.629141905823417e-07 0.0
vn 1.0 -1.629141905823417e-07 0.0
vn 1.0 -1.629141905823417e-07 0.0
vn 0.5937537550926208 -0.6438289284706116 -0.48263952136039734
vn 0.8161630034446716 0.2454299032688141 -0.5231082439422607
vn 0.6020214557647705 0.23327992856502533 -0.7636430263519287
vn 0.7071678638458252 -0.7070456147193909 0.00019816328131128103
vn 0.7064672112464905 0.7077437043190002 -0.001714125624857843
vn 0.8815717101097107 -0.300530344247818 -0.36402297019958496
vn 0.7279214262962341 0.6818435788154602 0.07224718481302261
vn 0.5918915271759033 -0.5328648686408997 -0.604747474193573
vn 0.5643113255500793 0.6247481107711792 -0.5396689176559448
vn -0.4868510663509369 -0.8323834538459778 0.2647901475429535
vn 0.000289602525299415 -0.6660356521606445 0.7459197640419006
vn -0.001683346927165985 -0.9825431108474731 -0.18602758646011353
vn -0.6238896250724792 -0.5883233547210693 0.5144290328025818
vn 0.12875479459762573 -0.9830818772315979 -0.13027727603912354
vn -0.5329491496086121 -0.6351494789123535 0.5590619444847107
vn -0.25785744190216064 -0.8264666199684143 0.5004622340202332
vn 0.18304871022701263 -0.9831035137176514 -0.0008137660333886743
vn 0.0005031742039136589 -0.9999977350234985 -0.0020564631558954716
vn 0.12965182960033417 -0.9831974506378174 0.1285037249326706
vn 0.002376731252297759 -0.9820189476013184 0.18876756727695465
vn -0.7399125695228577 -0.6727020740509033 0.0010685662273317575
vn -0.5251026749610901 -0.5864522457122803 0.6167178750038147
vn -0.26114171743392944 -0.8292315006256104 -0.49414587020874023
vn -0.5260745286941528 -0.5862812399864197 -0.6160518527030945
vn -0.5359974503517151 -0.6254004240036011 -0.567081093788147
vn -0.47733327746391296 -0.8364409804344177 -0.2692943215370178
vn 0.00028022765764035285 -0.6672594547271729 -0.7448253631591797
vn -0.6224908232688904 -0.5879517793655396 -0.5165441632270813
vn 0.00035393403959460557 0.6677194237709045 -0.7444129586219788
vn 0.0003658060741145164 0.6664875149726868 0.7455160617828369
vn -0.5057600736618042 0.8258330225944519 -0.24941229820251465
vn -0.23797324299812317 0.8178950548171997 -0.5238476991653442
vn -0.7394944429397583 0.6731618046760559 0.0010704229352995753
vn -0.23632805049419403 0.8159731030464172 0.5275764465332031
vn -0.5106227993965149 0.8234032392501831 0.24753083288669586
vn -0.6240591406822205 0.5881211757659912 0.51445472240448
vn -0.5260932445526123 0.5860862135887146 -0.6162213683128357
vn -0.5251612663269043 0.5862604379653931 0.6168504357337952
vn -0.6226599216461182 0.5877498388290405 -0.5165701508522034
vn -0.6238896250724792 -0.5883233547210693 0.5144290328025818
vn 0.0003658060741145164 0.6664875149726868 0.7455160617828369
vn 0.000289602525299415 -0.6660356521606445 0.7459197640419006
vn -0.6240591406822205 0.5881211757659912 0.51445472240448
vn -0.4868510663509369 -0.8323834538459778 0.2647901475429535
vn -0.5106227993965149 0.8234032392501831 0.24753083288669586
vn -0.5329491496086121 -0.6351494789123535 0.5590619444847107
vn -0.23632805049419403 0.8159731030464172 0.5275764465332031
vn -0.25785744190216064 -0.8264666199684143 0.5004622340202332
vn -0.5251612663269043 0.5862604379653931 0.6168504357337952
vn -0.5251026749610901 -0.5864522457122803 0.6167178750038147
vn -0.7399125695228577 -0.6727020740509033 0.0010685662273317575
vn -0.7394944429397583 0.6731618046760559 0.0010704229352995753
vn -0.5260932445526123 0.5860862135887146 -0.6162213683128357
vn -0.5260745286941528 -0.5862812399864197 -0.6160518527030945
vn -0.26114171743392944 -0.8292315006256104 -0.49414587020874023
vn -0.23797324299812317 0.8178950548171997 -0.5238476991653442
vn -0.5359974503517151 -0.6254004240036011 -0.567081093788147
vn -0.5057600736618042 0.8258330225944519 -0.24941229820251465
vn -0.47733327746391296 -0.8364409804344177 -0.2692943215370178
vn -0.6226599216461182 0.5877498388290405 -0.5165701508522034
vn -0.6224908232688904 -0.5879517793655396 -0.5165441632270813
vn 0.00035393403959460557 0.6677194237709045 -0.7444129586219788
vn 0.00028022765764035285 -0.6672594547271729 -0.7448253631591797
vn -0.5833211541175842 -0.5990936160087585 -0.5484737157821655
vn -0.7487731575965881 0.6513967514038086 -0.12256062030792236
vn -0.6719484925270081 -0.7317929863929749 0.11386062949895859
vn -0.5728147625923157 0.5473058223724365 -0.6101964116096497
vn -0.7676896452903748 -0.6084276437759399 0.201167494058609
vn -0.6124259829521179 0.7392456531524658 -0.28008946776390076
vn -0.4986211955547333 0.6833897233009338 0.5332499146461487
vn -9.164957737084478e-05 0.4478318691253662 0.8941177129745483
vn 0.0007879179320298135 0.7148796319961548 0.6992470622062683
vn -0.6292864084243774 0.4306847155094147 0.6469229459762573
vn -0.7931330800056458 0.6090472340583801 -0.001133037032559514
vn -0.9183419346809387 0.39575496315956116 0.005117618013173342
vn -0.6321150660514832 0.42452600598335266 -0.6482347249984741
vn -0.5034152865409851 0.6814233064651489 -0.5312581658363342
vn -9.765657159732655e-05 0.45157989859580994 -0.8922306299209595
vn 0.0008072837954387069 0.7169871926307678 -0.6970858573913574
vn -0.6826637387275696 0.04219726100564003 0.7295133471488953
vn -8.274593710666522e-06 0.040464259684085846 0.9991809725761414
vn -0.9976758360862732 0.06791787594556808 0.005497471895068884
vn -0.6839392185211182 0.04776455834507942 -0.7279736399650574
vn 1.1456540960352868e-06 0.04161650687456131 -0.9991336464881897
vn -0.6830319762229919 -5.2025420700374525e-06 0.7303884625434875
vn -4.214217312892288e-07 0.0 1.0
vn -0.9999995231628418 -0.0009126518270932138 -0.0003543021157383919
vn -0.6883736252784729 0.0 -0.7253563404083252
vn -4.03538820137328e-07 0.0 -1.0
vn -0.5309131741523743 0.6263499855995178 -0.5708038806915283
vn -0.0 0.6386986374855042 0.7694569230079651
vn -0.5305389761924744 0.6281243562698364 0.5691996812820435
vn -1.4320869468065212e-06 0.6408427357673645 -0.7676721811294556
vn -0.7783053517341614 0.6278770565986633 0.0033499556593596935
vn -0.5305389761924744 0.6281243562698364 0.5691996812820435
vn 7.518867278122343e-06 -0.06389310210943222 0.9979567527770996
vn -0.6808536648750305 -0.06494756788015366 0.7295342087745667
vn -0.0 0.6386986374855042 0.7694569230079651
vn -0.7783053517341614 0.6278770565986633 0.0033499556593596935
vn -0.997803270816803 -0.06612446159124374 0.004008665680885315
vn -0.5309131741523743 0.6263499855995178 -0.5708038806915283
vn -0.679744303226471 -0.06707341223955154 -0.7303758263587952
vn -1.4320869468065212e-06 0.6408427357673645 -0.7676721811294556
vn 6.802174993936205e-06 -0.06555064022541046 -0.9978492259979248
vn -6.719201792293461e-06 -0.04189486801624298 0.9991220831871033
vn -0.6790484189987183 -0.04552312567830086 0.73268061876297
vn 3.0239820603128464e-07 0.02113298885524273 0.9997766613960266
vn -0.6831842064857483 0.02123287320137024 0.7299374341964722
vn -0.9988341927528381 -0.04826948046684265 -0.0005943116266280413
vn -0.9997866749763489 0.020647181198000908 -0.0004781255265697837
vn -0.6849157214164734 -0.04760587587952614 -0.72706538438797
vn -0.6885457038879395 0.021731188520789146 -0.7248672842979431
vn -6.181678600114537e-06 -0.04452382028102875 -0.9990083575248718
vn 3.762660526263062e-06 0.02184334397315979 -0.9997614026069641
vn -0.0 -2.9323058697627857e-05 1.0
vn -0.6835784316062927 -1.713764686428476e-05 0.7298769950866699
vn -1.0 3.1184838462650077e-06 -0.0002372891758568585
vn -0.6889879703521729 2.0498780941125005e-05 -0.7247728109359741
vn -0.0 2.9323146009119228e-05 -1.0
vn 1.768486254150048e-05 0.6311526298522949 0.7756587266921997
vn -0.7018921971321106 -0.006563117261976004 0.7122529745101929
vn -0.5507944822311401 0.624741792678833 0.5534647107124329
vn -2.3300235625356436e-05 -6.014477548887953e-05 1.0
vn -0.7792719602584839 0.6266834735870361 0.0017365346429869533
vn -0.9999270439147949 -0.011851630173623562 0.0023186709731817245
vn -0.5518724918365479 0.6258111596107483 -0.551177978515625
vn -0.7042282819747925 -0.008435305207967758 -0.7099234461784363
vn 1.7972917703446e-05 0.6298786401748657 -0.7766935229301453
vn -2.3744703867123462e-05 -7.206672307802364e-05 -1.0
vn -0.001683346927165985 -0.9825431108474731 -0.18602758646011353
vn 0.000289602525299415 -0.6660356521606445 0.7459197640419006
vn 0.4813908636569977 -0.8347101807594299 0.26743531227111816
vn 0.6240867972373962 -0.588386058807373 0.5141183137893677
vn -0.13239604234695435 -0.9828354716300964 -0.12847474217414856
vn 0.5412092804908752 -0.6261767148971558 0.5612443685531616
vn 0.2626953721046448 -0.8305234313011169 0.4911435544490814
vn 0.0005031742039136589 -0.9999977350234985 -0.0020564631558954716
vn -0.18522553145885468 -0.9826959371566772 -0.0004580482200253755
vn 0.7412253618240356 -0.671255350112915 0.0011174310930073261
vn 0.5226901769638062 -0.5868867635726929 0.6183517575263977
vn 0.2657577097415924 -0.8332279920578003 -0.48487523198127747
vn 0.5236713886260986 -0.5867002010345459 -0.6176983714103699
vn -0.12430267781019211 -0.9841587543487549 0.1264137625694275
vn 0.5440123081207275 -0.6164910197257996 -0.5692006349563599
vn 0.4719965159893036 -0.8387106657028198 -0.27163153886795044
vn 0.002376731252297759 -0.9820189476013184 0.18876756727695465
vn 0.00028022765764035285 -0.6672594547271729 -0.7448253631591797
vn 0.6226829886436462 -0.5880122780799866 -0.5162436366081238
vn 0.23971956968307495 0.8201330900192261 -0.5195347666740417
vn 0.0003658060741145164 0.6664875149726868 0.7455160617828369
vn 0.5023147463798523 0.8275076150894165 -0.25082066655158997
vn 0.7408139109611511 0.6717093586921692 0.0011193983955308795
vn 0.23806938529014587 0.8182533979415894 0.5232439637184143
vn 0.5071666836738586 0.8250955939292908 0.2489965558052063
vn 0.00035393403959460557 0.6677194237709045 -0.7444129586219788
vn 0.6242756843566895 0.5881789922714233 0.5141258239746094
vn 0.5226755142211914 0.5866890549659729 0.6185517311096191
vn 0.523689866065979 0.5865050554275513 -0.6178678870201111
vn 0.6228709816932678 0.587805449962616 -0.5162522792816162
vn 0.0003658060741145164 0.6664875149726868 0.7455160617828369
vn 0.6240867972373962 -0.588386058807373 0.5141183137893677
vn 0.000289602525299415 -0.6660356521606445 0.7459197640419006
vn 0.6242756843566895 0.5881789922714233 0.5141258239746094
vn 0.4813908636569977 -0.8347101807594299 0.26743531227111816
vn 0.5071666836738586 0.8250955939292908 0.2489965558052063
vn 0.5412092804908752 -0.6261767148971558 0.5612443685531616
vn 0.23806938529014587 0.8182533979415894 0.5232439637184143
vn 0.2626953721046448 -0.8305234313011169 0.4911435544490814
vn 0.5226755142211914 0.5866890549659729 0.6185517311096191
vn 0.5226901769638062 -0.5868867635726929 0.6183517575263977
vn 0.7412253618240356 -0.671255350112915 0.0011174310930073261
vn 0.7408139109611511 0.6717093586921692 0.0011193983955308795
vn 0.523689866065979 0.5865050554275513 -0.6178678870201111
vn 0.5236713886260986 -0.5867002010345459 -0.6176983714103699
vn 0.2657577097415924 -0.8332279920578003 -0.48487523198127747
vn 0.23971956968307495 0.8201330900192261 -0.5195347666740417
vn 0.5440123081207275 -0.6164910197257996 -0.5692006349563599
vn 0.5023147463798523 0.8275076150894165 -0.25082066655158997
vn 0.4719965159893036 -0.8387106657028198 -0.27163153886795044
vn 0.6228709816932678 0.587805449962616 -0.5162522792816162
vn 0.6226829886436462 -0.5880122780799866 -0.5162436366081238
vn 0.00035393403959460557 0.6677194237709045 -0.7444129586219788
vn 0.00028022765764035285 -0.6672594547271729 -0.7448253631591797
vn -0.6719484925270081 -0.7317929863929749 0.11386062949895859
vn 0.7676895260810852 -0.6084277629852295 0.20116746425628662
vn 0.6719483733177185 -0.7317931056022644 0.1138606071472168
vn -0.7676896452903748 -0.6084276437759399 0.201167494058609
vn -0.5833211541175842 -0.5990936160087585 -0.5484737157821655
vn 0.5833209753036499 -0.5990936756134033 -0.5484737157821655
vn -0.5728147625923157 0.5473058223724365 -0.6101964116096497
vn 0.5728148221969604 0.5473056435585022 -0.6101962924003601
vn -0.7487731575965881 0.6513967514038086 -0.12256062030792236
vn 0.7487732172012329 0.651396632194519 -0.12256065011024475
vn -0.6124259829521179 0.7392456531524658 -0.28008946776390076
vn 0.612426221370697 0.739245593547821 -0.28008949756622314
vn 0.5833209753036499 -0.5990936756134033 -0.5484737157821655
vn 0.7487732172012329 0.651396632194519 -0.12256065011024475
vn 0.5728148221969604 0.5473056435585022 -0.6101962924003601
vn 0.6719483733177185 -0.7317931056022644 0.1138606071472168
vn 0.7676895260810852 -0.6084277629852295 0.20116746425628662
vn 0.612426221370697 0.739245593547821 -0.28008949756622314
vn 0.4987153112888336 0.6834803819656372 0.5330456495285034
vn -9.164957737084478e-05 0.4478318691253662 0.8941177129745483
vn 0.6293739080429077 0.430551141500473 0.6469268202781677
vn 0.0007879179320298135 0.7148796319961548 0.6992470622062683
vn 0.7933059334754944 0.6088221669197083 -0.0011293136049062014
vn 0.9184116125106812 0.3955932557582855 0.00512243015691638
vn 0.632178544998169 0.4244147837162018 -0.6482455134391785
vn 0.5035138130187988 0.6815233826637268 -0.5310365557670593
vn -9.765657159732655e-05 0.45157989859580994 -0.8922306299209595
vn 0.0008072837954387069 0.7169871926307678 -0.6970858573913574
vn 0.6826651096343994 0.04216979071497917 0.7295136451721191
vn -8.274593710666522e-06 0.040464259684085846 0.9991809725761414
vn 0.9976767897605896 0.06790214776992798 0.00551447831094265
vn 0.6839466691017151 0.04775219410657883 -0.7279675006866455
vn 1.1456540960352868e-06 0.04161650687456131 -0.9991336464881897
vn 0.6830334663391113 5.009198048355756e-06 0.7303871512413025
vn -4.214217312892288e-07 0.0 1.0
vn 0.9999995231628418 -0.000921167666092515 -0.0003576420131139457
vn 0.6883759498596191 0.0 -0.7253540754318237
vn -4.03538820137328e-07 0.0 -1.0
vn -0.0 0.6386986374855042 0.7694569230079651
vn 0.5309065580368042 0.6263567209243774 -0.5708025097846985
vn 0.530531644821167 0.6281305551528931 0.5691996812820435
vn -1.4320869468065212e-06 0.6408427357673645 -0.7676721811294556
vn 0.7782973051071167 0.6278870105743408 0.0033499065320938826
vn 0.530531644821167 0.6281305551528931 0.5691996812820435
vn 7.518867278122343e-06 -0.06389310210943222 0.9979567527770996
vn -0.0 0.6386986374855042 0.7694569230079651
vn 0.6808640956878662 -0.06500465422868729 0.7295194268226624
vn 0.7782973051071167 0.6278870105743408 0.0033499065320938826
vn 0.9977977275848389 -0.06620928645133972 0.004008605610579252
vn 0.5309065580368042 0.6263567209243774 -0.5708025097846985
vn 0.6797552704811096 -0.06713183224201202 -0.7303603291511536
vn -1.4320869468065212e-06 0.6408427357673645 -0.7676721811294556
vn 6.802174993936205e-06 -0.06555064022541046 -0.9978492259979248
vn -6.719201792293461e-06 -0.04189486801624298 0.9991220831871033
vn 0.679172158241272 -0.045889779925346375 0.7325430512428284
vn 3.0239820603128464e-07 0.02113298885524273 0.9997766613960266
vn 0.6833131909370422 0.021491272374987602 0.7298091053962708
vn 0.9997814297676086 0.020902875810861588 -0.0003160945198033005
vn 0.9988149404525757 -0.04866703972220421 -0.000393832684494555
vn 0.6849013566970825 -0.04767677187919617 -0.7270742058753967
vn 0.688548743724823 0.021731294691562653 -0.7248644232749939
vn -6.181678600114537e-06 -0.04452382028102875 -0.9990083575248718
vn 3.762660526263062e-06 0.02184334397315979 -0.9997614026069641
vn -0.0 -2.9323058697627857e-05 1.0
vn 0.6835860013961792 -1.7356449461658485e-05 0.7298699617385864
vn 1.0 4.276835625205422e-06 -0.00023823007359169424
vn 0.6889961361885071 2.1969644876662642e-05 -0.7247649431228638
vn -0.0 2.9323146009119228e-05 -1.0
vn 0.7018676996231079 -0.006697982549667358 0.7122758626937866
vn 1.768486254150048e-05 0.6311526298522949 0.7756587266921997
vn 0.5508421063423157 0.6246905326843262 0.5534751415252686
vn -2.3300235625356436e-05 -6.014477548887953e-05 1.0
vn 0.779330313205719 0.6266109347343445 0.001736540230922401
vn 0.9999247789382935 -0.012044365517795086 0.002318780869245529
vn 0.5519201755523682 0.6257597804069519 -0.551188588142395
vn 0.7042040228843689 -0.008570431731641293 -0.7099460363388062
vn 1.7972917703446e-05 0.6298786401748657 -0.7766935229301453
vn -2.3744703867123462e-05 -7.206672307802364e-05 -1.0
vn -0.5518724918365479 0.6258111596107483 -0.551177978515625
vn 1.768486254150048e-05 0.6311526298522949 0.7756587266921997
vn -0.7792719602584839 0.6266834735870361 0.0017365346429869533
vn -0.5507944822311401 0.624741792678833 0.5534647107124329
vn 1.7972917703446e-05 0.6298786401748657 -0.7766935229301453
vn 0.5508421063423157 0.6246905326843262 0.5534751415252686
vn 1.768486254150048e-05 0.6311526298522949 0.7756587266921997
vn 0.779330313205719 0.6266109347343445 0.001736540230922401
vn 0.5519201755523682 0.6257597804069519 -0.551188588142395
vn 1.7972917703446e-05 0.6298786401748657 -0.7766935229301453
vn 1.0 -1.6295892635298515e-07 0.0
vn 1.0 -1.6298305638429156e-07 0.0
vn 1.0 -1.629807542258277e-07 0.0
vn 1.0 -1.6296577598495787e-07 0.0
vn 1.0 -1.629073835829331e-07 0.0
vn 1.0 -1.6290337612190342e-07 0.0
vt 0.2157915234565735 0.82561856508255
vt 0.2896648049354553 0.8368278592824936
vt 0.21615168452262878 0.8368278592824936
vt 0.2893047332763672 0.82561856508255
vt 0.40749749541282654 0.82561856508255
vt 0.4056517779827118 0.8368278592824936
vt 0.4714895188808441 0.8368278592824936
vt 0.4711294174194336 0.82561856508255
vt 0.08019954711198807 0.8368278592824936
vt 0.07972685992717743 0.82561856508255
vt 0.00884719006717205 0.8368278592824936
vt 0.008352000266313553 0.82561856508255
vt 0.49483099579811096 0.82561856508255
vt 0.49519115686416626 0.8368278592824936
vt 0.509259045124054 0.82561856508255
vt 0.5096191167831421 0.8368278592824936
vt 0.5976729393005371 0.82561856508255
vt 0.5981455445289612 0.8368278592824936
vt 0.14240913093090057 0.2336050271987915
vt 0.16241930425167084 0.25917482376098633
vt 0.12692323327064514 0.2423158884048462
vt 0.12692323327064514 0.3513251543045044
vt 0.3347678780555725 0.3513251543045044
vt 0.24910001456737518 0.25917482376098633
vt 0.3347678780555725 0.25917482376098633
vt 0.24910001456737518 0.10397785902023315
vt 0.3347678780555725 0.10397785902023315
vt 0.6833023428916931 0.4082338213920593
vt 0.636709451675415 0.33316755294799805
vt 0.6856657266616821 0.30874568223953247
vt 0.12692323327064514 0.2423158884048462
vt 0.16241930425167084 0.25917482376098633
vt 0.14240913093090057 0.2336050271987915
vt 0.12692323327064514 0.3513251543045044
vt 0.3347678780555725 0.3513251543045044
vt 0.24910001456737518 0.25917482376098633
vt 0.3347678780555725 0.25917482376098633
vt 0.24910001456737518 0.10397785902023315
vt 0.3347678780555725 0.10397785902023315
vt 0.08009152859449387 0.7585468143224716
vt 0.016932280734181404 0.7856697142124176
vt 0.016932280734181404 0.7447715401649475
vt 0.07883107662200928 0.7711515873670578
vt 0.11194115877151489 0.7021176517009735
vt 0.13557524979114532 0.7214525938034058
vt 0.16879802942276 0.670673131942749
vt 0.15112876892089844 0.6090894639492035
vt 0.016932280734181404 0.6062534153461456
vt 0.11245889216661453 0.5124149322509766
vt 0.016932280734181404 0.4689958095550537
vt 0.1911715269088745 0.6064784824848175
vt 0.18097522854804993 0.6696377396583557
vt 0.1678527146577835 0.5418337285518646
vt 0.1805700659751892 0.5429816544055939
vt 0.13474251329898834 0.48887091875076294
vt 0.0789436399936676 0.4545002579689026
vt 0.016932280734181404 0.4273773431777954
vt 0.07820078730583191 0.4420979619026184
vt 0.5210390090942383 0.00835198163986206
vt 0.28138965368270874 0.00835198163986206
vt 0.5028970837593079 0.04389309883117676
vt 0.4463329017162323 0.09377217292785645
vt 0.402351051568985 0.10761499404907227
vt 0.35850420594215393 0.09377217292785645
vt 0.3018049895763397 0.04389309883117676
vt 0.2916761040687561 0.04389309883117676
vt 0.4463329017162323 0.1020779013633728
vt 0.35850420594215393 0.1020779013633728
vt 0.5130484700202942 0.04389309883117676
vt 0.294424444437027 0.8534033745527267
vt 0.25098270177841187 0.908436968922615
vt 0.25098270177841187 0.8534033745527267
vt 0.294424444437027 0.908436968922615
vt 0.3027750849723816 0.8534033745527267
vt 0.3027750849723816 0.908436968922615
vt 0.34619417786598206 0.8534033745527267
vt 0.3902886211872101 0.908436968922615
vt 0.3902886211872101 0.8534033745527267
vt 0.39915698766708374 0.908436968922615
vt 0.39915698766708374 0.8534033745527267
vt 0.43845710158348083 0.8534033745527267
vt 0.43845710158348083 0.908436968922615
vt 0.48185375332832336 0.908436968922615
vt 0.48185375332832336 0.8534033745527267
vt 0.4906321167945862 0.8534033745527267
vt 0.4906321167945862 0.908436968922615
vt 0.5331509113311768 0.8534033745527267
vt 0.5702226161956787 0.908436968922615
vt 0.5702226161956787 0.8534033745527267
vt 0.5785282850265503 0.908436968922615
vt 0.5785282850265503 0.8534033745527267
vt 0.6207319498062134 0.908436968922615
vt 0.6207319498062134 0.8534033745527267
vt 0.1088079884648323 0.00835198163986206
vt 0.03326908126473427 0.15110164880752563
vt 0.1088079884648323 0.15110164880752563
vt 0.03326908126473427 0.00835198163986206
vt 0.0879649966955185 0.28912460803985596
vt 0.008352000266313553 0.28912460803985596
vt 0.7058229446411133 0.22378891706466675
vt 0.6448020339012146 0.2921701669692993
vt 0.7058229446411133 0.2921701669692993
vt 0.6448020339012146 0.22378891706466675
vt 0.7058229446411133 0.14725959300994873
vt 0.6448020339012146 0.14725959300994873
vt 0.6448020339012146 0.07082021236419678
vt 0.7058229446411133 0.07082021236419678
vt 0.6448020339012146 0.01148754358291626
vt 0.7058229446411133 0.01148754358291626
vt 0.6109715700149536 0.22378891706466675
vt 0.6109715700149536 0.2921701669692993
vt 0.6109715700149536 0.14725959300994873
vt 0.6109715700149536 0.07082021236419678
vt 0.6109715700149536 0.01148754358291626
vt 0.5380309820175171 0.2236120104789734
vt 0.5380309820175171 0.29199326038360596
vt 0.5380309820175171 0.14708268642425537
vt 0.5380309820175171 0.07064330577850342
vt 0.5380309820175171 0.0113106369972229
vt 0.20550507307052612 0.9349746033549309
vt 0.008352000266313553 0.8534033745527267
vt 0.03750067949295044 0.9349746033549309
vt 0.23346078395843506 0.8534033745527267
vt 0.12039995193481445 0.9711459800601006
vt 0.7794352173805237 0.9917764896526933
vt 0.7223984599113464 0.9288423582911491
vt 0.7794352173805237 0.9288423582911491
vt 0.7223984599113464 0.9917764896526933
vt 0.8435397744178772 0.9917764896526933
vt 0.8435397744178772 0.9288423582911491
vt 0.9078245162963867 0.9917764896526933
vt 0.9078245162963867 0.9288423582911491
vt 0.9600219130516052 0.9917764896526933
vt 0.9600219130516052 0.9288423582911491
vt 0.7223984599113464 0.7259946167469025
vt 0.7794352173805237 0.7259946167469025
vt 0.7223984599113464 0.4885735511779785
vt 0.7794352173805237 0.4885735511779785
vt 0.8435397744178772 0.7259946167469025
vt 0.8435397744178772 0.4885735511779785
vt 0.9078245162963867 0.7259946167469025
vt 0.9078245162963867 0.4885735511779785
vt 0.9600219130516052 0.7259946167469025
vt 0.9600219130516052 0.4885735511779785
vt 0.7239142656326294 0.011686563491821289
vt 0.7809510231018066 0.011686563491821289
vt 0.8450555801391602 0.011686563491821289
vt 0.9093403220176697 0.011686563491821289
vt 0.9615377187728882 0.011686563491821289
vt 0.12538349628448486 0.00835198163986206
vt 0.23252451419830322 0.061697423458099365
vt 0.12538349628448486 0.061697423458099365
vt 0.23252451419830322 0.00835198163986206
vt 0.12538349628448486 0.11229681968688965
vt 0.23252451419830322 0.11229681968688965
vt 0.12538349628448486 0.1630762815475464
vt 0.23252451419830322 0.1630762815475464
vt 0.12538349628448486 0.21702951192855835
vt 0.23252451419830322 0.21702951192855835
vt 0.016932280734181404 0.7447715401649475
vt 0.016932280734181404 0.7856697142124176
vt 0.08009152859449387 0.7585468143224716
vt 0.07883107662200928 0.7711515873670578
vt 0.11194115877151489 0.7021176517009735
vt 0.13557524979114532 0.7214525938034058
vt 0.16879802942276 0.670673131942749
vt 0.016932280734181404 0.6062534153461456
vt 0.15112876892089844 0.6090894639492035
vt 0.1911715269088745 0.6064784824848175
vt 0.18097522854804993 0.6696377396583557
vt 0.1678527146577835 0.5418337285518646
vt 0.1805700659751892 0.5429816544055939
vt 0.11245889216661453 0.5124149322509766
vt 0.13474251329898834 0.48887091875076294
vt 0.0789436399936676 0.4545002579689026
vt 0.016932280734181404 0.4689958095550537
vt 0.016932280734181404 0.4273773431777954
vt 0.07820078730583191 0.4420979619026184
vt 0.4463329017162323 0.09377217292785645
vt 0.28138965368270874 0.00835198163986206
vt 0.5028970837593079 0.04389309883117676
vt 0.402351051568985 0.10761499404907227
vt 0.35850420594215393 0.09377217292785645
vt 0.3018049895763397 0.04389309883117676
vt 0.5210390090942383 0.00835198163986206
vt 0.2916761040687561 0.04389309883117676
vt 0.35850420594215393 0.1020779013633728
vt 0.4463329017162323 0.1020779013633728
vt 0.5130484700202942 0.04389309883117676
vt 0.25098270177841187 0.908436968922615
vt 0.294424444437027 0.8534033745527267
vt 0.25098270177841187 0.8534033745527267
vt 0.294424444437027 0.908436968922615
vt 0.3027750849723816 0.8534033745527267
vt 0.3027750849723816 0.908436968922615
vt 0.34619417786598206 0.8534033745527267
vt 0.3902886211872101 0.908436968922615
vt 0.3902886211872101 0.8534033745527267
vt 0.39915698766708374 0.908436968922615
vt 0.39915698766708374 0.8534033745527267
vt 0.43845710158348083 0.8534033745527267
vt 0.43845710158348083 0.908436968922615
vt 0.48185375332832336 0.908436968922615
vt 0.48185375332832336 0.8534033745527267
vt 0.4906321167945862 0.8534033745527267
vt 0.4906321167945862 0.908436968922615
vt 0.5331509113311768 0.8534033745527267
vt 0.5702226161956787 0.908436968922615
vt 0.5702226161956787 0.8534033745527267
vt 0.5785282850265503 0.908436968922615
vt 0.5785282850265503 0.8534033745527267
vt 0.6207319498062134 0.908436968922615
vt 0.6207319498062134 0.8534033745527267
vt 0.5922669172286987 0.6862042844295502
vt 0.7058229446411133 0.7171086668968201
vt 0.5921318531036377 0.7171086668968201
vt 0.7058229446411133 0.6862042844295502
vt 0.4858911633491516 0.6862042844295502
vt 0.4858911633491516 0.7171086668968201
vt 0.4264233708381653 0.6862042844295502
vt 0.4264233708381653 0.7171086668968201
vt 0.30651986598968506 0.6862042844295502
vt 0.3063848614692688 0.7171086668968201
vt 0.19753311574459076 0.6862042844295502
vt 0.19753311574459076 0.7171086668968201
vt 0.1088079884648323 0.00835198163986206
vt 0.03326908126473427 0.15110164880752563
vt 0.03326908126473427 0.00835198163986206
vt 0.1088079884648323 0.15110164880752563
vt 0.0879649966955185 0.28912460803985596
vt 0.008352000266313553 0.28912460803985596
vt 0.7058229446411133 0.22378891706466675
vt 0.6448020339012146 0.2921701669692993
vt 0.6448020339012146 0.22378891706466675
vt 0.7058229446411133 0.2921701669692993
vt 0.7058229446411133 0.14725959300994873
vt 0.6448020339012146 0.14725959300994873
vt 0.6448020339012146 0.07082021236419678
vt 0.7058229446411133 0.07082021236419678
vt 0.6448020339012146 0.01148754358291626
vt 0.7058229446411133 0.01148754358291626
vt 0.6109715700149536 0.22378891706466675
vt 0.6109715700149536 0.2921701669692993
vt 0.6109715700149536 0.14725959300994873
vt 0.6109715700149536 0.07082021236419678
vt 0.6109715700149536 0.01148754358291626
vt 0.5380309820175171 0.2236120104789734
vt 0.5380309820175171 0.29199326038360596
vt 0.5380309820175171 0.14708268642425537
vt 0.5380309820175171 0.07064330577850342
vt 0.5380309820175171 0.0113106369972229
vt 0.008352000266313553 0.8534033745527267
vt 0.20550507307052612 0.9349746033549309
vt 0.03750067949295044 0.9349746033549309
vt 0.23346078395843506 0.8534033745527267
vt 0.12039995193481445 0.9711459800601006
vt 0.7794352173805237 0.9917764896526933
vt 0.7223984599113464 0.9288423582911491
vt 0.7223984599113464 0.9917764896526933
vt 0.7794352173805237 0.9288423582911491
vt 0.8435397744178772 0.9917764896526933
vt 0.8435397744178772 0.9288423582911491
vt 0.9078245162963867 0.9917764896526933
vt 0.9078245162963867 0.9288423582911491
vt 0.9600219130516052 0.9917764896526933
vt 0.9600219130516052 0.9288423582911491
vt 0.7223984599113464 0.7259946167469025
vt 0.7794352173805237 0.7259946167469025
vt 0.7223984599113464 0.4885735511779785
vt 0.7794352173805237 0.4885735511779785
vt 0.8435397744178772 0.4885735511779785
vt 0.8435397744178772 0.7259946167469025
vt 0.9078245162963867 0.7259946167469025
vt 0.9078245162963867 0.4885735511779785
vt 0.9600219130516052 0.7259946167469025
vt 0.9600219130516052 0.4885735511779785
vt 0.7239142656326294 0.011686563491821289
vt 0.7809510231018066 0.011686563491821289
vt 0.8450555801391602 0.011686563491821289
vt 0.9093403220176697 0.011686563491821289
vt 0.9615377187728882 0.011686563491821289
vt 0.23252451419830322 0.061697423458099365
vt 0.12538349628448486 0.00835198163986206
vt 0.12538349628448486 0.061697423458099365
vt 0.23252451419830322 0.00835198163986206
vt 0.12538349628448486 0.11229681968688965
vt 0.23252451419830322 0.11229681968688965
vt 0.12538349628448486 0.1630762815475464
vt 0.23252451419830322 0.1630762815475464
vt 0.12538349628448486 0.21702951192855835
vt 0.23252451419830322 0.21702951192855835
vt 0.2584990859031677 0.5500925779342651
vt 0.20796722173690796 0.6658994555473328
vt 0.27805909514427185 0.598058432340622
vt 0.2584990859031677 0.6458217799663544
vt 0.20796722173690796 0.5295647084712982
vt 0.2584990859031677 0.6458217799663544
vt 0.20796722173690796 0.6658994555473328
vt 0.27805909514427185 0.598058432340622
vt 0.2584990859031677 0.5500925779342651
vt 0.20796722173690796 0.5295647084712982
vt 0.22893227636814117 0.427179217338562
vt 0.2532415986061096 0.40750664472579956
vt 0.22893227636814117 0.3747565746307373
vt 0.2532415986061096 0.4506556987762451
vt 0.10520234704017639 0.4506556987762451
vt 0.10520234704017639 0.427179217338562

g demo_bazooka
s 1
usemtl demo_bazooka
f 3/3/3 2/2/2 1/1/1 
f 4/4/4 1/1/1 2/2/2 
f 4/4/4 2/2/2 5/5/5 
f 6/6/6 5/5/5 2/2/2 
f 6/6/6 7/7/7 5/5/5 
f 8/8/8 5/5/5 7/7/7 
f 3/3/3 1/1/1 9/9/9 
f 10/10/10 9/9/9 1/1/1 
f 9/9/9 10/10/10 11/11/11 
f 12/12/12 11/11/11 10/10/10 
f 8/8/8 7/7/7 13/13/13 
f 14/14/14 13/13/13 7/7/7 
f 13/13/13 14/14/14 15/15/15 
f 16/16/16 15/15/15 14/14/14 
f 15/15/15 16/16/16 17/17/17 
f 18/18/18 17/17/17 16/16/16 
f 21/21/21 20/20/20 19/19/19 
f 22/22/22 20/20/20 21/21/21 
f 22/22/22 23/23/23 20/20/20 
f 20/20/20 23/23/23 24/24/24 
f 24/24/24 23/23/23 25/25/25 
f 24/24/24 25/25/25 26/26/26 
f 27/27/27 26/26/26 25/25/25 
f 30/30/30 29/29/29 28/28/28 
f 33/33/33 32/32/32 31/31/31 
f 32/32/32 34/34/34 31/31/31 
f 32/32/32 35/35/35 34/34/34 
f 36/36/36 35/35/35 32/32/32 
f 37/37/37 35/35/35 36/36/36 
f 36/36/36 38/38/38 37/37/37 
f 39/39/39 37/37/37 38/38/38 
f 42/42/42 41/41/41 40/40/40 
f 40/40/40 41/41/41 43/43/43 
f 40/40/40 44/44/44 42/42/42 
f 45/45/45 44/44/44 40/40/40 
f 46/46/46 44/44/44 45/45/45 
f 44/44/44 46/46/46 47/47/47 
f 44/44/44 47/47/47 48/48/48 
f 42/42/42 44/44/44 48/48/48 
f 47/47/47 49/49/49 48/48/48 
f 49/49/49 50/50/50 48/48/48 
f 47/47/47 46/46/46 51/51/51 
f 51/51/51 46/46/46 52/52/52 
f 51/51/51 53/53/53 47/47/47 
f 53/53/53 49/49/49 47/47/47 
f 53/53/53 51/51/51 54/54/54 
f 55/55/55 49/49/49 53/53/53 
f 55/55/55 56/56/56 49/49/49 
f 56/56/56 50/50/50 49/49/49 
f 56/56/56 57/57/57 50/50/50 
f 57/57/57 56/56/56 58/58/58 
f 61/61/61 60/60/60 59/59/59 
f 62/62/62 60/60/60 61/61/61 
f 62/62/62 63/63/63 60/60/60 
f 63/63/63 64/64/64 60/60/60 
f 64/64/64 65/65/65 60/60/60 
f 60/60/60 65/65/65 66/66/66 
f 63/63/63 62/62/62 67/67/67 
f 64/64/64 63/63/63 68/68/68 
f 61/61/61 59/59/59 69/69/69 
f 72/72/72 71/71/71 70/70/70 
f 73/73/73 70/70/70 71/71/71 
f 70/70/70 73/73/73 74/74/74 
f 75/75/75 74/74/74 73/73/73 
f 76/76/76 74/74/74 75/75/75 
f 77/77/77 76/76/76 75/75/75 
f 78/78/78 76/76/76 77/77/77 
f 77/77/77 79/79/79 78/78/78 
f 80/80/80 78/78/78 79/79/79 
f 80/80/80 79/79/79 81/81/81 
f 82/82/82 81/81/81 79/79/79 
f 82/82/82 83/83/83 81/81/81 
f 84/84/84 81/81/81 83/83/83 
f 84/84/84 83/83/83 85/85/85 
f 86/86/86 85/85/85 83/83/83 
f 87/87/87 85/85/85 86/86/86 
f 88/88/88 87/87/87 86/86/86 
f 89/89/89 87/87/87 88/88/88 
f 88/88/88 90/90/90 89/89/89 
f 91/91/91 89/89/89 90/90/90 
f 90/90/90 92/92/92 91/91/91 
f 93/93/93 91/91/91 92/92/92 
f 96/96/96 95/95/95 94/94/94 
f 97/97/97 94/94/94 95/95/95 
f 96/96/96 98/98/98 95/95/95 
f 99/99/99 95/95/95 98/98/98 
f 102/102/102 101/101/101 100/100/100 
f 103/103/103 100/100/100 101/101/101 
f 100/100/100 103/103/103 104/104/104 
f 105/105/105 104/104/104 103/103/103 
f 105/105/105 106/106/106 104/104/104 
f 107/107/107 104/104/104 106/106/106 
f 106/106/106 108/108/108 107/107/107 
f 109/109/109 107/107/107 108/108/108 
f 103/103/103 101/101/101 110/110/110 
f 111/111/111 110/110/110 101/101/101 
f 105/105/105 103/103/103 112/112/112 
f 110/110/110 112/112/112 103/103/103 
f 106/106/106 105/105/105 113/113/113 
f 112/112/112 113/113/113 105/105/105 
f 108/108/108 106/106/106 114/114/114 
f 113/113/113 114/114/114 106/106/106 
f 110/110/110 111/111/111 115/115/115 
f 116/116/116 115/115/115 111/111/111 
f 115/115/115 117/117/117 110/110/110 
f 112/112/112 110/110/110 117/117/117 
f 112/112/112 117/117/117 113/113/113 
f 118/118/118 113/113/113 117/117/117 
f 113/113/113 118/118/118 114/114/114 
f 119/119/119 114/114/114 118/118/118 
f 122/122/122 121/121/121 120/120/120 
f 123/123/123 120/120/120 121/121/121 
f 122/122/122 120/120/120 124/124/124 
f 127/127/127 126/126/126 125/125/125 
f 128/128/128 125/125/125 126/126/126 
f 125/125/125 129/129/129 127/127/127 
f 130/130/130 127/127/127 129/129/129 
f 129/129/129 131/131/131 130/130/130 
f 132/132/132 130/130/130 131/131/131 
f 131/131/131 133/133/133 132/132/132 
f 134/134/134 132/132/132 133/133/133 
f 126/126/126 127/127/127 135/135/135 
f 136/136/136 135/135/135 127/127/127 
f 127/127/127 130/130/130 136/136/136 
f 135/135/135 136/136/136 137/137/137 
f 138/138/138 137/137/137 136/136/136 
f 136/136/136 139/139/139 138/138/138 
f 139/139/139 136/136/136 130/130/130 
f 130/130/130 132/132/132 139/139/139 
f 140/140/140 138/138/138 139/139/139 
f 139/139/139 141/141/141 140/140/140 
f 141/141/141 139/139/139 132/132/132 
f 132/132/132 134/134/134 141/141/141 
f 142/142/142 140/140/140 141/141/141 
f 141/141/141 143/143/143 142/142/142 
f 143/143/143 141/141/141 134/134/134 
f 144/144/144 142/142/142 143/143/143 
f 137/137/137 138/138/138 145/145/145 
f 146/146/146 145/145/145 138/138/138 
f 138/138/138 140/140/140 146/146/146 
f 147/147/147 146/146/146 140/140/140 
f 140/140/140 142/142/142 147/147/147 
f 148/148/148 147/147/147 142/142/142 
f 142/142/142 144/144/144 148/148/148 
f 149/149/149 148/148/148 144/144/144 
f 152/152/152 151/151/151 150/150/150 
f 153/153/153 150/150/150 151/151/151 
f 152/152/152 154/154/154 151/151/151 
f 155/155/155 151/151/151 154/154/154 
f 154/154/154 156/156/156 155/155/155 
f 157/157/157 155/155/155 156/156/156 
f 156/156/156 158/158/158 157/157/157 
f 159/159/159 157/157/157 158/158/158 
f 162/162/162 161/161/161 160/160/160 
f 161/161/161 162/162/162 163/163/163 
f 162/162/162 160/160/160 164/164/164 
f 165/165/165 162/162/162 164/164/164 
f 165/165/165 164/164/164 166/166/166 
f 164/164/164 160/160/160 167/167/167 
f 168/168/168 164/164/164 167/167/167 
f 166/166/166 164/164/164 168/168/168 
f 166/166/166 168/168/168 169/169/169 
f 166/166/166 169/169/169 170/170/170 
f 169/169/169 168/168/168 171/171/171 
f 169/169/169 171/171/171 172/172/172 
f 173/173/173 168/168/168 167/167/167 
f 171/171/171 168/168/168 173/173/173 
f 171/171/171 173/173/173 174/174/174 
f 174/174/174 173/173/173 175/175/175 
f 176/176/176 173/173/173 167/167/167 
f 175/175/175 173/173/173 176/176/176 
f 176/176/176 177/177/177 175/175/175 
f 175/175/175 177/177/177 178/178/178 
f 181/181/181 180/180/180 179/179/179 
f 180/180/180 182/182/182 179/179/179 
f 182/182/182 180/180/180 183/183/183 
f 180/180/180 184/184/184 183/183/183 
f 185/185/185 180/180/180 181/181/181 
f 184/184/184 180/180/180 186/186/186 
f 182/182/182 183/183/183 187/187/187 
f 179/179/179 182/182/182 188/188/188 
f 185/185/185 181/181/181 189/189/189 
f 192/192/192 191/191/191 190/190/190 
f 193/193/193 190/190/190 191/191/191 
f 191/191/191 194/194/194 193/193/193 
f 195/195/195 193/193/193 194/194/194 
f 196/196/196 195/195/195 194/194/194 
f 195/195/195 196/196/196 197/197/197 
f 197/197/197 196/196/196 198/198/198 
f 197/197/197 198/198/198 199/199/199 
f 200/200/200 199/199/199 198/198/198 
f 200/200/200 201/201/201 199/199/199 
f 202/202/202 199/199/199 201/201/201 
f 202/202/202 201/201/201 203/203/203 
f 204/204/204 203/203/203 201/201/201 
f 204/204/204 205/205/205 203/203/203 
f 206/206/206 203/203/203 205/205/205 
f 207/207/207 206/206/206 205/205/205 
f 206/206/206 207/207/207 208/208/208 
f 208/208/208 207/207/207 209/209/209 
f 208/208/208 209/209/209 210/210/210 
f 211/211/211 210/210/210 209/209/209 
f 210/210/210 211/211/211 212/212/212 
f 213/213/213 212/212/212 211/211/211 
f 216/216/216 215/215/215 214/214/214 
f 217/217/217 214/214/214 215/215/215 
f 214/214/214 218/218/218 216/216/216 
f 219/219/219 216/216/216 218/218/218 
f 218/218/218 220/220/220 219/219/219 
f 221/221/221 219/219/219 220/220/220 
f 220/220/220 222/222/222 221/221/221 
f 223/223/223 221/221/221 222/222/222 
f 222/222/222 224/224/224 223/223/223 
f 225/225/225 223/223/223 224/224/224 
f 228/228/228 227/227/227 226/226/226 
f 229/229/229 226/226/226 227/227/227 
f 229/229/229 227/227/227 230/230/230 
f 231/231/231 230/230/230 227/227/227 
f 234/234/234 233/233/233 232/232/232 
f 235/235/235 232/232/232 233/233/233 
f 232/232/232 236/236/236 234/234/234 
f 237/237/237 234/234/234 236/236/236 
f 237/237/237 236/236/236 238/238/238 
f 239/239/239 238/238/238 236/236/236 
f 238/238/238 239/239/239 240/240/240 
f 241/241/241 240/240/240 239/239/239 
f 234/234/234 242/242/242 233/233/233 
f 243/243/243 233/233/233 242/242/242 
f 242/242/242 234/234/234 244/244/244 
f 237/237/237 244/244/244 234/234/234 
f 244/244/244 237/237/237 245/245/245 
f 238/238/238 245/245/245 237/237/237 
f 245/245/245 238/238/238 246/246/246 
f 240/240/240 246/246/246 238/238/238 
f 242/242/242 247/247/247 243/243/243 
f 248/248/248 243/243/243 247/247/247 
f 244/244/244 249/249/249 242/242/242 
f 247/247/247 242/242/242 249/249/249 
f 244/244/244 245/245/245 249/249/249 
f 250/250/250 249/249/249 245/245/245 
f 245/245/245 246/246/246 250/250/250 
f 251/251/251 250/250/250 246/246/246 
f 254/254/254 253/253/253 252/252/252 
f 255/255/255 252/252/252 253/253/253 
f 253/253/253 254/254/254 256/256/256 
f 259/259/259 258/258/258 257/257/257 
f 260/260/260 257/257/257 258/258/258 
f 257/257/257 260/260/260 261/261/261 
f 262/262/262 261/261/261 260/260/260 
f 261/261/261 262/262/262 263/263/263 
f 264/264/264 263/263/263 262/262/262 
f 263/263/263 264/264/264 265/265/265 
f 266/266/266 265/265/265 264/264/264 
f 258/258/258 267/267/267 260/260/260 
f 268/268/268 260/260/260 267/267/267 
f 260/260/260 268/268/268 262/262/262 
f 267/267/267 269/269/269 268/268/268 
f 270/270/270 268/268/268 269/269/269 
f 270/270/270 271/271/271 268/268/268 
f 272/272/272 268/268/268 271/271/271 
f 272/272/272 262/262/262 268/268/268 
f 262/262/262 272/272/272 264/264/264 
f 272/272/272 271/271/271 273/273/273 
f 273/273/273 264/264/264 272/272/272 
f 264/264/264 273/273/273 266/266/266 
f 274/274/274 273/273/273 271/271/271 
f 273/273/273 274/274/274 275/275/275 
f 275/275/275 266/266/266 273/273/273 
f 276/276/276 275/275/275 274/274/274 
f 269/269/269 277/277/277 270/270/270 
f 278/278/278 270/270/270 277/277/277 
f 270/270/270 278/278/278 271/271/271 
f 279/279/279 271/271/271 278/278/278 
f 271/271/271 279/279/279 274/274/274 
f 280/280/280 274/274/274 279/279/279 
f 274/274/274 280/280/280 276/276/276 
f 281/281/281 276/276/276 280/280/280 
f 284/284/284 283/283/283 282/282/282 
f 285/285/285 282/282/282 283/283/283 
f 284/284/284 282/282/282 286/286/286 
f 287/287/287 286/286/286 282/282/282 
f 286/286/286 287/287/287 288/288/288 
f 289/289/289 288/288/288 287/287/287 
f 288/288/288 289/289/289 290/290/290 
f 291/291/291 290/290/290 289/289/289 
f 294/294/294 293/293/293 292/292/292 
f 293/293/293 294/294/294 295/295/295 
f 293/293/293 296/296/296 292/292/292 
f 299/299/299 298/298/298 297/297/297 
f 300/300/300 298/298/298 299/299/299 
f 301/301/301 298/298/298 300/300/300 
f 304/304/304 303/303/303 302/302/302 
f 305/305/305 302/302/302 303/303/303 
f 305/305/305 306/306/306 302/302/302 
f 307/307/307 302/302/302 306/306/306 

