v -2.5 -1.5 0.9999995827674866
v -3.52252197265625 -2.508028507232666 0.9999995827674866
v -3.5 -1.5 0.9999995827674866
v -2.5 -2.5 0.9999995827674866
v -2.5 -0.5 0.9999995827674866
v -3.5 -0.5 0.9999995827674866
v -4.516779899597168 -1.5 0.9999995827674866
v -4.516779899597168 -0.5076708793640137 0.9999995827674866
v 1.5 2.5 0.5
v 0.5 1.5 0.5
v 0.5 2.5 0.5
v 1.5 1.5 0.5
v 2.5 2.5 0.9999995827674866
v 1.4832813739776611 1.4858826398849487 0.9999995827674866
v 1.4832813739776611 2.5 0.9999995827674866
v 2.5 1.4858826398849487 0.9999995827674866
v 2.5175538063049316 3.5128026008605957 0.9999995827674866
v 1.4832813739776611 3.4716479778289795 0.9999995827674866
v -2.5 4.5 0.9999995827674866
v -3.5004539489746094 3.5 0.9999995827674866
v -3.5 4.5 0.9999995827674866
v -2.5004539489746094 3.5 0.9999995827674866
v 0.5 4.5 0.9999995827674866
v -0.5 3.4716479778289795 0.9999995827674866
v -0.5 4.5 0.9999995827674866
v 0.5 3.4716479778289795 0.9999995827674866
v 3.5 -0.5 0.5
v 2.5 -1.5 0.5
v 2.5 -0.5 0.5
v 3.5 -1.5 0.5
vn -0.0 0.0 1.0
vn -0.0 0.0 1.0
vn -0.0 0.0 1.0
vn -0.0 0.0 1.0
vn -0.0 0.0 1.0
vn -0.0 0.0 1.0
vn -0.0 0.0 1.0
vn -0.0 0.0 1.0
vn -0.0 0.0 1.0
vn -0.0 0.0 1.0
vn -0.0 0.0 1.0
vn -0.0 0.0 1.0
vn -0.0 0.0 1.0
vn -0.0 0.0 1.0
vn -0.0 0.0 1.0
vn -0.0 0.0 1.0
vn -0.0 0.0 1.0
vn -0.0 0.0 1.0
vn -0.0 0.0 1.0
vn -0.0 0.0 1.0
vn -0.0 0.0 1.0
vn -0.0 0.0 1.0
vn -0.0 0.0 1.0
vn -0.0 0.0 1.0
vn -0.0 0.0 1.0
vn -0.0 0.0 1.0
vn -0.0 0.0 1.0
vn -0.0 0.0 1.0
vn -0.0 0.0 1.0
vn -0.0 0.0 1.0
vt 2.50321102142334 -3.5019421577453613
vt 2.00234055519104 -4.001942157745361
vt 2.50321102142334 -4.001942157745361
vt 2.00234055519104 -3.5019421577453613
vt 3.0040817260742188 -3.5019421577453613
vt 3.0040817260742188 -4.001942157745361
vt 2.50321102142334 -4.501942157745361
vt 3.0040817260742188 -4.501942157745361
vt 4.506692409515381 -1.5019421577453613
vt 4.005821704864502 -2.0019421577453613
vt 4.506692409515381 -2.0019421577453613
vt 4.005821704864502 -1.5019421577453613
vt 4.506692409515381 -1.0019421577453613
vt 4.005821704864502 -1.5019421577453613
vt 4.506692409515381 -1.5019421577453613
vt 4.005821704864502 -1.0019421577453613
vt 5.00756311416626 -1.0019421577453613
vt 5.00756311416626 -1.5019421577453613
vt 5.508433818817139 -3.5019421577453613
vt 5.00756311416626 -4.001942157745361
vt 5.508433818817139 -4.001942157745361
vt 5.00756311416626 -3.5019421577453613
vt 5.508433818817139 -2.0019421577453613
vt 5.00756311416626 -2.5019421577453613
vt 5.508433818817139 -2.5019421577453613
vt 5.00756311416626 -2.0019421577453613
vt 3.0040812492370605 -0.5019420385360718
vt 2.5032107830047607 -1.0019421577453613
vt 3.0040812492370605 -1.0019421577453613
vt 2.5032107830047607 -0.5019420385360718

g bg_mdl_map_yuka09
s 1
usemtl bg_mdl_map_yuka09_0
f 3/3/3 2/2/2 1/1/1 
f 4/4/4 1/1/1 2/2/2 
f 1/1/1 5/5/5 3/3/3 
f 6/6/6 3/3/3 5/5/5 
f 3/3/3 6/6/6 7/7/7 
f 8/8/8 7/7/7 6/6/6 
f 11/11/11 10/10/10 9/9/9 
f 12/12/12 9/9/9 10/10/10 
f 15/15/15 14/14/14 13/13/13 
f 16/16/16 13/13/13 14/14/14 
f 13/13/13 17/17/17 15/15/15 
f 18/18/18 15/15/15 17/17/17 
f 21/21/21 20/20/20 19/19/19 
f 22/22/22 19/19/19 20/20/20 
f 25/25/25 24/24/24 23/23/23 
f 26/26/26 23/23/23 24/24/24 

usemtl bg_mdl_map_yuka09_1
f 29/29/29 28/28/28 27/27/27 
f 30/30/30 27/27/27 28/28/28 

