v -0.055856890976428986 -0.13718371093273163 0.013169307261705399
v -0.13449415564537048 -0.22801844775676727 0.4410017728805542
v -0.12692278623580933 -0.08869100362062454 0.013169307261705399
v -0.07524968683719635 -0.2622232735157013 0.4410017728805542
v -0.12692278623580933 -0.18567641079425812 0.013169307261705399
v -0.1344941407442093 -0.2964280843734741 0.4410017728805542
v -0.037391696125268936 -0.31352800130844116 0.8820036053657532
v 0.00021003352594561875 -0.33523738384246826 0.8820036053657532
v -0.03739168867468834 -0.356946736574173 0.8820036053657532
v -0.13449415564537048 -0.22801844775676727 0.4410017728805542
v -0.15993748605251312 -0.1359035074710846 0.013169307261705399
v -0.037391696125268936 -0.31352800130844116 0.8820036053657532
v -0.07823725044727325 -0.2757537066936493 1.1229708194732666
v -0.04168129712343216 -0.2968592643737793 1.1229708194732666
v -0.07823725044727325 -0.3179648816585541 1.1229708194732666
v -0.07823725044727325 -0.2757537066936493 1.1229708194732666
v -0.17614203691482544 -0.40372756123542786 1.4542121887207031
v -0.15004877746105194 -0.4187925159931183 1.4542121887207031
v -0.17614203691482544 -0.43385741114616394 1.4542121887207031
v -0.17614203691482544 -0.40372756123542786 1.4542121887207031
v -0.16744433343410492 -0.6480509042739868 1.6641029119491577
v -0.12692278623580933 -0.08869100362062454 0.013169307261705399
v -0.15004877746105194 -0.4187925159931183 1.4542121887207031
v -0.16744433343410492 -0.6480509042739868 1.6641029119491577
v -0.04296967387199402 0.020580368116497993 0.013169306330382824
v -0.13896603882312775 0.16721874475479126 0.32120031118392944
v -0.10494761914014816 0.05506271868944168 0.013169306330382824
v -0.08598717302083969 0.13774318993091583 0.3293720483779907
v -0.10494761168956757 -0.013901988044381142 0.013169306330382824
v -0.13896603882312775 0.10826761275529861 0.337543785572052
v -0.10494761914014816 0.05506271868944168 0.013169306330382824
v -0.13896603882312775 0.16721874475479126 0.32120031118392944
v -0.07681132107973099 0.316600501537323 0.6504831314086914
v -0.04453316703438759 0.2868032455444336 0.6587440371513367
v -0.07681131362915039 0.2570060193538666 0.6670050024986267
v -0.07681132107973099 0.316600501537323 0.6504831314086914
v 0.017237460240721703 0.3870212733745575 0.9685153961181641
v 0.04502454027533531 0.3715614974498749 0.9728013873100281
v 0.017237460240721703 0.35610175132751465 0.9770873785018921
v 0.017237460240721703 0.3870212733745575 0.9685153961181641
v 0.025408629328012466 0.5390995144844055 1.2981737852096558
v 0.05134056508541107 0.5246719121932983 1.3021736145019531
v 0.025408629328012466 0.5102443099021912 1.30617356300354
v 0.025408629328012466 0.5390995144844055 1.2981737852096558
v 0.14034698903560638 0.6159861087799072 1.4729856252670288
v 0.05134056508541107 0.5246719121932983 1.3021736145019531
v 0.14034698903560638 0.6159861087799072 1.4729856252670288
v -0.15926899015903473 0.1437353640794754 0.01316930539906025
v -0.2992669939994812 0.10660383105278015 0.18879735469818115
v -0.1812189221382141 0.06391645222902298 0.01316930539906025
v -0.28852200508117676 0.16503117978572845 0.2033969759941101
v -0.10043260455131531 0.08474902808666229 0.01316930539906025
v -0.24771909415721893 0.12185338884592056 0.21799667179584503
v -0.1812189221382141 0.06391645222902298 0.01316930539906025
v -0.2992669939994812 0.10660383105278015 0.18879735469818115
v -0.467096209526062 0.09614284336566925 0.2611502707004547
v -0.4631349444389343 0.13178347051143646 0.2814512550830841
v -0.44583824276924133 0.11035481840372086 0.31210631132125854
v -0.467096209526062 0.09614284336566925 0.2611502707004547
v -0.6615502834320068 0.05854286625981331 0.3297522962093353
v -0.6618440747261047 0.09534808993339539 0.3411676287651062
v -0.6471818685531616 0.06814901530742645 0.36419475078582764
v -0.6615502834320068 0.05854286625981331 0.3297522962093353
v -0.897945761680603 0.059790536761283875 0.5992785692214966
v -0.8982067108154297 0.09252873063087463 0.6094326376914978
v -0.8851646780967712 0.06833517551422119 0.629915177822113
v -0.897945761680603 0.059790536761283875 0.5992785692214966
v -1.1843881607055664 0.0644712969660759 0.8346860408782959
v -0.8982067108154297 0.09252873063087463 0.6094326376914978
v -1.1843881607055664 0.0644712969660759 0.8346860408782959
v 0.001509062945842743 0.013360570184886456 0.01316930539906025
v 0.14371225237846375 0.04291355982422829 0.1903088390827179
v 0.03036600537598133 0.06391768157482147 0.01316930539906025
v 0.1171138733625412 -0.01020635012537241 0.204908549785614
v -0.027823563665151596 0.0636477991938591 0.01316930539906025
v 0.08995667845010757 0.04263003170490265 0.21950820088386536
v 0.03036600537598133 0.06391768157482147 0.01316930539906025
v 0.14371225237846375 0.04291355982422829 0.1903088390827179
v 0.3215304911136627 0.02978508360683918 0.3420681059360504
v 0.299235463142395 0.003014544490724802 0.3542548418045044
v 0.2766592800617218 0.029548415914177895 0.3664415180683136
v 0.3215304911136627 0.02978508360683918 0.3420681059360504
v 0.39969924092292786 0.016571704298257828 0.6166342496871948
v 0.38294410705566406 -0.016890278086066246 0.6258311867713928
v 0.36583685874938965 0.016393110156059265 0.6350280046463013
v 0.39969924092292786 0.016571704298257828 0.6166342496871948
v 0.6151268482208252 -0.023582998663187027 0.8148539662361145
v 0.6002230644226074 -0.05334740877151489 0.823034405708313
v 0.5850061774253845 -0.023741859942674637 0.8312150239944458
v 0.6151268482208252 -0.023582998663187027 0.8148539662361145
v 0.7361687421798706 -0.13669918477535248 0.9850108027458191
v 0.6002230644226074 -0.05334740877151489 0.823034405708313
v 0.7361687421798706 -0.13669918477535248 0.9850108027458191
v -0.08401698619127274 -0.044464949518442154 0.49977487325668335
v -0.22687919437885284 -0.0653679221868515 1.052266240119934
v -0.22227296233177185 -0.08614033460617065 1.052266240119934
v -0.09239910542964935 -0.006667538546025753 0.49977484345436096
v -0.4893135726451874 -0.2482692152261734 1.298789381980896
v -0.0431566946208477 -0.10470631718635559 0.01316928118467331
v -0.05798742175102234 -0.037829432636499405 0.01316928118467331
v -0.20679950714111328 -0.07240628451108932 1.052266240119934
v -0.08401698619127274 -0.044464949518442154 0.49977487325668335
v -0.22227296233177185 -0.08614033460617065 1.052266240119934
v -0.05586281791329384 -0.019474010914564133 0.49977487325668335
v -0.09239910542964935 -0.006667538546025753 0.49977484345436096
v -0.22687919437885284 -0.0653679221868515 1.052266240119934
v -0.4893135726451874 -0.2482692152261734 1.298789381980896
v -0.0431566946208477 -0.10470631718635559 0.01316928118467331
v 0.006657963152974844 -0.06048858165740967 0.01316928118467331
v -0.05798742175102234 -0.037829432636499405 0.01316928118467331
vn 0.9849051833152771 0.14332672953605652 0.09705227613449097
vn -0.5332634449005127 0.7944194078445435 0.290737122297287
vn -0.14599962532520294 0.9414188861846924 0.303997665643692
vn 0.9970788955688477 -0.02260548062622547 -0.07295609265565872
vn -0.20593401789665222 -0.944612443447113 -0.2555355131626129
vn -0.530219316482544 -0.8449908494949341 -0.06969890743494034
vn -0.4522879123687744 0.8913729190826416 0.02983381412923336
vn 0.9970619082450867 -0.07659579813480377 0.0007799712475389242
vn -0.38623344898223877 -0.9222256541252136 0.01798487827181816
vn -0.5332634449005127 0.7944194078445435 0.290737122297287
vn -0.9928575754165649 0.11205614358186722 0.04095514491200447
vn -0.4522879123687744 0.8913729190826416 0.02983381412923336
vn -0.42880555987358093 0.903152346611023 0.021017540246248245
vn 0.9632377028465271 0.11523717641830444 0.2426799237728119
vn -0.5085203051567078 -0.8313923478126526 -0.22404010593891144
vn -0.42880555987358093 0.903152346611023 0.021017540246248245
vn -0.5677948594093323 0.7351535558700562 0.3703486919403076
vn 0.9450355172157288 0.005337071605026722 0.32692408561706543
vn -0.6291648149490356 -0.615670919418335 -0.474448025226593
vn -0.5677948594093323 0.7351535558700562 0.3703486919403076
vn 2.1013900550315157e-05 -0.7370002269744873 0.6758925318717957
vn -0.14599962532520294 0.9414188861846924 0.303997665643692
vn 0.9450355172157288 0.005337071605026722 0.32692408561706543
vn 2.1013900550315157e-05 -0.7370002269744873 0.6758925318717957
vn 0.9668540954589844 -0.17100784182548523 0.1896030604839325
vn -0.5659505724906921 0.7744772434234619 -0.2826390862464905
vn -0.5295602679252625 0.7784281969070435 -0.3370688855648041
vn 0.9995720982551575 -0.02913111075758934 0.0026283646002411842
vn -0.3811153173446655 -0.8750763535499573 0.29831603169441223
vn -0.540086030960083 -0.7700493335723877 0.3396041691303253
vn -0.5295602679252625 0.7784281969070435 -0.3370688855648041
vn -0.5659505724906921 0.7744772434234619 -0.2826390862464905
vn -0.39168477058410645 0.9015523195266724 -0.18381091952323914
vn 0.9784504771232605 -0.02534440904855728 -0.20492009818553925
vn -0.4063066244125366 -0.8152445554733276 0.4126635491847992
vn -0.39168477058410645 0.9015523195266724 -0.18381091952323914
vn -0.4625600278377533 0.8542662262916565 -0.23720766603946686
vn 0.9923585057258606 -0.07529862225055695 -0.09774833172559738
vn -0.4143688380718231 -0.8250795602798462 0.38411229848861694
vn -0.4625600278377533 0.8542662262916565 -0.23720766603946686
vn -0.5741426348686218 0.806698739528656 -0.1399906426668167
vn 0.9684273600578308 -0.11327603459358215 -0.22207416594028473
vn -0.5331636667251587 -0.6738318800926208 0.5115535855293274
vn -0.5741426348686218 0.806698739528656 -0.1399906426668167
vn 0.4799582064151764 0.41309598088264465 0.7739455699920654
vn 0.9684273600578308 -0.11327603459358215 -0.22207416594028473
vn 0.4799582064151764 0.41309598088264465 0.7739455699920654
vn 0.09472623467445374 0.993482768535614 -0.06339509785175323
vn -0.46559199690818787 -0.7569220662117004 -0.4585772156715393
vn -0.42507725954055786 -0.8979403376579285 -0.11407238245010376
vn -0.09187257289886475 0.9950019717216492 0.039121296256780624
vn 0.7701852917671204 -0.20424138009548187 0.604235053062439
vn 0.6347206830978394 -0.17772147059440613 0.7520270943641663
vn -0.42507725954055786 -0.8979403376579285 -0.11407238245010376
vn -0.46559199690818787 -0.7569220662117004 -0.4585772156715393
vn -0.2565717399120331 -0.6003009080886841 -0.7575023174285889
vn -0.20884139835834503 0.9679306745529175 -0.13962624967098236
vn 0.3759540617465973 -0.11157886683940887 0.9198960065841675
vn -0.2565717399120331 -0.6003009080886841 -0.7575023174285889
vn -0.33711233735084534 -0.6684850454330444 -0.662935197353363
vn -0.3357957899570465 0.8963894844055176 -0.289356529712677
vn 0.5262863636016846 -0.36283978819847107 0.7690057754516602
vn -0.33711233735084534 -0.6684850454330444 -0.662935197353363
vn -0.4668712615966797 -0.7509427666664124 -0.4670291244983673
vn -0.17232747375965118 0.9736773371696472 -0.14918316900730133
vn 0.6331508755683899 -0.2408621460199356 0.735598623752594
vn -0.4668712615966797 -0.7509427666664124 -0.4670291244983673
vn -0.794904887676239 -0.02496989630162716 0.6062200665473938
vn -0.17232747375965118 0.9736773371696472 -0.14918316900730133
vn -0.794904887676239 -0.02496989630162716 0.6062200665473938
vn -0.30411389470100403 -0.9514271020889282 0.0479699932038784
vn 0.6597805023193359 0.5479564666748047 -0.5142309069633484
vn 0.6421331763267517 0.6844697594642639 -0.34520453214645386
vn -0.0820656344294548 -0.9956769347190857 0.04350663721561432
vn -0.7817161679267883 0.37669700384140015 0.497010201215744
vn -0.6589259505271912 0.43722087144851685 0.6120903491973877
vn 0.6421331763267517 0.6844697594642639 -0.34520453214645386
vn 0.6597805023193359 0.5479564666748047 -0.5142309069633484
vn 0.8124969005584717 0.35066601634025574 -0.4657062292098999
vn 0.10367415845394135 -0.9902282953262329 -0.09327153861522675
vn -0.7068528532981873 0.46487370133399963 0.5331524610519409
vn 0.8124969005584717 0.35066601634025574 -0.4657062292098999
vn 0.7115110754966736 0.5949663519859314 -0.37385445833206177
vn -0.15541888773441315 -0.987723708152771 0.01570887677371502
vn -0.7297994494438171 0.45519357919692993 0.5100898146629333
vn 0.7115110754966736 0.5949663519859314 -0.37385445833206177
vn 0.7432010769844055 0.5434434413909912 -0.3902836740016937
vn -0.14152215421199799 -0.9591468572616577 -0.2449669986963272
vn -0.47516411542892456 0.504646897315979 0.7207986116409302
vn 0.7432010769844055 0.5434434413909912 -0.3902836740016937
vn 0.5780388116836548 -0.43703925609588623 0.6891065239906311
vn -0.14152215421199799 -0.9591468572616577 -0.2449669986963272
vn 0.5780388116836548 -0.43703925609588623 0.6891065239906311
vn -0.27864575386047363 -0.960196852684021 -0.019457194954156876
vn -0.5497945547103882 0.8237289786338806 0.13855119049549103
vn -0.03832385316491127 -0.9493659734725952 -0.3118261992931366
vn -0.6062138676643372 0.7923164367675781 -0.06884447485208511
vn -0.6681427955627441 -0.42825427651405334 0.6084272265434265
vn -0.24971787631511688 -0.963317334651947 0.09828892350196838
vn -0.6562333106994629 0.7486360669136047 -0.09434957802295685
vn 0.8523574471473694 0.17376206815242767 0.4932478368282318
vn -0.27864575386047363 -0.960196852684021 -0.019457194954156876
vn -0.03832385316491127 -0.9493659734725952 -0.3118261992931366
vn 0.9557202458381653 0.23175407946109772 0.181352898478508
vn -0.6062138676643372 0.7923164367675781 -0.06884447485208511
vn -0.5497945547103882 0.8237289786338806 0.13855119049549103
vn -0.6681427955627441 -0.42825427651405334 0.6084272265434265
vn -0.24971787631511688 -0.963317334651947 0.09828892350196838
vn 0.983579695224762 0.13939949870109558 0.11462415754795074
vn -0.6562333106994629 0.7486360669136047 -0.09434957802295685
vt 0.17074385285377502 0.9733334574848413
vt 0.2441927194595337 0.681397408246994
vt 0.2441927194595337 0.9733334574848413
vt 0.17074385285377502 0.681397408246994
vt 0.09729497879743576 0.9733334574848413
vt 0.09729497879743576 0.681397408246994
vt 0.2441927194595337 0.38946133852005005
vt 0.17074385285377502 0.38946133852005005
vt 0.09729497879743576 0.38946133852005005
vt 0.023846108466386795 0.681397408246994
vt 0.05960102379322052 0.9733334574848413
vt 0.023846108466386795 0.38946133852005005
vt 0.2441927194595337 0.09752523899078369
vt 0.17074385285377502 0.09752523899078369
vt 0.09729497879743576 0.09752523899078369
vt 0.023846108466386795 0.09752523899078369
vt 0.2441927194595337 -0.1944108009338379
vt 0.17074385285377502 -0.1944108009338379
vt 0.09729497879743576 -0.1944108009338379
vt 0.023846108466386795 -0.1944108009338379
vt 0.11610082536935806 -0.4863467216491699
vt 0.023846108466386795 0.9733334574848413
vt 0.17094172537326813 -0.1944108009338379
vt 0.11610082536935806 -0.4863467216491699
vt 0.17074385285377502 0.9733334574848413
vt 0.2441927194595337 0.681397408246994
vt 0.2441927194595337 0.9733334574848413
vt 0.17074385285377502 0.681397408246994
vt 0.09729497879743576 0.9733334574848413
vt 0.09729497879743576 0.681397408246994
vt 0.023846108466386795 0.9733334574848413
vt 0.023846108466386795 0.681397408246994
vt 0.2441927194595337 0.38946133852005005
vt 0.17074385285377502 0.38946133852005005
vt 0.09729497879743576 0.38946133852005005
vt 0.023846108466386795 0.38946133852005005
vt 0.2441927194595337 0.09752523899078369
vt 0.17074385285377502 0.09752523899078369
vt 0.09729497879743576 0.09752523899078369
vt 0.023846108466386795 0.09752523899078369
vt 0.2441927194595337 -0.1944108009338379
vt 0.17074385285377502 -0.1944108009338379
vt 0.09729497879743576 -0.1944108009338379
vt 0.023846108466386795 -0.1944108009338379
vt 0.11610082536935806 -0.4863467216491699
vt 0.17094172537326813 -0.1944108009338379
vt 0.11610082536935806 -0.4863467216491699
vt 0.17074385285377502 0.9733334574848413
vt 0.2441927194595337 0.681397408246994
vt 0.2441927194595337 0.9733334574848413
vt 0.17074385285377502 0.681397408246994
vt 0.09729497879743576 0.9733334574848413
vt 0.09729497879743576 0.681397408246994
vt 0.023846108466386795 0.9733334574848413
vt 0.023846108466386795 0.681397408246994
vt 0.2441927194595337 0.38946133852005005
vt 0.17074385285377502 0.38946133852005005
vt 0.09729497879743576 0.38946133852005005
vt 0.023846108466386795 0.38946133852005005
vt 0.2441927194595337 0.09752523899078369
vt 0.17074385285377502 0.09752523899078369
vt 0.09729497879743576 0.09752523899078369
vt 0.023846108466386795 0.09752523899078369
vt 0.2441927194595337 -0.1944108009338379
vt 0.17074385285377502 -0.1944108009338379
vt 0.09729497879743576 -0.1944108009338379
vt 0.023846108466386795 -0.1944108009338379
vt 0.11610082536935806 -0.4863467216491699
vt 0.17094172537326813 -0.1944108009338379
vt 0.11610082536935806 -0.4863467216491699
vt 0.17074385285377502 0.9733334574848413
vt 0.2441927194595337 0.681397408246994
vt 0.2441927194595337 0.9733334574848413
vt 0.17074385285377502 0.681397408246994
vt 0.09729497879743576 0.9733334574848413
vt 0.09729497879743576 0.681397408246994
vt 0.023846108466386795 0.9733334574848413
vt 0.023846108466386795 0.681397408246994
vt 0.2441927194595337 0.38946133852005005
vt 0.17074385285377502 0.38946133852005005
vt 0.09729497879743576 0.38946133852005005
vt 0.023846108466386795 0.38946133852005005
vt 0.2441927194595337 0.09752523899078369
vt 0.17074385285377502 0.09752523899078369
vt 0.09729497879743576 0.09752523899078369
vt 0.023846108466386795 0.09752523899078369
vt 0.2441927194595337 -0.1944108009338379
vt 0.17074385285377502 -0.1944108009338379
vt 0.09729497879743576 -0.1944108009338379
vt 0.023846108466386795 -0.1944108009338379
vt 0.11610082536935806 -0.4863467216491699
vt 0.17094172537326813 -0.1944108009338379
vt 0.11610082536935806 -0.4863467216491699
vt 0.1814894825220108 0.5307782292366028
vt 0.09430330991744995 0.08822298049926758
vt 0.11878626048564911 0.08822298049926758
vt 0.13252359628677368 0.5307781100273132
vt 0.05608304589986801 -0.35433220863342285
vt 0.2441927194595337 0.9733334574848413
vt 0.17074385285377502 0.9733334574848413
vt 0.10983221232891083 0.00021326541900634766
vt 0.05459768325090408 0.48677337169647217
vt 0.08534925431013107 0.00021326541900634766
vt 0.103563591837883 0.48677337169647217
vt 0.1525295227766037 0.4867733120918274
vt 0.13431517779827118 0.00021326541900634766
vt 0.11610082536935806 -0.4863467216491699
vt 0.023846108466386795 0.9733334574848413
vt 0.09729497879743576 0.9733334574848413
vt 0.17074385285377502 0.9733334574848413

g bg_mdl_map_tree01
s 1
usemtl bg_mdl_map_tree01
f 3/3/3 2/2/2 1/1/1 
f 4/4/4 1/1/1 2/2/2 
f 1/1/1 4/4/4 5/5/5 
f 6/6/6 5/5/5 4/4/4 
f 2/2/2 7/7/7 4/4/4 
f 8/8/8 4/4/4 7/7/7 
f 4/4/4 8/8/8 6/6/6 
f 9/9/9 6/6/6 8/8/8 
f 6/6/6 9/9/9 10/10/10 
f 6/6/6 10/10/10 11/11/11 
f 5/5/5 6/6/6 11/11/11 
f 12/12/12 10/10/10 9/9/9 
f 7/7/7 13/13/13 8/8/8 
f 14/14/14 8/8/8 13/13/13 
f 8/8/8 14/14/14 9/9/9 
f 9/9/9 15/15/15 12/12/12 
f 15/15/15 9/9/9 14/14/14 
f 16/16/16 12/12/12 15/15/15 
f 13/13/13 17/17/17 14/14/14 
f 18/18/18 14/14/14 17/17/17 
f 14/14/14 18/18/18 15/15/15 
f 15/15/15 19/19/19 16/16/16 
f 19/19/19 15/15/15 18/18/18 
f 20/20/20 16/16/16 19/19/19 
f 19/19/19 21/21/21 20/20/20 
f 18/18/18 21/21/21 19/19/19 
f 22/22/22 11/11/11 10/10/10 
f 17/17/17 24/24/24 23/23/23 
f 27/27/27 26/26/26 25/25/25 
f 28/28/28 25/25/25 26/26/26 
f 25/25/25 28/28/28 29/29/29 
f 30/30/30 29/29/29 28/28/28 
f 29/29/29 30/30/30 31/31/31 
f 32/32/32 31/31/31 30/30/30 
f 26/26/26 33/33/33 28/28/28 
f 34/34/34 28/28/28 33/33/33 
f 28/28/28 34/34/34 30/30/30 
f 30/30/30 35/35/35 32/32/32 
f 35/35/35 30/30/30 34/34/34 
f 36/36/36 32/32/32 35/35/35 
f 33/33/33 37/37/37 34/34/34 
f 38/38/38 34/34/34 37/37/37 
f 34/34/34 38/38/38 35/35/35 
f 35/35/35 39/39/39 36/36/36 
f 39/39/39 35/35/35 38/38/38 
f 40/40/40 36/36/36 39/39/39 
f 37/37/37 41/41/41 38/38/38 
f 42/42/42 38/38/38 41/41/41 
f 38/38/38 42/42/42 39/39/39 
f 39/39/39 43/43/43 40/40/40 
f 43/43/43 39/39/39 42/42/42 
f 44/44/44 40/40/40 43/43/43 
f 43/43/43 45/45/45 44/44/44 
f 42/42/42 45/45/45 43/43/43 
f 41/41/41 47/47/47 46/46/46 
f 50/50/50 49/49/49 48/48/48 
f 51/51/51 48/48/48 49/49/49 
f 48/48/48 51/51/51 52/52/52 
f 53/53/53 52/52/52 51/51/51 
f 52/52/52 53/53/53 54/54/54 
f 55/55/55 54/54/54 53/53/53 
f 49/49/49 56/56/56 51/51/51 
f 57/57/57 51/51/51 56/56/56 
f 51/51/51 57/57/57 53/53/53 
f 53/53/53 58/58/58 55/55/55 
f 58/58/58 53/53/53 57/57/57 
f 59/59/59 55/55/55 58/58/58 
f 56/56/56 60/60/60 57/57/57 
f 61/61/61 57/57/57 60/60/60 
f 57/57/57 61/61/61 58/58/58 
f 58/58/58 62/62/62 59/59/59 
f 62/62/62 58/58/58 61/61/61 
f 63/63/63 59/59/59 62/62/62 
f 60/60/60 64/64/64 61/61/61 
f 65/65/65 61/61/61 64/64/64 
f 61/61/61 65/65/65 62/62/62 
f 62/62/62 66/66/66 63/63/63 
f 66/66/66 62/62/62 65/65/65 
f 67/67/67 63/63/63 66/66/66 
f 66/66/66 68/68/68 67/67/67 
f 65/65/65 68/68/68 66/66/66 
f 64/64/64 70/70/70 69/69/69 
f 73/73/73 72/72/72 71/71/71 
f 74/74/74 71/71/71 72/72/72 
f 71/71/71 74/74/74 75/75/75 
f 76/76/76 75/75/75 74/74/74 
f 75/75/75 76/76/76 77/77/77 
f 78/78/78 77/77/77 76/76/76 
f 72/72/72 79/79/79 74/74/74 
f 80/80/80 74/74/74 79/79/79 
f 74/74/74 80/80/80 76/76/76 
f 76/76/76 81/81/81 78/78/78 
f 81/81/81 76/76/76 80/80/80 
f 82/82/82 78/78/78 81/81/81 
f 79/79/79 83/83/83 80/80/80 
f 84/84/84 80/80/80 83/83/83 
f 80/80/80 84/84/84 81/81/81 
f 81/81/81 85/85/85 82/82/82 
f 85/85/85 81/81/81 84/84/84 
f 86/86/86 82/82/82 85/85/85 
f 83/83/83 87/87/87 84/84/84 
f 88/88/88 84/84/84 87/87/87 
f 84/84/84 88/88/88 85/85/85 
f 85/85/85 89/89/89 86/86/86 
f 89/89/89 85/85/85 88/88/88 
f 90/90/90 86/86/86 89/89/89 
f 89/89/89 91/91/91 90/90/90 
f 88/88/88 91/91/91 89/89/89 
f 87/87/87 93/93/93 92/92/92 
f 96/96/96 95/95/95 94/94/94 
f 97/97/97 94/94/94 95/95/95 
f 98/98/98 95/95/95 96/96/96 
f 94/94/94 97/97/97 99/99/99 
f 100/100/100 99/99/99 97/97/97 
f 103/103/103 102/102/102 101/101/101 
f 104/104/104 101/101/101 102/102/102 
f 104/104/104 105/105/105 101/101/101 
f 106/106/106 101/101/101 105/105/105 
f 107/107/107 103/103/103 101/101/101 
f 107/107/107 101/101/101 106/106/106 
f 102/102/102 108/108/108 104/104/104 
f 109/109/109 104/104/104 108/108/108 
f 109/109/109 110/110/110 104/104/104 
f 105/105/105 104/104/104 110/110/110 

