v -0.0 -0.17864544689655304 0.0
v -0.044661376625299454 -0.15471151471138 0.07735574245452881
v -0.0 -0.15471151471138 0.08932271599769592
v -0.0773557648062706 -0.08932273834943771 0.13398407399654388
v -1.907348590179936e-08 -0.08932272344827652 0.15471147000789642
v -0.13398408889770508 -0.08932272344827652 0.07735574245452881
v -0.07735575735569 -0.15471151471138 0.04466136917471886
v -0.0 -0.17864544689655304 0.0
v -0.15471151471138 -0.08932272344827652 1.907348590179936e-08
v -0.08932272344827652 -0.15471151471138 1.907348590179936e-08
v -0.0 -0.17864544689655304 0.0
v -0.13398411870002747 -0.08932273834943771 -0.07735572755336761
v -0.07735575735569 -0.15471151471138 -0.04466133937239647
v -0.0 -0.17864544689655304 0.0
v -0.07735579460859299 -0.08932272344827652 -0.13398407399654388
v -0.044661395251750946 -0.15471151471138 -0.07735573500394821
v -0.0 -0.17864544689655304 0.0
v -7.629394360719743e-08 -0.08932272344827652 -0.15471151471138
v -3.814697180359872e-08 -0.15471151471138 -0.08932272344827652
v -0.0 -0.17864544689655304 0.0
v 0.07735565304756165 -0.08932272344827652 -0.13398414850234985
v 0.04466133192181587 -0.15471151471138 -0.0773557722568512
v -0.0 -0.17864544689655304 0.0
v 0.1339840441942215 -0.08932272344827652 -0.07735583931207657
v 0.07735570520162582 -0.15471151471138 -0.04466141760349274
v -0.0 -0.17864544689655304 0.0
v 0.1547115445137024 -0.08932272344827652 -1.1444091541079615e-07
v 0.08932271599769592 -0.15471151471138 -7.629394360719743e-08
v -0.0 -0.17864544689655304 0.0
v 0.13398417830467224 -0.08932272344827652 0.07735563069581985
v 0.07735580205917358 -0.15471151471138 0.04466129094362259
v -0.0 -0.17864544689655304 0.0
v 0.07735587656497955 -0.08932272344827652 0.1339840143918991
v 0.044661443680524826 -0.15471151471138 0.07735570520162582
v -0.0 -0.17864544689655304 0.0
v -1.907348590179936e-08 -0.08932272344827652 0.15471147000789642
v -0.0 -0.15471151471138 0.08932271599769592
v -0.0 -0.17864544689655304 0.0
v 0.17864544689655304 0.0 -1.5258788721439487e-07
v 0.15471144020557404 0.0 -0.08932284265756607
v 0.15471158921718597 0.0 0.08932256698608398
v 0.08932287245988846 0.0 0.15471144020557404
v -1.907348590179936e-08 0.0 0.17864544689655304
v 0.15471151471138 0.08932271599769592 -1.1444091541079615e-07
v 0.1339840292930603 0.08932271599769592 -0.07735583931207657
v 0.08932264149188995 0.0 -0.1547115445137024
v -7.629394360719743e-08 0.0 -0.17864544689655304
v -0.0893227830529213 -1.907348590179936e-08 -0.15471145510673523
v -0.15471151471138 -1.907348590179936e-08 -0.08932270109653473
v -0.17864544689655304 0.0 0.0
v -0.1547114998102188 0.0 0.08932271599769592
v -0.08932273834943771 0.0 0.15471147000789642
v -1.907348590179936e-08 0.0 0.17864544689655304
v -0.07735575735569 0.08932271599769592 0.1339840441942215
v -1.907348590179936e-08 0.08932271599769592 0.15471147000789642
v -0.13398408889770508 0.08932271599769592 0.07735572755336761
v -0.1547114998102188 0.08932275325059891 1.907348590179936e-08
v -0.13398410379886627 0.08932271599769592 -0.07735572010278702
v -0.07735579460859299 0.08932271599769592 -0.1339840590953827
v -7.629394360719743e-08 0.08932271599769592 -0.1547114998102188
v 0.07735566794872284 0.08932271599769592 -0.13398413360118866
v -0.04466136917471886 0.15471151471138 0.07735574245452881
v -0.0 0.15471151471138 0.08932271599769592
v -0.07735575735569 0.15471151471138 0.04466138780117035
v -0.08932273834943771 0.15471151471138 1.907348590179936e-08
v -0.07735578715801239 0.15471151471138 -0.04466133937239647
v -0.04466138780117035 0.1547115445137024 -0.07735572755336761
v -5.7220457705398076e-08 0.15471151471138 -0.08932273834943771
v 0.04466129094362259 0.15471151471138 -0.0773557722568512
v 0.07735574245452881 0.15471151471138 -0.044661425054073334
v 0.0893227756023407 0.15471151471138 -7.629394360719743e-08
v 0.07735580205917358 0.15471151471138 0.04466129094362259
v 0.13398417830467224 0.08932271599769592 0.07735563069581985
v 0.07735587656497955 0.08932271599769592 0.1339840143918991
v -1.907348590179936e-08 0.08932271599769592 0.15471147000789642
v 0.044661443680524826 0.15471151471138 0.07735570520162582
v -0.0 0.15471151471138 0.08932271599769592
v -0.0 0.17864544689655304 0.0
v -0.0 0.17864544689655304 0.0
v -0.0 0.17864544689655304 0.0
v -0.0 0.17864544689655304 0.0
v -0.0 0.17864544689655304 0.0
v -0.0 0.17864544689655304 0.0
v -0.0 0.17864544689655304 0.0
v -0.0 0.17864544689655304 0.0
v -0.0 0.17864544689655304 0.0
v -0.0 0.17864544689655304 0.0
v -0.0 0.17864544689655304 0.0
v -0.0 0.17864544689655304 0.0
vn -0.0 -1.0 0.0
vn -0.2654499113559723 -0.8474345207214355 0.4597727954387665
vn 1.4203739340246102e-07 -0.8474345207214355 0.5308999419212341
vn -0.43799158930778503 -0.48234155774116516 0.7586237192153931
vn -0.0 -0.4823416769504547 0.8759832382202148
vn -0.7586237192153931 -0.4823414981365204 0.4379916489124298
vn -0.4597727358341217 -0.8474345207214355 0.2654499411582947
vn -0.0 -1.0 0.0
vn -0.8759832382202148 -0.4823416471481323 1.9095837444638164e-07
vn -0.5308998227119446 -0.8474346399307251 0.0
vn -0.0 -1.0 0.0
vn -0.7586237192153931 -0.4823416769504547 -0.4379914104938507
vn -0.4597727656364441 -0.8474346399307251 -0.26544979214668274
vn -0.0 -1.0 0.0
vn -0.4379918873310089 -0.48234155774116516 -0.7586236000061035
vn -0.2654501497745514 -0.8474345207214355 -0.45977258682250977
vn -0.0 -1.0 0.0
vn -4.2377067188681394e-07 -0.4823416471481323 -0.8759832382202148
vn -2.079833194557068e-07 -0.8474346399307251 -0.5308998227119446
vn -0.0 -1.0 0.0
vn 0.4379909932613373 -0.48234155774116516 -0.7586240172386169
vn 0.2654497027397156 -0.8474345207214355 -0.45977285504341125
vn -0.0 -1.0 0.0
vn 0.7586232423782349 -0.48234155774116516 -0.43799227476119995
vn 0.4597724676132202 -0.8474346399307251 -0.2654501795768738
vn -0.0 -1.0 0.0
vn 0.8759832382202148 -0.4823415279388428 -7.429067636621767e-07
vn 0.5308996438980103 -0.8474346995353699 -5.174219381842704e-07
vn -0.0 -1.0 0.0
vn 0.7586240172386169 -0.48234161734580994 0.43799105286598206
vn 0.4597730040550232 -0.8474345207214355 0.2654494345188141
vn -0.0 -1.0 0.0
vn 0.4379919469356537 -0.4823416769504547 0.758623480796814
vn 0.2654501795768738 -0.8474345207214355 0.4597727060317993
vn -0.0 -1.0 0.0
vn -0.0 -0.4823416769504547 0.8759832382202148
vn 1.4203739340246102e-07 -0.8474345207214355 0.5308999419212341
vn -0.0 -1.0 0.0
vn 1.0 1.6160228710759839e-07 -9.007341077449382e-07
vn 0.8660250902175903 0.0 -0.5000007152557373
vn 0.8660258650779724 1.1126716259468594e-07 0.4999992251396179
vn 0.500000536441803 0.0 0.8660250902175903
vn -0.0 0.0 1.0
vn 0.8759832978248596 0.482341468334198 -7.690652523706376e-07
vn 0.7586234211921692 0.4823414981365204 -0.43799227476119995
vn 0.4999995827674866 0.0 -0.8660256862640381
vn -4.7421011117876333e-07 0.0 -1.0
vn -0.5000003576278687 0.0 -0.8660252690315247
vn -0.8660255074501038 0.0 -0.49999985098838806
vn -1.0 0.0 0.0
vn -0.866025447845459 0.0 0.5000000596046448
vn -0.5000001192092896 0.0 0.8660253286361694
vn -0.0 0.0 1.0
vn -0.4379916489124298 0.48234155774116516 0.7586236596107483
vn -0.0 0.4823416471481323 0.8759832382202148
vn -0.7586236000061035 0.48234155774116516 0.43799179792404175
vn -0.8759831190109253 0.4823417365550995 1.6741559250021965e-07
vn -0.7586238384246826 0.48234158754348755 -0.43799158930778503
vn -0.4379918873310089 0.48234137892723083 -0.7586236000061035
vn -4.656244811940269e-07 0.48234158754348755 -0.8759832382202148
vn 0.4379911720752716 0.48234155774116516 -0.7586240172386169
vn -0.2654498815536499 0.8474344611167908 0.45977291464805603
vn 1.1033262126147747e-07 0.8474345207214355 0.5308998823165894
vn -0.4597727954387665 0.8474345207214355 0.2654500901699066
vn -0.5308997631072998 0.8474346399307251 2.232015958725242e-07
vn -0.4597730040550232 0.8474345207214355 -0.2654496729373932
vn -0.26545003056526184 0.8474346399307251 -0.45977261662483215
vn -0.0 0.8474344611167908 -0.5309000015258789
vn 0.2654494345188141 0.8474346399307251 -0.4597729742527008
vn 0.4597724378108978 0.8474345207214355 -0.26545050740242004
vn 0.5308999419212341 0.8474344611167908 -3.157795731567603e-07
vn 0.45977288484573364 0.8474345207214355 0.2654496133327484
vn 0.7586241364479065 0.4823414981365204 0.43799102306365967
vn 0.43799200654029846 0.4823415279388428 0.758623480796814
vn -0.0 0.4823416471481323 0.8759832382202148
vn 0.2654501795768738 0.8474345207214355 0.4597727060317993
vn 1.1033262126147747e-07 0.8474345207214355 0.5308998823165894
vn -0.0 1.0 1.1219883333524194e-07
vn -0.0 1.0 1.1219883333524194e-07
vn -0.0 1.0 1.1219883333524194e-07
vn -0.0 1.0 1.1219883333524194e-07
vn -0.0 1.0 1.1219883333524194e-07
vn -0.0 1.0 1.1219883333524194e-07
vn -0.0 1.0 1.1219883333524194e-07
vn -0.0 1.0 1.1219883333524194e-07
vn -0.0 1.0 1.1219883333524194e-07
vn -0.0 1.0 1.1219883333524194e-07
vn -0.0 1.0 1.1219883333524194e-07
vn -0.0 1.0 1.1219883333524194e-07
vt 0.0 0.0
vt 0.0833333358168602 0.1666666865348816
vt 0.0 0.1666666865348816
vt 0.0833333358168602 0.3333333730697632
vt 0.0 0.3333333730697632
vt 0.1666666716337204 0.3333333730697632
vt 0.1666666716337204 0.1666666865348816
vt 0.0833333358168602 0.0
vt 0.25 0.3333333730697632
vt 0.25 0.1666666865348816
vt 0.1666666716337204 0.0
vt 0.3333333432674408 0.3333333730697632
vt 0.3333333432674408 0.1666666865348816
vt 0.25 0.0
vt 0.4166666567325592 0.3333333730697632
vt 0.4166666567325592 0.1666666865348816
vt 0.3333333432674408 0.0
vt 0.4999999701976776 0.3333333730697632
vt 0.4999999701976776 0.1666666865348816
vt 0.4166666567325592 0.0
vt 0.5833332538604736 0.3333333730697632
vt 0.5833332538604736 0.1666666865348816
vt 0.4999999701976776 0.0
vt 0.666666567325592 0.3333333730697632
vt 0.666666567325592 0.1666666865348816
vt 0.5833332538604736 0.0
vt 0.7499998807907104 0.3333333730697632
vt 0.7499998807907104 0.1666666865348816
vt 0.666666567325592 0.0
vt 0.8333331942558289 0.3333333730697632
vt 0.8333331942558289 0.1666666865348816
vt 0.7499998807907104 0.0
vt 0.9166665077209473 0.3333333730697632
vt 0.9166665077209473 0.1666666865348816
vt 0.8333331942558289 0.0
vt 0.9999998211860657 0.3333333730697632
vt 0.9999998211860657 0.1666666865348816
vt 0.9166665077209473 0.0
vt 0.7499998807907104 0.5
vt 0.666666567325592 0.5
vt 0.8333331942558289 0.5
vt 0.9166665077209473 0.5
vt 0.9999998211860657 0.5
vt 0.7499998807907104 0.6666666865348816
vt 0.666666567325592 0.6666666865348816
vt 0.5833332538604736 0.5
vt 0.4999999701976776 0.5
vt 0.4166666567325592 0.5
vt 0.3333333432674408 0.5
vt 0.25 0.5
vt 0.1666666716337204 0.5
vt 0.0833333358168602 0.5
vt 0.0 0.5
vt 0.0833333358168602 0.6666666865348816
vt 0.0 0.6666666865348816
vt 0.1666666716337204 0.6666666865348816
vt 0.25 0.6666666865348816
vt 0.3333333432674408 0.6666666865348816
vt 0.4166666567325592 0.6666666865348816
vt 0.4999999701976776 0.6666666865348816
vt 0.5833332538604736 0.6666666865348816
vt 0.0833333358168602 0.8333333134651184
vt 0.0 0.8333333134651184
vt 0.1666666716337204 0.8333333134651184
vt 0.25 0.8333333134651184
vt 0.3333333432674408 0.8333333134651184
vt 0.4166666567325592 0.8333333134651184
vt 0.4999999701976776 0.8333333134651184
vt 0.5833332538604736 0.8333333134651184
vt 0.666666567325592 0.8333333134651184
vt 0.7499998807907104 0.8333333134651184
vt 0.8333331942558289 0.8333333134651184
vt 0.8333331942558289 0.6666666865348816
vt 0.9166665077209473 0.6666666865348816
vt 0.9999998211860657 0.6666666865348816
vt 0.9166665077209473 0.8333333134651184
vt 0.9999998211860657 0.8333333134651184
vt 0.4166666567325592 0.9999999403953552
vt 0.666666567325592 0.9999999403953552
vt 0.7499998807907104 0.9999999403953552
vt 0.8333331942558289 0.9999999403953552
vt 0.9166665077209473 0.9999999403953552
vt 0.3333333432674408 0.9999999403953552
vt 0.25 0.9999999403953552
vt 0.1666666716337204 0.9999999403953552
vt 0.0833333358168602 0.9999999403953552
vt 0.0 0.9999999403953552
vt 0.5833332538604736 0.9999999403953552
vt 0.4999999701976776 0.9999999403953552

g eff_mdl_sphere00
s 1
usemtl eff_mdl_sphere00
f 3/3/3 2/2/2 1/1/1 
f 4/4/4 2/2/2 3/3/3 
f 5/5/5 4/4/4 3/3/3 
f 4/4/4 6/6/6 2/2/2 
f 6/6/6 7/7/7 2/2/2 
f 2/2/2 7/7/7 8/8/8 
f 6/6/6 9/9/9 7/7/7 
f 9/9/9 10/10/10 7/7/7 
f 7/7/7 10/10/10 11/11/11 
f 9/9/9 12/12/12 10/10/10 
f 12/12/12 13/13/13 10/10/10 
f 10/10/10 13/13/13 14/14/14 
f 12/12/12 15/15/15 13/13/13 
f 15/15/15 16/16/16 13/13/13 
f 13/13/13 16/16/16 17/17/17 
f 15/15/15 18/18/18 16/16/16 
f 18/18/18 19/19/19 16/16/16 
f 16/16/16 19/19/19 20/20/20 
f 18/18/18 21/21/21 19/19/19 
f 21/21/21 22/22/22 19/19/19 
f 19/19/19 22/22/22 23/23/23 
f 21/21/21 24/24/24 22/22/22 
f 24/24/24 25/25/25 22/22/22 
f 22/22/22 25/25/25 26/26/26 
f 24/24/24 27/27/27 25/25/25 
f 27/27/27 28/28/28 25/25/25 
f 25/25/25 28/28/28 29/29/29 
f 27/27/27 30/30/30 28/28/28 
f 30/30/30 31/31/31 28/28/28 
f 28/28/28 31/31/31 32/32/32 
f 30/30/30 33/33/33 31/31/31 
f 33/33/33 34/34/34 31/31/31 
f 31/31/31 34/34/34 35/35/35 
f 33/33/33 36/36/36 34/34/34 
f 36/36/36 37/37/37 34/34/34 
f 34/34/34 37/37/37 38/38/38 
f 39/39/39 27/27/27 24/24/24 
f 40/40/40 39/39/39 24/24/24 
f 39/39/39 41/41/41 27/27/27 
f 41/41/41 30/30/30 27/27/27 
f 41/41/41 42/42/42 30/30/30 
f 42/42/42 33/33/33 30/30/30 
f 42/42/42 43/43/43 33/33/33 
f 43/43/43 36/36/36 33/33/33 
f 44/44/44 39/39/39 40/40/40 
f 45/45/45 44/44/44 40/40/40 
f 45/45/45 40/40/40 46/46/46 
f 46/46/46 40/40/40 21/21/21 
f 46/46/46 21/21/21 18/18/18 
f 47/47/47 46/46/46 18/18/18 
f 47/47/47 18/18/18 15/15/15 
f 48/48/48 47/47/47 15/15/15 
f 48/48/48 15/15/15 12/12/12 
f 49/49/49 48/48/48 12/12/12 
f 49/49/49 12/12/12 9/9/9 
f 50/50/50 49/49/49 9/9/9 
f 50/50/50 9/9/9 6/6/6 
f 51/51/51 50/50/50 6/6/6 
f 51/51/51 6/6/6 4/4/4 
f 52/52/52 51/51/51 4/4/4 
f 52/52/52 4/4/4 5/5/5 
f 53/53/53 52/52/52 5/5/5 
f 54/54/54 52/52/52 53/53/53 
f 55/55/55 54/54/54 53/53/53 
f 54/54/54 56/56/56 52/52/52 
f 56/56/56 51/51/51 52/52/52 
f 56/56/56 57/57/57 51/51/51 
f 57/57/57 50/50/50 51/51/51 
f 57/57/57 58/58/58 50/50/50 
f 58/58/58 49/49/49 50/50/50 
f 58/58/58 59/59/59 49/49/49 
f 59/59/59 48/48/48 49/49/49 
f 59/59/59 60/60/60 48/48/48 
f 60/60/60 47/47/47 48/48/48 
f 60/60/60 61/61/61 47/47/47 
f 61/61/61 46/46/46 47/47/47 
f 61/61/61 45/45/45 46/46/46 
f 62/62/62 54/54/54 55/55/55 
f 63/63/63 62/62/62 55/55/55 
f 62/62/62 64/64/64 54/54/54 
f 64/64/64 56/56/56 54/54/54 
f 64/64/64 65/65/65 56/56/56 
f 65/65/65 57/57/57 56/56/56 
f 65/65/65 66/66/66 57/57/57 
f 66/66/66 58/58/58 57/57/57 
f 66/66/66 67/67/67 58/58/58 
f 67/67/67 59/59/59 58/58/58 
f 67/67/67 68/68/68 59/59/59 
f 68/68/68 60/60/60 59/59/59 
f 68/68/68 69/69/69 60/60/60 
f 69/69/69 61/61/61 60/60/60 
f 69/69/69 70/70/70 61/61/61 
f 70/70/70 45/45/45 61/61/61 
f 70/70/70 71/71/71 45/45/45 
f 71/71/71 44/44/44 45/45/45 
f 71/71/71 72/72/72 44/44/44 
f 72/72/72 73/73/73 44/44/44 
f 44/44/44 73/73/73 39/39/39 
f 73/73/73 41/41/41 39/39/39 
f 73/73/73 74/74/74 41/41/41 
f 74/74/74 42/42/42 41/41/41 
f 74/74/74 75/75/75 42/42/42 
f 75/75/75 43/43/43 42/42/42 
f 72/72/72 76/76/76 73/73/73 
f 76/76/76 74/74/74 73/73/73 
f 76/76/76 77/77/77 74/74/74 
f 77/77/77 75/75/75 74/74/74 
f 68/68/68 67/67/67 78/78/78 
f 71/71/71 70/70/70 79/79/79 
f 72/72/72 71/71/71 80/80/80 
f 76/76/76 72/72/72 81/81/81 
f 77/77/77 76/76/76 82/82/82 
f 67/67/67 66/66/66 83/83/83 
f 66/66/66 65/65/65 84/84/84 
f 65/65/65 64/64/64 85/85/85 
f 64/64/64 62/62/62 86/86/86 
f 62/62/62 63/63/63 87/87/87 
f 70/70/70 69/69/69 88/88/88 
f 69/69/69 68/68/68 89/89/89 
f 40/40/40 24/24/24 21/21/21 

