v -1.273212194442749 -2.1907615661621094 0.5481353402137756
v -1.3889480829238892 -2.1907615661621094 -0.23661009967327118
v -1.3889397382736206 -2.1907615661621094 0.7285012602806091
v -1.3889480829238892 -2.1907615661621094 -0.23661009967327118
v -1.273212194442749 -2.1907615661621094 0.5481353402137756
v -1.2732043266296387 -2.1907615661621094 -0.06699462980031967
v -1.2732043266296387 -2.1907615661621094 -0.06699462980031967
v 1.38863205909729 -2.1907615661621094 -0.23661009967327118
v -1.3889480829238892 -2.1907615661621094 -0.23661009967327118
v 1.38863205909729 -2.1907615661621094 -0.23661009967327118
v -1.2732043266296387 -2.1907615661621094 -0.06699462980031967
v 1.2729202508926392 -2.1907615661621094 -0.06699462980031967
v 1.2729125022888184 -2.1907615661621094 0.5481353402137756
v 1.38863205909729 -2.1907615661621094 -0.23661009967327118
v 1.2729202508926392 -2.1907615661621094 -0.06699462980031967
v 1.38864004611969 -2.1907615661621094 0.7285012602806091
v -0.6028434634208679 -2.189826011657715 0.29465818405151367
v -0.7731556296348572 -2.189826011657715 0.4053576588630676
v -0.4430396854877472 -2.189826011657715 0.4053576588630676
v -0.7262123227119446 -2.189826011657715 0.29465818405151367
v -0.7731556296348572 -2.189826011657715 0.15324005484580994
v -0.7262123227119446 -2.189826011657715 0.15324005484580994
v -0.7731556296348572 -2.189826011657715 0.06429443508386612
v -0.7262119650840759 -2.189826011657715 0.10913696140050888
v -0.6055387854576111 -2.189826011657715 0.19686584174633026
v -0.5147196650505066 -2.189826011657715 0.15324005484580994
v -0.4430396854877472 -2.189826011657715 0.19686584174633026
v -0.5147196650505066 -2.189826011657715 0.10913696140050888
v -0.4430396854877472 -2.189826011657715 0.06429443508386612
v -1.164349913597107 -2.189826011657715 0.06429443508386612
v -1.1129260063171387 -2.1898257732391357 0.4053576588630676
v -1.1129260063171387 -2.1898257732391357 0.10830138623714447
v -1.164349913597107 -2.189826011657715 0.4053576588630676
v -0.885159432888031 -2.1898257732391357 0.10830138623714447
v -0.8342341184616089 -2.189826250076294 0.06429443508386612
v -0.834233820438385 -2.189826250076294 0.4053576588630676
v -0.885159432888031 -2.1898257732391357 0.4053576588630676
v -1.0574411153793335 -2.1898257732391357 0.17046935856342316
v -0.9408930540084839 -2.1898257732391357 0.4053576588630676
v -0.9408932328224182 -2.1898257732391357 0.17046935856342316
v -1.0574411153793335 -2.1898257732391357 0.4053576588630676
v 0.0008807372651062906 -2.1898257732391357 0.2502923607826233
v 0.1088227853178978 -2.189826011657715 0.19506897032260895
v 0.0008807372651062906 -2.1898257732391357 0.19506897032260895
v 0.1088227853178978 -2.189826011657715 0.2502923607826233
v 0.32916000485420227 -2.189826011657715 0.19506897032260895
v 0.32916000485420227 -2.189826011657715 0.2502923607826233
v 0.0008807372651062906 -2.1898257732391357 0.4053579568862915
v 0.1088227853178978 -2.189826011657715 0.4053579568862915
v 0.0006185913225635886 -2.1898257732391357 0.13902465999126434
v 0.32889777421951294 -2.189826011657715 0.06429443508386612
v 0.0006185913225635886 -2.1898257732391357 0.06429443508386612
v 0.32889777421951294 -2.189826011657715 0.13902465999126434
v -0.09370604902505875 -2.189826011657715 0.1725546270608902
v -0.38986191153526306 -2.189826011657715 0.4053576588630676
v -0.05974594131112099 -2.189826011657715 0.21033141016960144
v -0.29774153232574463 -2.189826011657715 0.2874194383621216
v -0.38986191153526306 -2.189826011657715 0.06429443508386612
v -0.29774123430252075 -2.189826011657715 0.10913696140050888
v -0.09370620548725128 -2.1898257732391357 0.10913696140050888
v -0.05974594131112099 -2.189826011657715 0.21033141016960144
v -0.09370604902505875 -2.189826011657715 0.1725546270608902
v -0.059746094048023224 -2.189826011657715 0.06429443508386612
v -0.38986191153526306 -2.189826011657715 0.06429443508386612
v -0.09370620548725128 -2.1898257732391357 0.10913696140050888
v -0.059746094048023224 -2.189826011657715 0.06429443508386612
v 0.8202950954437256 -2.1911728382110596 0.07123474031686783
v 0.8927049040794373 -2.1911728382110596 0.1575024425983429
v 0.9828886389732361 -2.1911728382110596 0.07123474031686783
v 0.8202950954437256 -2.1911728382110596 0.1575024425983429
v 0.8927049040794373 -2.1911728382110596 0.3991430699825287
v 0.8202950954437256 -2.1911728382110596 0.3991430699825287
v 1.1579363346099854 -2.1911728382110596 0.3991430699825287
v 1.1579363346099854 -2.1911728382110596 0.2320757955312729
v 1.0816248655319214 -2.1911728382110596 0.07123474031686783
v 1.1943923234939575 -2.1911728382110596 0.18154051899909973
v 1.1943923234939575 -2.1911728382110596 0.07123474031686783
v 0.39597219228744507 -2.1911730766296387 0.3991430699825287
v 0.7295178771018982 -2.1911728382110596 0.3991430699825287
v 0.3959718942642212 -2.1911730766296387 0.2335473597049713
v 0.3959718942642212 -2.1911730766296387 0.2335473597049713
v 0.7295180559158325 -2.1911728382110596 0.07123474031686783
v 0.3959718942642212 -2.1911730766296387 0.07123474031686783
v 0.5649800896644592 -2.1911728382110596 0.23399688303470612
v 0.7593528032302856 -2.1911728382110596 0.33391112089157104
v 0.7593528032302856 -2.1911728382110596 0.13408233225345612
v 1.2729125022888184 -2.1907615661621094 0.5481353402137756
v -1.3889397382736206 -2.1907615661621094 0.7285012602806091
v 1.38864004611969 -2.1907615661621094 0.7285012602806091
v -1.3889397382736206 -2.1907615661621094 0.7285012602806091
v 1.2729125022888184 -2.1907615661621094 0.5481353402137756
v -1.273212194442749 -2.1907615661621094 0.5481353402137756
vn -0.0 -1.0 0.0
vn -0.0 -1.0 0.0
vn -0.0 -1.0 0.0
vn -0.0 -1.0 0.0
vn -0.0 -1.0 0.0
vn -0.0 -1.0 0.0
vn -0.0 -1.0 0.0
vn -0.0 -1.0 0.0
vn -0.0 -1.0 0.0
vn -0.0 -1.0 0.0
vn -0.0 -1.0 0.0
vn -0.0 -1.0 0.0
vn -0.0 -1.0 0.0
vn -0.0 -1.0 0.0
vn -0.0 -1.0 0.0
vn -0.0 -1.0 0.0
vn -0.0 -1.0 0.0
vn -0.0 -1.0 0.0
vn -0.0 -1.0 0.0
vn -0.0 -1.0 0.0
vn -0.0 -1.0 0.0
vn -0.0 -1.0 0.0
vn -0.0 -1.0 0.0
vn -0.0 -1.0 0.0
vn -0.0 -1.0 0.0
vn -0.0 -1.0 0.0
vn -0.0 -1.0 0.0
vn -0.0 -1.0 0.0
vn -0.0 -1.0 0.0
vn 5.934506589255761e-06 -1.0 0.0
vn 5.934506589255761e-06 -1.0 0.0
vn 5.934506589255761e-06 -1.0 0.0
vn 5.934506589255761e-06 -1.0 0.0
vn -5.992581009195419e-06 -1.0 0.0
vn -5.992612841509981e-06 -1.0 0.0
vn -5.992581918690121e-06 -1.0 0.0
vn -5.992581918690121e-06 -1.0 0.0
vn -0.0 -1.0 0.0
vn -0.0 -1.0 0.0
vn -0.0 -1.0 0.0
vn -0.0 -1.0 0.0
vn -1.4136095387584646e-06 -1.0 0.0
vn -7.068047125358135e-07 -1.0 0.0
vn -1.413609425071627e-06 -1.0 0.0
vn -7.068045988489757e-07 -1.0 0.0
vn -0.0 -1.0 0.0
vn -0.0 -1.0 0.0
vn -1.4136095387584646e-06 -1.0 0.0
vn -1.413609425071627e-06 -1.0 0.0
vn -4.648113929306419e-07 -1.0 0.0
vn -4.648113929306419e-07 -1.0 0.0
vn -4.64811336087223e-07 -1.0 0.0
vn -4.64811336087223e-07 -1.0 0.0
vn -0.0 -1.0 0.0
vn -0.0 -1.0 0.0
vn -0.0 -1.0 0.0
vn -0.0 -1.0 0.0
vn -0.0 -1.0 0.0
vn -0.0 -1.0 0.0
vn 5.352996140572941e-06 -1.0 -4.812170118384529e-06
vn 5.352996140572941e-06 -1.0 -4.812170118384529e-06
vn 5.352996140572941e-06 -1.0 -4.812169663637178e-06
vn -8.986288776213769e-06 -1.0 0.0
vn -0.0 -1.0 6.805499651818536e-06
vn -0.0 -1.0 6.805499651818536e-06
vn -0.0 -1.0 6.8054987423238344e-06
vn -5.212759219830332e-07 -1.0 4.3753937006840715e-07
vn -3.5784782426162565e-07 -1.0 3.0036397902222234e-07
vn -9.384625627717469e-07 -1.0 7.877100642872392e-07
vn -0.0 -1.0 0.0
vn -0.0 -1.0 0.0
vn -0.0 -1.0 0.0
vn -0.0 -1.0 0.0
vn -0.0 -1.0 0.0
vn -0.0 -1.0 0.0
vn -0.0 -1.0 0.0
vn -0.0 -1.0 0.0
vn 9.149444508693705e-07 -1.0 0.0
vn 9.149444508693705e-07 -1.0 0.0
vn 9.14943825591763e-07 -1.0 0.0
vn 9.14943825591763e-07 -1.0 0.0
vn 9.149432571575744e-07 -1.0 0.0
vn 9.149432571575744e-07 -1.0 0.0
vn -0.0 -1.0 0.0
vn -0.0 -1.0 0.0
vn -0.0 -1.0 0.0
vn -0.0 -1.0 0.0
vn -0.0 -1.0 0.0
vn -0.0 -1.0 0.0
vn -0.0 -1.0 0.0
vn -0.0 -1.0 0.0
vn -0.0 -1.0 0.0
vt 0.2970990538597107 0.5369477570056915
vt 0.3168356418609619 0.448708713054657
vt 0.3168357014656067 0.5610233843326569
vt 0.3168356418609619 0.448708713054657
vt 0.2970990538597107 0.5369477570056915
vt 0.2970990538597107 0.469806969165802
vt 0.2331562340259552 0.45901280641555786
vt 0.21205788850784302 0.560732513666153
vt 0.21205797791481018 0.4524943232536316
vt 0.21205788850784302 0.560732513666153
vt 0.2331562340259552 0.45901280641555786
vt 0.2331562340259552 0.5542141199111938
vt 0.2966133952140808 0.5369477570056915
vt 0.3163498044013977 0.44870859384536743
vt 0.2966133952140808 0.469806969165802
vt 0.31634992361068726 0.5610232651233673
vt 0.17290110886096954 0.510921984910965
vt 0.1999664455652237 0.4749675989151001
vt 0.1999664455652237 0.5446575284004211
vt 0.17290110886096954 0.48487794399261475
vt 0.13832516968250275 0.4749675989151001
vt 0.13832516968250275 0.48487794399261475
vt 0.11657844483852386 0.4749675989151001
vt 0.12754219770431519 0.48487794399261475
vt 0.14899137616157532 0.51035276055336
vt 0.13832516968250275 0.5295255780220032
vt 0.14899137616157532 0.5446575284004211
vt 0.12754219770431519 0.5295255780220032
vt 0.11657844483852386 0.5446575284004211
vt 0.015093669295310974 0.6351715624332428
vt 0.09238464385271072 0.6458211243152618
vt 0.025066368281841278 0.6458211243152618
vt 0.09238464385271072 0.6351715624332428
vt 0.025066368281841278 0.6929903328418732
vt 0.015093669295310974 0.7035365998744965
vt 0.09238464385271072 0.7035365998744965
vt 0.09238464385271072 0.6929903328418732
vt 0.039154745638370514 0.6573117673397064
vt 0.09238464385271072 0.6814481317996979
vt 0.039154745638370514 0.6814481317996979
vt 0.09238464385271072 0.6573117673397064
vt 0.06256401538848877 0.5437192022800446
vt 0.04847005009651184 0.5668860375881195
vt 0.04847005009651184 0.5437192022800446
vt 0.06256401538848877 0.5668860375881195
vt 0.04847005009651184 0.6141755878925323
vt 0.06256401538848877 0.6141755878925323
vt 0.10213986039161682 0.5437192022800446
vt 0.10213986039161682 0.5668860375881195
vt 0.0341663584113121 0.5436628758907318
vt 0.01509365439414978 0.6141192615032196
vt 0.01509365439414978 0.5436628758907318
vt 0.0341663584113121 0.6141192615032196
vt 0.1372174322605133 0.9163864552974701
vt 0.20578926801681519 0.8451140224933624
vt 0.148344486951828 0.931053064763546
vt 0.1710508167743683 0.8672836571931839
vt 0.10532961040735245 0.8451140224933624
vt 0.11853792518377304 0.8672836571931839
vt 0.11853792518377304 0.9163864552974701
vt 0.148344486951828 0.931053064763546
vt 0.1372174322605133 0.9163864552974701
vt 0.10532961040735245 0.931053064763546
vt 0.10532961040735245 0.8451140224933624
vt 0.11853792518377304 0.9163864552974701
vt 0.10532961040735245 0.931053064763546
vt 0.010519776493310928 0.905907928943634
vt 0.03137747570872307 0.9214234948158264
vt 0.010519776493310928 0.9407466053962708
vt 0.03137747570872307 0.905907928943634
vt 0.0898011103272438 0.9214234948158264
vt 0.0898011103272438 0.905907928943634
vt 0.0898011103272438 0.9782534539699554
vt 0.04940781369805336 0.9782534539699554
vt 0.010519776493310928 0.9619026035070419
vt 0.03718939051032066 0.9860648214817047
vt 0.010519776493310928 0.9860648214817047
vt 0.09467872977256775 0.8134459555149078
vt 0.09467872977256775 0.8829638063907623
vt 0.05340949445962906 0.8134458363056183
vt 0.05340949445962906 0.8134458363056183
vt 0.012958584353327751 0.8829638063907623
vt 0.012958584353327751 0.8134458363056183
vt 0.053521446883678436 0.8486706018447876
vt 0.07842189818620682 0.8891821205615997
vt 0.028621099889278412 0.8891821205615997
vt 0.2331562340259552 0.45901280641555786
vt 0.21205788850784302 0.560732513666153
vt 0.21205797791481018 0.4524943232536316
vt 0.21205788850784302 0.560732513666153
vt 0.2331562340259552 0.45901280641555786
vt 0.2331562340259552 0.5542141199111938

g d022_neonlaundry01
s 1
usemtl d022_neonlaundry01
f 3/3/3 2/2/2 1/1/1 
f 6/6/6 5/5/5 4/4/4 
f 9/9/9 8/8/8 7/7/7 
f 12/12/12 11/11/11 10/10/10 
f 15/15/15 14/14/14 13/13/13 
f 16/16/16 13/13/13 14/14/14 
f 19/19/19 18/18/18 17/17/17 
f 20/20/20 17/17/17 18/18/18 
f 18/18/18 21/21/21 20/20/20 
f 22/22/22 20/20/20 21/21/21 
f 21/21/21 23/23/23 22/22/22 
f 24/24/24 22/22/22 23/23/23 
f 22/22/22 25/25/25 17/17/17 
f 19/19/19 17/17/17 25/25/25 
f 22/22/22 26/26/26 25/25/25 
f 27/27/27 25/25/25 26/26/26 
f 26/26/26 28/28/28 27/27/27 
f 24/24/24 23/23/23 28/28/28 
f 29/29/29 27/27/27 28/28/28 
f 29/29/29 28/28/28 23/23/23 
f 32/32/32 31/31/31 30/30/30 
f 33/33/33 30/30/30 31/31/31 
f 32/32/32 30/30/30 34/34/34 
f 35/35/35 34/34/34 30/30/30 
f 35/35/35 36/36/36 34/34/34 
f 37/37/37 34/34/34 36/36/36 
f 40/40/40 39/39/39 38/38/38 
f 41/41/41 38/38/38 39/39/39 
f 44/44/44 43/43/43 42/42/42 
f 45/45/45 42/42/42 43/43/43 
f 43/43/43 46/46/46 45/45/45 
f 47/47/47 45/45/45 46/46/46 
f 42/42/42 45/45/45 48/48/48 
f 49/49/49 48/48/48 45/45/45 
f 52/52/52 51/51/51 50/50/50 
f 53/53/53 50/50/50 51/51/51 
f 56/56/56 55/55/55 54/54/54 
f 57/57/57 54/54/54 55/55/55 
f 55/55/55 58/58/58 57/57/57 
f 59/59/59 57/57/57 58/58/58 
f 59/59/59 58/58/58 60/60/60 
f 62/62/62 60/60/60 61/61/61 
f 63/63/63 61/61/61 60/60/60 
f 66/66/66 65/65/65 64/64/64 
f 69/69/69 68/68/68 67/67/67 
f 70/70/70 67/67/67 68/68/68 
f 68/68/68 71/71/71 70/70/70 
f 72/72/72 70/70/70 71/71/71 
f 68/68/68 69/69/69 73/73/73 
f 74/74/74 73/73/73 69/69/69 
f 77/77/77 76/76/76 75/75/75 
f 80/80/80 79/79/79 78/78/78 
f 83/83/83 82/82/82 81/81/81 
f 86/86/86 85/85/85 84/84/84 
f 89/89/89 88/88/88 87/87/87 
f 92/92/92 91/91/91 90/90/90 

