v 0.07255645841360092 0.3658442497253418 -0.9345263242721558
v -0.03796844556927681 -1.100746989250183 -0.9345263242721558
v 0.07255645841360092 -1.100746989250183 -0.9345263242721558
v -0.03796844556927681 0.3658442497253418 -0.9345263242721558
v -0.03796844556927681 0.3658442497253418 -0.9345263242721558
v -0.03796844556927681 -1.100746989250183 -0.8287926912307739
v -0.03796844556927681 -1.100746989250183 -0.9345263242721558
v -0.03796844556927681 0.3658442497253418 -0.8287926912307739
v -0.03796844556927681 0.3658442497253418 -0.8287926912307739
v 0.07255645841360092 -1.100746989250183 -0.8287926912307739
v -0.03796844556927681 -1.100746989250183 -0.8287926912307739
v 0.07255645841360092 0.3658442497253418 -0.8287926912307739
v 0.07255645841360092 0.3658442497253418 -0.8287926912307739
v 0.07255645841360092 -1.100746989250183 -0.9345263242721558
v 0.07255645841360092 -1.100746989250183 -0.8287926912307739
v 0.07255645841360092 0.3658442497253418 -0.9345263242721558
v 0.05556793138384819 -0.43447861075401306 -0.8538867235183716
v -0.0073699951171875 -0.4381478726863861 0.9009802341461182
v -0.0073699951171875 -0.43447861075401306 -0.8538867235183716
v 0.05556793138384819 -0.4381478726863861 0.9009802341461182
v -0.0073699951171875 -0.43447861075401306 -0.8538867235183716
v -0.0073699951171875 -0.5299697518348694 0.9009802341461182
v -0.0073699951171875 -0.5299698710441589 -0.8538867235183716
v -0.0073699951171875 -0.4381478726863861 0.9009802341461182
v 0.05556793138384819 -0.4381478726863861 0.9009802341461182
v 0.05556793138384819 -0.5299698710441589 -0.8538867235183716
v 0.05556793138384819 -0.5299697518348694 0.9009802341461182
v 0.05556793138384819 -0.43447861075401306 -0.8538867235183716
v -0.03796844556927681 -1.100746989250183 0.9816204905509949
v 0.07255645841360092 0.36584439873695374 0.9816204905509949
v 0.07255645841360092 -1.100746989250183 0.9816204905509949
v -0.03796844556927681 0.36584439873695374 0.9816204905509949
v -0.03796844556927681 -1.100746989250183 0.8758862018585205
v -0.03796844556927681 0.36584439873695374 0.9816204905509949
v -0.03796844556927681 -1.100746989250183 0.9816204905509949
v -0.03796844556927681 0.36584439873695374 0.8758862018585205
v 0.07255645841360092 -1.100746989250183 0.8758862018585205
v -0.03796844556927681 0.36584439873695374 0.8758862018585205
v -0.03796844556927681 -1.100746989250183 0.8758862018585205
v 0.07255645841360092 0.36584439873695374 0.8758862018585205
v 0.07255645841360092 -1.100746989250183 0.9816204905509949
v 0.07255645841360092 0.36584439873695374 0.8758862018585205
v 0.07255645841360092 -1.100746989250183 0.8758862018585205
v 0.07255645841360092 0.36584439873695374 0.9816204905509949
v 0.032713621854782104 -0.4551123082637787 0.915043294429779
v 0.009272460825741291 0.4058738648891449 -0.9026745557785034
v 0.00017669677617959678 -0.4549645781517029 0.9147784113883972
v 0.04181060567498207 0.4057263135910034 -0.9024096727371216
v 0.009167480282485485 0.4532882571220398 -0.8853112459182739
v 0.03260558843612671 -0.40637555718421936 0.933274507522583
v 6.744384882040322e-05 -0.40622785687446594 0.9330090284347534
v 0.04170440509915352 0.4531407058238983 -0.8850476145744324
v 0.009272460825741291 0.4058738648891449 -0.9026745557785034
v 6.744384882040322e-05 -0.40622785687446594 0.9330090284347534
v 0.00017669677617959678 -0.4549645781517029 0.9147784113883972
v 0.009167480282485485 0.4532882571220398 -0.8853112459182739
v 0.032713621854782104 -0.4551123082637787 0.915043294429779
v 0.04170440509915352 0.4531407058238983 -0.8850476145744324
v 0.04181060567498207 0.4057263135910034 -0.9024096727371216
v 0.03260558843612671 -0.40637555718421936 0.933274507522583
v 0.012182616628706455 0.40781843662261963 0.9486864805221558
v 0.029804382473230362 -0.45314207673072815 -0.8689837455749512
v 0.0030865478329360485 -0.4530200958251953 -0.8687658309936523
v 0.03890044987201691 0.4076966643333435 0.9484692215919495
v 0.029695434495806694 -0.40636274218559265 -0.886157214641571
v 0.01207763608545065 0.45327574014663696 0.9323827624320984
v 0.0029776000883430243 -0.4062420427799225 -0.8859393000602722
v 0.03879455476999283 0.4531550407409668 0.9321643114089966
v 0.0029776000883430243 -0.4062420427799225 -0.8859393000602722
v 0.012182616628706455 0.40781843662261963 0.9486864805221558
v 0.0030865478329360485 -0.4530200958251953 -0.8687658309936523
v 0.01207763608545065 0.45327574014663696 0.9323827624320984
v 0.03879455476999283 0.4531550407409668 0.9321643114089966
v 0.029804382473230362 -0.45314207673072815 -0.8689837455749512
v 0.03890044987201691 0.4076966643333435 0.9484692215919495
v 0.029695434495806694 -0.40636274218559265 -0.886157214641571
v -0.022478027269244194 0.10075882077217102 1.220703097715159e-06
v -0.01783294603228569 1.100748062133789 1.401715636253357
v -0.022465208545327187 0.10075882077217102 1.401715636253357
v -0.01784576289355755 1.100748062133789 1.220703097715159e-06
v -0.022490844130516052 0.10075882077217102 -1.401713252067566
v -0.017858581617474556 1.10074782371521 -1.401713252067566
v 0.15640044212341309 0.10019927471876144 -1.220703097715159e-06
v -0.022465208545327187 0.10075882077217102 1.401715636253357
v 0.156413272023201 0.10019943118095398 1.401713252067566
v -0.022478027269244194 0.10075882077217102 1.220703097715159e-06
v 0.15638762712478638 0.10019927471876144 -1.401715636253357
v -0.022490844130516052 0.10075882077217102 -1.401713252067566
v 0.156413272023201 0.10019943118095398 1.401713252067566
v -0.01783294603228569 1.100748062133789 1.401715636253357
v 0.1610458344221115 1.1001883745193481 1.401713252067566
v -0.022465208545327187 0.10075882077217102 1.401715636253357
v 0.1610458344221115 1.1001883745193481 1.401713252067566
v -0.01784576289355755 1.100748062133789 1.220703097715159e-06
v 0.1610330194234848 1.1001883745193481 -1.220703097715159e-06
v -0.01783294603228569 1.100748062133789 1.401715636253357
v -0.017858581617474556 1.10074782371521 -1.401713252067566
v 0.1610202044248581 1.1001883745193481 -1.401715636253357
v 0.1610202044248581 1.1001883745193481 -1.401715636253357
v -0.022490844130516052 0.10075882077217102 -1.401713252067566
v 0.15638762712478638 0.10019927471876144 -1.401715636253357
v -0.017858581617474556 1.10074782371521 -1.401713252067566
v 0.15465790033340454 1.100748062133789 1.220703097715159e-06
v 0.1500128209590912 0.10075851529836655 1.401715636253357
v 0.15464507043361664 1.100748062133789 1.401715636253357
v 0.1500256359577179 0.10075851529836655 1.220703097715159e-06
v 0.15467071533203125 1.100748062133789 -1.401713252067566
v 0.1500384509563446 0.10075882077217102 -1.401713252067566
v -0.028459778055548668 0.6292212009429932 -1.1347347497940063
v -0.028459778055548668 0.5648975968360901 -1.2774468660354614
v -0.028459778055548668 0.6292212009429932 -1.2774468660354614
v -0.028459778055548668 0.5648975968360901 -1.1347347497940063
v -0.028459778055548668 0.6292212009429932 -0.8434234261512756
v -0.028459778055548668 0.5648975968360901 -0.8434234261512756
v -0.028459778055548668 0.3818008303642273 -1.2774465084075928
v -0.028459778055548668 0.3818008303642273 -1.1347347497940063
v -0.028459778055548668 0.8259194493293762 -0.8437701463699341
v -0.028459778055548668 0.6945010423660278 -1.277793288230896
v -0.028459778055548668 0.8259194493293762 -1.277793288230896
v -0.028459778055548668 0.6945010423660278 -0.8437701463699341
v -0.028459778055548668 0.8259194493293762 -0.7478551864624023
v -0.028459778055548668 0.5943432450294495 -0.5399670004844666
v -0.028459778055548668 0.3818008303642273 -0.7478551864624023
v -0.028459778055548668 0.8259196281433105 -0.5399670004844666
v -0.1610461324453354 0.5943432450294495 -0.5399670004844666
v -0.1610461324453354 0.38180112838745117 -0.3085034191608429
v -0.1610461324453354 0.3818008303642273 -0.5399670004844666
v -0.1610461324453354 0.8259196281433105 -0.3085034191608429
v -0.028459778055548668 0.4986419677734375 -0.12089843302965164
v -0.028459778055548668 0.38180112838745117 -0.21512024104595184
v -0.028459778055548668 0.4986419677734375 -0.21512024104595184
v -0.028459778055548668 0.38180112838745117 -0.0035473632160574198
v -0.028459778055548668 0.8259196281433105 -0.12089843302965164
v -0.028459778055548668 0.8259196281433105 -0.21512024104595184
v -0.028459778055548668 0.8259196281433105 0.22423155605793
v -0.028459778055548668 0.599644124507904 0.22423155605793
v -0.028459778055548668 0.3818008303642273 0.07749389111995697
v -0.028459778055548668 0.531199038028717 0.22423155605793
v -0.028459778055548668 0.3818008303642273 0.22423155605793
v -0.028459778055548668 0.8259196281433105 0.3091699182987213
v -0.028459778055548668 0.8259196281433105 0.7431933283805847
v -0.028459778055548668 0.6016372442245483 0.3091699182987213
v -0.028459778055548668 0.38180112838745117 0.7431933283805847
v -0.028459778055548668 0.38180112838745117 0.3091699182987213
v -0.028459778055548668 0.6022459268569946 0.4902673363685608
v -0.028459778055548668 0.7375698685646057 0.7431933283805847
v -0.028459778055548668 0.46692198514938354 0.7431933283805847
v -0.028459778055548668 0.7238718867301941 1.152932047843933
v -0.028459778055548668 0.8259194493293762 0.9018121361732483
v -0.028459778055548668 0.8259194493293762 1.152932047843933
v -0.028459778055548668 0.7238718867301941 0.901812732219696
v -0.028459778055548668 0.8259194493293762 0.8325274586677551
v -0.028459778055548668 0.7238718867301941 0.8325280547142029
v -0.028459778055548668 0.5539191961288452 0.901812732219696
v -0.028459778055548668 0.5539191961288452 0.8325280547142029
v -0.028459778055548668 0.5539191961288452 1.011796236038208
v -0.028459778055548668 0.7244912385940552 1.2587554454803467
v -0.028459778055548668 0.8259194493293762 1.2587554454803467
v -0.028459778055548668 0.38180097937583923 0.8325274586677551
v -0.028459778055548668 0.38180112838745117 1.2587554454803467
vn -0.0 0.0 -1.0
vn -0.0 0.0 -1.0
vn -0.0 0.0 -1.0
vn -0.0 0.0 -1.0
vn -1.0 0.0 0.0
vn -1.0 0.0 0.0
vn -1.0 0.0 0.0
vn -1.0 0.0 0.0
vn -0.0 0.0 1.0
vn -0.0 0.0 1.0
vn -0.0 0.0 1.0
vn -0.0 0.0 1.0
vn 1.0 0.0 0.0
vn 1.0 0.0 0.0
vn 1.0 0.0 0.0
vn 1.0 0.0 0.0
vn -0.0 0.9999978542327881 0.002090912079438567
vn -0.0 0.9999978542327881 0.002090912312269211
vn -0.0 0.9999978542327881 0.002090912312269211
vn -0.0 0.9999978542327881 0.002090912312269211
vn -1.0 0.0 0.0
vn -1.0 0.0 0.0
vn -1.0 0.0 0.0
vn -1.0 0.0 0.0
vn 1.0 0.0 0.0
vn 1.0 0.0 0.0
vn 1.0 0.0 0.0
vn 1.0 0.0 0.0
vn -0.0 0.0 1.0
vn -0.0 0.0 1.0
vn -0.0 0.0 1.0
vn -0.0 0.0 1.0
vn -1.0 0.0 0.0
vn -1.0 0.0 0.0
vn -1.0 0.0 0.0
vn -1.0 0.0 0.0
vn -0.0 0.0 -1.0
vn -0.0 0.0 -1.0
vn -0.0 0.0 -1.0
vn -0.0 0.0 -1.0
vn 1.0 0.0 0.0
vn 1.0 0.0 0.0
vn 1.0 0.0 0.0
vn 1.0 0.0 0.0
vn -0.0006176712922751904 -0.903748095035553 -0.4280643165111542
vn -0.0006176713504828513 -0.903748095035553 -0.4280643165111542
vn -0.0006176712922751904 -0.903748095035553 -0.4280643165111542
vn -0.0006134096765890718 -0.903748095035553 -0.4280643165111542
vn 0.0006168746040202677 0.9040812253952026 0.42736032605171204
vn 0.0006168746040202677 0.9040812253952026 0.42736032605171204
vn 0.0006168746622279286 0.9040812253952026 0.4273603558540344
vn 0.0006367100868374109 0.9040812253952026 0.42736008763313293
vn -0.9999866485595703 -0.00031399610452353954 -0.005153332836925983
vn -0.9999866485595703 -0.00031399610452353954 -0.005153333302587271
vn -0.9999866485595703 -0.00031399610452353954 -0.005153334233909845
vn -0.9999866485595703 -0.0003251101588830352 -0.0051582506857812405
vn 0.9999866485595703 0.00034684513229876757 0.005169565323740244
vn 0.9999866485595703 0.00034684513229876757 0.005169565323740244
vn 0.9999866485595703 0.00034684513229876757 0.005169565323740244
vn 0.9999867677688599 0.0002929802576545626 0.005142387002706528
vn -0.0006354748620651662 -0.9037480354309082 0.4280644953250885
vn -0.0006354748620651662 -0.9037480354309082 0.4280645549297333
vn -0.0006354748620651662 -0.9037480354309082 0.4280645549297333
vn -0.0006375117227435112 -0.9037480354309082 0.4280645251274109
vn 0.0005988485063426197 0.9040810465812683 -0.4273606240749359
vn 0.0005988485063426197 0.9040811061859131 -0.4273605942726135
vn 0.0005988485063426197 0.9040811061859131 -0.4273605942726135
vn 0.0005891052423976362 0.9040810465812683 -0.4273607134819031
vn -0.9999864101409912 -0.00041879373020492494 0.005203139502555132
vn -0.9999864101409912 -0.00041879373020492494 0.005203139502555132
vn -0.9999864101409912 -0.0004187937593087554 0.005203139968216419
vn -0.9999862909317017 -0.0004398846358526498 0.00521249882876873
vn 0.9999862909317017 0.0004567781288642436 -0.005221129860728979
vn 0.9999862909317017 0.0004567781579680741 -0.005221129860728979
vn 0.9999862909317017 0.0004567781579680741 -0.005221129860728979
vn 0.9999864101409912 0.0004191319749224931 -0.005202187225222588
vn -0.9999892711639404 0.004632262978702784 9.14397696760716e-06
vn -0.9999892711639404 0.004632262978702784 9.14397696760716e-06
vn -0.9999892711639404 0.004632262978702784 9.14397696760716e-06
vn -0.9999892711639404 0.004632262978702784 9.14397696760716e-06
vn -0.9999892711639404 0.004632262978702784 9.14397696760716e-06
vn -0.9999892711639404 0.004632263910025358 9.142969247477595e-06
vn -0.0031271763145923615 -0.9999951124191284 1.3745265903253312e-07
vn -0.003127176081761718 -0.9999951124191284 1.374526448216784e-07
vn -0.003127176081761718 -0.9999951124191284 1.374526448216784e-07
vn -0.0031280287075787783 -0.9999951124191284 0.0
vn -0.003128028940409422 -0.9999951124191284 0.0
vn -0.0031280287075787783 -0.9999951124191284 0.0
vn 1.3648187632497866e-05 0.0 1.0
vn 1.3648186723003164e-05 0.0 1.0
vn 1.3648187632497866e-05 0.0 1.0
vn 1.3648211279360112e-05 0.0 1.0
vn 0.003128876443952322 0.9999951124191284 0.0
vn 0.0031288759782910347 0.9999951124191284 0.0
vn 0.0031288762111216784 0.9999951124191284 0.0
vn 0.0031288762111216784 0.9999951124191284 0.0
vn 0.0031271702609956264 0.9999951124191284 0.0
vn 0.0031271702609956264 0.9999951124191284 0.0
vn -1.3648209460370708e-05 0.0 -1.0
vn -1.3648209460370708e-05 0.0 -1.0
vn -1.3648209460370708e-05 0.0 -1.0
vn -1.3648187632497866e-05 0.0 -1.0
vn 0.9999892711639404 -0.004632261116057634 9.14397696760716e-06
vn 0.9999892711639404 -0.004632262047380209 9.14397696760716e-06
vn 0.9999892711639404 -0.004632261581718922 9.14397696760716e-06
vn 0.9999892711639404 -0.004632261581718922 9.14397696760716e-06
vn 0.9999892711639404 -0.004632261116057634 9.14397696760716e-06
vn 0.9999892711639404 -0.004632262978702784 9.142969247477595e-06
vn -1.0 0.0 0.0
vn -1.0 0.0 0.0
vn -1.0 0.0 0.0
vn -1.0 0.0 0.0
vn -1.0 0.0 0.0
vn -1.0 0.0 0.0
vn -1.0 0.0 0.0
vn -1.0 0.0 0.0
vn -1.0 0.0 0.0
vn -1.0 0.0 0.0
vn -1.0 0.0 0.0
vn -1.0 0.0 0.0
vn -1.0 0.0 0.0
vn -1.0 0.0 0.0
vn -1.0 0.0 0.0
vn -1.0 0.0 0.0
vn -1.0 0.0 0.0
vn -1.0 0.0 0.0
vn -1.0 0.0 0.0
vn -1.0 0.0 0.0
vn -1.0 0.0 0.0
vn -1.0 0.0 0.0
vn -1.0 0.0 0.0
vn -1.0 0.0 0.0
vn -1.0 0.0 0.0
vn -1.0 0.0 0.0
vn -1.0 0.0 0.0
vn -1.0 0.0 0.0
vn -1.0 0.0 0.0
vn -1.0 0.0 0.0
vn -1.0 0.0 0.0
vn -1.0 0.0 0.0
vn -1.0 0.0 0.0
vn -1.0 0.0 0.0
vn -1.0 0.0 0.0
vn -1.0 0.0 0.0
vn -1.0 0.0 0.0
vn -1.0 0.0 0.0
vn -1.0 0.0 0.0
vn -1.0 0.0 0.0
vn -1.0 0.0 0.0
vn -1.0 0.0 0.0
vn -1.0 0.0 0.0
vn -1.0 0.0 0.0
vn -1.0 0.0 0.0
vn -1.0 0.0 0.0
vn -1.0 0.0 0.0
vn -1.0 0.0 0.0
vn -1.0 0.0 0.0
vn -1.0 0.0 0.0
vn -1.0 0.0 0.0
vn -1.0 0.0 0.0
vt 0.5024691224098206 0.28586167097091675
vt 0.9953195452690125 0.31920838356018066
vt 0.9953195452690125 0.28586167097091675
vt 0.5024691224098206 0.31920844316482544
vt 0.5024691224098206 0.31918853521347046
vt 0.9953195452690125 0.3525353670120239
vt 0.9953195452690125 0.31918859481811523
vt 0.5024691224098206 0.3525354266166687
vt 0.5024691224098206 0.28586167097091675
vt 0.9953195452690125 0.31920838356018066
vt 0.9953195452690125 0.28586167097091675
vt 0.5024691224098206 0.31920844316482544
vt 0.5024691224098206 0.31918853521347046
vt 0.9953195452690125 0.3525353670120239
vt 0.9953195452690125 0.31918859481811523
vt 0.5024691224098206 0.3525354266166687
vt 0.9953195452690125 0.4008347988128662
vt 0.5024691224098206 0.3903149962425232
vt 0.9953195452690125 0.39058244228363037
vt 0.5024691224098206 0.400834858417511
vt 0.9953195452690125 0.4008347988128662
vt 0.5024691224098206 0.4519854784011841
vt 0.9953195452690125 0.4519854187965393
vt 0.5024691224098206 0.400834858417511
vt 0.5024691224098206 0.400834858417511
vt 0.9953195452690125 0.4519854187965393
vt 0.5024691224098206 0.4519854784011841
vt 0.9953195452690125 0.4008347988128662
vt 0.9953195452690125 0.28586167097091675
vt 0.5024691224098206 0.31920844316482544
vt 0.9953195452690125 0.31920838356018066
vt 0.5024691224098206 0.28586167097091675
vt 0.9953195452690125 0.31918859481811523
vt 0.5024691224098206 0.3525354266166687
vt 0.9953195452690125 0.3525353670120239
vt 0.5024691224098206 0.31918853521347046
vt 0.9953195452690125 0.28586167097091675
vt 0.5024691224098206 0.31920844316482544
vt 0.9953195452690125 0.31920838356018066
vt 0.5024691224098206 0.28586167097091675
vt 0.9953195452690125 0.31918859481811523
vt 0.5024691224098206 0.3525354266166687
vt 0.9953195452690125 0.3525353670120239
vt 0.5024691224098206 0.31918853521347046
vt 0.9953195452690125 0.3583420515060425
vt 0.5024691224098206 0.3844335079193115
vt 0.9953195452690125 0.3844335079193115
vt 0.5024691224098206 0.35834211111068726
vt 0.5024691224098206 0.35834211111068726
vt 0.9953195452690125 0.3844335079193115
vt 0.9953195452690125 0.3583420515060425
vt 0.5024691224098206 0.3844335079193115
vt 0.5024691224098206 0.35834211111068726
vt 0.9953195452690125 0.3844335079193115
vt 0.9953195452690125 0.3583420515060425
vt 0.5024691224098206 0.3844335079193115
vt 0.9953195452690125 0.3844335079193115
vt 0.5024691224098206 0.35834211111068726
vt 0.5024691224098206 0.3844335079193115
vt 0.9953195452690125 0.3583420515060425
vt 0.9953195452690125 0.3844335079193115
vt 0.5024691224098206 0.35834211111068726
vt 0.5024691224098206 0.3844335079193115
vt 0.9953195452690125 0.3583420515060425
vt 0.5024691224098206 0.3844335079193115
vt 0.9953195452690125 0.3583420515060425
vt 0.5024691224098206 0.35834211111068726
vt 0.9953195452690125 0.3844335079193115
vt 0.5024691224098206 0.3844335079193115
vt 0.9953195452690125 0.3583420515060425
vt 0.5024691224098206 0.35834211111068726
vt 0.9953195452690125 0.3844335079193115
vt 0.9953195452690125 0.3583420515060425
vt 0.5024691224098206 0.3844335079193115
vt 0.9953195452690125 0.3844335079193115
vt 0.5024691224098206 0.35834211111068726
vt 0.7513337731361389 0.004076719284057617
vt 0.5027945637702942 0.24871695041656494
vt 0.5027945637702942 0.004076719284057617
vt 0.7513337731361389 0.24871695041656494
vt 0.9952884316444397 0.004076719284057617
vt 0.9952884316444397 0.24871695041656494
vt 0.7513337731361389 0.28251326084136963
vt 0.9952883720397949 0.24871695041656494
vt 0.9952883720397949 0.28251326084136963
vt 0.7513337731361389 0.24871695041656494
vt 0.5027945637702942 0.28251326084136963
vt 0.5027945637702942 0.24871695041656494
vt 0.7513337731361389 0.2825133204460144
vt 0.5027945637702942 0.24871695041656494
vt 0.5027945637702942 0.2825133204460144
vt 0.7513337731361389 0.24871695041656494
vt 0.5027945637702942 0.2825133204460144
vt 0.7513337731361389 0.24871695041656494
vt 0.7513337731361389 0.28251326084136963
vt 0.5027945637702942 0.24871695041656494
vt 0.9952884316444397 0.24871695041656494
vt 0.9952884316444397 0.28251326084136963
vt 0.5027945637702942 0.24871695041656494
vt 0.7513337731361389 0.2825133204460144
vt 0.7513337731361389 0.24871695041656494
vt 0.5027945637702942 0.2825133204460144
vt 0.7513337731361389 0.004076719284057617
vt 0.5027945637702942 0.24871695041656494
vt 0.5027945637702942 0.004076719284057617
vt 0.7513337731361389 0.24871695041656494
vt 0.9952884316444397 0.004076719284057617
vt 0.9952884316444397 0.24871695041656494
vt 0.45307475328445435 0.41925913095474243
vt 0.39250171184539795 0.4529656767845154
vt 0.39250171184539795 0.41925913095474243
vt 0.45307475328445435 0.4529656767845154
vt 0.5767198801040649 0.41925913095474243
vt 0.5767198801040649 0.4529656767845154
vt 0.39250171184539795 0.5489112734794617
vt 0.45307475328445435 0.5489112734794617
vt 0.5765727758407593 0.33813512325286865
vt 0.3923545777797699 0.4070006012916565
vt 0.3923545777797699 0.33813512325286865
vt 0.5765727758407593 0.4070006012916565
vt 0.5948204398155212 0.33813512325286865
vt 0.6830570697784424 0.4594849944114685
vt 0.594820499420166 0.5708605647087097
vt 0.6830570697784424 0.33813512325286865
vt 0.6830570697784424 0.4594849944114685
vt 0.78130042552948 0.5708605647087097
vt 0.6830570697784424 0.5708605647087097
vt 0.7813003063201904 0.33813512325286865
vt 0.6307578086853027 0.7584701180458069
vt 0.5907659530639648 0.8196966052055359
vt 0.5907659530639648 0.7584701180458069
vt 0.6805665493011475 0.8196966052055359
vt 0.6307578086853027 0.5869712233543396
vt 0.5907658934593201 0.5869712233543396
vt 0.7772457599639893 0.5869712233543396
vt 0.7772458791732788 0.7055432200431824
vt 0.7149639129638672 0.8196966052055359
vt 0.7772458791732788 0.7414097189903259
vt 0.7772457599639893 0.8196966052055359
vt 0.798871636390686 0.5869712233543396
vt 0.983089804649353 0.5869712233543396
vt 0.7988715171813965 0.7044989466667175
vt 0.9830896854400635 0.8196966052055359
vt 0.7988715171813965 0.8196966052055359
vt 0.875737190246582 0.7041800618171692
vt 0.9830896854400635 0.6332680583000183
vt 0.9830896854400635 0.775091826915741
vt 0.9371346235275269 0.3921043276786804
vt 0.8305484056472778 0.33862966299057007
vt 0.9371345043182373 0.33862966299057007
vt 0.8305484652519226 0.3921043276786804
vt 0.8011409044265747 0.33862966299057007
vt 0.801141083240509 0.3921043276786804
vt 0.8305484652519226 0.48116225004196167
vt 0.801141083240509 0.48116225004196167
vt 0.8772302865982056 0.48116225004196167
vt 0.9820505380630493 0.3917798399925232
vt 0.9820504188537598 0.33862966299057007
vt 0.8011410236358643 0.5713550448417664
vt 0.9820504188537598 0.5713550448417664

g d022_kanban01
s 1
usemtl d022_kanban01_0
f 3/3/3 2/2/2 1/1/1 
f 4/4/4 1/1/1 2/2/2 
f 7/7/7 6/6/6 5/5/5 
f 8/8/8 5/5/5 6/6/6 
f 11/11/11 10/10/10 9/9/9 
f 12/12/12 9/9/9 10/10/10 
f 15/15/15 14/14/14 13/13/13 
f 16/16/16 13/13/13 14/14/14 
f 19/19/19 18/18/18 17/17/17 
f 20/20/20 17/17/17 18/18/18 
f 23/23/23 22/22/22 21/21/21 
f 24/24/24 21/21/21 22/22/22 
f 27/27/27 26/26/26 25/25/25 
f 28/28/28 25/25/25 26/26/26 
f 31/31/31 30/30/30 29/29/29 
f 32/32/32 29/29/29 30/30/30 
f 35/35/35 34/34/34 33/33/33 
f 36/36/36 33/33/33 34/34/34 
f 39/39/39 38/38/38 37/37/37 
f 40/40/40 37/37/37 38/38/38 
f 43/43/43 42/42/42 41/41/41 
f 44/44/44 41/41/41 42/42/42 
f 47/47/47 46/46/46 45/45/45 
f 48/48/48 45/45/45 46/46/46 
f 51/51/51 50/50/50 49/49/49 
f 52/52/52 49/49/49 50/50/50 
f 55/55/55 54/54/54 53/53/53 
f 56/56/56 53/53/53 54/54/54 
f 59/59/59 58/58/58 57/57/57 
f 60/60/60 57/57/57 58/58/58 
f 63/63/63 62/62/62 61/61/61 
f 64/64/64 61/61/61 62/62/62 
f 67/67/67 66/66/66 65/65/65 
f 68/68/68 65/65/65 66/66/66 
f 71/71/71 70/70/70 69/69/69 
f 72/72/72 69/69/69 70/70/70 
f 75/75/75 74/74/74 73/73/73 
f 76/76/76 73/73/73 74/74/74 
f 79/79/79 78/78/78 77/77/77 
f 80/80/80 77/77/77 78/78/78 
f 77/77/77 80/80/80 81/81/81 
f 82/82/82 81/81/81 80/80/80 
f 85/85/85 84/84/84 83/83/83 
f 86/86/86 83/83/83 84/84/84 
f 83/83/83 86/86/86 87/87/87 
f 88/88/88 87/87/87 86/86/86 
f 91/91/91 90/90/90 89/89/89 
f 92/92/92 89/89/89 90/90/90 
f 95/95/95 94/94/94 93/93/93 
f 96/96/96 93/93/93 94/94/94 
f 94/94/94 95/95/95 97/97/97 
f 98/98/98 97/97/97 95/95/95 
f 101/101/101 100/100/100 99/99/99 
f 102/102/102 99/99/99 100/100/100 
f 105/105/105 104/104/104 103/103/103 
f 106/106/106 103/103/103 104/104/104 
f 103/103/103 106/106/106 107/107/107 
f 108/108/108 107/107/107 106/106/106 

usemtl d022_kanban01_1
f 111/111/111 110/110/110 109/109/109 
f 112/112/112 109/109/109 110/110/110 
f 109/109/109 112/112/112 113/113/113 
f 114/114/114 113/113/113 112/112/112 
f 110/110/110 115/115/115 112/112/112 
f 116/116/116 112/112/112 115/115/115 
f 119/119/119 118/118/118 117/117/117 
f 120/120/120 117/117/117 118/118/118 
f 123/123/123 122/122/122 121/121/121 
f 124/124/124 121/121/121 122/122/122 
f 127/127/127 126/126/126 125/125/125 
f 128/128/128 125/125/125 126/126/126 
f 131/131/131 130/130/130 129/129/129 
f 132/132/132 129/129/129 130/130/130 
f 129/129/129 133/133/133 131/131/131 
f 134/134/134 131/131/131 133/133/133 
f 129/129/129 132/132/132 135/135/135 
f 136/136/136 135/135/135 132/132/132 
f 139/139/139 138/138/138 137/137/137 
f 142/142/142 141/141/141 140/140/140 
f 144/144/144 143/143/143 142/142/142 
f 147/147/147 146/146/146 145/145/145 
f 150/150/150 149/149/149 148/148/148 
f 151/151/151 148/148/148 149/149/149 
f 149/149/149 152/152/152 151/151/151 
f 153/153/153 151/151/151 152/152/152 
f 151/151/151 153/153/153 154/154/154 
f 155/155/155 154/154/154 153/153/153 
f 154/154/154 156/156/156 148/148/148 
f 157/157/157 148/148/148 156/156/156 
f 157/157/157 158/158/158 148/148/148 
f 150/150/150 148/148/148 158/158/158 
f 159/159/159 156/156/156 154/154/154 
f 159/159/159 154/154/154 155/155/155 
f 159/159/159 160/160/160 156/156/156 

