v -0.0 1.5778958797454834 -1.671934962272644
v -6.103515488575795e-07 -6.248330350899778e-07 1.671934962272644
v -0.0 -6.248330350899778e-07 -1.671934962272644
v -6.103515488575795e-07 1.5778958797454834 1.6719346046447754
v -6.103515488575795e-07 3.155792474746704 1.671934962272644
v -0.0 3.1557931900024414 -1.671934962272644
v -0.0 4.562699317932129 -1.671934962272644
v -6.103515488575795e-07 4.562698841094971 1.6719346046447754
v -6.103515488575795e-07 5.969606399536133 1.671934962272644
v -0.0 5.969606876373291 -1.671934962272644
v -6.103515488575795e-07 8.136518478393555 1.671934962272644
v -0.0 8.136520385742188 -1.671934962272644
v -0.0 -1.5778909921646118 -1.671934962272644
v -6.103515488575795e-07 -1.5778907537460327 1.6719346046447754
v -6.103515488575795e-07 -3.1557812690734863 1.671934962272644
v -0.0 -3.1557817459106445 -1.671934962272644
v -0.0 -4.562690734863281 -1.671934962272644
v -6.103515488575795e-07 -4.562689304351807 1.6719346046447754
v -6.103515488575795e-07 -5.969598770141602 1.671934962272644
v -0.0 -5.96959924697876 -1.671934962272644
v -0.0 -8.136520385742188 -1.671934962272644
v -6.103515488575795e-07 -8.136518478393555 1.671934962272644
vn -1.0 0.0 -1.825284954293238e-07
vn -1.0 0.0 -1.8252852385103324e-07
vn -1.0 0.0 -1.825284954293238e-07
vn -1.0 0.0 -1.8252850964017853e-07
vn -1.0 0.0 -1.8252850964017853e-07
vn -1.0 0.0 -1.825284954293238e-07
vn -1.0 0.0 -1.825284954293238e-07
vn -1.0 0.0 -1.8252853806188796e-07
vn -1.0 0.0 -1.8252850964017853e-07
vn -1.0 0.0 -1.825284954293238e-07
vn -1.0 0.0 -1.825284954293238e-07
vn -1.0 0.0 -1.8252850964017853e-07
vn -1.0 0.0 -1.8252850964017853e-07
vn -1.0 0.0 -1.8252850964017853e-07
vn -1.0 0.0 -1.825284954293238e-07
vn -1.0 0.0 -1.825284954293238e-07
vn -1.0 0.0 -1.8252850964017853e-07
vn -1.0 0.0 -1.8252850964017853e-07
vn -1.0 0.0 -1.8252852385103324e-07
vn -1.0 0.0 -1.825284954293238e-07
vn -1.0 0.0 -1.825284954293238e-07
vn -1.0 0.0 -1.8252852385103324e-07
vt 0.4150141775608063 0.9995003342628479
vt 0.5047374963760376 0.836471289396286
vt 0.5047375559806824 0.9995003342628479
vt 0.4150141179561615 0.836471289396286
vt 0.3252907395362854 0.836471289396286
vt 0.3252907395362854 0.9995003342628479
vt 0.2347320318222046 0.9995003640651703
vt 0.234731987118721 0.8364713191986084
vt 0.14417323470115662 0.836471289396286
vt 0.14417333900928497 0.9995003938674927
vt 0.000499530928209424 0.8364712744951248
vt 0.0004995465278625488 0.9995003342628479
vt 0.5944606065750122 0.9995003342628479
vt 0.5944606065750122 0.836471289396286
vt 0.6841837167739868 0.8364712297916412
vt 0.6841837167739868 0.9995003342628479
vt 0.774742603302002 0.9995003342628479
vt 0.7747425436973572 0.8364712297916412
vt 0.8653013706207275 0.8364712297916412
vt 0.8653014302253723 0.9995003342628479
vt 0.9995004534721375 0.9995002746582031
vt 0.9995003938674927 0.83647121489048

g bg_mdl_top_townsky03_00
s 1
usemtl bg_mdl_top_townsky03_00
f 3/3/3 2/2/2 1/1/1 
f 4/4/4 1/1/1 2/2/2 
f 4/4/4 5/5/5 1/1/1 
f 6/6/6 1/1/1 5/5/5 
f 6/6/6 5/5/5 7/7/7 
f 8/8/8 7/7/7 5/5/5 
f 8/8/8 9/9/9 7/7/7 
f 10/10/10 7/7/7 9/9/9 
f 9/9/9 11/11/11 10/10/10 
f 12/12/12 10/10/10 11/11/11 
f 3/3/3 13/13/13 2/2/2 
f 14/14/14 2/2/2 13/13/13 
f 14/14/14 13/13/13 15/15/15 
f 16/16/16 15/15/15 13/13/13 
f 16/16/16 17/17/17 15/15/15 
f 18/18/18 15/15/15 17/17/17 
f 18/18/18 17/17/17 19/19/19 
f 20/20/20 19/19/19 17/17/17 
f 20/20/20 21/21/21 19/19/19 
f 22/22/22 19/19/19 21/21/21 

