v -0.03169308230280876 0.00010390751413069665 0.2252189815044403
v 0.0433858186006546 -0.0752800926566124 0.23918746411800385
v 0.013974537141621113 -0.08712583035230637 0.21096809208393097
v -0.032498735934495926 0.0001065488759195432 0.22476166486740112
v 0.1598236858844757 -0.09261030703783035 0.1492891013622284
v 0.21994373202323914 -0.117205910384655 0.0803539901971817
v 0.10722150653600693 -0.24893389642238617 0.08023079484701157
v 0.0869612768292427 -0.20808686316013336 0.13385319709777832
v 0.13123595714569092 -0.26948168873786926 -0.0015675467438995838
v 0.2766096889972687 -0.13576802611351013 0.015773827210068703
v 0.26498717069625854 -0.0008687754743732512 0.08822652697563171
v 0.20433440804481506 -0.0006699219229631126 0.16806785762310028
v 0.13995236158370972 -0.0004588417650666088 0.2275252491235733
v 0.10035590827465057 -0.06911995261907578 0.20413516461849213
v 0.059465259313583374 -0.00019496027380228043 0.24509690701961517
v 0.0433858186006546 -0.0752800926566124 0.23918746411800385
v 0.051072120666503906 -0.1512531191110611 0.1908685863018036
v 0.013974537141621113 -0.08712583035230637 0.21096809208393097
v -0.029161361977458 -0.09865543991327286 0.1868554800748825
v -0.03354732692241669 0.00010998674406437203 0.22446851432323456
v -0.032498735934495926 0.0001065488759195432 0.22476166486740112
v -0.027321292087435722 -0.17702314257621765 0.1816595047712326
v -0.13154946267604828 -0.11555203050374985 0.1805969625711441
v -0.0675116702914238 -0.044815436005592346 0.19863492250442505
v -0.18313634395599365 -0.1525370329618454 0.1323138326406479
v -0.03676203638315201 -0.2498287856578827 0.12521573901176453
v -0.03926154226064682 -0.28461891412734985 0.06698837131261826
v -0.21849049627780914 -0.18791982531547546 0.07884383946657181
v -0.03888010233640671 -0.3227235674858093 -0.010249754413962364
v -0.24971677362918854 -0.22255061566829681 0.008234623819589615
v -0.03169308230280876 0.00010390751413069665 0.2252189815044403
v -0.21849049627780914 -0.18791982531547546 0.07884383946657181
v -0.26288989186286926 0.0008618994033895433 0.09212260693311691
v -0.2326858639717102 0.0007628737948834896 0.15929315984249115
v -0.10417041182518005 0.0003415285318624228 0.20136582851409912
v -0.035118356347084045 0.00011513744539115578 0.22432000935077667
v -0.3262478709220886 0.001069621997885406 -0.04469914361834526
v -0.3123955726623535 0.0010242065181955695 0.05040707439184189
v -0.259897917509079 -0.2251831591129303 -0.06601256877183914
v -0.29565754532814026 0.000969329965300858 -0.14203180372714996
v -0.21255365014076233 -0.19439297914505005 -0.12158238142728806
v -0.23377612233161926 0.0007664482691325247 -0.18387682735919952
v -0.17894555628299713 -0.17569375038146973 -0.16450752317905426
v -0.03678765520453453 -0.31074878573417664 -0.13177050650119781
v -0.03266683593392372 -0.2951163649559021 -0.16681405901908875
v 0.11402884125709534 -0.23113523423671722 -0.14505670964717865
v 0.13911662995815277 -0.25882455706596375 -0.11007649451494217
v 0.18947815895080566 -0.0931214764714241 -0.1515558362007141
v 0.22548021376132965 -0.1314612329006195 -0.11096199601888657
v -0.028555454686284065 -0.23388925194740295 -0.21504941582679749
v -0.1447206288576126 -0.15638165175914764 -0.19286282360553741
v 0.13338898122310638 -0.07861649990081787 -0.202571839094162
v 0.18947815895080566 -0.0931214764714241 -0.1515558362007141
v -0.025239545851945877 7.484156958526e-05 -0.2450968474149704
v -0.18599872291088104 0.0006098072626627982 -0.20448392629623413
v 0.2646331191062927 -0.0008676146389916539 -0.10693725198507309
v 0.27893465757369995 -0.13800998032093048 -0.051049068570137024
v 0.3197277784347534 -0.0010482455836609006 -0.051893480122089386
v 0.20641405880451202 -0.0006767402519471943 -0.16284377872943878
v 0.15169912576675415 -0.000497354194521904 -0.21183276176452637
v -0.025234447792172432 8.273250568890944e-05 -0.2450943887233734
v -0.13172213733196259 0.00043185846880078316 -0.22907975316047668
v -0.13172213733196259 0.00043185846880078316 -0.22907975316047668
v -0.18599694967269897 0.0006098014418967068 -0.20448511838912964
v -0.21849049627780914 -0.18791982531547546 0.07884383946657181
v -0.24971677362918854 -0.22255061566829681 0.008234623819589615
v -0.3123955726623535 0.0010242065181955695 0.05040707439184189
v -0.26288989186286926 0.0008618994033895433 0.09212260693311691
v -0.259897917509079 -0.2251831591129303 -0.06601256877183914
v -0.24971677362918854 -0.22255061566829681 0.008234623819589615
v -0.03888010233640671 -0.3227235674858093 -0.010249754413962364
v -0.029736656695604324 -0.3509799838066101 -0.07480184733867645
v 0.3197277784347534 -0.0010482455836609006 -0.051893480122089386
v 0.27893465757369995 -0.13800998032093048 -0.051049068570137024
v 0.2766096889972687 -0.13576802611351013 0.015773827210068703
v 0.3262478709220886 -0.0010696221143007278 0.019129391759634018
v -0.029736656695604324 -0.3509799838066101 -0.07480184733867645
v -0.03888010233640671 -0.3227235674858093 -0.010249754413962364
v 0.13123595714569092 -0.26948168873786926 -0.0015675467438995838
v 0.13993746042251587 -0.2958696484565735 -0.049454107880592346
v 0.27893465757369995 -0.13800998032093048 -0.051049068570137024
v 0.22548021376132965 -0.1314612329006195 -0.11096199601888657
v 0.13911662995815277 -0.25882455706596375 -0.11007649451494217
v -0.17894555628299713 -0.17569375038146973 -0.16450752317905426
v -0.1447206288576126 -0.15638165175914764 -0.19286282360553741
v -0.18599694967269897 0.0006098014418967068 -0.20448511838912964
v -0.18599872291088104 0.0006098072626627982 -0.20448392629623413
v -0.03678765520453453 -0.31074878573417664 -0.13177050650119781
v -0.029736656695604324 -0.3509799838066101 -0.07480184733867645
v 0.13993746042251587 -0.2958696484565735 -0.049454107880592346
v 0.13911662995815277 -0.25882455706596375 -0.11007649451494217
v 0.0869612768292427 -0.20808686316013336 0.13385319709777832
v 0.10722150653600693 -0.24893389642238617 0.08023079484701157
v -0.03926154226064682 -0.28461891412734985 0.06698837131261826
v -0.03676203638315201 -0.2498287856578827 0.12521573901176453
v 0.051072120666503906 -0.1512531191110611 0.1908685863018036
v 0.0869612768292427 -0.20808686316013336 0.13385319709777832
v -0.03676203638315201 -0.2498287856578827 0.12521573901176453
v -0.027321292087435722 -0.17702314257621765 0.1816595047712326
v 0.10722150653600693 -0.24893389642238617 0.08023079484701157
v 0.13123595714569092 -0.26948168873786926 -0.0015675467438995838
v -0.03888010233640671 -0.3227235674858093 -0.010249754413962364
v -0.03926154226064682 -0.28461891412734985 0.06698837131261826
v 0.13993746042251587 -0.2958696484565735 -0.049454107880592346
v 0.13123595714569092 -0.26948168873786926 -0.0015675467438995838
v 0.2766096889972687 -0.13576802611351013 0.015773827210068703
v 0.27893465757369995 -0.13800998032093048 -0.051049068570137024
v 0.051072120666503906 -0.1512531191110611 0.1908685863018036
v 0.10035590827465057 -0.06911995261907578 0.20413516461849213
v 0.1598236858844757 -0.09261030703783035 0.1492891013622284
v 0.0869612768292427 -0.20808686316013336 0.13385319709777832
v 0.13338898122310638 -0.07861649990081787 -0.202571839094162
v -0.025234447792172432 8.273250568890944e-05 -0.2450943887233734
v -0.025239545851945877 7.484156958526e-05 -0.2450968474149704
v -0.0675116702914238 -0.044815436005592346 0.19863492250442505
v -0.035118356347084045 0.00011513744539115578 0.22432000935077667
v -0.03354732692241669 0.00010998674406437203 0.22446851432323456
v -0.029161361977458 -0.09865543991327286 0.1868554800748825
v 0.26498717069625854 -0.0008687754743732512 0.08822652697563171
v 0.3262478709220886 -0.0010696221143007278 0.019129391759634018
v -0.18313634395599365 -0.1525370329618454 0.1323138326406479
v -0.2326858639717102 0.0007628737948834896 0.15929315984249115
v -0.17571356892585754 0.0005760868079960346 0.18101459741592407
v -0.13154946267604828 -0.11555203050374985 0.1805969625711441
v 0.18947815895080566 -0.0931214764714241 -0.1515558362007141
v 0.20641405880451202 -0.0006767402519471943 -0.16284377872943878
v 0.15169912576675415 -0.000497354194521904 -0.21183276176452637
v 0.13338898122310638 -0.07861649990081787 -0.202571839094162
v -0.13154946267604828 -0.11555203050374985 0.1805969625711441
v -0.17571356892585754 0.0005760868079960346 0.18101459741592407
v -0.10417041182518005 0.0003415285318624228 0.20136582851409912
v -0.0675116702914238 -0.044815436005592346 0.19863492250442505
v -0.025239545851945877 7.484156958526e-05 -0.2450968474149704
v -0.025234447792172432 8.273250568890944e-05 -0.2450943887233734
v -0.1447206288576126 -0.15638165175914764 -0.19286282360553741
v -0.029736656695604324 -0.3509799838066101 -0.07480184733867645
v 0.013403579592704773 0.08703608065843582 0.21096810698509216
v 0.04289316385984421 0.07499721646308899 0.23918746411800385
v -0.03169308230280876 0.00010390751413069665 0.2252189815044403
v -0.032498735934495926 0.0001065488759195432 0.22476166486740112
v 0.1592199057340622 0.09156431257724762 0.1492891162633896
v 0.08559878170490265 0.20752112567424774 0.1338532269001007
v 0.10559161007404327 0.24823619425296783 0.08023079484701157
v 0.21917997300624847 0.11576622724533081 0.0803539901971817
v 0.12947185337543488 0.26862695813179016 -0.0015675467438995838
v 0.27572545409202576 0.133957177400589 0.015773827210068703
v 0.26498717069625854 -0.0008687754743732512 0.08822652697563171
v 0.13995236158370972 -0.0004588417650666088 0.2275252491235733
v 0.0999048724770546 0.06846338510513306 0.20413517951965332
v 0.059465259313583374 -0.00019496027380228043 0.24509690701961517
v 0.04289316385984421 0.07499721646308899 0.23918746411800385
v 0.050081491470336914 0.15092147886753082 0.19086860120296478
v 0.013403579592704773 0.08703608065843582 0.21096810698509216
v -0.02980884537100792 0.09884878247976303 0.1868555098772049
v -0.03354732692241669 0.00010998674406437203 0.22446851432323456
v -0.032498735934495926 0.0001065488759195432 0.22476166486740112
v -0.028482573106884956 0.1772060990333557 0.1816595196723938
v -0.1323099434375763 0.11641710996627808 0.1805969774723053
v -0.06780695915222168 0.045259084552526474 0.19863492250442505
v -0.1841404139995575 0.15374118089675903 0.13231384754180908
v -0.03840087726712227 0.25007519125938416 0.12521575391292572
v -0.041128549724817276 0.28488245606422424 0.06698839366436005
v -0.2197273224592209 0.18935655057430267 0.0788438618183136
v -0.04099695011973381 0.3229854106903076 -0.010249754413962364
v -0.25118133425712585 0.22419282793998718 0.008234623819589615
v -0.03169308230280876 0.00010390751413069665 0.2252189815044403
v -0.2326858639717102 0.0007628737948834896 0.15929315984249115
v -0.26288989186286926 0.0008618994033895433 0.09212260693311691
v -0.2197273224592209 0.18935655057430267 0.0788438618183136
v -0.035118356347084045 0.00011513744539115578 0.22432000935077667
v -0.10417041182518005 0.0003415285318624228 0.20136582851409912
v -0.3262478709220886 0.001069621997885406 -0.04469914361834526
v -0.26137998700141907 0.22689221799373627 -0.06601256877183914
v -0.3123955726623535 0.0010242065181955695 0.05040707439184189
v -0.29565754532814026 0.000969329965300858 -0.14203180372714996
v -0.2138327807188034 0.19579090178012848 -0.12158238142728806
v -0.23377612233161926 0.0007664482691325247 -0.18387682735919952
v -0.1801013946533203 0.1768708974123001 -0.16450752317905426
v -0.03882594406604767 0.3109967112541199 -0.13177050650119781
v -0.034602534025907516 0.29533690214157104 -0.16681405901908875
v 0.11251579970121384 0.2303924858570099 -0.14505670964717865
v 0.1374225914478302 0.2579179108142853 -0.11007649451494217
v 0.18887168169021606 0.09188103675842285 -0.1515558362007141
v 0.22462308406829834 0.12998555600643158 -0.11096199601888657
v -0.030089618638157845 0.23408153653144836 -0.21504941582679749
v -0.1457490772008896 0.15733397006988525 -0.19286282360553741
v 0.13287638127803802 0.0777435377240181 -0.202571839094162
v 0.18887168169021606 0.09188103675842285 -0.1515558362007141
v -0.025239599868655205 9.065703488886356e-05 -0.2450968474149704
v -0.18599872291088104 0.0006098072626627982 -0.20448392629623413
v 0.2646331191062927 -0.0008676146389916539 -0.10693725198507309
v 0.2780357599258423 0.1361839324235916 -0.051049068570137024
v 0.3197277784347534 -0.0010482455836609006 -0.051893480122089386
v 0.20641405880451202 -0.0006767402519471943 -0.16284377872943878
v 0.15169912576675415 -0.000497354194521904 -0.21183276176452637
v -0.025234447792172432 8.273250568890944e-05 -0.2450943887233734
v -0.13172213733196259 0.00043185846880078316 -0.22907975316047668
v -0.13172213733196259 0.00043185846880078316 -0.22907975316047668
v -0.18599694967269897 0.0006098014418967068 -0.20448511838912964
v -0.3123955726623535 0.0010242065181955695 0.05040707439184189
v -0.25118133425712585 0.22419282793998718 0.008234623819589615
v -0.2197273224592209 0.18935655057430267 0.0788438618183136
v -0.26288989186286926 0.0008618994033895433 0.09212260693311691
v -0.04099695011973381 0.3229854106903076 -0.010249754413962364
v -0.25118133425712585 0.22419282793998718 0.008234623819589615
v -0.26137998700141907 0.22689221799373627 -0.06601256877183914
v -0.03203856945037842 0.3511824309825897 -0.07480184733867645
v 0.27572545409202576 0.133957177400589 0.015773827210068703
v 0.2780357599258423 0.1361839324235916 -0.051049068570137024
v 0.3197277784347534 -0.0010482455836609006 -0.051893480122089386
v 0.3262478709220886 -0.0010696221143007278 0.019129391759634018
v -0.03203856945037842 0.3511824309825897 -0.07480184733867645
v 0.13800054788589478 0.2949584126472473 -0.049454107880592346
v 0.12947185337543488 0.26862695813179016 -0.0015675467438995838
v -0.04099695011973381 0.3229854106903076 -0.010249754413962364
v 0.1374225914478302 0.2579179108142853 -0.11007649451494217
v 0.22462308406829834 0.12998555600643158 -0.11096199601888657
v 0.2780357599258423 0.1361839324235916 -0.051049068570137024
v -0.18599694967269897 0.0006098014418967068 -0.20448511838912964
v -0.1457490772008896 0.15733397006988525 -0.19286282360553741
v -0.1801013946533203 0.1768708974123001 -0.16450752317905426
v -0.1801013946533203 0.1768708974123001 -0.16450752317905426
v -0.18599872291088104 0.0006098072626627982 -0.20448392629623413
v 0.13800054788589478 0.2949584126472473 -0.049454107880592346
v -0.03203856945037842 0.3511824309825897 -0.07480184733867645
v -0.03882594406604767 0.3109967112541199 -0.13177050650119781
v 0.1374225914478302 0.2579179108142853 -0.11007649451494217
v -0.041128549724817276 0.28488245606422424 0.06698839366436005
v 0.10559161007404327 0.24823619425296783 0.08023079484701157
v 0.08559878170490265 0.20752112567424774 0.1338532269001007
v -0.03840087726712227 0.25007519125938416 0.12521575391292572
v -0.03840087726712227 0.25007519125938416 0.12521575391292572
v 0.08559878170490265 0.20752112567424774 0.1338532269001007
v 0.050081491470336914 0.15092147886753082 0.19086860120296478
v -0.028482573106884956 0.1772060990333557 0.1816595196723938
v -0.04099695011973381 0.3229854106903076 -0.010249754413962364
v 0.12947185337543488 0.26862695813179016 -0.0015675467438995838
v 0.10559161007404327 0.24823619425296783 0.08023079484701157
v -0.041128549724817276 0.28488245606422424 0.06698839366436005
v 0.27572545409202576 0.133957177400589 0.015773827210068703
v 0.12947185337543488 0.26862695813179016 -0.0015675467438995838
v 0.13800054788589478 0.2949584126472473 -0.049454107880592346
v 0.2780357599258423 0.1361839324235916 -0.051049068570137024
v 0.1592199057340622 0.09156431257724762 0.1492891162633896
v 0.0999048724770546 0.06846338510513306 0.20413517951965332
v 0.050081491470336914 0.15092147886753082 0.19086860120296478
v 0.08559878170490265 0.20752112567424774 0.1338532269001007
v 0.13287638127803802 0.0777435377240181 -0.202571839094162
v -0.025239599868655205 9.065703488886356e-05 -0.2450968474149704
v -0.025234447792172432 8.273250568890944e-05 -0.2450943887233734
v -0.03354732692241669 0.00010998674406437203 0.22446851432323456
v -0.035118356347084045 0.00011513744539115578 0.22432000935077667
v -0.06780695915222168 0.045259084552526474 0.19863492250442505
v -0.02980884537100792 0.09884878247976303 0.1868555098772049
v 0.26498717069625854 -0.0008687754743732512 0.08822652697563171
v 0.3262478709220886 -0.0010696221143007278 0.019129391759634018
v -0.17571356892585754 0.0005760868079960346 0.18101459741592407
v -0.2326858639717102 0.0007628737948834896 0.15929315984249115
v -0.1841404139995575 0.15374118089675903 0.13231384754180908
v -0.1323099434375763 0.11641710996627808 0.1805969774723053
v 0.15169912576675415 -0.000497354194521904 -0.21183276176452637
v 0.20641405880451202 -0.0006767402519471943 -0.16284377872943878
v 0.18887168169021606 0.09188103675842285 -0.1515558362007141
v 0.13287638127803802 0.0777435377240181 -0.202571839094162
v -0.10417041182518005 0.0003415285318624228 0.20136582851409912
v -0.17571356892585754 0.0005760868079960346 0.18101459741592407
v -0.1323099434375763 0.11641710996627808 0.1805969774723053
v -0.06780695915222168 0.045259084552526474 0.19863492250442505
v -0.025239599868655205 9.065703488886356e-05 -0.2450968474149704
v -0.1457490772008896 0.15733397006988525 -0.19286282360553741
v -0.025234447792172432 8.273250568890944e-05 -0.2450943887233734
v -0.03203856945037842 0.3511824309825897 -0.07480184733867645
vn -0.04271339252591133 -0.3873959183692932 0.9209233522415161
vn -0.4399774968624115 -0.43212565779685974 0.7872020602226257
vn -0.47920435667037964 -0.0011072901543229818 0.8777026534080505
vn -0.49765413999557495 -0.0014821762451902032 0.8673742413520813
vn 0.5905155539512634 -0.43963974714279175 0.6767630577087402
vn 0.6523322463035583 -0.4546113610267639 0.6064577698707581
vn 0.4080868661403656 -0.742108166217804 0.5317336320877075
vn 0.38076478242874146 -0.6106335520744324 0.694366455078125
vn 0.4362456500530243 -0.7796522378921509 0.4492573142051697
vn 0.8157515525817871 -0.424473375082016 0.39290180802345276
vn 0.734927237033844 0.0018135140417143703 0.6781435608863831
vn 0.6925961971282959 0.0012712853495031595 0.7213243842124939
vn 0.5232164859771729 0.0011692215921357274 0.8521990776062012
vn 0.47621574997901917 -0.40687933564186096 0.77953040599823
vn 0.11554433405399323 0.000842309498693794 0.9933019876480103
vn -0.04271339252591133 -0.3873959183692932 0.9209233522415161
vn 0.1949903964996338 -0.4771457016468048 0.8569192886352539
vn -0.4399774968624115 -0.43212565779685974 0.7872020602226257
vn -0.17927668988704681 -0.23991064727306366 0.9540978670120239
vn -0.3231830894947052 -0.0008569631027057767 0.9463360905647278
vn -0.47920435667037964 -0.0011072901543229818 0.8777026534080505
vn -0.08655495196580887 -0.42281001806259155 0.9020753502845764
vn -0.2910434603691101 -0.30631813406944275 0.9063458442687988
vn -0.19363905489444733 -0.25677046179771423 0.9468753337860107
vn -0.5534825325012207 -0.4707837402820587 0.6870369911193848
vn -0.1064683347940445 -0.7254588007926941 0.6799808144569397
vn -0.09201845526695251 -0.8539716601371765 0.5121181011199951
vn -0.6032349467277527 -0.5462900996208191 0.5810979604721069
vn -0.22913584113121033 -0.9106156826019287 0.3439125418663025
vn -0.6884868144989014 -0.6298022270202637 0.35963183641433716
vn -0.49765413999557495 -0.0014821762451902032 0.8673742413520813
vn -0.6032349467277527 -0.5462900996208191 0.5810979604721069
vn -0.8035397529602051 -0.002414280315861106 0.5952461957931519
vn -0.6917778849601746 -0.0017056232318282127 0.7221083641052246
vn -0.24207091331481934 -0.0005204059416428208 0.9702584147453308
vn -0.25658470392227173 -0.0005417942302301526 0.9665215611457825
vn -0.9979299306869507 -0.002564310561865568 -0.0642591118812561
vn -0.9105185270309448 -0.002164982259273529 0.4134625792503357
vn -0.7521923184394836 -0.6145844459533691 -0.2376820296049118
vn -0.8115056157112122 -0.0018742926185950637 -0.5843417644500732
vn -0.5447580814361572 -0.47596657276153564 -0.6904306411743164
vn -0.5312057137489319 -0.0015745570417493582 -0.8472414612770081
vn -0.5360291004180908 -0.4314481019973755 -0.725620687007904
vn -0.24211722612380981 -0.7761579751968384 -0.5822010636329651
vn -0.06093956157565117 -0.7212054133415222 -0.6900356411933899
vn 0.45391595363616943 -0.5089972019195557 -0.7313563227653503
vn 0.4702814519405365 -0.5508244037628174 -0.6895126104354858
vn 0.6173838376998901 -0.26866716146469116 -0.7393613457679749
vn 0.6356741786003113 -0.2624790668487549 -0.7259635329246521
vn -0.02021476812660694 -0.43183228373527527 -0.9017273187637329
vn -0.4075205624103546 -0.25687187910079956 -0.8763239979743958
vn 0.42799654603004456 -0.24078133702278137 -0.8711161613464355
vn 0.6173838376998901 -0.26866716146469116 -0.7393613457679749
vn -0.033504098653793335 -0.12682750821113586 -0.9913588762283325
vn -0.48671889305114746 -0.001517958240583539 -0.8735573887825012
vn 0.7023147940635681 0.002129941014572978 -0.7118633389472961
vn 0.8794056177139282 -0.27479878067970276 -0.38875612616539
vn 0.9315234422683716 0.0023200474679470062 -0.3636738359928131
vn 0.6653809547424316 0.001938606845214963 -0.7465015649795532
vn 0.4566432237625122 0.001385532203130424 -0.8896489143371582
vn 0.045273952186107635 3.0627375963376835e-05 -0.9989745616912842
vn -0.27158302068710327 -0.000721281801816076 -0.9624147415161133
vn -0.27158302068710327 -0.000721281801816076 -0.9624147415161133
vn -0.4993869662284851 -0.001539622200652957 -0.8663777112960815
vn -0.6884868144989014 -0.6298022270202637 0.35963183641433716
vn -0.9105185270309448 -0.002164982259273529 0.4134625792503357
vn -0.8035397529602051 -0.002414280315861106 0.5952461957931519
vn -0.6032349467277527 -0.5462900996208191 0.5810979604721069
vn -0.6884868144989014 -0.6298022270202637 0.35963183641433716
vn -0.22913584113121033 -0.9106156826019287 0.3439125418663025
vn -0.4642598032951355 -0.8726648688316345 -0.15138974785804749
vn -0.7521923184394836 -0.6145844459533691 -0.2376820296049118
vn 0.8794056177139282 -0.27479878067970276 -0.38875612616539
vn 0.8157515525817871 -0.424473375082016 0.39290180802345276
vn 0.9416028261184692 0.002011840231716633 0.3367196023464203
vn 0.9315234422683716 0.0023200474679470062 -0.3636738359928131
vn 0.31655818223953247 -0.9454284310340881 -0.07717379927635193
vn 0.22894060611724854 -0.8607435822486877 0.45465001463890076
vn 0.4989544451236725 -0.793517529964447 0.3483883738517761
vn 0.5202349424362183 -0.85096275806427 -0.07223538309335709
vn 0.7369529604911804 -0.6702539920806885 -0.08752081543207169
vn 0.6773367524147034 -0.5395275950431824 -0.5001249313354492
vn 0.5335636138916016 -0.66060870885849 -0.5281155705451965
vn -0.4075205624103546 -0.25687187910079956 -0.8763239979743958
vn -0.4993869662284851 -0.001539622200652957 -0.8663777112960815
vn -0.48671889305114746 -0.001517958240583539 -0.8735573887825012
vn -0.5360291004180908 -0.4314481019973755 -0.725620687007904
vn 0.31655818223953247 -0.9454284310340881 -0.07717379927635193
vn 0.5202349424362183 -0.85096275806427 -0.07223538309335709
vn 0.5335636138916016 -0.66060870885849 -0.5281155705451965
vn 0.31550732254981995 -0.7831828594207764 -0.5357981324195862
vn 0.4080868661403656 -0.742108166217804 0.5317336320877075
vn -0.09201845526695251 -0.8539716601371765 0.5121181011199951
vn -0.1064683347940445 -0.7254588007926941 0.6799808144569397
vn 0.38076478242874146 -0.6106335520744324 0.694366455078125
vn 0.38076478242874146 -0.6106335520744324 0.694366455078125
vn -0.1064683347940445 -0.7254588007926941 0.6799808144569397
vn -0.08655495196580887 -0.42281001806259155 0.9020753502845764
vn 0.1949903964996338 -0.4771457016468048 0.8569192886352539
vn 0.4362456500530243 -0.7796522378921509 0.4492573142051697
vn -0.22913584113121033 -0.9106156826019287 0.3439125418663025
vn -0.09201845526695251 -0.8539716601371765 0.5121181011199951
vn 0.4080868661403656 -0.742108166217804 0.5317336320877075
vn 0.4989544451236725 -0.793517529964447 0.3483883738517761
vn 0.6890372037887573 -0.6848244071006775 0.23715665936470032
vn 0.7369529604911804 -0.6702539920806885 -0.08752081543207169
vn 0.5202349424362183 -0.85096275806427 -0.07223538309335709
vn 0.47621574997901917 -0.40687933564186096 0.77953040599823
vn 0.5905155539512634 -0.43963974714279175 0.6767630577087402
vn 0.38076478242874146 -0.6106335520744324 0.694366455078125
vn 0.1949903964996338 -0.4771457016468048 0.8569192886352539
vn 0.42799654603004456 -0.24078133702278137 -0.8711161613464355
vn 0.045273952186107635 3.0627375963376835e-05 -0.9989745616912842
vn -0.033504098653793335 -0.12682750821113586 -0.9913588762283325
vn -0.25658470392227173 -0.0005417942302301526 0.9665215611457825
vn -0.3231830894947052 -0.0008569631027057767 0.9463360905647278
vn -0.17927668988704681 -0.23991064727306366 0.9540978670120239
vn -0.19363905489444733 -0.25677046179771423 0.9468753337860107
vn 0.734927237033844 0.0018135140417143703 0.6781435608863831
vn 0.9416028261184692 0.002011840231716633 0.3367196023464203
vn -0.6917778849601746 -0.0017056232318282127 0.7221083641052246
vn -0.37614789605140686 -0.0013170561287552118 0.9265586733818054
vn -0.2910434603691101 -0.30631813406944275 0.9063458442687988
vn -0.5534825325012207 -0.4707837402820587 0.6870369911193848
vn 0.6653809547424316 0.001938606845214963 -0.7465015649795532
vn 0.4566432237625122 0.001385532203130424 -0.8896489143371582
vn 0.42799654603004456 -0.24078133702278137 -0.8711161613464355
vn 0.6173838376998901 -0.26866716146469116 -0.7393613457679749
vn -0.37614789605140686 -0.0013170561287552118 0.9265586733818054
vn -0.24207091331481934 -0.0005204059416428208 0.9702584147453308
vn -0.19363905489444733 -0.25677046179771423 0.9468753337860107
vn -0.2910434603691101 -0.30631813406944275 0.9063458442687988
vn -0.033504098653793335 -0.12682750821113586 -0.9913588762283325
vn 0.045273952186107635 3.0627375963376835e-05 -0.9989745616912842
vn -0.4075205624103546 -0.25687187910079956 -0.8763239979743958
vn -0.4642598032951355 -0.8726648688316345 -0.15138974785804749
vn -0.04090065509080887 0.38697946071624756 0.9211808443069458
vn -0.49765413999557495 -0.0014821762451902032 0.8673742413520813
vn -0.47920435667037964 -0.0011072901543229818 0.8777026534080505
vn -0.4382729232311249 0.43029627203941345 0.7891526818275452
vn 0.5913000106811523 0.44214069843292236 0.6744449734687805
vn 0.3833426535129547 0.6111819744110107 0.6924629807472229
vn 0.4108758568763733 0.7420219779014587 0.5297022461891174
vn 0.6527984142303467 0.45717447996139526 0.6040245890617371
vn 0.4390578269958496 0.7792941331863403 0.44713419675827026
vn 0.8147979378700256 0.4274550676345825 0.39164575934410095
vn 0.734927237033844 0.0018135140417143703 0.6781435608863831
vn 0.5232164859771729 0.0011692215921357274 0.8521990776062012
vn 0.47738054394721985 0.4087391793727875 0.7778432965278625
vn 0.11554433405399323 0.000842309498693794 0.9933019876480103
vn -0.04090065509080887 0.38697946071624756 0.9211808443069458
vn 0.196282759308815 0.4776192009449005 0.8563602566719055
vn -0.4382729232311249 0.43029627203941345 0.7891526818275452
vn -0.17757932841777802 0.23903046548366547 0.9546360969543457
vn -0.3231830894947052 -0.0008569631027057767 0.9463360905647278
vn -0.47920435667037964 -0.0011072901543229818 0.8777026534080505
vn -0.08337613940238953 0.42275312542915344 0.902401328086853
vn -0.289915531873703 0.3050316870212555 0.9071409106254578
vn -0.19216805696487427 0.25570231676101685 0.947463870048523
vn -0.5525968074798584 0.46903195977211 0.6889454126358032
vn -0.10267244279384613 0.7254258394241333 0.680599570274353
vn -0.08751627057790756 0.8541224598884583 0.5126557350158691
vn -0.6020715832710266 0.5448926687240601 0.583611011505127
vn -0.22523871064186096 0.9112426042556763 0.3448253571987152
vn -0.6883506178855896 0.6290501952171326 0.36120545864105225
vn -0.49765413999557495 -0.0014821762451902032 0.8673742413520813
vn -0.6917778849601746 -0.0017056232318282127 0.7221083641052246
vn -0.8035397529602051 -0.002414280315861106 0.5952461957931519
vn -0.6020715832710266 0.5448926687240601 0.583611011505127
vn -0.25658470392227173 -0.0005417942302301526 0.9665215611457825
vn -0.24207091331481934 -0.0005204059416428208 0.9702584147453308
vn -0.9979299306869507 -0.002564310561865568 -0.0642591118812561
vn -0.7526491284370422 0.6139011979103088 -0.23800139129161835
vn -0.9105185270309448 -0.002164982259273529 0.4134625792503357
vn -0.8115056157112122 -0.0018742926185950637 -0.5843417644500732
vn -0.5434531569480896 0.47414419054985046 -0.6927091479301453
vn -0.5312057137489319 -0.0015745570417493582 -0.8472414612770081
vn -0.5348244309425354 0.4296260178089142 -0.7275879979133606
vn -0.23957447707653046 0.7759715914726257 -0.5835000276565552
vn -0.05843787640333176 0.7211599349975586 -0.6902995109558105
vn 0.4558185636997223 0.5100122094154358 -0.7294634580612183
vn 0.4721660912036896 0.55228590965271 -0.6870511770248413
vn 0.617817759513855 0.2720450162887573 -0.7377619743347168
vn 0.6359689831733704 0.26601526141166687 -0.7244166135787964
vn -0.018126990646123886 0.43177270889282227 -0.9018003344535828
vn -0.40693002939224243 0.2546900808811188 -0.8772348165512085
vn 0.42851942777633667 0.24318893253803253 -0.8701897263526917
vn 0.617817759513855 0.2720450162887573 -0.7377619743347168
vn -0.03276234492659569 0.12661536037921906 -0.9914106130599976
vn -0.48671889305114746 -0.001517958240583539 -0.8735573887825012
vn 0.7023147940635681 0.002129941014572978 -0.7118633389472961
vn 0.8779861330986023 0.2794760763645172 -0.38863009214401245
vn 0.9315234422683716 0.0023200474679470062 -0.3636738359928131
vn 0.6653809547424316 0.001938606845214963 -0.7465015649795532
vn 0.4566432237625122 0.001385532203130424 -0.8896489143371582
vn 0.045273952186107635 3.0627375963376835e-05 -0.9989745616912842
vn -0.27158302068710327 -0.000721281801816076 -0.9624147415161133
vn -0.27158302068710327 -0.000721281801816076 -0.9624147415161133
vn -0.4993869662284851 -0.001539622200652957 -0.8663777112960815
vn -0.6883506178855896 0.6290501952171326 0.36120545864105225
vn -0.6020715832710266 0.5448926687240601 0.583611011505127
vn -0.8035397529602051 -0.002414280315861106 0.5952461957931519
vn -0.9105185270309448 -0.002164982259273529 0.4134625792503357
vn -0.6883506178855896 0.6290501952171326 0.36120545864105225
vn -0.7526491284370422 0.6139011979103088 -0.23800139129161835
vn -0.4609830379486084 0.8742329478263855 -0.15235264599323273
vn -0.22523871064186096 0.9112426042556763 0.3448253571987152
vn 0.8779861330986023 0.2794760763645172 -0.38863009214401245
vn 0.9315234422683716 0.0023200474679470062 -0.3636738359928131
vn 0.9416028261184692 0.002011840231716633 0.3367196023464203
vn 0.8147979378700256 0.4274550676345825 0.39164575934410095
vn 0.3214453160762787 0.9438509941101074 -0.07627661526203156
vn 0.5219800472259521 0.8499335646629333 -0.07176239043474197
vn 0.5016391277313232 0.7926350235939026 0.3465369641780853
vn 0.2339775413274765 0.8600145578384399 0.45346394181251526
vn 0.5357053875923157 0.6608498692512512 -0.5256398916244507
vn 0.6776275038719177 0.5413745045661926 -0.4977293610572815
vn 0.736566960811615 0.6708002090454102 -0.0865800529718399
vn -0.40693002939224243 0.2546900808811188 -0.8772348165512085
vn -0.5348244309425354 0.4296260178089142 -0.7275879979133606
vn -0.48671889305114746 -0.001517958240583539 -0.8735573887825012
vn -0.48671889305114746 -0.001517958240583539 -0.8735573887825012
vn -0.4993869662284851 -0.001539622200652957 -0.8663777112960815
vn 0.3214453160762787 0.9438509941101074 -0.07627661526203156
vn 0.31960567831993103 0.7827125787734985 -0.5340535640716553
vn 0.5357053875923157 0.6608498692512512 -0.5256398916244507
vn 0.5219800472259521 0.8499335646629333 -0.07176239043474197
vn 0.4108758568763733 0.7420219779014587 0.5297022461891174
vn 0.3833426535129547 0.6111819744110107 0.6924629807472229
vn -0.10267244279384613 0.7254258394241333 0.680599570274353
vn -0.08751627057790756 0.8541224598884583 0.5126557350158691
vn 0.3833426535129547 0.6111819744110107 0.6924629807472229
vn 0.196282759308815 0.4776192009449005 0.8563602566719055
vn -0.08337613940238953 0.42275312542915344 0.902401328086853
vn -0.10267244279384613 0.7254258394241333 0.680599570274353
vn 0.4390578269958496 0.7792941331863403 0.44713419675827026
vn 0.4108758568763733 0.7420219779014587 0.5297022461891174
vn -0.08751627057790756 0.8541224598884583 0.5126557350158691
vn -0.22523871064186096 0.9112426042556763 0.3448253571987152
vn 0.5016391277313232 0.7926350235939026 0.3465369641780853
vn 0.5219800472259521 0.8499335646629333 -0.07176239043474197
vn 0.736566960811615 0.6708002090454102 -0.0865800529718399
vn 0.6892625093460083 0.6851028203964233 0.2356930822134018
vn 0.47738054394721985 0.4087391793727875 0.7778432965278625
vn 0.196282759308815 0.4776192009449005 0.8563602566719055
vn 0.3833426535129547 0.6111819744110107 0.6924629807472229
vn 0.5913000106811523 0.44214069843292236 0.6744449734687805
vn 0.42851942777633667 0.24318893253803253 -0.8701897263526917
vn -0.03276234492659569 0.12661536037921906 -0.9914106130599976
vn 0.045273952186107635 3.0627375963376835e-05 -0.9989745616912842
vn -0.25658470392227173 -0.0005417942302301526 0.9665215611457825
vn -0.19216805696487427 0.25570231676101685 0.947463870048523
vn -0.17757932841777802 0.23903046548366547 0.9546360969543457
vn -0.3231830894947052 -0.0008569631027057767 0.9463360905647278
vn 0.734927237033844 0.0018135140417143703 0.6781435608863831
vn 0.9416028261184692 0.002011840231716633 0.3367196023464203
vn -0.6917778849601746 -0.0017056232318282127 0.7221083641052246
vn -0.5525968074798584 0.46903195977211 0.6889454126358032
vn -0.289915531873703 0.3050316870212555 0.9071409106254578
vn -0.37614789605140686 -0.0013170561287552118 0.9265586733818054
vn 0.6653809547424316 0.001938606845214963 -0.7465015649795532
vn 0.617817759513855 0.2720450162887573 -0.7377619743347168
vn 0.42851942777633667 0.24318893253803253 -0.8701897263526917
vn 0.4566432237625122 0.001385532203130424 -0.8896489143371582
vn -0.37614789605140686 -0.0013170561287552118 0.9265586733818054
vn -0.289915531873703 0.3050316870212555 0.9071409106254578
vn -0.19216805696487427 0.25570231676101685 0.947463870048523
vn -0.24207091331481934 -0.0005204059416428208 0.9702584147453308
vn -0.03276234492659569 0.12661536037921906 -0.9914106130599976
vn -0.40693002939224243 0.2546900808811188 -0.8772348165512085
vn 0.045273952186107635 3.0627375963376835e-05 -0.9989745616912842
vn -0.4609830379486084 0.8742329478263855 -0.15235264599323273
vt 0.5972015261650085 0.2734794616699219
vt 0.5510574579238892 0.2942403554916382
vt 0.5188631415367126 0.16354745626449585
vt 0.5204976201057434 0.1612343192100525
vt 0.7194512486457825 0.3820517063140869
vt 0.7810717225074768 0.4693758487701416
vt 0.6183689832687378 0.5087877213954926
vt 0.6041609644889832 0.44517284631729126
vt 0.6443063616752625 0.5913824737071991
vt 0.8362357020378113 0.5555215775966644
vt 0.9300937056541443 0.3374897837638855
vt 0.8490535020828247 0.24541538953781128
vt 0.7439394593238831 0.18568497896194458
vt 0.6581221222877502 0.3131353259086609
vt 0.6243202090263367 0.17851310968399048
vt 0.5972015261650085 0.2734794616699219
vt 0.5790293216705322 0.3636144995689392
vt 0.5510574579238892 0.2942403554916382
vt 0.489143431186676 0.3077053427696228
vt 0.5178101062774658 0.16423946619033813
vt 0.5188631415367126 0.16354745626449585
vt 0.48633521795272827 0.3754039406776428
vt 0.3691861629486084 0.3299417495727539
vt 0.4576164484024048 0.24230587482452393
vt 0.3046709895133972 0.39153796434402466
vt 0.4669000804424286 0.46086567640304565
vt 0.4591386020183563 0.5242268741130829
vt 0.2597428560256958 0.46266114711761475
vt 0.45692765712738037 0.6051401793956757
vt 0.22170595824718475 0.5516655743122101
vt 0.5204976201057434 0.1612343192100525
vt 0.26075178384780884 0.4614710211753845
vt 0.1269642412662506 0.3429962396621704
vt 0.2163126915693283 0.26033520698547363
vt 0.4359431266784668 0.15686935186386108
vt 0.5159721374511719 0.16428518295288086
vt 0.031714022159576416 0.621692568063736
vt 0.052841924130916595 0.4434727430343628
vt 0.22258275747299194 0.6451448500156403
vt 0.06954190135002136 0.752197265625
vt 0.24134434759616852 0.7253639400005341
vt 0.10550800710916519 0.8034346103668213
vt 0.272968053817749 0.7810994386672974
vt 0.4582473933696747 0.7191111743450165
vt 0.46285754442214966 0.7528002560138702
vt 0.6567447781562805 0.7464249432086945
vt 0.6558787226676941 0.7041162550449371
vt 0.7853682637214661 0.8001188039779663
vt 0.7988836169242859 0.7279973328113556
vt 0.4691133499145508 0.8241905272006989
vt 0.3465222716331482 0.8793456554412842
vt 0.6584210991859436 0.8778779059648514
vt 0.7866388559341431 0.8000900149345398
vt 0.4842965304851532 0.9656130038201809
vt 0.23680804669857025 0.9247664660215378
vt 0.9461033940315247 0.7574652433395386
vt 0.8445220589637756 0.6408283710479736
vt 0.9721435308456421 0.6219503581523895
vt 0.8376872539520264 0.8394027203321457
vt 0.6656749248504639 0.9333536103367805
vt 0.4843146502971649 0.9656089022755623
vt 0.36133870482444763 0.9540465995669365
vt 0.36133870482444763 0.9540465995669365
vt 0.23681195080280304 0.9247706085443497
vt 0.2223145067691803 0.5517768561840057
vt 0.052841924130916595 0.4434727430343628
vt 0.1269642412662506 0.3429962396621704
vt 0.26075178384780884 0.4614710211753845
vt 0.22170595824718475 0.5516655743122101
vt 0.45692765712738037 0.6051401793956757
vt 0.4544753134250641 0.6649477183818817
vt 0.22258275747299194 0.6451448500156403
vt 0.8445220589637756 0.6408283710479736
vt 0.8362438082695007 0.5552989840507507
vt 0.983917236328125 0.5054861605167389
vt 0.9721435308456421 0.6219503581523895
vt 0.4544753134250641 0.6649477183818817
vt 0.45692765712738037 0.6051401793956757
vt 0.6443063616752625 0.5913824737071991
vt 0.6454727053642273 0.6397838294506073
vt 0.8443989157676697 0.640959233045578
vt 0.7988836169242859 0.7279973328113556
vt 0.6558787226676941 0.7041162550449371
vt 0.3465222716331482 0.8793456554412842
vt 0.23681195080280304 0.9247706085443497
vt 0.23680804669857025 0.9247664660215378
vt 0.2731226682662964 0.7813267409801483
vt 0.4544753134250641 0.6649477183818817
vt 0.6454727053642273 0.6397838294506073
vt 0.6558787226676941 0.7041162550449371
vt 0.4582473933696747 0.7191111743450165
vt 0.6183689832687378 0.5087877213954926
vt 0.4591386020183563 0.5242268741130829
vt 0.4669000804424286 0.46086567640304565
vt 0.6041609644889832 0.44517284631729126
vt 0.6041609644889832 0.44517284631729126
vt 0.4669000804424286 0.46086567640304565
vt 0.48657914996147156 0.37533289194107056
vt 0.5787588953971863 0.36357688903808594
vt 0.6443063616752625 0.5913824737071991
vt 0.45692765712738037 0.6051401793956757
vt 0.4591386020183563 0.5242268741130829
vt 0.6183689832687378 0.5087877213954926
vt 0.6443063616752625 0.5913824737071991
vt 0.8362357020378113 0.5555215775966644
vt 0.8443989157676697 0.640959233045578
vt 0.6454727053642273 0.6397838294506073
vt 0.6580734848976135 0.31310564279556274
vt 0.7194512486457825 0.3820517063140869
vt 0.6041609644889832 0.44517284631729126
vt 0.5787588953971863 0.36357688903808594
vt 0.6584210991859436 0.8778779059648514
vt 0.4843146502971649 0.9656089022755623
vt 0.4842965304851532 0.9656130038201809
vt 0.5159721374511719 0.16428518295288086
vt 0.5178101062774658 0.16423946619033813
vt 0.489143431186676 0.3077053427696228
vt 0.4576164484024048 0.24230587482452393
vt 0.9300937056541443 0.3374897837638855
vt 0.983917236328125 0.5054861605167389
vt 0.2163126915693283 0.26033520698547363
vt 0.3504646122455597 0.16340136528015137
vt 0.36886274814605713 0.32995760440826416
vt 0.3046709895133972 0.39153796434402466
vt 0.8348966240882874 0.8409570604562759
vt 0.6656749248504639 0.9333536103367805
vt 0.6584210991859436 0.8778779059648514
vt 0.7866388559341431 0.8000900149345398
vt 0.3497125506401062 0.16507136821746826
vt 0.4359431266784668 0.15686935186386108
vt 0.4576164484024048 0.24230587482452393
vt 0.3691861629486084 0.3299417495727539
vt 0.4842965304851532 0.9656130038201809
vt 0.48429012298583984 0.9656134285032749
vt 0.3465222716331482 0.8793456554412842
vt 0.4544753134250641 0.6649477183818817
vt 0.5972015261650085 0.2734794616699219
vt 0.5204976201057434 0.1612343192100525
vt 0.5188631415367126 0.16354745626449585
vt 0.5510574579238892 0.2942403554916382
vt 0.7194512486457825 0.3820517063140869
vt 0.6041609644889832 0.44517284631729126
vt 0.6183689832687378 0.5087877213954926
vt 0.7810717225074768 0.4693758487701416
vt 0.6443063616752625 0.5913824737071991
vt 0.8362357020378113 0.5555215775966644
vt 0.9300937056541443 0.3374897837638855
vt 0.7439394593238831 0.18568497896194458
vt 0.6581221222877502 0.3131353259086609
vt 0.6243202090263367 0.17851310968399048
vt 0.5972015261650085 0.2734794616699219
vt 0.5790293216705322 0.3636144995689392
vt 0.5510574579238892 0.2942403554916382
vt 0.489143431186676 0.3077053427696228
vt 0.5178101062774658 0.16423946619033813
vt 0.5188631415367126 0.16354745626449585
vt 0.48633521795272827 0.3754039406776428
vt 0.3691861629486084 0.3299417495727539
vt 0.4576164484024048 0.24230587482452393
vt 0.3046709895133972 0.39153796434402466
vt 0.4669000804424286 0.46086567640304565
vt 0.4591386020183563 0.5242268741130829
vt 0.2597428560256958 0.46266114711761475
vt 0.45692765712738037 0.6051401793956757
vt 0.22170595824718475 0.5516655743122101
vt 0.5204976201057434 0.1612343192100525
vt 0.2163126915693283 0.26033520698547363
vt 0.1269642412662506 0.3429962396621704
vt 0.26075178384780884 0.4614710211753845
vt 0.5159721374511719 0.16428518295288086
vt 0.4359431266784668 0.15686935186386108
vt 0.031714022159576416 0.621692568063736
vt 0.22258275747299194 0.6451448500156403
vt 0.052841924130916595 0.4434727430343628
vt 0.06954190135002136 0.752197265625
vt 0.24134434759616852 0.7253639400005341
vt 0.10550800710916519 0.8034346103668213
vt 0.272968053817749 0.7810994386672974
vt 0.4582473933696747 0.7191111743450165
vt 0.46285754442214966 0.7528002560138702
vt 0.6567447781562805 0.7464249432086945
vt 0.6558787226676941 0.7041162550449371
vt 0.7853682637214661 0.8001188039779663
vt 0.7988836169242859 0.7279973328113556
vt 0.4691133499145508 0.8241905272006989
vt 0.3465222716331482 0.8793456554412842
vt 0.6584210991859436 0.8778779059648514
vt 0.7866388559341431 0.8000900149345398
vt 0.4842965304851532 0.9656130038201809
vt 0.23680804669857025 0.9247664660215378
vt 0.9461033940315247 0.7574652433395386
vt 0.8445220589637756 0.6408283710479736
vt 0.9721435308456421 0.6219503581523895
vt 0.8376872539520264 0.8394027203321457
vt 0.6656749248504639 0.9333536103367805
vt 0.4843146502971649 0.9656089022755623
vt 0.36133870482444763 0.9540465995669365
vt 0.36133870482444763 0.9540465995669365
vt 0.23681195080280304 0.9247706085443497
vt 0.2223145067691803 0.5517768561840057
vt 0.26075178384780884 0.4614710211753845
vt 0.1269642412662506 0.3429962396621704
vt 0.052841924130916595 0.4434727430343628
vt 0.22170595824718475 0.5516655743122101
vt 0.22258275747299194 0.6451448500156403
vt 0.4544753134250641 0.6649477183818817
vt 0.45692765712738037 0.6051401793956757
vt 0.8445220589637756 0.6408283710479736
vt 0.9721435308456421 0.6219503581523895
vt 0.983917236328125 0.5054861605167389
vt 0.8362438082695007 0.5552989840507507
vt 0.4544753134250641 0.6649477183818817
vt 0.6454727053642273 0.6397838294506073
vt 0.6443063616752625 0.5913824737071991
vt 0.45692765712738037 0.6051401793956757
vt 0.6558787226676941 0.7041162550449371
vt 0.7988836169242859 0.7279973328113556
vt 0.8443989157676697 0.640959233045578
vt 0.3465222716331482 0.8793456554412842
vt 0.2731226682662964 0.7813267409801483
vt 0.23680804669857025 0.9247664660215378
vt 0.23680804669857025 0.9247664660215378
vt 0.23681195080280304 0.9247706085443497
vt 0.4544753134250641 0.6649477183818817
vt 0.4582473933696747 0.7191111743450165
vt 0.6558787226676941 0.7041162550449371
vt 0.6454727053642273 0.6397838294506073
vt 0.6183689832687378 0.5087877213954926
vt 0.6041609644889832 0.44517284631729126
vt 0.4669000804424286 0.46086567640304565
vt 0.4591386020183563 0.5242268741130829
vt 0.6041609644889832 0.44517284631729126
vt 0.5787588953971863 0.36357688903808594
vt 0.48657914996147156 0.37533289194107056
vt 0.4669000804424286 0.46086567640304565
vt 0.6443063616752625 0.5913824737071991
vt 0.6183689832687378 0.5087877213954926
vt 0.4591386020183563 0.5242268741130829
vt 0.45692765712738037 0.6051401793956757
vt 0.6443063616752625 0.5913824737071991
vt 0.6454727053642273 0.6397838294506073
vt 0.8443989157676697 0.640959233045578
vt 0.8362357020378113 0.5555215775966644
vt 0.6580734848976135 0.31310564279556274
vt 0.5787588953971863 0.36357688903808594
vt 0.6041609644889832 0.44517284631729126
vt 0.7194512486457825 0.3820517063140869
vt 0.6584210991859436 0.8778779059648514
vt 0.4842965304851532 0.9656130038201809
vt 0.4843146502971649 0.9656089022755623
vt 0.5159721374511719 0.16428518295288086
vt 0.4576164484024048 0.24230587482452393
vt 0.489143431186676 0.3077053427696228
vt 0.5178101062774658 0.16423946619033813
vt 0.9300937056541443 0.3374897837638855
vt 0.983917236328125 0.5054861605167389
vt 0.2163126915693283 0.26033520698547363
vt 0.3046709895133972 0.39153796434402466
vt 0.36886274814605713 0.32995760440826416
vt 0.3504646122455597 0.16340136528015137
vt 0.8348966240882874 0.8409570604562759
vt 0.7866388559341431 0.8000900149345398
vt 0.6584210991859436 0.8778779059648514
vt 0.6656749248504639 0.9333536103367805
vt 0.3497125506401062 0.16507136821746826
vt 0.3691861629486084 0.3299417495727539
vt 0.4576164484024048 0.24230587482452393
vt 0.4359431266784668 0.15686935186386108
vt 0.4842965304851532 0.9656130038201809
vt 0.3465222716331482 0.8793456554412842
vt 0.48429012298583984 0.9656134285032749
vt 0.4544753134250641 0.6649477183818817

g d006_rock010
s 1
usemtl d006_rock010
f 3/3/3 2/2/2 1/1/1 
f 4/4/4 3/3/3 1/1/1 
f 7/7/7 6/6/6 5/5/5 
f 8/8/8 7/7/7 5/5/5 
f 7/7/7 9/9/9 6/6/6 
f 9/9/9 10/10/10 6/6/6 
f 6/6/6 10/10/10 11/11/11 
f 6/6/6 11/11/11 12/12/12 
f 5/5/5 6/6/6 12/12/12 
f 5/5/5 12/12/12 13/13/13 
f 14/14/14 5/5/5 13/13/13 
f 14/14/14 13/13/13 15/15/15 
f 16/16/16 14/14/14 15/15/15 
f 17/17/17 14/14/14 16/16/16 
f 18/18/18 17/17/17 16/16/16 
f 18/18/18 19/19/19 17/17/17 
f 20/20/20 19/19/19 18/18/18 
f 21/21/21 20/20/20 18/18/18 
f 17/17/17 19/19/19 22/22/22 
f 22/22/22 19/19/19 23/23/23 
f 23/23/23 19/19/19 24/24/24 
f 23/23/23 25/25/25 22/22/22 
f 25/25/25 26/26/26 22/22/22 
f 27/27/27 26/26/26 25/25/25 
f 28/28/28 27/27/27 25/25/25 
f 27/27/27 28/28/28 29/29/29 
f 28/28/28 30/30/30 29/29/29 
f 16/16/16 15/15/15 31/31/31 
f 33/33/33 32/32/32 25/25/25 
f 34/34/34 33/33/33 25/25/25 
f 36/36/36 35/35/35 24/24/24 
f 30/30/30 38/38/38 37/37/37 
f 39/39/39 30/30/30 37/37/37 
f 39/39/39 37/37/37 40/40/40 
f 41/41/41 39/39/39 40/40/40 
f 40/40/40 42/42/42 41/41/41 
f 42/42/42 43/43/43 41/41/41 
f 41/41/41 43/43/43 44/44/44 
f 44/44/44 39/39/39 41/41/41 
f 43/43/43 45/45/45 44/44/44 
f 44/44/44 45/45/45 46/46/46 
f 47/47/47 44/44/44 46/46/46 
f 47/47/47 46/46/46 48/48/48 
f 49/49/49 47/47/47 48/48/48 
f 45/45/45 50/50/50 46/46/46 
f 45/45/45 43/43/43 50/50/50 
f 50/50/50 43/43/43 51/51/51 
f 46/46/46 50/50/50 52/52/52 
f 53/53/53 46/46/46 52/52/52 
f 50/50/50 54/54/54 52/52/52 
f 50/50/50 51/51/51 54/54/54 
f 42/42/42 55/55/55 43/43/43 
f 49/49/49 48/48/48 56/56/56 
f 49/49/49 56/56/56 57/57/57 
f 56/56/56 58/58/58 57/57/57 
f 48/48/48 59/59/59 56/56/56 
f 52/52/52 61/61/61 60/60/60 
f 51/51/51 62/62/62 61/61/61 
f 51/51/51 64/64/64 63/63/63 
f 67/67/67 66/66/66 65/65/65 
f 68/68/68 67/67/67 65/65/65 
f 71/71/71 70/70/70 69/69/69 
f 72/72/72 71/71/71 69/69/69 
f 75/75/75 74/74/74 73/73/73 
f 76/76/76 75/75/75 73/73/73 
f 79/79/79 78/78/78 77/77/77 
f 80/80/80 79/79/79 77/77/77 
f 82/82/82 81/81/81 80/80/80 
f 83/83/83 82/82/82 80/80/80 
f 86/86/86 85/85/85 84/84/84 
f 87/87/87 86/86/86 84/84/84 
f 90/90/90 89/89/89 88/88/88 
f 91/91/91 90/90/90 88/88/88 
f 94/94/94 93/93/93 92/92/92 
f 95/95/95 94/94/94 92/92/92 
f 98/98/98 97/97/97 96/96/96 
f 99/99/99 98/98/98 96/96/96 
f 102/102/102 101/101/101 100/100/100 
f 103/103/103 102/102/102 100/100/100 
f 106/106/106 105/105/105 104/104/104 
f 107/107/107 106/106/106 104/104/104 
f 110/110/110 109/109/109 108/108/108 
f 111/111/111 110/110/110 108/108/108 
f 114/114/114 113/113/113 112/112/112 
f 117/117/117 116/116/116 115/115/115 
f 118/118/118 117/117/117 115/115/115 
f 10/10/10 120/120/120 119/119/119 
f 123/123/123 122/122/122 121/121/121 
f 124/124/124 123/123/123 121/121/121 
f 127/127/127 126/126/126 125/125/125 
f 128/128/128 127/127/127 125/125/125 
f 131/131/131 130/130/130 129/129/129 
f 132/132/132 131/131/131 129/129/129 
f 135/135/135 134/134/134 133/133/133 
f 136/136/136 39/39/39 44/44/44 
f 139/139/139 138/138/138 137/137/137 
f 140/140/140 139/139/139 137/137/137 
f 143/143/143 142/142/142 141/141/141 
f 144/144/144 143/143/143 141/141/141 
f 145/145/145 143/143/143 144/144/144 
f 146/146/146 145/145/145 144/144/144 
f 146/146/146 144/144/144 147/147/147 
f 144/144/144 141/141/141 12/12/12 
f 147/147/147 144/144/144 12/12/12 
f 12/12/12 141/141/141 148/148/148 
f 141/141/141 149/149/149 148/148/148 
f 148/148/148 149/149/149 150/150/150 
f 149/149/149 151/151/151 150/150/150 
f 149/149/149 152/152/152 151/151/151 
f 152/152/152 153/153/153 151/151/151 
f 154/154/154 153/153/153 152/152/152 
f 154/154/154 155/155/155 153/153/153 
f 155/155/155 156/156/156 153/153/153 
f 154/154/154 152/152/152 157/157/157 
f 154/154/154 157/157/157 158/158/158 
f 154/154/154 158/158/158 159/159/159 
f 160/160/160 158/158/158 157/157/157 
f 161/161/161 160/160/160 157/157/157 
f 161/161/161 162/162/162 160/160/160 
f 162/162/162 163/163/163 160/160/160 
f 163/163/163 162/162/162 164/164/164 
f 165/165/165 163/163/163 164/164/164 
f 150/150/150 151/151/151 166/166/166 
f 168/168/168 167/167/167 160/160/160 
f 169/169/169 168/168/168 160/160/160 
f 171/171/171 170/170/170 159/159/159 
f 165/165/165 173/173/173 172/172/172 
f 174/174/174 165/165/165 172/172/172 
f 172/172/172 173/173/173 175/175/175 
f 173/173/173 176/176/176 175/175/175 
f 177/177/177 175/175/175 176/176/176 
f 178/178/178 177/177/177 176/176/176 
f 178/178/178 176/176/176 179/179/179 
f 173/173/173 179/179/179 176/176/176 
f 180/180/180 178/178/178 179/179/179 
f 180/180/180 179/179/179 181/181/181 
f 179/179/179 182/182/182 181/181/181 
f 181/181/181 182/182/182 183/183/183 
f 182/182/182 184/184/184 183/183/183 
f 185/185/185 180/180/180 181/181/181 
f 178/178/178 180/180/180 185/185/185 
f 178/178/178 185/185/185 186/186/186 
f 185/185/185 181/181/181 187/187/187 
f 181/181/181 188/188/188 187/187/187 
f 189/189/189 185/185/185 187/187/187 
f 186/186/186 185/185/185 189/189/189 
f 190/190/190 177/177/177 178/178/178 
f 183/183/183 184/184/184 191/191/191 
f 191/191/191 184/184/184 192/192/192 
f 193/193/193 191/191/191 192/192/192 
f 194/194/194 183/183/183 191/191/191 
f 196/196/196 187/187/187 195/195/195 
f 197/197/197 186/186/186 196/196/196 
f 199/199/199 186/186/186 198/198/198 
f 202/202/202 201/201/201 200/200/200 
f 203/203/203 202/202/202 200/200/200 
f 206/206/206 205/205/205 204/204/204 
f 207/207/207 206/206/206 204/204/204 
f 210/210/210 209/209/209 208/208/208 
f 211/211/211 210/210/210 208/208/208 
f 214/214/214 213/213/213 212/212/212 
f 215/215/215 214/214/214 212/212/212 
f 217/217/217 216/216/216 213/213/213 
f 218/218/218 217/217/217 213/213/213 
f 221/221/221 220/220/220 219/219/219 
f 223/223/223 222/222/222 219/219/219 
f 226/226/226 225/225/225 224/224/224 
f 227/227/227 226/226/226 224/224/224 
f 230/230/230 229/229/229 228/228/228 
f 231/231/231 230/230/230 228/228/228 
f 234/234/234 233/233/233 232/232/232 
f 235/235/235 234/234/234 232/232/232 
f 238/238/238 237/237/237 236/236/236 
f 239/239/239 238/238/238 236/236/236 
f 242/242/242 241/241/241 240/240/240 
f 243/243/243 242/242/242 240/240/240 
f 246/246/246 245/245/245 244/244/244 
f 247/247/247 246/246/246 244/244/244 
f 250/250/250 249/249/249 248/248/248 
f 253/253/253 252/252/252 251/251/251 
f 254/254/254 253/253/253 251/251/251 
f 256/256/256 146/146/146 255/255/255 
f 259/259/259 258/258/258 257/257/257 
f 260/260/260 259/259/259 257/257/257 
f 263/263/263 262/262/262 261/261/261 
f 264/264/264 263/263/263 261/261/261 
f 267/267/267 266/266/266 265/265/265 
f 268/268/268 267/267/267 265/265/265 
f 271/271/271 270/270/270 269/269/269 
f 173/173/173 272/272/272 179/179/179 

