v 0.4579819142818451 -0.5316483974456787 -0.10863843560218811
v 0.42844274640083313 -0.01578533463180065 -0.039135344326496124
v 0.6113001108169556 -0.22902891039848328 -0.33294573426246643
v 0.27512452006340027 -0.318404883146286 0.18517202138900757
v -0.043392833322286606 -0.4738440215587616 -0.0013877012534067035
v 0.1394645720720291 -0.6870874762535095 -0.2951982319355011
v 0.1534092128276825 0.2951352894306183 0.2243981659412384
v 9.098440204979852e-05 -0.007484063506126404 0.44870567321777344
v -0.3184262812137604 -0.1629231572151184 0.2621457874774933
v 0.33742523193359375 -0.020149990916252136 0.926162838935852
v 9.101497562369332e-05 -0.007483864668756723 1.3013560771942139
v 0.0712168738245964 0.1601744443178177 1.2024626731872559
v 0.26629942655563354 -0.18780826032161713 1.0250564813613892
v -0.13151194155216217 -0.10899528115987778 1.2084052562713623
v 0.13469640910625458 -0.28931963443756104 0.9321053624153137
v 0.31106171011924744 0.044471438974142075 0.7808151245117188
v 0.10513987392187119 0.21421483159065247 0.8572859168052673
v 0.22431580722332 0.23419123888015747 0.6763514280319214
v 0.19188573956489563 0.024494921788573265 0.9617495536804199
v 0.1492900550365448 -0.16252273321151733 0.8659910559654236
v 0.2684659957885742 -0.14254623651504517 0.685056746006012
v -0.08665463328361511 0.18223625421524048 1.0346481800079346
v 9.11678362172097e-05 -0.0074835894629359245 1.139111876487732
v -0.04250441864132881 -0.19450129568576813 1.0433533191680908
v -0.019744807854294777 -0.2876834571361542 1.484433889389038
v 0.031175702810287476 0.3343123495578766 0.9656771421432495
v 0.005582639016211033 -0.24652446806430817 0.9287807941436768
v 0.005848286207765341 0.2931533455848694 1.5213302373886108
v -0.14339202642440796 0.3051125705242157 1.097145915031433
v -0.2381013184785843 0.08809203654527664 1.0323833227157593
v -0.291907399892807 0.20531561970710754 0.9925904870033264
v -0.08958591520786285 0.18788903951644897 1.136938452720642
v 0.07333351671695709 0.21650876104831696 1.042588233947754
v 0.01952737383544445 0.33373236656188965 1.002795696258545
v -0.14842447638511658 -0.10728059709072113 1.187279224395752
v 9.092326217796654e-05 -0.0074836197309195995 1.2918345928192139
v 0.16301028430461884 0.021136140450835228 1.1974838972091675
v -0.2851540446281433 0.07434520125389099 1.577285885810852
v 0.3456554412841797 -0.027717044577002525 0.9776805639266968
v -0.23369339108467102 0.009035277180373669 0.9287740588188171
v 0.29419487714767456 0.03759276121854782 1.6261924505233765
v -0.4179404079914093 -0.09487514942884445 0.6194354295730591
v -0.1399054378271103 -0.26689594984054565 0.6636488437652588
v -0.31368082761764526 -0.30853599309921265 0.47674670815467834
v -0.24416494369506836 -0.053235072642564774 0.8063374757766724
v -0.23973697423934937 0.17217984795570374 0.6876611113548279
v -0.41351234912872314 0.13053984940052032 0.5007590055465698
v 0.11591096967458725 -0.20141740143299103 0.8312904238700867
v 0.011651475913822651 0.012243515811860561 0.9739789962768555
v 0.01607944443821907 0.23765842616558075 0.8553026914596558
v -0.22083568572998047 0.5024920701980591 0.3186517655849457
v -0.3975031077861786 0.12144436687231064 0.40498533844947815
v -0.48666617274284363 0.3246578872203827 0.1526019275188446
v -0.1316727101802826 0.29927846789360046 0.5710347890853882
v 0.1543104648590088 0.318817675113678 0.40525302290916443
v 0.06514737755060196 0.5220311880111694 0.15286950767040253
v -0.2657395601272583 -0.18531793355941772 0.6369112730026245
v 9.083153418032452e-05 -0.007483803667128086 0.8029608726501465
v 0.2860739827156067 0.012055234983563423 0.6371787786483765
v -0.11704782396554947 0.42734044790267944 0.6541231870651245
v -0.2909219264984131 0.12381912767887115 0.7099970579147339
v -0.33439338207244873 0.29731684923171997 0.49765685200691223
v -0.07357626408338547 0.2538427412509918 0.8664634227752686
v 0.17391908168792725 0.25313714146614075 0.7499348521232605
v 0.13044758141040802 0.42663484811782837 0.5375948548316956
v -0.21725451946258545 -0.13750746846199036 0.9076374769210815
v 9.095000859815627e-05 -0.007483833935111761 1.0641039609909058
v 0.24758628010749817 -0.00818939134478569 0.9475752115249634
v 0.18489396572113037 -0.4447961747646332 0.7407374382019043
v 0.3217652440071106 -0.15110613405704498 0.754281759262085
v 0.37391361594200134 -0.3300115168094635 0.5814291834831238
v 0.13274560868740082 -0.26589080691337585 0.9135900735855103
v -0.09318935126066208 -0.29659929871559143 0.8099935054779053
v -0.041041042655706406 -0.4755045473575592 0.6371408104896545
v 0.23574382066726685 0.10341371595859528 0.9037719368934631
v 0.0467241145670414 -0.011370941065251827 1.0630797147750854
v -0.17921069264411926 -0.04207940027117729 0.9594830274581909
v -0.5302810668945312 -0.41698843240737915 0.13116812705993652
v -0.040373243391513824 -0.48648878931999207 0.19808177649974823
v -0.2559428811073303 -0.6497948169708252 -0.08478187024593353
v -0.31471148133277893 -0.2536821961402893 0.4140319228172302
v -0.4455396234989166 -0.004900439642369747 0.234422966837883
v -0.6611091494560242 -0.16820663213729858 -0.04844070225954056
v 0.2744291424751282 -0.24029047787189484 0.4517965614795685
v 9.089268860407174e-05 -0.007483925670385361 0.6677467226982117
v -0.13073700666427612 0.24129775166511536 0.48813772201538086
v -0.21075475215911865 0.6285449266433716 -0.03823687508702278
v -0.3769848942756653 0.1596839874982834 0.028676774352788925
v -0.4597228765487671 0.4171593487262726 -0.2541870176792145
v -0.12801657617092133 0.37106966972351074 0.24462679028511047
v 0.2126632034778595 0.39020010828971863 0.0650179535150528
v 0.12992502748966217 0.6476753950119019 -0.2178458422422409
v -0.24887734651565552 -0.21886923909187317 0.28239142894744873
v 9.095382847590372e-05 -0.0074837421998381615 0.68619304895401
v 0.34077075123786926 0.011646767146885395 0.31873273849487305
v -0.6823854446411133 0.1290384978055954 -0.26169389486312866
v -0.3445812165737152 -0.2619544565677643 -0.1921907365322113
v -0.6195152401924133 -0.20432664453983307 -0.486001193523407
v -0.4074515402317047 0.07141080498695374 0.03211669251322746
v -0.24964919686317444 0.38876399397850037 -0.1544429063796997
v -0.5245831608772278 0.44639164209365845 -0.4482535123825073
v 0.06296111643314362 -0.340848833322525 0.071342833340168
v 9.083153418032452e-05 -0.007483708206564188 0.2956502139568329
v 0.15789328515529633 0.30986934900283813 0.10909035801887512
v -0.5312461256980896 -0.5699337720870972 -0.6319635510444641
v 0.007541922386735678 -0.446736603975296 -0.6659334897994995
v -0.21204419434070587 -0.7267740964889526 -0.867121696472168
v -0.3116599917411804 -0.2898961901664734 -0.43077513575553894
v -0.47869279980659485 0.042010121047496796 -0.6263599395751953
v -0.698279082775116 -0.2380274087190628 -0.8275481462478638
v 0.32995036244392395 -0.15443076193332672 -0.38965147733688354
v 0.01074843481183052 0.0024094816762953997 -0.15449322760105133
v -0.15628419816493988 0.3343158960342407 -0.3500777781009674
v -0.24356865882873535 -0.6594366431236267 -0.45768317580223083
v 0.19631122052669525 -0.3883405923843384 -0.38818010687828064
v 0.0955570712685585 -0.6505585312843323 -0.6819904446601868
v -0.142814502120018 -0.39721864461898804 -0.16387268900871277
v -0.4309259355068207 -0.19080525636672974 -0.350432425737381
v -0.5316799283027649 -0.4530232548713684 -0.6442429423332214
v 0.33921676874160767 0.001394146354869008 -0.1246466264128685
v 9.112962288782e-05 -0.007483803667128086 0.09966087341308594
v -0.2880202531814575 0.19892944395542145 -0.08689891546964645
v -0.43461814522743225 0.51995849609375 -0.8262948989868164
v -0.4468594193458557 -0.01215045340359211 -0.7019461393356323
v -0.6201316118240356 0.1954142302274704 -1.0313411951065063
v -0.26134586334228516 0.31239384412765503 -0.49689993262290955
v 0.08450717478990555 0.42887818813323975 -0.7045828700065613
v -0.08876518905162811 0.636443018913269 -1.0339776277542114
v -0.18542245030403137 -0.3320281505584717 -0.39364370703697205
v 9.095382847590372e-05 -0.007483955938369036 -0.1885974109172821
v 0.34594404697418213 0.10900044441223145 -0.3962802290916443
v -0.14661921560764313 0.8179547786712646 -0.4577517509460449
v -0.39676326513290405 0.15517611801624298 -0.44150426983833313
v -0.4513522684574127 0.5753169655799866 -0.6830117702484131
v -0.09203008562326431 0.39781394600868225 -0.21624431014060974
v 0.3044189214706421 0.3511389195919037 -0.40867865085601807
v 0.24982993304729462 0.7712796330451965 -0.6501861214637756
v -0.304641991853714 -0.2501213252544403 -0.09049059450626373
v 9.104936907533556e-05 -0.0074836197309195995 0.13476936519145966
v 0.3965400159358978 -0.05415862053632736 -0.05766516178846359
v 0.6480997204780579 0.06861313432455063 -0.6137794256210327
v 0.208718404173851 0.3460800051689148 -0.48487257957458496
v 0.45228248834609985 0.37254196405410767 -0.8228567242622375
v 0.40453577041625977 0.0421510674059391 -0.27579525113105774
v 0.32466211915016174 -0.3196466863155365 -0.37551432847976685
v 0.5682259798049927 -0.29318472743034363 -0.713498592376709
v -0.17412376403808594 0.2985937297344208 -0.15907570719718933
v 0.021693328395485878 -0.005335020832717419 0.050001610070466995
v -0.058180246502161026 -0.3671328127384186 -0.04971741512417793
v 0.4445568323135376 0.5281116366386414 -0.2622261643409729
v -0.060000043362379074 0.4167132079601288 -0.192722886800766
v 0.1213659718632698 0.6312265396118164 -0.486533522605896
v 0.2631908655166626 0.31359827518463135 0.03158436343073845
v 0.4674191176891327 0.023933852091431618 -0.15497536957263947
v 0.6487850546836853 0.23844726383686066 -0.4487859010696411
v -0.32309967279434204 0.09563112258911133 0.07081037759780884
v 9.11678362172097e-05 -0.007483819033950567 0.2951177656650543
v 0.20431940257549286 -0.2971481680870056 0.10855790227651596
v 0.5324618816375732 0.3479937016963959 -0.8662234544754028
v 0.037773966789245605 0.40944015979766846 -0.7497621774673462
v 0.24748505651950836 0.5513823628425598 -1.0582637786865234
v 0.32275092601776123 0.2060515582561493 -0.5577219128608704
v 0.3987713158130646 -0.12718163430690765 -0.7522315979003906
v 0.6084824800491333 0.014760660007596016 -1.0607331991195679
v -0.2848856747150421 0.1959047019481659 -0.46101510524749756
v 9.113726991927251e-05 -0.007483833935111761 -0.2689747214317322
v 0.07611175626516342 -0.3407169282436371 -0.46348434686660767
v 0.38685572147369385 -0.6262133717536926 -0.7280263900756836
v 0.4420941472053528 -0.0873333066701889 -0.5918430089950562
v 0.5958951711654663 -0.33847853541374207 -0.8998667001724243
v 0.23305456340312958 -0.3750680983066559 -0.42000284790992737
v -0.12249784171581268 -0.4829763174057007 -0.5522693991661072
v 0.0313032828271389 -0.7341216802597046 -0.8602932691574097
v 0.20913070440292358 0.2802504599094391 -0.31556111574172974
v 9.12289833649993e-05 -0.00748401740565896 -0.14372093975543976
v -0.3554611802101135 -0.11539242416620255 -0.2759874165058136
v -0.33893564343452454 -0.49294525384902954 -0.12876354157924652
v 0.09254353493452072 -0.4220964014530182 -0.06963309645652771
v -0.04608277603983879 -0.6167668700218201 -0.3195946514606476
v -0.20030945539474487 -0.2982746660709381 0.12119800597429276
v -0.3939034044742584 -0.06710449606180191 -0.037519149482250214
v -0.5325296521186829 -0.2617749869823456 -0.28748056292533875
v 0.29294392466545105 -0.1313055455684662 0.15456995368003845
v 9.10761154955253e-05 -0.007483819033950567 0.40614524483680725
v -0.19350293278694153 0.22368638217449188 0.18668389320373535
v 0.6095486879348755 0.19810745120048523 0.20603570342063904
v 0.1404421627521515 0.3541865050792694 0.2244601547718048
v 0.4587124288082123 0.4537830352783203 0.05191497132182121
v 0.2912784814834595 0.09851095825433731 0.37858065962791443
v 0.2943686842918396 -0.16752804815769196 0.22470830380916595
v 0.6126389503479004 -0.06793154776096344 0.052163224667310715
v -0.15074501931667328 0.24819187819957733 0.4397245943546295
v 9.11678362172097e-05 -0.007483765482902527 0.6980267763137817
v 0.0031813969835639 -0.27352282404899597 0.4399728775024414
v 0.4917036294937134 0.04251129925251007 0.5408927798271179
v 0.21192216873168945 0.2767733037471771 0.5902389883995056
v 0.41051679849624634 0.2951289415359497 0.38163790106773376
v 0.2931089997291565 0.024155564606189728 0.7494942545890808
v 0.25235840678215027 -0.22415709495544434 0.6170393824577332
v 0.45095300674438477 -0.205801323056221 0.40843793749809265
v -0.08109573274850845 0.24513398110866547 0.777344286441803
v 9.10761154955253e-05 -0.007483711466193199 0.93659907579422
v -0.0406595878303051 -0.25579631328582764 0.8041442632675171
v -0.22981318831443787 -0.18988767266273499 0.9146094918251038
v 0.06512122601270676 -0.1771419644355774 1.0498552322387695
v -0.08192707598209381 -0.2933993339538574 0.8128101825714111
v -0.08276483416557312 -0.07363032549619675 1.1516544818878174
v -0.14177431166172028 0.08811819553375244 1.070296287536621
v -0.2888227105140686 -0.028139160946011543 0.8332516551017761
v 0.14797693490982056 -0.11099559813737869 1.118748426437378
v 9.080096788238734e-05 -0.007483898662030697 1.2205482721328735
v -0.058918606489896774 0.15426453948020935 1.1391900777816772
v 0.7031847238540649 0.05579930171370506 -0.12092873454093933
v 0.3867562711238861 0.2037903368473053 -0.08093338459730148
v 0.6195598244667053 0.20776046812534332 -0.31515493988990784
v 0.47038114070892334 0.05182913690805435 0.1132928803563118
v 0.451307475566864 -0.1381496787071228 -0.04093277454376221
v 0.6819205284118652 -0.13169965147972107 -0.24885280430316925
v 0.22068388760089874 0.19297894835472107 0.025061611086130142
v 0.30430883169174194 0.041017796844244 0.21928763389587402
v 0.28304460644721985 -0.14648117125034332 0.09136368334293365
v 0.0596255399286747 0.17649132013320923 0.07085354626178741
v 0.14325033128261566 0.024530166760087013 0.26507967710494995
v 0.12198615074157715 -0.16296879947185516 0.13715562224388123
v -0.036147549748420715 -0.7693405747413635 -0.26878786087036133
v 0.15395013988018036 -0.5072054266929626 -0.22815214097499847
v 0.11695894598960876 -0.7171904444694519 -0.44838476181030273
v 0.0008435577037744224 -0.5593556761741638 -0.048555225133895874
v -0.1690279096364975 -0.506919264793396 -0.1910012811422348
v -0.20337504148483276 -0.715667724609375 -0.38680312037467957
v 0.17306099832057953 -0.35525816679000854 -0.12772364914417267
v 0.019954469054937363 -0.40740838646888733 0.05187339335680008
v -0.14727303385734558 -0.3537355363368988 -0.06614205986261368
v 0.1861199140548706 -0.2061413675546646 -0.08321575820446014
v 0.03301342576742172 -0.2582915425300598 0.09638115763664246
v -0.13421405851840973 -0.2046186625957489 -0.021634237840771675
v 0.22584883868694305 -0.5367715358734131 0.2989952266216278
v 0.389463871717453 -0.1446104496717453 0.35645774006843567
v 0.47861596941947937 -0.35906150937080383 0.11354675889015198
v 0.1366966962814331 -0.3223205506801605 0.5419062376022339
v -0.15349237620830536 -0.362965852022171 0.38766589760780334
v -0.06434012949466705 -0.5774168372154236 0.144755020737648
v 0.33004030585289 -0.0076566156931221485 0.49263033270835876
v 0.07727319747209549 -0.185366690158844 0.6780788898468018
v -0.21291589736938477 -0.22601190209388733 0.5238386988639832
v 0.25285807251930237 0.17022594809532166 0.5743367671966553
v 9.094618872040883e-05 -0.007484078872948885 0.7597852349281311
v -0.29009810090065 -0.04812926799058914 0.605545163154602
v 0.31618279218673706 0.5806325078010559 0.15126846730709076
v 0.08068373799324036 0.4967056214809418 0.11045389622449875
v 0.14331454038619995 0.594841718673706 -0.04295773059129715
v 0.2535519599914551 0.4824964106082916 0.3046799302101135
v 0.3997577726840973 0.36144670844078064 0.16360516846179962
v 0.46074995398521423 0.45935457944869995 0.023344464600086212
v 0.01805291324853897 0.39856964349746704 0.22913497686386108
v 0.19092120230197906 0.38436025381088257 0.42336124181747437
v -0.06465151160955429 0.254150390625 0.2972589433193207
v 0.10821676254272461 0.23994114995002747 0.4914848208427429
v 0.25278398394584656 0.11866321414709091 0.3635610044002533
v 0.33876556158065796 0.2635389566421509 0.26913559436798096
v -0.13985469937324524 0.11077633500099182 0.34305086731910706
v 0.03301345929503441 0.09656703472137451 0.5372769236564636
v 0.17758069932460785 -0.024710917845368385 0.4093529284000397
v -0.2682393193244934 -0.5378850698471069 0.40374457836151123
v -0.05615127831697464 -0.4989331364631653 0.4346424341201782
v -0.08692846447229385 -0.5513210892677307 0.24448934197425842
v -0.23746219277381897 -0.4854971170425415 0.5938972234725952
v -0.3540251553058624 -0.368696928024292 0.4491402804851532
v -0.38480228185653687 -0.4210849404335022 0.2712898552417755
v -0.0104436706751585 -0.41058334708213806 0.5206605195999146
v -0.19175460934638977 -0.39714720845222473 0.6799155473709106
v 0.05573536455631256 -0.27947649359703064 0.5871047973632812
v -0.12557554244995117 -0.2660404443740845 0.7463599443435669
v -0.24213846027851105 -0.14924030005931854 0.6139050722122192
v -0.3083174526691437 -0.2803470492362976 0.5228563547134399
v 0.12191443890333176 -0.14836975932121277 0.640195906162262
v -0.05939644202589989 -0.13493363559246063 0.7994511127471924
v -0.17595934867858887 -0.018133442848920822 0.6669963002204895
v 0.20654338598251343 -0.22067411243915558 0.6394428610801697
v 0.06693785637617111 -0.4175345003604889 0.780079185962677
v 0.07358213514089584 -0.24842141568660736 0.7826887369155884
v 0.19989903271198273 -0.3897871971130371 0.6368326544761658
v -0.09228406846523285 -0.2530152499675751 0.6735551357269287
v -0.09892835468053818 -0.42212846875190735 0.6709449887275696
v 0.21615485846996307 -0.04084894061088562 0.6824004054069519
v 0.08319355547428131 -0.06859610974788666 0.8256465792655945
v 0.06317267566919327 -0.5768697261810303 0.756066620349884
v 0.19613392651081085 -0.5491223931312561 0.6128208637237549
v -0.0826726108789444 -0.07318998128175735 0.7165127396583557
v -0.10269353538751602 -0.5814635753631592 0.6469334363937378
v -0.02744949981570244 0.23180508613586426 0.8567225337028503
v 0.2207375466823578 0.23754827678203583 0.9211379885673523
v 0.1396496742963791 0.1405373215675354 0.9808176755905151
v 0.05363839492201805 0.32881593704223633 0.7970425486564636
v 0.2540154457092285 -0.0059919157065451145 0.8856217265129089
v 0.3351033329963684 0.09101899713277817 0.8259411454200745
v -0.10310246050357819 0.14342445135116577 0.9564324617385864
v 0.06399670243263245 0.05215651914477348 1.080527663230896
v 0.3072604537010193 0.343189001083374 0.8997631669044495
v 0.14016138017177582 0.4344569444656372 0.7756677865982056
v 0.17836247384548187 -0.09437266737222672 0.9853312969207764
v 0.4216262400150299 0.19665978848934174 0.8045666813850403
v 0.020501758903265 0.2056787610054016 0.986750602722168
v 0.23527267575263977 0.1254158318042755 1.1329814195632935
v 0.11418245732784271 0.06776218861341476 1.1411995887756348
v 0.14159215986728668 0.263332337141037 0.9785319566726685
v 0.18398627638816833 -0.11539743095636368 1.0691397190093994
v 0.3050766885280609 -0.057743873447179794 1.0609207153320312
v -0.10057169944047928 0.15643616020679474 1.0667067766189575
v -0.006891089957207441 0.018519461154937744 1.2211560010910034
v 0.35672760009765625 0.19137944281101227 1.0516235828399658
v 0.26304715871810913 0.32929614186286926 0.8971746563911438
v 0.06291288882493973 -0.16464018821716309 1.1490956544876099
v 0.4265316426753998 0.008219795301556587 0.9795635938644409
v -0.4956277310848236 0.15477237105369568 0.07682929188013077
v -0.4878247380256653 -0.14258228242397308 0.21954846382141113
v -0.5860083103179932 -0.09109631180763245 -0.014061192981898785
v -0.3974442183971405 0.10328630357980728 0.31043872237205505
v -0.19138853251934052 0.19615361094474792 0.19282804429531097
v -0.28957197070121765 0.24763979017734528 -0.04078168421983719
v -0.3211786448955536 -0.24789810180664062 0.4623875617980957
v -0.23079785704612732 -0.002029462717473507 0.5532777905464172
v -0.024742284789681435 0.0908379927277565 0.4356672465801239
vn 0.5281488299369812 -0.496375173330307 0.6889633536338806
vn 0.8012192249298096 0.03675900027155876 0.5972407460212708
vn 0.8405764102935791 -0.02477407269179821 0.5411261320114136
vn 0.4652870297431946 -0.42495086789131165 0.776482343673706
vn -0.02063518948853016 -0.7505054473876953 0.6605420112609863
vn 0.03677664324641228 -0.7977410554885864 0.6018775105476379
vn 0.7480600476264954 0.10652308911085129 0.6550259590148926
vn 0.40730026364326477 -0.3534805178642273 0.8421151638031006
vn -0.08664464205503464 -0.6876404881477356 0.7208629846572876
vn 0.7427013516426086 0.07726357877254486 0.6651504039764404
vn 0.5068375468254089 -0.411998987197876 0.7572136521339417
vn 0.7427014708518982 0.0772627517580986 0.6651504635810852
vn 0.5231790542602539 -0.3892699182033539 0.7581243515014648
vn 0.14066818356513977 -0.7616077065467834 0.6325867772102356
vn 0.1406678557395935 -0.7616083025932312 0.6325863599777222
vn 0.825937032699585 0.09918078780174255 0.5549694895744324
vn 0.5887821912765503 0.5794847011566162 0.563500702381134
vn 0.6548134088516235 0.5716382265090942 0.49441808462142944
vn 0.7469373941421509 0.08229723572731018 0.6597815752029419
vn 0.719865620136261 -0.4391787648200989 0.5375086069107056
vn 0.7795512676239014 -0.4168947637081146 0.46743836998939514
vn 0.4978082776069641 0.5817787647247314 0.6432110667228699
vn 0.6729432344436646 0.05510959029197693 0.7376382946968079
vn 0.642977774143219 -0.45999300479888916 0.6123610734939575
vn 0.9980265498161316 -0.04664572700858116 0.04203623905777931
vn 0.9980265498161316 -0.04664572700858116 0.04203623905777931
vn 0.9980265498161316 -0.046645697206258774 0.0420362614095211
vn 0.9980265498161316 -0.04664574936032295 0.04203620180487633
vn -0.12901665270328522 0.265146404504776 0.9555375576019287
vn -0.6257119178771973 0.12437757849693298 0.7700744867324829
vn -0.5801832675933838 0.010158317163586617 0.814422607421875
vn -0.17338036000728607 0.4174913167953491 0.8919867277145386
vn 0.336988627910614 0.5648634433746338 0.753238320350647
vn 0.3867759704589844 0.45064777135849 0.8045626282691956
vn -0.6646745800971985 0.2524247467517853 0.703199565410614
vn -0.2110716551542282 0.5459396839141846 0.8108012676239014
vn 0.2791946530342102 0.6719735264778137 0.6859314441680908
vn -0.07096017897129059 -0.9930048584938049 0.09437199681997299
vn -0.0709601566195488 -0.9930048584938049 0.09437201917171478
vn -0.07096007466316223 -0.9930048584938049 0.09437210112810135
vn -0.07096026092767715 -0.9930048584938049 0.09437189996242523
vn -0.6985741853713989 -0.18597865104675293 0.6909457445144653
vn -0.4111538827419281 -0.6364515423774719 0.6525962352752686
vn -0.4887959957122803 -0.636763334274292 0.5963311791419983
vn -0.6047267913818359 -0.15928426384925842 0.7803422212600708
vn -0.6584693789482117 0.3606966733932495 0.6605421900749207
vn -0.726692795753479 0.3311513662338257 0.6018773317337036
vn -0.3078703284263611 -0.6277123689651489 0.7149776816368103
vn -0.5216893553733826 -0.12317990511655807 0.8441960215568542
vn -0.5724156498908997 0.3907639980316162 0.7208632826805115
vn -0.24380825459957123 0.7115081548690796 0.6590247750282288
vn -0.6577941179275513 0.3714960515499115 0.655208170413971
vn -0.6693432331085205 0.4451083242893219 0.5948597192764282
vn -0.20298811793327332 0.6268794536590576 0.7522087693214417
vn 0.30234456062316895 0.7340503931045532 0.6080772280693054
vn 0.2628304362297058 0.7947568297386169 0.5470664501190186
vn -0.6346072554588318 0.2738133370876312 0.722703218460083
vn -0.15501506626605988 0.5525633096694946 0.8189286589622498
vn 0.34456440806388855 0.6558272242546082 0.6716888546943665
vn -0.24620984494686127 0.7252334952354431 0.6429752111434937
vn -0.6819626092910767 0.41638311743736267 0.6012918949127197
vn -0.6830204725265503 0.49084174633026123 0.5408857464790344
vn -0.21962589025497437 0.6375417709350586 0.7384477257728577
vn 0.3024853765964508 0.7079910635948181 0.6381624341011047
vn 0.2727549076080322 0.7716224193572998 0.5746334195137024
vn -0.6716864705085754 0.3170446455478668 0.6695671081542969
vn -0.18295779824256897 0.5596994161605835 0.808246910572052
vn 0.33341509103775024 0.6266830563545227 0.7043456435203552
vn 0.3023986518383026 -0.6152505278587341 0.7280259132385254
vn 0.7125537395477295 -0.28132402896881104 0.6427472233772278
vn 0.7194548845291138 -0.3626132011413574 0.592365026473999
vn 0.2690108120441437 -0.5183617472648621 0.811747670173645
vn -0.24595627188682556 -0.6415511965751648 0.7265794277191162
vn -0.21132124960422516 -0.7103053331375122 0.671423614025116
vn 0.6945078372955322 -0.1751442700624466 0.6978418231010437
vn 0.22634245455265045 -0.43529289960861206 0.8713720440864563
vn -0.283174991607666 -0.5550736784934998 0.7821158170700073
vn -0.5769714117050171 -0.4353649914264679 0.6910581588745117
vn -0.121038518846035 -0.7479759454727173 0.6525960564613342
vn -0.19202302396297455 -0.7794330716133118 0.5963313579559326
vn -0.49237900972366333 -0.3803825378417969 0.7828614711761475
vn -0.7556373476982117 0.0725889503955841 0.6509555578231812
vn -0.7990856766700745 0.01371859572827816 0.601060688495636
vn -0.029953215271234512 -0.6985057592391968 0.7149772644042969
vn -0.4216171205043793 -0.33091017603874207 0.844237744808197
vn -0.6888216137886047 0.14983223378658295 0.7092779278755188
vn -0.2945423126220703 0.6622495651245117 0.6889633536338806
vn -0.752865195274353 0.27658164501190186 0.597240686416626
vn -0.7653040885925293 0.34855809807777405 0.5411257147789001
vn -0.28010478615760803 0.6178280115127563 0.7347311973571777
vn 0.30984050035476685 0.6838736534118652 0.6605420112609863
vn 0.27521783113479614 0.7496657371520996 0.6018775105476379
vn -0.8275285959243774 0.20304232835769653 0.5234215259552002
vn -0.28872817754745483 0.6838685870170593 0.6700445413589478
vn 0.43507641553878784 0.6873701810836792 0.5815761685371399
vn -0.7212437987327576 0.07167230546474457 0.6889632344245911
vn -0.6128337979316711 -0.5174342393875122 0.5972408056259155
vn -0.681537926197052 -0.49263402819633484 0.5411263108253479
vn -0.6278762817382812 0.053354717791080475 0.7764822244644165
vn -0.4410233199596405 0.6076037883758545 0.6605421900749207
vn -0.5153288245201111 0.610065221786499 0.6018776297569275
vn -0.5281705856323242 -0.5403487086296082 0.6550261378288269
vn -0.5383455753326416 0.03202997148036957 0.8421152234077454
vn -0.3503764569759369 0.5979908108711243 0.7208629250526428
vn -0.2762110233306885 -0.40844354033470154 0.869989275932312
vn 0.15930038690567017 -0.7077481150627136 0.6882702708244324
vn 0.1982458084821701 -0.6696523427963257 0.7157264947891235
vn -0.35392075777053833 -0.3773044943809509 0.8557928204536438
vn -0.7000481486320496 0.06666125357151031 0.7109774351119995
vn -0.7115561962127686 0.054693449288606644 0.7004972696304321
vn 0.11566991358995438 -0.7467003464698792 0.6550259590148926
vn -0.3484695255756378 -0.4115954339504242 0.8421152234077454
vn -0.6886494159698486 0.07822297513484955 0.7208627462387085
vn -0.18582580983638763 -0.7005698084831238 0.6889635920524597
vn 0.41303128004074097 -0.6875380873680115 0.5972408652305603
vn 0.3775874078273773 -0.7514054179191589 0.5411262512207031
vn -0.15284621715545654 -0.6113209128379822 0.776482343673706
vn -0.6701843738555908 -0.33843332529067993 0.6605420112609863
vn -0.6844693422317505 -0.41139400005340576 0.6018776297569275
vn 0.4491598904132843 -0.6076152920722961 0.6550260186195374
vn -0.11750995367765427 -0.5263395309448242 0.8421153426170349
vn -0.6462318897247314 -0.25048163533210754 0.7208629846572876
vn -0.4869001507759094 0.600354015827179 0.6344315409660339
vn -0.8015997409820557 0.08424624055624008 0.591895580291748
vn -0.8359269499778748 0.1430559903383255 0.5298689603805542
vn -0.42993173003196716 0.5328696966171265 0.7288406491279602
vn 0.08039560168981552 0.8062487840652466 0.586088240146637
vn 0.026931632310152054 0.8520604372024536 0.5227502584457397
vn -0.7541707158088684 0.016333887353539467 0.6564751267433167
vn -0.37782666087150574 0.46363189816474915 0.8014315366744995
vn 0.1411837935447693 0.7444050908088684 0.6526317596435547
vn -0.13289064168930054 0.4809025526046753 0.866644561290741
vn -0.7143504023551941 0.31885504722595215 0.6229245066642761
vn -0.7053514719009399 0.2821528911590576 0.6502838134765625
vn -0.20313170552253723 0.5432174801826477 0.8146486282348633
vn 0.41158705949783325 0.5725521445274353 0.7090699672698975
vn 0.426394522190094 0.4917888045310974 0.7591650485992432
vn -0.7213335633277893 0.3524138927459717 0.5962234139442444
vn -0.20482374727725983 0.6137746572494507 0.7624486684799194
vn 0.3919627070426941 0.6515752673149109 0.6494728326797485
vn 0.779229462146759 0.2372114062309265 0.5801138281822205
vn 0.5017423033714294 0.6858687996864319 0.5271040201187134
vn 0.566500186920166 0.682587742805481 0.4616834223270416
vn 0.7062104940414429 0.2063474804162979 0.6772646307945251
vn 0.7106090784072876 -0.328386127948761 0.6222518086433411
vn 0.7802595496177673 -0.32032230496406555 0.5372044444084167
vn 0.42272770404815674 0.6825091242790222 0.5962235927581787
vn 0.6237667798995972 0.18358689546585083 0.7597439289093018
vn 0.6348109841346741 -0.3323962688446045 0.6975153684616089
vn 0.40583160519599915 0.6005250811576843 0.6889632940292358
vn -0.16401639580726624 0.785112738609314 0.5972407460212708
vn -0.10954432189464569 0.8337762951850891 0.5411257743835449
vn 0.34534186124801636 0.527080774307251 0.776482343673706
vn 0.7441970109939575 0.09927166998386383 0.6605421900749207
vn 0.7816762328147888 0.16347961127758026 0.6018776297569275
vn -0.22441396117210388 0.7215116620063782 0.6550261378288269
vn 0.28402939438819885 0.45844194293022156 0.8421154022216797
vn 0.6926588416099548 0.024084504693746567 0.7208631038665771
vn 0.6462090611457825 0.4241583049297333 0.6344316005706787
vn 0.1643081158399582 0.7890896201133728 0.5918956398963928
vn 0.22626739740371704 0.8173379898071289 0.529869556427002
vn 0.5733456611633301 0.37425413727760315 0.7288405895233154
vn 0.794101893901825 -0.16094397008419037 0.5860881209373474
vn 0.8450502157211304 -0.11235012859106064 0.5227500200271606
vn 0.09197675436735153 0.7487193942070007 0.6564750671386719
vn 0.49922579526901245 0.3293645679950714 0.8014315366744995
vn 0.7264670133590698 -0.2152150422334671 0.6526317596435547
vn 0.4472321569919586 -0.5707343220710754 0.6886550188064575
vn 0.7477655410766602 -0.15813234448432922 0.6448572874069214
vn 0.7851966023445129 -0.2261694222688675 0.5764665603637695
vn 0.3990685045719147 -0.4948751628398895 0.7719086408615112
vn -0.04582830145955086 -0.7101477980613708 0.7025595307350159
vn 0.00012018816050840542 -0.7750046849250793 0.6319555044174194
vn 0.7014373540878296 -0.08713231980800629 0.7073850035667419
vn 0.3497951626777649 -0.41104617714881897 0.8418338894844055
vn -0.09254828840494156 -0.6350646018981934 0.7668949365615845
vn -0.4044766426086426 -0.5991598963737488 0.6909458041191101
vn 0.10816355794668198 -0.749946117401123 0.6525959372520447
vn 0.049833402037620544 -0.801190197467804 0.5963312387466431
vn -0.36390551924705505 -0.5345586538314819 0.7627711296081543
vn -0.7333962321281433 -0.1606685370206833 0.660541832447052
vn -0.7654194235801697 -0.2277643382549286 0.6018775105476379
vn 0.19931809604167938 -0.7213782668113708 0.6632387042045593
vn -0.3727860152721405 -0.5055573582649231 0.7781018018722534
vn -0.7454255223274231 -0.07340195775032043 0.6625353097915649
vn 0.44699546694755554 0.1096314936876297 0.8877928256988525
vn 0.2673800587654114 0.6082466840744019 0.7473579049110413
vn 0.22916322946548462 0.5981131196022034 0.767948567867279
vn 0.5402390956878662 0.13993525505065918 0.8297951221466064
vn 0.5831474661827087 -0.40164127945899963 0.7061326503753662
vn 0.53058260679245 -0.41975823044776917 0.7364000678062439
vn 0.3257403075695038 0.7042703628540039 0.6307904124259949
vn 0.6991432905197144 0.17134013772010803 0.6941477060317993
vn 0.6920446157455444 -0.44169166684150696 0.5709488987922668
vn 0.7179498076438904 0.08451085537672043 0.6909456849098206
vn 0.4976707696914673 0.5713516473770142 0.6525956392288208
vn 0.5745640397071838 0.5605931878089905 0.5963315367698669
vn 0.6212561130523682 0.071465402841568 0.7803420424461365
vn 0.6003358364105225 -0.4508671760559082 0.6605420112609863
vn 0.6720737218856812 -0.4313472509384155 0.6018774509429932
vn 0.3941963315010071 0.5774227976799011 0.7149770259857178
vn 0.5339204668998718 0.0475647859275341 0.8441957831382751
vn 0.5108752250671387 -0.4683622419834137 0.7208629250526428
vn -0.6002335548400879 -0.505164384841919 0.6201037764549255
vn -0.12155422568321228 -0.7788289785385132 0.6153454780578613
vn -0.2084111124277115 -0.8207982182502747 0.5318412184715271
vn -0.5112215280532837 -0.42633047699928284 0.7462538480758667
vn -0.7749191522598267 0.03473272919654846 0.631105363368988
vn -0.841312050819397 -0.035629697144031525 0.5393742918968201
vn -0.015202639624476433 -0.7120612263679504 0.7019528150558472
vn -0.42290711402893066 -0.3435952365398407 0.8385058045387268
vn -0.6863417625427246 0.1111270934343338 0.7187390327453613
vn 0.6835387945175171 0.18196529150009155 0.706868588924408
vn 0.3631904423236847 0.8032581210136414 0.47209012508392334
vn 0.42582085728645325 0.7924590706825256 0.43667522072792053
vn 0.608147919178009 0.17977836728096008 0.7731984853744507
vn 0.5692529678344727 -0.5419785380363464 0.6182315349578857
vn 0.5873882174491882 -0.5005162954330444 0.6359706521034241
vn 0.1853228211402893 0.8110842704772949 0.5547952651977539
vn 0.3855491876602173 0.1785799264907837 0.9052408337593079
vn 0.4037109613418579 -0.5615053176879883 0.722308337688446
vn 0.08583005517721176 0.8022806644439697 0.5907444953918457
vn 0.2525429427623749 0.175702303647995 0.9514991641044617
vn 0.2788708209991455 -0.5626111030578613 0.7782670855522156
vn 0.05033082142472267 -0.7149819731712341 0.6973289251327515
vn 0.7207365036010742 -0.5139389038085938 0.46519434452056885
vn 0.6983601450920105 -0.5729441046714783 0.42898499965667725
vn 0.06235150992870331 -0.6414203643798828 0.7646516561508179
vn -0.6392508745193481 -0.4655422270298004 0.6120692491531372
vn -0.6019334197044373 -0.4913807511329651 0.6294610500335693
vn 0.7618474960327148 -0.3418356776237488 0.5502152442932129
vn 0.10300522297620773 -0.42435353994369507 0.8996188044548035
vn -0.627321183681488 -0.3006921410560608 0.718367874622345
vn 0.771896243095398 -0.24295225739479065 0.5874950289726257
vn 0.12517207860946655 -0.2938075065612793 0.9476333856582642
vn -0.6049482226371765 -0.17862972617149353 0.7759697437286377
vn 0.294107049703598 -0.6603748202323914 0.6909457445144653
vn 0.7030088901519775 -0.3597109913825989 0.6135033965110779
vn 0.7060465812683105 -0.38195154070854187 0.5963314771652222
vn 0.2776946723461151 -0.6378663778305054 0.7183398008346558
vn -0.22257661819458008 -0.7543805241584778 0.6175513863563538
vn -0.21206969022750854 -0.7699153423309326 0.601877748966217
vn 0.672431468963623 -0.2184559553861618 0.7071866393089294
vn 0.21761730313301086 -0.4845951497554779 0.8472368121147156
vn -0.29219284653663635 -0.6333054304122925 0.7166223526000977
vn 0.627040684223175 -0.08367057144641876 0.7744799256324768
vn 0.15158216655254364 -0.3575109541416168 0.9215251803398132
vn -0.3463423252105713 -0.5114908218383789 0.7863995432853699
vn 0.25771644711494446 0.7573543787002563 0.5999971032142639
vn -0.3897090554237366 0.825982928276062 0.40728262066841125
vn -0.3683471381664276 0.844118058681488 0.389596164226532
vn 0.2545730769634247 0.7067379951477051 0.660086452960968
vn 0.7695400714874268 0.27567872405052185 0.5760288834571838
vn 0.7645347118377686 0.3229142129421234 0.5578646659851074
vn -0.49785852432250977 0.711979329586029 0.4951993227005005
vn 0.15643613040447235 0.5390063524246216 0.8276472687721252
vn -0.6008214354515076 0.5549613237380981 0.5753532648086548
vn 0.02318611927330494 0.35468870401382446 0.9346969723701477
vn 0.6640072464942932 -0.036569271236658096 0.7468312978744507
vn 0.7553504705429077 0.12426970154047012 0.6434304714202881
vn -0.621429443359375 0.5146318674087524 0.5907447934150696
vn -0.007003676146268845 0.3075715899467468 0.9514991641044617
vn 0.6230407953262329 -0.07823105156421661 0.7782673239707947
vn -0.40670648217201233 -0.8601601123809814 0.30775725841522217
vn 0.25470247864723206 -0.8952812552452087 0.3655107021331787
vn 0.1411157101392746 -0.9600461721420288 0.24165630340576172
vn -0.3484821617603302 -0.7151553630828857 0.6058985590934753
vn -0.8443872332572937 -0.3426724374294281 0.4118080139160156
vn -0.8209631443023682 -0.4933777153491974 0.2873985767364502
vn 0.46352484822273254 -0.6664456129074097 0.5839477181434631
vn -0.23136496543884277 -0.4881438612937927 0.8415377140045166
vn 0.5242783427238464 -0.5572459101676941 0.6439016461372375
vn -0.14075399935245514 -0.350450336933136 0.9259442687034607
vn -0.7488532662391663 0.042101118713617325 0.6613972187042236
vn -0.8109583854675293 -0.04893402382731438 0.5830540060997009
vn 0.5348808765411377 -0.53486168384552 0.6540836691856384
vn -0.11601578444242477 -0.3219366669654846 0.9396260976791382
vn -0.7132992744445801 0.07800664007663727 0.6965049505233765
vn 0.7391219139099121 -0.12115442752838135 0.6625861525535583
vn 0.11855984479188919 -0.08479028195142746 0.9893200397491455
vn 0.13015910983085632 -0.13169899582862854 0.9827074408531189
vn 0.7381073832511902 -0.07601045072078705 0.6703879237174988
vn -0.5468056797981262 -0.07253112643957138 0.8341120481491089
vn -0.5477336049079895 -0.055550966411828995 0.8348065614700317
vn 0.737459659576416 -0.19396139681339264 0.6469406485557556
vn 0.18566277623176575 -0.23768575489521027 0.9534331560134888
vn 0.0831269919872284 -0.15042410790920258 0.9851205945014954
vn 0.7390960454940796 -0.1174221932888031 0.663286566734314
vn -0.5385426878929138 -0.16843755543231964 0.8255910873413086
vn -0.5439922213554382 -0.11245409399271011 0.8315206170082092
vn -0.14048264920711517 0.6978050470352173 0.7023765444755554
vn 0.1506432592868805 0.25370439887046814 0.9554792642593384
vn 0.324658066034317 0.4493124186992645 0.832295298576355
vn -0.28461480140686035 0.548202633857727 0.7864275574684143
vn 0.6735113263130188 0.046397097408771515 0.7377192378044128
vn 0.544816792011261 -0.11446258425712585 0.8307062387466431
vn -0.05502093955874443 0.7675644159317017 0.6386058926582336
vn 0.40079089999198914 0.5131743550300598 0.7589588761329651
vn 0.05245666205883026 0.15659256279468536 0.9862692952156067
vn -0.3560849130153656 0.45660635828971863 0.8153001070022583
vn 0.729210615158081 0.13306991755962372 0.671225905418396
vn 0.46041545271873474 -0.20220494270324707 0.8643672466278076
vn -0.08862081915140152 0.7156585454940796 0.6928053498268127
vn 0.17513488233089447 0.2794590890407562 0.9440499544143677
vn 0.19299927353858948 0.3168993294239044 0.928615152835846
vn -0.10528220981359482 0.7091782689094543 0.6971239447593689
vn 0.39163145422935486 -0.20375971496105194 0.8972774147987366
vn 0.4064895808696747 -0.1961594521999359 0.8923496007919312
vn 0.10082555562257767 0.7717013955116272 0.6279420256614685
vn 0.39835846424102783 0.3777275085449219 0.8358424305915833
vn 0.33907562494277954 0.41623494029045105 0.8436682820320129
vn 0.029526513069868088 0.7544054388999939 0.6557444334030151
vn 0.57621169090271 -0.09955455362796783 0.8112145066261292
vn 0.5881680846214294 -0.09195928275585175 0.8034934401512146
vn -0.6609069108963013 0.6249454021453857 0.4155060052871704
vn -0.8594541549682617 0.13351112604141235 0.493470698595047
vn -0.8932209610939026 0.17528566718101501 0.41404256224632263
vn -0.6024600267410278 0.5961633324623108 0.5306892395019531
vn -0.18962019681930542 0.9045030474662781 0.381992906332016
vn -0.2414378523826599 0.9213911890983582 0.30454254150390625
vn -0.8056098818778992 0.07909081876277924 0.5871433615684509
vn -0.5379592776298523 0.5734471082687378 0.6178658604621887
vn -0.1277213841676712 0.8749346137046814 0.4670937657356262
vt 0.5720233917236328 0.2807626724243164
vt 0.7436918616294861 0.4326275587081909
vt 0.5720233917236328 0.4326275587081909
vt 0.7436918616294861 0.2807626724243164
vt 0.7436918616294861 0.12889772653579712
vt 0.5720234513282776 0.12889772653579712
vt 1.0011944770812988 0.4326275587081909
vt 1.0011945962905884 0.2807627320289612
vt 1.0011945962905884 0.1288977861404419
vt 0.24546821415424347 1.0
vt 0.12273405492305756 0.6266625225543976
vt 0.24546824395656586 0.62666255235672
vt 0.12273402512073517 1.0
vt -1.4901161193847656e-07 0.6266625225543976
vt -1.7881393432617188e-07 0.9999999701976776
vt 0.12273402512073517 1.0
vt 0.24546822905540466 0.8506650179624557
vt 0.24546821415424347 1.0
vt 0.12273404002189636 0.8506650030612946
vt -1.668930025289228e-07 0.8506649881601334
vt -1.7881393432617188e-07 0.9999999701976776
vt 0.24546824395656586 0.62666255235672
vt 0.12273405492305756 0.6266625225543976
vt -1.4901161193847656e-07 0.6266625225543976
vt 0.7052958011627197 0.9922390938736498
vt 0.9981599450111389 0.7527667433023453
vt 0.9981599450111389 0.9922391423024237
vt 0.7052958607673645 0.7527666538953781
vt 0.12273402512073517 1.0
vt 0.24546822905540466 0.8599984645843506
vt 0.24546821415424347 1.0
vt 0.12273404002189636 0.8599984496831894
vt -1.6763806343078613e-07 0.8599984347820282
vt -1.7881393432617188e-07 0.9999999701976776
vt 0.24546824395656586 0.62666255235672
vt 0.12273405492305756 0.6266625225543976
vt -1.4901161193847656e-07 0.6266625225543976
vt 0.7052958011627197 0.9922390938736498
vt 0.9981599450111389 0.7527667433023453
vt 0.9981599450111389 0.9922391423024237
vt 0.7052958607673645 0.7527666538953781
vt 0.37993323802948 1.0
vt 0.5026674270629883 0.8506650179624557
vt 0.5026674270629883 1.0
vt 0.37993323802948 0.8506650030612946
vt 0.2571990191936493 0.8506649881601334
vt 0.2571990191936493 0.9999999701976776
vt 0.5026674270629883 0.62666255235672
vt 0.37993323802948 0.6266625225543976
vt 0.2571990489959717 0.6266625225543976
vt 0.44074344635009766 0.61634960770607
vt 0.5810773968696594 0.42234766483306885
vt 0.5810773968696594 0.61634960770607
vt 0.44074344635009766 0.4223476052284241
vt 0.3004094362258911 0.4223476052284241
vt 0.3004094362258911 0.6163495481014252
vt 0.5810773968696594 0.13134479522705078
vt 0.44074344635009766 0.13134467601776123
vt 0.3004094660282135 0.13134467601776123
vt 0.37993323802948 1.0
vt 0.5026674270629883 0.8506650179624557
vt 0.5026674270629883 1.0
vt 0.37993323802948 0.8506650030612946
vt 0.2571990191936493 0.8506649881601334
vt 0.2571990191936493 0.9999999701976776
vt 0.5026674270629883 0.62666255235672
vt 0.37993323802948 0.6266625225543976
vt 0.2571990489959717 0.6266625225543976
vt 0.37993323802948 1.0
vt 0.5026674270629883 0.8506650179624557
vt 0.5026674270629883 1.0
vt 0.37993323802948 0.8506650030612946
vt 0.2571990191936493 0.8506649881601334
vt 0.2571990191936493 0.9999999701976776
vt 0.5026674270629883 0.62666255235672
vt 0.37993323802948 0.6266625225543976
vt 0.2571990489959717 0.6266625225543976
vt 0.14573508501052856 0.61634960770607
vt 0.28606903553009033 0.42234766483306885
vt 0.28606903553009033 0.61634960770607
vt 0.14573508501052856 0.4223476052284241
vt 0.0054010795429348946 0.4223476052284241
vt 0.0054010795429348946 0.6163495481014252
vt 0.28606903553009033 0.13134479522705078
vt 0.14573508501052856 0.13134467601776123
vt 0.005401109345257282 0.13134467601776123
vt 0.14573508501052856 0.61634960770607
vt 0.28606903553009033 0.42234766483306885
vt 0.28606903553009033 0.61634960770607
vt 0.14573508501052856 0.4223476052284241
vt 0.0054010795429348946 0.4223476052284241
vt 0.0054010795429348946 0.6163495481014252
vt 0.28606903553009033 0.13134479522705078
vt 0.14573508501052856 0.13134467601776123
vt 0.005401109345257282 0.13134467601776123
vt 0.5720233917236328 0.2807626724243164
vt 0.7436918616294861 0.4326275587081909
vt 0.5720233917236328 0.4326275587081909
vt 0.7436918616294861 0.2807626724243164
vt 0.7436918616294861 0.12889772653579712
vt 0.5720234513282776 0.12889772653579712
vt 1.0011944770812988 0.4326275587081909
vt 1.0011945962905884 0.2807627320289612
vt 1.0011945962905884 0.1288977861404419
vt 0.5720233917236328 0.5966601073741913
vt 0.7436918616294861 0.7485249936580658
vt 0.5720233917236328 0.7485249936580658
vt 0.7436918616294861 0.5966601073741913
vt 0.7436918616294861 0.4447951316833496
vt 0.5720234513282776 0.4447951316833496
vt 1.0011944770812988 0.7485249936580658
vt 1.0011945962905884 0.5966601669788361
vt 1.0011945962905884 0.44479525089263916
vt 0.5720233917236328 0.2807626724243164
vt 0.7436918616294861 0.4326275587081909
vt 0.5720233917236328 0.4326275587081909
vt 0.7436918616294861 0.2807626724243164
vt 0.7436918616294861 0.12889772653579712
vt 0.5720234513282776 0.12889772653579712
vt 1.0011944770812988 0.4326275587081909
vt 1.0011945962905884 0.2807627320289612
vt 1.0011945962905884 0.1288977861404419
vt 0.5720233917236328 0.2807626724243164
vt 0.7436918616294861 0.4326275587081909
vt 0.5720233917236328 0.4326275587081909
vt 0.7436918616294861 0.2807626724243164
vt 0.7436918616294861 0.12889772653579712
vt 0.5720234513282776 0.12889772653579712
vt 1.0011944770812988 0.4326275587081909
vt 1.0011945962905884 0.2807627320289612
vt 1.0011945962905884 0.1288977861404419
vt 0.5720233917236328 0.5946088135242462
vt 0.7436918616294861 0.7464736998081207
vt 0.5720233917236328 0.7464736998081207
vt 0.7436918616294861 0.5946088135242462
vt 0.7436918616294861 0.4427438974380493
vt 0.5720234513282776 0.4427438974380493
vt 1.0011944770812988 0.7464736998081207
vt 1.0011945962905884 0.594608873128891
vt 1.0011945962905884 0.4427438974380493
vt 0.5720233917236328 0.5946088135242462
vt 0.7436918616294861 0.7464736998081207
vt 0.5720233917236328 0.7464736998081207
vt 0.7436918616294861 0.5946088135242462
vt 0.7436918616294861 0.4427438974380493
vt 0.5720234513282776 0.4427438974380493
vt 1.0011944770812988 0.7464736998081207
vt 1.0011945962905884 0.594608873128891
vt 1.0011945962905884 0.4427438974380493
vt 0.5720233917236328 0.2807626724243164
vt 0.7436918616294861 0.4326275587081909
vt 0.5720233917236328 0.4326275587081909
vt 0.7436918616294861 0.2807626724243164
vt 0.7436918616294861 0.12889772653579712
vt 0.5720234513282776 0.12889772653579712
vt 1.0011944770812988 0.4326275587081909
vt 1.0011945962905884 0.2807627320289612
vt 1.0011945962905884 0.1288977861404419
vt 0.5720233917236328 0.2807626724243164
vt 0.7436918616294861 0.4326275587081909
vt 0.5720233917236328 0.4326275587081909
vt 0.7436918616294861 0.2807626724243164
vt 0.7436918616294861 0.12889772653579712
vt 0.5720234513282776 0.12889772653579712
vt 1.0011944770812988 0.4326275587081909
vt 1.0011945962905884 0.2807627320289612
vt 1.0011945962905884 0.1288977861404419
vt 0.5720233917236328 0.2807626724243164
vt 0.7436918616294861 0.4326275587081909
vt 0.5720233917236328 0.4326275587081909
vt 0.7436918616294861 0.2807626724243164
vt 0.7436918616294861 0.12889772653579712
vt 0.5720234513282776 0.12889772653579712
vt 1.0011944770812988 0.4326275587081909
vt 1.0011945962905884 0.2807627320289612
vt 1.0011945962905884 0.1288977861404419
vt 0.44074344635009766 0.61634960770607
vt 0.5810773968696594 0.42234766483306885
vt 0.5810773968696594 0.61634960770607
vt 0.44074344635009766 0.4223476052284241
vt 0.3004094362258911 0.4223476052284241
vt 0.3004094362258911 0.6163495481014252
vt 0.5810773968696594 0.13134479522705078
vt 0.44074344635009766 0.13134467601776123
vt 0.3004094660282135 0.13134467601776123
vt 0.44074344635009766 0.61634960770607
vt 0.5810773968696594 0.42234766483306885
vt 0.5810773968696594 0.61634960770607
vt 0.44074344635009766 0.4223476052284241
vt 0.3004094362258911 0.4223476052284241
vt 0.3004094362258911 0.6163495481014252
vt 0.5810773968696594 0.13134479522705078
vt 0.44074344635009766 0.13134467601776123
vt 0.3004094660282135 0.13134467601776123
vt 0.37993323802948 1.0
vt 0.5026674270629883 0.8506650179624557
vt 0.5026674270629883 1.0
vt 0.37993323802948 0.8506650030612946
vt 0.2571990191936493 0.8506649881601334
vt 0.2571990191936493 0.9999999701976776
vt 0.5026674270629883 0.62666255235672
vt 0.37993323802948 0.6266625225543976
vt 0.2571990489959717 0.6266625225543976
vt 0.12273402512073517 1.0
vt 0.24546822905540466 0.7479972243309021
vt 0.24546821415424347 1.0
vt 0.12273404747247696 0.7479971945285797
vt -1.5869736103013565e-07 0.7479971945285797
vt -1.7881393432617188e-07 0.9999999701976776
vt 0.24546824395656586 0.62666255235672
vt 0.12273405492305756 0.6266625225543976
vt -1.4901161193847656e-07 0.6266625225543976
vt 0.37993323802948 1.0
vt 0.5026674270629883 0.8506650179624557
vt 0.5026674270629883 1.0
vt 0.37993323802948 0.8506650030612946
vt 0.2571990191936493 0.8506649881601334
vt 0.2571990191936493 0.9999999701976776
vt 0.5026674270629883 0.7386637926101685
vt 0.37993323802948 0.7386637628078461
vt 0.2571990489959717 0.7386637628078461
vt 0.5026674270629883 0.62666255235672
vt 0.37993323802948 0.6266625225543976
vt 0.2571990489959717 0.6266625225543976
vt 0.37993323802948 1.0
vt 0.5026674270629883 0.8506650179624557
vt 0.5026674270629883 1.0
vt 0.37993323802948 0.8506650030612946
vt 0.2571990191936493 0.8506649881601334
vt 0.2571990191936493 0.9999999701976776
vt 0.5026674270629883 0.7386637926101685
vt 0.37993323802948 0.7386637628078461
vt 0.2571990489959717 0.7386637628078461
vt 0.5026674270629883 0.62666255235672
vt 0.37993323802948 0.6266625225543976
vt 0.2571990489959717 0.6266625225543976
vt 0.44074344635009766 0.61634960770607
vt 0.5810773968696594 0.42234766483306885
vt 0.5810773968696594 0.61634960770607
vt 0.44074344635009766 0.4223476052284241
vt 0.3004094362258911 0.4223476052284241
vt 0.3004094362258911 0.6163495481014252
vt 0.5810773968696594 0.2957614064216614
vt 0.44074344635009766 0.2957613468170166
vt 0.3004094362258911 0.2957613468170166
vt 0.5810773968696594 0.13134479522705078
vt 0.44074344635009766 0.13134467601776123
vt 0.3004094660282135 0.13134467601776123
vt 0.37993323802948 1.0
vt 0.5026674270629883 0.9253325089812279
vt 0.5026674270629883 1.0
vt 0.37993323802948 0.9253325015306473
vt 0.2571990191936493 0.9253324791789055
vt 0.2571990191936493 0.9999999701976776
vt 0.5026674270629883 0.8506650179624557
vt 0.37993323802948 0.8506650030612946
vt 0.5026674270629883 0.7386637926101685
vt 0.37993323802948 0.7386637628078461
vt 0.2571990489959717 0.7386637628078461
vt 0.2571990191936493 0.8506649881601334
vt 0.5026674270629883 0.62666255235672
vt 0.37993323802948 0.6266625225543976
vt 0.2571990489959717 0.6266625225543976
vt 0.37993323802948 1.0
vt 0.5026674270629883 0.9253325089812279
vt 0.5026674270629883 1.0
vt 0.37993323802948 0.9253325015306473
vt 0.2571990191936493 0.9253324791789055
vt 0.2571990191936493 0.9999999701976776
vt 0.5026674270629883 0.8506650179624557
vt 0.37993323802948 0.8506650030612946
vt 0.5026674270629883 0.7386637926101685
vt 0.37993323802948 0.7386637628078461
vt 0.2571990489959717 0.7386637628078461
vt 0.2571990191936493 0.8506649881601334
vt 0.5026674270629883 0.62666255235672
vt 0.37993323802948 0.6266625225543976
vt 0.2571990489959717 0.6266625225543976
vt 0.24546822905540466 0.7523528337478638
vt 0.12273403257131577 0.8767986297607422
vt 0.12273404747247696 0.7523528039455414
vt 0.24546822905540466 0.8767986446619034
vt -1.590450580124525e-07 0.7523527890443802
vt -1.6897917021196918e-07 0.8767985999584198
vt 0.24546824395656586 0.62666255235672
vt 0.12273405492305756 0.6266625225543976
vt 0.12273402512073517 1.0
vt 0.24546821415424347 1.0
vt -1.4901161193847656e-07 0.6266625225543976
vt -1.7881393432617188e-07 0.9999999701976776
vt 0.24546822905540466 0.7523528337478638
vt 0.12273403257131577 0.8767986297607422
vt 0.12273404747247696 0.7523528039455414
vt 0.24546822905540466 0.8767986446619034
vt -1.590450580124525e-07 0.7523527890443802
vt -1.6897917021196918e-07 0.8767985999584198
vt 0.24546824395656586 0.62666255235672
vt 0.12273405492305756 0.6266625225543976
vt 0.12273402512073517 1.0
vt 0.24546821415424347 1.0
vt -1.4901161193847656e-07 0.6266625225543976
vt -1.7881393432617188e-07 0.9999999701976776
vt 0.24546822905540466 0.7523528337478638
vt 0.12273403257131577 0.8767986297607422
vt 0.12273404747247696 0.7523528039455414
vt 0.24546822905540466 0.8767986446619034
vt -1.590450580124525e-07 0.7523527890443802
vt -1.6897917021196918e-07 0.8767985999584198
vt 0.24546824395656586 0.62666255235672
vt 0.12273405492305756 0.6266625225543976
vt 0.12273402512073517 1.0
vt 0.24546821415424347 1.0
vt -1.4901161193847656e-07 0.6266625225543976
vt -1.7881393432617188e-07 0.9999999701976776
vt 0.37993323802948 1.0
vt 0.5026674270629883 0.8506650179624557
vt 0.5026674270629883 1.0
vt 0.37993323802948 0.8506650030612946
vt 0.2571990191936493 0.8506649881601334
vt 0.2571990191936493 0.9999999701976776
vt 0.5026674270629883 0.62666255235672
vt 0.37993323802948 0.6266625225543976
vt 0.2571990489959717 0.6266625225543976

g bg_mdl_map_tree00
s 1
usemtl bg_mdl_map_tree00
f 3/3/3 2/2/2 1/1/1 
f 4/4/4 1/1/1 2/2/2 
f 4/4/4 5/5/5 1/1/1 
f 6/6/6 1/1/1 5/5/5 
f 2/2/2 7/7/7 4/4/4 
f 8/8/8 4/4/4 7/7/7 
f 8/8/8 9/9/9 4/4/4 
f 5/5/5 4/4/4 9/9/9 
f 12/12/12 11/11/11 10/10/10 
f 13/13/13 10/10/10 11/11/11 
f 11/11/11 14/14/14 13/13/13 
f 15/15/15 13/13/13 14/14/14 
f 18/18/18 17/17/17 16/16/16 
f 19/19/19 16/16/16 17/17/17 
f 19/19/19 20/20/20 16/16/16 
f 21/21/21 16/16/16 20/20/20 
f 17/17/17 22/22/22 19/19/19 
f 23/23/23 19/19/19 22/22/22 
f 23/23/23 24/24/24 19/19/19 
f 20/20/20 19/19/19 24/24/24 
f 27/27/27 26/26/26 25/25/25 
f 28/28/28 25/25/25 26/26/26 
f 31/31/31 30/30/30 29/29/29 
f 32/32/32 29/29/29 30/30/30 
f 32/32/32 33/33/33 29/29/29 
f 34/34/34 29/29/29 33/33/33 
f 30/30/30 35/35/35 32/32/32 
f 36/36/36 32/32/32 35/35/35 
f 36/36/36 37/37/37 32/32/32 
f 33/33/33 32/32/32 37/37/37 
f 40/40/40 39/39/39 38/38/38 
f 41/41/41 38/38/38 39/39/39 
f 44/44/44 43/43/43 42/42/42 
f 45/45/45 42/42/42 43/43/43 
f 45/45/45 46/46/46 42/42/42 
f 47/47/47 42/42/42 46/46/46 
f 43/43/43 48/48/48 45/45/45 
f 49/49/49 45/45/45 48/48/48 
f 49/49/49 50/50/50 45/45/45 
f 46/46/46 45/45/45 50/50/50 
f 53/53/53 52/52/52 51/51/51 
f 54/54/54 51/51/51 52/52/52 
f 54/54/54 55/55/55 51/51/51 
f 56/56/56 51/51/51 55/55/55 
f 52/52/52 57/57/57 54/54/54 
f 58/58/58 54/54/54 57/57/57 
f 58/58/58 59/59/59 54/54/54 
f 55/55/55 54/54/54 59/59/59 
f 62/62/62 61/61/61 60/60/60 
f 63/63/63 60/60/60 61/61/61 
f 63/63/63 64/64/64 60/60/60 
f 65/65/65 60/60/60 64/64/64 
f 61/61/61 66/66/66 63/63/63 
f 67/67/67 63/63/63 66/66/66 
f 67/67/67 68/68/68 63/63/63 
f 64/64/64 63/63/63 68/68/68 
f 71/71/71 70/70/70 69/69/69 
f 72/72/72 69/69/69 70/70/70 
f 72/72/72 73/73/73 69/69/69 
f 74/74/74 69/69/69 73/73/73 
f 70/70/70 75/75/75 72/72/72 
f 76/76/76 72/72/72 75/75/75 
f 76/76/76 77/77/77 72/72/72 
f 73/73/73 72/72/72 77/77/77 
f 80/80/80 79/79/79 78/78/78 
f 81/81/81 78/78/78 79/79/79 
f 81/81/81 82/82/82 78/78/78 
f 83/83/83 78/78/78 82/82/82 
f 79/79/79 84/84/84 81/81/81 
f 85/85/85 81/81/81 84/84/84 
f 85/85/85 86/86/86 81/81/81 
f 82/82/82 81/81/81 86/86/86 
f 89/89/89 88/88/88 87/87/87 
f 90/90/90 87/87/87 88/88/88 
f 90/90/90 91/91/91 87/87/87 
f 92/92/92 87/87/87 91/91/91 
f 88/88/88 93/93/93 90/90/90 
f 94/94/94 90/90/90 93/93/93 
f 94/94/94 95/95/95 90/90/90 
f 91/91/91 90/90/90 95/95/95 
f 98/98/98 97/97/97 96/96/96 
f 99/99/99 96/96/96 97/97/97 
f 99/99/99 100/100/100 96/96/96 
f 101/101/101 96/96/96 100/100/100 
f 97/97/97 102/102/102 99/99/99 
f 103/103/103 99/99/99 102/102/102 
f 103/103/103 104/104/104 99/99/99 
f 100/100/100 99/99/99 104/104/104 
f 107/107/107 106/106/106 105/105/105 
f 108/108/108 105/105/105 106/106/106 
f 108/108/108 109/109/109 105/105/105 
f 110/110/110 105/105/105 109/109/109 
f 106/106/106 111/111/111 108/108/108 
f 112/112/112 108/108/108 111/111/111 
f 112/112/112 113/113/113 108/108/108 
f 109/109/109 108/108/108 113/113/113 
f 116/116/116 115/115/115 114/114/114 
f 117/117/117 114/114/114 115/115/115 
f 117/117/117 118/118/118 114/114/114 
f 119/119/119 114/114/114 118/118/118 
f 115/115/115 120/120/120 117/117/117 
f 121/121/121 117/117/117 120/120/120 
f 121/121/121 122/122/122 117/117/117 
f 118/118/118 117/117/117 122/122/122 
f 125/125/125 124/124/124 123/123/123 
f 126/126/126 123/123/123 124/124/124 
f 126/126/126 127/127/127 123/123/123 
f 128/128/128 123/123/123 127/127/127 
f 124/124/124 129/129/129 126/126/126 
f 130/130/130 126/126/126 129/129/129 
f 130/130/130 131/131/131 126/126/126 
f 127/127/127 126/126/126 131/131/131 
f 134/134/134 133/133/133 132/132/132 
f 135/135/135 132/132/132 133/133/133 
f 135/135/135 136/136/136 132/132/132 
f 137/137/137 132/132/132 136/136/136 
f 133/133/133 138/138/138 135/135/135 
f 139/139/139 135/135/135 138/138/138 
f 139/139/139 140/140/140 135/135/135 
f 136/136/136 135/135/135 140/140/140 
f 143/143/143 142/142/142 141/141/141 
f 144/144/144 141/141/141 142/142/142 
f 144/144/144 145/145/145 141/141/141 
f 146/146/146 141/141/141 145/145/145 
f 142/142/142 147/147/147 144/144/144 
f 148/148/148 144/144/144 147/147/147 
f 148/148/148 149/149/149 144/144/144 
f 145/145/145 144/144/144 149/149/149 
f 152/152/152 151/151/151 150/150/150 
f 153/153/153 150/150/150 151/151/151 
f 153/153/153 154/154/154 150/150/150 
f 155/155/155 150/150/150 154/154/154 
f 151/151/151 156/156/156 153/153/153 
f 157/157/157 153/153/153 156/156/156 
f 157/157/157 158/158/158 153/153/153 
f 154/154/154 153/153/153 158/158/158 
f 161/161/161 160/160/160 159/159/159 
f 162/162/162 159/159/159 160/160/160 
f 162/162/162 163/163/163 159/159/159 
f 164/164/164 159/159/159 163/163/163 
f 160/160/160 165/165/165 162/162/162 
f 166/166/166 162/162/162 165/165/165 
f 166/166/166 167/167/167 162/162/162 
f 163/163/163 162/162/162 167/167/167 
f 170/170/170 169/169/169 168/168/168 
f 171/171/171 168/168/168 169/169/169 
f 171/171/171 172/172/172 168/168/168 
f 173/173/173 168/168/168 172/172/172 
f 169/169/169 174/174/174 171/171/171 
f 175/175/175 171/171/171 174/174/174 
f 175/175/175 176/176/176 171/171/171 
f 172/172/172 171/171/171 176/176/176 
f 179/179/179 178/178/178 177/177/177 
f 180/180/180 177/177/177 178/178/178 
f 180/180/180 181/181/181 177/177/177 
f 182/182/182 177/177/177 181/181/181 
f 178/178/178 183/183/183 180/180/180 
f 184/184/184 180/180/180 183/183/183 
f 184/184/184 185/185/185 180/180/180 
f 181/181/181 180/180/180 185/185/185 
f 188/188/188 187/187/187 186/186/186 
f 189/189/189 186/186/186 187/187/187 
f 189/189/189 190/190/190 186/186/186 
f 191/191/191 186/186/186 190/190/190 
f 187/187/187 192/192/192 189/189/189 
f 193/193/193 189/189/189 192/192/192 
f 193/193/193 194/194/194 189/189/189 
f 190/190/190 189/189/189 194/194/194 
f 197/197/197 196/196/196 195/195/195 
f 198/198/198 195/195/195 196/196/196 
f 198/198/198 199/199/199 195/195/195 
f 200/200/200 195/195/195 199/199/199 
f 196/196/196 201/201/201 198/198/198 
f 202/202/202 198/198/198 201/201/201 
f 202/202/202 203/203/203 198/198/198 
f 199/199/199 198/198/198 203/203/203 
f 206/206/206 205/205/205 204/204/204 
f 207/207/207 204/204/204 205/205/205 
f 207/207/207 208/208/208 204/204/204 
f 209/209/209 204/204/204 208/208/208 
f 205/205/205 210/210/210 207/207/207 
f 211/211/211 207/207/207 210/210/210 
f 211/211/211 212/212/212 207/207/207 
f 208/208/208 207/207/207 212/212/212 
f 215/215/215 214/214/214 213/213/213 
f 216/216/216 213/213/213 214/214/214 
f 216/216/216 217/217/217 213/213/213 
f 218/218/218 213/213/213 217/217/217 
f 214/214/214 219/219/219 216/216/216 
f 220/220/220 216/216/216 219/219/219 
f 220/220/220 221/221/221 216/216/216 
f 217/217/217 216/216/216 221/221/221 
f 219/219/219 222/222/222 220/220/220 
f 223/223/223 220/220/220 222/222/222 
f 223/223/223 224/224/224 220/220/220 
f 221/221/221 220/220/220 224/224/224 
f 227/227/227 226/226/226 225/225/225 
f 228/228/228 225/225/225 226/226/226 
f 228/228/228 229/229/229 225/225/225 
f 230/230/230 225/225/225 229/229/229 
f 226/226/226 231/231/231 228/228/228 
f 232/232/232 228/228/228 231/231/231 
f 232/232/232 233/233/233 228/228/228 
f 229/229/229 228/228/228 233/233/233 
f 231/231/231 234/234/234 232/232/232 
f 235/235/235 232/232/232 234/234/234 
f 235/235/235 236/236/236 232/232/232 
f 233/233/233 232/232/232 236/236/236 
f 239/239/239 238/238/238 237/237/237 
f 240/240/240 237/237/237 238/238/238 
f 240/240/240 241/241/241 237/237/237 
f 242/242/242 237/237/237 241/241/241 
f 238/238/238 243/243/243 240/240/240 
f 244/244/244 240/240/240 243/243/243 
f 244/244/244 245/245/245 240/240/240 
f 241/241/241 240/240/240 245/245/245 
f 243/243/243 246/246/246 244/244/244 
f 247/247/247 244/244/244 246/246/246 
f 247/247/247 248/248/248 244/244/244 
f 245/245/245 244/244/244 248/248/248 
f 251/251/251 250/250/250 249/249/249 
f 252/252/252 249/249/249 250/250/250 
f 252/252/252 253/253/253 249/249/249 
f 254/254/254 249/249/249 253/253/253 
f 250/250/250 255/255/255 252/252/252 
f 256/256/256 252/252/252 255/255/255 
f 255/255/255 257/257/257 256/256/256 
f 258/258/258 256/256/256 257/257/257 
f 258/258/258 259/259/259 256/256/256 
f 260/260/260 256/256/256 259/259/259 
f 256/256/256 260/260/260 252/252/252 
f 253/253/253 252/252/252 260/260/260 
f 257/257/257 261/261/261 258/258/258 
f 262/262/262 258/258/258 261/261/261 
f 262/262/262 263/263/263 258/258/258 
f 259/259/259 258/258/258 263/263/263 
f 266/266/266 265/265/265 264/264/264 
f 267/267/267 264/264/264 265/265/265 
f 267/267/267 268/268/268 264/264/264 
f 269/269/269 264/264/264 268/268/268 
f 265/265/265 270/270/270 267/267/267 
f 271/271/271 267/267/267 270/270/270 
f 270/270/270 272/272/272 271/271/271 
f 273/273/273 271/271/271 272/272/272 
f 273/273/273 274/274/274 271/271/271 
f 275/275/275 271/271/271 274/274/274 
f 271/271/271 275/275/275 267/267/267 
f 268/268/268 267/267/267 275/275/275 
f 272/272/272 276/276/276 273/273/273 
f 277/277/277 273/273/273 276/276/276 
f 277/277/277 278/278/278 273/273/273 
f 274/274/274 273/273/273 278/278/278 
f 281/281/281 280/280/280 279/279/279 
f 282/282/282 279/279/279 280/280/280 
f 281/281/281 283/283/283 280/280/280 
f 284/284/284 280/280/280 283/283/283 
f 279/279/279 285/285/285 281/281/281 
f 286/286/286 281/281/281 285/285/285 
f 280/280/280 287/287/287 282/282/282 
f 280/280/280 284/284/284 287/287/287 
f 288/288/288 282/282/282 287/287/287 
f 286/286/286 289/289/289 281/281/281 
f 283/283/283 281/281/281 289/289/289 
f 290/290/290 287/287/287 284/284/284 
f 293/293/293 292/292/292 291/291/291 
f 294/294/294 291/291/291 292/292/292 
f 293/293/293 295/295/295 292/292/292 
f 296/296/296 292/292/292 295/295/295 
f 291/291/291 297/297/297 293/293/293 
f 298/298/298 293/293/293 297/297/297 
f 292/292/292 299/299/299 294/294/294 
f 292/292/292 296/296/296 299/299/299 
f 300/300/300 294/294/294 299/299/299 
f 298/298/298 301/301/301 293/293/293 
f 295/295/295 293/293/293 301/301/301 
f 302/302/302 299/299/299 296/296/296 
f 305/305/305 304/304/304 303/303/303 
f 306/306/306 303/303/303 304/304/304 
f 305/305/305 307/307/307 304/304/304 
f 308/308/308 304/304/304 307/307/307 
f 303/303/303 309/309/309 305/305/305 
f 310/310/310 305/305/305 309/309/309 
f 304/304/304 311/311/311 306/306/306 
f 304/304/304 308/308/308 311/311/311 
f 312/312/312 306/306/306 311/311/311 
f 310/310/310 313/313/313 305/305/305 
f 307/307/307 305/305/305 313/313/313 
f 314/314/314 311/311/311 308/308/308 
f 317/317/317 316/316/316 315/315/315 
f 318/318/318 315/315/315 316/316/316 
f 318/318/318 319/319/319 315/315/315 
f 320/320/320 315/315/315 319/319/319 
f 316/316/316 321/321/321 318/318/318 
f 322/322/322 318/318/318 321/321/321 
f 322/322/322 323/323/323 318/318/318 
f 319/319/319 318/318/318 323/323/323 

