v 0.07260656356811523 0.06685762852430344 -0.0027912796940654516
v 0.19192510843276978 -2.1517955246963538e-05 0.02767893485724926
v 0.09596303105354309 0.11654678732156754 0.027678923681378365
v 0.14521247148513794 -1.706085095065646e-05 -0.0027912796940654516
v 0.16313055157661438 -2.298196886840742e-05 0.12753063440322876
v 0.08156579732894897 0.14212872087955475 0.12753058969974518
v 0.06848246604204178 0.100274458527565 0.2842775583267212
v 0.1369641274213791 -1.9143002646160312e-05 0.2842775583267212
v 0.0255717933177948 0.030812112614512444 0.37740764021873474
v -0.09596140682697296 0.11654678732156754 0.027678923681378365
v 0.07260656356811523 0.06685762852430344 -0.0027912796940654516
v 0.09596303105354309 0.11654678732156754 0.027678923681378365
v -0.07260525226593018 0.06685762852430344 -0.0027912796940654516
v -0.19192355871200562 -2.1517955246963538e-05 0.009500527754426003
v -0.1452110856771469 -1.706085095065646e-05 -0.0027912796940654516
v -0.08156412839889526 0.14212872087955475 0.12753058969974518
v 0.08156579732894897 0.14212872087955475 0.12753058969974518
v -0.06848109513521194 0.100274458527565 0.2842775583267212
v 0.06848246604204178 0.100274458527565 0.2842775583267212
v -0.0159633606672287 0.04596347361803055 0.3723289370536804
v -0.1369628757238388 -1.9143002646160312e-05 0.2842775583267212
v -0.051232919096946716 -1.2994150893064216e-05 0.37740764021873474
v -0.1611514836549759 -2.298196886840742e-05 0.14468304812908173
v -0.1602613478899002 -2.210356069554109e-05 0.05820964649319649
v -0.17825202643871307 -2.2363828975358047e-05 0.10888668894767761
v -0.0159633606672287 0.04596347361803055 0.3723289370536804
v 0.0255717933177948 0.030812112614512444 0.37740764021873474
v -0.07260522246360779 -0.06686776876449585 -0.0027912796940654516
v -0.19192355871200562 -2.1517955246963538e-05 0.009500527754426003
v -0.09596140682697296 -0.11655177175998688 0.027678942307829857
v -0.1452110856771469 -1.706085095065646e-05 -0.0027912796940654516
v 0.09596303105354309 -0.11655177175998688 0.027678929269313812
v 0.07260656356811523 -0.06686776876449585 -0.0027912796940654516
v 0.19192510843276978 -2.1517955246963538e-05 0.02767893485724926
v 0.14521247148513794 -1.706085095065646e-05 -0.0027912796940654516
v -0.1602613478899002 -2.210356069554109e-05 0.05820964649319649
v 0.08156579732894897 -0.14213131368160248 0.12753063440322876
v -0.08156411349773407 -0.14213131368160248 0.12753063440322876
v 0.06848246604204178 -0.10028229653835297 0.2842775583267212
v -0.06848109513521194 -0.10028229653835297 0.2842775583267212
v 0.0255717933177948 -0.030827006325125694 0.3774075508117676
v -0.025631342083215714 -0.030827006325125694 0.3774075508117676
v -0.1611514836549759 -2.298196886840742e-05 0.14468304812908173
v -0.1369628757238388 -1.9143002646160312e-05 0.2842775583267212
v -0.025631342083215714 -0.030827006325125694 0.3774075508117676
v 0.1369641274213791 -1.9143002646160312e-05 0.2842775583267212
v 0.05117341876029968 -1.2994150893064216e-05 0.37740764021873474
v 0.16313055157661438 -2.298196886840742e-05 0.12753063440322876
v -0.17825202643871307 -2.2363828975358047e-05 0.10888668894767761
v 0.05969514325261116 0.08657725900411606 0.43878886103630066
v -0.000541714602150023 -0.004477646667510271 0.36581340432167053
v 0.003203001571819186 0.08959900587797165 0.4458916485309601
v 0.0255717933177948 0.030812112614512444 0.37740764021873474
v 0.1369641274213791 -1.9143002646160312e-05 0.2842775583267212
v 0.05117341876029968 -1.2994150893064216e-05 0.37740764021873474
v -0.051232919096946716 -1.2994150893064216e-05 0.37740764021873474
v -0.06848109513521194 0.100274458527565 0.2842775583267212
v -0.0159633606672287 0.04596347361803055 0.3723289370536804
v -0.025631342083215714 -0.030827006325125694 0.3774075508117676
v -0.1369628757238388 -1.9143002646160312e-05 0.2842775583267212
v -0.051232919096946716 -1.2994150893064216e-05 0.37740764021873474
v 0.05117341876029968 -1.2994150893064216e-05 0.37740764021873474
v 0.06848246604204178 -0.10028229653835297 0.2842775583267212
v 0.0255717933177948 -0.030827006325125694 0.3774075508117676
v 0.05969514325261116 0.08657725900411606 0.43878886103630066
v 0.05117341876029968 -1.2994150893064216e-05 0.37740764021873474
v 0.10753796249628067 0.03471709042787552 0.45002859830856323
v 0.05117341876029968 -1.2994150893064216e-05 0.37740764021873474
v 0.05969514325261116 0.08657725900411606 0.43878886103630066
v 0.0255717933177948 0.030812112614512444 0.37740764021873474
v 0.003203001571819186 0.08959900587797165 0.4458916485309601
v 0.0255717933177948 0.030812112614512444 0.37740764021873474
v 0.05969514325261116 0.08657725900411606 0.43878886103630066
v -0.08383305370807648 0.03471709042787552 0.4245836138725281
v -0.0159633606672287 0.04596347361803055 0.3723289370536804
v -0.041842348873615265 0.12391611188650131 0.4103391468524933
v -0.0159633606672287 0.04596347361803055 0.3723289370536804
v -0.08383305370807648 0.03471709042787552 0.4245836138725281
v -0.051232919096946716 -1.2994150893064216e-05 0.37740764021873474
v -0.035990286618471146 -0.017124956473708153 0.44841697812080383
v -0.051232919096946716 -1.2994150893064216e-05 0.37740764021873474
v -0.08383305370807648 0.03471709042787552 0.4245836138725281
v -0.051232919096946716 -1.2994150893064216e-05 0.37740764021873474
v -0.035990286618471146 -0.017124956473708153 0.44841697812080383
v -0.025631342083215714 -0.030827006325125694 0.3774075508117676
v 0.05969514325261116 -0.017124956473708153 0.48646384477615356
v -0.025631342083215714 -0.030827006325125694 0.3774075508117676
v -0.035990286618471146 -0.017124956473708153 0.44841697812080383
v -0.025631342083215714 -0.030827006325125694 0.3774075508117676
v 0.05969514325261116 -0.017124956473708153 0.48646384477615356
v 0.0255717933177948 -0.030827006325125694 0.3774075508117676
v 0.10753796249628067 0.03471709042787552 0.45002859830856323
v 0.0255717933177948 -0.030827006325125694 0.3774075508117676
v 0.05969514325261116 -0.017124956473708153 0.48646384477615356
v 0.0255717933177948 -0.030827006325125694 0.3774075508117676
v 0.10753796249628067 0.03471709042787552 0.45002859830856323
v 0.05117341876029968 -1.2994150893064216e-05 0.37740764021873474
v 0.10753796249628067 0.03471709042787552 0.45002859830856323
v -0.000541714602150023 -0.004477646667510271 0.36581340432167053
v 0.05969514325261116 0.08657725900411606 0.43878886103630066
v -0.041842348873615265 0.12391611188650131 0.4103391468524933
v -0.000541714602150023 -0.004477646667510271 0.36581340432167053
v -0.08383305370807648 0.03471709042787552 0.4245836138725281
v -0.08383305370807648 0.03471709042787552 0.4245836138725281
v -0.000541714602150023 -0.004477646667510271 0.36581340432167053
v -0.035990286618471146 -0.017124956473708153 0.44841697812080383
v -0.035990286618471146 -0.017124956473708153 0.44841697812080383
v -0.000541714602150023 -0.004477646667510271 0.36581340432167053
v 0.05969514325261116 -0.017124956473708153 0.48646384477615356
v 0.05969514325261116 -0.017124956473708153 0.48646384477615356
v -0.000541714602150023 -0.004477646667510271 0.36581340432167053
v 0.10753796249628067 0.03471709042787552 0.45002859830856323
v -0.0159633606672287 0.04596347361803055 0.3723289370536804
v 0.003203001571819186 0.08959900587797165 0.4458916485309601
v -0.041842348873615265 0.12391611188650131 0.4103391468524933
v 0.003203001571819186 0.08959900587797165 0.4458916485309601
v -0.0159633606672287 0.04596347361803055 0.3723289370536804
v 0.0255717933177948 0.030812112614512444 0.37740764021873474
v 0.003203001571819186 0.08959900587797165 0.4458916485309601
v -0.000541714602150023 -0.004477646667510271 0.36581340432167053
v -0.041842348873615265 0.12391611188650131 0.4103391468524933
vn 0.20747160911560059 0.4576346278190613 -0.8645959496498108
vn 0.9513124823570251 -6.926595233380795e-05 -0.308228075504303
vn 0.4450487792491913 0.7488483786582947 -0.49107804894447327
vn 0.5463363528251648 -4.562216781778261e-05 -0.8375658988952637
vn 0.9843400716781616 0.006925493013113737 0.1761438548564911
vn 0.46062934398651123 0.886326253414154 0.047396913170814514
vn 0.4521750807762146 0.7839081287384033 0.42547112703323364
vn 0.9087556600570679 0.014921518042683601 0.4170617461204529
vn 0.6445285677909851 0.44009166955947876 0.6252216696739197
vn -0.4429619312286377 0.7584966421127319 -0.4779827296733856
vn 0.20747160911560059 0.4576346278190613 -0.8645959496498108
vn 0.4450487792491913 0.7488483786582947 -0.49107804894447327
vn -0.14713746309280396 0.4562841057777405 -0.8775849342346191
vn -0.95050448179245 -6.867713091196492e-05 -0.31071096658706665
vn -0.25447502732276917 -2.0575633243424818e-05 -0.9670794010162354
vn -0.45651566982269287 0.8889064788818359 0.03793126717209816
vn 0.46062934398651123 0.886326253414154 0.047396913170814514
vn -0.4382605254650116 0.7892264127731323 0.43017351627349854
vn 0.4521750807762146 0.7839081287384033 0.42547112703323364
vn -0.0 0.8511162996292114 0.5249772667884827
vn -0.9077959060668945 -0.014227502979338169 0.4191708564758301
vn -0.6574475169181824 0.4489137828350067 0.6051770448684692
vn -0.9737299084663391 -0.007943844422698021 0.2275676280260086
vn -0.9983116388320923 -8.363294909941033e-05 0.05808357894420624
vn -0.9887325763702393 -6.97066934662871e-05 0.14969222247600555
vn 0.1922076940536499 0.7421382665634155 0.6420957446098328
vn 0.1922076940536499 0.7421382665634155 0.6420957446098328
vn -0.14709384739398956 -0.456337034702301 -0.8775647282600403
vn -0.95050448179245 -6.867713091196492e-05 -0.31071096658706665
vn -0.44289666414260864 -0.7585423588752747 -0.4779707193374634
vn -0.25447502732276917 -2.0575633243424818e-05 -0.9670794010162354
vn 0.4449847936630249 -0.7488906383514404 -0.4910716712474823
vn 0.20742730796337128 -0.45769304037094116 -0.8645756244659424
vn 0.9513124823570251 -6.926595233380795e-05 -0.308228075504303
vn 0.5463363528251648 -4.562216781778261e-05 -0.8375658988952637
vn -0.9983116388320923 -8.363294909941033e-05 0.05808357894420624
vn 0.4548114538192749 -0.8897157311439514 0.03940172493457794
vn -0.4608386158943176 -0.8863689303398132 0.04447297751903534
vn 0.42741188406944275 -0.7876895666122437 0.44369393587112427
vn -0.4410816729068756 -0.783265233039856 0.4381122887134552
vn -0.0 -0.8016175627708435 0.5978371500968933
vn -0.0 -0.8016175627708435 0.5978371500968933
vn -0.9737299084663391 -0.007943844422698021 0.2275676280260086
vn -0.9077959060668945 -0.014227502979338169 0.4191708564758301
vn -0.6446329951286316 -0.44029757380485535 0.6249690055847168
vn 0.9087556600570679 0.014921518042683601 0.4170617461204529
vn 0.6572133898735046 -0.4488893449306488 0.605449378490448
vn 0.9843400716781616 0.006925493013113737 0.1761438548564911
vn -0.9887325763702393 -6.97066934662871e-05 0.14969222247600555
vn 0.0607331357896328 -0.6483839154243469 0.7588872313499451
vn 0.0607331320643425 -0.6483839750289917 0.7588871717453003
vn 0.0607331283390522 -0.6483839154243469 0.7588872313499451
vn 0.6276661157608032 0.521304726600647 0.578166663646698
vn 0.9087556600570679 0.014921518042683601 0.4170617461204529
vn 0.6276661157608032 0.521304726600647 0.578166663646698
vn -0.5664497017860413 0.5063574910163879 0.6501821875572205
vn -0.4382605254650116 0.7892264127731323 0.43017351627349854
vn -0.5664496421813965 0.5063574314117432 0.6501821875572205
vn -0.6277280449867249 -0.5215445756912231 0.5778830647468567
vn -0.9077959060668945 -0.014227502979338169 0.4191708564758301
vn -0.6277279257774353 -0.5215445756912231 0.5778830647468567
vn 0.5915642976760864 -0.4914994537830353 0.6391244530677795
vn 0.42741188406944275 -0.7876895666122437 0.44369393587112427
vn 0.5915642976760864 -0.4914994239807129 0.6391243934631348
vn 0.6104170680046082 0.41720661520957947 -0.6732975244522095
vn 0.5714311003684998 0.4364178776741028 -0.6949862837791443
vn 0.6104171276092529 0.41720661520957947 -0.6732975244522095
vn 0.5714311003684998 0.4364178776741028 -0.6949862837791443
vn 0.5417561531066895 0.4499526023864746 -0.7099598050117493
vn 0.4074666500091553 0.5516951084136963 -0.727738618850708
vn -0.04264284670352936 0.7511674165725708 -0.6587330102920532
vn 0.4074666500091553 0.5516951084136963 -0.727738618850708
vn -0.042642850428819656 0.751167356967926 -0.658733069896698
vn -0.618712306022644 0.16873051226139069 -0.7672841548919678
vn -0.6156052947044373 0.2623772621154785 -0.743093729019165
vn -0.618712306022644 0.16873051226139069 -0.7672841548919678
vn -0.6156052947044373 0.2623772621154785 -0.743093729019165
vn -0.6022778749465942 0.384757399559021 -0.6994448304176331
vn -0.6022778749465942 0.3847574293613434 -0.6994448900222778
vn -0.7334057688713074 -0.6797612309455872 -0.006379643455147743
vn -0.7334057688713074 -0.6797612309455872 -0.006379642523825169
vn -0.7334057092666626 -0.6797612309455872 -0.006379642058163881
vn -0.7691153883934021 -0.639013409614563 0.011105130426585674
vn -0.7691153883934021 -0.639013409614563 0.011105130426585674
vn -0.7691153883934021 -0.639013409614563 0.011105130426585674
vn -0.07116178423166275 -0.981278121471405 0.17896728217601776
vn -0.07116178423166275 -0.981278121471405 0.17896726727485657
vn -0.07116179168224335 -0.981278121471405 0.17896728217601776
vn -0.0 -0.9921992421150208 0.1246618703007698
vn -0.0 -0.9921992421150208 0.1246618703007698
vn -0.0 -0.9921992421150208 0.1246618703007698
vn 0.6843314170837402 -0.7185776829719543 -0.12384142726659775
vn 0.6843313574790955 -0.7185777425765991 -0.12384144961833954
vn 0.6843313574790955 -0.7185777425765991 -0.12384143471717834
vn 0.7384562492370605 -0.6135407090187073 -0.2797324061393738
vn 0.7384562492370605 -0.613540768623352 -0.2797324061393738
vn 0.7384562492370605 -0.6135407090187073 -0.2797324061393738
vn -0.5154950618743896 -0.30174219608306885 0.8020077347755432
vn -0.5154950618743896 -0.30174222588539124 0.8020077347755432
vn -0.5154950618743896 -0.30174222588539124 0.8020077347755432
vn 0.5347787141799927 -0.11813433468341827 0.836693525314331
vn 0.5347787141799927 -0.11813431978225708 0.8366934061050415
vn 0.5347787737846375 -0.11813431978225708 0.8366934061050415
vn 0.5945987701416016 0.7164680361747742 0.36486393213272095
vn 0.5945987701416016 0.7164680361747742 0.36486393213272095
vn 0.5945987701416016 0.7164680361747742 0.36486393213272095
vn -0.05149801820516586 0.9902393817901611 0.1295141726732254
vn -0.051498014479875565 0.9902393817901611 0.1295141577720642
vn -0.051498014479875565 0.9902393817901611 0.12951414287090302
vn -0.5500863790512085 0.7563982009887695 0.35393044352531433
vn -0.5500863790512085 0.7563982009887695 0.35393044352531433
vn -0.5500863194465637 0.7563982009887695 0.35393044352531433
vn 0.7389499545097351 0.47722965478897095 -0.4756098985671997
vn 0.7389499545097351 0.47722965478897095 -0.4756098985671997
vn 0.7389499545097351 0.47722959518432617 -0.4756098985671997
vn 0.3454916179180145 0.7648611664772034 -0.5437121987342834
vn 0.3454916477203369 0.7648611664772034 -0.5437121987342834
vn 0.3454916477203369 0.7648611664772034 -0.5437121987342834
vn -0.7374746799468994 -0.42050251364707947 0.5284966826438904
vn -0.7374746799468994 -0.4205024540424347 0.5284966826438904
vn -0.7374746203422546 -0.4205024540424347 0.5284966826438904
vt 0.8218563795089722 0.7700908035039902
vt 0.7431339621543884 0.750742182135582
vt 0.8064466118812561 0.750742182135582
vt 0.7739534378051758 0.7700908035039902
vt 0.7621317505836487 0.6873369216918945
vt 0.8159455060958862 0.6873369216918945
vt 0.8245775103569031 0.587803304195404
vt 0.779395580291748 0.587803304195404
vt 0.8474957346916199 0.5286661982536316
vt 0.9330723881721497 0.750742182135582
vt 0.8218563795089722 0.7700908035039902
vt 0.8064466118812561 0.750742182135582
vt 0.9176626801490784 0.7700908035039902
vt 0.9963850975036621 0.7507422417402267
vt 0.9655656218528748 0.770090863108635
vt 0.9235734343528748 0.6873369216918945
vt 0.8159455060958862 0.6873369216918945
vt 0.914941668510437 0.587803304195404
vt 0.8245775103569031 0.587803304195404
vt 0.8920637369155884 0.5286661982536316
vt 0.9601237177848816 0.5878033638000488
vt 0.9143477082252502 0.5286661982536316
vt 0.9773872494697571 0.6873369812965393
vt 0.9891613721847534 0.7266330718994141
vt 0.9854626655578613 0.7142886817455292
vt 0.8920637369155884 0.5286661982536316
vt 0.8474957346916199 0.5286661982536316
vt 0.8220118284225464 0.7697350680828094
vt 0.7432894110679626 0.7503865212202072
vt 0.8066021203994751 0.750386506319046
vt 0.77410888671875 0.7697350680828094
vt 0.9332278370857239 0.7503865212202072
vt 0.9178178906440735 0.7697350680828094
vt 0.9965404272079468 0.7503865212202072
vt 0.965721070766449 0.7697350680828094
vt 0.7505130767822266 0.7262773215770721
vt 0.9237289428710938 0.686981201171875
vt 0.8161011338233948 0.686981201171875
vt 0.9150970578193665 0.5874476134777069
vt 0.824732780456543 0.5874476134777069
vt 0.8921788334846497 0.5283105075359344
vt 0.8476108312606812 0.5283105075359344
vt 0.7622871398925781 0.686981201171875
vt 0.7795507311820984 0.5874476134777069
vt 0.8476108312606812 0.5283105075359344
vt 0.9602789878845215 0.5874476134777069
vt 0.9144628047943115 0.5283105075359344
vt 0.9775427579879761 0.686981201171875
vt 0.7542117834091187 0.7139329016208649
vt 0.6334190368652344 0.6046829223632812
vt 0.6958016157150269 0.6402550935745239
vt 0.6334190368652344 0.6462439298629761
vt 0.8474957346916199 0.5286661982536316
vt 0.779395580291748 0.587803304195404
vt 0.8252117037773132 0.5286661982536316
vt 0.9143477082252502 0.5286661982536316
vt 0.914941668510437 0.587803304195404
vt 0.8920637369155884 0.5286661982536316
vt 0.8476108312606812 0.5283105075359344
vt 0.7795507311820984 0.5874476134777069
vt 0.8253267407417297 0.5283105075359344
vt 0.9144628047943115 0.5283105075359344
vt 0.9150970578193665 0.5874476134777069
vt 0.8921788334846497 0.5283105075359344
vt 0.8381944894790649 0.4760698676109314
vt 0.8252117037773132 0.5286661982536316
vt 0.8066294193267822 0.4760698676109314
vt 0.8252117037773132 0.5286661982536316
vt 0.8381944894790649 0.4760698676109314
vt 0.8474957346916199 0.5286661982536316
vt 0.8754662275314331 0.4760698676109314
vt 0.8474957346916199 0.5286661982536316
vt 0.8381944894790649 0.4760698676109314
vt 0.9328897595405579 0.4760698676109314
vt 0.8920637369155884 0.5286661982536316
vt 0.9013246893882751 0.4760698676109314
vt 0.8920637369155884 0.5286661982536316
vt 0.9328897595405579 0.4760698676109314
vt 0.9143477082252502 0.5286661982536316
vt 0.8383497595787048 0.47571420669555664
vt 0.8253267407417297 0.5283105075359344
vt 0.8067845702171326 0.47571420669555664
vt 0.8253267407417297 0.5283105075359344
vt 0.8383497595787048 0.47571420669555664
vt 0.8476108312606812 0.5283105075359344
vt 0.901479959487915 0.47571420669555664
vt 0.8476108312606812 0.5283105075359344
vt 0.8383497595787048 0.47571420669555664
vt 0.8476108312606812 0.5283105075359344
vt 0.901479959487915 0.47571420669555664
vt 0.8921788334846497 0.5283105075359344
vt 0.9330451488494873 0.47571420669555664
vt 0.8921788334846497 0.5283105075359344
vt 0.901479959487915 0.47571420669555664
vt 0.8921788334846497 0.5283105075359344
vt 0.9330451488494873 0.47571420669555664
vt 0.9144628047943115 0.5283105075359344
vt 0.6958016157150269 0.5694773197174072
vt 0.6958016157150269 0.6402550935745239
vt 0.6333438158035278 0.6046829223632812
vt 0.6334066390991211 0.675078272819519
vt 0.6958016157150269 0.6402550935745239
vt 0.6958016157150269 0.7102674841880798
vt 0.6958016157150269 0.7102681994438171
vt 0.6958016157150269 0.6402550935745239
vt 0.7581712007522583 0.675078272819519
vt 0.7581585645675659 0.675078272819519
vt 0.6958016157150269 0.6402550935745239
vt 0.7581585645675659 0.6046829223632812
vt 0.7582340240478516 0.6046829223632812
vt 0.6958016157150269 0.6402550935745239
vt 0.6958016157150269 0.5694766640663147
vt 0.8920637369155884 0.5286661982536316
vt 0.8754662275314331 0.4760698676109314
vt 0.9013246893882751 0.4760698676109314
vt 0.8754662275314331 0.4760698676109314
vt 0.8920637369155884 0.5286661982536316
vt 0.8474957346916199 0.5286661982536316
vt 0.6334190368652344 0.6462439298629761
vt 0.6958016157150269 0.6402550935745239
vt 0.6334190368652344 0.675078272819519

g bg_mdl_map_fukuro00
s 1
usemtl bg_mdl_map_fukuro00
f 3/3/3 2/2/2 1/1/1 
f 4/4/4 1/1/1 2/2/2 
f 2/2/2 3/3/3 5/5/5 
f 6/6/6 5/5/5 3/3/3 
f 6/6/6 7/7/7 5/5/5 
f 8/8/8 5/5/5 7/7/7 
f 7/7/7 9/9/9 8/8/8 
f 12/12/12 11/11/11 10/10/10 
f 13/13/13 10/10/10 11/11/11 
f 10/10/10 13/13/13 14/14/14 
f 15/15/15 14/14/14 13/13/13 
f 10/10/10 16/16/16 12/12/12 
f 17/17/17 12/12/12 16/16/16 
f 16/16/16 18/18/18 17/17/17 
f 19/19/19 17/17/17 18/18/18 
f 18/18/18 20/20/20 19/19/19 
f 18/18/18 16/16/16 21/21/21 
f 21/21/21 22/22/22 18/18/18 
f 23/23/23 21/21/21 16/16/16 
f 16/16/16 10/10/10 23/23/23 
f 24/24/24 10/10/10 14/14/14 
f 25/25/25 23/23/23 10/10/10 
f 24/24/24 25/25/25 10/10/10 
f 27/27/27 19/19/19 26/26/26 
f 30/30/30 29/29/29 28/28/28 
f 31/31/31 28/28/28 29/29/29 
f 30/30/30 28/28/28 32/32/32 
f 33/33/33 32/32/32 28/28/28 
f 32/32/32 33/33/33 34/34/34 
f 35/35/35 34/34/34 33/33/33 
f 36/36/36 29/29/29 30/30/30 
f 32/32/32 37/37/37 30/30/30 
f 38/38/38 30/30/30 37/37/37 
f 37/37/37 39/39/39 38/38/38 
f 40/40/40 38/38/38 39/39/39 
f 39/39/39 41/41/41 40/40/40 
f 42/42/42 40/40/40 41/41/41 
f 38/38/38 40/40/40 43/43/43 
f 38/38/38 43/43/43 30/30/30 
f 44/44/44 43/43/43 40/40/40 
f 40/40/40 45/45/45 44/44/44 
f 39/39/39 37/37/37 46/46/46 
f 46/46/46 47/47/47 39/39/39 
f 48/48/48 46/46/46 37/37/37 
f 37/37/37 32/32/32 48/48/48 
f 34/34/34 48/48/48 32/32/32 
f 49/49/49 30/30/30 43/43/43 
f 36/36/36 30/30/30 49/49/49 
f 52/52/52 51/51/51 50/50/50 
f 55/55/55 54/54/54 53/53/53 
f 58/58/58 57/57/57 56/56/56 
f 61/61/61 60/60/60 59/59/59 
f 64/64/64 63/63/63 62/62/62 
f 67/67/67 66/66/66 65/65/65 
f 70/70/70 69/69/69 68/68/68 
f 73/73/73 72/72/72 71/71/71 
f 76/76/76 75/75/75 74/74/74 
f 79/79/79 78/78/78 77/77/77 
f 82/82/82 81/81/81 80/80/80 
f 85/85/85 84/84/84 83/83/83 
f 88/88/88 87/87/87 86/86/86 
f 91/91/91 90/90/90 89/89/89 
f 94/94/94 93/93/93 92/92/92 
f 97/97/97 96/96/96 95/95/95 
f 100/100/100 99/99/99 98/98/98 
f 103/103/103 102/102/102 101/101/101 
f 106/106/106 105/105/105 104/104/104 
f 109/109/109 108/108/108 107/107/107 
f 112/112/112 111/111/111 110/110/110 
f 115/115/115 114/114/114 113/113/113 
f 118/118/118 117/117/117 116/116/116 
f 121/121/121 120/120/120 119/119/119 

