v -0.39195066690444946 -0.3776831030845642 0.0
v 0.39195066690444946 -0.3776831030845642 0.11735473573207855
v 0.39195066690444946 -0.3776831030845642 0.0
v -0.39195066690444946 -0.3776831030845642 0.11735473573207855
v 0.39195066690444946 -0.3776831030845642 0.0
v 0.39195066690444946 0.3776831030845642 0.11735473573207855
v 0.39195066690444946 0.3776831030845642 0.0
v 0.39195066690444946 -0.3776831030845642 0.11735473573207855
v 0.39195066690444946 0.3776831030845642 0.0
v -0.39195066690444946 0.3776831030845642 0.11735473573207855
v -0.39195066690444946 0.3776831030845642 0.0
v 0.39195066690444946 0.3776831030845642 0.11735473573207855
v -0.39195066690444946 0.3776831030845642 0.0
v -0.39195066690444946 -0.3776831030845642 0.11735473573207855
v -0.39195066690444946 -0.3776831030845642 0.0
v -0.39195066690444946 0.3776831030845642 0.11735473573207855
v -0.39195066690444946 -0.3776831030845642 0.11735473573207855
v 0.30665111541748047 -0.2923835217952728 0.11735473573207855
v 0.39195066690444946 -0.3776831030845642 0.11735473573207855
v -0.30665111541748047 -0.2923835217952728 0.11735473573207855
v 0.39195066690444946 -0.3776831030845642 0.11735473573207855
v 0.30665111541748047 0.2923835217952728 0.11735473573207855
v 0.39195066690444946 0.3776831030845642 0.11735473573207855
v 0.30665111541748047 -0.2923835217952728 0.11735473573207855
v 0.39195066690444946 0.3776831030845642 0.11735473573207855
v -0.30665111541748047 0.2923835217952728 0.11735473573207855
v -0.39195066690444946 0.3776831030845642 0.11735473573207855
v 0.30665111541748047 0.2923835217952728 0.11735473573207855
v -0.39195066690444946 0.3776831030845642 0.11735473573207855
v -0.30665111541748047 -0.2923835217952728 0.11735473573207855
v -0.39195066690444946 -0.3776831030845642 0.11735473573207855
v -0.30665111541748047 0.2923835217952728 0.11735473573207855
v -0.30665111541748047 -0.2923835217952728 0.11735473573207855
v 0.30665111541748047 -0.2923835217952728 0.47683489322662354
v 0.30665111541748047 -0.2923835217952728 0.11735473573207855
v -0.30665111541748047 -0.2923835217952728 0.47683489322662354
v 0.30665111541748047 -0.2923835217952728 0.11735473573207855
v 0.30665111541748047 0.2923835217952728 0.47683489322662354
v 0.30665111541748047 0.2923835217952728 0.11735473573207855
v 0.30665111541748047 -0.2923835217952728 0.47683489322662354
v 0.30665111541748047 0.2923835217952728 0.11735473573207855
v -0.30665111541748047 0.2923835217952728 0.47683489322662354
v -0.30665111541748047 0.2923835217952728 0.11735473573207855
v 0.30665111541748047 0.2923835217952728 0.47683489322662354
v -0.30665111541748047 0.2923835217952728 0.11735473573207855
v -0.30665111541748047 -0.2923835217952728 0.47683489322662354
v -0.30665111541748047 -0.2923835217952728 0.11735473573207855
v -0.30665111541748047 0.2923835217952728 0.47683489322662354
v -0.42590782046318054 -0.406091570854187 2.2866082191467285
v 0.42590782046318054 0.406091570854187 2.2866082191467285
v 0.42590782046318054 -0.406091570854187 2.2866082191467285
v -0.42590782046318054 0.406091570854187 2.2866082191467285
v -0.42590782046318054 -0.4060916304588318 2.1105399131774902
v 0.42590782046318054 -0.406091570854187 2.2866082191467285
v 0.42590782046318054 -0.4060916304588318 2.1105399131774902
v -0.42590782046318054 -0.406091570854187 2.2866082191467285
v 0.42590782046318054 -0.4060916304588318 2.1105399131774902
v 0.42590782046318054 0.406091570854187 2.2866082191467285
v 0.42590782046318054 0.40609148144721985 2.1105399131774902
v 0.42590782046318054 -0.406091570854187 2.2866082191467285
v 0.42590782046318054 0.40609148144721985 2.1105399131774902
v -0.42590782046318054 0.406091570854187 2.2866082191467285
v -0.42590782046318054 0.40609148144721985 2.1105399131774902
v 0.42590782046318054 0.406091570854187 2.2866082191467285
v -0.42590782046318054 0.40609148144721985 2.1105399131774902
v -0.42590782046318054 -0.406091570854187 2.2866082191467285
v -0.42590782046318054 -0.4060916304588318 2.1105399131774902
v -0.42590782046318054 0.406091570854187 2.2866082191467285
v -0.39195066690444946 -0.3776831030845642 0.4736204445362091
v 0.39195066690444946 -0.3776831030845642 0.5909751653671265
v 0.39195066690444946 -0.3776831030845642 0.4736204445362091
v -0.39195066690444946 -0.3776831030845642 0.5909751653671265
v 0.39195066690444946 -0.3776831030845642 0.4736204445362091
v 0.39195066690444946 0.3776831030845642 0.5909751653671265
v 0.39195066690444946 0.3776831030845642 0.4736204445362091
v 0.39195066690444946 -0.3776831030845642 0.5909751653671265
v 0.39195066690444946 0.3776831030845642 0.4736204445362091
v -0.39195066690444946 0.3776831030845642 0.5909751653671265
v -0.39195066690444946 0.3776831030845642 0.4736204445362091
v 0.39195066690444946 0.3776831030845642 0.5909751653671265
v -0.39195066690444946 0.3776831030845642 0.4736204445362091
v -0.39195066690444946 -0.3776831030845642 0.5909751653671265
v -0.39195066690444946 -0.3776831030845642 0.4736204445362091
v -0.39195066690444946 0.3776831030845642 0.5909751653671265
v -0.39195066690444946 -0.3776831030845642 0.5909751653671265
v 0.26983100175857544 -0.2572765350341797 0.5909751653671265
v 0.39195066690444946 -0.3776831030845642 0.5909751653671265
v -0.26983100175857544 -0.2572765350341797 0.5909751653671265
v 0.39195066690444946 -0.3776831030845642 0.5909751653671265
v 0.26983100175857544 0.2572765648365021 0.5909751653671265
v 0.39195066690444946 0.3776831030845642 0.5909751653671265
v 0.26983100175857544 -0.2572765350341797 0.5909751653671265
v 0.39195066690444946 0.3776831030845642 0.5909751653671265
v -0.26983100175857544 0.2572765648365021 0.5909751653671265
v -0.39195066690444946 0.3776831030845642 0.5909751653671265
v 0.26983100175857544 0.2572765648365021 0.5909751653671265
v -0.39195066690444946 0.3776831030845642 0.5909751653671265
v -0.26983100175857544 -0.2572765350341797 0.5909751653671265
v -0.39195066690444946 -0.3776831030845642 0.5909751653671265
v -0.26983100175857544 0.2572765648365021 0.5909751653671265
v -0.3719312846660614 -0.3546264171600342 1.976335048675537
v 0.3719312846660614 -0.35462644696235657 2.1134462356567383
v 0.3719312846660614 -0.3546264171600342 1.976335048675537
v -0.3719312846660614 -0.35462644696235657 2.1134462356567383
v 0.3719312846660614 -0.3546264171600342 1.976335048675537
v 0.3719312846660614 0.3546263873577118 2.1134462356567383
v 0.3719312846660614 0.3546264171600342 1.976335048675537
v 0.3719312846660614 -0.35462644696235657 2.1134462356567383
v 0.3719312846660614 0.3546264171600342 1.976335048675537
v -0.3719312846660614 0.3546263873577118 2.1134462356567383
v -0.3719312846660614 0.3546264171600342 1.976335048675537
v 0.3719312846660614 0.3546263873577118 2.1134462356567383
v -0.3719312846660614 0.3546264171600342 1.976335048675537
v -0.3719312846660614 -0.35462644696235657 2.1134462356567383
v -0.3719312846660614 -0.3546264171600342 1.976335048675537
v -0.3719312846660614 0.3546263873577118 2.1134462356567383
v -0.16786085069179535 0.26002565026283264 0.5909751653671265
v 0.16786080598831177 0.26002568006515503 1.9772862195968628
v -0.16786083579063416 0.26002565026283264 1.9772862195968628
v 0.16786079108715057 0.26002568006515503 0.5909751653671265
v -0.30665111541748047 0.2923835217952728 0.5909752249717712
v -0.16786083579063416 0.29238349199295044 1.9772862195968628
v -0.30665111541748047 0.2923835217952728 1.9772863388061523
v -0.16786085069179535 0.29238349199295044 0.5909751653671265
v 0.3066510856151581 0.2923835217952728 1.9772862195968628
v 0.16786079108715057 0.2923835217952728 0.5909751653671265
v 0.3066510856151581 0.2923835217952728 0.5909751653671265
v 0.16786080598831177 0.2923835217952728 1.9772862195968628
v 0.16786080598831177 0.2923835217952728 1.9772862195968628
v 0.16786079108715057 0.26002568006515503 0.5909751653671265
v 0.16786079108715057 0.2923835217952728 0.5909751653671265
v 0.16786080598831177 0.26002568006515503 1.9772862195968628
v -0.16786085069179535 0.29238349199295044 0.5909751653671265
v -0.16786083579063416 0.26002565026283264 1.9772862195968628
v -0.16786083579063416 0.29238349199295044 1.9772862195968628
v -0.16786085069179535 0.26002565026283264 0.5909751653671265
v -0.2742920219898224 -0.16786083579063416 0.5909753441810608
v -0.2742920219898224 0.16786083579063416 1.9772863388061523
v -0.2742920219898224 -0.16786080598831177 1.9772863388061523
v -0.2742920219898224 0.16786080598831177 0.5909753441810608
v -0.3066498637199402 -0.29238319396972656 0.5909752249717712
v -0.3066498637199402 -0.16786080598831177 1.9772863388061523
v -0.3066498637199402 -0.29238319396972656 1.9772863388061523
v -0.3066498637199402 -0.16786083579063416 0.5909753441810608
v -0.30665111541748047 0.2923835217952728 1.9772863388061523
v -0.3066498637199402 0.16786080598831177 0.5909753441810608
v -0.30665111541748047 0.2923835217952728 0.5909752249717712
v -0.3066498637199402 0.16786083579063416 1.9772863388061523
v -0.3066498637199402 0.16786083579063416 1.9772863388061523
v -0.2742920219898224 0.16786080598831177 0.5909753441810608
v -0.3066498637199402 0.16786080598831177 0.5909753441810608
v -0.2742920219898224 0.16786083579063416 1.9772863388061523
v -0.3066498637199402 -0.16786083579063416 0.5909753441810608
v -0.2742920219898224 -0.16786080598831177 1.9772863388061523
v -0.3066498637199402 -0.16786080598831177 1.9772863388061523
v -0.2742920219898224 -0.16786083579063416 0.5909753441810608
v 0.16786083579063416 -0.26002568006515503 0.5909751653671265
v -0.16786083579063416 -0.26002568006515503 1.9772862195968628
v 0.16786080598831177 -0.26002568006515503 1.9772862195968628
v -0.16786080598831177 -0.26002568006515503 0.5909751653671265
v 0.3066510856151581 -0.2923835217952728 0.5909751653671265
v 0.16786080598831177 -0.2923835217952728 1.9772862195968628
v 0.3066510856151581 -0.2923835217952728 1.9772862195968628
v 0.16786083579063416 -0.2923835217952728 0.5909751653671265
v -0.3066498637199402 -0.29238319396972656 1.9772863388061523
v -0.16786080598831177 -0.2923835217952728 0.5909751653671265
v -0.3066498637199402 -0.29238319396972656 0.5909752249717712
v -0.16786083579063416 -0.2923835217952728 1.9772862195968628
v -0.16786083579063416 -0.2923835217952728 1.9772862195968628
v -0.16786080598831177 -0.26002568006515503 0.5909751653671265
v -0.16786080598831177 -0.2923835217952728 0.5909751653671265
v -0.16786083579063416 -0.26002568006515503 1.9772862195968628
v 0.16786083579063416 -0.2923835217952728 0.5909751653671265
v 0.16786080598831177 -0.26002568006515503 1.9772862195968628
v 0.16786080598831177 -0.2923835217952728 1.9772862195968628
v 0.16786083579063416 -0.26002568006515503 0.5909751653671265
v 0.2742932140827179 0.16786083579063416 0.5909751653671265
v 0.27429327368736267 -0.16786083579063416 1.9772862195968628
v 0.2742932140827179 0.16786080598831177 1.9772862195968628
v 0.27429327368736267 -0.16786080598831177 0.5909751653671265
v 0.3066510856151581 0.2923835217952728 0.5909751653671265
v 0.3066510558128357 0.16786080598831177 1.9772862195968628
v 0.3066510856151581 0.2923835217952728 1.9772862195968628
v 0.3066510558128357 0.16786083579063416 0.5909751653671265
v 0.3066510856151581 -0.2923835217952728 1.9772862195968628
v 0.30665111541748047 -0.16786080598831177 0.5909751653671265
v 0.3066510856151581 -0.2923835217952728 0.5909751653671265
v 0.30665111541748047 -0.16786083579063416 1.9772862195968628
v 0.30665111541748047 -0.16786083579063416 1.9772862195968628
v 0.27429327368736267 -0.16786080598831177 0.5909751653671265
v 0.30665111541748047 -0.16786080598831177 0.5909751653671265
v 0.27429327368736267 -0.16786083579063416 1.9772862195968628
v 0.3066510558128357 0.16786083579063416 0.5909751653671265
v 0.2742932140827179 0.16786080598831177 1.9772862195968628
v 0.3066510558128357 0.16786080598831177 1.9772862195968628
v 0.2742932140827179 0.16786083579063416 0.5909751653671265
vn -0.0 -1.0 0.0
vn -0.0 -1.0 0.0
vn -0.0 -1.0 0.0
vn -0.0 -1.0 0.0
vn 1.0 0.0 0.0
vn 1.0 0.0 0.0
vn 1.0 0.0 0.0
vn 1.0 0.0 0.0
vn -0.0 1.0 0.0
vn -0.0 1.0 0.0
vn -0.0 1.0 0.0
vn -0.0 1.0 0.0
vn -1.0 0.0 0.0
vn -1.0 0.0 0.0
vn -1.0 0.0 0.0
vn -1.0 0.0 0.0
vn -0.0 0.0 1.0
vn -0.0 0.0 1.0
vn -0.0 0.0 1.0
vn -0.0 0.0 1.0
vn -0.0 0.0 1.0
vn -0.0 0.0 1.0
vn -0.0 0.0 1.0
vn -0.0 0.0 1.0
vn -0.0 0.0 1.0
vn -0.0 0.0 1.0
vn -0.0 0.0 1.0
vn -0.0 0.0 1.0
vn -0.0 0.0 1.0
vn -0.0 0.0 1.0
vn -0.0 0.0 1.0
vn -0.0 0.0 1.0
vn -0.0 -1.0 0.0
vn -0.0 -1.0 0.0
vn -0.0 -1.0 0.0
vn -0.0 -1.0 0.0
vn 1.0 0.0 0.0
vn 1.0 0.0 0.0
vn 1.0 0.0 0.0
vn 1.0 0.0 0.0
vn -0.0 1.0 0.0
vn -0.0 1.0 0.0
vn -0.0 1.0 0.0
vn -0.0 1.0 0.0
vn -1.0 0.0 0.0
vn -1.0 0.0 0.0
vn -1.0 0.0 0.0
vn -1.0 0.0 0.0
vn -0.0 0.0 1.0
vn -0.0 0.0 1.0
vn -0.0 0.0 1.0
vn -0.0 0.0 1.0
vn -0.0 -1.0 4.3331988308636937e-07
vn -0.0 -1.0 4.333199115080788e-07
vn -0.0 -1.0 4.3331988308636937e-07
vn -0.0 -1.0 4.3331988308636937e-07
vn 1.0 0.0 0.0
vn 1.0 0.0 0.0
vn 1.0 0.0 0.0
vn 1.0 0.0 0.0
vn -0.0 1.0 -4.3331988308636937e-07
vn -0.0 1.0 -4.333199115080788e-07
vn -0.0 1.0 -4.3331988308636937e-07
vn -0.0 1.0 -4.3331988308636937e-07
vn -1.0 0.0 0.0
vn -1.0 0.0 0.0
vn -1.0 0.0 0.0
vn -1.0 0.0 0.0
vn -0.0 -1.0 0.0
vn -0.0 -1.0 0.0
vn -0.0 -1.0 0.0
vn -0.0 -1.0 0.0
vn 1.0 0.0 0.0
vn 1.0 0.0 0.0
vn 1.0 0.0 0.0
vn 1.0 0.0 0.0
vn -0.0 1.0 0.0
vn -0.0 1.0 0.0
vn -0.0 1.0 0.0
vn -0.0 1.0 0.0
vn -1.0 0.0 0.0
vn -1.0 0.0 0.0
vn -1.0 0.0 0.0
vn -1.0 0.0 0.0
vn -0.0 0.0 1.0
vn -0.0 0.0 1.0
vn -0.0 0.0 1.0
vn -0.0 0.0 1.0
vn -0.0 0.0 1.0
vn -0.0 0.0 1.0
vn -0.0 0.0 1.0
vn -0.0 0.0 1.0
vn -0.0 0.0 1.0
vn -0.0 0.0 1.0
vn -0.0 0.0 1.0
vn -0.0 0.0 1.0
vn -0.0 0.0 1.0
vn -0.0 0.0 1.0
vn -0.0 0.0 1.0
vn -0.0 0.0 1.0
vn -0.0 -1.0 -2.782192325412325e-07
vn -0.0 -1.0 -2.782192325412325e-07
vn -0.0 -1.0 -2.782192325412325e-07
vn -0.0 -1.0 -2.782192325412325e-07
vn 1.0 0.0 0.0
vn 1.0 0.0 0.0
vn 1.0 0.0 0.0
vn 1.0 0.0 0.0
vn -0.0 1.0 2.782192325412325e-07
vn -0.0 1.0 2.782192325412325e-07
vn -0.0 1.0 2.782192325412325e-07
vn -0.0 1.0 2.782192325412325e-07
vn -1.0 0.0 0.0
vn -1.0 0.0 0.0
vn -1.0 0.0 0.0
vn -1.0 0.0 0.0
vn -1.1362678264958959e-07 1.0 0.0
vn -1.1362678264958959e-07 1.0 0.0
vn -1.1362678264958959e-07 1.0 0.0
vn -1.1362678264958959e-07 1.0 0.0
vn 1.3742666737925902e-07 1.0 0.0
vn 1.3742668159011373e-07 1.0 0.0
vn 1.3742666737925902e-07 1.0 0.0
vn 1.3742669580096845e-07 1.0 0.0
vn -0.0 1.0 0.0
vn -0.0 1.0 0.0
vn -0.0 1.0 0.0
vn -0.0 1.0 0.0
vn -1.0 0.0 0.0
vn -1.0 0.0 0.0
vn -1.0 0.0 0.0
vn -1.0 0.0 0.0
vn 1.0 0.0 0.0
vn 1.0 0.0 0.0
vn 1.0 0.0 0.0
vn 1.0 0.0 0.0
vn -1.0 0.0 0.0
vn -1.0 0.0 0.0
vn -1.0 0.0 0.0
vn -1.0 0.0 0.0
vn -1.0 0.0 0.0
vn -1.0 0.0 0.0
vn -1.0 0.0 0.0
vn -1.0 0.0 0.0
vn -1.0 -9.956229405361228e-06 0.0
vn -1.0 -9.956229405361228e-06 0.0
vn -1.0 -9.956229405361228e-06 0.0
vn -1.0 -9.956232133845333e-06 0.0
vn -0.0 -1.0 0.0
vn -0.0 -1.0 0.0
vn -0.0 -1.0 0.0
vn -0.0 -1.0 0.0
vn -0.0 1.0 0.0
vn -0.0 1.0 0.0
vn -0.0 1.0 0.0
vn -0.0 1.0 0.0
vn -0.0 -1.0 0.0
vn -0.0 -1.0 0.0
vn -0.0 -1.0 0.0
vn -0.0 -1.0 0.0
vn -0.0 -1.0 0.0
vn -0.0 -1.0 0.0
vn -0.0 -1.0 0.0
vn -0.0 -1.0 0.0
vn -2.198846004830557e-06 -1.0 0.0
vn -2.198846004830557e-06 -1.0 0.0
vn -2.198846004830557e-06 -1.0 0.0
vn -2.198846459577908e-06 -1.0 0.0
vn 1.0 0.0 0.0
vn 1.0 0.0 0.0
vn 1.0 0.0 0.0
vn 1.0 0.0 0.0
vn -1.0 0.0 0.0
vn -1.0 0.0 0.0
vn -1.0 0.0 0.0
vn -1.0 0.0 0.0
vn 1.0 1.1362678264958959e-07 0.0
vn 1.0 1.1362678264958959e-07 0.0
vn 1.0 1.1362678264958959e-07 0.0
vn 1.0 1.1362678264958959e-07 0.0
vn 1.0 -1.5317276336190844e-07 0.0
vn 1.0 -1.5317274915105372e-07 0.0
vn 1.0 -1.53172734940199e-07 0.0
vn 1.0 -1.5317276336190844e-07 0.0
vn 1.0 -1.5317276336190844e-07 0.0
vn 1.0 -1.5317276336190844e-07 0.0
vn 1.0 -1.5317276336190844e-07 0.0
vn 1.0 -1.5317279178361787e-07 0.0
vn -0.0 1.0 0.0
vn -0.0 1.0 0.0
vn -0.0 1.0 0.0
vn -0.0 1.0 0.0
vn -0.0 -1.0 0.0
vn -0.0 -1.0 0.0
vn -0.0 -1.0 0.0
vn -0.0 -1.0 0.0
vt 0.48763832449913025 0.9937437102198601
vt 0.9940391778945923 0.9112347736954689
vt 0.9940391778945923 0.9937437102198601
vt 0.48763832449913025 0.9112347736954689
vt 0.48763832449913025 0.9937437102198601
vt 0.9940391778945923 0.9112347736954689
vt 0.9940391778945923 0.9937437102198601
vt 0.48763832449913025 0.9112347736954689
vt 0.48763832449913025 0.9937437102198601
vt 0.9940391778945923 0.9112347736954689
vt 0.9940391778945923 0.9937437102198601
vt 0.48763832449913025 0.9112347736954689
vt 0.48763832449913025 0.9937437102198601
vt 0.9940391778945923 0.9112347736954689
vt 0.9940391778945923 0.9937437102198601
vt 0.48763832449913025 0.9112347736954689
vt 0.48763832449913025 0.9112347736954689
vt 0.9389355182647705 0.8369344919919968
vt 0.9940391778945923 0.9112347736954689
vt 0.5427418947219849 0.8369344919919968
vt 0.48763832449913025 0.9112347736954689
vt 0.9368538856506348 0.8369344919919968
vt 0.9940391778945923 0.9112347736954689
vt 0.5448234677314758 0.8369344919919968
vt 0.48763832449913025 0.9112347736954689
vt 0.9389355182647705 0.8369344919919968
vt 0.9940391778945923 0.9112347736954689
vt 0.5427418947219849 0.8369344919919968
vt 0.48763832449913025 0.9112347736954689
vt 0.9368538856506348 0.8369344919919968
vt 0.9940391778945923 0.9112347736954689
vt 0.5448234677314758 0.8369344919919968
vt 0.49366405606269836 0.8284637331962585
vt 0.9832195043563843 0.5484111309051514
vt 0.9832195043563843 0.8284637331962585
vt 0.49366405606269836 0.5484111309051514
vt 0.49366405606269836 0.8284637331962585
vt 0.9832195043563843 0.5484111309051514
vt 0.9832195043563843 0.8284637331962585
vt 0.49366405606269836 0.5484111309051514
vt 0.49366405606269836 0.8284637331962585
vt 0.9832195043563843 0.5484111309051514
vt 0.9832195043563843 0.8284637331962585
vt 0.49366405606269836 0.5484111309051514
vt 0.49366405606269836 0.8284637331962585
vt 0.9832195043563843 0.5484111309051514
vt 0.9832195043563843 0.8284637331962585
vt 0.49366405606269836 0.5484111309051514
vt 0.4933727979660034 0.37942957878112793
vt 0.9801488518714905 0.0033463239669799805
vt 0.9801488518714905 0.37942957878112793
vt 0.4933727979660034 0.0033463239669799805
vt 0.4933727979660034 0.45356833934783936
vt 0.9801488518714905 0.37942957878112793
vt 0.9801488518714905 0.45356833934783936
vt 0.4933727979660034 0.37942957878112793
vt 0.4933727979660034 0.45356833934783936
vt 0.9801488518714905 0.37942957878112793
vt 0.9801488518714905 0.45356833934783936
vt 0.4933727979660034 0.37942957878112793
vt 0.4933727979660034 0.45356833934783936
vt 0.9801488518714905 0.37942957878112793
vt 0.9801488518714905 0.45356833934783936
vt 0.4933727979660034 0.37942957878112793
vt 0.4933727979660034 0.45356833934783936
vt 0.9801488518714905 0.37942957878112793
vt 0.9801488518714905 0.45356833934783936
vt 0.4933727979660034 0.37942957878112793
vt 0.48763832449913025 0.9937437102198601
vt 0.9940391778945923 0.9112347736954689
vt 0.9940391778945923 0.9937437102198601
vt 0.48763832449913025 0.9112347736954689
vt 0.48763832449913025 0.9937437102198601
vt 0.9940391778945923 0.9112347736954689
vt 0.9940391778945923 0.9937437102198601
vt 0.48763832449913025 0.9112347736954689
vt 0.48763832449913025 0.9937437102198601
vt 0.9940391778945923 0.9112347736954689
vt 0.9940391778945923 0.9937437102198601
vt 0.48763832449913025 0.9112347736954689
vt 0.48763832449913025 0.9937437102198601
vt 0.9940391778945923 0.9112347736954689
vt 0.9940391778945923 0.9937437102198601
vt 0.48763832449913025 0.9112347736954689
vt 0.48763832449913025 0.9112347736954689
vt 0.9389355182647705 0.8369344919919968
vt 0.9940391778945923 0.9112347736954689
vt 0.5427418947219849 0.8369344919919968
vt 0.48763832449913025 0.9112347736954689
vt 0.9368538856506348 0.8369344919919968
vt 0.9940391778945923 0.9112347736954689
vt 0.5448234677314758 0.8369344919919968
vt 0.48763832449913025 0.9112347736954689
vt 0.9389355182647705 0.8369344919919968
vt 0.9940391778945923 0.9112347736954689
vt 0.5427418947219849 0.8369344919919968
vt 0.48763832449913025 0.9112347736954689
vt 0.9368538856506348 0.8369344919919968
vt 0.9940391778945923 0.9112347736954689
vt 0.5448234677314758 0.8369344919919968
vt 0.4968996047973633 0.5380328595638275
vt 0.9802778363227844 0.46623140573501587
vt 0.9802778363227844 0.5380328595638275
vt 0.4968996047973633 0.46623140573501587
vt 0.4968996047973633 0.5380328595638275
vt 0.9802778363227844 0.46623140573501587
vt 0.9802778363227844 0.5380328595638275
vt 0.4968996047973633 0.46623140573501587
vt 0.4968996047973633 0.5380328595638275
vt 0.9802778363227844 0.46623140573501587
vt 0.9802778363227844 0.5380328595638275
vt 0.4968996047973633 0.46623140573501587
vt 0.4968996047973633 0.5380328595638275
vt 0.9802778363227844 0.46623140573501587
vt 0.9802778363227844 0.5380328595638275
vt 0.4968996047973633 0.46623140573501587
vt 0.35278618335723877 0.9973299552220851
vt 0.12022963166236877 0.000483095645904541
vt 0.3527861535549164 0.000483095645904541
vt 0.12022966891527176 0.9973299552220851
vt 0.4713415801525116 0.9973299552220851
vt 0.37520065903663635 0.000483095645904541
vt 0.4713415801525116 0.000483095645904541
vt 0.37520065903663635 0.9973299552220851
vt 0.0016742604784667492 0.000483095645904541
vt 0.09781518578529358 0.9973299552220851
vt 0.0016742604784667492 0.9973299552220851
vt 0.0978151485323906 0.000483095645904541
vt 0.0978151485323906 0.000483095645904541
vt 0.12022966891527176 0.9973299552220851
vt 0.09781518578529358 0.9973299552220851
vt 0.12022963166236877 0.000483095645904541
vt 0.37520065903663635 0.9973299552220851
vt 0.3527861535549164 0.000483095645904541
vt 0.37520065903663635 0.000483095645904541
vt 0.35278618335723877 0.9973299552220851
vt 0.35278618335723877 0.9973299552220851
vt 0.12022963166236877 0.000483095645904541
vt 0.3527861535549164 0.000483095645904541
vt 0.12022966891527176 0.9973299552220851
vt 0.4713415801525116 0.9973299552220851
vt 0.37520065903663635 0.000483095645904541
vt 0.4713415801525116 0.000483095645904541
vt 0.37520065903663635 0.9973299552220851
vt 0.0016742604784667492 0.000483095645904541
vt 0.09781518578529358 0.9973299552220851
vt 0.0016742604784667492 0.9973299552220851
vt 0.0978151485323906 0.000483095645904541
vt 0.0978151485323906 0.000483095645904541
vt 0.12022966891527176 0.9973299552220851
vt 0.09781518578529358 0.9973299552220851
vt 0.12022963166236877 0.000483095645904541
vt 0.37520065903663635 0.9973299552220851
vt 0.3527861535549164 0.000483095645904541
vt 0.37520065903663635 0.000483095645904541
vt 0.35278618335723877 0.9973299552220851
vt 0.35278618335723877 0.9973299552220851
vt 0.12022963166236877 0.000483095645904541
vt 0.3527861535549164 0.000483095645904541
vt 0.12022966891527176 0.9973299552220851
vt 0.4713415801525116 0.9973299552220851
vt 0.37520065903663635 0.000483095645904541
vt 0.4713415801525116 0.000483095645904541
vt 0.37520065903663635 0.9973299552220851
vt 0.0016742604784667492 0.000483095645904541
vt 0.09781518578529358 0.9973299552220851
vt 0.0016742604784667492 0.9973299552220851
vt 0.0978151485323906 0.000483095645904541
vt 0.0978151485323906 0.000483095645904541
vt 0.12022966891527176 0.9973299552220851
vt 0.09781518578529358 0.9973299552220851
vt 0.12022963166236877 0.000483095645904541
vt 0.37520065903663635 0.9973299552220851
vt 0.3527861535549164 0.000483095645904541
vt 0.37520065903663635 0.000483095645904541
vt 0.35278618335723877 0.9973299552220851
vt 0.35278618335723877 0.9973299552220851
vt 0.12022963166236877 0.000483095645904541
vt 0.3527861535549164 0.000483095645904541
vt 0.12022966891527176 0.9973299552220851
vt 0.4713415801525116 0.9973299552220851
vt 0.37520065903663635 0.000483095645904541
vt 0.4713415801525116 0.000483095645904541
vt 0.37520065903663635 0.9973299552220851
vt 0.0016742604784667492 0.000483095645904541
vt 0.09781518578529358 0.9973299552220851
vt 0.0016742604784667492 0.9973299552220851
vt 0.0978151485323906 0.000483095645904541
vt 0.0978151485323906 0.000483095645904541
vt 0.12022966891527176 0.9973299552220851
vt 0.09781518578529358 0.9973299552220851
vt 0.12022963166236877 0.000483095645904541
vt 0.37520065903663635 0.9973299552220851
vt 0.3527861535549164 0.000483095645904541
vt 0.37520065903663635 0.000483095645904541
vt 0.35278618335723877 0.9973299552220851

g bg_mdl_map_hasira00
s 1
usemtl bg_mdl_map_hasira00
f 3/3/3 2/2/2 1/1/1 
f 4/4/4 1/1/1 2/2/2 
f 7/7/7 6/6/6 5/5/5 
f 8/8/8 5/5/5 6/6/6 
f 11/11/11 10/10/10 9/9/9 
f 12/12/12 9/9/9 10/10/10 
f 15/15/15 14/14/14 13/13/13 
f 16/16/16 13/13/13 14/14/14 
f 19/19/19 18/18/18 17/17/17 
f 20/20/20 17/17/17 18/18/18 
f 23/23/23 22/22/22 21/21/21 
f 24/24/24 21/21/21 22/22/22 
f 27/27/27 26/26/26 25/25/25 
f 28/28/28 25/25/25 26/26/26 
f 31/31/31 30/30/30 29/29/29 
f 32/32/32 29/29/29 30/30/30 
f 35/35/35 34/34/34 33/33/33 
f 36/36/36 33/33/33 34/34/34 
f 39/39/39 38/38/38 37/37/37 
f 40/40/40 37/37/37 38/38/38 
f 43/43/43 42/42/42 41/41/41 
f 44/44/44 41/41/41 42/42/42 
f 47/47/47 46/46/46 45/45/45 
f 48/48/48 45/45/45 46/46/46 
f 51/51/51 50/50/50 49/49/49 
f 52/52/52 49/49/49 50/50/50 
f 55/55/55 54/54/54 53/53/53 
f 56/56/56 53/53/53 54/54/54 
f 59/59/59 58/58/58 57/57/57 
f 60/60/60 57/57/57 58/58/58 
f 63/63/63 62/62/62 61/61/61 
f 64/64/64 61/61/61 62/62/62 
f 67/67/67 66/66/66 65/65/65 
f 68/68/68 65/65/65 66/66/66 
f 71/71/71 70/70/70 69/69/69 
f 72/72/72 69/69/69 70/70/70 
f 75/75/75 74/74/74 73/73/73 
f 76/76/76 73/73/73 74/74/74 
f 79/79/79 78/78/78 77/77/77 
f 80/80/80 77/77/77 78/78/78 
f 83/83/83 82/82/82 81/81/81 
f 84/84/84 81/81/81 82/82/82 
f 87/87/87 86/86/86 85/85/85 
f 88/88/88 85/85/85 86/86/86 
f 91/91/91 90/90/90 89/89/89 
f 92/92/92 89/89/89 90/90/90 
f 95/95/95 94/94/94 93/93/93 
f 96/96/96 93/93/93 94/94/94 
f 99/99/99 98/98/98 97/97/97 
f 100/100/100 97/97/97 98/98/98 
f 103/103/103 102/102/102 101/101/101 
f 104/104/104 101/101/101 102/102/102 
f 107/107/107 106/106/106 105/105/105 
f 108/108/108 105/105/105 106/106/106 
f 111/111/111 110/110/110 109/109/109 
f 112/112/112 109/109/109 110/110/110 
f 115/115/115 114/114/114 113/113/113 
f 116/116/116 113/113/113 114/114/114 
f 119/119/119 118/118/118 117/117/117 
f 120/120/120 117/117/117 118/118/118 
f 123/123/123 122/122/122 121/121/121 
f 124/124/124 121/121/121 122/122/122 
f 127/127/127 126/126/126 125/125/125 
f 128/128/128 125/125/125 126/126/126 
f 131/131/131 130/130/130 129/129/129 
f 132/132/132 129/129/129 130/130/130 
f 135/135/135 134/134/134 133/133/133 
f 136/136/136 133/133/133 134/134/134 
f 139/139/139 138/138/138 137/137/137 
f 140/140/140 137/137/137 138/138/138 
f 143/143/143 142/142/142 141/141/141 
f 144/144/144 141/141/141 142/142/142 
f 147/147/147 146/146/146 145/145/145 
f 148/148/148 145/145/145 146/146/146 
f 151/151/151 150/150/150 149/149/149 
f 152/152/152 149/149/149 150/150/150 
f 155/155/155 154/154/154 153/153/153 
f 156/156/156 153/153/153 154/154/154 
f 159/159/159 158/158/158 157/157/157 
f 160/160/160 157/157/157 158/158/158 
f 163/163/163 162/162/162 161/161/161 
f 164/164/164 161/161/161 162/162/162 
f 167/167/167 166/166/166 165/165/165 
f 168/168/168 165/165/165 166/166/166 
f 171/171/171 170/170/170 169/169/169 
f 172/172/172 169/169/169 170/170/170 
f 175/175/175 174/174/174 173/173/173 
f 176/176/176 173/173/173 174/174/174 
f 179/179/179 178/178/178 177/177/177 
f 180/180/180 177/177/177 178/178/178 
f 183/183/183 182/182/182 181/181/181 
f 184/184/184 181/181/181 182/182/182 
f 187/187/187 186/186/186 185/185/185 
f 188/188/188 185/185/185 186/186/186 
f 191/191/191 190/190/190 189/189/189 
f 192/192/192 189/189/189 190/190/190 
f 195/195/195 194/194/194 193/193/193 
f 196/196/196 193/193/193 194/194/194 

