v -0.005749289412051439 0.7170789241790771 5.96848201751709
v -0.19006524980068207 0.4416632652282715 6.044826984405518
v -0.0057492926716804504 0.4617132544517517 5.968481540679932
v -0.19006524980068207 0.7170789241790771 6.044827938079834
v -0.2664113938808441 0.39325857162475586 6.229144096374512
v -0.26641136407852173 0.7170789241790771 6.229144096374512
v -0.1900651454925537 0.34485381841659546 6.413460731506348
v -0.1900651454925537 0.7170789241790771 6.413459300994873
v -0.005749104544520378 0.32480388879776 6.48980712890625
v -0.005749104544520378 0.7170789241790771 6.489805698394775
v -0.19006527960300446 0.3063598871231079 5.96849250793457
v -0.005749308969825506 0.35706931352615356 5.909443378448486
v -0.2664113938808441 0.1839364916086197 6.111051082611084
v -0.1900651901960373 0.06151321157813072 6.253608226776123
v -0.0057491580955684185 0.010803756304085255 6.312657356262207
v -0.19006532430648804 0.21499526500701904 5.852058410644531
v -0.005749336909502745 0.288451224565506 5.82199764251709
v -0.2664114832878113 0.037656936794519424 5.924633026123047
v -0.19006527960300446 -0.1396813690662384 5.9972076416015625
v -0.005749247502535582 -0.2131374180316925 6.027268409729004
v -0.1900653839111328 0.1899110972881317 5.628170490264893
v -0.005749398842453957 0.26625728607177734 5.62390661239624
v -0.26641157269477844 0.005595188122242689 5.638463497161865
v -0.1900653839111328 -0.17872075736522675 5.648756504058838
v -0.005749368108808994 -0.25506696105003357 5.65302038192749
v -0.005749104544520378 0.7170789241790771 6.489805698394775
v 0.1785668581724167 0.34485378861427307 6.413460731506348
v -0.005749104544520378 0.32480388879776 6.48980712890625
v 0.1785668581724167 0.7170789241790771 6.413459300994873
v 0.2549129128456116 0.3932585120201111 6.229144096374512
v 0.2549128830432892 0.7170789241790771 6.229144096374512
v 0.17856664955615997 0.4416632652282715 6.044826984405518
v 0.17856661975383759 0.7170789241790771 6.044827938079834
v -0.0057492926716804504 0.4617132544517517 5.968481540679932
v -0.005749289412051439 0.7170789241790771 5.96848201751709
v 0.1785668134689331 0.06151321157813072 6.253608226776123
v -0.0057491580955684185 0.010803756304085255 6.312657356262207
v 0.2549129128456116 0.18393652141094208 6.111051082611084
v 0.17856661975383759 0.3063598871231079 5.96849250793457
v -0.005749308969825506 0.35706931352615356 5.909443378448486
v 0.17856672406196594 -0.1396813690662384 5.9972076416015625
v -0.005749247502535582 -0.2131374180316925 6.027268409729004
v 0.2549128234386444 0.03765694424510002 5.924633026123047
v 0.1785666048526764 0.214995339512825 5.852058410644531
v -0.005749336909502745 0.288451224565506 5.82199764251709
v 0.1785666048526764 -0.17872068285942078 5.648756504058838
v -0.005749368108808994 -0.25506696105003357 5.65302038192749
v 0.25491276383399963 0.0055951690301299095 5.638463497161865
v 0.17856651544570923 0.1899111121892929 5.628170490264893
v -0.005749398842453957 0.26625728607177734 5.62390661239624
v -0.1900653839111328 0.1899110972881317 5.628170490264893
v -0.005750051233917475 0.26625731587409973 4.637373924255371
v -0.005749398842453957 0.26625728607177734 5.62390661239624
v -0.19006602466106415 0.1899111121892929 4.639505386352539
v -0.26641222834587097 0.005595188122242689 4.644651889801025
v -0.26641157269477844 0.005595188122242689 5.638463497161865
v -0.19006605446338654 -0.17872078716754913 4.64979887008667
v -0.1900653839111328 -0.17872075736522675 5.648756504058838
v -0.005749368108808994 -0.25506696105003357 5.65302038192749
v -0.005750023759901524 -0.25506699085235596 4.651930332183838
v 0.1785666048526764 -0.17872068285942078 5.648756504058838
v -0.005750023759901524 -0.25506699085235596 4.651930332183838
v -0.005749368108808994 -0.25506696105003357 5.65302038192749
v 0.17856594920158386 -0.17872071266174316 4.64979887008667
v 0.25491276383399963 0.0055951690301299095 5.638463497161865
v 0.2549121081829071 0.0055951690301299095 4.644651889801025
v 0.17856651544570923 0.1899111121892929 5.628170490264893
v 0.1785658746957779 0.1899110972881317 4.639505386352539
v -0.005749398842453957 0.26625728607177734 5.62390661239624
v -0.005750051233917475 0.26625731587409973 4.637373924255371
v -0.005749180912971497 0.717078685760498 5.96848201751709
v -0.19006513059139252 1.1657723188400269 6.044827938079834
v -0.19006513059139252 0.717078685760498 6.044827938079834
v -0.005749180912971497 1.145722508430481 5.968481540679932
v -0.26641127467155457 1.214177131652832 6.229144096374512
v -0.26641127467155457 0.7170786261558533 6.229144096374512
v -0.19006496667861938 1.2625815868377686 6.413460731506348
v -0.19006498157978058 0.7170786261558533 6.413459300994873
v -0.005748911295086145 1.282631754875183 6.48980712890625
v -0.005748911295086145 0.7170786261558533 6.489805698394775
v -0.1900651454925537 1.3010755777359009 5.9684929847717285
v -0.005749208386987448 1.2503663301467896 5.909443378448486
v -0.26641127467155457 1.4234989881515503 6.111051082611084
v -0.19006501138210297 1.5459225177764893 6.253608226776123
v -0.005748996045440435 1.5966317653656006 6.312657356262207
v -0.19006524980068207 1.3924401998519897 5.852058410644531
v -0.00574925122782588 1.3189843893051147 5.82199764251709
v -0.26641136407852173 1.5697784423828125 5.924633026123047
v -0.1900652050971985 1.7471169233322144 5.9972076416015625
v -0.0057491278275847435 1.8205729722976685 6.027268409729004
v -0.19006533920764923 1.4175242185592651 5.628170490264893
v -0.005749343428760767 1.341178059577942 5.62390661239624
v -0.26641151309013367 1.6018403768539429 5.638463497161865
v -0.19006533920764923 1.786156415939331 5.648756980895996
v -0.005749306175857782 1.8625024557113647 5.65302038192749
v -0.005748911295086145 0.7170786261558533 6.489805698394775
v 0.17856702208518982 1.2625819444656372 6.413460731506348
v 0.17856700718402863 0.7170786261558533 6.413459300994873
v -0.005748911295086145 1.282631754875183 6.48980712890625
v 0.2549130618572235 1.2141770124435425 6.229144096374512
v 0.2549130320549011 0.7170786261558533 6.229144096374512
v 0.17856675386428833 1.1657723188400269 6.044826984405518
v 0.17856675386428833 0.717078685760498 6.044827938079834
v -0.005749180912971497 1.145722508430481 5.968481540679932
v -0.005749180912971497 0.717078685760498 5.96848201751709
v 0.17856694757938385 1.5459225177764893 6.253608226776123
v -0.005748996045440435 1.5966317653656006 6.312657356262207
v 0.2549130618572235 1.4234989881515503 6.111051082611084
v 0.17856675386428833 1.3010755777359009 5.96849250793457
v -0.005749208386987448 1.2503663301467896 5.909443378448486
v 0.1785668134689331 1.7471169233322144 5.9972076416015625
v -0.0057491278275847435 1.8205729722976685 6.027268409729004
v 0.25491294264793396 1.5697784423828125 5.924633026123047
v 0.17856666445732117 1.3924401998519897 5.852058410644531
v -0.00574925122782588 1.3189843893051147 5.82199764251709
v 0.17856666445732117 1.786156415939331 5.648756504058838
v -0.005749306175857782 1.8625024557113647 5.65302038192749
v 0.2549128234386444 1.6018403768539429 5.638463497161865
v 0.1785665601491928 1.4175242185592651 5.628170490264893
v -0.005749343428760767 1.341178059577942 5.62390661239624
v -0.19006533920764923 1.4175242185592651 5.628170490264893
v -0.0057503231801092625 1.341178059577942 3.548051595687866
v -0.19006633758544922 1.4175243377685547 3.550183057785034
v -0.005749343428760767 1.341178059577942 5.62390661239624
v -0.26641252636909485 1.6018404960632324 3.5553297996520996
v -0.26641151309013367 1.6018403768539429 5.638463497161865
v -0.19006633758544922 1.7861565351486206 3.560476064682007
v -0.19006533920764923 1.786156415939331 5.648756980895996
v -0.005749306175857782 1.8625024557113647 5.65302038192749
v -0.005750291980803013 1.8625024557113647 3.562608480453491
v 0.17856666445732117 1.786156415939331 5.648756504058838
v -0.005750291980803013 1.8625024557113647 3.562608480453491
v 0.17856565117835999 1.7861565351486206 3.5604770183563232
v -0.005749306175857782 1.8625024557113647 5.65302038192749
v 0.2549128234386444 1.6018403768539429 5.638463497161865
v 0.2549118101596832 1.6018403768539429 3.5553300380706787
v 0.1785665601491928 1.4175242185592651 5.628170490264893
v 0.17856556177139282 1.4175242185592651 3.5501835346221924
v -0.005749343428760767 1.341178059577942 5.62390661239624
v -0.0057503231801092625 1.341178059577942 3.548051595687866
v -0.19006633758544922 1.4175243377685547 3.550183057785034
v -0.005751303397119045 1.341178059577942 1.4721965789794922
v -0.19006729125976562 1.4175242185592651 1.4721965789794922
v -0.0057503231801092625 1.341178059577942 3.548051595687866
v -0.26641252636909485 1.6018404960632324 3.5553297996520996
v -0.26641348004341125 1.6018403768539429 1.4721965789794922
v -0.19006633758544922 1.7861565351486206 3.560476064682007
v -0.19006729125976562 1.786156415939331 1.4721965789794922
v -0.005750291980803013 1.8625024557113647 3.562608480453491
v -0.00575128011405468 1.8625024557113647 1.4721965789794922
v 0.17856565117835999 1.7861565351486206 3.5604770183563232
v -0.00575128011405468 1.8625024557113647 1.4721965789794922
v 0.17856471240520477 1.786156415939331 1.4721965789794922
v -0.005750291980803013 1.8625024557113647 3.562608480453491
v 0.2549118101596832 1.6018403768539429 3.5553300380706787
v 0.2549108564853668 1.6018403768539429 1.4721965789794922
v 0.17856556177139282 1.4175242185592651 3.5501835346221924
v 0.1785646229982376 1.4175242185592651 1.4721965789794922
v -0.0057503231801092625 1.341178059577942 3.548051595687866
v -0.005751303397119045 1.341178059577942 1.4721965789794922
v 0.3203481137752533 1.6024384498596191 5.595892906188965
v 0.27702829241752625 1.7641103267669678 5.657423973083496
v 0.27702829241752625 1.7641103267669678 5.595892906188965
v 0.3203481137752533 1.6024384498596191 5.657423973083496
v 0.27702829241752625 1.7641103267669678 5.595892906188965
v 0.15867625176906586 1.8824622631072998 5.657423973083496
v 0.15867625176906586 1.8824621438980103 5.595892906188965
v 0.27702829241752625 1.7641103267669678 5.657423973083496
v -0.0029956193175166845 1.9257820844650269 5.657423973083496
v -0.0029956193175166845 1.9257820844650269 5.595892906188965
v -0.0029956193175166845 1.9257820844650269 5.595892906188965
v -0.16466748714447021 1.8824621438980103 5.657423973083496
v -0.16466748714447021 1.8824621438980103 5.595892906188965
v -0.0029956193175166845 1.9257820844650269 5.657423973083496
v -0.2830195128917694 1.7641103267669678 5.657423973083496
v -0.2830195128917694 1.7641103267669678 5.595892906188965
v -0.2830195128917694 1.7641103267669678 5.595892906188965
v -0.32633933424949646 1.6024384498596191 5.657423973083496
v -0.32633933424949646 1.6024384498596191 5.595892906188965
v -0.2830195128917694 1.7641103267669678 5.657423973083496
v -0.32633933424949646 1.6024384498596191 5.595892906188965
v -0.2830195426940918 1.44076669216156 5.657423973083496
v -0.2830195426940918 1.440766453742981 5.595892906188965
v -0.32633933424949646 1.6024384498596191 5.657423973083496
v -0.2830195426940918 1.440766453742981 5.595892906188965
v -0.16466757655143738 1.322414517402649 5.657423973083496
v -0.16466757655143738 1.322414517402649 5.595892906188965
v -0.2830195426940918 1.44076669216156 5.657423973083496
v -0.002995755523443222 1.2790944576263428 5.657423973083496
v -0.002995755523443222 1.2790944576263428 5.595892906188965
v -0.002995755523443222 1.2790944576263428 5.595892906188965
v 0.15867610275745392 1.3224143981933594 5.657423973083496
v 0.15867610275745392 1.3224141597747803 5.595892906188965
v -0.002995755523443222 1.2790944576263428 5.657423973083496
v 0.2770282030105591 1.4407662153244019 5.657423973083496
v 0.2770282030105591 1.4407662153244019 5.595892906188965
v 0.2770282030105591 1.4407662153244019 5.595892906188965
v 0.3203481137752533 1.6024384498596191 5.657423973083496
v 0.3203481137752533 1.6024384498596191 5.595892906188965
v 0.2770282030105591 1.4407662153244019 5.657423973083496
v 0.3203481137752533 1.6024384498596191 5.657423973083496
v 0.19981598854064941 1.7195316553115845 5.657423973083496
v 0.27702829241752625 1.7641103267669678 5.657423973083496
v 0.23119105398654938 1.60243821144104 5.657423973083496
v 0.27702829241752625 1.7641103267669678 5.657423973083496
v 0.1140977293252945 1.8052499294281006 5.657423973083496
v 0.15867625176906586 1.8824622631072998 5.657423973083496
v 0.19981598854064941 1.7195316553115845 5.657423973083496
v -0.002995614428073168 1.8366247415542603 5.657423973083496
v -0.0029956193175166845 1.9257820844650269 5.657423973083496
v -0.0029956193175166845 1.9257820844650269 5.657423973083496
v -0.12008896470069885 1.8052499294281006 5.657423973083496
v -0.16466748714447021 1.8824621438980103 5.657423973083496
v -0.002995614428073168 1.8366247415542603 5.657423973083496
v -0.20580720901489258 1.7195316553115845 5.657423973083496
v -0.2830195128917694 1.7641103267669678 5.657423973083496
v -0.2830195128917694 1.7641103267669678 5.657423973083496
v -0.23718227446079254 1.60243821144104 5.657423973083496
v -0.32633933424949646 1.6024384498596191 5.657423973083496
v -0.20580720901489258 1.7195316553115845 5.657423973083496
v -0.32633933424949646 1.6024384498596191 5.657423973083496
v -0.20580728352069855 1.4853447675704956 5.657423973083496
v -0.2830195426940918 1.44076669216156 5.657423973083496
v -0.23718227446079254 1.60243821144104 5.657423973083496
v -0.2830195426940918 1.44076669216156 5.657423973083496
v -0.12008900195360184 1.3996267318725586 5.657423973083496
v -0.16466757655143738 1.322414517402649 5.657423973083496
v -0.20580728352069855 1.4853447675704956 5.657423973083496
v -0.0029957119841128588 1.3682514429092407 5.657423973083496
v -0.002995755523443222 1.2790944576263428 5.657423973083496
v -0.002995755523443222 1.2790944576263428 5.657423973083496
v 0.11409761756658554 1.399626612663269 5.657423973083496
v 0.15867610275745392 1.3224143981933594 5.657423973083496
v -0.0029957119841128588 1.3682514429092407 5.657423973083496
v 0.19981595873832703 1.485344648361206 5.657423973083496
v 0.2770282030105591 1.4407662153244019 5.657423973083496
v 0.2770282030105591 1.4407662153244019 5.657423973083496
v 0.23119105398654938 1.60243821144104 5.657423973083496
v 0.3203481137752533 1.6024384498596191 5.657423973083496
v 0.19981595873832703 1.485344648361206 5.657423973083496
v 0.32034817337989807 0.009732970967888832 5.595892906188965
v 0.27702832221984863 0.17140503227710724 5.657423973083496
v 0.27702832221984863 0.17140503227710724 5.595892906188965
v 0.32034817337989807 0.009732970967888832 5.657423973083496
v 0.27702832221984863 0.17140503227710724 5.595892906188965
v 0.15867628157138824 0.28975677490234375 5.657423973083496
v 0.15867628157138824 0.28975677490234375 5.595892906188965
v 0.27702832221984863 0.17140503227710724 5.657423973083496
v -0.0029956193175166845 0.33307647705078125 5.657423973083496
v -0.0029956193175166845 0.33307647705078125 5.595892906188965
v -0.0029956193175166845 0.33307647705078125 5.595892906188965
v -0.16466748714447021 0.28975677490234375 5.657423973083496
v -0.16466748714447021 0.28975677490234375 5.595892906188965
v -0.0029956193175166845 0.33307647705078125 5.657423973083496
v -0.2830195426940918 0.17140503227710724 5.657423973083496
v -0.2830195426940918 0.17140503227710724 5.595892906188965
v -0.2830195426940918 0.17140503227710724 5.595892906188965
v -0.32633936405181885 0.009732970967888832 5.657423973083496
v -0.32633936405181885 0.009732970967888832 5.595892906188965
v -0.2830195426940918 0.17140503227710724 5.657423973083496
v -0.32633936405181885 0.009732970967888832 5.595892906188965
v -0.2830195724964142 -0.15193846821784973 5.657423973083496
v -0.2830195724964142 -0.15193939208984375 5.595892906188965
v -0.32633936405181885 0.009732970967888832 5.657423973083496
v -0.2830195724964142 -0.15193939208984375 5.595892906188965
v -0.16466760635375977 -0.27029111981391907 5.657423973083496
v -0.16466760635375977 -0.27029111981391907 5.595892906188965
v -0.2830195724964142 -0.15193846821784973 5.657423973083496
v -0.002995755523443222 -0.31361082196235657 5.657423973083496
v -0.002995755523443222 -0.31361082196235657 5.595892906188965
v -0.002995755523443222 -0.31361082196235657 5.595892906188965
v 0.15867610275745392 -0.27029111981391907 5.657423973083496
v 0.15867610275745392 -0.27029144763946533 5.595892906188965
v -0.002995755523443222 -0.31361082196235657 5.657423973083496
v 0.27702826261520386 -0.15193939208984375 5.657423973083496
v 0.27702826261520386 -0.15193939208984375 5.595892906188965
v 0.27702826261520386 -0.15193939208984375 5.595892906188965
v 0.32034817337989807 0.009732970967888832 5.657423973083496
v 0.32034817337989807 0.009732970967888832 5.595892906188965
v 0.27702826261520386 -0.15193939208984375 5.657423973083496
v 0.32034817337989807 0.009732970967888832 5.657423973083496
v 0.1998160183429718 0.12682616710662842 5.657423973083496
v 0.27702832221984863 0.17140503227710724 5.657423973083496
v 0.23119105398654938 0.009732665494084358 5.657423973083496
v 0.27702832221984863 0.17140503227710724 5.657423973083496
v 0.1140977293252945 0.2125445455312729 5.657423973083496
v 0.15867628157138824 0.28975677490234375 5.657423973083496
v 0.1998160183429718 0.12682616710662842 5.657423973083496
v -0.002995614428073168 0.24391905963420868 5.657423973083496
v -0.0029956193175166845 0.33307647705078125 5.657423973083496
v -0.0029956193175166845 0.33307647705078125 5.657423973083496
v -0.12008898705244064 0.2125445455312729 5.657423973083496
v -0.16466748714447021 0.28975677490234375 5.657423973083496
v -0.002995614428073168 0.24391905963420868 5.657423973083496
v -0.20580722391605377 0.12682616710662842 5.657423973083496
v -0.2830195426940918 0.17140503227710724 5.657423973083496
v -0.2830195426940918 0.17140503227710724 5.657423973083496
v -0.23718227446079254 0.009732665494084358 5.657423973083496
v -0.32633936405181885 0.009732970967888832 5.657423973083496
v -0.20580722391605377 0.12682616710662842 5.657423973083496
v -0.32633936405181885 0.009732970967888832 5.657423973083496
v -0.20580731332302094 -0.10736053436994553 5.657423973083496
v -0.2830195724964142 -0.15193846821784973 5.657423973083496
v -0.23718227446079254 0.009732665494084358 5.657423973083496
v -0.2830195724964142 -0.15193846821784973 5.657423973083496
v -0.12008900195360184 -0.1930789202451706 5.657423973083496
v -0.16466760635375977 -0.27029111981391907 5.657423973083496
v -0.20580731332302094 -0.10736053436994553 5.657423973083496
v -0.0029957119841128588 -0.2244543433189392 5.657423973083496
v -0.002995755523443222 -0.31361082196235657 5.657423973083496
v -0.002995755523443222 -0.31361082196235657 5.657423973083496
v 0.11409761756658554 -0.1930789202451706 5.657423973083496
v 0.15867610275745392 -0.27029111981391907 5.657423973083496
v -0.0029957119841128588 -0.2244543433189392 5.657423973083496
v 0.19981598854064941 -0.10736053436994553 5.657423973083496
v 0.27702826261520386 -0.15193939208984375 5.657423973083496
v 0.27702826261520386 -0.15193939208984375 5.657423973083496
v 0.23119105398654938 0.009732665494084358 5.657423973083496
v 0.32034817337989807 0.009732970967888832 5.657423973083496
v 0.19981598854064941 -0.10736053436994553 5.657423973083496
v 0.3203481137752533 1.6024384498596191 3.508436441421509
v 0.27702829241752625 1.7641103267669678 3.5699679851531982
v 0.27702829241752625 1.7641103267669678 3.508436441421509
v 0.3203481137752533 1.6024384498596191 3.5699679851531982
v 0.27702829241752625 1.7641103267669678 3.508436441421509
v 0.15867625176906586 1.8824622631072998 3.5699682235717773
v 0.15867625176906586 1.8824621438980103 3.508436441421509
v 0.27702829241752625 1.7641103267669678 3.5699679851531982
v -0.0029956193175166845 1.9257820844650269 3.5699679851531982
v -0.0029956193175166845 1.9257820844650269 3.508436441421509
v -0.0029956193175166845 1.9257820844650269 3.508436441421509
v -0.16466748714447021 1.8824621438980103 3.5699682235717773
v -0.16466748714447021 1.8824621438980103 3.508436441421509
v -0.0029956193175166845 1.9257820844650269 3.5699679851531982
v -0.2830195128917694 1.7641103267669678 3.5699679851531982
v -0.2830195128917694 1.7641103267669678 3.508436441421509
v -0.2830195128917694 1.7641103267669678 3.508436441421509
v -0.32633933424949646 1.6024384498596191 3.5699679851531982
v -0.32633933424949646 1.6024384498596191 3.508436441421509
v -0.2830195128917694 1.7641103267669678 3.5699679851531982
v -0.32633933424949646 1.6024384498596191 3.508436441421509
v -0.2830195426940918 1.44076669216156 3.5699682235717773
v -0.2830195426940918 1.440766453742981 3.508436441421509
v -0.32633933424949646 1.6024384498596191 3.5699679851531982
v -0.2830195426940918 1.440766453742981 3.508436441421509
v -0.16466757655143738 1.322414517402649 3.5699682235717773
v -0.16466757655143738 1.322414517402649 3.508436441421509
v -0.2830195426940918 1.44076669216156 3.5699682235717773
v -0.002995755523443222 1.2790944576263428 3.5699682235717773
v -0.002995755523443222 1.2790944576263428 3.508436441421509
v -0.002995755523443222 1.2790944576263428 3.508436441421509
v 0.15867610275745392 1.3224143981933594 3.5699682235717773
v 0.15867610275745392 1.3224141597747803 3.508436441421509
v -0.002995755523443222 1.2790944576263428 3.5699682235717773
v 0.2770282030105591 1.4407662153244019 3.5699682235717773
v 0.2770282030105591 1.4407662153244019 3.508436441421509
v 0.2770282030105591 1.4407662153244019 3.508436441421509
v 0.3203481137752533 1.6024384498596191 3.5699679851531982
v 0.3203481137752533 1.6024384498596191 3.508436441421509
v 0.2770282030105591 1.4407662153244019 3.5699682235717773
v 0.3203481137752533 1.6024384498596191 3.5699679851531982
v 0.19981598854064941 1.7195316553115845 3.5699679851531982
v 0.27702829241752625 1.7641103267669678 3.5699679851531982
v 0.23119105398654938 1.60243821144104 3.5699682235717773
v 0.27702829241752625 1.7641103267669678 3.5699679851531982
v 0.1140977293252945 1.8052499294281006 3.5699679851531982
v 0.15867625176906586 1.8824622631072998 3.5699682235717773
v 0.19981598854064941 1.7195316553115845 3.5699679851531982
v -0.002995614428073168 1.8366247415542603 3.5699679851531982
v -0.0029956193175166845 1.9257820844650269 3.5699679851531982
v -0.0029956193175166845 1.9257820844650269 3.5699679851531982
v -0.12008896470069885 1.8052499294281006 3.5699679851531982
v -0.16466748714447021 1.8824621438980103 3.5699682235717773
v -0.002995614428073168 1.8366247415542603 3.5699679851531982
v -0.20580720901489258 1.7195316553115845 3.5699679851531982
v -0.2830195128917694 1.7641103267669678 3.5699679851531982
v -0.2830195128917694 1.7641103267669678 3.5699679851531982
v -0.23718227446079254 1.60243821144104 3.5699682235717773
v -0.32633933424949646 1.6024384498596191 3.5699679851531982
v -0.20580720901489258 1.7195316553115845 3.5699679851531982
v -0.32633933424949646 1.6024384498596191 3.5699679851531982
v -0.20580728352069855 1.4853447675704956 3.5699682235717773
v -0.2830195426940918 1.44076669216156 3.5699682235717773
v -0.23718227446079254 1.60243821144104 3.5699682235717773
v -0.2830195426940918 1.44076669216156 3.5699682235717773
v -0.12008900195360184 1.3996267318725586 3.5699682235717773
v -0.16466757655143738 1.322414517402649 3.5699682235717773
v -0.20580728352069855 1.4853447675704956 3.5699682235717773
v -0.0029957119841128588 1.3682514429092407 3.5699682235717773
v -0.002995755523443222 1.2790944576263428 3.5699682235717773
v -0.002995755523443222 1.2790944576263428 3.5699682235717773
v 0.11409761756658554 1.399626612663269 3.5699682235717773
v 0.15867610275745392 1.3224143981933594 3.5699682235717773
v -0.0029957119841128588 1.3682514429092407 3.5699682235717773
v 0.19981595873832703 1.485344648361206 3.5699682235717773
v 0.2770282030105591 1.4407662153244019 3.5699682235717773
v 0.2770282030105591 1.4407662153244019 3.5699682235717773
v 0.23119105398654938 1.60243821144104 3.5699682235717773
v 0.3203481137752533 1.6024384498596191 3.5699679851531982
v 0.19981595873832703 1.485344648361206 3.5699682235717773
v 0.32034817337989807 0.009732970967888832 5.4737348556518555
v 0.27702832221984863 0.17140503227710724 5.535265922546387
v 0.27702832221984863 0.17140503227710724 5.4737348556518555
v 0.32034817337989807 0.009732970967888832 5.535265922546387
v 0.27702832221984863 0.17140503227710724 5.4737348556518555
v 0.15867628157138824 0.28975677490234375 5.535265922546387
v 0.15867628157138824 0.28975677490234375 5.4737348556518555
v 0.27702832221984863 0.17140503227710724 5.535265922546387
v -0.0029956193175166845 0.33307647705078125 5.535265922546387
v -0.0029956193175166845 0.33307647705078125 5.4737348556518555
v -0.0029956193175166845 0.33307647705078125 5.4737348556518555
v -0.16466748714447021 0.28975677490234375 5.535265922546387
v -0.16466748714447021 0.28975677490234375 5.4737348556518555
v -0.0029956193175166845 0.33307647705078125 5.535265922546387
v -0.2830195426940918 0.17140503227710724 5.535265922546387
v -0.2830195426940918 0.17140503227710724 5.4737348556518555
v -0.2830195426940918 0.17140503227710724 5.4737348556518555
v -0.32633936405181885 0.009732970967888832 5.535265922546387
v -0.32633936405181885 0.009732970967888832 5.4737348556518555
v -0.2830195426940918 0.17140503227710724 5.535265922546387
v -0.32633936405181885 0.009732970967888832 5.4737348556518555
v -0.2830195724964142 -0.15193846821784973 5.535265922546387
v -0.2830195724964142 -0.15193939208984375 5.4737348556518555
v -0.32633936405181885 0.009732970967888832 5.535265922546387
v -0.2830195724964142 -0.15193939208984375 5.4737348556518555
v -0.16466760635375977 -0.27029111981391907 5.535265922546387
v -0.16466760635375977 -0.27029111981391907 5.4737348556518555
v -0.2830195724964142 -0.15193846821784973 5.535265922546387
v -0.002995755523443222 -0.31361082196235657 5.535265922546387
v -0.002995755523443222 -0.31361082196235657 5.4737348556518555
v -0.002995755523443222 -0.31361082196235657 5.4737348556518555
v 0.15867610275745392 -0.27029111981391907 5.535265922546387
v 0.15867610275745392 -0.27029144763946533 5.4737348556518555
v -0.002995755523443222 -0.31361082196235657 5.535265922546387
v 0.27702826261520386 -0.15193939208984375 5.535265922546387
v 0.27702826261520386 -0.15193939208984375 5.4737348556518555
v 0.27702826261520386 -0.15193939208984375 5.4737348556518555
v 0.32034817337989807 0.009732970967888832 5.535265922546387
v 0.32034817337989807 0.009732970967888832 5.4737348556518555
v 0.27702826261520386 -0.15193939208984375 5.535265922546387
v 0.32034817337989807 0.009732970967888832 5.535265922546387
v 0.1998160183429718 0.12682616710662842 5.535265922546387
v 0.27702832221984863 0.17140503227710724 5.535265922546387
v 0.23119105398654938 0.009732665494084358 5.535265922546387
v 0.27702832221984863 0.17140503227710724 5.535265922546387
v 0.1140977293252945 0.2125445455312729 5.535265922546387
v 0.15867628157138824 0.28975677490234375 5.535265922546387
v 0.1998160183429718 0.12682616710662842 5.535265922546387
v -0.002995614428073168 0.24391905963420868 5.535265922546387
v -0.0029956193175166845 0.33307647705078125 5.535265922546387
v -0.0029956193175166845 0.33307647705078125 5.535265922546387
v -0.12008898705244064 0.2125445455312729 5.535265922546387
v -0.16466748714447021 0.28975677490234375 5.535265922546387
v -0.002995614428073168 0.24391905963420868 5.535265922546387
v -0.20580722391605377 0.12682616710662842 5.535265922546387
v -0.2830195426940918 0.17140503227710724 5.535265922546387
v -0.2830195426940918 0.17140503227710724 5.535265922546387
v -0.23718227446079254 0.009732665494084358 5.535265922546387
v -0.32633936405181885 0.009732970967888832 5.535265922546387
v -0.20580722391605377 0.12682616710662842 5.535265922546387
v -0.32633936405181885 0.009732970967888832 5.535265922546387
v -0.20580731332302094 -0.10736053436994553 5.535265922546387
v -0.2830195724964142 -0.15193846821784973 5.535265922546387
v -0.23718227446079254 0.009732665494084358 5.535265922546387
v -0.2830195724964142 -0.15193846821784973 5.535265922546387
v -0.12008900195360184 -0.1930789202451706 5.535265922546387
v -0.16466760635375977 -0.27029111981391907 5.535265922546387
v -0.20580731332302094 -0.10736053436994553 5.535265922546387
v -0.0029957119841128588 -0.2244543433189392 5.535265922546387
v -0.002995755523443222 -0.31361082196235657 5.535265922546387
v -0.002995755523443222 -0.31361082196235657 5.535265922546387
v 0.11409761756658554 -0.1930789202451706 5.535265922546387
v 0.15867610275745392 -0.27029111981391907 5.535265922546387
v -0.0029957119841128588 -0.2244543433189392 5.535265922546387
v 0.19981598854064941 -0.10736053436994553 5.535265922546387
v 0.27702826261520386 -0.15193939208984375 5.535265922546387
v 0.27702826261520386 -0.15193939208984375 5.535265922546387
v 0.23119105398654938 0.009732665494084358 5.535265922546387
v 0.32034817337989807 0.009732970967888832 5.535265922546387
v 0.19981598854064941 -0.10736053436994553 5.535265922546387
vn -0.0 2.3360869363386882e-06 -1.0
vn -0.7477566003799438 0.168660968542099 -0.642194390296936
vn -4.690497803494509e-07 0.25401991605758667 -0.9671990275382996
vn -0.7071071863174438 1.2884918305644533e-06 -0.707106351852417
vn -0.9981620907783508 -0.015393770299851894 0.05861220508813858
vn -1.0 5.05137165873748e-07 1.3553727740145405e-06
vn -0.6855931878089905 -0.1849178820848465 0.7041075229644775
vn -0.70710688829422 2.26023189497937e-06 0.7071066498756409
vn -0.0 -0.2540125548839569 0.9672009348869324
vn -0.0 3.1694144126959145e-06 1.0
vn -0.7364543080329895 0.44073230028152466 -0.5132154226303101
vn -2.995898569224664e-07 0.6515011191368103 -0.7586476802825928
vn -0.9989019632339478 -0.030522746965289116 0.035542916506528854
vn -0.68889981508255 -0.47224387526512146 0.5499115586280823
vn -0.0 -0.6515001058578491 0.7586485743522644
vn -0.7516921162605286 0.6103773713111877 -0.24979691207408905
vn -0.0 0.9254946708679199 -0.3787604570388794
vn -0.9978860020637512 -0.060146741569042206 0.02461537905037403
vn -0.6847559809684753 -0.674475908279419 0.2760278880596161
vn 1.1465207450100934e-07 -0.9254963994026184 0.3787563741207123
vn -0.714352548122406 0.6986973285675049 -0.03901832178235054
vn -0.0 0.9984443783760071 -0.055757977068424225
vn -0.9999079704284668 -0.013549422845244408 0.0007570791058242321
vn -0.7007654309272766 -0.7122818827629089 0.039776865392923355
vn 2.1894173585224053e-07 -0.9984443783760071 0.05575696751475334
vn -0.0 3.1694144126959145e-06 1.0
vn 0.6855936050415039 -0.18491770327091217 0.7041071653366089
vn -0.0 -0.2540125548839569 0.9672009348869324
vn 0.7071075439453125 1.8975847524416167e-06 0.7071060538291931
vn 0.9981622099876404 -0.015393570065498352 0.05861206352710724
vn 1.0 3.3780941066652304e-07 1.1602812719502253e-06
vn 0.7477564811706543 0.1686611771583557 -0.6421944499015808
vn 0.70710688829422 1.6563004692216055e-06 -0.7071066498756409
vn -4.690497803494509e-07 0.25401991605758667 -0.9671990275382996
vn -0.0 2.3360869363386882e-06 -1.0
vn 0.6889001727104187 -0.47224387526512146 0.5499111413955688
vn -0.0 -0.6515001058578491 0.7586485743522644
vn 0.9989019632339478 -0.030522728338837624 0.03554220870137215
vn 0.7364543080329895 0.44073155522346497 -0.5132160782814026
vn -2.995898569224664e-07 0.6515011191368103 -0.7586476802825928
vn 0.6847561597824097 -0.674475908279419 0.27602753043174744
vn 1.1465207450100934e-07 -0.9254963994026184 0.3787563741207123
vn 0.9978860020637512 -0.06014645844697952 0.024614758789539337
vn 0.7516920566558838 0.610377311706543 -0.24979718029499054
vn -0.0 0.9254946708679199 -0.3787604570388794
vn 0.7007656693458557 -0.7122818231582642 0.03977608308196068
vn 2.1894173585224053e-07 -0.9984443783760071 0.05575696751475334
vn 0.9999079704284668 -0.013549269177019596 0.0007561055244877934
vn 0.7143526077270508 0.6986972689628601 -0.039018984884023666
vn -0.0 0.9984443783760071 -0.055757977068424225
vn -0.714352548122406 0.6986973285675049 -0.03901832178235054
vn -0.0 1.0 0.0
vn -0.0 0.9984443783760071 -0.055757977068424225
vn -0.7036815881729126 0.7105154991149902 4.7527564106530917e-07
vn -0.9999768733978271 0.006801358889788389 6.575834277100512e-07
vn -0.9999079704284668 -0.013549422845244408 0.0007570791058242321
vn -0.7104832530021667 -0.7037141919136047 4.852785764342116e-07
vn -0.7007654309272766 -0.7122818827629089 0.039776865392923355
vn 2.1894173585224053e-07 -0.9984443783760071 0.05575696751475334
vn 1.0198616706702524e-07 -1.0 0.0
vn 0.7007656693458557 -0.7122818231582642 0.03977608308196068
vn 1.0198616706702524e-07 -1.0 0.0
vn 2.1894173585224053e-07 -0.9984443783760071 0.05575696751475334
vn 0.7104832530021667 -0.7037140727043152 -4.42845930592739e-07
vn 0.9999079704284668 -0.013549269177019596 0.0007561055244877934
vn 0.9999768733978271 0.006801295559853315 -6.490080863841285e-07
vn 0.7143526077270508 0.6986972689628601 -0.039018984884023666
vn 0.7036814093589783 0.7105156779289246 -4.405432036946877e-07
vn -0.0 0.9984443783760071 -0.055757977068424225
vn -0.0 1.0 0.0
vn -3.901828335983737e-07 -9.015847695081902e-07 -1.0
vn -0.7477570176124573 -0.16866031289100647 -0.6421940326690674
vn -0.7071068286895752 0.0 -0.7071066498756409
vn -1.8761995761451544e-06 -0.25401970744132996 -0.9671990275382996
vn -0.9981622099876404 0.015393822453916073 0.058612160384655
vn -1.0 -3.464299993538589e-07 1.6018043424992356e-06
vn -0.6855931282043457 0.18491806089878082 0.7041075825691223
vn -0.7071066498756409 -1.5321844557547593e-06 0.7071068286895752
vn -1.587499411925819e-07 0.25401318073272705 0.9672006964683533
vn -0.0 -2.194860599047388e-06 1.0
vn -0.7364547252655029 -0.4407326877117157 -0.5132145881652832
vn -1.1584139656406478e-06 -0.6515017747879028 -0.758647084236145
vn -0.9989019632339478 0.030522286891937256 0.03554261848330498
vn -0.6888996362686157 0.4722439646720886 0.5499118566513062
vn -0.0 0.6514999866485596 0.7586485743522644
vn -0.751691997051239 -0.6103779673576355 -0.24979597330093384
vn 1.497883630463548e-07 -0.9254949688911438 -0.37875983119010925
vn -0.9978860020637512 0.060146231204271317 0.024615418165922165
vn -0.6847559809684753 0.6744760274887085 0.2760278880596161
vn 1.0032052699671112e-07 0.9254963397979736 0.37875640392303467
vn -0.714352548122406 -0.6986973285675049 -0.03901813551783562
vn 1.4204343301571498e-07 -0.9984443783760071 -0.05575752258300781
vn -0.9999079704284668 0.01354943122714758 0.0007571160094812512
vn -0.700765073299408 0.7122822999954224 0.039777111262083054
vn -0.0 0.9984443783760071 0.055756889283657074
vn -0.0 -2.194860599047388e-06 1.0
vn 0.6855937242507935 0.18491807579994202 0.7041069865226746
vn 0.707107424736023 -1.2574932952702511e-06 0.7071061134338379
vn -1.587499411925819e-07 0.25401318073272705 0.9672006964683533
vn 0.9981622099876404 0.015393581241369247 0.05861188843846321
vn 1.0 -2.309813993406351e-07 1.1089415465903585e-06
vn 0.7477564215660095 -0.1686611771583557 -0.6421946287155151
vn 0.7071067690849304 -9.848583886196138e-07 -0.7071067690849304
vn -1.8761995761451544e-06 -0.25401970744132996 -0.9671990275382996
vn -3.901828335983737e-07 -9.015847695081902e-07 -1.0
vn 0.6888999938964844 0.4722442030906677 0.5499110221862793
vn -0.0 0.6514999866485596 0.7586485743522644
vn 0.9989019632339478 0.030522696673870087 0.03554196283221245
vn 0.7364540100097656 -0.4407317340373993 -0.5132162570953369
vn -1.1584139656406478e-06 -0.6515017747879028 -0.758647084236145
vn 0.6847561001777649 0.6744760274887085 0.2760275900363922
vn 1.0032052699671112e-07 0.9254963397979736 0.37875640392303467
vn 0.9978860020637512 0.06014607101678848 0.02461451105773449
vn 0.7516918182373047 -0.6103775501251221 -0.24979712069034576
vn 1.497883630463548e-07 -0.9254949688911438 -0.37875983119010925
vn 0.7007653117179871 0.712282121181488 0.03977615758776665
vn -0.0 0.9984443783760071 0.055756889283657074
vn 0.9999079704284668 0.013549155555665493 0.0007561140228062868
vn 0.7143524885177612 -0.6986973285675049 -0.03901880234479904
vn 1.4204343301571498e-07 -0.9984443783760071 -0.05575752258300781
vn -0.714352548122406 -0.6986973285675049 -0.03901813551783562
vn -2.258955049683209e-07 -1.0 0.0
vn -0.7071069478988647 -0.7071065902709961 3.150996121803473e-07
vn 1.4204343301571498e-07 -0.9984443783760071 -0.05575752258300781
vn -1.0 0.0 4.6700816369593667e-07
vn -0.9999079704284668 0.01354943122714758 0.0007571160094812512
vn -0.7071061730384827 0.7071073055267334 3.1262268862519704e-07
vn -0.700765073299408 0.7122822999954224 0.039777111262083054
vn -0.0 0.9984443783760071 0.055756889283657074
vn 1.1294766721903216e-07 1.0 0.0
vn 0.7007653117179871 0.712282121181488 0.03977615758776665
vn 1.1294766721903216e-07 1.0 0.0
vn 0.707106351852417 0.7071071267127991 -3.200175626716373e-07
vn -0.0 0.9984443783760071 0.055756889283657074
vn 0.9999079704284668 0.013549155555665493 0.0007561140228062868
vn 1.0 -3.183072578849533e-07 -4.742167334370606e-07
vn 0.7143524885177612 -0.6986973285675049 -0.03901880234479904
vn 0.7071066498756409 -0.70710688829422 -3.313944887395337e-07
vn 1.4204343301571498e-07 -0.9984443783760071 -0.05575752258300781
vn -2.258955049683209e-07 -1.0 0.0
vn -0.7071069478988647 -0.7071065902709961 3.150996121803473e-07
vn -0.0 -1.0 0.0
vn -0.7071068286895752 -0.7071066498756409 3.758761977223912e-07
vn -2.258955049683209e-07 -1.0 0.0
vn -1.0 0.0 4.6700816369593667e-07
vn -1.0 0.0 4.5731286490990897e-07
vn -0.7071061730384827 0.7071073055267334 3.1262268862519704e-07
vn -0.7071065902709961 0.7071069478988647 3.0870197065269167e-07
vn 1.1294766721903216e-07 1.0 0.0
vn -0.0 1.0 0.0
vn 0.707106351852417 0.7071071267127991 -3.200175626716373e-07
vn -0.0 1.0 0.0
vn 0.7071064710617065 0.7071070075035095 -3.5873571846423147e-07
vn 1.1294766721903216e-07 1.0 0.0
vn 1.0 -3.183072578849533e-07 -4.742167334370606e-07
vn 1.0 -2.5798289016165654e-07 -4.54030271157535e-07
vn 0.7071066498756409 -0.70710688829422 -3.313944887395337e-07
vn 0.7071066498756409 -0.70710688829422 -3.2236380320682656e-07
vn -2.258955049683209e-07 -1.0 0.0
vn -0.0 -1.0 0.0
vn 1.0 0.0 0.0
vn 0.8660252690315247 0.5000002980232239 0.0
vn 0.8660252690315247 0.5000002980232239 -2.035708632774913e-07
vn 1.0 -1.448599107334303e-07 0.0
vn 0.8660252690315247 0.5000002980232239 -2.035708632774913e-07
vn 0.49999940395355225 0.8660258054733276 -1.944023779287818e-06
vn 0.4999997615814209 0.8660256266593933 -1.8695124026635312e-06
vn 0.8660252690315247 0.5000002980232239 0.0
vn -0.0 1.0 -2.7808235358861566e-07
vn -0.0 1.0 0.0
vn -0.0 1.0 0.0
vn -0.49999991059303284 0.866025447845459 0.0
vn -0.49999991059303284 0.8660255074501038 0.0
vn -0.0 1.0 -2.7808235358861566e-07
vn -0.8660250902175903 0.5000006556510925 0.0
vn -0.8660252690315247 0.5000004172325134 0.0
vn -0.8660252690315247 0.5000004172325134 0.0
vn -1.0 0.0 0.0
vn -1.0 1.0803118044577786e-07 1.490237053758392e-07
vn -0.8660250902175903 0.5000006556510925 0.0
vn -1.0 1.0803118044577786e-07 1.490237053758392e-07
vn -0.8660260438919067 -0.4999988079071045 2.3307975425268523e-06
vn -0.866025447845459 -0.5 2.0726852199004497e-06
vn -1.0 0.0 0.0
vn -0.866025447845459 -0.5 2.0726852199004497e-06
vn -0.5000004172325134 -0.8660252690315247 4.0714076021686196e-07
vn -0.5000002384185791 -0.8660252690315247 0.0
vn -0.8660260438919067 -0.4999988079071045 2.3307975425268523e-06
vn -4.9105085508927e-07 -1.0 0.0
vn -5.401559519668808e-07 -1.0 2.780827799142571e-07
vn -5.401559519668808e-07 -1.0 2.780827799142571e-07
vn 0.4999994933605194 -0.8660256862640381 1.8695106973609654e-06
vn 0.49999913573265076 -0.8660258650779724 1.944023779287818e-06
vn -4.9105085508927e-07 -1.0 0.0
vn 0.8660252690315247 -0.5000002980232239 2.0357073537979886e-07
vn 0.866025447845459 -0.5 0.0
vn 0.866025447845459 -0.5 0.0
vn 1.0 -1.448599107334303e-07 0.0
vn 1.0 0.0 0.0
vn 0.8660252690315247 -0.5000002980232239 2.0357073537979886e-07
vn -0.0 0.0 1.0
vn -0.0 0.0 1.0
vn -0.0 0.0 1.0
vn 3.422888312343275e-06 3.523415898598614e-06 1.0
vn -8.71001589075604e-07 -3.449548330536345e-06 1.0
vn -8.710017027624417e-07 -3.449548330536345e-06 1.0
vn -8.71001589075604e-07 -3.449548330536345e-06 1.0
vn -0.0 0.0 1.0
vn -1.887624193841475e-06 0.0 1.0
vn -1.887624193841475e-06 0.0 1.0
vn 2.5518968413962284e-06 -2.4790892894088756e-06 1.0
vn 2.5518968413962284e-06 -2.4790892894088756e-06 1.0
vn 2.5518968413962284e-06 -2.4790892894088756e-06 1.0
vn -0.0 0.0 1.0
vn -9.438157348995446e-07 -1.6347308928743587e-06 1.0
vn -9.438158485863823e-07 -1.6347308928743587e-06 1.0
vn -3.422897407290293e-06 9.171621968562249e-07 1.0
vn -3.4228971799166175e-06 9.171621968562249e-07 1.0
vn -3.4228971799166175e-06 9.171621968562249e-07 1.0
vn 1.3031329899604316e-06 2.2570841338165337e-06 1.0
vn -9.438051620236365e-07 1.634734417166328e-06 1.0
vn -9.438051620236365e-07 1.634734417166328e-06 1.0
vn -9.438051620236365e-07 1.6347343034794903e-06 1.0
vn -3.4229040011268808e-06 -9.171620263259683e-07 1.0
vn -0.0 0.0 1.0
vn -0.0 0.0 1.0
vn -0.0 0.0 1.0
vn -0.0 0.0 1.0
vn -0.0 0.0 1.0
vn -0.0 0.0 1.0
vn -0.0 0.0 1.0
vn -0.0 0.0 1.0
vn -0.0 0.0 1.0
vn -0.0 0.0 1.0
vn -0.0 0.0 1.0
vn -0.0 0.0 1.0
vn 3.4228976346639683e-06 9.704585863801185e-07 1.0
vn 3.4228971799166175e-06 9.704585863801185e-07 1.0
vn 3.422897407290293e-06 9.704587000669562e-07 1.0
vn -0.0 0.0 1.0
vn 1.0 0.0 0.0
vn 0.8660252690315247 0.5000003576278687 0.0
vn 0.8660252690315247 0.5000004172325134 0.0
vn 1.0 -1.2767328883001028e-07 0.0
vn 0.8660252690315247 0.5000004172325134 0.0
vn 0.49999913573265076 0.8660258650779724 0.0
vn 0.4999990463256836 0.866025984287262 0.0
vn 0.8660252690315247 0.5000003576278687 0.0
vn -0.0 1.0 0.0
vn -0.0 1.0 0.0
vn -0.0 1.0 0.0
vn -0.49999913573265076 0.8660258650779724 0.0
vn -0.499999076128006 0.866025984287262 0.0
vn -0.0 1.0 0.0
vn -0.8660252690315247 0.5000004172325134 0.0
vn -0.8660252690315247 0.5000003576278687 0.0
vn -0.8660252690315247 0.5000003576278687 0.0
vn -1.0 -5.106931553200411e-07 0.0
vn -1.0 -1.5713627021796128e-07 4.4707070401273086e-07
vn -0.8660252690315247 0.5000004172325134 0.0
vn -1.0 -1.5713627021796128e-07 4.4707070401273086e-07
vn -0.8660274147987366 -0.4999966025352478 6.992356702539837e-06
vn -0.8660251498222351 -0.5000004768371582 6.218059297680156e-06
vn -1.0 -5.106931553200411e-07 0.0
vn -0.8660251498222351 -0.5000004768371582 6.218059297680156e-06
vn -0.49999961256980896 -0.8660256266593933 1.2214211437822087e-06
vn -0.4999992549419403 -0.8660258054733276 0.0
vn -0.8660274147987366 -0.4999966025352478 6.992356702539837e-06
vn -0.0 -1.0 0.0
vn -2.2588332626582996e-07 -1.0 5.561653892982577e-07
vn -2.2588332626582996e-07 -1.0 5.561653892982577e-07
vn 0.49999871850013733 -0.8660261631011963 3.739025032700738e-06
vn 0.49999794363975525 -0.8660265803337097 3.88804983231239e-06
vn -0.0 -1.0 0.0
vn 0.8660253286361694 -0.5000001788139343 4.0714186866352975e-07
vn 0.866025447845459 -0.4999999701976776 0.0
vn 0.866025447845459 -0.4999999701976776 0.0
vn 1.0 -1.2767328883001028e-07 0.0
vn 1.0 0.0 0.0
vn 0.8660253286361694 -0.5000001788139343 4.0714186866352975e-07
vn -9.438169286113407e-07 1.6347277096429025e-06 1.0
vn -9.438169854547596e-07 1.6347278233297402e-06 1.0
vn -9.438169854547596e-07 1.6347277096429025e-06 1.0
vn -0.0 2.606254611237091e-06 1.0
vn -8.710028396308189e-07 -3.4495542422519065e-06 1.0
vn -8.710028396308189e-07 -3.449554014878231e-06 1.0
vn -8.710028396308189e-07 -3.4495542422519065e-06 1.0
vn -0.0 0.0 1.0
vn -1.8876239664677996e-06 0.0 1.0
vn -1.887623852780962e-06 0.0 1.0
vn 2.5518932034174213e-06 -2.4790922452666564e-06 1.0
vn 2.5518932034174213e-06 -2.479092472640332e-06 1.0
vn 2.5518932034174213e-06 -2.479092017892981e-06 1.0
vn -0.0 0.0 1.0
vn -9.438176675757859e-07 -1.634728732824442e-06 1.0
vn -9.438177244192048e-07 -1.6347288465112797e-06 1.0
vn -0.0 1.887620555862668e-06 1.0
vn -0.0 1.887620555862668e-06 1.0
vn -0.0 1.887620555862668e-06 1.0
vn 1.3031366279392387e-06 2.2570834516955074e-06 1.0
vn -0.0 0.0 1.0
vn -0.0 0.0 1.0
vn -0.0 0.0 1.0
vn -0.0 0.0 1.0
vn -0.0 0.0 1.0
vn -0.0 0.0 1.0
vn -0.0 0.0 1.0
vn -0.0 0.0 1.0
vn -0.0 0.0 1.0
vn -0.0 0.0 1.0
vn -0.0 0.0 1.0
vn -0.0 0.0 1.0
vn -0.0 0.0 1.0
vn -0.0 0.0 1.0
vn -0.0 0.0 1.0
vn -0.0 0.0 1.0
vn -0.0 0.0 1.0
vn -0.0 0.0 1.0
vn -0.0 0.0 1.0
vn -0.0 0.0 1.0
vn 1.0 0.0 0.0
vn 0.8660252690315247 0.5000002980232239 0.0
vn 0.8660252690315247 0.5000002980232239 -2.035708632774913e-07
vn 1.0 -1.448599107334303e-07 0.0
vn 0.8660252690315247 0.5000002980232239 -2.035708632774913e-07
vn 0.49999940395355225 0.8660258054733276 -1.944023779287818e-06
vn 0.4999997615814209 0.8660256266593933 -1.8695124026635312e-06
vn 0.8660252690315247 0.5000002980232239 0.0
vn -0.0 1.0 -2.7808235358861566e-07
vn -0.0 1.0 0.0
vn -0.0 1.0 0.0
vn -0.49999991059303284 0.866025447845459 0.0
vn -0.49999991059303284 0.8660255074501038 0.0
vn -0.0 1.0 -2.7808235358861566e-07
vn -0.8660250902175903 0.5000006556510925 0.0
vn -0.8660252690315247 0.5000004172325134 0.0
vn -0.8660252690315247 0.5000004172325134 0.0
vn -1.0 0.0 0.0
vn -1.0 1.0803118044577786e-07 1.490237053758392e-07
vn -0.8660250902175903 0.5000006556510925 0.0
vn -1.0 1.0803118044577786e-07 1.490237053758392e-07
vn -0.8660260438919067 -0.4999988079071045 2.3307975425268523e-06
vn -0.866025447845459 -0.5 2.0726852199004497e-06
vn -1.0 0.0 0.0
vn -0.866025447845459 -0.5 2.0726852199004497e-06
vn -0.5000004172325134 -0.8660252690315247 4.0714076021686196e-07
vn -0.5000002384185791 -0.8660252690315247 0.0
vn -0.8660260438919067 -0.4999988079071045 2.3307975425268523e-06
vn -4.9105085508927e-07 -1.0 0.0
vn -5.401559519668808e-07 -1.0 2.780827799142571e-07
vn -5.401559519668808e-07 -1.0 2.780827799142571e-07
vn 0.4999994933605194 -0.8660256862640381 1.8695106973609654e-06
vn 0.49999913573265076 -0.8660258650779724 1.944023779287818e-06
vn -4.9105085508927e-07 -1.0 0.0
vn 0.8660252690315247 -0.5000002980232239 2.0357073537979886e-07
vn 0.866025447845459 -0.5 0.0
vn 0.866025447845459 -0.5 0.0
vn 1.0 -1.448599107334303e-07 0.0
vn 1.0 0.0 0.0
vn 0.8660252690315247 -0.5000002980232239 2.0357073537979886e-07
vn -0.0 0.0 1.0
vn -0.0 0.0 1.0
vn -0.0 0.0 1.0
vn 3.422888312343275e-06 3.523415898598614e-06 1.0
vn -8.71001589075604e-07 -3.449548330536345e-06 1.0
vn -8.710017027624417e-07 -3.449548330536345e-06 1.0
vn -8.71001589075604e-07 -3.449548330536345e-06 1.0
vn -0.0 0.0 1.0
vn -1.887624193841475e-06 0.0 1.0
vn -1.887624193841475e-06 0.0 1.0
vn 2.5518968413962284e-06 -2.4790892894088756e-06 1.0
vn 2.5518968413962284e-06 -2.4790892894088756e-06 1.0
vn 2.5518968413962284e-06 -2.4790892894088756e-06 1.0
vn -0.0 0.0 1.0
vn -9.438157348995446e-07 -1.6347308928743587e-06 1.0
vn -9.438158485863823e-07 -1.6347308928743587e-06 1.0
vn -3.422897407290293e-06 9.171621968562249e-07 1.0
vn -3.4228971799166175e-06 9.171621968562249e-07 1.0
vn -3.4228971799166175e-06 9.171621968562249e-07 1.0
vn 1.3031329899604316e-06 2.2570841338165337e-06 1.0
vn -9.438051620236365e-07 1.634734417166328e-06 1.0
vn -9.438051620236365e-07 1.634734417166328e-06 1.0
vn -9.438051620236365e-07 1.6347343034794903e-06 1.0
vn -3.4229040011268808e-06 -9.171620263259683e-07 1.0
vn -0.0 0.0 1.0
vn -0.0 0.0 1.0
vn -0.0 0.0 1.0
vn -0.0 0.0 1.0
vn -0.0 0.0 1.0
vn -0.0 0.0 1.0
vn -0.0 0.0 1.0
vn -0.0 0.0 1.0
vn -0.0 0.0 1.0
vn -0.0 0.0 1.0
vn -0.0 0.0 1.0
vn -0.0 0.0 1.0
vn 3.4228976346639683e-06 9.704585863801185e-07 1.0
vn 3.4228971799166175e-06 9.704585863801185e-07 1.0
vn 3.422897407290293e-06 9.704587000669562e-07 1.0
vn -0.0 0.0 1.0
vn 1.0 0.0 0.0
vn 0.8660252690315247 0.5000003576278687 0.0
vn 0.8660252690315247 0.5000004172325134 0.0
vn 1.0 -1.2767328883001028e-07 0.0
vn 0.8660252690315247 0.5000004172325134 0.0
vn 0.49999913573265076 0.8660258650779724 0.0
vn 0.4999990463256836 0.866025984287262 0.0
vn 0.8660252690315247 0.5000003576278687 0.0
vn -0.0 1.0 0.0
vn -0.0 1.0 0.0
vn -0.0 1.0 0.0
vn -0.49999913573265076 0.8660258650779724 0.0
vn -0.499999076128006 0.866025984287262 0.0
vn -0.0 1.0 0.0
vn -0.8660252690315247 0.5000004172325134 0.0
vn -0.8660252690315247 0.5000003576278687 0.0
vn -0.8660252690315247 0.5000003576278687 0.0
vn -1.0 -5.106931553200411e-07 0.0
vn -1.0 -1.5713627021796128e-07 4.4707070401273086e-07
vn -0.8660252690315247 0.5000004172325134 0.0
vn -1.0 -1.5713627021796128e-07 4.4707070401273086e-07
vn -0.8660274147987366 -0.4999966025352478 6.992356702539837e-06
vn -0.8660251498222351 -0.5000004768371582 6.218059297680156e-06
vn -1.0 -5.106931553200411e-07 0.0
vn -0.8660251498222351 -0.5000004768371582 6.218059297680156e-06
vn -0.49999961256980896 -0.8660256266593933 1.2214211437822087e-06
vn -0.4999992549419403 -0.8660258054733276 0.0
vn -0.8660274147987366 -0.4999966025352478 6.992356702539837e-06
vn -0.0 -1.0 0.0
vn -2.2588332626582996e-07 -1.0 5.561653892982577e-07
vn -2.2588332626582996e-07 -1.0 5.561653892982577e-07
vn 0.49999871850013733 -0.8660261631011963 3.739025032700738e-06
vn 0.49999794363975525 -0.8660265803337097 3.88804983231239e-06
vn -0.0 -1.0 0.0
vn 0.8660253286361694 -0.5000001788139343 4.0714186866352975e-07
vn 0.866025447845459 -0.4999999701976776 0.0
vn 0.866025447845459 -0.4999999701976776 0.0
vn 1.0 -1.2767328883001028e-07 0.0
vn 1.0 0.0 0.0
vn 0.8660253286361694 -0.5000001788139343 4.0714186866352975e-07
vn -9.438169286113407e-07 1.6347277096429025e-06 1.0
vn -9.438169854547596e-07 1.6347278233297402e-06 1.0
vn -9.438169854547596e-07 1.6347277096429025e-06 1.0
vn -0.0 2.606254611237091e-06 1.0
vn -8.710028396308189e-07 -3.4495542422519065e-06 1.0
vn -8.710028396308189e-07 -3.449554014878231e-06 1.0
vn -8.710028396308189e-07 -3.4495542422519065e-06 1.0
vn -0.0 0.0 1.0
vn -1.8876239664677996e-06 0.0 1.0
vn -1.887623852780962e-06 0.0 1.0
vn 2.5518932034174213e-06 -2.4790922452666564e-06 1.0
vn 2.5518932034174213e-06 -2.479092472640332e-06 1.0
vn 2.5518932034174213e-06 -2.479092017892981e-06 1.0
vn -0.0 0.0 1.0
vn -9.438176675757859e-07 -1.634728732824442e-06 1.0
vn -9.438177244192048e-07 -1.6347288465112797e-06 1.0
vn -0.0 1.887620555862668e-06 1.0
vn -0.0 1.887620555862668e-06 1.0
vn -0.0 1.887620555862668e-06 1.0
vn 1.3031366279392387e-06 2.2570834516955074e-06 1.0
vn -0.0 0.0 1.0
vn -0.0 0.0 1.0
vn -0.0 0.0 1.0
vn -0.0 0.0 1.0
vn -0.0 0.0 1.0
vn -0.0 0.0 1.0
vn -0.0 0.0 1.0
vn -0.0 0.0 1.0
vn -0.0 0.0 1.0
vn -0.0 0.0 1.0
vn -0.0 0.0 1.0
vn -0.0 0.0 1.0
vn -0.0 0.0 1.0
vn -0.0 0.0 1.0
vn -0.0 0.0 1.0
vn -0.0 0.0 1.0
vn -0.0 0.0 1.0
vn -0.0 0.0 1.0
vn -0.0 0.0 1.0
vn -0.0 0.0 1.0
vt 0.17966754734516144 0.34591132402420044
vt 0.13642960786819458 0.5131552219390869
vt 0.17966754734516144 0.5131552219390869
vt 0.13642960786819458 0.34591132402420044
vt 0.09319138526916504 0.5131552219390869
vt 0.09319138526916504 0.34591132402420044
vt 0.049953192472457886 0.5131552219390869
vt 0.04995342344045639 0.34591132402420044
vt 0.006715215742588043 0.5131552219390869
vt 0.006715215742588043 0.34591132402420044
vt 0.13642960786819458 0.5648177564144135
vt 0.17966754734516144 0.5648177564144135
vt 0.09319138526916504 0.5648177564144135
vt 0.049953192472457886 0.5648177564144135
vt 0.006715215742588043 0.5648177564144135
vt 0.13642960786819458 0.6199819147586823
vt 0.17966754734516144 0.6199819147586823
vt 0.09319138526916504 0.6199819147586823
vt 0.049953192472457886 0.6199819147586823
vt 0.006715215742588043 0.6199819147586823
vt 0.13642960786819458 0.6659232676029205
vt 0.17966754734516144 0.6659232676029205
vt 0.09319138526916504 0.6659232676029205
vt 0.049953192472457886 0.6659232676029205
vt 0.006715215742588043 0.6659232676029205
vt 0.17966803908348083 0.34591132402420044
vt 0.1364300549030304 0.5131552219390869
vt 0.17966803908348083 0.5131552219390869
vt 0.1364300549030304 0.34591132402420044
vt 0.09319186955690384 0.5131552219390869
vt 0.09319186955690384 0.34591132402420044
vt 0.049953654408454895 0.5131552219390869
vt 0.049953654408454895 0.34591132402420044
vt 0.006715688854455948 0.5131552219390869
vt 0.006715688854455948 0.34591132402420044
vt 0.13642984628677368 0.5648177564144135
vt 0.17966803908348083 0.5648177564144135
vt 0.09319186955690384 0.5648177564144135
vt 0.049953654408454895 0.5648177564144135
vt 0.006715688854455948 0.5648177564144135
vt 0.13642984628677368 0.6199819147586823
vt 0.17966803908348083 0.6199819147586823
vt 0.09319186955690384 0.6199819147586823
vt 0.049953654408454895 0.6199819147586823
vt 0.006715688854455948 0.6199819147586823
vt 0.13642984628677368 0.6659232676029205
vt 0.17966803908348083 0.6659232676029205
vt 0.09319186955690384 0.6659232676029205
vt 0.049953654408454895 0.6659232676029205
vt 0.006715688854455948 0.6659232676029205
vt 0.13667498528957367 0.3464634418487549
vt 0.17991292476654053 0.5657118856906891
vt 0.17991292476654053 0.3464634418487549
vt 0.13667498528957367 0.5657118856906891
vt 0.09343676269054413 0.5657118856906891
vt 0.09343676269054413 0.3464634418487549
vt 0.05019856244325638 0.5657118856906891
vt 0.05019856244325638 0.3464634418487549
vt 0.006960593163967133 0.3464634418487549
vt 0.006960593163967133 0.5657118856906891
vt 0.13667522370815277 0.3466535210609436
vt 0.17991340160369873 0.5657118856906891
vt 0.17991340160369873 0.3466535210609436
vt 0.13667522370815277 0.5657118856906891
vt 0.09343723952770233 0.3466535210609436
vt 0.09343723952770233 0.5657118856906891
vt 0.05019903928041458 0.3466535210609436
vt 0.05019903928041458 0.5657118856906891
vt 0.006961066275835037 0.3466535210609436
vt 0.006960831582546234 0.5657118856906891
vt 0.17966754734516144 0.34591132402420044
vt 0.13642960786819458 0.5131552219390869
vt 0.13642960786819458 0.34591132402420044
vt 0.17966754734516144 0.5131552219390869
vt 0.09319138526916504 0.5131552219390869
vt 0.09319138526916504 0.34591132402420044
vt 0.049953192472457886 0.5131552219390869
vt 0.04995342344045639 0.34591132402420044
vt 0.006715215742588043 0.5131552219390869
vt 0.006715215742588043 0.34591132402420044
vt 0.13642960786819458 0.5648177564144135
vt 0.17966754734516144 0.5648177564144135
vt 0.09319138526916504 0.5648177564144135
vt 0.049953192472457886 0.5648177564144135
vt 0.006715215742588043 0.5648177564144135
vt 0.13642960786819458 0.6199819147586823
vt 0.17966754734516144 0.6199819147586823
vt 0.09319138526916504 0.6199819147586823
vt 0.049953192472457886 0.6199819147586823
vt 0.006715215742588043 0.6199819147586823
vt 0.13642960786819458 0.6659232676029205
vt 0.17966754734516144 0.6659232676029205
vt 0.09319138526916504 0.6659232676029205
vt 0.049953192472457886 0.6659232676029205
vt 0.006715215742588043 0.6659232676029205
vt 0.17966803908348083 0.34591132402420044
vt 0.1364300549030304 0.5131552219390869
vt 0.1364300549030304 0.34591132402420044
vt 0.17966803908348083 0.5131552219390869
vt 0.09319186955690384 0.5131552219390869
vt 0.09319186955690384 0.34591132402420044
vt 0.049953654408454895 0.5131552219390869
vt 0.049953654408454895 0.34591132402420044
vt 0.006715688854455948 0.5131552219390869
vt 0.006715688854455948 0.34591132402420044
vt 0.13642984628677368 0.5648177564144135
vt 0.17966803908348083 0.5648177564144135
vt 0.09319186955690384 0.5648177564144135
vt 0.049953654408454895 0.5648177564144135
vt 0.006715688854455948 0.5648177564144135
vt 0.13642984628677368 0.6199819147586823
vt 0.17966803908348083 0.6199819147586823
vt 0.09319186955690384 0.6199819147586823
vt 0.049953654408454895 0.6199819147586823
vt 0.006715688854455948 0.6199819147586823
vt 0.13642984628677368 0.6659232676029205
vt 0.17966803908348083 0.6659232676029205
vt 0.09319186955690384 0.6659232676029205
vt 0.049953654408454895 0.6659232676029205
vt 0.006715688854455948 0.6659232676029205
vt 0.13667498528957367 0.3464634418487549
vt 0.17991292476654053 0.6657119989395142
vt 0.13667498528957367 0.6657119989395142
vt 0.17991292476654053 0.3464634418487549
vt 0.09343676269054413 0.6657119989395142
vt 0.09343676269054413 0.3464634418487549
vt 0.05019856244325638 0.6657119989395142
vt 0.05019856244325638 0.3464634418487549
vt 0.006960593163967133 0.3464634418487549
vt 0.006960593163967133 0.6657119989395142
vt 0.13667522370815277 0.3467402458190918
vt 0.17991340160369873 0.6657119989395142
vt 0.13667522370815277 0.6657119989395142
vt 0.17991340160369873 0.3467402458190918
vt 0.09343723952770233 0.3467402458190918
vt 0.09343723952770233 0.6657119989395142
vt 0.05019903928041458 0.3467402458190918
vt 0.05019903928041458 0.6657119989395142
vt 0.006961066275835037 0.3467402458190918
vt 0.006960831582546234 0.6657119989395142
vt 0.13642960786819458 0.34591132402420044
vt 0.17966754734516144 0.6656926572322845
vt 0.13642960786819458 0.6656926572322845
vt 0.17966754734516144 0.34591132402420044
vt 0.09319138526916504 0.34591132402420044
vt 0.09319138526916504 0.6656926572322845
vt 0.049953192472457886 0.34591132402420044
vt 0.049953192472457886 0.6656926572322845
vt 0.006715215742588043 0.34591132402420044
vt 0.006715215742588043 0.6656926572322845
vt 0.13642984628677368 0.34591132402420044
vt 0.17966803908348083 0.6656926572322845
vt 0.13642984628677368 0.6656926572322845
vt 0.17966803908348083 0.34591132402420044
vt 0.09319186955690384 0.34591132402420044
vt 0.09319186955690384 0.6656926572322845
vt 0.049953654408454895 0.34591132402420044
vt 0.049953654408454895 0.6656926572322845
vt 0.006715688854455948 0.34591132402420044
vt 0.006715454161167145 0.6656926572322845
vt 0.7813412547111511 0.527858555316925
vt 0.842662513256073 0.5111731886863708
vt 0.842662513256073 0.527858555316925
vt 0.7813412547111511 0.5111731886863708
vt 0.7200199961662292 0.527858555316925
vt 0.7813412547111511 0.5111731886863708
vt 0.7813412547111511 0.527858555316925
vt 0.7200199961662292 0.5111731886863708
vt 0.842662513256073 0.5111731886863708
vt 0.842662513256073 0.527858555316925
vt 0.7200199961662292 0.527858555316925
vt 0.7813412547111511 0.5111731886863708
vt 0.7813412547111511 0.527858555316925
vt 0.7200199961662292 0.5111731886863708
vt 0.842662513256073 0.5111731886863708
vt 0.842662513256073 0.527858555316925
vt 0.7200199961662292 0.527858555316925
vt 0.7813412547111511 0.5111731886863708
vt 0.7813412547111511 0.527858555316925
vt 0.7200199961662292 0.5111731886863708
vt 0.7813412547111511 0.527858555316925
vt 0.842662513256073 0.5111731886863708
vt 0.842662513256073 0.527858555316925
vt 0.7813412547111511 0.5111731886863708
vt 0.7200199961662292 0.527858555316925
vt 0.7813412547111511 0.5111731886863708
vt 0.7813412547111511 0.527858555316925
vt 0.7200199961662292 0.5111731886863708
vt 0.842662513256073 0.5111731886863708
vt 0.842662513256073 0.527858555316925
vt 0.7200199961662292 0.527858555316925
vt 0.7813412547111511 0.5111731886863708
vt 0.7813412547111511 0.527858555316925
vt 0.7200199961662292 0.5111731886863708
vt 0.842662513256073 0.5111731886863708
vt 0.842662513256073 0.527858555316925
vt 0.7200199961662292 0.527858555316925
vt 0.7813412547111511 0.5111731886863708
vt 0.7813412547111511 0.527858555316925
vt 0.7200199961662292 0.5111731886863708
vt 0.7813412547111511 0.5111731886863708
vt 0.8354887366294861 0.4707343578338623
vt 0.842662513256073 0.5111731886863708
vt 0.7813412547111511 0.4707343578338623
vt 0.7200199961662292 0.5111731886863708
vt 0.7813412547111511 0.4707343578338623
vt 0.7813412547111511 0.5111731886863708
vt 0.7271937727928162 0.4707343578338623
vt 0.8354887366294861 0.4707343578338623
vt 0.842662513256073 0.5111731886863708
vt 0.7200199961662292 0.5111731886863708
vt 0.7813412547111511 0.4707343578338623
vt 0.7813412547111511 0.5111731886863708
vt 0.7271937727928162 0.4707343578338623
vt 0.8354887366294861 0.4707343578338623
vt 0.842662513256073 0.5111731886863708
vt 0.7200199961662292 0.5111731886863708
vt 0.7813412547111511 0.4707343578338623
vt 0.7813412547111511 0.5111731886863708
vt 0.7271937727928162 0.4707343578338623
vt 0.7813412547111511 0.5111731886863708
vt 0.8354887366294861 0.4707343578338623
vt 0.842662513256073 0.5111731886863708
vt 0.7813412547111511 0.4707343578338623
vt 0.7200199961662292 0.5111731886863708
vt 0.7813412547111511 0.4707343578338623
vt 0.7813412547111511 0.5111731886863708
vt 0.7271937727928162 0.4707343578338623
vt 0.8354887366294861 0.4707343578338623
vt 0.842662513256073 0.5111731886863708
vt 0.7200199961662292 0.5111731886863708
vt 0.7813412547111511 0.4707343578338623
vt 0.7813412547111511 0.5111731886863708
vt 0.7271937727928162 0.4707343578338623
vt 0.8354887366294861 0.4707343578338623
vt 0.842662513256073 0.5111731886863708
vt 0.7200199961662292 0.5111731886863708
vt 0.7813412547111511 0.4707343578338623
vt 0.7813412547111511 0.5111731886863708
vt 0.7271937727928162 0.4707343578338623
vt 0.7813412547111511 0.527858555316925
vt 0.842662513256073 0.5111731886863708
vt 0.842662513256073 0.527858555316925
vt 0.7813412547111511 0.5111731886863708
vt 0.7200199961662292 0.527858555316925
vt 0.7813412547111511 0.5111731886863708
vt 0.7813412547111511 0.527858555316925
vt 0.7200199961662292 0.5111731886863708
vt 0.842662513256073 0.5111731886863708
vt 0.842662513256073 0.527858555316925
vt 0.7200199961662292 0.527858555316925
vt 0.7813412547111511 0.5111731886863708
vt 0.7813412547111511 0.527858555316925
vt 0.7200199961662292 0.5111731886863708
vt 0.842662513256073 0.5111731886863708
vt 0.842662513256073 0.527858555316925
vt 0.7200199961662292 0.527858555316925
vt 0.7813412547111511 0.5111731886863708
vt 0.7813412547111511 0.527858555316925
vt 0.7200199961662292 0.5111731886863708
vt 0.7813412547111511 0.527858555316925
vt 0.842662513256073 0.5111731886863708
vt 0.842662513256073 0.527858555316925
vt 0.7813412547111511 0.5111731886863708
vt 0.7200199961662292 0.527858555316925
vt 0.7813412547111511 0.5111731886863708
vt 0.7813412547111511 0.527858555316925
vt 0.7200199961662292 0.5111731886863708
vt 0.842662513256073 0.5111731886863708
vt 0.842662513256073 0.527858555316925
vt 0.7200199961662292 0.527858555316925
vt 0.7813412547111511 0.5111731886863708
vt 0.7813412547111511 0.527858555316925
vt 0.7200199961662292 0.5111731886863708
vt 0.842662513256073 0.5111731886863708
vt 0.842662513256073 0.527858555316925
vt 0.7200199961662292 0.527858555316925
vt 0.7813412547111511 0.5111731886863708
vt 0.7813412547111511 0.527858555316925
vt 0.7200199961662292 0.5111731886863708
vt 0.7813412547111511 0.5111731886863708
vt 0.8354887366294861 0.4707343578338623
vt 0.842662513256073 0.5111731886863708
vt 0.7813412547111511 0.4707343578338623
vt 0.7200199961662292 0.5111731886863708
vt 0.7813412547111511 0.4707343578338623
vt 0.7813412547111511 0.5111731886863708
vt 0.7271937727928162 0.4707343578338623
vt 0.8354887366294861 0.4707343578338623
vt 0.842662513256073 0.5111731886863708
vt 0.7200199961662292 0.5111731886863708
vt 0.7813412547111511 0.4707343578338623
vt 0.7813412547111511 0.5111731886863708
vt 0.7271937727928162 0.4707343578338623
vt 0.8354887366294861 0.4707343578338623
vt 0.842662513256073 0.5111731886863708
vt 0.7200199961662292 0.5111731886863708
vt 0.7813412547111511 0.4707343578338623
vt 0.7813412547111511 0.5111731886863708
vt 0.7271937727928162 0.4707343578338623
vt 0.7813412547111511 0.5111731886863708
vt 0.8354887366294861 0.4707343578338623
vt 0.842662513256073 0.5111731886863708
vt 0.7813412547111511 0.4707343578338623
vt 0.7200199961662292 0.5111731886863708
vt 0.7813412547111511 0.4707343578338623
vt 0.7813412547111511 0.5111731886863708
vt 0.7271937727928162 0.4707343578338623
vt 0.8354887366294861 0.4707343578338623
vt 0.842662513256073 0.5111731886863708
vt 0.7200199961662292 0.5111731886863708
vt 0.7813412547111511 0.4707343578338623
vt 0.7813412547111511 0.5111731886863708
vt 0.7271937727928162 0.4707343578338623
vt 0.8354887366294861 0.4707343578338623
vt 0.842662513256073 0.5111731886863708
vt 0.7200199961662292 0.5111731886863708
vt 0.7813412547111511 0.4707343578338623
vt 0.7813412547111511 0.5111731886863708
vt 0.7271937727928162 0.4707343578338623
vt 0.7813412547111511 0.527858555316925
vt 0.842662513256073 0.5111731886863708
vt 0.842662513256073 0.527858555316925
vt 0.7813412547111511 0.5111731886863708
vt 0.7200199961662292 0.527858555316925
vt 0.7813412547111511 0.5111731886863708
vt 0.7813412547111511 0.527858555316925
vt 0.7200199961662292 0.5111731886863708
vt 0.842662513256073 0.5111731886863708
vt 0.842662513256073 0.527858555316925
vt 0.7200199961662292 0.527858555316925
vt 0.7813412547111511 0.5111731886863708
vt 0.7813412547111511 0.527858555316925
vt 0.7200199961662292 0.5111731886863708
vt 0.842662513256073 0.5111731886863708
vt 0.842662513256073 0.527858555316925
vt 0.7200199961662292 0.527858555316925
vt 0.7813412547111511 0.5111731886863708
vt 0.7813412547111511 0.527858555316925
vt 0.7200199961662292 0.5111731886863708
vt 0.7813412547111511 0.527858555316925
vt 0.842662513256073 0.5111731886863708
vt 0.842662513256073 0.527858555316925
vt 0.7813412547111511 0.5111731886863708
vt 0.7200199961662292 0.527858555316925
vt 0.7813412547111511 0.5111731886863708
vt 0.7813412547111511 0.527858555316925
vt 0.7200199961662292 0.5111731886863708
vt 0.842662513256073 0.5111731886863708
vt 0.842662513256073 0.527858555316925
vt 0.7200199961662292 0.527858555316925
vt 0.7813412547111511 0.5111731886863708
vt 0.7813412547111511 0.527858555316925
vt 0.7200199961662292 0.5111731886863708
vt 0.842662513256073 0.5111731886863708
vt 0.842662513256073 0.527858555316925
vt 0.7200199961662292 0.527858555316925
vt 0.7813412547111511 0.5111731886863708
vt 0.7813412547111511 0.527858555316925
vt 0.7200199961662292 0.5111731886863708
vt 0.7813412547111511 0.5111731886863708
vt 0.8354887366294861 0.4707343578338623
vt 0.842662513256073 0.5111731886863708
vt 0.7813412547111511 0.4707343578338623
vt 0.7200199961662292 0.5111731886863708
vt 0.7813412547111511 0.4707343578338623
vt 0.7813412547111511 0.5111731886863708
vt 0.7271937727928162 0.4707343578338623
vt 0.8354887366294861 0.4707343578338623
vt 0.842662513256073 0.5111731886863708
vt 0.7200199961662292 0.5111731886863708
vt 0.7813412547111511 0.4707343578338623
vt 0.7813412547111511 0.5111731886863708
vt 0.7271937727928162 0.4707343578338623
vt 0.8354887366294861 0.4707343578338623
vt 0.842662513256073 0.5111731886863708
vt 0.7200199961662292 0.5111731886863708
vt 0.7813412547111511 0.4707343578338623
vt 0.7813412547111511 0.5111731886863708
vt 0.7271937727928162 0.4707343578338623
vt 0.7813412547111511 0.5111731886863708
vt 0.8354887366294861 0.4707343578338623
vt 0.842662513256073 0.5111731886863708
vt 0.7813412547111511 0.4707343578338623
vt 0.7200199961662292 0.5111731886863708
vt 0.7813412547111511 0.4707343578338623
vt 0.7813412547111511 0.5111731886863708
vt 0.7271937727928162 0.4707343578338623
vt 0.8354887366294861 0.4707343578338623
vt 0.842662513256073 0.5111731886863708
vt 0.7200199961662292 0.5111731886863708
vt 0.7813412547111511 0.4707343578338623
vt 0.7813412547111511 0.5111731886863708
vt 0.7271937727928162 0.4707343578338623
vt 0.8354887366294861 0.4707343578338623
vt 0.842662513256073 0.5111731886863708
vt 0.7200199961662292 0.5111731886863708
vt 0.7813412547111511 0.4707343578338623
vt 0.7813412547111511 0.5111731886863708
vt 0.7271937727928162 0.4707343578338623
vt 0.7813412547111511 0.527858555316925
vt 0.842662513256073 0.5111731886863708
vt 0.842662513256073 0.527858555316925
vt 0.7813412547111511 0.5111731886863708
vt 0.7200199961662292 0.527858555316925
vt 0.7813412547111511 0.5111731886863708
vt 0.7813412547111511 0.527858555316925
vt 0.7200199961662292 0.5111731886863708
vt 0.842662513256073 0.5111731886863708
vt 0.842662513256073 0.527858555316925
vt 0.7200199961662292 0.527858555316925
vt 0.7813412547111511 0.5111731886863708
vt 0.7813412547111511 0.527858555316925
vt 0.7200199961662292 0.5111731886863708
vt 0.842662513256073 0.5111731886863708
vt 0.842662513256073 0.527858555316925
vt 0.7200199961662292 0.527858555316925
vt 0.7813412547111511 0.5111731886863708
vt 0.7813412547111511 0.527858555316925
vt 0.7200199961662292 0.5111731886863708
vt 0.7813412547111511 0.527858555316925
vt 0.842662513256073 0.5111731886863708
vt 0.842662513256073 0.527858555316925
vt 0.7813412547111511 0.5111731886863708
vt 0.7200199961662292 0.527858555316925
vt 0.7813412547111511 0.5111731886863708
vt 0.7813412547111511 0.527858555316925
vt 0.7200199961662292 0.5111731886863708
vt 0.842662513256073 0.5111731886863708
vt 0.842662513256073 0.527858555316925
vt 0.7200199961662292 0.527858555316925
vt 0.7813412547111511 0.5111731886863708
vt 0.7813412547111511 0.527858555316925
vt 0.7200199961662292 0.5111731886863708
vt 0.842662513256073 0.5111731886863708
vt 0.842662513256073 0.527858555316925
vt 0.7200199961662292 0.527858555316925
vt 0.7813412547111511 0.5111731886863708
vt 0.7813412547111511 0.527858555316925
vt 0.7200199961662292 0.5111731886863708
vt 0.7813412547111511 0.5111731886863708
vt 0.8354887366294861 0.4707343578338623
vt 0.842662513256073 0.5111731886863708
vt 0.7813412547111511 0.4707343578338623
vt 0.7200199961662292 0.5111731886863708
vt 0.7813412547111511 0.4707343578338623
vt 0.7813412547111511 0.5111731886863708
vt 0.7271937727928162 0.4707343578338623
vt 0.8354887366294861 0.4707343578338623
vt 0.842662513256073 0.5111731886863708
vt 0.7200199961662292 0.5111731886863708
vt 0.7813412547111511 0.4707343578338623
vt 0.7813412547111511 0.5111731886863708
vt 0.7271937727928162 0.4707343578338623
vt 0.8354887366294861 0.4707343578338623
vt 0.842662513256073 0.5111731886863708
vt 0.7200199961662292 0.5111731886863708
vt 0.7813412547111511 0.4707343578338623
vt 0.7813412547111511 0.5111731886863708
vt 0.7271937727928162 0.4707343578338623
vt 0.7813412547111511 0.5111731886863708
vt 0.8354887366294861 0.4707343578338623
vt 0.842662513256073 0.5111731886863708
vt 0.7813412547111511 0.4707343578338623
vt 0.7200199961662292 0.5111731886863708
vt 0.7813412547111511 0.4707343578338623
vt 0.7813412547111511 0.5111731886863708
vt 0.7271937727928162 0.4707343578338623
vt 0.8354887366294861 0.4707343578338623
vt 0.842662513256073 0.5111731886863708
vt 0.7200199961662292 0.5111731886863708
vt 0.7813412547111511 0.4707343578338623
vt 0.7813412547111511 0.5111731886863708
vt 0.7271937727928162 0.4707343578338623
vt 0.8354887366294861 0.4707343578338623
vt 0.842662513256073 0.5111731886863708
vt 0.7200199961662292 0.5111731886863708
vt 0.7813412547111511 0.4707343578338623
vt 0.7813412547111511 0.5111731886863708
vt 0.7271937727928162 0.4707343578338623

g bg_mdl_map_pipe10
s 1
usemtl bg_mdl_map_pipe10
f 3/3/3 2/2/2 1/1/1 
f 4/4/4 1/1/1 2/2/2 
f 2/2/2 5/5/5 4/4/4 
f 6/6/6 4/4/4 5/5/5 
f 5/5/5 7/7/7 6/6/6 
f 8/8/8 6/6/6 7/7/7 
f 7/7/7 9/9/9 8/8/8 
f 10/10/10 8/8/8 9/9/9 
f 2/2/2 3/3/3 11/11/11 
f 12/12/12 11/11/11 3/3/3 
f 11/11/11 13/13/13 2/2/2 
f 5/5/5 2/2/2 13/13/13 
f 13/13/13 14/14/14 5/5/5 
f 7/7/7 5/5/5 14/14/14 
f 14/14/14 15/15/15 7/7/7 
f 9/9/9 7/7/7 15/15/15 
f 11/11/11 12/12/12 16/16/16 
f 17/17/17 16/16/16 12/12/12 
f 16/16/16 18/18/18 11/11/11 
f 13/13/13 11/11/11 18/18/18 
f 18/18/18 19/19/19 13/13/13 
f 14/14/14 13/13/13 19/19/19 
f 19/19/19 20/20/20 14/14/14 
f 15/15/15 14/14/14 20/20/20 
f 16/16/16 17/17/17 21/21/21 
f 22/22/22 21/21/21 17/17/17 
f 21/21/21 23/23/23 16/16/16 
f 18/18/18 16/16/16 23/23/23 
f 23/23/23 24/24/24 18/18/18 
f 19/19/19 18/18/18 24/24/24 
f 24/24/24 25/25/25 19/19/19 
f 20/20/20 19/19/19 25/25/25 
f 28/28/28 27/27/27 26/26/26 
f 29/29/29 26/26/26 27/27/27 
f 27/27/27 30/30/30 29/29/29 
f 31/31/31 29/29/29 30/30/30 
f 30/30/30 32/32/32 31/31/31 
f 33/33/33 31/31/31 32/32/32 
f 32/32/32 34/34/34 33/33/33 
f 35/35/35 33/33/33 34/34/34 
f 27/27/27 28/28/28 36/36/36 
f 37/37/37 36/36/36 28/28/28 
f 36/36/36 38/38/38 27/27/27 
f 30/30/30 27/27/27 38/38/38 
f 38/38/38 39/39/39 30/30/30 
f 32/32/32 30/30/30 39/39/39 
f 39/39/39 40/40/40 32/32/32 
f 34/34/34 32/32/32 40/40/40 
f 36/36/36 37/37/37 41/41/41 
f 42/42/42 41/41/41 37/37/37 
f 41/41/41 43/43/43 36/36/36 
f 38/38/38 36/36/36 43/43/43 
f 43/43/43 44/44/44 38/38/38 
f 39/39/39 38/38/38 44/44/44 
f 44/44/44 45/45/45 39/39/39 
f 40/40/40 39/39/39 45/45/45 
f 41/41/41 42/42/42 46/46/46 
f 47/47/47 46/46/46 42/42/42 
f 46/46/46 48/48/48 41/41/41 
f 43/43/43 41/41/41 48/48/48 
f 48/48/48 49/49/49 43/43/43 
f 44/44/44 43/43/43 49/49/49 
f 49/49/49 50/50/50 44/44/44 
f 45/45/45 44/44/44 50/50/50 
f 53/53/53 52/52/52 51/51/51 
f 54/54/54 51/51/51 52/52/52 
f 54/54/54 55/55/55 51/51/51 
f 56/56/56 51/51/51 55/55/55 
f 55/55/55 57/57/57 56/56/56 
f 58/58/58 56/56/56 57/57/57 
f 58/58/58 57/57/57 59/59/59 
f 60/60/60 59/59/59 57/57/57 
f 63/63/63 62/62/62 61/61/61 
f 64/64/64 61/61/61 62/62/62 
f 61/61/61 64/64/64 65/65/65 
f 66/66/66 65/65/65 64/64/64 
f 65/65/65 66/66/66 67/67/67 
f 68/68/68 67/67/67 66/66/66 
f 67/67/67 68/68/68 69/69/69 
f 70/70/70 69/69/69 68/68/68 
f 73/73/73 72/72/72 71/71/71 
f 74/74/74 71/71/71 72/72/72 
f 72/72/72 73/73/73 75/75/75 
f 76/76/76 75/75/75 73/73/73 
f 75/75/75 76/76/76 77/77/77 
f 78/78/78 77/77/77 76/76/76 
f 77/77/77 78/78/78 79/79/79 
f 80/80/80 79/79/79 78/78/78 
f 72/72/72 81/81/81 74/74/74 
f 82/82/82 74/74/74 81/81/81 
f 75/75/75 83/83/83 72/72/72 
f 81/81/81 72/72/72 83/83/83 
f 77/77/77 84/84/84 75/75/75 
f 83/83/83 75/75/75 84/84/84 
f 79/79/79 85/85/85 77/77/77 
f 84/84/84 77/77/77 85/85/85 
f 81/81/81 86/86/86 82/82/82 
f 87/87/87 82/82/82 86/86/86 
f 83/83/83 88/88/88 81/81/81 
f 86/86/86 81/81/81 88/88/88 
f 84/84/84 89/89/89 83/83/83 
f 88/88/88 83/83/83 89/89/89 
f 85/85/85 90/90/90 84/84/84 
f 89/89/89 84/84/84 90/90/90 
f 86/86/86 91/91/91 87/87/87 
f 92/92/92 87/87/87 91/91/91 
f 88/88/88 93/93/93 86/86/86 
f 91/91/91 86/86/86 93/93/93 
f 89/89/89 94/94/94 88/88/88 
f 93/93/93 88/88/88 94/94/94 
f 90/90/90 95/95/95 89/89/89 
f 94/94/94 89/89/89 95/95/95 
f 98/98/98 97/97/97 96/96/96 
f 99/99/99 96/96/96 97/97/97 
f 97/97/97 98/98/98 100/100/100 
f 101/101/101 100/100/100 98/98/98 
f 100/100/100 101/101/101 102/102/102 
f 103/103/103 102/102/102 101/101/101 
f 102/102/102 103/103/103 104/104/104 
f 105/105/105 104/104/104 103/103/103 
f 97/97/97 106/106/106 99/99/99 
f 107/107/107 99/99/99 106/106/106 
f 100/100/100 108/108/108 97/97/97 
f 106/106/106 97/97/97 108/108/108 
f 102/102/102 109/109/109 100/100/100 
f 108/108/108 100/100/100 109/109/109 
f 104/104/104 110/110/110 102/102/102 
f 109/109/109 102/102/102 110/110/110 
f 106/106/106 111/111/111 107/107/107 
f 112/112/112 107/107/107 111/111/111 
f 108/108/108 113/113/113 106/106/106 
f 111/111/111 106/106/106 113/113/113 
f 109/109/109 114/114/114 108/108/108 
f 113/113/113 108/108/108 114/114/114 
f 110/110/110 115/115/115 109/109/109 
f 114/114/114 109/109/109 115/115/115 
f 111/111/111 116/116/116 112/112/112 
f 117/117/117 112/112/112 116/116/116 
f 113/113/113 118/118/118 111/111/111 
f 116/116/116 111/111/111 118/118/118 
f 114/114/114 119/119/119 113/113/113 
f 118/118/118 113/113/113 119/119/119 
f 115/115/115 120/120/120 114/114/114 
f 119/119/119 114/114/114 120/120/120 
f 123/123/123 122/122/122 121/121/121 
f 124/124/124 121/121/121 122/122/122 
f 123/123/123 121/121/121 125/125/125 
f 126/126/126 125/125/125 121/121/121 
f 125/125/125 126/126/126 127/127/127 
f 128/128/128 127/127/127 126/126/126 
f 128/128/128 129/129/129 127/127/127 
f 130/130/130 127/127/127 129/129/129 
f 133/133/133 132/132/132 131/131/131 
f 134/134/134 131/131/131 132/132/132 
f 131/131/131 135/135/135 133/133/133 
f 136/136/136 133/133/133 135/135/135 
f 135/135/135 137/137/137 136/136/136 
f 138/138/138 136/136/136 137/137/137 
f 137/137/137 139/139/139 138/138/138 
f 140/140/140 138/138/138 139/139/139 
f 143/143/143 142/142/142 141/141/141 
f 144/144/144 141/141/141 142/142/142 
f 141/141/141 145/145/145 143/143/143 
f 146/146/146 143/143/143 145/145/145 
f 145/145/145 147/147/147 146/146/146 
f 148/148/148 146/146/146 147/147/147 
f 147/147/147 149/149/149 148/148/148 
f 150/150/150 148/148/148 149/149/149 
f 153/153/153 152/152/152 151/151/151 
f 154/154/154 151/151/151 152/152/152 
f 151/151/151 155/155/155 153/153/153 
f 156/156/156 153/153/153 155/155/155 
f 155/155/155 157/157/157 156/156/156 
f 158/158/158 156/156/156 157/157/157 
f 157/157/157 159/159/159 158/158/158 
f 160/160/160 158/158/158 159/159/159 
f 163/163/163 162/162/162 161/161/161 
f 164/164/164 161/161/161 162/162/162 
f 167/167/167 166/166/166 165/165/165 
f 168/168/168 165/165/165 166/166/166 
f 166/166/166 167/167/167 169/169/169 
f 170/170/170 169/169/169 167/167/167 
f 173/173/173 172/172/172 171/171/171 
f 174/174/174 171/171/171 172/172/172 
f 172/172/172 173/173/173 175/175/175 
f 176/176/176 175/175/175 173/173/173 
f 179/179/179 178/178/178 177/177/177 
f 180/180/180 177/177/177 178/178/178 
f 183/183/183 182/182/182 181/181/181 
f 184/184/184 181/181/181 182/182/182 
f 187/187/187 186/186/186 185/185/185 
f 188/188/188 185/185/185 186/186/186 
f 186/186/186 187/187/187 189/189/189 
f 190/190/190 189/189/189 187/187/187 
f 193/193/193 192/192/192 191/191/191 
f 194/194/194 191/191/191 192/192/192 
f 192/192/192 193/193/193 195/195/195 
f 196/196/196 195/195/195 193/193/193 
f 199/199/199 198/198/198 197/197/197 
f 200/200/200 197/197/197 198/198/198 
f 203/203/203 202/202/202 201/201/201 
f 204/204/204 201/201/201 202/202/202 
f 207/207/207 206/206/206 205/205/205 
f 208/208/208 205/205/205 206/206/206 
f 206/206/206 207/207/207 209/209/209 
f 210/210/210 209/209/209 207/207/207 
f 213/213/213 212/212/212 211/211/211 
f 214/214/214 211/211/211 212/212/212 
f 212/212/212 213/213/213 215/215/215 
f 216/216/216 215/215/215 213/213/213 
f 219/219/219 218/218/218 217/217/217 
f 220/220/220 217/217/217 218/218/218 
f 223/223/223 222/222/222 221/221/221 
f 224/224/224 221/221/221 222/222/222 
f 227/227/227 226/226/226 225/225/225 
f 228/228/228 225/225/225 226/226/226 
f 226/226/226 227/227/227 229/229/229 
f 230/230/230 229/229/229 227/227/227 
f 233/233/233 232/232/232 231/231/231 
f 234/234/234 231/231/231 232/232/232 
f 232/232/232 233/233/233 235/235/235 
f 236/236/236 235/235/235 233/233/233 
f 239/239/239 238/238/238 237/237/237 
f 240/240/240 237/237/237 238/238/238 
f 243/243/243 242/242/242 241/241/241 
f 244/244/244 241/241/241 242/242/242 
f 247/247/247 246/246/246 245/245/245 
f 248/248/248 245/245/245 246/246/246 
f 246/246/246 247/247/247 249/249/249 
f 250/250/250 249/249/249 247/247/247 
f 253/253/253 252/252/252 251/251/251 
f 254/254/254 251/251/251 252/252/252 
f 252/252/252 253/253/253 255/255/255 
f 256/256/256 255/255/255 253/253/253 
f 259/259/259 258/258/258 257/257/257 
f 260/260/260 257/257/257 258/258/258 
f 263/263/263 262/262/262 261/261/261 
f 264/264/264 261/261/261 262/262/262 
f 267/267/267 266/266/266 265/265/265 
f 268/268/268 265/265/265 266/266/266 
f 266/266/266 267/267/267 269/269/269 
f 270/270/270 269/269/269 267/267/267 
f 273/273/273 272/272/272 271/271/271 
f 274/274/274 271/271/271 272/272/272 
f 272/272/272 273/273/273 275/275/275 
f 276/276/276 275/275/275 273/273/273 
f 279/279/279 278/278/278 277/277/277 
f 280/280/280 277/277/277 278/278/278 
f 283/283/283 282/282/282 281/281/281 
f 284/284/284 281/281/281 282/282/282 
f 287/287/287 286/286/286 285/285/285 
f 288/288/288 285/285/285 286/286/286 
f 286/286/286 287/287/287 289/289/289 
f 290/290/290 289/289/289 287/287/287 
f 293/293/293 292/292/292 291/291/291 
f 294/294/294 291/291/291 292/292/292 
f 292/292/292 293/293/293 295/295/295 
f 296/296/296 295/295/295 293/293/293 
f 299/299/299 298/298/298 297/297/297 
f 300/300/300 297/297/297 298/298/298 
f 303/303/303 302/302/302 301/301/301 
f 304/304/304 301/301/301 302/302/302 
f 307/307/307 306/306/306 305/305/305 
f 308/308/308 305/305/305 306/306/306 
f 306/306/306 307/307/307 309/309/309 
f 310/310/310 309/309/309 307/307/307 
f 313/313/313 312/312/312 311/311/311 
f 314/314/314 311/311/311 312/312/312 
f 312/312/312 313/313/313 315/315/315 
f 316/316/316 315/315/315 313/313/313 
f 319/319/319 318/318/318 317/317/317 
f 320/320/320 317/317/317 318/318/318 
f 323/323/323 322/322/322 321/321/321 
f 324/324/324 321/321/321 322/322/322 
f 327/327/327 326/326/326 325/325/325 
f 328/328/328 325/325/325 326/326/326 
f 326/326/326 327/327/327 329/329/329 
f 330/330/330 329/329/329 327/327/327 
f 333/333/333 332/332/332 331/331/331 
f 334/334/334 331/331/331 332/332/332 
f 332/332/332 333/333/333 335/335/335 
f 336/336/336 335/335/335 333/333/333 
f 339/339/339 338/338/338 337/337/337 
f 340/340/340 337/337/337 338/338/338 
f 343/343/343 342/342/342 341/341/341 
f 344/344/344 341/341/341 342/342/342 
f 347/347/347 346/346/346 345/345/345 
f 348/348/348 345/345/345 346/346/346 
f 346/346/346 347/347/347 349/349/349 
f 350/350/350 349/349/349 347/347/347 
f 353/353/353 352/352/352 351/351/351 
f 354/354/354 351/351/351 352/352/352 
f 352/352/352 353/353/353 355/355/355 
f 356/356/356 355/355/355 353/353/353 
f 359/359/359 358/358/358 357/357/357 
f 360/360/360 357/357/357 358/358/358 
f 363/363/363 362/362/362 361/361/361 
f 364/364/364 361/361/361 362/362/362 
f 367/367/367 366/366/366 365/365/365 
f 368/368/368 365/365/365 366/366/366 
f 366/366/366 367/367/367 369/369/369 
f 370/370/370 369/369/369 367/367/367 
f 373/373/373 372/372/372 371/371/371 
f 374/374/374 371/371/371 372/372/372 
f 372/372/372 373/373/373 375/375/375 
f 376/376/376 375/375/375 373/373/373 
f 379/379/379 378/378/378 377/377/377 
f 380/380/380 377/377/377 378/378/378 
f 383/383/383 382/382/382 381/381/381 
f 384/384/384 381/381/381 382/382/382 
f 387/387/387 386/386/386 385/385/385 
f 388/388/388 385/385/385 386/386/386 
f 386/386/386 387/387/387 389/389/389 
f 390/390/390 389/389/389 387/387/387 
f 393/393/393 392/392/392 391/391/391 
f 394/394/394 391/391/391 392/392/392 
f 392/392/392 393/393/393 395/395/395 
f 396/396/396 395/395/395 393/393/393 
f 399/399/399 398/398/398 397/397/397 
f 400/400/400 397/397/397 398/398/398 
f 403/403/403 402/402/402 401/401/401 
f 404/404/404 401/401/401 402/402/402 
f 407/407/407 406/406/406 405/405/405 
f 408/408/408 405/405/405 406/406/406 
f 406/406/406 407/407/407 409/409/409 
f 410/410/410 409/409/409 407/407/407 
f 413/413/413 412/412/412 411/411/411 
f 414/414/414 411/411/411 412/412/412 
f 412/412/412 413/413/413 415/415/415 
f 416/416/416 415/415/415 413/413/413 
f 419/419/419 418/418/418 417/417/417 
f 420/420/420 417/417/417 418/418/418 
f 423/423/423 422/422/422 421/421/421 
f 424/424/424 421/421/421 422/422/422 
f 427/427/427 426/426/426 425/425/425 
f 428/428/428 425/425/425 426/426/426 
f 426/426/426 427/427/427 429/429/429 
f 430/430/430 429/429/429 427/427/427 
f 433/433/433 432/432/432 431/431/431 
f 434/434/434 431/431/431 432/432/432 
f 432/432/432 433/433/433 435/435/435 
f 436/436/436 435/435/435 433/433/433 
f 439/439/439 438/438/438 437/437/437 
f 440/440/440 437/437/437 438/438/438 
f 443/443/443 442/442/442 441/441/441 
f 444/444/444 441/441/441 442/442/442 
f 447/447/447 446/446/446 445/445/445 
f 448/448/448 445/445/445 446/446/446 
f 446/446/446 447/447/447 449/449/449 
f 450/450/450 449/449/449 447/447/447 
f 453/453/453 452/452/452 451/451/451 
f 454/454/454 451/451/451 452/452/452 
f 452/452/452 453/453/453 455/455/455 
f 456/456/456 455/455/455 453/453/453 
f 459/459/459 458/458/458 457/457/457 
f 460/460/460 457/457/457 458/458/458 
f 463/463/463 462/462/462 461/461/461 
f 464/464/464 461/461/461 462/462/462 
f 467/467/467 466/466/466 465/465/465 
f 468/468/468 465/465/465 466/466/466 
f 466/466/466 467/467/467 469/469/469 
f 470/470/470 469/469/469 467/467/467 
f 473/473/473 472/472/472 471/471/471 
f 474/474/474 471/471/471 472/472/472 
f 472/472/472 473/473/473 475/475/475 
f 476/476/476 475/475/475 473/473/473 
f 479/479/479 478/478/478 477/477/477 
f 480/480/480 477/477/477 478/478/478 

